xof 0303txt 0032
template Vector {
 <3d82ab5e-62da-11cf-ab39-0020af71e433>
 FLOAT x;
 FLOAT y;
 FLOAT z;
}

template MeshFace {
 <3d82ab5f-62da-11cf-ab39-0020af71e433>
 DWORD nFaceVertexIndices;
 array DWORD faceVertexIndices[nFaceVertexIndices];
}

template Mesh {
 <3d82ab44-62da-11cf-ab39-0020af71e433>
 DWORD nVertices;
 array Vector vertices[nVertices];
 DWORD nFaces;
 array MeshFace faces[nFaces];
 [...]
}

template ColorRGBA {
 <35ff44e0-6c7c-11cf-8f52-0040333594a3>
 FLOAT red;
 FLOAT green;
 FLOAT blue;
 FLOAT alpha;
}

template ColorRGB {
 <d3e16e81-7835-11cf-8f52-0040333594a3>
 FLOAT red;
 FLOAT green;
 FLOAT blue;
}

template Material {
 <3d82ab4d-62da-11cf-ab39-0020af71e433>
 ColorRGBA faceColor;
 FLOAT power;
 ColorRGB specularColor;
 ColorRGB emissiveColor;
 [...]
}

template MeshMaterialList {
 <f6f23f42-7686-11cf-8f52-0040333594a3>
 DWORD nMaterials;
 DWORD nFaceIndexes;
 array DWORD faceIndexes[nFaceIndexes];
 [Material <3d82ab4d-62da-11cf-ab39-0020af71e433>]
}

template TextureFilename {
 <a42790e1-7810-11cf-8f52-0040333594a3>
 STRING filename;
}

template Coords2d {
 <f6f23f44-7686-11cf-8f52-0040333594a3>
 FLOAT u;
 FLOAT v;
}

template MeshTextureCoords {
 <f6f23f40-7686-11cf-8f52-0040333594a3>
 DWORD nTextureCoords;
 array Coords2d textureCoords[nTextureCoords];
}

template MeshNormals {
 <f6f23f43-7686-11cf-8f52-0040333594a3>
 DWORD nNormals;
 array Vector normals[nNormals];
 DWORD nFaceNormals;
 array MeshFace faceNormals[nFaceNormals];
}


Mesh  {
 112;
 -0.450000;-15.000000;2.500000;,
 -0.450000;-15.000000;3.400000;,
 0.450000;-15.000000;3.400000;,
 0.450000;-15.000000;2.500000;,
 -0.450000;-0.900000;2.500000;,
 -0.450000;-0.900000;3.400000;,
 0.450000;-0.900000;3.400000;,
 0.450000;-0.900000;2.500000;,
 -0.450000;-15.000000;15.000000;,
 -0.450000;-15.000000;15.900000;,
 0.450000;-15.000000;15.900000;,
 0.450000;-15.000000;15.000000;,
 -0.450000;-0.900000;15.000000;,
 -0.450000;-0.900000;15.900000;,
 0.450000;-0.900000;15.900000;,
 0.450000;-0.900000;15.000000;,
 4.550000;-15.000000;2.500000;,
 4.550000;-15.000000;3.400000;,
 5.450000;-15.000000;3.400000;,
 5.450000;-15.000000;2.500000;,
 4.550000;-0.900000;2.500000;,
 4.550000;-0.900000;3.400000;,
 5.450000;-0.900000;3.400000;,
 5.450000;-0.900000;2.500000;,
 4.550000;-15.000000;15.000000;,
 4.550000;-15.000000;15.900000;,
 5.450000;-15.000000;15.900000;,
 5.450000;-15.000000;15.000000;,
 4.550000;-0.900000;15.000000;,
 4.550000;-0.900000;15.900000;,
 5.450000;-0.900000;15.900000;,
 5.450000;-0.900000;15.000000;,
 -0.400000;-1.900000;0.000000;,
 -0.400000;-0.900000;0.000000;,
 0.400000;-0.900000;0.000000;,
 0.400000;-1.900000;0.000000;,
 -0.400000;-2.200000;2.500000;,
 -0.400000;-0.900000;2.500000;,
 0.400000;-0.900000;2.500000;,
 0.400000;-2.200000;2.500000;,
 -0.400000;-2.200000;3.400000;,
 -0.400000;-0.900000;3.400000;,
 0.400000;-0.900000;3.400000;,
 0.400000;-2.200000;3.400000;,
 -0.400000;-1.900000;5.900000;,
 -0.400000;-0.900000;5.900000;,
 0.400000;-0.900000;5.900000;,
 0.400000;-1.900000;5.900000;,
 -0.400000;-1.900000;12.500000;,
 -0.400000;-0.900000;12.500000;,
 0.400000;-0.900000;12.500000;,
 0.400000;-1.900000;12.500000;,
 -0.400000;-2.200000;15.000000;,
 -0.400000;-0.900000;15.000000;,
 0.400000;-0.900000;15.000000;,
 0.400000;-2.200000;15.000000;,
 -0.400000;-2.200000;15.900000;,
 -0.400000;-0.900000;15.900000;,
 0.400000;-0.900000;15.900000;,
 0.400000;-2.200000;15.900000;,
 -0.400000;-1.900000;18.400000;,
 -0.400000;-0.900000;18.400000;,
 0.400000;-0.900000;18.400000;,
 0.400000;-1.900000;18.400000;,
 -0.400000;-1.900000;38.000000;,
 -0.400000;-0.900000;38.000000;,
 0.400000;-0.900000;38.000000;,
 0.400000;-1.900000;38.000000;,
 4.600000;-1.900000;0.000000;,
 4.600000;-0.900000;0.000000;,
 5.400000;-0.900000;0.000000;,
 5.400000;-1.900000;0.000000;,
 4.600000;-2.200000;2.500000;,
 4.600000;-0.900000;2.500000;,
 5.400000;-0.900000;2.500000;,
 5.400000;-2.200000;2.500000;,
 4.600000;-2.200000;3.400000;,
 4.600000;-0.900000;3.400000;,
 5.400000;-0.900000;3.400000;,
 5.400000;-2.200000;3.400000;,
 4.600000;-1.900000;5.900000;,
 4.600000;-0.900000;5.900000;,
 5.400000;-0.900000;5.900000;,
 5.400000;-1.900000;5.900000;,
 4.600000;-1.900000;12.500000;,
 4.600000;-0.900000;12.500000;,
 5.400000;-0.900000;12.500000;,
 5.400000;-1.900000;12.500000;,
 4.600000;-2.200000;15.000000;,
 4.600000;-0.900000;15.000000;,
 5.400000;-0.900000;15.000000;,
 5.400000;-2.200000;15.000000;,
 4.600000;-2.200000;15.900000;,
 4.600000;-0.900000;15.900000;,
 5.400000;-0.900000;15.900000;,
 5.400000;-2.200000;15.900000;,
 4.600000;-1.900000;18.400000;,
 4.600000;-0.900000;18.400000;,
 5.400000;-0.900000;18.400000;,
 5.400000;-1.900000;18.400000;,
 4.600000;-1.900000;38.000000;,
 4.600000;-0.900000;38.000000;,
 5.400000;-0.900000;38.000000;,
 5.400000;-1.900000;38.000000;,
 -3.990000;-0.900000;0.000000;,
 -3.990000;-0.500000;0.000000;,
 8.990000;-0.500000;0.000000;,
 8.990000;-0.900000;0.000000;,
 -3.990000;-0.900000;38.000000;,
 -3.990000;-0.500000;38.000000;,
 8.990000;-0.500000;38.000000;,
 8.990000;-0.900000;38.000000;;
 112;
 3;1,5,4;,
 3;1,4,0;,
 3;2,6,5;,
 3;2,5,1;,
 3;3,7,6;,
 3;3,6,2;,
 3;0,4,7;,
 3;0,7,3;,
 3;9,13,12;,
 3;9,12,8;,
 3;10,14,13;,
 3;10,13,9;,
 3;11,15,14;,
 3;11,14,10;,
 3;8,12,15;,
 3;8,15,11;,
 3;17,21,20;,
 3;17,20,16;,
 3;18,22,21;,
 3;18,21,17;,
 3;19,23,22;,
 3;19,22,18;,
 3;16,20,23;,
 3;16,23,19;,
 3;25,29,28;,
 3;25,28,24;,
 3;26,30,29;,
 3;26,29,25;,
 3;27,31,30;,
 3;27,30,26;,
 3;24,28,31;,
 3;24,31,27;,
 3;36,37,33;,
 3;36,33,32;,
 3;35,34,38;,
 3;35,38,39;,
 3;39,36,32;,
 3;39,32,35;,
 3;44,45,41;,
 3;44,41,40;,
 3;43,42,46;,
 3;43,46,47;,
 3;47,44,40;,
 3;47,40,43;,
 3;48,49,45;,
 3;48,45,44;,
 3;47,46,50;,
 3;47,50,51;,
 3;51,48,44;,
 3;51,44,47;,
 3;52,53,49;,
 3;52,49,48;,
 3;51,50,54;,
 3;51,54,55;,
 3;55,52,48;,
 3;55,48,51;,
 3;60,61,57;,
 3;60,57,56;,
 3;59,58,62;,
 3;59,62,63;,
 3;63,60,56;,
 3;63,56,59;,
 3;64,65,61;,
 3;64,61,60;,
 3;63,62,66;,
 3;63,66,67;,
 3;67,64,60;,
 3;67,60,63;,
 3;72,73,69;,
 3;72,69,68;,
 3;71,70,74;,
 3;71,74,75;,
 3;75,72,68;,
 3;75,68,71;,
 3;80,81,77;,
 3;80,77,76;,
 3;79,78,82;,
 3;79,82,83;,
 3;83,80,76;,
 3;83,76,79;,
 3;84,85,81;,
 3;84,81,80;,
 3;83,82,86;,
 3;83,86,87;,
 3;87,84,80;,
 3;87,80,83;,
 3;88,89,85;,
 3;88,85,84;,
 3;87,86,90;,
 3;87,90,91;,
 3;91,88,84;,
 3;91,84,87;,
 3;96,97,93;,
 3;96,93,92;,
 3;95,94,98;,
 3;95,98,99;,
 3;99,96,92;,
 3;99,92,95;,
 3;100,101,97;,
 3;100,97,96;,
 3;99,98,102;,
 3;99,102,103;,
 3;103,100,96;,
 3;103,96,99;,
 3;108,109,105;,
 3;108,105,104;,
 3;111,108,104;,
 3;111,104,107;,
 3;107,106,110;,
 3;107,110,111;,
 3;109,110,106;,
 3;109,106,105;;

 MeshMaterialList  {
  11;
  112;
  0,
  0,
  0,
  0,
  0,
  0,
  0,
  0,
  1,
  1,
  1,
  1,
  1,
  1,
  1,
  1,
  2,
  2,
  2,
  2,
  2,
  2,
  2,
  2,
  3,
  3,
  3,
  3,
  3,
  3,
  3,
  3,
  4,
  4,
  4,
  4,
  4,
  4,
  5,
  5,
  5,
  5,
  5,
  5,
  5,
  5,
  5,
  5,
  5,
  5,
  5,
  5,
  5,
  5,
  5,
  5,
  6,
  6,
  6,
  6,
  6,
  6,
  6,
  6,
  6,
  6,
  6,
  6,
  7,
  7,
  7,
  7,
  7,
  7,
  8,
  8,
  8,
  8,
  8,
  8,
  8,
  8,
  8,
  8,
  8,
  8,
  8,
  8,
  8,
  8,
  8,
  8,
  9,
  9,
  9,
  9,
  9,
  9,
  9,
  9,
  9,
  9,
  9,
  9,
  10,
  10,
  10,
  10,
  10,
  10,
  10,
  10;

  Material  {
   1.000000;1.000000;1.000000;1.000000;;
   0.000000;
   0.000000;0.000000;0.000000;;
   0.000000;0.000000;0.000000;;

   TextureFilename  {
    "Concrete.png";
   }
  }

  Material  {
   1.000000;1.000000;1.000000;1.000000;;
   0.000000;
   0.000000;0.000000;0.000000;;
   0.000000;0.000000;0.000000;;

   TextureFilename  {
    "Concrete.png";
   }
  }

  Material  {
   1.000000;1.000000;1.000000;1.000000;;
   0.000000;
   0.000000;0.000000;0.000000;;
   0.000000;0.000000;0.000000;;

   TextureFilename  {
    "Concrete.png";
   }
  }

  Material  {
   1.000000;1.000000;1.000000;1.000000;;
   0.000000;
   0.000000;0.000000;0.000000;;
   0.000000;0.000000;0.000000;;

   TextureFilename  {
    "Concrete.png";
   }
  }

  Material  {
   1.000000;1.000000;1.000000;1.000000;;
   0.000000;
   0.000000;0.000000;0.000000;;
   0.000000;0.000000;0.000000;;

   TextureFilename  {
    "Concrete.png";
   }
  }

  Material  {
   1.000000;1.000000;1.000000;1.000000;;
   0.000000;
   0.000000;0.000000;0.000000;;
   0.000000;0.000000;0.000000;;

   TextureFilename  {
    "Concrete.png";
   }
  }

  Material  {
   1.000000;1.000000;1.000000;1.000000;;
   0.000000;
   0.000000;0.000000;0.000000;;
   0.000000;0.000000;0.000000;;

   TextureFilename  {
    "Concrete.png";
   }
  }

  Material  {
   1.000000;1.000000;1.000000;1.000000;;
   0.000000;
   0.000000;0.000000;0.000000;;
   0.000000;0.000000;0.000000;;

   TextureFilename  {
    "Concrete.png";
   }
  }

  Material  {
   1.000000;1.000000;1.000000;1.000000;;
   0.000000;
   0.000000;0.000000;0.000000;;
   0.000000;0.000000;0.000000;;

   TextureFilename  {
    "Concrete.png";
   }
  }

  Material  {
   1.000000;1.000000;1.000000;1.000000;;
   0.000000;
   0.000000;0.000000;0.000000;;
   0.000000;0.000000;0.000000;;

   TextureFilename  {
    "Concrete.png";
   }
  }

  Material  {
   1.000000;1.000000;1.000000;1.000000;;
   0.000000;
   0.000000;0.000000;0.000000;;
   0.000000;0.000000;0.000000;;

   TextureFilename  {
    "Concrete.png";
   }
  }
 }

 MeshTextureCoords  {
  112;
  1.000000;0.000000;,
  1.000000;0.250000;,
  1.000000;0.000000;,
  1.000000;0.250000;,
  0.000000;0.000000;,
  0.000000;0.250000;,
  0.000000;0.000000;,
  0.000000;0.250000;,
  1.000000;0.000000;,
  1.000000;0.250000;,
  1.000000;0.000000;,
  1.000000;0.250000;,
  0.000000;0.000000;,
  0.000000;0.250000;,
  0.000000;0.000000;,
  0.000000;0.250000;,
  1.000000;0.000000;,
  1.000000;0.250000;,
  1.000000;0.000000;,
  1.000000;0.250000;,
  0.000000;0.000000;,
  0.000000;0.250000;,
  0.000000;0.000000;,
  0.000000;0.250000;,
  1.000000;0.000000;,
  1.000000;0.250000;,
  1.000000;0.000000;,
  1.000000;0.250000;,
  0.000000;0.000000;,
  0.000000;0.250000;,
  0.000000;0.000000;,
  0.000000;0.250000;,
  1.000000;0.000000;,
  1.000000;0.250000;,
  1.000000;0.000000;,
  1.000000;0.250000;,
  0.800000;0.000000;,
  0.800000;0.250000;,
  0.800000;0.000000;,
  0.800000;0.250000;,
  1.000000;0.000000;,
  1.000000;0.250000;,
  1.000000;0.000000;,
  1.000000;0.250000;,
  0.800000;0.000000;,
  0.800000;0.250000;,
  0.800000;0.000000;,
  0.800000;0.250000;,
  0.200000;0.000000;,
  0.200000;0.250000;,
  0.200000;0.000000;,
  0.200000;0.250000;,
  0.000000;0.000000;,
  0.000000;0.250000;,
  0.000000;0.000000;,
  0.000000;0.250000;,
  1.000000;0.000000;,
  1.000000;0.250000;,
  1.000000;0.000000;,
  1.000000;0.250000;,
  0.800000;0.000000;,
  0.800000;0.250000;,
  0.800000;0.000000;,
  0.800000;0.250000;,
  0.000000;0.000000;,
  0.000000;0.250000;,
  0.000000;0.000000;,
  0.000000;0.250000;,
  1.000000;0.000000;,
  1.000000;0.250000;,
  1.000000;0.000000;,
  1.000000;0.250000;,
  0.800000;0.000000;,
  0.800000;0.250000;,
  0.800000;0.000000;,
  0.800000;0.250000;,
  1.000000;0.000000;,
  1.000000;0.250000;,
  1.000000;0.000000;,
  1.000000;0.250000;,
  0.800000;0.000000;,
  0.800000;0.250000;,
  0.800000;0.000000;,
  0.800000;0.250000;,
  0.200000;0.000000;,
  0.200000;0.250000;,
  0.200000;0.000000;,
  0.200000;0.250000;,
  0.000000;0.000000;,
  0.000000;0.250000;,
  0.000000;0.000000;,
  0.000000;0.250000;,
  1.000000;0.000000;,
  1.000000;0.250000;,
  1.000000;0.000000;,
  1.000000;0.250000;,
  0.800000;0.000000;,
  0.800000;0.250000;,
  0.800000;0.000000;,
  0.800000;0.250000;,
  0.000000;0.000000;,
  0.000000;0.250000;,
  0.000000;0.000000;,
  0.000000;0.250000;,
  0.000000;0.000000;,
  0.000000;0.250000;,
  0.000000;0.000000;,
  0.000000;0.250000;,
  1.000000;0.000000;,
  1.000000;0.250000;,
  1.000000;0.000000;,
  1.000000;0.250000;;
 }

 MeshNormals  {
  112;
  -1.000000;0.000000;0.000000;,
  -1.000000;0.000000;0.000000;,
  0.000000;0.000000;1.000000;,
  0.000000;0.000000;1.000000;,
  1.000000;0.000000;0.000000;,
  1.000000;0.000000;0.000000;,
  0.000000;0.000000;-1.000000;,
  0.000000;0.000000;-1.000000;,
  -1.000000;0.000000;0.000000;,
  -1.000000;0.000000;0.000000;,
  0.000000;0.000000;1.000000;,
  0.000000;0.000000;1.000000;,
  1.000000;0.000000;0.000000;,
  1.000000;0.000000;0.000000;,
  0.000000;0.000000;-1.000000;,
  0.000000;0.000000;-1.000000;,
  -1.000000;0.000000;0.000000;,
  -1.000000;0.000000;0.000000;,
  0.000000;0.000000;1.000000;,
  0.000000;0.000000;1.000000;,
  1.000000;0.000000;0.000000;,
  1.000000;0.000000;0.000000;,
  0.000000;0.000000;-1.000000;,
  0.000000;0.000000;-1.000000;,
  -1.000000;0.000000;0.000000;,
  -1.000000;0.000000;0.000000;,
  0.000000;0.000000;1.000000;,
  0.000000;0.000000;1.000000;,
  1.000000;0.000000;0.000000;,
  1.000000;0.000000;0.000000;,
  0.000000;0.000000;-1.000000;,
  0.000000;0.000000;-1.000000;,
  -1.000000;0.000000;0.000000;,
  -1.000000;0.000000;0.000000;,
  1.000000;0.000000;0.000000;,
  1.000000;0.000000;0.000000;,
  0.000000;-0.992877;-0.119145;,
  0.000000;-0.992877;-0.119145;,
  -1.000000;0.000000;0.000000;,
  -1.000000;0.000000;0.000000;,
  1.000000;0.000000;0.000000;,
  1.000000;0.000000;0.000000;,
  0.000000;-0.992877;0.119145;,
  0.000000;-0.992877;0.119145;,
  -1.000000;0.000000;0.000000;,
  -1.000000;0.000000;0.000000;,
  1.000000;0.000000;0.000000;,
  1.000000;0.000000;0.000000;,
  0.000000;-1.000000;0.000000;,
  0.000000;-1.000000;0.000000;,
  -1.000000;0.000000;0.000000;,
  -1.000000;0.000000;0.000000;,
  1.000000;0.000000;0.000000;,
  1.000000;0.000000;0.000000;,
  0.000000;-0.992877;-0.119145;,
  0.000000;-0.992877;-0.119145;,
  -1.000000;0.000000;0.000000;,
  -1.000000;0.000000;0.000000;,
  1.000000;0.000000;0.000000;,
  1.000000;0.000000;0.000000;,
  0.000000;-0.992877;0.119145;,
  0.000000;-0.992877;0.119145;,
  -1.000000;0.000000;0.000000;,
  -1.000000;0.000000;0.000000;,
  1.000000;0.000000;0.000000;,
  1.000000;0.000000;0.000000;,
  0.000000;-1.000000;0.000000;,
  0.000000;-1.000000;0.000000;,
  -1.000000;0.000000;0.000000;,
  -1.000000;0.000000;0.000000;,
  1.000000;0.000000;0.000000;,
  1.000000;0.000000;0.000000;,
  0.000000;-0.992877;-0.119145;,
  0.000000;-0.992877;-0.119145;,
  -1.000000;0.000000;0.000000;,
  -1.000000;0.000000;0.000000;,
  1.000000;0.000000;0.000000;,
  1.000000;0.000000;0.000000;,
  0.000000;-0.992877;0.119145;,
  0.000000;-0.992877;0.119145;,
  -1.000000;0.000000;0.000000;,
  -1.000000;0.000000;0.000000;,
  1.000000;0.000000;0.000000;,
  1.000000;0.000000;0.000000;,
  0.000000;-1.000000;0.000000;,
  0.000000;-1.000000;0.000000;,
  -1.000000;0.000000;0.000000;,
  -1.000000;0.000000;0.000000;,
  1.000000;0.000000;0.000000;,
  1.000000;0.000000;0.000000;,
  0.000000;-0.992877;-0.119145;,
  0.000000;-0.992877;-0.119145;,
  -1.000000;0.000000;0.000000;,
  -1.000000;0.000000;0.000000;,
  1.000000;0.000000;0.000000;,
  1.000000;0.000000;0.000000;,
  0.000000;-0.992877;0.119145;,
  0.000000;-0.992877;0.119145;,
  -1.000000;0.000000;0.000000;,
  -1.000000;0.000000;0.000000;,
  1.000000;0.000000;0.000000;,
  1.000000;0.000000;0.000000;,
  0.000000;-1.000000;0.000000;,
  0.000000;-1.000000;0.000000;,
  -1.000000;0.000000;0.000000;,
  -1.000000;0.000000;0.000000;,
  0.000000;-1.000000;0.000000;,
  0.000000;-1.000000;0.000000;,
  1.000000;0.000000;0.000000;,
  1.000000;0.000000;0.000000;,
  0.000000;1.000000;0.000000;,
  0.000000;1.000000;0.000000;;
  112;
  3;0,0,0;,
  3;1,1,1;,
  3;2,2,2;,
  3;3,3,3;,
  3;4,4,4;,
  3;5,5,5;,
  3;6,6,6;,
  3;7,7,7;,
  3;8,8,8;,
  3;9,9,9;,
  3;10,10,10;,
  3;11,11,11;,
  3;12,12,12;,
  3;13,13,13;,
  3;14,14,14;,
  3;15,15,15;,
  3;16,16,16;,
  3;17,17,17;,
  3;18,18,18;,
  3;19,19,19;,
  3;20,20,20;,
  3;21,21,21;,
  3;22,22,22;,
  3;23,23,23;,
  3;24,24,24;,
  3;25,25,25;,
  3;26,26,26;,
  3;27,27,27;,
  3;28,28,28;,
  3;29,29,29;,
  3;30,30,30;,
  3;31,31,31;,
  3;32,32,32;,
  3;33,33,33;,
  3;34,34,34;,
  3;35,35,35;,
  3;36,36,36;,
  3;37,37,37;,
  3;38,38,38;,
  3;39,39,39;,
  3;40,40,40;,
  3;41,41,41;,
  3;42,42,42;,
  3;43,43,43;,
  3;44,44,44;,
  3;45,45,45;,
  3;46,46,46;,
  3;47,47,47;,
  3;48,48,48;,
  3;49,49,49;,
  3;50,50,50;,
  3;51,51,51;,
  3;52,52,52;,
  3;53,53,53;,
  3;54,54,54;,
  3;55,55,55;,
  3;56,56,56;,
  3;57,57,57;,
  3;58,58,58;,
  3;59,59,59;,
  3;60,60,60;,
  3;61,61,61;,
  3;62,62,62;,
  3;63,63,63;,
  3;64,64,64;,
  3;65,65,65;,
  3;66,66,66;,
  3;67,67,67;,
  3;68,68,68;,
  3;69,69,69;,
  3;70,70,70;,
  3;71,71,71;,
  3;72,72,72;,
  3;73,73,73;,
  3;74,74,74;,
  3;75,75,75;,
  3;76,76,76;,
  3;77,77,77;,
  3;78,78,78;,
  3;79,79,79;,
  3;80,80,80;,
  3;81,81,81;,
  3;82,82,82;,
  3;83,83,83;,
  3;84,84,84;,
  3;85,85,85;,
  3;86,86,86;,
  3;87,87,87;,
  3;88,88,88;,
  3;89,89,89;,
  3;90,90,90;,
  3;91,91,91;,
  3;92,92,92;,
  3;93,93,93;,
  3;94,94,94;,
  3;95,95,95;,
  3;96,96,96;,
  3;97,97,97;,
  3;98,98,98;,
  3;99,99,99;,
  3;100,100,100;,
  3;101,101,101;,
  3;102,102,102;,
  3;103,103,103;,
  3;104,104,104;,
  3;105,105,105;,
  3;106,106,106;,
  3;107,107,107;,
  3;108,108,108;,
  3;109,109,109;,
  3;110,110,110;,
  3;111,111,111;;
 }
}