xof 0303txt 0032
template Vector {
 <3d82ab5e-62da-11cf-ab39-0020af71e433>
 FLOAT x;
 FLOAT y;
 FLOAT z;
}

template MeshFace {
 <3d82ab5f-62da-11cf-ab39-0020af71e433>
 DWORD nFaceVertexIndices;
 array DWORD faceVertexIndices[nFaceVertexIndices];
}

template Mesh {
 <3d82ab44-62da-11cf-ab39-0020af71e433>
 DWORD nVertices;
 array Vector vertices[nVertices];
 DWORD nFaces;
 array MeshFace faces[nFaces];
 [...]
}

template ColorRGBA {
 <35ff44e0-6c7c-11cf-8f52-0040333594a3>
 FLOAT red;
 FLOAT green;
 FLOAT blue;
 FLOAT alpha;
}

template ColorRGB {
 <d3e16e81-7835-11cf-8f52-0040333594a3>
 FLOAT red;
 FLOAT green;
 FLOAT blue;
}

template Material {
 <3d82ab4d-62da-11cf-ab39-0020af71e433>
 ColorRGBA faceColor;
 FLOAT power;
 ColorRGB specularColor;
 ColorRGB emissiveColor;
 [...]
}

template MeshMaterialList {
 <f6f23f42-7686-11cf-8f52-0040333594a3>
 DWORD nMaterials;
 DWORD nFaceIndexes;
 array DWORD faceIndexes[nFaceIndexes];
 [Material <3d82ab4d-62da-11cf-ab39-0020af71e433>]
}

template TextureFilename {
 <a42790e1-7810-11cf-8f52-0040333594a3>
 STRING filename;
}

template Coords2d {
 <f6f23f44-7686-11cf-8f52-0040333594a3>
 FLOAT u;
 FLOAT v;
}

template MeshTextureCoords {
 <f6f23f40-7686-11cf-8f52-0040333594a3>
 DWORD nTextureCoords;
 array Coords2d textureCoords[nTextureCoords];
}

template MeshNormals {
 <f6f23f43-7686-11cf-8f52-0040333594a3>
 DWORD nNormals;
 array Vector normals[nNormals];
 DWORD nFaceNormals;
 array MeshFace faceNormals[nFaceNormals];
}


Mesh  {
 72;
 -0.400000;-7.900000;0.000000;,
 -0.400000;-6.900000;0.000000;,
 0.400000;-6.900000;0.000000;,
 0.400000;-7.900000;0.000000;,
 -0.400000;-8.200000;2.500000;,
 -0.400000;-6.900000;2.500000;,
 0.400000;-6.900000;2.500000;,
 0.400000;-8.200000;2.500000;,
 -0.400000;-8.200000;3.400000;,
 -0.400000;-6.900000;3.400000;,
 0.400000;-6.900000;3.400000;,
 0.400000;-8.200000;3.400000;,
 -0.400000;-7.900000;5.900000;,
 -0.400000;-6.900000;5.900000;,
 0.400000;-6.900000;5.900000;,
 0.400000;-7.900000;5.900000;,
 -0.400000;-7.900000;12.500000;,
 -0.400000;-6.900000;12.500000;,
 0.400000;-6.900000;12.500000;,
 0.400000;-7.900000;12.500000;,
 -0.400000;-8.200000;15.000000;,
 -0.400000;-6.900000;15.000000;,
 0.400000;-6.900000;15.000000;,
 0.400000;-8.200000;15.000000;,
 -0.400000;-8.200000;15.900000;,
 -0.400000;-6.900000;15.900000;,
 0.400000;-6.900000;15.900000;,
 0.400000;-8.200000;15.900000;,
 -0.400000;-7.900000;18.400000;,
 -0.400000;-6.900000;18.400000;,
 0.400000;-6.900000;18.400000;,
 0.400000;-7.900000;18.400000;,
 -0.400000;-7.900000;38.000000;,
 -0.400000;-6.900000;38.000000;,
 0.400000;-6.900000;38.000000;,
 0.400000;-7.900000;38.000000;,
 4.600000;-7.900000;0.000000;,
 4.600000;-6.900000;0.000000;,
 5.400000;-6.900000;0.000000;,
 5.400000;-7.900000;0.000000;,
 4.600000;-8.200000;2.500000;,
 4.600000;-6.900000;2.500000;,
 5.400000;-6.900000;2.500000;,
 5.400000;-8.200000;2.500000;,
 4.600000;-8.200000;3.400000;,
 4.600000;-6.900000;3.400000;,
 5.400000;-6.900000;3.400000;,
 5.400000;-8.200000;3.400000;,
 4.600000;-7.900000;5.900000;,
 4.600000;-6.900000;5.900000;,
 5.400000;-6.900000;5.900000;,
 5.400000;-7.900000;5.900000;,
 4.600000;-7.900000;12.500000;,
 4.600000;-6.900000;12.500000;,
 5.400000;-6.900000;12.500000;,
 5.400000;-7.900000;12.500000;,
 4.600000;-8.200000;15.000000;,
 4.600000;-6.900000;15.000000;,
 5.400000;-6.900000;15.000000;,
 5.400000;-8.200000;15.000000;,
 4.600000;-8.200000;15.900000;,
 4.600000;-6.900000;15.900000;,
 5.400000;-6.900000;15.900000;,
 5.400000;-8.200000;15.900000;,
 4.600000;-7.900000;18.400000;,
 4.600000;-6.900000;18.400000;,
 5.400000;-6.900000;18.400000;,
 5.400000;-7.900000;18.400000;,
 4.600000;-7.900000;38.000000;,
 4.600000;-6.900000;38.000000;,
 5.400000;-6.900000;38.000000;,
 5.400000;-7.900000;38.000000;;
 96;
 3;4,5,1;,
 3;4,1,0;,
 3;3,2,6;,
 3;3,6,7;,
 3;7,4,0;,
 3;7,0,3;,
 3;5,6,2;,
 3;5,2,1;,
 3;12,13,9;,
 3;12,9,8;,
 3;11,10,14;,
 3;11,14,15;,
 3;15,12,8;,
 3;15,8,11;,
 3;16,17,13;,
 3;16,13,12;,
 3;15,14,18;,
 3;15,18,19;,
 3;19,16,12;,
 3;19,12,15;,
 3;20,21,17;,
 3;20,17,16;,
 3;19,18,22;,
 3;19,22,23;,
 3;23,20,16;,
 3;23,16,19;,
 3;13,14,10;,
 3;13,10,9;,
 3;17,18,14;,
 3;17,14,13;,
 3;21,22,18;,
 3;21,18,17;,
 3;28,29,25;,
 3;28,25,24;,
 3;27,26,30;,
 3;27,30,31;,
 3;31,28,24;,
 3;31,24,27;,
 3;32,33,29;,
 3;32,29,28;,
 3;31,30,34;,
 3;31,34,35;,
 3;35,32,28;,
 3;35,28,31;,
 3;29,30,26;,
 3;29,26,25;,
 3;33,34,30;,
 3;33,30,29;,
 3;40,41,37;,
 3;40,37,36;,
 3;39,38,42;,
 3;39,42,43;,
 3;43,40,36;,
 3;43,36,39;,
 3;41,42,38;,
 3;41,38,37;,
 3;48,49,45;,
 3;48,45,44;,
 3;47,46,50;,
 3;47,50,51;,
 3;51,48,44;,
 3;51,44,47;,
 3;52,53,49;,
 3;52,49,48;,
 3;51,50,54;,
 3;51,54,55;,
 3;55,52,48;,
 3;55,48,51;,
 3;56,57,53;,
 3;56,53,52;,
 3;55,54,58;,
 3;55,58,59;,
 3;59,56,52;,
 3;59,52,55;,
 3;49,50,46;,
 3;49,46,45;,
 3;53,54,50;,
 3;53,50,49;,
 3;57,58,54;,
 3;57,54,53;,
 3;64,65,61;,
 3;64,61,60;,
 3;63,62,66;,
 3;63,66,67;,
 3;67,64,60;,
 3;67,60,63;,
 3;68,69,65;,
 3;68,65,64;,
 3;67,66,70;,
 3;67,70,71;,
 3;71,68,64;,
 3;71,64,67;,
 3;65,66,62;,
 3;65,62,61;,
 3;69,70,66;,
 3;69,66,65;;

 MeshMaterialList  {
  6;
  96;
  0,
  0,
  0,
  0,
  0,
  0,
  0,
  0,
  1,
  1,
  1,
  1,
  1,
  1,
  1,
  1,
  1,
  1,
  1,
  1,
  1,
  1,
  1,
  1,
  1,
  1,
  1,
  1,
  1,
  1,
  1,
  1,
  2,
  2,
  2,
  2,
  2,
  2,
  2,
  2,
  2,
  2,
  2,
  2,
  2,
  2,
  2,
  2,
  3,
  3,
  3,
  3,
  3,
  3,
  3,
  3,
  4,
  4,
  4,
  4,
  4,
  4,
  4,
  4,
  4,
  4,
  4,
  4,
  4,
  4,
  4,
  4,
  4,
  4,
  4,
  4,
  4,
  4,
  4,
  4,
  5,
  5,
  5,
  5,
  5,
  5,
  5,
  5,
  5,
  5,
  5,
  5,
  5,
  5,
  5,
  5;

  Material  {
   1.000000;1.000000;1.000000;1.000000;;
   0.000000;
   0.000000;0.000000;0.000000;;
   0.000000;0.000000;0.000000;;

   TextureFilename  {
    "Concrete.png";
   }
  }

  Material  {
   1.000000;1.000000;1.000000;1.000000;;
   0.000000;
   0.000000;0.000000;0.000000;;
   0.000000;0.000000;0.000000;;

   TextureFilename  {
    "Concrete.png";
   }
  }

  Material  {
   1.000000;1.000000;1.000000;1.000000;;
   0.000000;
   0.000000;0.000000;0.000000;;
   0.000000;0.000000;0.000000;;

   TextureFilename  {
    "Concrete.png";
   }
  }

  Material  {
   1.000000;1.000000;1.000000;1.000000;;
   0.000000;
   0.000000;0.000000;0.000000;;
   0.000000;0.000000;0.000000;;

   TextureFilename  {
    "Concrete.png";
   }
  }

  Material  {
   1.000000;1.000000;1.000000;1.000000;;
   0.000000;
   0.000000;0.000000;0.000000;;
   0.000000;0.000000;0.000000;;

   TextureFilename  {
    "Concrete.png";
   }
  }

  Material  {
   1.000000;1.000000;1.000000;1.000000;;
   0.000000;
   0.000000;0.000000;0.000000;;
   0.000000;0.000000;0.000000;;

   TextureFilename  {
    "Concrete.png";
   }
  }
 }

 MeshTextureCoords  {
  72;
  1.000000;0.000000;,
  1.000000;0.250000;,
  1.000000;0.000000;,
  1.000000;0.250000;,
  0.800000;0.000000;,
  0.800000;0.250000;,
  0.800000;0.000000;,
  0.800000;0.250000;,
  1.000000;0.000000;,
  1.000000;0.250000;,
  1.000000;0.000000;,
  1.000000;0.250000;,
  0.800000;0.000000;,
  0.800000;0.250000;,
  0.800000;0.000000;,
  0.800000;0.250000;,
  0.200000;0.000000;,
  0.200000;0.250000;,
  0.200000;0.000000;,
  0.200000;0.250000;,
  0.000000;0.000000;,
  0.000000;0.250000;,
  0.000000;0.000000;,
  0.000000;0.250000;,
  1.000000;0.000000;,
  1.000000;0.250000;,
  1.000000;0.000000;,
  1.000000;0.250000;,
  0.800000;0.000000;,
  0.800000;0.250000;,
  0.800000;0.000000;,
  0.800000;0.250000;,
  0.000000;0.000000;,
  0.000000;0.250000;,
  0.000000;0.000000;,
  0.000000;0.250000;,
  1.000000;0.000000;,
  1.000000;0.250000;,
  1.000000;0.000000;,
  1.000000;0.250000;,
  0.800000;0.000000;,
  0.800000;0.250000;,
  0.800000;0.000000;,
  0.800000;0.250000;,
  1.000000;0.000000;,
  1.000000;0.250000;,
  1.000000;0.000000;,
  1.000000;0.250000;,
  0.800000;0.000000;,
  0.800000;0.250000;,
  0.800000;0.000000;,
  0.800000;0.250000;,
  0.200000;0.000000;,
  0.200000;0.250000;,
  0.200000;0.000000;,
  0.200000;0.250000;,
  0.000000;0.000000;,
  0.000000;0.250000;,
  0.000000;0.000000;,
  0.000000;0.250000;,
  1.000000;0.000000;,
  1.000000;0.250000;,
  1.000000;0.000000;,
  1.000000;0.250000;,
  0.800000;0.000000;,
  0.800000;0.250000;,
  0.800000;0.000000;,
  0.800000;0.250000;,
  0.000000;0.000000;,
  0.000000;0.250000;,
  0.000000;0.000000;,
  0.000000;0.250000;;
 }

 MeshNormals  {
  96;
  -1.000000;0.000000;0.000000;,
  -1.000000;0.000000;0.000000;,
  1.000000;0.000000;0.000000;,
  1.000000;0.000000;0.000000;,
  0.000000;-0.992877;-0.119145;,
  0.000000;-0.992877;-0.119145;,
  0.000000;1.000000;0.000000;,
  0.000000;1.000000;0.000000;,
  -1.000000;0.000000;0.000000;,
  -1.000000;0.000000;0.000000;,
  1.000000;0.000000;0.000000;,
  1.000000;0.000000;0.000000;,
  0.000000;-0.992877;0.119145;,
  0.000000;-0.992877;0.119145;,
  -1.000000;0.000000;0.000000;,
  -1.000000;0.000000;0.000000;,
  1.000000;0.000000;0.000000;,
  1.000000;0.000000;0.000000;,
  0.000000;-1.000000;0.000000;,
  0.000000;-1.000000;0.000000;,
  -1.000000;0.000000;0.000000;,
  -1.000000;0.000000;0.000000;,
  1.000000;0.000000;0.000000;,
  1.000000;0.000000;0.000000;,
  0.000000;-0.992877;-0.119145;,
  0.000000;-0.992877;-0.119145;,
  0.000000;1.000000;0.000000;,
  0.000000;1.000000;0.000000;,
  0.000000;1.000000;0.000000;,
  0.000000;1.000000;0.000000;,
  0.000000;1.000000;0.000000;,
  0.000000;1.000000;0.000000;,
  -1.000000;0.000000;0.000000;,
  -1.000000;0.000000;0.000000;,
  1.000000;0.000000;0.000000;,
  1.000000;0.000000;0.000000;,
  0.000000;-0.992877;0.119145;,
  0.000000;-0.992877;0.119145;,
  -1.000000;0.000000;0.000000;,
  -1.000000;0.000000;0.000000;,
  1.000000;0.000000;0.000000;,
  1.000000;0.000000;0.000000;,
  0.000000;-1.000000;0.000000;,
  0.000000;-1.000000;0.000000;,
  0.000000;1.000000;0.000000;,
  0.000000;1.000000;0.000000;,
  0.000000;1.000000;0.000000;,
  0.000000;1.000000;0.000000;,
  -1.000000;0.000000;0.000000;,
  -1.000000;0.000000;0.000000;,
  1.000000;0.000000;0.000000;,
  1.000000;0.000000;0.000000;,
  0.000000;-0.992877;-0.119145;,
  0.000000;-0.992877;-0.119145;,
  0.000000;1.000000;0.000000;,
  0.000000;1.000000;0.000000;,
  -1.000000;0.000000;0.000000;,
  -1.000000;0.000000;0.000000;,
  1.000000;0.000000;0.000000;,
  1.000000;0.000000;0.000000;,
  0.000000;-0.992877;0.119145;,
  0.000000;-0.992877;0.119145;,
  -1.000000;0.000000;0.000000;,
  -1.000000;0.000000;0.000000;,
  1.000000;0.000000;0.000000;,
  1.000000;0.000000;0.000000;,
  0.000000;-1.000000;0.000000;,
  0.000000;-1.000000;0.000000;,
  -1.000000;0.000000;0.000000;,
  -1.000000;0.000000;0.000000;,
  1.000000;0.000000;0.000000;,
  1.000000;0.000000;0.000000;,
  0.000000;-0.992877;-0.119145;,
  0.000000;-0.992877;-0.119145;,
  0.000000;1.000000;0.000000;,
  0.000000;1.000000;0.000000;,
  0.000000;1.000000;0.000000;,
  0.000000;1.000000;0.000000;,
  0.000000;1.000000;0.000000;,
  0.000000;1.000000;0.000000;,
  -1.000000;0.000000;0.000000;,
  -1.000000;0.000000;0.000000;,
  1.000000;0.000000;0.000000;,
  1.000000;0.000000;0.000000;,
  0.000000;-0.992877;0.119145;,
  0.000000;-0.992877;0.119145;,
  -1.000000;0.000000;0.000000;,
  -1.000000;0.000000;0.000000;,
  1.000000;0.000000;0.000000;,
  1.000000;0.000000;0.000000;,
  0.000000;-1.000000;0.000000;,
  0.000000;-1.000000;0.000000;,
  0.000000;1.000000;0.000000;,
  0.000000;1.000000;0.000000;,
  0.000000;1.000000;0.000000;,
  0.000000;1.000000;0.000000;;
  96;
  3;0,0,0;,
  3;1,1,1;,
  3;2,2,2;,
  3;3,3,3;,
  3;4,4,4;,
  3;5,5,5;,
  3;6,6,6;,
  3;7,7,7;,
  3;8,8,8;,
  3;9,9,9;,
  3;10,10,10;,
  3;11,11,11;,
  3;12,12,12;,
  3;13,13,13;,
  3;14,14,14;,
  3;15,15,15;,
  3;16,16,16;,
  3;17,17,17;,
  3;18,18,18;,
  3;19,19,19;,
  3;20,20,20;,
  3;21,21,21;,
  3;22,22,22;,
  3;23,23,23;,
  3;24,24,24;,
  3;25,25,25;,
  3;26,26,26;,
  3;27,27,27;,
  3;28,28,28;,
  3;29,29,29;,
  3;30,30,30;,
  3;31,31,31;,
  3;32,32,32;,
  3;33,33,33;,
  3;34,34,34;,
  3;35,35,35;,
  3;36,36,36;,
  3;37,37,37;,
  3;38,38,38;,
  3;39,39,39;,
  3;40,40,40;,
  3;41,41,41;,
  3;42,42,42;,
  3;43,43,43;,
  3;44,44,44;,
  3;45,45,45;,
  3;46,46,46;,
  3;47,47,47;,
  3;48,48,48;,
  3;49,49,49;,
  3;50,50,50;,
  3;51,51,51;,
  3;52,52,52;,
  3;53,53,53;,
  3;54,54,54;,
  3;55,55,55;,
  3;56,56,56;,
  3;57,57,57;,
  3;58,58,58;,
  3;59,59,59;,
  3;60,60,60;,
  3;61,61,61;,
  3;62,62,62;,
  3;63,63,63;,
  3;64,64,64;,
  3;65,65,65;,
  3;66,66,66;,
  3;67,67,67;,
  3;68,68,68;,
  3;69,69,69;,
  3;70,70,70;,
  3;71,71,71;,
  3;72,72,72;,
  3;73,73,73;,
  3;74,74,74;,
  3;75,75,75;,
  3;76,76,76;,
  3;77,77,77;,
  3;78,78,78;,
  3;79,79,79;,
  3;80,80,80;,
  3;81,81,81;,
  3;82,82,82;,
  3;83,83,83;,
  3;84,84,84;,
  3;85,85,85;,
  3;86,86,86;,
  3;87,87,87;,
  3;88,88,88;,
  3;89,89,89;,
  3;90,90,90;,
  3;91,91,91;,
  3;92,92,92;,
  3;93,93,93;,
  3;94,94,94;,
  3;95,95,95;;
 }
}