xof 0303txt 0032
template Vector {
 <3d82ab5e-62da-11cf-ab39-0020af71e433>
 FLOAT x;
 FLOAT y;
 FLOAT z;
}

template MeshFace {
 <3d82ab5f-62da-11cf-ab39-0020af71e433>
 DWORD nFaceVertexIndices;
 array DWORD faceVertexIndices[nFaceVertexIndices];
}

template Mesh {
 <3d82ab44-62da-11cf-ab39-0020af71e433>
 DWORD nVertices;
 array Vector vertices[nVertices];
 DWORD nFaces;
 array MeshFace faces[nFaces];
 [...]
}

template ColorRGBA {
 <35ff44e0-6c7c-11cf-8f52-0040333594a3>
 FLOAT red;
 FLOAT green;
 FLOAT blue;
 FLOAT alpha;
}

template ColorRGB {
 <d3e16e81-7835-11cf-8f52-0040333594a3>
 FLOAT red;
 FLOAT green;
 FLOAT blue;
}

template Material {
 <3d82ab4d-62da-11cf-ab39-0020af71e433>
 ColorRGBA faceColor;
 FLOAT power;
 ColorRGB specularColor;
 ColorRGB emissiveColor;
 [...]
}

template MeshMaterialList {
 <f6f23f42-7686-11cf-8f52-0040333594a3>
 DWORD nMaterials;
 DWORD nFaceIndexes;
 array DWORD faceIndexes[nFaceIndexes];
 [Material <3d82ab4d-62da-11cf-ab39-0020af71e433>]
}

template TextureFilename {
 <a42790e1-7810-11cf-8f52-0040333594a3>
 STRING filename;
}

template Coords2d {
 <f6f23f44-7686-11cf-8f52-0040333594a3>
 FLOAT u;
 FLOAT v;
}

template MeshTextureCoords {
 <f6f23f40-7686-11cf-8f52-0040333594a3>
 DWORD nTextureCoords;
 array Coords2d textureCoords[nTextureCoords];
}

template MeshNormals {
 <f6f23f43-7686-11cf-8f52-0040333594a3>
 DWORD nNormals;
 array Vector normals[nNormals];
 DWORD nFaceNormals;
 array MeshFace faceNormals[nFaceNormals];
}


Mesh  {
 40;
 -3.200000;-0.600000;0.000000;,
 -3.200000;7.400000;0.000000;,
 -2.900000;-0.600000;0.000000;,
 -2.900000;7.400000;0.000000;,
 8.050000;-0.600000;0.000000;,
 8.050000;7.400000;0.000000;,
 8.350000;-0.600000;0.000000;,
 8.350000;7.400000;0.000000;,
 -2.900000;6.780000;0.010000;,
 -2.440000;7.170000;0.010000;,
 -2.300000;7.270000;0.010000;,
 -2.140000;7.340000;0.010000;,
 -1.970000;7.390000;0.010000;,
 -1.800000;7.400000;0.010000;,
 6.800000;7.400000;0.010000;,
 6.970000;7.390000;0.010000;,
 7.140000;7.340000;0.010000;,
 7.300000;7.270000;0.010000;,
 7.440000;7.170000;0.010000;,
 8.200000;6.530000;0.010000;,
 -3.200000;6.930000;0.010000;,
 -2.640000;7.400000;0.010000;,
 -2.450000;7.530000;0.010000;,
 -2.240000;7.620000;0.010000;,
 -2.030000;7.680000;0.010000;,
 -1.800000;7.700000;0.010000;,
 6.800000;7.700000;0.010000;,
 7.030000;7.680000;0.010000;,
 7.240000;7.620000;0.010000;,
 7.450000;7.530000;0.010000;,
 7.640000;7.400000;0.010000;,
 8.200000;6.930000;0.010000;,
 -3.200000;4.600000;-0.010000;,
 -3.200000;6.400000;-0.010000;,
 1.200000;4.600000;-0.010000;,
 1.200000;6.400000;-0.010000;,
 4.000000;4.600000;-0.010000;,
 4.000000;6.400000;-0.010000;,
 8.400000;4.600000;-0.010000;,
 8.400000;6.400000;-0.010000;;
 30;
 3;0,1,3;,
 3;0,3,2;,
 3;4,5,7;,
 3;4,7,6;,
 3;20,21,9;,
 3;20,9,8;,
 3;21,22,10;,
 3;21,10,9;,
 3;22,23,11;,
 3;22,11,10;,
 3;23,24,12;,
 3;23,12,11;,
 3;24,25,13;,
 3;24,13,12;,
 3;25,26,14;,
 3;25,14,13;,
 3;26,27,15;,
 3;26,15,14;,
 3;27,28,16;,
 3;27,16,15;,
 3;28,29,17;,
 3;28,17,16;,
 3;29,30,18;,
 3;29,18,17;,
 3;30,31,19;,
 3;30,19,18;,
 3;32,33,35;,
 3;32,35,34;,
 3;36,37,39;,
 3;36,39,38;;

 MeshMaterialList  {
  5;
  30;
  0,
  0,
  1,
  1,
  2,
  2,
  2,
  2,
  2,
  2,
  2,
  2,
  2,
  2,
  2,
  2,
  2,
  2,
  2,
  2,
  2,
  2,
  2,
  2,
  2,
  2,
  3,
  3,
  4,
  4;

  Material  {
   0.784314;0.784314;0.784314;1.000000;;
   0.000000;
   0.000000;0.000000;0.000000;;
   0.000000;0.000000;0.000000;;

   TextureFilename  {
    "Iron1.png";
   }
  }

  Material  {
   0.784314;0.784314;0.784314;1.000000;;
   0.000000;
   0.000000;0.000000;0.000000;;
   0.000000;0.000000;0.000000;;

   TextureFilename  {
    "Iron1.png";
   }
  }

  Material  {
   0.784314;0.784314;0.784314;1.000000;;
   0.000000;
   0.000000;0.000000;0.000000;;
   0.000000;0.000000;0.000000;;

   TextureFilename  {
    "Iron1.png";
   }
  }

  Material  {
   1.000000;1.000000;1.000000;1.000000;;
   0.000000;
   0.000000;0.000000;0.000000;;
   0.000000;0.000000;0.000000;;

   TextureFilename  {
    "Pole_Iron0.png";
   }
  }

  Material  {
   1.000000;1.000000;1.000000;1.000000;;
   0.000000;
   0.000000;0.000000;0.000000;;
   0.000000;0.000000;0.000000;;

   TextureFilename  {
    "Pole_Iron0.png";
   }
  }
 }

 MeshTextureCoords  {
  40;
  1.000000;1.000000;,
  1.000000;0.100000;,
  0.000000;1.000000;,
  0.000000;0.100000;,
  1.000000;1.000000;,
  1.000000;0.100000;,
  0.000000;1.000000;,
  0.000000;0.100000;,
  1.000000;0.000000;,
  1.000000;0.050000;,
  1.000000;0.100000;,
  1.000000;0.150000;,
  1.000000;0.200000;,
  1.000000;0.250000;,
  1.000000;0.300000;,
  1.000000;0.350000;,
  1.000000;0.400000;,
  1.000000;0.450000;,
  1.000000;0.500000;,
  1.000000;0.550000;,
  0.000000;0.000000;,
  0.000000;0.050000;,
  0.000000;0.100000;,
  0.000000;0.150000;,
  0.000000;0.200000;,
  0.000000;0.250000;,
  0.000000;0.300000;,
  0.000000;0.350000;,
  0.000000;0.400000;,
  0.000000;0.450000;,
  0.000000;0.500000;,
  0.000000;0.550000;,
  1.000000;1.000000;,
  1.000000;0.000000;,
  0.000000;1.000000;,
  0.000000;0.000000;,
  0.000000;1.000000;,
  0.000000;0.000000;,
  1.000000;1.000000;,
  1.000000;0.000000;;
 }

 MeshNormals  {
  30;
  0.000000;0.000000;-1.000000;,
  0.000000;0.000000;-1.000000;,
  0.000000;0.000000;-1.000000;,
  0.000000;0.000000;-1.000000;,
  0.000000;0.000000;-1.000000;,
  0.000000;0.000000;-1.000000;,
  0.000000;0.000000;-1.000000;,
  0.000000;0.000000;-1.000000;,
  0.000000;0.000000;-1.000000;,
  0.000000;0.000000;-1.000000;,
  0.000000;0.000000;-1.000000;,
  0.000000;0.000000;-1.000000;,
  0.000000;0.000000;-1.000000;,
  0.000000;0.000000;-1.000000;,
  0.000000;0.000000;-1.000000;,
  0.000000;0.000000;-1.000000;,
  0.000000;0.000000;-1.000000;,
  0.000000;0.000000;-1.000000;,
  0.000000;0.000000;-1.000000;,
  0.000000;0.000000;-1.000000;,
  0.000000;0.000000;-1.000000;,
  0.000000;0.000000;-1.000000;,
  0.000000;0.000000;-1.000000;,
  0.000000;0.000000;-1.000000;,
  0.000000;0.000000;-1.000000;,
  0.000000;0.000000;-1.000000;,
  0.000000;0.000000;-1.000000;,
  0.000000;0.000000;-1.000000;,
  0.000000;0.000000;-1.000000;,
  0.000000;0.000000;-1.000000;;
  30;
  3;0,0,0;,
  3;1,1,1;,
  3;2,2,2;,
  3;3,3,3;,
  3;4,4,4;,
  3;5,5,5;,
  3;6,6,6;,
  3;7,7,7;,
  3;8,8,8;,
  3;9,9,9;,
  3;10,10,10;,
  3;11,11,11;,
  3;12,12,12;,
  3;13,13,13;,
  3;14,14,14;,
  3;15,15,15;,
  3;16,16,16;,
  3;17,17,17;,
  3;18,18,18;,
  3;19,19,19;,
  3;20,20,20;,
  3;21,21,21;,
  3;22,22,22;,
  3;23,23,23;,
  3;24,24,24;,
  3;25,25,25;,
  3;26,26,26;,
  3;27,27,27;,
  3;28,28,28;,
  3;29,29,29;;
 }
}