xof 0303txt 0032
template Vector {
 <3d82ab5e-62da-11cf-ab39-0020af71e433>
 FLOAT x;
 FLOAT y;
 FLOAT z;
}

template MeshFace {
 <3d82ab5f-62da-11cf-ab39-0020af71e433>
 DWORD nFaceVertexIndices;
 array DWORD faceVertexIndices[nFaceVertexIndices];
}

template Mesh {
 <3d82ab44-62da-11cf-ab39-0020af71e433>
 DWORD nVertices;
 array Vector vertices[nVertices];
 DWORD nFaces;
 array MeshFace faces[nFaces];
 [...]
}

template ColorRGBA {
 <35ff44e0-6c7c-11cf-8f52-0040333594a3>
 FLOAT red;
 FLOAT green;
 FLOAT blue;
 FLOAT alpha;
}

template ColorRGB {
 <d3e16e81-7835-11cf-8f52-0040333594a3>
 FLOAT red;
 FLOAT green;
 FLOAT blue;
}

template Material {
 <3d82ab4d-62da-11cf-ab39-0020af71e433>
 ColorRGBA faceColor;
 FLOAT power;
 ColorRGB specularColor;
 ColorRGB emissiveColor;
 [...]
}

template MeshMaterialList {
 <f6f23f42-7686-11cf-8f52-0040333594a3>
 DWORD nMaterials;
 DWORD nFaceIndexes;
 array DWORD faceIndexes[nFaceIndexes];
 [Material <3d82ab4d-62da-11cf-ab39-0020af71e433>]
}

template TextureFilename {
 <a42790e1-7810-11cf-8f52-0040333594a3>
 STRING filename;
}

template Coords2d {
 <f6f23f44-7686-11cf-8f52-0040333594a3>
 FLOAT u;
 FLOAT v;
}

template MeshTextureCoords {
 <f6f23f40-7686-11cf-8f52-0040333594a3>
 DWORD nTextureCoords;
 array Coords2d textureCoords[nTextureCoords];
}

template MeshNormals {
 <f6f23f43-7686-11cf-8f52-0040333594a3>
 DWORD nNormals;
 array Vector normals[nNormals];
 DWORD nFaceNormals;
 array MeshFace faceNormals[nFaceNormals];
}


Mesh  {
 80;
 -1.435000;-0.144000;0.000000;,
 -1.435000;-0.144000;36.000000;,
 1.435000;-0.144000;36.000000;,
 1.435000;-0.144000;0.000000;,
 -1.435000;-0.144000;0.000000;,
 -3.000000;-0.650000;0.000000;,
 -3.000000;-0.650000;36.000000;,
 -1.435000;-0.144000;36.000000;,
 1.435000;-0.144000;0.000000;,
 3.000000;-0.650000;0.000000;,
 3.000000;-0.650000;36.000000;,
 1.435000;-0.144000;36.000000;,
 -0.786000;-0.144000;0.000000;,
 -0.786000;0.000000;0.000000;,
 -0.718000;0.000000;0.000000;,
 -0.718000;-0.144000;0.000000;,
 -0.786000;-0.144000;36.000000;,
 -0.786000;0.000000;36.000000;,
 -0.718000;0.000000;36.000000;,
 -0.718000;-0.144000;36.000000;,
 0.786000;-0.144000;0.000000;,
 0.786000;0.000000;0.000000;,
 0.718000;0.000000;0.000000;,
 0.718000;-0.144000;0.000000;,
 0.786000;-0.144000;36.000000;,
 0.786000;0.000000;36.000000;,
 0.718000;0.000000;36.000000;,
 0.718000;-0.144000;36.000000;,
 0.012000;5.100000;0.000000;,
 0.012000;5.100000;36.000000;,
 -0.012000;5.100000;36.000000;,
 -0.012000;5.100000;0.000000;,
 0.008000;5.200000;0.000000;,
 0.008000;5.200000;36.000000;,
 -0.008000;5.200000;36.000000;,
 -0.008000;5.200000;0.000000;,
 0.008000;5.700000;0.000000;,
 0.008000;5.700000;36.000000;,
 -0.008000;5.700000;36.000000;,
 -0.008000;5.700000;0.000000;,
 3.565000;-0.144000;0.000000;,
 3.565000;-0.144000;36.000000;,
 6.435000;-0.144000;36.000000;,
 6.435000;-0.144000;0.000000;,
 3.565000;-0.144000;0.000000;,
 2.000000;-0.650000;0.000000;,
 2.000000;-0.650000;36.000000;,
 3.565000;-0.144000;36.000000;,
 6.435000;-0.144000;0.000000;,
 8.000000;-0.650000;0.000000;,
 8.000000;-0.650000;36.000000;,
 6.435000;-0.144000;36.000000;,
 4.214000;-0.144000;0.000000;,
 4.214000;0.000000;0.000000;,
 4.282000;0.000000;0.000000;,
 4.282000;-0.144000;0.000000;,
 4.214000;-0.144000;36.000000;,
 4.214000;0.000000;36.000000;,
 4.282000;0.000000;36.000000;,
 4.282000;-0.144000;36.000000;,
 5.786000;-0.144000;0.000000;,
 5.786000;0.000000;0.000000;,
 5.718000;0.000000;0.000000;,
 5.718000;-0.144000;0.000000;,
 5.786000;-0.144000;36.000000;,
 5.786000;0.000000;36.000000;,
 5.718000;0.000000;36.000000;,
 5.718000;-0.144000;36.000000;,
 5.012000;5.100000;0.000000;,
 5.012000;5.100000;36.000000;,
 4.988000;5.100000;36.000000;,
 4.988000;5.100000;0.000000;,
 5.008000;5.200000;0.000000;,
 5.008000;5.200000;36.000000;,
 4.992000;5.200000;36.000000;,
 4.992000;5.200000;0.000000;,
 5.008000;5.700000;0.000000;,
 5.008000;5.700000;36.000000;,
 4.992000;5.700000;36.000000;,
 4.992000;5.700000;0.000000;;
 60;
 3;0,1,2;,
 3;0,2,3;,
 3;4,5,6;,
 3;4,6,7;,
 3;11,10,9;,
 3;11,9,8;,
 3;13,12,16;,
 3;13,16,17;,
 3;14,13,17;,
 3;14,17,18;,
 3;15,14,18;,
 3;15,18,19;,
 3;20,21,25;,
 3;20,25,24;,
 3;21,22,26;,
 3;21,26,25;,
 3;22,23,27;,
 3;22,27,26;,
 3;28,29,30;,
 3;28,30,31;,
 3;31,30,29;,
 3;31,29,28;,
 3;32,33,34;,
 3;32,34,35;,
 3;35,34,33;,
 3;35,33,32;,
 3;36,37,38;,
 3;36,38,39;,
 3;39,38,37;,
 3;39,37,36;,
 3;40,41,42;,
 3;40,42,43;,
 3;44,45,46;,
 3;44,46,47;,
 3;51,50,49;,
 3;51,49,48;,
 3;53,52,56;,
 3;53,56,57;,
 3;54,53,57;,
 3;54,57,58;,
 3;55,54,58;,
 3;55,58,59;,
 3;60,61,65;,
 3;60,65,64;,
 3;61,62,66;,
 3;61,66,65;,
 3;62,63,67;,
 3;62,67,66;,
 3;68,69,70;,
 3;68,70,71;,
 3;71,70,69;,
 3;71,69,68;,
 3;72,73,74;,
 3;72,74,75;,
 3;75,74,73;,
 3;75,73,72;,
 3;76,77,78;,
 3;76,78,79;,
 3;79,78,77;,
 3;79,77,76;;

 MeshMaterialList  {
  16;
  60;
  0,
  0,
  1,
  1,
  2,
  2,
  3,
  3,
  3,
  3,
  3,
  3,
  4,
  4,
  4,
  4,
  4,
  4,
  5,
  5,
  5,
  5,
  6,
  6,
  6,
  6,
  7,
  7,
  7,
  7,
  8,
  8,
  9,
  9,
  10,
  10,
  11,
  11,
  11,
  11,
  11,
  11,
  12,
  12,
  12,
  12,
  12,
  12,
  13,
  13,
  13,
  13,
  14,
  14,
  14,
  14,
  15,
  15,
  15,
  15;

  Material  {
   1.000000;1.000000;1.000000;1.000000;;
   0.000000;
   0.000000;0.000000;0.000000;;
   0.000000;0.000000;0.000000;;

   TextureFilename  {
    "Tie.png";
   }
  }

  Material  {
   1.000000;1.000000;1.000000;1.000000;;
   0.000000;
   0.000000;0.000000;0.000000;;
   0.000000;0.000000;0.000000;;

   TextureFilename  {
    "Ballast.png";
   }
  }

  Material  {
   1.000000;1.000000;1.000000;1.000000;;
   0.000000;
   0.000000;0.000000;0.000000;;
   0.000000;0.000000;0.000000;;

   TextureFilename  {
    "Ballast.png";
   }
  }

  Material  {
   1.000000;1.000000;1.000000;1.000000;;
   0.000000;
   0.000000;0.000000;0.000000;;
   0.000000;0.000000;0.000000;;

   TextureFilename  {
    "Rail2.png";
   }
  }

  Material  {
   1.000000;1.000000;1.000000;1.000000;;
   0.000000;
   0.000000;0.000000;0.000000;;
   0.000000;0.000000;0.000000;;

   TextureFilename  {
    "Rail2.png";
   }
  }

  Material  {
   0.250980;0.250980;0.250980;1.000000;;
   0.000000;
   0.000000;0.000000;0.000000;;
   0.000000;0.000000;0.000000;;
  }

  Material  {
   0.752941;0.690196;0.627451;1.000000;;
   0.000000;
   0.000000;0.000000;0.000000;;
   0.000000;0.000000;0.000000;;
  }

  Material  {
   0.752941;0.690196;0.627451;1.000000;;
   0.000000;
   0.000000;0.000000;0.000000;;
   0.000000;0.000000;0.000000;;
  }

  Material  {
   1.000000;1.000000;1.000000;1.000000;;
   0.000000;
   0.000000;0.000000;0.000000;;
   0.000000;0.000000;0.000000;;

   TextureFilename  {
    "Tie.png";
   }
  }

  Material  {
   1.000000;1.000000;1.000000;1.000000;;
   0.000000;
   0.000000;0.000000;0.000000;;
   0.000000;0.000000;0.000000;;

   TextureFilename  {
    "Ballast.png";
   }
  }

  Material  {
   1.000000;1.000000;1.000000;1.000000;;
   0.000000;
   0.000000;0.000000;0.000000;;
   0.000000;0.000000;0.000000;;

   TextureFilename  {
    "Ballast.png";
   }
  }

  Material  {
   1.000000;1.000000;1.000000;1.000000;;
   0.000000;
   0.000000;0.000000;0.000000;;
   0.000000;0.000000;0.000000;;

   TextureFilename  {
    "Rail2.png";
   }
  }

  Material  {
   1.000000;1.000000;1.000000;1.000000;;
   0.000000;
   0.000000;0.000000;0.000000;;
   0.000000;0.000000;0.000000;;

   TextureFilename  {
    "Rail2.png";
   }
  }

  Material  {
   0.250980;0.250980;0.250980;1.000000;;
   0.000000;
   0.000000;0.000000;0.000000;;
   0.000000;0.000000;0.000000;;
  }

  Material  {
   0.752941;0.690196;0.627451;1.000000;;
   0.000000;
   0.000000;0.000000;0.000000;;
   0.000000;0.000000;0.000000;;
  }

  Material  {
   0.752941;0.690196;0.627451;1.000000;;
   0.000000;
   0.000000;0.000000;0.000000;;
   0.000000;0.000000;0.000000;;
  }
 }

 MeshTextureCoords  {
  80;
  0.000000;54.720001;,
  0.000000;0.000000;,
  1.000000;0.000000;,
  1.000000;54.720001;,
  1.000000;5.760000;,
  0.000000;5.760000;,
  0.000000;0.000000;,
  1.000000;0.000000;,
  1.000000;5.760000;,
  0.000000;5.760000;,
  0.000000;0.000000;,
  1.000000;0.000000;,
  0.000000;1.000000;,
  0.375000;1.000000;,
  0.625000;1.000000;,
  1.000000;1.000000;,
  0.000000;0.000000;,
  0.375000;0.000000;,
  0.625000;0.000000;,
  1.000000;0.000000;,
  0.000000;1.500000;,
  0.375000;1.500000;,
  0.625000;1.500000;,
  1.000000;1.500000;,
  0.000000;0.500000;,
  0.375000;0.500000;,
  0.625000;0.500000;,
  1.000000;0.500000;,
  0.000000;0.000000;,
  0.000000;0.000000;,
  0.000000;0.000000;,
  0.000000;0.000000;,
  0.000000;0.000000;,
  0.000000;0.000000;,
  0.000000;0.000000;,
  0.000000;0.000000;,
  0.000000;0.000000;,
  0.000000;0.000000;,
  0.000000;0.000000;,
  0.000000;0.000000;,
  0.000000;54.720001;,
  0.000000;0.000000;,
  1.000000;0.000000;,
  1.000000;54.720001;,
  1.000000;5.760000;,
  0.000000;5.760000;,
  0.000000;0.000000;,
  1.000000;0.000000;,
  1.000000;5.760000;,
  0.000000;5.760000;,
  0.000000;0.000000;,
  1.000000;0.000000;,
  0.000000;1.000000;,
  0.375000;1.000000;,
  0.625000;1.000000;,
  1.000000;1.000000;,
  0.000000;0.000000;,
  0.375000;0.000000;,
  0.625000;0.000000;,
  1.000000;0.000000;,
  0.000000;1.500000;,
  0.375000;1.500000;,
  0.625000;1.500000;,
  1.000000;1.500000;,
  0.000000;0.500000;,
  0.375000;0.500000;,
  0.625000;0.500000;,
  1.000000;0.500000;,
  0.000000;0.000000;,
  0.000000;0.000000;,
  0.000000;0.000000;,
  0.000000;0.000000;,
  0.000000;0.000000;,
  0.000000;0.000000;,
  0.000000;0.000000;,
  0.000000;0.000000;,
  0.000000;0.000000;,
  0.000000;0.000000;,
  0.000000;0.000000;,
  0.000000;0.000000;;
 }

 MeshNormals  {
  60;
  0.000000;1.000000;0.000000;,
  0.000000;1.000000;0.000000;,
  -0.307642;0.951502;0.000000;,
  -0.307642;0.951502;0.000000;,
  0.307642;0.951502;0.000000;,
  0.307642;0.951502;0.000000;,
  -1.000000;0.000000;0.000000;,
  -1.000000;0.000000;0.000000;,
  0.000000;1.000000;0.000000;,
  0.000000;1.000000;0.000000;,
  1.000000;0.000000;0.000000;,
  1.000000;0.000000;0.000000;,
  1.000000;0.000000;0.000000;,
  1.000000;0.000000;0.000000;,
  0.000000;1.000000;0.000000;,
  0.000000;1.000000;0.000000;,
  -1.000000;0.000000;0.000000;,
  -1.000000;0.000000;0.000000;,
  0.000000;-1.000000;0.000000;,
  0.000000;-1.000000;0.000000;,
  0.000000;1.000000;0.000000;,
  0.000000;1.000000;0.000000;,
  0.000000;-1.000000;0.000000;,
  0.000000;-1.000000;0.000000;,
  0.000000;1.000000;0.000000;,
  0.000000;1.000000;0.000000;,
  0.000000;-1.000000;0.000000;,
  0.000000;-1.000000;0.000000;,
  0.000000;1.000000;0.000000;,
  0.000000;1.000000;0.000000;,
  0.000000;1.000000;0.000000;,
  0.000000;1.000000;0.000000;,
  -0.307642;0.951502;0.000000;,
  -0.307642;0.951502;0.000000;,
  0.307642;0.951502;0.000000;,
  0.307642;0.951502;0.000000;,
  -1.000000;0.000000;0.000000;,
  -1.000000;0.000000;0.000000;,
  0.000000;1.000000;0.000000;,
  0.000000;1.000000;0.000000;,
  1.000000;0.000000;0.000000;,
  1.000000;0.000000;0.000000;,
  1.000000;0.000000;0.000000;,
  1.000000;0.000000;0.000000;,
  0.000000;1.000000;0.000000;,
  0.000000;1.000000;0.000000;,
  -1.000000;0.000000;0.000000;,
  -1.000000;0.000000;0.000000;,
  0.000000;-1.000000;0.000000;,
  0.000000;-1.000000;0.000000;,
  0.000000;1.000000;0.000000;,
  0.000000;1.000000;0.000000;,
  0.000000;-1.000000;0.000000;,
  0.000000;-1.000000;0.000000;,
  0.000000;1.000000;0.000000;,
  0.000000;1.000000;0.000000;,
  0.000000;-1.000000;0.000000;,
  0.000000;-1.000000;0.000000;,
  0.000000;1.000000;0.000000;,
  0.000000;1.000000;0.000000;;
  60;
  3;0,0,0;,
  3;1,1,1;,
  3;2,2,2;,
  3;3,3,3;,
  3;4,4,4;,
  3;5,5,5;,
  3;6,6,6;,
  3;7,7,7;,
  3;8,8,8;,
  3;9,9,9;,
  3;10,10,10;,
  3;11,11,11;,
  3;12,12,12;,
  3;13,13,13;,
  3;14,14,14;,
  3;15,15,15;,
  3;16,16,16;,
  3;17,17,17;,
  3;18,18,18;,
  3;19,19,19;,
  3;20,20,20;,
  3;21,21,21;,
  3;22,22,22;,
  3;23,23,23;,
  3;24,24,24;,
  3;25,25,25;,
  3;26,26,26;,
  3;27,27,27;,
  3;28,28,28;,
  3;29,29,29;,
  3;30,30,30;,
  3;31,31,31;,
  3;32,32,32;,
  3;33,33,33;,
  3;34,34,34;,
  3;35,35,35;,
  3;36,36,36;,
  3;37,37,37;,
  3;38,38,38;,
  3;39,39,39;,
  3;40,40,40;,
  3;41,41,41;,
  3;42,42,42;,
  3;43,43,43;,
  3;44,44,44;,
  3;45,45,45;,
  3;46,46,46;,
  3;47,47,47;,
  3;48,48,48;,
  3;49,49,49;,
  3;50,50,50;,
  3;51,51,51;,
  3;52,52,52;,
  3;53,53,53;,
  3;54,54,54;,
  3;55,55,55;,
  3;56,56,56;,
  3;57,57,57;,
  3;58,58,58;,
  3;59,59,59;;
 }
}