xof 0303txt 0032
template Vector {
 <3d82ab5e-62da-11cf-ab39-0020af71e433>
 FLOAT x;
 FLOAT y;
 FLOAT z;
}

template MeshFace {
 <3d82ab5f-62da-11cf-ab39-0020af71e433>
 DWORD nFaceVertexIndices;
 array DWORD faceVertexIndices[nFaceVertexIndices];
}

template Mesh {
 <3d82ab44-62da-11cf-ab39-0020af71e433>
 DWORD nVertices;
 array Vector vertices[nVertices];
 DWORD nFaces;
 array MeshFace faces[nFaces];
 [...]
}

template ColorRGBA {
 <35ff44e0-6c7c-11cf-8f52-0040333594a3>
 FLOAT red;
 FLOAT green;
 FLOAT blue;
 FLOAT alpha;
}

template ColorRGB {
 <d3e16e81-7835-11cf-8f52-0040333594a3>
 FLOAT red;
 FLOAT green;
 FLOAT blue;
}

template Material {
 <3d82ab4d-62da-11cf-ab39-0020af71e433>
 ColorRGBA faceColor;
 FLOAT power;
 ColorRGB specularColor;
 ColorRGB emissiveColor;
 [...]
}

template MeshMaterialList {
 <f6f23f42-7686-11cf-8f52-0040333594a3>
 DWORD nMaterials;
 DWORD nFaceIndexes;
 array DWORD faceIndexes[nFaceIndexes];
 [Material <3d82ab4d-62da-11cf-ab39-0020af71e433>]
}

template TextureFilename {
 <a42790e1-7810-11cf-8f52-0040333594a3>
 STRING filename;
}

template Coords2d {
 <f6f23f44-7686-11cf-8f52-0040333594a3>
 FLOAT u;
 FLOAT v;
}

template MeshTextureCoords {
 <f6f23f40-7686-11cf-8f52-0040333594a3>
 DWORD nTextureCoords;
 array Coords2d textureCoords[nTextureCoords];
}

template MeshNormals {
 <f6f23f43-7686-11cf-8f52-0040333594a3>
 DWORD nNormals;
 array Vector normals[nNormals];
 DWORD nFaceNormals;
 array MeshFace faceNormals[nFaceNormals];
}


Mesh  {
 74;
 -1.500000;0.850000;-0.050000;,
 -1.500000;1.100000;-0.050000;,
 -2.700000;1.100000;-0.050000;,
 -1.550000;0.850000;4.970000;,
 -1.550000;1.100000;4.970000;,
 -2.750000;1.100000;4.970000;,
 -1.575000;0.850000;9.990000;,
 -1.575000;1.100000;9.990000;,
 -2.775000;1.100000;9.990000;,
 -1.575000;0.850000;15.010000;,
 -1.575000;1.100000;15.010000;,
 -2.775000;1.100000;15.010000;,
 -1.550000;0.850000;20.030001;,
 -1.550000;1.100000;20.030001;,
 -2.750000;1.100000;20.030001;,
 -1.500000;0.850000;25.049999;,
 -1.500000;1.100000;25.049999;,
 -2.700000;1.100000;25.049999;,
 -2.700000;1.100000;-0.050000;,
 -3.900000;1.100000;-0.050000;,
 -2.750000;1.100000;4.970000;,
 -3.950000;1.100000;4.970000;,
 -2.775000;1.100000;9.990000;,
 -3.975000;1.100000;9.990000;,
 -2.775000;1.100000;15.010000;,
 -3.975000;1.100000;15.010000;,
 -2.750000;1.100000;20.030001;,
 -3.950000;1.100000;20.030001;,
 -2.700000;1.100000;25.049999;,
 -3.900000;1.100000;25.049999;,
 -3.900000;-0.850000;-0.050000;,
 -3.900000;0.850000;-0.050000;,
 -2.100000;0.850000;-0.050000;,
 -2.100000;-0.850000;-0.050000;,
 -3.950000;-0.850000;4.970000;,
 -3.950000;0.850000;4.970000;,
 -2.150000;0.850000;4.970000;,
 -2.150000;-0.850000;4.970000;,
 -3.975000;-0.850000;9.990000;,
 -3.975000;0.850000;9.990000;,
 -2.175000;0.850000;9.990000;,
 -2.175000;-0.850000;9.990000;,
 -3.975000;-0.850000;15.010000;,
 -3.975000;0.850000;15.010000;,
 -2.175000;0.850000;15.010000;,
 -2.175000;-0.850000;15.010000;,
 -3.950000;-0.850000;20.030001;,
 -3.950000;0.850000;20.030001;,
 -2.150000;0.850000;20.030001;,
 -2.150000;-0.850000;20.030001;,
 -3.900000;1.100000;-0.050000;,
 -3.900000;2.300000;-0.050000;,
 -3.950000;1.100000;4.970000;,
 -3.950000;2.300000;4.970000;,
 -3.975000;1.100000;9.990000;,
 -3.975000;2.300000;9.990000;,
 -3.975000;1.100000;15.010000;,
 -3.975000;2.300000;15.010000;,
 -3.950000;1.100000;20.030001;,
 -3.950000;2.300000;20.030001;,
 -3.900000;1.100000;25.049999;,
 -3.900000;2.300000;25.049999;,
 -3.900000;1.100000;-0.050000;,
 -3.900000;2.300000;-0.050000;,
 -3.950000;1.100000;4.970000;,
 -3.950000;2.300000;4.970000;,
 -3.975000;1.100000;9.990000;,
 -3.975000;2.300000;9.990000;,
 -3.975000;1.100000;15.010000;,
 -3.975000;2.300000;15.010000;,
 -3.950000;1.100000;20.030001;,
 -3.950000;2.300000;20.030001;,
 -3.900000;1.100000;25.049999;,
 -3.900000;2.300000;25.049999;;
 60;
 3;0,1,4;,
 3;0,4,3;,
 3;1,2,5;,
 3;1,5,4;,
 3;3,4,7;,
 3;3,7,6;,
 3;4,5,8;,
 3;4,8,7;,
 3;6,7,10;,
 3;6,10,9;,
 3;7,8,11;,
 3;7,11,10;,
 3;9,10,13;,
 3;9,13,12;,
 3;10,11,14;,
 3;10,14,13;,
 3;12,13,16;,
 3;12,16,15;,
 3;13,14,17;,
 3;13,17,16;,
 3;18,19,21;,
 3;18,21,20;,
 3;20,21,23;,
 3;20,23,22;,
 3;22,23,25;,
 3;22,25,24;,
 3;24,25,27;,
 3;24,27,26;,
 3;26,27,29;,
 3;26,29,28;,
 3;30,31,32;,
 3;30,32,33;,
 3;34,35,36;,
 3;34,36,37;,
 3;38,39,40;,
 3;38,40,41;,
 3;42,43,44;,
 3;42,44,45;,
 3;46,47,48;,
 3;46,48,49;,
 3;50,51,53;,
 3;50,53,52;,
 3;52,53,55;,
 3;52,55,54;,
 3;54,55,57;,
 3;54,57,56;,
 3;56,57,59;,
 3;56,59,58;,
 3;58,59,61;,
 3;58,61,60;,
 3;62,63,65;,
 3;62,65,64;,
 3;64,65,67;,
 3;64,67,66;,
 3;66,67,69;,
 3;66,69,68;,
 3;68,69,71;,
 3;68,71,70;,
 3;70,71,73;,
 3;70,73,72;;

 MeshMaterialList  {
  9;
  60;
  0,
  0,
  0,
  0,
  0,
  0,
  0,
  0,
  0,
  0,
  0,
  0,
  0,
  0,
  0,
  0,
  0,
  0,
  0,
  0,
  1,
  1,
  1,
  1,
  1,
  1,
  1,
  1,
  1,
  1,
  2,
  2,
  3,
  3,
  4,
  4,
  5,
  5,
  6,
  6,
  7,
  7,
  7,
  7,
  7,
  7,
  7,
  7,
  7,
  7,
  8,
  8,
  8,
  8,
  8,
  8,
  8,
  8,
  8,
  8;

  Material  {
   1.000000;1.000000;1.000000;1.000000;;
   0.000000;
   0.000000;0.000000;0.000000;;
   0.000000;0.000000;0.000000;;

   TextureFilename  {
    "FormSide1.png";
   }
  }

  Material  {
   1.000000;1.000000;1.000000;1.000000;;
   0.000000;
   0.000000;0.000000;0.000000;;
   0.000000;0.000000;0.000000;;

   TextureFilename  {
    "FormC.png";
   }
  }

  Material  {
   1.000000;1.000000;1.000000;1.000000;;
   0.000000;
   0.000000;0.000000;0.000000;;
   0.000000;0.000000;0.000000;;

   TextureFilename  {
    "Iron4.png";
   }
  }

  Material  {
   1.000000;1.000000;1.000000;1.000000;;
   0.000000;
   0.000000;0.000000;0.000000;;
   0.000000;0.000000;0.000000;;

   TextureFilename  {
    "Iron4.png";
   }
  }

  Material  {
   1.000000;1.000000;1.000000;1.000000;;
   0.000000;
   0.000000;0.000000;0.000000;;
   0.000000;0.000000;0.000000;;

   TextureFilename  {
    "Iron4.png";
   }
  }

  Material  {
   1.000000;1.000000;1.000000;1.000000;;
   0.000000;
   0.000000;0.000000;0.000000;;
   0.000000;0.000000;0.000000;;

   TextureFilename  {
    "Iron4.png";
   }
  }

  Material  {
   1.000000;1.000000;1.000000;1.000000;;
   0.000000;
   0.000000;0.000000;0.000000;;
   0.000000;0.000000;0.000000;;

   TextureFilename  {
    "Iron4.png";
   }
  }

  Material  {
   0.784314;0.784314;0.784314;0.392157;;
   0.000000;
   0.000000;0.000000;0.000000;;
   0.000000;0.000000;0.000000;;
  }

  Material  {
   1.000000;1.000000;1.000000;1.000000;;
   0.000000;
   0.000000;0.000000;0.000000;;
   0.000000;0.000000;0.000000;;

   TextureFilename  {
    "Saku1.png";
   }
  }
 }

 MeshTextureCoords  {
  74;
  0.000000;1.000000;,
  0.000000;0.750000;,
  0.000000;0.000000;,
  0.500000;1.000000;,
  0.500000;0.750000;,
  0.500000;0.000000;,
  1.000000;1.000000;,
  1.000000;0.750000;,
  1.000000;0.000000;,
  1.500000;1.000000;,
  1.500000;0.750000;,
  1.500000;0.000000;,
  2.000000;1.000000;,
  2.000000;0.750000;,
  2.000000;0.000000;,
  2.500000;1.000000;,
  2.500000;0.750000;,
  2.500000;0.000000;,
  0.000000;1.000000;,
  0.000000;0.000000;,
  0.500000;1.000000;,
  0.500000;0.000000;,
  1.000000;1.000000;,
  1.000000;0.000000;,
  1.500000;1.000000;,
  1.500000;0.000000;,
  2.000000;1.000000;,
  2.000000;0.000000;,
  2.500000;1.000000;,
  2.500000;0.000000;,
  0.000000;1.000000;,
  0.000000;0.000000;,
  1.000000;0.000000;,
  1.000000;1.000000;,
  0.000000;1.000000;,
  0.000000;0.000000;,
  1.000000;0.000000;,
  1.000000;1.000000;,
  0.000000;1.000000;,
  0.000000;0.000000;,
  1.000000;0.000000;,
  1.000000;1.000000;,
  0.000000;1.000000;,
  0.000000;0.000000;,
  1.000000;0.000000;,
  1.000000;1.000000;,
  0.000000;1.000000;,
  0.000000;0.000000;,
  1.000000;0.000000;,
  1.000000;1.000000;,
  0.000000;0.000000;,
  0.000000;0.000000;,
  0.000000;0.000000;,
  0.000000;0.000000;,
  0.000000;0.000000;,
  0.000000;0.000000;,
  0.000000;0.000000;,
  0.000000;0.000000;,
  0.000000;0.000000;,
  0.000000;0.000000;,
  0.000000;0.000000;,
  0.000000;0.000000;,
  0.000000;1.000000;,
  0.000000;0.000000;,
  1.000000;1.000000;,
  1.000000;0.000000;,
  2.000000;1.000000;,
  2.000000;0.000000;,
  3.000000;1.000000;,
  3.000000;0.000000;,
  4.000000;1.000000;,
  4.000000;0.000000;,
  5.000000;1.000000;,
  5.000000;0.000000;;
 }

 MeshNormals  {
  60;
  0.999950;0.000000;0.009960;,
  0.999950;0.000000;0.009960;,
  0.000000;1.000000;0.000000;,
  0.000000;1.000000;0.000000;,
  0.999988;0.000000;0.004980;,
  0.999988;0.000000;0.004980;,
  0.000000;1.000000;0.000000;,
  0.000000;1.000000;0.000000;,
  1.000000;0.000000;0.000000;,
  1.000000;0.000000;0.000000;,
  0.000000;1.000000;0.000000;,
  0.000000;1.000000;0.000000;,
  0.999988;0.000000;-0.004980;,
  0.999988;0.000000;-0.004980;,
  0.000000;1.000000;0.000000;,
  0.000000;1.000000;0.000000;,
  0.999950;0.000000;-0.009960;,
  0.999950;0.000000;-0.009960;,
  0.000000;1.000000;0.000000;,
  0.000000;1.000000;0.000000;,
  0.000000;1.000000;0.000000;,
  0.000000;1.000000;0.000000;,
  0.000000;1.000000;0.000000;,
  0.000000;1.000000;0.000000;,
  0.000000;1.000000;0.000000;,
  0.000000;1.000000;0.000000;,
  0.000000;1.000000;0.000000;,
  0.000000;1.000000;0.000000;,
  0.000000;1.000000;0.000000;,
  0.000000;1.000000;0.000000;,
  0.000000;0.000000;-1.000000;,
  0.000000;0.000000;-1.000000;,
  0.000000;0.000000;-1.000000;,
  0.000000;0.000000;-1.000000;,
  0.000000;0.000000;-1.000000;,
  0.000000;0.000000;-1.000000;,
  0.000000;0.000000;-1.000000;,
  0.000000;0.000000;-1.000000;,
  0.000000;0.000000;-1.000000;,
  0.000000;0.000000;-1.000000;,
  0.999950;0.000000;0.009960;,
  0.999950;0.000000;0.009960;,
  0.999988;0.000000;0.004980;,
  0.999988;0.000000;0.004980;,
  1.000000;0.000000;0.000000;,
  1.000000;0.000000;0.000000;,
  0.999987;0.000000;-0.004980;,
  0.999987;0.000000;-0.004980;,
  0.999950;0.000000;-0.009960;,
  0.999950;0.000000;-0.009960;,
  0.999950;0.000000;0.009960;,
  0.999950;0.000000;0.009960;,
  0.999988;0.000000;0.004980;,
  0.999988;0.000000;0.004980;,
  1.000000;0.000000;0.000000;,
  1.000000;0.000000;0.000000;,
  0.999987;0.000000;-0.004980;,
  0.999987;0.000000;-0.004980;,
  0.999950;0.000000;-0.009960;,
  0.999950;0.000000;-0.009960;;
  60;
  3;0,0,0;,
  3;1,1,1;,
  3;2,2,2;,
  3;3,3,3;,
  3;4,4,4;,
  3;5,5,5;,
  3;6,6,6;,
  3;7,7,7;,
  3;8,8,8;,
  3;9,9,9;,
  3;10,10,10;,
  3;11,11,11;,
  3;12,12,12;,
  3;13,13,13;,
  3;14,14,14;,
  3;15,15,15;,
  3;16,16,16;,
  3;17,17,17;,
  3;18,18,18;,
  3;19,19,19;,
  3;20,20,20;,
  3;21,21,21;,
  3;22,22,22;,
  3;23,23,23;,
  3;24,24,24;,
  3;25,25,25;,
  3;26,26,26;,
  3;27,27,27;,
  3;28,28,28;,
  3;29,29,29;,
  3;30,30,30;,
  3;31,31,31;,
  3;32,32,32;,
  3;33,33,33;,
  3;34,34,34;,
  3;35,35,35;,
  3;36,36,36;,
  3;37,37,37;,
  3;38,38,38;,
  3;39,39,39;,
  3;40,40,40;,
  3;41,41,41;,
  3;42,42,42;,
  3;43,43,43;,
  3;44,44,44;,
  3;45,45,45;,
  3;46,46,46;,
  3;47,47,47;,
  3;48,48,48;,
  3;49,49,49;,
  3;50,50,50;,
  3;51,51,51;,
  3;52,52,52;,
  3;53,53,53;,
  3;54,54,54;,
  3;55,55,55;,
  3;56,56,56;,
  3;57,57,57;,
  3;58,58,58;,
  3;59,59,59;;
 }
}