xof 0303txt 0032
template Vector {
 <3d82ab5e-62da-11cf-ab39-0020af71e433>
 FLOAT x;
 FLOAT y;
 FLOAT z;
}

template MeshFace {
 <3d82ab5f-62da-11cf-ab39-0020af71e433>
 DWORD nFaceVertexIndices;
 array DWORD faceVertexIndices[nFaceVertexIndices];
}

template Mesh {
 <3d82ab44-62da-11cf-ab39-0020af71e433>
 DWORD nVertices;
 array Vector vertices[nVertices];
 DWORD nFaces;
 array MeshFace faces[nFaces];
 [...]
}

template ColorRGBA {
 <35ff44e0-6c7c-11cf-8f52-0040333594a3>
 FLOAT red;
 FLOAT green;
 FLOAT blue;
 FLOAT alpha;
}

template ColorRGB {
 <d3e16e81-7835-11cf-8f52-0040333594a3>
 FLOAT red;
 FLOAT green;
 FLOAT blue;
}

template Material {
 <3d82ab4d-62da-11cf-ab39-0020af71e433>
 ColorRGBA faceColor;
 FLOAT power;
 ColorRGB specularColor;
 ColorRGB emissiveColor;
 [...]
}

template MeshMaterialList {
 <f6f23f42-7686-11cf-8f52-0040333594a3>
 DWORD nMaterials;
 DWORD nFaceIndexes;
 array DWORD faceIndexes[nFaceIndexes];
 [Material <3d82ab4d-62da-11cf-ab39-0020af71e433>]
}

template TextureFilename {
 <a42790e1-7810-11cf-8f52-0040333594a3>
 STRING filename;
}

template Coords2d {
 <f6f23f44-7686-11cf-8f52-0040333594a3>
 FLOAT u;
 FLOAT v;
}

template MeshTextureCoords {
 <f6f23f40-7686-11cf-8f52-0040333594a3>
 DWORD nTextureCoords;
 array Coords2d textureCoords[nTextureCoords];
}

template MeshNormals {
 <f6f23f43-7686-11cf-8f52-0040333594a3>
 DWORD nNormals;
 array Vector normals[nNormals];
 DWORD nFaceNormals;
 array MeshFace faceNormals[nFaceNormals];
}


Mesh  {
 43;
 1.485000;0.850000;15.010000;,
 1.485000;1.100000;15.010000;,
 2.685000;1.100000;15.010000;,
 1.490000;0.850000;20.030001;,
 1.490000;1.100000;20.030001;,
 2.690000;1.100000;20.030001;,
 1.500000;0.850000;25.049999;,
 1.500000;1.100000;25.049999;,
 2.700000;1.100000;25.049999;,
 1.485000;0.850000;15.010000;,
 1.485000;1.100000;15.010000;,
 3.885000;0.850000;15.010000;,
 3.885000;1.100000;15.010000;,
 2.685000;1.100000;15.010000;,
 3.885000;1.100000;15.010000;,
 2.690000;1.100000;20.030001;,
 3.890000;1.100000;20.030001;,
 2.700000;1.100000;25.049999;,
 3.900000;1.100000;25.049999;,
 3.885000;-0.850000;15.010000;,
 3.885000;0.850000;15.010000;,
 2.085000;0.850000;15.010000;,
 2.085000;-0.850000;15.010000;,
 3.890000;-0.850000;20.030001;,
 3.890000;0.850000;20.030001;,
 2.090000;0.850000;20.030001;,
 2.090000;-0.850000;20.030001;,
 3.885000;1.100000;15.010000;,
 3.885000;2.300000;15.010000;,
 3.890000;1.100000;20.030001;,
 3.890000;2.300000;20.030001;,
 3.900000;1.100000;25.049999;,
 3.900000;2.300000;25.049999;,
 3.885000;1.100000;15.010000;,
 3.885000;2.300000;15.010000;,
 3.890000;1.100000;20.030001;,
 3.890000;2.300000;20.030001;,
 3.900000;1.100000;25.049999;,
 3.900000;2.300000;25.049999;,
 4.200000;1.100000;15.000000;,
 4.200000;5.500000;15.000000;,
 4.200000;1.100000;25.000000;,
 4.200000;5.500000;25.000000;;
 28;
 3;3,4,1;,
 3;3,1,0;,
 3;4,5,2;,
 3;4,2,1;,
 3;6,7,4;,
 3;6,4,3;,
 3;7,8,5;,
 3;7,5,4;,
 3;9,10,12;,
 3;9,12,11;,
 3;15,16,14;,
 3;15,14,13;,
 3;17,18,16;,
 3;17,16,15;,
 3;22,21,20;,
 3;22,20,19;,
 3;26,25,24;,
 3;26,24,23;,
 3;29,30,28;,
 3;29,28,27;,
 3;31,32,30;,
 3;31,30,29;,
 3;35,36,34;,
 3;35,34,33;,
 3;37,38,36;,
 3;37,36,35;,
 3;41,42,40;,
 3;41,40,39;;

 MeshMaterialList  {
  8;
  28;
  0,
  0,
  0,
  0,
  0,
  0,
  0,
  0,
  1,
  1,
  2,
  2,
  2,
  2,
  3,
  3,
  4,
  4,
  5,
  5,
  5,
  5,
  6,
  6,
  6,
  6,
  7,
  7;

  Material  {
   1.000000;1.000000;1.000000;1.000000;;
   0.000000;
   0.000000;0.000000;0.000000;;
   0.000000;0.000000;0.000000;;

   TextureFilename  {
    "FormSide1.png";
   }
  }

  Material  {
   1.000000;1.000000;1.000000;1.000000;;
   0.000000;
   0.000000;0.000000;0.000000;;
   0.000000;0.000000;0.000000;;

   TextureFilename  {
    "FormSide1.png";
   }
  }

  Material  {
   1.000000;1.000000;1.000000;1.000000;;
   0.000000;
   0.000000;0.000000;0.000000;;
   0.000000;0.000000;0.000000;;

   TextureFilename  {
    "FormC.png";
   }
  }

  Material  {
   1.000000;1.000000;1.000000;1.000000;;
   0.000000;
   0.000000;0.000000;0.000000;;
   0.000000;0.000000;0.000000;;

   TextureFilename  {
    "Iron4.png";
   }
  }

  Material  {
   1.000000;1.000000;1.000000;1.000000;;
   0.000000;
   0.000000;0.000000;0.000000;;
   0.000000;0.000000;0.000000;;

   TextureFilename  {
    "Iron4.png";
   }
  }

  Material  {
   0.784314;0.784314;0.784314;0.392157;;
   0.000000;
   0.000000;0.000000;0.000000;;
   0.000000;0.000000;0.000000;;
  }

  Material  {
   1.000000;1.000000;1.000000;1.000000;;
   0.000000;
   0.000000;0.000000;0.000000;;
   0.000000;0.000000;0.000000;;

   TextureFilename  {
    "Saku1.png";
   }
  }

  Material  {
   1.000000;1.000000;1.000000;1.000000;;
   0.000000;
   0.000000;0.000000;0.000000;;
   0.000000;0.000000;0.000000;;

   TextureFilename  {
    "Wall3.png";
   }
  }
 }

 MeshTextureCoords  {
  43;
  0.000000;1.000000;,
  0.000000;0.750000;,
  0.000000;0.000000;,
  0.500000;1.000000;,
  0.500000;0.750000;,
  0.500000;0.000000;,
  1.000000;1.000000;,
  1.000000;0.750000;,
  1.000000;0.000000;,
  0.000000;1.000000;,
  0.000000;0.750000;,
  0.100000;1.000000;,
  0.100000;0.750000;,
  0.000000;1.000000;,
  0.000000;0.000000;,
  0.500000;1.000000;,
  0.500000;0.000000;,
  1.000000;1.000000;,
  1.000000;0.000000;,
  0.000000;1.000000;,
  0.000000;0.000000;,
  1.000000;0.000000;,
  1.000000;1.000000;,
  0.000000;1.000000;,
  0.000000;0.000000;,
  1.000000;0.000000;,
  1.000000;1.000000;,
  0.000000;0.000000;,
  0.000000;0.000000;,
  0.000000;0.000000;,
  0.000000;0.000000;,
  0.000000;0.000000;,
  0.000000;0.000000;,
  0.000000;1.000000;,
  0.000000;0.000000;,
  1.000000;1.000000;,
  1.000000;0.000000;,
  2.000000;1.000000;,
  2.000000;0.000000;,
  1.000000;1.000000;,
  1.000000;0.000000;,
  0.000000;1.000000;,
  0.000000;0.000000;;
 }

 MeshNormals  {
  28;
  -1.000000;0.000000;0.000996;,
  -1.000000;0.000000;0.000996;,
  0.000000;1.000000;0.000000;,
  0.000000;1.000000;0.000000;,
  -0.999998;0.000000;0.001992;,
  -0.999998;0.000000;0.001992;,
  0.000000;1.000000;0.000000;,
  0.000000;1.000000;0.000000;,
  0.000000;0.000000;-1.000000;,
  0.000000;0.000000;-1.000000;,
  0.000000;1.000000;0.000000;,
  0.000000;1.000000;0.000000;,
  0.000000;1.000000;0.000000;,
  0.000000;1.000000;0.000000;,
  0.000000;0.000000;-1.000000;,
  0.000000;0.000000;-1.000000;,
  0.000000;0.000000;-1.000000;,
  0.000000;0.000000;-1.000000;,
  -0.999999;0.000000;0.000996;,
  -0.999999;0.000000;0.000996;,
  -0.999998;0.000000;0.001992;,
  -0.999998;0.000000;0.001992;,
  -0.999999;0.000000;0.000996;,
  -0.999999;0.000000;0.000996;,
  -0.999998;0.000000;0.001992;,
  -0.999998;0.000000;0.001992;,
  -1.000000;0.000000;0.000000;,
  -1.000000;0.000000;0.000000;;
  28;
  3;0,0,0;,
  3;1,1,1;,
  3;2,2,2;,
  3;3,3,3;,
  3;4,4,4;,
  3;5,5,5;,
  3;6,6,6;,
  3;7,7,7;,
  3;8,8,8;,
  3;9,9,9;,
  3;10,10,10;,
  3;11,11,11;,
  3;12,12,12;,
  3;13,13,13;,
  3;14,14,14;,
  3;15,15,15;,
  3;16,16,16;,
  3;17,17,17;,
  3;18,18,18;,
  3;19,19,19;,
  3;20,20,20;,
  3;21,21,21;,
  3;22,22,22;,
  3;23,23,23;,
  3;24,24,24;,
  3;25,25,25;,
  3;26,26,26;,
  3;27,27,27;;
 }
}