xof 0303txt 0032
template Vector {
 <3d82ab5e-62da-11cf-ab39-0020af71e433>
 FLOAT x;
 FLOAT y;
 FLOAT z;
}

template MeshFace {
 <3d82ab5f-62da-11cf-ab39-0020af71e433>
 DWORD nFaceVertexIndices;
 array DWORD faceVertexIndices[nFaceVertexIndices];
}

template Mesh {
 <3d82ab44-62da-11cf-ab39-0020af71e433>
 DWORD nVertices;
 array Vector vertices[nVertices];
 DWORD nFaces;
 array MeshFace faces[nFaces];
 [...]
}

template ColorRGBA {
 <35ff44e0-6c7c-11cf-8f52-0040333594a3>
 FLOAT red;
 FLOAT green;
 FLOAT blue;
 FLOAT alpha;
}

template ColorRGB {
 <d3e16e81-7835-11cf-8f52-0040333594a3>
 FLOAT red;
 FLOAT green;
 FLOAT blue;
}

template Material {
 <3d82ab4d-62da-11cf-ab39-0020af71e433>
 ColorRGBA faceColor;
 FLOAT power;
 ColorRGB specularColor;
 ColorRGB emissiveColor;
 [...]
}

template MeshMaterialList {
 <f6f23f42-7686-11cf-8f52-0040333594a3>
 DWORD nMaterials;
 DWORD nFaceIndexes;
 array DWORD faceIndexes[nFaceIndexes];
 [Material <3d82ab4d-62da-11cf-ab39-0020af71e433>]
}

template TextureFilename {
 <a42790e1-7810-11cf-8f52-0040333594a3>
 STRING filename;
}

template Coords2d {
 <f6f23f44-7686-11cf-8f52-0040333594a3>
 FLOAT u;
 FLOAT v;
}

template MeshTextureCoords {
 <f6f23f40-7686-11cf-8f52-0040333594a3>
 DWORD nTextureCoords;
 array Coords2d textureCoords[nTextureCoords];
}

template MeshNormals {
 <f6f23f43-7686-11cf-8f52-0040333594a3>
 DWORD nNormals;
 array Vector normals[nNormals];
 DWORD nFaceNormals;
 array MeshFace faceNormals[nFaceNormals];
}


Mesh  {
 78;
 1.500000;0.850000;-0.049900;,
 1.500000;1.100000;-0.049900;,
 2.700000;1.100000;-0.049900;,
 1.470000;0.850000;4.970000;,
 1.470000;1.100000;4.970000;,
 2.670000;1.100000;4.970000;,
 1.455000;0.850000;9.990000;,
 1.455000;1.100000;9.990000;,
 2.655000;1.100000;9.990000;,
 1.455000;0.850000;15.010000;,
 1.455000;1.100000;15.010000;,
 2.655000;1.100000;15.010000;,
 1.470000;0.850000;20.030001;,
 1.470000;1.100000;20.030001;,
 2.670000;1.100000;20.030001;,
 1.500000;0.850000;25.049900;,
 1.500000;1.100000;25.049900;,
 2.700000;1.100000;25.049900;,
 2.700000;1.100000;-0.049900;,
 3.900000;1.100000;-0.049900;,
 2.670000;1.100000;4.970000;,
 3.870000;1.100000;4.970000;,
 2.655000;1.100000;9.990000;,
 3.855000;1.100000;9.990000;,
 2.655000;1.100000;15.010000;,
 3.855000;1.100000;15.010000;,
 2.670000;1.100000;20.030001;,
 3.870000;1.100000;20.030001;,
 2.700000;1.100000;25.049900;,
 3.900000;1.100000;25.049900;,
 3.900000;-0.850000;-0.050000;,
 3.900000;0.850000;-0.050000;,
 2.100000;0.850000;-0.050000;,
 2.100000;-0.850000;-0.050000;,
 3.870000;-0.850000;4.970000;,
 3.870000;0.850000;4.970000;,
 2.070000;0.850000;4.970000;,
 2.070000;-0.850000;4.970000;,
 3.855000;-0.850000;9.990000;,
 3.855000;0.850000;9.990000;,
 2.055000;0.850000;9.990000;,
 2.055000;-0.850000;9.990000;,
 3.855000;-0.850000;15.010000;,
 3.855000;0.850000;15.010000;,
 2.055000;0.850000;15.010000;,
 2.055000;-0.850000;15.010000;,
 3.870000;-0.850000;20.030001;,
 3.870000;0.850000;20.030001;,
 2.070000;0.850000;20.030001;,
 2.070000;-0.850000;20.030001;,
 3.900000;1.100000;-0.049900;,
 3.900000;2.300000;-0.049900;,
 3.870000;1.100000;4.970000;,
 3.870000;2.300000;4.970000;,
 3.855000;1.100000;9.990000;,
 3.855000;2.300000;9.990000;,
 3.855000;1.100000;15.010000;,
 3.855000;2.300000;15.010000;,
 3.870000;1.100000;20.030001;,
 3.870000;2.300000;20.030001;,
 3.900000;1.100000;25.049900;,
 3.900000;2.300000;25.049900;,
 3.900000;1.100000;-0.049900;,
 3.900000;2.300000;-0.049900;,
 3.870000;1.100000;4.970000;,
 3.870000;2.300000;4.970000;,
 3.855000;1.100000;9.990000;,
 3.855000;2.300000;9.990000;,
 3.855000;1.100000;15.010000;,
 3.855000;2.300000;15.010000;,
 3.870000;1.100000;20.030001;,
 3.870000;2.300000;20.030001;,
 3.900000;1.100000;25.049900;,
 3.900000;2.300000;25.049900;,
 4.200000;1.100000;0.000000;,
 4.200000;5.500000;0.000000;,
 4.200000;1.100000;25.000000;,
 4.200000;5.500000;25.000000;;
 62;
 3;3,4,1;,
 3;3,1,0;,
 3;4,5,2;,
 3;4,2,1;,
 3;6,7,4;,
 3;6,4,3;,
 3;7,8,5;,
 3;7,5,4;,
 3;9,10,7;,
 3;9,7,6;,
 3;10,11,8;,
 3;10,8,7;,
 3;12,13,10;,
 3;12,10,9;,
 3;13,14,11;,
 3;13,11,10;,
 3;15,16,13;,
 3;15,13,12;,
 3;16,17,14;,
 3;16,14,13;,
 3;20,21,19;,
 3;20,19,18;,
 3;22,23,21;,
 3;22,21,20;,
 3;24,25,23;,
 3;24,23,22;,
 3;26,27,25;,
 3;26,25,24;,
 3;28,29,27;,
 3;28,27,26;,
 3;33,32,31;,
 3;33,31,30;,
 3;37,36,35;,
 3;37,35,34;,
 3;41,40,39;,
 3;41,39,38;,
 3;45,44,43;,
 3;45,43,42;,
 3;49,48,47;,
 3;49,47,46;,
 3;52,53,51;,
 3;52,51,50;,
 3;54,55,53;,
 3;54,53,52;,
 3;56,57,55;,
 3;56,55,54;,
 3;58,59,57;,
 3;58,57,56;,
 3;60,61,59;,
 3;60,59,58;,
 3;64,65,63;,
 3;64,63,62;,
 3;66,67,65;,
 3;66,65,64;,
 3;68,69,67;,
 3;68,67,66;,
 3;70,71,69;,
 3;70,69,68;,
 3;72,73,71;,
 3;72,71,70;,
 3;76,77,75;,
 3;76,75,74;;

 MeshMaterialList  {
  10;
  62;
  0,
  0,
  0,
  0,
  0,
  0,
  0,
  0,
  0,
  0,
  0,
  0,
  0,
  0,
  0,
  0,
  0,
  0,
  0,
  0,
  1,
  1,
  1,
  1,
  1,
  1,
  1,
  1,
  1,
  1,
  2,
  2,
  3,
  3,
  4,
  4,
  5,
  5,
  6,
  6,
  7,
  7,
  7,
  7,
  7,
  7,
  7,
  7,
  7,
  7,
  8,
  8,
  8,
  8,
  8,
  8,
  8,
  8,
  8,
  8,
  9,
  9;

  Material  {
   1.000000;1.000000;1.000000;1.000000;;
   0.000000;
   0.000000;0.000000;0.000000;;
   0.000000;0.000000;0.000000;;

   TextureFilename  {
    "FormSide1.png";
   }
  }

  Material  {
   1.000000;1.000000;1.000000;1.000000;;
   0.000000;
   0.000000;0.000000;0.000000;;
   0.000000;0.000000;0.000000;;

   TextureFilename  {
    "FormC.png";
   }
  }

  Material  {
   1.000000;1.000000;1.000000;1.000000;;
   0.000000;
   0.000000;0.000000;0.000000;;
   0.000000;0.000000;0.000000;;

   TextureFilename  {
    "Iron4.png";
   }
  }

  Material  {
   1.000000;1.000000;1.000000;1.000000;;
   0.000000;
   0.000000;0.000000;0.000000;;
   0.000000;0.000000;0.000000;;

   TextureFilename  {
    "Iron4.png";
   }
  }

  Material  {
   1.000000;1.000000;1.000000;1.000000;;
   0.000000;
   0.000000;0.000000;0.000000;;
   0.000000;0.000000;0.000000;;

   TextureFilename  {
    "Iron4.png";
   }
  }

  Material  {
   1.000000;1.000000;1.000000;1.000000;;
   0.000000;
   0.000000;0.000000;0.000000;;
   0.000000;0.000000;0.000000;;

   TextureFilename  {
    "Iron4.png";
   }
  }

  Material  {
   1.000000;1.000000;1.000000;1.000000;;
   0.000000;
   0.000000;0.000000;0.000000;;
   0.000000;0.000000;0.000000;;

   TextureFilename  {
    "Iron4.png";
   }
  }

  Material  {
   0.784314;0.784314;0.784314;0.392157;;
   0.000000;
   0.000000;0.000000;0.000000;;
   0.000000;0.000000;0.000000;;
  }

  Material  {
   1.000000;1.000000;1.000000;1.000000;;
   0.000000;
   0.000000;0.000000;0.000000;;
   0.000000;0.000000;0.000000;;

   TextureFilename  {
    "Saku1.png";
   }
  }

  Material  {
   1.000000;1.000000;1.000000;1.000000;;
   0.000000;
   0.000000;0.000000;0.000000;;
   0.000000;0.000000;0.000000;;

   TextureFilename  {
    "Wall3.png";
   }
  }
 }

 MeshTextureCoords  {
  78;
  0.000000;1.000000;,
  0.000000;0.750000;,
  0.000000;0.000000;,
  0.500000;1.000000;,
  0.500000;0.750000;,
  0.500000;0.000000;,
  1.000000;1.000000;,
  1.000000;0.750000;,
  1.000000;0.000000;,
  1.500000;1.000000;,
  1.500000;0.750000;,
  1.500000;0.000000;,
  2.000000;1.000000;,
  2.000000;0.750000;,
  2.000000;0.000000;,
  2.500000;1.000000;,
  2.500000;0.750000;,
  2.500000;0.000000;,
  0.000000;1.000000;,
  0.000000;0.000000;,
  0.500000;1.000000;,
  0.500000;0.000000;,
  1.000000;1.000000;,
  1.000000;0.000000;,
  1.500000;1.000000;,
  1.500000;0.000000;,
  2.000000;1.000000;,
  2.000000;0.000000;,
  2.500000;1.000000;,
  2.500000;0.000000;,
  0.000000;1.000000;,
  0.000000;0.000000;,
  1.000000;0.000000;,
  1.000000;1.000000;,
  0.000000;1.000000;,
  0.000000;0.000000;,
  1.000000;0.000000;,
  1.000000;1.000000;,
  0.000000;1.000000;,
  0.000000;0.000000;,
  1.000000;0.000000;,
  1.000000;1.000000;,
  0.000000;1.000000;,
  0.000000;0.000000;,
  1.000000;0.000000;,
  1.000000;1.000000;,
  0.000000;1.000000;,
  0.000000;0.000000;,
  1.000000;0.000000;,
  1.000000;1.000000;,
  0.000000;0.000000;,
  0.000000;0.000000;,
  0.000000;0.000000;,
  0.000000;0.000000;,
  0.000000;0.000000;,
  0.000000;0.000000;,
  0.000000;0.000000;,
  0.000000;0.000000;,
  0.000000;0.000000;,
  0.000000;0.000000;,
  0.000000;0.000000;,
  0.000000;0.000000;,
  0.000000;1.000000;,
  0.000000;0.000000;,
  1.000000;1.000000;,
  1.000000;0.000000;,
  2.000000;1.000000;,
  2.000000;0.000000;,
  3.000000;1.000000;,
  3.000000;0.000000;,
  4.000000;1.000000;,
  4.000000;0.000000;,
  5.000000;1.000000;,
  5.000000;0.000000;,
  4.000000;1.000000;,
  4.000000;0.000000;,
  0.000000;1.000000;,
  0.000000;0.000000;;
 }

 MeshNormals  {
  62;
  -0.999982;0.000000;-0.005976;,
  -0.999982;0.000000;-0.005976;,
  0.000000;1.000000;0.000000;,
  0.000000;1.000000;0.000000;,
  -0.999996;0.000000;-0.002988;,
  -0.999996;0.000000;-0.002988;,
  0.000000;1.000000;0.000000;,
  0.000000;1.000000;0.000000;,
  -1.000000;0.000000;0.000000;,
  -1.000000;0.000000;0.000000;,
  0.000000;1.000000;0.000000;,
  0.000000;1.000000;0.000000;,
  -0.999995;0.000000;0.002988;,
  -0.999995;0.000000;0.002988;,
  0.000000;1.000000;0.000000;,
  0.000000;1.000000;0.000000;,
  -0.999982;0.000000;0.005976;,
  -0.999982;0.000000;0.005976;,
  0.000000;1.000000;0.000000;,
  0.000000;1.000000;0.000000;,
  0.000000;1.000000;0.000000;,
  0.000000;1.000000;0.000000;,
  0.000000;1.000000;0.000000;,
  0.000000;1.000000;0.000000;,
  0.000000;1.000000;0.000000;,
  0.000000;1.000000;0.000000;,
  0.000000;1.000000;0.000000;,
  0.000000;1.000000;0.000000;,
  0.000000;1.000000;0.000000;,
  0.000000;1.000000;0.000000;,
  0.000000;0.000000;-1.000000;,
  0.000000;0.000000;-1.000000;,
  0.000000;0.000000;-1.000000;,
  0.000000;0.000000;-1.000000;,
  0.000000;0.000000;-1.000000;,
  0.000000;0.000000;-1.000000;,
  0.000000;0.000000;-1.000000;,
  0.000000;0.000000;-1.000000;,
  0.000000;0.000000;-1.000000;,
  0.000000;0.000000;-1.000000;,
  -0.999982;0.000000;-0.005976;,
  -0.999982;0.000000;-0.005976;,
  -0.999996;0.000000;-0.002988;,
  -0.999996;0.000000;-0.002988;,
  -1.000000;0.000000;0.000000;,
  -1.000000;0.000000;0.000000;,
  -0.999995;0.000000;0.002988;,
  -0.999995;0.000000;0.002988;,
  -0.999982;0.000000;0.005976;,
  -0.999982;0.000000;0.005976;,
  -0.999982;0.000000;-0.005976;,
  -0.999982;0.000000;-0.005976;,
  -0.999996;0.000000;-0.002988;,
  -0.999996;0.000000;-0.002988;,
  -1.000000;0.000000;0.000000;,
  -1.000000;0.000000;0.000000;,
  -0.999995;0.000000;0.002988;,
  -0.999995;0.000000;0.002988;,
  -0.999982;0.000000;0.005976;,
  -0.999982;0.000000;0.005976;,
  -1.000000;0.000000;0.000000;,
  -1.000000;0.000000;0.000000;;
  62;
  3;0,0,0;,
  3;1,1,1;,
  3;2,2,2;,
  3;3,3,3;,
  3;4,4,4;,
  3;5,5,5;,
  3;6,6,6;,
  3;7,7,7;,
  3;8,8,8;,
  3;9,9,9;,
  3;10,10,10;,
  3;11,11,11;,
  3;12,12,12;,
  3;13,13,13;,
  3;14,14,14;,
  3;15,15,15;,
  3;16,16,16;,
  3;17,17,17;,
  3;18,18,18;,
  3;19,19,19;,
  3;20,20,20;,
  3;21,21,21;,
  3;22,22,22;,
  3;23,23,23;,
  3;24,24,24;,
  3;25,25,25;,
  3;26,26,26;,
  3;27,27,27;,
  3;28,28,28;,
  3;29,29,29;,
  3;30,30,30;,
  3;31,31,31;,
  3;32,32,32;,
  3;33,33,33;,
  3;34,34,34;,
  3;35,35,35;,
  3;36,36,36;,
  3;37,37,37;,
  3;38,38,38;,
  3;39,39,39;,
  3;40,40,40;,
  3;41,41,41;,
  3;42,42,42;,
  3;43,43,43;,
  3;44,44,44;,
  3;45,45,45;,
  3;46,46,46;,
  3;47,47,47;,
  3;48,48,48;,
  3;49,49,49;,
  3;50,50,50;,
  3;51,51,51;,
  3;52,52,52;,
  3;53,53,53;,
  3;54,54,54;,
  3;55,55,55;,
  3;56,56,56;,
  3;57,57,57;,
  3;58,58,58;,
  3;59,59,59;,
  3;60,60,60;,
  3;61,61,61;;
 }
}