xof 0303txt 0032
template Vector {
 <3d82ab5e-62da-11cf-ab39-0020af71e433>
 FLOAT x;
 FLOAT y;
 FLOAT z;
}

template MeshFace {
 <3d82ab5f-62da-11cf-ab39-0020af71e433>
 DWORD nFaceVertexIndices;
 array DWORD faceVertexIndices[nFaceVertexIndices];
}

template Mesh {
 <3d82ab44-62da-11cf-ab39-0020af71e433>
 DWORD nVertices;
 array Vector vertices[nVertices];
 DWORD nFaces;
 array MeshFace faces[nFaces];
 [...]
}

template ColorRGBA {
 <35ff44e0-6c7c-11cf-8f52-0040333594a3>
 FLOAT red;
 FLOAT green;
 FLOAT blue;
 FLOAT alpha;
}

template ColorRGB {
 <d3e16e81-7835-11cf-8f52-0040333594a3>
 FLOAT red;
 FLOAT green;
 FLOAT blue;
}

template Material {
 <3d82ab4d-62da-11cf-ab39-0020af71e433>
 ColorRGBA faceColor;
 FLOAT power;
 ColorRGB specularColor;
 ColorRGB emissiveColor;
 [...]
}

template MeshMaterialList {
 <f6f23f42-7686-11cf-8f52-0040333594a3>
 DWORD nMaterials;
 DWORD nFaceIndexes;
 array DWORD faceIndexes[nFaceIndexes];
 [Material <3d82ab4d-62da-11cf-ab39-0020af71e433>]
}

template TextureFilename {
 <a42790e1-7810-11cf-8f52-0040333594a3>
 STRING filename;
}

template Coords2d {
 <f6f23f44-7686-11cf-8f52-0040333594a3>
 FLOAT u;
 FLOAT v;
}

template MeshTextureCoords {
 <f6f23f40-7686-11cf-8f52-0040333594a3>
 DWORD nTextureCoords;
 array Coords2d textureCoords[nTextureCoords];
}

template MeshNormals {
 <f6f23f43-7686-11cf-8f52-0040333594a3>
 DWORD nNormals;
 array Vector normals[nNormals];
 DWORD nFaceNormals;
 array MeshFace faceNormals[nFaceNormals];
}


Mesh  {
 60;
 1.500000;0.950000;-0.050000;,
 1.500000;1.100000;-0.050000;,
 2.700000;1.100000;-0.050000;,
 1.416000;0.950000;4.970000;,
 1.416000;1.100000;4.970000;,
 2.616000;1.100000;4.970000;,
 1.374000;0.950000;9.990000;,
 1.374000;1.100000;9.990000;,
 2.574000;1.100000;9.990000;,
 1.374000;0.950000;15.010000;,
 1.374000;1.100000;15.010000;,
 2.574000;1.100000;15.010000;,
 1.416000;0.950000;20.030001;,
 1.416000;1.100000;20.030001;,
 2.616000;1.100000;20.030001;,
 1.500000;0.950000;25.049999;,
 1.500000;1.100000;25.049999;,
 2.700000;1.100000;25.049999;,
 3.700000;-0.500000;-0.050000;,
 3.700000;0.950000;-0.050000;,
 1.700000;-0.500000;-0.050000;,
 1.700000;0.950000;-0.050000;,
 1.616000;-0.500000;4.970000;,
 1.616000;0.950000;4.970000;,
 1.574000;-0.500000;9.990000;,
 1.574000;0.950000;9.990000;,
 1.574000;-0.500000;15.010000;,
 1.574000;0.950000;15.010000;,
 1.616000;-0.500000;20.030001;,
 1.616000;0.950000;20.030001;,
 1.700000;-0.500000;25.049999;,
 1.700000;0.950000;25.049999;,
 2.700000;1.100000;-0.050000;,
 3.900000;1.100000;-0.050000;,
 2.616000;1.100000;4.970000;,
 3.816000;1.100000;4.970000;,
 2.574000;1.100000;9.990000;,
 3.774000;1.100000;9.990000;,
 2.574000;1.100000;15.010000;,
 3.774000;1.100000;15.010000;,
 2.616000;1.100000;20.030001;,
 3.816000;1.100000;20.030001;,
 2.700000;1.100000;25.049999;,
 3.900000;1.100000;25.049999;,
 3.900000;-0.850000;-0.100000;,
 3.900000;0.850000;-0.100000;,
 2.100000;0.850000;-0.100000;,
 2.100000;-0.850000;-0.100000;,
 3.900000;1.100000;-0.050000;,
 3.900000;2.600000;-0.050000;,
 3.816000;1.100000;4.970000;,
 3.816000;2.600000;4.970000;,
 3.774000;1.100000;9.990000;,
 3.774000;2.600000;9.990000;,
 3.774000;1.100000;15.010000;,
 3.774000;2.600000;15.010000;,
 3.816000;1.100000;20.030001;,
 3.816000;2.600000;20.030001;,
 3.900000;1.100000;25.049999;,
 3.900000;2.600000;25.049999;;
 54;
 3;3,4,1;,
 3;3,1,0;,
 3;4,5,2;,
 3;4,2,1;,
 3;6,7,4;,
 3;6,4,3;,
 3;7,8,5;,
 3;7,5,4;,
 3;9,10,7;,
 3;9,7,6;,
 3;10,11,8;,
 3;10,8,7;,
 3;12,13,10;,
 3;12,10,9;,
 3;13,14,11;,
 3;13,11,10;,
 3;15,16,13;,
 3;15,13,12;,
 3;16,17,14;,
 3;16,14,13;,
 3;20,21,19;,
 3;20,19,18;,
 3;22,23,21;,
 3;22,21,20;,
 3;24,25,23;,
 3;24,23,22;,
 3;26,27,25;,
 3;26,25,24;,
 3;28,29,27;,
 3;28,27,26;,
 3;30,31,29;,
 3;30,29,28;,
 3;34,35,33;,
 3;34,33,32;,
 3;36,37,35;,
 3;36,35,34;,
 3;38,39,37;,
 3;38,37,36;,
 3;40,41,39;,
 3;40,39,38;,
 3;42,43,41;,
 3;42,41,40;,
 3;47,46,45;,
 3;47,45,44;,
 3;50,51,49;,
 3;50,49,48;,
 3;52,53,51;,
 3;52,51,50;,
 3;54,55,53;,
 3;54,53,52;,
 3;56,57,55;,
 3;56,55,54;,
 3;58,59,57;,
 3;58,57,56;;

 MeshMaterialList  {
  5;
  54;
  0,
  0,
  0,
  0,
  0,
  0,
  0,
  0,
  0,
  0,
  0,
  0,
  0,
  0,
  0,
  0,
  0,
  0,
  0,
  0,
  1,
  1,
  1,
  1,
  1,
  1,
  1,
  1,
  1,
  1,
  1,
  1,
  2,
  2,
  2,
  2,
  2,
  2,
  2,
  2,
  2,
  2,
  3,
  3,
  4,
  4,
  4,
  4,
  4,
  4,
  4,
  4,
  4,
  4;

  Material  {
   1.000000;1.000000;1.000000;1.000000;;
   0.000000;
   0.000000;0.000000;0.000000;;
   0.000000;0.000000;0.000000;;

   TextureFilename  {
    "FormSide4.png";
   }
  }

  Material  {
   1.000000;1.000000;1.000000;1.000000;;
   0.000000;
   0.000000;0.000000;0.000000;;
   0.000000;0.000000;0.000000;;

   TextureFilename  {
    "FormSide4.png";
   }
  }

  Material  {
   1.000000;1.000000;1.000000;1.000000;;
   0.000000;
   0.000000;0.000000;0.000000;;
   0.000000;0.000000;0.000000;;

   TextureFilename  {
    "FormC3.png";
   }
  }

  Material  {
   1.000000;1.000000;1.000000;1.000000;;
   0.000000;
   0.000000;0.000000;0.000000;;
   0.000000;0.000000;0.000000;;

   TextureFilename  {
    "Iron4.png";
   }
  }

  Material  {
   1.000000;1.000000;1.000000;1.000000;;
   0.000000;
   0.000000;0.000000;0.000000;;
   0.000000;0.000000;0.000000;;

   TextureFilename  {
    "Saku4.png";
   }
  }
 }

 MeshTextureCoords  {
  60;
  0.000000;0.500000;,
  0.000000;0.375000;,
  0.000000;0.000000;,
  0.500000;0.500000;,
  0.500000;0.375000;,
  0.500000;0.000000;,
  1.000000;0.500000;,
  1.000000;0.375000;,
  1.000000;0.000000;,
  1.500000;0.500000;,
  1.500000;0.375000;,
  1.500000;0.000000;,
  2.000000;0.500000;,
  2.000000;0.375000;,
  2.000000;0.000000;,
  2.500000;0.500000;,
  2.500000;0.375000;,
  2.500000;0.000000;,
  0.000000;1.000000;,
  0.000000;0.500000;,
  0.125000;1.000000;,
  0.125000;0.500000;,
  0.625000;1.000000;,
  0.625000;0.500000;,
  1.125000;1.000000;,
  1.125000;0.500000;,
  1.625000;1.000000;,
  1.625000;0.500000;,
  2.125000;1.000000;,
  2.125000;0.500000;,
  2.625000;1.000000;,
  2.625000;0.500000;,
  0.000000;1.000000;,
  0.000000;0.000000;,
  0.500000;1.000000;,
  0.500000;0.000000;,
  1.000000;1.000000;,
  1.000000;0.000000;,
  1.500000;1.000000;,
  1.500000;0.000000;,
  2.000000;1.000000;,
  2.000000;0.000000;,
  2.500000;1.000000;,
  2.500000;0.000000;,
  0.000000;1.000000;,
  0.000000;0.000000;,
  1.000000;0.000000;,
  1.000000;1.000000;,
  0.000000;1.000000;,
  0.000000;0.000000;,
  1.000000;1.000000;,
  1.000000;0.000000;,
  2.000000;1.000000;,
  2.000000;0.000000;,
  3.000000;1.000000;,
  3.000000;0.000000;,
  4.000000;1.000000;,
  4.000000;0.000000;,
  5.000000;1.000000;,
  5.000000;0.000000;;
 }

 MeshNormals  {
  54;
  -0.999860;0.000000;-0.016731;,
  -0.999860;0.000000;-0.016731;,
  0.000000;1.000000;0.000000;,
  0.000000;1.000000;0.000000;,
  -0.999965;0.000000;-0.008366;,
  -0.999965;0.000000;-0.008366;,
  0.000000;1.000000;0.000000;,
  0.000000;1.000000;0.000000;,
  -1.000000;0.000000;0.000000;,
  -1.000000;0.000000;0.000000;,
  0.000000;1.000000;0.000000;,
  0.000000;1.000000;0.000000;,
  -0.999965;0.000000;0.008366;,
  -0.999965;0.000000;0.008366;,
  0.000000;1.000000;0.000000;,
  0.000000;1.000000;0.000000;,
  -0.999860;0.000000;0.016731;,
  -0.999860;0.000000;0.016731;,
  0.000000;1.000000;0.000000;,
  0.000000;1.000000;0.000000;,
  0.000000;0.000000;-1.000000;,
  0.000000;0.000000;-1.000000;,
  -0.999860;0.000000;-0.016731;,
  -0.999860;0.000000;-0.016731;,
  -0.999965;0.000000;-0.008366;,
  -0.999965;0.000000;-0.008366;,
  -1.000000;0.000000;0.000000;,
  -1.000000;0.000000;0.000000;,
  -0.999965;0.000000;0.008366;,
  -0.999965;0.000000;0.008366;,
  -0.999860;0.000000;0.016731;,
  -0.999860;0.000000;0.016731;,
  0.000000;1.000000;0.000000;,
  0.000000;1.000000;0.000000;,
  0.000000;1.000000;0.000000;,
  0.000000;1.000000;0.000000;,
  0.000000;1.000000;0.000000;,
  0.000000;1.000000;0.000000;,
  0.000000;1.000000;0.000000;,
  0.000000;1.000000;0.000000;,
  0.000000;1.000000;0.000000;,
  0.000000;1.000000;0.000000;,
  0.000000;0.000000;-1.000000;,
  0.000000;0.000000;-1.000000;,
  -0.999860;0.000000;-0.016731;,
  -0.999860;0.000000;-0.016731;,
  -0.999965;0.000000;-0.008366;,
  -0.999965;0.000000;-0.008366;,
  -1.000000;0.000000;0.000000;,
  -1.000000;0.000000;0.000000;,
  -0.999965;0.000000;0.008366;,
  -0.999965;0.000000;0.008366;,
  -0.999860;0.000000;0.016731;,
  -0.999860;0.000000;0.016731;;
  54;
  3;0,0,0;,
  3;1,1,1;,
  3;2,2,2;,
  3;3,3,3;,
  3;4,4,4;,
  3;5,5,5;,
  3;6,6,6;,
  3;7,7,7;,
  3;8,8,8;,
  3;9,9,9;,
  3;10,10,10;,
  3;11,11,11;,
  3;12,12,12;,
  3;13,13,13;,
  3;14,14,14;,
  3;15,15,15;,
  3;16,16,16;,
  3;17,17,17;,
  3;18,18,18;,
  3;19,19,19;,
  3;20,20,20;,
  3;21,21,21;,
  3;22,22,22;,
  3;23,23,23;,
  3;24,24,24;,
  3;25,25,25;,
  3;26,26,26;,
  3;27,27,27;,
  3;28,28,28;,
  3;29,29,29;,
  3;30,30,30;,
  3;31,31,31;,
  3;32,32,32;,
  3;33,33,33;,
  3;34,34,34;,
  3;35,35,35;,
  3;36,36,36;,
  3;37,37,37;,
  3;38,38,38;,
  3;39,39,39;,
  3;40,40,40;,
  3;41,41,41;,
  3;42,42,42;,
  3;43,43,43;,
  3;44,44,44;,
  3;45,45,45;,
  3;46,46,46;,
  3;47,47,47;,
  3;48,48,48;,
  3;49,49,49;,
  3;50,50,50;,
  3;51,51,51;,
  3;52,52,52;,
  3;53,53,53;;
 }
}