xof 0303txt 0032
template Vector {
 <3d82ab5e-62da-11cf-ab39-0020af71e433>
 FLOAT x;
 FLOAT y;
 FLOAT z;
}

template MeshFace {
 <3d82ab5f-62da-11cf-ab39-0020af71e433>
 DWORD nFaceVertexIndices;
 array DWORD faceVertexIndices[nFaceVertexIndices];
}

template Mesh {
 <3d82ab44-62da-11cf-ab39-0020af71e433>
 DWORD nVertices;
 array Vector vertices[nVertices];
 DWORD nFaces;
 array MeshFace faces[nFaces];
 [...]
}

template ColorRGBA {
 <35ff44e0-6c7c-11cf-8f52-0040333594a3>
 FLOAT red;
 FLOAT green;
 FLOAT blue;
 FLOAT alpha;
}

template ColorRGB {
 <d3e16e81-7835-11cf-8f52-0040333594a3>
 FLOAT red;
 FLOAT green;
 FLOAT blue;
}

template Material {
 <3d82ab4d-62da-11cf-ab39-0020af71e433>
 ColorRGBA faceColor;
 FLOAT power;
 ColorRGB specularColor;
 ColorRGB emissiveColor;
 [...]
}

template MeshMaterialList {
 <f6f23f42-7686-11cf-8f52-0040333594a3>
 DWORD nMaterials;
 DWORD nFaceIndexes;
 array DWORD faceIndexes[nFaceIndexes];
 [Material <3d82ab4d-62da-11cf-ab39-0020af71e433>]
}

template TextureFilename {
 <a42790e1-7810-11cf-8f52-0040333594a3>
 STRING filename;
}

template Coords2d {
 <f6f23f44-7686-11cf-8f52-0040333594a3>
 FLOAT u;
 FLOAT v;
}

template MeshTextureCoords {
 <f6f23f40-7686-11cf-8f52-0040333594a3>
 DWORD nTextureCoords;
 array Coords2d textureCoords[nTextureCoords];
}

template MeshNormals {
 <f6f23f43-7686-11cf-8f52-0040333594a3>
 DWORD nNormals;
 array Vector normals[nNormals];
 DWORD nFaceNormals;
 array MeshFace faceNormals[nFaceNormals];
}


Mesh  {
 276;
 -11.150000;6.700000;-2.150000;,
 -11.150000;6.000000;-2.150000;,
 -11.150000;6.000000;-1.850000;,
 10.000000;6.700000;-2.150000;,
 10.000000;6.000000;-2.150000;,
 10.000000;6.000000;-1.850000;,
 -11.150000;6.700000;-0.150000;,
 -11.150000;6.000000;-0.150000;,
 -11.150000;6.000000;0.150000;,
 10.000000;6.700000;-0.150000;,
 10.000000;6.000000;-0.150000;,
 10.000000;6.000000;0.150000;,
 -11.150000;6.700000;1.850000;,
 -11.150000;6.000000;1.850000;,
 -11.150000;6.000000;2.150000;,
 10.000000;6.700000;1.850000;,
 10.000000;6.000000;1.850000;,
 10.000000;6.000000;2.150000;,
 -11.150000;6.700000;3.850000;,
 -11.150000;6.000000;3.850000;,
 -11.150000;6.000000;4.150000;,
 10.000000;6.700000;3.850000;,
 10.000000;6.000000;3.850000;,
 10.000000;6.000000;4.150000;,
 -10.850000;6.700000;-2.300000;,
 -10.850000;6.000000;-2.300000;,
 -11.150000;6.000000;-2.300000;,
 -10.850000;6.700000;4.300000;,
 -10.850000;6.000000;4.300000;,
 -11.150000;6.000000;4.300000;,
 9.700000;6.700000;-2.300000;,
 9.700000;6.000000;-2.300000;,
 10.000000;6.000000;-2.300000;,
 9.700000;6.700000;4.300000;,
 9.700000;6.000000;4.300000;,
 10.000000;6.000000;4.300000;,
 9.890000;6.000000;-2.300000;,
 9.890000;5.600000;4.300000;,
 9.890000;5.400000;3.300000;,
 9.890000;5.400000;-1.300000;,
 9.890000;5.600000;-2.300000;,
 9.310000;6.000000;-2.300000;,
 9.310000;6.000000;4.300000;,
 9.310000;5.600000;4.300000;,
 9.310000;5.400000;3.300000;,
 9.310000;5.400000;-1.300000;,
 9.310000;5.600000;-2.300000;,
 9.900000;-0.850000;-1.300000;,
 9.300000;-0.850000;-1.300000;,
 9.300000;-0.850000;-0.700000;,
 9.900000;6.000000;-1.300000;,
 9.300000;6.000000;-1.300000;,
 9.300000;6.000000;-0.700000;,
 9.900000;-0.850000;2.700000;,
 9.300000;-0.850000;2.700000;,
 9.300000;-0.850000;3.300000;,
 9.900000;6.000000;2.700000;,
 9.300000;6.000000;2.700000;,
 9.300000;6.000000;3.300000;,
 -11.040000;6.000000;-2.300000;,
 -11.040000;5.600000;4.300000;,
 -11.040000;5.400000;3.300000;,
 -11.040000;5.400000;-1.300000;,
 -11.040000;5.600000;-2.300000;,
 -10.460000;6.000000;-2.300000;,
 -10.460000;6.000000;4.300000;,
 -10.460000;5.600000;4.300000;,
 -10.460000;5.400000;3.300000;,
 -10.460000;5.400000;-1.300000;,
 -10.460000;5.600000;-2.300000;,
 -11.050000;-0.850000;-1.300000;,
 -10.450000;-0.850000;-1.300000;,
 -10.450000;-0.850000;-0.700000;,
 -11.050000;6.000000;-1.300000;,
 -10.450000;6.000000;-1.300000;,
 -10.450000;6.000000;-0.700000;,
 -11.050000;-0.850000;2.700000;,
 -10.450000;-0.850000;2.700000;,
 -10.450000;-0.850000;3.300000;,
 -11.050000;6.000000;2.700000;,
 -10.450000;6.000000;2.700000;,
 -10.450000;6.000000;3.300000;,
 -10.628284;6.299999;-0.028284;,
 -10.628284;6.099999;-0.028284;,
 -10.571715;6.099999;0.028284;,
 -8.634243;6.299999;-2.022325;,
 -8.634243;6.099999;-2.022325;,
 -8.577674;6.099999;-1.965756;,
 -6.628284;6.299999;-0.028284;,
 -6.628284;6.099999;-0.028284;,
 -6.571715;6.099999;0.028284;,
 -4.634243;6.299999;-2.022325;,
 -4.634243;6.099999;-2.022325;,
 -4.577674;6.099999;-1.965756;,
 -2.628284;6.299999;-0.028284;,
 -2.628284;6.099999;-0.028284;,
 -2.571715;6.099999;0.028284;,
 -0.634243;6.299999;-2.022325;,
 -0.634243;6.099999;-2.022325;,
 -0.577675;6.099999;-1.965756;,
 1.371716;6.299999;-0.028284;,
 1.371716;6.099999;-0.028284;,
 1.428284;6.099999;0.028284;,
 3.365756;6.299999;-2.022325;,
 3.365756;6.099999;-2.022325;,
 3.422325;6.099999;-1.965756;,
 5.371716;6.299999;-0.028284;,
 5.371716;6.099999;-0.028284;,
 5.428284;6.099999;0.028284;,
 7.365757;6.299999;-2.022325;,
 7.365757;6.099999;-2.022325;,
 7.422325;6.099999;-1.965756;,
 -8.571715;6.299999;-2.028284;,
 -8.571715;6.099999;-2.028284;,
 -8.628284;6.099999;-1.971716;,
 -6.577675;6.299999;-0.034244;,
 -6.577675;6.099999;-0.034244;,
 -6.634243;6.099999;0.022325;,
 -4.571715;6.299999;-2.028284;,
 -4.571715;6.099999;-2.028284;,
 -4.628284;6.099999;-1.971716;,
 -2.577675;6.299999;-0.034244;,
 -2.577675;6.099999;-0.034244;,
 -2.634243;6.099999;0.022325;,
 -0.571716;6.299999;-2.028284;,
 -0.571716;6.099999;-2.028284;,
 -0.628284;6.099999;-1.971716;,
 1.422325;6.299999;-0.034244;,
 1.422325;6.099999;-0.034244;,
 1.365757;6.099999;0.022325;,
 3.428284;6.299999;-2.028284;,
 3.428284;6.099999;-2.028284;,
 3.371716;6.099999;-1.971716;,
 5.422325;6.299999;-0.034244;,
 5.422325;6.099999;-0.034244;,
 5.365757;6.099999;0.022325;,
 7.428284;6.299999;-2.028284;,
 7.428284;6.099999;-2.028284;,
 7.371716;6.099999;-1.971716;,
 9.422324;6.299999;-0.034244;,
 9.422324;6.099999;-0.034244;,
 9.365756;6.099999;0.022325;,
 -10.628284;6.299999;3.971715;,
 -10.628284;6.099999;3.971715;,
 -10.571715;6.099999;4.028284;,
 -8.634243;6.299999;1.977675;,
 -8.634243;6.099999;1.977675;,
 -8.577674;6.099999;2.034243;,
 -6.628284;6.299999;3.971715;,
 -6.628284;6.099999;3.971715;,
 -6.571715;6.099999;4.028284;,
 -4.634243;6.299999;1.977675;,
 -4.634243;6.099999;1.977675;,
 -4.577674;6.099999;2.034243;,
 -2.628284;6.299999;3.971715;,
 -2.628284;6.099999;3.971715;,
 -2.571715;6.099999;4.028284;,
 -0.634243;6.299999;1.977675;,
 -0.634243;6.099999;1.977675;,
 -0.577675;6.099999;2.034243;,
 1.371716;6.299999;3.971715;,
 1.371716;6.099999;3.971715;,
 1.428284;6.099999;4.028284;,
 3.365756;6.299999;1.977675;,
 3.365756;6.099999;1.977675;,
 3.422325;6.099999;2.034243;,
 5.371716;6.299999;3.971715;,
 5.371716;6.099999;3.971715;,
 5.428284;6.099999;4.028284;,
 7.365757;6.299999;1.977675;,
 7.365757;6.099999;1.977675;,
 7.422325;6.099999;2.034243;,
 -8.571715;6.299999;1.971716;,
 -8.571715;6.099999;1.971716;,
 -8.628284;6.099999;2.028284;,
 -6.577675;6.299999;3.965756;,
 -6.577675;6.099999;3.965756;,
 -6.634243;6.099999;4.022324;,
 -4.571715;6.299999;1.971716;,
 -4.571715;6.099999;1.971716;,
 -4.628284;6.099999;2.028284;,
 -2.577675;6.299999;3.965756;,
 -2.577675;6.099999;3.965756;,
 -2.634243;6.099999;4.022324;,
 -0.571716;6.299999;1.971716;,
 -0.571716;6.099999;1.971716;,
 -0.628284;6.099999;2.028284;,
 1.422325;6.299999;3.965756;,
 1.422325;6.099999;3.965756;,
 1.365757;6.099999;4.022324;,
 3.428284;6.299999;1.971716;,
 3.428284;6.099999;1.971716;,
 3.371716;6.099999;2.028284;,
 5.422325;6.299999;3.965756;,
 5.422325;6.099999;3.965756;,
 5.365757;6.099999;4.022324;,
 7.428284;6.299999;1.971716;,
 7.428284;6.099999;1.971716;,
 7.371716;6.099999;2.028284;,
 9.422324;6.299999;3.965756;,
 9.422324;6.099999;3.965756;,
 9.365756;6.099999;4.022324;,
 -11.150000;6.700000;-2.150000;,
 -11.150000;9.400000;-2.150000;,
 -11.150000;9.400000;-2.500000;,
 -11.150000;9.800000;-2.500000;,
 10.000000;6.700000;-2.150000;,
 10.000000;9.400000;-2.150000;,
 10.000000;9.400000;-2.500000;,
 10.000000;9.800000;-2.500000;,
 -8.000000;7.300000;-2.160000;,
 -8.000000;9.000000;-2.160000;,
 -6.300000;9.000000;-2.160000;,
 -6.300000;7.300000;-2.160000;,
 -6.000000;7.300000;-2.160000;,
 -6.000000;9.000000;-2.160000;,
 -4.300000;9.000000;-2.160000;,
 -4.300000;7.300000;-2.160000;,
 0.500000;7.300000;-2.160000;,
 0.500000;9.000000;-2.160000;,
 4.000000;9.000000;-2.160000;,
 4.000000;7.300000;-2.160000;,
 4.300000;7.300000;-2.160000;,
 4.300000;9.000000;-2.160000;,
 7.800000;9.000000;-2.160000;,
 7.800000;7.300000;-2.160000;,
 -11.150000;7.800000;-2.150000;,
 -11.400000;7.800000;-2.150000;,
 -17.350000;4.300000;-2.150000;,
 -17.950001;4.300000;-2.150000;,
 -23.900000;0.800000;-2.150000;,
 -11.150000;6.200000;-2.150000;,
 -11.200000;6.200000;-2.150000;,
 -17.150000;2.700000;-2.150000;,
 -17.750000;2.700000;-2.150000;,
 -23.700001;-0.800000;-2.150000;,
 -23.900000;-0.800000;-2.150000;,
 -11.150000;6.200000;-1.850000;,
 -11.200000;6.200000;-1.850000;,
 -17.150000;2.700000;-1.850000;,
 -17.750000;2.700000;-1.850000;,
 -23.700001;-0.800000;-1.850000;,
 -23.900000;-0.800000;-1.850000;,
 -11.150000;6.400000;-1.850000;,
 -17.150000;2.900000;-1.850000;,
 -17.750000;2.900000;-1.850000;,
 -23.900000;-0.700000;-1.850000;,
 -11.150000;6.400000;-0.650000;,
 -17.150000;2.900000;-0.650000;,
 -17.750000;2.900000;-0.650000;,
 -23.900000;-0.700000;-0.650000;,
 10.000000;7.800000;-2.150000;,
 10.250000;7.800000;-2.150000;,
 16.200001;4.300000;-2.150000;,
 16.799999;4.300000;-2.150000;,
 22.750000;0.800000;-2.150000;,
 10.000000;6.200000;-2.150000;,
 10.050000;6.200000;-2.150000;,
 16.000000;2.700000;-2.150000;,
 16.600000;2.700000;-2.150000;,
 22.549999;-0.800000;-2.150000;,
 22.750000;-0.800000;-2.150000;,
 10.000000;6.200000;-1.850000;,
 10.050000;6.200000;-1.850000;,
 16.000000;2.700000;-1.850000;,
 16.600000;2.700000;-1.850000;,
 22.549999;-0.800000;-1.850000;,
 22.750000;-0.800000;-1.850000;,
 10.000000;6.400000;-1.850000;,
 16.000000;2.900000;-1.850000;,
 16.600000;2.900000;-1.850000;,
 22.750000;-0.700000;-1.850000;,
 10.000000;6.400000;-0.650000;,
 16.000000;2.900000;-0.650000;,
 16.600000;2.900000;-0.650000;,
 22.750000;-0.700000;-0.650000;;
 208;
 3;2,1,4;,
 3;2,4,5;,
 3;1,0,3;,
 3;1,3,4;,
 3;8,7,10;,
 3;8,10,11;,
 3;7,6,9;,
 3;7,9,10;,
 3;14,13,16;,
 3;14,16,17;,
 3;13,12,15;,
 3;13,15,16;,
 3;20,19,22;,
 3;20,22,23;,
 3;19,18,21;,
 3;19,21,22;,
 3;26,25,28;,
 3;26,28,29;,
 3;25,24,27;,
 3;25,27,28;,
 3;31,32,35;,
 3;31,35,34;,
 3;30,31,34;,
 3;30,34,33;,
 3;45,44,42;,
 3;45,42,41;,
 3;44,43,42;,
 3;45,41,46;,
 3;43,44,38;,
 3;43,38,37;,
 3;44,45,39;,
 3;44,39,38;,
 3;45,46,40;,
 3;45,40,39;,
 3;46,41,36;,
 3;46,36,40;,
 3;47,48,51;,
 3;47,51,50;,
 3;48,49,52;,
 3;48,52,51;,
 3;53,54,57;,
 3;53,57,56;,
 3;54,55,58;,
 3;54,58,57;,
 3;64,65,67;,
 3;64,67,68;,
 3;65,66,67;,
 3;69,64,68;,
 3;60,61,67;,
 3;60,67,66;,
 3;61,62,68;,
 3;61,68,67;,
 3;62,63,69;,
 3;62,69,68;,
 3;63,59,64;,
 3;63,64,69;,
 3;73,74,71;,
 3;73,71,70;,
 3;74,75,72;,
 3;74,72,71;,
 3;79,80,77;,
 3;79,77,76;,
 3;80,81,78;,
 3;80,78,77;,
 3;84,83,86;,
 3;84,86,87;,
 3;83,82,85;,
 3;83,85,86;,
 3;90,89,92;,
 3;90,92,93;,
 3;89,88,91;,
 3;89,91,92;,
 3;96,95,98;,
 3;96,98,99;,
 3;95,94,97;,
 3;95,97,98;,
 3;102,101,104;,
 3;102,104,105;,
 3;101,100,103;,
 3;101,103,104;,
 3;108,107,110;,
 3;108,110,111;,
 3;107,106,109;,
 3;107,109,110;,
 3;114,113,116;,
 3;114,116,117;,
 3;113,112,115;,
 3;113,115,116;,
 3;120,119,122;,
 3;120,122,123;,
 3;119,118,121;,
 3;119,121,122;,
 3;126,125,128;,
 3;126,128,129;,
 3;125,124,127;,
 3;125,127,128;,
 3;132,131,134;,
 3;132,134,135;,
 3;131,130,133;,
 3;131,133,134;,
 3;138,137,140;,
 3;138,140,141;,
 3;137,136,139;,
 3;137,139,140;,
 3;144,143,146;,
 3;144,146,147;,
 3;143,142,145;,
 3;143,145,146;,
 3;150,149,152;,
 3;150,152,153;,
 3;149,148,151;,
 3;149,151,152;,
 3;156,155,158;,
 3;156,158,159;,
 3;155,154,157;,
 3;155,157,158;,
 3;162,161,164;,
 3;162,164,165;,
 3;161,160,163;,
 3;161,163,164;,
 3;168,167,170;,
 3;168,170,171;,
 3;167,166,169;,
 3;167,169,170;,
 3;174,173,176;,
 3;174,176,177;,
 3;173,172,175;,
 3;173,175,176;,
 3;180,179,182;,
 3;180,182,183;,
 3;179,178,181;,
 3;179,181,182;,
 3;186,185,188;,
 3;186,188,189;,
 3;185,184,187;,
 3;185,187,188;,
 3;192,191,194;,
 3;192,194,195;,
 3;191,190,193;,
 3;191,193,194;,
 3;198,197,200;,
 3;198,200,201;,
 3;197,196,199;,
 3;197,199,200;,
 3;202,203,207;,
 3;202,207,206;,
 3;203,204,208;,
 3;203,208,207;,
 3;204,205,209;,
 3;204,209,208;,
 3;210,211,212;,
 3;210,212,213;,
 3;214,215,216;,
 3;214,216,217;,
 3;218,219,220;,
 3;218,220,221;,
 3;222,223,224;,
 3;222,224,225;,
 3;227,226,231;,
 3;227,231,232;,
 3;228,227,232;,
 3;228,232,233;,
 3;229,228,233;,
 3;229,233,234;,
 3;230,229,234;,
 3;230,234,235;,
 3;230,235,236;,
 3;232,231,237;,
 3;232,237,238;,
 3;233,232,238;,
 3;233,238,239;,
 3;234,233,239;,
 3;234,239,240;,
 3;235,234,240;,
 3;235,240,241;,
 3;236,235,241;,
 3;236,241,242;,
 3;244,243,247;,
 3;244,247,248;,
 3;245,244,248;,
 3;245,248,249;,
 3;246,245,249;,
 3;246,249,250;,
 3;257,256,251;,
 3;257,251,252;,
 3;258,257,252;,
 3;258,252,253;,
 3;259,258,253;,
 3;259,253,254;,
 3;260,259,254;,
 3;260,254,255;,
 3;261,260,255;,
 3;263,262,256;,
 3;263,256,257;,
 3;264,263,257;,
 3;264,257,258;,
 3;265,264,258;,
 3;265,258,259;,
 3;266,265,259;,
 3;266,259,260;,
 3;267,266,260;,
 3;267,260,261;,
 3;273,272,268;,
 3;273,268,269;,
 3;274,273,269;,
 3;274,269,270;,
 3;275,274,270;,
 3;275,270,271;;

 MeshMaterialList  {
  41;
  208;
  0,
  0,
  0,
  0,
  1,
  1,
  1,
  1,
  2,
  2,
  2,
  2,
  3,
  3,
  3,
  3,
  4,
  4,
  4,
  4,
  5,
  5,
  5,
  5,
  6,
  6,
  6,
  6,
  6,
  6,
  6,
  6,
  6,
  6,
  6,
  6,
  7,
  7,
  7,
  7,
  8,
  8,
  8,
  8,
  9,
  9,
  9,
  9,
  9,
  9,
  9,
  9,
  9,
  9,
  9,
  9,
  10,
  10,
  10,
  10,
  11,
  11,
  11,
  11,
  12,
  12,
  12,
  12,
  13,
  13,
  13,
  13,
  14,
  14,
  14,
  14,
  15,
  15,
  15,
  15,
  16,
  16,
  16,
  16,
  17,
  17,
  17,
  17,
  18,
  18,
  18,
  18,
  19,
  19,
  19,
  19,
  20,
  20,
  20,
  20,
  21,
  21,
  21,
  21,
  22,
  22,
  22,
  22,
  23,
  23,
  23,
  23,
  24,
  24,
  24,
  24,
  25,
  25,
  25,
  25,
  26,
  26,
  26,
  26,
  27,
  27,
  27,
  27,
  28,
  28,
  28,
  28,
  29,
  29,
  29,
  29,
  30,
  30,
  30,
  30,
  31,
  31,
  31,
  31,
  32,
  32,
  32,
  32,
  32,
  32,
  33,
  33,
  34,
  34,
  35,
  35,
  36,
  36,
  37,
  37,
  37,
  37,
  37,
  37,
  37,
  37,
  37,
  37,
  37,
  37,
  37,
  37,
  37,
  37,
  37,
  37,
  37,
  38,
  38,
  38,
  38,
  38,
  38,
  39,
  39,
  39,
  39,
  39,
  39,
  39,
  39,
  39,
  39,
  39,
  39,
  39,
  39,
  39,
  39,
  39,
  39,
  39,
  40,
  40,
  40,
  40,
  40,
  40;

  Material  {
   1.000000;1.000000;1.000000;1.000000;;
   0.000000;
   0.000000;0.000000;0.000000;;
   0.000000;0.000000;0.000000;;

   TextureFilename  {
    "Iron1.png";
   }
  }

  Material  {
   0.784314;0.784314;0.784314;1.000000;;
   0.000000;
   0.000000;0.000000;0.000000;;
   0.000000;0.000000;0.000000;;

   TextureFilename  {
    "Iron1.png";
   }
  }

  Material  {
   0.784314;0.784314;0.784314;1.000000;;
   0.000000;
   0.000000;0.000000;0.000000;;
   0.000000;0.000000;0.000000;;

   TextureFilename  {
    "Iron1.png";
   }
  }

  Material  {
   0.784314;0.784314;0.784314;1.000000;;
   0.000000;
   0.000000;0.000000;0.000000;;
   0.000000;0.000000;0.000000;;

   TextureFilename  {
    "Iron1.png";
   }
  }

  Material  {
   0.784314;0.784314;0.784314;1.000000;;
   0.000000;
   0.000000;0.000000;0.000000;;
   0.000000;0.000000;0.000000;;

   TextureFilename  {
    "Iron1.png";
   }
  }

  Material  {
   0.784314;0.784314;0.784314;1.000000;;
   0.000000;
   0.000000;0.000000;0.000000;;
   0.000000;0.000000;0.000000;;

   TextureFilename  {
    "Iron1.png";
   }
  }

  Material  {
   1.000000;1.000000;1.000000;1.000000;;
   0.000000;
   0.000000;0.000000;0.000000;;
   0.000000;0.000000;0.000000;;

   TextureFilename  {
    "Iron2.png";
   }
  }

  Material  {
   1.000000;1.000000;1.000000;1.000000;;
   0.000000;
   0.000000;0.000000;0.000000;;
   0.000000;0.000000;0.000000;;

   TextureFilename  {
    "Iron3.png";
   }
  }

  Material  {
   1.000000;1.000000;1.000000;1.000000;;
   0.000000;
   0.000000;0.000000;0.000000;;
   0.000000;0.000000;0.000000;;

   TextureFilename  {
    "Iron3.png";
   }
  }

  Material  {
   1.000000;1.000000;1.000000;1.000000;;
   0.000000;
   0.000000;0.000000;0.000000;;
   0.000000;0.000000;0.000000;;

   TextureFilename  {
    "Iron2.png";
   }
  }

  Material  {
   1.000000;1.000000;1.000000;1.000000;;
   0.000000;
   0.000000;0.000000;0.000000;;
   0.000000;0.000000;0.000000;;

   TextureFilename  {
    "Iron3.png";
   }
  }

  Material  {
   1.000000;1.000000;1.000000;1.000000;;
   0.000000;
   0.000000;0.000000;0.000000;;
   0.000000;0.000000;0.000000;;

   TextureFilename  {
    "Iron3.png";
   }
  }

  Material  {
   0.705882;0.705882;0.705882;1.000000;;
   0.000000;
   0.000000;0.000000;0.000000;;
   0.000000;0.000000;0.000000;;

   TextureFilename  {
    "Iron1.png";
   }
  }

  Material  {
   0.705882;0.705882;0.705882;1.000000;;
   0.000000;
   0.000000;0.000000;0.000000;;
   0.000000;0.000000;0.000000;;

   TextureFilename  {
    "Iron1.png";
   }
  }

  Material  {
   0.705882;0.705882;0.705882;1.000000;;
   0.000000;
   0.000000;0.000000;0.000000;;
   0.000000;0.000000;0.000000;;

   TextureFilename  {
    "Iron1.png";
   }
  }

  Material  {
   0.705882;0.705882;0.705882;1.000000;;
   0.000000;
   0.000000;0.000000;0.000000;;
   0.000000;0.000000;0.000000;;

   TextureFilename  {
    "Iron1.png";
   }
  }

  Material  {
   0.705882;0.705882;0.705882;1.000000;;
   0.000000;
   0.000000;0.000000;0.000000;;
   0.000000;0.000000;0.000000;;

   TextureFilename  {
    "Iron1.png";
   }
  }

  Material  {
   0.705882;0.705882;0.705882;1.000000;;
   0.000000;
   0.000000;0.000000;0.000000;;
   0.000000;0.000000;0.000000;;

   TextureFilename  {
    "Iron1.png";
   }
  }

  Material  {
   0.705882;0.705882;0.705882;1.000000;;
   0.000000;
   0.000000;0.000000;0.000000;;
   0.000000;0.000000;0.000000;;

   TextureFilename  {
    "Iron1.png";
   }
  }

  Material  {
   0.705882;0.705882;0.705882;1.000000;;
   0.000000;
   0.000000;0.000000;0.000000;;
   0.000000;0.000000;0.000000;;

   TextureFilename  {
    "Iron1.png";
   }
  }

  Material  {
   0.705882;0.705882;0.705882;1.000000;;
   0.000000;
   0.000000;0.000000;0.000000;;
   0.000000;0.000000;0.000000;;

   TextureFilename  {
    "Iron1.png";
   }
  }

  Material  {
   0.705882;0.705882;0.705882;1.000000;;
   0.000000;
   0.000000;0.000000;0.000000;;
   0.000000;0.000000;0.000000;;

   TextureFilename  {
    "Iron1.png";
   }
  }

  Material  {
   0.705882;0.705882;0.705882;1.000000;;
   0.000000;
   0.000000;0.000000;0.000000;;
   0.000000;0.000000;0.000000;;

   TextureFilename  {
    "Iron1.png";
   }
  }

  Material  {
   0.705882;0.705882;0.705882;1.000000;;
   0.000000;
   0.000000;0.000000;0.000000;;
   0.000000;0.000000;0.000000;;

   TextureFilename  {
    "Iron1.png";
   }
  }

  Material  {
   0.705882;0.705882;0.705882;1.000000;;
   0.000000;
   0.000000;0.000000;0.000000;;
   0.000000;0.000000;0.000000;;

   TextureFilename  {
    "Iron1.png";
   }
  }

  Material  {
   0.705882;0.705882;0.705882;1.000000;;
   0.000000;
   0.000000;0.000000;0.000000;;
   0.000000;0.000000;0.000000;;

   TextureFilename  {
    "Iron1.png";
   }
  }

  Material  {
   0.705882;0.705882;0.705882;1.000000;;
   0.000000;
   0.000000;0.000000;0.000000;;
   0.000000;0.000000;0.000000;;

   TextureFilename  {
    "Iron1.png";
   }
  }

  Material  {
   0.705882;0.705882;0.705882;1.000000;;
   0.000000;
   0.000000;0.000000;0.000000;;
   0.000000;0.000000;0.000000;;

   TextureFilename  {
    "Iron1.png";
   }
  }

  Material  {
   0.705882;0.705882;0.705882;1.000000;;
   0.000000;
   0.000000;0.000000;0.000000;;
   0.000000;0.000000;0.000000;;

   TextureFilename  {
    "Iron1.png";
   }
  }

  Material  {
   0.705882;0.705882;0.705882;1.000000;;
   0.000000;
   0.000000;0.000000;0.000000;;
   0.000000;0.000000;0.000000;;

   TextureFilename  {
    "Iron1.png";
   }
  }

  Material  {
   0.705882;0.705882;0.705882;1.000000;;
   0.000000;
   0.000000;0.000000;0.000000;;
   0.000000;0.000000;0.000000;;

   TextureFilename  {
    "Iron1.png";
   }
  }

  Material  {
   0.705882;0.705882;0.705882;1.000000;;
   0.000000;
   0.000000;0.000000;0.000000;;
   0.000000;0.000000;0.000000;;

   TextureFilename  {
    "Iron1.png";
   }
  }

  Material  {
   1.000000;1.000000;1.000000;1.000000;;
   0.000000;
   0.000000;0.000000;0.000000;;
   0.000000;0.000000;0.000000;;

   TextureFilename  {
    "Wall.png";
   }
  }

  Material  {
   1.000000;1.000000;1.000000;1.000000;;
   0.000000;
   0.000000;0.000000;0.000000;;
   0.000000;0.000000;0.000000;;

   TextureFilename  {
    "Window.png";
   }
  }

  Material  {
   1.000000;1.000000;1.000000;1.000000;;
   0.000000;
   0.000000;0.000000;0.000000;;
   0.000000;0.000000;0.000000;;

   TextureFilename  {
    "Window.png";
   }
  }

  Material  {
   1.000000;1.000000;1.000000;1.000000;;
   0.000000;
   0.000000;0.000000;0.000000;;
   0.000000;0.000000;0.000000;;

   TextureFilename  {
    "Window.png";
   }
  }

  Material  {
   1.000000;1.000000;1.000000;1.000000;;
   0.000000;
   0.000000;0.000000;0.000000;;
   0.000000;0.000000;0.000000;;

   TextureFilename  {
    "Window.png";
   }
  }

  Material  {
   1.000000;1.000000;1.000000;1.000000;;
   0.000000;
   0.000000;0.000000;0.000000;;
   0.000000;0.000000;0.000000;;

   TextureFilename  {
    "Kaidan.png";
   }
  }

  Material  {
   1.000000;1.000000;1.000000;1.000000;;
   0.000000;
   0.000000;0.000000;0.000000;;
   0.000000;0.000000;0.000000;;

   TextureFilename  {
    "Kaidan2.png";
   }
  }

  Material  {
   1.000000;1.000000;1.000000;1.000000;;
   0.000000;
   0.000000;0.000000;0.000000;;
   0.000000;0.000000;0.000000;;

   TextureFilename  {
    "Kaidan.png";
   }
  }

  Material  {
   1.000000;1.000000;1.000000;1.000000;;
   0.000000;
   0.000000;0.000000;0.000000;;
   0.000000;0.000000;0.000000;;

   TextureFilename  {
    "Kaidan2.png";
   }
  }
 }

 MeshTextureCoords  {
  276;
  0.000000;0.000000;,
  0.000000;0.870000;,
  0.000000;1.000000;,
  1.000000;0.000000;,
  1.000000;0.870000;,
  1.000000;1.000000;,
  0.000000;0.000000;,
  0.000000;0.870000;,
  0.000000;1.000000;,
  1.000000;0.000000;,
  1.000000;0.870000;,
  1.000000;1.000000;,
  0.000000;0.000000;,
  0.000000;0.870000;,
  0.000000;1.000000;,
  1.000000;0.000000;,
  1.000000;0.870000;,
  1.000000;1.000000;,
  0.000000;0.000000;,
  0.000000;0.870000;,
  0.000000;1.000000;,
  1.000000;0.000000;,
  1.000000;0.870000;,
  1.000000;1.000000;,
  0.000000;0.000000;,
  0.000000;0.870000;,
  0.000000;1.000000;,
  1.000000;0.000000;,
  1.000000;0.870000;,
  1.000000;1.000000;,
  0.000000;0.000000;,
  0.000000;0.870000;,
  0.000000;1.000000;,
  1.000000;0.000000;,
  1.000000;0.870000;,
  1.000000;1.000000;,
  1.000000;0.000000;,
  0.000000;1.000000;,
  0.200000;1.000000;,
  0.878000;1.000000;,
  1.000000;1.000000;,
  0.878000;0.000000;,
  0.000000;0.000000;,
  0.000000;0.970000;,
  0.200000;0.970000;,
  0.600000;0.970000;,
  0.878000;0.970000;,
  1.000000;1.000000;,
  0.700000;1.000000;,
  0.000000;1.000000;,
  1.000000;0.000000;,
  0.700000;0.000000;,
  0.000000;0.000000;,
  1.000000;1.000000;,
  0.700000;1.000000;,
  0.000000;1.000000;,
  1.000000;0.000000;,
  0.700000;0.000000;,
  0.000000;0.000000;,
  1.000000;0.000000;,
  0.000000;1.000000;,
  0.200000;1.000000;,
  0.878000;1.000000;,
  1.000000;1.000000;,
  0.878000;0.000000;,
  0.000000;0.000000;,
  0.000000;0.970000;,
  0.200000;0.970000;,
  0.600000;0.970000;,
  0.878000;0.970000;,
  1.000000;1.000000;,
  0.700000;1.000000;,
  0.000000;1.000000;,
  1.000000;0.000000;,
  0.700000;0.000000;,
  0.000000;0.000000;,
  1.000000;1.000000;,
  0.700000;1.000000;,
  0.000000;1.000000;,
  1.000000;0.000000;,
  0.700000;0.000000;,
  0.000000;0.000000;,
  0.000000;0.000000;,
  0.000000;0.870000;,
  0.000000;1.000000;,
  1.000000;0.000000;,
  1.000000;0.870000;,
  1.000000;1.000000;,
  0.000000;0.000000;,
  0.000000;0.870000;,
  0.000000;1.000000;,
  1.000000;0.000000;,
  1.000000;0.870000;,
  1.000000;1.000000;,
  0.000000;0.000000;,
  0.000000;0.870000;,
  0.000000;1.000000;,
  1.000000;0.000000;,
  1.000000;0.870000;,
  1.000000;1.000000;,
  0.000000;0.000000;,
  0.000000;0.870000;,
  0.000000;1.000000;,
  1.000000;0.000000;,
  1.000000;0.870000;,
  1.000000;1.000000;,
  0.000000;0.000000;,
  0.000000;0.870000;,
  0.000000;1.000000;,
  1.000000;0.000000;,
  1.000000;0.870000;,
  1.000000;1.000000;,
  0.000000;0.000000;,
  0.000000;0.870000;,
  0.000000;1.000000;,
  1.000000;0.000000;,
  1.000000;0.870000;,
  1.000000;1.000000;,
  0.000000;0.000000;,
  0.000000;0.870000;,
  0.000000;1.000000;,
  1.000000;0.000000;,
  1.000000;0.870000;,
  1.000000;1.000000;,
  0.000000;0.000000;,
  0.000000;0.870000;,
  0.000000;1.000000;,
  1.000000;0.000000;,
  1.000000;0.870000;,
  1.000000;1.000000;,
  0.000000;0.000000;,
  0.000000;0.870000;,
  0.000000;1.000000;,
  1.000000;0.000000;,
  1.000000;0.870000;,
  1.000000;1.000000;,
  0.000000;0.000000;,
  0.000000;0.870000;,
  0.000000;1.000000;,
  1.000000;0.000000;,
  1.000000;0.870000;,
  1.000000;1.000000;,
  0.000000;0.000000;,
  0.000000;0.870000;,
  0.000000;1.000000;,
  1.000000;0.000000;,
  1.000000;0.870000;,
  1.000000;1.000000;,
  0.000000;0.000000;,
  0.000000;0.870000;,
  0.000000;1.000000;,
  1.000000;0.000000;,
  1.000000;0.870000;,
  1.000000;1.000000;,
  0.000000;0.000000;,
  0.000000;0.870000;,
  0.000000;1.000000;,
  1.000000;0.000000;,
  1.000000;0.870000;,
  1.000000;1.000000;,
  0.000000;0.000000;,
  0.000000;0.870000;,
  0.000000;1.000000;,
  1.000000;0.000000;,
  1.000000;0.870000;,
  1.000000;1.000000;,
  0.000000;0.000000;,
  0.000000;0.870000;,
  0.000000;1.000000;,
  1.000000;0.000000;,
  1.000000;0.870000;,
  1.000000;1.000000;,
  0.000000;0.000000;,
  0.000000;0.870000;,
  0.000000;1.000000;,
  1.000000;0.000000;,
  1.000000;0.870000;,
  1.000000;1.000000;,
  0.000000;0.000000;,
  0.000000;0.870000;,
  0.000000;1.000000;,
  1.000000;0.000000;,
  1.000000;0.870000;,
  1.000000;1.000000;,
  0.000000;0.000000;,
  0.000000;0.870000;,
  0.000000;1.000000;,
  1.000000;0.000000;,
  1.000000;0.870000;,
  1.000000;1.000000;,
  0.000000;0.000000;,
  0.000000;0.870000;,
  0.000000;1.000000;,
  1.000000;0.000000;,
  1.000000;0.870000;,
  1.000000;1.000000;,
  0.000000;0.000000;,
  0.000000;0.870000;,
  0.000000;1.000000;,
  1.000000;0.000000;,
  1.000000;0.870000;,
  1.000000;1.000000;,
  0.000000;1.000000;,
  0.000000;0.320000;,
  0.000000;0.120000;,
  0.000000;0.000000;,
  4.000000;1.000000;,
  4.000000;0.320000;,
  4.000000;0.120000;,
  4.000000;0.000000;,
  0.000000;1.000000;,
  0.000000;0.000000;,
  1.000000;0.000000;,
  1.000000;1.000000;,
  0.000000;1.000000;,
  0.000000;0.000000;,
  1.000000;0.000000;,
  1.000000;1.000000;,
  0.000000;1.000000;,
  0.000000;0.000000;,
  2.000000;0.000000;,
  2.000000;1.000000;,
  0.000000;1.000000;,
  0.000000;0.000000;,
  2.000000;0.000000;,
  2.000000;1.000000;,
  0.000000;0.000000;,
  0.314000;0.000000;,
  7.780000;0.000000;,
  8.533000;0.000000;,
  16.000000;0.000000;,
  0.000000;0.950000;,
  0.063000;0.950000;,
  7.529000;0.950000;,
  8.282000;0.950000;,
  15.749000;0.950000;,
  16.000000;0.950000;,
  0.000000;1.000000;,
  0.063000;1.000000;,
  7.529000;1.000000;,
  8.282000;1.000000;,
  15.749000;1.000000;,
  16.000000;1.000000;,
  0.000000;0.000000;,
  0.000000;3.000000;,
  0.000000;3.000000;,
  0.000000;6.000000;,
  1.000000;0.000000;,
  1.000000;3.000000;,
  1.000000;3.000000;,
  1.000000;6.000000;,
  0.000000;0.000000;,
  0.314000;0.000000;,
  7.780000;0.000000;,
  8.533000;0.000000;,
  16.000000;0.000000;,
  0.000000;0.950000;,
  0.063000;0.950000;,
  7.529000;0.950000;,
  8.282000;0.950000;,
  15.749000;0.950000;,
  16.000000;0.950000;,
  0.000000;1.000000;,
  0.063000;1.000000;,
  7.529000;1.000000;,
  8.282000;1.000000;,
  15.749000;1.000000;,
  16.000000;1.000000;,
  0.000000;0.000000;,
  0.000000;3.000000;,
  0.000000;3.000000;,
  0.000000;6.000000;,
  1.000000;0.000000;,
  1.000000;3.000000;,
  1.000000;3.000000;,
  1.000000;6.000000;;
 }

 MeshNormals  {
  208;
  0.000000;-1.000000;0.000000;,
  0.000000;-1.000000;0.000000;,
  0.000000;0.000000;-1.000000;,
  0.000000;0.000000;-1.000000;,
  0.000000;-1.000000;0.000000;,
  0.000000;-1.000000;0.000000;,
  0.000000;0.000000;-1.000000;,
  0.000000;0.000000;-1.000000;,
  0.000000;-1.000000;0.000000;,
  0.000000;-1.000000;0.000000;,
  0.000000;0.000000;-1.000000;,
  0.000000;0.000000;-1.000000;,
  0.000000;-1.000000;0.000000;,
  0.000000;-1.000000;0.000000;,
  0.000000;0.000000;-1.000000;,
  0.000000;0.000000;-1.000000;,
  0.000000;-1.000000;0.000000;,
  0.000000;-1.000000;0.000000;,
  1.000000;0.000000;0.000000;,
  1.000000;0.000000;0.000000;,
  0.000000;-1.000000;0.000000;,
  0.000000;-1.000000;0.000000;,
  -1.000000;0.000000;0.000000;,
  -1.000000;0.000000;0.000000;,
  -1.000000;0.000000;0.000000;,
  -1.000000;0.000000;0.000000;,
  -1.000000;0.000000;0.000000;,
  -1.000000;0.000000;0.000000;,
  0.000000;-0.980581;0.196116;,
  0.000000;-0.980581;0.196116;,
  0.000000;-1.000000;0.000000;,
  0.000000;-1.000000;0.000000;,
  0.000000;-0.980581;-0.196116;,
  0.000000;-0.980581;-0.196116;,
  0.000000;0.000000;-1.000000;,
  0.000000;0.000000;-1.000000;,
  0.000000;0.000000;-1.000000;,
  0.000000;0.000000;-1.000000;,
  -1.000000;0.000000;0.000000;,
  -1.000000;0.000000;0.000000;,
  0.000000;0.000000;-1.000000;,
  0.000000;0.000000;-1.000000;,
  -1.000000;0.000000;0.000000;,
  -1.000000;0.000000;0.000000;,
  1.000000;0.000000;0.000000;,
  1.000000;0.000000;0.000000;,
  1.000000;0.000000;0.000000;,
  1.000000;0.000000;0.000000;,
  0.000000;-0.980581;0.196116;,
  0.000000;-0.980581;0.196116;,
  0.000000;-1.000000;0.000000;,
  0.000000;-1.000000;0.000000;,
  0.000000;-0.980581;-0.196116;,
  0.000000;-0.980581;-0.196116;,
  0.000000;0.000000;-1.000000;,
  0.000000;0.000000;-1.000000;,
  0.000000;0.000000;-1.000000;,
  0.000000;0.000000;-1.000000;,
  1.000000;0.000000;0.000000;,
  1.000000;0.000000;0.000000;,
  0.000000;0.000000;-1.000000;,
  0.000000;0.000000;-1.000000;,
  1.000000;0.000000;0.000000;,
  1.000000;0.000000;0.000000;,
  0.000000;-1.000000;0.000000;,
  0.000000;-1.000000;0.000000;,
  -0.707107;0.000000;-0.707107;,
  -0.707107;0.000000;-0.707107;,
  0.000000;-1.000000;0.000000;,
  0.000000;-1.000000;0.000000;,
  -0.707107;0.000000;-0.707107;,
  -0.707107;0.000000;-0.707107;,
  0.000000;-1.000000;0.000000;,
  0.000000;-1.000000;0.000000;,
  -0.707107;0.000000;-0.707107;,
  -0.707107;0.000000;-0.707107;,
  0.000000;-1.000000;0.000000;,
  0.000000;-1.000000;0.000000;,
  -0.707107;0.000000;-0.707107;,
  -0.707107;0.000000;-0.707107;,
  0.000000;-1.000000;0.000000;,
  0.000000;-1.000000;0.000000;,
  -0.707107;0.000000;-0.707107;,
  -0.707107;0.000000;-0.707107;,
  0.000000;-1.000000;0.000000;,
  0.000000;-1.000000;0.000000;,
  0.707107;0.000000;-0.707107;,
  0.707107;0.000000;-0.707107;,
  0.000000;-1.000000;0.000000;,
  0.000000;-1.000000;0.000000;,
  0.707107;0.000000;-0.707107;,
  0.707107;0.000000;-0.707107;,
  0.000000;-1.000000;0.000000;,
  0.000000;-1.000000;0.000000;,
  0.707107;0.000000;-0.707107;,
  0.707107;0.000000;-0.707107;,
  0.000000;-1.000000;0.000000;,
  0.000000;-1.000000;0.000000;,
  0.707107;0.000000;-0.707107;,
  0.707107;0.000000;-0.707107;,
  0.000000;-1.000000;0.000000;,
  0.000000;-1.000000;0.000000;,
  0.707107;0.000000;-0.707107;,
  0.707107;0.000000;-0.707107;,
  0.000000;-1.000000;0.000000;,
  0.000000;-1.000000;0.000000;,
  -0.707107;0.000000;-0.707107;,
  -0.707107;0.000000;-0.707107;,
  0.000000;-1.000000;0.000000;,
  0.000000;-1.000000;0.000000;,
  -0.707107;0.000000;-0.707107;,
  -0.707107;0.000000;-0.707107;,
  0.000000;-1.000000;0.000000;,
  0.000000;-1.000000;0.000000;,
  -0.707107;0.000000;-0.707107;,
  -0.707107;0.000000;-0.707107;,
  0.000000;-1.000000;0.000000;,
  0.000000;-1.000000;0.000000;,
  -0.707107;0.000000;-0.707107;,
  -0.707107;0.000000;-0.707107;,
  0.000000;-1.000000;0.000000;,
  0.000000;-1.000000;0.000000;,
  -0.707107;0.000000;-0.707107;,
  -0.707107;0.000000;-0.707107;,
  0.000000;-1.000000;0.000000;,
  0.000000;-1.000000;0.000000;,
  0.707107;0.000000;-0.707107;,
  0.707107;0.000000;-0.707107;,
  0.000000;-1.000000;0.000000;,
  0.000000;-1.000000;0.000000;,
  0.707107;0.000000;-0.707107;,
  0.707107;0.000000;-0.707107;,
  0.000000;-1.000000;0.000000;,
  0.000000;-1.000000;0.000000;,
  0.707107;0.000000;-0.707107;,
  0.707107;0.000000;-0.707107;,
  0.000000;-1.000000;0.000000;,
  0.000000;-1.000000;0.000000;,
  0.707107;0.000000;-0.707107;,
  0.707107;0.000000;-0.707107;,
  0.000000;-1.000000;0.000000;,
  0.000000;-1.000000;0.000000;,
  0.707107;0.000000;-0.707107;,
  0.707107;0.000000;-0.707107;,
  0.000000;0.000000;-1.000000;,
  0.000000;0.000000;-1.000000;,
  0.000000;-1.000000;0.000000;,
  0.000000;-1.000000;0.000000;,
  0.000000;0.000000;-1.000000;,
  0.000000;0.000000;-1.000000;,
  0.000000;0.000000;-1.000000;,
  0.000000;0.000000;-1.000000;,
  0.000000;0.000000;-1.000000;,
  0.000000;0.000000;-1.000000;,
  0.000000;0.000000;-1.000000;,
  0.000000;0.000000;-1.000000;,
  0.000000;0.000000;-1.000000;,
  0.000000;0.000000;-1.000000;,
  0.000000;0.000000;-1.000000;,
  0.000000;0.000000;-1.000000;,
  0.000000;0.000000;-1.000000;,
  0.000000;0.000000;-1.000000;,
  0.000000;0.000000;-1.000000;,
  0.000000;0.000000;-1.000000;,
  0.000000;0.000000;-1.000000;,
  0.000000;0.000000;-1.000000;,
  0.000000;0.000000;-1.000000;,
  0.000000;-1.000000;0.000000;,
  0.000000;-1.000000;0.000000;,
  0.507020;-0.861934;0.000000;,
  0.507020;-0.861934;0.000000;,
  0.000000;-1.000000;0.000000;,
  0.000000;-1.000000;0.000000;,
  0.507020;-0.861934;0.000000;,
  0.507020;-0.861934;0.000000;,
  0.000000;-1.000000;0.000000;,
  0.000000;-1.000000;0.000000;,
  0.503871;-0.863779;0.000000;,
  0.503871;-0.863779;0.000000;,
  0.000000;-1.000000;0.000000;,
  0.000000;-1.000000;0.000000;,
  0.505179;-0.863014;0.000000;,
  0.505179;-0.863014;0.000000;,
  0.000000;0.000000;-1.000000;,
  0.000000;0.000000;-1.000000;,
  0.000000;0.000000;-1.000000;,
  0.000000;0.000000;-1.000000;,
  0.000000;0.000000;-1.000000;,
  0.000000;0.000000;-1.000000;,
  0.000000;0.000000;-1.000000;,
  0.000000;0.000000;-1.000000;,
  0.000000;0.000000;-1.000000;,
  0.000000;-1.000000;0.000000;,
  0.000000;-1.000000;0.000000;,
  -0.507020;-0.861934;0.000000;,
  -0.507020;-0.861934;0.000000;,
  0.000000;-1.000000;0.000000;,
  0.000000;-1.000000;0.000000;,
  -0.507020;-0.861934;0.000000;,
  -0.507020;-0.861934;0.000000;,
  0.000000;-1.000000;0.000000;,
  0.000000;-1.000000;0.000000;,
  -0.503871;-0.863779;0.000000;,
  -0.503871;-0.863779;0.000000;,
  0.000000;-1.000000;0.000000;,
  0.000000;-1.000000;0.000000;,
  -0.505179;-0.863014;0.000000;,
  -0.505179;-0.863014;0.000000;;
  208;
  3;0,0,0;,
  3;1,1,1;,
  3;2,2,2;,
  3;3,3,3;,
  3;4,4,4;,
  3;5,5,5;,
  3;6,6,6;,
  3;7,7,7;,
  3;8,8,8;,
  3;9,9,9;,
  3;10,10,10;,
  3;11,11,11;,
  3;12,12,12;,
  3;13,13,13;,
  3;14,14,14;,
  3;15,15,15;,
  3;16,16,16;,
  3;17,17,17;,
  3;18,18,18;,
  3;19,19,19;,
  3;20,20,20;,
  3;21,21,21;,
  3;22,22,22;,
  3;23,23,23;,
  3;24,24,24;,
  3;25,25,25;,
  3;26,26,26;,
  3;27,27,27;,
  3;28,28,28;,
  3;29,29,29;,
  3;30,30,30;,
  3;31,31,31;,
  3;32,32,32;,
  3;33,33,33;,
  3;34,34,34;,
  3;35,35,35;,
  3;36,36,36;,
  3;37,37,37;,
  3;38,38,38;,
  3;39,39,39;,
  3;40,40,40;,
  3;41,41,41;,
  3;42,42,42;,
  3;43,43,43;,
  3;44,44,44;,
  3;45,45,45;,
  3;46,46,46;,
  3;47,47,47;,
  3;48,48,48;,
  3;49,49,49;,
  3;50,50,50;,
  3;51,51,51;,
  3;52,52,52;,
  3;53,53,53;,
  3;54,54,54;,
  3;55,55,55;,
  3;56,56,56;,
  3;57,57,57;,
  3;58,58,58;,
  3;59,59,59;,
  3;60,60,60;,
  3;61,61,61;,
  3;62,62,62;,
  3;63,63,63;,
  3;64,64,64;,
  3;65,65,65;,
  3;66,66,66;,
  3;67,67,67;,
  3;68,68,68;,
  3;69,69,69;,
  3;70,70,70;,
  3;71,71,71;,
  3;72,72,72;,
  3;73,73,73;,
  3;74,74,74;,
  3;75,75,75;,
  3;76,76,76;,
  3;77,77,77;,
  3;78,78,78;,
  3;79,79,79;,
  3;80,80,80;,
  3;81,81,81;,
  3;82,82,82;,
  3;83,83,83;,
  3;84,84,84;,
  3;85,85,85;,
  3;86,86,86;,
  3;87,87,87;,
  3;88,88,88;,
  3;89,89,89;,
  3;90,90,90;,
  3;91,91,91;,
  3;92,92,92;,
  3;93,93,93;,
  3;94,94,94;,
  3;95,95,95;,
  3;96,96,96;,
  3;97,97,97;,
  3;98,98,98;,
  3;99,99,99;,
  3;100,100,100;,
  3;101,101,101;,
  3;102,102,102;,
  3;103,103,103;,
  3;104,104,104;,
  3;105,105,105;,
  3;106,106,106;,
  3;107,107,107;,
  3;108,108,108;,
  3;109,109,109;,
  3;110,110,110;,
  3;111,111,111;,
  3;112,112,112;,
  3;113,113,113;,
  3;114,114,114;,
  3;115,115,115;,
  3;116,116,116;,
  3;117,117,117;,
  3;118,118,118;,
  3;119,119,119;,
  3;120,120,120;,
  3;121,121,121;,
  3;122,122,122;,
  3;123,123,123;,
  3;124,124,124;,
  3;125,125,125;,
  3;126,126,126;,
  3;127,127,127;,
  3;128,128,128;,
  3;129,129,129;,
  3;130,130,130;,
  3;131,131,131;,
  3;132,132,132;,
  3;133,133,133;,
  3;134,134,134;,
  3;135,135,135;,
  3;136,136,136;,
  3;137,137,137;,
  3;138,138,138;,
  3;139,139,139;,
  3;140,140,140;,
  3;141,141,141;,
  3;142,142,142;,
  3;143,143,143;,
  3;144,144,144;,
  3;145,145,145;,
  3;146,146,146;,
  3;147,147,147;,
  3;148,148,148;,
  3;149,149,149;,
  3;150,150,150;,
  3;151,151,151;,
  3;152,152,152;,
  3;153,153,153;,
  3;154,154,154;,
  3;155,155,155;,
  3;156,156,156;,
  3;157,157,157;,
  3;158,158,158;,
  3;159,159,159;,
  3;160,160,160;,
  3;161,161,161;,
  3;162,162,162;,
  3;163,163,163;,
  3;164,164,164;,
  3;165,165,165;,
  3;166,166,166;,
  3;167,167,167;,
  3;168,168,168;,
  3;169,169,169;,
  3;170,170,170;,
  3;171,171,171;,
  3;172,172,172;,
  3;173,173,173;,
  3;174,174,174;,
  3;175,175,175;,
  3;176,176,176;,
  3;177,177,177;,
  3;178,178,178;,
  3;179,179,179;,
  3;180,180,180;,
  3;181,181,181;,
  3;182,182,182;,
  3;183,183,183;,
  3;184,184,184;,
  3;185,185,185;,
  3;186,186,186;,
  3;187,187,187;,
  3;188,188,188;,
  3;189,189,189;,
  3;190,190,190;,
  3;191,191,191;,
  3;192,192,192;,
  3;193,193,193;,
  3;194,194,194;,
  3;195,195,195;,
  3;196,196,196;,
  3;197,197,197;,
  3;198,198,198;,
  3;199,199,199;,
  3;200,200,200;,
  3;201,201,201;,
  3;202,202,202;,
  3;203,203,203;,
  3;204,204,204;,
  3;205,205,205;,
  3;206,206,206;,
  3;207,207,207;;
 }
}