xof 0303txt 0032
template Vector {
 <3d82ab5e-62da-11cf-ab39-0020af71e433>
 FLOAT x;
 FLOAT y;
 FLOAT z;
}

template MeshFace {
 <3d82ab5f-62da-11cf-ab39-0020af71e433>
 DWORD nFaceVertexIndices;
 array DWORD faceVertexIndices[nFaceVertexIndices];
}

template Mesh {
 <3d82ab44-62da-11cf-ab39-0020af71e433>
 DWORD nVertices;
 array Vector vertices[nVertices];
 DWORD nFaces;
 array MeshFace faces[nFaces];
 [...]
}

template ColorRGBA {
 <35ff44e0-6c7c-11cf-8f52-0040333594a3>
 FLOAT red;
 FLOAT green;
 FLOAT blue;
 FLOAT alpha;
}

template ColorRGB {
 <d3e16e81-7835-11cf-8f52-0040333594a3>
 FLOAT red;
 FLOAT green;
 FLOAT blue;
}

template Material {
 <3d82ab4d-62da-11cf-ab39-0020af71e433>
 ColorRGBA faceColor;
 FLOAT power;
 ColorRGB specularColor;
 ColorRGB emissiveColor;
 [...]
}

template MeshMaterialList {
 <f6f23f42-7686-11cf-8f52-0040333594a3>
 DWORD nMaterials;
 DWORD nFaceIndexes;
 array DWORD faceIndexes[nFaceIndexes];
 [Material <3d82ab4d-62da-11cf-ab39-0020af71e433>]
}

template TextureFilename {
 <a42790e1-7810-11cf-8f52-0040333594a3>
 STRING filename;
}

template Coords2d {
 <f6f23f44-7686-11cf-8f52-0040333594a3>
 FLOAT u;
 FLOAT v;
}

template MeshTextureCoords {
 <f6f23f40-7686-11cf-8f52-0040333594a3>
 DWORD nTextureCoords;
 array Coords2d textureCoords[nTextureCoords];
}

template MeshNormals {
 <f6f23f43-7686-11cf-8f52-0040333594a3>
 DWORD nNormals;
 array Vector normals[nNormals];
 DWORD nFaceNormals;
 array MeshFace faceNormals[nFaceNormals];
}


Mesh  {
 174;
 8.100000;7.800000;-21.000000;,
 8.100000;7.800000;-20.500000;,
 8.100000;5.250000;-16.000000;,
 8.100000;5.250000;-15.250000;,
 8.100000;2.700000;-10.750000;,
 8.100000;2.700000;-10.000000;,
 8.100000;6.200000;-21.000000;,
 8.100000;6.200000;-20.500000;,
 8.100000;3.550000;-16.000000;,
 8.100000;3.550000;-15.250000;,
 8.100000;0.900000;-10.750000;,
 8.100000;0.900000;-10.000000;,
 8.400000;6.200000;-21.000000;,
 8.400000;6.200000;-20.500000;,
 8.400000;3.550000;-16.000000;,
 8.400000;3.550000;-15.250000;,
 8.400000;0.900000;-10.750000;,
 8.400000;0.900000;-10.000000;,
 8.400000;6.400000;-20.500000;,
 8.400000;3.750000;-16.000000;,
 8.400000;3.750000;-15.250000;,
 8.400000;1.100000;-10.750000;,
 9.400000;6.400000;-20.500000;,
 9.400000;3.750000;-16.000000;,
 9.400000;3.750000;-15.250000;,
 9.400000;1.100000;-10.750000;,
 9.400000;6.400000;-21.000000;,
 9.400000;6.400000;-20.500000;,
 9.400000;3.750000;-16.000000;,
 9.400000;3.750000;-15.250000;,
 9.400000;1.100000;-10.750000;,
 9.400000;1.100000;-10.000000;,
 9.400000;6.200000;-21.000000;,
 9.400000;6.200000;-20.500000;,
 9.400000;3.550000;-16.000000;,
 9.400000;3.550000;-15.250000;,
 9.400000;0.900000;-10.750000;,
 9.400000;0.900000;-10.000000;,
 9.700000;6.200000;-21.000000;,
 9.700000;6.200000;-20.500000;,
 9.700000;3.550000;-16.000000;,
 9.700000;3.550000;-15.250000;,
 9.700000;0.900000;-10.750000;,
 9.700000;0.900000;-10.000000;,
 9.400000;8.800000;-21.000000;,
 9.400000;8.800000;-20.500000;,
 9.400000;4.100000;-10.750000;,
 9.400000;4.100000;-10.000000;,
 8.090000;8.800000;-21.000000;,
 8.090000;8.800000;-20.500000;,
 8.090000;4.100000;-10.750000;,
 8.090000;4.100000;-10.000000;,
 8.090000;6.400000;-21.000000;,
 8.090000;6.400000;-20.500000;,
 8.090000;3.750000;-16.000000;,
 8.090000;3.750000;-15.250000;,
 8.090000;1.100000;-10.750000;,
 8.090000;1.100000;-10.000000;,
 -2.200000;7.800000;-21.000000;,
 -2.200000;7.800000;-20.500000;,
 -2.200000;5.250000;-16.000000;,
 -2.200000;5.250000;-15.250000;,
 -2.200000;2.700000;-10.750000;,
 -2.200000;2.700000;-10.000000;,
 -2.200000;6.200000;-21.000000;,
 -2.200000;6.200000;-20.500000;,
 -2.200000;3.550000;-16.000000;,
 -2.200000;3.550000;-15.250000;,
 -2.200000;0.900000;-10.750000;,
 -2.200000;0.900000;-10.000000;,
 -2.500000;6.200000;-21.000000;,
 -2.500000;6.200000;-20.500000;,
 -2.500000;3.550000;-16.000000;,
 -2.500000;3.550000;-15.250000;,
 -2.500000;0.900000;-10.750000;,
 -2.500000;0.900000;-10.000000;,
 -3.500000;6.400000;-20.500000;,
 -3.500000;3.750000;-16.000000;,
 -3.500000;3.750000;-15.250000;,
 -3.500000;1.100000;-10.750000;,
 -2.500000;6.400000;-20.500000;,
 -2.500000;3.750000;-16.000000;,
 -2.500000;3.750000;-15.250000;,
 -2.500000;1.100000;-10.750000;,
 -3.500000;6.400000;-21.000000;,
 -3.500000;6.400000;-20.500000;,
 -3.500000;3.750000;-16.000000;,
 -3.500000;3.750000;-15.250000;,
 -3.500000;1.100000;-10.750000;,
 -3.500000;1.100000;-10.000000;,
 -3.500000;6.200000;-21.000000;,
 -3.500000;6.200000;-20.500000;,
 -3.500000;3.550000;-16.000000;,
 -3.500000;3.550000;-15.250000;,
 -3.500000;0.900000;-10.750000;,
 -3.500000;0.900000;-10.000000;,
 -3.800000;6.200000;-21.000000;,
 -3.800000;6.200000;-20.500000;,
 -3.800000;3.550000;-16.000000;,
 -3.800000;3.550000;-15.250000;,
 -3.800000;0.900000;-10.750000;,
 -3.800000;0.900000;-10.000000;,
 -3.800000;8.800000;-21.000000;,
 -3.800000;8.800000;-20.500000;,
 -3.800000;4.100000;-10.750000;,
 -3.800000;4.100000;-10.000000;,
 -2.190000;8.800000;-21.000000;,
 -2.190000;8.800000;-20.500000;,
 -2.190000;4.100000;-10.750000;,
 -2.190000;4.100000;-10.000000;,
 -2.190000;6.400000;-21.000000;,
 -2.190000;6.400000;-20.500000;,
 -2.190000;3.750000;-16.000000;,
 -2.190000;3.750000;-15.250000;,
 -2.190000;1.100000;-10.750000;,
 -2.190000;1.100000;-10.000000;,
 -9.400000;7.800000;-21.000000;,
 -9.400000;7.800000;-20.500000;,
 -9.400000;5.250000;-16.000000;,
 -9.400000;5.250000;-15.250000;,
 -9.400000;2.700000;-10.750000;,
 -9.400000;2.700000;-10.000000;,
 -9.400000;6.200000;-21.000000;,
 -9.400000;6.200000;-20.500000;,
 -9.400000;3.550000;-16.000000;,
 -9.400000;3.550000;-15.250000;,
 -9.400000;0.900000;-10.750000;,
 -9.400000;0.900000;-10.000000;,
 -9.700000;6.200000;-21.000000;,
 -9.700000;6.200000;-20.500000;,
 -9.700000;3.550000;-16.000000;,
 -9.700000;3.550000;-15.250000;,
 -9.700000;0.900000;-10.750000;,
 -9.700000;0.900000;-10.000000;,
 -10.700000;6.400000;-20.500000;,
 -10.700000;3.750000;-16.000000;,
 -10.700000;3.750000;-15.250000;,
 -10.700000;1.100000;-10.750000;,
 -9.700000;6.400000;-20.500000;,
 -9.700000;3.750000;-16.000000;,
 -9.700000;3.750000;-15.250000;,
 -9.700000;1.100000;-10.750000;,
 -10.700000;6.400000;-21.000000;,
 -10.700000;6.400000;-20.500000;,
 -10.700000;3.750000;-16.000000;,
 -10.700000;3.750000;-15.250000;,
 -10.700000;1.100000;-10.750000;,
 -10.700000;1.100000;-10.000000;,
 -10.700000;6.200000;-21.000000;,
 -10.700000;6.200000;-20.500000;,
 -10.700000;3.550000;-16.000000;,
 -10.700000;3.550000;-15.250000;,
 -10.700000;0.900000;-10.750000;,
 -10.700000;0.900000;-10.000000;,
 -11.000000;6.200000;-21.000000;,
 -11.000000;6.200000;-20.500000;,
 -11.000000;3.550000;-16.000000;,
 -11.000000;3.550000;-15.250000;,
 -11.000000;0.900000;-10.750000;,
 -11.000000;0.900000;-10.000000;,
 -11.000000;8.800000;-21.000000;,
 -11.000000;8.800000;-20.500000;,
 -11.000000;4.100000;-10.750000;,
 -11.000000;4.100000;-10.000000;,
 -9.390000;8.800000;-21.000000;,
 -9.390000;8.800000;-20.500000;,
 -9.390000;4.100000;-10.750000;,
 -9.390000;4.100000;-10.000000;,
 -9.390000;6.400000;-21.000000;,
 -9.390000;6.400000;-20.500000;,
 -9.390000;3.750000;-16.000000;,
 -9.390000;3.750000;-15.250000;,
 -9.390000;1.100000;-10.750000;,
 -9.390000;1.100000;-10.000000;;
 180;
 3;1,0,6;,
 3;1,6,7;,
 3;2,1,7;,
 3;2,7,8;,
 3;3,2,8;,
 3;3,8,9;,
 3;4,3,9;,
 3;4,9,10;,
 3;5,4,10;,
 3;5,10,11;,
 3;7,6,12;,
 3;7,12,13;,
 3;8,7,13;,
 3;8,13,14;,
 3;9,8,14;,
 3;9,14,15;,
 3;10,9,15;,
 3;10,15,16;,
 3;11,10,16;,
 3;11,16,17;,
 3;19,18,22;,
 3;19,22,23;,
 3;20,19,23;,
 3;20,23,24;,
 3;21,20,24;,
 3;21,24,25;,
 3;27,26,32;,
 3;27,32,33;,
 3;28,27,33;,
 3;28,33,34;,
 3;29,28,34;,
 3;29,34,35;,
 3;30,29,35;,
 3;30,35,36;,
 3;31,30,36;,
 3;31,36,37;,
 3;33,32,38;,
 3;33,38,39;,
 3;34,33,39;,
 3;34,39,40;,
 3;35,34,40;,
 3;35,40,41;,
 3;36,35,41;,
 3;36,41,42;,
 3;37,36,42;,
 3;37,42,43;,
 3;49,48,44;,
 3;49,44,45;,
 3;50,49,45;,
 3;50,45,46;,
 3;51,50,46;,
 3;51,46,47;,
 3;52,53,49;,
 3;52,49,48;,
 3;53,54,49;,
 3;54,55,50;,
 3;54,50,49;,
 3;55,56,50;,
 3;56,57,51;,
 3;56,51,50;,
 3;65,64,58;,
 3;65,58,59;,
 3;66,65,59;,
 3;66,59,60;,
 3;67,66,60;,
 3;67,60,61;,
 3;68,67,61;,
 3;68,61,62;,
 3;69,68,62;,
 3;69,62,63;,
 3;71,70,64;,
 3;71,64,65;,
 3;72,71,65;,
 3;72,65,66;,
 3;73,72,66;,
 3;73,66,67;,
 3;74,73,67;,
 3;74,67,68;,
 3;75,74,68;,
 3;75,68,69;,
 3;77,76,80;,
 3;77,80,81;,
 3;78,77,81;,
 3;78,81,82;,
 3;79,78,82;,
 3;79,82,83;,
 3;91,90,84;,
 3;91,84,85;,
 3;92,91,85;,
 3;92,85,86;,
 3;93,92,86;,
 3;93,86,87;,
 3;94,93,87;,
 3;94,87,88;,
 3;95,94,88;,
 3;95,88,89;,
 3;97,96,90;,
 3;97,90,91;,
 3;98,97,91;,
 3;98,91,92;,
 3;99,98,92;,
 3;99,92,93;,
 3;100,99,93;,
 3;100,93,94;,
 3;101,100,94;,
 3;101,94,95;,
 3;103,102,106;,
 3;103,106,107;,
 3;104,103,107;,
 3;104,107,108;,
 3;105,104,108;,
 3;105,108,109;,
 3;106,107,111;,
 3;106,111,110;,
 3;107,112,111;,
 3;107,108,113;,
 3;107,113,112;,
 3;108,114,113;,
 3;108,109,115;,
 3;108,115,114;,
 3;123,122,116;,
 3;123,116,117;,
 3;124,123,117;,
 3;124,117,118;,
 3;125,124,118;,
 3;125,118,119;,
 3;126,125,119;,
 3;126,119,120;,
 3;127,126,120;,
 3;127,120,121;,
 3;129,128,122;,
 3;129,122,123;,
 3;130,129,123;,
 3;130,123,124;,
 3;131,130,124;,
 3;131,124,125;,
 3;132,131,125;,
 3;132,125,126;,
 3;133,132,126;,
 3;133,126,127;,
 3;135,134,138;,
 3;135,138,139;,
 3;136,135,139;,
 3;136,139,140;,
 3;137,136,140;,
 3;137,140,141;,
 3;149,148,142;,
 3;149,142,143;,
 3;150,149,143;,
 3;150,143,144;,
 3;151,150,144;,
 3;151,144,145;,
 3;152,151,145;,
 3;152,145,146;,
 3;153,152,146;,
 3;153,146,147;,
 3;155,154,148;,
 3;155,148,149;,
 3;156,155,149;,
 3;156,149,150;,
 3;157,156,150;,
 3;157,150,151;,
 3;158,157,151;,
 3;158,151,152;,
 3;159,158,152;,
 3;159,152,153;,
 3;161,160,164;,
 3;161,164,165;,
 3;162,161,165;,
 3;162,165,166;,
 3;163,162,166;,
 3;163,166,167;,
 3;164,165,169;,
 3;164,169,168;,
 3;165,170,169;,
 3;165,166,171;,
 3;165,171,170;,
 3;166,172,171;,
 3;166,167,173;,
 3;166,173,172;;

 MeshMaterialList  {
  12;
  180;
  0,
  0,
  0,
  0,
  0,
  0,
  0,
  0,
  0,
  0,
  0,
  0,
  0,
  0,
  0,
  0,
  0,
  0,
  0,
  0,
  1,
  1,
  1,
  1,
  1,
  1,
  2,
  2,
  2,
  2,
  2,
  2,
  2,
  2,
  2,
  2,
  2,
  2,
  2,
  2,
  2,
  2,
  2,
  2,
  2,
  2,
  3,
  3,
  3,
  3,
  3,
  3,
  3,
  3,
  3,
  3,
  3,
  3,
  3,
  3,
  4,
  4,
  4,
  4,
  4,
  4,
  4,
  4,
  4,
  4,
  4,
  4,
  4,
  4,
  4,
  4,
  4,
  4,
  4,
  4,
  5,
  5,
  5,
  5,
  5,
  5,
  6,
  6,
  6,
  6,
  6,
  6,
  6,
  6,
  6,
  6,
  6,
  6,
  6,
  6,
  6,
  6,
  6,
  6,
  6,
  6,
  7,
  7,
  7,
  7,
  7,
  7,
  7,
  7,
  7,
  7,
  7,
  7,
  7,
  7,
  8,
  8,
  8,
  8,
  8,
  8,
  8,
  8,
  8,
  8,
  8,
  8,
  8,
  8,
  8,
  8,
  8,
  8,
  8,
  8,
  9,
  9,
  9,
  9,
  9,
  9,
  10,
  10,
  10,
  10,
  10,
  10,
  10,
  10,
  10,
  10,
  10,
  10,
  10,
  10,
  10,
  10,
  10,
  10,
  10,
  10,
  11,
  11,
  11,
  11,
  11,
  11,
  11,
  11,
  11,
  11,
  11,
  11,
  11,
  11;

  Material  {
   1.000000;1.000000;1.000000;1.000000;;
   0.000000;
   0.000000;0.000000;0.000000;;
   0.000000;0.000000;0.000000;;

   TextureFilename  {
    "Kaidan3.png";
   }
  }

  Material  {
   1.000000;1.000000;1.000000;1.000000;;
   0.000000;
   0.000000;0.000000;0.000000;;
   0.000000;0.000000;0.000000;;

   TextureFilename  {
    "Kaidan2.png";
   }
  }

  Material  {
   1.000000;1.000000;1.000000;1.000000;;
   0.000000;
   0.000000;0.000000;0.000000;;
   0.000000;0.000000;0.000000;;

   TextureFilename  {
    "Kaidan3.png";
   }
  }

  Material  {
   1.000000;1.000000;1.000000;1.000000;;
   0.000000;
   0.000000;0.000000;0.000000;;
   0.000000;0.000000;0.000000;;

   TextureFilename  {
    "Kaidan4.png";
   }
  }

  Material  {
   1.000000;1.000000;1.000000;1.000000;;
   0.000000;
   0.000000;0.000000;0.000000;;
   0.000000;0.000000;0.000000;;

   TextureFilename  {
    "Kaidan3.png";
   }
  }

  Material  {
   1.000000;1.000000;1.000000;1.000000;;
   0.000000;
   0.000000;0.000000;0.000000;;
   0.000000;0.000000;0.000000;;

   TextureFilename  {
    "Kaidan2.png";
   }
  }

  Material  {
   1.000000;1.000000;1.000000;1.000000;;
   0.000000;
   0.000000;0.000000;0.000000;;
   0.000000;0.000000;0.000000;;

   TextureFilename  {
    "Kaidan3.png";
   }
  }

  Material  {
   1.000000;1.000000;1.000000;1.000000;;
   0.000000;
   0.000000;0.000000;0.000000;;
   0.000000;0.000000;0.000000;;

   TextureFilename  {
    "Kaidan4.png";
   }
  }

  Material  {
   1.000000;1.000000;1.000000;1.000000;;
   0.000000;
   0.000000;0.000000;0.000000;;
   0.000000;0.000000;0.000000;;

   TextureFilename  {
    "Kaidan3.png";
   }
  }

  Material  {
   1.000000;1.000000;1.000000;1.000000;;
   0.000000;
   0.000000;0.000000;0.000000;;
   0.000000;0.000000;0.000000;;

   TextureFilename  {
    "Kaidan2.png";
   }
  }

  Material  {
   1.000000;1.000000;1.000000;1.000000;;
   0.000000;
   0.000000;0.000000;0.000000;;
   0.000000;0.000000;0.000000;;

   TextureFilename  {
    "Kaidan3.png";
   }
  }

  Material  {
   1.000000;1.000000;1.000000;1.000000;;
   0.000000;
   0.000000;0.000000;0.000000;;
   0.000000;0.000000;0.000000;;

   TextureFilename  {
    "Kaidan4.png";
   }
  }
 }

 MeshTextureCoords  {
  174;
  0.000000;0.000000;,
  0.227500;0.000000;,
  2.272500;0.000000;,
  2.613500;0.000000;,
  4.659000;0.000000;,
  5.000000;0.000000;,
  0.000000;0.975000;,
  0.227500;0.975000;,
  2.272500;0.975000;,
  2.613500;0.975000;,
  4.659000;0.975000;,
  5.000000;0.975000;,
  0.000000;1.000000;,
  0.227500;1.000000;,
  2.272500;1.000000;,
  2.613500;1.000000;,
  4.659000;1.000000;,
  5.000000;1.000000;,
  0.000000;0.000000;,
  0.000000;3.000000;,
  0.000000;3.000000;,
  0.000000;6.000000;,
  1.000000;0.000000;,
  1.000000;3.000000;,
  1.000000;3.000000;,
  1.000000;6.000000;,
  0.000000;0.850000;,
  0.227500;0.850000;,
  2.272500;0.850000;,
  2.613500;0.850000;,
  4.659000;0.850000;,
  5.000000;0.850000;,
  0.000000;0.975000;,
  0.227500;0.975000;,
  2.272500;0.975000;,
  2.613500;0.975000;,
  4.659000;0.975000;,
  5.000000;0.975000;,
  0.000000;1.000000;,
  0.227500;1.000000;,
  2.272500;1.000000;,
  2.613500;1.000000;,
  4.659000;1.000000;,
  5.000000;1.000000;,
  0.000000;0.000000;,
  0.182000;0.000000;,
  3.727000;0.000000;,
  4.000000;0.000000;,
  0.000000;0.240000;,
  0.182000;0.240000;,
  3.727000;0.240000;,
  4.000000;0.240000;,
  0.000000;1.000000;,
  0.182000;1.000000;,
  1.818000;1.000000;,
  2.091000;1.000000;,
  3.727000;1.000000;,
  4.000000;1.000000;,
  0.000000;0.000000;,
  0.227500;0.000000;,
  2.272500;0.000000;,
  2.613500;0.000000;,
  4.659000;0.000000;,
  5.000000;0.000000;,
  0.000000;0.975000;,
  0.227500;0.975000;,
  2.272500;0.975000;,
  2.613500;0.975000;,
  4.659000;0.975000;,
  5.000000;0.975000;,
  0.000000;1.000000;,
  0.227500;1.000000;,
  2.272500;1.000000;,
  2.613500;1.000000;,
  4.659000;1.000000;,
  5.000000;1.000000;,
  0.000000;0.000000;,
  0.000000;3.000000;,
  0.000000;3.000000;,
  0.000000;6.000000;,
  1.000000;0.000000;,
  1.000000;3.000000;,
  1.000000;3.000000;,
  1.000000;6.000000;,
  0.000000;0.850000;,
  0.227500;0.850000;,
  2.272500;0.850000;,
  2.613500;0.850000;,
  4.659000;0.850000;,
  5.000000;0.850000;,
  0.000000;0.975000;,
  0.227500;0.975000;,
  2.272500;0.975000;,
  2.613500;0.975000;,
  4.659000;0.975000;,
  5.000000;0.975000;,
  0.000000;1.000000;,
  0.227500;1.000000;,
  2.272500;1.000000;,
  2.613500;1.000000;,
  4.659000;1.000000;,
  5.000000;1.000000;,
  0.000000;0.000000;,
  0.182000;0.000000;,
  3.727000;0.000000;,
  4.000000;0.000000;,
  0.000000;0.240000;,
  0.182000;0.240000;,
  3.727000;0.240000;,
  4.000000;0.240000;,
  0.000000;1.000000;,
  0.182000;1.000000;,
  1.818000;1.000000;,
  2.091000;1.000000;,
  3.727000;1.000000;,
  4.000000;1.000000;,
  0.000000;0.000000;,
  0.227500;0.000000;,
  2.272500;0.000000;,
  2.613500;0.000000;,
  4.659000;0.000000;,
  5.000000;0.000000;,
  0.000000;0.975000;,
  0.227500;0.975000;,
  2.272500;0.975000;,
  2.613500;0.975000;,
  4.659000;0.975000;,
  5.000000;0.975000;,
  0.000000;1.000000;,
  0.227500;1.000000;,
  2.272500;1.000000;,
  2.613500;1.000000;,
  4.659000;1.000000;,
  5.000000;1.000000;,
  0.000000;0.000000;,
  0.000000;3.000000;,
  0.000000;3.000000;,
  0.000000;6.000000;,
  1.000000;0.000000;,
  1.000000;3.000000;,
  1.000000;3.000000;,
  1.000000;6.000000;,
  0.000000;0.850000;,
  0.227500;0.850000;,
  2.272500;0.850000;,
  2.613500;0.850000;,
  4.659000;0.850000;,
  5.000000;0.850000;,
  0.000000;0.975000;,
  0.227500;0.975000;,
  2.272500;0.975000;,
  2.613500;0.975000;,
  4.659000;0.975000;,
  5.000000;0.975000;,
  0.000000;1.000000;,
  0.227500;1.000000;,
  2.272500;1.000000;,
  2.613500;1.000000;,
  4.659000;1.000000;,
  5.000000;1.000000;,
  0.000000;0.000000;,
  0.182000;0.000000;,
  3.727000;0.000000;,
  4.000000;0.000000;,
  0.000000;0.240000;,
  0.182000;0.240000;,
  3.727000;0.240000;,
  4.000000;0.240000;,
  0.000000;1.000000;,
  0.182000;1.000000;,
  1.818000;1.000000;,
  2.091000;1.000000;,
  3.727000;1.000000;,
  4.000000;1.000000;;
 }

 MeshNormals  {
  180;
  -1.000000;0.000000;0.000000;,
  -1.000000;0.000000;0.000000;,
  -1.000000;0.000000;0.000000;,
  -1.000000;0.000000;0.000000;,
  -1.000000;0.000000;0.000000;,
  -1.000000;0.000000;0.000000;,
  -1.000000;0.000000;0.000000;,
  -1.000000;0.000000;0.000000;,
  -1.000000;0.000000;0.000000;,
  -1.000000;0.000000;0.000000;,
  0.000000;-1.000000;0.000000;,
  0.000000;-1.000000;0.000000;,
  0.000000;-0.861688;-0.507438;,
  0.000000;-0.861688;-0.507438;,
  0.000000;-1.000000;0.000000;,
  0.000000;-1.000000;0.000000;,
  0.000000;-0.861688;-0.507438;,
  0.000000;-0.861688;-0.507438;,
  0.000000;-1.000000;0.000000;,
  0.000000;-1.000000;0.000000;,
  0.000000;-0.861688;-0.507439;,
  0.000000;-0.861688;-0.507439;,
  0.000000;-1.000000;0.000000;,
  0.000000;-1.000000;0.000000;,
  0.000000;-0.861688;-0.507439;,
  0.000000;-0.861688;-0.507439;,
  -1.000000;0.000000;0.000000;,
  -1.000000;0.000000;0.000000;,
  -1.000000;0.000000;0.000000;,
  -1.000000;0.000000;0.000000;,
  -1.000000;0.000000;0.000000;,
  -1.000000;0.000000;0.000000;,
  -1.000000;0.000000;0.000000;,
  -1.000000;0.000000;0.000000;,
  -1.000000;0.000000;0.000000;,
  -1.000000;0.000000;0.000000;,
  0.000000;-1.000000;0.000000;,
  0.000000;-1.000000;0.000000;,
  0.000000;-0.861688;-0.507438;,
  0.000000;-0.861688;-0.507438;,
  0.000000;-1.000000;0.000000;,
  0.000000;-1.000000;0.000000;,
  0.000000;-0.861688;-0.507439;,
  0.000000;-0.861688;-0.507439;,
  0.000000;-1.000000;0.000000;,
  0.000000;-1.000000;0.000000;,
  0.000000;-1.000000;0.000000;,
  0.000000;-1.000000;0.000000;,
  0.000000;-0.900801;-0.434232;,
  0.000000;-0.900801;-0.434232;,
  0.000000;-1.000000;0.000000;,
  0.000000;-1.000000;0.000000;,
  -1.000000;0.000000;0.000000;,
  -1.000000;0.000000;0.000000;,
  -1.000000;0.000000;0.000000;,
  -1.000000;0.000000;0.000000;,
  -1.000000;0.000000;0.000000;,
  -1.000000;0.000000;0.000000;,
  -1.000000;0.000000;0.000000;,
  -1.000000;0.000000;0.000000;,
  1.000000;0.000000;0.000000;,
  1.000000;0.000000;0.000000;,
  1.000000;0.000000;0.000000;,
  1.000000;0.000000;0.000000;,
  1.000000;0.000000;0.000000;,
  1.000000;0.000000;0.000000;,
  1.000000;0.000000;0.000000;,
  1.000000;0.000000;0.000000;,
  1.000000;0.000000;0.000000;,
  1.000000;0.000000;0.000000;,
  0.000000;-1.000000;0.000000;,
  0.000000;-1.000000;0.000000;,
  0.000000;-0.861688;-0.507438;,
  0.000000;-0.861688;-0.507438;,
  0.000000;-1.000000;0.000000;,
  0.000000;-1.000000;0.000000;,
  0.000000;-0.861688;-0.507439;,
  0.000000;-0.861688;-0.507439;,
  0.000000;-1.000000;0.000000;,
  0.000000;-1.000000;0.000000;,
  0.000000;-0.861688;-0.507439;,
  0.000000;-0.861688;-0.507439;,
  0.000000;-1.000000;0.000000;,
  0.000000;-1.000000;0.000000;,
  0.000000;-0.861688;-0.507439;,
  0.000000;-0.861688;-0.507439;,
  1.000000;0.000000;0.000000;,
  1.000000;0.000000;0.000000;,
  1.000000;0.000000;0.000000;,
  1.000000;0.000000;0.000000;,
  1.000000;0.000000;0.000000;,
  1.000000;0.000000;0.000000;,
  1.000000;0.000000;0.000000;,
  1.000000;0.000000;0.000000;,
  1.000000;0.000000;0.000000;,
  1.000000;0.000000;0.000000;,
  0.000000;-1.000000;0.000000;,
  0.000000;-1.000000;0.000000;,
  0.000000;-0.861688;-0.507438;,
  0.000000;-0.861688;-0.507438;,
  0.000000;-1.000000;0.000000;,
  0.000000;-1.000000;0.000000;,
  0.000000;-0.861688;-0.507439;,
  0.000000;-0.861688;-0.507439;,
  0.000000;-1.000000;0.000000;,
  0.000000;-1.000000;0.000000;,
  0.000000;-1.000000;0.000000;,
  0.000000;-1.000000;0.000000;,
  0.000000;-0.900801;-0.434232;,
  0.000000;-0.900801;-0.434232;,
  0.000000;-1.000000;0.000000;,
  0.000000;-1.000000;0.000000;,
  1.000000;0.000000;0.000000;,
  1.000000;0.000000;0.000000;,
  1.000000;0.000000;0.000000;,
  1.000000;0.000000;0.000000;,
  1.000000;0.000000;0.000000;,
  1.000000;0.000000;0.000000;,
  1.000000;0.000000;0.000000;,
  1.000000;0.000000;0.000000;,
  1.000000;0.000000;0.000000;,
  1.000000;0.000000;0.000000;,
  1.000000;0.000000;0.000000;,
  1.000000;0.000000;0.000000;,
  1.000000;0.000000;0.000000;,
  1.000000;0.000000;0.000000;,
  1.000000;0.000000;0.000000;,
  1.000000;0.000000;0.000000;,
  1.000000;0.000000;0.000000;,
  1.000000;0.000000;0.000000;,
  0.000000;-1.000000;0.000000;,
  0.000000;-1.000000;0.000000;,
  0.000000;-0.861688;-0.507438;,
  0.000000;-0.861688;-0.507438;,
  0.000000;-1.000000;0.000000;,
  0.000000;-1.000000;0.000000;,
  0.000000;-0.861688;-0.507439;,
  0.000000;-0.861688;-0.507439;,
  0.000000;-1.000000;0.000000;,
  0.000000;-1.000000;0.000000;,
  0.000000;-0.861688;-0.507439;,
  0.000000;-0.861688;-0.507439;,
  0.000000;-1.000000;0.000000;,
  0.000000;-1.000000;0.000000;,
  0.000000;-0.861688;-0.507439;,
  0.000000;-0.861688;-0.507439;,
  1.000000;0.000000;0.000000;,
  1.000000;0.000000;0.000000;,
  1.000000;0.000000;0.000000;,
  1.000000;0.000000;0.000000;,
  1.000000;0.000000;0.000000;,
  1.000000;0.000000;0.000000;,
  1.000000;0.000000;0.000000;,
  1.000000;0.000000;0.000000;,
  1.000000;0.000000;0.000000;,
  1.000000;0.000000;0.000000;,
  0.000000;-1.000000;0.000000;,
  0.000000;-1.000000;0.000000;,
  0.000000;-0.861688;-0.507438;,
  0.000000;-0.861688;-0.507438;,
  0.000000;-1.000000;0.000000;,
  0.000000;-1.000000;0.000000;,
  0.000000;-0.861688;-0.507439;,
  0.000000;-0.861688;-0.507439;,
  0.000000;-1.000000;0.000000;,
  0.000000;-1.000000;0.000000;,
  0.000000;-1.000000;0.000000;,
  0.000000;-1.000000;0.000000;,
  0.000000;-0.900801;-0.434232;,
  0.000000;-0.900801;-0.434232;,
  0.000000;-1.000000;0.000000;,
  0.000000;-1.000000;0.000000;,
  1.000000;0.000000;0.000000;,
  1.000000;0.000000;0.000000;,
  1.000000;0.000000;0.000000;,
  1.000000;0.000000;0.000000;,
  1.000000;0.000000;0.000000;,
  1.000000;0.000000;0.000000;,
  1.000000;0.000000;0.000000;,
  1.000000;0.000000;0.000000;;
  180;
  3;0,0,0;,
  3;1,1,1;,
  3;2,2,2;,
  3;3,3,3;,
  3;4,4,4;,
  3;5,5,5;,
  3;6,6,6;,
  3;7,7,7;,
  3;8,8,8;,
  3;9,9,9;,
  3;10,10,10;,
  3;11,11,11;,
  3;12,12,12;,
  3;13,13,13;,
  3;14,14,14;,
  3;15,15,15;,
  3;16,16,16;,
  3;17,17,17;,
  3;18,18,18;,
  3;19,19,19;,
  3;20,20,20;,
  3;21,21,21;,
  3;22,22,22;,
  3;23,23,23;,
  3;24,24,24;,
  3;25,25,25;,
  3;26,26,26;,
  3;27,27,27;,
  3;28,28,28;,
  3;29,29,29;,
  3;30,30,30;,
  3;31,31,31;,
  3;32,32,32;,
  3;33,33,33;,
  3;34,34,34;,
  3;35,35,35;,
  3;36,36,36;,
  3;37,37,37;,
  3;38,38,38;,
  3;39,39,39;,
  3;40,40,40;,
  3;41,41,41;,
  3;42,42,42;,
  3;43,43,43;,
  3;44,44,44;,
  3;45,45,45;,
  3;46,46,46;,
  3;47,47,47;,
  3;48,48,48;,
  3;49,49,49;,
  3;50,50,50;,
  3;51,51,51;,
  3;52,52,52;,
  3;53,53,53;,
  3;54,54,54;,
  3;55,55,55;,
  3;56,56,56;,
  3;57,57,57;,
  3;58,58,58;,
  3;59,59,59;,
  3;60,60,60;,
  3;61,61,61;,
  3;62,62,62;,
  3;63,63,63;,
  3;64,64,64;,
  3;65,65,65;,
  3;66,66,66;,
  3;67,67,67;,
  3;68,68,68;,
  3;69,69,69;,
  3;70,70,70;,
  3;71,71,71;,
  3;72,72,72;,
  3;73,73,73;,
  3;74,74,74;,
  3;75,75,75;,
  3;76,76,76;,
  3;77,77,77;,
  3;78,78,78;,
  3;79,79,79;,
  3;80,80,80;,
  3;81,81,81;,
  3;82,82,82;,
  3;83,83,83;,
  3;84,84,84;,
  3;85,85,85;,
  3;86,86,86;,
  3;87,87,87;,
  3;88,88,88;,
  3;89,89,89;,
  3;90,90,90;,
  3;91,91,91;,
  3;92,92,92;,
  3;93,93,93;,
  3;94,94,94;,
  3;95,95,95;,
  3;96,96,96;,
  3;97,97,97;,
  3;98,98,98;,
  3;99,99,99;,
  3;100,100,100;,
  3;101,101,101;,
  3;102,102,102;,
  3;103,103,103;,
  3;104,104,104;,
  3;105,105,105;,
  3;106,106,106;,
  3;107,107,107;,
  3;108,108,108;,
  3;109,109,109;,
  3;110,110,110;,
  3;111,111,111;,
  3;112,112,112;,
  3;113,113,113;,
  3;114,114,114;,
  3;115,115,115;,
  3;116,116,116;,
  3;117,117,117;,
  3;118,118,118;,
  3;119,119,119;,
  3;120,120,120;,
  3;121,121,121;,
  3;122,122,122;,
  3;123,123,123;,
  3;124,124,124;,
  3;125,125,125;,
  3;126,126,126;,
  3;127,127,127;,
  3;128,128,128;,
  3;129,129,129;,
  3;130,130,130;,
  3;131,131,131;,
  3;132,132,132;,
  3;133,133,133;,
  3;134,134,134;,
  3;135,135,135;,
  3;136,136,136;,
  3;137,137,137;,
  3;138,138,138;,
  3;139,139,139;,
  3;140,140,140;,
  3;141,141,141;,
  3;142,142,142;,
  3;143,143,143;,
  3;144,144,144;,
  3;145,145,145;,
  3;146,146,146;,
  3;147,147,147;,
  3;148,148,148;,
  3;149,149,149;,
  3;150,150,150;,
  3;151,151,151;,
  3;152,152,152;,
  3;153,153,153;,
  3;154,154,154;,
  3;155,155,155;,
  3;156,156,156;,
  3;157,157,157;,
  3;158,158,158;,
  3;159,159,159;,
  3;160,160,160;,
  3;161,161,161;,
  3;162,162,162;,
  3;163,163,163;,
  3;164,164,164;,
  3;165,165,165;,
  3;166,166,166;,
  3;167,167,167;,
  3;168,168,168;,
  3;169,169,169;,
  3;170,170,170;,
  3;171,171,171;,
  3;172,172,172;,
  3;173,173,173;,
  3;174,174,174;,
  3;175,175,175;,
  3;176,176,176;,
  3;177,177,177;,
  3;178,178,178;,
  3;179,179,179;;
 }
}