xof 0303txt 0032
template Vector {
 <3d82ab5e-62da-11cf-ab39-0020af71e433>
 FLOAT x;
 FLOAT y;
 FLOAT z;
}

template MeshFace {
 <3d82ab5f-62da-11cf-ab39-0020af71e433>
 DWORD nFaceVertexIndices;
 array DWORD faceVertexIndices[nFaceVertexIndices];
}

template Mesh {
 <3d82ab44-62da-11cf-ab39-0020af71e433>
 DWORD nVertices;
 array Vector vertices[nVertices];
 DWORD nFaces;
 array MeshFace faces[nFaces];
 [...]
}

template ColorRGBA {
 <35ff44e0-6c7c-11cf-8f52-0040333594a3>
 FLOAT red;
 FLOAT green;
 FLOAT blue;
 FLOAT alpha;
}

template ColorRGB {
 <d3e16e81-7835-11cf-8f52-0040333594a3>
 FLOAT red;
 FLOAT green;
 FLOAT blue;
}

template Material {
 <3d82ab4d-62da-11cf-ab39-0020af71e433>
 ColorRGBA faceColor;
 FLOAT power;
 ColorRGB specularColor;
 ColorRGB emissiveColor;
 [...]
}

template MeshMaterialList {
 <f6f23f42-7686-11cf-8f52-0040333594a3>
 DWORD nMaterials;
 DWORD nFaceIndexes;
 array DWORD faceIndexes[nFaceIndexes];
 [Material <3d82ab4d-62da-11cf-ab39-0020af71e433>]
}

template TextureFilename {
 <a42790e1-7810-11cf-8f52-0040333594a3>
 STRING filename;
}

template Coords2d {
 <f6f23f44-7686-11cf-8f52-0040333594a3>
 FLOAT u;
 FLOAT v;
}

template MeshTextureCoords {
 <f6f23f40-7686-11cf-8f52-0040333594a3>
 DWORD nTextureCoords;
 array Coords2d textureCoords[nTextureCoords];
}

template MeshNormals {
 <f6f23f43-7686-11cf-8f52-0040333594a3>
 DWORD nNormals;
 array Vector normals[nNormals];
 DWORD nFaceNormals;
 array MeshFace faceNormals[nFaceNormals];
}


Mesh  {
 52;
 -3.900000;-0.850000;-10.000000;,
 -3.900000;3.800000;-10.000000;,
 -4.200000;3.800000;-10.000000;,
 -4.200000;-0.850000;-10.000000;,
 -3.900000;-0.850000;-4.000000;,
 -3.900000;3.800000;-4.000000;,
 -4.200000;3.800000;-4.000000;,
 -4.200000;-0.850000;-4.000000;,
 -3.900000;-0.850000;2.000000;,
 -3.900000;3.800000;2.000000;,
 -4.200000;3.800000;2.000000;,
 -4.200000;-0.850000;2.000000;,
 -3.900000;-0.850000;8.000000;,
 -3.900000;3.800000;8.000000;,
 -4.200000;3.800000;8.000000;,
 -4.200000;-0.850000;8.000000;,
 -3.900000;-0.850000;14.000000;,
 -3.900000;3.800000;14.000000;,
 -4.200000;3.800000;14.000000;,
 -4.200000;-0.850000;14.000000;,
 -1.700000;4.355700;14.000000;,
 -1.700000;4.055700;14.000000;,
 -4.200000;3.500000;14.000000;,
 -4.200000;3.800000;14.000000;,
 -1.700000;4.055700;-10.000000;,
 -1.700000;4.355700;-10.000000;,
 -1.700000;4.355700;14.000000;,
 -1.700000;4.055700;14.000000;,
 -3.900000;3.566500;-10.000000;,
 -3.900000;3.866500;-10.000000;,
 -3.900000;3.866500;14.000000;,
 -3.900000;3.566500;14.000000;,
 -1.500000;4.400000;-10.000000;,
 -4.200000;3.800000;-10.000000;,
 -4.200000;3.800000;14.000000;,
 -1.500000;4.400000;14.000000;,
 -1.500000;3.900000;-10.010000;,
 -1.500000;4.400000;-10.010000;,
 -4.200000;3.800000;-10.010000;,
 -4.200000;3.300000;-10.010000;,
 -3.750000;1.100000;-8.000000;,
 -3.750000;3.200000;-8.000000;,
 -3.750000;1.100000;-6.200000;,
 -3.750000;3.200000;-6.200000;,
 -3.750000;2.800000;-3.500000;,
 -3.750000;3.600000;-3.500000;,
 -3.750000;2.800000;-1.700000;,
 -3.750000;3.600000;-1.700000;,
 -3.600000;3.200000;13.000000;,
 -3.600000;4.300000;13.000000;,
 -1.800000;3.200000;13.000000;,
 -1.800000;4.300000;13.000000;;
 26;
 3;3,2,1;,
 3;3,1,0;,
 3;7,6,5;,
 3;7,5,4;,
 3;11,10,9;,
 3;11,9,8;,
 3;15,14,13;,
 3;15,13,12;,
 3;19,18,17;,
 3;19,17,16;,
 3;20,21,22;,
 3;20,22,23;,
 3;24,25,26;,
 3;24,26,27;,
 3;28,29,30;,
 3;28,30,31;,
 3;35,34,33;,
 3;35,33,32;,
 3;39,38,37;,
 3;39,37,36;,
 3;40,41,43;,
 3;40,43,42;,
 3;44,45,47;,
 3;44,47,46;,
 3;48,49,51;,
 3;48,51,50;;

 MeshMaterialList  {
  13;
  26;
  0,
  0,
  1,
  1,
  2,
  2,
  3,
  3,
  4,
  4,
  5,
  5,
  6,
  6,
  7,
  7,
  8,
  8,
  9,
  9,
  10,
  10,
  11,
  11,
  12,
  12;

  Material  {
   1.000000;1.000000;1.000000;1.000000;;
   0.000000;
   0.000000;0.000000;0.000000;;
   0.000000;0.000000;0.000000;;

   TextureFilename  {
    "Iron6.png";
   }
  }

  Material  {
   1.000000;1.000000;1.000000;1.000000;;
   0.000000;
   0.000000;0.000000;0.000000;;
   0.000000;0.000000;0.000000;;

   TextureFilename  {
    "Iron6.png";
   }
  }

  Material  {
   1.000000;1.000000;1.000000;1.000000;;
   0.000000;
   0.000000;0.000000;0.000000;;
   0.000000;0.000000;0.000000;;

   TextureFilename  {
    "Iron6.png";
   }
  }

  Material  {
   1.000000;1.000000;1.000000;1.000000;;
   0.000000;
   0.000000;0.000000;0.000000;;
   0.000000;0.000000;0.000000;;

   TextureFilename  {
    "Iron6.png";
   }
  }

  Material  {
   1.000000;1.000000;1.000000;1.000000;;
   0.000000;
   0.000000;0.000000;0.000000;;
   0.000000;0.000000;0.000000;;

   TextureFilename  {
    "Iron6.png";
   }
  }

  Material  {
   1.000000;1.000000;1.000000;1.000000;;
   0.000000;
   0.000000;0.000000;0.000000;;
   0.000000;0.000000;0.000000;;

   TextureFilename  {
    "Iron6.png";
   }
  }

  Material  {
   1.000000;1.000000;1.000000;1.000000;;
   0.000000;
   0.000000;0.000000;0.000000;;
   0.000000;0.000000;0.000000;;

   TextureFilename  {
    "Iron6.png";
   }
  }

  Material  {
   1.000000;1.000000;1.000000;1.000000;;
   0.000000;
   0.000000;0.000000;0.000000;;
   0.000000;0.000000;0.000000;;

   TextureFilename  {
    "Iron6.png";
   }
  }

  Material  {
   1.000000;1.000000;1.000000;1.000000;;
   0.000000;
   0.000000;0.000000;0.000000;;
   0.000000;0.000000;0.000000;;

   TextureFilename  {
    "Roof1.png";
   }
  }

  Material  {
   1.000000;1.000000;1.000000;1.000000;;
   0.000000;
   0.000000;0.000000;0.000000;;
   0.000000;0.000000;0.000000;;

   TextureFilename  {
    "Roof2.png";
   }
  }

  Material  {
   1.000000;1.000000;1.000000;1.000000;;
   0.000000;
   0.000000;0.000000;0.000000;;
   0.000000;0.000000;0.000000;;

   TextureFilename  {
    "Ekimei1.png";
   }
  }

  Material  {
   1.000000;1.000000;1.000000;1.000000;;
   0.000000;
   0.000000;0.000000;0.000000;;
   0.000000;0.000000;0.000000;;

   TextureFilename  {
    "Ekimei1.png";
   }
  }

  Material  {
   1.000000;1.000000;1.000000;1.000000;;
   0.000000;
   0.000000;0.000000;0.000000;;
   0.000000;0.000000;0.000000;;

   TextureFilename  {
    "Annai.png";
   }
  }
 }

 MeshTextureCoords  {
  52;
  0.000000;1.000000;,
  0.000000;0.000000;,
  1.000000;0.000000;,
  1.000000;1.000000;,
  0.000000;1.000000;,
  0.000000;0.000000;,
  1.000000;0.000000;,
  1.000000;1.000000;,
  0.000000;1.000000;,
  0.000000;0.000000;,
  1.000000;0.000000;,
  1.000000;1.000000;,
  0.000000;1.000000;,
  0.000000;0.000000;,
  1.000000;0.000000;,
  1.000000;1.000000;,
  0.000000;1.000000;,
  0.000000;0.000000;,
  1.000000;0.000000;,
  1.000000;1.000000;,
  0.300000;0.000000;,
  1.000000;0.000000;,
  1.000000;1.000000;,
  0.300000;1.000000;,
  0.300000;0.000000;,
  1.000000;0.000000;,
  1.000000;1.000000;,
  0.300000;1.000000;,
  0.300000;0.000000;,
  1.000000;0.000000;,
  1.000000;1.000000;,
  0.300000;1.000000;,
  0.000000;0.000000;,
  0.000000;0.100000;,
  8.360000;0.100000;,
  8.360000;0.000000;,
  0.000000;1.000000;,
  0.000000;0.000000;,
  1.000000;0.000000;,
  1.000000;1.000000;,
  0.000000;1.000000;,
  0.000000;0.453100;,
  1.000000;1.000000;,
  1.000000;0.453100;,
  0.000000;0.312500;,
  0.000000;0.120000;,
  1.000000;0.312500;,
  1.000000;0.120000;,
  0.000000;1.000000;,
  0.000000;0.000000;,
  1.000000;1.000000;,
  1.000000;0.000000;;
 }

 MeshNormals  {
  26;
  0.000000;0.000000;-1.000000;,
  0.000000;0.000000;-1.000000;,
  0.000000;0.000000;-1.000000;,
  0.000000;0.000000;-1.000000;,
  0.000000;0.000000;-1.000000;,
  0.000000;0.000000;-1.000000;,
  0.000000;0.000000;-1.000000;,
  0.000000;0.000000;-1.000000;,
  0.000000;0.000000;-1.000000;,
  0.000000;0.000000;-1.000000;,
  0.000000;0.000000;-1.000000;,
  0.000000;0.000000;-1.000000;,
  1.000000;0.000000;0.000000;,
  1.000000;0.000000;0.000000;,
  1.000000;0.000000;0.000000;,
  1.000000;0.000000;0.000000;,
  0.216931;-0.976187;0.000000;,
  0.216931;-0.976187;0.000000;,
  0.000000;0.000000;-1.000000;,
  0.000000;0.000000;-1.000000;,
  1.000000;0.000000;0.000000;,
  1.000000;0.000000;0.000000;,
  1.000000;0.000000;0.000000;,
  1.000000;0.000000;0.000000;,
  0.000000;0.000000;-1.000000;,
  0.000000;0.000000;-1.000000;;
  26;
  3;0,0,0;,
  3;1,1,1;,
  3;2,2,2;,
  3;3,3,3;,
  3;4,4,4;,
  3;5,5,5;,
  3;6,6,6;,
  3;7,7,7;,
  3;8,8,8;,
  3;9,9,9;,
  3;10,10,10;,
  3;11,11,11;,
  3;12,12,12;,
  3;13,13,13;,
  3;14,14,14;,
  3;15,15,15;,
  3;16,16,16;,
  3;17,17,17;,
  3;18,18,18;,
  3;19,19,19;,
  3;20,20,20;,
  3;21,21,21;,
  3;22,22,22;,
  3;23,23,23;,
  3;24,24,24;,
  3;25,25,25;;
 }
}