xof 0303txt 0032
template Vector {
 <3d82ab5e-62da-11cf-ab39-0020af71e433>
 FLOAT x;
 FLOAT y;
 FLOAT z;
}

template MeshFace {
 <3d82ab5f-62da-11cf-ab39-0020af71e433>
 DWORD nFaceVertexIndices;
 array DWORD faceVertexIndices[nFaceVertexIndices];
}

template Mesh {
 <3d82ab44-62da-11cf-ab39-0020af71e433>
 DWORD nVertices;
 array Vector vertices[nVertices];
 DWORD nFaces;
 array MeshFace faces[nFaces];
 [...]
}

template ColorRGBA {
 <35ff44e0-6c7c-11cf-8f52-0040333594a3>
 FLOAT red;
 FLOAT green;
 FLOAT blue;
 FLOAT alpha;
}

template ColorRGB {
 <d3e16e81-7835-11cf-8f52-0040333594a3>
 FLOAT red;
 FLOAT green;
 FLOAT blue;
}

template Material {
 <3d82ab4d-62da-11cf-ab39-0020af71e433>
 ColorRGBA faceColor;
 FLOAT power;
 ColorRGB specularColor;
 ColorRGB emissiveColor;
 [...]
}

template MeshMaterialList {
 <f6f23f42-7686-11cf-8f52-0040333594a3>
 DWORD nMaterials;
 DWORD nFaceIndexes;
 array DWORD faceIndexes[nFaceIndexes];
 [Material <3d82ab4d-62da-11cf-ab39-0020af71e433>]
}

template TextureFilename {
 <a42790e1-7810-11cf-8f52-0040333594a3>
 STRING filename;
}

template Coords2d {
 <f6f23f44-7686-11cf-8f52-0040333594a3>
 FLOAT u;
 FLOAT v;
}

template MeshTextureCoords {
 <f6f23f40-7686-11cf-8f52-0040333594a3>
 DWORD nTextureCoords;
 array Coords2d textureCoords[nTextureCoords];
}

template MeshNormals {
 <f6f23f43-7686-11cf-8f52-0040333594a3>
 DWORD nNormals;
 array Vector normals[nNormals];
 DWORD nFaceNormals;
 array MeshFace faceNormals[nFaceNormals];
}


Mesh  {
 70;
 -1.300000;0.200000;0.000000;,
 -1.700000;0.200000;0.000000;,
 -1.700000;0.200000;25.000000;,
 -1.300000;0.200000;25.000000;,
 -1.500000;0.200000;0.000000;,
 -1.500000;-0.500000;0.000000;,
 0.000000;-0.500000;0.000000;,
 -1.500000;0.200000;25.000000;,
 -1.500000;-0.500000;25.000000;,
 0.000000;-0.500000;25.000000;,
 -1.600000;-0.500000;0.100000;,
 -1.600000;0.200000;0.100000;,
 -1.400000;0.200000;0.100000;,
 -1.050000;-0.300000;0.100000;,
 0.000000;-0.300000;0.100000;,
 0.000000;-0.500000;0.100000;,
 -1.400000;0.200000;0.300000;,
 -1.050000;-0.300000;0.300000;,
 0.000000;-0.300000;0.300000;,
 0.000000;-0.500000;0.300000;,
 -1.600000;-0.500000;5.000000;,
 -1.600000;0.200000;5.000000;,
 -1.400000;0.200000;5.000000;,
 -1.050000;-0.300000;5.000000;,
 0.000000;-0.300000;5.000000;,
 0.000000;-0.500000;5.000000;,
 -1.400000;0.200000;5.200000;,
 -1.050000;-0.300000;5.200000;,
 0.000000;-0.300000;5.200000;,
 0.000000;-0.500000;5.200000;,
 -1.600000;-0.500000;10.000000;,
 -1.600000;0.200000;10.000000;,
 -1.400000;0.200000;10.000000;,
 -1.050000;-0.300000;10.000000;,
 0.000000;-0.300000;10.000000;,
 0.000000;-0.500000;10.000000;,
 -1.400000;0.200000;10.200000;,
 -1.050000;-0.300000;10.200000;,
 0.000000;-0.300000;10.200000;,
 0.000000;-0.500000;10.200000;,
 -1.600000;-0.500000;15.000000;,
 -1.600000;0.200000;15.000000;,
 -1.400000;0.200000;15.000000;,
 -1.050000;-0.300000;15.000000;,
 0.000000;-0.300000;15.000000;,
 0.000000;-0.500000;15.000000;,
 -1.400000;0.200000;15.200000;,
 -1.050000;-0.300000;15.200000;,
 0.000000;-0.300000;15.200000;,
 0.000000;-0.500000;15.200000;,
 -1.600000;-0.500000;20.000000;,
 -1.600000;0.200000;20.000000;,
 -1.400000;0.200000;20.000000;,
 -1.050000;-0.300000;20.000000;,
 0.000000;-0.300000;20.000000;,
 0.000000;-0.500000;20.000000;,
 -1.400000;0.200000;20.200001;,
 -1.050000;-0.300000;20.200001;,
 0.000000;-0.300000;20.200001;,
 0.000000;-0.500000;20.200001;,
 -1.600000;-0.500000;24.700001;,
 -1.600000;0.200000;24.700001;,
 -1.400000;0.200000;24.700001;,
 -1.050000;-0.300000;24.700001;,
 0.000000;-0.300000;24.700001;,
 0.000000;-0.500000;24.700001;,
 -1.400000;0.200000;24.900000;,
 -1.050000;-0.300000;24.900000;,
 0.000000;-0.300000;24.900000;,
 0.000000;-0.500000;24.900000;;
 56;
 3;0,1,2;,
 3;0,2,3;,
 3;4,5,8;,
 3;4,8,7;,
 3;7,8,5;,
 3;7,5,4;,
 3;8,9,6;,
 3;8,6,5;,
 3;10,11,12;,
 3;10,12,13;,
 3;10,13,14;,
 3;10,14,15;,
 3;13,12,16;,
 3;13,16,17;,
 3;14,13,17;,
 3;14,17,18;,
 3;19,20,21;,
 3;19,21,22;,
 3;19,22,23;,
 3;19,23,24;,
 3;22,21,25;,
 3;22,25,26;,
 3;23,22,26;,
 3;23,26,27;,
 3;28,29,30;,
 3;28,30,31;,
 3;28,31,32;,
 3;28,32,33;,
 3;31,30,34;,
 3;31,34,35;,
 3;32,31,35;,
 3;32,35,36;,
 3;37,38,39;,
 3;37,39,40;,
 3;37,40,41;,
 3;37,41,42;,
 3;40,39,43;,
 3;40,43,44;,
 3;41,40,44;,
 3;41,44,45;,
 3;46,47,48;,
 3;46,48,49;,
 3;46,49,50;,
 3;46,50,51;,
 3;49,48,52;,
 3;49,52,53;,
 3;50,49,53;,
 3;50,53,54;,
 3;55,56,57;,
 3;55,57,58;,
 3;55,58,59;,
 3;55,59,60;,
 3;58,57,61;,
 3;58,61,62;,
 3;59,58,62;,
 3;59,62,63;;

 MeshMaterialList  {
  8;
  56;
  0,
  0,
  1,
  1,
  1,
  1,
  1,
  1,
  2,
  2,
  2,
  2,
  2,
  2,
  2,
  2,
  3,
  3,
  3,
  3,
  3,
  3,
  3,
  3,
  4,
  4,
  4,
  4,
  4,
  4,
  4,
  4,
  5,
  5,
  5,
  5,
  5,
  5,
  5,
  5,
  6,
  6,
  6,
  6,
  6,
  6,
  6,
  6,
  7,
  7,
  7,
  7,
  7,
  7,
  7,
  7;

  Material  {
   1.000000;1.000000;1.000000;1.000000;;
   0.000000;
   0.000000;0.000000;0.000000;;
   0.000000;0.000000;0.000000;;

   TextureFilename  {
    "Iron4.png";
   }
  }

  Material  {
   1.000000;1.000000;1.000000;1.000000;;
   0.000000;
   0.000000;0.000000;0.000000;;
   0.000000;0.000000;0.000000;;

   TextureFilename  {
    "Iron4.png";
   }
  }

  Material  {
   1.000000;1.000000;1.000000;1.000000;;
   0.000000;
   0.000000;0.000000;0.000000;;
   0.000000;0.000000;0.000000;;

   TextureFilename  {
    "Iron2.png";
   }
  }

  Material  {
   1.000000;1.000000;1.000000;1.000000;;
   0.000000;
   0.000000;0.000000;0.000000;;
   0.000000;0.000000;0.000000;;

   TextureFilename  {
    "Iron2.png";
   }
  }

  Material  {
   1.000000;1.000000;1.000000;1.000000;;
   0.000000;
   0.000000;0.000000;0.000000;;
   0.000000;0.000000;0.000000;;

   TextureFilename  {
    "Iron2.png";
   }
  }

  Material  {
   1.000000;1.000000;1.000000;1.000000;;
   0.000000;
   0.000000;0.000000;0.000000;;
   0.000000;0.000000;0.000000;;

   TextureFilename  {
    "Iron2.png";
   }
  }

  Material  {
   1.000000;1.000000;1.000000;1.000000;;
   0.000000;
   0.000000;0.000000;0.000000;;
   0.000000;0.000000;0.000000;;

   TextureFilename  {
    "Iron2.png";
   }
  }

  Material  {
   1.000000;1.000000;1.000000;1.000000;;
   0.000000;
   0.000000;0.000000;0.000000;;
   0.000000;0.000000;0.000000;;

   TextureFilename  {
    "Iron2.png";
   }
  }
 }

 MeshTextureCoords  {
  70;
  0.000000;0.000000;,
  0.000000;0.100000;,
  1.000000;0.100000;,
  1.000000;0.000000;,
  0.000000;0.000000;,
  0.000000;0.850000;,
  0.000000;1.000000;,
  1.000000;0.000000;,
  1.000000;0.850000;,
  1.000000;1.000000;,
  0.200000;0.700000;,
  0.000000;0.700000;,
  0.000000;0.100000;,
  0.150000;0.100000;,
  0.150000;0.100000;,
  0.200000;0.100000;,
  0.000000;0.700000;,
  0.150000;0.700000;,
  0.150000;0.700000;,
  0.200000;0.700000;,
  0.200000;0.700000;,
  0.000000;0.700000;,
  0.000000;0.100000;,
  0.150000;0.100000;,
  0.150000;0.100000;,
  0.200000;0.100000;,
  0.000000;0.700000;,
  0.150000;0.700000;,
  0.150000;0.700000;,
  0.200000;0.700000;,
  0.200000;0.700000;,
  0.000000;0.700000;,
  0.000000;0.100000;,
  0.150000;0.100000;,
  0.150000;0.100000;,
  0.200000;0.100000;,
  0.000000;0.700000;,
  0.150000;0.700000;,
  0.150000;0.700000;,
  0.200000;0.700000;,
  0.200000;0.700000;,
  0.000000;0.700000;,
  0.000000;0.100000;,
  0.150000;0.100000;,
  0.150000;0.100000;,
  0.200000;0.100000;,
  0.000000;0.700000;,
  0.150000;0.700000;,
  0.150000;0.700000;,
  0.200000;0.700000;,
  0.200000;0.700000;,
  0.000000;0.700000;,
  0.000000;0.100000;,
  0.150000;0.100000;,
  0.150000;0.100000;,
  0.200000;0.100000;,
  0.000000;0.700000;,
  0.150000;0.700000;,
  0.150000;0.700000;,
  0.200000;0.700000;,
  0.200000;0.700000;,
  0.000000;0.700000;,
  0.000000;0.100000;,
  0.150000;0.100000;,
  0.150000;0.100000;,
  0.200000;0.100000;,
  0.000000;0.700000;,
  0.150000;0.700000;,
  0.150000;0.700000;,
  0.200000;0.700000;;
 }

 MeshNormals  {
  56;
  0.000000;1.000000;0.000000;,
  0.000000;1.000000;0.000000;,
  -1.000000;0.000000;0.000000;,
  -1.000000;0.000000;0.000000;,
  1.000000;0.000000;0.000000;,
  1.000000;0.000000;0.000000;,
  0.000000;1.000000;0.000000;,
  0.000000;1.000000;0.000000;,
  0.000000;0.000000;-1.000000;,
  0.000000;0.000000;-1.000000;,
  0.000000;0.000000;-1.000000;,
  0.000000;0.000000;-1.000000;,
  0.819232;0.573462;0.000000;,
  0.819232;0.573462;0.000000;,
  0.000000;1.000000;0.000000;,
  0.000000;1.000000;0.000000;,
  0.000000;0.000000;-1.000000;,
  0.000000;0.000000;-1.000000;,
  0.000000;0.000000;-1.000000;,
  0.000000;0.000000;-1.000000;,
  0.819232;0.573462;0.000000;,
  0.819232;0.573462;0.000000;,
  0.000000;1.000000;0.000000;,
  0.000000;1.000000;0.000000;,
  0.000000;0.000000;-1.000000;,
  0.000000;0.000000;-1.000000;,
  0.000000;0.000000;-1.000000;,
  0.000000;0.000000;-1.000000;,
  0.819232;0.573462;0.000000;,
  0.819232;0.573462;0.000000;,
  0.000000;1.000000;0.000000;,
  0.000000;1.000000;0.000000;,
  0.000000;0.000000;-1.000000;,
  0.000000;0.000000;-1.000000;,
  0.000000;0.000000;-1.000000;,
  0.000000;0.000000;-1.000000;,
  0.819232;0.573462;0.000000;,
  0.819232;0.573462;0.000000;,
  0.000000;1.000000;0.000000;,
  0.000000;1.000000;0.000000;,
  0.000000;0.000000;-1.000000;,
  0.000000;0.000000;-1.000000;,
  0.000000;0.000000;-1.000000;,
  0.000000;0.000000;-1.000000;,
  0.819232;0.573462;0.000000;,
  0.819232;0.573462;0.000000;,
  0.000000;1.000000;0.000000;,
  0.000000;1.000000;0.000000;,
  0.000000;0.000000;-1.000000;,
  0.000000;0.000000;-1.000000;,
  0.000000;0.000000;-1.000000;,
  0.000000;0.000000;-1.000000;,
  0.819232;0.573462;0.000000;,
  0.819232;0.573462;0.000000;,
  0.000000;1.000000;0.000000;,
  0.000000;1.000000;0.000000;;
  56;
  3;0,0,0;,
  3;1,1,1;,
  3;2,2,2;,
  3;3,3,3;,
  3;4,4,4;,
  3;5,5,5;,
  3;6,6,6;,
  3;7,7,7;,
  3;8,8,8;,
  3;9,9,9;,
  3;10,10,10;,
  3;11,11,11;,
  3;12,12,12;,
  3;13,13,13;,
  3;14,14,14;,
  3;15,15,15;,
  3;16,16,16;,
  3;17,17,17;,
  3;18,18,18;,
  3;19,19,19;,
  3;20,20,20;,
  3;21,21,21;,
  3;22,22,22;,
  3;23,23,23;,
  3;24,24,24;,
  3;25,25,25;,
  3;26,26,26;,
  3;27,27,27;,
  3;28,28,28;,
  3;29,29,29;,
  3;30,30,30;,
  3;31,31,31;,
  3;32,32,32;,
  3;33,33,33;,
  3;34,34,34;,
  3;35,35,35;,
  3;36,36,36;,
  3;37,37,37;,
  3;38,38,38;,
  3;39,39,39;,
  3;40,40,40;,
  3;41,41,41;,
  3;42,42,42;,
  3;43,43,43;,
  3;44,44,44;,
  3;45,45,45;,
  3;46,46,46;,
  3;47,47,47;,
  3;48,48,48;,
  3;49,49,49;,
  3;50,50,50;,
  3;51,51,51;,
  3;52,52,52;,
  3;53,53,53;,
  3;54,54,54;,
  3;55,55,55;;
 }
}