xof 0303txt 0032
template Vector {
 <3d82ab5e-62da-11cf-ab39-0020af71e433>
 FLOAT x;
 FLOAT y;
 FLOAT z;
}

template MeshFace {
 <3d82ab5f-62da-11cf-ab39-0020af71e433>
 DWORD nFaceVertexIndices;
 array DWORD faceVertexIndices[nFaceVertexIndices];
}

template Mesh {
 <3d82ab44-62da-11cf-ab39-0020af71e433>
 DWORD nVertices;
 array Vector vertices[nVertices];
 DWORD nFaces;
 array MeshFace faces[nFaces];
 [...]
}

template ColorRGBA {
 <35ff44e0-6c7c-11cf-8f52-0040333594a3>
 FLOAT red;
 FLOAT green;
 FLOAT blue;
 FLOAT alpha;
}

template ColorRGB {
 <d3e16e81-7835-11cf-8f52-0040333594a3>
 FLOAT red;
 FLOAT green;
 FLOAT blue;
}

template Material {
 <3d82ab4d-62da-11cf-ab39-0020af71e433>
 ColorRGBA faceColor;
 FLOAT power;
 ColorRGB specularColor;
 ColorRGB emissiveColor;
 [...]
}

template MeshMaterialList {
 <f6f23f42-7686-11cf-8f52-0040333594a3>
 DWORD nMaterials;
 DWORD nFaceIndexes;
 array DWORD faceIndexes[nFaceIndexes];
 [Material <3d82ab4d-62da-11cf-ab39-0020af71e433>]
}

template TextureFilename {
 <a42790e1-7810-11cf-8f52-0040333594a3>
 STRING filename;
}

template Coords2d {
 <f6f23f44-7686-11cf-8f52-0040333594a3>
 FLOAT u;
 FLOAT v;
}

template MeshTextureCoords {
 <f6f23f40-7686-11cf-8f52-0040333594a3>
 DWORD nTextureCoords;
 array Coords2d textureCoords[nTextureCoords];
}

template MeshNormals {
 <f6f23f43-7686-11cf-8f52-0040333594a3>
 DWORD nNormals;
 array Vector normals[nNormals];
 DWORD nFaceNormals;
 array MeshFace faceNormals[nFaceNormals];
}


Mesh  {
 144;
 -1.700000;0.900000;0.000000;,
 -2.100000;0.900000;0.000000;,
 -2.100000;0.900000;25.000000;,
 -1.700000;0.900000;25.000000;,
 -1.900000;0.900000;0.000000;,
 -1.900000;-0.500000;0.000000;,
 -1.900000;0.900000;25.000000;,
 -1.900000;-0.500000;25.000000;,
 -3.800000;-0.500000;0.000000;,
 -3.800000;-0.500000;25.000000;,
 0.000000;-0.500000;25.000000;,
 0.000000;-0.500000;0.000000;,
 -3.800000;-0.500000;0.100000;,
 -3.800000;-0.300000;0.100000;,
 -2.750000;-0.300000;0.100000;,
 -2.100000;0.600000;0.100000;,
 -2.100000;0.900000;0.100000;,
 -1.900000;0.900000;0.100000;,
 -1.900000;-0.500000;0.100000;,
 -3.800000;-0.300000;0.300000;,
 -2.750000;-0.300000;0.300000;,
 -2.100000;0.600000;0.300000;,
 -2.100000;0.900000;0.300000;,
 0.000000;-0.500000;0.100000;,
 0.000000;-0.300000;0.100000;,
 -1.050000;-0.300000;0.100000;,
 -1.700000;0.600000;0.100000;,
 -1.700000;0.900000;0.100000;,
 -1.900000;0.900000;0.100000;,
 -1.900000;-0.500000;0.100000;,
 0.000000;-0.300000;0.300000;,
 -1.050000;-0.300000;0.300000;,
 -1.700000;0.600000;0.300000;,
 -1.700000;0.900000;0.300000;,
 -3.800000;-0.500000;5.000000;,
 -3.800000;-0.300000;5.000000;,
 -2.750000;-0.300000;5.000000;,
 -2.100000;0.600000;5.000000;,
 -2.100000;0.900000;5.000000;,
 -1.900000;0.900000;5.000000;,
 -1.900000;-0.500000;5.000000;,
 -3.800000;-0.300000;5.200000;,
 -2.750000;-0.300000;5.200000;,
 -2.100000;0.600000;5.200000;,
 -2.100000;0.900000;5.200000;,
 0.000000;-0.500000;5.000000;,
 0.000000;-0.300000;5.000000;,
 -1.050000;-0.300000;5.000000;,
 -1.700000;0.600000;5.000000;,
 -1.700000;0.900000;5.000000;,
 -1.900000;0.900000;5.000000;,
 -1.900000;-0.500000;5.000000;,
 0.000000;-0.300000;5.200000;,
 -1.050000;-0.300000;5.200000;,
 -1.700000;0.600000;5.200000;,
 -1.700000;0.900000;5.200000;,
 -3.800000;-0.500000;10.000000;,
 -3.800000;-0.300000;10.000000;,
 -2.750000;-0.300000;10.000000;,
 -2.100000;0.600000;10.000000;,
 -2.100000;0.900000;10.000000;,
 -1.900000;0.900000;10.000000;,
 -1.900000;-0.500000;10.000000;,
 -3.800000;-0.300000;10.200000;,
 -2.750000;-0.300000;10.200000;,
 -2.100000;0.600000;10.200000;,
 -2.100000;0.900000;10.200000;,
 0.000000;-0.500000;10.000000;,
 0.000000;-0.300000;10.000000;,
 -1.050000;-0.300000;10.000000;,
 -1.700000;0.600000;10.000000;,
 -1.700000;0.900000;10.000000;,
 -1.900000;0.900000;10.000000;,
 -1.900000;-0.500000;10.000000;,
 0.000000;-0.300000;10.200000;,
 -1.050000;-0.300000;10.200000;,
 -1.700000;0.600000;10.200000;,
 -1.700000;0.900000;10.200000;,
 -3.800000;-0.500000;15.000000;,
 -3.800000;-0.300000;15.000000;,
 -2.750000;-0.300000;15.000000;,
 -2.100000;0.600000;15.000000;,
 -2.100000;0.900000;15.000000;,
 -1.900000;0.900000;15.000000;,
 -1.900000;-0.500000;15.000000;,
 -3.800000;-0.300000;15.200000;,
 -2.750000;-0.300000;15.200000;,
 -2.100000;0.600000;15.200000;,
 -2.100000;0.900000;15.200000;,
 0.000000;-0.500000;15.000000;,
 0.000000;-0.300000;15.000000;,
 -1.050000;-0.300000;15.000000;,
 -1.700000;0.600000;15.000000;,
 -1.700000;0.900000;15.000000;,
 -1.900000;0.900000;15.000000;,
 -1.900000;-0.500000;15.000000;,
 0.000000;-0.300000;15.200000;,
 -1.050000;-0.300000;15.200000;,
 -1.700000;0.600000;15.200000;,
 -1.700000;0.900000;15.200000;,
 -3.800000;-0.500000;20.000000;,
 -3.800000;-0.300000;20.000000;,
 -2.750000;-0.300000;20.000000;,
 -2.100000;0.600000;20.000000;,
 -2.100000;0.900000;20.000000;,
 -1.900000;0.900000;20.000000;,
 -1.900000;-0.500000;20.000000;,
 -3.800000;-0.300000;20.200001;,
 -2.750000;-0.300000;20.200001;,
 -2.100000;0.600000;20.200001;,
 -2.100000;0.900000;20.200001;,
 0.000000;-0.500000;20.000000;,
 0.000000;-0.300000;20.000000;,
 -1.050000;-0.300000;20.000000;,
 -1.700000;0.600000;20.000000;,
 -1.700000;0.900000;20.000000;,
 -1.900000;0.900000;20.000000;,
 -1.900000;-0.500000;20.000000;,
 0.000000;-0.300000;20.200001;,
 -1.050000;-0.300000;20.200001;,
 -1.700000;0.600000;20.200001;,
 -1.700000;0.900000;20.200001;,
 -3.800000;-0.500000;24.700001;,
 -3.800000;-0.300000;24.700001;,
 -2.750000;-0.300000;24.700001;,
 -2.100000;0.600000;24.700001;,
 -2.100000;0.900000;24.700001;,
 -1.900000;0.900000;24.700001;,
 -1.900000;-0.500000;24.700001;,
 -3.800000;-0.300000;24.900000;,
 -2.750000;-0.300000;24.900000;,
 -2.100000;0.600000;24.900000;,
 -2.100000;0.900000;24.900000;,
 0.000000;-0.500000;24.700001;,
 0.000000;-0.300000;24.700001;,
 -1.050000;-0.300000;24.700001;,
 -1.700000;0.600000;24.700001;,
 -1.700000;0.900000;24.700001;,
 -1.900000;0.900000;24.700001;,
 -1.900000;-0.500000;24.700001;,
 0.000000;-0.300000;24.900000;,
 -1.050000;-0.300000;24.900000;,
 -1.700000;0.600000;24.900000;,
 -1.700000;0.900000;24.900000;;
 116;
 3;0,1,2;,
 3;0,2,3;,
 3;4,5,7;,
 3;4,7,6;,
 3;6,7,5;,
 3;6,5,4;,
 3;8,9,10;,
 3;8,10,11;,
 3;12,13,14;,
 3;12,14,18;,
 3;14,15,18;,
 3;15,16,17;,
 3;15,17,18;,
 3;20,21,15;,
 3;20,15,14;,
 3;21,22,16;,
 3;21,16,15;,
 3;29,25,24;,
 3;29,24,23;,
 3;29,26,25;,
 3;29,28,27;,
 3;29,27,26;,
 3;25,26,32;,
 3;25,32,31;,
 3;26,27,33;,
 3;26,33,32;,
 3;34,35,36;,
 3;34,36,40;,
 3;36,37,40;,
 3;37,38,39;,
 3;37,39,40;,
 3;42,43,37;,
 3;42,37,36;,
 3;43,44,38;,
 3;43,38,37;,
 3;51,47,46;,
 3;51,46,45;,
 3;51,48,47;,
 3;51,50,49;,
 3;51,49,48;,
 3;47,48,54;,
 3;47,54,53;,
 3;48,49,55;,
 3;48,55,54;,
 3;56,57,58;,
 3;56,58,62;,
 3;58,59,62;,
 3;59,60,61;,
 3;59,61,62;,
 3;64,65,59;,
 3;64,59,58;,
 3;65,66,60;,
 3;65,60,59;,
 3;73,69,68;,
 3;73,68,67;,
 3;73,70,69;,
 3;73,72,71;,
 3;73,71,70;,
 3;69,70,76;,
 3;69,76,75;,
 3;70,71,77;,
 3;70,77,76;,
 3;78,79,80;,
 3;78,80,84;,
 3;80,81,84;,
 3;81,82,83;,
 3;81,83,84;,
 3;86,87,81;,
 3;86,81,80;,
 3;87,88,82;,
 3;87,82,81;,
 3;95,91,90;,
 3;95,90,89;,
 3;95,92,91;,
 3;95,94,93;,
 3;95,93,92;,
 3;91,92,98;,
 3;91,98,97;,
 3;92,93,99;,
 3;92,99,98;,
 3;100,101,102;,
 3;100,102,106;,
 3;102,103,106;,
 3;103,104,105;,
 3;103,105,106;,
 3;108,109,103;,
 3;108,103,102;,
 3;109,110,104;,
 3;109,104,103;,
 3;117,113,112;,
 3;117,112,111;,
 3;117,114,113;,
 3;117,116,115;,
 3;117,115,114;,
 3;113,114,120;,
 3;113,120,119;,
 3;114,115,121;,
 3;114,121,120;,
 3;122,123,124;,
 3;122,124,128;,
 3;124,125,128;,
 3;125,126,127;,
 3;125,127,128;,
 3;130,131,125;,
 3;130,125,124;,
 3;131,132,126;,
 3;131,126,125;,
 3;139,135,134;,
 3;139,134,133;,
 3;139,136,135;,
 3;139,138,137;,
 3;139,137,136;,
 3;135,136,142;,
 3;135,142,141;,
 3;136,137,143;,
 3;136,143,142;;

 MeshMaterialList  {
  15;
  116;
  0,
  0,
  1,
  1,
  1,
  1,
  2,
  2,
  3,
  3,
  3,
  3,
  3,
  3,
  3,
  3,
  3,
  4,
  4,
  4,
  4,
  4,
  4,
  4,
  4,
  4,
  5,
  5,
  5,
  5,
  5,
  5,
  5,
  5,
  5,
  6,
  6,
  6,
  6,
  6,
  6,
  6,
  6,
  6,
  7,
  7,
  7,
  7,
  7,
  7,
  7,
  7,
  7,
  8,
  8,
  8,
  8,
  8,
  8,
  8,
  8,
  8,
  9,
  9,
  9,
  9,
  9,
  9,
  9,
  9,
  9,
  10,
  10,
  10,
  10,
  10,
  10,
  10,
  10,
  10,
  11,
  11,
  11,
  11,
  11,
  11,
  11,
  11,
  11,
  12,
  12,
  12,
  12,
  12,
  12,
  12,
  12,
  12,
  13,
  13,
  13,
  13,
  13,
  13,
  13,
  13,
  13,
  14,
  14,
  14,
  14,
  14,
  14,
  14,
  14,
  14;

  Material  {
   1.000000;1.000000;1.000000;1.000000;;
   0.000000;
   0.000000;0.000000;0.000000;;
   0.000000;0.000000;0.000000;;

   TextureFilename  {
    "Iron4.png";
   }
  }

  Material  {
   1.000000;1.000000;1.000000;1.000000;;
   0.000000;
   0.000000;0.000000;0.000000;;
   0.000000;0.000000;0.000000;;

   TextureFilename  {
    "Iron4.png";
   }
  }

  Material  {
   1.000000;1.000000;1.000000;1.000000;;
   0.000000;
   0.000000;0.000000;0.000000;;
   0.000000;0.000000;0.000000;;

   TextureFilename  {
    "Iron4.png";
   }
  }

  Material  {
   1.000000;1.000000;1.000000;1.000000;;
   0.000000;
   0.000000;0.000000;0.000000;;
   0.000000;0.000000;0.000000;;

   TextureFilename  {
    "Iron2.png";
   }
  }

  Material  {
   1.000000;1.000000;1.000000;1.000000;;
   0.000000;
   0.000000;0.000000;0.000000;;
   0.000000;0.000000;0.000000;;

   TextureFilename  {
    "Iron2.png";
   }
  }

  Material  {
   1.000000;1.000000;1.000000;1.000000;;
   0.000000;
   0.000000;0.000000;0.000000;;
   0.000000;0.000000;0.000000;;

   TextureFilename  {
    "Iron2.png";
   }
  }

  Material  {
   1.000000;1.000000;1.000000;1.000000;;
   0.000000;
   0.000000;0.000000;0.000000;;
   0.000000;0.000000;0.000000;;

   TextureFilename  {
    "Iron2.png";
   }
  }

  Material  {
   1.000000;1.000000;1.000000;1.000000;;
   0.000000;
   0.000000;0.000000;0.000000;;
   0.000000;0.000000;0.000000;;

   TextureFilename  {
    "Iron2.png";
   }
  }

  Material  {
   1.000000;1.000000;1.000000;1.000000;;
   0.000000;
   0.000000;0.000000;0.000000;;
   0.000000;0.000000;0.000000;;

   TextureFilename  {
    "Iron2.png";
   }
  }

  Material  {
   1.000000;1.000000;1.000000;1.000000;;
   0.000000;
   0.000000;0.000000;0.000000;;
   0.000000;0.000000;0.000000;;

   TextureFilename  {
    "Iron2.png";
   }
  }

  Material  {
   1.000000;1.000000;1.000000;1.000000;;
   0.000000;
   0.000000;0.000000;0.000000;;
   0.000000;0.000000;0.000000;;

   TextureFilename  {
    "Iron2.png";
   }
  }

  Material  {
   1.000000;1.000000;1.000000;1.000000;;
   0.000000;
   0.000000;0.000000;0.000000;;
   0.000000;0.000000;0.000000;;

   TextureFilename  {
    "Iron2.png";
   }
  }

  Material  {
   1.000000;1.000000;1.000000;1.000000;;
   0.000000;
   0.000000;0.000000;0.000000;;
   0.000000;0.000000;0.000000;;

   TextureFilename  {
    "Iron2.png";
   }
  }

  Material  {
   1.000000;1.000000;1.000000;1.000000;;
   0.000000;
   0.000000;0.000000;0.000000;;
   0.000000;0.000000;0.000000;;

   TextureFilename  {
    "Iron2.png";
   }
  }

  Material  {
   1.000000;1.000000;1.000000;1.000000;;
   0.000000;
   0.000000;0.000000;0.000000;;
   0.000000;0.000000;0.000000;;

   TextureFilename  {
    "Iron2.png";
   }
  }
 }

 MeshTextureCoords  {
  144;
  0.000000;0.000000;,
  0.000000;0.100000;,
  1.000000;0.100000;,
  1.000000;0.000000;,
  0.000000;0.000000;,
  0.000000;0.850000;,
  1.000000;0.000000;,
  1.000000;0.850000;,
  0.000000;0.250000;,
  1.000000;0.250000;,
  1.000000;0.000000;,
  0.000000;0.000000;,
  0.200000;0.300000;,
  0.150000;0.100000;,
  0.150000;0.100000;,
  0.050000;0.100000;,
  0.000000;0.100000;,
  0.000000;0.300000;,
  0.200000;0.700000;,
  0.150000;0.300000;,
  0.150000;0.300000;,
  0.050000;0.300000;,
  0.000000;0.300000;,
  0.200000;0.300000;,
  0.150000;0.100000;,
  0.150000;0.100000;,
  0.050000;0.100000;,
  0.000000;0.100000;,
  0.000000;0.300000;,
  0.200000;0.700000;,
  0.150000;0.300000;,
  0.150000;0.300000;,
  0.050000;0.300000;,
  0.000000;0.300000;,
  0.200000;0.300000;,
  0.150000;0.100000;,
  0.150000;0.100000;,
  0.050000;0.100000;,
  0.000000;0.100000;,
  0.000000;0.300000;,
  0.200000;0.700000;,
  0.150000;0.300000;,
  0.150000;0.300000;,
  0.050000;0.300000;,
  0.000000;0.300000;,
  0.200000;0.300000;,
  0.150000;0.100000;,
  0.150000;0.100000;,
  0.050000;0.100000;,
  0.000000;0.100000;,
  0.000000;0.300000;,
  0.200000;0.700000;,
  0.150000;0.300000;,
  0.150000;0.300000;,
  0.050000;0.300000;,
  0.000000;0.300000;,
  0.200000;0.300000;,
  0.150000;0.100000;,
  0.150000;0.100000;,
  0.050000;0.100000;,
  0.000000;0.100000;,
  0.000000;0.300000;,
  0.200000;0.700000;,
  0.150000;0.300000;,
  0.150000;0.300000;,
  0.050000;0.300000;,
  0.000000;0.300000;,
  0.200000;0.300000;,
  0.150000;0.100000;,
  0.150000;0.100000;,
  0.050000;0.100000;,
  0.000000;0.100000;,
  0.000000;0.300000;,
  0.200000;0.700000;,
  0.150000;0.300000;,
  0.150000;0.300000;,
  0.050000;0.300000;,
  0.000000;0.300000;,
  0.200000;0.300000;,
  0.150000;0.100000;,
  0.150000;0.100000;,
  0.050000;0.100000;,
  0.000000;0.100000;,
  0.000000;0.300000;,
  0.200000;0.700000;,
  0.150000;0.300000;,
  0.150000;0.300000;,
  0.050000;0.300000;,
  0.000000;0.300000;,
  0.200000;0.300000;,
  0.150000;0.100000;,
  0.150000;0.100000;,
  0.050000;0.100000;,
  0.000000;0.100000;,
  0.000000;0.300000;,
  0.200000;0.700000;,
  0.150000;0.300000;,
  0.150000;0.300000;,
  0.050000;0.300000;,
  0.000000;0.300000;,
  0.200000;0.300000;,
  0.150000;0.100000;,
  0.150000;0.100000;,
  0.050000;0.100000;,
  0.000000;0.100000;,
  0.000000;0.300000;,
  0.200000;0.700000;,
  0.150000;0.300000;,
  0.150000;0.300000;,
  0.050000;0.300000;,
  0.000000;0.300000;,
  0.200000;0.300000;,
  0.150000;0.100000;,
  0.150000;0.100000;,
  0.050000;0.100000;,
  0.000000;0.100000;,
  0.000000;0.300000;,
  0.200000;0.700000;,
  0.150000;0.300000;,
  0.150000;0.300000;,
  0.050000;0.300000;,
  0.000000;0.300000;,
  0.200000;0.300000;,
  0.150000;0.100000;,
  0.150000;0.100000;,
  0.050000;0.100000;,
  0.000000;0.100000;,
  0.000000;0.300000;,
  0.200000;0.700000;,
  0.150000;0.300000;,
  0.150000;0.300000;,
  0.050000;0.300000;,
  0.000000;0.300000;,
  0.200000;0.300000;,
  0.150000;0.100000;,
  0.150000;0.100000;,
  0.050000;0.100000;,
  0.000000;0.100000;,
  0.000000;0.300000;,
  0.200000;0.700000;,
  0.150000;0.300000;,
  0.150000;0.300000;,
  0.050000;0.300000;,
  0.000000;0.300000;;
 }

 MeshNormals  {
  116;
  0.000000;1.000000;0.000000;,
  0.000000;1.000000;0.000000;,
  -1.000000;0.000000;0.000000;,
  -1.000000;0.000000;0.000000;,
  1.000000;0.000000;0.000000;,
  1.000000;0.000000;0.000000;,
  0.000000;1.000000;0.000000;,
  0.000000;1.000000;0.000000;,
  0.000000;0.000000;-1.000000;,
  0.000000;0.000000;-1.000000;,
  0.000000;0.000000;-1.000000;,
  0.000000;0.000000;-1.000000;,
  0.000000;0.000000;-1.000000;,
  -0.810679;0.585491;0.000000;,
  -0.810679;0.585491;0.000000;,
  -1.000000;0.000000;0.000000;,
  -1.000000;0.000000;0.000000;,
  0.000000;0.000000;-1.000000;,
  0.000000;0.000000;-1.000000;,
  0.000000;0.000000;-1.000000;,
  0.000000;0.000000;-1.000000;,
  0.000000;0.000000;-1.000000;,
  0.810679;0.585491;0.000000;,
  0.810679;0.585491;0.000000;,
  1.000000;0.000000;0.000000;,
  1.000000;0.000000;0.000000;,
  0.000000;0.000000;-1.000000;,
  0.000000;0.000000;-1.000000;,
  0.000000;0.000000;-1.000000;,
  0.000000;0.000000;-1.000000;,
  0.000000;0.000000;-1.000000;,
  -0.810679;0.585491;0.000000;,
  -0.810679;0.585491;0.000000;,
  -1.000000;0.000000;0.000000;,
  -1.000000;0.000000;0.000000;,
  0.000000;0.000000;-1.000000;,
  0.000000;0.000000;-1.000000;,
  0.000000;0.000000;-1.000000;,
  0.000000;0.000000;-1.000000;,
  0.000000;0.000000;-1.000000;,
  0.810679;0.585491;0.000000;,
  0.810679;0.585491;0.000000;,
  1.000000;0.000000;0.000000;,
  1.000000;0.000000;0.000000;,
  0.000000;0.000000;-1.000000;,
  0.000000;0.000000;-1.000000;,
  0.000000;0.000000;-1.000000;,
  0.000000;0.000000;-1.000000;,
  0.000000;0.000000;-1.000000;,
  -0.810679;0.585491;0.000000;,
  -0.810679;0.585491;0.000000;,
  -1.000000;0.000000;0.000000;,
  -1.000000;0.000000;0.000000;,
  0.000000;0.000000;-1.000000;,
  0.000000;0.000000;-1.000000;,
  0.000000;0.000000;-1.000000;,
  0.000000;0.000000;-1.000000;,
  0.000000;0.000000;-1.000000;,
  0.810679;0.585491;0.000000;,
  0.810679;0.585491;0.000000;,
  1.000000;0.000000;0.000000;,
  1.000000;0.000000;0.000000;,
  0.000000;0.000000;-1.000000;,
  0.000000;0.000000;-1.000000;,
  0.000000;0.000000;-1.000000;,
  0.000000;0.000000;-1.000000;,
  0.000000;0.000000;-1.000000;,
  -0.810679;0.585491;0.000000;,
  -0.810679;0.585491;0.000000;,
  -1.000000;0.000000;0.000000;,
  -1.000000;0.000000;0.000000;,
  0.000000;0.000000;-1.000000;,
  0.000000;0.000000;-1.000000;,
  0.000000;0.000000;-1.000000;,
  0.000000;0.000000;-1.000000;,
  0.000000;0.000000;-1.000000;,
  0.810679;0.585491;0.000000;,
  0.810679;0.585491;0.000000;,
  1.000000;0.000000;0.000000;,
  1.000000;0.000000;0.000000;,
  0.000000;0.000000;-1.000000;,
  0.000000;0.000000;-1.000000;,
  0.000000;0.000000;-1.000000;,
  0.000000;0.000000;-1.000000;,
  0.000000;0.000000;-1.000000;,
  -0.810679;0.585491;0.000000;,
  -0.810679;0.585491;0.000000;,
  -1.000000;0.000000;0.000000;,
  -1.000000;0.000000;0.000000;,
  0.000000;0.000000;-1.000000;,
  0.000000;0.000000;-1.000000;,
  0.000000;0.000000;-1.000000;,
  0.000000;0.000000;-1.000000;,
  0.000000;0.000000;-1.000000;,
  0.810679;0.585491;0.000000;,
  0.810679;0.585491;0.000000;,
  1.000000;0.000000;0.000000;,
  1.000000;0.000000;0.000000;,
  0.000000;0.000000;-1.000000;,
  0.000000;0.000000;-1.000000;,
  0.000000;0.000000;-1.000000;,
  0.000000;0.000000;-1.000000;,
  0.000000;0.000000;-1.000000;,
  -0.810679;0.585491;0.000000;,
  -0.810679;0.585491;0.000000;,
  -1.000000;0.000000;0.000000;,
  -1.000000;0.000000;0.000000;,
  0.000000;0.000000;-1.000000;,
  0.000000;0.000000;-1.000000;,
  0.000000;0.000000;-1.000000;,
  0.000000;0.000000;-1.000000;,
  0.000000;0.000000;-1.000000;,
  0.810679;0.585491;0.000000;,
  0.810679;0.585491;0.000000;,
  1.000000;0.000000;0.000000;,
  1.000000;0.000000;0.000000;;
  116;
  3;0,0,0;,
  3;1,1,1;,
  3;2,2,2;,
  3;3,3,3;,
  3;4,4,4;,
  3;5,5,5;,
  3;6,6,6;,
  3;7,7,7;,
  3;8,8,8;,
  3;9,9,9;,
  3;10,10,10;,
  3;11,11,11;,
  3;12,12,12;,
  3;13,13,13;,
  3;14,14,14;,
  3;15,15,15;,
  3;16,16,16;,
  3;17,17,17;,
  3;18,18,18;,
  3;19,19,19;,
  3;20,20,20;,
  3;21,21,21;,
  3;22,22,22;,
  3;23,23,23;,
  3;24,24,24;,
  3;25,25,25;,
  3;26,26,26;,
  3;27,27,27;,
  3;28,28,28;,
  3;29,29,29;,
  3;30,30,30;,
  3;31,31,31;,
  3;32,32,32;,
  3;33,33,33;,
  3;34,34,34;,
  3;35,35,35;,
  3;36,36,36;,
  3;37,37,37;,
  3;38,38,38;,
  3;39,39,39;,
  3;40,40,40;,
  3;41,41,41;,
  3;42,42,42;,
  3;43,43,43;,
  3;44,44,44;,
  3;45,45,45;,
  3;46,46,46;,
  3;47,47,47;,
  3;48,48,48;,
  3;49,49,49;,
  3;50,50,50;,
  3;51,51,51;,
  3;52,52,52;,
  3;53,53,53;,
  3;54,54,54;,
  3;55,55,55;,
  3;56,56,56;,
  3;57,57,57;,
  3;58,58,58;,
  3;59,59,59;,
  3;60,60,60;,
  3;61,61,61;,
  3;62,62,62;,
  3;63,63,63;,
  3;64,64,64;,
  3;65,65,65;,
  3;66,66,66;,
  3;67,67,67;,
  3;68,68,68;,
  3;69,69,69;,
  3;70,70,70;,
  3;71,71,71;,
  3;72,72,72;,
  3;73,73,73;,
  3;74,74,74;,
  3;75,75,75;,
  3;76,76,76;,
  3;77,77,77;,
  3;78,78,78;,
  3;79,79,79;,
  3;80,80,80;,
  3;81,81,81;,
  3;82,82,82;,
  3;83,83,83;,
  3;84,84,84;,
  3;85,85,85;,
  3;86,86,86;,
  3;87,87,87;,
  3;88,88,88;,
  3;89,89,89;,
  3;90,90,90;,
  3;91,91,91;,
  3;92,92,92;,
  3;93,93,93;,
  3;94,94,94;,
  3;95,95,95;,
  3;96,96,96;,
  3;97,97,97;,
  3;98,98,98;,
  3;99,99,99;,
  3;100,100,100;,
  3;101,101,101;,
  3;102,102,102;,
  3;103,103,103;,
  3;104,104,104;,
  3;105,105,105;,
  3;106,106,106;,
  3;107,107,107;,
  3;108,108,108;,
  3;109,109,109;,
  3;110,110,110;,
  3;111,111,111;,
  3;112,112,112;,
  3;113,113,113;,
  3;114,114,114;,
  3;115,115,115;;
 }
}