xof 0303txt 0032
template Vector {
 <3d82ab5e-62da-11cf-ab39-0020af71e433>
 FLOAT x;
 FLOAT y;
 FLOAT z;
}

template MeshFace {
 <3d82ab5f-62da-11cf-ab39-0020af71e433>
 DWORD nFaceVertexIndices;
 array DWORD faceVertexIndices[nFaceVertexIndices];
}

template Mesh {
 <3d82ab44-62da-11cf-ab39-0020af71e433>
 DWORD nVertices;
 array Vector vertices[nVertices];
 DWORD nFaces;
 array MeshFace faces[nFaces];
 [...]
}

template ColorRGBA {
 <35ff44e0-6c7c-11cf-8f52-0040333594a3>
 FLOAT red;
 FLOAT green;
 FLOAT blue;
 FLOAT alpha;
}

template ColorRGB {
 <d3e16e81-7835-11cf-8f52-0040333594a3>
 FLOAT red;
 FLOAT green;
 FLOAT blue;
}

template Material {
 <3d82ab4d-62da-11cf-ab39-0020af71e433>
 ColorRGBA faceColor;
 FLOAT power;
 ColorRGB specularColor;
 ColorRGB emissiveColor;
 [...]
}

template MeshMaterialList {
 <f6f23f42-7686-11cf-8f52-0040333594a3>
 DWORD nMaterials;
 DWORD nFaceIndexes;
 array DWORD faceIndexes[nFaceIndexes];
 [Material <3d82ab4d-62da-11cf-ab39-0020af71e433>]
}

template TextureFilename {
 <a42790e1-7810-11cf-8f52-0040333594a3>
 STRING filename;
}

template Coords2d {
 <f6f23f44-7686-11cf-8f52-0040333594a3>
 FLOAT u;
 FLOAT v;
}

template MeshTextureCoords {
 <f6f23f40-7686-11cf-8f52-0040333594a3>
 DWORD nTextureCoords;
 array Coords2d textureCoords[nTextureCoords];
}

template MeshNormals {
 <f6f23f43-7686-11cf-8f52-0040333594a3>
 DWORD nNormals;
 array Vector normals[nNormals];
 DWORD nFaceNormals;
 array MeshFace faceNormals[nFaceNormals];
}


Mesh  {
 41;
 -2.300000;-0.390000;0.000000;,
 -2.300000;-0.350000;0.000000;,
 -1.400000;-0.350000;0.000000;,
 -1.400000;-0.390000;0.000000;,
 -2.300000;-0.350000;25.000000;,
 -1.400000;-0.350000;25.000000;,
 -1.400000;-0.390000;25.000000;,
 -2.300000;-0.590000;4.900000;,
 -2.300000;-0.390000;4.900000;,
 -2.300000;-0.390000;5.100000;,
 -0.500000;-0.590000;4.900000;,
 -0.500000;-0.390000;4.900000;,
 -0.500000;-0.390000;5.100000;,
 -2.300000;-0.590000;9.900000;,
 -2.300000;-0.390000;9.900000;,
 -2.300000;-0.390000;10.100000;,
 -0.500000;-0.590000;9.900000;,
 -0.500000;-0.390000;9.900000;,
 -0.500000;-0.390000;10.100000;,
 -2.300000;-0.590000;14.900000;,
 -2.300000;-0.390000;14.900000;,
 -2.300000;-0.390000;15.100000;,
 -0.500000;-0.590000;14.900000;,
 -0.500000;-0.390000;14.900000;,
 -0.500000;-0.390000;15.100000;,
 -2.300000;-0.590000;19.900000;,
 -2.300000;-0.390000;19.900000;,
 -2.300000;-0.390000;20.100000;,
 -0.500000;-0.590000;19.900000;,
 -0.500000;-0.390000;19.900000;,
 -0.500000;-0.390000;20.100000;,
 -2.300000;-0.590000;24.900000;,
 -2.300000;-0.390000;24.900000;,
 -2.300000;-0.390000;25.100000;,
 -0.500000;-0.590000;24.900000;,
 -0.500000;-0.390000;24.900000;,
 -0.500000;-0.390000;25.100000;,
 -2.300000;-0.350000;0.000000;,
 -2.300000;0.450000;0.000000;,
 -2.300000;0.450000;25.000000;,
 -2.300000;-0.350000;25.000000;;
 30;
 3;0,1,2;,
 3;0,2,3;,
 3;1,4,5;,
 3;1,5,2;,
 3;3,2,5;,
 3;3,5,6;,
 3;7,8,11;,
 3;7,11,10;,
 3;8,9,12;,
 3;8,12,11;,
 3;13,14,17;,
 3;13,17,16;,
 3;14,15,18;,
 3;14,18,17;,
 3;19,20,23;,
 3;19,23,22;,
 3;20,21,24;,
 3;20,24,23;,
 3;25,26,29;,
 3;25,29,28;,
 3;26,27,30;,
 3;26,30,29;,
 3;31,32,35;,
 3;31,35,34;,
 3;32,33,36;,
 3;32,36,35;,
 3;37,38,39;,
 3;37,39,40;,
 3;40,39,38;,
 3;40,38,37;;

 MeshMaterialList  {
  7;
  30;
  0,
  0,
  0,
  0,
  0,
  0,
  1,
  1,
  1,
  1,
  2,
  2,
  2,
  2,
  3,
  3,
  3,
  3,
  4,
  4,
  4,
  4,
  5,
  5,
  5,
  5,
  6,
  6,
  6,
  6;

  Material  {
   0.643137;0.643137;0.643137;1.000000;;
   0.000000;
   0.000000;0.000000;0.000000;;
   0.000000;0.000000;0.000000;;

   TextureFilename  {
    "PassageIron1.png";
   }
  }

  Material  {
   1.000000;1.000000;1.000000;1.000000;;
   0.000000;
   0.000000;0.000000;0.000000;;
   0.000000;0.000000;0.000000;;

   TextureFilename  {
    "Iron3.png";
   }
  }

  Material  {
   1.000000;1.000000;1.000000;1.000000;;
   0.000000;
   0.000000;0.000000;0.000000;;
   0.000000;0.000000;0.000000;;

   TextureFilename  {
    "Iron3.png";
   }
  }

  Material  {
   1.000000;1.000000;1.000000;1.000000;;
   0.000000;
   0.000000;0.000000;0.000000;;
   0.000000;0.000000;0.000000;;

   TextureFilename  {
    "Iron3.png";
   }
  }

  Material  {
   1.000000;1.000000;1.000000;1.000000;;
   0.000000;
   0.000000;0.000000;0.000000;;
   0.000000;0.000000;0.000000;;

   TextureFilename  {
    "Iron3.png";
   }
  }

  Material  {
   1.000000;1.000000;1.000000;1.000000;;
   0.000000;
   0.000000;0.000000;0.000000;;
   0.000000;0.000000;0.000000;;

   TextureFilename  {
    "Iron3.png";
   }
  }

  Material  {
   1.000000;1.000000;1.000000;1.000000;;
   0.000000;
   0.000000;0.000000;0.000000;;
   0.000000;0.000000;0.000000;;

   TextureFilename  {
    "SakuG.png";
   }
  }
 }

 MeshTextureCoords  {
  41;
  1.000000;0.000000;,
  1.000000;0.000000;,
  0.000000;0.000000;,
  0.000000;0.000000;,
  1.000000;1.000000;,
  0.000000;1.000000;,
  0.000000;1.000000;,
  0.000000;0.800000;,
  0.000000;0.687500;,
  0.000000;0.500000;,
  0.100000;0.800000;,
  0.100000;0.687500;,
  0.100000;0.500000;,
  0.000000;0.800000;,
  0.000000;0.687500;,
  0.000000;0.500000;,
  0.100000;0.800000;,
  0.100000;0.687500;,
  0.100000;0.500000;,
  0.000000;0.800000;,
  0.000000;0.687500;,
  0.000000;0.500000;,
  0.100000;0.800000;,
  0.100000;0.687500;,
  0.100000;0.500000;,
  0.000000;0.800000;,
  0.000000;0.687500;,
  0.000000;0.500000;,
  0.100000;0.800000;,
  0.100000;0.687500;,
  0.100000;0.500000;,
  0.000000;0.800000;,
  0.000000;0.687500;,
  0.000000;0.500000;,
  0.100000;0.800000;,
  0.100000;0.687500;,
  0.100000;0.500000;,
  0.014000;1.000000;,
  0.014000;0.030000;,
  6.545000;0.030000;,
  6.545000;1.000000;;
 }

 MeshNormals  {
  30;
  0.000000;0.000000;-1.000000;,
  0.000000;0.000000;-1.000000;,
  0.000000;1.000000;0.000000;,
  0.000000;1.000000;0.000000;,
  1.000000;0.000000;0.000000;,
  1.000000;0.000000;0.000000;,
  0.000000;0.000000;-1.000000;,
  0.000000;0.000000;-1.000000;,
  0.000000;1.000000;0.000000;,
  0.000000;1.000000;0.000000;,
  0.000000;0.000000;-1.000000;,
  0.000000;0.000000;-1.000000;,
  0.000000;1.000000;0.000000;,
  0.000000;1.000000;0.000000;,
  0.000000;0.000000;-1.000000;,
  0.000000;0.000000;-1.000000;,
  0.000000;1.000000;0.000000;,
  0.000000;1.000000;0.000000;,
  0.000000;0.000000;-1.000000;,
  0.000000;0.000000;-1.000000;,
  0.000000;1.000000;0.000000;,
  0.000000;1.000000;0.000000;,
  0.000000;0.000000;-1.000000;,
  0.000000;0.000000;-1.000000;,
  0.000000;1.000000;0.000000;,
  0.000000;1.000000;0.000000;,
  1.000000;0.000000;0.000000;,
  1.000000;0.000000;0.000000;,
  -1.000000;0.000000;0.000000;,
  -1.000000;0.000000;0.000000;;
  30;
  3;0,0,0;,
  3;1,1,1;,
  3;2,2,2;,
  3;3,3,3;,
  3;4,4,4;,
  3;5,5,5;,
  3;6,6,6;,
  3;7,7,7;,
  3;8,8,8;,
  3;9,9,9;,
  3;10,10,10;,
  3;11,11,11;,
  3;12,12,12;,
  3;13,13,13;,
  3;14,14,14;,
  3;15,15,15;,
  3;16,16,16;,
  3;17,17,17;,
  3;18,18,18;,
  3;19,19,19;,
  3;20,20,20;,
  3;21,21,21;,
  3;22,22,22;,
  3;23,23,23;,
  3;24,24,24;,
  3;25,25,25;,
  3;26,26,26;,
  3;27,27,27;,
  3;28,28,28;,
  3;29,29,29;;
 }
}