xof 0303txt 0032

Header {
 1;
 0;
 1;
}

Mesh {
 32;
 -0.40000;2.10000;-9.65000;,
 0.40000;2.10000;-9.65000;,
 0.40000;1.50000;-9.65000;,
 -0.40000;1.50000;-9.65000;,
 0.40000;1.30000;-9.60000;,
 -0.40000;1.30000;-9.60000;,
 1.01700;1.42716;-9.57500;,
 1.05000;1.43600;-9.57500;,
 1.08300;1.42716;-9.57500;,
 1.05000;1.37000;-9.59000;,
 1.10716;1.40300;-9.57500;,
 1.11600;1.37000;-9.57500;,
 1.10716;1.33700;-9.57500;,
 1.08300;1.31284;-9.57500;,
 1.05000;1.30400;-9.57500;,
 1.01700;1.31284;-9.57500;,
 0.99284;1.33700;-9.57500;,
 0.98400;1.37000;-9.57500;,
 0.99284;1.40300;-9.57500;,
 -1.01700;1.42716;-9.57500;,
 -1.05000;1.37000;-9.59000;,
 -1.08300;1.42716;-9.57500;,
 -1.05000;1.43600;-9.57500;,
 -1.11600;1.37000;-9.57500;,
 -1.10716;1.40300;-9.57500;,
 -1.08300;1.31284;-9.57500;,
 -1.10716;1.33700;-9.57500;,
 -1.01700;1.31284;-9.57500;,
 -1.05000;1.30400;-9.57500;,
 -0.98400;1.37000;-9.57500;,
 -0.99284;1.33700;-9.57500;,
 -0.99284;1.40300;-9.57500;;
 
 14;
 4;0,1,2,3;,
 4;2,4,5,3;,
 4;6,7,8,9;,
 4;9,8,10,11;,
 4;9,11,12,13;,
 4;9,13,14,15;,
 4;9,15,16,17;,
 4;9,17,18,6;,
 4;19,20,21,22;,
 4;20,23,24,21;,
 4;20,25,26,23;,
 4;20,27,28,25;,
 4;20,29,30,27;,
 4;20,19,31,29;;
 
 MeshMaterialList {
  2;
  14;
  0,
  0,
  1,
  1,
  1,
  1,
  1,
  1,
  1,
  1,
  1,
  1,
  1,
  1;;
  Material {
   1.000000;1.000000;1.000000;1.000000;;
   0.000000;
   0.000000;0.000000;0.000000;;
   0.000000;0.000000;0.000000;;
   TextureFilename {
    "ikusan.dds";
   }
  }
  Material {
   0.204000;0.082000;0.098000;1.000000;;
   0.000000;
   0.000000;0.000000;0.000000;;
   0.000000;0.000000;0.000000;;
  }
 }
 MeshNormals {
  28;
  0.000000;0.000000;-1.000000;,
  0.000000;-0.122183;-0.992507;,
  0.000000;-0.242536;-0.970142;,
  -0.096559;0.167246;-0.981175;,
  0.000004;0.221621;-0.975133;,
  0.096560;0.167246;-0.981175;,
  0.000000;0.000000;-1.000000;,
  0.191928;0.110811;-0.975133;,
  0.193119;0.000000;-0.981175;,
  0.191931;-0.110811;-0.975132;,
  0.096560;-0.167246;-0.981175;,
  0.000000;-0.221621;-0.975133;,
  -0.096559;-0.167245;-0.981176;,
  -0.191929;-0.110809;-0.975133;,
  -0.193120;0.000001;-0.981175;,
  -0.191931;0.110811;-0.975132;,
  0.096559;0.167246;-0.981175;,
  -0.000004;0.221621;-0.975133;,
  -0.096560;0.167246;-0.981175;,
  -0.000000;0.000000;-1.000000;,
  -0.191928;0.110811;-0.975133;,
  -0.193119;0.000000;-0.981175;,
  -0.191931;-0.110811;-0.975132;,
  -0.096560;-0.167246;-0.981175;,
  0.096559;-0.167245;-0.981176;,
  0.191929;-0.110809;-0.975133;,
  0.193120;0.000001;-0.981175;,
  0.191931;0.110811;-0.975132;;
  14;
  4;0,0,1,1;,
  4;1,2,2,1;,
  4;3,4,5,6;,
  4;6,5,7,8;,
  4;6,8,9,10;,
  4;6,10,11,12;,
  4;6,12,13,14;,
  4;6,14,15,3;,
  4;16,19,18,17;,
  4;19,21,20,18;,
  4;19,23,22,21;,
  4;19,24,11,23;,
  4;19,26,25,24;,
  4;19,16,27,26;;
 }
 MeshTextureCoords {
  32;
  0.000000;0.000000;,
  1.000000;0.000000;,
  1.000000;0.950000;,
  0.000000;0.950000;,
  1.000000;0.950000;,
  0.000000;0.950000;,
  0.000000;0.000000;,
  0.000000;0.000000;,
  0.000000;0.000000;,
  0.000000;0.000000;,
  0.000000;0.000000;,
  0.000000;0.000000;,
  0.000000;0.000000;,
  0.000000;0.000000;,
  0.000000;0.000000;,
  0.000000;0.000000;,
  0.000000;0.000000;,
  0.000000;0.000000;,
  0.000000;0.000000;,
  0.000000;0.000000;,
  0.000000;0.000000;,
  0.000000;0.000000;,
  0.000000;0.000000;,
  0.000000;0.000000;,
  0.000000;0.000000;,
  0.000000;0.000000;,
  0.000000;0.000000;,
  0.000000;0.000000;,
  0.000000;0.000000;,
  0.000000;0.000000;,
  0.000000;0.000000;,
  0.000000;0.000000;;
 }
}
