xof 0303txt 0032
template Vector {
 <3d82ab5e-62da-11cf-ab39-0020af71e433>
 FLOAT x;
 FLOAT y;
 FLOAT z;
}

template MeshFace {
 <3d82ab5f-62da-11cf-ab39-0020af71e433>
 DWORD nFaceVertexIndices;
 array DWORD faceVertexIndices[nFaceVertexIndices];
}

template Mesh {
 <3d82ab44-62da-11cf-ab39-0020af71e433>
 DWORD nVertices;
 array Vector vertices[nVertices];
 DWORD nFaces;
 array MeshFace faces[nFaces];
 [...]
}

template ColorRGBA {
 <35ff44e0-6c7c-11cf-8f52-0040333594a3>
 FLOAT red;
 FLOAT green;
 FLOAT blue;
 FLOAT alpha;
}

template ColorRGB {
 <d3e16e81-7835-11cf-8f52-0040333594a3>
 FLOAT red;
 FLOAT green;
 FLOAT blue;
}

template Material {
 <3d82ab4d-62da-11cf-ab39-0020af71e433>
 ColorRGBA faceColor;
 FLOAT power;
 ColorRGB specularColor;
 ColorRGB emissiveColor;
 [...]
}

template MeshMaterialList {
 <f6f23f42-7686-11cf-8f52-0040333594a3>
 DWORD nMaterials;
 DWORD nFaceIndexes;
 array DWORD faceIndexes[nFaceIndexes];
 [Material <3d82ab4d-62da-11cf-ab39-0020af71e433>]
}

template TextureFilename {
 <a42790e1-7810-11cf-8f52-0040333594a3>
 STRING filename;
}

template Coords2d {
 <f6f23f44-7686-11cf-8f52-0040333594a3>
 FLOAT u;
 FLOAT v;
}

template MeshTextureCoords {
 <f6f23f40-7686-11cf-8f52-0040333594a3>
 DWORD nTextureCoords;
 array Coords2d textureCoords[nTextureCoords];
}

template MeshNormals {
 <f6f23f43-7686-11cf-8f52-0040333594a3>
 DWORD nNormals;
 array Vector normals[nNormals];
 DWORD nFaceNormals;
 array MeshFace faceNormals[nFaceNormals];
}


Mesh  {
 96;
 -1.250000;-1.100000;-1.250000;,
 -1.050000;-1.100000;-1.250000;,
 -1.250000;-1.100000;-1.050000;,
 -1.050000;-1.100000;-1.050000;,
 -1.250000;7.100000;-1.250000;,
 -1.050000;7.100000;-1.250000;,
 -1.250000;7.100000;-1.050000;,
 -1.050000;7.100000;-1.050000;,
 1.250000;-1.100000;-1.250000;,
 1.050000;-1.100000;-1.250000;,
 1.250000;-1.100000;-1.050000;,
 1.050000;-1.100000;-1.050000;,
 1.250000;7.100000;-1.250000;,
 1.050000;7.100000;-1.250000;,
 1.250000;7.100000;-1.050000;,
 1.050000;7.100000;-1.050000;,
 -1.250000;-1.100000;1.250000;,
 -1.050000;-1.100000;1.250000;,
 -1.250000;-1.100000;1.050000;,
 -1.050000;-1.100000;1.050000;,
 -1.250000;7.100000;1.250000;,
 -1.050000;7.100000;1.250000;,
 -1.250000;7.100000;1.050000;,
 -1.050000;7.100000;1.050000;,
 1.250000;-1.100000;1.250000;,
 1.050000;-1.100000;1.250000;,
 1.250000;-1.100000;1.050000;,
 1.050000;-1.100000;1.050000;,
 1.250000;7.100000;1.250000;,
 1.050000;7.100000;1.250000;,
 1.250000;7.100000;1.050000;,
 1.050000;7.100000;1.050000;,
 -1.050000;4.700000;-1.250000;,
 1.050000;4.700000;-1.250000;,
 -1.050000;4.700000;-1.050000;,
 1.050000;4.700000;-1.050000;,
 -1.050000;4.500000;-1.250000;,
 1.050000;4.500000;-1.250000;,
 -1.050000;4.500000;-1.050000;,
 1.050000;4.500000;-1.050000;,
 -1.050000;4.700000;1.250000;,
 1.050000;4.700000;1.250000;,
 -1.050000;4.700000;1.050000;,
 1.050000;4.700000;1.050000;,
 -1.050000;4.500000;1.250000;,
 1.050000;4.500000;1.250000;,
 -1.050000;4.500000;1.050000;,
 1.050000;4.500000;1.050000;,
 -1.250000;4.700000;-1.050000;,
 -1.250000;4.700000;1.050000;,
 -1.050000;4.700000;-1.050000;,
 -1.050000;4.700000;1.050000;,
 -1.250000;4.500000;-1.050000;,
 -1.250000;4.500000;1.050000;,
 -1.050000;4.500000;-1.050000;,
 -1.050000;4.500000;1.050000;,
 1.250000;4.700000;-1.050000;,
 1.250000;4.700000;1.050000;,
 1.050000;4.700000;-1.050000;,
 1.050000;4.700000;1.050000;,
 1.250000;4.500000;-1.050000;,
 1.250000;4.500000;1.050000;,
 1.050000;4.500000;-1.050000;,
 1.050000;4.500000;1.050000;,
 -1.050000;2.200000;-1.250000;,
 1.050000;2.200000;-1.250000;,
 -1.050000;2.200000;-1.050000;,
 1.050000;2.200000;-1.050000;,
 -1.050000;2.000000;-1.250000;,
 1.050000;2.000000;-1.250000;,
 -1.050000;2.000000;-1.050000;,
 1.050000;2.000000;-1.050000;,
 -1.050000;2.200000;1.250000;,
 1.050000;2.200000;1.250000;,
 -1.050000;2.200000;1.050000;,
 1.050000;2.200000;1.050000;,
 -1.050000;2.000000;1.250000;,
 1.050000;2.000000;1.250000;,
 -1.050000;2.000000;1.050000;,
 1.050000;2.000000;1.050000;,
 -1.250000;2.200000;-1.050000;,
 -1.250000;2.200000;1.050000;,
 -1.050000;2.200000;-1.050000;,
 -1.050000;2.200000;1.050000;,
 -1.250000;2.000000;-1.050000;,
 -1.250000;2.000000;1.050000;,
 -1.050000;2.000000;-1.050000;,
 -1.050000;2.000000;1.050000;,
 1.250000;2.200000;-1.050000;,
 1.250000;2.200000;1.050000;,
 1.050000;2.200000;-1.050000;,
 1.050000;2.200000;1.050000;,
 1.250000;2.000000;-1.050000;,
 1.250000;2.000000;1.050000;,
 1.050000;2.000000;-1.050000;,
 1.050000;2.000000;1.050000;;
 192;
 3;0,1,5;,
 3;0,5,4;,
 3;4,5,1;,
 3;4,1,0;,
 3;1,3,7;,
 3;1,7,5;,
 3;5,7,3;,
 3;5,3,1;,
 3;3,2,6;,
 3;3,6,7;,
 3;7,6,2;,
 3;7,2,3;,
 3;2,0,4;,
 3;2,4,6;,
 3;6,4,0;,
 3;6,0,2;,
 3;8,9,13;,
 3;8,13,12;,
 3;12,13,9;,
 3;12,9,8;,
 3;9,11,15;,
 3;9,15,13;,
 3;13,15,11;,
 3;13,11,9;,
 3;11,10,14;,
 3;11,14,15;,
 3;15,14,10;,
 3;15,10,11;,
 3;10,8,12;,
 3;10,12,14;,
 3;14,12,8;,
 3;14,8,10;,
 3;16,17,21;,
 3;16,21,20;,
 3;20,21,17;,
 3;20,17,16;,
 3;17,19,23;,
 3;17,23,21;,
 3;21,23,19;,
 3;21,19,17;,
 3;19,18,22;,
 3;19,22,23;,
 3;23,22,18;,
 3;23,18,19;,
 3;18,16,20;,
 3;18,20,22;,
 3;22,20,16;,
 3;22,16,18;,
 3;24,25,29;,
 3;24,29,28;,
 3;28,29,25;,
 3;28,25,24;,
 3;25,27,31;,
 3;25,31,29;,
 3;29,31,27;,
 3;29,27,25;,
 3;27,26,30;,
 3;27,30,31;,
 3;31,30,26;,
 3;31,26,27;,
 3;26,24,28;,
 3;26,28,30;,
 3;30,28,24;,
 3;30,24,26;,
 3;32,33,37;,
 3;32,37,36;,
 3;36,37,33;,
 3;36,33,32;,
 3;36,37,39;,
 3;36,39,38;,
 3;38,39,37;,
 3;38,37,36;,
 3;35,34,38;,
 3;35,38,39;,
 3;39,38,34;,
 3;39,34,35;,
 3;32,33,35;,
 3;32,35,34;,
 3;34,35,33;,
 3;34,33,32;,
 3;40,41,45;,
 3;40,45,44;,
 3;44,45,41;,
 3;44,41,40;,
 3;41,45,47;,
 3;41,47,46;,
 3;46,47,45;,
 3;46,45,41;,
 3;43,42,46;,
 3;43,46,47;,
 3;47,46,42;,
 3;47,42,43;,
 3;40,41,43;,
 3;40,43,42;,
 3;42,43,41;,
 3;42,41,40;,
 3;48,49,53;,
 3;48,53,52;,
 3;52,53,49;,
 3;52,49,48;,
 3;49,53,55;,
 3;49,55,54;,
 3;54,55,53;,
 3;54,53,49;,
 3;51,50,54;,
 3;51,54,55;,
 3;55,54,50;,
 3;55,50,51;,
 3;48,49,51;,
 3;48,51,50;,
 3;50,51,49;,
 3;50,49,48;,
 3;56,57,61;,
 3;56,61,60;,
 3;60,61,57;,
 3;60,57,56;,
 3;57,61,63;,
 3;57,63,62;,
 3;62,63,61;,
 3;62,61,57;,
 3;59,58,62;,
 3;59,62,63;,
 3;63,62,58;,
 3;63,58,59;,
 3;56,57,59;,
 3;56,59,58;,
 3;58,59,57;,
 3;58,57,56;,
 3;64,65,69;,
 3;64,69,68;,
 3;68,69,65;,
 3;68,65,64;,
 3;65,69,71;,
 3;65,71,70;,
 3;70,71,69;,
 3;70,69,65;,
 3;67,66,70;,
 3;67,70,71;,
 3;71,70,66;,
 3;71,66,67;,
 3;64,65,67;,
 3;64,67,66;,
 3;66,67,65;,
 3;66,65,64;,
 3;72,73,77;,
 3;72,77,76;,
 3;76,77,73;,
 3;76,73,72;,
 3;76,77,79;,
 3;76,79,78;,
 3;78,79,77;,
 3;78,77,76;,
 3;75,74,78;,
 3;75,78,79;,
 3;79,78,74;,
 3;79,74,75;,
 3;72,73,75;,
 3;72,75,74;,
 3;74,75,73;,
 3;74,73,72;,
 3;80,81,85;,
 3;80,85,84;,
 3;84,85,81;,
 3;84,81,80;,
 3;81,85,87;,
 3;81,87,86;,
 3;86,87,85;,
 3;86,85,81;,
 3;83,82,86;,
 3;83,86,87;,
 3;87,86,82;,
 3;87,82,83;,
 3;80,81,83;,
 3;80,83,82;,
 3;82,83,81;,
 3;82,81,80;,
 3;88,89,93;,
 3;88,93,92;,
 3;92,93,89;,
 3;92,89,88;,
 3;89,93,95;,
 3;89,95,94;,
 3;94,95,93;,
 3;94,93,89;,
 3;91,90,94;,
 3;91,94,95;,
 3;95,94,90;,
 3;95,90,91;,
 3;88,89,91;,
 3;88,91,90;,
 3;90,91,89;,
 3;90,89,88;;

 MeshMaterialList  {
  1;
  192;
  0,
  0,
  0,
  0,
  0,
  0,
  0,
  0,
  0,
  0,
  0,
  0,
  0,
  0,
  0,
  0,
  0,
  0,
  0,
  0,
  0,
  0,
  0,
  0,
  0,
  0,
  0,
  0,
  0,
  0,
  0,
  0,
  0,
  0,
  0,
  0,
  0,
  0,
  0,
  0,
  0,
  0,
  0,
  0,
  0,
  0,
  0,
  0,
  0,
  0,
  0,
  0,
  0,
  0,
  0,
  0,
  0,
  0,
  0,
  0,
  0,
  0,
  0,
  0,
  0,
  0,
  0,
  0,
  0,
  0,
  0,
  0,
  0,
  0,
  0,
  0,
  0,
  0,
  0,
  0,
  0,
  0,
  0,
  0,
  0,
  0,
  0,
  0,
  0,
  0,
  0,
  0,
  0,
  0,
  0,
  0,
  0,
  0,
  0,
  0,
  0,
  0,
  0,
  0,
  0,
  0,
  0,
  0,
  0,
  0,
  0,
  0,
  0,
  0,
  0,
  0,
  0,
  0,
  0,
  0,
  0,
  0,
  0,
  0,
  0,
  0,
  0,
  0,
  0,
  0,
  0,
  0,
  0,
  0,
  0,
  0,
  0,
  0,
  0,
  0,
  0,
  0,
  0,
  0,
  0,
  0,
  0,
  0,
  0,
  0,
  0,
  0,
  0,
  0,
  0,
  0,
  0,
  0,
  0,
  0,
  0,
  0,
  0,
  0,
  0,
  0,
  0,
  0,
  0,
  0,
  0,
  0,
  0,
  0,
  0,
  0,
  0,
  0,
  0,
  0,
  0,
  0,
  0,
  0,
  0,
  0,
  0,
  0,
  0,
  0,
  0,
  0;

  Material  {
   1.000000;1.000000;1.000000;1.000000;;
   0.000000;
   0.000000;0.000000;0.000000;;
   0.000000;0.000000;0.000000;;

   TextureFilename  {
    "numazu_mokuzai.dds";
   }
  }
 }

 MeshTextureCoords  {
  96;
  3.000000;1.000000;,
  3.000000;0.000000;,
  3.000000;0.000000;,
  3.000000;1.000000;,
  0.000000;1.000000;,
  0.000000;0.000000;,
  0.000000;0.000000;,
  0.000000;1.000000;,
  3.000000;1.000000;,
  3.000000;0.000000;,
  3.000000;0.000000;,
  3.000000;1.000000;,
  0.000000;1.000000;,
  0.000000;0.000000;,
  0.000000;0.000000;,
  0.000000;1.000000;,
  3.000000;1.000000;,
  3.000000;0.000000;,
  3.000000;0.000000;,
  3.000000;1.000000;,
  0.000000;1.000000;,
  0.000000;0.000000;,
  0.000000;0.000000;,
  0.000000;1.000000;,
  3.000000;1.000000;,
  3.000000;0.000000;,
  3.000000;0.000000;,
  3.000000;1.000000;,
  0.000000;1.000000;,
  0.000000;0.000000;,
  0.000000;0.000000;,
  0.000000;1.000000;,
  0.000000;0.000000;,
  1.000000;0.000000;,
  0.000000;1.000000;,
  1.000000;1.000000;,
  0.000000;1.000000;,
  1.000000;1.000000;,
  0.000000;0.000000;,
  1.000000;0.000000;,
  0.000000;0.000000;,
  1.000000;0.000000;,
  0.000000;1.000000;,
  1.000000;1.000000;,
  0.000000;1.000000;,
  1.000000;1.000000;,
  0.000000;0.000000;,
  1.000000;0.000000;,
  0.000000;0.000000;,
  1.000000;0.000000;,
  0.000000;1.000000;,
  1.000000;1.000000;,
  0.000000;1.000000;,
  1.000000;1.000000;,
  0.000000;0.000000;,
  1.000000;0.000000;,
  0.000000;0.000000;,
  1.000000;0.000000;,
  0.000000;1.000000;,
  1.000000;1.000000;,
  0.000000;1.000000;,
  1.000000;1.000000;,
  0.000000;0.000000;,
  1.000000;0.000000;,
  0.000000;0.000000;,
  1.000000;0.000000;,
  0.000000;1.000000;,
  1.000000;1.000000;,
  0.000000;1.000000;,
  1.000000;1.000000;,
  0.000000;0.000000;,
  1.000000;0.000000;,
  0.000000;0.000000;,
  1.000000;0.000000;,
  0.000000;1.000000;,
  1.000000;1.000000;,
  0.000000;1.000000;,
  1.000000;1.000000;,
  0.000000;0.000000;,
  1.000000;0.000000;,
  0.000000;0.000000;,
  1.000000;0.000000;,
  0.000000;1.000000;,
  1.000000;1.000000;,
  0.000000;1.000000;,
  1.000000;1.000000;,
  0.000000;0.000000;,
  1.000000;0.000000;,
  0.000000;0.000000;,
  1.000000;0.000000;,
  0.000000;1.000000;,
  1.000000;1.000000;,
  0.000000;1.000000;,
  1.000000;1.000000;,
  0.000000;0.000000;,
  1.000000;0.000000;;
 }

 MeshNormals  {
  192;
  0.000000;0.000000;1.000000;,
  0.000000;0.000000;1.000000;,
  0.000000;0.000000;-1.000000;,
  0.000000;0.000000;-1.000000;,
  -1.000000;0.000000;0.000000;,
  -1.000000;0.000000;0.000000;,
  1.000000;0.000000;0.000000;,
  1.000000;0.000000;0.000000;,
  0.000000;0.000000;-1.000000;,
  0.000000;0.000000;-1.000000;,
  0.000000;0.000000;1.000000;,
  0.000000;0.000000;1.000000;,
  1.000000;0.000000;0.000000;,
  1.000000;0.000000;0.000000;,
  -1.000000;0.000000;0.000000;,
  -1.000000;0.000000;0.000000;,
  0.000000;0.000000;-1.000000;,
  0.000000;0.000000;-1.000000;,
  0.000000;0.000000;1.000000;,
  0.000000;0.000000;1.000000;,
  -1.000000;0.000000;0.000000;,
  -1.000000;0.000000;0.000000;,
  1.000000;0.000000;0.000000;,
  1.000000;0.000000;0.000000;,
  0.000000;0.000000;1.000000;,
  0.000000;0.000000;1.000000;,
  0.000000;0.000000;-1.000000;,
  0.000000;0.000000;-1.000000;,
  1.000000;0.000000;0.000000;,
  1.000000;0.000000;0.000000;,
  -1.000000;0.000000;0.000000;,
  -1.000000;0.000000;0.000000;,
  0.000000;0.000000;1.000000;,
  0.000000;0.000000;1.000000;,
  0.000000;0.000000;-1.000000;,
  0.000000;0.000000;-1.000000;,
  1.000000;0.000000;0.000000;,
  1.000000;0.000000;0.000000;,
  -1.000000;0.000000;0.000000;,
  -1.000000;0.000000;0.000000;,
  0.000000;0.000000;-1.000000;,
  0.000000;0.000000;-1.000000;,
  0.000000;0.000000;1.000000;,
  0.000000;0.000000;1.000000;,
  -1.000000;0.000000;0.000000;,
  -1.000000;0.000000;0.000000;,
  1.000000;0.000000;0.000000;,
  1.000000;0.000000;0.000000;,
  0.000000;0.000000;-1.000000;,
  0.000000;0.000000;-1.000000;,
  0.000000;0.000000;1.000000;,
  0.000000;0.000000;1.000000;,
  1.000000;0.000000;0.000000;,
  1.000000;0.000000;0.000000;,
  -1.000000;0.000000;0.000000;,
  -1.000000;0.000000;0.000000;,
  0.000000;0.000000;1.000000;,
  0.000000;0.000000;1.000000;,
  0.000000;0.000000;-1.000000;,
  0.000000;0.000000;-1.000000;,
  -1.000000;0.000000;0.000000;,
  -1.000000;0.000000;0.000000;,
  1.000000;0.000000;0.000000;,
  1.000000;0.000000;0.000000;,
  0.000000;0.000000;-1.000000;,
  0.000000;0.000000;-1.000000;,
  0.000000;0.000000;1.000000;,
  0.000000;0.000000;1.000000;,
  0.000000;-1.000000;0.000000;,
  0.000000;-1.000000;0.000000;,
  0.000000;1.000000;0.000000;,
  0.000000;1.000000;0.000000;,
  0.000000;0.000000;1.000000;,
  0.000000;0.000000;1.000000;,
  0.000000;0.000000;-1.000000;,
  0.000000;0.000000;-1.000000;,
  0.000000;-1.000000;0.000000;,
  0.000000;-1.000000;0.000000;,
  0.000000;1.000000;0.000000;,
  0.000000;1.000000;0.000000;,
  0.000000;0.000000;-1.000000;,
  0.000000;0.000000;-1.000000;,
  0.000000;0.000000;1.000000;,
  0.000000;0.000000;1.000000;,
  1.000000;0.000000;0.000000;,
  0.000000;0.707107;-0.707106;,
  0.000000;-1.000000;0.000000;,
  -0.094809;0.000000;0.995495;,
  0.000000;0.000000;1.000000;,
  0.000000;0.000000;1.000000;,
  0.000000;0.000000;-1.000000;,
  0.000000;0.000000;-1.000000;,
  0.000000;1.000000;0.000000;,
  0.000000;1.000000;0.000000;,
  0.000000;-1.000000;0.000000;,
  0.000000;-1.000000;0.000000;,
  1.000000;0.000000;0.000000;,
  1.000000;0.000000;0.000000;,
  -1.000000;0.000000;0.000000;,
  -1.000000;0.000000;0.000000;,
  0.000000;0.000000;1.000000;,
  0.707106;0.707107;0.000000;,
  0.000000;-1.000000;0.000000;,
  -0.995495;0.000000;-0.094809;,
  -1.000000;0.000000;0.000000;,
  -1.000000;0.000000;0.000000;,
  1.000000;0.000000;0.000000;,
  1.000000;0.000000;0.000000;,
  0.000000;1.000000;0.000000;,
  0.000000;1.000000;0.000000;,
  0.000000;-1.000000;0.000000;,
  0.000000;-1.000000;0.000000;,
  1.000000;0.000000;0.000000;,
  1.000000;0.000000;0.000000;,
  -1.000000;0.000000;0.000000;,
  -1.000000;0.000000;0.000000;,
  0.000000;0.000000;-1.000000;,
  0.707106;-0.707107;0.000000;,
  0.000000;1.000000;0.000000;,
  -0.995495;0.000000;0.094809;,
  -1.000000;0.000000;0.000000;,
  -1.000000;0.000000;0.000000;,
  1.000000;0.000000;0.000000;,
  1.000000;0.000000;0.000000;,
  0.000000;-1.000000;0.000000;,
  0.000000;-1.000000;0.000000;,
  0.000000;1.000000;0.000000;,
  0.000000;1.000000;0.000000;,
  0.000000;0.000000;-1.000000;,
  0.000000;0.000000;-1.000000;,
  0.000000;0.000000;1.000000;,
  0.000000;0.000000;1.000000;,
  -1.000000;0.000000;0.000000;,
  0.000000;-0.707107;-0.707107;,
  0.000000;1.000000;0.000000;,
  0.094809;0.000000;0.995495;,
  0.000000;0.000000;1.000000;,
  0.000000;0.000000;1.000000;,
  0.000000;0.000000;-1.000000;,
  0.000000;0.000000;-1.000000;,
  0.000000;-1.000000;0.000000;,
  0.000000;-1.000000;0.000000;,
  0.000000;1.000000;0.000000;,
  0.000000;1.000000;0.000000;,
  0.000000;0.000000;-1.000000;,
  0.000000;0.000000;-1.000000;,
  0.000000;0.000000;1.000000;,
  0.000000;0.000000;1.000000;,
  0.000000;1.000000;0.000000;,
  0.000000;1.000000;0.000000;,
  0.000000;-1.000000;0.000000;,
  0.000000;-1.000000;0.000000;,
  0.000000;0.000000;1.000000;,
  0.000000;0.000000;1.000000;,
  0.000000;0.000000;-1.000000;,
  0.000000;0.000000;-1.000000;,
  0.000000;1.000000;0.000000;,
  0.000000;1.000000;0.000000;,
  0.000000;-1.000000;0.000000;,
  0.000000;-1.000000;0.000000;,
  1.000000;0.000000;0.000000;,
  1.000000;0.000000;0.000000;,
  -1.000000;0.000000;0.000000;,
  -1.000000;0.000000;0.000000;,
  0.000000;0.000000;1.000000;,
  0.707107;0.707107;0.000000;,
  0.000000;-1.000000;0.000000;,
  -0.995495;0.000000;-0.094809;,
  -1.000000;0.000000;0.000000;,
  -1.000000;0.000000;0.000000;,
  1.000000;0.000000;0.000000;,
  1.000000;0.000000;0.000000;,
  0.000000;1.000000;0.000000;,
  0.000000;1.000000;0.000000;,
  0.000000;-1.000000;0.000000;,
  0.000000;-1.000000;0.000000;,
  1.000000;0.000000;0.000000;,
  1.000000;0.000000;0.000000;,
  -1.000000;0.000000;0.000000;,
  -1.000000;0.000000;0.000000;,
  0.000000;0.000000;-1.000000;,
  0.707107;-0.707107;0.000000;,
  0.000000;1.000000;0.000000;,
  -0.995495;0.000000;0.094809;,
  -1.000000;0.000000;0.000000;,
  -1.000000;0.000000;0.000000;,
  1.000000;0.000000;0.000000;,
  1.000000;0.000000;0.000000;,
  0.000000;-1.000000;0.000000;,
  0.000000;-1.000000;0.000000;,
  0.000000;1.000000;0.000000;,
  0.000000;1.000000;0.000000;;
  192;
  3;0,0,0;,
  3;1,1,1;,
  3;2,2,2;,
  3;3,3,3;,
  3;4,4,4;,
  3;5,5,5;,
  3;6,6,6;,
  3;7,7,7;,
  3;8,8,8;,
  3;9,9,9;,
  3;10,10,10;,
  3;11,11,11;,
  3;12,12,12;,
  3;13,13,13;,
  3;14,14,14;,
  3;15,15,15;,
  3;16,16,16;,
  3;17,17,17;,
  3;18,18,18;,
  3;19,19,19;,
  3;20,20,20;,
  3;21,21,21;,
  3;22,22,22;,
  3;23,23,23;,
  3;24,24,24;,
  3;25,25,25;,
  3;26,26,26;,
  3;27,27,27;,
  3;28,28,28;,
  3;29,29,29;,
  3;30,30,30;,
  3;31,31,31;,
  3;32,32,32;,
  3;33,33,33;,
  3;34,34,34;,
  3;35,35,35;,
  3;36,36,36;,
  3;37,37,37;,
  3;38,38,38;,
  3;39,39,39;,
  3;40,40,40;,
  3;41,41,41;,
  3;42,42,42;,
  3;43,43,43;,
  3;44,44,44;,
  3;45,45,45;,
  3;46,46,46;,
  3;47,47,47;,
  3;48,48,48;,
  3;49,49,49;,
  3;50,50,50;,
  3;51,51,51;,
  3;52,52,52;,
  3;53,53,53;,
  3;54,54,54;,
  3;55,55,55;,
  3;56,56,56;,
  3;57,57,57;,
  3;58,58,58;,
  3;59,59,59;,
  3;60,60,60;,
  3;61,61,61;,
  3;62,62,62;,
  3;63,63,63;,
  3;64,64,64;,
  3;65,65,65;,
  3;66,66,66;,
  3;67,67,67;,
  3;68,68,68;,
  3;69,69,69;,
  3;70,70,70;,
  3;71,71,71;,
  3;72,72,72;,
  3;73,73,73;,
  3;74,74,74;,
  3;75,75,75;,
  3;76,76,76;,
  3;77,77,77;,
  3;78,78,78;,
  3;79,79,79;,
  3;80,80,80;,
  3;81,81,81;,
  3;82,82,82;,
  3;83,83,83;,
  3;84,84,84;,
  3;85,85,85;,
  3;86,86,86;,
  3;87,87,87;,
  3;88,88,88;,
  3;89,89,89;,
  3;90,90,90;,
  3;91,91,91;,
  3;92,92,92;,
  3;93,93,93;,
  3;94,94,94;,
  3;95,95,95;,
  3;96,96,96;,
  3;97,97,97;,
  3;98,98,98;,
  3;99,99,99;,
  3;100,100,100;,
  3;101,101,101;,
  3;102,102,102;,
  3;103,103,103;,
  3;104,104,104;,
  3;105,105,105;,
  3;106,106,106;,
  3;107,107,107;,
  3;108,108,108;,
  3;109,109,109;,
  3;110,110,110;,
  3;111,111,111;,
  3;112,112,112;,
  3;113,113,113;,
  3;114,114,114;,
  3;115,115,115;,
  3;116,116,116;,
  3;117,117,117;,
  3;118,118,118;,
  3;119,119,119;,
  3;120,120,120;,
  3;121,121,121;,
  3;122,122,122;,
  3;123,123,123;,
  3;124,124,124;,
  3;125,125,125;,
  3;126,126,126;,
  3;127,127,127;,
  3;128,128,128;,
  3;129,129,129;,
  3;130,130,130;,
  3;131,131,131;,
  3;132,132,132;,
  3;133,133,133;,
  3;134,134,134;,
  3;135,135,135;,
  3;136,136,136;,
  3;137,137,137;,
  3;138,138,138;,
  3;139,139,139;,
  3;140,140,140;,
  3;141,141,141;,
  3;142,142,142;,
  3;143,143,143;,
  3;144,144,144;,
  3;145,145,145;,
  3;146,146,146;,
  3;147,147,147;,
  3;148,148,148;,
  3;149,149,149;,
  3;150,150,150;,
  3;151,151,151;,
  3;152,152,152;,
  3;153,153,153;,
  3;154,154,154;,
  3;155,155,155;,
  3;156,156,156;,
  3;157,157,157;,
  3;158,158,158;,
  3;159,159,159;,
  3;160,160,160;,
  3;161,161,161;,
  3;162,162,162;,
  3;163,163,163;,
  3;164,164,164;,
  3;165,165,165;,
  3;166,166,166;,
  3;167,167,167;,
  3;168,168,168;,
  3;169,169,169;,
  3;170,170,170;,
  3;171,171,171;,
  3;172,172,172;,
  3;173,173,173;,
  3;174,174,174;,
  3;175,175,175;,
  3;176,176,176;,
  3;177,177,177;,
  3;178,178,178;,
  3;179,179,179;,
  3;180,180,180;,
  3;181,181,181;,
  3;182,182,182;,
  3;183,183,183;,
  3;184,184,184;,
  3;185,185,185;,
  3;186,186,186;,
  3;187,187,187;,
  3;188,188,188;,
  3;189,189,189;,
  3;190,190,190;,
  3;191,191,191;;
 }
}