xof 0303txt 0032
template Vector {
 <3d82ab5e-62da-11cf-ab39-0020af71e433>
 FLOAT x;
 FLOAT y;
 FLOAT z;
}

template MeshFace {
 <3d82ab5f-62da-11cf-ab39-0020af71e433>
 DWORD nFaceVertexIndices;
 array DWORD faceVertexIndices[nFaceVertexIndices];
}

template Mesh {
 <3d82ab44-62da-11cf-ab39-0020af71e433>
 DWORD nVertices;
 array Vector vertices[nVertices];
 DWORD nFaces;
 array MeshFace faces[nFaces];
 [...]
}

template MeshNormals {
 <f6f23f43-7686-11cf-8f52-0040333594a3>
 DWORD nNormals;
 array Vector normals[nNormals];
 DWORD nFaceNormals;
 array MeshFace faceNormals[nFaceNormals];
}

template Coords2d {
 <f6f23f44-7686-11cf-8f52-0040333594a3>
 FLOAT u;
 FLOAT v;
}

template MeshTextureCoords {
 <f6f23f40-7686-11cf-8f52-0040333594a3>
 DWORD nTextureCoords;
 array Coords2d textureCoords[nTextureCoords];
}

template ColorRGBA {
 <35ff44e0-6c7c-11cf-8f52-0040333594a3>
 FLOAT red;
 FLOAT green;
 FLOAT blue;
 FLOAT alpha;
}

template ColorRGB {
 <d3e16e81-7835-11cf-8f52-0040333594a3>
 FLOAT red;
 FLOAT green;
 FLOAT blue;
}

template Material {
 <3d82ab4d-62da-11cf-ab39-0020af71e433>
 ColorRGBA faceColor;
 FLOAT power;
 ColorRGB specularColor;
 ColorRGB emissiveColor;
 [...]
}

template MeshMaterialList {
 <f6f23f42-7686-11cf-8f52-0040333594a3>
 DWORD nMaterials;
 DWORD nFaceIndexes;
 array DWORD faceIndexes[nFaceIndexes];
 [Material <3d82ab4d-62da-11cf-ab39-0020af71e433>]
}

template TextureFilename {
 <a42790e1-7810-11cf-8f52-0040333594a3>
 STRING filename;
}


Mesh {
 44;
 -0.950000;-0.144000;0.000000;,
 -0.950000;-0.144000;5.099999;,
 0.950000;-0.144000;5.099999;,
 0.950000;-0.144000;0.000000;,
 -0.950000;-0.144000;0.000000;,
 -0.950000;-0.550000;0.000000;,
 -2.200000;-0.550000;0.000000;,
 -0.950000;-0.144000;5.099999;,
 -0.950000;-0.550000;5.099999;,
 -2.200000;-0.550000;5.099999;,
 0.950000;-0.144000;0.000000;,
 0.950000;-0.550000;0.000000;,
 2.200000;-0.550000;0.000000;,
 0.950000;-0.144000;5.099999;,
 0.950000;-0.550000;5.099999;,
 2.200000;-0.550000;5.099999;,
 -0.950000;-0.550000;0.000000;,
 -0.950000;-0.550000;5.099999;,
 0.950000;-0.550000;0.000000;,
 0.950000;-0.550000;5.099999;,
 -0.602000;0.000000;0.000000;,
 -0.534000;0.000000;0.000000;,
 -0.622000;-0.144000;0.000000;,
 -0.514000;-0.144000;0.000000;,
 -0.602000;0.000000;5.099999;,
 -0.534000;0.000000;5.099999;,
 -0.622000;-0.144000;5.099999;,
 -0.514000;-0.144000;5.099999;,
 0.602000;0.000000;0.000000;,
 0.534000;0.000000;0.000000;,
 0.622000;-0.144000;0.000000;,
 0.514000;-0.144000;0.000000;,
 0.602000;0.000000;5.099999;,
 0.534000;0.000000;5.099999;,
 0.622000;-0.144000;5.099999;,
 0.514000;-0.144000;5.099999;,
 -0.602000;0.000000;0.000000;,
 -0.602000;0.000000;5.099999;,
 -0.534000;0.000000;0.000000;,
 -0.534000;0.000000;5.099999;,
 0.534000;0.000000;0.000000;,
 0.534000;0.000000;5.099999;,
 0.602000;0.000000;0.000000;,
 0.602000;0.000000;5.099999;;
 22;
 3;0,1,2;,
 3;0,2,3;,
 3;4,5,8;,
 3;4,8,7;,
 3;16,6,9;,
 3;16,9,17;,
 3;11,10,13;,
 3;11,13,14;,
 3;12,18,19;,
 3;12,19,15;,
 3;20,22,26;,
 3;20,26,24;,
 3;21,36,37;,
 3;21,37,25;,
 3;23,38,39;,
 3;23,39,27;,
 3;29,31,35;,
 3;29,35,33;,
 3;28,40,41;,
 3;28,41,32;,
 3;30,42,43;,
 3;30,43,34;;

 MeshNormals {
  44;
  0.000000;1.000000;0.000000;,
  0.000000;1.000000;0.000000;,
  0.000000;1.000000;0.000000;,
  0.000000;1.000000;0.000000;,
  -1.000000;0.000000;0.000000;,
  -1.000000;0.000000;0.000000;,
  0.000000;1.000000;0.000000;,
  -1.000000;0.000000;0.000000;,
  -1.000000;0.000000;0.000000;,
  0.000000;1.000000;0.000000;,
  1.000000;0.000000;0.000000;,
  1.000000;0.000000;0.000000;,
  0.000000;1.000000;0.000000;,
  1.000000;0.000000;0.000000;,
  1.000000;0.000000;0.000000;,
  0.000000;1.000000;0.000000;,
  0.000000;1.000000;0.000000;,
  0.000000;1.000000;0.000000;,
  0.000000;1.000000;0.000000;,
  0.000000;1.000000;0.000000;,
  -0.990492;0.137568;0.000000;,
  0.000000;1.000000;0.000000;,
  -0.990492;0.137568;0.000000;,
  0.990492;0.137568;0.000000;,
  -0.990492;0.137568;0.000000;,
  0.000000;1.000000;0.000000;,
  -0.990492;0.137568;0.000000;,
  0.990492;0.137568;0.000000;,
  0.000000;1.000000;0.000000;,
  -0.990492;0.137568;0.000000;,
  0.990492;0.137568;0.000000;,
  -0.990492;0.137568;0.000000;,
  0.000000;1.000000;0.000000;,
  -0.990492;0.137568;0.000000;,
  0.990492;0.137568;0.000000;,
  -0.990492;0.137568;0.000000;,
  0.000000;1.000000;0.000000;,
  0.000000;1.000000;0.000000;,
  0.990492;0.137568;0.000000;,
  0.990492;0.137568;0.000000;,
  0.000000;1.000000;0.000000;,
  0.000000;1.000000;0.000000;,
  0.990492;0.137568;0.000000;,
  0.990492;0.137568;0.000000;;
  22;
  3;0,1,2;,
  3;0,2,3;,
  3;4,5,8;,
  3;4,8,7;,
  3;16,6,9;,
  3;16,9,17;,
  3;11,10,13;,
  3;11,13,14;,
  3;12,18,19;,
  3;12,19,15;,
  3;20,22,26;,
  3;20,26,24;,
  3;21,36,37;,
  3;21,37,25;,
  3;23,38,39;,
  3;23,39,27;,
  3;29,31,35;,
  3;29,35,33;,
  3;28,40,41;,
  3;28,41,32;,
  3;30,42,43;,
  3;30,43,34;;
 }

 MeshTextureCoords {
  44;
  0.000000;1.000000;,
  0.000000;0.000000;,
  1.000000;0.000000;,
  1.000000;1.000000;,
  0.000000;1.000000;,
  0.100000;1.000000;,
  1.000000;1.000000;,
  0.000000;0.000000;,
  0.100000;0.000000;,
  1.000000;0.000000;,
  0.000000;1.000000;,
  0.100000;1.000000;,
  1.000000;1.000000;,
  0.000000;0.000000;,
  0.100000;0.000000;,
  1.000000;0.000000;,
  0.100000;1.000000;,
  0.100000;0.000000;,
  0.100000;1.000000;,
  0.100000;0.000000;,
  0.670000;1.000000;,
  0.330000;1.000000;,
  1.000000;1.000000;,
  0.000000;1.000000;,
  0.670000;0.000000;,
  0.330000;0.000000;,
  1.000000;0.000000;,
  0.000000;0.000000;,
  0.670000;1.000000;,
  0.330000;1.000000;,
  1.000000;1.000000;,
  0.000000;1.000000;,
  0.670000;0.000000;,
  0.330000;0.000000;,
  1.000000;0.000000;,
  0.000000;0.000000;,
  0.670000;1.000000;,
  0.670000;0.000000;,
  0.330000;1.000000;,
  0.330000;0.000000;,
  0.330000;1.000000;,
  0.330000;0.000000;,
  0.670000;1.000000;,
  0.670000;0.000000;;
 }

 MeshMaterialList {
  3;
  22;
  0,
  0,
  1,
  1,
  1,
  1,
  1,
  1,
  1,
  1,
  2,
  2,
  2,
  2,
  2,
  2,
  2,
  2,
  2,
  2,
  2,
  2;

  Material {
   0.776471;0.784314;0.772549;1.000000;;
   0.000000;
   0.000000;0.000000;0.000000;;
   0.000000;0.000000;0.000000;;

   TextureFilename {
    "SlabW.dds";
   }
  }

  Material {
   0.776471;0.784314;0.772549;1.000000;;
   0.000000;
   0.000000;0.000000;0.000000;;
   0.000000;0.000000;0.000000;;

   TextureFilename {
    "SlabW2.dds";
   }
  }

  Material {
   1.000000;1.000000;1.000000;1.000000;;
   0.000000;
   0.000000;0.000000;0.000000;;
   0.000000;0.000000;0.000000;;

   TextureFilename {
    "rail1.dds";
   }
  }
 }
}