xof 0303txt 0032

Header {
 1;
 0;
 1;
}

Mesh {
 26;
 -2.000000;-0.600000;0.000000;,
 -2.000000;-0.140000;0.000000;,
 -2.000000;-0.140000;26.000000;,
 -2.000000;-0.600000;26.000000;,
 -2.000000;-0.140000;0.000000;,
 -2.600000;-0.140000;0.000000;,
 -2.600000;-0.140000;26.000000;,
 -2.000000;-0.140000;26.000000;,
 -2.600000;-0.140000;0.000000;,
 -2.600000;1.500000;0.000000;,
 -2.800000;1.500000;0.000000;,
 -2.800000;-0.600000;0.000000;,
 -2.600000;-0.140000;26.000000;,
 -2.600000;1.500000;26.000000;,
 -2.800000;1.500000;26.000000;,
 -2.800000;-0.600000;26.000000;,
 -2.800000;1.500000;0.000000;,
 -2.800000;-0.800000;0.000000;,
 -2.800000;-0.800000;26.000000;,
 -2.800000;1.500000;26.000000;,
 -1.900000;-0.450000;0.000000;,
 -1.900000;-0.140000;0.000000;,
 -2.500000;-0.140000;0.000000;,
 -2.500000;1.200000;0.000000;,
 -2.600000;1.200000;0.000000;,
 -2.600000;-0.450000;0.000000;;
 7;
 4;0,1,2,3;,
 4;4,5,6,7;,
 4;8,9,13,12;,
 4;9,10,14,13;,
 4;16,17,18,19;,
 4;20,21,22,25;,
 4;22,23,24,25;;

 MeshMaterialList {
  5;
  7;
  0,
  1,
  2,
  2,
  3,
  4,
  4;

  Material {
   1.000000;1.000000;1.000000;1.000000;;
   0.000000;
   0.000000;0.000000;0.000000;;
   0.000000;0.000000;0.000000;;

   TextureFilename {
    "SlabW2.dds";
   }
  }

  Material {
   0.776471;0.784314;0.772549;1.000000;;
   0.000000;
   0.000000;0.000000;0.000000;;
   0.000000;0.000000;0.000000;;

   TextureFilename {
    "ssk.dds";
   }
  }

  Material {
   0.776471;0.784314;0.772549;1.000000;;
   0.000000;
   0.000000;0.000000;0.000000;;
   0.000000;0.000000;0.000000;;

   TextureFilename {
    "WallW.dds";
   }
  }

  Material {
   0.776471;0.784314;0.772549;1.000000;;
   0.000000;
   0.000000;0.000000;0.000000;;
   0.000000;0.000000;0.000000;;

   TextureFilename {
    "WallW2.dds";
   }
  }

  Material {
   0.627451;0.619608;0.596078;1.000000;;
   0.000000;
   0.000000;0.000000;0.000000;;
   0.000000;0.000000;0.000000;;
  }
 }

 MeshNormals {
  7;
  1.000000;0.000000;0.000000;,
  0.000000;1.000000;0.000000;,
  1.000000;0.000000;0.000000;,
  0.000000;1.000000;0.000000;,
  -1.000000;0.000000;0.000000;,
  0.000000;0.000000;1.000000;,
  0.000000;0.000000;1.000000;;
  7;
  4;0,0,0,0;,
  4;1,1,1,1;,
  4;2,2,2,2;,
  4;3,3,3,3;,
  4;4,4,4,4;,
  4;5,5,5,5;,
  4;6,6,6,6;;
 }

 MeshTextureCoords {
  26;
  0.000000;1.000000;,
  0.750000;1.000000;,
  0.750000;0.000000;,
  0.000000;0.000000;,
  0.000000;20.000000;,
  1.000000;20.000000;,
  1.000000;0.000000;,
  0.000000;0.000000;,
  0.000000;1.000000;,
  0.000000;0.000000;,
  0.000000;0.010000;,
  0.000000;1.000000;,
  10.000000;1.000000;,
  10.000000;0.000000;,
  10.000000;0.010000;,
  10.000000;1.000000;,
  0.000000;0.000000;,
  0.000000;1.000000;,
  3.000000;1.000000;,
  3.000000;0.000000;,
  0.000000;0.000000;,
  0.000000;0.000000;,
  0.000000;0.000000;,
  0.000000;0.000000;,
  0.000000;0.000000;,
  0.000000;0.000000;;
 }
}