xof 0303txt 0032
template Vector {
 <3d82ab5e-62da-11cf-ab39-0020af71e433>
 FLOAT x;
 FLOAT y;
 FLOAT z;
}

template MeshFace {
 <3d82ab5f-62da-11cf-ab39-0020af71e433>
 DWORD nFaceVertexIndices;
 array DWORD faceVertexIndices[nFaceVertexIndices];
}

template Mesh {
 <3d82ab44-62da-11cf-ab39-0020af71e433>
 DWORD nVertices;
 array Vector vertices[nVertices];
 DWORD nFaces;
 array MeshFace faces[nFaces];
 [...]
}

template MeshNormals {
 <f6f23f43-7686-11cf-8f52-0040333594a3>
 DWORD nNormals;
 array Vector normals[nNormals];
 DWORD nFaceNormals;
 array MeshFace faceNormals[nFaceNormals];
}

template Coords2d {
 <f6f23f44-7686-11cf-8f52-0040333594a3>
 FLOAT u;
 FLOAT v;
}

template MeshTextureCoords {
 <f6f23f40-7686-11cf-8f52-0040333594a3>
 DWORD nTextureCoords;
 array Coords2d textureCoords[nTextureCoords];
}

template ColorRGBA {
 <35ff44e0-6c7c-11cf-8f52-0040333594a3>
 FLOAT red;
 FLOAT green;
 FLOAT blue;
 FLOAT alpha;
}

template ColorRGB {
 <d3e16e81-7835-11cf-8f52-0040333594a3>
 FLOAT red;
 FLOAT green;
 FLOAT blue;
}

template Material {
 <3d82ab4d-62da-11cf-ab39-0020af71e433>
 ColorRGBA faceColor;
 FLOAT power;
 ColorRGB specularColor;
 ColorRGB emissiveColor;
 [...]
}

template MeshMaterialList {
 <f6f23f42-7686-11cf-8f52-0040333594a3>
 DWORD nMaterials;
 DWORD nFaceIndexes;
 array DWORD faceIndexes[nFaceIndexes];
 [Material <3d82ab4d-62da-11cf-ab39-0020af71e433>]
}

template TextureFilename {
 <a42790e1-7810-11cf-8f52-0040333594a3>
 STRING filename;
}


Mesh {
 28;
 -2.000000;-0.600000;0.000000;,
 -2.000000;-0.140000;0.000000;,
 -2.000000;-0.140000;5.099999;,
 -2.000000;-0.600000;5.099999;,
 -2.000000;-0.140000;0.000000;,
 -2.600000;-0.140000;0.000000;,
 -2.600000;-0.140000;5.099999;,
 -2.000000;-0.140000;5.099999;,
 -2.600000;-0.140000;0.000000;,
 -2.600000;1.500000;0.000000;,
 -2.600000;1.500000;5.099999;,
 -2.600000;-0.140000;5.099999;,
 -2.600000;1.500000;0.000000;,
 -2.800000;1.500000;0.000000;,
 -2.800000;1.500000;5.099999;,
 -2.600000;1.500000;5.099999;,
 -2.800000;1.500000;0.000000;,
 -2.800000;-0.800000;0.000000;,
 -2.800000;-0.800000;5.099999;,
 -2.800000;1.500000;5.099999;,
 -1.900000;-0.450000;0.000000;,
 -1.900000;-0.140000;0.000000;,
 -2.500000;-0.140000;0.000000;,
 -2.600000;-0.450000;0.000000;,
 -2.500000;-0.140000;0.000000;,
 -2.500000;1.200000;0.000000;,
 -2.600000;1.200000;0.000000;,
 -2.600000;-0.450000;0.000000;;
 14;
 3;0,1,2;,
 3;0,2,3;,
 3;4,5,6;,
 3;4,6,7;,
 3;8,9,10;,
 3;8,10,11;,
 3;12,13,14;,
 3;12,14,15;,
 3;16,17,18;,
 3;16,18,19;,
 3;20,21,22;,
 3;20,22,23;,
 3;24,25,26;,
 3;24,26,27;;

 MeshNormals {
  28;
  1.000000;0.000000;0.000000;,
  1.000000;0.000000;0.000000;,
  1.000000;0.000000;0.000000;,
  1.000000;0.000000;0.000000;,
  0.000000;1.000000;0.000000;,
  0.000000;1.000000;0.000000;,
  0.000000;1.000000;0.000000;,
  0.000000;1.000000;0.000000;,
  1.000000;0.000000;0.000000;,
  1.000000;0.000000;0.000000;,
  1.000000;0.000000;0.000000;,
  1.000000;0.000000;0.000000;,
  0.000000;1.000000;0.000000;,
  0.000000;1.000000;0.000000;,
  0.000000;1.000000;0.000000;,
  0.000000;1.000000;0.000000;,
  -1.000000;0.000000;0.000000;,
  -1.000000;0.000000;0.000000;,
  -1.000000;0.000000;0.000000;,
  -1.000000;0.000000;0.000000;,
  0.000000;0.000000;1.000000;,
  0.000000;0.000000;1.000000;,
  0.000000;0.000000;1.000000;,
  0.000000;0.000000;1.000000;,
  0.000000;0.000000;1.000000;,
  0.000000;0.000000;1.000000;,
  0.000000;0.000000;1.000000;,
  0.000000;0.000000;1.000000;;
  14;
  3;0,1,2;,
  3;0,2,3;,
  3;4,5,6;,
  3;4,6,7;,
  3;8,9,10;,
  3;8,10,11;,
  3;12,13,14;,
  3;12,14,15;,
  3;16,17,18;,
  3;16,18,19;,
  3;20,21,22;,
  3;20,22,23;,
  3;24,25,26;,
  3;24,26,27;;
 }

 MeshTextureCoords {
  28;
  0.000000;1.000000;,
  0.750000;1.000000;,
  0.750000;0.000000;,
  0.000000;0.000000;,
  0.000000;4.000000;,
  1.000000;4.000000;,
  1.000000;0.000000;,
  0.000000;0.000000;,
  2.000000;1.000000;,
  2.000000;0.000000;,
  0.000000;0.000000;,
  0.000000;1.000000;,
  0.000000;1.000000;,
  0.000000;0.000000;,
  0.000000;0.010000;,
  0.000000;1.000000;,
  0.000000;0.000000;,
  0.000000;1.000000;,
  1.000000;1.000000;,
  1.000000;0.000000;,
  0.000000;0.000000;,
  0.000000;0.000000;,
  0.000000;0.000000;,
  0.000000;0.000000;,
  0.000000;0.000000;,
  0.000000;0.000000;,
  0.000000;0.000000;,
  0.000000;0.000000;;
 }

 MeshMaterialList {
  5;
  14;
  0,
  0,
  1,
  1,
  2,
  2,
  2,
  2,
  3,
  3,
  4,
  4,
  4,
  4;

  Material {
   0.776471;0.784314;0.772549;1.000000;;
   0.000000;
   0.000000;0.000000;0.000000;;
   0.000000;0.000000;0.000000;;

   TextureFilename {
    "SlabW2.dds";
   }
  }

  Material {
   0.776471;0.784314;0.772549;1.000000;;
   0.000000;
   0.000000;0.000000;0.000000;;
   0.000000;0.000000;0.000000;;

   TextureFilename {
    "ssk.dds";
   }
  }

  Material {
   0.776471;0.784314;0.772549;1.000000;;
   0.000000;
   0.000000;0.000000;0.000000;;
   0.000000;0.000000;0.000000;;

   TextureFilename {
    "WallW.dds";
   }
  }

  Material {
   0.776471;0.784314;0.772549;1.000000;;
   0.000000;
   0.000000;0.000000;0.000000;;
   0.000000;0.000000;0.000000;;

   TextureFilename {
    "WallW2.dds";
   }
  }

  Material {
   0.627451;0.619608;0.596078;1.000000;;
   0.000000;
   0.000000;0.000000;0.000000;;
   0.000000;0.000000;0.000000;;
  }
 }
}