xof 0303txt 0032
template Vector {
 <3d82ab5e-62da-11cf-ab39-0020af71e433>
 FLOAT x;
 FLOAT y;
 FLOAT z;
}

template MeshFace {
 <3d82ab5f-62da-11cf-ab39-0020af71e433>
 DWORD nFaceVertexIndices;
 array DWORD faceVertexIndices[nFaceVertexIndices];
}

template Mesh {
 <3d82ab44-62da-11cf-ab39-0020af71e433>
 DWORD nVertices;
 array Vector vertices[nVertices];
 DWORD nFaces;
 array MeshFace faces[nFaces];
 [...]
}

template ColorRGBA {
 <35ff44e0-6c7c-11cf-8f52-0040333594a3>
 FLOAT red;
 FLOAT green;
 FLOAT blue;
 FLOAT alpha;
}

template ColorRGB {
 <d3e16e81-7835-11cf-8f52-0040333594a3>
 FLOAT red;
 FLOAT green;
 FLOAT blue;
}

template Material {
 <3d82ab4d-62da-11cf-ab39-0020af71e433>
 ColorRGBA faceColor;
 FLOAT power;
 ColorRGB specularColor;
 ColorRGB emissiveColor;
 [...]
}

template MeshMaterialList {
 <f6f23f42-7686-11cf-8f52-0040333594a3>
 DWORD nMaterials;
 DWORD nFaceIndexes;
 array DWORD faceIndexes[nFaceIndexes];
 [Material <3d82ab4d-62da-11cf-ab39-0020af71e433>]
}

template Coords2d {
 <f6f23f44-7686-11cf-8f52-0040333594a3>
 FLOAT u;
 FLOAT v;
}

template MeshTextureCoords {
 <f6f23f40-7686-11cf-8f52-0040333594a3>
 DWORD nTextureCoords;
 array Coords2d textureCoords[nTextureCoords];
}

template MeshNormals {
 <f6f23f43-7686-11cf-8f52-0040333594a3>
 DWORD nNormals;
 array Vector normals[nNormals];
 DWORD nFaceNormals;
 array MeshFace faceNormals[nFaceNormals];
}


Mesh  {
 58;
 0.006000;0.600000;0.000000;,
 0.006000;0.558000;-2.500000;,
 0.006000;0.525000;-5.000000;,
 0.006000;0.501600;-7.500000;,
 0.006000;0.487500;-10.000000;,
 0.006000;0.482800;-12.500000;,
 0.006000;0.487500;-15.000000;,
 0.006000;0.501600;-17.500000;,
 0.006000;0.525000;-20.000000;,
 0.006000;0.558000;-22.500000;,
 0.006000;0.600000;-25.000000;,
 -0.006000;0.600000;0.000000;,
 -0.006000;0.558000;-2.500000;,
 -0.006000;0.525000;-5.000000;,
 -0.006000;0.501600;-7.500000;,
 -0.006000;0.487500;-10.000000;,
 -0.006000;0.482800;-12.500000;,
 -0.006000;0.487500;-15.000000;,
 -0.006000;0.501600;-17.500000;,
 -0.006000;0.525000;-20.000000;,
 -0.006000;0.558000;-22.500000;,
 -0.006000;0.600000;-25.000000;,
 0.000000;0.020000;-25.000000;,
 0.000000;0.020000;0.000000;,
 0.000000;0.000000;0.000000;,
 0.000000;0.000000;-25.000000;,
 -0.040000;0.525000;-20.000000;,
 0.000000;0.565000;-20.000000;,
 0.040000;0.525000;-20.000000;,
 0.000000;0.485000;-20.000000;,
 -0.005000;0.010000;-20.000000;,
 -0.005000;0.495000;-20.000000;,
 0.005000;0.495000;-20.000000;,
 0.005000;0.010000;-20.000000;,
 -0.040000;0.487500;-15.000000;,
 0.000000;0.527500;-15.000000;,
 0.040000;0.487500;-15.000000;,
 0.000000;0.447500;-15.000000;,
 -0.005000;0.010000;-15.000000;,
 -0.005000;0.457500;-15.000000;,
 0.005000;0.457500;-15.000000;,
 0.005000;0.010000;-15.000000;,
 -0.040000;0.487500;-10.000000;,
 0.000000;0.527500;-10.000000;,
 0.040000;0.487500;-10.000000;,
 0.000000;0.447500;-10.000000;,
 -0.005000;0.010000;-10.000000;,
 -0.005000;0.457500;-10.000000;,
 0.005000;0.457500;-10.000000;,
 0.005000;0.010000;-10.000000;,
 -0.040000;0.525000;-5.000000;,
 0.000000;0.565000;-5.000000;,
 0.040000;0.525000;-5.000000;,
 0.000000;0.485000;-5.000000;,
 -0.005000;0.010000;-5.000000;,
 -0.005000;0.495000;-5.000000;,
 0.005000;0.495000;-5.000000;,
 0.005000;0.010000;-5.000000;;
 60;
 3;0,1,12;,
 3;0,12,11;,
 3;11,12,1;,
 3;11,1,0;,
 3;1,2,13;,
 3;1,13,12;,
 3;12,13,2;,
 3;12,2,1;,
 3;2,3,14;,
 3;2,14,13;,
 3;13,14,3;,
 3;13,3,2;,
 3;3,4,15;,
 3;3,15,14;,
 3;14,15,4;,
 3;14,4,3;,
 3;4,5,16;,
 3;4,16,15;,
 3;15,16,5;,
 3;15,5,4;,
 3;5,6,17;,
 3;5,17,16;,
 3;16,17,6;,
 3;16,6,5;,
 3;6,7,18;,
 3;6,18,17;,
 3;17,18,7;,
 3;17,7,6;,
 3;7,8,19;,
 3;7,19,18;,
 3;18,19,8;,
 3;18,8,7;,
 3;8,9,20;,
 3;8,20,19;,
 3;19,20,9;,
 3;19,9,8;,
 3;9,10,21;,
 3;9,21,20;,
 3;20,21,10;,
 3;20,10,9;,
 3;22,23,24;,
 3;22,24,25;,
 3;25,24,23;,
 3;25,23,22;,
 3;26,27,28;,
 3;26,28,29;,
 3;30,31,32;,
 3;30,32,33;,
 3;34,35,36;,
 3;34,36,37;,
 3;38,39,40;,
 3;38,40,41;,
 3;42,43,44;,
 3;42,44,45;,
 3;46,47,48;,
 3;46,48,49;,
 3;50,51,52;,
 3;50,52,53;,
 3;54,55,56;,
 3;54,56,57;;

 MeshMaterialList  {
  10;
  60;
  0,
  0,
  0,
  0,
  0,
  0,
  0,
  0,
  0,
  0,
  0,
  0,
  0,
  0,
  0,
  0,
  0,
  0,
  0,
  0,
  0,
  0,
  0,
  0,
  0,
  0,
  0,
  0,
  0,
  0,
  0,
  0,
  0,
  0,
  0,
  0,
  0,
  0,
  0,
  0,
  1,
  1,
  1,
  1,
  2,
  2,
  3,
  3,
  4,
  4,
  5,
  5,
  6,
  6,
  7,
  7,
  8,
  8,
  9,
  9;

  Material  {
   0.250980;0.250980;0.250980;1.000000;;
   0.000000;
   0.000000;0.000000;0.000000;;
   0.000000;0.000000;0.000000;;
  }

  Material  {
   0.392157;0.294118;0.078431;1.000000;;
   0.000000;
   0.000000;0.000000;0.000000;;
   0.000000;0.000000;0.000000;;
  }

  Material  {
   0.250980;0.250980;0.250980;1.000000;;
   0.000000;
   0.000000;0.000000;0.000000;;
   0.000000;0.000000;0.000000;;
  }

  Material  {
   0.250980;0.250980;0.250980;1.000000;;
   0.000000;
   0.000000;0.000000;0.000000;;
   0.000000;0.000000;0.000000;;
  }

  Material  {
   0.250980;0.250980;0.250980;1.000000;;
   0.000000;
   0.000000;0.000000;0.000000;;
   0.000000;0.000000;0.000000;;
  }

  Material  {
   0.250980;0.250980;0.250980;1.000000;;
   0.000000;
   0.000000;0.000000;0.000000;;
   0.000000;0.000000;0.000000;;
  }

  Material  {
   0.250980;0.250980;0.250980;1.000000;;
   0.000000;
   0.000000;0.000000;0.000000;;
   0.000000;0.000000;0.000000;;
  }

  Material  {
   0.250980;0.250980;0.250980;1.000000;;
   0.000000;
   0.000000;0.000000;0.000000;;
   0.000000;0.000000;0.000000;;
  }

  Material  {
   0.250980;0.250980;0.250980;1.000000;;
   0.000000;
   0.000000;0.000000;0.000000;;
   0.000000;0.000000;0.000000;;
  }

  Material  {
   0.250980;0.250980;0.250980;1.000000;;
   0.000000;
   0.000000;0.000000;0.000000;;
   0.000000;0.000000;0.000000;;
  }
 }

 MeshTextureCoords  {
  58;
  0.000000;0.000000;,
  0.000000;0.000000;,
  0.000000;0.000000;,
  0.000000;0.000000;,
  0.000000;0.000000;,
  0.000000;0.000000;,
  0.000000;0.000000;,
  0.000000;0.000000;,
  0.000000;0.000000;,
  0.000000;0.000000;,
  0.000000;0.000000;,
  0.000000;0.000000;,
  0.000000;0.000000;,
  0.000000;0.000000;,
  0.000000;0.000000;,
  0.000000;0.000000;,
  0.000000;0.000000;,
  0.000000;0.000000;,
  0.000000;0.000000;,
  0.000000;0.000000;,
  0.000000;0.000000;,
  0.000000;0.000000;,
  0.000000;0.000000;,
  0.000000;0.000000;,
  0.000000;0.000000;,
  0.000000;0.000000;,
  0.000000;0.000000;,
  0.000000;0.000000;,
  0.000000;0.000000;,
  0.000000;0.000000;,
  0.000000;0.000000;,
  0.000000;0.000000;,
  0.000000;0.000000;,
  0.000000;0.000000;,
  0.000000;0.000000;,
  0.000000;0.000000;,
  0.000000;0.000000;,
  0.000000;0.000000;,
  0.000000;0.000000;,
  0.000000;0.000000;,
  0.000000;0.000000;,
  0.000000;0.000000;,
  0.000000;0.000000;,
  0.000000;0.000000;,
  0.000000;0.000000;,
  0.000000;0.000000;,
  0.000000;0.000000;,
  0.000000;0.000000;,
  0.000000;0.000000;,
  0.000000;0.000000;,
  0.000000;0.000000;,
  0.000000;0.000000;,
  0.000000;0.000000;,
  0.000000;0.000000;,
  0.000000;0.000000;,
  0.000000;0.000000;,
  0.000000;0.000000;,
  0.000000;0.000000;;
 }

 MeshNormals  {
  60;
  0.000000;0.999859;-0.016798;,
  0.000000;0.999859;-0.016798;,
  0.000000;-0.999859;0.016798;,
  0.000000;-0.999859;0.016798;,
  0.000000;0.999913;-0.013199;,
  0.000000;0.999913;-0.013199;,
  0.000000;-0.999913;0.013199;,
  0.000000;-0.999913;0.013199;,
  0.000000;0.999956;-0.009360;,
  0.000000;0.999956;-0.009360;,
  0.000000;-0.999956;0.009360;,
  0.000000;-0.999956;0.009360;,
  0.000000;0.999984;-0.005640;,
  0.000000;0.999984;-0.005640;,
  0.000000;-0.999984;0.005640;,
  0.000000;-0.999984;0.005640;,
  0.000000;0.999998;-0.001880;,
  0.000000;0.999998;-0.001880;,
  0.000000;-0.999998;0.001880;,
  0.000000;-0.999998;0.001880;,
  0.000000;0.999998;0.001880;,
  0.000000;0.999998;0.001880;,
  0.000000;-0.999998;-0.001880;,
  0.000000;-0.999998;-0.001880;,
  0.000000;0.999984;0.005640;,
  0.000000;0.999984;0.005640;,
  0.000000;-0.999984;-0.005640;,
  0.000000;-0.999984;-0.005640;,
  0.000000;0.999956;0.009360;,
  0.000000;0.999956;0.009360;,
  0.000000;-0.999956;-0.009360;,
  0.000000;-0.999956;-0.009360;,
  0.000000;0.999913;0.013199;,
  0.000000;0.999913;0.013199;,
  0.000000;-0.999913;-0.013199;,
  0.000000;-0.999913;-0.013199;,
  0.000000;0.999859;0.016798;,
  0.000000;0.999859;0.016798;,
  0.000000;-0.999859;-0.016798;,
  0.000000;-0.999859;-0.016798;,
  1.000000;0.000000;0.000000;,
  1.000000;0.000000;0.000000;,
  -1.000000;0.000000;0.000000;,
  -1.000000;0.000000;0.000000;,
  0.000000;0.000000;-1.000000;,
  0.000000;0.000000;-1.000000;,
  0.000000;0.000000;-1.000000;,
  0.000000;0.000000;-1.000000;,
  0.000000;0.000000;-1.000000;,
  0.000000;0.000000;-1.000000;,
  0.000000;0.000000;-1.000000;,
  0.000000;0.000000;-1.000000;,
  0.000000;0.000000;-1.000000;,
  0.000000;0.000000;-1.000000;,
  0.000000;0.000000;-1.000000;,
  0.000000;0.000000;-1.000000;,
  0.000000;0.000000;-1.000000;,
  0.000000;0.000000;-1.000000;,
  0.000000;0.000000;-1.000000;,
  0.000000;0.000000;-1.000000;;
  60;
  3;0,0,0;,
  3;1,1,1;,
  3;2,2,2;,
  3;3,3,3;,
  3;4,4,4;,
  3;5,5,5;,
  3;6,6,6;,
  3;7,7,7;,
  3;8,8,8;,
  3;9,9,9;,
  3;10,10,10;,
  3;11,11,11;,
  3;12,12,12;,
  3;13,13,13;,
  3;14,14,14;,
  3;15,15,15;,
  3;16,16,16;,
  3;17,17,17;,
  3;18,18,18;,
  3;19,19,19;,
  3;20,20,20;,
  3;21,21,21;,
  3;22,22,22;,
  3;23,23,23;,
  3;24,24,24;,
  3;25,25,25;,
  3;26,26,26;,
  3;27,27,27;,
  3;28,28,28;,
  3;29,29,29;,
  3;30,30,30;,
  3;31,31,31;,
  3;32,32,32;,
  3;33,33,33;,
  3;34,34,34;,
  3;35,35,35;,
  3;36,36,36;,
  3;37,37,37;,
  3;38,38,38;,
  3;39,39,39;,
  3;40,40,40;,
  3;41,41,41;,
  3;42,42,42;,
  3;43,43,43;,
  3;44,44,44;,
  3;45,45,45;,
  3;46,46,46;,
  3;47,47,47;,
  3;48,48,48;,
  3;49,49,49;,
  3;50,50,50;,
  3;51,51,51;,
  3;52,52,52;,
  3;53,53,53;,
  3;54,54,54;,
  3;55,55,55;,
  3;56,56,56;,
  3;57,57,57;,
  3;58,58,58;,
  3;59,59,59;;
 }
}