xof 0303txt 0032
template Vector {
 <3d82ab5e-62da-11cf-ab39-0020af71e433>
 FLOAT x;
 FLOAT y;
 FLOAT z;
}

template MeshFace {
 <3d82ab5f-62da-11cf-ab39-0020af71e433>
 DWORD nFaceVertexIndices;
 array DWORD faceVertexIndices[nFaceVertexIndices];
}

template Mesh {
 <3d82ab44-62da-11cf-ab39-0020af71e433>
 DWORD nVertices;
 array Vector vertices[nVertices];
 DWORD nFaces;
 array MeshFace faces[nFaces];
 [...]
}

template ColorRGBA {
 <35ff44e0-6c7c-11cf-8f52-0040333594a3>
 FLOAT red;
 FLOAT green;
 FLOAT blue;
 FLOAT alpha;
}

template ColorRGB {
 <d3e16e81-7835-11cf-8f52-0040333594a3>
 FLOAT red;
 FLOAT green;
 FLOAT blue;
}

template Material {
 <3d82ab4d-62da-11cf-ab39-0020af71e433>
 ColorRGBA faceColor;
 FLOAT power;
 ColorRGB specularColor;
 ColorRGB emissiveColor;
 [...]
}

template MeshMaterialList {
 <f6f23f42-7686-11cf-8f52-0040333594a3>
 DWORD nMaterials;
 DWORD nFaceIndexes;
 array DWORD faceIndexes[nFaceIndexes];
 [Material <3d82ab4d-62da-11cf-ab39-0020af71e433>]
}

template Coords2d {
 <f6f23f44-7686-11cf-8f52-0040333594a3>
 FLOAT u;
 FLOAT v;
}

template MeshTextureCoords {
 <f6f23f40-7686-11cf-8f52-0040333594a3>
 DWORD nTextureCoords;
 array Coords2d textureCoords[nTextureCoords];
}

template MeshNormals {
 <f6f23f43-7686-11cf-8f52-0040333594a3>
 DWORD nNormals;
 array Vector normals[nNormals];
 DWORD nFaceNormals;
 array MeshFace faceNormals[nFaceNormals];
}


Mesh  {
 118;
 0.006000;0.600000;0.000000;,
 0.006000;0.528750;-2.500000;,
 0.006000;0.465000;-5.000000;,
 0.006000;0.408750;-7.500000;,
 0.006000;0.360000;-10.000000;,
 0.006000;0.318750;-12.500000;,
 0.006000;0.285000;-15.000000;,
 0.006000;0.258750;-17.500000;,
 0.006000;0.240000;-20.000000;,
 0.006000;0.228750;-22.500000;,
 0.006000;0.225000;-25.000000;,
 0.006000;0.228750;-27.500000;,
 0.006000;0.240000;-30.000000;,
 0.006000;0.258750;-32.500000;,
 0.006000;0.285000;-35.000000;,
 0.006000;0.318750;-37.500000;,
 0.006000;0.360000;-40.000000;,
 0.006000;0.408750;-42.500000;,
 0.006000;0.465000;-45.000000;,
 0.006000;0.528750;-47.500000;,
 0.006000;0.600000;-50.000000;,
 -0.006000;0.600000;0.000000;,
 -0.006000;0.528750;-2.500000;,
 -0.006000;0.465000;-5.000000;,
 -0.006000;0.408750;-7.500000;,
 -0.006000;0.360000;-10.000000;,
 -0.006000;0.318750;-12.500000;,
 -0.006000;0.285000;-15.000000;,
 -0.006000;0.258750;-17.500000;,
 -0.006000;0.240000;-20.000000;,
 -0.006000;0.228750;-22.500000;,
 -0.006000;0.225000;-25.000000;,
 -0.006000;0.228750;-27.500000;,
 -0.006000;0.240000;-30.000000;,
 -0.006000;0.258750;-32.500000;,
 -0.006000;0.285000;-35.000000;,
 -0.006000;0.318750;-37.500000;,
 -0.006000;0.360000;-40.000000;,
 -0.006000;0.408750;-42.500000;,
 -0.006000;0.465000;-45.000000;,
 -0.006000;0.528750;-47.500000;,
 -0.006000;0.600000;-50.000000;,
 0.000000;0.020000;0.000000;,
 0.000000;0.020000;-50.000000;,
 0.000000;0.000000;-50.000000;,
 0.000000;0.000000;0.000000;,
 -0.040000;0.465000;-5.000000;,
 0.000000;0.505000;-5.000000;,
 0.040000;0.465000;-5.000000;,
 0.000000;0.425000;-5.000000;,
 -0.005000;0.010000;-5.000000;,
 -0.005000;0.435000;-5.000000;,
 0.005000;0.435000;-5.000000;,
 0.005000;0.010000;-5.000000;,
 -0.040000;0.360000;-10.000000;,
 0.000000;0.400000;-10.000000;,
 0.040000;0.360000;-10.000000;,
 0.000000;0.320000;-10.000000;,
 -0.005000;0.010000;-10.000000;,
 -0.005000;0.330000;-10.000000;,
 0.005000;0.330000;-10.000000;,
 0.005000;0.010000;-10.000000;,
 -0.040000;0.285000;-15.000000;,
 0.000000;0.325000;-15.000000;,
 0.040000;0.285000;-15.000000;,
 0.000000;0.245000;-15.000000;,
 -0.005000;0.010000;-15.000000;,
 -0.005000;0.255000;-15.000000;,
 0.005000;0.255000;-15.000000;,
 0.005000;0.010000;-15.000000;,
 -0.040000;0.240000;-20.000000;,
 0.000000;0.280000;-20.000000;,
 0.040000;0.240000;-20.000000;,
 0.000000;0.200000;-20.000000;,
 -0.005000;0.010000;-20.000000;,
 -0.005000;0.210000;-20.000000;,
 0.005000;0.210000;-20.000000;,
 0.005000;0.010000;-20.000000;,
 -0.040000;0.225000;-25.000000;,
 0.000000;0.265000;-25.000000;,
 0.040000;0.225000;-25.000000;,
 0.000000;0.185000;-25.000000;,
 -0.005000;0.010000;-25.000000;,
 -0.005000;0.195000;-25.000000;,
 0.005000;0.195000;-25.000000;,
 0.005000;0.010000;-25.000000;,
 -0.040000;0.240000;-30.000000;,
 0.000000;0.280000;-30.000000;,
 0.040000;0.240000;-30.000000;,
 0.000000;0.200000;-30.000000;,
 -0.005000;0.010000;-30.000000;,
 -0.005000;0.210000;-30.000000;,
 0.005000;0.210000;-30.000000;,
 0.005000;0.010000;-30.000000;,
 -0.040000;0.285000;-35.000000;,
 0.000000;0.325000;-35.000000;,
 0.040000;0.285000;-35.000000;,
 0.000000;0.245000;-35.000000;,
 -0.005000;0.010000;-35.000000;,
 -0.005000;0.255000;-35.000000;,
 0.005000;0.255000;-35.000000;,
 0.005000;0.010000;-35.000000;,
 -0.040000;0.360000;-40.000000;,
 0.000000;0.400000;-40.000000;,
 0.040000;0.360000;-40.000000;,
 0.000000;0.320000;-40.000000;,
 -0.005000;0.010000;-40.000000;,
 -0.005000;0.330000;-40.000000;,
 0.005000;0.330000;-40.000000;,
 0.005000;0.010000;-40.000000;,
 -0.040000;0.465000;-45.000000;,
 0.000000;0.505000;-45.000000;,
 0.040000;0.465000;-45.000000;,
 0.000000;0.425000;-45.000000;,
 -0.005000;0.010000;-45.000000;,
 -0.005000;0.435000;-45.000000;,
 0.005000;0.435000;-45.000000;,
 0.005000;0.010000;-45.000000;;
 120;
 3;0,1,22;,
 3;0,22,21;,
 3;21,22,1;,
 3;21,1,0;,
 3;1,2,23;,
 3;1,23,22;,
 3;22,23,2;,
 3;22,2,1;,
 3;2,3,24;,
 3;2,24,23;,
 3;23,24,3;,
 3;23,3,2;,
 3;3,4,25;,
 3;3,25,24;,
 3;24,25,4;,
 3;24,4,3;,
 3;4,5,26;,
 3;4,26,25;,
 3;25,26,5;,
 3;25,5,4;,
 3;5,6,27;,
 3;5,27,26;,
 3;26,27,6;,
 3;26,6,5;,
 3;6,7,28;,
 3;6,28,27;,
 3;27,28,7;,
 3;27,7,6;,
 3;7,8,29;,
 3;7,29,28;,
 3;28,29,8;,
 3;28,8,7;,
 3;8,9,30;,
 3;8,30,29;,
 3;29,30,9;,
 3;29,9,8;,
 3;9,10,31;,
 3;9,31,30;,
 3;30,31,10;,
 3;30,10,9;,
 3;10,11,32;,
 3;10,32,31;,
 3;31,32,11;,
 3;31,11,10;,
 3;11,12,33;,
 3;11,33,32;,
 3;32,33,12;,
 3;32,12,11;,
 3;12,13,34;,
 3;12,34,33;,
 3;33,34,13;,
 3;33,13,12;,
 3;13,14,35;,
 3;13,35,34;,
 3;34,35,14;,
 3;34,14,13;,
 3;14,15,36;,
 3;14,36,35;,
 3;35,36,15;,
 3;35,15,14;,
 3;15,16,37;,
 3;15,37,36;,
 3;36,37,16;,
 3;36,16,15;,
 3;16,17,38;,
 3;16,38,37;,
 3;37,38,17;,
 3;37,17,16;,
 3;17,18,39;,
 3;17,39,38;,
 3;38,39,18;,
 3;38,18,17;,
 3;18,19,40;,
 3;18,40,39;,
 3;39,40,19;,
 3;39,19,18;,
 3;19,20,41;,
 3;19,41,40;,
 3;40,41,20;,
 3;40,20,19;,
 3;42,43,44;,
 3;42,44,45;,
 3;45,44,43;,
 3;45,43,42;,
 3;46,47,48;,
 3;46,48,49;,
 3;50,51,52;,
 3;50,52,53;,
 3;54,55,56;,
 3;54,56,57;,
 3;58,59,60;,
 3;58,60,61;,
 3;62,63,64;,
 3;62,64,65;,
 3;66,67,68;,
 3;66,68,69;,
 3;70,71,72;,
 3;70,72,73;,
 3;74,75,76;,
 3;74,76,77;,
 3;78,79,80;,
 3;78,80,81;,
 3;82,83,84;,
 3;82,84,85;,
 3;86,87,88;,
 3;86,88,89;,
 3;90,91,92;,
 3;90,92,93;,
 3;94,95,96;,
 3;94,96,97;,
 3;98,99,100;,
 3;98,100,101;,
 3;102,103,104;,
 3;102,104,105;,
 3;106,107,108;,
 3;106,108,109;,
 3;110,111,112;,
 3;110,112,113;,
 3;114,115,116;,
 3;114,116,117;;

 MeshMaterialList  {
  20;
  120;
  0,
  0,
  0,
  0,
  0,
  0,
  0,
  0,
  0,
  0,
  0,
  0,
  0,
  0,
  0,
  0,
  0,
  0,
  0,
  0,
  0,
  0,
  0,
  0,
  0,
  0,
  0,
  0,
  0,
  0,
  0,
  0,
  0,
  0,
  0,
  0,
  0,
  0,
  0,
  0,
  0,
  0,
  0,
  0,
  0,
  0,
  0,
  0,
  0,
  0,
  0,
  0,
  0,
  0,
  0,
  0,
  0,
  0,
  0,
  0,
  0,
  0,
  0,
  0,
  0,
  0,
  0,
  0,
  0,
  0,
  0,
  0,
  0,
  0,
  0,
  0,
  0,
  0,
  0,
  0,
  1,
  1,
  1,
  1,
  2,
  2,
  3,
  3,
  4,
  4,
  5,
  5,
  6,
  6,
  7,
  7,
  8,
  8,
  9,
  9,
  10,
  10,
  11,
  11,
  12,
  12,
  13,
  13,
  14,
  14,
  15,
  15,
  16,
  16,
  17,
  17,
  18,
  18,
  19,
  19;

  Material  {
   0.250980;0.250980;0.250980;1.000000;;
   0.000000;
   0.000000;0.000000;0.000000;;
   0.000000;0.000000;0.000000;;
  }

  Material  {
   0.392157;0.294118;0.078431;1.000000;;
   0.000000;
   0.000000;0.000000;0.000000;;
   0.000000;0.000000;0.000000;;
  }

  Material  {
   0.250980;0.250980;0.250980;1.000000;;
   0.000000;
   0.000000;0.000000;0.000000;;
   0.000000;0.000000;0.000000;;
  }

  Material  {
   0.250980;0.250980;0.250980;1.000000;;
   0.000000;
   0.000000;0.000000;0.000000;;
   0.000000;0.000000;0.000000;;
  }

  Material  {
   0.250980;0.250980;0.250980;1.000000;;
   0.000000;
   0.000000;0.000000;0.000000;;
   0.000000;0.000000;0.000000;;
  }

  Material  {
   0.250980;0.250980;0.250980;1.000000;;
   0.000000;
   0.000000;0.000000;0.000000;;
   0.000000;0.000000;0.000000;;
  }

  Material  {
   0.250980;0.250980;0.250980;1.000000;;
   0.000000;
   0.000000;0.000000;0.000000;;
   0.000000;0.000000;0.000000;;
  }

  Material  {
   0.250980;0.250980;0.250980;1.000000;;
   0.000000;
   0.000000;0.000000;0.000000;;
   0.000000;0.000000;0.000000;;
  }

  Material  {
   0.250980;0.250980;0.250980;1.000000;;
   0.000000;
   0.000000;0.000000;0.000000;;
   0.000000;0.000000;0.000000;;
  }

  Material  {
   0.250980;0.250980;0.250980;1.000000;;
   0.000000;
   0.000000;0.000000;0.000000;;
   0.000000;0.000000;0.000000;;
  }

  Material  {
   0.250980;0.250980;0.250980;1.000000;;
   0.000000;
   0.000000;0.000000;0.000000;;
   0.000000;0.000000;0.000000;;
  }

  Material  {
   0.250980;0.250980;0.250980;1.000000;;
   0.000000;
   0.000000;0.000000;0.000000;;
   0.000000;0.000000;0.000000;;
  }

  Material  {
   0.250980;0.250980;0.250980;1.000000;;
   0.000000;
   0.000000;0.000000;0.000000;;
   0.000000;0.000000;0.000000;;
  }

  Material  {
   0.250980;0.250980;0.250980;1.000000;;
   0.000000;
   0.000000;0.000000;0.000000;;
   0.000000;0.000000;0.000000;;
  }

  Material  {
   0.250980;0.250980;0.250980;1.000000;;
   0.000000;
   0.000000;0.000000;0.000000;;
   0.000000;0.000000;0.000000;;
  }

  Material  {
   0.250980;0.250980;0.250980;1.000000;;
   0.000000;
   0.000000;0.000000;0.000000;;
   0.000000;0.000000;0.000000;;
  }

  Material  {
   0.250980;0.250980;0.250980;1.000000;;
   0.000000;
   0.000000;0.000000;0.000000;;
   0.000000;0.000000;0.000000;;
  }

  Material  {
   0.250980;0.250980;0.250980;1.000000;;
   0.000000;
   0.000000;0.000000;0.000000;;
   0.000000;0.000000;0.000000;;
  }

  Material  {
   0.250980;0.250980;0.250980;1.000000;;
   0.000000;
   0.000000;0.000000;0.000000;;
   0.000000;0.000000;0.000000;;
  }

  Material  {
   0.250980;0.250980;0.250980;1.000000;;
   0.000000;
   0.000000;0.000000;0.000000;;
   0.000000;0.000000;0.000000;;
  }
 }

 MeshTextureCoords  {
  118;
  0.000000;0.000000;,
  0.000000;0.000000;,
  0.000000;0.000000;,
  0.000000;0.000000;,
  0.000000;0.000000;,
  0.000000;0.000000;,
  0.000000;0.000000;,
  0.000000;0.000000;,
  0.000000;0.000000;,
  0.000000;0.000000;,
  0.000000;0.000000;,
  0.000000;0.000000;,
  0.000000;0.000000;,
  0.000000;0.000000;,
  0.000000;0.000000;,
  0.000000;0.000000;,
  0.000000;0.000000;,
  0.000000;0.000000;,
  0.000000;0.000000;,
  0.000000;0.000000;,
  0.000000;0.000000;,
  0.000000;0.000000;,
  0.000000;0.000000;,
  0.000000;0.000000;,
  0.000000;0.000000;,
  0.000000;0.000000;,
  0.000000;0.000000;,
  0.000000;0.000000;,
  0.000000;0.000000;,
  0.000000;0.000000;,
  0.000000;0.000000;,
  0.000000;0.000000;,
  0.000000;0.000000;,
  0.000000;0.000000;,
  0.000000;0.000000;,
  0.000000;0.000000;,
  0.000000;0.000000;,
  0.000000;0.000000;,
  0.000000;0.000000;,
  0.000000;0.000000;,
  0.000000;0.000000;,
  0.000000;0.000000;,
  0.000000;0.000000;,
  0.000000;0.000000;,
  0.000000;0.000000;,
  0.000000;0.000000;,
  0.000000;0.000000;,
  0.000000;0.000000;,
  0.000000;0.000000;,
  0.000000;0.000000;,
  0.000000;0.000000;,
  0.000000;0.000000;,
  0.000000;0.000000;,
  0.000000;0.000000;,
  0.000000;0.000000;,
  0.000000;0.000000;,
  0.000000;0.000000;,
  0.000000;0.000000;,
  0.000000;0.000000;,
  0.000000;0.000000;,
  0.000000;0.000000;,
  0.000000;0.000000;,
  0.000000;0.000000;,
  0.000000;0.000000;,
  0.000000;0.000000;,
  0.000000;0.000000;,
  0.000000;0.000000;,
  0.000000;0.000000;,
  0.000000;0.000000;,
  0.000000;0.000000;,
  0.000000;0.000000;,
  0.000000;0.000000;,
  0.000000;0.000000;,
  0.000000;0.000000;,
  0.000000;0.000000;,
  0.000000;0.000000;,
  0.000000;0.000000;,
  0.000000;0.000000;,
  0.000000;0.000000;,
  0.000000;0.000000;,
  0.000000;0.000000;,
  0.000000;0.000000;,
  0.000000;0.000000;,
  0.000000;0.000000;,
  0.000000;0.000000;,
  0.000000;0.000000;,
  0.000000;0.000000;,
  0.000000;0.000000;,
  0.000000;0.000000;,
  0.000000;0.000000;,
  0.000000;0.000000;,
  0.000000;0.000000;,
  0.000000;0.000000;,
  0.000000;0.000000;,
  0.000000;0.000000;,
  0.000000;0.000000;,
  0.000000;0.000000;,
  0.000000;0.000000;,
  0.000000;0.000000;,
  0.000000;0.000000;,
  0.000000;0.000000;,
  0.000000;0.000000;,
  0.000000;0.000000;,
  0.000000;0.000000;,
  0.000000;0.000000;,
  0.000000;0.000000;,
  0.000000;0.000000;,
  0.000000;0.000000;,
  0.000000;0.000000;,
  0.000000;0.000000;,
  0.000000;0.000000;,
  0.000000;0.000000;,
  0.000000;0.000000;,
  0.000000;0.000000;,
  0.000000;0.000000;,
  0.000000;0.000000;,
  0.000000;0.000000;,
  0.000000;0.000000;;
 }

 MeshNormals  {
  120;
  0.000000;0.999594;-0.028488;,
  0.000000;0.999594;-0.028488;,
  0.000000;-0.999594;0.028488;,
  0.000000;-0.999594;0.028488;,
  0.000000;0.999675;-0.025492;,
  0.000000;0.999675;-0.025492;,
  0.000000;-0.999675;0.025492;,
  0.000000;-0.999675;0.025492;,
  0.000000;0.999747;-0.022494;,
  0.000000;0.999747;-0.022494;,
  0.000000;-0.999747;0.022494;,
  0.000000;-0.999747;0.022494;,
  0.000000;0.999810;-0.019496;,
  0.000000;0.999810;-0.019496;,
  0.000000;-0.999810;0.019496;,
  0.000000;-0.999810;0.019496;,
  0.000000;0.999864;-0.016498;,
  0.000000;0.999864;-0.016498;,
  0.000000;-0.999864;0.016498;,
  0.000000;-0.999864;0.016498;,
  0.000000;0.999909;-0.013499;,
  0.000000;0.999909;-0.013499;,
  0.000000;-0.999909;0.013499;,
  0.000000;-0.999909;0.013499;,
  0.000000;0.999945;-0.010499;,
  0.000000;0.999945;-0.010499;,
  0.000000;-0.999945;0.010499;,
  0.000000;-0.999945;0.010499;,
  0.000000;0.999972;-0.007500;,
  0.000000;0.999972;-0.007500;,
  0.000000;-0.999972;0.007500;,
  0.000000;-0.999972;0.007500;,
  0.000000;0.999990;-0.004500;,
  0.000000;0.999990;-0.004500;,
  0.000000;-0.999990;0.004500;,
  0.000000;-0.999990;0.004500;,
  0.000000;0.999999;-0.001500;,
  0.000000;0.999999;-0.001500;,
  0.000000;-0.999999;0.001500;,
  0.000000;-0.999999;0.001500;,
  0.000000;0.999999;0.001500;,
  0.000000;0.999999;0.001500;,
  0.000000;-0.999999;-0.001500;,
  0.000000;-0.999999;-0.001500;,
  0.000000;0.999990;0.004500;,
  0.000000;0.999990;0.004500;,
  0.000000;-0.999990;-0.004500;,
  0.000000;-0.999990;-0.004500;,
  0.000000;0.999972;0.007500;,
  0.000000;0.999972;0.007500;,
  0.000000;-0.999972;-0.007500;,
  0.000000;-0.999972;-0.007500;,
  0.000000;0.999945;0.010499;,
  0.000000;0.999945;0.010499;,
  0.000000;-0.999945;-0.010499;,
  0.000000;-0.999945;-0.010499;,
  0.000000;0.999909;0.013499;,
  0.000000;0.999909;0.013499;,
  0.000000;-0.999909;-0.013499;,
  0.000000;-0.999909;-0.013499;,
  0.000000;0.999864;0.016498;,
  0.000000;0.999864;0.016498;,
  0.000000;-0.999864;-0.016498;,
  0.000000;-0.999864;-0.016498;,
  0.000000;0.999810;0.019496;,
  0.000000;0.999810;0.019496;,
  0.000000;-0.999810;-0.019496;,
  0.000000;-0.999810;-0.019496;,
  0.000000;0.999747;0.022494;,
  0.000000;0.999747;0.022494;,
  0.000000;-0.999747;-0.022494;,
  0.000000;-0.999747;-0.022494;,
  0.000000;0.999675;0.025492;,
  0.000000;0.999675;0.025492;,
  0.000000;-0.999675;-0.025492;,
  0.000000;-0.999675;-0.025492;,
  0.000000;0.999594;0.028488;,
  0.000000;0.999594;0.028488;,
  0.000000;-0.999594;-0.028488;,
  0.000000;-0.999594;-0.028488;,
  -1.000000;0.000000;0.000000;,
  -1.000000;0.000000;0.000000;,
  1.000000;0.000000;0.000000;,
  1.000000;0.000000;0.000000;,
  0.000000;0.000000;-1.000000;,
  0.000000;0.000000;-1.000000;,
  0.000000;0.000000;-1.000000;,
  0.000000;0.000000;-1.000000;,
  0.000000;0.000000;-1.000000;,
  0.000000;0.000000;-1.000000;,
  0.000000;0.000000;-1.000000;,
  0.000000;0.000000;-1.000000;,
  0.000000;0.000000;-1.000000;,
  0.000000;0.000000;-1.000000;,
  0.000000;0.000000;-1.000000;,
  0.000000;0.000000;-1.000000;,
  0.000000;0.000000;-1.000000;,
  0.000000;0.000000;-1.000000;,
  0.000000;0.000000;-1.000000;,
  0.000000;0.000000;-1.000000;,
  0.000000;0.000000;-1.000000;,
  0.000000;0.000000;-1.000000;,
  0.000000;0.000000;-1.000000;,
  0.000000;0.000000;-1.000000;,
  0.000000;0.000000;-1.000000;,
  0.000000;0.000000;-1.000000;,
  0.000000;0.000000;-1.000000;,
  0.000000;0.000000;-1.000000;,
  0.000000;0.000000;-1.000000;,
  0.000000;0.000000;-1.000000;,
  0.000000;0.000000;-1.000000;,
  0.000000;0.000000;-1.000000;,
  0.000000;0.000000;-1.000000;,
  0.000000;0.000000;-1.000000;,
  0.000000;0.000000;-1.000000;,
  0.000000;0.000000;-1.000000;,
  0.000000;0.000000;-1.000000;,
  0.000000;0.000000;-1.000000;,
  0.000000;0.000000;-1.000000;,
  0.000000;0.000000;-1.000000;;
  120;
  3;0,0,0;,
  3;1,1,1;,
  3;2,2,2;,
  3;3,3,3;,
  3;4,4,4;,
  3;5,5,5;,
  3;6,6,6;,
  3;7,7,7;,
  3;8,8,8;,
  3;9,9,9;,
  3;10,10,10;,
  3;11,11,11;,
  3;12,12,12;,
  3;13,13,13;,
  3;14,14,14;,
  3;15,15,15;,
  3;16,16,16;,
  3;17,17,17;,
  3;18,18,18;,
  3;19,19,19;,
  3;20,20,20;,
  3;21,21,21;,
  3;22,22,22;,
  3;23,23,23;,
  3;24,24,24;,
  3;25,25,25;,
  3;26,26,26;,
  3;27,27,27;,
  3;28,28,28;,
  3;29,29,29;,
  3;30,30,30;,
  3;31,31,31;,
  3;32,32,32;,
  3;33,33,33;,
  3;34,34,34;,
  3;35,35,35;,
  3;36,36,36;,
  3;37,37,37;,
  3;38,38,38;,
  3;39,39,39;,
  3;40,40,40;,
  3;41,41,41;,
  3;42,42,42;,
  3;43,43,43;,
  3;44,44,44;,
  3;45,45,45;,
  3;46,46,46;,
  3;47,47,47;,
  3;48,48,48;,
  3;49,49,49;,
  3;50,50,50;,
  3;51,51,51;,
  3;52,52,52;,
  3;53,53,53;,
  3;54,54,54;,
  3;55,55,55;,
  3;56,56,56;,
  3;57,57,57;,
  3;58,58,58;,
  3;59,59,59;,
  3;60,60,60;,
  3;61,61,61;,
  3;62,62,62;,
  3;63,63,63;,
  3;64,64,64;,
  3;65,65,65;,
  3;66,66,66;,
  3;67,67,67;,
  3;68,68,68;,
  3;69,69,69;,
  3;70,70,70;,
  3;71,71,71;,
  3;72,72,72;,
  3;73,73,73;,
  3;74,74,74;,
  3;75,75,75;,
  3;76,76,76;,
  3;77,77,77;,
  3;78,78,78;,
  3;79,79,79;,
  3;80,80,80;,
  3;81,81,81;,
  3;82,82,82;,
  3;83,83,83;,
  3;84,84,84;,
  3;85,85,85;,
  3;86,86,86;,
  3;87,87,87;,
  3;88,88,88;,
  3;89,89,89;,
  3;90,90,90;,
  3;91,91,91;,
  3;92,92,92;,
  3;93,93,93;,
  3;94,94,94;,
  3;95,95,95;,
  3;96,96,96;,
  3;97,97,97;,
  3;98,98,98;,
  3;99,99,99;,
  3;100,100,100;,
  3;101,101,101;,
  3;102,102,102;,
  3;103,103,103;,
  3;104,104,104;,
  3;105,105,105;,
  3;106,106,106;,
  3;107,107,107;,
  3;108,108,108;,
  3;109,109,109;,
  3;110,110,110;,
  3;111,111,111;,
  3;112,112,112;,
  3;113,113,113;,
  3;114,114,114;,
  3;115,115,115;,
  3;116,116,116;,
  3;117,117,117;,
  3;118,118,118;,
  3;119,119,119;;
 }
}