xof 0303txt 0032
template Vector {
 <3d82ab5e-62da-11cf-ab39-0020af71e433>
 FLOAT x;
 FLOAT y;
 FLOAT z;
}

template MeshFace {
 <3d82ab5f-62da-11cf-ab39-0020af71e433>
 DWORD nFaceVertexIndices;
 array DWORD faceVertexIndices[nFaceVertexIndices];
}

template Mesh {
 <3d82ab44-62da-11cf-ab39-0020af71e433>
 DWORD nVertices;
 array Vector vertices[nVertices];
 DWORD nFaces;
 array MeshFace faces[nFaces];
 [...]
}

template ColorRGBA {
 <35ff44e0-6c7c-11cf-8f52-0040333594a3>
 FLOAT red;
 FLOAT green;
 FLOAT blue;
 FLOAT alpha;
}

template ColorRGB {
 <d3e16e81-7835-11cf-8f52-0040333594a3>
 FLOAT red;
 FLOAT green;
 FLOAT blue;
}

template Material {
 <3d82ab4d-62da-11cf-ab39-0020af71e433>
 ColorRGBA faceColor;
 FLOAT power;
 ColorRGB specularColor;
 ColorRGB emissiveColor;
 [...]
}

template MeshMaterialList {
 <f6f23f42-7686-11cf-8f52-0040333594a3>
 DWORD nMaterials;
 DWORD nFaceIndexes;
 array DWORD faceIndexes[nFaceIndexes];
 [Material <3d82ab4d-62da-11cf-ab39-0020af71e433>]
}

template TextureFilename {
 <a42790e1-7810-11cf-8f52-0040333594a3>
 STRING filename;
}

template Coords2d {
 <f6f23f44-7686-11cf-8f52-0040333594a3>
 FLOAT u;
 FLOAT v;
}

template MeshTextureCoords {
 <f6f23f40-7686-11cf-8f52-0040333594a3>
 DWORD nTextureCoords;
 array Coords2d textureCoords[nTextureCoords];
}

template MeshNormals {
 <f6f23f43-7686-11cf-8f52-0040333594a3>
 DWORD nNormals;
 array Vector normals[nNormals];
 DWORD nFaceNormals;
 array MeshFace faceNormals[nFaceNormals];
}


Mesh  {
 140;
 -1.500000;1.100000;0.000000;,
 -2.700000;1.100000;0.000000;,
 -1.500000;1.100000;25.000000;,
 -2.700000;1.100000;25.000000;,
 -8.950000;0.850000;0.000000;,
 -8.950000;1.100000;0.000000;,
 -7.750000;1.100000;0.000000;,
 -8.950000;0.850000;25.000000;,
 -8.950000;1.100000;25.000000;,
 -7.750000;1.100000;25.000000;,
 -8.250000;-0.450000;0.000000;,
 -8.250000;0.850000;0.000000;,
 -8.250000;-0.450000;25.000000;,
 -8.250000;0.850000;25.000000;,
 -2.700000;1.100000;0.000000;,
 -2.700000;1.100000;25.000000;,
 -3.725000;1.100000;14.000000;,
 -3.725000;1.100000;22.000000;,
 -6.725000;1.100000;14.000000;,
 -6.725000;1.100000;22.000000;,
 -7.750000;1.100000;0.000000;,
 -7.750000;1.100000;25.000000;,
 -4.825000;1.100000;7.000000;,
 -4.825000;5.000000;7.000000;,
 -5.625000;1.100000;7.000000;,
 -5.625000;5.000000;7.000000;,
 -2.950000;1.100000;16.500000;,
 -2.950000;5.800000;16.500000;,
 -3.450000;1.100000;16.500000;,
 -3.450000;5.800000;16.500000;,
 -6.950000;1.100000;16.500000;,
 -6.950000;5.800000;16.500000;,
 -7.450000;1.100000;16.500000;,
 -7.450000;5.800000;16.500000;,
 -4.043000;5.000000;0.000000;,
 -4.043000;5.000000;25.000000;,
 -6.443000;5.000000;0.000000;,
 -6.443000;5.000000;25.000000;,
 -6.443000;5.000000;0.000000;,
 -6.443000;5.800000;0.000000;,
 -6.443000;5.000000;25.000000;,
 -6.443000;5.800000;25.000000;,
 -1.500000;5.800000;0.000000;,
 -1.500000;5.800000;25.000000;,
 -8.950200;5.800000;0.000000;,
 -8.950200;5.800000;25.000000;,
 -8.950200;5.800000;0.000000;,
 -8.950200;6.000000;0.000000;,
 -8.950200;5.800000;25.000000;,
 -8.950200;6.000000;25.000000;,
 -4.825000;5.800000;7.000000;,
 -4.825000;7.500000;7.000000;,
 -5.625000;5.800000;7.000000;,
 -5.625000;7.500000;7.000000;,
 -3.055000;5.800000;19.500000;,
 -3.055000;7.500000;19.500000;,
 -3.555000;5.800000;19.500000;,
 -3.555000;7.500000;19.500000;,
 -7.055000;5.800000;19.500000;,
 -7.055000;7.500000;19.500000;,
 -7.555000;5.800000;19.500000;,
 -7.555000;7.500000;19.500000;,
 -3.305000;6.700000;-5.500000;,
 -3.305000;7.500000;-5.500000;,
 -5.240000;6.700000;7.000000;,
 -5.240000;7.500000;7.000000;,
 -3.305000;6.700000;19.500000;,
 -3.305000;7.500000;19.500000;,
 -7.305000;6.700000;-5.500000;,
 -7.305000;7.500000;-5.500000;,
 -5.240000;6.700000;7.000000;,
 -5.240000;7.500000;7.000000;,
 -7.305000;6.700000;19.500000;,
 -7.305000;7.500000;19.500000;,
 -3.305000;7.100000;-5.500000;,
 -3.305000;7.500000;-5.500000;,
 -3.305000;7.100000;19.500000;,
 -3.305000;7.500000;19.500000;,
 -7.305000;7.100000;-5.500000;,
 -7.305000;7.500000;-5.500000;,
 -7.305000;7.100000;19.500000;,
 -7.305000;7.500000;19.500000;,
 -3.221000;5.800000;0.750000;,
 -3.221000;7.500000;0.750000;,
 -7.389000;5.800000;0.750000;,
 -7.389000;7.500000;0.750000;,
 -3.221000;5.800000;5.000000;,
 -3.221000;7.500000;5.000000;,
 -7.389000;5.800000;5.000000;,
 -7.389000;7.500000;5.000000;,
 -3.221000;5.800000;9.000000;,
 -3.221000;7.500000;9.000000;,
 -7.389000;5.800000;9.000000;,
 -7.389000;7.500000;9.000000;,
 -3.221000;5.800000;13.250000;,
 -3.221000;7.500000;13.250000;,
 -7.389000;5.800000;13.250000;,
 -7.389000;7.500000;13.250000;,
 -3.221000;5.800000;17.500000;,
 -3.221000;7.500000;17.500000;,
 -7.389000;5.800000;17.500000;,
 -7.389000;7.500000;17.500000;,
 -3.221000;5.800000;21.500000;,
 -3.221000;7.500000;21.500000;,
 -7.389000;5.800000;21.500000;,
 -7.389000;7.500000;21.500000;,
 -3.725000;-3.000000;14.000000;,
 -3.725000;1.100000;14.000000;,
 -3.725000;-3.000000;22.000000;,
 -3.725000;1.100000;22.000000;,
 -3.725000;1.100000;14.000000;,
 -3.725000;2.300000;14.000000;,
 -3.725000;1.100000;22.000000;,
 -3.725000;2.300000;22.000000;,
 -6.725000;1.100000;14.000000;,
 -6.725000;2.300000;14.000000;,
 -6.725000;1.100000;22.000000;,
 -6.725000;2.300000;22.000000;,
 -3.586200;1.100000;22.000000;,
 -3.586200;2.300000;22.000000;,
 -3.786200;1.100000;22.000000;,
 -3.786200;2.300000;22.000000;,
 -6.626200;1.100000;22.000000;,
 -6.626200;2.300000;22.000000;,
 -6.826200;1.100000;22.000000;,
 -6.826200;2.300000;22.000000;,
 -4.225000;1.100000;8.800000;,
 -4.225000;4.000000;8.800000;,
 -6.225000;1.100000;8.800000;,
 -6.225000;4.000000;8.800000;,
 -6.225000;1.100000;11.200000;,
 -6.225000;4.000000;11.200000;,
 -6.227000;1.100000;8.900000;,
 -6.227000;3.600000;8.900000;,
 -6.227000;1.100000;10.000000;,
 -6.227000;3.600000;10.000000;,
 -3.900000;4.600000;22.000000;,
 -3.900000;5.800000;22.000000;,
 -6.600000;4.600000;22.000000;,
 -6.600000;5.800000;22.000000;;
 80;
 3;0,1,3;,
 3;0,3,2;,
 3;7,8,5;,
 3;7,5,4;,
 3;8,9,6;,
 3;8,6,5;,
 3;12,13,11;,
 3;12,11,10;,
 3;16,17,15;,
 3;16,15,14;,
 3;20,21,19;,
 3;20,19,18;,
 3;20,18,16;,
 3;20,16,14;,
 3;15,17,19;,
 3;15,19,21;,
 3;24,25,23;,
 3;24,23,22;,
 3;28,29,27;,
 3;28,27,26;,
 3;32,33,31;,
 3;32,31,30;,
 3;34,35,37;,
 3;34,37,36;,
 3;40,41,39;,
 3;40,39,38;,
 3;42,43,45;,
 3;42,45,44;,
 3;48,49,47;,
 3;48,47,46;,
 3;52,53,51;,
 3;52,51,50;,
 3;56,57,55;,
 3;56,55,54;,
 3;60,61,59;,
 3;60,59,58;,
 3;64,65,63;,
 3;64,63,62;,
 3;66,67,65;,
 3;66,65,64;,
 3;70,71,69;,
 3;70,69,68;,
 3;72,73,71;,
 3;72,71,70;,
 3;76,77,75;,
 3;76,75,74;,
 3;80,81,79;,
 3;80,79,78;,
 3;84,85,83;,
 3;84,83,82;,
 3;88,89,87;,
 3;88,87,86;,
 3;92,93,91;,
 3;92,91,90;,
 3;96,97,95;,
 3;96,95,94;,
 3;100,101,99;,
 3;100,99,98;,
 3;104,105,103;,
 3;104,103,102;,
 3;108,109,107;,
 3;108,107,106;,
 3;112,113,111;,
 3;112,111,110;,
 3;114,115,111;,
 3;114,111,110;,
 3;116,117,115;,
 3;116,115,114;,
 3;120,121,119;,
 3;120,119,118;,
 3;124,125,123;,
 3;124,123,122;,
 3;128,129,127;,
 3;128,127,126;,
 3;130,131,129;,
 3;130,129,128;,
 3;134,135,133;,
 3;134,133,132;,
 3;138,139,137;,
 3;138,137,136;;

 MeshMaterialList  {
  31;
  80;
  0,
  0,
  1,
  1,
  1,
  1,
  2,
  2,
  3,
  3,
  3,
  3,
  3,
  3,
  3,
  3,
  4,
  4,
  5,
  5,
  6,
  6,
  7,
  7,
  8,
  8,
  9,
  9,
  10,
  10,
  11,
  11,
  12,
  12,
  13,
  13,
  14,
  14,
  14,
  14,
  15,
  15,
  15,
  15,
  16,
  16,
  17,
  17,
  18,
  18,
  19,
  19,
  20,
  20,
  21,
  21,
  22,
  22,
  23,
  23,
  24,
  24,
  25,
  25,
  25,
  25,
  25,
  25,
  26,
  26,
  27,
  27,
  28,
  28,
  28,
  28,
  29,
  29,
  30,
  30;

  Material  {
   1.000000;1.000000;1.000000;1.000000;;
   0.000000;
   0.000000;0.000000;0.000000;;
   0.000000;0.000000;0.000000;;

   TextureFilename  {
    "FormSide1.png";
   }
  }

  Material  {
   1.000000;1.000000;1.000000;1.000000;;
   0.000000;
   0.000000;0.000000;0.000000;;
   0.000000;0.000000;0.000000;;

   TextureFilename  {
    "FormSide1.png";
   }
  }

  Material  {
   1.000000;1.000000;1.000000;1.000000;;
   0.000000;
   0.000000;0.000000;0.000000;;
   0.000000;0.000000;0.000000;;

   TextureFilename  {
    "FormSide2.png";
   }
  }

  Material  {
   1.000000;1.000000;1.000000;1.000000;;
   0.000000;
   0.000000;0.000000;0.000000;;
   0.000000;0.000000;0.000000;;

   TextureFilename  {
    "FormC.png";
   }
  }

  Material  {
   1.000000;1.000000;1.000000;1.000000;;
   0.000000;
   0.000000;0.000000;0.000000;;
   0.000000;0.000000;0.000000;;

   TextureFilename  {
    "RoofPier1.png";
   }
  }

  Material  {
   1.000000;1.000000;1.000000;1.000000;;
   0.000000;
   0.000000;0.000000;0.000000;;
   0.000000;0.000000;0.000000;;

   TextureFilename  {
    "RoofPier3.png";
   }
  }

  Material  {
   1.000000;1.000000;1.000000;1.000000;;
   0.000000;
   0.000000;0.000000;0.000000;;
   0.000000;0.000000;0.000000;;

   TextureFilename  {
    "RoofPier3.png";
   }
  }

  Material  {
   1.000000;1.000000;1.000000;1.000000;;
   0.000000;
   0.000000;0.000000;0.000000;;
   0.000000;0.000000;0.000000;;

   TextureFilename  {
    "RoofPlate1.png";
   }
  }

  Material  {
   1.000000;1.000000;1.000000;1.000000;;
   0.000000;
   0.000000;0.000000;0.000000;;
   0.000000;0.000000;0.000000;;

   TextureFilename  {
    "RoofSide1.png";
   }
  }

  Material  {
   1.000000;1.000000;1.000000;1.000000;;
   0.000000;
   0.000000;0.000000;0.000000;;
   0.000000;0.000000;0.000000;;

   TextureFilename  {
    "RoofPlate2.png";
   }
  }

  Material  {
   1.000000;1.000000;1.000000;1.000000;;
   0.000000;
   0.000000;0.000000;0.000000;;
   0.000000;0.000000;0.000000;;

   TextureFilename  {
    "RoofSide2.png";
   }
  }

  Material  {
   1.000000;1.000000;1.000000;1.000000;;
   0.000000;
   0.000000;0.000000;0.000000;;
   0.000000;0.000000;0.000000;;

   TextureFilename  {
    "Pole_Iron1.png";
   }
  }

  Material  {
   1.000000;1.000000;1.000000;1.000000;;
   0.000000;
   0.000000;0.000000;0.000000;;
   0.000000;0.000000;0.000000;;

   TextureFilename  {
    "RoofPier4.png";
   }
  }

  Material  {
   1.000000;1.000000;1.000000;1.000000;;
   0.000000;
   0.000000;0.000000;0.000000;;
   0.000000;0.000000;0.000000;;

   TextureFilename  {
    "RoofPier4.png";
   }
  }

  Material  {
   1.000000;1.000000;1.000000;1.000000;;
   0.000000;
   0.000000;0.000000;0.000000;;
   0.000000;0.000000;0.000000;;

   TextureFilename  {
    "Iron1.png";
   }
  }

  Material  {
   1.000000;1.000000;1.000000;1.000000;;
   0.000000;
   0.000000;0.000000;0.000000;;
   0.000000;0.000000;0.000000;;

   TextureFilename  {
    "Iron1.png";
   }
  }

  Material  {
   1.000000;1.000000;1.000000;1.000000;;
   0.000000;
   0.000000;0.000000;0.000000;;
   0.000000;0.000000;0.000000;;

   TextureFilename  {
    "Iron1.png";
   }
  }

  Material  {
   1.000000;1.000000;1.000000;1.000000;;
   0.000000;
   0.000000;0.000000;0.000000;;
   0.000000;0.000000;0.000000;;

   TextureFilename  {
    "Iron1.png";
   }
  }

  Material  {
   1.000000;1.000000;1.000000;1.000000;;
   0.000000;
   0.000000;0.000000;0.000000;;
   0.000000;0.000000;0.000000;;

   TextureFilename  {
    "Iron3.png";
   }
  }

  Material  {
   1.000000;1.000000;1.000000;1.000000;;
   0.000000;
   0.000000;0.000000;0.000000;;
   0.000000;0.000000;0.000000;;

   TextureFilename  {
    "Iron3.png";
   }
  }

  Material  {
   1.000000;1.000000;1.000000;1.000000;;
   0.000000;
   0.000000;0.000000;0.000000;;
   0.000000;0.000000;0.000000;;

   TextureFilename  {
    "Iron3.png";
   }
  }

  Material  {
   1.000000;1.000000;1.000000;1.000000;;
   0.000000;
   0.000000;0.000000;0.000000;;
   0.000000;0.000000;0.000000;;

   TextureFilename  {
    "Iron3.png";
   }
  }

  Material  {
   1.000000;1.000000;1.000000;1.000000;;
   0.000000;
   0.000000;0.000000;0.000000;;
   0.000000;0.000000;0.000000;;

   TextureFilename  {
    "Iron3.png";
   }
  }

  Material  {
   1.000000;1.000000;1.000000;1.000000;;
   0.000000;
   0.000000;0.000000;0.000000;;
   0.000000;0.000000;0.000000;;

   TextureFilename  {
    "Iron3.png";
   }
  }

  Material  {
   1.000000;1.000000;1.000000;1.000000;;
   0.000000;
   0.000000;0.000000;0.000000;;
   0.000000;0.000000;0.000000;;

   TextureFilename  {
    "KaidanWall.png";
   }
  }

  Material  {
   1.000000;1.000000;1.000000;1.000000;;
   0.000000;
   0.000000;0.000000;0.000000;;
   0.000000;0.000000;0.000000;;

   TextureFilename  {
    "KaidanSaku1.png";
   }
  }

  Material  {
   1.000000;1.000000;1.000000;1.000000;;
   0.000000;
   0.000000;0.000000;0.000000;;
   0.000000;0.000000;0.000000;;

   TextureFilename  {
    "KaidanSaku2.png";
   }
  }

  Material  {
   1.000000;1.000000;1.000000;1.000000;;
   0.000000;
   0.000000;0.000000;0.000000;;
   0.000000;0.000000;0.000000;;

   TextureFilename  {
    "KaidanSaku2.png";
   }
  }

  Material  {
   1.000000;1.000000;1.000000;1.000000;;
   0.000000;
   0.000000;0.000000;0.000000;;
   0.000000;0.000000;0.000000;;

   TextureFilename  {
    "Kiosk.png";
   }
  }

  Material  {
   1.000000;1.000000;1.000000;1.000000;;
   0.000000;
   0.000000;0.000000;0.000000;;
   0.000000;0.000000;0.000000;;

   TextureFilename  {
    "Dispenser.png";
   }
  }

  Material  {
   1.000000;1.000000;1.000000;1.000000;;
   0.000000;
   0.000000;0.000000;0.000000;;
   0.000000;0.000000;0.000000;;

   TextureFilename  {
    "Annai.png";
   }
  }
 }

 MeshTextureCoords  {
  140;
  0.000000;0.440000;,
  0.000000;0.000000;,
  5.000000;0.440000;,
  5.000000;0.000000;,
  0.000000;1.000000;,
  0.000000;0.440000;,
  0.000000;0.000000;,
  5.000000;1.000000;,
  5.000000;0.440000;,
  5.000000;0.000000;,
  0.600000;1.000000;,
  0.600000;0.000000;,
  0.900000;1.000000;,
  0.900000;0.000000;,
  1.000000;0.000000;,
  1.000000;2.500000;,
  0.800000;1.400000;,
  0.800000;2.200000;,
  0.200000;1.400000;,
  0.200000;2.200000;,
  0.000000;0.000000;,
  0.000000;2.500000;,
  0.000000;1.000000;,
  0.000000;0.050000;,
  1.000000;1.000000;,
  1.000000;0.050000;,
  0.000000;0.500000;,
  0.000000;0.050000;,
  1.000000;0.500000;,
  1.000000;0.050000;,
  0.000000;1.000000;,
  0.000000;0.050000;,
  1.000000;1.000000;,
  1.000000;0.050000;,
  0.000000;0.792000;,
  0.000000;4.392000;,
  0.100000;0.792000;,
  0.100000;4.392000;,
  0.000000;1.000000;,
  0.000000;0.000000;,
  0.100000;1.000000;,
  0.100000;0.000000;,
  0.000000;0.000000;,
  0.000000;3.000000;,
  0.100000;0.000000;,
  0.100000;3.000000;,
  0.000000;1.000000;,
  0.000000;0.000000;,
  0.100000;1.000000;,
  0.100000;0.000000;,
  1.000000;1.000000;,
  0.000000;1.000000;,
  1.000000;0.000000;,
  0.000000;0.000000;,
  0.000000;0.000000;,
  0.000000;1.000000;,
  1.000000;0.000000;,
  1.000000;1.000000;,
  0.000000;0.000000;,
  0.000000;1.000000;,
  1.000000;0.000000;,
  1.000000;1.000000;,
  0.000000;1.000000;,
  0.000000;0.000000;,
  0.100000;1.000000;,
  0.100000;0.000000;,
  0.200000;1.000000;,
  0.200000;0.000000;,
  0.000000;1.000000;,
  0.000000;0.000000;,
  0.100000;1.000000;,
  0.100000;0.000000;,
  0.200000;1.000000;,
  0.200000;0.000000;,
  0.000000;1.000000;,
  0.000000;0.000000;,
  0.100000;1.000000;,
  0.100000;0.000000;,
  0.000000;1.000000;,
  0.000000;0.000000;,
  0.100000;1.000000;,
  0.100000;0.000000;,
  0.990000;1.000000;,
  0.990000;0.000000;,
  0.010000;1.000000;,
  0.010000;0.000000;,
  0.990000;1.000000;,
  0.990000;0.000000;,
  0.010000;1.000000;,
  0.010000;0.000000;,
  0.990000;1.000000;,
  0.990000;0.000000;,
  0.010000;1.000000;,
  0.010000;0.000000;,
  0.990000;1.000000;,
  0.990000;0.000000;,
  0.010000;1.000000;,
  0.010000;0.000000;,
  0.990000;1.000000;,
  0.990000;0.000000;,
  0.010000;1.000000;,
  0.010000;0.000000;,
  0.990000;1.000000;,
  0.990000;0.000000;,
  0.010000;1.000000;,
  0.010000;0.000000;,
  0.000000;1.000000;,
  0.000000;0.000000;,
  0.100000;1.000000;,
  0.100000;0.000000;,
  4.000000;1.000000;,
  4.000000;0.000000;,
  0.000000;1.000000;,
  0.000000;0.000000;,
  6.000000;1.000000;,
  6.000000;0.000000;,
  10.000000;1.000000;,
  10.000000;0.000000;,
  1.000000;1.000000;,
  1.000000;0.000000;,
  0.000000;1.000000;,
  0.000000;0.000000;,
  0.000000;1.000000;,
  0.000000;0.000000;,
  1.000000;1.000000;,
  1.000000;0.000000;,
  0.000000;1.000000;,
  0.000000;0.000000;,
  1.000000;1.000000;,
  1.000000;0.000000;,
  2.000000;1.000000;,
  2.000000;0.000000;,
  0.312500;1.000000;,
  0.312500;0.000000;,
  1.000000;1.000000;,
  1.000000;0.000000;,
  1.000000;1.000000;,
  1.000000;0.000000;,
  0.000000;1.000000;,
  0.000000;0.000000;;
 }

 MeshNormals  {
  80;
  0.000000;1.000000;0.000000;,
  0.000000;1.000000;0.000000;,
  -1.000000;0.000000;0.000000;,
  -1.000000;0.000000;0.000000;,
  0.000000;1.000000;0.000000;,
  0.000000;1.000000;0.000000;,
  -1.000000;0.000000;0.000000;,
  -1.000000;0.000000;0.000000;,
  0.000000;1.000000;0.000000;,
  0.000000;1.000000;0.000000;,
  0.000000;1.000000;0.000000;,
  0.000000;1.000000;0.000000;,
  0.000000;1.000000;0.000000;,
  0.000000;1.000000;0.000000;,
  0.000000;1.000000;0.000000;,
  0.000000;1.000000;0.000000;,
  0.000000;0.000000;-1.000000;,
  0.000000;0.000000;-1.000000;,
  0.000000;0.000000;-1.000000;,
  0.000000;0.000000;-1.000000;,
  0.000000;0.000000;-1.000000;,
  0.000000;0.000000;-1.000000;,
  0.000000;-1.000000;0.000000;,
  0.000000;-1.000000;0.000000;,
  -1.000000;0.000000;0.000000;,
  -1.000000;0.000000;0.000000;,
  0.000000;-1.000000;0.000000;,
  0.000000;-1.000000;0.000000;,
  -1.000000;0.000000;0.000000;,
  -1.000000;0.000000;0.000000;,
  0.000000;0.000000;-1.000000;,
  0.000000;0.000000;-1.000000;,
  0.000000;0.000000;-1.000000;,
  0.000000;0.000000;-1.000000;,
  0.000000;0.000000;-1.000000;,
  0.000000;0.000000;-1.000000;,
  -0.988230;0.000000;-0.152978;,
  -0.988230;0.000000;-0.152978;,
  -0.988230;0.000000;0.152978;,
  -0.988230;0.000000;0.152978;,
  -0.986628;0.000000;0.162991;,
  -0.986628;0.000000;0.162991;,
  -0.986628;0.000000;-0.162991;,
  -0.986628;0.000000;-0.162991;,
  -1.000000;0.000000;0.000000;,
  -1.000000;0.000000;0.000000;,
  -1.000000;0.000000;0.000000;,
  -1.000000;0.000000;0.000000;,
  0.000000;0.000000;-1.000000;,
  0.000000;0.000000;-1.000000;,
  0.000000;0.000000;-1.000000;,
  0.000000;0.000000;-1.000000;,
  0.000000;0.000000;-1.000000;,
  0.000000;0.000000;-1.000000;,
  0.000000;0.000000;-1.000000;,
  0.000000;0.000000;-1.000000;,
  0.000000;0.000000;-1.000000;,
  0.000000;0.000000;-1.000000;,
  0.000000;0.000000;-1.000000;,
  0.000000;0.000000;-1.000000;,
  -1.000000;0.000000;0.000000;,
  -1.000000;0.000000;0.000000;,
  -1.000000;0.000000;0.000000;,
  -1.000000;0.000000;0.000000;,
  0.000000;0.000000;-1.000000;,
  0.000000;0.000000;-1.000000;,
  -1.000000;0.000000;0.000000;,
  -1.000000;0.000000;0.000000;,
  0.000000;0.000000;-1.000000;,
  0.000000;0.000000;-1.000000;,
  0.000000;0.000000;-1.000000;,
  0.000000;0.000000;-1.000000;,
  0.000000;0.000000;-1.000000;,
  0.000000;0.000000;-1.000000;,
  -1.000000;0.000000;0.000000;,
  -1.000000;0.000000;0.000000;,
  -1.000000;0.000000;0.000000;,
  -1.000000;0.000000;0.000000;,
  0.000000;0.000000;-1.000000;,
  0.000000;0.000000;-1.000000;;
  80;
  3;0,0,0;,
  3;1,1,1;,
  3;2,2,2;,
  3;3,3,3;,
  3;4,4,4;,
  3;5,5,5;,
  3;6,6,6;,
  3;7,7,7;,
  3;8,8,8;,
  3;9,9,9;,
  3;10,10,10;,
  3;11,11,11;,
  3;12,12,12;,
  3;13,13,13;,
  3;14,14,14;,
  3;15,15,15;,
  3;16,16,16;,
  3;17,17,17;,
  3;18,18,18;,
  3;19,19,19;,
  3;20,20,20;,
  3;21,21,21;,
  3;22,22,22;,
  3;23,23,23;,
  3;24,24,24;,
  3;25,25,25;,
  3;26,26,26;,
  3;27,27,27;,
  3;28,28,28;,
  3;29,29,29;,
  3;30,30,30;,
  3;31,31,31;,
  3;32,32,32;,
  3;33,33,33;,
  3;34,34,34;,
  3;35,35,35;,
  3;36,36,36;,
  3;37,37,37;,
  3;38,38,38;,
  3;39,39,39;,
  3;40,40,40;,
  3;41,41,41;,
  3;42,42,42;,
  3;43,43,43;,
  3;44,44,44;,
  3;45,45,45;,
  3;46,46,46;,
  3;47,47,47;,
  3;48,48,48;,
  3;49,49,49;,
  3;50,50,50;,
  3;51,51,51;,
  3;52,52,52;,
  3;53,53,53;,
  3;54,54,54;,
  3;55,55,55;,
  3;56,56,56;,
  3;57,57,57;,
  3;58,58,58;,
  3;59,59,59;,
  3;60,60,60;,
  3;61,61,61;,
  3;62,62,62;,
  3;63,63,63;,
  3;64,64,64;,
  3;65,65,65;,
  3;66,66,66;,
  3;67,67,67;,
  3;68,68,68;,
  3;69,69,69;,
  3;70,70,70;,
  3;71,71,71;,
  3;72,72,72;,
  3;73,73,73;,
  3;74,74,74;,
  3;75,75,75;,
  3;76,76,76;,
  3;77,77,77;,
  3;78,78,78;,
  3;79,79,79;;
 }
}