xof 0303txt 0032
template Vector {
 <3d82ab5e-62da-11cf-ab39-0020af71e433>
 FLOAT x;
 FLOAT y;
 FLOAT z;
}

template MeshFace {
 <3d82ab5f-62da-11cf-ab39-0020af71e433>
 DWORD nFaceVertexIndices;
 array DWORD faceVertexIndices[nFaceVertexIndices];
}

template Mesh {
 <3d82ab44-62da-11cf-ab39-0020af71e433>
 DWORD nVertices;
 array Vector vertices[nVertices];
 DWORD nFaces;
 array MeshFace faces[nFaces];
 [...]
}

template ColorRGBA {
 <35ff44e0-6c7c-11cf-8f52-0040333594a3>
 FLOAT red;
 FLOAT green;
 FLOAT blue;
 FLOAT alpha;
}

template ColorRGB {
 <d3e16e81-7835-11cf-8f52-0040333594a3>
 FLOAT red;
 FLOAT green;
 FLOAT blue;
}

template Material {
 <3d82ab4d-62da-11cf-ab39-0020af71e433>
 ColorRGBA faceColor;
 FLOAT power;
 ColorRGB specularColor;
 ColorRGB emissiveColor;
 [...]
}

template MeshMaterialList {
 <f6f23f42-7686-11cf-8f52-0040333594a3>
 DWORD nMaterials;
 DWORD nFaceIndexes;
 array DWORD faceIndexes[nFaceIndexes];
 [Material <3d82ab4d-62da-11cf-ab39-0020af71e433>]
}

template TextureFilename {
 <a42790e1-7810-11cf-8f52-0040333594a3>
 STRING filename;
}

template Coords2d {
 <f6f23f44-7686-11cf-8f52-0040333594a3>
 FLOAT u;
 FLOAT v;
}

template MeshTextureCoords {
 <f6f23f40-7686-11cf-8f52-0040333594a3>
 DWORD nTextureCoords;
 array Coords2d textureCoords[nTextureCoords];
}

template MeshNormals {
 <f6f23f43-7686-11cf-8f52-0040333594a3>
 DWORD nNormals;
 array Vector normals[nNormals];
 DWORD nFaceNormals;
 array MeshFace faceNormals[nFaceNormals];
}


Mesh  {
 88;
 1.500000;0.850000;-0.049900;,
 1.500000;1.100000;-0.049900;,
 2.700000;1.100000;-0.049900;,
 1.479400;0.850000;4.970000;,
 1.479400;1.100000;4.970000;,
 2.679400;1.100000;4.970000;,
 1.469100;0.850000;9.990000;,
 1.469100;1.100000;9.990000;,
 2.669100;1.100000;9.990000;,
 1.469100;0.850000;15.010000;,
 1.469100;1.100000;15.010000;,
 2.669100;1.100000;15.010000;,
 6.916900;0.850000;0.000000;,
 6.916900;1.100000;0.000000;,
 5.716900;1.100000;0.000000;,
 5.866800;0.850000;15.000000;,
 5.866800;1.100000;15.000000;,
 4.666800;1.100000;15.000000;,
 2.200000;-0.450000;0.000000;,
 2.200000;0.850000;0.000000;,
 2.200000;-0.450000;18.000000;,
 2.200000;0.850000;18.000000;,
 6.216900;-0.450000;0.000000;,
 6.216900;0.850000;0.000000;,
 4.956800;-0.450000;18.000000;,
 4.956800;0.850000;18.000000;,
 2.700000;1.100000;-0.049900;,
 2.679400;1.100000;4.970000;,
 2.669100;1.100000;9.990000;,
 2.669100;1.100000;15.010000;,
 5.716900;1.100000;0.000000;,
 4.666800;1.100000;15.000000;,
 1.800000;0.850000;15.000000;,
 1.800000;1.100000;15.000000;,
 1.800000;0.850000;18.000000;,
 1.800000;1.100000;18.000000;,
 5.566800;0.850000;15.000000;,
 5.566800;1.100000;15.000000;,
 5.356800;0.850000;18.000000;,
 5.356800;1.100000;18.000000;,
 1.800000;1.100000;15.000000;,
 1.800000;1.100000;18.000000;,
 5.566800;1.100000;15.000000;,
 5.356800;1.100000;18.000000;,
 1.700000;-0.287000;18.000000;,
 1.700000;-0.287000;0.000000;,
 1.700000;0.000000;18.000000;,
 1.700000;0.000000;0.000000;,
 2.200000;-0.287000;18.000000;,
 2.200000;-0.287000;0.000000;,
 2.200000;0.000000;18.000000;,
 2.200000;-0.287000;18.000000;,
 5.452600;-0.287000;18.000000;,
 6.712500;-0.287000;0.000000;,
 5.452600;0.000000;18.000000;,
 6.712500;0.000000;0.000000;,
 4.952600;-0.287000;18.000000;,
 6.212500;-0.287000;0.000000;,
 4.952600;0.000000;18.000000;,
 4.952600;-0.287000;18.000000;,
 4.000700;-0.925000;20.945000;,
 4.000700;0.475000;20.945000;,
 4.206800;0.775000;18.000000;,
 4.206800;2.175000;18.000000;,
 2.700700;-0.925000;20.945000;,
 2.700700;0.475000;20.945000;,
 2.906800;0.775000;18.000000;,
 2.906800;2.175000;18.000000;,
 1.850000;1.100000;15.050000;,
 1.850000;2.300000;15.050000;,
 1.850000;1.100000;17.950001;,
 1.850000;2.300000;17.950001;,
 5.306800;1.100000;17.950001;,
 5.306800;2.300000;17.950001;,
 5.516800;1.100000;15.050000;,
 5.516800;2.300000;15.050000;,
 1.850000;1.100000;15.050000;,
 1.850000;2.300000;15.050000;,
 1.850000;1.100000;17.950001;,
 1.850000;2.300000;17.950001;,
 5.306800;1.100000;17.950001;,
 5.306800;2.300000;17.950001;,
 5.516800;1.100000;15.050000;,
 5.516800;2.300000;15.050000;,
 3.400000;1.100000;2.500000;,
 3.400000;5.500000;2.500000;,
 4.600000;1.100000;2.500000;,
 4.600000;5.500000;2.500000;;
 80;
 3;3,4,1;,
 3;3,1,0;,
 3;4,5,2;,
 3;4,2,1;,
 3;6,7,4;,
 3;6,4,3;,
 3;7,8,5;,
 3;7,5,4;,
 3;9,10,7;,
 3;9,7,6;,
 3;10,11,8;,
 3;10,8,7;,
 3;12,13,16;,
 3;12,16,15;,
 3;13,14,17;,
 3;13,17,16;,
 3;20,21,19;,
 3;20,19,18;,
 3;22,23,25;,
 3;22,25,24;,
 3;26,27,28;,
 3;26,28,29;,
 3;26,29,31;,
 3;26,31,30;,
 3;34,35,33;,
 3;34,33,32;,
 3;36,37,39;,
 3;36,39,38;,
 3;40,41,43;,
 3;40,43,42;,
 3;44,45,47;,
 3;44,47,46;,
 3;46,47,45;,
 3;46,45,44;,
 3;48,49,45;,
 3;48,45,44;,
 3;44,46,50;,
 3;44,50,51;,
 3;54,55,53;,
 3;54,53,52;,
 3;52,53,55;,
 3;52,55,54;,
 3;52,53,57;,
 3;52,57,56;,
 3;59,58,54;,
 3;59,54,52;,
 3;60,61,63;,
 3;60,63,62;,
 3;62,63,61;,
 3;62,61,60;,
 3;64,65,67;,
 3;64,67,66;,
 3;66,67,65;,
 3;66,65,64;,
 3;68,69,71;,
 3;68,71,70;,
 3;70,71,69;,
 3;70,69,68;,
 3;70,71,73;,
 3;70,73,72;,
 3;72,73,75;,
 3;72,75,74;,
 3;74,75,73;,
 3;74,73,72;,
 3;68,69,75;,
 3;68,75,74;,
 3;76,77,79;,
 3;76,79,78;,
 3;78,79,77;,
 3;78,77,76;,
 3;78,79,81;,
 3;78,81,80;,
 3;80,81,83;,
 3;80,83,82;,
 3;82,83,81;,
 3;82,81,80;,
 3;76,77,83;,
 3;76,83,82;,
 3;84,85,87;,
 3;84,87,86;;

 MeshMaterialList  {
  15;
  80;
  0,
  0,
  0,
  0,
  0,
  0,
  0,
  0,
  0,
  0,
  0,
  0,
  1,
  1,
  1,
  1,
  2,
  2,
  3,
  3,
  4,
  4,
  4,
  4,
  5,
  5,
  6,
  6,
  7,
  7,
  8,
  8,
  8,
  8,
  8,
  8,
  8,
  8,
  9,
  9,
  9,
  9,
  9,
  9,
  9,
  9,
  10,
  10,
  10,
  10,
  11,
  11,
  11,
  11,
  12,
  12,
  12,
  12,
  12,
  12,
  12,
  12,
  12,
  12,
  12,
  12,
  13,
  13,
  13,
  13,
  13,
  13,
  13,
  13,
  13,
  13,
  13,
  13,
  14,
  14;

  Material  {
   1.000000;1.000000;1.000000;1.000000;;
   0.000000;
   0.000000;0.000000;0.000000;;
   0.000000;0.000000;0.000000;;

   TextureFilename  {
    "FormSide1.png";
   }
  }

  Material  {
   1.000000;1.000000;1.000000;1.000000;;
   0.000000;
   0.000000;0.000000;0.000000;;
   0.000000;0.000000;0.000000;;

   TextureFilename  {
    "FormSide1.png";
   }
  }

  Material  {
   1.000000;1.000000;1.000000;1.000000;;
   0.000000;
   0.000000;0.000000;0.000000;;
   0.000000;0.000000;0.000000;;

   TextureFilename  {
    "FormSide2.png";
   }
  }

  Material  {
   1.000000;1.000000;1.000000;1.000000;;
   0.000000;
   0.000000;0.000000;0.000000;;
   0.000000;0.000000;0.000000;;

   TextureFilename  {
    "FormSide2.png";
   }
  }

  Material  {
   1.000000;1.000000;1.000000;1.000000;;
   0.000000;
   0.000000;0.000000;0.000000;;
   0.000000;0.000000;0.000000;;

   TextureFilename  {
    "FormC.png";
   }
  }

  Material  {
   1.000000;1.000000;1.000000;1.000000;;
   0.000000;
   0.000000;0.000000;0.000000;;
   0.000000;0.000000;0.000000;;

   TextureFilename  {
    "FormSide3.png";
   }
  }

  Material  {
   1.000000;1.000000;1.000000;1.000000;;
   0.000000;
   0.000000;0.000000;0.000000;;
   0.000000;0.000000;0.000000;;

   TextureFilename  {
    "FormSide3.png";
   }
  }

  Material  {
   1.000000;1.000000;1.000000;1.000000;;
   0.000000;
   0.000000;0.000000;0.000000;;
   0.000000;0.000000;0.000000;;

   TextureFilename  {
    "FormC2.png";
   }
  }

  Material  {
   1.000000;1.000000;1.000000;1.000000;;
   0.000000;
   0.000000;0.000000;0.000000;;
   0.000000;0.000000;0.000000;;

   TextureFilename  {
    "Concrete.png";
   }
  }

  Material  {
   1.000000;1.000000;1.000000;1.000000;;
   0.000000;
   0.000000;0.000000;0.000000;;
   0.000000;0.000000;0.000000;;

   TextureFilename  {
    "Concrete.png";
   }
  }

  Material  {
   1.000000;1.000000;1.000000;1.000000;;
   0.000000;
   0.000000;0.000000;0.000000;;
   0.000000;0.000000;0.000000;;

   TextureFilename  {
    "Kaidan1.png";
   }
  }

  Material  {
   1.000000;1.000000;1.000000;1.000000;;
   0.000000;
   0.000000;0.000000;0.000000;;
   0.000000;0.000000;0.000000;;

   TextureFilename  {
    "Kaidan1.png";
   }
  }

  Material  {
   1.000000;1.000000;1.000000;1.000000;;
   0.000000;
   0.000000;0.000000;0.000000;;
   0.000000;0.000000;0.000000;;

   TextureFilename  {
    "Saku1.png";
   }
  }

  Material  {
   0.250980;0.250980;0.250980;0.250980;;
   0.000000;
   0.000000;0.000000;0.000000;;
   0.000000;0.000000;0.000000;;
  }

  Material  {
   1.000000;1.000000;1.000000;1.000000;;
   0.000000;
   0.000000;0.000000;0.000000;;
   0.000000;0.000000;0.000000;;

   TextureFilename  {
    "Light1.png";
   }
  }
 }

 MeshTextureCoords  {
  88;
  0.000000;1.000000;,
  0.000000;0.440000;,
  0.000000;0.000000;,
  1.000000;1.000000;,
  1.000000;0.440000;,
  1.000000;0.000000;,
  2.000000;1.000000;,
  2.000000;0.440000;,
  2.000000;0.000000;,
  3.000000;1.000000;,
  3.000000;0.440000;,
  3.000000;0.000000;,
  0.000000;1.000000;,
  0.000000;0.440000;,
  0.000000;0.000000;,
  3.000000;1.000000;,
  3.000000;0.440000;,
  3.000000;0.000000;,
  0.600000;1.000000;,
  0.600000;0.000000;,
  0.900000;1.000000;,
  0.900000;0.000000;,
  0.100000;1.000000;,
  0.100000;0.000000;,
  0.230000;1.000000;,
  0.280000;0.000000;,
  1.000000;0.000000;,
  1.000000;0.500000;,
  1.000000;1.000000;,
  1.000000;1.500000;,
  0.000000;0.000000;,
  0.000000;0.500000;,
  0.000000;0.970000;,
  0.000000;0.030000;,
  0.100000;0.970000;,
  0.100000;0.030000;,
  0.000000;0.970000;,
  0.000000;0.030000;,
  0.100000;0.970000;,
  0.100000;0.030000;,
  0.000000;1.000000;,
  0.000000;0.000000;,
  1.000000;1.000000;,
  1.000000;0.000000;,
  0.500000;0.950000;,
  0.900000;0.950000;,
  0.400000;0.000000;,
  0.900000;0.000000;,
  0.650000;0.950000;,
  0.900000;0.950000;,
  0.450000;0.000000;,
  0.450000;0.950000;,
  0.560000;0.950000;,
  0.900000;0.950000;,
  0.400000;0.000000;,
  0.900000;0.000000;,
  0.560000;0.950000;,
  0.900000;0.950000;,
  0.000000;0.000000;,
  0.200000;0.950000;,
  0.000000;1.000000;,
  0.000000;0.000000;,
  0.990000;1.000000;,
  0.990000;0.000000;,
  0.000000;1.000000;,
  0.000000;0.000000;,
  0.990000;1.000000;,
  0.990000;0.000000;,
  0.060000;1.000000;,
  0.060000;0.000000;,
  3.060000;1.000000;,
  3.060000;0.000000;,
  0.060000;1.000000;,
  0.060000;0.000000;,
  3.060000;1.000000;,
  3.060000;0.000000;,
  0.000000;0.000000;,
  0.000000;0.000000;,
  0.000000;0.000000;,
  0.000000;0.000000;,
  0.000000;0.000000;,
  0.000000;0.000000;,
  0.000000;0.000000;,
  0.000000;0.000000;,
  0.000000;1.000000;,
  0.000000;0.000000;,
  1.000000;1.000000;,
  1.000000;0.000000;;
 }

 MeshNormals  {
  80;
  -0.999992;0.000000;-0.004104;,
  -0.999992;0.000000;-0.004104;,
  0.000000;1.000000;0.000000;,
  0.000000;1.000000;0.000000;,
  -0.999998;0.000000;-0.002052;,
  -0.999998;0.000000;-0.002052;,
  0.000000;1.000000;0.000000;,
  0.000000;1.000000;0.000000;,
  -1.000000;0.000000;0.000000;,
  -1.000000;0.000000;0.000000;,
  0.000000;1.000000;0.000000;,
  0.000000;1.000000;0.000000;,
  0.997558;0.000000;0.069836;,
  0.997558;0.000000;0.069836;,
  0.000000;1.000000;0.000000;,
  0.000000;1.000000;0.000000;,
  -1.000000;0.000000;0.000000;,
  -1.000000;0.000000;0.000000;,
  0.997559;0.000000;0.069835;,
  0.997559;0.000000;0.069835;,
  0.000000;1.000000;0.000000;,
  0.000000;1.000000;0.000000;,
  0.000000;1.000000;0.000000;,
  0.000000;1.000000;0.000000;,
  -1.000000;0.000000;0.000000;,
  -1.000000;0.000000;0.000000;,
  0.997559;0.000000;0.069829;,
  0.997559;0.000000;0.069829;,
  0.000000;1.000000;0.000000;,
  0.000000;1.000000;0.000000;,
  1.000000;0.000000;0.000000;,
  1.000000;0.000000;0.000000;,
  -1.000000;0.000000;0.000000;,
  -1.000000;0.000000;0.000000;,
  0.000000;1.000000;0.000000;,
  0.000000;1.000000;0.000000;,
  0.000000;0.000000;-1.000000;,
  0.000000;0.000000;-1.000000;,
  -0.997559;0.000000;-0.069824;,
  -0.997559;0.000000;-0.069824;,
  0.997559;0.000000;0.069824;,
  0.997559;0.000000;0.069824;,
  0.000000;1.000000;0.000000;,
  0.000000;1.000000;0.000000;,
  0.000000;0.000000;-1.000000;,
  0.000000;0.000000;-1.000000;,
  -0.997560;0.000000;-0.069812;,
  -0.997560;0.000000;-0.069812;,
  0.997560;0.000000;0.069812;,
  0.997560;0.000000;0.069812;,
  -0.997560;0.000000;-0.069812;,
  -0.997560;0.000000;-0.069812;,
  0.997560;0.000000;0.069812;,
  0.997560;0.000000;0.069812;,
  1.000000;0.000000;0.000000;,
  1.000000;0.000000;0.000000;,
  -1.000000;0.000000;0.000000;,
  -1.000000;0.000000;0.000000;,
  0.000000;0.000000;-1.000000;,
  0.000000;0.000000;-1.000000;,
  -0.997388;0.000000;-0.072225;,
  -0.997388;0.000000;-0.072225;,
  0.997388;0.000000;0.072225;,
  0.997388;0.000000;0.072225;,
  0.000000;0.000000;-1.000000;,
  0.000000;0.000000;-1.000000;,
  1.000000;0.000000;0.000000;,
  1.000000;0.000000;0.000000;,
  -1.000000;0.000000;0.000000;,
  -1.000000;0.000000;0.000000;,
  0.000000;0.000000;-1.000000;,
  0.000000;0.000000;-1.000000;,
  -0.997388;0.000000;-0.072225;,
  -0.997388;0.000000;-0.072225;,
  0.997388;0.000000;0.072225;,
  0.997388;0.000000;0.072225;,
  0.000000;0.000000;-1.000000;,
  0.000000;0.000000;-1.000000;,
  0.000000;0.000000;-1.000000;,
  0.000000;0.000000;-1.000000;;
  80;
  3;0,0,0;,
  3;1,1,1;,
  3;2,2,2;,
  3;3,3,3;,
  3;4,4,4;,
  3;5,5,5;,
  3;6,6,6;,
  3;7,7,7;,
  3;8,8,8;,
  3;9,9,9;,
  3;10,10,10;,
  3;11,11,11;,
  3;12,12,12;,
  3;13,13,13;,
  3;14,14,14;,
  3;15,15,15;,
  3;16,16,16;,
  3;17,17,17;,
  3;18,18,18;,
  3;19,19,19;,
  3;20,20,20;,
  3;21,21,21;,
  3;22,22,22;,
  3;23,23,23;,
  3;24,24,24;,
  3;25,25,25;,
  3;26,26,26;,
  3;27,27,27;,
  3;28,28,28;,
  3;29,29,29;,
  3;30,30,30;,
  3;31,31,31;,
  3;32,32,32;,
  3;33,33,33;,
  3;34,34,34;,
  3;35,35,35;,
  3;36,36,36;,
  3;37,37,37;,
  3;38,38,38;,
  3;39,39,39;,
  3;40,40,40;,
  3;41,41,41;,
  3;42,42,42;,
  3;43,43,43;,
  3;44,44,44;,
  3;45,45,45;,
  3;46,46,46;,
  3;47,47,47;,
  3;48,48,48;,
  3;49,49,49;,
  3;50,50,50;,
  3;51,51,51;,
  3;52,52,52;,
  3;53,53,53;,
  3;54,54,54;,
  3;55,55,55;,
  3;56,56,56;,
  3;57,57,57;,
  3;58,58,58;,
  3;59,59,59;,
  3;60,60,60;,
  3;61,61,61;,
  3;62,62,62;,
  3;63,63,63;,
  3;64,64,64;,
  3;65,65,65;,
  3;66,66,66;,
  3;67,67,67;,
  3;68,68,68;,
  3;69,69,69;,
  3;70,70,70;,
  3;71,71,71;,
  3;72,72,72;,
  3;73,73,73;,
  3;74,74,74;,
  3;75,75,75;,
  3;76,76,76;,
  3;77,77,77;,
  3;78,78,78;,
  3;79,79,79;;
 }
}