xof 0303txt 0032
template Vector {
 <3d82ab5e-62da-11cf-ab39-0020af71e433>
 FLOAT x;
 FLOAT y;
 FLOAT z;
}

template MeshFace {
 <3d82ab5f-62da-11cf-ab39-0020af71e433>
 DWORD nFaceVertexIndices;
 array DWORD faceVertexIndices[nFaceVertexIndices];
}

template Mesh {
 <3d82ab44-62da-11cf-ab39-0020af71e433>
 DWORD nVertices;
 array Vector vertices[nVertices];
 DWORD nFaces;
 array MeshFace faces[nFaces];
 [...]
}

template ColorRGBA {
 <35ff44e0-6c7c-11cf-8f52-0040333594a3>
 FLOAT red;
 FLOAT green;
 FLOAT blue;
 FLOAT alpha;
}

template ColorRGB {
 <d3e16e81-7835-11cf-8f52-0040333594a3>
 FLOAT red;
 FLOAT green;
 FLOAT blue;
}

template Material {
 <3d82ab4d-62da-11cf-ab39-0020af71e433>
 ColorRGBA faceColor;
 FLOAT power;
 ColorRGB specularColor;
 ColorRGB emissiveColor;
 [...]
}

template MeshMaterialList {
 <f6f23f42-7686-11cf-8f52-0040333594a3>
 DWORD nMaterials;
 DWORD nFaceIndexes;
 array DWORD faceIndexes[nFaceIndexes];
 [Material <3d82ab4d-62da-11cf-ab39-0020af71e433>]
}

template TextureFilename {
 <a42790e1-7810-11cf-8f52-0040333594a3>
 STRING filename;
}

template Coords2d {
 <f6f23f44-7686-11cf-8f52-0040333594a3>
 FLOAT u;
 FLOAT v;
}

template MeshTextureCoords {
 <f6f23f40-7686-11cf-8f52-0040333594a3>
 DWORD nTextureCoords;
 array Coords2d textureCoords[nTextureCoords];
}

template MeshNormals {
 <f6f23f43-7686-11cf-8f52-0040333594a3>
 DWORD nNormals;
 array Vector normals[nNormals];
 DWORD nFaceNormals;
 array MeshFace faceNormals[nFaceNormals];
}


Mesh  {
 164;
 1.500000;0.850000;0.000000;,
 1.500000;1.100000;0.000000;,
 2.700000;1.100000;0.000000;,
 1.500000;0.850000;25.000000;,
 1.500000;1.100000;25.000000;,
 2.700000;1.100000;25.000000;,
 8.950000;0.850000;0.000000;,
 8.950000;1.100000;0.000000;,
 7.750000;1.100000;0.000000;,
 8.950000;0.850000;25.000000;,
 8.950000;1.100000;25.000000;,
 7.750000;1.100000;25.000000;,
 2.200000;-0.450000;0.000000;,
 2.200000;0.850000;0.000000;,
 2.200000;-0.450000;25.000000;,
 2.200000;0.850000;25.000000;,
 8.250000;-0.450000;0.000000;,
 8.250000;0.850000;0.000000;,
 8.250000;-0.450000;25.000000;,
 8.250000;0.850000;25.000000;,
 2.700000;1.100000;0.000000;,
 2.700000;1.100000;25.000000;,
 3.725000;1.100000;14.000000;,
 3.725000;1.100000;22.000000;,
 6.725000;1.100000;14.000000;,
 6.725000;1.100000;22.000000;,
 7.750000;1.100000;0.000000;,
 7.750000;1.100000;25.000000;,
 4.825000;1.100000;7.000000;,
 4.825000;5.000000;7.000000;,
 5.625000;1.100000;7.000000;,
 5.625000;5.000000;7.000000;,
 3.055000;1.100000;19.500000;,
 3.055000;5.800000;19.500000;,
 3.555000;1.100000;19.500000;,
 3.555000;5.800000;19.500000;,
 7.055000;1.100000;19.500000;,
 7.055000;5.800000;19.500000;,
 7.555000;1.100000;19.500000;,
 7.555000;5.800000;19.500000;,
 4.043000;5.000000;0.000000;,
 4.043000;5.000000;25.000000;,
 6.443000;5.000000;0.000000;,
 6.443000;5.000000;25.000000;,
 4.043000;5.000000;0.000000;,
 4.043000;5.800000;0.000000;,
 4.043000;5.000000;25.000000;,
 4.043000;5.800000;25.000000;,
 6.443000;5.000000;0.000000;,
 6.443000;5.800000;0.000000;,
 6.443000;5.000000;25.000000;,
 6.443000;5.800000;25.000000;,
 1.500000;5.800000;0.000000;,
 1.500000;5.800000;25.000000;,
 8.950200;5.800000;0.000000;,
 8.950200;5.800000;25.000000;,
 1.500000;5.800000;0.000000;,
 1.500000;6.000000;0.000000;,
 1.500000;5.800000;25.000000;,
 1.500000;6.000000;25.000000;,
 8.950200;5.800000;0.000000;,
 8.950200;6.000000;0.000000;,
 8.950200;5.800000;25.000000;,
 8.950200;6.000000;25.000000;,
 4.825000;5.800000;7.000000;,
 4.825000;7.500000;7.000000;,
 5.625000;5.800000;7.000000;,
 5.625000;7.500000;7.000000;,
 3.055000;5.800000;19.500000;,
 3.055000;7.500000;19.500000;,
 3.555000;5.800000;19.500000;,
 3.555000;7.500000;19.500000;,
 7.055000;5.800000;19.500000;,
 7.055000;7.500000;19.500000;,
 7.555000;5.800000;19.500000;,
 7.555000;7.500000;19.500000;,
 3.305000;6.700000;-5.500000;,
 3.305000;7.500000;-5.500000;,
 5.240000;6.700000;7.000000;,
 5.240000;7.500000;7.000000;,
 3.305000;6.700000;19.500000;,
 3.305000;7.500000;19.500000;,
 7.305000;6.700000;-5.500000;,
 7.305000;7.500000;-5.500000;,
 5.240000;6.700000;7.000000;,
 5.240000;7.500000;7.000000;,
 7.305000;6.700000;19.500000;,
 7.305000;7.500000;19.500000;,
 3.305000;7.100000;-5.500000;,
 3.305000;7.500000;-5.500000;,
 3.305000;7.100000;19.500000;,
 3.305000;7.500000;19.500000;,
 7.305000;7.100000;-5.500000;,
 7.305000;7.500000;-5.500000;,
 7.305000;7.100000;19.500000;,
 7.305000;7.500000;19.500000;,
 3.221000;5.800000;0.750000;,
 3.221000;7.500000;0.750000;,
 7.389000;5.800000;0.750000;,
 7.389000;7.500000;0.750000;,
 3.221000;5.800000;5.000000;,
 3.221000;7.500000;5.000000;,
 7.389000;5.800000;5.000000;,
 7.389000;7.500000;5.000000;,
 3.221000;5.800000;9.000000;,
 3.221000;7.500000;9.000000;,
 7.389000;5.800000;9.000000;,
 7.389000;7.500000;9.000000;,
 3.221000;5.800000;13.250000;,
 3.221000;7.500000;13.250000;,
 7.389000;5.800000;13.250000;,
 7.389000;7.500000;13.250000;,
 3.221000;5.800000;17.500000;,
 3.221000;7.500000;17.500000;,
 7.389000;5.800000;17.500000;,
 7.389000;7.500000;17.500000;,
 3.221000;5.800000;21.500000;,
 3.221000;7.500000;21.500000;,
 7.389000;5.800000;21.500000;,
 7.389000;7.500000;21.500000;,
 3.725000;-3.000000;14.000000;,
 3.725000;1.100000;14.000000;,
 3.725000;-3.000000;22.000000;,
 3.725000;1.100000;22.000000;,
 6.725000;-3.000000;14.000000;,
 6.725000;1.100000;14.000000;,
 6.725000;-3.000000;22.000000;,
 6.725000;1.100000;22.000000;,
 3.725000;1.100000;14.000000;,
 3.725000;2.300000;14.000000;,
 3.725000;1.100000;22.000000;,
 3.725000;2.300000;22.000000;,
 6.725000;1.100000;14.000000;,
 6.725000;2.300000;14.000000;,
 6.725000;1.100000;22.000000;,
 6.725000;2.300000;22.000000;,
 3.586200;1.100000;22.000000;,
 3.586200;2.300000;22.000000;,
 3.786200;1.100000;22.000000;,
 3.786200;2.300000;22.000000;,
 6.626200;1.100000;22.000000;,
 6.626200;2.300000;22.000000;,
 6.826200;1.100000;22.000000;,
 6.826200;2.300000;22.000000;,
 4.225000;1.100000;8.800000;,
 4.225000;4.000000;8.800000;,
 4.225000;1.100000;11.200000;,
 4.225000;4.000000;11.200000;,
 6.225000;1.100000;8.800000;,
 6.225000;4.000000;8.800000;,
 6.225000;1.100000;11.200000;,
 6.225000;4.000000;11.200000;,
 4.223000;1.100000;8.900000;,
 4.223000;3.600000;8.900000;,
 4.223000;1.100000;10.000000;,
 4.223000;3.600000;10.000000;,
 6.227000;1.100000;8.900000;,
 6.227000;3.600000;8.900000;,
 6.227000;1.100000;10.000000;,
 6.227000;3.600000;10.000000;,
 3.900000;4.600000;22.000000;,
 3.900000;5.800000;22.000000;,
 6.600000;4.600000;22.000000;,
 6.600000;5.800000;22.000000;;
 122;
 3;3,4,1;,
 3;3,1,0;,
 3;4,5,2;,
 3;4,2,1;,
 3;6,7,10;,
 3;6,10,9;,
 3;7,8,11;,
 3;7,11,10;,
 3;14,15,13;,
 3;14,13,12;,
 3;16,17,19;,
 3;16,19,18;,
 3;20,21,23;,
 3;20,23,22;,
 3;24,25,27;,
 3;24,27,26;,
 3;20,22,24;,
 3;20,24,26;,
 3;27,25,23;,
 3;27,23,21;,
 3;28,29,31;,
 3;28,31,30;,
 3;32,33,35;,
 3;32,35,34;,
 3;36,37,39;,
 3;36,39,38;,
 3;42,43,41;,
 3;42,41,40;,
 3;46,47,45;,
 3;46,45,44;,
 3;48,49,51;,
 3;48,51,50;,
 3;54,55,53;,
 3;54,53,52;,
 3;58,59,57;,
 3;58,57,56;,
 3;60,61,63;,
 3;60,63,62;,
 3;64,65,67;,
 3;64,67,66;,
 3;68,69,71;,
 3;68,71,70;,
 3;72,73,75;,
 3;72,75,74;,
 3;76,77,79;,
 3;76,79,78;,
 3;78,79,77;,
 3;78,77,76;,
 3;78,79,81;,
 3;78,81,80;,
 3;80,81,79;,
 3;80,79,78;,
 3;82,83,85;,
 3;82,85,84;,
 3;84,85,83;,
 3;84,83,82;,
 3;84,85,87;,
 3;84,87,86;,
 3;86,87,85;,
 3;86,85,84;,
 3;88,89,91;,
 3;88,91,90;,
 3;90,91,89;,
 3;90,89,88;,
 3;92,93,95;,
 3;92,95,94;,
 3;94,95,93;,
 3;94,93,92;,
 3;96,97,99;,
 3;96,99,98;,
 3;98,99,97;,
 3;98,97,96;,
 3;100,101,103;,
 3;100,103,102;,
 3;102,103,101;,
 3;102,101,100;,
 3;104,105,107;,
 3;104,107,106;,
 3;106,107,105;,
 3;106,105,104;,
 3;108,109,111;,
 3;108,111,110;,
 3;110,111,109;,
 3;110,109,108;,
 3;112,113,115;,
 3;112,115,114;,
 3;114,115,113;,
 3;114,113,112;,
 3;116,117,119;,
 3;116,119,118;,
 3;118,119,117;,
 3;118,117,116;,
 3;120,121,123;,
 3;120,123,122;,
 3;126,127,125;,
 3;126,125,124;,
 3;128,129,131;,
 3;128,131,130;,
 3;130,131,129;,
 3;130,129,128;,
 3;128,129,133;,
 3;128,133,132;,
 3;134,135,133;,
 3;134,133,132;,
 3;132,133,135;,
 3;132,135,134;,
 3;136,137,139;,
 3;136,139,138;,
 3;140,141,143;,
 3;140,143,142;,
 3;146,147,145;,
 3;146,145,144;,
 3;144,145,149;,
 3;144,149,148;,
 3;148,149,151;,
 3;148,151,150;,
 3;154,155,153;,
 3;154,153,152;,
 3;156,157,159;,
 3;156,159,158;,
 3;160,161,163;,
 3;160,163,162;;

 MeshMaterialList  {
  33;
  122;
  0,
  0,
  0,
  0,
  1,
  1,
  1,
  1,
  2,
  2,
  3,
  3,
  4,
  4,
  4,
  4,
  4,
  4,
  4,
  4,
  5,
  5,
  6,
  6,
  7,
  7,
  8,
  8,
  9,
  9,
  9,
  9,
  10,
  10,
  11,
  11,
  11,
  11,
  12,
  12,
  13,
  13,
  14,
  14,
  15,
  15,
  15,
  15,
  15,
  15,
  15,
  15,
  16,
  16,
  16,
  16,
  16,
  16,
  16,
  16,
  17,
  17,
  17,
  17,
  18,
  18,
  18,
  18,
  19,
  19,
  19,
  19,
  20,
  20,
  20,
  20,
  21,
  21,
  21,
  21,
  22,
  22,
  22,
  22,
  23,
  23,
  23,
  23,
  24,
  24,
  24,
  24,
  25,
  25,
  25,
  25,
  26,
  26,
  26,
  26,
  26,
  26,
  26,
  26,
  26,
  26,
  27,
  27,
  28,
  28,
  29,
  29,
  29,
  29,
  29,
  29,
  30,
  30,
  31,
  31,
  32,
  32;

  Material  {
   1.000000;1.000000;1.000000;1.000000;;
   0.000000;
   0.000000;0.000000;0.000000;;
   0.000000;0.000000;0.000000;;

   TextureFilename  {
    "FormSide1.png";
   }
  }

  Material  {
   1.000000;1.000000;1.000000;1.000000;;
   0.000000;
   0.000000;0.000000;0.000000;;
   0.000000;0.000000;0.000000;;

   TextureFilename  {
    "FormSide1.png";
   }
  }

  Material  {
   1.000000;1.000000;1.000000;1.000000;;
   0.000000;
   0.000000;0.000000;0.000000;;
   0.000000;0.000000;0.000000;;

   TextureFilename  {
    "FormSide2.png";
   }
  }

  Material  {
   1.000000;1.000000;1.000000;1.000000;;
   0.000000;
   0.000000;0.000000;0.000000;;
   0.000000;0.000000;0.000000;;

   TextureFilename  {
    "FormSide2.png";
   }
  }

  Material  {
   1.000000;1.000000;1.000000;1.000000;;
   0.000000;
   0.000000;0.000000;0.000000;;
   0.000000;0.000000;0.000000;;

   TextureFilename  {
    "FormC.png";
   }
  }

  Material  {
   1.000000;1.000000;1.000000;1.000000;;
   0.000000;
   0.000000;0.000000;0.000000;;
   0.000000;0.000000;0.000000;;

   TextureFilename  {
    "RoofPier1.png";
   }
  }

  Material  {
   1.000000;1.000000;1.000000;1.000000;;
   0.000000;
   0.000000;0.000000;0.000000;;
   0.000000;0.000000;0.000000;;

   TextureFilename  {
    "RoofPier3.png";
   }
  }

  Material  {
   1.000000;1.000000;1.000000;1.000000;;
   0.000000;
   0.000000;0.000000;0.000000;;
   0.000000;0.000000;0.000000;;

   TextureFilename  {
    "RoofPier3.png";
   }
  }

  Material  {
   1.000000;1.000000;1.000000;1.000000;;
   0.000000;
   0.000000;0.000000;0.000000;;
   0.000000;0.000000;0.000000;;

   TextureFilename  {
    "RoofPlate1.png";
   }
  }

  Material  {
   1.000000;1.000000;1.000000;1.000000;;
   0.000000;
   0.000000;0.000000;0.000000;;
   0.000000;0.000000;0.000000;;

   TextureFilename  {
    "RoofSide1.png";
   }
  }

  Material  {
   1.000000;1.000000;1.000000;1.000000;;
   0.000000;
   0.000000;0.000000;0.000000;;
   0.000000;0.000000;0.000000;;

   TextureFilename  {
    "RoofPlate2.png";
   }
  }

  Material  {
   1.000000;1.000000;1.000000;1.000000;;
   0.000000;
   0.000000;0.000000;0.000000;;
   0.000000;0.000000;0.000000;;

   TextureFilename  {
    "RoofSide2.png";
   }
  }

  Material  {
   1.000000;1.000000;1.000000;1.000000;;
   0.000000;
   0.000000;0.000000;0.000000;;
   0.000000;0.000000;0.000000;;

   TextureFilename  {
    "Pole_Iron1.png";
   }
  }

  Material  {
   1.000000;1.000000;1.000000;1.000000;;
   0.000000;
   0.000000;0.000000;0.000000;;
   0.000000;0.000000;0.000000;;

   TextureFilename  {
    "RoofPier4.png";
   }
  }

  Material  {
   1.000000;1.000000;1.000000;1.000000;;
   0.000000;
   0.000000;0.000000;0.000000;;
   0.000000;0.000000;0.000000;;

   TextureFilename  {
    "RoofPier4.png";
   }
  }

  Material  {
   1.000000;1.000000;1.000000;1.000000;;
   0.000000;
   0.000000;0.000000;0.000000;;
   0.000000;0.000000;0.000000;;

   TextureFilename  {
    "Iron1.png";
   }
  }

  Material  {
   1.000000;1.000000;1.000000;1.000000;;
   0.000000;
   0.000000;0.000000;0.000000;;
   0.000000;0.000000;0.000000;;

   TextureFilename  {
    "Iron1.png";
   }
  }

  Material  {
   1.000000;1.000000;1.000000;1.000000;;
   0.000000;
   0.000000;0.000000;0.000000;;
   0.000000;0.000000;0.000000;;

   TextureFilename  {
    "Iron1.png";
   }
  }

  Material  {
   1.000000;1.000000;1.000000;1.000000;;
   0.000000;
   0.000000;0.000000;0.000000;;
   0.000000;0.000000;0.000000;;

   TextureFilename  {
    "Iron1.png";
   }
  }

  Material  {
   1.000000;1.000000;1.000000;1.000000;;
   0.000000;
   0.000000;0.000000;0.000000;;
   0.000000;0.000000;0.000000;;

   TextureFilename  {
    "Iron3.png";
   }
  }

  Material  {
   1.000000;1.000000;1.000000;1.000000;;
   0.000000;
   0.000000;0.000000;0.000000;;
   0.000000;0.000000;0.000000;;

   TextureFilename  {
    "Iron3.png";
   }
  }

  Material  {
   1.000000;1.000000;1.000000;1.000000;;
   0.000000;
   0.000000;0.000000;0.000000;;
   0.000000;0.000000;0.000000;;

   TextureFilename  {
    "Iron3.png";
   }
  }

  Material  {
   1.000000;1.000000;1.000000;1.000000;;
   0.000000;
   0.000000;0.000000;0.000000;;
   0.000000;0.000000;0.000000;;

   TextureFilename  {
    "Iron3.png";
   }
  }

  Material  {
   1.000000;1.000000;1.000000;1.000000;;
   0.000000;
   0.000000;0.000000;0.000000;;
   0.000000;0.000000;0.000000;;

   TextureFilename  {
    "Iron3.png";
   }
  }

  Material  {
   1.000000;1.000000;1.000000;1.000000;;
   0.000000;
   0.000000;0.000000;0.000000;;
   0.000000;0.000000;0.000000;;

   TextureFilename  {
    "Iron3.png";
   }
  }

  Material  {
   1.000000;1.000000;1.000000;1.000000;;
   0.000000;
   0.000000;0.000000;0.000000;;
   0.000000;0.000000;0.000000;;

   TextureFilename  {
    "KaidanWall.png";
   }
  }

  Material  {
   1.000000;1.000000;1.000000;1.000000;;
   0.000000;
   0.000000;0.000000;0.000000;;
   0.000000;0.000000;0.000000;;

   TextureFilename  {
    "KaidanSaku1.png";
   }
  }

  Material  {
   1.000000;1.000000;1.000000;1.000000;;
   0.000000;
   0.000000;0.000000;0.000000;;
   0.000000;0.000000;0.000000;;

   TextureFilename  {
    "KaidanSaku2.png";
   }
  }

  Material  {
   1.000000;1.000000;1.000000;1.000000;;
   0.000000;
   0.000000;0.000000;0.000000;;
   0.000000;0.000000;0.000000;;

   TextureFilename  {
    "KaidanSaku2.png";
   }
  }

  Material  {
   1.000000;1.000000;1.000000;1.000000;;
   0.000000;
   0.000000;0.000000;0.000000;;
   0.000000;0.000000;0.000000;;

   TextureFilename  {
    "Kiosk.png";
   }
  }

  Material  {
   1.000000;1.000000;1.000000;1.000000;;
   0.000000;
   0.000000;0.000000;0.000000;;
   0.000000;0.000000;0.000000;;

   TextureFilename  {
    "Dispenser.png";
   }
  }

  Material  {
   1.000000;1.000000;1.000000;1.000000;;
   0.000000;
   0.000000;0.000000;0.000000;;
   0.000000;0.000000;0.000000;;

   TextureFilename  {
    "Dispenser.png";
   }
  }

  Material  {
   1.000000;1.000000;1.000000;1.000000;;
   0.000000;
   0.000000;0.000000;0.000000;;
   0.000000;0.000000;0.000000;;

   TextureFilename  {
    "Annai.png";
   }
  }
 }

 MeshTextureCoords  {
  164;
  0.000000;1.000000;,
  0.000000;0.440000;,
  0.000000;0.000000;,
  5.000000;1.000000;,
  5.000000;0.440000;,
  5.000000;0.000000;,
  0.000000;1.000000;,
  0.000000;0.440000;,
  0.000000;0.000000;,
  5.000000;1.000000;,
  5.000000;0.440000;,
  5.000000;0.000000;,
  0.600000;1.000000;,
  0.600000;0.000000;,
  0.900000;1.000000;,
  0.900000;0.000000;,
  0.100000;1.000000;,
  0.100000;0.000000;,
  0.200000;1.000000;,
  0.200000;0.000000;,
  1.000000;0.000000;,
  1.000000;2.500000;,
  0.800000;1.400000;,
  0.800000;2.200000;,
  0.200000;1.400000;,
  0.200000;2.200000;,
  0.000000;0.000000;,
  0.000000;2.500000;,
  0.000000;1.000000;,
  0.000000;0.050000;,
  1.000000;1.000000;,
  1.000000;0.050000;,
  0.000000;0.500000;,
  0.000000;0.050000;,
  1.000000;0.500000;,
  1.000000;0.050000;,
  0.000000;1.000000;,
  0.000000;0.050000;,
  1.000000;1.000000;,
  1.000000;0.050000;,
  0.000000;0.792000;,
  0.000000;4.392000;,
  0.100000;0.792000;,
  0.100000;4.392000;,
  0.000000;1.000000;,
  0.000000;0.000000;,
  0.100000;1.000000;,
  0.100000;0.000000;,
  0.200000;1.000000;,
  0.200000;0.000000;,
  0.300000;1.000000;,
  0.300000;0.000000;,
  0.000000;0.000000;,
  0.000000;3.000000;,
  0.100000;0.000000;,
  0.100000;3.000000;,
  0.000000;1.000000;,
  0.000000;0.000000;,
  0.100000;1.000000;,
  0.100000;0.000000;,
  0.000000;1.000000;,
  0.000000;0.000000;,
  0.100000;1.000000;,
  0.100000;0.000000;,
  1.000000;1.000000;,
  0.000000;1.000000;,
  1.000000;0.000000;,
  0.000000;0.000000;,
  0.000000;0.000000;,
  0.000000;1.000000;,
  1.000000;0.000000;,
  1.000000;1.000000;,
  0.000000;0.000000;,
  0.000000;1.000000;,
  1.000000;0.000000;,
  1.000000;1.000000;,
  0.000000;1.000000;,
  0.000000;0.000000;,
  0.100000;1.000000;,
  0.100000;0.000000;,
  0.200000;1.000000;,
  0.200000;0.000000;,
  0.000000;1.000000;,
  0.000000;0.000000;,
  0.100000;1.000000;,
  0.100000;0.000000;,
  0.200000;1.000000;,
  0.200000;0.000000;,
  0.000000;1.000000;,
  0.000000;0.000000;,
  0.100000;1.000000;,
  0.100000;0.000000;,
  0.000000;1.000000;,
  0.000000;0.000000;,
  0.100000;1.000000;,
  0.100000;0.000000;,
  0.990000;1.000000;,
  0.990000;0.000000;,
  0.010000;1.000000;,
  0.010000;0.000000;,
  0.990000;1.000000;,
  0.990000;0.000000;,
  0.010000;1.000000;,
  0.010000;0.000000;,
  0.990000;1.000000;,
  0.990000;0.000000;,
  0.010000;1.000000;,
  0.010000;0.000000;,
  0.990000;1.000000;,
  0.990000;0.000000;,
  0.010000;1.000000;,
  0.010000;0.000000;,
  0.990000;1.000000;,
  0.990000;0.000000;,
  0.010000;1.000000;,
  0.010000;0.000000;,
  0.990000;1.000000;,
  0.990000;0.000000;,
  0.010000;1.000000;,
  0.010000;0.000000;,
  0.000000;1.000000;,
  0.000000;0.000000;,
  0.100000;1.000000;,
  0.100000;0.000000;,
  0.200000;1.000000;,
  0.200000;0.000000;,
  0.300000;1.000000;,
  0.300000;0.000000;,
  4.000000;1.000000;,
  4.000000;0.000000;,
  0.000000;1.000000;,
  0.000000;0.000000;,
  6.000000;1.000000;,
  6.000000;0.000000;,
  10.000000;1.000000;,
  10.000000;0.000000;,
  1.000000;1.000000;,
  1.000000;0.000000;,
  0.000000;1.000000;,
  0.000000;0.000000;,
  0.000000;1.000000;,
  0.000000;0.000000;,
  1.000000;1.000000;,
  1.000000;0.000000;,
  1.000000;1.000000;,
  1.000000;0.000000;,
  0.000000;1.000000;,
  0.000000;0.000000;,
  2.000000;1.000000;,
  2.000000;0.000000;,
  3.000000;1.000000;,
  3.000000;0.000000;,
  1.000000;1.000000;,
  1.000000;0.000000;,
  0.312500;1.000000;,
  0.312500;0.000000;,
  0.312500;1.000000;,
  0.312500;0.000000;,
  1.000000;1.000000;,
  1.000000;0.000000;,
  0.000000;1.000000;,
  0.000000;0.000000;,
  1.000000;1.000000;,
  1.000000;0.000000;;
 }

 MeshNormals  {
  122;
  -1.000000;0.000000;0.000000;,
  -1.000000;0.000000;0.000000;,
  0.000000;1.000000;0.000000;,
  0.000000;1.000000;0.000000;,
  1.000000;0.000000;0.000000;,
  1.000000;0.000000;0.000000;,
  0.000000;1.000000;0.000000;,
  0.000000;1.000000;0.000000;,
  -1.000000;0.000000;0.000000;,
  -1.000000;0.000000;0.000000;,
  1.000000;0.000000;0.000000;,
  1.000000;0.000000;0.000000;,
  0.000000;1.000000;0.000000;,
  0.000000;1.000000;0.000000;,
  0.000000;1.000000;0.000000;,
  0.000000;1.000000;0.000000;,
  0.000000;1.000000;0.000000;,
  0.000000;1.000000;0.000000;,
  0.000000;1.000000;0.000000;,
  0.000000;1.000000;0.000000;,
  0.000000;0.000000;-1.000000;,
  0.000000;0.000000;-1.000000;,
  0.000000;0.000000;-1.000000;,
  0.000000;0.000000;-1.000000;,
  0.000000;0.000000;-1.000000;,
  0.000000;0.000000;-1.000000;,
  0.000000;-1.000000;0.000000;,
  0.000000;-1.000000;0.000000;,
  -1.000000;0.000000;0.000000;,
  -1.000000;0.000000;0.000000;,
  1.000000;0.000000;0.000000;,
  1.000000;0.000000;0.000000;,
  0.000000;-1.000000;0.000000;,
  0.000000;-1.000000;0.000000;,
  -1.000000;0.000000;0.000000;,
  -1.000000;0.000000;0.000000;,
  1.000000;0.000000;0.000000;,
  1.000000;0.000000;0.000000;,
  0.000000;0.000000;-1.000000;,
  0.000000;0.000000;-1.000000;,
  0.000000;0.000000;-1.000000;,
  0.000000;0.000000;-1.000000;,
  0.000000;0.000000;-1.000000;,
  0.000000;0.000000;-1.000000;,
  0.988230;0.000000;-0.152978;,
  0.988230;0.000000;-0.152978;,
  -0.988230;0.000000;0.152978;,
  -0.988230;0.000000;0.152978;,
  0.988230;0.000000;0.152978;,
  0.988230;0.000000;0.152978;,
  -0.988230;0.000000;-0.152978;,
  -0.988230;0.000000;-0.152978;,
  0.986628;0.000000;0.162991;,
  0.986628;0.000000;0.162991;,
  -0.986628;0.000000;-0.162991;,
  -0.986628;0.000000;-0.162991;,
  0.986628;0.000000;-0.162991;,
  0.986628;0.000000;-0.162991;,
  -0.986628;0.000000;0.162991;,
  -0.986628;0.000000;0.162991;,
  1.000000;0.000000;0.000000;,
  1.000000;0.000000;0.000000;,
  -1.000000;0.000000;0.000000;,
  -1.000000;0.000000;0.000000;,
  1.000000;0.000000;0.000000;,
  1.000000;0.000000;0.000000;,
  -1.000000;0.000000;0.000000;,
  -1.000000;0.000000;0.000000;,
  0.000000;0.000000;-1.000000;,
  0.000000;0.000000;-1.000000;,
  0.000000;0.000000;1.000000;,
  0.000000;0.000000;1.000000;,
  0.000000;0.000000;-1.000000;,
  0.000000;0.000000;-1.000000;,
  0.000000;0.000000;1.000000;,
  0.000000;0.000000;1.000000;,
  0.000000;0.000000;-1.000000;,
  0.000000;0.000000;-1.000000;,
  0.000000;0.000000;1.000000;,
  0.000000;0.000000;1.000000;,
  0.000000;0.000000;-1.000000;,
  0.000000;0.000000;-1.000000;,
  0.000000;0.000000;1.000000;,
  0.000000;0.000000;1.000000;,
  0.000000;0.000000;-1.000000;,
  0.000000;0.000000;-1.000000;,
  0.000000;0.000000;1.000000;,
  0.000000;0.000000;1.000000;,
  0.000000;0.000000;-1.000000;,
  0.000000;0.000000;-1.000000;,
  0.000000;0.000000;1.000000;,
  0.000000;0.000000;1.000000;,
  1.000000;0.000000;0.000000;,
  1.000000;0.000000;0.000000;,
  -1.000000;0.000000;0.000000;,
  -1.000000;0.000000;0.000000;,
  1.000000;0.000000;0.000000;,
  1.000000;0.000000;0.000000;,
  -1.000000;0.000000;0.000000;,
  -1.000000;0.000000;0.000000;,
  0.000000;0.000000;-1.000000;,
  0.000000;0.000000;-1.000000;,
  -1.000000;0.000000;0.000000;,
  -1.000000;0.000000;0.000000;,
  1.000000;0.000000;0.000000;,
  1.000000;0.000000;0.000000;,
  0.000000;0.000000;-1.000000;,
  0.000000;0.000000;-1.000000;,
  0.000000;0.000000;-1.000000;,
  0.000000;0.000000;-1.000000;,
  -1.000000;0.000000;0.000000;,
  -1.000000;0.000000;0.000000;,
  0.000000;0.000000;-1.000000;,
  0.000000;0.000000;-1.000000;,
  1.000000;0.000000;0.000000;,
  1.000000;0.000000;0.000000;,
  -1.000000;0.000000;0.000000;,
  -1.000000;0.000000;0.000000;,
  1.000000;0.000000;0.000000;,
  1.000000;0.000000;0.000000;,
  0.000000;0.000000;-1.000000;,
  0.000000;0.000000;-1.000000;;
  122;
  3;0,0,0;,
  3;1,1,1;,
  3;2,2,2;,
  3;3,3,3;,
  3;4,4,4;,
  3;5,5,5;,
  3;6,6,6;,
  3;7,7,7;,
  3;8,8,8;,
  3;9,9,9;,
  3;10,10,10;,
  3;11,11,11;,
  3;12,12,12;,
  3;13,13,13;,
  3;14,14,14;,
  3;15,15,15;,
  3;16,16,16;,
  3;17,17,17;,
  3;18,18,18;,
  3;19,19,19;,
  3;20,20,20;,
  3;21,21,21;,
  3;22,22,22;,
  3;23,23,23;,
  3;24,24,24;,
  3;25,25,25;,
  3;26,26,26;,
  3;27,27,27;,
  3;28,28,28;,
  3;29,29,29;,
  3;30,30,30;,
  3;31,31,31;,
  3;32,32,32;,
  3;33,33,33;,
  3;34,34,34;,
  3;35,35,35;,
  3;36,36,36;,
  3;37,37,37;,
  3;38,38,38;,
  3;39,39,39;,
  3;40,40,40;,
  3;41,41,41;,
  3;42,42,42;,
  3;43,43,43;,
  3;44,44,44;,
  3;45,45,45;,
  3;46,46,46;,
  3;47,47,47;,
  3;48,48,48;,
  3;49,49,49;,
  3;50,50,50;,
  3;51,51,51;,
  3;52,52,52;,
  3;53,53,53;,
  3;54,54,54;,
  3;55,55,55;,
  3;56,56,56;,
  3;57,57,57;,
  3;58,58,58;,
  3;59,59,59;,
  3;60,60,60;,
  3;61,61,61;,
  3;62,62,62;,
  3;63,63,63;,
  3;64,64,64;,
  3;65,65,65;,
  3;66,66,66;,
  3;67,67,67;,
  3;68,68,68;,
  3;69,69,69;,
  3;70,70,70;,
  3;71,71,71;,
  3;72,72,72;,
  3;73,73,73;,
  3;74,74,74;,
  3;75,75,75;,
  3;76,76,76;,
  3;77,77,77;,
  3;78,78,78;,
  3;79,79,79;,
  3;80,80,80;,
  3;81,81,81;,
  3;82,82,82;,
  3;83,83,83;,
  3;84,84,84;,
  3;85,85,85;,
  3;86,86,86;,
  3;87,87,87;,
  3;88,88,88;,
  3;89,89,89;,
  3;90,90,90;,
  3;91,91,91;,
  3;92,92,92;,
  3;93,93,93;,
  3;94,94,94;,
  3;95,95,95;,
  3;96,96,96;,
  3;97,97,97;,
  3;98,98,98;,
  3;99,99,99;,
  3;100,100,100;,
  3;101,101,101;,
  3;102,102,102;,
  3;103,103,103;,
  3;104,104,104;,
  3;105,105,105;,
  3;106,106,106;,
  3;107,107,107;,
  3;108,108,108;,
  3;109,109,109;,
  3;110,110,110;,
  3;111,111,111;,
  3;112,112,112;,
  3;113,113,113;,
  3;114,114,114;,
  3;115,115,115;,
  3;116,116,116;,
  3;117,117,117;,
  3;118,118,118;,
  3;119,119,119;,
  3;120,120,120;,
  3;121,121,121;;
 }
}