xof 0303txt 0032
template Vector {
 <3d82ab5e-62da-11cf-ab39-0020af71e433>
 FLOAT x;
 FLOAT y;
 FLOAT z;
}

template MeshFace {
 <3d82ab5f-62da-11cf-ab39-0020af71e433>
 DWORD nFaceVertexIndices;
 array DWORD faceVertexIndices[nFaceVertexIndices];
}

template Mesh {
 <3d82ab44-62da-11cf-ab39-0020af71e433>
 DWORD nVertices;
 array Vector vertices[nVertices];
 DWORD nFaces;
 array MeshFace faces[nFaces];
 [...]
}

template ColorRGBA {
 <35ff44e0-6c7c-11cf-8f52-0040333594a3>
 FLOAT red;
 FLOAT green;
 FLOAT blue;
 FLOAT alpha;
}

template ColorRGB {
 <d3e16e81-7835-11cf-8f52-0040333594a3>
 FLOAT red;
 FLOAT green;
 FLOAT blue;
}

template Material {
 <3d82ab4d-62da-11cf-ab39-0020af71e433>
 ColorRGBA faceColor;
 FLOAT power;
 ColorRGB specularColor;
 ColorRGB emissiveColor;
 [...]
}

template MeshMaterialList {
 <f6f23f42-7686-11cf-8f52-0040333594a3>
 DWORD nMaterials;
 DWORD nFaceIndexes;
 array DWORD faceIndexes[nFaceIndexes];
 [Material <3d82ab4d-62da-11cf-ab39-0020af71e433>]
}

template TextureFilename {
 <a42790e1-7810-11cf-8f52-0040333594a3>
 STRING filename;
}

template Coords2d {
 <f6f23f44-7686-11cf-8f52-0040333594a3>
 FLOAT u;
 FLOAT v;
}

template MeshTextureCoords {
 <f6f23f40-7686-11cf-8f52-0040333594a3>
 DWORD nTextureCoords;
 array Coords2d textureCoords[nTextureCoords];
}

template MeshNormals {
 <f6f23f43-7686-11cf-8f52-0040333594a3>
 DWORD nNormals;
 array Vector normals[nNormals];
 DWORD nFaceNormals;
 array MeshFace faceNormals[nFaceNormals];
}


Mesh  {
 136;
 1.500000;0.850000;-0.049600;,
 1.500000;1.100000;-0.049600;,
 2.700000;1.100000;-0.049600;,
 1.444000;0.850000;4.970100;,
 1.444000;1.100000;4.970100;,
 2.644000;1.100000;4.970100;,
 1.416000;0.850000;9.990000;,
 1.416000;1.100000;9.990000;,
 2.616000;1.100000;9.990000;,
 1.416000;0.850000;15.010000;,
 1.416000;1.100000;15.010000;,
 2.616000;1.100000;15.010000;,
 1.444000;0.850000;20.029900;,
 1.444000;1.100000;20.029900;,
 2.644000;1.100000;20.029900;,
 1.500000;0.850000;25.049601;,
 1.500000;1.100000;25.049601;,
 2.700000;1.100000;25.049601;,
 8.802500;0.850000;0.000000;,
 8.802500;1.100000;0.000000;,
 7.602500;1.100000;0.000000;,
 8.202500;0.850000;25.000000;,
 8.202500;1.100000;25.000000;,
 7.002500;1.100000;25.000000;,
 2.200000;-0.450000;0.000000;,
 2.200000;0.850000;0.000000;,
 2.200000;-0.450000;25.000000;,
 2.200000;0.850000;25.000000;,
 8.102500;-0.450000;0.000000;,
 8.102500;0.850000;0.000000;,
 7.502500;-0.450000;25.000000;,
 7.502500;0.850000;25.000000;,
 2.700000;1.100000;-0.049600;,
 2.644000;1.100000;4.970100;,
 2.616000;1.100000;9.990000;,
 2.616000;1.100000;15.010000;,
 2.644000;1.100000;20.029900;,
 2.700000;1.100000;25.049601;,
 7.602500;1.100000;0.000000;,
 7.002500;1.100000;25.000000;,
 4.562000;1.100000;5.500000;,
 4.562000;5.000000;5.500000;,
 5.362000;1.100000;5.500000;,
 5.362000;5.000000;5.500000;,
 4.562000;1.100000;18.000000;,
 4.562000;5.000000;18.000000;,
 5.362000;1.100000;18.000000;,
 5.362000;5.000000;18.000000;,
 4.062000;5.000000;-7.000000;,
 3.762000;5.000000;5.500000;,
 3.762000;5.000000;18.000000;,
 6.462000;5.000000;-7.000000;,
 6.162000;5.000000;5.500000;,
 6.162000;5.000000;18.000000;,
 4.062000;5.000000;-7.000000;,
 4.062000;5.800000;-7.000000;,
 3.762000;5.000000;5.500000;,
 3.762000;5.800000;5.500000;,
 3.762000;5.000000;18.000000;,
 3.762000;5.800000;18.000000;,
 6.462000;5.000000;-7.000000;,
 6.462000;5.800000;-7.000000;,
 6.162000;5.000000;5.500000;,
 6.162000;5.800000;5.500000;,
 6.162000;5.000000;18.000000;,
 6.162000;5.800000;18.000000;,
 1.500000;5.800000;-0.049600;,
 1.444000;5.800000;4.970100;,
 1.416000;5.800000;9.990000;,
 1.416000;5.800000;15.010000;,
 1.444000;5.800000;20.029900;,
 1.500000;5.800000;25.049601;,
 8.802500;5.800000;0.000000;,
 8.202500;5.800000;25.000000;,
 1.500000;5.800000;-0.049600;,
 1.500000;6.000000;-0.049600;,
 1.444000;5.800000;4.970100;,
 1.444000;6.000000;4.970100;,
 1.416000;5.800000;9.990000;,
 1.416000;6.000000;9.990000;,
 1.416000;5.800000;15.010000;,
 1.416000;6.000000;15.010000;,
 1.444000;5.800000;20.029900;,
 1.444000;6.000000;20.029900;,
 1.500000;5.800000;25.049601;,
 1.500000;6.000000;25.049601;,
 8.802500;5.800000;0.000000;,
 8.802500;6.000000;0.000000;,
 8.202500;5.800000;25.000000;,
 8.202500;6.000000;25.000000;,
 4.562000;5.800000;5.500000;,
 4.562000;7.500000;5.500000;,
 5.362000;5.800000;5.500000;,
 5.362000;7.500000;5.500000;,
 4.562000;5.800000;18.000000;,
 4.562000;7.500000;18.000000;,
 5.362000;5.800000;18.000000;,
 5.362000;7.500000;18.000000;,
 5.108000;6.700000;0.000000;,
 5.108000;7.500000;0.000000;,
 4.976000;6.700000;5.500000;,
 4.976000;7.500000;5.500000;,
 4.995500;6.700000;25.000000;,
 4.995500;7.500000;25.000000;,
 3.157500;7.100000;0.000000;,
 3.157500;7.500000;0.000000;,
 2.557500;7.100000;25.000000;,
 2.557500;7.500000;25.000000;,
 7.157500;7.100000;0.000000;,
 7.157500;7.500000;0.000000;,
 6.557500;7.100000;25.000000;,
 6.557500;7.500000;25.000000;,
 2.989500;5.800000;3.500000;,
 2.989500;7.500000;3.500000;,
 7.157500;5.800000;3.500000;,
 7.157500;7.500000;3.500000;,
 2.893500;5.800000;7.500000;,
 2.893500;7.500000;7.500000;,
 7.061500;5.800000;7.500000;,
 7.061500;7.500000;7.500000;,
 2.791500;5.800000;11.750000;,
 2.791500;7.500000;11.750000;,
 6.959500;5.800000;11.750000;,
 6.959500;7.500000;11.750000;,
 2.689200;5.800000;16.000000;,
 2.689200;7.500000;16.000000;,
 6.857200;5.800000;16.000000;,
 6.857200;7.500000;16.000000;,
 2.593500;5.800000;20.000000;,
 2.593500;7.500000;20.000000;,
 6.761500;5.800000;20.000000;,
 6.761500;7.500000;20.000000;,
 2.545500;5.800000;22.000000;,
 2.545500;7.500000;22.000000;,
 6.713500;5.800000;22.000000;,
 6.713500;7.500000;22.000000;;
 112;
 3;3,4,1;,
 3;3,1,0;,
 3;4,5,2;,
 3;4,2,1;,
 3;6,7,4;,
 3;6,4,3;,
 3;7,8,5;,
 3;7,5,4;,
 3;9,10,7;,
 3;9,7,6;,
 3;10,11,8;,
 3;10,8,7;,
 3;12,13,10;,
 3;12,10,9;,
 3;13,14,11;,
 3;13,11,10;,
 3;15,16,13;,
 3;15,13,12;,
 3;16,17,14;,
 3;16,14,13;,
 3;18,19,22;,
 3;18,22,21;,
 3;19,20,23;,
 3;19,23,22;,
 3;26,27,25;,
 3;26,25,24;,
 3;28,29,31;,
 3;28,31,30;,
 3;32,33,34;,
 3;32,34,35;,
 3;32,35,36;,
 3;32,36,37;,
 3;32,37,39;,
 3;32,39,38;,
 3;40,41,43;,
 3;40,43,42;,
 3;44,45,47;,
 3;44,47,46;,
 3;51,52,49;,
 3;51,49,48;,
 3;52,53,50;,
 3;52,50,49;,
 3;56,57,55;,
 3;56,55,54;,
 3;58,59,57;,
 3;58,57,56;,
 3;60,61,63;,
 3;60,63,62;,
 3;62,63,65;,
 3;62,65,64;,
 3;72,73,71;,
 3;72,71,70;,
 3;72,70,69;,
 3;72,69,68;,
 3;72,68,67;,
 3;72,67,66;,
 3;76,77,75;,
 3;76,75,74;,
 3;78,79,77;,
 3;78,77,76;,
 3;80,81,79;,
 3;80,79,78;,
 3;82,83,81;,
 3;82,81,80;,
 3;84,85,83;,
 3;84,83,82;,
 3;86,87,89;,
 3;86,89,88;,
 3;90,91,93;,
 3;90,93,92;,
 3;94,95,97;,
 3;94,97,96;,
 3;98,99,101;,
 3;98,101,100;,
 3;100,101,99;,
 3;100,99,98;,
 3;100,101,103;,
 3;100,103,102;,
 3;102,103,101;,
 3;102,101,100;,
 3;104,105,107;,
 3;104,107,106;,
 3;106,107,105;,
 3;106,105,104;,
 3;108,109,111;,
 3;108,111,110;,
 3;110,111,109;,
 3;110,109,108;,
 3;112,113,115;,
 3;112,115,114;,
 3;114,115,113;,
 3;114,113,112;,
 3;116,117,119;,
 3;116,119,118;,
 3;118,119,117;,
 3;118,117,116;,
 3;120,121,123;,
 3;120,123,122;,
 3;122,123,121;,
 3;122,121,120;,
 3;124,125,127;,
 3;124,127,126;,
 3;126,127,125;,
 3;126,125,124;,
 3;128,129,131;,
 3;128,131,130;,
 3;130,131,129;,
 3;130,129,128;,
 3;132,133,135;,
 3;132,135,134;,
 3;134,135,133;,
 3;134,133,132;;

 MeshMaterialList  {
  22;
  112;
  0,
  0,
  0,
  0,
  0,
  0,
  0,
  0,
  0,
  0,
  0,
  0,
  0,
  0,
  0,
  0,
  0,
  0,
  0,
  0,
  1,
  1,
  1,
  1,
  2,
  2,
  3,
  3,
  4,
  4,
  4,
  4,
  4,
  4,
  5,
  5,
  6,
  6,
  7,
  7,
  7,
  7,
  8,
  8,
  8,
  8,
  8,
  8,
  8,
  8,
  9,
  9,
  9,
  9,
  9,
  9,
  10,
  10,
  10,
  10,
  10,
  10,
  10,
  10,
  10,
  10,
  10,
  10,
  11,
  11,
  12,
  12,
  13,
  13,
  13,
  13,
  13,
  13,
  13,
  13,
  14,
  14,
  14,
  14,
  15,
  15,
  15,
  15,
  16,
  16,
  16,
  16,
  17,
  17,
  17,
  17,
  18,
  18,
  18,
  18,
  19,
  19,
  19,
  19,
  20,
  20,
  20,
  20,
  21,
  21,
  21,
  21;

  Material  {
   1.000000;1.000000;1.000000;1.000000;;
   0.000000;
   0.000000;0.000000;0.000000;;
   0.000000;0.000000;0.000000;;

   TextureFilename  {
    "FormSide1.png";
   }
  }

  Material  {
   1.000000;1.000000;1.000000;1.000000;;
   0.000000;
   0.000000;0.000000;0.000000;;
   0.000000;0.000000;0.000000;;

   TextureFilename  {
    "FormSide1.png";
   }
  }

  Material  {
   1.000000;1.000000;1.000000;1.000000;;
   0.000000;
   0.000000;0.000000;0.000000;;
   0.000000;0.000000;0.000000;;

   TextureFilename  {
    "FormSide2.png";
   }
  }

  Material  {
   1.000000;1.000000;1.000000;1.000000;;
   0.000000;
   0.000000;0.000000;0.000000;;
   0.000000;0.000000;0.000000;;

   TextureFilename  {
    "FormSide2.png";
   }
  }

  Material  {
   1.000000;1.000000;1.000000;1.000000;;
   0.000000;
   0.000000;0.000000;0.000000;;
   0.000000;0.000000;0.000000;;

   TextureFilename  {
    "FormC.png";
   }
  }

  Material  {
   1.000000;1.000000;1.000000;1.000000;;
   0.000000;
   0.000000;0.000000;0.000000;;
   0.000000;0.000000;0.000000;;

   TextureFilename  {
    "RoofPier1.png";
   }
  }

  Material  {
   1.000000;1.000000;1.000000;1.000000;;
   0.000000;
   0.000000;0.000000;0.000000;;
   0.000000;0.000000;0.000000;;

   TextureFilename  {
    "RoofPier1.png";
   }
  }

  Material  {
   1.000000;1.000000;1.000000;1.000000;;
   0.000000;
   0.000000;0.000000;0.000000;;
   0.000000;0.000000;0.000000;;

   TextureFilename  {
    "RoofPlate1.png";
   }
  }

  Material  {
   1.000000;1.000000;1.000000;1.000000;;
   0.000000;
   0.000000;0.000000;0.000000;;
   0.000000;0.000000;0.000000;;

   TextureFilename  {
    "RoofSide1.png";
   }
  }

  Material  {
   1.000000;1.000000;1.000000;1.000000;;
   0.000000;
   0.000000;0.000000;0.000000;;
   0.000000;0.000000;0.000000;;

   TextureFilename  {
    "RoofPlate2.png";
   }
  }

  Material  {
   1.000000;1.000000;1.000000;1.000000;;
   0.000000;
   0.000000;0.000000;0.000000;;
   0.000000;0.000000;0.000000;;

   TextureFilename  {
    "RoofSide2.png";
   }
  }

  Material  {
   1.000000;1.000000;1.000000;1.000000;;
   0.000000;
   0.000000;0.000000;0.000000;;
   0.000000;0.000000;0.000000;;

   TextureFilename  {
    "Pole_Iron1.png";
   }
  }

  Material  {
   1.000000;1.000000;1.000000;1.000000;;
   0.000000;
   0.000000;0.000000;0.000000;;
   0.000000;0.000000;0.000000;;

   TextureFilename  {
    "Pole_Iron1.png";
   }
  }

  Material  {
   1.000000;1.000000;1.000000;1.000000;;
   0.000000;
   0.000000;0.000000;0.000000;;
   0.000000;0.000000;0.000000;;

   TextureFilename  {
    "Iron1.png";
   }
  }

  Material  {
   1.000000;1.000000;1.000000;1.000000;;
   0.000000;
   0.000000;0.000000;0.000000;;
   0.000000;0.000000;0.000000;;

   TextureFilename  {
    "Iron1.png";
   }
  }

  Material  {
   1.000000;1.000000;1.000000;1.000000;;
   0.000000;
   0.000000;0.000000;0.000000;;
   0.000000;0.000000;0.000000;;

   TextureFilename  {
    "Iron1.png";
   }
  }

  Material  {
   1.000000;1.000000;1.000000;1.000000;;
   0.000000;
   0.000000;0.000000;0.000000;;
   0.000000;0.000000;0.000000;;

   TextureFilename  {
    "Iron3.png";
   }
  }

  Material  {
   1.000000;1.000000;1.000000;1.000000;;
   0.000000;
   0.000000;0.000000;0.000000;;
   0.000000;0.000000;0.000000;;

   TextureFilename  {
    "Iron3.png";
   }
  }

  Material  {
   1.000000;1.000000;1.000000;1.000000;;
   0.000000;
   0.000000;0.000000;0.000000;;
   0.000000;0.000000;0.000000;;

   TextureFilename  {
    "Iron3.png";
   }
  }

  Material  {
   1.000000;1.000000;1.000000;1.000000;;
   0.000000;
   0.000000;0.000000;0.000000;;
   0.000000;0.000000;0.000000;;

   TextureFilename  {
    "Iron3.png";
   }
  }

  Material  {
   1.000000;1.000000;1.000000;1.000000;;
   0.000000;
   0.000000;0.000000;0.000000;;
   0.000000;0.000000;0.000000;;

   TextureFilename  {
    "Iron3.png";
   }
  }

  Material  {
   1.000000;1.000000;1.000000;1.000000;;
   0.000000;
   0.000000;0.000000;0.000000;;
   0.000000;0.000000;0.000000;;

   TextureFilename  {
    "Iron3.png";
   }
  }
 }

 MeshTextureCoords  {
  136;
  0.000000;1.000000;,
  0.000000;0.440000;,
  0.000000;0.000000;,
  1.000000;1.000000;,
  1.000000;0.440000;,
  1.000000;0.000000;,
  2.000000;1.000000;,
  2.000000;0.440000;,
  2.000000;0.000000;,
  3.000000;1.000000;,
  3.000000;0.440000;,
  3.000000;0.000000;,
  4.000000;1.000000;,
  4.000000;0.440000;,
  4.000000;0.000000;,
  5.000000;1.000000;,
  5.000000;0.440000;,
  5.000000;0.000000;,
  0.000000;1.000000;,
  0.000000;0.440000;,
  0.000000;0.000000;,
  5.000000;1.000000;,
  5.000000;0.440000;,
  5.000000;0.000000;,
  0.600000;1.000000;,
  0.600000;0.000000;,
  0.900000;1.000000;,
  0.900000;0.000000;,
  0.100000;1.000000;,
  0.100000;0.000000;,
  0.200000;1.000000;,
  0.200000;0.000000;,
  1.000000;0.000000;,
  1.000000;0.500000;,
  1.000000;1.000000;,
  1.000000;1.500000;,
  1.000000;2.000000;,
  1.000000;2.500000;,
  0.000000;0.000000;,
  0.000000;2.500000;,
  0.000000;0.950000;,
  0.000000;0.100000;,
  1.000000;0.950000;,
  1.000000;0.100000;,
  0.000000;0.950000;,
  0.000000;0.100000;,
  1.000000;0.950000;,
  1.000000;0.100000;,
  0.000000;0.584000;,
  0.000000;2.384000;,
  0.000000;4.184000;,
  0.100000;0.584000;,
  0.100000;2.384000;,
  0.100000;4.184000;,
  0.000000;1.000000;,
  0.000000;0.000000;,
  0.100000;1.000000;,
  0.100000;0.000000;,
  0.200000;1.000000;,
  0.200000;0.000000;,
  0.300000;1.000000;,
  0.300000;0.000000;,
  0.400000;1.000000;,
  0.400000;0.000000;,
  0.500000;1.000000;,
  0.500000;0.000000;,
  0.000000;0.000000;,
  0.000000;0.600000;,
  0.000000;1.200000;,
  0.000000;1.800000;,
  0.000000;2.400000;,
  0.000000;3.000000;,
  0.100000;0.000000;,
  0.100000;3.000000;,
  0.000000;1.000000;,
  0.000000;0.000000;,
  0.100000;1.000000;,
  0.100000;0.000000;,
  0.200000;1.000000;,
  0.200000;0.000000;,
  0.300000;1.000000;,
  0.300000;0.000000;,
  0.400000;1.000000;,
  0.400000;0.000000;,
  0.500000;1.000000;,
  0.500000;0.000000;,
  0.000000;1.000000;,
  0.000000;0.000000;,
  0.500000;1.000000;,
  0.500000;0.000000;,
  1.000000;1.000000;,
  0.000000;1.000000;,
  1.000000;0.000000;,
  0.000000;0.000000;,
  1.000000;1.000000;,
  0.000000;1.000000;,
  1.000000;0.000000;,
  0.000000;0.000000;,
  0.000000;1.000000;,
  0.000000;0.000000;,
  0.100000;1.000000;,
  0.100000;0.000000;,
  0.200000;1.000000;,
  0.200000;0.000000;,
  0.000000;1.000000;,
  0.000000;0.000000;,
  0.100000;1.000000;,
  0.100000;0.000000;,
  0.000000;1.000000;,
  0.000000;0.000000;,
  0.100000;1.000000;,
  0.100000;0.000000;,
  0.990000;1.000000;,
  0.990000;0.000000;,
  0.010000;1.000000;,
  0.010000;0.000000;,
  0.990000;1.000000;,
  0.990000;0.000000;,
  0.010000;1.000000;,
  0.010000;0.000000;,
  0.990000;1.000000;,
  0.990000;0.000000;,
  0.010000;1.000000;,
  0.010000;0.000000;,
  0.990000;1.000000;,
  0.990000;0.000000;,
  0.010000;1.000000;,
  0.010000;0.000000;,
  0.990000;1.000000;,
  0.990000;0.000000;,
  0.010000;1.000000;,
  0.010000;0.000000;,
  0.990000;1.000000;,
  0.990000;0.000000;,
  0.010000;1.000000;,
  0.010000;0.000000;;
 }

 MeshNormals  {
  112;
  -0.999938;0.000000;-0.011155;,
  -0.999938;0.000000;-0.011155;,
  0.000000;1.000000;0.000000;,
  0.000000;1.000000;0.000000;,
  -0.999984;0.000000;-0.005578;,
  -0.999984;0.000000;-0.005578;,
  0.000000;1.000000;0.000000;,
  0.000000;1.000000;0.000000;,
  -1.000000;0.000000;0.000000;,
  -1.000000;0.000000;0.000000;,
  0.000000;1.000000;0.000000;,
  0.000000;1.000000;0.000000;,
  -0.999984;0.000000;0.005578;,
  -0.999984;0.000000;0.005578;,
  0.000000;1.000000;0.000000;,
  0.000000;1.000000;0.000000;,
  -0.999938;0.000000;0.011155;,
  -0.999938;0.000000;0.011155;,
  0.000000;1.000000;0.000000;,
  0.000000;1.000000;0.000000;,
  0.999712;0.000000;0.023993;,
  0.999712;0.000000;0.023993;,
  0.000000;1.000000;0.000000;,
  0.000000;1.000000;0.000000;,
  -1.000000;0.000000;0.000000;,
  -1.000000;0.000000;0.000000;,
  0.999712;0.000000;0.023993;,
  0.999712;0.000000;0.023993;,
  0.000000;1.000000;0.000000;,
  0.000000;1.000000;0.000000;,
  0.000000;1.000000;0.000000;,
  0.000000;1.000000;0.000000;,
  0.000000;1.000000;0.000000;,
  0.000000;1.000000;0.000000;,
  0.000000;0.000000;-1.000000;,
  0.000000;0.000000;-1.000000;,
  0.000000;0.000000;-1.000000;,
  0.000000;0.000000;-1.000000;,
  0.000000;-1.000000;0.000000;,
  0.000000;-1.000000;0.000000;,
  0.000000;-1.000000;0.000000;,
  0.000000;-1.000000;0.000000;,
  -0.999712;0.000000;-0.023993;,
  -0.999712;0.000000;-0.023993;,
  -1.000000;0.000000;0.000000;,
  -1.000000;0.000000;0.000000;,
  0.999712;0.000000;0.023993;,
  0.999712;0.000000;0.023993;,
  1.000000;0.000000;0.000000;,
  1.000000;0.000000;0.000000;,
  0.000000;-1.000000;0.000000;,
  0.000000;-1.000000;0.000000;,
  0.000000;-1.000000;0.000000;,
  0.000000;-1.000000;0.000000;,
  0.000000;-1.000000;0.000000;,
  0.000000;-1.000000;0.000000;,
  -0.999938;0.000000;-0.011155;,
  -0.999938;0.000000;-0.011155;,
  -0.999984;0.000000;-0.005578;,
  -0.999984;0.000000;-0.005578;,
  -1.000000;0.000000;0.000000;,
  -1.000000;0.000000;0.000000;,
  -0.999984;0.000000;0.005578;,
  -0.999984;0.000000;0.005578;,
  -0.999938;0.000000;0.011155;,
  -0.999938;0.000000;0.011155;,
  0.999712;0.000000;0.023993;,
  0.999712;0.000000;0.023993;,
  0.000000;0.000000;-1.000000;,
  0.000000;0.000000;-1.000000;,
  0.000000;0.000000;-1.000000;,
  0.000000;0.000000;-1.000000;,
  0.999712;0.000000;0.023993;,
  0.999712;0.000000;0.023993;,
  -0.999712;0.000000;-0.023993;,
  -0.999712;0.000000;-0.023993;,
  1.000000;0.000000;-0.001000;,
  1.000000;0.000000;-0.001000;,
  -1.000000;0.000000;0.001000;,
  -1.000000;0.000000;0.001000;,
  0.999712;0.000000;0.023993;,
  0.999712;0.000000;0.023993;,
  -0.999712;0.000000;-0.023993;,
  -0.999712;0.000000;-0.023993;,
  0.999712;0.000000;0.023993;,
  0.999712;0.000000;0.023993;,
  -0.999712;0.000000;-0.023993;,
  -0.999712;0.000000;-0.023993;,
  0.000000;0.000000;-1.000000;,
  0.000000;0.000000;-1.000000;,
  0.000000;0.000000;1.000000;,
  0.000000;0.000000;1.000000;,
  0.000000;0.000000;-1.000000;,
  0.000000;0.000000;-1.000000;,
  0.000000;0.000000;1.000000;,
  0.000000;0.000000;1.000000;,
  0.000000;0.000000;-1.000000;,
  0.000000;0.000000;-1.000000;,
  0.000000;0.000000;1.000000;,
  0.000000;0.000000;1.000000;,
  0.000000;0.000000;-1.000000;,
  0.000000;0.000000;-1.000000;,
  0.000000;0.000000;1.000000;,
  0.000000;0.000000;1.000000;,
  0.000000;0.000000;-1.000000;,
  0.000000;0.000000;-1.000000;,
  0.000000;0.000000;1.000000;,
  0.000000;0.000000;1.000000;,
  0.000000;0.000000;-1.000000;,
  0.000000;0.000000;-1.000000;,
  0.000000;0.000000;1.000000;,
  0.000000;0.000000;1.000000;;
  112;
  3;0,0,0;,
  3;1,1,1;,
  3;2,2,2;,
  3;3,3,3;,
  3;4,4,4;,
  3;5,5,5;,
  3;6,6,6;,
  3;7,7,7;,
  3;8,8,8;,
  3;9,9,9;,
  3;10,10,10;,
  3;11,11,11;,
  3;12,12,12;,
  3;13,13,13;,
  3;14,14,14;,
  3;15,15,15;,
  3;16,16,16;,
  3;17,17,17;,
  3;18,18,18;,
  3;19,19,19;,
  3;20,20,20;,
  3;21,21,21;,
  3;22,22,22;,
  3;23,23,23;,
  3;24,24,24;,
  3;25,25,25;,
  3;26,26,26;,
  3;27,27,27;,
  3;28,28,28;,
  3;29,29,29;,
  3;30,30,30;,
  3;31,31,31;,
  3;32,32,32;,
  3;33,33,33;,
  3;34,34,34;,
  3;35,35,35;,
  3;36,36,36;,
  3;37,37,37;,
  3;38,38,38;,
  3;39,39,39;,
  3;40,40,40;,
  3;41,41,41;,
  3;42,42,42;,
  3;43,43,43;,
  3;44,44,44;,
  3;45,45,45;,
  3;46,46,46;,
  3;47,47,47;,
  3;48,48,48;,
  3;49,49,49;,
  3;50,50,50;,
  3;51,51,51;,
  3;52,52,52;,
  3;53,53,53;,
  3;54,54,54;,
  3;55,55,55;,
  3;56,56,56;,
  3;57,57,57;,
  3;58,58,58;,
  3;59,59,59;,
  3;60,60,60;,
  3;61,61,61;,
  3;62,62,62;,
  3;63,63,63;,
  3;64,64,64;,
  3;65,65,65;,
  3;66,66,66;,
  3;67,67,67;,
  3;68,68,68;,
  3;69,69,69;,
  3;70,70,70;,
  3;71,71,71;,
  3;72,72,72;,
  3;73,73,73;,
  3;74,74,74;,
  3;75,75,75;,
  3;76,76,76;,
  3;77,77,77;,
  3;78,78,78;,
  3;79,79,79;,
  3;80,80,80;,
  3;81,81,81;,
  3;82,82,82;,
  3;83,83,83;,
  3;84,84,84;,
  3;85,85,85;,
  3;86,86,86;,
  3;87,87,87;,
  3;88,88,88;,
  3;89,89,89;,
  3;90,90,90;,
  3;91,91,91;,
  3;92,92,92;,
  3;93,93,93;,
  3;94,94,94;,
  3;95,95,95;,
  3;96,96,96;,
  3;97,97,97;,
  3;98,98,98;,
  3;99,99,99;,
  3;100,100,100;,
  3;101,101,101;,
  3;102,102,102;,
  3;103,103,103;,
  3;104,104,104;,
  3;105,105,105;,
  3;106,106,106;,
  3;107,107,107;,
  3;108,108,108;,
  3;109,109,109;,
  3;110,110,110;,
  3;111,111,111;;
 }
}