xof 0303txt 0032
template Vector {
 <3d82ab5e-62da-11cf-ab39-0020af71e433>
 FLOAT x;
 FLOAT y;
 FLOAT z;
}

template MeshFace {
 <3d82ab5f-62da-11cf-ab39-0020af71e433>
 DWORD nFaceVertexIndices;
 array DWORD faceVertexIndices[nFaceVertexIndices];
}

template Mesh {
 <3d82ab44-62da-11cf-ab39-0020af71e433>
 DWORD nVertices;
 array Vector vertices[nVertices];
 DWORD nFaces;
 array MeshFace faces[nFaces];
 [...]
}

template ColorRGBA {
 <35ff44e0-6c7c-11cf-8f52-0040333594a3>
 FLOAT red;
 FLOAT green;
 FLOAT blue;
 FLOAT alpha;
}

template ColorRGB {
 <d3e16e81-7835-11cf-8f52-0040333594a3>
 FLOAT red;
 FLOAT green;
 FLOAT blue;
}

template Material {
 <3d82ab4d-62da-11cf-ab39-0020af71e433>
 ColorRGBA faceColor;
 FLOAT power;
 ColorRGB specularColor;
 ColorRGB emissiveColor;
 [...]
}

template MeshMaterialList {
 <f6f23f42-7686-11cf-8f52-0040333594a3>
 DWORD nMaterials;
 DWORD nFaceIndexes;
 array DWORD faceIndexes[nFaceIndexes];
 [Material <3d82ab4d-62da-11cf-ab39-0020af71e433>]
}

template TextureFilename {
 <a42790e1-7810-11cf-8f52-0040333594a3>
 STRING filename;
}

template Coords2d {
 <f6f23f44-7686-11cf-8f52-0040333594a3>
 FLOAT u;
 FLOAT v;
}

template MeshTextureCoords {
 <f6f23f40-7686-11cf-8f52-0040333594a3>
 DWORD nTextureCoords;
 array Coords2d textureCoords[nTextureCoords];
}

template MeshNormals {
 <f6f23f43-7686-11cf-8f52-0040333594a3>
 DWORD nNormals;
 array Vector normals[nNormals];
 DWORD nFaceNormals;
 array MeshFace faceNormals[nFaceNormals];
}


Mesh  {
 116;
 2.500000;-1.000000;-0.500000;,
 2.500000;1.000000;-0.500000;,
 2.500000;-1.000000;25.000000;,
 2.500000;1.000000;25.000000;,
 -12.032300;-1.000000;-0.500000;,
 -12.032300;1.000000;-0.500000;,
 -10.835300;-1.000000;25.000000;,
 -10.835300;1.000000;25.000000;,
 -1.500000;0.950000;-0.260000;,
 -1.500000;1.100000;-0.260000;,
 -2.700000;1.100000;-0.260000;,
 -1.500000;0.950000;25.000000;,
 -1.500000;1.100000;25.000000;,
 -2.700000;1.100000;25.000000;,
 -2.400000;-0.450000;-0.250000;,
 -2.400000;0.850000;-0.250000;,
 -2.400000;-0.450000;25.000000;,
 -2.400000;0.850000;25.000000;,
 -8.034520;1.100000;-0.160000;,
 -6.834520;1.100000;-0.160000;,
 -7.962298;1.100000;4.970800;,
 -6.762298;1.100000;4.970400;,
 -7.805979;1.100000;9.990000;,
 -6.605979;1.100000;9.990000;,
 -7.565621;1.100000;15.010000;,
 -6.365621;1.100000;15.010000;,
 -7.241302;1.100000;20.029200;,
 -6.041302;1.100000;20.029600;,
 -6.833083;1.100000;25.046301;,
 -5.633083;1.100000;25.048401;,
 -2.700000;1.100000;-0.260000;,
 -2.700000;1.100000;25.000000;,
 -6.834520;1.100000;-0.160000;,
 -6.762298;1.100000;4.970400;,
 -6.605979;1.100000;9.990000;,
 -6.365621;1.100000;15.010000;,
 -6.041302;1.100000;20.029600;,
 -5.633083;1.100000;25.048401;,
 -4.759480;1.100000;5.500000;,
 -4.759480;4.500000;5.500000;,
 -4.509480;1.100000;5.500000;,
 -4.509480;4.500000;5.500000;,
 -6.354930;1.100000;13.000000;,
 -6.354930;4.750000;13.000000;,
 -6.154930;1.100000;13.000000;,
 -6.154930;4.750000;13.000000;,
 -3.054930;1.100000;13.000000;,
 -3.054930;4.750000;13.000000;,
 -2.854930;1.100000;13.000000;,
 -2.854930;4.750000;13.000000;,
 -4.436290;1.100000;19.000000;,
 -4.436290;4.500000;19.000000;,
 -4.186290;1.100000;19.000000;,
 -4.186290;4.500000;19.000000;,
 -4.778120;4.500000;-0.500000;,
 -4.778120;4.800000;-0.500000;,
 -4.287350;4.500000;20.000000;,
 -4.287350;4.800000;20.000000;,
 -1.700000;4.900000;-0.500000;,
 -1.700000;5.200000;-0.500000;,
 -1.700000;4.900000;20.000000;,
 -1.700000;5.200000;20.000000;,
 -7.832300;4.900000;-0.500000;,
 -7.832300;5.200000;-0.500000;,
 -7.635300;4.900000;20.000000;,
 -7.635300;5.200000;20.000000;,
 -7.788960;4.900000;5.500000;,
 -7.884716;5.200000;5.500000;,
 -4.744480;4.500000;5.500000;,
 -4.792358;4.800000;5.500000;,
 -1.700000;4.900000;5.500000;,
 -1.700000;5.200000;5.500000;,
 -7.729860;4.900000;13.000000;,
 -7.864556;5.200000;13.000000;,
 -4.714930;4.500000;13.000000;,
 -4.782278;4.800000;13.000000;,
 -1.700000;4.900000;13.000000;,
 -1.700000;5.200000;13.000000;,
 -7.682580;4.900000;19.000000;,
 -7.848428;5.200000;19.000000;,
 -4.691290;4.500000;19.000000;,
 -4.774214;4.800000;19.000000;,
 -1.700000;4.900000;19.000000;,
 -1.700000;5.200000;19.000000;,
 -8.032300;4.626000;-0.500000;,
 -7.835300;4.626000;20.000000;,
 -8.032300;5.226000;-0.500000;,
 -7.835300;5.226000;20.000000;,
 -4.766150;4.800000;-0.500000;,
 -4.667650;4.800000;20.000000;,
 -1.500000;5.226000;-0.500000;,
 -1.500000;5.226000;20.000000;,
 -1.500000;4.626000;-0.500000;,
 -1.500000;5.226000;-0.500000;,
 -1.500000;4.626000;20.000000;,
 -1.500000;5.226000;20.000000;,
 -5.934520;1.100000;19.000000;,
 -5.934520;2.300000;19.000000;,
 -5.934520;1.100000;8.000000;,
 -5.934520;2.300000;8.000000;,
 -3.200000;1.100000;8.000000;,
 -3.200000;2.300000;8.000000;,
 -3.200000;1.100000;19.000000;,
 -3.200000;2.300000;19.000000;,
 -7.234520;3.800000;13.000000;,
 -7.234520;4.300000;13.000000;,
 -6.834520;3.800000;13.000000;,
 -6.834520;4.300000;13.000000;,
 -2.700000;3.800000;13.000000;,
 -2.700000;4.300000;13.000000;,
 -2.300000;3.800000;13.000000;,
 -2.300000;4.300000;13.000000;,
 -5.734520;3.800000;17.000000;,
 -5.734520;4.300000;17.000000;,
 -3.400000;3.800000;17.000000;,
 -3.400000;4.300000;17.000000;;
 72;
 3;0,1,3;,
 3;0,3,2;,
 3;4,5,7;,
 3;4,7,6;,
 3;8,9,12;,
 3;8,12,11;,
 3;9,10,13;,
 3;9,13,12;,
 3;14,15,17;,
 3;14,17,16;,
 3;20,21,19;,
 3;20,19,18;,
 3;22,23,21;,
 3;22,21,20;,
 3;24,25,23;,
 3;24,23,22;,
 3;26,27,25;,
 3;26,25,24;,
 3;28,29,27;,
 3;28,27,26;,
 3;31,30,32;,
 3;31,32,33;,
 3;31,33,34;,
 3;31,34,35;,
 3;31,35,36;,
 3;31,36,37;,
 3;38,39,41;,
 3;38,41,40;,
 3;42,43,45;,
 3;42,45,44;,
 3;46,47,49;,
 3;46,49,48;,
 3;50,51,53;,
 3;50,53,52;,
 3;54,55,57;,
 3;54,57,56;,
 3;58,59,61;,
 3;58,61,60;,
 3;62,63,65;,
 3;62,65,64;,
 3;66,67,69;,
 3;66,69,68;,
 3;68,69,71;,
 3;68,71,70;,
 3;72,73,75;,
 3;72,75,74;,
 3;74,75,77;,
 3;74,77,76;,
 3;78,79,81;,
 3;78,81,80;,
 3;80,81,83;,
 3;80,83,82;,
 3;86,87,85;,
 3;86,85,84;,
 3;88,89,87;,
 3;88,87,86;,
 3;90,91,89;,
 3;90,89,88;,
 3;92,93,95;,
 3;92,95,94;,
 3;98,99,97;,
 3;98,97,96;,
 3;98,99,101;,
 3;98,101,100;,
 3;100,101,103;,
 3;100,103,102;,
 3;104,105,107;,
 3;104,107,106;,
 3;108,109,111;,
 3;108,111,110;,
 3;112,113,115;,
 3;112,115,114;;

 MeshMaterialList  {
  22;
  72;
  0,
  0,
  1,
  1,
  2,
  2,
  2,
  2,
  3,
  3,
  4,
  4,
  4,
  4,
  4,
  4,
  4,
  4,
  4,
  4,
  5,
  5,
  5,
  5,
  5,
  5,
  6,
  6,
  7,
  7,
  8,
  8,
  9,
  9,
  10,
  10,
  11,
  11,
  12,
  12,
  13,
  13,
  13,
  13,
  14,
  14,
  14,
  14,
  15,
  15,
  15,
  15,
  16,
  16,
  16,
  16,
  16,
  16,
  17,
  17,
  18,
  18,
  18,
  18,
  18,
  18,
  19,
  19,
  20,
  20,
  21,
  21;

  Material  {
   1.000000;1.000000;1.000000;1.000000;;
   0.000000;
   0.000000;0.000000;0.000000;;
   0.000000;0.000000;0.000000;;

   TextureFilename  {
    "MeiWall1.png";
   }
  }

  Material  {
   1.000000;1.000000;1.000000;1.000000;;
   0.000000;
   0.000000;0.000000;0.000000;;
   0.000000;0.000000;0.000000;;

   TextureFilename  {
    "MeiWall2.png";
   }
  }

  Material  {
   1.000000;1.000000;1.000000;1.000000;;
   0.000000;
   0.000000;0.000000;0.000000;;
   0.000000;0.000000;0.000000;;

   TextureFilename  {
    "FormSide4.png";
   }
  }

  Material  {
   1.000000;1.000000;1.000000;1.000000;;
   0.000000;
   0.000000;0.000000;0.000000;;
   0.000000;0.000000;0.000000;;

   TextureFilename  {
    "FormSide5.png";
   }
  }

  Material  {
   1.000000;1.000000;1.000000;1.000000;;
   0.000000;
   0.000000;0.000000;0.000000;;
   0.000000;0.000000;0.000000;;

   TextureFilename  {
    "FormSide4.png";
   }
  }

  Material  {
   1.000000;1.000000;1.000000;1.000000;;
   0.000000;
   0.000000;0.000000;0.000000;;
   0.000000;0.000000;0.000000;;

   TextureFilename  {
    "FormC3.png";
   }
  }

  Material  {
   1.000000;1.000000;1.000000;1.000000;;
   0.000000;
   0.000000;0.000000;0.000000;;
   0.000000;0.000000;0.000000;;

   TextureFilename  {
    "MeiIron1.png";
   }
  }

  Material  {
   1.000000;1.000000;1.000000;1.000000;;
   0.000000;
   0.000000;0.000000;0.000000;;
   0.000000;0.000000;0.000000;;

   TextureFilename  {
    "MeiIron1.png";
   }
  }

  Material  {
   1.000000;1.000000;1.000000;1.000000;;
   0.000000;
   0.000000;0.000000;0.000000;;
   0.000000;0.000000;0.000000;;

   TextureFilename  {
    "MeiIron1.png";
   }
  }

  Material  {
   1.000000;1.000000;1.000000;1.000000;;
   0.000000;
   0.000000;0.000000;0.000000;;
   0.000000;0.000000;0.000000;;

   TextureFilename  {
    "MeiIron1.png";
   }
  }

  Material  {
   1.000000;1.000000;1.000000;1.000000;;
   0.000000;
   0.000000;0.000000;0.000000;;
   0.000000;0.000000;0.000000;;

   TextureFilename  {
    "MeiIron2.png";
   }
  }

  Material  {
   1.000000;1.000000;1.000000;1.000000;;
   0.000000;
   0.000000;0.000000;0.000000;;
   0.000000;0.000000;0.000000;;

   TextureFilename  {
    "MeiIron2.png";
   }
  }

  Material  {
   1.000000;1.000000;1.000000;1.000000;;
   0.000000;
   0.000000;0.000000;0.000000;;
   0.000000;0.000000;0.000000;;

   TextureFilename  {
    "MeiIron2.png";
   }
  }

  Material  {
   1.000000;1.000000;1.000000;1.000000;;
   0.000000;
   0.000000;0.000000;0.000000;;
   0.000000;0.000000;0.000000;;

   TextureFilename  {
    "MeiIron2.png";
   }
  }

  Material  {
   1.000000;1.000000;1.000000;1.000000;;
   0.000000;
   0.000000;0.000000;0.000000;;
   0.000000;0.000000;0.000000;;

   TextureFilename  {
    "MeiIron2.png";
   }
  }

  Material  {
   1.000000;1.000000;1.000000;1.000000;;
   0.000000;
   0.000000;0.000000;0.000000;;
   0.000000;0.000000;0.000000;;

   TextureFilename  {
    "MeiIron2.png";
   }
  }

  Material  {
   1.000000;1.000000;1.000000;1.000000;;
   0.000000;
   0.000000;0.000000;0.000000;;
   0.000000;0.000000;0.000000;;

   TextureFilename  {
    "MeiRoofIron1.png";
   }
  }

  Material  {
   1.000000;1.000000;1.000000;1.000000;;
   0.000000;
   0.000000;0.000000;0.000000;;
   0.000000;0.000000;0.000000;;

   TextureFilename  {
    "MeiRoofIron2.png";
   }
  }

  Material  {
   1.000000;1.000000;1.000000;1.000000;;
   0.000000;
   0.000000;0.000000;0.000000;;
   0.000000;0.000000;0.000000;;

   TextureFilename  {
    "MeiWall4.png";
   }
  }

  Material  {
   1.000000;1.000000;1.000000;1.000000;;
   0.000000;
   0.000000;0.000000;0.000000;;
   0.000000;0.000000;0.000000;;

   TextureFilename  {
    "MeiNo1.png";
   }
  }

  Material  {
   1.000000;1.000000;1.000000;1.000000;;
   0.000000;
   0.000000;0.000000;0.000000;;
   0.000000;0.000000;0.000000;;

   TextureFilename  {
    "MeiNo2.png";
   }
  }

  Material  {
   1.000000;1.000000;1.000000;1.000000;;
   0.000000;
   0.000000;0.000000;0.000000;;
   0.000000;0.000000;0.000000;;

   TextureFilename  {
    "MeiAnnai12.png";
   }
  }
 }

 MeshTextureCoords  {
  116;
  0.000000;1.000000;,
  0.000000;0.000000;,
  5.000000;1.000000;,
  5.000000;0.000000;,
  0.000000;1.000000;,
  0.000000;0.000000;,
  5.000000;1.000000;,
  5.000000;0.000000;,
  0.000000;0.900000;,
  0.000000;0.750000;,
  0.000000;0.000000;,
  1.000000;0.900000;,
  1.000000;0.750000;,
  1.000000;0.000000;,
  0.000000;1.000000;,
  0.000000;0.000000;,
  1.000000;1.000000;,
  1.000000;0.000000;,
  0.000000;0.750000;,
  0.000000;0.000000;,
  0.200000;0.750000;,
  0.200000;0.000000;,
  0.400000;0.750000;,
  0.400000;0.000000;,
  0.600000;0.750000;,
  0.600000;0.000000;,
  0.800000;0.750000;,
  0.800000;0.000000;,
  1.000000;0.750000;,
  1.000000;0.000000;,
  0.000000;0.000000;,
  1.000000;0.000000;,
  0.000000;1.000000;,
  0.200000;1.000000;,
  0.400000;1.000000;,
  0.600000;1.000000;,
  0.800000;1.000000;,
  1.000000;1.000000;,
  0.000000;1.000000;,
  0.000000;0.000000;,
  1.000000;1.000000;,
  1.000000;0.000000;,
  0.000000;1.000000;,
  0.000000;0.000000;,
  1.000000;1.000000;,
  1.000000;0.000000;,
  0.000000;1.000000;,
  0.000000;0.000000;,
  1.000000;1.000000;,
  1.000000;0.000000;,
  0.000000;1.000000;,
  0.000000;0.000000;,
  1.000000;1.000000;,
  1.000000;0.000000;,
  0.000000;1.000000;,
  0.000000;0.000000;,
  1.000000;1.000000;,
  1.000000;0.000000;,
  0.000000;1.000000;,
  0.000000;0.000000;,
  1.000000;1.000000;,
  1.000000;0.000000;,
  0.000000;1.000000;,
  0.000000;0.000000;,
  1.000000;1.000000;,
  1.000000;0.000000;,
  0.000000;1.000000;,
  0.000000;0.000000;,
  0.500000;1.000000;,
  0.500000;0.000000;,
  1.000000;1.000000;,
  1.000000;0.000000;,
  0.000000;1.000000;,
  0.000000;0.000000;,
  0.500000;1.000000;,
  0.500000;0.000000;,
  1.000000;1.000000;,
  1.000000;0.000000;,
  0.000000;1.000000;,
  0.000000;0.000000;,
  0.500000;1.000000;,
  0.500000;0.000000;,
  1.000000;1.000000;,
  1.000000;0.000000;,
  2.240000;0.000000;,
  0.000000;0.000000;,
  2.240000;0.100000;,
  0.000000;0.100000;,
  2.240000;0.200000;,
  0.000000;0.200000;,
  2.240000;0.300000;,
  0.000000;0.300000;,
  8.000000;1.000000;,
  8.000000;0.000000;,
  0.000000;1.000000;,
  0.000000;0.000000;,
  0.500000;1.000000;,
  0.500000;0.000000;,
  0.550000;1.000000;,
  0.550000;0.000000;,
  0.700000;1.000000;,
  0.650000;0.000000;,
  1.000000;1.000000;,
  1.000000;0.000000;,
  0.000000;1.000000;,
  0.000000;0.000000;,
  1.000000;1.000000;,
  1.000000;0.000000;,
  0.000000;1.000000;,
  0.000000;0.000000;,
  1.000000;1.000000;,
  1.000000;0.000000;,
  0.000000;1.000000;,
  0.000000;0.000000;,
  1.000000;1.000000;,
  1.000000;0.000000;;
 }

 MeshNormals  {
  72;
  1.000000;0.000000;0.000000;,
  1.000000;0.000000;0.000000;,
  0.998900;0.000000;-0.046890;,
  0.998900;0.000000;-0.046890;,
  1.000000;0.000000;0.000000;,
  1.000000;0.000000;0.000000;,
  0.000000;1.000000;0.000000;,
  0.000000;1.000000;0.000000;,
  1.000000;0.000000;0.000000;,
  1.000000;0.000000;0.000000;,
  0.000000;1.000000;0.000000;,
  0.000000;1.000000;0.000000;,
  0.000000;1.000000;0.000000;,
  0.000000;1.000000;0.000000;,
  0.000000;1.000000;0.000000;,
  0.000000;1.000000;0.000000;,
  0.000000;1.000000;0.000000;,
  0.000000;1.000000;0.000000;,
  0.000000;1.000000;0.000000;,
  0.000000;1.000000;0.000000;,
  0.000000;1.000000;0.000000;,
  0.000000;1.000000;0.000000;,
  0.000000;1.000000;0.000000;,
  0.000000;1.000000;0.000000;,
  0.000000;1.000000;0.000000;,
  0.000000;1.000000;0.000000;,
  0.000000;0.000000;-1.000000;,
  0.000000;0.000000;-1.000000;,
  0.000000;0.000000;-1.000000;,
  0.000000;0.000000;-1.000000;,
  0.000000;0.000000;-1.000000;,
  0.000000;0.000000;-1.000000;,
  0.000000;0.000000;-1.000000;,
  0.000000;0.000000;-1.000000;,
  0.999714;0.000000;-0.023933;,
  0.999714;0.000000;-0.023933;,
  1.000000;0.000000;0.000000;,
  1.000000;0.000000;0.000000;,
  0.999954;0.000000;-0.009609;,
  0.999954;0.000000;-0.009609;,
  0.000000;0.000000;-1.000000;,
  0.000000;0.000000;-1.000000;,
  0.000000;0.000000;-1.000000;,
  0.000000;0.000000;-1.000000;,
  0.000000;0.000000;-1.000000;,
  0.000000;0.000000;-1.000000;,
  0.000000;0.000000;-1.000000;,
  0.000000;0.000000;-1.000000;,
  0.000000;0.000000;-1.000000;,
  0.000000;0.000000;-1.000000;,
  0.000000;0.000000;-1.000000;,
  0.000000;0.000000;-1.000000;,
  0.999954;0.000000;-0.009609;,
  0.999954;0.000000;-0.009609;,
  -0.133285;-0.991078;0.000640;,
  -0.129333;-0.991600;0.001243;,
  0.133285;-0.991078;0.000000;,
  0.129333;-0.991601;-0.000621;,
  1.000000;0.000000;0.000000;,
  1.000000;0.000000;0.000000;,
  1.000000;0.000000;0.000000;,
  1.000000;0.000000;0.000000;,
  0.000000;0.000000;-1.000000;,
  0.000000;0.000000;-1.000000;,
  1.000000;0.000000;0.000000;,
  1.000000;0.000000;0.000000;,
  0.000000;0.000000;-1.000000;,
  0.000000;0.000000;-1.000000;,
  0.000000;0.000000;-1.000000;,
  0.000000;0.000000;-1.000000;,
  0.000000;0.000000;-1.000000;,
  0.000000;0.000000;-1.000000;;
  72;
  3;0,0,0;,
  3;1,1,1;,
  3;2,2,2;,
  3;3,3,3;,
  3;4,4,4;,
  3;5,5,5;,
  3;6,6,6;,
  3;7,7,7;,
  3;8,8,8;,
  3;9,9,9;,
  3;10,10,10;,
  3;11,11,11;,
  3;12,12,12;,
  3;13,13,13;,
  3;14,14,14;,
  3;15,15,15;,
  3;16,16,16;,
  3;17,17,17;,
  3;18,18,18;,
  3;19,19,19;,
  3;20,20,20;,
  3;21,21,21;,
  3;22,22,22;,
  3;23,23,23;,
  3;24,24,24;,
  3;25,25,25;,
  3;26,26,26;,
  3;27,27,27;,
  3;28,28,28;,
  3;29,29,29;,
  3;30,30,30;,
  3;31,31,31;,
  3;32,32,32;,
  3;33,33,33;,
  3;34,34,34;,
  3;35,35,35;,
  3;36,36,36;,
  3;37,37,37;,
  3;38,38,38;,
  3;39,39,39;,
  3;40,40,40;,
  3;41,41,41;,
  3;42,42,42;,
  3;43,43,43;,
  3;44,44,44;,
  3;45,45,45;,
  3;46,46,46;,
  3;47,47,47;,
  3;48,48,48;,
  3;49,49,49;,
  3;50,50,50;,
  3;51,51,51;,
  3;52,52,52;,
  3;53,53,53;,
  3;54,54,54;,
  3;55,55,55;,
  3;56,56,56;,
  3;57,57,57;,
  3;58,58,58;,
  3;59,59,59;,
  3;60,60,60;,
  3;61,61,61;,
  3;62,62,62;,
  3;63,63,63;,
  3;64,64,64;,
  3;65,65,65;,
  3;66,66,66;,
  3;67,67,67;,
  3;68,68,68;,
  3;69,69,69;,
  3;70,70,70;,
  3;71,71,71;;
 }
}