xof 0303txt 0032
template Vector {
 <3d82ab5e-62da-11cf-ab39-0020af71e433>
 FLOAT x;
 FLOAT y;
 FLOAT z;
}

template MeshFace {
 <3d82ab5f-62da-11cf-ab39-0020af71e433>
 DWORD nFaceVertexIndices;
 array DWORD faceVertexIndices[nFaceVertexIndices];
}

template Mesh {
 <3d82ab44-62da-11cf-ab39-0020af71e433>
 DWORD nVertices;
 array Vector vertices[nVertices];
 DWORD nFaces;
 array MeshFace faces[nFaces];
 [...]
}

template ColorRGBA {
 <35ff44e0-6c7c-11cf-8f52-0040333594a3>
 FLOAT red;
 FLOAT green;
 FLOAT blue;
 FLOAT alpha;
}

template ColorRGB {
 <d3e16e81-7835-11cf-8f52-0040333594a3>
 FLOAT red;
 FLOAT green;
 FLOAT blue;
}

template Material {
 <3d82ab4d-62da-11cf-ab39-0020af71e433>
 ColorRGBA faceColor;
 FLOAT power;
 ColorRGB specularColor;
 ColorRGB emissiveColor;
 [...]
}

template MeshMaterialList {
 <f6f23f42-7686-11cf-8f52-0040333594a3>
 DWORD nMaterials;
 DWORD nFaceIndexes;
 array DWORD faceIndexes[nFaceIndexes];
 [Material <3d82ab4d-62da-11cf-ab39-0020af71e433>]
}

template TextureFilename {
 <a42790e1-7810-11cf-8f52-0040333594a3>
 STRING filename;
}

template Coords2d {
 <f6f23f44-7686-11cf-8f52-0040333594a3>
 FLOAT u;
 FLOAT v;
}

template MeshTextureCoords {
 <f6f23f40-7686-11cf-8f52-0040333594a3>
 DWORD nTextureCoords;
 array Coords2d textureCoords[nTextureCoords];
}

template MeshNormals {
 <f6f23f43-7686-11cf-8f52-0040333594a3>
 DWORD nNormals;
 array Vector normals[nNormals];
 DWORD nFaceNormals;
 array MeshFace faceNormals[nFaceNormals];
}


Mesh  {
 192;
 1.500000;0.850000;-0.049600;,
 1.500000;1.100000;-0.049600;,
 2.700000;1.100000;-0.049600;,
 1.479400;0.850000;4.970100;,
 1.479400;1.100000;4.970100;,
 2.679400;1.100000;4.970100;,
 1.469100;0.850000;9.990000;,
 1.469100;1.100000;9.990000;,
 2.669100;1.100000;9.990000;,
 1.469100;0.850000;15.010000;,
 1.469100;1.100000;15.010000;,
 2.669100;1.100000;15.010000;,
 1.479400;0.850000;20.029900;,
 1.479400;1.100000;20.029900;,
 2.679400;1.100000;20.029900;,
 1.500000;0.850000;25.049601;,
 1.500000;1.100000;25.049601;,
 2.700000;1.100000;25.049601;,
 8.950200;0.850000;0.000000;,
 8.950200;1.100000;0.000000;,
 7.750200;1.100000;0.000000;,
 8.800200;0.850000;25.000000;,
 8.800200;1.100000;25.000000;,
 7.600200;1.100000;25.000000;,
 2.200000;-0.450000;0.000000;,
 2.200000;0.850000;0.000000;,
 2.200000;-0.450000;25.000000;,
 2.200000;0.850000;25.000000;,
 8.250200;-0.450000;0.000000;,
 8.250200;0.850000;0.000000;,
 8.100200;-0.450000;25.000000;,
 8.100200;0.850000;25.000000;,
 2.700000;1.100000;-0.049600;,
 2.679400;1.100000;4.970100;,
 2.669100;1.100000;9.990000;,
 2.669100;1.100000;15.010000;,
 2.679400;1.100000;20.029900;,
 2.700000;1.100000;25.049601;,
 7.750200;1.100000;0.000000;,
 7.600200;1.100000;25.000000;,
 4.825000;1.100000;5.500000;,
 4.825000;5.000000;5.500000;,
 5.625000;1.100000;5.500000;,
 5.625000;5.000000;5.500000;,
 4.750000;1.100000;18.000000;,
 4.750000;5.000000;18.000000;,
 5.550000;1.100000;18.000000;,
 5.550000;5.000000;18.000000;,
 4.043000;5.000000;0.000000;,
 3.935000;5.000000;18.000000;,
 6.443000;5.000000;0.000000;,
 6.335000;5.000000;18.000000;,
 4.043000;5.000000;0.000000;,
 4.043000;5.800000;0.000000;,
 3.935000;5.000000;18.000000;,
 3.935000;5.800000;18.000000;,
 6.443000;5.000000;0.000000;,
 6.443000;5.800000;0.000000;,
 6.335000;5.000000;18.000000;,
 6.335000;5.800000;18.000000;,
 1.500000;5.800000;-0.049600;,
 1.479400;5.800000;4.970100;,
 1.469100;5.800000;9.990000;,
 1.469100;5.800000;15.010000;,
 1.479400;5.800000;20.029900;,
 1.500000;5.800000;25.049601;,
 8.950200;5.800000;0.000000;,
 8.800200;5.800000;25.000000;,
 1.500000;5.800000;-0.049600;,
 1.500000;6.000000;-0.049600;,
 1.479400;5.800000;4.970100;,
 1.479400;6.000000;4.970100;,
 1.469100;5.800000;9.990000;,
 1.469100;6.000000;9.990000;,
 1.469100;5.800000;15.010000;,
 1.469100;6.000000;15.010000;,
 1.479400;5.800000;20.029900;,
 1.479400;6.000000;20.029900;,
 1.500000;5.800000;25.049601;,
 1.500000;6.000000;25.049601;,
 8.950200;5.800000;0.000000;,
 8.950200;6.000000;0.000000;,
 8.800200;5.800000;25.000000;,
 8.800200;6.000000;25.000000;,
 4.825000;5.800000;5.500000;,
 4.825000;7.500000;5.500000;,
 5.625000;5.800000;5.500000;,
 5.625000;7.500000;5.500000;,
 4.750000;5.800000;18.000000;,
 4.750000;7.500000;18.000000;,
 5.550000;5.800000;18.000000;,
 5.550000;7.500000;18.000000;,
 5.291000;6.700000;-5.500000;,
 5.291000;7.500000;-5.500000;,
 5.108000;6.700000;25.000000;,
 5.108000;7.500000;25.000000;,
 3.338200;7.100000;-5.500000;,
 3.338200;7.500000;-5.500000;,
 3.155200;7.100000;25.000000;,
 3.155200;7.500000;25.000000;,
 7.338200;7.100000;-5.500000;,
 7.338200;7.500000;-5.500000;,
 7.155200;7.100000;25.000000;,
 7.155200;7.500000;25.000000;,
 3.200200;5.800000;3.500000;,
 3.200200;7.500000;3.500000;,
 7.368200;5.800000;3.500000;,
 7.368200;7.500000;3.500000;,
 3.200200;5.800000;7.500000;,
 3.200200;7.500000;7.500000;,
 7.368200;5.800000;7.500000;,
 7.368200;7.500000;7.500000;,
 3.150700;5.800000;11.750000;,
 3.150700;7.500000;11.750000;,
 7.318700;5.800000;11.750000;,
 7.318700;7.500000;11.750000;,
 3.125200;5.800000;16.000000;,
 3.125200;7.500000;16.000000;,
 7.293200;5.800000;16.000000;,
 7.293200;7.500000;16.000000;,
 3.101200;5.800000;20.000000;,
 3.101200;7.500000;20.000000;,
 7.269200;5.800000;20.000000;,
 7.269200;7.500000;20.000000;,
 3.075700;5.800000;24.250000;,
 3.075700;7.500000;24.250000;,
 7.243700;5.800000;24.250000;,
 7.243700;7.500000;24.250000;,
 4.100000;1.100000;-0.600000;,
 4.100000;3.500000;-0.600000;,
 6.100000;1.100000;-0.600000;,
 6.100000;3.500000;-0.600000;,
 4.100000;1.100000;3.400000;,
 4.100000;3.500000;3.400000;,
 6.100000;1.100000;3.400000;,
 6.100000;3.500000;3.400000;,
 5.100000;1.100000;-0.600000;,
 5.100000;3.500000;-0.600000;,
 5.100000;1.100000;3.400000;,
 5.100000;3.500000;3.400000;,
 4.500000;1.500000;-0.600000;,
 4.500000;1.600000;-0.600000;,
 5.050000;1.600000;-0.600000;,
 5.090000;2.100000;-0.600000;,
 4.500000;1.500000;3.400000;,
 4.500000;1.600000;3.400000;,
 5.050000;1.600000;3.400000;,
 5.090000;2.100000;3.400000;,
 4.500000;1.100000;2.900000;,
 4.500000;1.900000;2.900000;,
 5.090000;1.100000;2.900000;,
 5.090000;1.900000;2.900000;,
 4.500000;1.100000;1.900000;,
 4.500000;1.900000;1.900000;,
 5.090000;1.100000;1.900000;,
 5.090000;1.900000;1.900000;,
 4.500000;1.100000;0.900000;,
 4.500000;1.900000;0.900000;,
 5.090000;1.100000;0.900000;,
 5.090000;1.900000;0.900000;,
 5.700000;1.500000;-0.600000;,
 5.700000;1.600000;-0.600000;,
 5.150000;1.600000;-0.600000;,
 5.110000;2.100000;-0.600000;,
 5.700000;1.500000;3.400000;,
 5.700000;1.600000;3.400000;,
 5.150000;1.600000;3.400000;,
 5.110000;2.100000;3.400000;,
 5.700000;1.100000;2.900000;,
 5.700000;1.900000;2.900000;,
 5.110000;1.100000;2.900000;,
 5.110000;1.900000;2.900000;,
 5.700000;1.100000;1.900000;,
 5.700000;1.900000;1.900000;,
 5.110000;1.100000;1.900000;,
 5.110000;1.900000;1.900000;,
 5.700000;1.100000;0.900000;,
 5.700000;1.900000;0.900000;,
 5.110000;1.100000;0.900000;,
 5.110000;1.900000;0.900000;,
 5.100000;1.100000;7.900000;,
 5.100000;3.040000;7.900000;,
 5.100000;1.100000;9.100000;,
 5.100000;3.040000;9.100000;,
 5.200000;4.200000;17.400000;,
 5.200000;5.200000;17.400000;,
 5.800000;4.200000;17.400000;,
 5.800000;5.200000;17.400000;,
 5.100000;3.780000;23.500000;,
 5.100000;5.000000;23.500000;,
 5.100000;3.780000;25.000000;,
 5.100000;5.000000;25.000000;;
 144;
 3;3,4,1;,
 3;3,1,0;,
 3;4,5,2;,
 3;4,2,1;,
 3;6,7,4;,
 3;6,4,3;,
 3;7,8,5;,
 3;7,5,4;,
 3;9,10,7;,
 3;9,7,6;,
 3;10,11,8;,
 3;10,8,7;,
 3;12,13,10;,
 3;12,10,9;,
 3;13,14,11;,
 3;13,11,10;,
 3;15,16,13;,
 3;15,13,12;,
 3;16,17,14;,
 3;16,14,13;,
 3;18,19,22;,
 3;18,22,21;,
 3;19,20,23;,
 3;19,23,22;,
 3;26,27,25;,
 3;26,25,24;,
 3;28,29,31;,
 3;28,31,30;,
 3;32,33,34;,
 3;32,34,35;,
 3;32,35,36;,
 3;32,36,37;,
 3;32,37,39;,
 3;32,39,38;,
 3;40,41,43;,
 3;40,43,42;,
 3;44,45,47;,
 3;44,47,46;,
 3;50,51,49;,
 3;50,49,48;,
 3;54,55,53;,
 3;54,53,52;,
 3;56,57,59;,
 3;56,59,58;,
 3;66,67,65;,
 3;66,65,64;,
 3;66,64,63;,
 3;66,63,62;,
 3;66,62,61;,
 3;66,61,60;,
 3;70,71,69;,
 3;70,69,68;,
 3;72,73,71;,
 3;72,71,70;,
 3;74,75,73;,
 3;74,73,72;,
 3;76,77,75;,
 3;76,75,74;,
 3;78,79,77;,
 3;78,77,76;,
 3;80,81,83;,
 3;80,83,82;,
 3;84,85,87;,
 3;84,87,86;,
 3;88,89,91;,
 3;88,91,90;,
 3;92,93,95;,
 3;92,95,94;,
 3;94,95,93;,
 3;94,93,92;,
 3;96,97,99;,
 3;96,99,98;,
 3;98,99,97;,
 3;98,97,96;,
 3;100,101,103;,
 3;100,103,102;,
 3;102,103,101;,
 3;102,101,100;,
 3;104,105,107;,
 3;104,107,106;,
 3;106,107,105;,
 3;106,105,104;,
 3;108,109,111;,
 3;108,111,110;,
 3;110,111,109;,
 3;110,109,108;,
 3;112,113,115;,
 3;112,115,114;,
 3;114,115,113;,
 3;114,113,112;,
 3;116,117,119;,
 3;116,119,118;,
 3;118,119,117;,
 3;118,117,116;,
 3;120,121,123;,
 3;120,123,122;,
 3;122,123,121;,
 3;122,121,120;,
 3;124,125,127;,
 3;124,127,126;,
 3;126,127,125;,
 3;126,125,124;,
 3;128,129,131;,
 3;128,131,130;,
 3;132,133,135;,
 3;132,135,134;,
 3;136,137,139;,
 3;136,139,138;,
 3;138,139,137;,
 3;138,137,136;,
 3;140,144,145;,
 3;140,145,141;,
 3;141,145,146;,
 3;141,146,142;,
 3;142,146,147;,
 3;142,147,143;,
 3;148,149,151;,
 3;148,151,150;,
 3;152,153,155;,
 3;152,155,154;,
 3;156,157,159;,
 3;156,159,158;,
 3;161,165,164;,
 3;161,164,160;,
 3;162,166,165;,
 3;162,165,161;,
 3;163,167,166;,
 3;163,166,162;,
 3;170,171,169;,
 3;170,169,168;,
 3;174,175,173;,
 3;174,173,172;,
 3;178,179,177;,
 3;178,177,176;,
 3;180,181,183;,
 3;180,183,182;,
 3;182,183,181;,
 3;182,181,180;,
 3;184,185,187;,
 3;184,187,186;,
 3;188,189,191;,
 3;188,191,190;,
 3;190,191,189;,
 3;190,189,188;;

 MeshMaterialList  {
  36;
  144;
  0,
  0,
  0,
  0,
  0,
  0,
  0,
  0,
  0,
  0,
  0,
  0,
  0,
  0,
  0,
  0,
  0,
  0,
  0,
  0,
  1,
  1,
  1,
  1,
  2,
  2,
  3,
  3,
  4,
  4,
  4,
  4,
  4,
  4,
  5,
  5,
  6,
  6,
  7,
  7,
  8,
  8,
  8,
  8,
  9,
  9,
  9,
  9,
  9,
  9,
  10,
  10,
  10,
  10,
  10,
  10,
  10,
  10,
  10,
  10,
  10,
  10,
  11,
  11,
  12,
  12,
  13,
  13,
  13,
  13,
  14,
  14,
  14,
  14,
  15,
  15,
  15,
  15,
  16,
  16,
  16,
  16,
  17,
  17,
  17,
  17,
  18,
  18,
  18,
  18,
  19,
  19,
  19,
  19,
  20,
  20,
  20,
  20,
  21,
  21,
  21,
  21,
  22,
  22,
  23,
  23,
  24,
  24,
  24,
  24,
  25,
  25,
  25,
  25,
  25,
  25,
  26,
  26,
  27,
  27,
  28,
  28,
  29,
  29,
  29,
  29,
  29,
  29,
  30,
  30,
  31,
  31,
  32,
  32,
  33,
  33,
  33,
  33,
  34,
  34,
  35,
  35,
  35,
  35;

  Material  {
   1.000000;1.000000;1.000000;1.000000;;
   0.000000;
   0.000000;0.000000;0.000000;;
   0.000000;0.000000;0.000000;;

   TextureFilename  {
    "FormSide1.png";
   }
  }

  Material  {
   1.000000;1.000000;1.000000;1.000000;;
   0.000000;
   0.000000;0.000000;0.000000;;
   0.000000;0.000000;0.000000;;

   TextureFilename  {
    "FormSide1.png";
   }
  }

  Material  {
   1.000000;1.000000;1.000000;1.000000;;
   0.000000;
   0.000000;0.000000;0.000000;;
   0.000000;0.000000;0.000000;;

   TextureFilename  {
    "FormSide2.png";
   }
  }

  Material  {
   1.000000;1.000000;1.000000;1.000000;;
   0.000000;
   0.000000;0.000000;0.000000;;
   0.000000;0.000000;0.000000;;

   TextureFilename  {
    "FormSide2.png";
   }
  }

  Material  {
   1.000000;1.000000;1.000000;1.000000;;
   0.000000;
   0.000000;0.000000;0.000000;;
   0.000000;0.000000;0.000000;;

   TextureFilename  {
    "FormC.png";
   }
  }

  Material  {
   1.000000;1.000000;1.000000;1.000000;;
   0.000000;
   0.000000;0.000000;0.000000;;
   0.000000;0.000000;0.000000;;

   TextureFilename  {
    "RoofPier1.png";
   }
  }

  Material  {
   1.000000;1.000000;1.000000;1.000000;;
   0.000000;
   0.000000;0.000000;0.000000;;
   0.000000;0.000000;0.000000;;

   TextureFilename  {
    "RoofPier1.png";
   }
  }

  Material  {
   1.000000;1.000000;1.000000;1.000000;;
   0.000000;
   0.000000;0.000000;0.000000;;
   0.000000;0.000000;0.000000;;

   TextureFilename  {
    "RoofPlate1.png";
   }
  }

  Material  {
   1.000000;1.000000;1.000000;1.000000;;
   0.000000;
   0.000000;0.000000;0.000000;;
   0.000000;0.000000;0.000000;;

   TextureFilename  {
    "RoofSide1.png";
   }
  }

  Material  {
   1.000000;1.000000;1.000000;1.000000;;
   0.000000;
   0.000000;0.000000;0.000000;;
   0.000000;0.000000;0.000000;;

   TextureFilename  {
    "RoofPlate2.png";
   }
  }

  Material  {
   1.000000;1.000000;1.000000;1.000000;;
   0.000000;
   0.000000;0.000000;0.000000;;
   0.000000;0.000000;0.000000;;

   TextureFilename  {
    "RoofSide2.png";
   }
  }

  Material  {
   1.000000;1.000000;1.000000;1.000000;;
   0.000000;
   0.000000;0.000000;0.000000;;
   0.000000;0.000000;0.000000;;

   TextureFilename  {
    "Pole_Iron1.png";
   }
  }

  Material  {
   1.000000;1.000000;1.000000;1.000000;;
   0.000000;
   0.000000;0.000000;0.000000;;
   0.000000;0.000000;0.000000;;

   TextureFilename  {
    "Pole_Iron1.png";
   }
  }

  Material  {
   1.000000;1.000000;1.000000;1.000000;;
   0.000000;
   0.000000;0.000000;0.000000;;
   0.000000;0.000000;0.000000;;

   TextureFilename  {
    "Iron1.png";
   }
  }

  Material  {
   1.000000;1.000000;1.000000;1.000000;;
   0.000000;
   0.000000;0.000000;0.000000;;
   0.000000;0.000000;0.000000;;

   TextureFilename  {
    "Iron1.png";
   }
  }

  Material  {
   1.000000;1.000000;1.000000;1.000000;;
   0.000000;
   0.000000;0.000000;0.000000;;
   0.000000;0.000000;0.000000;;

   TextureFilename  {
    "Iron1.png";
   }
  }

  Material  {
   1.000000;1.000000;1.000000;1.000000;;
   0.000000;
   0.000000;0.000000;0.000000;;
   0.000000;0.000000;0.000000;;

   TextureFilename  {
    "Iron3.png";
   }
  }

  Material  {
   1.000000;1.000000;1.000000;1.000000;;
   0.000000;
   0.000000;0.000000;0.000000;;
   0.000000;0.000000;0.000000;;

   TextureFilename  {
    "Iron3.png";
   }
  }

  Material  {
   1.000000;1.000000;1.000000;1.000000;;
   0.000000;
   0.000000;0.000000;0.000000;;
   0.000000;0.000000;0.000000;;

   TextureFilename  {
    "Iron3.png";
   }
  }

  Material  {
   1.000000;1.000000;1.000000;1.000000;;
   0.000000;
   0.000000;0.000000;0.000000;;
   0.000000;0.000000;0.000000;;

   TextureFilename  {
    "Iron3.png";
   }
  }

  Material  {
   1.000000;1.000000;1.000000;1.000000;;
   0.000000;
   0.000000;0.000000;0.000000;;
   0.000000;0.000000;0.000000;;

   TextureFilename  {
    "Iron3.png";
   }
  }

  Material  {
   1.000000;1.000000;1.000000;1.000000;;
   0.000000;
   0.000000;0.000000;0.000000;;
   0.000000;0.000000;0.000000;;

   TextureFilename  {
    "Iron3.png";
   }
  }

  Material  {
   1.000000;1.000000;1.000000;1.000000;;
   0.000000;
   0.000000;0.000000;0.000000;;
   0.000000;0.000000;0.000000;;

   TextureFilename  {
    "BenchWall1.png";
   }
  }

  Material  {
   1.000000;1.000000;1.000000;1.000000;;
   0.000000;
   0.000000;0.000000;0.000000;;
   0.000000;0.000000;0.000000;;

   TextureFilename  {
    "BenchWall1.png";
   }
  }

  Material  {
   1.000000;1.000000;1.000000;1.000000;;
   0.000000;
   0.000000;0.000000;0.000000;;
   0.000000;0.000000;0.000000;;

   TextureFilename  {
    "BenchWall2.png";
   }
  }

  Material  {
   1.000000;1.000000;1.000000;1.000000;;
   0.000000;
   0.000000;0.000000;0.000000;;
   0.000000;0.000000;0.000000;;

   TextureFilename  {
    "Bench1.png";
   }
  }

  Material  {
   1.000000;1.000000;1.000000;1.000000;;
   0.000000;
   0.000000;0.000000;0.000000;;
   0.000000;0.000000;0.000000;;

   TextureFilename  {
    "Bench2.png";
   }
  }

  Material  {
   1.000000;1.000000;1.000000;1.000000;;
   0.000000;
   0.000000;0.000000;0.000000;;
   0.000000;0.000000;0.000000;;

   TextureFilename  {
    "Bench2.png";
   }
  }

  Material  {
   1.000000;1.000000;1.000000;1.000000;;
   0.000000;
   0.000000;0.000000;0.000000;;
   0.000000;0.000000;0.000000;;

   TextureFilename  {
    "Bench2.png";
   }
  }

  Material  {
   1.000000;1.000000;1.000000;1.000000;;
   0.000000;
   0.000000;0.000000;0.000000;;
   0.000000;0.000000;0.000000;;

   TextureFilename  {
    "Bench1.png";
   }
  }

  Material  {
   1.000000;1.000000;1.000000;1.000000;;
   0.000000;
   0.000000;0.000000;0.000000;;
   0.000000;0.000000;0.000000;;

   TextureFilename  {
    "Bench2.png";
   }
  }

  Material  {
   1.000000;1.000000;1.000000;1.000000;;
   0.000000;
   0.000000;0.000000;0.000000;;
   0.000000;0.000000;0.000000;;

   TextureFilename  {
    "Bench2.png";
   }
  }

  Material  {
   1.000000;1.000000;1.000000;1.000000;;
   0.000000;
   0.000000;0.000000;0.000000;;
   0.000000;0.000000;0.000000;;

   TextureFilename  {
    "Bench2.png";
   }
  }

  Material  {
   1.000000;1.000000;1.000000;1.000000;;
   0.000000;
   0.000000;0.000000;0.000000;;
   0.000000;0.000000;0.000000;;

   TextureFilename  {
    "Meisyo.png";
   }
  }

  Material  {
   1.000000;1.000000;1.000000;1.000000;;
   0.000000;
   0.000000;0.000000;0.000000;;
   0.000000;0.000000;0.000000;;

   TextureFilename  {
    "Clock1.png";
   }
  }

  Material  {
   1.000000;1.000000;1.000000;1.000000;;
   0.000000;
   0.000000;0.000000;0.000000;;
   0.000000;0.000000;0.000000;;

   TextureFilename  {
    "Ekimei1.png";
   }
  }
 }

 MeshTextureCoords  {
  192;
  0.000000;1.000000;,
  0.000000;0.440000;,
  0.000000;0.000000;,
  1.000000;1.000000;,
  1.000000;0.440000;,
  1.000000;0.000000;,
  2.000000;1.000000;,
  2.000000;0.440000;,
  2.000000;0.000000;,
  3.000000;1.000000;,
  3.000000;0.440000;,
  3.000000;0.000000;,
  4.000000;1.000000;,
  4.000000;0.440000;,
  4.000000;0.000000;,
  5.000000;1.000000;,
  5.000000;0.440000;,
  5.000000;0.000000;,
  0.000000;1.000000;,
  0.000000;0.440000;,
  0.000000;0.000000;,
  5.000000;1.000000;,
  5.000000;0.440000;,
  5.000000;0.000000;,
  0.600000;1.000000;,
  0.600000;0.000000;,
  0.900000;1.000000;,
  0.900000;0.000000;,
  0.100000;1.000000;,
  0.100000;0.000000;,
  0.200000;1.000000;,
  0.200000;0.000000;,
  1.000000;0.000000;,
  1.000000;0.500000;,
  1.000000;1.000000;,
  1.000000;1.500000;,
  1.000000;2.000000;,
  1.000000;2.500000;,
  0.000000;0.000000;,
  0.000000;2.500000;,
  0.000000;1.000000;,
  0.000000;0.050000;,
  1.000000;1.000000;,
  1.000000;0.050000;,
  0.000000;1.000000;,
  0.000000;0.050000;,
  1.000000;1.000000;,
  1.000000;0.050000;,
  0.000000;0.992000;,
  0.000000;3.584000;,
  0.100000;0.992000;,
  0.100000;3.584000;,
  0.000000;1.000000;,
  0.000000;0.000000;,
  0.100000;1.000000;,
  0.100000;0.000000;,
  0.200000;1.000000;,
  0.200000;0.000000;,
  0.300000;1.000000;,
  0.300000;0.000000;,
  0.000000;0.000000;,
  0.000000;0.600000;,
  0.000000;1.200000;,
  0.000000;1.800000;,
  0.000000;2.400000;,
  0.000000;3.000000;,
  0.100000;0.000000;,
  0.100000;3.000000;,
  0.000000;1.000000;,
  0.000000;0.000000;,
  0.100000;1.000000;,
  0.100000;0.000000;,
  0.200000;1.000000;,
  0.200000;0.000000;,
  0.300000;1.000000;,
  0.300000;0.000000;,
  0.400000;1.000000;,
  0.400000;0.000000;,
  0.500000;1.000000;,
  0.500000;0.000000;,
  0.000000;1.000000;,
  0.000000;0.000000;,
  0.500000;1.000000;,
  0.500000;0.000000;,
  1.000000;1.000000;,
  0.000000;1.000000;,
  1.000000;0.000000;,
  0.000000;0.000000;,
  1.000000;1.000000;,
  0.000000;1.000000;,
  1.000000;0.000000;,
  0.000000;0.000000;,
  0.000000;1.000000;,
  0.000000;0.000000;,
  0.100000;1.000000;,
  0.100000;0.000000;,
  0.000000;1.000000;,
  0.000000;0.000000;,
  0.100000;1.000000;,
  0.100000;0.000000;,
  0.000000;1.000000;,
  0.000000;0.000000;,
  0.100000;1.000000;,
  0.100000;0.000000;,
  0.990000;1.000000;,
  0.990000;0.000000;,
  0.010000;1.000000;,
  0.010000;0.000000;,
  0.990000;1.000000;,
  0.990000;0.000000;,
  0.010000;1.000000;,
  0.010000;0.000000;,
  0.990000;1.000000;,
  0.990000;0.000000;,
  0.010000;1.000000;,
  0.010000;0.000000;,
  0.990000;1.000000;,
  0.990000;0.000000;,
  0.010000;1.000000;,
  0.010000;0.000000;,
  0.990000;1.000000;,
  0.990000;0.000000;,
  0.010000;1.000000;,
  0.010000;0.000000;,
  0.990000;1.000000;,
  0.990000;0.000000;,
  0.010000;1.000000;,
  0.010000;0.000000;,
  0.000000;0.985000;,
  0.000000;0.015000;,
  1.000000;0.985000;,
  1.000000;0.015000;,
  0.000000;0.985000;,
  0.000000;0.015000;,
  1.000000;0.985000;,
  1.000000;0.015000;,
  0.000000;0.985000;,
  0.000000;0.015000;,
  4.000000;0.985000;,
  4.000000;0.015000;,
  0.000000;1.000000;,
  0.000000;0.970000;,
  0.000000;0.450000;,
  0.000000;0.050000;,
  2.000000;1.000000;,
  2.000000;0.970000;,
  2.000000;0.450000;,
  2.000000;0.050000;,
  1.000000;1.000000;,
  1.000000;0.000000;,
  0.000000;1.000000;,
  0.000000;0.000000;,
  1.000000;1.000000;,
  1.000000;0.000000;,
  0.000000;1.000000;,
  0.000000;0.000000;,
  1.000000;1.000000;,
  1.000000;0.000000;,
  0.000000;1.000000;,
  0.000000;0.000000;,
  0.000000;1.000000;,
  0.000000;0.970000;,
  0.000000;0.450000;,
  0.000000;0.050000;,
  2.000000;1.000000;,
  2.000000;0.970000;,
  2.000000;0.450000;,
  2.000000;0.050000;,
  1.000000;1.000000;,
  1.000000;0.000000;,
  0.000000;1.000000;,
  0.000000;0.000000;,
  1.000000;1.000000;,
  1.000000;0.000000;,
  0.000000;1.000000;,
  0.000000;0.000000;,
  1.000000;1.000000;,
  1.000000;0.000000;,
  0.000000;1.000000;,
  0.000000;0.000000;,
  1.000000;1.000000;,
  1.000000;0.000000;,
  0.000000;1.000000;,
  0.000000;0.000000;,
  0.000000;0.965000;,
  0.000000;0.000000;,
  1.000000;0.965000;,
  1.000000;0.000000;,
  1.000000;0.312500;,
  1.000000;0.000000;,
  0.000000;0.312500;,
  0.000000;0.000000;;
 }

 MeshNormals  {
  144;
  -0.999992;0.000000;-0.004104;,
  -0.999992;0.000000;-0.004104;,
  0.000000;1.000000;0.000000;,
  0.000000;1.000000;0.000000;,
  -0.999998;0.000000;-0.002052;,
  -0.999998;0.000000;-0.002052;,
  0.000000;1.000000;0.000000;,
  0.000000;1.000000;0.000000;,
  -1.000000;0.000000;0.000000;,
  -1.000000;0.000000;0.000000;,
  0.000000;1.000000;0.000000;,
  0.000000;1.000000;0.000000;,
  -0.999998;0.000000;0.002052;,
  -0.999998;0.000000;0.002052;,
  0.000000;1.000000;0.000000;,
  0.000000;1.000000;0.000000;,
  -0.999992;0.000000;0.004104;,
  -0.999992;0.000000;0.004104;,
  0.000000;1.000000;0.000000;,
  0.000000;1.000000;0.000000;,
  0.999982;0.000000;0.006000;,
  0.999982;0.000000;0.006000;,
  0.000000;1.000000;0.000000;,
  0.000000;1.000000;0.000000;,
  -1.000000;0.000000;0.000000;,
  -1.000000;0.000000;0.000000;,
  0.999982;0.000000;0.006000;,
  0.999982;0.000000;0.006000;,
  0.000000;1.000000;0.000000;,
  0.000000;1.000000;0.000000;,
  0.000000;1.000000;0.000000;,
  0.000000;1.000000;0.000000;,
  0.000000;1.000000;0.000000;,
  0.000000;1.000000;0.000000;,
  0.000000;0.000000;-1.000000;,
  0.000000;0.000000;-1.000000;,
  0.000000;0.000000;-1.000000;,
  0.000000;0.000000;-1.000000;,
  0.000000;-1.000000;0.000000;,
  0.000000;-1.000000;0.000000;,
  -0.999982;0.000000;-0.006000;,
  -0.999982;0.000000;-0.006000;,
  0.999982;0.000000;0.006000;,
  0.999982;0.000000;0.006000;,
  0.000000;-1.000000;0.000000;,
  0.000000;-1.000000;0.000000;,
  0.000000;-1.000000;0.000000;,
  0.000000;-1.000000;0.000000;,
  0.000000;-1.000000;0.000000;,
  0.000000;-1.000000;0.000000;,
  -0.999992;0.000000;-0.004104;,
  -0.999992;0.000000;-0.004104;,
  -0.999998;0.000000;-0.002052;,
  -0.999998;0.000000;-0.002052;,
  -1.000000;0.000000;0.000000;,
  -1.000000;0.000000;0.000000;,
  -0.999998;0.000000;0.002052;,
  -0.999998;0.000000;0.002052;,
  -0.999992;0.000000;0.004104;,
  -0.999992;0.000000;0.004104;,
  0.999982;0.000000;0.006000;,
  0.999982;0.000000;0.006000;,
  0.000000;0.000000;-1.000000;,
  0.000000;0.000000;-1.000000;,
  0.000000;0.000000;-1.000000;,
  0.000000;0.000000;-1.000000;,
  0.999982;0.000000;0.006000;,
  0.999982;0.000000;0.006000;,
  -0.999982;0.000000;-0.006000;,
  -0.999982;0.000000;-0.006000;,
  0.999982;0.000000;0.006000;,
  0.999982;0.000000;0.006000;,
  -0.999982;0.000000;-0.006000;,
  -0.999982;0.000000;-0.006000;,
  0.999982;0.000000;0.006000;,
  0.999982;0.000000;0.006000;,
  -0.999982;0.000000;-0.006000;,
  -0.999982;0.000000;-0.006000;,
  0.000000;0.000000;-1.000000;,
  0.000000;0.000000;-1.000000;,
  0.000000;0.000000;1.000000;,
  0.000000;0.000000;1.000000;,
  0.000000;0.000000;-1.000000;,
  0.000000;0.000000;-1.000000;,
  0.000000;0.000000;1.000000;,
  0.000000;0.000000;1.000000;,
  0.000000;0.000000;-1.000000;,
  0.000000;0.000000;-1.000000;,
  0.000000;0.000000;1.000000;,
  0.000000;0.000000;1.000000;,
  0.000000;0.000000;-1.000000;,
  0.000000;0.000000;-1.000000;,
  0.000000;0.000000;1.000000;,
  0.000000;0.000000;1.000000;,
  0.000000;0.000000;-1.000000;,
  0.000000;0.000000;-1.000000;,
  0.000000;0.000000;1.000000;,
  0.000000;0.000000;1.000000;,
  0.000000;0.000000;-1.000000;,
  0.000000;0.000000;-1.000000;,
  0.000000;0.000000;1.000000;,
  0.000000;0.000000;1.000000;,
  0.000000;0.000000;-1.000000;,
  0.000000;0.000000;-1.000000;,
  0.000000;0.000000;-1.000000;,
  0.000000;0.000000;-1.000000;,
  1.000000;0.000000;0.000000;,
  1.000000;0.000000;0.000000;,
  -1.000000;0.000000;0.000000;,
  -1.000000;0.000000;0.000000;,
  -1.000000;0.000000;0.000000;,
  -1.000000;0.000000;0.000000;,
  0.000000;1.000000;0.000000;,
  0.000000;1.000000;0.000000;,
  -0.996815;0.079745;0.000000;,
  -0.996815;0.079745;0.000000;,
  0.000000;0.000000;-1.000000;,
  0.000000;0.000000;-1.000000;,
  0.000000;0.000000;-1.000000;,
  0.000000;0.000000;-1.000000;,
  0.000000;0.000000;-1.000000;,
  0.000000;0.000000;-1.000000;,
  1.000000;0.000000;0.000000;,
  1.000000;0.000000;0.000000;,
  0.000000;1.000000;0.000000;,
  0.000000;1.000000;0.000000;,
  0.996815;0.079745;0.000000;,
  0.996815;0.079745;0.000000;,
  0.000000;0.000000;-1.000000;,
  0.000000;0.000000;-1.000000;,
  0.000000;0.000000;-1.000000;,
  0.000000;0.000000;-1.000000;,
  0.000000;0.000000;-1.000000;,
  0.000000;0.000000;-1.000000;,
  1.000000;0.000000;0.000000;,
  1.000000;0.000000;0.000000;,
  -1.000000;0.000000;0.000000;,
  -1.000000;0.000000;0.000000;,
  0.000000;0.000000;-1.000000;,
  0.000000;0.000000;-1.000000;,
  1.000000;0.000000;0.000000;,
  1.000000;0.000000;0.000000;,
  -1.000000;0.000000;0.000000;,
  -1.000000;0.000000;0.000000;;
  144;
  3;0,0,0;,
  3;1,1,1;,
  3;2,2,2;,
  3;3,3,3;,
  3;4,4,4;,
  3;5,5,5;,
  3;6,6,6;,
  3;7,7,7;,
  3;8,8,8;,
  3;9,9,9;,
  3;10,10,10;,
  3;11,11,11;,
  3;12,12,12;,
  3;13,13,13;,
  3;14,14,14;,
  3;15,15,15;,
  3;16,16,16;,
  3;17,17,17;,
  3;18,18,18;,
  3;19,19,19;,
  3;20,20,20;,
  3;21,21,21;,
  3;22,22,22;,
  3;23,23,23;,
  3;24,24,24;,
  3;25,25,25;,
  3;26,26,26;,
  3;27,27,27;,
  3;28,28,28;,
  3;29,29,29;,
  3;30,30,30;,
  3;31,31,31;,
  3;32,32,32;,
  3;33,33,33;,
  3;34,34,34;,
  3;35,35,35;,
  3;36,36,36;,
  3;37,37,37;,
  3;38,38,38;,
  3;39,39,39;,
  3;40,40,40;,
  3;41,41,41;,
  3;42,42,42;,
  3;43,43,43;,
  3;44,44,44;,
  3;45,45,45;,
  3;46,46,46;,
  3;47,47,47;,
  3;48,48,48;,
  3;49,49,49;,
  3;50,50,50;,
  3;51,51,51;,
  3;52,52,52;,
  3;53,53,53;,
  3;54,54,54;,
  3;55,55,55;,
  3;56,56,56;,
  3;57,57,57;,
  3;58,58,58;,
  3;59,59,59;,
  3;60,60,60;,
  3;61,61,61;,
  3;62,62,62;,
  3;63,63,63;,
  3;64,64,64;,
  3;65,65,65;,
  3;66,66,66;,
  3;67,67,67;,
  3;68,68,68;,
  3;69,69,69;,
  3;70,70,70;,
  3;71,71,71;,
  3;72,72,72;,
  3;73,73,73;,
  3;74,74,74;,
  3;75,75,75;,
  3;76,76,76;,
  3;77,77,77;,
  3;78,78,78;,
  3;79,79,79;,
  3;80,80,80;,
  3;81,81,81;,
  3;82,82,82;,
  3;83,83,83;,
  3;84,84,84;,
  3;85,85,85;,
  3;86,86,86;,
  3;87,87,87;,
  3;88,88,88;,
  3;89,89,89;,
  3;90,90,90;,
  3;91,91,91;,
  3;92,92,92;,
  3;93,93,93;,
  3;94,94,94;,
  3;95,95,95;,
  3;96,96,96;,
  3;97,97,97;,
  3;98,98,98;,
  3;99,99,99;,
  3;100,100,100;,
  3;101,101,101;,
  3;102,102,102;,
  3;103,103,103;,
  3;104,104,104;,
  3;105,105,105;,
  3;106,106,106;,
  3;107,107,107;,
  3;108,108,108;,
  3;109,109,109;,
  3;110,110,110;,
  3;111,111,111;,
  3;112,112,112;,
  3;113,113,113;,
  3;114,114,114;,
  3;115,115,115;,
  3;116,116,116;,
  3;117,117,117;,
  3;118,118,118;,
  3;119,119,119;,
  3;120,120,120;,
  3;121,121,121;,
  3;122,122,122;,
  3;123,123,123;,
  3;124,124,124;,
  3;125,125,125;,
  3;126,126,126;,
  3;127,127,127;,
  3;128,128,128;,
  3;129,129,129;,
  3;130,130,130;,
  3;131,131,131;,
  3;132,132,132;,
  3;133,133,133;,
  3;134,134,134;,
  3;135,135,135;,
  3;136,136,136;,
  3;137,137,137;,
  3;138,138,138;,
  3;139,139,139;,
  3;140,140,140;,
  3;141,141,141;,
  3;142,142,142;,
  3;143,143,143;;
 }
}