xof 0303txt 0032
template Vector {
 <3d82ab5e-62da-11cf-ab39-0020af71e433>
 FLOAT x;
 FLOAT y;
 FLOAT z;
}

template MeshFace {
 <3d82ab5f-62da-11cf-ab39-0020af71e433>
 DWORD nFaceVertexIndices;
 array DWORD faceVertexIndices[nFaceVertexIndices];
}

template Mesh {
 <3d82ab44-62da-11cf-ab39-0020af71e433>
 DWORD nVertices;
 array Vector vertices[nVertices];
 DWORD nFaces;
 array MeshFace faces[nFaces];
 [...]
}

template ColorRGBA {
 <35ff44e0-6c7c-11cf-8f52-0040333594a3>
 FLOAT red;
 FLOAT green;
 FLOAT blue;
 FLOAT alpha;
}

template ColorRGB {
 <d3e16e81-7835-11cf-8f52-0040333594a3>
 FLOAT red;
 FLOAT green;
 FLOAT blue;
}

template Material {
 <3d82ab4d-62da-11cf-ab39-0020af71e433>
 ColorRGBA faceColor;
 FLOAT power;
 ColorRGB specularColor;
 ColorRGB emissiveColor;
 [...]
}

template MeshMaterialList {
 <f6f23f42-7686-11cf-8f52-0040333594a3>
 DWORD nMaterials;
 DWORD nFaceIndexes;
 array DWORD faceIndexes[nFaceIndexes];
 [Material <3d82ab4d-62da-11cf-ab39-0020af71e433>]
}

template TextureFilename {
 <a42790e1-7810-11cf-8f52-0040333594a3>
 STRING filename;
}

template Coords2d {
 <f6f23f44-7686-11cf-8f52-0040333594a3>
 FLOAT u;
 FLOAT v;
}

template MeshTextureCoords {
 <f6f23f40-7686-11cf-8f52-0040333594a3>
 DWORD nTextureCoords;
 array Coords2d textureCoords[nTextureCoords];
}

template MeshNormals {
 <f6f23f43-7686-11cf-8f52-0040333594a3>
 DWORD nNormals;
 array Vector normals[nNormals];
 DWORD nFaceNormals;
 array MeshFace faceNormals[nFaceNormals];
}


Mesh  {
 268;
 1.500000;0.850000;-0.049600;,
 1.500000;1.100000;-0.049600;,
 2.700000;1.100000;-0.049600;,
 1.479400;0.850000;4.970100;,
 1.479400;1.100000;4.970100;,
 2.679400;1.100000;4.970100;,
 1.469100;0.850000;9.990000;,
 1.469100;1.100000;9.990000;,
 2.669100;1.100000;9.990000;,
 1.469100;0.850000;15.010000;,
 1.469100;1.100000;15.010000;,
 2.669100;1.100000;15.010000;,
 1.479400;0.850000;20.029900;,
 1.479400;1.100000;20.029900;,
 2.679400;1.100000;20.029900;,
 1.500000;0.850000;25.049601;,
 1.500000;1.100000;25.049601;,
 2.700000;1.100000;25.049601;,
 8.800200;0.850000;0.000000;,
 8.800200;1.100000;0.000000;,
 7.600200;1.100000;0.000000;,
 8.950200;0.850000;25.000000;,
 8.950200;1.100000;25.000000;,
 7.750200;1.100000;25.000000;,
 2.200000;-0.450000;0.000000;,
 2.200000;0.850000;0.000000;,
 2.200000;-0.450000;25.000000;,
 2.200000;0.850000;25.000000;,
 8.100200;-0.450000;0.000000;,
 8.100200;0.850000;0.000000;,
 8.250200;-0.450000;25.000000;,
 8.250200;0.850000;25.000000;,
 2.700000;1.100000;-0.049600;,
 2.679400;1.100000;4.970100;,
 2.669100;1.100000;9.990000;,
 2.669100;1.100000;15.010000;,
 2.679400;1.100000;20.029900;,
 2.700000;1.100000;25.049601;,
 3.618200;1.100000;4.000000;,
 3.687800;1.100000;14.600000;,
 3.426200;1.100000;21.000000;,
 3.446000;1.100000;24.299999;,
 7.600200;1.100000;0.000000;,
 7.750200;1.100000;25.000000;,
 6.618200;1.100000;4.000000;,
 6.687800;1.100000;14.600000;,
 7.026200;1.100000;21.000000;,
 7.046000;1.100000;24.299999;,
 2.950000;1.100000;7.000000;,
 2.950000;5.800000;7.000000;,
 3.450000;1.100000;7.000000;,
 3.450000;5.800000;7.000000;,
 3.025000;1.100000;19.500000;,
 3.025000;5.800000;19.500000;,
 3.525000;1.100000;19.500000;,
 3.525000;5.800000;19.500000;,
 6.950000;1.100000;7.000000;,
 6.950000;5.800000;7.000000;,
 7.450000;1.100000;7.000000;,
 7.450000;5.800000;7.000000;,
 7.025000;1.100000;19.500000;,
 7.025000;5.800000;19.500000;,
 7.525000;1.100000;19.500000;,
 7.525000;5.800000;19.500000;,
 3.860000;5.000000;-5.500000;,
 4.043000;5.000000;25.000000;,
 6.260000;5.000000;-5.500000;,
 6.443000;5.000000;25.000000;,
 3.860000;5.000000;-5.500000;,
 3.860000;5.800000;-5.500000;,
 4.043000;5.000000;25.000000;,
 4.043000;5.800000;25.000000;,
 6.260000;5.000000;-5.500000;,
 6.260000;5.800000;-5.500000;,
 6.443000;5.000000;25.000000;,
 6.443000;5.800000;25.000000;,
 1.500000;5.800000;-0.049600;,
 1.479400;5.800000;4.970100;,
 1.469100;5.800000;9.990000;,
 1.469100;5.800000;15.010000;,
 1.479400;5.800000;20.029900;,
 1.500000;5.800000;25.049601;,
 8.800200;5.800000;0.000000;,
 8.950200;5.800000;25.000000;,
 1.500000;5.800000;-0.049600;,
 1.500000;6.000000;-0.049600;,
 1.479400;5.800000;4.970100;,
 1.479400;6.000000;4.970100;,
 1.469100;5.800000;9.990000;,
 1.469100;6.000000;9.990000;,
 1.469100;5.800000;15.010000;,
 1.469100;6.000000;15.010000;,
 1.479400;5.800000;20.029900;,
 1.479400;6.000000;20.029900;,
 1.500000;5.800000;25.049601;,
 1.500000;6.000000;25.049601;,
 8.800200;5.800000;0.000000;,
 8.800200;6.000000;0.000000;,
 8.950200;5.800000;25.000000;,
 8.950200;6.000000;25.000000;,
 2.950000;5.800000;7.000000;,
 2.950000;7.500000;7.000000;,
 3.450000;5.800000;7.000000;,
 3.450000;7.500000;7.000000;,
 3.025000;5.800000;19.500000;,
 3.025000;7.500000;19.500000;,
 3.525000;5.800000;19.500000;,
 3.525000;7.500000;19.500000;,
 6.950000;5.800000;7.000000;,
 6.950000;7.500000;7.000000;,
 7.450000;5.800000;7.000000;,
 7.450000;7.500000;7.000000;,
 7.025000;5.800000;19.500000;,
 7.025000;7.500000;19.500000;,
 7.525000;5.800000;19.500000;,
 7.525000;7.500000;19.500000;,
 5.060000;6.700000;-5.500000;,
 5.060000;7.500000;-5.500000;,
 3.200000;6.700000;7.000000;,
 3.200000;7.500000;7.000000;,
 3.275000;6.700000;19.500000;,
 3.275000;7.500000;19.500000;,
 5.060000;6.700000;-5.500000;,
 5.060000;7.500000;-5.500000;,
 7.200000;6.700000;7.000000;,
 7.200000;7.500000;7.000000;,
 7.275000;6.700000;19.500000;,
 7.275000;7.500000;19.500000;,
 3.125000;7.100000;-5.500000;,
 3.125000;7.500000;-5.500000;,
 3.200000;7.100000;7.000000;,
 3.200000;7.500000;7.000000;,
 7.125000;7.100000;-5.500000;,
 7.125000;7.500000;-5.500000;,
 7.200000;7.100000;7.000000;,
 7.200000;7.500000;7.000000;,
 3.047000;5.800000;-3.500000;,
 3.047000;7.500000;-3.500000;,
 7.215000;5.800000;-3.500000;,
 7.215000;7.500000;-3.500000;,
 3.072500;5.800000;0.750000;,
 3.072500;7.500000;0.750000;,
 7.240500;5.800000;0.750000;,
 7.240500;7.500000;0.750000;,
 3.098000;5.800000;5.000000;,
 3.098000;7.500000;5.000000;,
 7.266000;5.800000;5.000000;,
 7.266000;7.500000;5.000000;,
 3.122000;5.800000;9.000000;,
 3.122000;7.500000;9.000000;,
 7.290000;5.800000;9.000000;,
 7.290000;7.500000;9.000000;,
 3.147500;5.800000;13.250000;,
 3.147500;7.500000;13.250000;,
 7.315500;5.800000;13.250000;,
 7.315500;7.500000;13.250000;,
 3.173000;5.800000;17.500000;,
 3.173000;7.500000;17.500000;,
 7.341000;5.800000;17.500000;,
 7.341000;7.500000;17.500000;,
 3.197000;5.800000;21.500000;,
 3.197000;7.500000;21.500000;,
 7.365000;5.800000;21.500000;,
 7.365000;7.500000;21.500000;,
 3.618200;-3.000000;4.000000;,
 3.618200;1.100000;4.000000;,
 3.687800;-3.000000;14.600000;,
 3.687800;1.100000;14.600000;,
 6.618200;-3.000000;4.000000;,
 6.618200;1.100000;4.000000;,
 6.687800;-3.000000;14.600000;,
 6.687800;1.100000;14.600000;,
 3.618200;1.100000;4.000000;,
 3.618200;2.300000;4.000000;,
 3.687800;1.100000;14.600000;,
 3.687800;2.300000;14.600000;,
 6.618200;1.100000;4.000000;,
 6.618200;2.300000;4.000000;,
 6.687800;1.100000;14.600000;,
 6.687800;2.300000;14.600000;,
 3.486200;1.100000;4.000000;,
 3.486200;2.300000;4.000000;,
 3.686200;1.100000;4.000000;,
 3.686200;2.300000;4.000000;,
 6.526200;1.100000;4.000000;,
 6.526200;2.300000;4.000000;,
 6.726200;1.100000;4.000000;,
 6.726200;2.300000;4.000000;,
 3.426200;1.100000;21.000000;,
 3.426200;4.950000;21.000000;,
 7.026200;1.100000;21.000000;,
 7.026200;4.950000;21.000000;,
 7.026200;1.100000;21.000000;,
 7.026200;4.950000;21.000000;,
 7.046000;1.100000;24.299999;,
 7.046000;4.950000;24.299999;,
 3.426200;1.100000;21.000000;,
 3.426200;4.950000;21.000000;,
 3.446000;1.100000;24.299999;,
 3.446000;4.950000;24.299999;,
 3.446000;1.100000;24.299999;,
 3.446000;4.950000;24.299999;,
 7.046000;1.100000;24.299999;,
 7.046000;4.950000;24.299999;,
 3.428200;1.100000;21.002001;,
 3.428200;4.950000;21.002001;,
 7.024200;1.100000;21.002001;,
 7.024200;4.950000;21.002001;,
 3.466000;1.100000;24.298000;,
 3.466000;4.950000;24.298000;,
 7.044000;1.100000;24.298000;,
 7.044000;4.950000;24.298000;,
 3.426200;4.950000;21.000000;,
 3.426200;5.800000;21.000000;,
 7.026200;4.950000;21.000000;,
 7.026200;5.800000;21.000000;,
 3.426200;4.950000;24.299999;,
 3.426200;5.800000;24.299999;,
 7.046000;4.950000;24.299999;,
 7.046000;5.800000;24.299999;,
 3.426200;1.100000;21.000000;,
 3.726200;1.100000;21.000000;,
 3.446000;1.100000;24.299999;,
 3.743000;1.100000;23.799999;,
 6.726200;1.100000;21.000000;,
 7.026200;1.100000;21.000000;,
 6.743000;1.100000;23.799999;,
 7.046000;1.100000;24.299999;,
 3.726200;1.100000;21.000000;,
 3.726200;4.950000;21.000000;,
 3.743000;1.100000;23.799999;,
 3.743000;4.950000;23.799999;,
 6.726200;1.100000;21.000000;,
 6.726200;4.950000;21.000000;,
 6.743000;1.100000;23.799999;,
 6.743000;4.950000;23.799999;,
 4.743000;-3.000000;23.600000;,
 4.743000;4.950000;23.600000;,
 4.747200;-3.000000;24.299999;,
 4.747200;4.950000;24.299999;,
 5.743000;-3.000000;23.600000;,
 5.743000;4.950000;23.600000;,
 5.747200;-3.000000;24.299999;,
 5.747200;4.950000;24.299999;,
 3.726200;-3.000000;21.000000;,
 3.726200;1.100000;21.000000;,
 6.726200;-3.000000;21.000000;,
 6.726200;1.100000;21.000000;,
 3.743000;-3.000000;23.799999;,
 3.743000;1.100000;23.799999;,
 6.743000;-3.000000;23.799999;,
 6.743000;1.100000;23.799999;,
 2.850000;4.200000;1.000000;,
 2.850000;4.800000;1.000000;,
 7.050000;4.200000;1.000000;,
 7.050000;4.800000;1.000000;,
 3.750000;4.600000;4.000000;,
 3.750000;5.800000;4.000000;,
 6.450000;4.600000;4.000000;,
 6.450000;5.800000;4.000000;,
 1.800000;4.600000;21.500000;,
 1.800000;5.800000;21.500000;,
 3.000000;4.600000;21.500000;,
 3.000000;5.800000;21.500000;,
 7.492000;4.600000;21.500000;,
 7.492000;5.800000;21.500000;,
 8.692000;4.600000;21.500000;,
 8.692000;5.800000;21.500000;;
 236;
 3;3,4,1;,
 3;3,1,0;,
 3;4,5,2;,
 3;4,2,1;,
 3;6,7,4;,
 3;6,4,3;,
 3;7,8,5;,
 3;7,5,4;,
 3;9,10,7;,
 3;9,7,6;,
 3;10,11,8;,
 3;10,8,7;,
 3;12,13,10;,
 3;12,10,9;,
 3;13,14,11;,
 3;13,11,10;,
 3;15,16,13;,
 3;15,13,12;,
 3;16,17,14;,
 3;16,14,13;,
 3;18,19,22;,
 3;18,22,21;,
 3;19,20,23;,
 3;19,23,22;,
 3;26,27,25;,
 3;26,25,24;,
 3;28,29,31;,
 3;28,31,30;,
 3;32,33,34;,
 3;32,34,35;,
 3;32,35,39;,
 3;32,39,38;,
 3;35,36,40;,
 3;35,40,39;,
 3;36,37,41;,
 3;36,41,40;,
 3;32,38,44;,
 3;32,44,42;,
 3;39,40,46;,
 3;39,46,45;,
 3;41,37,43;,
 3;41,43,47;,
 3;44,45,46;,
 3;44,46,47;,
 3;44,47,43;,
 3;44,43,42;,
 3;48,49,51;,
 3;48,51,50;,
 3;52,53,55;,
 3;52,55,54;,
 3;56,57,59;,
 3;56,59,58;,
 3;60,61,63;,
 3;60,63,62;,
 3;66,67,65;,
 3;66,65,64;,
 3;70,71,69;,
 3;70,69,68;,
 3;72,73,75;,
 3;72,75,74;,
 3;82,83,81;,
 3;82,81,80;,
 3;82,80,79;,
 3;82,79,78;,
 3;82,78,77;,
 3;82,77,76;,
 3;86,87,85;,
 3;86,85,84;,
 3;88,89,87;,
 3;88,87,86;,
 3;90,91,89;,
 3;90,89,88;,
 3;92,93,91;,
 3;92,91,90;,
 3;94,95,93;,
 3;94,93,92;,
 3;96,97,99;,
 3;96,99,98;,
 3;100,101,103;,
 3;100,103,102;,
 3;104,105,107;,
 3;104,107,106;,
 3;108,109,111;,
 3;108,111,110;,
 3;112,113,115;,
 3;112,115,114;,
 3;116,117,119;,
 3;116,119,118;,
 3;118,119,117;,
 3;118,117,116;,
 3;118,119,121;,
 3;118,121,120;,
 3;120,121,119;,
 3;120,119,118;,
 3;122,123,125;,
 3;122,125,124;,
 3;124,125,123;,
 3;124,123,122;,
 3;124,125,127;,
 3;124,127,126;,
 3;126,127,125;,
 3;126,125,124;,
 3;128,129,131;,
 3;128,131,130;,
 3;130,131,129;,
 3;130,129,128;,
 3;132,133,135;,
 3;132,135,134;,
 3;134,135,133;,
 3;134,133,132;,
 3;136,137,139;,
 3;136,139,138;,
 3;138,139,137;,
 3;138,137,136;,
 3;140,141,143;,
 3;140,143,142;,
 3;142,143,141;,
 3;142,141,140;,
 3;144,145,147;,
 3;144,147,146;,
 3;146,147,145;,
 3;146,145,144;,
 3;148,149,151;,
 3;148,151,150;,
 3;150,151,149;,
 3;150,149,148;,
 3;152,153,155;,
 3;152,155,154;,
 3;154,155,153;,
 3;154,153,152;,
 3;156,157,159;,
 3;156,159,158;,
 3;158,159,157;,
 3;158,157,156;,
 3;160,161,163;,
 3;160,163,162;,
 3;162,163,161;,
 3;162,161,160;,
 3;164,165,167;,
 3;164,167,166;,
 3;166,167,171;,
 3;166,171,170;,
 3;170,171,169;,
 3;170,169,168;,
 3;172,173,175;,
 3;172,175,174;,
 3;174,175,173;,
 3;174,173,172;,
 3;174,175,179;,
 3;174,179,178;,
 3;178,179,177;,
 3;178,177,176;,
 3;176,177,179;,
 3;176,179,178;,
 3;180,181,183;,
 3;180,183,182;,
 3;182,183,181;,
 3;182,181,180;,
 3;184,185,187;,
 3;184,187,186;,
 3;186,187,185;,
 3;186,185,184;,
 3;188,189,191;,
 3;188,191,190;,
 3;194,195,193;,
 3;194,193,192;,
 3;192,193,195;,
 3;192,195,194;,
 3;198,199,197;,
 3;198,197,196;,
 3;196,197,199;,
 3;196,199,198;,
 3;202,203,201;,
 3;202,201,200;,
 3;200,201,203;,
 3;200,203,202;,
 3;204,205,207;,
 3;204,207,206;,
 3;208,209,211;,
 3;208,211,210;,
 3;208,209,205;,
 3;208,205,204;,
 3;204,205,209;,
 3;204,209,208;,
 3;206,207,211;,
 3;206,211,210;,
 3;210,211,207;,
 3;210,207,206;,
 3;212,213,215;,
 3;212,215,214;,
 3;216,217,219;,
 3;216,219,218;,
 3;216,217,213;,
 3;216,213,212;,
 3;212,213,217;,
 3;212,217,216;,
 3;214,215,219;,
 3;214,219,218;,
 3;218,219,215;,
 3;218,215,214;,
 3;222,223,221;,
 3;222,221,220;,
 3;226,227,225;,
 3;226,225,224;,
 3;223,222,227;,
 3;223,227,226;,
 3;228,229,231;,
 3;228,231,230;,
 3;230,231,229;,
 3;230,229,228;,
 3;232,233,235;,
 3;232,235,234;,
 3;234,235,233;,
 3;234,233,232;,
 3;238,239,237;,
 3;238,237,236;,
 3;236,237,241;,
 3;236,241,240;,
 3;240,241,243;,
 3;240,243,242;,
 3;248,249,251;,
 3;248,251,250;,
 3;244,245,249;,
 3;244,249,248;,
 3;250,251,247;,
 3;250,247,246;,
 3;252,253,255;,
 3;252,255,254;,
 3;254,255,253;,
 3;254,253,252;,
 3;256,257,259;,
 3;256,259,258;,
 3;260,261,263;,
 3;260,263,262;,
 3;264,265,267;,
 3;264,267,266;;

 MeshMaterialList  {
  47;
  236;
  0,
  0,
  0,
  0,
  0,
  0,
  0,
  0,
  0,
  0,
  0,
  0,
  0,
  0,
  0,
  0,
  0,
  0,
  0,
  0,
  1,
  1,
  1,
  1,
  2,
  2,
  3,
  3,
  4,
  4,
  4,
  4,
  4,
  4,
  4,
  4,
  4,
  4,
  4,
  4,
  4,
  4,
  4,
  4,
  4,
  4,
  5,
  5,
  6,
  6,
  7,
  7,
  8,
  8,
  9,
  9,
  10,
  10,
  10,
  10,
  11,
  11,
  11,
  11,
  11,
  11,
  12,
  12,
  12,
  12,
  12,
  12,
  12,
  12,
  12,
  12,
  12,
  12,
  13,
  13,
  14,
  14,
  15,
  15,
  16,
  16,
  17,
  17,
  17,
  17,
  17,
  17,
  17,
  17,
  18,
  18,
  18,
  18,
  18,
  18,
  18,
  18,
  19,
  19,
  19,
  19,
  20,
  20,
  20,
  20,
  21,
  21,
  21,
  21,
  22,
  22,
  22,
  22,
  23,
  23,
  23,
  23,
  24,
  24,
  24,
  24,
  25,
  25,
  25,
  25,
  26,
  26,
  26,
  26,
  27,
  27,
  27,
  27,
  28,
  28,
  28,
  28,
  28,
  28,
  29,
  29,
  29,
  29,
  29,
  29,
  29,
  29,
  29,
  29,
  30,
  30,
  30,
  30,
  31,
  31,
  31,
  31,
  32,
  32,
  33,
  33,
  33,
  33,
  34,
  34,
  34,
  34,
  35,
  35,
  35,
  35,
  36,
  36,
  36,
  36,
  36,
  36,
  36,
  36,
  36,
  36,
  36,
  36,
  37,
  37,
  37,
  37,
  37,
  37,
  37,
  37,
  37,
  37,
  37,
  37,
  38,
  38,
  38,
  38,
  38,
  38,
  39,
  39,
  39,
  39,
  40,
  40,
  40,
  40,
  41,
  41,
  41,
  41,
  41,
  41,
  42,
  42,
  42,
  42,
  42,
  42,
  43,
  43,
  43,
  43,
  44,
  44,
  45,
  45,
  46,
  46;

  Material  {
   1.000000;1.000000;1.000000;1.000000;;
   0.000000;
   0.000000;0.000000;0.000000;;
   0.000000;0.000000;0.000000;;

   TextureFilename  {
    "FormSide1.png";
   }
  }

  Material  {
   1.000000;1.000000;1.000000;1.000000;;
   0.000000;
   0.000000;0.000000;0.000000;;
   0.000000;0.000000;0.000000;;

   TextureFilename  {
    "FormSide1.png";
   }
  }

  Material  {
   1.000000;1.000000;1.000000;1.000000;;
   0.000000;
   0.000000;0.000000;0.000000;;
   0.000000;0.000000;0.000000;;

   TextureFilename  {
    "FormSide2.png";
   }
  }

  Material  {
   1.000000;1.000000;1.000000;1.000000;;
   0.000000;
   0.000000;0.000000;0.000000;;
   0.000000;0.000000;0.000000;;

   TextureFilename  {
    "FormSide2.png";
   }
  }

  Material  {
   1.000000;1.000000;1.000000;1.000000;;
   0.000000;
   0.000000;0.000000;0.000000;;
   0.000000;0.000000;0.000000;;

   TextureFilename  {
    "FormC.png";
   }
  }

  Material  {
   1.000000;1.000000;1.000000;1.000000;;
   0.000000;
   0.000000;0.000000;0.000000;;
   0.000000;0.000000;0.000000;;

   TextureFilename  {
    "RoofPier3.png";
   }
  }

  Material  {
   1.000000;1.000000;1.000000;1.000000;;
   0.000000;
   0.000000;0.000000;0.000000;;
   0.000000;0.000000;0.000000;;

   TextureFilename  {
    "RoofPier3.png";
   }
  }

  Material  {
   1.000000;1.000000;1.000000;1.000000;;
   0.000000;
   0.000000;0.000000;0.000000;;
   0.000000;0.000000;0.000000;;

   TextureFilename  {
    "RoofPier3.png";
   }
  }

  Material  {
   1.000000;1.000000;1.000000;1.000000;;
   0.000000;
   0.000000;0.000000;0.000000;;
   0.000000;0.000000;0.000000;;

   TextureFilename  {
    "RoofPier3.png";
   }
  }

  Material  {
   1.000000;1.000000;1.000000;1.000000;;
   0.000000;
   0.000000;0.000000;0.000000;;
   0.000000;0.000000;0.000000;;

   TextureFilename  {
    "RoofPlate1.png";
   }
  }

  Material  {
   1.000000;1.000000;1.000000;1.000000;;
   0.000000;
   0.000000;0.000000;0.000000;;
   0.000000;0.000000;0.000000;;

   TextureFilename  {
    "RoofSide1.png";
   }
  }

  Material  {
   1.000000;1.000000;1.000000;1.000000;;
   0.000000;
   0.000000;0.000000;0.000000;;
   0.000000;0.000000;0.000000;;

   TextureFilename  {
    "RoofPlate2.png";
   }
  }

  Material  {
   1.000000;1.000000;1.000000;1.000000;;
   0.000000;
   0.000000;0.000000;0.000000;;
   0.000000;0.000000;0.000000;;

   TextureFilename  {
    "RoofSide2.png";
   }
  }

  Material  {
   1.000000;1.000000;1.000000;1.000000;;
   0.000000;
   0.000000;0.000000;0.000000;;
   0.000000;0.000000;0.000000;;

   TextureFilename  {
    "RoofPier4.png";
   }
  }

  Material  {
   1.000000;1.000000;1.000000;1.000000;;
   0.000000;
   0.000000;0.000000;0.000000;;
   0.000000;0.000000;0.000000;;

   TextureFilename  {
    "RoofPier4.png";
   }
  }

  Material  {
   1.000000;1.000000;1.000000;1.000000;;
   0.000000;
   0.000000;0.000000;0.000000;;
   0.000000;0.000000;0.000000;;

   TextureFilename  {
    "RoofPier4.png";
   }
  }

  Material  {
   1.000000;1.000000;1.000000;1.000000;;
   0.000000;
   0.000000;0.000000;0.000000;;
   0.000000;0.000000;0.000000;;

   TextureFilename  {
    "RoofPier4.png";
   }
  }

  Material  {
   1.000000;1.000000;1.000000;1.000000;;
   0.000000;
   0.000000;0.000000;0.000000;;
   0.000000;0.000000;0.000000;;

   TextureFilename  {
    "Iron1.png";
   }
  }

  Material  {
   1.000000;1.000000;1.000000;1.000000;;
   0.000000;
   0.000000;0.000000;0.000000;;
   0.000000;0.000000;0.000000;;

   TextureFilename  {
    "Iron1.png";
   }
  }

  Material  {
   1.000000;1.000000;1.000000;1.000000;;
   0.000000;
   0.000000;0.000000;0.000000;;
   0.000000;0.000000;0.000000;;

   TextureFilename  {
    "Iron1.png";
   }
  }

  Material  {
   1.000000;1.000000;1.000000;1.000000;;
   0.000000;
   0.000000;0.000000;0.000000;;
   0.000000;0.000000;0.000000;;

   TextureFilename  {
    "Iron1.png";
   }
  }

  Material  {
   1.000000;1.000000;1.000000;1.000000;;
   0.000000;
   0.000000;0.000000;0.000000;;
   0.000000;0.000000;0.000000;;

   TextureFilename  {
    "Iron3.png";
   }
  }

  Material  {
   1.000000;1.000000;1.000000;1.000000;;
   0.000000;
   0.000000;0.000000;0.000000;;
   0.000000;0.000000;0.000000;;

   TextureFilename  {
    "Iron3.png";
   }
  }

  Material  {
   1.000000;1.000000;1.000000;1.000000;;
   0.000000;
   0.000000;0.000000;0.000000;;
   0.000000;0.000000;0.000000;;

   TextureFilename  {
    "Iron3.png";
   }
  }

  Material  {
   1.000000;1.000000;1.000000;1.000000;;
   0.000000;
   0.000000;0.000000;0.000000;;
   0.000000;0.000000;0.000000;;

   TextureFilename  {
    "Iron3.png";
   }
  }

  Material  {
   1.000000;1.000000;1.000000;1.000000;;
   0.000000;
   0.000000;0.000000;0.000000;;
   0.000000;0.000000;0.000000;;

   TextureFilename  {
    "Iron3.png";
   }
  }

  Material  {
   1.000000;1.000000;1.000000;1.000000;;
   0.000000;
   0.000000;0.000000;0.000000;;
   0.000000;0.000000;0.000000;;

   TextureFilename  {
    "Iron3.png";
   }
  }

  Material  {
   1.000000;1.000000;1.000000;1.000000;;
   0.000000;
   0.000000;0.000000;0.000000;;
   0.000000;0.000000;0.000000;;

   TextureFilename  {
    "Iron3.png";
   }
  }

  Material  {
   1.000000;1.000000;1.000000;1.000000;;
   0.000000;
   0.000000;0.000000;0.000000;;
   0.000000;0.000000;0.000000;;

   TextureFilename  {
    "KaidanWall.png";
   }
  }

  Material  {
   1.000000;1.000000;1.000000;1.000000;;
   0.000000;
   0.000000;0.000000;0.000000;;
   0.000000;0.000000;0.000000;;

   TextureFilename  {
    "KaidanSaku1.png";
   }
  }

  Material  {
   1.000000;1.000000;1.000000;1.000000;;
   0.000000;
   0.000000;0.000000;0.000000;;
   0.000000;0.000000;0.000000;;

   TextureFilename  {
    "KaidanSaku2.png";
   }
  }

  Material  {
   1.000000;1.000000;1.000000;1.000000;;
   0.000000;
   0.000000;0.000000;0.000000;;
   0.000000;0.000000;0.000000;;

   TextureFilename  {
    "KaidanSaku2.png";
   }
  }

  Material  {
   1.000000;1.000000;1.000000;1.000000;;
   0.000000;
   0.000000;0.000000;0.000000;;
   0.000000;0.000000;0.000000;;

   TextureFilename  {
    "EVIron1.png";
   }
  }

  Material  {
   1.000000;1.000000;1.000000;1.000000;;
   0.000000;
   0.000000;0.000000;0.000000;;
   0.000000;0.000000;0.000000;;

   TextureFilename  {
    "EVIron2.png";
   }
  }

  Material  {
   1.000000;1.000000;1.000000;1.000000;;
   0.000000;
   0.000000;0.000000;0.000000;;
   0.000000;0.000000;0.000000;;

   TextureFilename  {
    "EVIron2.png";
   }
  }

  Material  {
   1.000000;1.000000;1.000000;1.000000;;
   0.000000;
   0.000000;0.000000;0.000000;;
   0.000000;0.000000;0.000000;;

   TextureFilename  {
    "EVIron3.png";
   }
  }

  Material  {
   0.250980;0.392157;0.372549;0.250980;;
   0.000000;
   0.000000;0.000000;0.000000;;
   0.000000;0.000000;0.000000;;
  }

  Material  {
   1.000000;1.000000;1.000000;1.000000;;
   0.000000;
   0.000000;0.000000;0.000000;;
   0.000000;0.000000;0.000000;;

   TextureFilename  {
    "EVWall1.png";
   }
  }

  Material  {
   1.000000;1.000000;1.000000;1.000000;;
   0.000000;
   0.000000;0.000000;0.000000;;
   0.000000;0.000000;0.000000;;
  }

  Material  {
   1.000000;1.000000;1.000000;1.000000;;
   0.000000;
   0.000000;0.000000;0.000000;;
   0.000000;0.000000;0.000000;;

   TextureFilename  {
    "EVIron4.png";
   }
  }

  Material  {
   1.000000;1.000000;1.000000;1.000000;;
   0.000000;
   0.000000;0.000000;0.000000;;
   0.000000;0.000000;0.000000;;

   TextureFilename  {
    "EVIron4.png";
   }
  }

  Material  {
   1.000000;1.000000;1.000000;1.000000;;
   0.000000;
   0.000000;0.000000;0.000000;;
   0.000000;0.000000;0.000000;;

   TextureFilename  {
    "RoofPier3.png";
   }
  }

  Material  {
   1.000000;1.000000;1.000000;1.000000;;
   0.000000;
   0.000000;0.000000;0.000000;;
   0.000000;0.000000;0.000000;;

   TextureFilename  {
    "KaidanWall.png";
   }
  }

  Material  {
   1.000000;1.000000;1.000000;1.000000;;
   0.000000;
   0.000000;0.000000;0.000000;;
   0.000000;0.000000;0.000000;;

   TextureFilename  {
    "Hassyahyou.png";
   }
  }

  Material  {
   1.000000;1.000000;1.000000;1.000000;;
   0.000000;
   0.000000;0.000000;0.000000;;
   0.000000;0.000000;0.000000;;

   TextureFilename  {
    "Exit.png";
   }
  }

  Material  {
   1.000000;1.000000;1.000000;1.000000;;
   0.000000;
   0.000000;0.000000;0.000000;;
   0.000000;0.000000;0.000000;;

   TextureFilename  {
    "EV.png";
   }
  }

  Material  {
   1.000000;1.000000;1.000000;1.000000;;
   0.000000;
   0.000000;0.000000;0.000000;;
   0.000000;0.000000;0.000000;;

   TextureFilename  {
    "EV.png";
   }
  }
 }

 MeshTextureCoords  {
  268;
  0.000000;1.000000;,
  0.000000;0.440000;,
  0.000000;0.000000;,
  1.000000;1.000000;,
  1.000000;0.440000;,
  1.000000;0.000000;,
  2.000000;1.000000;,
  2.000000;0.440000;,
  2.000000;0.000000;,
  3.000000;1.000000;,
  3.000000;0.440000;,
  3.000000;0.000000;,
  4.000000;1.000000;,
  4.000000;0.440000;,
  4.000000;0.000000;,
  5.000000;1.000000;,
  5.000000;0.440000;,
  5.000000;0.000000;,
  0.000000;1.000000;,
  0.000000;0.440000;,
  0.000000;0.000000;,
  5.000000;1.000000;,
  5.000000;0.440000;,
  5.000000;0.000000;,
  0.600000;1.000000;,
  0.600000;0.000000;,
  0.900000;1.000000;,
  0.900000;0.000000;,
  0.100000;1.000000;,
  0.100000;0.000000;,
  0.200000;1.000000;,
  0.200000;0.000000;,
  1.000000;0.000000;,
  1.000000;0.500000;,
  1.000000;1.000000;,
  1.000000;1.500000;,
  1.000000;2.000000;,
  1.000000;2.500000;,
  0.800000;0.400000;,
  0.800000;1.460000;,
  0.800000;2.100000;,
  0.800000;2.430000;,
  0.000000;0.000000;,
  0.000000;2.500000;,
  0.200000;0.400000;,
  0.200000;1.460000;,
  0.200000;2.100000;,
  0.200000;2.430000;,
  0.000000;0.500000;,
  0.000000;0.050000;,
  1.000000;0.500000;,
  1.000000;0.050000;,
  0.000000;0.500000;,
  0.000000;0.050000;,
  1.000000;0.500000;,
  1.000000;0.050000;,
  0.000000;1.000000;,
  0.000000;0.050000;,
  1.000000;1.000000;,
  1.000000;0.050000;,
  0.000000;1.000000;,
  0.000000;0.050000;,
  1.000000;1.000000;,
  1.000000;0.050000;,
  0.000000;0.400000;,
  0.000000;4.792000;,
  0.100000;0.400000;,
  0.100000;4.792000;,
  0.000000;1.000000;,
  0.000000;0.000000;,
  0.100000;1.000000;,
  0.100000;0.000000;,
  0.200000;1.000000;,
  0.200000;0.000000;,
  0.300000;1.000000;,
  0.300000;0.000000;,
  0.000000;0.000000;,
  0.000000;0.600000;,
  0.000000;1.200000;,
  0.000000;1.800000;,
  0.000000;2.400000;,
  0.000000;3.000000;,
  0.100000;0.000000;,
  0.100000;3.000000;,
  0.000000;1.000000;,
  0.000000;0.000000;,
  0.100000;1.000000;,
  0.100000;0.000000;,
  0.200000;1.000000;,
  0.200000;0.000000;,
  0.300000;1.000000;,
  0.300000;0.000000;,
  0.400000;1.000000;,
  0.400000;0.000000;,
  0.500000;1.000000;,
  0.500000;0.000000;,
  0.000000;1.000000;,
  0.000000;0.000000;,
  0.500000;1.000000;,
  0.500000;0.000000;,
  0.000000;0.000000;,
  0.000000;1.000000;,
  1.000000;0.000000;,
  1.000000;1.000000;,
  0.000000;0.000000;,
  0.000000;1.000000;,
  1.000000;0.000000;,
  1.000000;1.000000;,
  0.000000;0.000000;,
  0.000000;1.000000;,
  1.000000;0.000000;,
  1.000000;1.000000;,
  0.000000;0.000000;,
  0.000000;1.000000;,
  1.000000;0.000000;,
  1.000000;1.000000;,
  0.000000;1.000000;,
  0.000000;0.000000;,
  0.100000;1.000000;,
  0.100000;0.000000;,
  0.200000;1.000000;,
  0.200000;0.000000;,
  0.000000;1.000000;,
  0.000000;0.000000;,
  0.100000;1.000000;,
  0.100000;0.000000;,
  0.200000;1.000000;,
  0.200000;0.000000;,
  0.000000;1.000000;,
  0.000000;0.000000;,
  0.100000;1.000000;,
  0.100000;0.000000;,
  0.000000;1.000000;,
  0.000000;0.000000;,
  0.100000;1.000000;,
  0.100000;0.000000;,
  0.990000;1.000000;,
  0.990000;0.000000;,
  0.010000;1.000000;,
  0.010000;0.000000;,
  0.990000;1.000000;,
  0.990000;0.000000;,
  0.010000;1.000000;,
  0.010000;0.000000;,
  0.990000;1.000000;,
  0.990000;0.000000;,
  0.010000;1.000000;,
  0.010000;0.000000;,
  0.990000;1.000000;,
  0.990000;0.000000;,
  0.010000;1.000000;,
  0.010000;0.000000;,
  0.990000;1.000000;,
  0.990000;0.000000;,
  0.010000;1.000000;,
  0.010000;0.000000;,
  0.990000;1.000000;,
  0.990000;0.000000;,
  0.010000;1.000000;,
  0.010000;0.000000;,
  0.990000;1.000000;,
  0.990000;0.000000;,
  0.010000;1.000000;,
  0.010000;0.000000;,
  0.000000;1.000000;,
  0.000000;0.000000;,
  0.100000;1.000000;,
  0.100000;0.000000;,
  0.200000;1.000000;,
  0.200000;0.000000;,
  0.300000;1.000000;,
  0.300000;0.000000;,
  0.000000;1.000000;,
  0.000000;0.000000;,
  6.000000;1.000000;,
  6.000000;0.000000;,
  14.000000;1.000000;,
  14.000000;0.000000;,
  8.000000;1.000000;,
  8.000000;0.000000;,
  1.000000;1.000000;,
  1.000000;0.000000;,
  0.000000;1.000000;,
  0.000000;0.000000;,
  0.000000;1.000000;,
  0.000000;0.000000;,
  1.000000;1.000000;,
  1.000000;0.000000;,
  0.000000;1.000000;,
  0.000000;0.000000;,
  1.000000;1.000000;,
  1.000000;0.000000;,
  3.500000;1.000000;,
  3.500000;0.000000;,
  0.500000;1.000000;,
  0.500000;0.000000;,
  3.500000;1.000000;,
  3.500000;0.000000;,
  0.500000;1.000000;,
  0.500000;0.000000;,
  0.500000;1.000000;,
  0.500000;0.000000;,
  2.500000;1.000000;,
  2.500000;0.000000;,
  0.000000;0.000000;,
  0.000000;0.000000;,
  0.000000;0.000000;,
  0.000000;0.000000;,
  0.000000;0.000000;,
  0.000000;0.000000;,
  0.000000;0.000000;,
  0.000000;0.000000;,
  0.000000;1.000000;,
  0.000000;0.000000;,
  0.100000;1.000000;,
  0.100000;0.000000;,
  0.100000;1.000000;,
  0.100000;0.000000;,
  0.000000;1.000000;,
  0.000000;0.000000;,
  0.000000;0.000000;,
  0.000000;0.000000;,
  0.000000;0.000000;,
  0.000000;0.000000;,
  0.000000;0.000000;,
  0.000000;0.000000;,
  0.000000;0.000000;,
  0.000000;0.000000;,
  1.000000;1.000000;,
  1.000000;0.000000;,
  0.000000;1.000000;,
  0.000000;0.000000;,
  1.000000;1.000000;,
  1.000000;0.000000;,
  0.000000;1.000000;,
  0.000000;0.000000;,
  0.100000;-0.800000;,
  0.100000;0.100000;,
  0.200000;-0.800000;,
  0.200000;0.100000;,
  0.300000;-0.800000;,
  0.300000;0.100000;,
  0.400000;-0.800000;,
  0.400000;0.100000;,
  0.000000;1.000000;,
  0.000000;0.000000;,
  0.100000;1.000000;,
  0.100000;0.000000;,
  0.200000;1.000000;,
  0.200000;0.000000;,
  0.300000;1.000000;,
  0.300000;0.000000;,
  0.000000;1.000000;,
  0.000000;0.000000;,
  1.000000;1.000000;,
  1.000000;0.000000;,
  0.000000;1.000000;,
  0.000000;0.000000;,
  1.000000;1.000000;,
  1.000000;0.000000;,
  0.000000;1.000000;,
  0.000000;0.000000;,
  1.000000;1.000000;,
  1.000000;0.000000;,
  0.000000;1.000000;,
  0.000000;0.000000;,
  1.000000;1.000000;,
  1.000000;0.000000;;
 }

 MeshNormals  {
  236;
  -0.999992;0.000000;-0.004104;,
  -0.999992;0.000000;-0.004104;,
  0.000000;1.000000;0.000000;,
  0.000000;1.000000;0.000000;,
  -0.999998;0.000000;-0.002052;,
  -0.999998;0.000000;-0.002052;,
  0.000000;1.000000;0.000000;,
  0.000000;1.000000;0.000000;,
  -1.000000;0.000000;0.000000;,
  -1.000000;0.000000;0.000000;,
  0.000000;1.000000;0.000000;,
  0.000000;1.000000;0.000000;,
  -0.999998;0.000000;0.002052;,
  -0.999998;0.000000;0.002052;,
  0.000000;1.000000;0.000000;,
  0.000000;1.000000;0.000000;,
  -0.999992;0.000000;0.004104;,
  -0.999992;0.000000;0.004104;,
  0.000000;1.000000;0.000000;,
  0.000000;1.000000;0.000000;,
  0.999982;0.000000;-0.006000;,
  0.999982;0.000000;-0.006000;,
  0.000000;1.000000;0.000000;,
  0.000000;1.000000;0.000000;,
  -1.000000;0.000000;0.000000;,
  -1.000000;0.000000;0.000000;,
  0.999982;0.000000;-0.006000;,
  0.999982;0.000000;-0.006000;,
  0.000000;1.000000;0.000000;,
  0.000000;1.000000;0.000000;,
  0.000000;1.000000;0.000000;,
  0.000000;1.000000;0.000000;,
  0.000000;1.000000;0.000000;,
  0.000000;1.000000;0.000000;,
  0.000000;1.000000;0.000000;,
  0.000000;1.000000;0.000000;,
  0.000000;1.000000;0.000000;,
  0.000000;1.000000;0.000000;,
  0.000000;1.000000;0.000000;,
  0.000000;1.000000;0.000000;,
  0.000000;1.000000;0.000000;,
  0.000000;1.000000;0.000000;,
  0.000000;1.000000;0.000000;,
  0.000000;-1.000000;0.000000;,
  0.000000;1.000000;0.000000;,
  0.000000;1.000000;0.000000;,
  0.000000;0.000000;-1.000000;,
  0.000000;0.000000;-1.000000;,
  0.000000;0.000000;-1.000000;,
  0.000000;0.000000;-1.000000;,
  0.000000;0.000000;-1.000000;,
  0.000000;0.000000;-1.000000;,
  0.000000;0.000000;-1.000000;,
  0.000000;0.000000;-1.000000;,
  0.000000;-1.000000;0.000000;,
  0.000000;-1.000000;0.000000;,
  -0.999982;0.000000;0.006000;,
  -0.999982;0.000000;0.006000;,
  0.999982;0.000000;-0.006000;,
  0.999982;0.000000;-0.006000;,
  0.000000;-1.000000;0.000000;,
  0.000000;-1.000000;0.000000;,
  0.000000;-1.000000;0.000000;,
  0.000000;-1.000000;0.000000;,
  0.000000;-1.000000;0.000000;,
  0.000000;-1.000000;0.000000;,
  -0.999992;0.000000;-0.004104;,
  -0.999992;0.000000;-0.004104;,
  -0.999998;0.000000;-0.002052;,
  -0.999998;0.000000;-0.002052;,
  -1.000000;0.000000;0.000000;,
  -1.000000;0.000000;0.000000;,
  -0.999998;0.000000;0.002052;,
  -0.999998;0.000000;0.002052;,
  -0.999992;0.000000;0.004104;,
  -0.999992;0.000000;0.004104;,
  0.999982;0.000000;-0.006000;,
  0.999982;0.000000;-0.006000;,
  0.000000;0.000000;-1.000000;,
  0.000000;0.000000;-1.000000;,
  0.000000;0.000000;-1.000000;,
  0.000000;0.000000;-1.000000;,
  0.000000;0.000000;-1.000000;,
  0.000000;0.000000;-1.000000;,
  0.000000;0.000000;-1.000000;,
  0.000000;0.000000;-1.000000;,
  0.989110;0.000000;0.147180;,
  0.989110;0.000000;0.147180;,
  -0.989110;0.000000;-0.147180;,
  -0.989110;0.000000;-0.147180;,
  0.999982;0.000000;-0.006000;,
  0.999982;0.000000;-0.006000;,
  -0.999982;0.000000;0.006000;,
  -0.999982;0.000000;0.006000;,
  0.985660;0.000000;-0.168745;,
  0.985660;0.000000;-0.168745;,
  -0.985660;0.000000;0.168745;,
  -0.985660;0.000000;0.168745;,
  0.999982;0.000000;-0.006000;,
  0.999982;0.000000;-0.006000;,
  -0.999982;0.000000;0.006000;,
  -0.999982;0.000000;0.006000;,
  0.999982;0.000000;-0.006000;,
  0.999982;0.000000;-0.006000;,
  -0.999982;0.000000;0.006000;,
  -0.999982;0.000000;0.006000;,
  0.999982;0.000000;-0.006000;,
  0.999982;0.000000;-0.006000;,
  -0.999982;0.000000;0.006000;,
  -0.999982;0.000000;0.006000;,
  0.000000;0.000000;-1.000000;,
  0.000000;0.000000;-1.000000;,
  0.000000;0.000000;1.000000;,
  0.000000;0.000000;1.000000;,
  0.000000;0.000000;-1.000000;,
  0.000000;0.000000;-1.000000;,
  0.000000;0.000000;1.000000;,
  0.000000;0.000000;1.000000;,
  0.000000;0.000000;-1.000000;,
  0.000000;0.000000;-1.000000;,
  0.000000;0.000000;1.000000;,
  0.000000;0.000000;1.000000;,
  0.000000;0.000000;-1.000000;,
  0.000000;0.000000;-1.000000;,
  0.000000;0.000000;1.000000;,
  0.000000;0.000000;1.000000;,
  0.000000;0.000000;-1.000000;,
  0.000000;0.000000;-1.000000;,
  0.000000;0.000000;1.000000;,
  0.000000;0.000000;1.000000;,
  0.000000;0.000000;-1.000000;,
  0.000000;0.000000;-1.000000;,
  0.000000;0.000000;1.000000;,
  0.000000;0.000000;1.000000;,
  0.000000;0.000000;-1.000000;,
  0.000000;0.000000;-1.000000;,
  0.000000;0.000000;1.000000;,
  0.000000;0.000000;1.000000;,
  0.999978;0.000000;-0.006566;,
  0.999978;0.000000;-0.006566;,
  0.000000;0.000000;-1.000000;,
  0.000000;0.000000;-1.000000;,
  -0.999978;0.000000;0.006566;,
  -0.999978;0.000000;0.006566;,
  0.999978;0.000000;-0.006566;,
  0.999978;0.000000;-0.006566;,
  -0.999978;0.000000;0.006566;,
  -0.999978;0.000000;0.006566;,
  0.000000;0.000000;-1.000000;,
  0.000000;0.000000;-1.000000;,
  -0.999978;0.000000;0.006566;,
  -0.999978;0.000000;0.006566;,
  0.999978;0.000000;-0.006566;,
  0.999978;0.000000;-0.006566;,
  0.000000;0.000000;-1.000000;,
  0.000000;0.000000;-1.000000;,
  0.000000;0.000000;1.000000;,
  0.000000;0.000000;1.000000;,
  0.000000;0.000000;-1.000000;,
  0.000000;0.000000;-1.000000;,
  0.000000;0.000000;1.000000;,
  0.000000;0.000000;1.000000;,
  0.000000;0.000000;-1.000000;,
  0.000000;0.000000;-1.000000;,
  -0.999982;0.000000;0.006000;,
  -0.999982;0.000000;0.006000;,
  0.999982;0.000000;-0.006000;,
  0.999982;0.000000;-0.006000;,
  -0.999982;0.000000;0.006000;,
  -0.999982;0.000000;0.006000;,
  0.999982;0.000000;-0.006000;,
  0.999982;0.000000;-0.006000;,
  0.000000;0.000000;1.000000;,
  0.000000;0.000000;1.000000;,
  0.000000;0.000000;-1.000000;,
  0.000000;0.000000;-1.000000;,
  0.000000;0.000000;-1.000000;,
  0.000000;0.000000;-1.000000;,
  0.000000;0.000000;-1.000000;,
  0.000000;0.000000;-1.000000;,
  -0.999934;0.000000;0.011468;,
  -0.999934;0.000000;0.011468;,
  0.999934;0.000000;-0.011468;,
  0.999934;0.000000;-0.011468;,
  0.999982;0.000000;-0.006007;,
  0.999982;0.000000;-0.006007;,
  -0.999982;0.000000;0.006007;,
  -0.999982;0.000000;0.006007;,
  0.000000;0.000000;-1.000000;,
  0.000000;0.000000;-1.000000;,
  0.000000;0.000000;-1.000000;,
  0.000000;0.000000;-1.000000;,
  -1.000000;0.000000;0.000000;,
  -1.000000;0.000000;0.000000;,
  1.000000;0.000000;0.000000;,
  1.000000;0.000000;0.000000;,
  0.999982;0.000000;-0.006000;,
  0.999982;0.000000;-0.006000;,
  -0.999982;0.000000;0.006000;,
  -0.999982;0.000000;0.006000;,
  0.000000;1.000000;0.000000;,
  0.000000;1.000000;0.000000;,
  0.000000;1.000000;0.000000;,
  0.000000;1.000000;0.000000;,
  0.000000;1.000000;0.000000;,
  0.000000;1.000000;0.000000;,
  0.999982;0.000000;-0.006000;,
  0.999982;0.000000;-0.006000;,
  -0.999982;0.000000;0.006000;,
  -0.999982;0.000000;0.006000;,
  0.999982;0.000000;-0.006000;,
  0.999982;0.000000;-0.006000;,
  -0.999982;0.000000;0.006000;,
  -0.999982;0.000000;0.006000;,
  -0.999982;0.000000;0.006000;,
  -0.999982;0.000000;0.006000;,
  0.000000;0.000000;-1.000000;,
  0.000000;0.000000;-1.000000;,
  0.999982;0.000000;-0.006000;,
  0.999982;0.000000;-0.006000;,
  0.000000;0.000000;-1.000000;,
  0.000000;0.000000;-1.000000;,
  0.999982;0.000000;-0.006000;,
  0.999982;0.000000;-0.006000;,
  -0.999982;0.000000;0.006000;,
  -0.999982;0.000000;0.006000;,
  0.000000;0.000000;-1.000000;,
  0.000000;0.000000;-1.000000;,
  0.000000;0.000000;1.000000;,
  0.000000;0.000000;1.000000;,
  0.000000;0.000000;-1.000000;,
  0.000000;0.000000;-1.000000;,
  0.000000;0.000000;-1.000000;,
  0.000000;0.000000;-1.000000;,
  0.000000;0.000000;-1.000000;,
  0.000000;0.000000;-1.000000;;
  236;
  3;0,0,0;,
  3;1,1,1;,
  3;2,2,2;,
  3;3,3,3;,
  3;4,4,4;,
  3;5,5,5;,
  3;6,6,6;,
  3;7,7,7;,
  3;8,8,8;,
  3;9,9,9;,
  3;10,10,10;,
  3;11,11,11;,
  3;12,12,12;,
  3;13,13,13;,
  3;14,14,14;,
  3;15,15,15;,
  3;16,16,16;,
  3;17,17,17;,
  3;18,18,18;,
  3;19,19,19;,
  3;20,20,20;,
  3;21,21,21;,
  3;22,22,22;,
  3;23,23,23;,
  3;24,24,24;,
  3;25,25,25;,
  3;26,26,26;,
  3;27,27,27;,
  3;28,28,28;,
  3;29,29,29;,
  3;30,30,30;,
  3;31,31,31;,
  3;32,32,32;,
  3;33,33,33;,
  3;34,34,34;,
  3;35,35,35;,
  3;36,36,36;,
  3;37,37,37;,
  3;38,38,38;,
  3;39,39,39;,
  3;40,40,40;,
  3;41,41,41;,
  3;42,42,42;,
  3;43,43,43;,
  3;44,44,44;,
  3;45,45,45;,
  3;46,46,46;,
  3;47,47,47;,
  3;48,48,48;,
  3;49,49,49;,
  3;50,50,50;,
  3;51,51,51;,
  3;52,52,52;,
  3;53,53,53;,
  3;54,54,54;,
  3;55,55,55;,
  3;56,56,56;,
  3;57,57,57;,
  3;58,58,58;,
  3;59,59,59;,
  3;60,60,60;,
  3;61,61,61;,
  3;62,62,62;,
  3;63,63,63;,
  3;64,64,64;,
  3;65,65,65;,
  3;66,66,66;,
  3;67,67,67;,
  3;68,68,68;,
  3;69,69,69;,
  3;70,70,70;,
  3;71,71,71;,
  3;72,72,72;,
  3;73,73,73;,
  3;74,74,74;,
  3;75,75,75;,
  3;76,76,76;,
  3;77,77,77;,
  3;78,78,78;,
  3;79,79,79;,
  3;80,80,80;,
  3;81,81,81;,
  3;82,82,82;,
  3;83,83,83;,
  3;84,84,84;,
  3;85,85,85;,
  3;86,86,86;,
  3;87,87,87;,
  3;88,88,88;,
  3;89,89,89;,
  3;90,90,90;,
  3;91,91,91;,
  3;92,92,92;,
  3;93,93,93;,
  3;94,94,94;,
  3;95,95,95;,
  3;96,96,96;,
  3;97,97,97;,
  3;98,98,98;,
  3;99,99,99;,
  3;100,100,100;,
  3;101,101,101;,
  3;102,102,102;,
  3;103,103,103;,
  3;104,104,104;,
  3;105,105,105;,
  3;106,106,106;,
  3;107,107,107;,
  3;108,108,108;,
  3;109,109,109;,
  3;110,110,110;,
  3;111,111,111;,
  3;112,112,112;,
  3;113,113,113;,
  3;114,114,114;,
  3;115,115,115;,
  3;116,116,116;,
  3;117,117,117;,
  3;118,118,118;,
  3;119,119,119;,
  3;120,120,120;,
  3;121,121,121;,
  3;122,122,122;,
  3;123,123,123;,
  3;124,124,124;,
  3;125,125,125;,
  3;126,126,126;,
  3;127,127,127;,
  3;128,128,128;,
  3;129,129,129;,
  3;130,130,130;,
  3;131,131,131;,
  3;132,132,132;,
  3;133,133,133;,
  3;134,134,134;,
  3;135,135,135;,
  3;136,136,136;,
  3;137,137,137;,
  3;138,138,138;,
  3;139,139,139;,
  3;140,140,140;,
  3;141,141,141;,
  3;142,142,142;,
  3;143,143,143;,
  3;144,144,144;,
  3;145,145,145;,
  3;146,146,146;,
  3;147,147,147;,
  3;148,148,148;,
  3;149,149,149;,
  3;150,150,150;,
  3;151,151,151;,
  3;152,152,152;,
  3;153,153,153;,
  3;154,154,154;,
  3;155,155,155;,
  3;156,156,156;,
  3;157,157,157;,
  3;158,158,158;,
  3;159,159,159;,
  3;160,160,160;,
  3;161,161,161;,
  3;162,162,162;,
  3;163,163,163;,
  3;164,164,164;,
  3;165,165,165;,
  3;166,166,166;,
  3;167,167,167;,
  3;168,168,168;,
  3;169,169,169;,
  3;170,170,170;,
  3;171,171,171;,
  3;172,172,172;,
  3;173,173,173;,
  3;174,174,174;,
  3;175,175,175;,
  3;176,176,176;,
  3;177,177,177;,
  3;178,178,178;,
  3;179,179,179;,
  3;180,180,180;,
  3;181,181,181;,
  3;182,182,182;,
  3;183,183,183;,
  3;184,184,184;,
  3;185,185,185;,
  3;186,186,186;,
  3;187,187,187;,
  3;188,188,188;,
  3;189,189,189;,
  3;190,190,190;,
  3;191,191,191;,
  3;192,192,192;,
  3;193,193,193;,
  3;194,194,194;,
  3;195,195,195;,
  3;196,196,196;,
  3;197,197,197;,
  3;198,198,198;,
  3;199,199,199;,
  3;200,200,200;,
  3;201,201,201;,
  3;202,202,202;,
  3;203,203,203;,
  3;204,204,204;,
  3;205,205,205;,
  3;206,206,206;,
  3;207,207,207;,
  3;208,208,208;,
  3;209,209,209;,
  3;210,210,210;,
  3;211,211,211;,
  3;212,212,212;,
  3;213,213,213;,
  3;214,214,214;,
  3;215,215,215;,
  3;216,216,216;,
  3;217,217,217;,
  3;218,218,218;,
  3;219,219,219;,
  3;220,220,220;,
  3;221,221,221;,
  3;222,222,222;,
  3;223,223,223;,
  3;224,224,224;,
  3;225,225,225;,
  3;226,226,226;,
  3;227,227,227;,
  3;228,228,228;,
  3;229,229,229;,
  3;230,230,230;,
  3;231,231,231;,
  3;232,232,232;,
  3;233,233,233;,
  3;234,234,234;,
  3;235,235,235;;
 }
}