xof 0303txt 0032
template Vector {
 <3d82ab5e-62da-11cf-ab39-0020af71e433>
 FLOAT x;
 FLOAT y;
 FLOAT z;
}

template MeshFace {
 <3d82ab5f-62da-11cf-ab39-0020af71e433>
 DWORD nFaceVertexIndices;
 array DWORD faceVertexIndices[nFaceVertexIndices];
}

template Mesh {
 <3d82ab44-62da-11cf-ab39-0020af71e433>
 DWORD nVertices;
 array Vector vertices[nVertices];
 DWORD nFaces;
 array MeshFace faces[nFaces];
 [...]
}

template ColorRGBA {
 <35ff44e0-6c7c-11cf-8f52-0040333594a3>
 FLOAT red;
 FLOAT green;
 FLOAT blue;
 FLOAT alpha;
}

template ColorRGB {
 <d3e16e81-7835-11cf-8f52-0040333594a3>
 FLOAT red;
 FLOAT green;
 FLOAT blue;
}

template Material {
 <3d82ab4d-62da-11cf-ab39-0020af71e433>
 ColorRGBA faceColor;
 FLOAT power;
 ColorRGB specularColor;
 ColorRGB emissiveColor;
 [...]
}

template MeshMaterialList {
 <f6f23f42-7686-11cf-8f52-0040333594a3>
 DWORD nMaterials;
 DWORD nFaceIndexes;
 array DWORD faceIndexes[nFaceIndexes];
 [Material <3d82ab4d-62da-11cf-ab39-0020af71e433>]
}

template TextureFilename {
 <a42790e1-7810-11cf-8f52-0040333594a3>
 STRING filename;
}

template Coords2d {
 <f6f23f44-7686-11cf-8f52-0040333594a3>
 FLOAT u;
 FLOAT v;
}

template MeshTextureCoords {
 <f6f23f40-7686-11cf-8f52-0040333594a3>
 DWORD nTextureCoords;
 array Coords2d textureCoords[nTextureCoords];
}

template MeshNormals {
 <f6f23f43-7686-11cf-8f52-0040333594a3>
 DWORD nNormals;
 array Vector normals[nNormals];
 DWORD nFaceNormals;
 array MeshFace faceNormals[nFaceNormals];
}


Mesh  {
 114;
 1.500000;0.850000;-0.049600;,
 1.500000;1.100000;-0.049600;,
 2.700000;1.100000;-0.049600;,
 1.444000;0.850000;4.970100;,
 1.444000;1.100000;4.970100;,
 2.644000;1.100000;4.970100;,
 1.416000;0.850000;9.990000;,
 1.416000;1.100000;9.990000;,
 2.616000;1.100000;9.990000;,
 1.416000;0.850000;15.010000;,
 1.416000;1.100000;15.010000;,
 2.616000;1.100000;15.010000;,
 1.444000;0.850000;20.029900;,
 1.444000;1.100000;20.029900;,
 2.644000;1.100000;20.029900;,
 1.500000;0.850000;25.049601;,
 1.500000;1.100000;25.049601;,
 2.700000;1.100000;25.049601;,
 8.211100;0.850000;0.000000;,
 8.211100;1.100000;0.000000;,
 7.011100;1.100000;0.000000;,
 6.911500;0.850000;25.000000;,
 6.911500;1.100000;25.000000;,
 5.711500;1.100000;25.000000;,
 2.200000;-0.450000;0.000000;,
 2.200000;0.850000;0.000000;,
 2.200000;-0.450000;25.000000;,
 2.200000;0.850000;25.000000;,
 7.511100;-0.450000;0.000000;,
 7.511100;0.850000;0.000000;,
 6.211500;-0.450000;25.000000;,
 6.211500;0.850000;25.000000;,
 2.700000;1.100000;-0.049600;,
 2.644000;1.100000;4.970100;,
 2.616000;1.100000;9.990000;,
 2.616000;1.100000;15.010000;,
 2.644000;1.100000;20.029900;,
 2.700000;1.100000;25.049601;,
 7.011100;1.100000;0.000000;,
 5.711500;1.100000;25.000000;,
 4.286300;1.100000;10.000000;,
 4.286300;5.000000;10.000000;,
 5.086300;1.100000;10.000000;,
 5.086300;5.000000;10.000000;,
 3.962000;5.000000;-7.000000;,
 3.472280;5.000000;10.500000;,
 6.362000;5.000000;-7.000000;,
 5.872280;5.000000;10.500000;,
 3.962000;5.000000;-7.000000;,
 3.962000;5.800000;-7.000000;,
 3.472280;5.000000;10.500000;,
 3.472280;5.800000;10.500000;,
 6.362000;5.000000;-7.000000;,
 6.362000;5.800000;-7.000000;,
 5.872280;5.000000;10.500000;,
 5.872280;5.800000;10.500000;,
 1.500000;5.800000;-0.049600;,
 1.444000;5.800000;4.970100;,
 1.416000;5.800000;9.990000;,
 1.416000;5.800000;10.500000;,
 8.211100;5.800000;0.000000;,
 7.665300;5.800000;10.500000;,
 1.500000;5.800000;-0.049600;,
 1.500000;6.000000;-0.049600;,
 1.444000;5.800000;4.970100;,
 1.444000;6.000000;4.970100;,
 1.416000;5.800000;9.990000;,
 1.416000;6.000000;9.990000;,
 1.416000;5.800000;10.500000;,
 1.416000;6.000000;10.500000;,
 8.211100;5.800000;0.000000;,
 8.211100;6.000000;0.000000;,
 7.665300;5.800000;10.500000;,
 7.665300;6.000000;10.500000;,
 4.286300;5.800000;10.000000;,
 4.286300;7.500000;10.000000;,
 5.086300;5.800000;10.000000;,
 5.086300;7.500000;10.000000;,
 4.995500;6.700000;0.000000;,
 4.995500;7.500000;0.000000;,
 4.712200;6.700000;10.500000;,
 4.712200;7.500000;10.500000;,
 2.566100;7.100000;0.000000;,
 2.566100;7.500000;0.000000;,
 2.020300;7.100000;10.500000;,
 2.020300;7.500000;10.500000;,
 6.566100;7.100000;0.000000;,
 6.566100;7.500000;0.000000;,
 6.020300;7.100000;10.500000;,
 6.020300;7.500000;10.500000;,
 2.469100;5.800000;0.250000;,
 2.469100;7.500000;0.250000;,
 6.637100;5.800000;0.250000;,
 6.637100;7.500000;0.250000;,
 2.300200;5.800000;3.500000;,
 2.300200;7.500000;3.500000;,
 6.468200;5.800000;3.500000;,
 6.468200;7.500000;3.500000;,
 2.131200;5.800000;6.750000;,
 2.131200;7.500000;6.750000;,
 6.299200;5.800000;6.750000;,
 6.299200;7.500000;6.750000;,
 1.962300;5.800000;10.000000;,
 1.962300;7.500000;10.000000;,
 6.130300;5.800000;10.000000;,
 6.130300;7.500000;10.000000;,
 4.150000;1.100000;14.000000;,
 4.150000;3.040000;14.000000;,
 4.072000;1.100000;15.500000;,
 4.072000;3.040000;15.500000;,
 3.850000;1.100000;20.500000;,
 3.850000;5.500000;20.500000;,
 5.050000;1.100000;20.500000;,
 5.050000;5.500000;20.500000;;
 90;
 3;3,4,1;,
 3;3,1,0;,
 3;4,5,2;,
 3;4,2,1;,
 3;6,7,4;,
 3;6,4,3;,
 3;7,8,5;,
 3;7,5,4;,
 3;9,10,7;,
 3;9,7,6;,
 3;10,11,8;,
 3;10,8,7;,
 3;12,13,10;,
 3;12,10,9;,
 3;13,14,11;,
 3;13,11,10;,
 3;15,16,13;,
 3;15,13,12;,
 3;16,17,14;,
 3;16,14,13;,
 3;18,19,22;,
 3;18,22,21;,
 3;19,20,23;,
 3;19,23,22;,
 3;26,27,25;,
 3;26,25,24;,
 3;28,29,31;,
 3;28,31,30;,
 3;32,33,34;,
 3;32,34,35;,
 3;32,35,36;,
 3;32,36,37;,
 3;32,37,39;,
 3;32,39,38;,
 3;40,41,43;,
 3;40,43,42;,
 3;46,47,45;,
 3;46,45,44;,
 3;50,51,49;,
 3;50,49,48;,
 3;52,53,55;,
 3;52,55,54;,
 3;60,61,59;,
 3;60,59,58;,
 3;60,58,57;,
 3;60,57,56;,
 3;64,65,63;,
 3;64,63,62;,
 3;66,67,65;,
 3;66,65,64;,
 3;68,69,67;,
 3;68,67,66;,
 3;70,71,73;,
 3;70,73,72;,
 3;74,75,77;,
 3;74,77,76;,
 3;78,79,81;,
 3;78,81,80;,
 3;80,81,79;,
 3;80,79,78;,
 3;82,83,85;,
 3;82,85,84;,
 3;84,85,83;,
 3;84,83,82;,
 3;86,87,89;,
 3;86,89,88;,
 3;88,89,87;,
 3;88,87,86;,
 3;90,91,93;,
 3;90,93,92;,
 3;92,93,91;,
 3;92,91,90;,
 3;94,95,97;,
 3;94,97,96;,
 3;96,97,95;,
 3;96,95,94;,
 3;98,99,101;,
 3;98,101,100;,
 3;100,101,99;,
 3;100,99,98;,
 3;102,103,105;,
 3;102,105,104;,
 3;104,105,103;,
 3;104,103,102;,
 3;106,107,109;,
 3;106,109,108;,
 3;108,109,107;,
 3;108,107,106;,
 3;110,111,113;,
 3;110,113,112;;

 MeshMaterialList  {
  20;
  90;
  0,
  0,
  0,
  0,
  0,
  0,
  0,
  0,
  0,
  0,
  0,
  0,
  0,
  0,
  0,
  0,
  0,
  0,
  0,
  0,
  1,
  1,
  1,
  1,
  2,
  2,
  3,
  3,
  4,
  4,
  4,
  4,
  4,
  4,
  5,
  5,
  6,
  6,
  7,
  7,
  7,
  7,
  8,
  8,
  8,
  8,
  9,
  9,
  9,
  9,
  9,
  9,
  9,
  9,
  10,
  10,
  11,
  11,
  11,
  11,
  12,
  12,
  12,
  12,
  13,
  13,
  13,
  13,
  14,
  14,
  14,
  14,
  15,
  15,
  15,
  15,
  16,
  16,
  16,
  16,
  17,
  17,
  17,
  17,
  18,
  18,
  18,
  18,
  19,
  19;

  Material  {
   1.000000;1.000000;1.000000;1.000000;;
   0.000000;
   0.000000;0.000000;0.000000;;
   0.000000;0.000000;0.000000;;

   TextureFilename  {
    "FormSide1.png";
   }
  }

  Material  {
   1.000000;1.000000;1.000000;1.000000;;
   0.000000;
   0.000000;0.000000;0.000000;;
   0.000000;0.000000;0.000000;;

   TextureFilename  {
    "FormSide1.png";
   }
  }

  Material  {
   1.000000;1.000000;1.000000;1.000000;;
   0.000000;
   0.000000;0.000000;0.000000;;
   0.000000;0.000000;0.000000;;

   TextureFilename  {
    "FormSide2.png";
   }
  }

  Material  {
   1.000000;1.000000;1.000000;1.000000;;
   0.000000;
   0.000000;0.000000;0.000000;;
   0.000000;0.000000;0.000000;;

   TextureFilename  {
    "FormSide2.png";
   }
  }

  Material  {
   1.000000;1.000000;1.000000;1.000000;;
   0.000000;
   0.000000;0.000000;0.000000;;
   0.000000;0.000000;0.000000;;

   TextureFilename  {
    "FormC.png";
   }
  }

  Material  {
   1.000000;1.000000;1.000000;1.000000;;
   0.000000;
   0.000000;0.000000;0.000000;;
   0.000000;0.000000;0.000000;;

   TextureFilename  {
    "RoofPier1.png";
   }
  }

  Material  {
   1.000000;1.000000;1.000000;1.000000;;
   0.000000;
   0.000000;0.000000;0.000000;;
   0.000000;0.000000;0.000000;;

   TextureFilename  {
    "RoofPlate1.png";
   }
  }

  Material  {
   1.000000;1.000000;1.000000;1.000000;;
   0.000000;
   0.000000;0.000000;0.000000;;
   0.000000;0.000000;0.000000;;

   TextureFilename  {
    "RoofSide1.png";
   }
  }

  Material  {
   1.000000;1.000000;1.000000;1.000000;;
   0.000000;
   0.000000;0.000000;0.000000;;
   0.000000;0.000000;0.000000;;

   TextureFilename  {
    "RoofPlate2.png";
   }
  }

  Material  {
   1.000000;1.000000;1.000000;1.000000;;
   0.000000;
   0.000000;0.000000;0.000000;;
   0.000000;0.000000;0.000000;;

   TextureFilename  {
    "RoofSide2.png";
   }
  }

  Material  {
   1.000000;1.000000;1.000000;1.000000;;
   0.000000;
   0.000000;0.000000;0.000000;;
   0.000000;0.000000;0.000000;;

   TextureFilename  {
    "Pole_Iron1.png";
   }
  }

  Material  {
   1.000000;1.000000;1.000000;1.000000;;
   0.000000;
   0.000000;0.000000;0.000000;;
   0.000000;0.000000;0.000000;;

   TextureFilename  {
    "Iron1.png";
   }
  }

  Material  {
   1.000000;1.000000;1.000000;1.000000;;
   0.000000;
   0.000000;0.000000;0.000000;;
   0.000000;0.000000;0.000000;;

   TextureFilename  {
    "Iron1.png";
   }
  }

  Material  {
   1.000000;1.000000;1.000000;1.000000;;
   0.000000;
   0.000000;0.000000;0.000000;;
   0.000000;0.000000;0.000000;;

   TextureFilename  {
    "Iron1.png";
   }
  }

  Material  {
   1.000000;1.000000;1.000000;1.000000;;
   0.000000;
   0.000000;0.000000;0.000000;;
   0.000000;0.000000;0.000000;;

   TextureFilename  {
    "Iron3.png";
   }
  }

  Material  {
   1.000000;1.000000;1.000000;1.000000;;
   0.000000;
   0.000000;0.000000;0.000000;;
   0.000000;0.000000;0.000000;;

   TextureFilename  {
    "Iron3.png";
   }
  }

  Material  {
   1.000000;1.000000;1.000000;1.000000;;
   0.000000;
   0.000000;0.000000;0.000000;;
   0.000000;0.000000;0.000000;;

   TextureFilename  {
    "Iron3.png";
   }
  }

  Material  {
   1.000000;1.000000;1.000000;1.000000;;
   0.000000;
   0.000000;0.000000;0.000000;;
   0.000000;0.000000;0.000000;;

   TextureFilename  {
    "Iron3.png";
   }
  }

  Material  {
   1.000000;1.000000;1.000000;1.000000;;
   0.000000;
   0.000000;0.000000;0.000000;;
   0.000000;0.000000;0.000000;;

   TextureFilename  {
    "Ekimei2.png";
   }
  }

  Material  {
   1.000000;1.000000;1.000000;1.000000;;
   0.000000;
   0.000000;0.000000;0.000000;;
   0.000000;0.000000;0.000000;;

   TextureFilename  {
    "Light1.png";
   }
  }
 }

 MeshTextureCoords  {
  114;
  0.000000;1.000000;,
  0.000000;0.440000;,
  0.000000;0.000000;,
  1.000000;1.000000;,
  1.000000;0.440000;,
  1.000000;0.000000;,
  2.000000;1.000000;,
  2.000000;0.440000;,
  2.000000;0.000000;,
  3.000000;1.000000;,
  3.000000;0.440000;,
  3.000000;0.000000;,
  4.000000;1.000000;,
  4.000000;0.440000;,
  4.000000;0.000000;,
  5.000000;1.000000;,
  5.000000;0.440000;,
  5.000000;0.000000;,
  0.000000;1.000000;,
  0.000000;0.440000;,
  0.000000;0.000000;,
  5.000000;1.000000;,
  5.000000;0.440000;,
  5.000000;0.000000;,
  0.600000;1.000000;,
  0.600000;0.000000;,
  0.900000;1.000000;,
  0.900000;0.000000;,
  0.100000;1.000000;,
  0.100000;0.000000;,
  0.200000;1.000000;,
  0.200000;0.000000;,
  1.000000;0.000000;,
  1.000000;0.500000;,
  1.000000;1.000000;,
  1.000000;1.500000;,
  1.000000;2.000000;,
  1.000000;2.500000;,
  0.000000;0.000000;,
  0.000000;2.500000;,
  0.000000;0.950000;,
  0.000000;0.100000;,
  1.000000;0.950000;,
  1.000000;0.100000;,
  0.000000;0.184000;,
  0.000000;2.704000;,
  0.100000;0.184000;,
  0.100000;2.704000;,
  0.000000;1.000000;,
  0.000000;0.000000;,
  0.100000;1.000000;,
  0.100000;0.000000;,
  0.200000;1.000000;,
  0.200000;0.000000;,
  0.300000;1.000000;,
  0.300000;0.000000;,
  0.000000;0.000000;,
  0.000000;0.600000;,
  0.000000;1.200000;,
  0.000000;1.272000;,
  0.100000;0.000000;,
  0.100000;1.272000;,
  0.000000;1.000000;,
  0.000000;0.000000;,
  0.100000;1.000000;,
  0.100000;0.000000;,
  0.200000;1.000000;,
  0.200000;0.000000;,
  0.300000;1.000000;,
  0.300000;0.000000;,
  0.000000;1.000000;,
  0.000000;0.000000;,
  0.300000;1.000000;,
  0.300000;0.000000;,
  1.000000;1.000000;,
  0.000000;1.000000;,
  1.000000;0.000000;,
  0.000000;0.000000;,
  0.000000;1.000000;,
  0.000000;0.000000;,
  0.100000;1.000000;,
  0.100000;0.000000;,
  0.000000;1.000000;,
  0.000000;0.000000;,
  0.100000;1.000000;,
  0.100000;0.000000;,
  0.000000;1.000000;,
  0.000000;0.000000;,
  0.100000;1.000000;,
  0.100000;0.000000;,
  0.990000;1.000000;,
  0.990000;0.000000;,
  0.010000;1.000000;,
  0.010000;0.000000;,
  0.990000;1.000000;,
  0.990000;0.000000;,
  0.010000;1.000000;,
  0.010000;0.000000;,
  0.990000;1.000000;,
  0.990000;0.000000;,
  0.010000;1.000000;,
  0.010000;0.000000;,
  0.990000;1.000000;,
  0.990000;0.000000;,
  0.010000;1.000000;,
  0.010000;0.000000;,
  0.000000;1.000000;,
  0.000000;0.000000;,
  1.000000;1.000000;,
  1.000000;0.000000;,
  0.000000;1.000000;,
  0.000000;0.000000;,
  1.000000;1.000000;,
  1.000000;0.000000;;
 }

 MeshNormals  {
  90;
  -0.999938;0.000000;-0.011155;,
  -0.999938;0.000000;-0.011155;,
  0.000000;1.000000;0.000000;,
  0.000000;1.000000;0.000000;,
  -0.999984;0.000000;-0.005578;,
  -0.999984;0.000000;-0.005578;,
  0.000000;1.000000;0.000000;,
  0.000000;1.000000;0.000000;,
  -1.000000;0.000000;0.000000;,
  -1.000000;0.000000;0.000000;,
  0.000000;1.000000;0.000000;,
  0.000000;1.000000;0.000000;,
  -0.999984;0.000000;0.005578;,
  -0.999984;0.000000;0.005578;,
  0.000000;1.000000;0.000000;,
  0.000000;1.000000;0.000000;,
  -0.999938;0.000000;0.011155;,
  -0.999938;0.000000;0.011155;,
  0.000000;1.000000;0.000000;,
  0.000000;1.000000;0.000000;,
  0.998652;0.000000;0.051914;,
  0.998652;0.000000;0.051914;,
  0.000000;1.000000;0.000000;,
  0.000000;1.000000;0.000000;,
  -1.000000;0.000000;0.000000;,
  -1.000000;0.000000;0.000000;,
  0.998652;0.000000;0.051914;,
  0.998652;0.000000;0.051914;,
  0.000000;1.000000;0.000000;,
  0.000000;1.000000;0.000000;,
  0.000000;1.000000;0.000000;,
  0.000000;1.000000;0.000000;,
  0.000000;1.000000;0.000000;,
  0.000000;1.000000;0.000000;,
  0.000000;0.000000;-1.000000;,
  0.000000;0.000000;-1.000000;,
  0.000000;-1.000000;0.000000;,
  0.000000;-1.000000;0.000000;,
  -0.999609;0.000000;-0.027973;,
  -0.999609;0.000000;-0.027973;,
  0.999609;0.000000;0.027973;,
  0.999609;0.000000;0.027973;,
  0.000000;-1.000000;0.000000;,
  0.000000;-1.000000;0.000000;,
  0.000000;-1.000000;0.000000;,
  0.000000;-1.000000;0.000000;,
  -0.999938;0.000000;-0.011155;,
  -0.999938;0.000000;-0.011155;,
  -0.999984;0.000000;-0.005578;,
  -0.999984;0.000000;-0.005578;,
  -1.000000;0.000000;0.000000;,
  -1.000000;0.000000;0.000000;,
  0.998652;0.000000;0.051911;,
  0.998652;0.000000;0.051911;,
  0.000000;0.000000;-1.000000;,
  0.000000;0.000000;-1.000000;,
  0.999636;0.000000;0.026971;,
  0.999636;0.000000;0.026971;,
  -0.999636;0.000000;-0.026971;,
  -0.999636;0.000000;-0.026971;,
  0.998652;0.000000;0.051911;,
  0.998652;0.000000;0.051911;,
  -0.998652;0.000000;-0.051911;,
  -0.998652;0.000000;-0.051911;,
  0.998652;0.000000;0.051911;,
  0.998652;0.000000;0.051911;,
  -0.998652;0.000000;-0.051911;,
  -0.998652;0.000000;-0.051911;,
  0.000000;0.000000;-1.000000;,
  0.000000;0.000000;-1.000000;,
  0.000000;0.000000;1.000000;,
  0.000000;0.000000;1.000000;,
  0.000000;0.000000;-1.000000;,
  0.000000;0.000000;-1.000000;,
  0.000000;0.000000;1.000000;,
  0.000000;0.000000;1.000000;,
  0.000000;0.000000;-1.000000;,
  0.000000;0.000000;-1.000000;,
  0.000000;0.000000;1.000000;,
  0.000000;0.000000;1.000000;,
  0.000000;0.000000;-1.000000;,
  0.000000;0.000000;-1.000000;,
  0.000000;0.000000;1.000000;,
  0.000000;0.000000;1.000000;,
  0.998651;0.000000;0.051930;,
  0.998651;0.000000;0.051930;,
  -0.998651;0.000000;-0.051930;,
  -0.998651;0.000000;-0.051930;,
  0.000000;0.000000;-1.000000;,
  0.000000;0.000000;-1.000000;;
  90;
  3;0,0,0;,
  3;1,1,1;,
  3;2,2,2;,
  3;3,3,3;,
  3;4,4,4;,
  3;5,5,5;,
  3;6,6,6;,
  3;7,7,7;,
  3;8,8,8;,
  3;9,9,9;,
  3;10,10,10;,
  3;11,11,11;,
  3;12,12,12;,
  3;13,13,13;,
  3;14,14,14;,
  3;15,15,15;,
  3;16,16,16;,
  3;17,17,17;,
  3;18,18,18;,
  3;19,19,19;,
  3;20,20,20;,
  3;21,21,21;,
  3;22,22,22;,
  3;23,23,23;,
  3;24,24,24;,
  3;25,25,25;,
  3;26,26,26;,
  3;27,27,27;,
  3;28,28,28;,
  3;29,29,29;,
  3;30,30,30;,
  3;31,31,31;,
  3;32,32,32;,
  3;33,33,33;,
  3;34,34,34;,
  3;35,35,35;,
  3;36,36,36;,
  3;37,37,37;,
  3;38,38,38;,
  3;39,39,39;,
  3;40,40,40;,
  3;41,41,41;,
  3;42,42,42;,
  3;43,43,43;,
  3;44,44,44;,
  3;45,45,45;,
  3;46,46,46;,
  3;47,47,47;,
  3;48,48,48;,
  3;49,49,49;,
  3;50,50,50;,
  3;51,51,51;,
  3;52,52,52;,
  3;53,53,53;,
  3;54,54,54;,
  3;55,55,55;,
  3;56,56,56;,
  3;57,57,57;,
  3;58,58,58;,
  3;59,59,59;,
  3;60,60,60;,
  3;61,61,61;,
  3;62,62,62;,
  3;63,63,63;,
  3;64,64,64;,
  3;65,65,65;,
  3;66,66,66;,
  3;67,67,67;,
  3;68,68,68;,
  3;69,69,69;,
  3;70,70,70;,
  3;71,71,71;,
  3;72,72,72;,
  3;73,73,73;,
  3;74,74,74;,
  3;75,75,75;,
  3;76,76,76;,
  3;77,77,77;,
  3;78,78,78;,
  3;79,79,79;,
  3;80,80,80;,
  3;81,81,81;,
  3;82,82,82;,
  3;83,83,83;,
  3;84,84,84;,
  3;85,85,85;,
  3;86,86,86;,
  3;87,87,87;,
  3;88,88,88;,
  3;89,89,89;;
 }
}