xof 0303txt 0032
template Vector {
 <3d82ab5e-62da-11cf-ab39-0020af71e433>
 FLOAT x;
 FLOAT y;
 FLOAT z;
}

template MeshFace {
 <3d82ab5f-62da-11cf-ab39-0020af71e433>
 DWORD nFaceVertexIndices;
 array DWORD faceVertexIndices[nFaceVertexIndices];
}

template Mesh {
 <3d82ab44-62da-11cf-ab39-0020af71e433>
 DWORD nVertices;
 array Vector vertices[nVertices];
 DWORD nFaces;
 array MeshFace faces[nFaces];
 [...]
}

template ColorRGBA {
 <35ff44e0-6c7c-11cf-8f52-0040333594a3>
 FLOAT red;
 FLOAT green;
 FLOAT blue;
 FLOAT alpha;
}

template ColorRGB {
 <d3e16e81-7835-11cf-8f52-0040333594a3>
 FLOAT red;
 FLOAT green;
 FLOAT blue;
}

template Material {
 <3d82ab4d-62da-11cf-ab39-0020af71e433>
 ColorRGBA faceColor;
 FLOAT power;
 ColorRGB specularColor;
 ColorRGB emissiveColor;
 [...]
}

template MeshMaterialList {
 <f6f23f42-7686-11cf-8f52-0040333594a3>
 DWORD nMaterials;
 DWORD nFaceIndexes;
 array DWORD faceIndexes[nFaceIndexes];
 [Material <3d82ab4d-62da-11cf-ab39-0020af71e433>]
}

template TextureFilename {
 <a42790e1-7810-11cf-8f52-0040333594a3>
 STRING filename;
}

template Coords2d {
 <f6f23f44-7686-11cf-8f52-0040333594a3>
 FLOAT u;
 FLOAT v;
}

template MeshTextureCoords {
 <f6f23f40-7686-11cf-8f52-0040333594a3>
 DWORD nTextureCoords;
 array Coords2d textureCoords[nTextureCoords];
}

template MeshNormals {
 <f6f23f43-7686-11cf-8f52-0040333594a3>
 DWORD nNormals;
 array Vector normals[nNormals];
 DWORD nFaceNormals;
 array MeshFace faceNormals[nFaceNormals];
}


Mesh  {
 113;
 -1.500000;0.850000;-0.049600;,
 -1.500000;1.100000;-0.049600;,
 -2.700000;1.100000;-0.049600;,
 -1.444000;0.850000;4.970100;,
 -1.444000;1.100000;4.970100;,
 -2.644000;1.100000;4.970100;,
 -1.416000;0.850000;9.990000;,
 -1.416000;1.100000;9.990000;,
 -2.616000;1.100000;9.990000;,
 -1.416000;0.850000;15.010000;,
 -1.416000;1.100000;15.010000;,
 -2.616000;1.100000;15.010000;,
 -1.444000;0.850000;20.029900;,
 -1.444000;1.100000;20.029900;,
 -2.644000;1.100000;20.029900;,
 -1.500000;0.850000;25.049601;,
 -1.500000;1.100000;25.049601;,
 -2.700000;1.100000;25.049601;,
 -6.909300;0.850000;0.000000;,
 -6.909300;1.100000;0.000000;,
 -5.709300;1.100000;0.000000;,
 -8.209300;0.850000;25.000000;,
 -8.209300;1.100000;25.000000;,
 -7.009300;1.100000;25.000000;,
 -2.200000;-0.450000;0.000000;,
 -2.200000;0.850000;0.000000;,
 -2.200000;-0.450000;25.000000;,
 -2.200000;0.850000;25.000000;,
 -6.209300;-0.450000;0.000000;,
 -6.209300;0.850000;0.000000;,
 -7.509300;-0.450000;25.000000;,
 -7.509300;0.850000;25.000000;,
 -2.700000;1.100000;-0.049600;,
 -2.644000;1.100000;4.970100;,
 -2.616000;1.100000;9.990000;,
 -2.616000;1.100000;15.010000;,
 -2.644000;1.100000;20.029900;,
 -2.700000;1.100000;25.049601;,
 -5.709300;1.100000;0.000000;,
 -7.009300;1.100000;25.000000;,
 -3.771500;1.100000;7.500000;,
 -3.771500;5.000000;7.500000;,
 -4.571500;1.100000;7.500000;,
 -4.571500;5.000000;7.500000;,
 -4.123000;1.100000;19.500000;,
 -4.123000;5.000000;19.500000;,
 -4.923000;1.100000;19.500000;,
 -4.923000;5.000000;19.500000;,
 -2.957500;5.000000;7.000000;,
 -3.307500;5.000000;19.500000;,
 -5.357500;5.000000;7.000000;,
 -5.707500;5.000000;19.500000;,
 -2.957500;5.000000;7.000000;,
 -2.957500;5.800000;7.000000;,
 -3.307500;5.000000;19.500000;,
 -3.307500;5.800000;19.500000;,
 -5.357500;5.000000;7.000000;,
 -5.357500;5.800000;7.000000;,
 -5.707500;5.000000;19.500000;,
 -5.707500;5.800000;19.500000;,
 -1.427300;5.800000;7.000000;,
 -1.416000;5.800000;9.990000;,
 -1.416000;5.800000;15.010000;,
 -1.444000;5.800000;20.029900;,
 -1.500000;5.800000;25.049601;,
 -7.273300;5.800000;7.000000;,
 -8.209300;5.800000;25.000000;,
 -1.427300;5.800000;7.000000;,
 -1.427300;6.000000;7.000000;,
 -1.416000;5.800000;9.990000;,
 -1.416000;6.000000;9.990000;,
 -1.416000;5.800000;15.010000;,
 -1.416000;6.000000;15.010000;,
 -1.444000;5.800000;20.029900;,
 -1.444000;6.000000;20.029900;,
 -1.500000;5.800000;25.049601;,
 -1.500000;6.000000;25.049601;,
 -7.273300;5.800000;7.000000;,
 -7.273300;6.000000;7.000000;,
 -8.209300;5.800000;25.000000;,
 -8.209300;6.000000;25.000000;,
 -3.771500;5.800000;7.500000;,
 -3.771500;7.500000;7.500000;,
 -4.571500;5.800000;7.500000;,
 -4.571500;7.500000;7.500000;,
 -4.107500;5.800000;19.500000;,
 -4.107500;7.500000;19.500000;,
 -4.907500;5.800000;19.500000;,
 -4.907500;7.500000;19.500000;,
 -4.171500;6.700000;7.500000;,
 -4.171500;7.500000;7.500000;,
 -4.507500;6.700000;19.500000;,
 -4.507500;7.500000;19.500000;,
 -5.654300;7.100000;7.500000;,
 -5.654300;7.500000;7.500000;,
 -6.278300;7.100000;19.500000;,
 -6.278300;7.500000;19.500000;,
 -1.654300;7.100000;7.500000;,
 -1.654300;7.500000;7.500000;,
 -2.278300;7.100000;19.500000;,
 -2.278300;7.500000;19.500000;,
 -1.674300;5.800000;9.500000;,
 -1.674300;7.500000;9.500000;,
 -5.842300;5.800000;9.500000;,
 -5.842300;7.500000;9.500000;,
 -1.882300;5.800000;13.500000;,
 -1.882300;7.500000;13.500000;,
 -6.050300;5.800000;13.500000;,
 -6.050300;7.500000;13.500000;,
 -2.090300;5.800000;17.500000;,
 -2.090300;7.500000;17.500000;,
 -6.258300;5.800000;17.500000;,
 -6.258300;7.500000;17.500000;;
 79;
 3;0,1,4;,
 3;0,4,3;,
 3;1,2,5;,
 3;1,5,4;,
 3;3,4,7;,
 3;3,7,6;,
 3;4,5,8;,
 3;4,8,7;,
 3;6,7,10;,
 3;6,10,9;,
 3;7,8,11;,
 3;7,11,10;,
 3;9,10,13;,
 3;9,13,12;,
 3;10,11,14;,
 3;10,14,13;,
 3;12,13,16;,
 3;12,16,15;,
 3;13,14,17;,
 3;13,17,16;,
 3;21,22,19;,
 3;21,19,18;,
 3;22,23,20;,
 3;22,20,19;,
 3;24,25,27;,
 3;24,27,26;,
 3;30,31,29;,
 3;30,29,28;,
 3;38,39,37;,
 3;38,37,36;,
 3;38,36,35;,
 3;38,35,34;,
 3;38,34,33;,
 3;38,33,32;,
 3;42,43,41;,
 3;42,41,40;,
 3;46,47,45;,
 3;46,45,44;,
 3;48,49,51;,
 3;48,51,50;,
 3;52,53,55;,
 3;52,55,54;,
 3;56,57,53;,
 3;56,53,52;,
 3;58,59,57;,
 3;58,57,56;,
 3;60,61,62;,
 3;60,62,63;,
 3;60,63,64;,
 3;60,64,66;,
 3;60,66,65;,
 3;67,68,70;,
 3;67,70,69;,
 3;69,70,72;,
 3;69,72,71;,
 3;71,72,74;,
 3;71,74,73;,
 3;73,74,76;,
 3;73,76,75;,
 3;77,78,68;,
 3;77,68,67;,
 3;79,80,78;,
 3;79,78,77;,
 3;83,84,82;,
 3;83,82,81;,
 3;87,88,86;,
 3;87,86,85;,
 3;91,92,90;,
 3;91,90,89;,
 3;95,96,94;,
 3;95,94,93;,
 3;99,100,98;,
 3;99,98,97;,
 3;103,104,102;,
 3;103,102,101;,
 3;107,108,106;,
 3;107,106,105;,
 3;111,112,110;,
 3;111,110,109;;

 MeshMaterialList  {
  19;
  79;
  0,
  0,
  0,
  0,
  0,
  0,
  0,
  0,
  0,
  0,
  0,
  0,
  0,
  0,
  0,
  0,
  0,
  0,
  0,
  0,
  1,
  1,
  1,
  1,
  2,
  2,
  3,
  3,
  4,
  4,
  4,
  4,
  4,
  4,
  5,
  5,
  6,
  6,
  7,
  7,
  8,
  8,
  8,
  8,
  8,
  8,
  9,
  9,
  9,
  9,
  9,
  10,
  10,
  10,
  10,
  10,
  10,
  10,
  10,
  10,
  10,
  10,
  10,
  11,
  11,
  12,
  12,
  13,
  13,
  14,
  14,
  15,
  15,
  16,
  16,
  17,
  17,
  18,
  18;

  Material  {
   1.000000;1.000000;1.000000;1.000000;;
   0.000000;
   0.000000;0.000000;0.000000;;
   0.000000;0.000000;0.000000;;

   TextureFilename  {
    "FormSide1.png";
   }
  }

  Material  {
   1.000000;1.000000;1.000000;1.000000;;
   0.000000;
   0.000000;0.000000;0.000000;;
   0.000000;0.000000;0.000000;;

   TextureFilename  {
    "FormSide1.png";
   }
  }

  Material  {
   1.000000;1.000000;1.000000;1.000000;;
   0.000000;
   0.000000;0.000000;0.000000;;
   0.000000;0.000000;0.000000;;

   TextureFilename  {
    "FormSide2.png";
   }
  }

  Material  {
   1.000000;1.000000;1.000000;1.000000;;
   0.000000;
   0.000000;0.000000;0.000000;;
   0.000000;0.000000;0.000000;;

   TextureFilename  {
    "FormSide2.png";
   }
  }

  Material  {
   1.000000;1.000000;1.000000;1.000000;;
   0.000000;
   0.000000;0.000000;0.000000;;
   0.000000;0.000000;0.000000;;

   TextureFilename  {
    "FormC.png";
   }
  }

  Material  {
   1.000000;1.000000;1.000000;1.000000;;
   0.000000;
   0.000000;0.000000;0.000000;;
   0.000000;0.000000;0.000000;;

   TextureFilename  {
    "RoofPier1.png";
   }
  }

  Material  {
   1.000000;1.000000;1.000000;1.000000;;
   0.000000;
   0.000000;0.000000;0.000000;;
   0.000000;0.000000;0.000000;;

   TextureFilename  {
    "RoofPier1.png";
   }
  }

  Material  {
   1.000000;1.000000;1.000000;1.000000;;
   0.000000;
   0.000000;0.000000;0.000000;;
   0.000000;0.000000;0.000000;;

   TextureFilename  {
    "RoofPlate1.png";
   }
  }

  Material  {
   1.000000;1.000000;1.000000;1.000000;;
   0.000000;
   0.000000;0.000000;0.000000;;
   0.000000;0.000000;0.000000;;

   TextureFilename  {
    "RoofSide1.png";
   }
  }

  Material  {
   1.000000;1.000000;1.000000;1.000000;;
   0.000000;
   0.000000;0.000000;0.000000;;
   0.000000;0.000000;0.000000;;

   TextureFilename  {
    "RoofPlate2.png";
   }
  }

  Material  {
   1.000000;1.000000;1.000000;1.000000;;
   0.000000;
   0.000000;0.000000;0.000000;;
   0.000000;0.000000;0.000000;;

   TextureFilename  {
    "RoofSide2.png";
   }
  }

  Material  {
   1.000000;1.000000;1.000000;1.000000;;
   0.000000;
   0.000000;0.000000;0.000000;;
   0.000000;0.000000;0.000000;;

   TextureFilename  {
    "Pole_Iron1.png";
   }
  }

  Material  {
   1.000000;1.000000;1.000000;1.000000;;
   0.000000;
   0.000000;0.000000;0.000000;;
   0.000000;0.000000;0.000000;;

   TextureFilename  {
    "Pole_Iron1.png";
   }
  }

  Material  {
   1.000000;1.000000;1.000000;1.000000;;
   0.000000;
   0.000000;0.000000;0.000000;;
   0.000000;0.000000;0.000000;;

   TextureFilename  {
    "Iron1.png";
   }
  }

  Material  {
   1.000000;1.000000;1.000000;1.000000;;
   0.000000;
   0.000000;0.000000;0.000000;;
   0.000000;0.000000;0.000000;;

   TextureFilename  {
    "Iron1.png";
   }
  }

  Material  {
   1.000000;1.000000;1.000000;1.000000;;
   0.000000;
   0.000000;0.000000;0.000000;;
   0.000000;0.000000;0.000000;;

   TextureFilename  {
    "Iron1.png";
   }
  }

  Material  {
   1.000000;1.000000;1.000000;1.000000;;
   0.000000;
   0.000000;0.000000;0.000000;;
   0.000000;0.000000;0.000000;;

   TextureFilename  {
    "Iron3.png";
   }
  }

  Material  {
   1.000000;1.000000;1.000000;1.000000;;
   0.000000;
   0.000000;0.000000;0.000000;;
   0.000000;0.000000;0.000000;;

   TextureFilename  {
    "Iron3.png";
   }
  }

  Material  {
   1.000000;1.000000;1.000000;1.000000;;
   0.000000;
   0.000000;0.000000;0.000000;;
   0.000000;0.000000;0.000000;;

   TextureFilename  {
    "Iron3.png";
   }
  }
 }

 MeshTextureCoords  {
  113;
  0.000000;1.000000;,
  0.000000;0.440000;,
  0.000000;0.000000;,
  1.000000;1.000000;,
  1.000000;0.440000;,
  1.000000;0.000000;,
  2.000000;1.000000;,
  2.000000;0.440000;,
  2.000000;0.000000;,
  3.000000;1.000000;,
  3.000000;0.440000;,
  3.000000;0.000000;,
  4.000000;1.000000;,
  4.000000;0.440000;,
  4.000000;0.000000;,
  5.000000;1.000000;,
  5.000000;0.440000;,
  5.000000;0.000000;,
  0.000000;1.000000;,
  0.000000;0.440000;,
  0.000000;0.000000;,
  5.000000;1.000000;,
  5.000000;0.440000;,
  5.000000;0.000000;,
  0.100000;1.000000;,
  0.100000;0.000000;,
  0.200000;1.000000;,
  0.200000;0.000000;,
  0.600000;1.000000;,
  0.600000;0.000000;,
  0.900000;1.000000;,
  0.900000;0.000000;,
  1.000000;0.000000;,
  1.000000;0.500000;,
  1.000000;1.000000;,
  1.000000;1.500000;,
  1.000000;2.000000;,
  1.000000;2.500000;,
  0.000000;0.000000;,
  0.000000;2.500000;,
  0.000000;0.950000;,
  0.000000;0.400000;,
  1.000000;0.950000;,
  1.000000;0.400000;,
  0.000000;0.950000;,
  0.000000;0.100000;,
  1.000000;0.950000;,
  1.000000;0.100000;,
  0.000000;0.000000;,
  0.000000;1.800000;,
  0.100000;0.000000;,
  0.100000;1.800000;,
  0.100000;1.000000;,
  0.100000;0.000000;,
  0.000000;1.000000;,
  0.000000;0.000000;,
  0.200000;1.000000;,
  0.200000;0.000000;,
  0.300000;1.000000;,
  0.300000;0.000000;,
  0.000000;0.840000;,
  0.000000;1.200000;,
  0.000000;1.800000;,
  0.000000;2.400000;,
  0.000000;3.000000;,
  0.100000;0.840000;,
  0.100000;3.000000;,
  0.000000;1.000000;,
  0.000000;0.000000;,
  0.100000;1.000000;,
  0.100000;0.000000;,
  0.200000;1.000000;,
  0.200000;0.000000;,
  0.300000;1.000000;,
  0.300000;0.000000;,
  0.400000;1.000000;,
  0.400000;0.000000;,
  0.000000;1.000000;,
  0.000000;0.000000;,
  0.400000;1.000000;,
  0.400000;0.000000;,
  0.000000;1.000000;,
  1.000000;1.000000;,
  0.000000;0.000000;,
  1.000000;0.000000;,
  0.000000;1.000000;,
  1.000000;1.000000;,
  0.000000;0.000000;,
  1.000000;0.000000;,
  1.000000;1.000000;,
  1.000000;0.000000;,
  0.000000;1.000000;,
  0.000000;0.000000;,
  1.000000;1.000000;,
  1.000000;0.000000;,
  0.000000;1.000000;,
  0.000000;0.000000;,
  1.000000;1.000000;,
  1.000000;0.000000;,
  0.000000;1.000000;,
  0.000000;0.000000;,
  0.990000;1.000000;,
  0.990000;0.000000;,
  0.010000;1.000000;,
  0.010000;0.000000;,
  0.990000;1.000000;,
  0.990000;0.000000;,
  0.010000;1.000000;,
  0.010000;0.000000;,
  0.990000;1.000000;,
  0.990000;0.000000;,
  0.010000;1.000000;,
  0.010000;0.000000;;
 }

 MeshNormals  {
  79;
  0.999938;0.000000;-0.011155;,
  0.999938;0.000000;-0.011155;,
  0.000000;1.000000;0.000000;,
  0.000000;1.000000;0.000000;,
  0.999984;0.000000;-0.005578;,
  0.999984;0.000000;-0.005578;,
  0.000000;1.000000;0.000000;,
  0.000000;1.000000;0.000000;,
  1.000000;0.000000;0.000000;,
  1.000000;0.000000;0.000000;,
  0.000000;1.000000;0.000000;,
  0.000000;1.000000;0.000000;,
  0.999984;0.000000;0.005578;,
  0.999984;0.000000;0.005578;,
  0.000000;1.000000;0.000000;,
  0.000000;1.000000;0.000000;,
  0.999938;0.000000;0.011155;,
  0.999938;0.000000;0.011155;,
  0.000000;1.000000;0.000000;,
  0.000000;1.000000;0.000000;,
  -0.998651;0.000000;-0.051930;,
  -0.998651;0.000000;-0.051930;,
  0.000000;1.000000;0.000000;,
  0.000000;1.000000;0.000000;,
  1.000000;0.000000;0.000000;,
  1.000000;0.000000;0.000000;,
  -0.998651;0.000000;-0.051930;,
  -0.998651;0.000000;-0.051930;,
  0.000000;1.000000;0.000000;,
  0.000000;1.000000;0.000000;,
  0.000000;1.000000;0.000000;,
  0.000000;1.000000;0.000000;,
  0.000000;1.000000;0.000000;,
  0.000000;1.000000;0.000000;,
  0.000000;0.000000;-1.000000;,
  0.000000;0.000000;-1.000000;,
  0.000000;0.000000;-1.000000;,
  0.000000;0.000000;-1.000000;,
  0.000000;-1.000000;0.000000;,
  0.000000;-1.000000;0.000000;,
  0.999608;0.000000;0.027989;,
  0.999608;0.000000;0.027989;,
  0.000000;0.000000;-1.000000;,
  0.000000;0.000000;-1.000000;,
  -0.999608;0.000000;-0.027989;,
  -0.999608;0.000000;-0.027989;,
  0.000000;-1.000000;0.000000;,
  0.000000;-1.000000;0.000000;,
  0.000000;-1.000000;0.000000;,
  0.000000;-1.000000;0.000000;,
  0.000000;-1.000000;0.000000;,
  0.999993;0.000000;-0.003779;,
  0.999993;0.000000;-0.003779;,
  1.000000;0.000000;0.000000;,
  1.000000;0.000000;0.000000;,
  0.999984;0.000000;0.005578;,
  0.999984;0.000000;0.005578;,
  0.999938;0.000000;0.011155;,
  0.999938;0.000000;0.011155;,
  0.000000;0.000000;-1.000000;,
  0.000000;0.000000;-1.000000;,
  -0.998651;0.000000;-0.051930;,
  -0.998651;0.000000;-0.051930;,
  0.000000;0.000000;-1.000000;,
  0.000000;0.000000;-1.000000;,
  0.000000;0.000000;-1.000000;,
  0.000000;0.000000;-1.000000;,
  -0.999608;0.000000;-0.027989;,
  -0.999608;0.000000;-0.027989;,
  -0.998651;0.000000;-0.051930;,
  -0.998651;0.000000;-0.051930;,
  -0.998651;0.000000;-0.051930;,
  -0.998651;0.000000;-0.051930;,
  0.000000;0.000000;-1.000000;,
  0.000000;0.000000;-1.000000;,
  0.000000;0.000000;-1.000000;,
  0.000000;0.000000;-1.000000;,
  0.000000;0.000000;-1.000000;,
  0.000000;0.000000;-1.000000;;
  79;
  3;0,0,0;,
  3;1,1,1;,
  3;2,2,2;,
  3;3,3,3;,
  3;4,4,4;,
  3;5,5,5;,
  3;6,6,6;,
  3;7,7,7;,
  3;8,8,8;,
  3;9,9,9;,
  3;10,10,10;,
  3;11,11,11;,
  3;12,12,12;,
  3;13,13,13;,
  3;14,14,14;,
  3;15,15,15;,
  3;16,16,16;,
  3;17,17,17;,
  3;18,18,18;,
  3;19,19,19;,
  3;20,20,20;,
  3;21,21,21;,
  3;22,22,22;,
  3;23,23,23;,
  3;24,24,24;,
  3;25,25,25;,
  3;26,26,26;,
  3;27,27,27;,
  3;28,28,28;,
  3;29,29,29;,
  3;30,30,30;,
  3;31,31,31;,
  3;32,32,32;,
  3;33,33,33;,
  3;34,34,34;,
  3;35,35,35;,
  3;36,36,36;,
  3;37,37,37;,
  3;38,38,38;,
  3;39,39,39;,
  3;40,40,40;,
  3;41,41,41;,
  3;42,42,42;,
  3;43,43,43;,
  3;44,44,44;,
  3;45,45,45;,
  3;46,46,46;,
  3;47,47,47;,
  3;48,48,48;,
  3;49,49,49;,
  3;50,50,50;,
  3;51,51,51;,
  3;52,52,52;,
  3;53,53,53;,
  3;54,54,54;,
  3;55,55,55;,
  3;56,56,56;,
  3;57,57,57;,
  3;58,58,58;,
  3;59,59,59;,
  3;60,60,60;,
  3;61,61,61;,
  3;62,62,62;,
  3;63,63,63;,
  3;64,64,64;,
  3;65,65,65;,
  3;66,66,66;,
  3;67,67,67;,
  3;68,68,68;,
  3;69,69,69;,
  3;70,70,70;,
  3;71,71,71;,
  3;72,72,72;,
  3;73,73,73;,
  3;74,74,74;,
  3;75,75,75;,
  3;76,76,76;,
  3;77,77,77;,
  3;78,78,78;;
 }
}