xof 0303txt 0032
template Vector {
 <3d82ab5e-62da-11cf-ab39-0020af71e433>
 FLOAT x;
 FLOAT y;
 FLOAT z;
}

template MeshFace {
 <3d82ab5f-62da-11cf-ab39-0020af71e433>
 DWORD nFaceVertexIndices;
 array DWORD faceVertexIndices[nFaceVertexIndices];
}

template Mesh {
 <3d82ab44-62da-11cf-ab39-0020af71e433>
 DWORD nVertices;
 array Vector vertices[nVertices];
 DWORD nFaces;
 array MeshFace faces[nFaces];
 [...]
}

template ColorRGBA {
 <35ff44e0-6c7c-11cf-8f52-0040333594a3>
 FLOAT red;
 FLOAT green;
 FLOAT blue;
 FLOAT alpha;
}

template ColorRGB {
 <d3e16e81-7835-11cf-8f52-0040333594a3>
 FLOAT red;
 FLOAT green;
 FLOAT blue;
}

template Material {
 <3d82ab4d-62da-11cf-ab39-0020af71e433>
 ColorRGBA faceColor;
 FLOAT power;
 ColorRGB specularColor;
 ColorRGB emissiveColor;
 [...]
}

template MeshMaterialList {
 <f6f23f42-7686-11cf-8f52-0040333594a3>
 DWORD nMaterials;
 DWORD nFaceIndexes;
 array DWORD faceIndexes[nFaceIndexes];
 [Material <3d82ab4d-62da-11cf-ab39-0020af71e433>]
}

template TextureFilename {
 <a42790e1-7810-11cf-8f52-0040333594a3>
 STRING filename;
}

template Coords2d {
 <f6f23f44-7686-11cf-8f52-0040333594a3>
 FLOAT u;
 FLOAT v;
}

template MeshTextureCoords {
 <f6f23f40-7686-11cf-8f52-0040333594a3>
 DWORD nTextureCoords;
 array Coords2d textureCoords[nTextureCoords];
}

template MeshNormals {
 <f6f23f43-7686-11cf-8f52-0040333594a3>
 DWORD nNormals;
 array Vector normals[nNormals];
 DWORD nFaceNormals;
 array MeshFace faceNormals[nFaceNormals];
}


Mesh  {
 118;
 2.500000;-1.000000;0.000000;,
 2.500000;1.000000;0.000000;,
 2.500000;-1.000000;25.000000;,
 2.500000;1.000000;25.000000;,
 -12.099500;-1.000000;0.000000;,
 -12.099500;1.000000;0.000000;,
 -12.099500;-1.000000;25.000000;,
 -12.099500;1.000000;25.000000;,
 -1.500000;0.950000;0.000000;,
 -1.500000;1.100000;0.000000;,
 -2.700000;1.100000;0.000000;,
 -1.500000;0.950000;25.200001;,
 -1.500000;1.100000;25.200001;,
 -2.700000;1.100000;25.200001;,
 -2.400000;-0.450000;0.000000;,
 -2.400000;0.850000;0.000000;,
 -2.400000;-0.450000;25.200001;,
 -2.400000;0.850000;25.200001;,
 -8.099500;1.100000;0.000000;,
 -6.899500;1.100000;0.000000;,
 -8.099500;1.100000;25.200001;,
 -6.899500;1.100000;25.200001;,
 -2.700000;1.100000;0.000000;,
 -2.700000;1.100000;25.200001;,
 -6.899500;1.100000;0.000000;,
 -6.899500;1.100000;25.200001;,
 -4.924750;1.100000;1.500000;,
 -4.924750;4.500000;1.500000;,
 -4.674750;1.100000;1.500000;,
 -4.674750;4.500000;1.500000;,
 -4.924750;1.100000;9.500000;,
 -4.924750;4.500000;9.500000;,
 -4.674750;1.100000;9.500000;,
 -4.674750;4.500000;9.500000;,
 -4.924750;1.100000;17.500000;,
 -4.924750;4.500000;17.500000;,
 -4.674750;1.100000;17.500000;,
 -4.674750;4.500000;17.500000;,
 -4.799750;4.500000;0.000000;,
 -4.799750;4.800000;0.000000;,
 -4.799750;4.500000;25.000000;,
 -4.799750;4.800000;25.000000;,
 -1.700000;4.900000;0.000000;,
 -1.700000;5.200000;0.000000;,
 -1.700000;4.900000;25.000000;,
 -1.700000;5.200000;25.000000;,
 -7.899500;4.900000;0.000000;,
 -7.899500;5.200000;0.000000;,
 -7.899500;4.900000;25.000000;,
 -7.899500;5.200000;25.000000;,
 -7.899500;4.900000;1.500000;,
 -7.899500;5.200000;1.500000;,
 -4.799750;4.500000;1.500000;,
 -4.799750;4.800000;1.500000;,
 -1.700000;4.900000;1.500000;,
 -1.700000;5.200000;1.500000;,
 -7.899500;4.900000;9.500000;,
 -7.899500;5.200000;9.500000;,
 -4.799750;4.500000;9.500000;,
 -4.799750;4.800000;9.500000;,
 -1.700000;4.900000;9.500000;,
 -1.700000;5.200000;9.500000;,
 -7.899500;4.900000;17.500000;,
 -7.899500;5.200000;17.500000;,
 -4.799750;4.500000;17.500000;,
 -4.799750;4.800000;17.500000;,
 -1.700000;4.900000;17.500000;,
 -1.700000;5.200000;17.500000;,
 -8.099500;4.626000;0.000000;,
 -8.099500;4.626000;25.000000;,
 -8.099500;5.226000;0.000000;,
 -8.099500;5.226000;25.000000;,
 -4.799750;4.800000;0.000000;,
 -4.799750;4.800000;25.000000;,
 -1.500000;5.226000;0.000000;,
 -1.500000;5.226000;25.000000;,
 -1.500000;4.626000;0.000000;,
 -1.500000;5.226000;0.000000;,
 -1.500000;4.626000;25.000000;,
 -1.500000;5.226000;25.000000;,
 -5.749500;1.101000;22.799999;,
 -5.749500;2.300000;22.799999;,
 -5.549500;1.101000;22.799999;,
 -5.549500;2.300000;22.799999;,
 -5.549500;1.101000;30.500000;,
 -5.549500;2.300000;30.500000;,
 -3.250000;1.101000;30.500000;,
 -3.250000;2.300000;30.500000;,
 -3.250000;1.101000;22.799999;,
 -3.250000;2.300000;22.799999;,
 -3.050000;1.101000;22.799999;,
 -3.050000;2.300000;22.799999;,
 -3.050000;1.101000;30.700001;,
 -3.050000;2.300000;30.700001;,
 -6.149500;1.100000;8.000000;,
 -6.149500;4.500000;8.000000;,
 -3.450000;1.100000;8.000000;,
 -3.450000;4.500000;8.000000;,
 -3.450000;1.100000;13.000000;,
 -3.450000;4.500000;13.000000;,
 -5.799750;1.100000;14.400000;,
 -5.799750;3.800000;14.400000;,
 -3.799750;1.100000;14.400000;,
 -3.799750;3.800000;14.400000;,
 -3.799750;1.100000;15.400000;,
 -3.799750;3.800000;15.400000;,
 -7.234520;3.800000;17.500000;,
 -7.234520;4.300000;17.500000;,
 -6.834520;3.800000;17.500000;,
 -6.834520;4.300000;17.500000;,
 -2.700000;3.800000;17.500000;,
 -2.700000;4.300000;17.500000;,
 -2.300000;3.800000;17.500000;,
 -2.300000;4.300000;17.500000;,
 -5.649500;3.800000;24.799999;,
 -5.649500;4.300000;24.799999;,
 -3.314980;3.800000;24.799999;,
 -3.314980;4.300000;24.799999;;
 72;
 3;0,1,3;,
 3;0,3,2;,
 3;4,5,7;,
 3;4,7,6;,
 3;8,9,12;,
 3;8,12,11;,
 3;9,10,13;,
 3;9,13,12;,
 3;14,15,17;,
 3;14,17,16;,
 3;20,21,19;,
 3;20,19,18;,
 3;23,22,24;,
 3;23,24,25;,
 3;26,27,29;,
 3;26,29,28;,
 3;30,31,33;,
 3;30,33,32;,
 3;34,35,37;,
 3;34,37,36;,
 3;38,39,41;,
 3;38,41,40;,
 3;42,43,45;,
 3;42,45,44;,
 3;46,47,49;,
 3;46,49,48;,
 3;50,51,53;,
 3;50,53,52;,
 3;52,53,55;,
 3;52,55,54;,
 3;56,57,59;,
 3;56,59,58;,
 3;58,59,61;,
 3;58,61,60;,
 3;62,63,65;,
 3;62,65,64;,
 3;64,65,67;,
 3;64,67,66;,
 3;70,71,69;,
 3;70,69,68;,
 3;72,73,71;,
 3;72,71,70;,
 3;74,75,73;,
 3;74,73,72;,
 3;76,77,79;,
 3;76,79,78;,
 3;80,81,83;,
 3;80,83,82;,
 3;82,83,85;,
 3;82,85,84;,
 3;84,85,87;,
 3;84,87,86;,
 3;88,89,91;,
 3;88,91,90;,
 3;90,91,93;,
 3;90,93,92;,
 3;82,84,86;,
 3;82,86,88;,
 3;94,95,97;,
 3;94,97,96;,
 3;96,97,99;,
 3;96,99,98;,
 3;100,101,103;,
 3;100,103,102;,
 3;102,103,105;,
 3;102,105,104;,
 3;106,107,109;,
 3;106,109,108;,
 3;110,111,113;,
 3;110,113,112;,
 3;114,115,117;,
 3;114,117,116;;

 MeshMaterialList  {
  23;
  72;
  0,
  0,
  1,
  1,
  2,
  2,
  2,
  2,
  3,
  3,
  4,
  4,
  5,
  5,
  6,
  6,
  7,
  7,
  8,
  8,
  9,
  9,
  10,
  10,
  11,
  11,
  12,
  12,
  12,
  12,
  13,
  13,
  13,
  13,
  14,
  14,
  14,
  14,
  15,
  15,
  15,
  15,
  15,
  15,
  16,
  16,
  17,
  17,
  17,
  17,
  17,
  17,
  17,
  17,
  17,
  17,
  17,
  17,
  18,
  18,
  18,
  18,
  19,
  19,
  19,
  19,
  20,
  20,
  21,
  21,
  22,
  22;

  Material  {
   1.000000;1.000000;1.000000;1.000000;;
   0.000000;
   0.000000;0.000000;0.000000;;
   0.000000;0.000000;0.000000;;

   TextureFilename  {
    "MeiWall1.png";
   }
  }

  Material  {
   1.000000;1.000000;1.000000;1.000000;;
   0.000000;
   0.000000;0.000000;0.000000;;
   0.000000;0.000000;0.000000;;

   TextureFilename  {
    "MeiWall2.png";
   }
  }

  Material  {
   1.000000;1.000000;1.000000;1.000000;;
   0.000000;
   0.000000;0.000000;0.000000;;
   0.000000;0.000000;0.000000;;

   TextureFilename  {
    "FormSide4.png";
   }
  }

  Material  {
   1.000000;1.000000;1.000000;1.000000;;
   0.000000;
   0.000000;0.000000;0.000000;;
   0.000000;0.000000;0.000000;;

   TextureFilename  {
    "FormSide5.png";
   }
  }

  Material  {
   1.000000;1.000000;1.000000;1.000000;;
   0.000000;
   0.000000;0.000000;0.000000;;
   0.000000;0.000000;0.000000;;

   TextureFilename  {
    "FormSide4.png";
   }
  }

  Material  {
   1.000000;1.000000;1.000000;1.000000;;
   0.000000;
   0.000000;0.000000;0.000000;;
   0.000000;0.000000;0.000000;;

   TextureFilename  {
    "FormC3.png";
   }
  }

  Material  {
   1.000000;1.000000;1.000000;1.000000;;
   0.000000;
   0.000000;0.000000;0.000000;;
   0.000000;0.000000;0.000000;;

   TextureFilename  {
    "MeiIron1.png";
   }
  }

  Material  {
   1.000000;1.000000;1.000000;1.000000;;
   0.000000;
   0.000000;0.000000;0.000000;;
   0.000000;0.000000;0.000000;;

   TextureFilename  {
    "MeiIron1.png";
   }
  }

  Material  {
   1.000000;1.000000;1.000000;1.000000;;
   0.000000;
   0.000000;0.000000;0.000000;;
   0.000000;0.000000;0.000000;;

   TextureFilename  {
    "MeiIron1.png";
   }
  }

  Material  {
   1.000000;1.000000;1.000000;1.000000;;
   0.000000;
   0.000000;0.000000;0.000000;;
   0.000000;0.000000;0.000000;;

   TextureFilename  {
    "MeiIron2.png";
   }
  }

  Material  {
   1.000000;1.000000;1.000000;1.000000;;
   0.000000;
   0.000000;0.000000;0.000000;;
   0.000000;0.000000;0.000000;;

   TextureFilename  {
    "MeiIron2.png";
   }
  }

  Material  {
   1.000000;1.000000;1.000000;1.000000;;
   0.000000;
   0.000000;0.000000;0.000000;;
   0.000000;0.000000;0.000000;;

   TextureFilename  {
    "MeiIron2.png";
   }
  }

  Material  {
   1.000000;1.000000;1.000000;1.000000;;
   0.000000;
   0.000000;0.000000;0.000000;;
   0.000000;0.000000;0.000000;;

   TextureFilename  {
    "MeiIron2.png";
   }
  }

  Material  {
   1.000000;1.000000;1.000000;1.000000;;
   0.000000;
   0.000000;0.000000;0.000000;;
   0.000000;0.000000;0.000000;;

   TextureFilename  {
    "MeiIron2.png";
   }
  }

  Material  {
   1.000000;1.000000;1.000000;1.000000;;
   0.000000;
   0.000000;0.000000;0.000000;;
   0.000000;0.000000;0.000000;;

   TextureFilename  {
    "MeiIron2.png";
   }
  }

  Material  {
   1.000000;1.000000;1.000000;1.000000;;
   0.000000;
   0.000000;0.000000;0.000000;;
   0.000000;0.000000;0.000000;;

   TextureFilename  {
    "MeiRoofIron1.png";
   }
  }

  Material  {
   1.000000;1.000000;1.000000;1.000000;;
   0.000000;
   0.000000;0.000000;0.000000;;
   0.000000;0.000000;0.000000;;

   TextureFilename  {
    "MeiRoofIron2.png";
   }
  }

  Material  {
   1.000000;1.000000;1.000000;1.000000;;
   0.000000;
   0.000000;0.000000;0.000000;;
   0.000000;0.000000;0.000000;;

   TextureFilename  {
    "MeiWall4.png";
   }
  }

  Material  {
   1.000000;1.000000;1.000000;1.000000;;
   0.000000;
   0.000000;0.000000;0.000000;;
   0.000000;0.000000;0.000000;;

   TextureFilename  {
    "MeiWall3.png";
   }
  }

  Material  {
   1.000000;1.000000;1.000000;1.000000;;
   0.000000;
   0.000000;0.000000;0.000000;;
   0.000000;0.000000;0.000000;;

   TextureFilename  {
    "Dispenser2.png";
   }
  }

  Material  {
   1.000000;1.000000;1.000000;1.000000;;
   0.000000;
   0.000000;0.000000;0.000000;;
   0.000000;0.000000;0.000000;;

   TextureFilename  {
    "MeiNo1.png";
   }
  }

  Material  {
   1.000000;1.000000;1.000000;1.000000;;
   0.000000;
   0.000000;0.000000;0.000000;;
   0.000000;0.000000;0.000000;;

   TextureFilename  {
    "MeiNo2.png";
   }
  }

  Material  {
   1.000000;1.000000;1.000000;1.000000;;
   0.000000;
   0.000000;0.000000;0.000000;;
   0.000000;0.000000;0.000000;;

   TextureFilename  {
    "MeiAnnai.png";
   }
  }
 }

 MeshTextureCoords  {
  118;
  0.000000;1.000000;,
  0.000000;0.000000;,
  5.000000;1.000000;,
  5.000000;0.000000;,
  0.000000;1.000000;,
  0.000000;0.000000;,
  5.000000;1.000000;,
  5.000000;0.000000;,
  0.000000;0.900000;,
  0.000000;0.750000;,
  0.000000;0.000000;,
  1.000000;0.900000;,
  1.000000;0.750000;,
  1.000000;0.000000;,
  0.000000;1.000000;,
  0.000000;0.000000;,
  1.000000;1.000000;,
  1.000000;0.000000;,
  0.000000;0.750000;,
  0.000000;0.000000;,
  1.000000;0.750000;,
  1.000000;0.000000;,
  0.000000;0.000000;,
  1.000000;0.000000;,
  0.000000;1.000000;,
  1.000000;1.000000;,
  0.000000;1.000000;,
  0.000000;0.000000;,
  1.000000;1.000000;,
  1.000000;0.000000;,
  0.000000;1.000000;,
  0.000000;0.000000;,
  1.000000;1.000000;,
  1.000000;0.000000;,
  0.000000;1.000000;,
  0.000000;0.000000;,
  1.000000;1.000000;,
  1.000000;0.000000;,
  0.000000;1.000000;,
  0.000000;0.000000;,
  1.000000;1.000000;,
  1.000000;0.000000;,
  0.000000;1.000000;,
  0.000000;0.000000;,
  1.000000;1.000000;,
  1.000000;0.000000;,
  0.000000;1.000000;,
  0.000000;0.000000;,
  1.000000;1.000000;,
  1.000000;0.000000;,
  0.000000;1.000000;,
  0.000000;0.000000;,
  0.500000;1.000000;,
  0.500000;0.000000;,
  1.000000;1.000000;,
  1.000000;0.000000;,
  0.000000;1.000000;,
  0.000000;0.000000;,
  0.500000;1.000000;,
  0.500000;0.000000;,
  1.000000;1.000000;,
  1.000000;0.000000;,
  0.000000;1.000000;,
  0.000000;0.000000;,
  0.500000;1.000000;,
  0.500000;0.000000;,
  1.000000;1.000000;,
  1.000000;0.000000;,
  2.800000;0.000000;,
  0.000000;0.000000;,
  2.800000;0.100000;,
  0.000000;0.100000;,
  2.800000;0.200000;,
  0.000000;0.200000;,
  2.800000;0.300000;,
  0.000000;0.300000;,
  10.000000;1.000000;,
  10.000000;0.000000;,
  0.000000;1.000000;,
  0.000000;0.000000;,
  0.000000;1.000000;,
  0.000000;0.000000;,
  0.125000;1.000000;,
  0.125000;0.000000;,
  0.400000;1.000000;,
  0.400000;0.000000;,
  0.450000;1.000000;,
  0.450000;0.000000;,
  0.500000;1.000000;,
  0.500000;0.000000;,
  0.635000;1.000000;,
  0.635000;0.000000;,
  1.000000;1.000000;,
  1.000000;0.000000;,
  0.000000;1.000000;,
  0.000000;0.000000;,
  2.100000;1.000000;,
  2.100000;0.000000;,
  6.000000;1.000000;,
  6.000000;0.000000;,
  0.000000;1.000000;,
  0.000000;0.000000;,
  0.050000;1.000000;,
  0.050000;0.000000;,
  1.000000;1.000000;,
  1.000000;0.000000;,
  0.000000;1.000000;,
  0.000000;0.000000;,
  1.000000;1.000000;,
  1.000000;0.000000;,
  0.000000;1.000000;,
  0.000000;0.000000;,
  1.000000;1.000000;,
  1.000000;0.000000;,
  0.000000;1.000000;,
  0.000000;0.000000;,
  1.000000;1.000000;,
  1.000000;0.000000;;
 }

 MeshNormals  {
  72;
  1.000000;0.000000;0.000000;,
  1.000000;0.000000;0.000000;,
  1.000000;0.000000;0.000000;,
  1.000000;0.000000;0.000000;,
  1.000000;0.000000;0.000000;,
  1.000000;0.000000;0.000000;,
  0.000000;1.000000;0.000000;,
  0.000000;1.000000;0.000000;,
  1.000000;0.000000;0.000000;,
  1.000000;0.000000;0.000000;,
  0.000000;1.000000;0.000000;,
  0.000000;1.000000;0.000000;,
  0.000000;1.000000;0.000000;,
  0.000000;1.000000;0.000000;,
  0.000000;0.000000;-1.000000;,
  0.000000;0.000000;-1.000000;,
  0.000000;0.000000;-1.000000;,
  0.000000;0.000000;-1.000000;,
  0.000000;0.000000;-1.000000;,
  0.000000;0.000000;-1.000000;,
  1.000000;0.000000;0.000000;,
  1.000000;0.000000;0.000000;,
  1.000000;0.000000;0.000000;,
  1.000000;0.000000;0.000000;,
  1.000000;0.000000;0.000000;,
  1.000000;0.000000;0.000000;,
  0.000000;0.000000;-1.000000;,
  0.000000;0.000000;-1.000000;,
  0.000000;0.000000;-1.000000;,
  0.000000;0.000000;-1.000000;,
  0.000000;0.000000;-1.000000;,
  0.000000;0.000000;-1.000000;,
  0.000000;0.000000;-1.000000;,
  0.000000;0.000000;-1.000000;,
  0.000000;0.000000;-1.000000;,
  0.000000;0.000000;-1.000000;,
  0.000000;0.000000;-1.000000;,
  0.000000;0.000000;-1.000000;,
  1.000000;0.000000;0.000000;,
  1.000000;0.000000;0.000000;,
  -0.128038;-0.991769;0.000000;,
  -0.128038;-0.991769;0.000000;,
  0.128038;-0.991769;0.000000;,
  0.128038;-0.991769;0.000000;,
  1.000000;0.000000;0.000000;,
  1.000000;0.000000;0.000000;,
  0.000000;0.000000;-1.000000;,
  0.000000;0.000000;-1.000000;,
  1.000000;0.000000;0.000000;,
  1.000000;0.000000;0.000000;,
  0.000000;0.000000;-1.000000;,
  0.000000;0.000000;-1.000000;,
  0.000000;0.000000;-1.000000;,
  0.000000;0.000000;-1.000000;,
  1.000000;0.000000;0.000000;,
  1.000000;0.000000;0.000000;,
  0.000000;1.000000;0.000000;,
  0.000000;1.000000;0.000000;,
  0.000000;0.000000;-1.000000;,
  0.000000;0.000000;-1.000000;,
  1.000000;0.000000;0.000000;,
  1.000000;0.000000;0.000000;,
  0.000000;0.000000;-1.000000;,
  0.000000;0.000000;-1.000000;,
  1.000000;0.000000;0.000000;,
  1.000000;0.000000;0.000000;,
  0.000000;0.000000;-1.000000;,
  0.000000;0.000000;-1.000000;,
  0.000000;0.000000;-1.000000;,
  0.000000;0.000000;-1.000000;,
  0.000000;0.000000;-1.000000;,
  0.000000;0.000000;-1.000000;;
  72;
  3;0,0,0;,
  3;1,1,1;,
  3;2,2,2;,
  3;3,3,3;,
  3;4,4,4;,
  3;5,5,5;,
  3;6,6,6;,
  3;7,7,7;,
  3;8,8,8;,
  3;9,9,9;,
  3;10,10,10;,
  3;11,11,11;,
  3;12,12,12;,
  3;13,13,13;,
  3;14,14,14;,
  3;15,15,15;,
  3;16,16,16;,
  3;17,17,17;,
  3;18,18,18;,
  3;19,19,19;,
  3;20,20,20;,
  3;21,21,21;,
  3;22,22,22;,
  3;23,23,23;,
  3;24,24,24;,
  3;25,25,25;,
  3;26,26,26;,
  3;27,27,27;,
  3;28,28,28;,
  3;29,29,29;,
  3;30,30,30;,
  3;31,31,31;,
  3;32,32,32;,
  3;33,33,33;,
  3;34,34,34;,
  3;35,35,35;,
  3;36,36,36;,
  3;37,37,37;,
  3;38,38,38;,
  3;39,39,39;,
  3;40,40,40;,
  3;41,41,41;,
  3;42,42,42;,
  3;43,43,43;,
  3;44,44,44;,
  3;45,45,45;,
  3;46,46,46;,
  3;47,47,47;,
  3;48,48,48;,
  3;49,49,49;,
  3;50,50,50;,
  3;51,51,51;,
  3;52,52,52;,
  3;53,53,53;,
  3;54,54,54;,
  3;55,55,55;,
  3;56,56,56;,
  3;57,57,57;,
  3;58,58,58;,
  3;59,59,59;,
  3;60,60,60;,
  3;61,61,61;,
  3;62,62,62;,
  3;63,63,63;,
  3;64,64,64;,
  3;65,65,65;,
  3;66,66,66;,
  3;67,67,67;,
  3;68,68,68;,
  3;69,69,69;,
  3;70,70,70;,
  3;71,71,71;;
 }
}