xof 0303txt 0032
template Vector {
 <3d82ab5e-62da-11cf-ab39-0020af71e433>
 FLOAT x;
 FLOAT y;
 FLOAT z;
}

template MeshFace {
 <3d82ab5f-62da-11cf-ab39-0020af71e433>
 DWORD nFaceVertexIndices;
 array DWORD faceVertexIndices[nFaceVertexIndices];
}

template Mesh {
 <3d82ab44-62da-11cf-ab39-0020af71e433>
 DWORD nVertices;
 array Vector vertices[nVertices];
 DWORD nFaces;
 array MeshFace faces[nFaces];
 [...]
}

template ColorRGBA {
 <35ff44e0-6c7c-11cf-8f52-0040333594a3>
 FLOAT red;
 FLOAT green;
 FLOAT blue;
 FLOAT alpha;
}

template ColorRGB {
 <d3e16e81-7835-11cf-8f52-0040333594a3>
 FLOAT red;
 FLOAT green;
 FLOAT blue;
}

template Material {
 <3d82ab4d-62da-11cf-ab39-0020af71e433>
 ColorRGBA faceColor;
 FLOAT power;
 ColorRGB specularColor;
 ColorRGB emissiveColor;
 [...]
}

template MeshMaterialList {
 <f6f23f42-7686-11cf-8f52-0040333594a3>
 DWORD nMaterials;
 DWORD nFaceIndexes;
 array DWORD faceIndexes[nFaceIndexes];
 [Material <3d82ab4d-62da-11cf-ab39-0020af71e433>]
}

template TextureFilename {
 <a42790e1-7810-11cf-8f52-0040333594a3>
 STRING filename;
}

template Coords2d {
 <f6f23f44-7686-11cf-8f52-0040333594a3>
 FLOAT u;
 FLOAT v;
}

template MeshTextureCoords {
 <f6f23f40-7686-11cf-8f52-0040333594a3>
 DWORD nTextureCoords;
 array Coords2d textureCoords[nTextureCoords];
}

template MeshNormals {
 <f6f23f43-7686-11cf-8f52-0040333594a3>
 DWORD nNormals;
 array Vector normals[nNormals];
 DWORD nFaceNormals;
 array MeshFace faceNormals[nFaceNormals];
}


Mesh  {
 176;
 -1.500000;0.850000;-0.049600;,
 -1.500000;1.100000;-0.049600;,
 -2.700000;1.100000;-0.049600;,
 -1.444000;0.850000;4.970100;,
 -1.444000;1.100000;4.970100;,
 -2.644000;1.100000;4.970100;,
 -1.416000;0.850000;9.990000;,
 -1.416000;1.100000;9.990000;,
 -2.616000;1.100000;9.990000;,
 -1.416000;0.850000;15.010000;,
 -1.416000;1.100000;15.010000;,
 -2.616000;1.100000;15.010000;,
 -1.444000;0.850000;20.029900;,
 -1.444000;1.100000;20.029900;,
 -2.644000;1.100000;20.029900;,
 -1.500000;0.850000;25.049601;,
 -1.500000;1.100000;25.049601;,
 -2.700000;1.100000;25.049601;,
 -8.202300;0.850000;0.000000;,
 -8.202300;1.100000;0.000000;,
 -7.002300;1.100000;0.000000;,
 -8.802500;0.850000;25.000000;,
 -8.802500;1.100000;25.000000;,
 -7.602500;1.100000;25.000000;,
 -2.200000;-0.450000;0.000000;,
 -2.200000;0.850000;0.000000;,
 -2.200000;-0.450000;25.000000;,
 -2.200000;0.850000;25.000000;,
 -7.502300;-0.450000;0.000000;,
 -7.502300;0.850000;0.000000;,
 -8.102500;-0.450000;25.000000;,
 -8.102500;0.850000;25.000000;,
 -2.700000;1.100000;-0.049600;,
 -2.644000;1.100000;4.970100;,
 -2.616000;1.100000;9.990000;,
 -2.616000;1.100000;15.010000;,
 -2.644000;1.100000;20.029900;,
 -2.700000;1.100000;25.049601;,
 -7.002300;1.100000;0.000000;,
 -7.602500;1.100000;25.000000;,
 -4.260400;1.100000;7.000000;,
 -4.260400;5.000000;7.000000;,
 -5.060400;1.100000;7.000000;,
 -5.060400;5.000000;7.000000;,
 -4.560500;1.100000;19.500000;,
 -4.560500;5.000000;19.500000;,
 -5.360500;1.100000;19.500000;,
 -5.360500;5.000000;19.500000;,
 -3.460300;5.000000;-5.500000;,
 -3.460400;5.000000;7.000000;,
 -3.760500;5.000000;19.500000;,
 -5.860300;5.000000;-5.500000;,
 -5.860400;5.000000;7.000000;,
 -6.160500;5.000000;19.500000;,
 -3.460300;5.000000;-5.500000;,
 -3.460300;5.800000;-5.500000;,
 -3.460400;5.000000;7.000000;,
 -3.460400;5.800000;7.000000;,
 -3.760500;5.000000;19.500000;,
 -3.760500;5.800000;19.500000;,
 -5.860300;5.000000;-5.500000;,
 -5.860300;5.800000;-5.500000;,
 -5.860400;5.000000;7.000000;,
 -5.860400;5.800000;7.000000;,
 -6.160500;5.000000;19.500000;,
 -6.160500;5.800000;19.500000;,
 -1.500000;5.800000;-0.049600;,
 -1.444000;5.800000;4.970100;,
 -1.416000;5.800000;9.990000;,
 -1.416000;5.800000;15.010000;,
 -1.444000;5.800000;20.029900;,
 -1.500000;5.800000;25.049601;,
 -8.202300;5.800000;0.000000;,
 -8.802500;5.800000;25.000000;,
 -1.500000;5.800000;-0.049600;,
 -1.500000;6.000000;-0.049600;,
 -1.444000;5.800000;4.970100;,
 -1.444000;6.000000;4.970100;,
 -1.416000;5.800000;9.990000;,
 -1.416000;6.000000;9.990000;,
 -1.416000;5.800000;15.010000;,
 -1.416000;6.000000;15.010000;,
 -1.444000;5.800000;20.029900;,
 -1.444000;6.000000;20.029900;,
 -1.500000;5.800000;25.049601;,
 -1.500000;6.000000;25.049601;,
 -8.202300;5.800000;0.000000;,
 -8.202300;6.000000;0.000000;,
 -8.802500;5.800000;25.000000;,
 -8.802500;6.000000;25.000000;,
 -4.260400;5.800000;7.000000;,
 -4.260400;7.500000;7.000000;,
 -5.060400;5.800000;7.000000;,
 -5.060400;7.500000;7.000000;,
 -4.560500;5.800000;19.500000;,
 -4.560500;7.500000;19.500000;,
 -5.360500;5.800000;19.500000;,
 -5.360500;7.500000;19.500000;,
 -4.660300;6.700000;-5.500000;,
 -4.660300;7.500000;-5.500000;,
 -4.660400;6.700000;7.000000;,
 -4.660400;7.500000;7.000000;,
 -4.960500;6.700000;19.500000;,
 -4.960500;7.500000;19.500000;,
 -6.425300;7.100000;-5.500000;,
 -6.425300;7.500000;-5.500000;,
 -7.025500;7.100000;19.500000;,
 -7.025500;7.500000;19.500000;,
 -2.425300;7.100000;-5.500000;,
 -2.425300;7.500000;-5.500000;,
 -3.025500;7.100000;19.500000;,
 -3.025500;7.500000;19.500000;,
 -2.389300;5.800000;-3.500000;,
 -2.389300;7.500000;-3.500000;,
 -6.557300;5.800000;-3.500000;,
 -6.557300;7.500000;-3.500000;,
 -2.491400;5.800000;0.750000;,
 -2.491400;7.500000;0.750000;,
 -6.659400;5.800000;0.750000;,
 -6.659400;7.500000;0.750000;,
 -2.593400;5.800000;5.000000;,
 -2.593400;7.500000;5.000000;,
 -6.761400;5.800000;5.000000;,
 -6.761400;7.500000;5.000000;,
 -2.689400;5.800000;9.000000;,
 -2.689400;7.500000;9.000000;,
 -6.857400;5.800000;9.000000;,
 -6.857400;7.500000;9.000000;,
 -2.791500;5.800000;13.250000;,
 -2.791500;7.500000;13.250000;,
 -6.959500;5.800000;13.250000;,
 -6.959500;7.500000;13.250000;,
 -2.893500;5.800000;17.500000;,
 -2.893500;7.500000;17.500000;,
 -7.061500;5.800000;17.500000;,
 -7.061500;7.500000;17.500000;,
 -3.700000;1.100000;8.700000;,
 -3.700000;3.500000;8.700000;,
 -5.700000;1.100000;8.700000;,
 -5.700000;3.500000;8.700000;,
 -3.700000;1.100000;12.700000;,
 -3.700000;3.500000;12.700000;,
 -5.700000;1.100000;12.700000;,
 -5.700000;3.500000;12.700000;,
 -4.700000;1.100000;8.700000;,
 -4.700000;3.500000;8.700000;,
 -4.700000;1.100000;12.700000;,
 -4.700000;3.500000;12.700000;,
 -5.300000;1.500000;8.700000;,
 -5.300000;1.600000;8.700000;,
 -4.750000;1.600000;8.700000;,
 -4.710000;2.100000;8.700000;,
 -5.300000;1.500000;12.700000;,
 -5.300000;1.600000;12.700000;,
 -4.750000;1.600000;12.700000;,
 -4.710000;2.100000;12.700000;,
 -5.300000;1.100000;12.200000;,
 -5.300000;1.900000;12.200000;,
 -4.710000;1.100000;12.200000;,
 -4.710000;1.900000;12.200000;,
 -5.300000;1.100000;11.200000;,
 -5.300000;1.900000;11.200000;,
 -4.710000;1.100000;11.200000;,
 -4.710000;1.900000;11.200000;,
 -5.300000;1.100000;10.200000;,
 -5.300000;1.900000;10.200000;,
 -4.710000;1.100000;10.200000;,
 -4.710000;1.900000;10.200000;,
 -5.200000;4.200000;6.500000;,
 -5.200000;5.200000;6.500000;,
 -5.800000;4.200000;6.500000;,
 -5.800000;5.200000;6.500000;,
 -4.900000;1.100000;16.000000;,
 -4.900000;5.000000;16.000000;,
 -4.900000;1.100000;17.500000;,
 -4.900000;5.000000;17.500000;;
 114;
 3;0,1,4;,
 3;0,4,3;,
 3;1,2,5;,
 3;1,5,4;,
 3;3,4,7;,
 3;3,7,6;,
 3;4,5,8;,
 3;4,8,7;,
 3;6,7,10;,
 3;6,10,9;,
 3;7,8,11;,
 3;7,11,10;,
 3;9,10,13;,
 3;9,13,12;,
 3;10,11,14;,
 3;10,14,13;,
 3;12,13,16;,
 3;12,16,15;,
 3;13,14,17;,
 3;13,17,16;,
 3;21,22,19;,
 3;21,19,18;,
 3;22,23,20;,
 3;22,20,19;,
 3;24,25,27;,
 3;24,27,26;,
 3;30,31,29;,
 3;30,29,28;,
 3;38,39,37;,
 3;38,37,36;,
 3;38,36,35;,
 3;38,35,34;,
 3;38,34,33;,
 3;38,33,32;,
 3;42,43,41;,
 3;42,41,40;,
 3;46,47,45;,
 3;46,45,44;,
 3;48,49,52;,
 3;48,52,51;,
 3;49,50,53;,
 3;49,53,52;,
 3;54,55,57;,
 3;54,57,56;,
 3;56,57,59;,
 3;56,59,58;,
 3;62,63,61;,
 3;62,61,60;,
 3;64,65,63;,
 3;64,63,62;,
 3;66,67,68;,
 3;66,68,69;,
 3;66,69,70;,
 3;66,70,71;,
 3;66,71,73;,
 3;66,73,72;,
 3;74,75,77;,
 3;74,77,76;,
 3;76,77,79;,
 3;76,79,78;,
 3;78,79,81;,
 3;78,81,80;,
 3;80,81,83;,
 3;80,83,82;,
 3;82,83,85;,
 3;82,85,84;,
 3;88,89,87;,
 3;88,87,86;,
 3;92,93,91;,
 3;92,91,90;,
 3;96,97,95;,
 3;96,95,94;,
 3;100,101,99;,
 3;100,99,98;,
 3;102,103,101;,
 3;102,101,100;,
 3;106,107,105;,
 3;106,105,104;,
 3;110,111,109;,
 3;110,109,108;,
 3;114,115,113;,
 3;114,113,112;,
 3;118,119,117;,
 3;118,117,116;,
 3;122,123,121;,
 3;122,121,120;,
 3;126,127,125;,
 3;126,125,124;,
 3;130,131,129;,
 3;130,129,128;,
 3;134,135,133;,
 3;134,133,132;,
 3;138,139,137;,
 3;138,137,136;,
 3;142,143,141;,
 3;142,141,140;,
 3;146,147,145;,
 3;146,145,144;,
 3;148,152,153;,
 3;148,153,149;,
 3;149,153,154;,
 3;149,154,150;,
 3;150,154,155;,
 3;150,155,151;,
 3;156,157,159;,
 3;156,159,158;,
 3;160,161,163;,
 3;160,163,162;,
 3;164,165,167;,
 3;164,167,166;,
 3;170,171,169;,
 3;170,169,168;,
 3;174,175,173;,
 3;174,173,172;;

 MeshMaterialList  {
  31;
  114;
  0,
  0,
  0,
  0,
  0,
  0,
  0,
  0,
  0,
  0,
  0,
  0,
  0,
  0,
  0,
  0,
  0,
  0,
  0,
  0,
  1,
  1,
  1,
  1,
  2,
  2,
  3,
  3,
  4,
  4,
  4,
  4,
  4,
  4,
  5,
  5,
  6,
  6,
  7,
  7,
  7,
  7,
  8,
  8,
  8,
  8,
  8,
  8,
  8,
  8,
  9,
  9,
  9,
  9,
  9,
  9,
  10,
  10,
  10,
  10,
  10,
  10,
  10,
  10,
  10,
  10,
  10,
  10,
  11,
  11,
  12,
  12,
  13,
  13,
  13,
  13,
  14,
  14,
  15,
  15,
  16,
  16,
  17,
  17,
  18,
  18,
  19,
  19,
  20,
  20,
  21,
  21,
  22,
  22,
  23,
  23,
  24,
  24,
  25,
  25,
  25,
  25,
  25,
  25,
  26,
  26,
  27,
  27,
  28,
  28,
  29,
  29,
  30,
  30;

  Material  {
   1.000000;1.000000;1.000000;1.000000;;
   0.000000;
   0.000000;0.000000;0.000000;;
   0.000000;0.000000;0.000000;;

   TextureFilename  {
    "FormSide1.png";
   }
  }

  Material  {
   1.000000;1.000000;1.000000;1.000000;;
   0.000000;
   0.000000;0.000000;0.000000;;
   0.000000;0.000000;0.000000;;

   TextureFilename  {
    "FormSide1.png";
   }
  }

  Material  {
   1.000000;1.000000;1.000000;1.000000;;
   0.000000;
   0.000000;0.000000;0.000000;;
   0.000000;0.000000;0.000000;;

   TextureFilename  {
    "FormSide2.png";
   }
  }

  Material  {
   1.000000;1.000000;1.000000;1.000000;;
   0.000000;
   0.000000;0.000000;0.000000;;
   0.000000;0.000000;0.000000;;

   TextureFilename  {
    "FormSide2.png";
   }
  }

  Material  {
   1.000000;1.000000;1.000000;1.000000;;
   0.000000;
   0.000000;0.000000;0.000000;;
   0.000000;0.000000;0.000000;;

   TextureFilename  {
    "FormC.png";
   }
  }

  Material  {
   1.000000;1.000000;1.000000;1.000000;;
   0.000000;
   0.000000;0.000000;0.000000;;
   0.000000;0.000000;0.000000;;

   TextureFilename  {
    "RoofPier1.png";
   }
  }

  Material  {
   1.000000;1.000000;1.000000;1.000000;;
   0.000000;
   0.000000;0.000000;0.000000;;
   0.000000;0.000000;0.000000;;

   TextureFilename  {
    "RoofPier1.png";
   }
  }

  Material  {
   1.000000;1.000000;1.000000;1.000000;;
   0.000000;
   0.000000;0.000000;0.000000;;
   0.000000;0.000000;0.000000;;

   TextureFilename  {
    "RoofPlate1.png";
   }
  }

  Material  {
   1.000000;1.000000;1.000000;1.000000;;
   0.000000;
   0.000000;0.000000;0.000000;;
   0.000000;0.000000;0.000000;;

   TextureFilename  {
    "RoofSide1.png";
   }
  }

  Material  {
   1.000000;1.000000;1.000000;1.000000;;
   0.000000;
   0.000000;0.000000;0.000000;;
   0.000000;0.000000;0.000000;;

   TextureFilename  {
    "RoofPlate2.png";
   }
  }

  Material  {
   1.000000;1.000000;1.000000;1.000000;;
   0.000000;
   0.000000;0.000000;0.000000;;
   0.000000;0.000000;0.000000;;

   TextureFilename  {
    "RoofSide2.png";
   }
  }

  Material  {
   1.000000;1.000000;1.000000;1.000000;;
   0.000000;
   0.000000;0.000000;0.000000;;
   0.000000;0.000000;0.000000;;

   TextureFilename  {
    "Pole_Iron1.png";
   }
  }

  Material  {
   1.000000;1.000000;1.000000;1.000000;;
   0.000000;
   0.000000;0.000000;0.000000;;
   0.000000;0.000000;0.000000;;

   TextureFilename  {
    "Pole_Iron1.png";
   }
  }

  Material  {
   1.000000;1.000000;1.000000;1.000000;;
   0.000000;
   0.000000;0.000000;0.000000;;
   0.000000;0.000000;0.000000;;

   TextureFilename  {
    "Iron1.png";
   }
  }

  Material  {
   1.000000;1.000000;1.000000;1.000000;;
   0.000000;
   0.000000;0.000000;0.000000;;
   0.000000;0.000000;0.000000;;

   TextureFilename  {
    "Iron1.png";
   }
  }

  Material  {
   1.000000;1.000000;1.000000;1.000000;;
   0.000000;
   0.000000;0.000000;0.000000;;
   0.000000;0.000000;0.000000;;

   TextureFilename  {
    "Iron1.png";
   }
  }

  Material  {
   1.000000;1.000000;1.000000;1.000000;;
   0.000000;
   0.000000;0.000000;0.000000;;
   0.000000;0.000000;0.000000;;

   TextureFilename  {
    "Iron3.png";
   }
  }

  Material  {
   1.000000;1.000000;1.000000;1.000000;;
   0.000000;
   0.000000;0.000000;0.000000;;
   0.000000;0.000000;0.000000;;

   TextureFilename  {
    "Iron3.png";
   }
  }

  Material  {
   1.000000;1.000000;1.000000;1.000000;;
   0.000000;
   0.000000;0.000000;0.000000;;
   0.000000;0.000000;0.000000;;

   TextureFilename  {
    "Iron3.png";
   }
  }

  Material  {
   1.000000;1.000000;1.000000;1.000000;;
   0.000000;
   0.000000;0.000000;0.000000;;
   0.000000;0.000000;0.000000;;

   TextureFilename  {
    "Iron3.png";
   }
  }

  Material  {
   1.000000;1.000000;1.000000;1.000000;;
   0.000000;
   0.000000;0.000000;0.000000;;
   0.000000;0.000000;0.000000;;

   TextureFilename  {
    "Iron3.png";
   }
  }

  Material  {
   1.000000;1.000000;1.000000;1.000000;;
   0.000000;
   0.000000;0.000000;0.000000;;
   0.000000;0.000000;0.000000;;

   TextureFilename  {
    "Iron3.png";
   }
  }

  Material  {
   1.000000;1.000000;1.000000;1.000000;;
   0.000000;
   0.000000;0.000000;0.000000;;
   0.000000;0.000000;0.000000;;

   TextureFilename  {
    "BenchWall1.png";
   }
  }

  Material  {
   1.000000;1.000000;1.000000;1.000000;;
   0.000000;
   0.000000;0.000000;0.000000;;
   0.000000;0.000000;0.000000;;

   TextureFilename  {
    "BenchWall1.png";
   }
  }

  Material  {
   1.000000;1.000000;1.000000;1.000000;;
   0.000000;
   0.000000;0.000000;0.000000;;
   0.000000;0.000000;0.000000;;

   TextureFilename  {
    "BenchWall2.png";
   }
  }

  Material  {
   1.000000;1.000000;1.000000;1.000000;;
   0.000000;
   0.000000;0.000000;0.000000;;
   0.000000;0.000000;0.000000;;

   TextureFilename  {
    "Bench1.png";
   }
  }

  Material  {
   1.000000;1.000000;1.000000;1.000000;;
   0.000000;
   0.000000;0.000000;0.000000;;
   0.000000;0.000000;0.000000;;

   TextureFilename  {
    "Bench2.png";
   }
  }

  Material  {
   1.000000;1.000000;1.000000;1.000000;;
   0.000000;
   0.000000;0.000000;0.000000;;
   0.000000;0.000000;0.000000;;

   TextureFilename  {
    "Bench2.png";
   }
  }

  Material  {
   1.000000;1.000000;1.000000;1.000000;;
   0.000000;
   0.000000;0.000000;0.000000;;
   0.000000;0.000000;0.000000;;

   TextureFilename  {
    "Bench2.png";
   }
  }

  Material  {
   1.000000;1.000000;1.000000;1.000000;;
   0.000000;
   0.000000;0.000000;0.000000;;
   0.000000;0.000000;0.000000;;

   TextureFilename  {
    "Clock1.png";
   }
  }

  Material  {
   1.000000;1.000000;1.000000;1.000000;;
   0.000000;
   0.000000;0.000000;0.000000;;
   0.000000;0.000000;0.000000;;

   TextureFilename  {
    "Ekimei1.png";
   }
  }
 }

 MeshTextureCoords  {
  176;
  0.000000;1.000000;,
  0.000000;0.440000;,
  0.000000;0.000000;,
  1.000000;1.000000;,
  1.000000;0.440000;,
  1.000000;0.000000;,
  2.000000;1.000000;,
  2.000000;0.440000;,
  2.000000;0.000000;,
  3.000000;1.000000;,
  3.000000;0.440000;,
  3.000000;0.000000;,
  4.000000;1.000000;,
  4.000000;0.440000;,
  4.000000;0.000000;,
  5.000000;1.000000;,
  5.000000;0.440000;,
  5.000000;0.000000;,
  0.000000;1.000000;,
  0.000000;0.440000;,
  0.000000;0.000000;,
  5.000000;1.000000;,
  5.000000;0.440000;,
  5.000000;0.000000;,
  0.100000;1.000000;,
  0.100000;0.000000;,
  0.200000;1.000000;,
  0.200000;0.000000;,
  0.600000;1.000000;,
  0.600000;0.000000;,
  0.900000;1.000000;,
  0.900000;0.000000;,
  1.000000;0.000000;,
  1.000000;0.500000;,
  1.000000;1.000000;,
  1.000000;1.500000;,
  1.000000;2.000000;,
  1.000000;2.500000;,
  0.000000;0.000000;,
  0.000000;2.500000;,
  0.000000;0.950000;,
  0.000000;0.100000;,
  1.000000;0.950000;,
  1.000000;0.100000;,
  0.000000;0.950000;,
  0.000000;0.100000;,
  1.000000;0.950000;,
  1.000000;0.100000;,
  0.000000;0.800000;,
  0.000000;2.600000;,
  0.000000;4.400000;,
  0.100000;0.800000;,
  0.100000;2.600000;,
  0.100000;4.400000;,
  0.000000;1.000000;,
  0.000000;0.000000;,
  0.100000;1.000000;,
  0.100000;0.000000;,
  0.200000;1.000000;,
  0.200000;0.000000;,
  0.300000;1.000000;,
  0.300000;0.000000;,
  0.400000;1.000000;,
  0.400000;0.000000;,
  0.500000;1.000000;,
  0.500000;0.000000;,
  0.000000;0.000000;,
  0.000000;0.600000;,
  0.000000;1.200000;,
  0.000000;1.800000;,
  0.000000;2.400000;,
  0.000000;3.000000;,
  0.100000;0.000000;,
  0.100000;3.000000;,
  0.000000;1.000000;,
  0.000000;0.000000;,
  0.100000;1.000000;,
  0.100000;0.000000;,
  0.200000;1.000000;,
  0.200000;0.000000;,
  0.300000;1.000000;,
  0.300000;0.000000;,
  0.400000;1.000000;,
  0.400000;0.000000;,
  0.500000;1.000000;,
  0.500000;0.000000;,
  0.000000;1.000000;,
  0.000000;0.000000;,
  0.500000;1.000000;,
  0.500000;0.000000;,
  0.000000;1.000000;,
  1.000000;1.000000;,
  0.000000;0.000000;,
  1.000000;0.000000;,
  0.000000;1.000000;,
  1.000000;1.000000;,
  0.000000;0.000000;,
  1.000000;0.000000;,
  0.000000;1.000000;,
  0.000000;0.000000;,
  0.100000;1.000000;,
  0.100000;0.000000;,
  0.200000;1.000000;,
  0.200000;0.000000;,
  0.000000;1.000000;,
  0.000000;0.000000;,
  0.100000;1.000000;,
  0.100000;0.000000;,
  0.000000;1.000000;,
  0.000000;0.000000;,
  0.100000;1.000000;,
  0.100000;0.000000;,
  0.990000;1.000000;,
  0.990000;0.000000;,
  0.010000;1.000000;,
  0.010000;0.000000;,
  0.990000;1.000000;,
  0.990000;0.000000;,
  0.010000;1.000000;,
  0.010000;0.000000;,
  0.990000;1.000000;,
  0.990000;0.000000;,
  0.010000;1.000000;,
  0.010000;0.000000;,
  0.990000;1.000000;,
  0.990000;0.000000;,
  0.010000;1.000000;,
  0.010000;0.000000;,
  0.990000;1.000000;,
  0.990000;0.000000;,
  0.010000;1.000000;,
  0.010000;0.000000;,
  0.990000;1.000000;,
  0.990000;0.000000;,
  0.010000;1.000000;,
  0.010000;0.000000;,
  0.000000;0.985000;,
  0.000000;0.015000;,
  1.000000;0.985000;,
  1.000000;0.015000;,
  0.000000;0.985000;,
  0.000000;0.015000;,
  1.000000;0.985000;,
  1.000000;0.015000;,
  0.000000;0.985000;,
  0.000000;0.015000;,
  4.000000;0.985000;,
  4.000000;0.015000;,
  0.000000;1.000000;,
  0.000000;0.970000;,
  0.000000;0.450000;,
  0.000000;0.050000;,
  2.000000;1.000000;,
  2.000000;0.970000;,
  2.000000;0.450000;,
  2.000000;0.050000;,
  1.000000;1.000000;,
  1.000000;0.000000;,
  0.000000;1.000000;,
  0.000000;0.000000;,
  1.000000;1.000000;,
  1.000000;0.000000;,
  0.000000;1.000000;,
  0.000000;0.000000;,
  1.000000;1.000000;,
  1.000000;0.000000;,
  0.000000;1.000000;,
  0.000000;0.000000;,
  0.000000;0.965000;,
  0.000000;0.000000;,
  1.000000;0.965000;,
  1.000000;0.000000;,
  1.000000;0.965000;,
  1.000000;0.000000;,
  0.000000;0.965000;,
  0.000000;0.000000;;
 }

 MeshNormals  {
  114;
  0.999938;0.000000;-0.011155;,
  0.999938;0.000000;-0.011155;,
  0.000000;1.000000;0.000000;,
  0.000000;1.000000;0.000000;,
  0.999984;0.000000;-0.005578;,
  0.999984;0.000000;-0.005578;,
  0.000000;1.000000;0.000000;,
  0.000000;1.000000;0.000000;,
  1.000000;0.000000;0.000000;,
  1.000000;0.000000;0.000000;,
  0.000000;1.000000;0.000000;,
  0.000000;1.000000;0.000000;,
  0.999984;0.000000;0.005578;,
  0.999984;0.000000;0.005578;,
  0.000000;1.000000;0.000000;,
  0.000000;1.000000;0.000000;,
  0.999938;0.000000;0.011155;,
  0.999938;0.000000;0.011155;,
  0.000000;1.000000;0.000000;,
  0.000000;1.000000;0.000000;,
  -0.999712;0.000000;-0.024001;,
  -0.999712;0.000000;-0.024001;,
  0.000000;1.000000;0.000000;,
  0.000000;1.000000;0.000000;,
  1.000000;0.000000;0.000000;,
  1.000000;0.000000;0.000000;,
  -0.999712;0.000000;-0.024001;,
  -0.999712;0.000000;-0.024001;,
  0.000000;1.000000;0.000000;,
  0.000000;1.000000;0.000000;,
  0.000000;1.000000;0.000000;,
  0.000000;1.000000;0.000000;,
  0.000000;1.000000;0.000000;,
  0.000000;1.000000;0.000000;,
  0.000000;0.000000;-1.000000;,
  0.000000;0.000000;-1.000000;,
  0.000000;0.000000;-1.000000;,
  0.000000;0.000000;-1.000000;,
  0.000000;-1.000000;0.000000;,
  0.000000;-1.000000;0.000000;,
  0.000000;-1.000000;0.000000;,
  0.000000;-1.000000;0.000000;,
  1.000000;0.000000;0.000008;,
  1.000000;0.000000;0.000008;,
  0.999712;0.000000;0.024001;,
  0.999712;0.000000;0.024001;,
  -1.000000;0.000000;-0.000008;,
  -1.000000;0.000000;-0.000008;,
  -0.999712;0.000000;-0.024001;,
  -0.999712;0.000000;-0.024001;,
  0.000000;-1.000000;0.000000;,
  0.000000;-1.000000;0.000000;,
  0.000000;-1.000000;0.000000;,
  0.000000;-1.000000;0.000000;,
  0.000000;-1.000000;0.000000;,
  0.000000;-1.000000;0.000000;,
  0.999938;0.000000;-0.011155;,
  0.999938;0.000000;-0.011155;,
  0.999984;0.000000;-0.005578;,
  0.999984;0.000000;-0.005578;,
  1.000000;0.000000;0.000000;,
  1.000000;0.000000;0.000000;,
  0.999984;0.000000;0.005578;,
  0.999984;0.000000;0.005578;,
  0.999938;0.000000;0.011155;,
  0.999938;0.000000;0.011155;,
  -0.999712;0.000000;-0.024001;,
  -0.999712;0.000000;-0.024001;,
  0.000000;0.000000;-1.000000;,
  0.000000;0.000000;-1.000000;,
  0.000000;0.000000;-1.000000;,
  0.000000;0.000000;-1.000000;,
  -1.000000;0.000000;-0.000008;,
  -1.000000;0.000000;-0.000008;,
  -0.999712;0.000000;-0.024001;,
  -0.999712;0.000000;-0.024001;,
  -0.999712;0.000000;-0.024001;,
  -0.999712;0.000000;-0.024001;,
  -0.999712;0.000000;-0.024001;,
  -0.999712;0.000000;-0.024001;,
  0.000000;0.000000;-1.000000;,
  0.000000;0.000000;-1.000000;,
  0.000000;0.000000;-1.000000;,
  0.000000;0.000000;-1.000000;,
  0.000000;0.000000;-1.000000;,
  0.000000;0.000000;-1.000000;,
  0.000000;0.000000;-1.000000;,
  0.000000;0.000000;-1.000000;,
  0.000000;0.000000;-1.000000;,
  0.000000;0.000000;-1.000000;,
  0.000000;0.000000;-1.000000;,
  0.000000;0.000000;-1.000000;,
  0.000000;0.000000;-1.000000;,
  0.000000;0.000000;-1.000000;,
  0.000000;0.000000;-1.000000;,
  0.000000;0.000000;-1.000000;,
  -1.000000;0.000000;0.000000;,
  -1.000000;0.000000;0.000000;,
  -1.000000;0.000000;0.000000;,
  -1.000000;0.000000;0.000000;,
  0.000000;1.000000;0.000000;,
  0.000000;1.000000;0.000000;,
  -0.996815;0.079745;0.000000;,
  -0.996815;0.079745;0.000000;,
  0.000000;0.000000;-1.000000;,
  0.000000;0.000000;-1.000000;,
  0.000000;0.000000;-1.000000;,
  0.000000;0.000000;-1.000000;,
  0.000000;0.000000;-1.000000;,
  0.000000;0.000000;-1.000000;,
  0.000000;0.000000;-1.000000;,
  0.000000;0.000000;-1.000000;,
  -1.000000;0.000000;0.000000;,
  -1.000000;0.000000;0.000000;;
  114;
  3;0,0,0;,
  3;1,1,1;,
  3;2,2,2;,
  3;3,3,3;,
  3;4,4,4;,
  3;5,5,5;,
  3;6,6,6;,
  3;7,7,7;,
  3;8,8,8;,
  3;9,9,9;,
  3;10,10,10;,
  3;11,11,11;,
  3;12,12,12;,
  3;13,13,13;,
  3;14,14,14;,
  3;15,15,15;,
  3;16,16,16;,
  3;17,17,17;,
  3;18,18,18;,
  3;19,19,19;,
  3;20,20,20;,
  3;21,21,21;,
  3;22,22,22;,
  3;23,23,23;,
  3;24,24,24;,
  3;25,25,25;,
  3;26,26,26;,
  3;27,27,27;,
  3;28,28,28;,
  3;29,29,29;,
  3;30,30,30;,
  3;31,31,31;,
  3;32,32,32;,
  3;33,33,33;,
  3;34,34,34;,
  3;35,35,35;,
  3;36,36,36;,
  3;37,37,37;,
  3;38,38,38;,
  3;39,39,39;,
  3;40,40,40;,
  3;41,41,41;,
  3;42,42,42;,
  3;43,43,43;,
  3;44,44,44;,
  3;45,45,45;,
  3;46,46,46;,
  3;47,47,47;,
  3;48,48,48;,
  3;49,49,49;,
  3;50,50,50;,
  3;51,51,51;,
  3;52,52,52;,
  3;53,53,53;,
  3;54,54,54;,
  3;55,55,55;,
  3;56,56,56;,
  3;57,57,57;,
  3;58,58,58;,
  3;59,59,59;,
  3;60,60,60;,
  3;61,61,61;,
  3;62,62,62;,
  3;63,63,63;,
  3;64,64,64;,
  3;65,65,65;,
  3;66,66,66;,
  3;67,67,67;,
  3;68,68,68;,
  3;69,69,69;,
  3;70,70,70;,
  3;71,71,71;,
  3;72,72,72;,
  3;73,73,73;,
  3;74,74,74;,
  3;75,75,75;,
  3;76,76,76;,
  3;77,77,77;,
  3;78,78,78;,
  3;79,79,79;,
  3;80,80,80;,
  3;81,81,81;,
  3;82,82,82;,
  3;83,83,83;,
  3;84,84,84;,
  3;85,85,85;,
  3;86,86,86;,
  3;87,87,87;,
  3;88,88,88;,
  3;89,89,89;,
  3;90,90,90;,
  3;91,91,91;,
  3;92,92,92;,
  3;93,93,93;,
  3;94,94,94;,
  3;95,95,95;,
  3;96,96,96;,
  3;97,97,97;,
  3;98,98,98;,
  3;99,99,99;,
  3;100,100,100;,
  3;101,101,101;,
  3;102,102,102;,
  3;103,103,103;,
  3;104,104,104;,
  3;105,105,105;,
  3;106,106,106;,
  3;107,107,107;,
  3;108,108,108;,
  3;109,109,109;,
  3;110,110,110;,
  3;111,111,111;,
  3;112,112,112;,
  3;113,113,113;;
 }
}