xof 0303txt 0032
template Vector {
 <3d82ab5e-62da-11cf-ab39-0020af71e433>
 FLOAT x;
 FLOAT y;
 FLOAT z;
}

template MeshFace {
 <3d82ab5f-62da-11cf-ab39-0020af71e433>
 DWORD nFaceVertexIndices;
 array DWORD faceVertexIndices[nFaceVertexIndices];
}

template Mesh {
 <3d82ab44-62da-11cf-ab39-0020af71e433>
 DWORD nVertices;
 array Vector vertices[nVertices];
 DWORD nFaces;
 array MeshFace faces[nFaces];
 [...]
}

template ColorRGBA {
 <35ff44e0-6c7c-11cf-8f52-0040333594a3>
 FLOAT red;
 FLOAT green;
 FLOAT blue;
 FLOAT alpha;
}

template ColorRGB {
 <d3e16e81-7835-11cf-8f52-0040333594a3>
 FLOAT red;
 FLOAT green;
 FLOAT blue;
}

template Material {
 <3d82ab4d-62da-11cf-ab39-0020af71e433>
 ColorRGBA faceColor;
 FLOAT power;
 ColorRGB specularColor;
 ColorRGB emissiveColor;
 [...]
}

template MeshMaterialList {
 <f6f23f42-7686-11cf-8f52-0040333594a3>
 DWORD nMaterials;
 DWORD nFaceIndexes;
 array DWORD faceIndexes[nFaceIndexes];
 [Material <3d82ab4d-62da-11cf-ab39-0020af71e433>]
}

template TextureFilename {
 <a42790e1-7810-11cf-8f52-0040333594a3>
 STRING filename;
}

template Coords2d {
 <f6f23f44-7686-11cf-8f52-0040333594a3>
 FLOAT u;
 FLOAT v;
}

template MeshTextureCoords {
 <f6f23f40-7686-11cf-8f52-0040333594a3>
 DWORD nTextureCoords;
 array Coords2d textureCoords[nTextureCoords];
}

template MeshNormals {
 <f6f23f43-7686-11cf-8f52-0040333594a3>
 DWORD nNormals;
 array Vector normals[nNormals];
 DWORD nFaceNormals;
 array MeshFace faceNormals[nFaceNormals];
}


Mesh  {
 96;
 1.469100;0.850000;9.990000;,
 1.469100;1.100000;9.990000;,
 1.800000;0.850000;10.000000;,
 1.800000;1.100000;10.000000;,
 1.800000;0.850000;7.000000;,
 1.800000;1.100000;7.000000;,
 5.340000;0.850000;7.000000;,
 5.340000;1.100000;7.000000;,
 5.550000;0.850000;10.000000;,
 5.550000;1.100000;10.000000;,
 5.862600;0.850000;10.000000;,
 5.862600;1.100000;10.000000;,
 1.800000;1.100000;7.000000;,
 1.800000;1.100000;9.990000;,
 5.340000;1.100000;7.000000;,
 5.550000;1.100000;10.000000;,
 1.469100;0.850000;9.990000;,
 1.469100;1.100000;9.990000;,
 2.669100;1.100000;9.990000;,
 1.469100;0.850000;15.010000;,
 1.469100;1.100000;15.010000;,
 2.669100;1.100000;15.010000;,
 1.479400;0.850000;20.030001;,
 1.479400;1.100000;20.030001;,
 2.679400;1.100000;20.030001;,
 1.500000;0.850000;25.049900;,
 1.500000;1.100000;25.049900;,
 2.700000;1.100000;25.049900;,
 5.862600;0.850000;10.000000;,
 5.862600;1.100000;10.000000;,
 4.662600;1.100000;10.000000;,
 6.912500;0.850000;25.000000;,
 6.912500;1.100000;25.000000;,
 5.712500;1.100000;25.000000;,
 2.200000;-0.450000;25.000000;,
 2.200000;0.850000;25.000000;,
 2.200000;-0.450000;7.000000;,
 2.200000;0.850000;7.000000;,
 4.952600;-0.450000;7.000000;,
 4.952600;0.850000;7.000000;,
 6.212500;-0.450000;25.000000;,
 6.212500;0.850000;25.000000;,
 2.669100;1.100000;9.990000;,
 2.669100;1.100000;15.010000;,
 2.679400;1.100000;20.030001;,
 2.700000;1.100000;25.049900;,
 4.662560;1.100000;10.000000;,
 5.712500;1.100000;25.000000;,
 1.700000;-0.287000;7.000000;,
 1.700000;-0.287000;25.000000;,
 1.700000;0.000000;7.000000;,
 1.700000;0.000000;25.000000;,
 2.200000;-0.287000;7.000000;,
 2.200000;-0.287000;25.000000;,
 2.200000;0.000000;7.000000;,
 2.200000;-0.287000;7.000000;,
 5.452600;-0.287000;7.000000;,
 6.712500;-0.287000;25.000000;,
 5.452600;0.000000;7.000000;,
 6.712500;0.000000;25.000000;,
 4.952600;-0.287000;7.000000;,
 6.212500;-0.287000;25.000000;,
 4.952600;0.000000;7.000000;,
 4.952600;-0.287000;7.000000;,
 3.964600;-0.925000;4.055000;,
 3.964600;0.475000;4.055000;,
 4.202600;0.775000;7.000000;,
 4.202600;2.175000;7.000000;,
 2.664600;-0.925000;4.055000;,
 2.664600;0.475000;4.055000;,
 2.902600;0.775000;7.000000;,
 2.902600;2.175000;7.000000;,
 2.664600;-0.600000;4.055000;,
 2.902600;1.100000;7.000000;,
 3.964600;-0.600000;4.055000;,
 4.202600;1.100000;7.000000;,
 1.850000;1.100000;7.050000;,
 1.850000;2.300000;7.050000;,
 1.850000;1.100000;9.950000;,
 1.850000;2.300000;9.950000;,
 5.500000;1.100000;9.950000;,
 5.500000;2.300000;9.950000;,
 5.290000;1.100000;7.000000;,
 5.290000;2.300000;7.000000;,
 1.850000;1.150000;7.050000;,
 1.850000;2.300000;7.050000;,
 1.850000;1.150000;9.950000;,
 1.850000;2.300000;9.950000;,
 5.500000;1.150000;9.950000;,
 5.500000;2.300000;9.950000;,
 5.290000;1.150000;7.000000;,
 5.290000;2.300000;7.000000;,
 3.400000;1.100000;20.000000;,
 3.400000;5.500000;20.000000;,
 4.600000;1.100000;20.000000;,
 4.600000;5.500000;20.000000;;
 92;
 3;0,1,3;,
 3;0,3,2;,
 3;2,3,5;,
 3;2,5,4;,
 3;4,5,7;,
 3;4,7,6;,
 3;6,7,9;,
 3;6,9,8;,
 3;8,9,11;,
 3;8,11,10;,
 3;12,13,15;,
 3;12,15,14;,
 3;19,20,17;,
 3;19,17,16;,
 3;20,21,18;,
 3;20,18,17;,
 3;22,23,20;,
 3;22,20,19;,
 3;23,24,21;,
 3;23,21,20;,
 3;25,26,23;,
 3;25,23,22;,
 3;26,27,24;,
 3;26,24,23;,
 3;28,29,32;,
 3;28,32,31;,
 3;29,30,33;,
 3;29,33,32;,
 3;34,35,37;,
 3;34,37,36;,
 3;36,37,39;,
 3;36,39,38;,
 3;38,39,41;,
 3;38,41,40;,
 3;42,43,44;,
 3;42,44,45;,
 3;42,45,47;,
 3;42,47,46;,
 3;50,51,49;,
 3;50,49,48;,
 3;48,49,51;,
 3;48,51,50;,
 3;48,49,53;,
 3;48,53,52;,
 3;48,50,54;,
 3;48,54,55;,
 3;56,57,59;,
 3;56,59,58;,
 3;58,59,57;,
 3;58,57,56;,
 3;60,61,57;,
 3;60,57,56;,
 3;63,62,58;,
 3;63,58,56;,
 3;64,65,67;,
 3;64,67,66;,
 3;66,67,65;,
 3;66,65,64;,
 3;68,69,71;,
 3;68,71,70;,
 3;70,71,69;,
 3;70,69,68;,
 3;72,73,75;,
 3;72,75,74;,
 3;74,75,73;,
 3;74,73,72;,
 3;76,77,79;,
 3;76,79,78;,
 3;78,79,77;,
 3;78,77,76;,
 3;78,79,81;,
 3;78,81,80;,
 3;80,81,83;,
 3;80,83,82;,
 3;82,83,81;,
 3;82,81,80;,
 3;76,77,83;,
 3;76,83,82;,
 3;84,85,87;,
 3;84,87,86;,
 3;86,87,85;,
 3;86,85,84;,
 3;86,87,89;,
 3;86,89,88;,
 3;88,89,91;,
 3;88,91,90;,
 3;90,91,89;,
 3;90,89,88;,
 3;84,85,91;,
 3;84,91,90;,
 3;92,93,95;,
 3;92,95,94;;

 MeshMaterialList  {
  14;
  92;
  0,
  0,
  0,
  0,
  0,
  0,
  0,
  0,
  0,
  0,
  1,
  1,
  2,
  2,
  2,
  2,
  2,
  2,
  2,
  2,
  2,
  2,
  2,
  2,
  3,
  3,
  3,
  3,
  4,
  4,
  4,
  4,
  4,
  4,
  5,
  5,
  5,
  5,
  6,
  6,
  6,
  6,
  6,
  6,
  6,
  6,
  7,
  7,
  7,
  7,
  7,
  7,
  7,
  7,
  8,
  8,
  8,
  8,
  9,
  9,
  9,
  9,
  10,
  10,
  10,
  10,
  11,
  11,
  11,
  11,
  11,
  11,
  11,
  11,
  11,
  11,
  11,
  11,
  12,
  12,
  12,
  12,
  12,
  12,
  12,
  12,
  12,
  12,
  12,
  12,
  13,
  13;

  Material  {
   1.000000;1.000000;1.000000;1.000000;;
   0.000000;
   0.000000;0.000000;0.000000;;
   0.000000;0.000000;0.000000;;

   TextureFilename  {
    "FormSide3.png";
   }
  }

  Material  {
   1.000000;1.000000;1.000000;1.000000;;
   0.000000;
   0.000000;0.000000;0.000000;;
   0.000000;0.000000;0.000000;;

   TextureFilename  {
    "FormC2.png";
   }
  }

  Material  {
   1.000000;1.000000;1.000000;1.000000;;
   0.000000;
   0.000000;0.000000;0.000000;;
   0.000000;0.000000;0.000000;;

   TextureFilename  {
    "FormSide1.png";
   }
  }

  Material  {
   1.000000;1.000000;1.000000;1.000000;;
   0.000000;
   0.000000;0.000000;0.000000;;
   0.000000;0.000000;0.000000;;

   TextureFilename  {
    "FormSide1.png";
   }
  }

  Material  {
   1.000000;1.000000;1.000000;1.000000;;
   0.000000;
   0.000000;0.000000;0.000000;;
   0.000000;0.000000;0.000000;;

   TextureFilename  {
    "FormSide2.png";
   }
  }

  Material  {
   1.000000;1.000000;1.000000;1.000000;;
   0.000000;
   0.000000;0.000000;0.000000;;
   0.000000;0.000000;0.000000;;

   TextureFilename  {
    "FormC.png";
   }
  }

  Material  {
   1.000000;1.000000;1.000000;1.000000;;
   0.000000;
   0.000000;0.000000;0.000000;;
   0.000000;0.000000;0.000000;;

   TextureFilename  {
    "Concrete.png";
   }
  }

  Material  {
   1.000000;1.000000;1.000000;1.000000;;
   0.000000;
   0.000000;0.000000;0.000000;;
   0.000000;0.000000;0.000000;;

   TextureFilename  {
    "Concrete.png";
   }
  }

  Material  {
   1.000000;1.000000;1.000000;1.000000;;
   0.000000;
   0.000000;0.000000;0.000000;;
   0.000000;0.000000;0.000000;;

   TextureFilename  {
    "Kaidan1.png";
   }
  }

  Material  {
   1.000000;1.000000;1.000000;1.000000;;
   0.000000;
   0.000000;0.000000;0.000000;;
   0.000000;0.000000;0.000000;;

   TextureFilename  {
    "Kaidan1.png";
   }
  }

  Material  {
   1.000000;1.000000;1.000000;1.000000;;
   0.000000;
   0.000000;0.000000;0.000000;;
   0.000000;0.000000;0.000000;;

   TextureFilename  {
    "Kaidan2.png";
   }
  }

  Material  {
   1.000000;1.000000;1.000000;1.000000;;
   0.000000;
   0.000000;0.000000;0.000000;;
   0.000000;0.000000;0.000000;;

   TextureFilename  {
    "Saku1.png";
   }
  }

  Material  {
   0.250980;0.250980;0.250980;0.250980;;
   0.000000;
   0.000000;0.000000;0.000000;;
   0.000000;0.000000;0.000000;;
  }

  Material  {
   1.000000;1.000000;1.000000;1.000000;;
   0.000000;
   0.000000;0.000000;0.000000;;
   0.000000;0.000000;0.000000;;

   TextureFilename  {
    "Light1.png";
   }
  }
 }

 MeshTextureCoords  {
  96;
  0.000000;0.970000;,
  0.000000;0.030000;,
  0.100000;0.970000;,
  0.100000;0.030000;,
  0.200000;0.970000;,
  0.200000;0.030000;,
  0.300000;0.970000;,
  0.300000;0.030000;,
  0.400000;0.970000;,
  0.400000;0.030000;,
  0.500000;0.970000;,
  0.500000;0.030000;,
  0.000000;1.000000;,
  0.000000;0.000000;,
  1.000000;1.000000;,
  1.000000;0.000000;,
  0.000000;1.000000;,
  0.000000;0.440000;,
  0.000000;0.000000;,
  1.000000;1.000000;,
  1.000000;0.440000;,
  1.000000;0.000000;,
  2.000000;1.000000;,
  2.000000;0.440000;,
  2.000000;0.000000;,
  3.000000;1.000000;,
  3.000000;0.440000;,
  3.000000;0.000000;,
  0.000000;1.000000;,
  0.000000;0.440000;,
  0.000000;0.000000;,
  3.000000;1.000000;,
  3.000000;0.440000;,
  3.000000;0.000000;,
  0.900000;1.000000;,
  0.900000;0.000000;,
  0.500000;1.000000;,
  0.500000;0.000000;,
  0.340000;1.000000;,
  0.290000;0.000000;,
  0.100000;1.000000;,
  0.100000;0.000000;,
  1.000000;0.000000;,
  1.000000;0.500000;,
  1.000000;1.000000;,
  1.000000;1.500000;,
  0.000000;0.000000;,
  0.000000;1.500000;,
  0.480000;0.950000;,
  0.900000;0.950000;,
  0.480000;0.000000;,
  0.900000;0.000000;,
  0.600000;0.950000;,
  0.900000;0.950000;,
  0.000000;0.000000;,
  0.000000;0.950000;,
  0.350000;0.950000;,
  0.900000;0.950000;,
  0.350000;0.000000;,
  0.900000;0.000000;,
  0.350000;0.950000;,
  0.900000;0.950000;,
  0.000000;0.000000;,
  0.000000;0.950000;,
  0.000000;1.000000;,
  0.000000;0.000000;,
  0.990000;1.000000;,
  0.990000;0.000000;,
  0.000000;1.000000;,
  0.000000;0.000000;,
  0.990000;1.000000;,
  0.990000;0.000000;,
  0.000000;11.000000;,
  0.000000;0.000000;,
  1.000000;11.000000;,
  1.000000;0.000000;,
  0.060000;1.000000;,
  0.060000;0.000000;,
  3.060000;1.000000;,
  3.060000;0.000000;,
  0.060000;1.000000;,
  0.060000;0.000000;,
  3.060000;1.000000;,
  3.060000;0.000000;,
  0.000000;0.000000;,
  0.000000;0.000000;,
  0.000000;0.000000;,
  0.000000;0.000000;,
  0.000000;0.000000;,
  0.000000;0.000000;,
  0.000000;0.000000;,
  0.000000;0.000000;,
  0.000000;1.000000;,
  0.000000;0.000000;,
  1.000000;1.000000;,
  1.000000;0.000000;;
 }

 MeshNormals  {
  92;
  0.030208;0.000000;-0.999544;,
  0.030208;0.000000;-0.999544;,
  -1.000000;0.000000;0.000000;,
  -1.000000;0.000000;0.000000;,
  0.000000;0.000000;-1.000000;,
  0.000000;0.000000;-1.000000;,
  0.997559;0.000000;-0.069829;,
  0.997559;0.000000;-0.069829;,
  0.000000;0.000000;-1.000000;,
  0.000000;0.000000;-1.000000;,
  0.000000;1.000000;0.000000;,
  0.000000;1.000000;0.000000;,
  -1.000000;0.000000;0.000000;,
  -1.000000;0.000000;0.000000;,
  0.000000;1.000000;0.000000;,
  0.000000;1.000000;0.000000;,
  -0.999998;0.000000;0.002052;,
  -0.999998;0.000000;0.002052;,
  0.000000;1.000000;0.000000;,
  0.000000;1.000000;0.000000;,
  -0.999992;0.000000;0.004104;,
  -0.999992;0.000000;0.004104;,
  0.000000;1.000000;0.000000;,
  0.000000;1.000000;0.000000;,
  0.997559;0.000000;-0.069823;,
  0.997559;0.000000;-0.069823;,
  0.000000;1.000000;0.000000;,
  0.000000;1.000000;0.000000;,
  -1.000000;0.000000;0.000000;,
  -1.000000;0.000000;0.000000;,
  0.000000;0.000000;-1.000000;,
  0.000000;0.000000;-1.000000;,
  0.997559;0.000000;-0.069824;,
  0.997559;0.000000;-0.069824;,
  0.000000;1.000000;0.000000;,
  0.000000;1.000000;0.000000;,
  0.000000;1.000000;0.000000;,
  0.000000;1.000000;0.000000;,
  1.000000;0.000000;0.000000;,
  1.000000;0.000000;0.000000;,
  -1.000000;0.000000;0.000000;,
  -1.000000;0.000000;0.000000;,
  0.000000;1.000000;0.000000;,
  0.000000;1.000000;0.000000;,
  0.000000;0.000000;-1.000000;,
  0.000000;0.000000;-1.000000;,
  -0.997559;0.000000;0.069824;,
  -0.997559;0.000000;0.069824;,
  0.997559;0.000000;-0.069824;,
  0.997559;0.000000;-0.069824;,
  0.000000;1.000000;0.000000;,
  0.000000;1.000000;0.000000;,
  0.000000;0.000000;-1.000000;,
  0.000000;0.000000;-1.000000;,
  0.996750;0.000000;-0.080552;,
  0.996750;0.000000;-0.080552;,
  -0.996750;0.000000;0.080552;,
  -0.996750;0.000000;0.080552;,
  0.996750;0.000000;-0.080552;,
  0.996750;0.000000;-0.080552;,
  -0.996750;0.000000;0.080552;,
  -0.996750;0.000000;0.080552;,
  0.000000;0.866063;-0.499935;,
  0.000000;0.866063;-0.499935;,
  0.000000;-0.866063;0.499935;,
  0.000000;-0.866063;0.499935;,
  1.000000;0.000000;0.000000;,
  1.000000;0.000000;0.000000;,
  -1.000000;0.000000;0.000000;,
  -1.000000;0.000000;0.000000;,
  0.000000;0.000000;-1.000000;,
  0.000000;0.000000;-1.000000;,
  -0.997476;0.000000;0.071007;,
  -0.997476;0.000000;0.071007;,
  0.997476;0.000000;-0.071007;,
  0.997476;0.000000;-0.071007;,
  -0.014533;0.000000;-0.999894;,
  -0.014533;0.000000;-0.999894;,
  1.000000;0.000000;0.000000;,
  1.000000;0.000000;0.000000;,
  -1.000000;0.000000;0.000000;,
  -1.000000;0.000000;0.000000;,
  0.000000;0.000000;-1.000000;,
  0.000000;0.000000;-1.000000;,
  -0.997476;0.000000;0.071007;,
  -0.997476;0.000000;0.071007;,
  0.997476;0.000000;-0.071007;,
  0.997476;0.000000;-0.071007;,
  -0.014533;0.000000;-0.999894;,
  -0.014533;0.000000;-0.999894;,
  0.000000;0.000000;-1.000000;,
  0.000000;0.000000;-1.000000;;
  92;
  3;0,0,0;,
  3;1,1,1;,
  3;2,2,2;,
  3;3,3,3;,
  3;4,4,4;,
  3;5,5,5;,
  3;6,6,6;,
  3;7,7,7;,
  3;8,8,8;,
  3;9,9,9;,
  3;10,10,10;,
  3;11,11,11;,
  3;12,12,12;,
  3;13,13,13;,
  3;14,14,14;,
  3;15,15,15;,
  3;16,16,16;,
  3;17,17,17;,
  3;18,18,18;,
  3;19,19,19;,
  3;20,20,20;,
  3;21,21,21;,
  3;22,22,22;,
  3;23,23,23;,
  3;24,24,24;,
  3;25,25,25;,
  3;26,26,26;,
  3;27,27,27;,
  3;28,28,28;,
  3;29,29,29;,
  3;30,30,30;,
  3;31,31,31;,
  3;32,32,32;,
  3;33,33,33;,
  3;34,34,34;,
  3;35,35,35;,
  3;36,36,36;,
  3;37,37,37;,
  3;38,38,38;,
  3;39,39,39;,
  3;40,40,40;,
  3;41,41,41;,
  3;42,42,42;,
  3;43,43,43;,
  3;44,44,44;,
  3;45,45,45;,
  3;46,46,46;,
  3;47,47,47;,
  3;48,48,48;,
  3;49,49,49;,
  3;50,50,50;,
  3;51,51,51;,
  3;52,52,52;,
  3;53,53,53;,
  3;54,54,54;,
  3;55,55,55;,
  3;56,56,56;,
  3;57,57,57;,
  3;58,58,58;,
  3;59,59,59;,
  3;60,60,60;,
  3;61,61,61;,
  3;62,62,62;,
  3;63,63,63;,
  3;64,64,64;,
  3;65,65,65;,
  3;66,66,66;,
  3;67,67,67;,
  3;68,68,68;,
  3;69,69,69;,
  3;70,70,70;,
  3;71,71,71;,
  3;72,72,72;,
  3;73,73,73;,
  3;74,74,74;,
  3;75,75,75;,
  3;76,76,76;,
  3;77,77,77;,
  3;78,78,78;,
  3;79,79,79;,
  3;80,80,80;,
  3;81,81,81;,
  3;82,82,82;,
  3;83,83,83;,
  3;84,84,84;,
  3;85,85,85;,
  3;86,86,86;,
  3;87,87,87;,
  3;88,88,88;,
  3;89,89,89;,
  3;90,90,90;,
  3;91,91,91;;
 }
}