xof 0303txt 0032
template Vector {
 <3d82ab5e-62da-11cf-ab39-0020af71e433>
 FLOAT x;
 FLOAT y;
 FLOAT z;
}

template MeshFace {
 <3d82ab5f-62da-11cf-ab39-0020af71e433>
 DWORD nFaceVertexIndices;
 array DWORD faceVertexIndices[nFaceVertexIndices];
}

template Mesh {
 <3d82ab44-62da-11cf-ab39-0020af71e433>
 DWORD nVertices;
 array Vector vertices[nVertices];
 DWORD nFaces;
 array MeshFace faces[nFaces];
 [...]
}

template ColorRGBA {
 <35ff44e0-6c7c-11cf-8f52-0040333594a3>
 FLOAT red;
 FLOAT green;
 FLOAT blue;
 FLOAT alpha;
}

template ColorRGB {
 <d3e16e81-7835-11cf-8f52-0040333594a3>
 FLOAT red;
 FLOAT green;
 FLOAT blue;
}

template Material {
 <3d82ab4d-62da-11cf-ab39-0020af71e433>
 ColorRGBA faceColor;
 FLOAT power;
 ColorRGB specularColor;
 ColorRGB emissiveColor;
 [...]
}

template MeshMaterialList {
 <f6f23f42-7686-11cf-8f52-0040333594a3>
 DWORD nMaterials;
 DWORD nFaceIndexes;
 array DWORD faceIndexes[nFaceIndexes];
 [Material <3d82ab4d-62da-11cf-ab39-0020af71e433>]
}

template TextureFilename {
 <a42790e1-7810-11cf-8f52-0040333594a3>
 STRING filename;
}

template Coords2d {
 <f6f23f44-7686-11cf-8f52-0040333594a3>
 FLOAT u;
 FLOAT v;
}

template MeshTextureCoords {
 <f6f23f40-7686-11cf-8f52-0040333594a3>
 DWORD nTextureCoords;
 array Coords2d textureCoords[nTextureCoords];
}

template MeshNormals {
 <f6f23f43-7686-11cf-8f52-0040333594a3>
 DWORD nNormals;
 array Vector normals[nNormals];
 DWORD nFaceNormals;
 array MeshFace faceNormals[nFaceNormals];
}


Mesh  {
 120;
 -12.099500;-1.000000;-0.100000;,
 -12.099500;1.000000;-0.100000;,
 2.500000;-1.000000;-0.100000;,
 2.500000;1.000000;-0.100000;,
 2.500000;-1.000000;25.000000;,
 2.500000;1.000000;25.000000;,
 -12.099500;-1.000000;-0.100000;,
 -12.099500;1.000000;-0.100000;,
 -12.099500;-1.000000;25.000000;,
 -12.099500;1.000000;25.000000;,
 -1.500000;0.950000;6.000000;,
 -1.500000;1.100000;6.000000;,
 -2.700000;1.100000;6.000000;,
 -1.500000;0.950000;25.000000;,
 -1.500000;1.100000;25.000000;,
 -2.700000;1.100000;25.000000;,
 -2.400000;-0.450000;6.000000;,
 -2.400000;0.850000;6.000000;,
 -2.400000;-0.450000;25.000000;,
 -2.400000;0.850000;25.000000;,
 -8.099500;1.100000;6.000000;,
 -6.899500;1.100000;6.000000;,
 -8.099500;1.100000;25.000000;,
 -6.899500;1.100000;25.000000;,
 -6.999500;-0.450000;6.000000;,
 -6.999500;0.850000;6.000000;,
 -6.999500;-0.450000;25.000000;,
 -6.999500;0.850000;25.000000;,
 -2.700000;1.100000;6.000000;,
 -2.700000;1.100000;25.000000;,
 -6.899500;1.100000;6.000000;,
 -6.899500;1.100000;25.000000;,
 -8.099500;0.950000;6.000000;,
 -8.099500;1.100000;6.000000;,
 -7.199500;-0.450000;6.000000;,
 -7.199500;0.850000;6.000000;,
 -6.999500;-0.450000;6.000000;,
 -6.999500;0.850000;6.000000;,
 -2.600000;-0.450000;6.000000;,
 -2.600000;0.850000;6.000000;,
 -2.400000;-0.450000;6.000000;,
 -2.400000;0.850000;6.000000;,
 -1.500000;0.950000;6.000000;,
 -1.500000;1.100000;6.000000;,
 -1.500000;1.100000;6.000000;,
 -1.500000;2.300000;6.000000;,
 -1.500000;1.100000;37.000000;,
 -1.500000;2.300000;37.000000;,
 -7.499500;1.100000;6.200000;,
 -7.499500;2.300000;6.200000;,
 -1.500000;1.100000;6.200000;,
 -1.500000;2.300000;6.200000;,
 -6.799750;1.100000;6.510000;,
 -6.799750;4.900000;6.510000;,
 -6.549750;1.100000;6.510000;,
 -6.549750;4.900000;6.510000;,
 -3.049750;1.100000;6.510000;,
 -3.049750;4.900000;6.510000;,
 -2.799750;1.100000;6.510000;,
 -2.799750;4.900000;6.510000;,
 -4.924750;1.100000;10.500000;,
 -4.924750;4.500000;10.500000;,
 -4.674750;1.100000;10.500000;,
 -4.674750;4.500000;10.500000;,
 -4.924750;1.100000;18.500000;,
 -4.924750;4.500000;18.500000;,
 -4.674750;1.100000;18.500000;,
 -4.674750;4.500000;18.500000;,
 -4.799750;4.500000;6.000000;,
 -4.799750;4.800000;6.000000;,
 -4.799750;4.500000;25.000000;,
 -4.799750;4.800000;25.000000;,
 -1.700000;4.900000;6.000000;,
 -1.700000;5.200000;6.000000;,
 -1.700000;4.900000;25.000000;,
 -1.700000;5.200000;25.000000;,
 -7.899500;4.900000;6.000000;,
 -7.899500;5.200000;6.000000;,
 -7.899500;4.900000;25.000000;,
 -7.899500;5.200000;25.000000;,
 -7.899500;4.900000;6.500000;,
 -7.899500;5.200000;6.500000;,
 -4.799750;4.500000;6.500000;,
 -4.799750;4.800000;6.500000;,
 -1.700000;4.900000;6.500000;,
 -1.700000;5.200000;6.500000;,
 -7.899500;4.900000;10.500000;,
 -7.899500;5.200000;10.500000;,
 -4.799750;4.500000;10.500000;,
 -4.799750;4.800000;10.500000;,
 -1.700000;4.900000;10.500000;,
 -1.700000;5.200000;10.500000;,
 -7.899500;4.900000;18.500000;,
 -7.899500;5.200000;18.500000;,
 -4.799750;4.500000;18.500000;,
 -4.799750;4.800000;18.500000;,
 -1.700000;4.900000;18.500000;,
 -1.700000;5.200000;18.500000;,
 -8.099500;4.626000;6.000000;,
 -8.099500;4.626000;25.000000;,
 -8.099500;5.226000;6.000000;,
 -8.099500;5.226000;25.000000;,
 -4.799750;4.800000;6.000000;,
 -4.799750;4.800000;25.000000;,
 -1.500000;5.226000;6.000000;,
 -1.500000;5.226000;25.000000;,
 -1.500000;4.626000;6.000000;,
 -1.500000;5.226000;6.000000;,
 -1.500000;4.626000;25.000000;,
 -1.500000;5.226000;25.000000;,
 -8.099500;4.626000;6.000000;,
 -8.099500;5.226000;6.000000;,
 -7.949500;4.626000;6.000000;,
 -7.949500;5.050000;6.000000;,
 -4.799750;4.650000;6.000000;,
 -4.799750;4.800000;6.000000;,
 -1.650000;4.626000;6.000000;,
 -1.650000;5.050000;6.000000;,
 -1.500000;4.626000;6.000000;,
 -1.500000;5.226000;6.000000;;
 74;
 3;0,1,3;,
 3;0,3,2;,
 3;2,3,5;,
 3;2,5,4;,
 3;6,7,9;,
 3;6,9,8;,
 3;10,11,14;,
 3;10,14,13;,
 3;11,12,15;,
 3;11,15,14;,
 3;16,17,19;,
 3;16,19,18;,
 3;22,23,21;,
 3;22,21,20;,
 3;24,25,27;,
 3;24,27,26;,
 3;29,28,30;,
 3;29,30,31;,
 3;32,33,43;,
 3;32,43,42;,
 3;32,42,41;,
 3;32,41,39;,
 3;32,39,37;,
 3;32,37,35;,
 3;34,35,37;,
 3;34,37,36;,
 3;38,39,41;,
 3;38,41,40;,
 3;44,45,47;,
 3;44,47,46;,
 3;48,49,51;,
 3;48,51,50;,
 3;52,53,55;,
 3;52,55,54;,
 3;56,57,59;,
 3;56,59,58;,
 3;60,61,63;,
 3;60,63,62;,
 3;64,65,67;,
 3;64,67,66;,
 3;68,69,71;,
 3;68,71,70;,
 3;72,73,75;,
 3;72,75,74;,
 3;76,77,79;,
 3;76,79,78;,
 3;80,81,83;,
 3;80,83,82;,
 3;82,83,85;,
 3;82,85,84;,
 3;86,87,89;,
 3;86,89,88;,
 3;88,89,91;,
 3;88,91,90;,
 3;92,93,95;,
 3;92,95,94;,
 3;94,95,97;,
 3;94,97,96;,
 3;100,101,99;,
 3;100,99,98;,
 3;102,103,101;,
 3;102,101,100;,
 3;104,105,103;,
 3;104,103,102;,
 3;106,107,109;,
 3;106,109,108;,
 3;110,111,113;,
 3;110,113,112;,
 3;113,111,115;,
 3;113,115,114;,
 3;114,115,119;,
 3;114,119,117;,
 3;116,117,119;,
 3;116,119,118;;

 MeshMaterialList  {
  23;
  74;
  0,
  0,
  0,
  0,
  1,
  1,
  2,
  2,
  2,
  2,
  3,
  3,
  4,
  4,
  5,
  5,
  6,
  6,
  7,
  7,
  7,
  7,
  7,
  7,
  7,
  7,
  7,
  7,
  8,
  8,
  9,
  9,
  10,
  10,
  11,
  11,
  12,
  12,
  13,
  13,
  14,
  14,
  15,
  15,
  16,
  16,
  17,
  17,
  17,
  17,
  18,
  18,
  18,
  18,
  19,
  19,
  19,
  19,
  20,
  20,
  20,
  20,
  20,
  20,
  21,
  21,
  22,
  22,
  22,
  22,
  22,
  22,
  22,
  22;

  Material  {
   1.000000;1.000000;1.000000;1.000000;;
   0.000000;
   0.000000;0.000000;0.000000;;
   0.000000;0.000000;0.000000;;

   TextureFilename  {
    "MeiWall1.png";
   }
  }

  Material  {
   1.000000;1.000000;1.000000;1.000000;;
   0.000000;
   0.000000;0.000000;0.000000;;
   0.000000;0.000000;0.000000;;

   TextureFilename  {
    "MeiWall2.png";
   }
  }

  Material  {
   1.000000;1.000000;1.000000;1.000000;;
   0.000000;
   0.000000;0.000000;0.000000;;
   0.000000;0.000000;0.000000;;

   TextureFilename  {
    "FormSide4.png";
   }
  }

  Material  {
   1.000000;1.000000;1.000000;1.000000;;
   0.000000;
   0.000000;0.000000;0.000000;;
   0.000000;0.000000;0.000000;;

   TextureFilename  {
    "FormSide5.png";
   }
  }

  Material  {
   1.000000;1.000000;1.000000;1.000000;;
   0.000000;
   0.000000;0.000000;0.000000;;
   0.000000;0.000000;0.000000;;

   TextureFilename  {
    "FormSide4.png";
   }
  }

  Material  {
   1.000000;1.000000;1.000000;1.000000;;
   0.000000;
   0.000000;0.000000;0.000000;;
   0.000000;0.000000;0.000000;;

   TextureFilename  {
    "FormSide5.png";
   }
  }

  Material  {
   1.000000;1.000000;1.000000;1.000000;;
   0.000000;
   0.000000;0.000000;0.000000;;
   0.000000;0.000000;0.000000;;

   TextureFilename  {
    "FormC3.png";
   }
  }

  Material  {
   1.000000;1.000000;1.000000;1.000000;;
   0.000000;
   0.000000;0.000000;0.000000;;
   0.000000;0.000000;0.000000;;

   TextureFilename  {
    "FormSide4.png";
   }
  }

  Material  {
   1.000000;1.000000;1.000000;1.000000;;
   0.000000;
   0.000000;0.000000;0.000000;;
   0.000000;0.000000;0.000000;;

   TextureFilename  {
    "Saku2.png";
   }
  }

  Material  {
   1.000000;1.000000;1.000000;1.000000;;
   0.000000;
   0.000000;0.000000;0.000000;;
   0.000000;0.000000;0.000000;;

   TextureFilename  {
    "Saku3.png";
   }
  }

  Material  {
   1.000000;1.000000;1.000000;1.000000;;
   0.000000;
   0.000000;0.000000;0.000000;;
   0.000000;0.000000;0.000000;;

   TextureFilename  {
    "MeiIron1.png";
   }
  }

  Material  {
   1.000000;1.000000;1.000000;1.000000;;
   0.000000;
   0.000000;0.000000;0.000000;;
   0.000000;0.000000;0.000000;;

   TextureFilename  {
    "MeiIron1.png";
   }
  }

  Material  {
   1.000000;1.000000;1.000000;1.000000;;
   0.000000;
   0.000000;0.000000;0.000000;;
   0.000000;0.000000;0.000000;;

   TextureFilename  {
    "MeiIron1.png";
   }
  }

  Material  {
   1.000000;1.000000;1.000000;1.000000;;
   0.000000;
   0.000000;0.000000;0.000000;;
   0.000000;0.000000;0.000000;;

   TextureFilename  {
    "MeiIron1.png";
   }
  }

  Material  {
   1.000000;1.000000;1.000000;1.000000;;
   0.000000;
   0.000000;0.000000;0.000000;;
   0.000000;0.000000;0.000000;;

   TextureFilename  {
    "MeiIron2.png";
   }
  }

  Material  {
   1.000000;1.000000;1.000000;1.000000;;
   0.000000;
   0.000000;0.000000;0.000000;;
   0.000000;0.000000;0.000000;;

   TextureFilename  {
    "MeiIron2.png";
   }
  }

  Material  {
   1.000000;1.000000;1.000000;1.000000;;
   0.000000;
   0.000000;0.000000;0.000000;;
   0.000000;0.000000;0.000000;;

   TextureFilename  {
    "MeiIron2.png";
   }
  }

  Material  {
   1.000000;1.000000;1.000000;1.000000;;
   0.000000;
   0.000000;0.000000;0.000000;;
   0.000000;0.000000;0.000000;;

   TextureFilename  {
    "MeiIron2.png";
   }
  }

  Material  {
   1.000000;1.000000;1.000000;1.000000;;
   0.000000;
   0.000000;0.000000;0.000000;;
   0.000000;0.000000;0.000000;;

   TextureFilename  {
    "MeiIron2.png";
   }
  }

  Material  {
   1.000000;1.000000;1.000000;1.000000;;
   0.000000;
   0.000000;0.000000;0.000000;;
   0.000000;0.000000;0.000000;;

   TextureFilename  {
    "MeiIron2.png";
   }
  }

  Material  {
   1.000000;1.000000;1.000000;1.000000;;
   0.000000;
   0.000000;0.000000;0.000000;;
   0.000000;0.000000;0.000000;;

   TextureFilename  {
    "MeiRoofIron1.png";
   }
  }

  Material  {
   1.000000;1.000000;1.000000;1.000000;;
   0.000000;
   0.000000;0.000000;0.000000;;
   0.000000;0.000000;0.000000;;

   TextureFilename  {
    "MeiRoofIron2.png";
   }
  }

  Material  {
   1.000000;1.000000;1.000000;1.000000;;
   0.000000;
   0.000000;0.000000;0.000000;;
   0.000000;0.000000;0.000000;;

   TextureFilename  {
    "MeiRoofIron3.png";
   }
  }
 }

 MeshTextureCoords  {
  120;
  0.000000;1.000000;,
  0.000000;0.000000;,
  5.000000;1.000000;,
  5.000000;0.000000;,
  10.000000;1.000000;,
  10.000000;0.000000;,
  0.000000;1.000000;,
  0.000000;0.000000;,
  5.000000;1.000000;,
  5.000000;0.000000;,
  0.000000;0.900000;,
  0.000000;0.750000;,
  0.000000;0.000000;,
  0.760000;0.900000;,
  0.760000;0.750000;,
  0.760000;0.000000;,
  0.000000;1.000000;,
  0.000000;0.000000;,
  0.760000;1.000000;,
  0.760000;0.000000;,
  0.000000;0.750000;,
  0.000000;0.000000;,
  0.760000;0.750000;,
  0.760000;0.000000;,
  0.000000;1.000000;,
  0.000000;0.000000;,
  0.760000;1.000000;,
  0.760000;0.000000;,
  0.000000;0.000000;,
  0.760000;0.000000;,
  0.000000;1.000000;,
  0.760000;1.000000;,
  0.000000;0.900000;,
  0.000000;0.750000;,
  0.200000;0.950000;,
  0.200000;0.750000;,
  0.300000;0.950000;,
  0.300000;0.750000;,
  0.700000;0.950000;,
  0.700000;0.750000;,
  0.800000;0.950000;,
  0.800000;0.750000;,
  1.000000;0.900000;,
  1.000000;0.750000;,
  0.000000;1.000000;,
  0.000000;0.000000;,
  6.000000;1.000000;,
  6.000000;0.000000;,
  0.000000;1.000000;,
  0.000000;0.000000;,
  4.000000;1.000000;,
  4.000000;0.000000;,
  0.000000;0.750000;,
  0.000000;0.250000;,
  1.000000;0.750000;,
  1.000000;0.250000;,
  0.000000;0.750000;,
  0.000000;0.250000;,
  1.000000;0.750000;,
  1.000000;0.250000;,
  0.000000;1.000000;,
  0.000000;0.000000;,
  1.000000;1.000000;,
  1.000000;0.000000;,
  0.000000;1.000000;,
  0.000000;0.000000;,
  1.000000;1.000000;,
  1.000000;0.000000;,
  0.000000;1.000000;,
  0.000000;0.000000;,
  1.000000;1.000000;,
  1.000000;0.000000;,
  0.000000;1.000000;,
  0.000000;0.000000;,
  1.000000;1.000000;,
  1.000000;0.000000;,
  0.000000;1.000000;,
  0.000000;0.000000;,
  1.000000;1.000000;,
  1.000000;0.000000;,
  0.000000;1.000000;,
  0.000000;0.000000;,
  0.500000;1.000000;,
  0.500000;0.000000;,
  1.000000;1.000000;,
  1.000000;0.000000;,
  0.000000;1.000000;,
  0.000000;0.000000;,
  0.500000;1.000000;,
  0.500000;0.000000;,
  1.000000;1.000000;,
  1.000000;0.000000;,
  0.000000;1.000000;,
  0.000000;0.000000;,
  0.500000;1.000000;,
  0.500000;0.000000;,
  1.000000;1.000000;,
  1.000000;0.000000;,
  0.213000;0.000000;,
  0.000000;0.000000;,
  0.213000;0.100000;,
  0.000000;0.100000;,
  0.213000;0.200000;,
  0.000000;0.200000;,
  0.213000;0.300000;,
  0.000000;0.300000;,
  7.600000;1.000000;,
  7.600000;0.000000;,
  0.000000;1.000000;,
  0.000000;0.000000;,
  0.000000;0.000000;,
  0.100000;0.000000;,
  0.000000;1.000000;,
  0.100000;1.000000;,
  0.200000;1.000000;,
  0.200000;0.000000;,
  0.400000;1.000000;,
  0.300000;1.000000;,
  0.400000;0.000000;,
  0.300000;0.000000;;
 }

 MeshNormals  {
  74;
  0.000000;0.000000;-1.000000;,
  0.000000;0.000000;-1.000000;,
  1.000000;0.000000;0.000000;,
  1.000000;0.000000;0.000000;,
  1.000000;0.000000;0.000000;,
  1.000000;0.000000;0.000000;,
  1.000000;0.000000;0.000000;,
  1.000000;0.000000;0.000000;,
  0.000000;1.000000;0.000000;,
  0.000000;1.000000;0.000000;,
  1.000000;0.000000;0.000000;,
  1.000000;0.000000;0.000000;,
  0.000000;1.000000;0.000000;,
  0.000000;1.000000;0.000000;,
  1.000000;0.000000;0.000000;,
  1.000000;0.000000;0.000000;,
  0.000000;1.000000;0.000000;,
  0.000000;1.000000;0.000000;,
  0.000000;0.000000;-1.000000;,
  0.000000;0.000000;-1.000000;,
  0.000000;0.000000;-1.000000;,
  0.000000;0.000000;-1.000000;,
  0.000000;0.000000;-1.000000;,
  0.000000;0.000000;-1.000000;,
  0.000000;0.000000;-1.000000;,
  0.000000;0.000000;-1.000000;,
  0.000000;0.000000;-1.000000;,
  0.000000;0.000000;-1.000000;,
  1.000000;0.000000;0.000000;,
  1.000000;0.000000;0.000000;,
  0.000000;0.000000;-1.000000;,
  0.000000;0.000000;-1.000000;,
  0.000000;0.000000;-1.000000;,
  0.000000;0.000000;-1.000000;,
  0.000000;0.000000;-1.000000;,
  0.000000;0.000000;-1.000000;,
  0.000000;0.000000;-1.000000;,
  0.000000;0.000000;-1.000000;,
  0.000000;0.000000;-1.000000;,
  0.000000;0.000000;-1.000000;,
  1.000000;0.000000;0.000000;,
  1.000000;0.000000;0.000000;,
  1.000000;0.000000;0.000000;,
  1.000000;0.000000;0.000000;,
  1.000000;0.000000;0.000000;,
  1.000000;0.000000;0.000000;,
  0.000000;0.000000;-1.000000;,
  0.000000;0.000000;-1.000000;,
  0.000000;0.000000;-1.000000;,
  0.000000;0.000000;-1.000000;,
  0.000000;0.000000;-1.000000;,
  0.000000;0.000000;-1.000000;,
  0.000000;0.000000;-1.000000;,
  0.000000;0.000000;-1.000000;,
  0.000000;0.000000;-1.000000;,
  0.000000;0.000000;-1.000000;,
  0.000000;0.000000;-1.000000;,
  0.000000;0.000000;-1.000000;,
  1.000000;0.000000;0.000000;,
  1.000000;0.000000;0.000000;,
  -0.128038;-0.991769;0.000000;,
  -0.128038;-0.991769;0.000000;,
  0.128038;-0.991769;0.000000;,
  0.128038;-0.991769;0.000000;,
  1.000000;0.000000;0.000000;,
  1.000000;0.000000;0.000000;,
  0.000000;0.000000;-1.000000;,
  0.000000;0.000000;-1.000000;,
  0.000000;0.000000;-1.000000;,
  0.000000;0.000000;-1.000000;,
  0.000000;0.000000;-1.000000;,
  0.000000;0.000000;-1.000000;,
  0.000000;0.000000;-1.000000;,
  0.000000;0.000000;-1.000000;;
  74;
  3;0,0,0;,
  3;1,1,1;,
  3;2,2,2;,
  3;3,3,3;,
  3;4,4,4;,
  3;5,5,5;,
  3;6,6,6;,
  3;7,7,7;,
  3;8,8,8;,
  3;9,9,9;,
  3;10,10,10;,
  3;11,11,11;,
  3;12,12,12;,
  3;13,13,13;,
  3;14,14,14;,
  3;15,15,15;,
  3;16,16,16;,
  3;17,17,17;,
  3;18,18,18;,
  3;19,19,19;,
  3;20,20,20;,
  3;21,21,21;,
  3;22,22,22;,
  3;23,23,23;,
  3;24,24,24;,
  3;25,25,25;,
  3;26,26,26;,
  3;27,27,27;,
  3;28,28,28;,
  3;29,29,29;,
  3;30,30,30;,
  3;31,31,31;,
  3;32,32,32;,
  3;33,33,33;,
  3;34,34,34;,
  3;35,35,35;,
  3;36,36,36;,
  3;37,37,37;,
  3;38,38,38;,
  3;39,39,39;,
  3;40,40,40;,
  3;41,41,41;,
  3;42,42,42;,
  3;43,43,43;,
  3;44,44,44;,
  3;45,45,45;,
  3;46,46,46;,
  3;47,47,47;,
  3;48,48,48;,
  3;49,49,49;,
  3;50,50,50;,
  3;51,51,51;,
  3;52,52,52;,
  3;53,53,53;,
  3;54,54,54;,
  3;55,55,55;,
  3;56,56,56;,
  3;57,57,57;,
  3;58,58,58;,
  3;59,59,59;,
  3;60,60,60;,
  3;61,61,61;,
  3;62,62,62;,
  3;63,63,63;,
  3;64,64,64;,
  3;65,65,65;,
  3;66,66,66;,
  3;67,67,67;,
  3;68,68,68;,
  3;69,69,69;,
  3;70,70,70;,
  3;71,71,71;,
  3;72,72,72;,
  3;73,73,73;;
 }
}