xof 0303txt 0032
template Vector {
 <3d82ab5e-62da-11cf-ab39-0020af71e433>
 FLOAT x;
 FLOAT y;
 FLOAT z;
}

template MeshFace {
 <3d82ab5f-62da-11cf-ab39-0020af71e433>
 DWORD nFaceVertexIndices;
 array DWORD faceVertexIndices[nFaceVertexIndices];
}

template Mesh {
 <3d82ab44-62da-11cf-ab39-0020af71e433>
 DWORD nVertices;
 array Vector vertices[nVertices];
 DWORD nFaces;
 array MeshFace faces[nFaces];
 [...]
}

template ColorRGBA {
 <35ff44e0-6c7c-11cf-8f52-0040333594a3>
 FLOAT red;
 FLOAT green;
 FLOAT blue;
 FLOAT alpha;
}

template ColorRGB {
 <d3e16e81-7835-11cf-8f52-0040333594a3>
 FLOAT red;
 FLOAT green;
 FLOAT blue;
}

template Material {
 <3d82ab4d-62da-11cf-ab39-0020af71e433>
 ColorRGBA faceColor;
 FLOAT power;
 ColorRGB specularColor;
 ColorRGB emissiveColor;
 [...]
}

template MeshMaterialList {
 <f6f23f42-7686-11cf-8f52-0040333594a3>
 DWORD nMaterials;
 DWORD nFaceIndexes;
 array DWORD faceIndexes[nFaceIndexes];
 [Material <3d82ab4d-62da-11cf-ab39-0020af71e433>]
}

template TextureFilename {
 <a42790e1-7810-11cf-8f52-0040333594a3>
 STRING filename;
}

template Coords2d {
 <f6f23f44-7686-11cf-8f52-0040333594a3>
 FLOAT u;
 FLOAT v;
}

template MeshTextureCoords {
 <f6f23f40-7686-11cf-8f52-0040333594a3>
 DWORD nTextureCoords;
 array Coords2d textureCoords[nTextureCoords];
}

template MeshNormals {
 <f6f23f43-7686-11cf-8f52-0040333594a3>
 DWORD nNormals;
 array Vector normals[nNormals];
 DWORD nFaceNormals;
 array MeshFace faceNormals[nFaceNormals];
}


Mesh  {
 92;
 -1.500000;1.100000;-0.049600;,
 -2.700000;1.100000;-0.049600;,
 -1.444000;1.100000;4.970100;,
 -2.644000;1.100000;4.970100;,
 -1.416000;1.100000;9.990000;,
 -2.616000;1.100000;9.990000;,
 -1.416000;1.100000;15.010000;,
 -2.616000;1.100000;15.010000;,
 -1.444000;1.100000;20.029900;,
 -2.644000;1.100000;20.029900;,
 -1.500000;1.100000;25.049601;,
 -2.700000;1.100000;25.049601;,
 -8.211100;0.850000;0.000000;,
 -8.211100;1.100000;0.000000;,
 -7.011100;1.100000;0.000000;,
 -6.911500;0.850000;25.000000;,
 -6.911500;1.100000;25.000000;,
 -5.711500;1.100000;25.000000;,
 -7.511100;-0.450000;0.000000;,
 -7.511100;0.850000;0.000000;,
 -6.211500;-0.450000;25.000000;,
 -6.211500;0.850000;25.000000;,
 -2.700000;1.100000;-0.049600;,
 -2.644000;1.100000;4.970100;,
 -2.616000;1.100000;9.990000;,
 -2.616000;1.100000;15.010000;,
 -2.644000;1.100000;20.029900;,
 -2.700000;1.100000;25.049601;,
 -7.011100;1.100000;0.000000;,
 -5.711500;1.100000;25.000000;,
 -4.286300;1.100000;10.000000;,
 -4.286300;5.000000;10.000000;,
 -5.086300;1.100000;10.000000;,
 -5.086300;5.000000;10.000000;,
 -3.962000;5.000000;-7.000000;,
 -3.472280;5.000000;10.500000;,
 -6.362000;5.000000;-7.000000;,
 -5.872280;5.000000;10.500000;,
 -6.362000;5.000000;-7.000000;,
 -6.362000;5.800000;-7.000000;,
 -5.872280;5.000000;10.500000;,
 -5.872280;5.800000;10.500000;,
 -1.500000;5.800000;-0.049600;,
 -1.444000;5.800000;4.970100;,
 -1.416000;5.800000;9.990000;,
 -1.416000;5.800000;10.500000;,
 -8.211100;5.800000;0.000000;,
 -7.665300;5.800000;10.500000;,
 -8.211100;5.800000;0.000000;,
 -8.211100;6.000000;0.000000;,
 -7.665300;5.800000;10.500000;,
 -7.665300;6.000000;10.500000;,
 -4.286300;5.800000;10.000000;,
 -4.286300;7.500000;10.000000;,
 -5.086300;5.800000;10.000000;,
 -5.086300;7.500000;10.000000;,
 -4.995500;6.700000;0.000000;,
 -4.995500;7.500000;0.000000;,
 -4.712200;6.700000;10.500000;,
 -4.712200;7.500000;10.500000;,
 -2.566100;7.100000;0.000000;,
 -2.566100;7.500000;0.000000;,
 -2.020300;7.100000;10.500000;,
 -2.020300;7.500000;10.500000;,
 -6.566100;7.100000;0.000000;,
 -6.566100;7.500000;0.000000;,
 -6.020300;7.100000;10.500000;,
 -6.020300;7.500000;10.500000;,
 -2.469100;5.800000;0.250000;,
 -2.469100;7.500000;0.250000;,
 -6.637100;5.800000;0.250000;,
 -6.637100;7.500000;0.250000;,
 -2.300200;5.800000;3.500000;,
 -2.300200;7.500000;3.500000;,
 -6.468200;5.800000;3.500000;,
 -6.468200;7.500000;3.500000;,
 -2.131200;5.800000;6.750000;,
 -2.131200;7.500000;6.750000;,
 -6.299200;5.800000;6.750000;,
 -6.299200;7.500000;6.750000;,
 -1.962300;5.800000;10.000000;,
 -1.962300;7.500000;10.000000;,
 -6.130300;5.800000;10.000000;,
 -6.130300;7.500000;10.000000;,
 -4.150000;1.100000;14.000000;,
 -4.150000;3.040000;14.000000;,
 -4.072000;1.100000;15.500000;,
 -4.072000;3.040000;15.500000;,
 -3.850000;1.100000;20.500000;,
 -3.850000;5.500000;20.500000;,
 -5.050000;1.100000;20.500000;,
 -5.050000;5.500000;20.500000;;
 54;
 3;0,1,3;,
 3;0,3,2;,
 3;2,3,5;,
 3;2,5,4;,
 3;4,5,7;,
 3;4,7,6;,
 3;6,7,9;,
 3;6,9,8;,
 3;8,9,11;,
 3;8,11,10;,
 3;15,16,13;,
 3;15,13,12;,
 3;16,17,14;,
 3;16,14,13;,
 3;20,21,19;,
 3;20,19,18;,
 3;28,29,27;,
 3;28,27,26;,
 3;28,26,25;,
 3;28,25,24;,
 3;28,24,23;,
 3;28,23,22;,
 3;32,33,31;,
 3;32,31,30;,
 3;34,35,37;,
 3;34,37,36;,
 3;40,41,39;,
 3;40,39,38;,
 3;42,43,44;,
 3;42,44,45;,
 3;42,45,47;,
 3;42,47,46;,
 3;50,51,49;,
 3;50,49,48;,
 3;54,55,53;,
 3;54,53,52;,
 3;58,59,57;,
 3;58,57,56;,
 3;62,63,61;,
 3;62,61,60;,
 3;66,67,65;,
 3;66,65,64;,
 3;70,71,69;,
 3;70,69,68;,
 3;74,75,73;,
 3;74,73,72;,
 3;78,79,77;,
 3;78,77,76;,
 3;82,83,81;,
 3;82,81,80;,
 3;86,87,85;,
 3;86,85,84;,
 3;90,91,89;,
 3;90,89,88;;

 MeshMaterialList  {
  19;
  54;
  0,
  0,
  0,
  0,
  0,
  0,
  0,
  0,
  0,
  0,
  1,
  1,
  1,
  1,
  2,
  2,
  3,
  3,
  3,
  3,
  3,
  3,
  4,
  4,
  5,
  5,
  6,
  6,
  7,
  7,
  7,
  7,
  8,
  8,
  9,
  9,
  10,
  10,
  11,
  11,
  12,
  12,
  13,
  13,
  14,
  14,
  15,
  15,
  16,
  16,
  17,
  17,
  18,
  18;

  Material  {
   1.000000;1.000000;1.000000;1.000000;;
   0.000000;
   0.000000;0.000000;0.000000;;
   0.000000;0.000000;0.000000;;

   TextureFilename  {
    "FormSide1.png";
   }
  }

  Material  {
   1.000000;1.000000;1.000000;1.000000;;
   0.000000;
   0.000000;0.000000;0.000000;;
   0.000000;0.000000;0.000000;;

   TextureFilename  {
    "FormSide1.png";
   }
  }

  Material  {
   1.000000;1.000000;1.000000;1.000000;;
   0.000000;
   0.000000;0.000000;0.000000;;
   0.000000;0.000000;0.000000;;

   TextureFilename  {
    "FormSide2.png";
   }
  }

  Material  {
   1.000000;1.000000;1.000000;1.000000;;
   0.000000;
   0.000000;0.000000;0.000000;;
   0.000000;0.000000;0.000000;;

   TextureFilename  {
    "FormC.png";
   }
  }

  Material  {
   1.000000;1.000000;1.000000;1.000000;;
   0.000000;
   0.000000;0.000000;0.000000;;
   0.000000;0.000000;0.000000;;

   TextureFilename  {
    "RoofPier1.png";
   }
  }

  Material  {
   1.000000;1.000000;1.000000;1.000000;;
   0.000000;
   0.000000;0.000000;0.000000;;
   0.000000;0.000000;0.000000;;

   TextureFilename  {
    "RoofPlate1.png";
   }
  }

  Material  {
   1.000000;1.000000;1.000000;1.000000;;
   0.000000;
   0.000000;0.000000;0.000000;;
   0.000000;0.000000;0.000000;;

   TextureFilename  {
    "RoofSide1.png";
   }
  }

  Material  {
   1.000000;1.000000;1.000000;1.000000;;
   0.000000;
   0.000000;0.000000;0.000000;;
   0.000000;0.000000;0.000000;;

   TextureFilename  {
    "RoofPlate2.png";
   }
  }

  Material  {
   1.000000;1.000000;1.000000;1.000000;;
   0.000000;
   0.000000;0.000000;0.000000;;
   0.000000;0.000000;0.000000;;

   TextureFilename  {
    "RoofSide2.png";
   }
  }

  Material  {
   1.000000;1.000000;1.000000;1.000000;;
   0.000000;
   0.000000;0.000000;0.000000;;
   0.000000;0.000000;0.000000;;

   TextureFilename  {
    "Pole_Iron1.png";
   }
  }

  Material  {
   1.000000;1.000000;1.000000;1.000000;;
   0.000000;
   0.000000;0.000000;0.000000;;
   0.000000;0.000000;0.000000;;

   TextureFilename  {
    "Iron1.png";
   }
  }

  Material  {
   1.000000;1.000000;1.000000;1.000000;;
   0.000000;
   0.000000;0.000000;0.000000;;
   0.000000;0.000000;0.000000;;

   TextureFilename  {
    "Iron1.png";
   }
  }

  Material  {
   1.000000;1.000000;1.000000;1.000000;;
   0.000000;
   0.000000;0.000000;0.000000;;
   0.000000;0.000000;0.000000;;

   TextureFilename  {
    "Iron1.png";
   }
  }

  Material  {
   1.000000;1.000000;1.000000;1.000000;;
   0.000000;
   0.000000;0.000000;0.000000;;
   0.000000;0.000000;0.000000;;

   TextureFilename  {
    "Iron3.png";
   }
  }

  Material  {
   1.000000;1.000000;1.000000;1.000000;;
   0.000000;
   0.000000;0.000000;0.000000;;
   0.000000;0.000000;0.000000;;

   TextureFilename  {
    "Iron3.png";
   }
  }

  Material  {
   1.000000;1.000000;1.000000;1.000000;;
   0.000000;
   0.000000;0.000000;0.000000;;
   0.000000;0.000000;0.000000;;

   TextureFilename  {
    "Iron3.png";
   }
  }

  Material  {
   1.000000;1.000000;1.000000;1.000000;;
   0.000000;
   0.000000;0.000000;0.000000;;
   0.000000;0.000000;0.000000;;

   TextureFilename  {
    "Iron3.png";
   }
  }

  Material  {
   1.000000;1.000000;1.000000;1.000000;;
   0.000000;
   0.000000;0.000000;0.000000;;
   0.000000;0.000000;0.000000;;

   TextureFilename  {
    "Ekimei2.png";
   }
  }

  Material  {
   1.000000;1.000000;1.000000;1.000000;;
   0.000000;
   0.000000;0.000000;0.000000;;
   0.000000;0.000000;0.000000;;

   TextureFilename  {
    "Light1.png";
   }
  }
 }

 MeshTextureCoords  {
  92;
  0.000000;0.440000;,
  0.000000;0.000000;,
  1.000000;0.440000;,
  1.000000;0.000000;,
  2.000000;0.440000;,
  2.000000;0.000000;,
  3.000000;0.440000;,
  3.000000;0.000000;,
  4.000000;0.440000;,
  4.000000;0.000000;,
  5.000000;0.440000;,
  5.000000;0.000000;,
  0.000000;1.000000;,
  0.000000;0.440000;,
  0.000000;0.000000;,
  5.000000;1.000000;,
  5.000000;0.440000;,
  5.000000;0.000000;,
  0.600000;1.000000;,
  0.600000;0.000000;,
  0.900000;1.000000;,
  0.900000;0.000000;,
  1.000000;0.000000;,
  1.000000;0.500000;,
  1.000000;1.000000;,
  1.000000;1.500000;,
  1.000000;2.000000;,
  1.000000;2.500000;,
  0.000000;0.000000;,
  0.000000;2.500000;,
  0.000000;0.950000;,
  0.000000;0.100000;,
  1.000000;0.950000;,
  1.000000;0.100000;,
  0.000000;0.184000;,
  0.000000;2.704000;,
  0.100000;0.184000;,
  0.100000;2.704000;,
  0.000000;1.000000;,
  0.000000;0.000000;,
  0.100000;1.000000;,
  0.100000;0.000000;,
  0.000000;0.000000;,
  0.000000;0.600000;,
  0.000000;1.200000;,
  0.000000;1.272000;,
  0.100000;0.000000;,
  0.100000;1.272000;,
  0.000000;1.000000;,
  0.000000;0.000000;,
  0.100000;1.000000;,
  0.100000;0.000000;,
  1.000000;1.000000;,
  0.000000;1.000000;,
  1.000000;0.000000;,
  0.000000;0.000000;,
  0.000000;1.000000;,
  0.000000;0.000000;,
  0.100000;1.000000;,
  0.100000;0.000000;,
  0.000000;1.000000;,
  0.000000;0.000000;,
  0.100000;1.000000;,
  0.100000;0.000000;,
  0.000000;1.000000;,
  0.000000;0.000000;,
  0.100000;1.000000;,
  0.100000;0.000000;,
  0.990000;1.000000;,
  0.990000;0.000000;,
  0.010000;1.000000;,
  0.010000;0.000000;,
  0.990000;1.000000;,
  0.990000;0.000000;,
  0.010000;1.000000;,
  0.010000;0.000000;,
  0.990000;1.000000;,
  0.990000;0.000000;,
  0.010000;1.000000;,
  0.010000;0.000000;,
  0.990000;1.000000;,
  0.990000;0.000000;,
  0.010000;1.000000;,
  0.010000;0.000000;,
  0.000000;1.000000;,
  0.000000;0.000000;,
  1.000000;1.000000;,
  1.000000;0.000000;,
  0.000000;1.000000;,
  0.000000;0.000000;,
  1.000000;1.000000;,
  1.000000;0.000000;;
 }

 MeshNormals  {
  54;
  0.000000;1.000000;0.000000;,
  0.000000;1.000000;0.000000;,
  0.000000;1.000000;0.000000;,
  0.000000;1.000000;0.000000;,
  0.000000;1.000000;0.000000;,
  0.000000;1.000000;0.000000;,
  0.000000;1.000000;0.000000;,
  0.000000;1.000000;0.000000;,
  0.000000;1.000000;0.000000;,
  0.000000;1.000000;0.000000;,
  -0.998652;0.000000;0.051914;,
  -0.998652;0.000000;0.051914;,
  0.000000;1.000000;0.000000;,
  0.000000;1.000000;0.000000;,
  -0.998652;0.000000;0.051914;,
  -0.998652;0.000000;0.051914;,
  0.000000;1.000000;0.000000;,
  0.000000;1.000000;0.000000;,
  0.000000;1.000000;0.000000;,
  0.000000;1.000000;0.000000;,
  0.000000;1.000000;0.000000;,
  0.000000;1.000000;0.000000;,
  0.000000;0.000000;-1.000000;,
  0.000000;0.000000;-1.000000;,
  0.000000;-1.000000;0.000000;,
  0.000000;-1.000000;0.000000;,
  -0.999609;0.000000;0.027973;,
  -0.999609;0.000000;0.027973;,
  0.000000;-1.000000;0.000000;,
  0.000000;-1.000000;0.000000;,
  0.000000;-1.000000;0.000000;,
  0.000000;-1.000000;0.000000;,
  -0.998652;0.000000;0.051911;,
  -0.998652;0.000000;0.051911;,
  0.000000;0.000000;-1.000000;,
  0.000000;0.000000;-1.000000;,
  -0.999636;0.000000;0.026971;,
  -0.999636;0.000000;0.026971;,
  -0.998652;0.000000;0.051911;,
  -0.998652;0.000000;0.051911;,
  -0.998652;0.000000;0.051911;,
  -0.998652;0.000000;0.051911;,
  0.000000;0.000000;-1.000000;,
  0.000000;0.000000;-1.000000;,
  0.000000;0.000000;-1.000000;,
  0.000000;0.000000;-1.000000;,
  0.000000;0.000000;-1.000000;,
  0.000000;0.000000;-1.000000;,
  0.000000;0.000000;-1.000000;,
  0.000000;0.000000;-1.000000;,
  -0.998651;0.000000;0.051930;,
  -0.998651;0.000000;0.051930;,
  0.000000;0.000000;-1.000000;,
  0.000000;0.000000;-1.000000;;
  54;
  3;0,0,0;,
  3;1,1,1;,
  3;2,2,2;,
  3;3,3,3;,
  3;4,4,4;,
  3;5,5,5;,
  3;6,6,6;,
  3;7,7,7;,
  3;8,8,8;,
  3;9,9,9;,
  3;10,10,10;,
  3;11,11,11;,
  3;12,12,12;,
  3;13,13,13;,
  3;14,14,14;,
  3;15,15,15;,
  3;16,16,16;,
  3;17,17,17;,
  3;18,18,18;,
  3;19,19,19;,
  3;20,20,20;,
  3;21,21,21;,
  3;22,22,22;,
  3;23,23,23;,
  3;24,24,24;,
  3;25,25,25;,
  3;26,26,26;,
  3;27,27,27;,
  3;28,28,28;,
  3;29,29,29;,
  3;30,30,30;,
  3;31,31,31;,
  3;32,32,32;,
  3;33,33,33;,
  3;34,34,34;,
  3;35,35,35;,
  3;36,36,36;,
  3;37,37,37;,
  3;38,38,38;,
  3;39,39,39;,
  3;40,40,40;,
  3;41,41,41;,
  3;42,42,42;,
  3;43,43,43;,
  3;44,44,44;,
  3;45,45,45;,
  3;46,46,46;,
  3;47,47,47;,
  3;48,48,48;,
  3;49,49,49;,
  3;50,50,50;,
  3;51,51,51;,
  3;52,52,52;,
  3;53,53,53;;
 }
}