xof 0303txt 0032
template Vector {
 <3d82ab5e-62da-11cf-ab39-0020af71e433>
 FLOAT x;
 FLOAT y;
 FLOAT z;
}

template MeshFace {
 <3d82ab5f-62da-11cf-ab39-0020af71e433>
 DWORD nFaceVertexIndices;
 array DWORD faceVertexIndices[nFaceVertexIndices];
}

template Mesh {
 <3d82ab44-62da-11cf-ab39-0020af71e433>
 DWORD nVertices;
 array Vector vertices[nVertices];
 DWORD nFaces;
 array MeshFace faces[nFaces];
 [...]
}

template ColorRGBA {
 <35ff44e0-6c7c-11cf-8f52-0040333594a3>
 FLOAT red;
 FLOAT green;
 FLOAT blue;
 FLOAT alpha;
}

template ColorRGB {
 <d3e16e81-7835-11cf-8f52-0040333594a3>
 FLOAT red;
 FLOAT green;
 FLOAT blue;
}

template Material {
 <3d82ab4d-62da-11cf-ab39-0020af71e433>
 ColorRGBA faceColor;
 FLOAT power;
 ColorRGB specularColor;
 ColorRGB emissiveColor;
 [...]
}

template MeshMaterialList {
 <f6f23f42-7686-11cf-8f52-0040333594a3>
 DWORD nMaterials;
 DWORD nFaceIndexes;
 array DWORD faceIndexes[nFaceIndexes];
 [Material <3d82ab4d-62da-11cf-ab39-0020af71e433>]
}

template TextureFilename {
 <a42790e1-7810-11cf-8f52-0040333594a3>
 STRING filename;
}

template Coords2d {
 <f6f23f44-7686-11cf-8f52-0040333594a3>
 FLOAT u;
 FLOAT v;
}

template MeshTextureCoords {
 <f6f23f40-7686-11cf-8f52-0040333594a3>
 DWORD nTextureCoords;
 array Coords2d textureCoords[nTextureCoords];
}

template MeshNormals {
 <f6f23f43-7686-11cf-8f52-0040333594a3>
 DWORD nNormals;
 array Vector normals[nNormals];
 DWORD nFaceNormals;
 array MeshFace faceNormals[nFaceNormals];
}


Mesh  {
 35;
 -1.500000;0.850000;-0.260000;,
 -1.500000;1.100000;-0.260000;,
 -2.700000;1.100000;-0.260000;,
 -1.500000;0.850000;20.000000;,
 -1.500000;1.100000;20.000000;,
 -2.700000;1.100000;20.000000;,
 -2.400000;-0.450000;-0.250000;,
 -2.400000;0.850000;-0.250000;,
 -2.400000;-0.450000;20.000000;,
 -2.400000;0.850000;20.000000;,
 -6.840991;1.100000;-0.048400;,
 -5.640992;1.100000;-0.048400;,
 -6.362801;1.100000;4.970400;,
 -5.162801;1.100000;4.970400;,
 -5.828516;1.100000;9.990000;,
 -4.628516;1.100000;9.990000;,
 -5.238184;1.100000;15.010000;,
 -4.038184;1.100000;15.010000;,
 -4.591899;1.100000;20.029600;,
 -3.391899;1.100000;20.029600;,
 -2.700000;1.100000;-0.260000;,
 -2.700000;1.100000;20.000000;,
 -5.640992;1.100000;-0.048400;,
 -5.162801;1.100000;4.970400;,
 -4.628516;1.100000;9.990000;,
 -4.038184;1.100000;15.010000;,
 -3.391899;1.100000;20.029600;,
 -3.500000;1.100000;0.000000;,
 -3.500000;4.200000;0.000000;,
 -2.700000;1.100000;0.000000;,
 -2.700000;4.200000;0.000000;,
 -3.991899;1.100000;19.829599;,
 -3.991899;2.300000;19.829599;,
 -2.100000;1.100000;19.799999;,
 -2.100000;2.300000;19.799999;;
 23;
 3;0,1,4;,
 3;0,4,3;,
 3;1,2,5;,
 3;1,5,4;,
 3;6,7,9;,
 3;6,9,8;,
 3;12,13,11;,
 3;12,11,10;,
 3;14,15,13;,
 3;14,13,12;,
 3;16,17,15;,
 3;16,15,14;,
 3;18,19,17;,
 3;18,17,16;,
 3;21,20,22;,
 3;21,22,23;,
 3;21,23,24;,
 3;21,24,25;,
 3;21,25,26;,
 3;27,28,30;,
 3;27,30,29;,
 3;31,32,34;,
 3;31,34,33;;

 MeshMaterialList  {
  6;
  23;
  0,
  0,
  0,
  0,
  1,
  1,
  2,
  2,
  2,
  2,
  2,
  2,
  2,
  2,
  3,
  3,
  3,
  3,
  3,
  4,
  4,
  5,
  5;

  Material  {
   1.000000;1.000000;1.000000;1.000000;;
   0.000000;
   0.000000;0.000000;0.000000;;
   0.000000;0.000000;0.000000;;

   TextureFilename  {
    "FormSide4.png";
   }
  }

  Material  {
   1.000000;1.000000;1.000000;1.000000;;
   0.000000;
   0.000000;0.000000;0.000000;;
   0.000000;0.000000;0.000000;;

   TextureFilename  {
    "FormSide5.png";
   }
  }

  Material  {
   1.000000;1.000000;1.000000;1.000000;;
   0.000000;
   0.000000;0.000000;0.000000;;
   0.000000;0.000000;0.000000;;

   TextureFilename  {
    "FormSide4.png";
   }
  }

  Material  {
   1.000000;1.000000;1.000000;1.000000;;
   0.000000;
   0.000000;0.000000;0.000000;;
   0.000000;0.000000;0.000000;;

   TextureFilename  {
    "FormC3.png";
   }
  }

  Material  {
   1.000000;1.000000;1.000000;1.000000;;
   0.000000;
   0.000000;0.000000;0.000000;;
   0.000000;0.000000;0.000000;;

   TextureFilename  {
    "MeiMirror.png";
   }
  }

  Material  {
   1.000000;1.000000;1.000000;1.000000;;
   0.000000;
   0.000000;0.000000;0.000000;;
   0.000000;0.000000;0.000000;;

   TextureFilename  {
    "MeiSaku1.png";
   }
  }
 }

 MeshTextureCoords  {
  35;
  0.000000;1.000000;,
  0.000000;0.750000;,
  0.000000;0.000000;,
  1.000000;1.000000;,
  1.000000;0.750000;,
  1.000000;0.000000;,
  0.000000;1.000000;,
  0.000000;0.000000;,
  1.000000;1.000000;,
  1.000000;0.000000;,
  0.000000;0.750000;,
  0.000000;0.000000;,
  0.200000;0.750000;,
  0.200000;0.000000;,
  0.400000;0.750000;,
  0.400000;0.000000;,
  0.600000;0.750000;,
  0.600000;0.000000;,
  0.800000;0.750000;,
  0.800000;0.000000;,
  0.000000;0.000000;,
  1.000000;0.000000;,
  0.000000;1.000000;,
  0.200000;1.000000;,
  0.400000;1.000000;,
  0.600000;1.000000;,
  0.800000;1.000000;,
  0.000000;1.000000;,
  0.000000;0.000000;,
  1.000000;1.000000;,
  1.000000;0.000000;,
  0.000000;1.000000;,
  0.000000;0.000000;,
  1.000000;1.000000;,
  1.000000;0.000000;;
 }

 MeshNormals  {
  23;
  1.000000;0.000000;0.000000;,
  1.000000;0.000000;0.000000;,
  0.000000;1.000000;0.000000;,
  0.000000;1.000000;0.000000;,
  1.000000;0.000000;0.000000;,
  1.000000;0.000000;0.000000;,
  0.000000;1.000000;0.000000;,
  0.000000;1.000000;0.000000;,
  0.000000;1.000000;0.000000;,
  0.000000;1.000000;0.000000;,
  0.000000;1.000000;0.000000;,
  0.000000;1.000000;0.000000;,
  0.000000;1.000000;0.000000;,
  0.000000;1.000000;0.000000;,
  0.000000;1.000000;0.000000;,
  0.000000;1.000000;0.000000;,
  0.000000;1.000000;0.000000;,
  0.000000;1.000000;0.000000;,
  0.000000;1.000000;0.000000;,
  0.000000;0.000000;-1.000000;,
  0.000000;0.000000;-1.000000;,
  -0.015644;0.000000;-0.999878;,
  -0.015644;0.000000;-0.999878;;
  23;
  3;0,0,0;,
  3;1,1,1;,
  3;2,2,2;,
  3;3,3,3;,
  3;4,4,4;,
  3;5,5,5;,
  3;6,6,6;,
  3;7,7,7;,
  3;8,8,8;,
  3;9,9,9;,
  3;10,10,10;,
  3;11,11,11;,
  3;12,12,12;,
  3;13,13,13;,
  3;14,14,14;,
  3;15,15,15;,
  3;16,16,16;,
  3;17,17,17;,
  3;18,18,18;,
  3;19,19,19;,
  3;20,20,20;,
  3;21,21,21;,
  3;22,22,22;;
 }
}