xof 0303txt 0032
template Vector {
 <3d82ab5e-62da-11cf-ab39-0020af71e433>
 FLOAT x;
 FLOAT y;
 FLOAT z;
}

template MeshFace {
 <3d82ab5f-62da-11cf-ab39-0020af71e433>
 DWORD nFaceVertexIndices;
 array DWORD faceVertexIndices[nFaceVertexIndices];
}

template Mesh {
 <3d82ab44-62da-11cf-ab39-0020af71e433>
 DWORD nVertices;
 array Vector vertices[nVertices];
 DWORD nFaces;
 array MeshFace faces[nFaces];
 [...]
}

template ColorRGBA {
 <35ff44e0-6c7c-11cf-8f52-0040333594a3>
 FLOAT red;
 FLOAT green;
 FLOAT blue;
 FLOAT alpha;
}

template ColorRGB {
 <d3e16e81-7835-11cf-8f52-0040333594a3>
 FLOAT red;
 FLOAT green;
 FLOAT blue;
}

template Material {
 <3d82ab4d-62da-11cf-ab39-0020af71e433>
 ColorRGBA faceColor;
 FLOAT power;
 ColorRGB specularColor;
 ColorRGB emissiveColor;
 [...]
}

template MeshMaterialList {
 <f6f23f42-7686-11cf-8f52-0040333594a3>
 DWORD nMaterials;
 DWORD nFaceIndexes;
 array DWORD faceIndexes[nFaceIndexes];
 [Material <3d82ab4d-62da-11cf-ab39-0020af71e433>]
}

template TextureFilename {
 <a42790e1-7810-11cf-8f52-0040333594a3>
 STRING filename;
}

template Coords2d {
 <f6f23f44-7686-11cf-8f52-0040333594a3>
 FLOAT u;
 FLOAT v;
}

template MeshTextureCoords {
 <f6f23f40-7686-11cf-8f52-0040333594a3>
 DWORD nTextureCoords;
 array Coords2d textureCoords[nTextureCoords];
}

template MeshNormals {
 <f6f23f43-7686-11cf-8f52-0040333594a3>
 DWORD nNormals;
 array Vector normals[nNormals];
 DWORD nFaceNormals;
 array MeshFace faceNormals[nFaceNormals];
}


Mesh  {
 68;
 -1.500000;1.100000;-0.049900;,
 -2.700000;1.100000;-0.049900;,
 -1.479400;1.100000;4.970000;,
 -2.679400;1.100000;4.970000;,
 -1.469100;1.100000;9.990000;,
 -2.669100;1.100000;9.990000;,
 -1.469100;1.100000;15.010000;,
 -2.669100;1.100000;15.010000;,
 -6.916900;0.850000;0.000000;,
 -6.916900;1.100000;0.000000;,
 -5.716900;1.100000;0.000000;,
 -5.866800;0.850000;15.000000;,
 -5.866800;1.100000;15.000000;,
 -4.666800;1.100000;15.000000;,
 -6.216900;-0.450000;0.000000;,
 -6.216900;0.850000;0.000000;,
 -4.956800;-0.450000;18.000000;,
 -4.956800;0.850000;18.000000;,
 -2.700000;1.100000;-0.049900;,
 -2.679400;1.100000;4.970000;,
 -2.669100;1.100000;9.990000;,
 -2.669100;1.100000;15.010000;,
 -5.716900;1.100000;0.000000;,
 -4.666800;1.100000;15.000000;,
 -5.566800;0.850000;15.000000;,
 -5.566800;1.100000;15.000000;,
 -5.356800;0.850000;18.000000;,
 -5.356800;1.100000;18.000000;,
 -1.800000;1.100000;15.000000;,
 -1.800000;1.100000;18.000000;,
 -5.566800;1.100000;15.000000;,
 -5.356800;1.100000;18.000000;,
 -5.452600;-0.287000;18.000000;,
 -6.712500;-0.287000;0.000000;,
 -5.452600;0.000000;18.000000;,
 -6.712500;0.000000;0.000000;,
 -4.952600;-0.287000;18.000000;,
 -6.212500;-0.287000;0.000000;,
 -4.952600;0.000000;18.000000;,
 -4.952600;-0.287000;18.000000;,
 -4.000700;-0.925000;20.945000;,
 -4.000700;0.475000;20.945000;,
 -4.206800;0.775000;18.000000;,
 -4.206800;2.175000;18.000000;,
 -2.700700;-0.925000;20.945000;,
 -2.700700;0.475000;20.945000;,
 -2.906800;0.775000;18.000000;,
 -2.906800;2.175000;18.000000;,
 -1.850000;1.100000;15.050000;,
 -1.850000;2.300000;15.050000;,
 -1.850000;1.100000;17.950001;,
 -1.850000;2.300000;17.950001;,
 -5.306800;1.100000;17.950001;,
 -5.306800;2.300000;17.950001;,
 -5.516800;1.100000;15.050000;,
 -5.516800;2.300000;15.050000;,
 -1.850000;1.100000;15.050000;,
 -1.850000;2.300000;15.050000;,
 -1.850000;1.100000;17.950001;,
 -1.850000;2.300000;17.950001;,
 -5.306800;1.100000;17.950001;,
 -5.306800;2.300000;17.950001;,
 -5.516800;1.100000;15.050000;,
 -5.516800;2.300000;15.050000;,
 -3.400000;1.100000;2.500000;,
 -3.400000;5.500000;2.500000;,
 -4.600000;1.100000;2.500000;,
 -4.600000;5.500000;2.500000;;
 50;
 3;0,1,3;,
 3;0,3,2;,
 3;2,3,5;,
 3;2,5,4;,
 3;4,5,7;,
 3;4,7,6;,
 3;11,12,9;,
 3;11,9,8;,
 3;12,13,10;,
 3;12,10,9;,
 3;16,17,15;,
 3;16,15,14;,
 3;22,23,21;,
 3;22,21,20;,
 3;22,20,19;,
 3;22,19,18;,
 3;26,27,25;,
 3;26,25,24;,
 3;30,31,29;,
 3;30,29,28;,
 3;32,33,35;,
 3;32,35,34;,
 3;34,35,33;,
 3;34,33,32;,
 3;36,37,33;,
 3;36,33,32;,
 3;32,34,38;,
 3;32,38,39;,
 3;40,41,43;,
 3;40,43,42;,
 3;44,45,47;,
 3;44,47,46;,
 3;50,51,49;,
 3;50,49,48;,
 3;52,53,51;,
 3;52,51,50;,
 3;52,53,55;,
 3;52,55,54;,
 3;54,55,49;,
 3;54,49,48;,
 3;58,59,57;,
 3;58,57,56;,
 3;60,61,59;,
 3;60,59,58;,
 3;60,61,63;,
 3;60,63,62;,
 3;62,63,57;,
 3;62,57,56;,
 3;66,67,65;,
 3;66,65,64;;

 MeshMaterialList  {
  12;
  50;
  0,
  0,
  0,
  0,
  0,
  0,
  1,
  1,
  1,
  1,
  2,
  2,
  3,
  3,
  3,
  3,
  4,
  4,
  5,
  5,
  6,
  6,
  6,
  6,
  6,
  6,
  6,
  6,
  7,
  7,
  8,
  8,
  9,
  9,
  9,
  9,
  9,
  9,
  9,
  9,
  10,
  10,
  10,
  10,
  10,
  10,
  10,
  10,
  11,
  11;

  Material  {
   1.000000;1.000000;1.000000;1.000000;;
   0.000000;
   0.000000;0.000000;0.000000;;
   0.000000;0.000000;0.000000;;

   TextureFilename  {
    "FormSide1.png";
   }
  }

  Material  {
   1.000000;1.000000;1.000000;1.000000;;
   0.000000;
   0.000000;0.000000;0.000000;;
   0.000000;0.000000;0.000000;;

   TextureFilename  {
    "FormSide1.png";
   }
  }

  Material  {
   1.000000;1.000000;1.000000;1.000000;;
   0.000000;
   0.000000;0.000000;0.000000;;
   0.000000;0.000000;0.000000;;

   TextureFilename  {
    "FormSide2.png";
   }
  }

  Material  {
   1.000000;1.000000;1.000000;1.000000;;
   0.000000;
   0.000000;0.000000;0.000000;;
   0.000000;0.000000;0.000000;;

   TextureFilename  {
    "FormC.png";
   }
  }

  Material  {
   1.000000;1.000000;1.000000;1.000000;;
   0.000000;
   0.000000;0.000000;0.000000;;
   0.000000;0.000000;0.000000;;

   TextureFilename  {
    "FormSide3.png";
   }
  }

  Material  {
   1.000000;1.000000;1.000000;1.000000;;
   0.000000;
   0.000000;0.000000;0.000000;;
   0.000000;0.000000;0.000000;;

   TextureFilename  {
    "FormC2.png";
   }
  }

  Material  {
   1.000000;1.000000;1.000000;1.000000;;
   0.000000;
   0.000000;0.000000;0.000000;;
   0.000000;0.000000;0.000000;;

   TextureFilename  {
    "Concrete.png";
   }
  }

  Material  {
   1.000000;1.000000;1.000000;1.000000;;
   0.000000;
   0.000000;0.000000;0.000000;;
   0.000000;0.000000;0.000000;;

   TextureFilename  {
    "Kaidan1.png";
   }
  }

  Material  {
   1.000000;1.000000;1.000000;1.000000;;
   0.000000;
   0.000000;0.000000;0.000000;;
   0.000000;0.000000;0.000000;;

   TextureFilename  {
    "Kaidan1.png";
   }
  }

  Material  {
   1.000000;1.000000;1.000000;1.000000;;
   0.000000;
   0.000000;0.000000;0.000000;;
   0.000000;0.000000;0.000000;;

   TextureFilename  {
    "Saku1.png";
   }
  }

  Material  {
   0.250980;0.250980;0.250980;0.250980;;
   0.000000;
   0.000000;0.000000;0.000000;;
   0.000000;0.000000;0.000000;;
  }

  Material  {
   1.000000;1.000000;1.000000;1.000000;;
   0.000000;
   0.000000;0.000000;0.000000;;
   0.000000;0.000000;0.000000;;

   TextureFilename  {
    "Light1.png";
   }
  }
 }

 MeshTextureCoords  {
  68;
  0.000000;0.440000;,
  0.000000;0.000000;,
  1.000000;0.440000;,
  1.000000;0.000000;,
  2.000000;0.440000;,
  2.000000;0.000000;,
  3.000000;0.440000;,
  3.000000;0.000000;,
  0.000000;1.000000;,
  0.000000;0.440000;,
  0.000000;0.000000;,
  3.000000;1.000000;,
  3.000000;0.440000;,
  3.000000;0.000000;,
  0.600000;1.000000;,
  0.600000;0.000000;,
  0.900000;1.000000;,
  0.900000;0.000000;,
  1.000000;0.000000;,
  1.000000;0.500000;,
  1.000000;1.000000;,
  1.000000;1.500000;,
  0.000000;0.000000;,
  0.000000;0.500000;,
  0.000000;0.970000;,
  0.000000;0.030000;,
  0.100000;0.970000;,
  0.100000;0.030000;,
  0.000000;1.000000;,
  0.000000;0.000000;,
  1.000000;1.000000;,
  1.000000;0.000000;,
  0.500000;0.950000;,
  0.900000;0.950000;,
  0.400000;0.000000;,
  0.900000;0.000000;,
  0.650000;0.950000;,
  0.900000;0.950000;,
  0.450000;0.000000;,
  0.450000;0.950000;,
  0.000000;1.000000;,
  0.000000;0.000000;,
  0.990000;1.000000;,
  0.990000;0.000000;,
  0.000000;1.000000;,
  0.000000;0.000000;,
  0.990000;1.000000;,
  0.990000;0.000000;,
  0.060000;1.000000;,
  0.060000;0.000000;,
  3.060000;1.000000;,
  3.060000;0.000000;,
  0.060000;1.000000;,
  0.060000;0.000000;,
  3.060000;1.000000;,
  3.060000;0.000000;,
  0.000000;0.000000;,
  0.000000;0.000000;,
  0.000000;0.000000;,
  0.000000;0.000000;,
  0.000000;0.000000;,
  0.000000;0.000000;,
  0.000000;0.000000;,
  0.000000;0.000000;,
  0.000000;1.000000;,
  0.000000;0.000000;,
  1.000000;1.000000;,
  1.000000;0.000000;;
 }

 MeshNormals  {
  50;
  0.000000;1.000000;0.000000;,
  0.000000;1.000000;0.000000;,
  0.000000;1.000000;0.000000;,
  0.000000;1.000000;0.000000;,
  0.000000;1.000000;0.000000;,
  0.000000;1.000000;0.000000;,
  -0.997558;0.000000;0.069836;,
  -0.997558;0.000000;0.069836;,
  0.000000;1.000000;0.000000;,
  0.000000;1.000000;0.000000;,
  -0.997559;0.000000;0.069835;,
  -0.997559;0.000000;0.069835;,
  0.000000;1.000000;0.000000;,
  0.000000;1.000000;0.000000;,
  0.000000;1.000000;0.000000;,
  0.000000;1.000000;0.000000;,
  -0.997559;0.000000;0.069829;,
  -0.997559;0.000000;0.069829;,
  0.000000;1.000000;0.000000;,
  0.000000;1.000000;0.000000;,
  0.997559;0.000000;-0.069824;,
  0.997559;0.000000;-0.069824;,
  -0.997559;0.000000;0.069824;,
  -0.997559;0.000000;0.069824;,
  0.000000;1.000000;0.000000;,
  0.000000;1.000000;0.000000;,
  0.000000;0.000000;-1.000000;,
  0.000000;0.000000;-1.000000;,
  -0.997560;0.000000;0.069812;,
  -0.997560;0.000000;0.069812;,
  -0.997560;0.000000;0.069812;,
  -0.997560;0.000000;0.069812;,
  -1.000000;0.000000;0.000000;,
  -1.000000;0.000000;0.000000;,
  0.000000;0.000000;-1.000000;,
  0.000000;0.000000;-1.000000;,
  -0.997388;0.000000;0.072225;,
  -0.997388;0.000000;0.072225;,
  0.000000;0.000000;-1.000000;,
  0.000000;0.000000;-1.000000;,
  -1.000000;0.000000;0.000000;,
  -1.000000;0.000000;0.000000;,
  0.000000;0.000000;-1.000000;,
  0.000000;0.000000;-1.000000;,
  -0.997388;0.000000;0.072225;,
  -0.997388;0.000000;0.072225;,
  0.000000;0.000000;-1.000000;,
  0.000000;0.000000;-1.000000;,
  0.000000;0.000000;-1.000000;,
  0.000000;0.000000;-1.000000;;
  50;
  3;0,0,0;,
  3;1,1,1;,
  3;2,2,2;,
  3;3,3,3;,
  3;4,4,4;,
  3;5,5,5;,
  3;6,6,6;,
  3;7,7,7;,
  3;8,8,8;,
  3;9,9,9;,
  3;10,10,10;,
  3;11,11,11;,
  3;12,12,12;,
  3;13,13,13;,
  3;14,14,14;,
  3;15,15,15;,
  3;16,16,16;,
  3;17,17,17;,
  3;18,18,18;,
  3;19,19,19;,
  3;20,20,20;,
  3;21,21,21;,
  3;22,22,22;,
  3;23,23,23;,
  3;24,24,24;,
  3;25,25,25;,
  3;26,26,26;,
  3;27,27,27;,
  3;28,28,28;,
  3;29,29,29;,
  3;30,30,30;,
  3;31,31,31;,
  3;32,32,32;,
  3;33,33,33;,
  3;34,34,34;,
  3;35,35,35;,
  3;36,36,36;,
  3;37,37,37;,
  3;38,38,38;,
  3;39,39,39;,
  3;40,40,40;,
  3;41,41,41;,
  3;42,42,42;,
  3;43,43,43;,
  3;44,44,44;,
  3;45,45,45;,
  3;46,46,46;,
  3;47,47,47;,
  3;48,48,48;,
  3;49,49,49;;
 }
}