xof 0303txt 0032
template Vector {
 <3d82ab5e-62da-11cf-ab39-0020af71e433>
 FLOAT x;
 FLOAT y;
 FLOAT z;
}

template MeshFace {
 <3d82ab5f-62da-11cf-ab39-0020af71e433>
 DWORD nFaceVertexIndices;
 array DWORD faceVertexIndices[nFaceVertexIndices];
}

template Mesh {
 <3d82ab44-62da-11cf-ab39-0020af71e433>
 DWORD nVertices;
 array Vector vertices[nVertices];
 DWORD nFaces;
 array MeshFace faces[nFaces];
 [...]
}

template ColorRGBA {
 <35ff44e0-6c7c-11cf-8f52-0040333594a3>
 FLOAT red;
 FLOAT green;
 FLOAT blue;
 FLOAT alpha;
}

template ColorRGB {
 <d3e16e81-7835-11cf-8f52-0040333594a3>
 FLOAT red;
 FLOAT green;
 FLOAT blue;
}

template Material {
 <3d82ab4d-62da-11cf-ab39-0020af71e433>
 ColorRGBA faceColor;
 FLOAT power;
 ColorRGB specularColor;
 ColorRGB emissiveColor;
 [...]
}

template MeshMaterialList {
 <f6f23f42-7686-11cf-8f52-0040333594a3>
 DWORD nMaterials;
 DWORD nFaceIndexes;
 array DWORD faceIndexes[nFaceIndexes];
 [Material <3d82ab4d-62da-11cf-ab39-0020af71e433>]
}

template TextureFilename {
 <a42790e1-7810-11cf-8f52-0040333594a3>
 STRING filename;
}

template Coords2d {
 <f6f23f44-7686-11cf-8f52-0040333594a3>
 FLOAT u;
 FLOAT v;
}

template MeshTextureCoords {
 <f6f23f40-7686-11cf-8f52-0040333594a3>
 DWORD nTextureCoords;
 array Coords2d textureCoords[nTextureCoords];
}

template MeshNormals {
 <f6f23f43-7686-11cf-8f52-0040333594a3>
 DWORD nNormals;
 array Vector normals[nNormals];
 DWORD nFaceNormals;
 array MeshFace faceNormals[nFaceNormals];
}


Mesh  {
 80;
 3.050000;-0.150000;0.000000;,
 3.029000;0.635000;0.000000;,
 2.968000;1.418000;0.000000;,
 2.865300;2.197000;0.000000;,
 2.722200;2.969000;0.000000;,
 2.539000;3.732000;0.000000;,
 2.316000;4.485000;0.000000;,
 2.054000;5.226000;0.000000;,
 1.753000;5.951000;0.000000;,
 1.753000;5.951000;0.000000;,
 1.706000;6.044000;0.000000;,
 1.649000;6.132000;0.000000;,
 1.583000;6.213000;0.000000;,
 1.509000;6.287000;0.000000;,
 1.428000;6.353000;0.000000;,
 1.340000;6.410000;0.000000;,
 1.247000;6.458000;0.000000;,
 1.149000;6.495000;0.000000;,
 1.048000;6.522000;0.000000;,
 0.944000;6.539000;0.000000;,
 0.840000;6.544000;0.000000;,
 -15.000000;6.544000;0.000000;,
 3.350000;-0.150000;0.000000;,
 3.329030;0.650700;0.000000;,
 3.266180;1.449000;0.000000;,
 3.161600;2.243000;0.000000;,
 3.015700;3.031000;0.000000;,
 2.828700;3.810000;0.000000;,
 2.601200;4.578000;0.000000;,
 2.334000;5.333000;0.000000;,
 2.027000;6.073000;0.000000;,
 2.027000;6.073000;0.000000;,
 1.966000;6.194000;0.000000;,
 1.892000;6.308000;0.000000;,
 1.806000;6.414000;0.000000;,
 1.710000;6.510000;0.000000;,
 1.604000;6.596000;0.000000;,
 1.490000;6.670000;0.000000;,
 1.369000;6.732000;0.000000;,
 1.242000;6.781000;0.000000;,
 1.110000;6.816000;0.000000;,
 0.975700;6.837000;0.000000;,
 0.839900;6.844000;0.000000;,
 -15.000000;6.844000;0.000000;,
 2.108049;6.147361;0.000000;,
 2.148723;6.056006;0.000000;,
 1.993856;6.096519;0.216506;,
 2.034530;6.005164;0.216506;,
 1.765470;5.994835;0.216506;,
 1.806144;5.903480;0.216506;,
 1.651277;5.943993;0.000000;,
 1.691950;5.852638;0.000000;,
 1.765470;5.994835;-0.216506;,
 1.806144;5.903480;-0.216506;,
 1.993856;6.096519;-0.216506;,
 2.034530;6.005164;-0.216506;,
 0.800000;6.943999;0.000000;,
 0.900000;6.943999;0.000000;,
 0.800000;6.818999;0.216506;,
 0.900000;6.818999;0.216506;,
 0.800000;6.568999;0.216506;,
 0.900000;6.568999;0.216506;,
 0.800000;6.443999;0.000000;,
 0.900000;6.443999;0.000000;,
 0.800000;6.568999;-0.216506;,
 0.900000;6.568999;-0.216506;,
 0.800000;6.818999;-0.216506;,
 0.900000;6.818999;-0.216506;,
 -10.049999;6.943999;0.000000;,
 -9.949999;6.943999;0.000000;,
 -10.049999;6.818999;0.216506;,
 -9.949999;6.818999;0.216506;,
 -10.049999;6.568999;0.216506;,
 -9.949999;6.568999;0.216506;,
 -10.049999;6.443999;0.000000;,
 -9.949999;6.443999;0.000000;,
 -10.049999;6.568999;-0.216506;,
 -9.949999;6.568999;-0.216506;,
 -10.049999;6.818999;-0.216506;,
 -9.949999;6.818999;-0.216506;;
 102;
 3;0,1,23;,
 3;0,23,22;,
 3;1,2,24;,
 3;1,24,23;,
 3;2,3,25;,
 3;2,25,24;,
 3;3,4,26;,
 3;3,26,25;,
 3;4,5,27;,
 3;4,27,26;,
 3;5,6,28;,
 3;5,28,27;,
 3;6,7,29;,
 3;6,29,28;,
 3;7,8,30;,
 3;7,30,29;,
 3;8,9,31;,
 3;8,31,30;,
 3;9,10,32;,
 3;9,32,31;,
 3;10,11,33;,
 3;10,33,32;,
 3;11,12,34;,
 3;11,34,33;,
 3;12,13,35;,
 3;12,35,34;,
 3;13,14,36;,
 3;13,36,35;,
 3;14,15,37;,
 3;14,37,36;,
 3;15,16,38;,
 3;15,38,37;,
 3;16,17,39;,
 3;16,39,38;,
 3;17,18,40;,
 3;17,40,39;,
 3;18,19,41;,
 3;18,41,40;,
 3;19,20,42;,
 3;19,42,41;,
 3;20,21,43;,
 3;20,43,42;,
 3;45,44,46;,
 3;45,46,47;,
 3;47,46,48;,
 3;47,48,49;,
 3;49,48,50;,
 3;49,50,51;,
 3;51,50,52;,
 3;51,52,53;,
 3;53,52,54;,
 3;53,54,55;,
 3;55,54,44;,
 3;55,44,45;,
 3;54,52,50;,
 3;54,50,48;,
 3;54,48,46;,
 3;54,46,44;,
 3;45,47,49;,
 3;45,49,51;,
 3;45,51,53;,
 3;45,53,55;,
 3;57,56,58;,
 3;57,58,59;,
 3;59,58,60;,
 3;59,60,61;,
 3;61,60,62;,
 3;61,62,63;,
 3;63,62,64;,
 3;63,64,65;,
 3;65,64,66;,
 3;65,66,67;,
 3;67,66,56;,
 3;67,56,57;,
 3;66,64,62;,
 3;66,62,60;,
 3;66,60,58;,
 3;66,58,56;,
 3;57,59,61;,
 3;57,61,63;,
 3;57,63,65;,
 3;57,65,67;,
 3;69,68,70;,
 3;69,70,71;,
 3;71,70,72;,
 3;71,72,73;,
 3;73,72,74;,
 3;73,74,75;,
 3;75,74,76;,
 3;75,76,77;,
 3;77,76,78;,
 3;77,78,79;,
 3;79,78,68;,
 3;79,68,69;,
 3;78,76,74;,
 3;78,74,72;,
 3;78,72,70;,
 3;78,70,68;,
 3;69,71,73;,
 3;69,73,75;,
 3;69,75,77;,
 3;69,77,79;;

 MeshMaterialList  {
  4;
  102;
  0,
  0,
  0,
  0,
  0,
  0,
  0,
  0,
  0,
  0,
  0,
  0,
  0,
  0,
  0,
  0,
  0,
  0,
  0,
  0,
  0,
  0,
  0,
  0,
  0,
  0,
  0,
  0,
  0,
  0,
  0,
  0,
  0,
  0,
  0,
  0,
  0,
  0,
  0,
  0,
  0,
  0,
  1,
  1,
  1,
  1,
  1,
  1,
  1,
  1,
  1,
  1,
  1,
  1,
  1,
  1,
  1,
  1,
  1,
  1,
  1,
  1,
  2,
  2,
  2,
  2,
  2,
  2,
  2,
  2,
  2,
  2,
  2,
  2,
  2,
  2,
  2,
  2,
  2,
  2,
  2,
  2,
  3,
  3,
  3,
  3,
  3,
  3,
  3,
  3,
  3,
  3,
  3,
  3,
  3,
  3,
  3,
  3,
  3,
  3,
  3,
  3;

  Material  {
   1.000000;1.000000;1.000000;1.000000;;
   0.000000;
   0.000000;0.000000;0.000000;;
   0.000000;0.000000;0.000000;;

   TextureFilename  {
    "Pole_Iron1.png";
   }
  }

  Material  {
   0.431373;0.470588;0.490196;1.000000;;
   0.000000;
   0.000000;0.000000;0.000000;;
   0.000000;0.000000;0.000000;;
  }

  Material  {
   0.431373;0.470588;0.490196;1.000000;;
   0.000000;
   0.000000;0.000000;0.000000;;
   0.000000;0.000000;0.000000;;
  }

  Material  {
   0.431373;0.470588;0.490196;1.000000;;
   0.000000;
   0.000000;0.000000;0.000000;;
   0.000000;0.000000;0.000000;;
  }
 }

 MeshTextureCoords  {
  80;
  0.000000;1.000000;,
  0.040000;1.000000;,
  0.080000;1.000000;,
  0.120000;1.000000;,
  0.160000;1.000000;,
  0.200000;1.000000;,
  0.240000;1.000000;,
  0.280000;1.000000;,
  0.320000;1.000000;,
  0.360000;1.000000;,
  0.400000;1.000000;,
  0.440000;1.000000;,
  0.480000;1.000000;,
  0.520000;1.000000;,
  0.560000;1.000000;,
  0.600000;1.000000;,
  0.640000;1.000000;,
  0.680000;1.000000;,
  0.720000;1.000000;,
  0.760000;1.000000;,
  0.800000;1.000000;,
  0.840000;1.000000;,
  0.000000;0.000000;,
  0.040000;0.000000;,
  0.080000;0.000000;,
  0.120000;0.000000;,
  0.160000;0.000000;,
  0.200000;0.000000;,
  0.240000;0.000000;,
  0.280000;0.000000;,
  0.320000;0.000000;,
  0.360000;0.000000;,
  0.400000;0.000000;,
  0.440000;0.000000;,
  0.480000;0.000000;,
  0.520000;0.000000;,
  0.560000;0.000000;,
  0.600000;0.000000;,
  0.640000;0.000000;,
  0.680000;0.000000;,
  0.720000;0.000000;,
  0.760000;0.000000;,
  0.800000;0.000000;,
  0.840000;0.000000;,
  0.000000;0.000000;,
  0.000000;0.000000;,
  0.000000;0.000000;,
  0.000000;0.000000;,
  0.000000;0.000000;,
  0.000000;0.000000;,
  0.000000;0.000000;,
  0.000000;0.000000;,
  0.000000;0.000000;,
  0.000000;0.000000;,
  0.000000;0.000000;,
  0.000000;0.000000;,
  0.000000;0.000000;,
  0.000000;0.000000;,
  0.000000;0.000000;,
  0.000000;0.000000;,
  0.000000;0.000000;,
  0.000000;0.000000;,
  0.000000;0.000000;,
  0.000000;0.000000;,
  0.000000;0.000000;,
  0.000000;0.000000;,
  0.000000;0.000000;,
  0.000000;0.000000;,
  0.000000;0.000000;,
  0.000000;0.000000;,
  0.000000;0.000000;,
  0.000000;0.000000;,
  0.000000;0.000000;,
  0.000000;0.000000;,
  0.000000;0.000000;,
  0.000000;0.000000;,
  0.000000;0.000000;,
  0.000000;0.000000;,
  0.000000;0.000000;,
  0.000000;0.000000;;
 }

 MeshNormals  {
  78;
  0.000000;0.000000;-1.000000;,
  0.000000;0.000000;-1.000000;,
  0.000000;0.000000;-1.000000;,
  0.000000;0.000000;-1.000000;,
  0.000000;0.000000;-1.000000;,
  0.000000;0.000000;-1.000000;,
  0.000000;0.000000;-1.000000;,
  0.000000;0.000000;-1.000000;,
  0.000000;0.000000;-1.000000;,
  0.000000;0.000000;-1.000000;,
  0.000000;0.000000;-1.000000;,
  0.000000;0.000000;-1.000000;,
  0.000000;0.000000;-1.000000;,
  0.000000;0.000000;-1.000000;,
  0.000000;0.000000;-1.000000;,
  0.000000;0.000000;-1.000000;,
  0.000000;0.000000;0.000000;,
  0.000000;0.000000;0.000000;,
  0.000000;0.000000;-1.000000;,
  0.000000;0.000000;-1.000000;,
  0.000000;0.000000;-1.000000;,
  0.000000;0.000000;-1.000000;,
  0.000000;0.000000;-1.000000;,
  0.000000;0.000000;-1.000000;,
  0.000000;0.000000;-1.000000;,
  0.000000;0.000000;-1.000000;,
  0.000000;0.000000;-1.000000;,
  0.000000;0.000000;-1.000000;,
  0.000000;0.000000;-1.000000;,
  0.000000;0.000000;-1.000000;,
  0.000000;0.000000;-1.000000;,
  0.000000;0.000000;-1.000000;,
  0.000000;0.000000;-1.000000;,
  0.000000;0.000000;-1.000000;,
  0.000000;0.000000;-1.000000;,
  0.000000;0.000000;-1.000000;,
  0.000000;0.000000;-1.000000;,
  0.000000;0.000000;-1.000000;,
  0.000000;0.000000;-1.000000;,
  0.000000;0.000000;-1.000000;,
  0.000000;0.000000;-1.000000;,
  0.000000;0.000000;-1.000000;,
  0.965926;0.000000;-0.258819;,
  1.000000;0.000000;0.000000;,
  0.500000;0.000000;0.866025;,
  0.258819;0.000000;0.965926;,
  -0.500000;0.000000;0.866025;,
  -0.707107;0.000000;0.707107;,
  -1.000000;0.000000;0.000000;,
  -0.965926;0.000000;-0.258819;,
  -0.500000;0.000000;-0.866025;,
  -0.258819;0.000000;-0.965926;,
  0.500000;0.000000;-0.866025;,
  0.707107;0.000000;-0.707107;,
  0.965926;0.000000;-0.258819;,
  1.000000;0.000000;0.000000;,
  0.500000;0.000000;0.866025;,
  0.258819;0.000000;0.965926;,
  -0.500000;0.000000;0.866025;,
  -0.707107;0.000000;0.707107;,
  -1.000000;0.000000;0.000000;,
  -0.965926;0.000000;-0.258819;,
  -0.500000;0.000000;-0.866025;,
  -0.258819;0.000000;-0.965926;,
  0.500000;0.000000;-0.866025;,
  0.707107;0.000000;-0.707107;,
  0.965926;0.000000;-0.258819;,
  1.000000;0.000000;0.000000;,
  0.500000;0.000000;0.866025;,
  0.258819;0.000000;0.965926;,
  -0.500000;0.000000;0.866025;,
  -0.707107;0.000000;0.707107;,
  -1.000000;0.000000;0.000000;,
  -0.965926;0.000000;-0.258819;,
  -0.500000;0.000000;-0.866025;,
  -0.258819;0.000000;-0.965926;,
  0.500000;0.000000;-0.866025;,
  0.707107;0.000000;-0.707107;;
  102;
  3;0,0,0;,
  3;1,1,1;,
  3;2,2,2;,
  3;3,3,3;,
  3;4,4,4;,
  3;5,5,5;,
  3;6,6,6;,
  3;7,7,7;,
  3;8,8,8;,
  3;9,9,9;,
  3;10,10,10;,
  3;11,11,11;,
  3;12,12,12;,
  3;13,13,13;,
  3;14,14,14;,
  3;15,15,15;,
  3;16,16,16;,
  3;17,17,17;,
  3;18,18,18;,
  3;19,19,19;,
  3;20,20,20;,
  3;21,21,21;,
  3;22,22,22;,
  3;23,23,23;,
  3;24,24,24;,
  3;25,25,25;,
  3;26,26,26;,
  3;27,27,27;,
  3;28,28,28;,
  3;29,29,29;,
  3;30,30,30;,
  3;31,31,31;,
  3;32,32,32;,
  3;33,33,33;,
  3;34,34,34;,
  3;35,35,35;,
  3;36,36,36;,
  3;37,37,37;,
  3;38,38,38;,
  3;39,39,39;,
  3;40,40,40;,
  3;41,41,41;,
  3;43,42,44;,
  3;43,44,45;,
  3;45,44,46;,
  3;45,46,47;,
  3;47,46,48;,
  3;47,48,49;,
  3;49,48,50;,
  3;49,50,51;,
  3;51,50,52;,
  3;51,52,53;,
  3;53,52,42;,
  3;53,42,43;,
  3;52,50,48;,
  3;52,48,46;,
  3;52,46,44;,
  3;52,44,42;,
  3;43,45,47;,
  3;43,47,49;,
  3;43,49,51;,
  3;43,51,53;,
  3;55,54,56;,
  3;55,56,57;,
  3;57,56,58;,
  3;57,58,59;,
  3;59,58,60;,
  3;59,60,61;,
  3;61,60,62;,
  3;61,62,63;,
  3;63,62,64;,
  3;63,64,65;,
  3;65,64,54;,
  3;65,54,55;,
  3;64,62,60;,
  3;64,60,58;,
  3;64,58,56;,
  3;64,56,54;,
  3;55,57,59;,
  3;55,59,61;,
  3;55,61,63;,
  3;55,63,65;,
  3;67,66,68;,
  3;67,68,69;,
  3;69,68,70;,
  3;69,70,71;,
  3;71,70,72;,
  3;71,72,73;,
  3;73,72,74;,
  3;73,74,75;,
  3;75,74,76;,
  3;75,76,77;,
  3;77,76,66;,
  3;77,66,67;,
  3;76,74,72;,
  3;76,72,70;,
  3;76,70,68;,
  3;76,68,66;,
  3;67,69,71;,
  3;67,71,73;,
  3;67,73,75;,
  3;67,75,77;;
 }
}