xof 0303txt 0032
template Vector {
 <3d82ab5e-62da-11cf-ab39-0020af71e433>
 FLOAT x;
 FLOAT y;
 FLOAT z;
}

template MeshFace {
 <3d82ab5f-62da-11cf-ab39-0020af71e433>
 DWORD nFaceVertexIndices;
 array DWORD faceVertexIndices[nFaceVertexIndices];
}

template Mesh {
 <3d82ab44-62da-11cf-ab39-0020af71e433>
 DWORD nVertices;
 array Vector vertices[nVertices];
 DWORD nFaces;
 array MeshFace faces[nFaces];
 [...]
}

template ColorRGBA {
 <35ff44e0-6c7c-11cf-8f52-0040333594a3>
 FLOAT red;
 FLOAT green;
 FLOAT blue;
 FLOAT alpha;
}

template ColorRGB {
 <d3e16e81-7835-11cf-8f52-0040333594a3>
 FLOAT red;
 FLOAT green;
 FLOAT blue;
}

template Material {
 <3d82ab4d-62da-11cf-ab39-0020af71e433>
 ColorRGBA faceColor;
 FLOAT power;
 ColorRGB specularColor;
 ColorRGB emissiveColor;
 [...]
}

template MeshMaterialList {
 <f6f23f42-7686-11cf-8f52-0040333594a3>
 DWORD nMaterials;
 DWORD nFaceIndexes;
 array DWORD faceIndexes[nFaceIndexes];
 [Material <3d82ab4d-62da-11cf-ab39-0020af71e433>]
}

template TextureFilename {
 <a42790e1-7810-11cf-8f52-0040333594a3>
 STRING filename;
}

template Coords2d {
 <f6f23f44-7686-11cf-8f52-0040333594a3>
 FLOAT u;
 FLOAT v;
}

template MeshTextureCoords {
 <f6f23f40-7686-11cf-8f52-0040333594a3>
 DWORD nTextureCoords;
 array Coords2d textureCoords[nTextureCoords];
}

template MeshNormals {
 <f6f23f43-7686-11cf-8f52-0040333594a3>
 DWORD nNormals;
 array Vector normals[nNormals];
 DWORD nFaceNormals;
 array MeshFace faceNormals[nFaceNormals];
}


Mesh  {
 40;
 1.900000;-0.600000;0.000000;,
 1.900000;-0.144000;0.000000;,
 2.500000;-0.144000;0.000000;,
 2.500000;0.156000;0.000000;,
 3.100000;0.156000;0.000000;,
 3.100000;1.500000;0.000000;,
 1.900000;-0.600000;25.200001;,
 1.900000;-0.144000;25.200001;,
 2.500000;-0.144000;25.200001;,
 2.500000;0.156000;25.200001;,
 3.100000;0.156000;25.200001;,
 3.100000;1.500000;25.100000;,
 2.900000;0.156000;0.000000;,
 2.900000;1.500000;0.000000;,
 3.100000;-0.144000;0.000000;,
 3.100000;0.156000;0.000000;,
 2.500000;-0.144000;0.000000;,
 2.500000;0.156000;0.000000;,
 3.068000;1.418000;8.000000;,
 3.068000;1.718000;8.000000;,
 3.068000;1.418000;25.200001;,
 3.068000;1.718000;25.200001;,
 2.822200;2.969000;8.000000;,
 2.822200;3.269000;8.000000;,
 2.822200;2.969000;25.200001;,
 2.822200;3.269000;25.200001;,
 2.416000;4.485000;8.000000;,
 2.416000;4.785000;8.000000;,
 2.416000;4.485000;25.200001;,
 2.416000;4.785000;25.200001;,
 3.102000;1.618000;8.000000;,
 2.856200;3.169000;8.000000;,
 2.450000;4.785000;8.000000;,
 3.102000;1.618000;25.200001;,
 2.856200;3.169000;25.200001;,
 2.450000;4.785000;25.200001;,
 3.102000;1.618000;8.000000;,
 2.856200;3.169000;8.000000;,
 3.102000;1.618000;25.200001;,
 2.856200;3.169000;25.200001;;
 26;
 3;6,7,1;,
 3;6,1,0;,
 3;7,8,2;,
 3;7,2,1;,
 3;8,9,3;,
 3;8,3,2;,
 3;9,10,4;,
 3;9,4,3;,
 3;10,11,5;,
 3;10,5,4;,
 3;12,13,5;,
 3;12,5,4;,
 3;16,17,15;,
 3;16,15,14;,
 3;20,21,19;,
 3;20,19,18;,
 3;24,25,23;,
 3;24,23,22;,
 3;28,29,27;,
 3;28,27,26;,
 3;33,34,31;,
 3;33,31,30;,
 3;34,35,32;,
 3;34,32,31;,
 3;38,39,37;,
 3;38,37,36;;

 MeshMaterialList  {
  7;
  26;
  0,
  0,
  0,
  0,
  0,
  0,
  0,
  0,
  0,
  0,
  0,
  0,
  1,
  1,
  2,
  2,
  3,
  3,
  4,
  4,
  5,
  5,
  5,
  5,
  6,
  6;

  Material  {
   1.000000;1.000000;1.000000;1.000000;;
   0.000000;
   0.000000;0.000000;0.000000;;
   0.000000;0.000000;0.000000;;

   TextureFilename  {
    "Wall1.png";
   }
  }

  Material  {
   1.000000;1.000000;1.000000;1.000000;;
   0.000000;
   0.000000;0.000000;0.000000;;
   0.000000;0.000000;0.000000;;

   TextureFilename  {
    "Concrete.png";
   }
  }

  Material  {
   1.000000;1.000000;1.000000;1.000000;;
   0.000000;
   0.000000;0.000000;0.000000;;
   0.000000;0.000000;0.000000;;

   TextureFilename  {
    "Pole_Iron1.png";
   }
  }

  Material  {
   1.000000;1.000000;1.000000;1.000000;;
   0.000000;
   0.000000;0.000000;0.000000;;
   0.000000;0.000000;0.000000;;

   TextureFilename  {
    "Pole_Iron1.png";
   }
  }

  Material  {
   1.000000;1.000000;1.000000;1.000000;;
   0.000000;
   0.000000;0.000000;0.000000;;
   0.000000;0.000000;0.000000;;

   TextureFilename  {
    "Pole_Iron1.png";
   }
  }

  Material  {
   1.000000;1.000000;1.000000;1.000000;;
   0.000000;
   0.000000;0.000000;0.000000;;
   0.000000;0.000000;0.000000;;

   TextureFilename  {
    "Wall2.png";
   }
  }

  Material  {
   0.250980;0.250980;0.250980;0.250980;;
   0.000000;
   0.000000;0.000000;0.000000;;
   0.000000;0.000000;0.000000;;
  }
 }

 MeshTextureCoords  {
  40;
  0.000000;1.000000;,
  0.000000;0.920000;,
  0.000000;0.750000;,
  0.000000;0.562500;,
  0.000000;0.440000;,
  0.000000;0.010000;,
  1.000000;1.000000;,
  1.000000;0.920000;,
  1.000000;0.750000;,
  1.000000;0.562500;,
  1.000000;0.440000;,
  1.000000;0.010000;,
  0.000000;0.440000;,
  0.000000;0.010000;,
  0.000000;0.750000;,
  0.000000;0.562500;,
  0.100000;0.750000;,
  0.100000;0.562500;,
  0.000000;1.000000;,
  0.000000;0.000000;,
  1.000000;1.000000;,
  1.000000;0.000000;,
  0.000000;1.000000;,
  0.000000;0.000000;,
  1.000000;1.000000;,
  1.000000;0.000000;,
  0.000000;1.000000;,
  0.000000;0.000000;,
  1.000000;1.000000;,
  1.000000;0.000000;,
  0.000000;1.030000;,
  0.000000;0.812500;,
  0.000000;0.010000;,
  1.000000;1.030000;,
  1.000000;0.812500;,
  1.000000;0.010000;,
  0.000000;0.000000;,
  0.000000;0.000000;,
  0.000000;0.000000;,
  0.000000;0.000000;;
 }

 MeshNormals  {
  26;
  -1.000000;0.000000;0.000000;,
  -1.000000;0.000000;0.000000;,
  0.000000;1.000000;0.000000;,
  0.000000;1.000000;0.000000;,
  -1.000000;0.000000;0.000000;,
  -1.000000;0.000000;0.000000;,
  0.000000;1.000000;0.000000;,
  0.000000;1.000000;0.000000;,
  -1.000000;0.000000;0.000000;,
  -1.000000;0.000000;0.000000;,
  0.000000;0.000000;-1.000000;,
  0.000000;0.000000;-1.000000;,
  0.000000;0.000000;-1.000000;,
  0.000000;0.000000;-1.000000;,
  -1.000000;0.000000;0.000000;,
  -1.000000;0.000000;0.000000;,
  -1.000000;0.000000;0.000000;,
  -1.000000;0.000000;0.000000;,
  -1.000000;0.000000;0.000000;,
  -1.000000;0.000000;0.000000;,
  -0.987674;-0.156525;0.000000;,
  -0.987674;-0.156525;0.000000;,
  -0.969831;-0.243778;0.000000;,
  -0.969831;-0.243778;0.000000;,
  -0.987674;-0.156525;0.000000;,
  -0.987674;-0.156525;0.000000;;
  26;
  3;0,0,0;,
  3;1,1,1;,
  3;2,2,2;,
  3;3,3,3;,
  3;4,4,4;,
  3;5,5,5;,
  3;6,6,6;,
  3;7,7,7;,
  3;8,8,8;,
  3;9,9,9;,
  3;10,10,10;,
  3;11,11,11;,
  3;12,12,12;,
  3;13,13,13;,
  3;14,14,14;,
  3;15,15,15;,
  3;16,16,16;,
  3;17,17,17;,
  3;18,18,18;,
  3;19,19,19;,
  3;20,20,20;,
  3;21,21,21;,
  3;22,22,22;,
  3;23,23,23;,
  3;24,24,24;,
  3;25,25,25;;
 }
}