xof 0303txt 0032

Mesh  {
 4;
 3.500000;-10.300000;-1.500000;,
 3.500000;-10.350000;21.000001;,
 0.000000;-0.350000;21.000001;,
 0.000000;-0.300000;-1.500000;;
 2;
 3;3,2,1;,
 3;3,1,0;;

 MeshMaterialList  {
  1;
  2;
  0,
  0;

  Material  {
   1.000000;1.000000;1.000000;1.000000;;
   0.000000;
   0.000000;0.000000;0.000000;;
   0.000000;0.000000;0.000000;;

   TextureFilename  {
    "taigan.dds";
   }
  }
 }

 MeshTextureCoords  {
  4;
  0.500000;1.000000;,
  0.000000;1.000000;,
  0.000000;0.000000;,
  0.500000;0.000000;;
 }

 MeshNormals  {
  2;
  0.000000;0.999998;0.001968;,
  0.000000;0.999998;0.001968;;
  2;
  3;0,0,0;,
  3;1,1,1;;
 }
}