xof 0303txt 0032
template Vector {
 <3d82ab5e-62da-11cf-ab39-0020af71e433>
 FLOAT x;
 FLOAT y;
 FLOAT z;
}

template MeshFace {
 <3d82ab5f-62da-11cf-ab39-0020af71e433>
 DWORD nFaceVertexIndices;
 array DWORD faceVertexIndices[nFaceVertexIndices];
}

template Mesh {
 <3d82ab44-62da-11cf-ab39-0020af71e433>
 DWORD nVertices;
 array Vector vertices[nVertices];
 DWORD nFaces;
 array MeshFace faces[nFaces];
 [...]
}

template ColorRGBA {
 <35ff44e0-6c7c-11cf-8f52-0040333594a3>
 FLOAT red;
 FLOAT green;
 FLOAT blue;
 FLOAT alpha;
}

template ColorRGB {
 <d3e16e81-7835-11cf-8f52-0040333594a3>
 FLOAT red;
 FLOAT green;
 FLOAT blue;
}

template Material {
 <3d82ab4d-62da-11cf-ab39-0020af71e433>
 ColorRGBA faceColor;
 FLOAT power;
 ColorRGB specularColor;
 ColorRGB emissiveColor;
 [...]
}

template MeshMaterialList {
 <f6f23f42-7686-11cf-8f52-0040333594a3>
 DWORD nMaterials;
 DWORD nFaceIndexes;
 array DWORD faceIndexes[nFaceIndexes];
 [Material <3d82ab4d-62da-11cf-ab39-0020af71e433>]
}

template TextureFilename {
 <a42790e1-7810-11cf-8f52-0040333594a3>
 STRING filename;
}

template Coords2d {
 <f6f23f44-7686-11cf-8f52-0040333594a3>
 FLOAT u;
 FLOAT v;
}

template MeshTextureCoords {
 <f6f23f40-7686-11cf-8f52-0040333594a3>
 DWORD nTextureCoords;
 array Coords2d textureCoords[nTextureCoords];
}

template MeshNormals {
 <f6f23f43-7686-11cf-8f52-0040333594a3>
 DWORD nNormals;
 array Vector normals[nNormals];
 DWORD nFaceNormals;
 array MeshFace faceNormals[nFaceNormals];
}


Mesh  {
 377;
 -0.442000;3.340000;0.080000;,
 0.442000;3.340000;0.080000;,
 -0.442000;2.900000;0.080000;,
 0.442000;2.900000;0.080000;,
 -0.442000;1.900000;0.080000;,
 0.442000;1.900000;0.080000;,
 -0.442000;0.920000;0.080000;,
 0.442000;0.920000;0.080000;,
 -0.442000;3.450000;0.270000;,
 0.442000;3.450000;0.270000;,
 -0.953000;3.340000;0.270000;,
 0.953000;3.340000;0.270000;,
 -0.953000;2.900000;0.270000;,
 0.953000;2.900000;0.270000;,
 -0.953000;1.900000;0.270000;,
 0.953000;1.900000;0.270000;,
 -0.953000;1.740000;0.270000;,
 0.953000;1.740000;0.270000;,
 -0.953000;1.690000;0.270000;,
 0.953000;1.690000;0.270000;,
 -0.953000;0.920000;0.270000;,
 0.953000;0.920000;0.270000;,
 -0.442000;3.550000;0.470000;,
 0.442000;3.550000;0.470000;,
 -0.953000;3.450000;0.470000;,
 0.953000;3.450000;0.470000;,
 -1.253000;3.340000;0.470000;,
 1.253000;3.340000;0.470000;,
 -1.253000;2.900000;0.470000;,
 1.253000;2.900000;0.470000;,
 -1.253000;1.900000;0.470000;,
 1.253000;1.900000;0.470000;,
 -1.253000;1.740000;0.470000;,
 1.253000;1.740000;0.470000;,
 -1.253000;1.690000;0.470000;,
 1.253000;1.690000;0.470000;,
 -1.223000;0.920000;0.470000;,
 1.223000;0.920000;0.470000;,
 -0.442000;3.650000;0.660000;,
 0.442000;3.650000;0.660000;,
 -0.953000;3.550000;0.660000;,
 0.953000;3.550000;0.660000;,
 -1.253000;3.450000;0.660000;,
 1.253000;3.450000;0.660000;,
 -1.465000;3.340000;0.660000;,
 1.465000;3.340000;0.660000;,
 -1.465000;2.900000;0.660000;,
 1.465000;2.900000;0.660000;,
 -1.465000;1.900000;0.660000;,
 1.465000;1.900000;0.660000;,
 -1.465000;1.740000;0.660000;,
 1.465000;1.740000;0.660000;,
 -1.460000;1.690000;0.660000;,
 1.460000;1.690000;0.660000;,
 -1.365000;0.920000;0.660000;,
 1.365000;0.920000;0.660000;,
 -0.442000;1.100000;0.150000;,
 0.442000;1.100000;0.150000;,
 -0.442000;0.300000;0.050000;,
 0.442000;0.300000;0.050000;,
 -0.442000;0.300000;0.050000;,
 0.442000;0.300000;0.050000;,
 -1.250000;1.100000;0.500000;,
 1.250000;1.100000;0.500000;,
 -1.100000;0.300000;0.400000;,
 1.100000;0.300000;0.400000;,
 -1.000000;0.300000;0.400000;,
 1.000000;0.300000;0.400000;,
 -1.250000;1.100000;0.850000;,
 1.250000;1.100000;0.850000;,
 -1.100000;0.300000;0.750000;,
 1.100000;0.300000;0.750000;,
 -1.100000;0.300000;0.750000;,
 -1.100000;0.200000;0.750000;,
 0.000000;0.300000;0.150000;,
 0.000000;0.200000;0.150000;,
 1.100000;0.300000;0.750000;,
 1.100000;0.200000;0.750000;,
 -0.953000;3.550000;0.660000;,
 0.953000;3.550000;0.660000;,
 -1.465000;3.340000;0.660000;,
 1.465000;3.340000;0.660000;,
 -1.465000;1.740000;0.680000;,
 1.465000;1.740000;0.660000;,
 -1.460000;1.690000;0.660000;,
 1.460000;1.690000;0.660000;,
 -1.365000;0.920000;0.660000;,
 1.365000;0.920000;0.660000;,
 -0.953000;3.550000;1.680000;,
 0.953000;3.550000;1.680000;,
 -1.465000;3.340000;1.680000;,
 1.465000;3.340000;1.680000;,
 -1.465000;1.740000;1.680000;,
 1.465000;1.740000;1.680000;,
 -1.460000;1.690000;1.680000;,
 1.460000;1.690000;1.680000;,
 -1.365000;0.920000;1.680000;,
 1.365000;0.920000;1.680000;,
 -0.953000;3.550000;20.000000;,
 0.953000;3.550000;20.000000;,
 -1.465000;3.340000;20.000000;,
 1.465000;3.340000;20.000000;,
 -1.465000;1.740000;20.000000;,
 1.465000;1.740000;20.000000;,
 -1.460000;1.690000;20.000000;,
 1.460000;1.690000;20.000000;,
 -1.365000;0.920000;20.000000;,
 1.365000;0.920000;20.000000;,
 0.000000;3.650000;1.680000;,
 0.000000;3.650000;20.000000;,
 -0.538000;0.990000;0.660000;,
 0.538000;0.990000;0.660000;,
 -0.538000;0.000000;0.660000;,
 0.538000;0.000000;0.660000;,
 -0.538000;0.990000;19.600000;,
 0.538000;0.990000;19.600000;,
 -0.538000;0.000000;19.600000;,
 0.538000;0.000000;19.600000;,
 1.000000;1.000000;0.500000;,
 1.000000;-0.200000;0.500000;,
 -1.000000;-0.200000;0.500000;,
 -1.000000;1.000000;0.500000;,
 1.000000;1.000000;19.499998;,
 1.000000;-0.200000;19.499998;,
 -1.000000;-0.200000;19.499998;,
 -1.000000;1.000000;19.499998;,
 -0.851000;3.821000;6.049999;,
 0.851000;3.821000;6.049999;,
 -0.851000;3.539999;6.049999;,
 0.851000;3.539999;6.049999;,
 -0.600000;3.921000;6.049999;,
 0.600000;3.921000;6.049999;,
 -0.851000;3.821000;8.749998;,
 0.851000;3.821000;8.749998;,
 -0.851000;3.539999;8.749998;,
 0.851000;3.539999;8.749998;,
 -0.600000;3.921000;8.749998;,
 0.600000;3.921000;8.749998;,
 0.000000;4.020999;6.049999;,
 0.000000;4.020999;8.749998;,
 -0.851000;3.821000;11.249998;,
 0.851000;3.821000;11.249998;,
 -0.851000;3.539999;11.249998;,
 0.851000;3.539999;11.249998;,
 -0.600000;3.921000;11.249998;,
 0.600000;3.921000;11.249998;,
 -0.851000;3.821000;13.949999;,
 0.851000;3.821000;13.949999;,
 -0.851000;3.539999;13.949999;,
 0.851000;3.539999;13.949999;,
 -0.600000;3.921000;13.949999;,
 0.600000;3.921000;13.949999;,
 0.000000;4.020999;11.249998;,
 0.000000;4.020999;13.949999;,
 0.000000;3.651000;19.750000;,
 -0.953000;3.550000;19.750000;,
 0.953000;3.550000;19.750000;,
 -1.465000;3.340000;19.750000;,
 1.465000;3.340000;19.750000;,
 -1.465000;1.740000;19.750000;,
 1.465000;1.740000;19.750000;,
 -1.460000;1.690000;19.750000;,
 1.460000;1.690000;19.750000;,
 -1.365000;0.920000;19.750000;,
 1.365000;0.920000;19.750000;,
 1.150000;3.000000;19.750000;,
 1.150000;0.800000;19.750000;,
 1.150000;3.000000;19.900000;,
 1.150000;0.800000;19.900000;,
 0.950000;3.000000;19.750000;,
 0.950000;0.800000;19.750000;,
 0.950000;3.000000;19.900000;,
 0.950000;0.800000;19.900000;,
 1.000000;3.900000;19.750000;,
 1.100000;3.750000;19.750000;,
 1.100000;3.000000;19.750000;,
 1.000000;3.900000;19.900000;,
 1.100000;3.750000;19.900000;,
 1.100000;3.000000;19.900000;,
 1.000000;3.900000;19.900000;,
 1.000000;3.000000;19.900000;,
 1.100000;3.750000;19.900000;,
 1.100000;3.000000;19.900000;,
 1.000000;3.900000;19.750000;,
 1.000000;3.000000;19.750000;,
 1.000000;3.900000;19.900000;,
 1.000000;3.000000;19.900000;,
 -1.465000;3.330000;19.750000;,
 -0.953000;3.551000;19.750000;,
 0.000000;3.651000;19.750000;,
 0.953000;3.551000;19.750000;,
 1.465000;3.330000;19.750000;,
 -1.465000;3.330000;0.660000;,
 -0.953000;3.551000;0.660000;,
 0.000000;3.651000;0.660000;,
 0.953000;3.551000;0.660000;,
 1.465000;3.330000;0.660000;,
 -0.850000;3.820000;5.850000;,
 0.850000;3.820000;5.850000;,
 -0.850000;3.500000;5.850000;,
 0.850000;3.500000;5.850000;,
 -0.600000;3.920000;5.850000;,
 0.600000;3.920000;5.850000;,
 -0.850000;3.820000;8.949999;,
 0.850000;3.820000;8.949999;,
 -0.850000;3.500000;8.949999;,
 0.850000;3.500000;8.949999;,
 -0.600000;3.920000;8.949999;,
 0.600000;3.920000;8.949999;,
 0.000000;4.020000;5.850000;,
 0.000000;4.020000;8.949999;,
 -0.850000;3.820000;11.049999;,
 0.850000;3.820000;11.049999;,
 -0.850000;3.500000;11.049999;,
 0.850000;3.500000;11.049999;,
 -0.600000;3.920000;11.049999;,
 0.600000;3.920000;11.049999;,
 -0.850000;3.820000;14.150000;,
 0.850000;3.820000;14.150000;,
 -0.850000;3.500000;14.150000;,
 0.850000;3.500000;14.150000;,
 -0.600000;3.920000;14.150000;,
 0.600000;3.920000;14.150000;,
 0.000000;4.020000;11.049999;,
 0.000000;4.020000;14.150000;,
 -0.250000;3.620000;14.200000;,
 0.250000;3.620000;14.200000;,
 -0.250000;3.500000;14.200000;,
 0.250000;3.500000;14.200000;,
 -0.250000;3.770000;14.349999;,
 0.250000;3.770000;14.349999;,
 -0.250000;3.770000;14.849999;,
 0.250000;3.770000;14.849999;,
 -0.250000;3.620000;14.999999;,
 0.250000;3.620000;14.999999;,
 -0.250000;3.500000;14.999999;,
 0.250000;3.500000;14.999999;,
 -0.250000;3.620000;5.000000;,
 0.250000;3.620000;5.000000;,
 -0.250000;3.500000;5.000000;,
 0.250000;3.500000;5.000000;,
 -0.250000;3.770000;5.150000;,
 0.250000;3.770000;5.150000;,
 -0.250000;3.770000;5.650000;,
 0.250000;3.770000;5.650000;,
 -0.250000;3.620000;5.800000;,
 0.250000;3.620000;5.800000;,
 -0.250000;3.500000;5.800000;,
 0.250000;3.500000;5.800000;,
 0.650000;3.800000;1.600000;,
 0.650000;2.800000;1.600000;,
 0.646194;3.800000;1.619134;,
 0.646194;2.800000;1.619134;,
 0.635355;3.800000;1.635355;,
 0.635355;2.800000;1.635355;,
 0.619134;3.800000;1.646194;,
 0.619134;2.800000;1.646194;,
 0.600000;3.800000;1.650000;,
 0.600000;2.800000;1.650000;,
 0.580866;3.800000;1.646194;,
 0.580866;2.800000;1.646194;,
 0.564645;3.800000;1.635355;,
 0.564645;2.800000;1.635355;,
 0.553806;3.800000;1.619134;,
 0.553806;2.800000;1.619134;,
 0.550000;3.800000;1.600000;,
 0.550000;2.800000;1.600000;,
 0.553806;3.800000;1.580866;,
 0.553806;2.800000;1.580866;,
 0.564645;3.800000;1.564645;,
 0.564645;2.800000;1.564645;,
 0.580866;3.800000;1.553806;,
 0.580866;2.800000;1.553806;,
 0.600000;3.800000;1.550000;,
 0.600000;2.800000;1.550000;,
 0.619134;3.800000;1.553806;,
 0.619134;2.800000;1.553806;,
 0.635355;3.800000;1.564645;,
 0.635355;2.800000;1.564645;,
 0.646194;3.800000;1.580866;,
 0.646194;2.800000;1.580866;,
 0.050000;3.700000;1.450000;,
 0.150000;3.700000;1.350000;,
 0.046194;3.680866;1.450000;,
 0.138582;3.642597;1.350000;,
 0.035355;3.664644;1.450000;,
 0.106066;3.593934;1.350000;,
 0.019134;3.653806;1.450000;,
 0.057402;3.561418;1.350000;,
 0.000000;3.650000;1.450000;,
 0.000000;3.550000;1.350000;,
 -0.019134;3.653806;1.450000;,
 -0.057402;3.561418;1.350000;,
 -0.035355;3.664644;1.450000;,
 -0.106066;3.593934;1.350000;,
 -0.046194;3.680866;1.450000;,
 -0.138582;3.642597;1.350000;,
 -0.050000;3.700000;1.450000;,
 -0.150000;3.700000;1.350000;,
 -0.046194;3.719134;1.450000;,
 -0.138582;3.757402;1.350000;,
 -0.035355;3.735355;1.450000;,
 -0.106066;3.806066;1.350000;,
 -0.019134;3.746194;1.450000;,
 -0.057402;3.838582;1.350000;,
 -0.000000;3.750000;1.450000;,
 -0.000000;3.850000;1.350000;,
 0.019134;3.746194;1.450000;,
 0.057402;3.838582;1.350000;,
 0.035355;3.735355;1.450000;,
 0.106066;3.806066;1.350000;,
 0.046194;3.719134;1.450000;,
 0.138582;3.757402;1.350000;,
 0.150000;3.700000;1.350000;,
 0.150000;3.700000;1.150000;,
 0.138582;3.642597;1.350000;,
 0.138582;3.642597;1.150000;,
 0.106066;3.593934;1.350000;,
 0.106066;3.593934;1.150000;,
 0.057402;3.561418;1.350000;,
 0.057402;3.561418;1.150000;,
 0.000000;3.550000;1.350000;,
 0.000000;3.550000;1.150000;,
 -0.057402;3.561418;1.350000;,
 -0.057402;3.561418;1.150000;,
 -0.106066;3.593934;1.350000;,
 -0.106066;3.593934;1.150000;,
 -0.138582;3.642597;1.350000;,
 -0.138582;3.642597;1.150000;,
 -0.150000;3.700000;1.350000;,
 -0.150000;3.700000;1.150000;,
 -0.138582;3.757402;1.350000;,
 -0.138582;3.757402;1.150000;,
 -0.106066;3.806066;1.350000;,
 -0.106066;3.806066;1.150000;,
 -0.057402;3.838582;1.350000;,
 -0.057402;3.838582;1.150000;,
 -0.000000;3.850000;1.350000;,
 -0.000000;3.850000;1.150000;,
 0.057402;3.838582;1.350000;,
 0.057402;3.838582;1.150000;,
 0.106066;3.806066;1.350000;,
 0.106066;3.806066;1.150000;,
 0.138582;3.757402;1.350000;,
 0.138582;3.757402;1.150000;,
 0.150000;3.700000;1.150000;,
 0.050000;3.700000;1.050000;,
 0.138582;3.642597;1.150000;,
 0.046194;3.680866;1.050000;,
 0.106066;3.593934;1.150000;,
 0.035355;3.664644;1.050000;,
 0.057402;3.561418;1.150000;,
 0.019134;3.653806;1.050000;,
 0.000000;3.550000;1.150000;,
 0.000000;3.650000;1.050000;,
 -0.057402;3.561418;1.150000;,
 -0.019134;3.653806;1.050000;,
 -0.106066;3.593934;1.150000;,
 -0.035355;3.664644;1.050000;,
 -0.138582;3.642597;1.150000;,
 -0.046194;3.680866;1.050000;,
 -0.150000;3.700000;1.150000;,
 -0.050000;3.700000;1.050000;,
 -0.138582;3.757402;1.150000;,
 -0.046194;3.719134;1.050000;,
 -0.106066;3.806066;1.150000;,
 -0.035355;3.735355;1.050000;,
 -0.057402;3.838582;1.150000;,
 -0.019134;3.746194;1.050000;,
 -0.000000;3.850000;1.150000;,
 -0.000000;3.750000;1.050000;,
 0.057402;3.838582;1.150000;,
 0.019134;3.746194;1.050000;,
 0.106066;3.806066;1.150000;,
 0.035355;3.735355;1.050000;,
 0.138582;3.757402;1.150000;,
 0.046194;3.719134;1.050000;;
 826;
 3;0,1,3;,
 3;0,3,2;,
 3;2,3,1;,
 3;2,1,0;,
 3;2,3,5;,
 3;2,5,4;,
 3;4,5,3;,
 3;4,3,2;,
 3;4,5,7;,
 3;4,7,6;,
 3;6,7,5;,
 3;6,5,4;,
 3;0,8,9;,
 3;0,9,1;,
 3;1,9,8;,
 3;1,8,0;,
 3;0,10,8;,
 3;8,10,0;,
 3;1,9,11;,
 3;11,9,1;,
 3;0,2,12;,
 3;0,12,10;,
 3;10,12,2;,
 3;10,2,0;,
 3;2,4,14;,
 3;2,14,12;,
 3;12,14,4;,
 3;12,4,2;,
 3;4,6,16;,
 3;4,16,14;,
 3;14,16,6;,
 3;14,6,4;,
 3;4,16,14;,
 3;14,16,4;,
 3;4,18,16;,
 3;16,18,4;,
 3;6,8,18;,
 3;18,8,6;,
 3;6,20,18;,
 3;18,20,6;,
 3;1,3,13;,
 3;1,13,11;,
 3;11,13,3;,
 3;11,3,1;,
 3;3,5,15;,
 3;3,15,13;,
 3;13,15,5;,
 3;13,5,3;,
 3;5,7,17;,
 3;5,17,15;,
 3;15,17,7;,
 3;15,7,5;,
 3;5,17,15;,
 3;15,17,5;,
 3;5,19,17;,
 3;17,19,5;,
 3;7,9,19;,
 3;19,9,7;,
 3;7,21,19;,
 3;19,21,7;,
 3;8,22,23;,
 3;8,23,9;,
 3;9,23,22;,
 3;9,22,8;,
 3;8,24,22;,
 3;22,24,8;,
 3;8,10,24;,
 3;24,10,8;,
 3;10,26,24;,
 3;24,26,10;,
 3;10,12,28;,
 3;10,28,26;,
 3;26,28,12;,
 3;26,12,10;,
 3;12,14,30;,
 3;12,30,28;,
 3;28,30,14;,
 3;28,14,12;,
 3;14,16,32;,
 3;14,32,30;,
 3;30,32,16;,
 3;30,16,14;,
 3;16,18,34;,
 3;16,34,32;,
 3;32,34,18;,
 3;32,18,16;,
 3;18,20,36;,
 3;18,36,34;,
 3;34,36,20;,
 3;34,20,18;,
 3;9,25,23;,
 3;23,25,9;,
 3;9,11,25;,
 3;25,11,9;,
 3;11,27,25;,
 3;25,27,11;,
 3;11,13,29;,
 3;11,29,27;,
 3;27,29,13;,
 3;27,13,11;,
 3;13,15,31;,
 3;13,31,29;,
 3;29,31,15;,
 3;29,15,13;,
 3;15,17,33;,
 3;15,33,31;,
 3;31,33,17;,
 3;31,17,15;,
 3;17,19,35;,
 3;17,35,33;,
 3;33,35,19;,
 3;33,19,17;,
 3;19,21,37;,
 3;19,37,35;,
 3;35,37,21;,
 3;35,21,19;,
 3;22,38,39;,
 3;22,39,23;,
 3;23,39,38;,
 3;23,38,22;,
 3;22,24,40;,
 3;22,40,38;,
 3;38,40,24;,
 3;38,24,22;,
 3;24,42,40;,
 3;40,42,24;,
 3;24,26,42;,
 3;42,26,24;,
 3;26,44,42;,
 3;42,44,26;,
 3;26,28,46;,
 3;26,46,44;,
 3;44,46,28;,
 3;44,28,26;,
 3;28,30,48;,
 3;28,48,46;,
 3;46,48,30;,
 3;46,30,28;,
 3;30,32,50;,
 3;30,50,48;,
 3;48,50,32;,
 3;48,32,30;,
 3;32,34,52;,
 3;32,52,50;,
 3;50,52,34;,
 3;50,34,32;,
 3;34,36,54;,
 3;34,54,52;,
 3;52,54,36;,
 3;52,36,34;,
 3;23,25,41;,
 3;23,41,39;,
 3;39,41,25;,
 3;39,25,23;,
 3;25,43,41;,
 3;41,43,25;,
 3;25,27,43;,
 3;43,27,25;,
 3;27,45,43;,
 3;43,45,27;,
 3;27,29,47;,
 3;27,47,45;,
 3;45,47,29;,
 3;45,29,27;,
 3;29,31,49;,
 3;29,49,47;,
 3;47,49,31;,
 3;47,31,29;,
 3;31,33,51;,
 3;31,51,49;,
 3;49,51,33;,
 3;49,33,31;,
 3;33,35,53;,
 3;33,53,51;,
 3;51,53,35;,
 3;51,35,33;,
 3;35,37,55;,
 3;35,55,53;,
 3;53,55,37;,
 3;53,37,35;,
 3;56,57,59;,
 3;56,59,58;,
 3;58,59,57;,
 3;58,57,56;,
 3;58,59,61;,
 3;58,61,60;,
 3;60,61,59;,
 3;60,59,58;,
 3;56,58,64;,
 3;56,64,62;,
 3;62,64,58;,
 3;62,58,56;,
 3;58,60,66;,
 3;58,66,64;,
 3;64,66,60;,
 3;64,60,58;,
 3;57,59,65;,
 3;57,65,63;,
 3;63,65,59;,
 3;63,59,57;,
 3;59,61,67;,
 3;59,67,65;,
 3;65,67,61;,
 3;65,61,59;,
 3;62,64,70;,
 3;62,70,68;,
 3;68,70,64;,
 3;68,64,62;,
 3;63,65,71;,
 3;63,71,69;,
 3;69,71,65;,
 3;69,65,63;,
 3;72,73,75;,
 3;72,75,74;,
 3;74,75,73;,
 3;74,73,72;,
 3;74,75,77;,
 3;74,77,76;,
 3;76,77,75;,
 3;76,75,74;,
 3;78,88,90;,
 3;78,90,80;,
 3;80,90,88;,
 3;80,88,78;,
 3;79,81,91;,
 3;79,91,89;,
 3;89,91,81;,
 3;89,81,79;,
 3;80,90,92;,
 3;80,92,82;,
 3;82,92,90;,
 3;82,90,80;,
 3;81,83,93;,
 3;81,93,91;,
 3;91,93,83;,
 3;91,83,81;,
 3;82,92,94;,
 3;82,94,84;,
 3;84,94,92;,
 3;84,92,82;,
 3;83,85,95;,
 3;83,95,93;,
 3;93,95,85;,
 3;93,85,83;,
 3;84,94,96;,
 3;84,96,86;,
 3;86,96,94;,
 3;86,94,84;,
 3;85,87,97;,
 3;85,97,95;,
 3;95,97,87;,
 3;95,87,85;,
 3;88,98,100;,
 3;88,100,90;,
 3;90,100,98;,
 3;90,98,88;,
 3;89,91,101;,
 3;89,101,99;,
 3;99,101,91;,
 3;99,91,89;,
 3;90,100,102;,
 3;90,102,92;,
 3;92,102,100;,
 3;92,100,90;,
 3;91,93,103;,
 3;91,103,101;,
 3;101,103,93;,
 3;101,93,91;,
 3;92,102,104;,
 3;92,104,94;,
 3;94,104,102;,
 3;94,102,92;,
 3;93,95,105;,
 3;93,105,103;,
 3;103,105,95;,
 3;103,95,93;,
 3;94,104,106;,
 3;94,106,96;,
 3;96,106,104;,
 3;96,104,94;,
 3;95,97,107;,
 3;95,107,105;,
 3;105,107,97;,
 3;105,97,95;,
 3;88,98,109;,
 3;88,109,108;,
 3;108,109,98;,
 3;108,98,88;,
 3;108,109,99;,
 3;108,99,89;,
 3;89,99,109;,
 3;89,109,108;,
 3;96,106,107;,
 3;96,107,97;,
 3;97,107,106;,
 3;97,106,96;,
 3;110,112,116;,
 3;110,116,114;,
 3;114,116,112;,
 3;114,112,110;,
 3;111,113,117;,
 3;111,117,115;,
 3;115,117,113;,
 3;115,113,111;,
 3;118,119,120;,
 3;118,120,121;,
 3;121,120,124;,
 3;121,124,125;,
 3;125,124,123;,
 3;125,123,122;,
 3;122,123,119;,
 3;122,119,118;,
 3;118,121,125;,
 3;118,125,122;,
 3;119,123,124;,
 3;119,124,120;,
 3;126,128,134;,
 3;126,134,132;,
 3;132,134,128;,
 3;132,128,126;,
 3;127,133,135;,
 3;127,135,129;,
 3;129,135,133;,
 3;129,133,127;,
 3;126,132,136;,
 3;126,136,130;,
 3;130,136,132;,
 3;130,132,126;,
 3;130,136,139;,
 3;130,139,138;,
 3;138,139,136;,
 3;138,136,130;,
 3;138,139,137;,
 3;138,137,131;,
 3;131,137,139;,
 3;131,139,138;,
 3;131,137,133;,
 3;131,133,127;,
 3;127,133,137;,
 3;127,137,131;,
 3;140,142,148;,
 3;140,148,146;,
 3;146,148,142;,
 3;146,142,140;,
 3;141,147,149;,
 3;141,149,143;,
 3;143,149,147;,
 3;143,147,141;,
 3;140,146,150;,
 3;140,150,144;,
 3;144,150,146;,
 3;144,146,140;,
 3;144,150,153;,
 3;144,153,152;,
 3;152,153,150;,
 3;152,150,144;,
 3;152,153,151;,
 3;152,151,145;,
 3;145,151,153;,
 3;145,153,152;,
 3;145,151,147;,
 3;145,147,141;,
 3;141,147,151;,
 3;141,151,145;,
 3;154,156,158;,
 3;154,158,160;,
 3;154,160,162;,
 3;154,162,164;,
 3;154,164,163;,
 3;154,163,161;,
 3;154,161,159;,
 3;154,159,157;,
 3;154,157,155;,
 3;155,157,159;,
 3;155,159,161;,
 3;155,161,163;,
 3;155,163,164;,
 3;155,164,162;,
 3;155,162,160;,
 3;155,160,158;,
 3;155,158,156;,
 3;155,156,154;,
 3;165,166,168;,
 3;165,168,167;,
 3;167,168,166;,
 3;167,166,165;,
 3;167,168,172;,
 3;167,172,171;,
 3;171,172,168;,
 3;171,168,167;,
 3;169,170,172;,
 3;169,172,171;,
 3;171,172,170;,
 3;171,170,169;,
 3;173,174,177;,
 3;173,177,176;,
 3;176,177,174;,
 3;176,174,173;,
 3;174,175,178;,
 3;174,178,177;,
 3;177,178,175;,
 3;177,175,174;,
 3;179,180,182;,
 3;179,182,181;,
 3;181,182,180;,
 3;181,180,179;,
 3;183,184,186;,
 3;183,186,185;,
 3;185,186,184;,
 3;185,184,183;,
 3;187,192,193;,
 3;187,193,188;,
 3;188,193,192;,
 3;188,192,187;,
 3;188,193,194;,
 3;188,194,189;,
 3;189,194,193;,
 3;189,193,188;,
 3;189,194,195;,
 3;189,195,190;,
 3;190,195,194;,
 3;190,194,189;,
 3;190,195,196;,
 3;190,196,191;,
 3;191,196,195;,
 3;191,195,190;,
 3;199,197,201;,
 3;199,201,209;,
 3;199,209,202;,
 3;199,202,198;,
 3;199,198,200;,
 3;200,198,202;,
 3;200,202,209;,
 3;200,209,201;,
 3;200,201,197;,
 3;200,197,199;,
 3;205,206,204;,
 3;205,204,208;,
 3;205,208,210;,
 3;205,210,207;,
 3;205,207,203;,
 3;203,207,210;,
 3;203,210,208;,
 3;203,208,204;,
 3;203,204,206;,
 3;203,206,205;,
 3;197,199,205;,
 3;197,205,203;,
 3;203,205,199;,
 3;203,199,197;,
 3;198,204,206;,
 3;198,206,200;,
 3;200,206,204;,
 3;200,204,198;,
 3;197,203,207;,
 3;197,207,201;,
 3;201,207,203;,
 3;201,203,197;,
 3;201,207,210;,
 3;201,210,209;,
 3;209,210,207;,
 3;209,207,201;,
 3;209,210,208;,
 3;209,208,202;,
 3;202,208,210;,
 3;202,210,209;,
 3;202,208,204;,
 3;202,204,198;,
 3;198,204,208;,
 3;198,208,202;,
 3;213,211,215;,
 3;213,215,223;,
 3;213,223,216;,
 3;213,216,212;,
 3;213,212,214;,
 3;214,212,216;,
 3;214,216,223;,
 3;214,223,215;,
 3;214,215,211;,
 3;214,211,213;,
 3;219,220,218;,
 3;219,218,222;,
 3;219,222,224;,
 3;219,224,221;,
 3;219,221,217;,
 3;217,221,224;,
 3;217,224,222;,
 3;217,222,218;,
 3;217,218,220;,
 3;217,220,219;,
 3;211,213,219;,
 3;211,219,217;,
 3;217,219,213;,
 3;217,213,211;,
 3;212,218,220;,
 3;212,220,214;,
 3;214,220,218;,
 3;214,218,212;,
 3;211,217,221;,
 3;211,221,215;,
 3;215,221,217;,
 3;215,217,211;,
 3;215,221,224;,
 3;215,224,223;,
 3;223,224,221;,
 3;223,221,215;,
 3;223,224,222;,
 3;223,222,216;,
 3;216,222,224;,
 3;216,224,223;,
 3;216,222,218;,
 3;216,218,212;,
 3;212,218,222;,
 3;212,222,216;,
 3;225,226,228;,
 3;225,228,227;,
 3;227,228,226;,
 3;227,226,225;,
 3;233,235,236;,
 3;233,236,234;,
 3;234,236,235;,
 3;234,235,233;,
 3;225,227,235;,
 3;225,235,233;,
 3;225,233,231;,
 3;225,231,229;,
 3;229,231,233;,
 3;229,233,235;,
 3;229,235,227;,
 3;229,227,225;,
 3;226,230,232;,
 3;226,232,234;,
 3;226,234,236;,
 3;226,236,228;,
 3;228,236,234;,
 3;228,234,232;,
 3;228,232,230;,
 3;228,230,226;,
 3;225,229,230;,
 3;225,230,226;,
 3;226,230,229;,
 3;226,229,225;,
 3;229,231,232;,
 3;229,232,230;,
 3;230,232,231;,
 3;230,231,229;,
 3;231,233,234;,
 3;231,234,232;,
 3;232,234,233;,
 3;232,233,231;,
 3;237,238,240;,
 3;237,240,239;,
 3;239,240,238;,
 3;239,238,237;,
 3;245,247,248;,
 3;245,248,246;,
 3;246,248,247;,
 3;246,247,245;,
 3;237,239,247;,
 3;237,247,245;,
 3;237,245,243;,
 3;237,243,241;,
 3;241,243,245;,
 3;241,245,247;,
 3;241,247,239;,
 3;241,239,237;,
 3;238,242,244;,
 3;238,244,246;,
 3;238,246,248;,
 3;238,248,240;,
 3;240,248,246;,
 3;240,246,244;,
 3;240,244,242;,
 3;240,242,238;,
 3;237,241,242;,
 3;237,242,238;,
 3;238,242,241;,
 3;238,241,237;,
 3;241,243,244;,
 3;241,244,242;,
 3;242,244,243;,
 3;242,243,241;,
 3;243,245,246;,
 3;243,246,244;,
 3;244,246,245;,
 3;244,245,243;,
 3;250,249,251;,
 3;250,251,252;,
 3;252,251,253;,
 3;252,253,254;,
 3;254,253,255;,
 3;254,255,256;,
 3;256,255,257;,
 3;256,257,258;,
 3;258,257,259;,
 3;258,259,260;,
 3;260,259,261;,
 3;260,261,262;,
 3;262,261,263;,
 3;262,263,264;,
 3;264,263,265;,
 3;264,265,266;,
 3;266,265,267;,
 3;266,267,268;,
 3;268,267,269;,
 3;268,269,270;,
 3;270,269,271;,
 3;270,271,272;,
 3;272,271,273;,
 3;272,273,274;,
 3;274,273,275;,
 3;274,275,276;,
 3;276,275,277;,
 3;276,277,278;,
 3;278,277,279;,
 3;278,279,280;,
 3;280,279,249;,
 3;280,249,250;,
 3;279,277,275;,
 3;279,275,273;,
 3;279,273,271;,
 3;279,271,269;,
 3;279,269,267;,
 3;279,267,265;,
 3;279,265,263;,
 3;279,263,261;,
 3;279,261,259;,
 3;279,259,257;,
 3;279,257,255;,
 3;279,255,253;,
 3;279,253,251;,
 3;279,251,249;,
 3;250,252,254;,
 3;250,254,256;,
 3;250,256,258;,
 3;250,258,260;,
 3;250,260,262;,
 3;250,262,264;,
 3;250,264,266;,
 3;250,266,268;,
 3;250,268,270;,
 3;250,270,272;,
 3;250,272,274;,
 3;250,274,276;,
 3;250,276,278;,
 3;250,278,280;,
 3;282,281,283;,
 3;282,283,284;,
 3;284,283,285;,
 3;284,285,286;,
 3;286,285,287;,
 3;286,287,288;,
 3;288,287,289;,
 3;288,289,290;,
 3;290,289,291;,
 3;290,291,292;,
 3;292,291,293;,
 3;292,293,294;,
 3;294,293,295;,
 3;294,295,296;,
 3;296,295,297;,
 3;296,297,298;,
 3;298,297,299;,
 3;298,299,300;,
 3;300,299,301;,
 3;300,301,302;,
 3;302,301,303;,
 3;302,303,304;,
 3;304,303,305;,
 3;304,305,306;,
 3;306,305,307;,
 3;306,307,308;,
 3;308,307,309;,
 3;308,309,310;,
 3;310,309,311;,
 3;310,311,312;,
 3;312,311,281;,
 3;312,281,282;,
 3;311,309,307;,
 3;311,307,305;,
 3;311,305,303;,
 3;311,303,301;,
 3;311,301,299;,
 3;311,299,297;,
 3;311,297,295;,
 3;311,295,293;,
 3;311,293,291;,
 3;311,291,289;,
 3;311,289,287;,
 3;311,287,285;,
 3;311,285,283;,
 3;311,283,281;,
 3;282,284,286;,
 3;282,286,288;,
 3;282,288,290;,
 3;282,290,292;,
 3;282,292,294;,
 3;282,294,296;,
 3;282,296,298;,
 3;282,298,300;,
 3;282,300,302;,
 3;282,302,304;,
 3;282,304,306;,
 3;282,306,308;,
 3;282,308,310;,
 3;282,310,312;,
 3;314,313,315;,
 3;314,315,316;,
 3;316,315,317;,
 3;316,317,318;,
 3;318,317,319;,
 3;318,319,320;,
 3;320,319,321;,
 3;320,321,322;,
 3;322,321,323;,
 3;322,323,324;,
 3;324,323,325;,
 3;324,325,326;,
 3;326,325,327;,
 3;326,327,328;,
 3;328,327,329;,
 3;328,329,330;,
 3;330,329,331;,
 3;330,331,332;,
 3;332,331,333;,
 3;332,333,334;,
 3;334,333,335;,
 3;334,335,336;,
 3;336,335,337;,
 3;336,337,338;,
 3;338,337,339;,
 3;338,339,340;,
 3;340,339,341;,
 3;340,341,342;,
 3;342,341,343;,
 3;342,343,344;,
 3;344,343,313;,
 3;344,313,314;,
 3;343,341,339;,
 3;343,339,337;,
 3;343,337,335;,
 3;343,335,333;,
 3;343,333,331;,
 3;343,331,329;,
 3;343,329,327;,
 3;343,327,325;,
 3;343,325,323;,
 3;343,323,321;,
 3;343,321,319;,
 3;343,319,317;,
 3;343,317,315;,
 3;343,315,313;,
 3;314,316,318;,
 3;314,318,320;,
 3;314,320,322;,
 3;314,322,324;,
 3;314,324,326;,
 3;314,326,328;,
 3;314,328,330;,
 3;314,330,332;,
 3;314,332,334;,
 3;314,334,336;,
 3;314,336,338;,
 3;314,338,340;,
 3;314,340,342;,
 3;314,342,344;,
 3;346,345,347;,
 3;346,347,348;,
 3;348,347,349;,
 3;348,349,350;,
 3;350,349,351;,
 3;350,351,352;,
 3;352,351,353;,
 3;352,353,354;,
 3;354,353,355;,
 3;354,355,356;,
 3;356,355,357;,
 3;356,357,358;,
 3;358,357,359;,
 3;358,359,360;,
 3;360,359,361;,
 3;360,361,362;,
 3;362,361,363;,
 3;362,363,364;,
 3;364,363,365;,
 3;364,365,366;,
 3;366,365,367;,
 3;366,367,368;,
 3;368,367,369;,
 3;368,369,370;,
 3;370,369,371;,
 3;370,371,372;,
 3;372,371,373;,
 3;372,373,374;,
 3;374,373,375;,
 3;374,375,376;,
 3;376,375,345;,
 3;376,345,346;,
 3;375,373,371;,
 3;375,371,369;,
 3;375,369,367;,
 3;375,367,365;,
 3;375,365,363;,
 3;375,363,361;,
 3;375,361,359;,
 3;375,359,357;,
 3;375,357,355;,
 3;375,355,353;,
 3;375,353,351;,
 3;375,351,349;,
 3;375,349,347;,
 3;375,347,345;,
 3;346,348,350;,
 3;346,350,352;,
 3;346,352,354;,
 3;346,354,356;,
 3;346,356,358;,
 3;346,358,360;,
 3;346,360,362;,
 3;346,362,364;,
 3;346,364,366;,
 3;346,366,368;,
 3;346,368,370;,
 3;346,370,372;,
 3;346,372,374;,
 3;346,374,376;;

 MeshMaterialList  {
  18;
  826;
  0,
  0,
  0,
  0,
  0,
  0,
  0,
  0,
  0,
  0,
  0,
  0,
  0,
  0,
  0,
  0,
  0,
  0,
  0,
  0,
  0,
  0,
  0,
  0,
  0,
  0,
  0,
  0,
  0,
  0,
  0,
  0,
  0,
  0,
  0,
  0,
  0,
  0,
  0,
  0,
  0,
  0,
  0,
  0,
  0,
  0,
  0,
  0,
  0,
  0,
  0,
  0,
  0,
  0,
  0,
  0,
  0,
  0,
  0,
  0,
  0,
  0,
  0,
  0,
  0,
  0,
  0,
  0,
  0,
  0,
  0,
  0,
  0,
  0,
  0,
  0,
  0,
  0,
  0,
  0,
  0,
  0,
  0,
  0,
  0,
  0,
  0,
  0,
  0,
  0,
  0,
  0,
  0,
  0,
  0,
  0,
  0,
  0,
  0,
  0,
  0,
  0,
  0,
  0,
  0,
  0,
  0,
  0,
  0,
  0,
  0,
  0,
  0,
  0,
  0,
  0,
  0,
  0,
  0,
  0,
  0,
  0,
  0,
  0,
  0,
  0,
  0,
  0,
  0,
  0,
  0,
  0,
  0,
  0,
  0,
  0,
  0,
  0,
  0,
  0,
  0,
  0,
  0,
  0,
  0,
  0,
  0,
  0,
  0,
  0,
  0,
  0,
  0,
  0,
  0,
  0,
  0,
  0,
  0,
  0,
  0,
  0,
  0,
  0,
  0,
  0,
  0,
  0,
  0,
  0,
  0,
  0,
  0,
  0,
  0,
  0,
  0,
  0,
  0,
  0,
  0,
  0,
  0,
  0,
  0,
  0,
  0,
  0,
  0,
  0,
  0,
  0,
  0,
  0,
  0,
  0,
  0,
  0,
  0,
  0,
  0,
  0,
  0,
  0,
  0,
  0,
  0,
  0,
  0,
  0,
  0,
  0,
  1,
  1,
  1,
  1,
  1,
  1,
  1,
  1,
  2,
  2,
  2,
  2,
  2,
  2,
  2,
  2,
  2,
  2,
  2,
  2,
  2,
  2,
  2,
  2,
  2,
  2,
  2,
  2,
  2,
  2,
  2,
  2,
  2,
  2,
  2,
  2,
  2,
  2,
  2,
  2,
  2,
  2,
  2,
  2,
  2,
  2,
  2,
  2,
  2,
  2,
  2,
  2,
  2,
  2,
  2,
  2,
  2,
  2,
  2,
  2,
  2,
  2,
  2,
  2,
  2,
  2,
  2,
  2,
  2,
  2,
  2,
  2,
  2,
  2,
  2,
  2,
  2,
  2,
  2,
  2,
  2,
  2,
  2,
  2,
  3,
  3,
  3,
  3,
  3,
  3,
  3,
  3,
  4,
  4,
  4,
  4,
  4,
  4,
  4,
  4,
  4,
  4,
  4,
  4,
  5,
  5,
  5,
  5,
  5,
  5,
  5,
  5,
  5,
  5,
  5,
  5,
  5,
  5,
  5,
  5,
  5,
  5,
  5,
  5,
  5,
  5,
  5,
  5,
  6,
  6,
  6,
  6,
  6,
  6,
  6,
  6,
  6,
  6,
  6,
  6,
  6,
  6,
  6,
  6,
  6,
  6,
  6,
  6,
  6,
  6,
  6,
  6,
  7,
  7,
  7,
  7,
  7,
  7,
  7,
  7,
  7,
  7,
  7,
  7,
  7,
  7,
  7,
  7,
  7,
  7,
  8,
  8,
  8,
  8,
  8,
  8,
  8,
  8,
  8,
  8,
  8,
  8,
  8,
  8,
  8,
  8,
  8,
  8,
  8,
  8,
  8,
  8,
  8,
  8,
  8,
  8,
  8,
  8,
  9,
  9,
  9,
  9,
  9,
  9,
  9,
  9,
  9,
  9,
  9,
  9,
  9,
  9,
  9,
  9,
  10,
  10,
  10,
  10,
  10,
  10,
  10,
  10,
  10,
  10,
  10,
  10,
  10,
  10,
  10,
  10,
  10,
  10,
  10,
  10,
  10,
  10,
  10,
  10,
  10,
  10,
  10,
  10,
  10,
  10,
  10,
  10,
  10,
  10,
  10,
  10,
  10,
  10,
  10,
  10,
  10,
  10,
  10,
  10,
  11,
  11,
  11,
  11,
  11,
  11,
  11,
  11,
  11,
  11,
  11,
  11,
  11,
  11,
  11,
  11,
  11,
  11,
  11,
  11,
  11,
  11,
  11,
  11,
  11,
  11,
  11,
  11,
  11,
  11,
  11,
  11,
  11,
  11,
  11,
  11,
  11,
  11,
  11,
  11,
  11,
  11,
  11,
  11,
  12,
  12,
  12,
  12,
  12,
  12,
  12,
  12,
  12,
  12,
  12,
  12,
  12,
  12,
  12,
  12,
  12,
  12,
  12,
  12,
  12,
  12,
  12,
  12,
  12,
  12,
  12,
  12,
  12,
  12,
  12,
  12,
  12,
  12,
  12,
  12,
  13,
  13,
  13,
  13,
  13,
  13,
  13,
  13,
  13,
  13,
  13,
  13,
  13,
  13,
  13,
  13,
  13,
  13,
  13,
  13,
  13,
  13,
  13,
  13,
  13,
  13,
  13,
  13,
  13,
  13,
  13,
  13,
  13,
  13,
  13,
  13,
  14,
  14,
  14,
  14,
  14,
  14,
  14,
  14,
  14,
  14,
  14,
  14,
  14,
  14,
  14,
  14,
  14,
  14,
  14,
  14,
  14,
  14,
  14,
  14,
  14,
  14,
  14,
  14,
  14,
  14,
  14,
  14,
  14,
  14,
  14,
  14,
  14,
  14,
  14,
  14,
  14,
  14,
  14,
  14,
  14,
  14,
  14,
  14,
  14,
  14,
  14,
  14,
  14,
  14,
  14,
  14,
  14,
  14,
  14,
  14,
  15,
  15,
  15,
  15,
  15,
  15,
  15,
  15,
  15,
  15,
  15,
  15,
  15,
  15,
  15,
  15,
  15,
  15,
  15,
  15,
  15,
  15,
  15,
  15,
  15,
  15,
  15,
  15,
  15,
  15,
  15,
  15,
  15,
  15,
  15,
  15,
  15,
  15,
  15,
  15,
  15,
  15,
  15,
  15,
  15,
  15,
  15,
  15,
  15,
  15,
  15,
  15,
  15,
  15,
  15,
  15,
  15,
  15,
  15,
  15,
  16,
  16,
  16,
  16,
  16,
  16,
  16,
  16,
  16,
  16,
  16,
  16,
  16,
  16,
  16,
  16,
  16,
  16,
  16,
  16,
  16,
  16,
  16,
  16,
  16,
  16,
  16,
  16,
  16,
  16,
  16,
  16,
  16,
  16,
  16,
  16,
  16,
  16,
  16,
  16,
  16,
  16,
  16,
  16,
  16,
  16,
  16,
  16,
  16,
  16,
  16,
  16,
  16,
  16,
  16,
  16,
  16,
  16,
  16,
  16,
  17,
  17,
  17,
  17,
  17,
  17,
  17,
  17,
  17,
  17,
  17,
  17,
  17,
  17,
  17,
  17,
  17,
  17,
  17,
  17,
  17,
  17,
  17,
  17,
  17,
  17,
  17,
  17,
  17,
  17,
  17,
  17,
  17,
  17,
  17,
  17,
  17,
  17,
  17,
  17,
  17,
  17,
  17,
  17,
  17,
  17,
  17,
  17,
  17,
  17,
  17,
  17,
  17,
  17,
  17,
  17,
  17,
  17,
  17,
  17;

  Material  {
   1.000000;1.000000;1.000000;1.000000;;
   0.000000;
   0.000000;0.000000;0.000000;;
   0.000000;0.000000;0.000000;;

   TextureFilename  {
    "P100.dds";
   }
  }

  Material  {
   0.705882;0.705882;0.745098;1.000000;;
   0.000000;
   0.000000;0.000000;0.000000;;
   0.000000;0.000000;0.000000;;
  }

  Material  {
   1.000000;1.000000;1.000000;1.000000;;
   0.000000;
   0.000000;0.000000;0.000000;;
   0.000000;0.000000;0.000000;;

   TextureFilename  {
    "P100_side1.dds";
   }
  }

  Material  {
   1.000000;1.000000;1.000000;1.000000;;
   0.000000;
   0.000000;0.000000;0.000000;;
   0.000000;0.000000;0.000000;;

   TextureFilename  {
    "P100_side2.dds";
   }
  }

  Material  {
   0.000000;0.000000;0.000000;0.250980;;
   0.000000;
   0.000000;0.000000;0.000000;;
   0.000000;0.000000;0.000000;;
  }

  Material  {
   1.000000;1.000000;1.000000;1.000000;;
   0.000000;
   0.000000;0.000000;0.000000;;
   0.000000;0.000000;0.000000;;

   TextureFilename  {
    "kool0.dds";
   }
  }

  Material  {
   1.000000;1.000000;1.000000;1.000000;;
   0.000000;
   0.000000;0.000000;0.000000;;
   0.000000;0.000000;0.000000;;

   TextureFilename  {
    "kool0.dds";
   }
  }

  Material  {
   0.705882;0.705882;0.705882;1.000000;;
   0.000000;
   0.000000;0.000000;0.000000;;
   0.000000;0.000000;0.000000;;
  }

  Material  {
   1.000000;1.000000;1.000000;1.000000;;
   0.000000;
   0.000000;0.000000;0.000000;;
   0.000000;0.000000;0.000000;;

   TextureFilename  {
    "P100_pipe.dds";
   }
  }

  Material  {
   0.509804;0.509804;0.509804;1.000000;;
   0.000000;
   0.000000;0.000000;0.000000;;
   0.000000;0.000000;0.000000;;
  }

  Material  {
   0.862745;0.862745;0.862745;1.000000;;
   0.000000;
   0.000000;0.000000;0.000000;;
   0.000000;0.000000;0.000000;;
  }

  Material  {
   0.862745;0.862745;0.862745;1.000000;;
   0.000000;
   0.000000;0.000000;0.000000;;
   0.000000;0.000000;0.000000;;
  }

  Material  {
   0.941176;0.980392;0.980392;1.000000;;
   0.000000;
   0.000000;0.000000;0.000000;;
   0.000000;0.000000;0.000000;;
  }

  Material  {
   0.941176;0.980392;0.980392;1.000000;;
   0.000000;
   0.000000;0.000000;0.000000;;
   0.000000;0.000000;0.000000;;
  }

  Material  {
   0.509804;0.509804;0.509804;1.000000;;
   0.000000;
   0.000000;0.000000;0.000000;;
   0.000000;0.000000;0.000000;;
  }

  Material  {
   0.784314;0.823529;0.862745;1.000000;;
   0.000000;
   0.000000;0.000000;0.000000;;
   0.000000;0.000000;0.000000;;
  }

  Material  {
   0.784314;0.823529;0.862745;1.000000;;
   0.000000;
   0.000000;0.000000;0.000000;;
   0.000000;0.000000;0.000000;;
  }

  Material  {
   0.784314;0.823529;0.862745;1.000000;;
   0.000000;
   0.000000;0.000000;0.000000;;
   0.000000;0.000000;0.000000;;
  }
 }

 MeshTextureCoords  {
  377;
  0.344000;0.125000;,
  0.656000;0.125000;,
  0.344000;0.250000;,
  0.656000;0.250000;,
  0.344000;0.500000;,
  0.656000;0.500000;,
  0.344000;0.750000;,
  0.656000;0.750000;,
  0.344000;0.110000;,
  0.656000;0.110000;,
  0.172000;0.125000;,
  0.828000;0.125000;,
  0.172000;0.250000;,
  0.828000;0.250000;,
  0.172000;0.500000;,
  0.828000;0.500000;,
  0.172000;0.540000;,
  0.828000;0.540000;,
  0.172000;0.554000;,
  0.828000;0.554000;,
  0.172000;0.750000;,
  0.828000;0.750000;,
  0.344000;0.100000;,
  0.656000;0.100000;,
  0.172000;0.110000;,
  0.828000;0.110000;,
  0.071000;0.125000;,
  0.929000;0.125000;,
  0.071000;0.250000;,
  0.929000;0.250000;,
  0.071000;0.500000;,
  0.929000;0.500000;,
  0.071000;0.540000;,
  0.929000;0.540000;,
  0.071000;0.554000;,
  0.929000;0.554000;,
  0.071000;0.750000;,
  0.929000;0.750000;,
  0.344000;0.090000;,
  0.656000;0.090000;,
  0.172000;0.100000;,
  0.828000;0.100000;,
  0.071000;0.110000;,
  0.929000;0.110000;,
  0.000000;0.125000;,
  1.000000;0.125000;,
  0.000000;0.250000;,
  1.000000;0.250000;,
  0.000000;0.500000;,
  1.000000;0.500000;,
  0.000000;0.540000;,
  1.000000;0.540000;,
  0.000000;0.554000;,
  1.000000;0.554000;,
  0.000000;0.750000;,
  1.000000;0.750000;,
  0.310000;0.750000;,
  0.690000;0.750000;,
  0.310000;0.950000;,
  0.690000;0.950000;,
  0.310000;1.000000;,
  0.690000;1.000000;,
  0.100000;0.750000;,
  0.900000;0.750000;,
  0.100000;0.950000;,
  0.900000;0.950000;,
  0.100000;1.000000;,
  0.900000;1.000000;,
  0.000000;0.750000;,
  1.000000;0.750000;,
  0.000000;0.950000;,
  1.000000;0.950000;,
  0.000000;0.000000;,
  0.000000;0.000000;,
  0.000000;0.000000;,
  0.000000;0.000000;,
  0.000000;0.000000;,
  0.000000;0.000000;,
  1.000000;0.000000;,
  1.000000;0.000000;,
  1.000000;0.010000;,
  1.000000;0.010000;,
  1.000000;0.660000;,
  1.000000;0.660000;,
  1.000000;0.680000;,
  1.000000;0.680000;,
  1.000000;1.000000;,
  1.000000;1.000000;,
  0.939000;0.000000;,
  0.939000;0.000000;,
  0.939000;0.010000;,
  0.939000;0.010000;,
  0.939000;0.660000;,
  0.939000;0.660000;,
  0.939000;0.680000;,
  0.939000;0.680000;,
  0.939000;1.000000;,
  0.939000;1.000000;,
  0.000000;0.000000;,
  0.000000;0.000000;,
  0.000000;0.010000;,
  0.000000;0.010000;,
  0.000000;0.660000;,
  0.000000;0.660000;,
  0.000000;0.680000;,
  0.000000;0.680000;,
  0.000000;1.000000;,
  0.000000;1.000000;,
  0.000000;0.000000;,
  0.000000;0.000000;,
  1.000000;0.000000;,
  1.000000;0.000000;,
  1.000000;1.000000;,
  1.000000;1.000000;,
  0.000000;0.000000;,
  0.000000;0.000000;,
  0.000000;1.000000;,
  0.000000;1.000000;,
  0.000000;0.000000;,
  0.000000;0.000000;,
  0.000000;0.000000;,
  0.000000;0.000000;,
  0.000000;0.000000;,
  0.000000;0.000000;,
  0.000000;0.000000;,
  0.000000;0.000000;,
  0.000000;0.060000;,
  0.000000;0.940000;,
  0.000000;0.000000;,
  0.000000;1.000000;,
  0.000000;0.200000;,
  0.000000;0.800000;,
  1.000000;0.060000;,
  1.000000;0.940000;,
  1.000000;0.000000;,
  1.000000;1.000000;,
  1.000000;0.200000;,
  1.000000;0.800000;,
  0.000000;0.500000;,
  1.000000;0.500000;,
  1.000000;0.060000;,
  1.000000;0.940000;,
  1.000000;0.000000;,
  1.000000;1.000000;,
  1.000000;0.200000;,
  1.000000;0.800000;,
  0.000000;0.060000;,
  0.000000;0.940000;,
  0.000000;0.000000;,
  0.000000;1.000000;,
  0.000000;0.200000;,
  0.000000;0.800000;,
  1.000000;0.500000;,
  0.000000;0.500000;,
  0.000000;0.000000;,
  0.000000;0.000000;,
  0.000000;0.000000;,
  0.000000;0.000000;,
  0.000000;0.000000;,
  0.000000;0.000000;,
  0.000000;0.000000;,
  0.000000;0.000000;,
  0.000000;0.000000;,
  0.000000;0.000000;,
  0.000000;0.000000;,
  0.000000;0.559000;,
  0.000000;1.000000;,
  1.000000;0.559000;,
  1.000000;1.000000;,
  0.000000;0.559000;,
  0.000000;1.000000;,
  1.000000;0.559000;,
  1.000000;1.000000;,
  0.000000;0.000000;,
  0.000000;0.078000;,
  0.000000;0.559000;,
  1.000000;0.000000;,
  1.000000;0.078000;,
  1.000000;0.559000;,
  0.000000;0.078000;,
  0.000000;0.559000;,
  1.000000;0.078000;,
  1.000000;0.559000;,
  0.000000;0.078000;,
  0.000000;0.559000;,
  1.000000;0.078000;,
  1.000000;0.559000;,
  0.000000;0.000000;,
  0.000000;0.000000;,
  0.000000;0.000000;,
  0.000000;0.000000;,
  0.000000;0.000000;,
  0.000000;0.000000;,
  0.000000;0.000000;,
  0.000000;0.000000;,
  0.000000;0.000000;,
  0.000000;0.000000;,
  0.000000;0.000000;,
  0.000000;0.000000;,
  0.000000;0.000000;,
  0.000000;0.000000;,
  0.000000;0.000000;,
  0.000000;0.000000;,
  0.000000;0.000000;,
  0.000000;0.000000;,
  0.000000;0.000000;,
  0.000000;0.000000;,
  0.000000;0.000000;,
  0.000000;0.000000;,
  0.000000;0.000000;,
  0.000000;0.000000;,
  0.000000;0.000000;,
  0.000000;0.000000;,
  0.000000;0.000000;,
  0.000000;0.000000;,
  0.000000;0.000000;,
  0.000000;0.000000;,
  0.000000;0.000000;,
  0.000000;0.000000;,
  0.000000;0.000000;,
  0.000000;0.000000;,
  0.000000;0.000000;,
  0.000000;0.000000;,
  0.000000;0.000000;,
  0.000000;0.000000;,
  0.000000;0.000000;,
  0.000000;0.000000;,
  0.000000;0.000000;,
  0.000000;0.000000;,
  0.000000;0.000000;,
  0.000000;0.000000;,
  0.000000;0.000000;,
  0.000000;0.000000;,
  0.000000;0.000000;,
  0.000000;0.000000;,
  0.000000;0.000000;,
  0.000000;0.000000;,
  0.000000;0.000000;,
  0.000000;0.000000;,
  0.000000;0.000000;,
  0.000000;0.000000;,
  0.000000;0.000000;,
  0.000000;0.000000;,
  0.000000;0.000000;,
  0.000000;0.000000;,
  0.000000;0.000000;,
  0.000000;0.000000;,
  0.000000;0.000000;,
  0.000000;0.000000;,
  0.000000;0.000000;,
  0.000000;0.000000;,
  0.000000;0.000000;,
  0.000000;0.000000;,
  0.000000;0.000000;,
  0.000000;0.000000;,
  0.000000;0.000000;,
  0.000000;0.000000;,
  0.000000;0.000000;,
  0.000000;0.000000;,
  0.000000;0.000000;,
  0.000000;0.000000;,
  0.000000;0.000000;,
  0.000000;0.000000;,
  0.000000;0.000000;,
  0.000000;0.000000;,
  0.000000;0.000000;,
  0.000000;0.000000;,
  0.000000;0.000000;,
  0.000000;0.000000;,
  0.000000;0.000000;,
  0.000000;0.000000;,
  0.000000;0.000000;,
  0.000000;0.000000;,
  0.000000;0.000000;,
  0.000000;0.000000;,
  0.000000;0.000000;,
  0.000000;0.000000;,
  0.000000;0.000000;,
  0.000000;0.000000;,
  0.000000;0.000000;,
  0.000000;0.000000;,
  0.000000;0.000000;,
  0.000000;0.000000;,
  0.000000;0.000000;,
  0.000000;0.000000;,
  0.000000;0.000000;,
  0.000000;0.000000;,
  0.000000;0.000000;,
  0.000000;0.000000;,
  0.000000;0.000000;,
  0.000000;0.000000;,
  0.000000;0.000000;,
  0.000000;0.000000;,
  0.000000;0.000000;,
  0.000000;0.000000;,
  0.000000;0.000000;,
  0.000000;0.000000;,
  0.000000;0.000000;,
  0.000000;0.000000;,
  0.000000;0.000000;,
  0.000000;0.000000;,
  0.000000;0.000000;,
  0.000000;0.000000;,
  0.000000;0.000000;,
  0.000000;0.000000;,
  0.000000;0.000000;,
  0.000000;0.000000;,
  0.000000;0.000000;,
  0.000000;0.000000;,
  0.000000;0.000000;,
  0.000000;0.000000;,
  0.000000;0.000000;,
  0.000000;0.000000;,
  0.000000;0.000000;,
  0.000000;0.000000;,
  0.000000;0.000000;,
  0.000000;0.000000;,
  0.000000;0.000000;,
  0.000000;0.000000;,
  0.000000;0.000000;,
  0.000000;0.000000;,
  0.000000;0.000000;,
  0.000000;0.000000;,
  0.000000;0.000000;,
  0.000000;0.000000;,
  0.000000;0.000000;,
  0.000000;0.000000;,
  0.000000;0.000000;,
  0.000000;0.000000;,
  0.000000;0.000000;,
  0.000000;0.000000;,
  0.000000;0.000000;,
  0.000000;0.000000;,
  0.000000;0.000000;,
  0.000000;0.000000;,
  0.000000;0.000000;,
  0.000000;0.000000;,
  0.000000;0.000000;,
  0.000000;0.000000;,
  0.000000;0.000000;,
  0.000000;0.000000;,
  0.000000;0.000000;,
  0.000000;0.000000;,
  0.000000;0.000000;,
  0.000000;0.000000;,
  0.000000;0.000000;,
  0.000000;0.000000;,
  0.000000;0.000000;,
  0.000000;0.000000;,
  0.000000;0.000000;,
  0.000000;0.000000;,
  0.000000;0.000000;,
  0.000000;0.000000;,
  0.000000;0.000000;,
  0.000000;0.000000;,
  0.000000;0.000000;,
  0.000000;0.000000;,
  0.000000;0.000000;,
  0.000000;0.000000;,
  0.000000;0.000000;,
  0.000000;0.000000;,
  0.000000;0.000000;,
  0.000000;0.000000;,
  0.000000;0.000000;,
  0.000000;0.000000;,
  0.000000;0.000000;,
  0.000000;0.000000;,
  0.000000;0.000000;,
  0.000000;0.000000;,
  0.000000;0.000000;,
  0.000000;0.000000;,
  0.000000;0.000000;,
  0.000000;0.000000;,
  0.000000;0.000000;,
  0.000000;0.000000;,
  0.000000;0.000000;,
  0.000000;0.000000;;
 }

 MeshNormals  {
  714;
  0.000000;0.000000;-1.000000;,
  0.000000;0.000000;-1.000000;,
  0.000000;0.000000;1.000000;,
  0.000000;0.000000;1.000000;,
  0.000000;0.000000;-1.000000;,
  0.000000;0.000000;-1.000000;,
  0.000000;0.000000;1.000000;,
  0.000000;0.000000;1.000000;,
  0.000000;0.000000;-1.000000;,
  0.000000;0.000000;-1.000000;,
  0.000000;0.000000;1.000000;,
  0.000000;0.000000;1.000000;,
  0.000000;0.865426;-0.501037;,
  0.000000;0.865426;-0.501037;,
  0.000000;-0.865426;0.501037;,
  0.000000;-0.865426;0.501037;,
  -0.183144;0.850788;-0.492562;,
  0.183144;-0.850788;0.492562;,
  0.183144;0.850788;-0.492562;,
  -0.183144;-0.850788;0.492562;,
  -0.348509;0.000000;-0.937305;,
  -0.348509;0.000000;-0.937305;,
  0.348509;0.000000;0.937305;,
  0.348509;0.000000;0.937305;,
  -0.348509;0.000000;-0.937305;,
  -0.348509;0.000000;-0.937305;,
  0.348509;0.000000;0.937305;,
  0.348509;0.000000;0.937305;,
  -0.348509;0.000000;-0.937305;,
  -0.348509;0.000000;-0.937305;,
  0.348509;0.000000;0.937305;,
  0.348509;0.000000;0.937305;,
  -0.348509;0.000000;-0.937305;,
  0.348509;0.000000;0.937305;,
  -0.348509;0.000000;-0.937306;,
  0.348509;0.000000;0.937306;,
  0.249757;-0.072515;0.965590;,
  -0.249757;0.072515;-0.965590;,
  -0.348509;0.000000;-0.937306;,
  0.348509;0.000000;0.937306;,
  -0.348509;0.000000;0.937305;,
  -0.348509;0.000000;0.937305;,
  0.348509;0.000000;-0.937305;,
  0.348509;0.000000;-0.937305;,
  -0.348509;0.000000;0.937305;,
  -0.348509;0.000000;0.937305;,
  0.348509;0.000000;-0.937305;,
  0.348509;0.000000;-0.937305;,
  -0.348509;0.000000;0.937305;,
  -0.348509;0.000000;0.937305;,
  0.348509;0.000000;-0.937305;,
  0.348509;0.000000;-0.937305;,
  -0.348509;0.000000;0.937305;,
  0.348509;0.000000;-0.937305;,
  -0.348509;0.000000;0.937306;,
  0.348509;0.000000;-0.937306;,
  0.249757;0.072515;-0.965590;,
  -0.249757;-0.072515;0.965590;,
  -0.348509;0.000000;0.937306;,
  0.348509;0.000000;-0.937306;,
  0.000000;0.894427;-0.447213;,
  0.000000;0.894427;-0.447213;,
  0.000000;-0.894427;0.447213;,
  0.000000;-0.894427;0.447213;,
  -0.172413;0.881033;-0.440516;,
  0.172413;-0.881033;0.440516;,
  -0.185350;0.861033;-0.473569;,
  0.185350;-0.861033;0.473569;,
  -0.305880;0.834219;-0.458821;,
  0.305880;-0.834219;0.458821;,
  -0.554700;0.000000;-0.832050;,
  -0.554700;0.000000;-0.832050;,
  0.554700;0.000000;0.832050;,
  0.554700;0.000000;0.832050;,
  -0.554700;0.000000;-0.832050;,
  -0.554700;0.000000;-0.832050;,
  0.554700;0.000000;0.832050;,
  0.554700;0.000000;0.832050;,
  -0.554700;0.000000;-0.832050;,
  -0.554700;0.000000;-0.832050;,
  0.554700;0.000000;0.832050;,
  0.554700;0.000000;0.832050;,
  -0.554700;0.000000;-0.832050;,
  -0.554700;0.000000;-0.832050;,
  0.554700;0.000000;0.832050;,
  0.554700;0.000000;0.832050;,
  -0.595227;0.000000;-0.803557;,
  -0.554571;-0.021607;-0.831856;,
  0.595067;0.023184;0.803341;,
  0.554700;0.000000;0.832050;,
  -0.172413;-0.881033;0.440516;,
  0.172413;0.881033;-0.440516;,
  -0.185350;-0.861033;0.473569;,
  0.185350;0.861033;-0.473569;,
  -0.305880;-0.834219;0.458821;,
  0.305880;0.834219;-0.458821;,
  -0.554700;0.000000;0.832050;,
  -0.554700;0.000000;0.832050;,
  0.554700;0.000000;-0.832050;,
  0.554700;0.000000;-0.832050;,
  -0.554700;0.000000;0.832050;,
  -0.554700;0.000000;0.832050;,
  0.554700;0.000000;-0.832050;,
  0.554700;0.000000;-0.832050;,
  -0.554700;0.000000;0.832050;,
  -0.554700;0.000000;0.832050;,
  0.554700;0.000000;-0.832050;,
  0.554700;0.000000;-0.832050;,
  -0.554700;0.000000;0.832050;,
  -0.554700;0.000000;0.832050;,
  0.554700;0.000000;-0.832050;,
  0.554700;0.000000;-0.832050;,
  -0.595227;0.000000;0.803557;,
  -0.554571;0.021607;0.831856;,
  0.595067;-0.023184;-0.803341;,
  0.554700;0.000000;-0.832050;,
  0.000000;0.884918;-0.465747;,
  0.000000;0.884918;-0.465747;,
  0.000000;-0.884918;0.465747;,
  0.000000;-0.884918;0.465747;,
  -0.170634;0.871941;-0.458916;,
  -0.170634;0.871940;-0.458916;,
  0.170634;-0.871941;0.458916;,
  0.170634;-0.871940;0.458916;,
  -0.282921;0.848764;-0.446717;,
  0.282921;-0.848764;0.446717;,
  -0.302460;0.824891;-0.477569;,
  0.302460;-0.824891;0.477569;,
  -0.409638;0.789483;-0.457070;,
  0.409638;-0.789483;0.457070;,
  -0.667411;0.000000;-0.744690;,
  -0.667411;0.000000;-0.744690;,
  0.667411;0.000000;0.744690;,
  0.667411;0.000000;0.744690;,
  -0.667411;0.000000;-0.744690;,
  -0.667411;0.000000;-0.744690;,
  0.667411;0.000000;0.744690;,
  0.667411;0.000000;0.744690;,
  -0.667411;0.000000;-0.744690;,
  -0.667411;0.000000;-0.744690;,
  0.667411;0.000000;0.744690;,
  0.667411;0.000000;0.744690;,
  -0.676208;0.000000;-0.736711;,
  -0.665929;-0.066593;-0.743037;,
  0.674667;0.067467;0.735032;,
  0.667411;0.000000;0.744690;,
  -0.800621;-0.031193;-0.598359;,
  -0.673867;-0.083139;-0.734160;,
  0.797128;0.098347;0.595748;,
  0.675973;0.026337;0.736455;,
  -0.170634;-0.871941;0.458916;,
  -0.170634;-0.871940;0.458916;,
  0.170634;0.871941;-0.458916;,
  0.170634;0.871940;-0.458916;,
  -0.282921;-0.848764;0.446717;,
  0.282921;0.848764;-0.446717;,
  -0.302460;-0.824891;0.477569;,
  0.302460;0.824891;-0.477569;,
  -0.409638;-0.789483;0.457070;,
  0.409638;0.789483;-0.457070;,
  -0.667411;0.000000;0.744690;,
  -0.667411;0.000000;0.744690;,
  0.667411;0.000000;-0.744690;,
  0.667411;0.000000;-0.744690;,
  -0.667411;0.000000;0.744690;,
  -0.667411;0.000000;0.744690;,
  0.667411;0.000000;-0.744690;,
  0.667411;0.000000;-0.744690;,
  -0.667411;0.000000;0.744690;,
  -0.667411;0.000000;0.744690;,
  0.667411;0.000000;-0.744690;,
  0.667411;0.000000;-0.744690;,
  -0.676208;0.000000;0.736711;,
  -0.665929;0.066593;0.743037;,
  0.674667;-0.067467;-0.735032;,
  0.667411;0.000000;-0.744690;,
  -0.800621;0.031193;0.598359;,
  -0.673867;0.083139;0.734160;,
  0.797128;-0.098347;-0.595748;,
  0.675973;-0.026337;-0.736455;,
  0.000000;0.124035;-0.992278;,
  0.000000;0.124035;-0.992278;,
  0.000000;-0.124035;0.992278;,
  0.000000;-0.124035;0.992278;,
  0.000000;0.000000;0.000000;,
  0.000000;0.000000;0.000000;,
  0.000000;0.000000;0.000000;,
  0.000000;0.000000;0.000000;,
  -0.466779;0.109693;-0.877545;,
  -0.397160;0.040141;-0.916871;,
  0.469496;-0.022301;0.882653;,
  0.394891;-0.113954;0.911633;,
  0.000000;0.000000;0.000000;,
  0.000000;-1.000000;0.000000;,
  0.000000;1.000000;0.000000;,
  0.000000;0.000000;0.000000;,
  -0.466779;-0.109693;0.877545;,
  -0.397160;-0.040141;0.916871;,
  0.469496;0.022301;-0.882653;,
  0.394891;0.113954;-0.911633;,
  0.000000;0.000000;0.000000;,
  0.000000;1.000000;0.000000;,
  0.000000;-1.000000;0.000000;,
  0.000000;0.000000;0.000000;,
  -0.982872;-0.184289;0.000000;,
  -0.982872;-0.184288;0.000000;,
  0.982872;0.184289;0.000000;,
  0.982872;0.184288;0.000000;,
  -0.982872;0.184289;0.000000;,
  -0.982872;0.184288;0.000000;,
  0.982872;-0.184289;0.000000;,
  0.982872;-0.184288;0.000000;,
  0.478852;0.000000;0.877896;,
  0.478852;0.000000;0.877896;,
  -0.478852;0.000000;-0.877896;,
  -0.478852;0.000000;-0.877896;,
  -0.478852;0.000000;0.877896;,
  -0.478852;0.000000;0.877896;,
  0.478852;0.000000;-0.877896;,
  0.478852;0.000000;-0.877896;,
  0.379477;-0.925201;0.000000;,
  0.379477;-0.925201;0.000000;,
  -0.379477;0.925201;0.000000;,
  -0.379477;0.925201;0.000000;,
  -0.379477;-0.925201;0.000000;,
  -0.379477;-0.925201;0.000000;,
  0.379477;0.925201;0.000000;,
  0.379477;0.925201;0.000000;,
  1.000000;0.000000;0.000000;,
  1.000000;0.000000;0.000000;,
  -1.000000;0.000000;0.000000;,
  -1.000000;0.000000;0.000000;,
  -1.000000;0.000000;0.000000;,
  -1.000000;0.000000;0.000000;,
  1.000000;0.000000;0.000000;,
  1.000000;0.000000;0.000000;,
  0.995037;0.099504;0.000000;,
  0.995037;0.099504;0.000000;,
  -0.995037;-0.099504;0.000000;,
  -0.995037;-0.099504;0.000000;,
  -0.995037;0.099504;0.000000;,
  -0.995037;0.099504;0.000000;,
  0.995037;-0.099504;0.000000;,
  0.995037;-0.099504;0.000000;,
  0.992475;0.122448;0.000000;,
  0.992475;0.122448;0.000000;,
  -0.992475;-0.122448;0.000000;,
  -0.992475;-0.122448;0.000000;,
  -0.992475;0.122448;0.000000;,
  -0.992475;0.122448;0.000000;,
  0.992475;-0.122448;0.000000;,
  0.992475;-0.122448;0.000000;,
  0.379477;-0.925201;0.000000;,
  0.379477;-0.925201;0.000000;,
  -0.379477;0.925201;0.000000;,
  -0.379477;0.925201;0.000000;,
  -0.379477;-0.925201;0.000000;,
  -0.379477;-0.925201;0.000000;,
  0.379477;0.925201;0.000000;,
  0.379477;0.925201;0.000000;,
  1.000000;0.000000;0.000000;,
  1.000000;0.000000;0.000000;,
  -1.000000;0.000000;0.000000;,
  -1.000000;0.000000;0.000000;,
  -1.000000;0.000000;0.000000;,
  -1.000000;0.000000;0.000000;,
  1.000000;0.000000;0.000000;,
  1.000000;0.000000;0.000000;,
  0.995037;0.099504;0.000000;,
  0.995037;0.099504;0.000000;,
  -0.995037;-0.099504;0.000000;,
  -0.995037;-0.099504;0.000000;,
  -0.995037;0.099504;0.000000;,
  -0.995037;0.099504;0.000000;,
  0.995037;-0.099504;0.000000;,
  0.995037;-0.099504;0.000000;,
  0.992475;0.122448;0.000000;,
  0.992475;0.122448;0.000000;,
  -0.992475;-0.122448;0.000000;,
  -0.992475;-0.122448;0.000000;,
  -0.992475;0.122448;0.000000;,
  -0.992475;0.122448;0.000000;,
  0.992475;-0.122448;0.000000;,
  0.992475;-0.122448;0.000000;,
  -0.104359;0.994540;0.000000;,
  -0.104359;0.994540;0.000000;,
  0.104359;-0.994540;0.000000;,
  0.104359;-0.994540;0.000000;,
  0.104359;0.994540;0.000000;,
  0.104359;0.994540;0.000000;,
  -0.104359;-0.994540;0.000000;,
  -0.104359;-0.994540;0.000000;,
  0.000000;1.000000;0.000000;,
  0.000000;1.000000;0.000000;,
  0.000000;-1.000000;0.000000;,
  0.000000;-1.000000;0.000000;,
  -1.000000;0.000000;0.000000;,
  -1.000000;0.000000;0.000000;,
  1.000000;0.000000;0.000000;,
  1.000000;0.000000;0.000000;,
  -1.000000;0.000000;0.000000;,
  -1.000000;0.000000;0.000000;,
  1.000000;0.000000;0.000000;,
  1.000000;0.000000;0.000000;,
  0.000000;0.000000;-1.000000;,
  0.000000;0.000000;-1.000000;,
  -1.000000;0.000000;0.000000;,
  -1.000000;0.000000;0.000000;,
  0.000000;0.000000;1.000000;,
  0.000000;0.000000;1.000000;,
  1.000000;0.000000;0.000000;,
  1.000000;0.000000;0.000000;,
  0.000000;1.000000;0.000000;,
  0.000000;1.000000;0.000000;,
  0.000000;-1.000000;0.000000;,
  0.000000;-1.000000;0.000000;,
  -1.000000;0.000000;0.000000;,
  -1.000000;0.000000;0.000000;,
  1.000000;0.000000;0.000000;,
  1.000000;0.000000;0.000000;,
  1.000000;0.000000;0.000000;,
  1.000000;0.000000;0.000000;,
  -1.000000;0.000000;0.000000;,
  -1.000000;0.000000;0.000000;,
  -0.370114;0.928986;0.000000;,
  -0.370114;0.928986;0.000000;,
  0.370114;-0.928986;0.000000;,
  0.370114;-0.928986;0.000000;,
  -0.164399;0.986394;0.000000;,
  -0.164399;0.986394;0.000000;,
  0.164399;-0.986394;0.000000;,
  0.164399;-0.986394;0.000000;,
  0.164399;0.986394;0.000000;,
  0.164399;0.986394;0.000000;,
  -0.164399;-0.986394;0.000000;,
  -0.164399;-0.986394;0.000000;,
  0.370114;0.928986;0.000000;,
  0.370114;0.928986;0.000000;,
  -0.370114;-0.928986;0.000000;,
  -0.370114;-0.928986;0.000000;,
  -1.000000;0.000000;0.000000;,
  -1.000000;0.000000;0.000000;,
  1.000000;0.000000;0.000000;,
  1.000000;0.000000;0.000000;,
  1.000000;0.000000;0.000000;,
  1.000000;0.000000;0.000000;,
  -1.000000;0.000000;0.000000;,
  -1.000000;0.000000;0.000000;,
  -0.370114;0.928986;0.000000;,
  -0.370114;0.928986;0.000000;,
  0.370114;-0.928986;0.000000;,
  0.370114;-0.928986;0.000000;,
  -0.164399;0.986394;0.000000;,
  -0.164399;0.986394;0.000000;,
  0.164399;-0.986394;0.000000;,
  0.164399;-0.986394;0.000000;,
  0.164399;0.986394;0.000000;,
  0.164399;0.986394;0.000000;,
  -0.164399;-0.986394;0.000000;,
  -0.164399;-0.986394;0.000000;,
  0.370114;0.928986;0.000000;,
  0.370114;0.928986;0.000000;,
  -0.370114;-0.928986;0.000000;,
  -0.370114;-0.928986;0.000000;,
  0.000000;0.000000;-1.000000;,
  0.000000;0.000000;-1.000000;,
  0.000000;0.000000;-1.000000;,
  0.000000;0.000000;-1.000000;,
  0.000000;0.000000;-1.000000;,
  0.000000;0.000000;-1.000000;,
  0.000000;0.000000;-1.000000;,
  0.000000;0.000000;-1.000000;,
  0.000000;0.000000;-1.000000;,
  0.000000;0.000000;1.000000;,
  0.000000;0.000000;1.000000;,
  0.000000;0.000000;1.000000;,
  0.000000;0.000000;1.000000;,
  0.000000;0.000000;1.000000;,
  0.000000;0.000000;1.000000;,
  0.000000;0.000000;1.000000;,
  0.000000;0.000000;1.000000;,
  0.000000;0.000000;1.000000;,
  -1.000000;0.000000;0.000000;,
  -1.000000;0.000000;0.000000;,
  1.000000;0.000000;0.000000;,
  1.000000;0.000000;0.000000;,
  0.000000;0.000000;-1.000000;,
  0.000000;0.000000;-1.000000;,
  0.000000;0.000000;1.000000;,
  0.000000;0.000000;1.000000;,
  -1.000000;0.000000;0.000000;,
  -1.000000;0.000000;0.000000;,
  1.000000;0.000000;0.000000;,
  1.000000;0.000000;0.000000;,
  -0.832050;-0.554700;0.000000;,
  -0.832050;-0.554700;0.000000;,
  0.832050;0.554700;0.000000;,
  0.832050;0.554700;0.000000;,
  -1.000000;0.000000;0.000000;,
  -1.000000;0.000000;0.000000;,
  1.000000;0.000000;0.000000;,
  1.000000;0.000000;0.000000;,
  0.000000;0.000000;1.000000;,
  0.000000;0.000000;1.000000;,
  0.000000;0.000000;-1.000000;,
  0.000000;0.000000;-1.000000;,
  -1.000000;0.000000;0.000000;,
  -1.000000;0.000000;0.000000;,
  1.000000;0.000000;0.000000;,
  1.000000;0.000000;0.000000;,
  0.396299;-0.918122;0.000000;,
  0.396299;-0.918122;0.000000;,
  -0.396299;0.918122;0.000000;,
  -0.396299;0.918122;0.000000;,
  0.104359;-0.994540;0.000000;,
  0.104359;-0.994540;0.000000;,
  -0.104359;0.994540;0.000000;,
  -0.104359;0.994540;0.000000;,
  -0.104359;-0.994540;0.000000;,
  -0.104359;-0.994540;0.000000;,
  0.104359;0.994540;0.000000;,
  0.104359;0.994540;0.000000;,
  -0.396299;-0.918122;0.000000;,
  -0.396299;-0.918122;0.000000;,
  0.396299;0.918122;0.000000;,
  0.396299;0.918122;0.000000;,
  0.000000;0.000000;-1.000000;,
  0.000000;0.000000;-1.000000;,
  0.000000;0.000000;-1.000000;,
  0.000000;0.000000;-1.000000;,
  0.000000;0.000000;-1.000000;,
  0.000000;0.000000;1.000000;,
  0.000000;0.000000;1.000000;,
  0.000000;0.000000;1.000000;,
  0.000000;0.000000;1.000000;,
  0.000000;0.000000;1.000000;,
  0.000000;0.000000;1.000000;,
  0.000000;0.000000;1.000000;,
  0.000000;0.000000;1.000000;,
  0.000000;0.000000;1.000000;,
  0.000000;0.000000;1.000000;,
  0.000000;0.000000;-1.000000;,
  0.000000;0.000000;-1.000000;,
  0.000000;0.000000;-1.000000;,
  0.000000;0.000000;-1.000000;,
  0.000000;0.000000;-1.000000;,
  -1.000000;0.000000;0.000000;,
  -1.000000;0.000000;0.000000;,
  1.000000;0.000000;0.000000;,
  1.000000;0.000000;0.000000;,
  1.000000;0.000000;0.000000;,
  1.000000;0.000000;0.000000;,
  -1.000000;0.000000;0.000000;,
  -1.000000;0.000000;0.000000;,
  -0.371391;0.928476;0.000000;,
  -0.371391;0.928476;0.000000;,
  0.371391;-0.928476;0.000000;,
  0.371391;-0.928476;0.000000;,
  -0.164399;0.986394;0.000000;,
  -0.164399;0.986394;0.000000;,
  0.164399;-0.986394;0.000000;,
  0.164399;-0.986394;0.000000;,
  0.164399;0.986394;0.000000;,
  0.164399;0.986394;0.000000;,
  -0.164399;-0.986394;0.000000;,
  -0.164399;-0.986394;0.000000;,
  0.371391;0.928476;0.000000;,
  0.371391;0.928476;0.000000;,
  -0.371391;-0.928476;0.000000;,
  -0.371391;-0.928476;0.000000;,
  0.000000;0.000000;-1.000000;,
  0.000000;0.000000;-1.000000;,
  0.000000;0.000000;-1.000000;,
  0.000000;0.000000;-1.000000;,
  0.000000;0.000000;-1.000000;,
  0.000000;0.000000;1.000000;,
  0.000000;0.000000;1.000000;,
  0.000000;0.000000;1.000000;,
  0.000000;0.000000;1.000000;,
  0.000000;0.000000;1.000000;,
  0.000000;0.000000;1.000000;,
  0.000000;0.000000;1.000000;,
  0.000000;0.000000;1.000000;,
  0.000000;0.000000;1.000000;,
  0.000000;0.000000;1.000000;,
  0.000000;0.000000;-1.000000;,
  0.000000;0.000000;-1.000000;,
  0.000000;0.000000;-1.000000;,
  0.000000;0.000000;-1.000000;,
  0.000000;0.000000;-1.000000;,
  -1.000000;0.000000;0.000000;,
  -1.000000;0.000000;0.000000;,
  1.000000;0.000000;0.000000;,
  1.000000;0.000000;0.000000;,
  1.000000;0.000000;0.000000;,
  1.000000;0.000000;0.000000;,
  -1.000000;0.000000;0.000000;,
  -1.000000;0.000000;0.000000;,
  -0.371391;0.928476;0.000000;,
  -0.371391;0.928476;0.000000;,
  0.371391;-0.928476;0.000000;,
  0.371391;-0.928476;0.000000;,
  -0.164399;0.986394;0.000000;,
  -0.164399;0.986394;0.000000;,
  0.164399;-0.986394;0.000000;,
  0.164399;-0.986394;0.000000;,
  0.164399;0.986394;0.000000;,
  0.164399;0.986394;0.000000;,
  -0.164399;-0.986394;0.000000;,
  -0.164399;-0.986394;0.000000;,
  0.371391;0.928476;0.000000;,
  0.371391;0.928476;0.000000;,
  -0.371391;-0.928476;0.000000;,
  -0.371391;-0.928476;0.000000;,
  0.000000;0.000000;-1.000000;,
  0.000000;0.000000;-1.000000;,
  0.000000;0.000000;1.000000;,
  0.000000;0.000000;1.000000;,
  0.000000;0.000000;1.000000;,
  0.000000;0.000000;1.000000;,
  0.000000;0.000000;-1.000000;,
  0.000000;0.000000;-1.000000;,
  -1.000000;0.000000;0.000000;,
  -1.000000;0.000000;0.000000;,
  -1.000000;0.000000;0.000000;,
  -1.000000;0.000000;0.000000;,
  1.000000;0.000000;0.000000;,
  1.000000;0.000000;0.000000;,
  1.000000;0.000000;0.000000;,
  1.000000;0.000000;0.000000;,
  1.000000;0.000000;0.000000;,
  1.000000;0.000000;0.000000;,
  1.000000;0.000000;0.000000;,
  1.000000;0.000000;0.000000;,
  -1.000000;0.000000;0.000000;,
  -1.000000;0.000000;0.000000;,
  -1.000000;0.000000;0.000000;,
  -1.000000;0.000000;0.000000;,
  0.000000;0.707106;-0.707108;,
  0.000000;0.707106;-0.707108;,
  0.000000;-0.707106;0.707108;,
  0.000000;-0.707106;0.707108;,
  0.000000;1.000000;0.000000;,
  0.000000;1.000000;0.000000;,
  0.000000;-1.000000;0.000000;,
  0.000000;-1.000000;0.000000;,
  0.000000;0.707106;0.707108;,
  0.000000;0.707106;0.707108;,
  0.000000;-0.707106;-0.707108;,
  0.000000;-0.707106;-0.707108;,
  0.000000;0.000000;-1.000000;,
  0.000000;0.000000;-1.000000;,
  0.000000;0.000000;1.000000;,
  0.000000;0.000000;1.000000;,
  0.000000;0.000000;1.000000;,
  0.000000;0.000000;1.000000;,
  0.000000;0.000000;-1.000000;,
  0.000000;0.000000;-1.000000;,
  -1.000000;0.000000;0.000000;,
  -1.000000;0.000000;0.000000;,
  -1.000000;0.000000;0.000000;,
  -1.000000;0.000000;0.000000;,
  1.000000;0.000000;0.000000;,
  1.000000;0.000000;0.000000;,
  1.000000;0.000000;0.000000;,
  1.000000;0.000000;0.000000;,
  1.000000;0.000000;0.000000;,
  1.000000;0.000000;0.000000;,
  1.000000;0.000000;0.000000;,
  1.000000;0.000000;0.000000;,
  -1.000000;0.000000;0.000000;,
  -1.000000;0.000000;0.000000;,
  -1.000000;0.000000;0.000000;,
  -1.000000;0.000000;0.000000;,
  0.000000;0.707107;-0.707107;,
  0.000000;0.707107;-0.707107;,
  0.000000;-0.707107;0.707107;,
  0.000000;-0.707107;0.707107;,
  0.000000;1.000000;0.000000;,
  0.000000;1.000000;0.000000;,
  0.000000;-1.000000;0.000000;,
  0.000000;-1.000000;0.000000;,
  0.000000;0.707107;0.707107;,
  0.000000;0.707107;0.707107;,
  0.000000;-0.707107;-0.707107;,
  0.000000;-0.707107;-0.707107;,
  0.703702;0.707107;-0.069309;,
  0.000096;-1.000000;0.000000;,
  0.353553;0.923880;0.146447;,
  0.623613;-0.707107;0.333328;,
  0.270598;0.923880;0.270598;,
  0.242772;-0.923880;0.295818;,
  0.146447;0.923880;0.353553;,
  0.111087;-0.923880;0.366205;,
  0.000000;0.923880;0.382683;,
  -0.037510;-0.923880;0.380841;,
  -0.146447;0.923879;0.353553;,
  -0.180396;-0.923880;0.337497;,
  -0.270598;0.923879;0.270598;,
  -0.295818;-0.923880;0.242772;,
  -0.353553;0.923880;0.146447;,
  -0.366205;-0.923880;0.111087;,
  -0.382683;0.923879;0.000000;,
  -0.380841;-0.923880;-0.037510;,
  -0.353553;0.923879;-0.146447;,
  -0.337497;-0.923880;-0.180396;,
  -0.270598;0.923880;-0.270598;,
  -0.242772;-0.923880;-0.295818;,
  -0.146447;0.923879;-0.353553;,
  -0.111087;-0.923880;-0.366205;,
  0.000000;0.923879;-0.382683;,
  0.037510;-0.923880;-0.380841;,
  0.146447;0.923879;-0.353553;,
  0.180396;-0.923880;-0.337497;,
  0.500000;0.707107;-0.500000;,
  0.295818;-0.923880;-0.242772;,
  0.000089;1.000000;-0.000037;,
  0.676659;-0.707107;-0.205262;,
  0.381943;0.923413;-0.037801;,
  0.000144;-1.000000;-0.000000;,
  0.180240;0.980785;0.074658;,
  0.814171;-0.383809;0.435679;,
  0.137950;0.980785;0.137950;,
  0.351926;-0.831808;0.429237;,
  0.074658;0.980785;0.180240;,
  0.160875;-0.831808;0.531239;,
  -0.000000;0.980785;0.195090;,
  -0.054667;-0.831808;0.552365;,
  -0.074658;0.980785;0.180240;,
  -0.261887;-0.831808;0.489399;,
  -0.137950;0.980785;0.137950;,
  -0.429237;-0.831808;0.351926;,
  -0.180240;0.980785;0.074658;,
  -0.531239;-0.831808;0.160875;,
  -0.195090;0.980785;-0.000000;,
  -0.552365;-0.831808;-0.054667;,
  -0.180240;0.980785;-0.074658;,
  -0.489399;-0.831808;-0.261887;,
  -0.137950;0.980785;-0.137950;,
  -0.351926;-0.831808;-0.429237;,
  -0.074658;0.980785;-0.180240;,
  -0.160875;-0.831808;-0.531239;,
  0.000000;0.980785;-0.195090;,
  0.054667;-0.831808;-0.552365;,
  0.074658;0.980785;-0.180240;,
  0.261887;-0.831808;-0.489399;,
  0.270598;0.923880;-0.270598;,
  0.429237;-0.831808;-0.351926;,
  0.000044;1.000000;-0.000018;,
  0.883777;-0.383809;-0.267635;,
  0.703702;0.707107;-0.069309;,
  0.000096;-1.000000;-0.000000;,
  0.353553;0.923880;0.146447;,
  0.623612;-0.707107;0.333328;,
  0.270598;0.923879;0.270598;,
  0.242772;-0.923880;0.295818;,
  0.146447;0.923880;0.353553;,
  0.111087;-0.923880;0.366205;,
  -0.000000;0.923879;0.382683;,
  -0.037510;-0.923879;0.380841;,
  -0.146447;0.923880;0.353553;,
  -0.180396;-0.923880;0.337497;,
  -0.270598;0.923880;0.270598;,
  -0.295818;-0.923880;0.242772;,
  -0.353553;0.923880;0.146447;,
  -0.366205;-0.923880;0.111087;,
  -0.382683;0.923880;-0.000000;,
  -0.380841;-0.923880;-0.037510;,
  -0.353553;0.923880;-0.146447;,
  -0.337497;-0.923880;-0.180396;,
  -0.270598;0.923880;-0.270598;,
  -0.242772;-0.923880;-0.295818;,
  -0.146447;0.923880;-0.353553;,
  -0.111087;-0.923879;-0.366205;,
  0.000000;0.923880;-0.382683;,
  0.037510;-0.923879;-0.380841;,
  0.146447;0.923880;-0.353553;,
  0.180396;-0.923880;-0.337497;,
  0.500000;0.707107;-0.500000;,
  0.295818;-0.923880;-0.242772;,
  0.000089;1.000000;-0.000037;,
  0.676659;-0.707107;-0.205262;,
  0.918923;0.383809;-0.090945;,
  0.000048;-1.000000;0.000000;,
  0.513280;0.831470;0.212608;,
  0.338404;-0.923413;0.181086;,
  0.392848;0.831470;0.392847;,
  0.124071;-0.980666;0.151327;,
  0.212607;0.831470;0.513280;,
  0.056717;-0.980666;0.187288;,
  0.000000;0.831470;0.555570;,
  -0.019273;-0.980666;0.194736;,
  -0.212608;0.831470;0.513280;,
  -0.092328;-0.980666;0.172538;,
  -0.392847;0.831470;0.392848;,
  -0.151327;-0.980666;0.124071;,
  -0.513280;0.831470;0.212607;,
  -0.187288;-0.980666;0.056717;,
  -0.555570;0.831470;0.000000;,
  -0.194736;-0.980666;-0.019273;,
  -0.513280;0.831470;-0.212608;,
  -0.172538;-0.980666;-0.092328;,
  -0.392848;0.831470;-0.392847;,
  -0.124071;-0.980666;-0.151327;,
  -0.212607;0.831470;-0.513280;,
  -0.056717;-0.980666;-0.187288;,
  0.000000;0.831470;-0.555570;,
  0.019273;-0.980666;-0.194736;,
  0.212608;0.831470;-0.513280;,
  0.092328;-0.980666;-0.172538;,
  0.653281;0.382683;-0.653282;,
  0.151327;-0.980666;-0.124071;,
  0.000133;1.000000;-0.000055;,
  0.367335;-0.923413;-0.111240;;
  826;
  3;0,0,0;,
  3;1,1,1;,
  3;2,2,2;,
  3;3,3,3;,
  3;4,4,4;,
  3;5,5,5;,
  3;6,6,6;,
  3;7,7,7;,
  3;8,8,8;,
  3;9,9,9;,
  3;10,10,10;,
  3;11,11,11;,
  3;12,12,12;,
  3;13,13,13;,
  3;14,14,14;,
  3;15,15,15;,
  3;16,16,16;,
  3;17,17,17;,
  3;18,18,18;,
  3;19,19,19;,
  3;20,20,20;,
  3;21,21,21;,
  3;22,22,22;,
  3;23,23,23;,
  3;24,24,24;,
  3;25,25,25;,
  3;26,26,26;,
  3;27,27,27;,
  3;28,28,28;,
  3;29,29,29;,
  3;30,30,30;,
  3;31,31,31;,
  3;32,32,32;,
  3;33,33,33;,
  3;34,34,34;,
  3;35,35,35;,
  3;36,36,36;,
  3;37,37,37;,
  3;38,38,38;,
  3;39,39,39;,
  3;40,40,40;,
  3;41,41,41;,
  3;42,42,42;,
  3;43,43,43;,
  3;44,44,44;,
  3;45,45,45;,
  3;46,46,46;,
  3;47,47,47;,
  3;48,48,48;,
  3;49,49,49;,
  3;50,50,50;,
  3;51,51,51;,
  3;52,52,52;,
  3;53,53,53;,
  3;54,54,54;,
  3;55,55,55;,
  3;56,56,56;,
  3;57,57,57;,
  3;58,58,58;,
  3;59,59,59;,
  3;60,60,60;,
  3;61,61,61;,
  3;62,62,62;,
  3;63,63,63;,
  3;64,64,64;,
  3;65,65,65;,
  3;66,66,66;,
  3;67,67,67;,
  3;68,68,68;,
  3;69,69,69;,
  3;70,70,70;,
  3;71,71,71;,
  3;72,72,72;,
  3;73,73,73;,
  3;74,74,74;,
  3;75,75,75;,
  3;76,76,76;,
  3;77,77,77;,
  3;78,78,78;,
  3;79,79,79;,
  3;80,80,80;,
  3;81,81,81;,
  3;82,82,82;,
  3;83,83,83;,
  3;84,84,84;,
  3;85,85,85;,
  3;86,86,86;,
  3;87,87,87;,
  3;88,88,88;,
  3;89,89,89;,
  3;90,90,90;,
  3;91,91,91;,
  3;92,92,92;,
  3;93,93,93;,
  3;94,94,94;,
  3;95,95,95;,
  3;96,96,96;,
  3;97,97,97;,
  3;98,98,98;,
  3;99,99,99;,
  3;100,100,100;,
  3;101,101,101;,
  3;102,102,102;,
  3;103,103,103;,
  3;104,104,104;,
  3;105,105,105;,
  3;106,106,106;,
  3;107,107,107;,
  3;108,108,108;,
  3;109,109,109;,
  3;110,110,110;,
  3;111,111,111;,
  3;112,112,112;,
  3;113,113,113;,
  3;114,114,114;,
  3;115,115,115;,
  3;116,116,116;,
  3;117,117,117;,
  3;118,118,118;,
  3;119,119,119;,
  3;120,120,120;,
  3;121,121,121;,
  3;122,122,122;,
  3;123,123,123;,
  3;124,124,124;,
  3;125,125,125;,
  3;126,126,126;,
  3;127,127,127;,
  3;128,128,128;,
  3;129,129,129;,
  3;130,130,130;,
  3;131,131,131;,
  3;132,132,132;,
  3;133,133,133;,
  3;134,134,134;,
  3;135,135,135;,
  3;136,136,136;,
  3;137,137,137;,
  3;138,138,138;,
  3;139,139,139;,
  3;140,140,140;,
  3;141,141,141;,
  3;142,142,142;,
  3;143,143,143;,
  3;144,144,144;,
  3;145,145,145;,
  3;146,146,146;,
  3;147,147,147;,
  3;148,148,148;,
  3;149,149,149;,
  3;150,150,150;,
  3;151,151,151;,
  3;152,152,152;,
  3;153,153,153;,
  3;154,154,154;,
  3;155,155,155;,
  3;156,156,156;,
  3;157,157,157;,
  3;158,158,158;,
  3;159,159,159;,
  3;160,160,160;,
  3;161,161,161;,
  3;162,162,162;,
  3;163,163,163;,
  3;164,164,164;,
  3;165,165,165;,
  3;166,166,166;,
  3;167,167,167;,
  3;168,168,168;,
  3;169,169,169;,
  3;170,170,170;,
  3;171,171,171;,
  3;172,172,172;,
  3;173,173,173;,
  3;174,174,174;,
  3;175,175,175;,
  3;176,176,176;,
  3;177,177,177;,
  3;178,178,178;,
  3;179,179,179;,
  3;180,180,180;,
  3;181,181,181;,
  3;182,182,182;,
  3;183,183,183;,
  3;184,184,184;,
  3;185,185,185;,
  3;186,186,186;,
  3;187,187,187;,
  3;188,188,188;,
  3;189,189,189;,
  3;190,190,190;,
  3;191,191,191;,
  3;192,192,192;,
  3;193,193,193;,
  3;194,194,194;,
  3;195,195,195;,
  3;196,196,196;,
  3;197,197,197;,
  3;198,198,198;,
  3;199,199,199;,
  3;200,200,200;,
  3;201,201,201;,
  3;202,202,202;,
  3;203,203,203;,
  3;204,204,204;,
  3;205,205,205;,
  3;206,206,206;,
  3;207,207,207;,
  3;208,208,208;,
  3;209,209,209;,
  3;210,210,210;,
  3;211,211,211;,
  3;212,212,212;,
  3;213,213,213;,
  3;214,214,214;,
  3;215,215,215;,
  3;216,216,216;,
  3;217,217,217;,
  3;218,218,218;,
  3;219,219,219;,
  3;220,220,220;,
  3;221,221,221;,
  3;222,222,222;,
  3;223,223,223;,
  3;224,224,224;,
  3;225,225,225;,
  3;226,226,226;,
  3;227,227,227;,
  3;228,228,228;,
  3;229,229,229;,
  3;230,230,230;,
  3;231,231,231;,
  3;232,232,232;,
  3;233,233,233;,
  3;234,234,234;,
  3;235,235,235;,
  3;236,236,236;,
  3;237,237,237;,
  3;238,238,238;,
  3;239,239,239;,
  3;240,240,240;,
  3;241,241,241;,
  3;242,242,242;,
  3;243,243,243;,
  3;244,244,244;,
  3;245,245,245;,
  3;246,246,246;,
  3;247,247,247;,
  3;248,248,248;,
  3;249,249,249;,
  3;250,250,250;,
  3;251,251,251;,
  3;252,252,252;,
  3;253,253,253;,
  3;254,254,254;,
  3;255,255,255;,
  3;256,256,256;,
  3;257,257,257;,
  3;258,258,258;,
  3;259,259,259;,
  3;260,260,260;,
  3;261,261,261;,
  3;262,262,262;,
  3;263,263,263;,
  3;264,264,264;,
  3;265,265,265;,
  3;266,266,266;,
  3;267,267,267;,
  3;268,268,268;,
  3;269,269,269;,
  3;270,270,270;,
  3;271,271,271;,
  3;272,272,272;,
  3;273,273,273;,
  3;274,274,274;,
  3;275,275,275;,
  3;276,276,276;,
  3;277,277,277;,
  3;278,278,278;,
  3;279,279,279;,
  3;280,280,280;,
  3;281,281,281;,
  3;282,282,282;,
  3;283,283,283;,
  3;284,284,284;,
  3;285,285,285;,
  3;286,286,286;,
  3;287,287,287;,
  3;288,288,288;,
  3;289,289,289;,
  3;290,290,290;,
  3;291,291,291;,
  3;292,292,292;,
  3;293,293,293;,
  3;294,294,294;,
  3;295,295,295;,
  3;296,296,296;,
  3;297,297,297;,
  3;298,298,298;,
  3;299,299,299;,
  3;300,300,300;,
  3;301,301,301;,
  3;302,302,302;,
  3;303,303,303;,
  3;304,304,304;,
  3;305,305,305;,
  3;306,306,306;,
  3;307,307,307;,
  3;308,308,308;,
  3;309,309,309;,
  3;310,310,310;,
  3;311,311,311;,
  3;312,312,312;,
  3;313,313,313;,
  3;314,314,314;,
  3;315,315,315;,
  3;316,316,316;,
  3;317,317,317;,
  3;318,318,318;,
  3;319,319,319;,
  3;320,320,320;,
  3;321,321,321;,
  3;322,322,322;,
  3;323,323,323;,
  3;324,324,324;,
  3;325,325,325;,
  3;326,326,326;,
  3;327,327,327;,
  3;328,328,328;,
  3;329,329,329;,
  3;330,330,330;,
  3;331,331,331;,
  3;332,332,332;,
  3;333,333,333;,
  3;334,334,334;,
  3;335,335,335;,
  3;336,336,336;,
  3;337,337,337;,
  3;338,338,338;,
  3;339,339,339;,
  3;340,340,340;,
  3;341,341,341;,
  3;342,342,342;,
  3;343,343,343;,
  3;344,344,344;,
  3;345,345,345;,
  3;346,346,346;,
  3;347,347,347;,
  3;348,348,348;,
  3;349,349,349;,
  3;350,350,350;,
  3;351,351,351;,
  3;352,352,352;,
  3;353,353,353;,
  3;354,354,354;,
  3;355,355,355;,
  3;356,356,356;,
  3;357,357,357;,
  3;358,358,358;,
  3;359,359,359;,
  3;360,360,360;,
  3;361,361,361;,
  3;362,362,362;,
  3;363,363,363;,
  3;364,364,364;,
  3;365,365,365;,
  3;366,366,366;,
  3;367,367,367;,
  3;368,368,368;,
  3;369,369,369;,
  3;370,370,370;,
  3;371,371,371;,
  3;372,372,372;,
  3;373,373,373;,
  3;374,374,374;,
  3;375,375,375;,
  3;376,376,376;,
  3;377,377,377;,
  3;378,378,378;,
  3;379,379,379;,
  3;380,380,380;,
  3;381,381,381;,
  3;382,382,382;,
  3;383,383,383;,
  3;384,384,384;,
  3;385,385,385;,
  3;386,386,386;,
  3;387,387,387;,
  3;388,388,388;,
  3;389,389,389;,
  3;390,390,390;,
  3;391,391,391;,
  3;392,392,392;,
  3;393,393,393;,
  3;394,394,394;,
  3;395,395,395;,
  3;396,396,396;,
  3;397,397,397;,
  3;398,398,398;,
  3;399,399,399;,
  3;400,400,400;,
  3;401,401,401;,
  3;402,402,402;,
  3;403,403,403;,
  3;404,404,404;,
  3;405,405,405;,
  3;406,406,406;,
  3;407,407,407;,
  3;408,408,408;,
  3;409,409,409;,
  3;410,410,410;,
  3;411,411,411;,
  3;412,412,412;,
  3;413,413,413;,
  3;414,414,414;,
  3;415,415,415;,
  3;416,416,416;,
  3;417,417,417;,
  3;418,418,418;,
  3;419,419,419;,
  3;420,420,420;,
  3;421,421,421;,
  3;422,422,422;,
  3;423,423,423;,
  3;424,424,424;,
  3;425,425,425;,
  3;426,426,426;,
  3;427,427,427;,
  3;428,428,428;,
  3;429,429,429;,
  3;430,430,430;,
  3;431,431,431;,
  3;432,432,432;,
  3;433,433,433;,
  3;434,434,434;,
  3;435,435,435;,
  3;436,436,436;,
  3;437,437,437;,
  3;438,438,438;,
  3;439,439,439;,
  3;440,440,440;,
  3;441,441,441;,
  3;442,442,442;,
  3;443,443,443;,
  3;444,444,444;,
  3;445,445,445;,
  3;446,446,446;,
  3;447,447,447;,
  3;448,448,448;,
  3;449,449,449;,
  3;450,450,450;,
  3;451,451,451;,
  3;452,452,452;,
  3;453,453,453;,
  3;454,454,454;,
  3;455,455,455;,
  3;456,456,456;,
  3;457,457,457;,
  3;458,458,458;,
  3;459,459,459;,
  3;460,460,460;,
  3;461,461,461;,
  3;462,462,462;,
  3;463,463,463;,
  3;464,464,464;,
  3;465,465,465;,
  3;466,466,466;,
  3;467,467,467;,
  3;468,468,468;,
  3;469,469,469;,
  3;470,470,470;,
  3;471,471,471;,
  3;472,472,472;,
  3;473,473,473;,
  3;474,474,474;,
  3;475,475,475;,
  3;476,476,476;,
  3;477,477,477;,
  3;478,478,478;,
  3;479,479,479;,
  3;480,480,480;,
  3;481,481,481;,
  3;482,482,482;,
  3;483,483,483;,
  3;484,484,484;,
  3;485,485,485;,
  3;486,486,486;,
  3;487,487,487;,
  3;488,488,488;,
  3;489,489,489;,
  3;490,490,490;,
  3;491,491,491;,
  3;492,492,492;,
  3;493,493,493;,
  3;494,494,494;,
  3;495,495,495;,
  3;496,496,496;,
  3;497,497,497;,
  3;498,498,498;,
  3;499,499,499;,
  3;500,500,500;,
  3;501,501,501;,
  3;502,502,502;,
  3;503,503,503;,
  3;504,504,504;,
  3;505,505,505;,
  3;506,506,506;,
  3;507,507,507;,
  3;508,508,508;,
  3;509,509,509;,
  3;510,510,510;,
  3;511,511,511;,
  3;512,512,512;,
  3;513,513,513;,
  3;514,514,514;,
  3;515,515,515;,
  3;516,516,516;,
  3;517,517,517;,
  3;518,518,518;,
  3;519,519,519;,
  3;520,520,520;,
  3;521,521,521;,
  3;522,522,522;,
  3;523,523,523;,
  3;524,524,524;,
  3;525,525,525;,
  3;526,526,526;,
  3;527,527,527;,
  3;528,528,528;,
  3;529,529,529;,
  3;530,530,530;,
  3;531,531,531;,
  3;532,532,532;,
  3;533,533,533;,
  3;534,534,534;,
  3;535,535,535;,
  3;536,536,536;,
  3;537,537,537;,
  3;538,538,538;,
  3;539,539,539;,
  3;540,540,540;,
  3;541,541,541;,
  3;542,542,542;,
  3;543,543,543;,
  3;544,544,544;,
  3;545,545,545;,
  3;546,546,546;,
  3;547,547,547;,
  3;548,548,548;,
  3;549,549,549;,
  3;550,550,550;,
  3;551,551,551;,
  3;552,552,552;,
  3;553,553,553;,
  3;554,554,554;,
  3;555,555,555;,
  3;556,556,556;,
  3;557,557,557;,
  3;558,558,558;,
  3;559,559,559;,
  3;560,560,560;,
  3;561,561,561;,
  3;562,562,562;,
  3;563,563,563;,
  3;564,564,564;,
  3;565,565,565;,
  3;566,566,566;,
  3;567,567,567;,
  3;568,568,568;,
  3;569,569,569;,
  3;570,570,570;,
  3;571,571,571;,
  3;572,572,572;,
  3;573,573,573;,
  3;574,574,574;,
  3;575,575,575;,
  3;576,576,576;,
  3;577,577,577;,
  3;578,578,578;,
  3;579,579,579;,
  3;580,580,580;,
  3;581,581,581;,
  3;582,582,582;,
  3;583,583,583;,
  3;584,584,584;,
  3;585,585,585;,
  3;587,586,588;,
  3;587,588,589;,
  3;589,588,590;,
  3;589,590,591;,
  3;591,590,592;,
  3;591,592,593;,
  3;593,592,594;,
  3;593,594,595;,
  3;595,594,596;,
  3;595,596,597;,
  3;597,596,598;,
  3;597,598,599;,
  3;599,598,600;,
  3;599,600,601;,
  3;601,600,602;,
  3;601,602,603;,
  3;603,602,604;,
  3;603,604,605;,
  3;605,604,606;,
  3;605,606,607;,
  3;607,606,608;,
  3;607,608,609;,
  3;609,608,610;,
  3;609,610,611;,
  3;611,610,612;,
  3;611,612,613;,
  3;613,612,614;,
  3;613,614,615;,
  3;615,614,616;,
  3;615,616,617;,
  3;617,616,586;,
  3;617,586,587;,
  3;616,614,612;,
  3;616,612,610;,
  3;616,610,608;,
  3;616,608,606;,
  3;616,606,604;,
  3;616,604,602;,
  3;616,602,600;,
  3;616,600,598;,
  3;616,598,596;,
  3;616,596,594;,
  3;616,594,592;,
  3;616,592,590;,
  3;616,590,588;,
  3;616,588,586;,
  3;587,589,591;,
  3;587,591,593;,
  3;587,593,595;,
  3;587,595,597;,
  3;587,597,599;,
  3;587,599,601;,
  3;587,601,603;,
  3;587,603,605;,
  3;587,605,607;,
  3;587,607,609;,
  3;587,609,611;,
  3;587,611,613;,
  3;587,613,615;,
  3;587,615,617;,
  3;619,618,620;,
  3;619,620,621;,
  3;621,620,622;,
  3;621,622,623;,
  3;623,622,624;,
  3;623,624,625;,
  3;625,624,626;,
  3;625,626,627;,
  3;627,626,628;,
  3;627,628,629;,
  3;629,628,630;,
  3;629,630,631;,
  3;631,630,632;,
  3;631,632,633;,
  3;633,632,634;,
  3;633,634,635;,
  3;635,634,636;,
  3;635,636,637;,
  3;637,636,638;,
  3;637,638,639;,
  3;639,638,640;,
  3;639,640,641;,
  3;641,640,642;,
  3;641,642,643;,
  3;643,642,644;,
  3;643,644,645;,
  3;645,644,646;,
  3;645,646,647;,
  3;647,646,648;,
  3;647,648,649;,
  3;649,648,618;,
  3;649,618,619;,
  3;648,646,644;,
  3;648,644,642;,
  3;648,642,640;,
  3;648,640,638;,
  3;648,638,636;,
  3;648,636,634;,
  3;648,634,632;,
  3;648,632,630;,
  3;648,630,628;,
  3;648,628,626;,
  3;648,626,624;,
  3;648,624,622;,
  3;648,622,620;,
  3;648,620,618;,
  3;619,621,623;,
  3;619,623,625;,
  3;619,625,627;,
  3;619,627,629;,
  3;619,629,631;,
  3;619,631,633;,
  3;619,633,635;,
  3;619,635,637;,
  3;619,637,639;,
  3;619,639,641;,
  3;619,641,643;,
  3;619,643,645;,
  3;619,645,647;,
  3;619,647,649;,
  3;651,650,652;,
  3;651,652,653;,
  3;653,652,654;,
  3;653,654,655;,
  3;655,654,656;,
  3;655,656,657;,
  3;657,656,658;,
  3;657,658,659;,
  3;659,658,660;,
  3;659,660,661;,
  3;661,660,662;,
  3;661,662,663;,
  3;663,662,664;,
  3;663,664,665;,
  3;665,664,666;,
  3;665,666,667;,
  3;667,666,668;,
  3;667,668,669;,
  3;669,668,670;,
  3;669,670,671;,
  3;671,670,672;,
  3;671,672,673;,
  3;673,672,674;,
  3;673,674,675;,
  3;675,674,676;,
  3;675,676,677;,
  3;677,676,678;,
  3;677,678,679;,
  3;679,678,680;,
  3;679,680,681;,
  3;681,680,650;,
  3;681,650,651;,
  3;680,678,676;,
  3;680,676,674;,
  3;680,674,672;,
  3;680,672,670;,
  3;680,670,668;,
  3;680,668,666;,
  3;680,666,664;,
  3;680,664,662;,
  3;680,662,660;,
  3;680,660,658;,
  3;680,658,656;,
  3;680,656,654;,
  3;680,654,652;,
  3;680,652,650;,
  3;651,653,655;,
  3;651,655,657;,
  3;651,657,659;,
  3;651,659,661;,
  3;651,661,663;,
  3;651,663,665;,
  3;651,665,667;,
  3;651,667,669;,
  3;651,669,671;,
  3;651,671,673;,
  3;651,673,675;,
  3;651,675,677;,
  3;651,677,679;,
  3;651,679,681;,
  3;683,682,684;,
  3;683,684,685;,
  3;685,684,686;,
  3;685,686,687;,
  3;687,686,688;,
  3;687,688,689;,
  3;689,688,690;,
  3;689,690,691;,
  3;691,690,692;,
  3;691,692,693;,
  3;693,692,694;,
  3;693,694,695;,
  3;695,694,696;,
  3;695,696,697;,
  3;697,696,698;,
  3;697,698,699;,
  3;699,698,700;,
  3;699,700,701;,
  3;701,700,702;,
  3;701,702,703;,
  3;703,702,704;,
  3;703,704,705;,
  3;705,704,706;,
  3;705,706,707;,
  3;707,706,708;,
  3;707,708,709;,
  3;709,708,710;,
  3;709,710,711;,
  3;711,710,712;,
  3;711,712,713;,
  3;713,712,682;,
  3;713,682,683;,
  3;712,710,708;,
  3;712,708,706;,
  3;712,706,704;,
  3;712,704,702;,
  3;712,702,700;,
  3;712,700,698;,
  3;712,698,696;,
  3;712,696,694;,
  3;712,694,692;,
  3;712,692,690;,
  3;712,690,688;,
  3;712,688,686;,
  3;712,686,684;,
  3;712,684,682;,
  3;683,685,687;,
  3;683,687,689;,
  3;683,689,691;,
  3;683,691,693;,
  3;683,693,695;,
  3;683,695,697;,
  3;683,697,699;,
  3;683,699,701;,
  3;683,701,703;,
  3;683,703,705;,
  3;683,705,707;,
  3;683,707,709;,
  3;683,709,711;,
  3;683,711,713;;
 }
}