――――――――――――――――――――――――
　　373系ストラクチャ
――――――――――――――――――――――――

　ダウンロードありがとうございます。
  等幅フォント（MSゴシック等）でご覧ください。

　配置間隔は21mです。

　Tc372.csv　クハ372
　 T373.csv　サハ373
　Mc373.csv　クモハ373

　←静岡　　　　　　東京→
　クハ372 サハ373 クモハ373

――――――――――――――――――――――――
　N209
　n209n@hotmail.com
　hhttp://www.geocities.jp/n209n/
――――――――――――――――――――――――