xof 0303txt 0032
template Vector {
 <3d82ab5e-62da-11cf-ab39-0020af71e433>
 FLOAT x;
 FLOAT y;
 FLOAT z;
}

template MeshFace {
 <3d82ab5f-62da-11cf-ab39-0020af71e433>
 DWORD nFaceVertexIndices;
 array DWORD faceVertexIndices[nFaceVertexIndices];
}

template Mesh {
 <3d82ab44-62da-11cf-ab39-0020af71e433>
 DWORD nVertices;
 array Vector vertices[nVertices];
 DWORD nFaces;
 array MeshFace faces[nFaces];
 [...]
}

template ColorRGBA {
 <35ff44e0-6c7c-11cf-8f52-0040333594a3>
 FLOAT red;
 FLOAT green;
 FLOAT blue;
 FLOAT alpha;
}

template ColorRGB {
 <d3e16e81-7835-11cf-8f52-0040333594a3>
 FLOAT red;
 FLOAT green;
 FLOAT blue;
}

template Material {
 <3d82ab4d-62da-11cf-ab39-0020af71e433>
 ColorRGBA faceColor;
 FLOAT power;
 ColorRGB specularColor;
 ColorRGB emissiveColor;
 [...]
}

template MeshMaterialList {
 <f6f23f42-7686-11cf-8f52-0040333594a3>
 DWORD nMaterials;
 DWORD nFaceIndexes;
 array DWORD faceIndexes[nFaceIndexes];
 [Material <3d82ab4d-62da-11cf-ab39-0020af71e433>]
}

template TextureFilename {
 <a42790e1-7810-11cf-8f52-0040333594a3>
 STRING filename;
}

template Coords2d {
 <f6f23f44-7686-11cf-8f52-0040333594a3>
 FLOAT u;
 FLOAT v;
}

template MeshTextureCoords {
 <f6f23f40-7686-11cf-8f52-0040333594a3>
 DWORD nTextureCoords;
 array Coords2d textureCoords[nTextureCoords];
}

template MeshNormals {
 <f6f23f43-7686-11cf-8f52-0040333594a3>
 DWORD nNormals;
 array Vector normals[nNormals];
 DWORD nFaceNormals;
 array MeshFace faceNormals[nFaceNormals];
}


Mesh  {
 320;
 12.299999;7.000000;-11.299999;,
 12.299999;-3.000000;-11.299999;,
 11.699999;-3.000000;-11.299999;,
 11.699999;7.000000;-11.299999;,
 12.299999;7.000000;-10.699999;,
 12.299999;-3.000000;-10.699999;,
 11.699999;-3.000000;-10.699999;,
 11.699999;7.000000;-10.699999;,
 8.299999;7.000000;0.700000;,
 8.299999;-3.000000;0.700000;,
 7.699999;-3.000000;0.700000;,
 7.699999;7.000000;0.700000;,
 8.299999;7.000000;1.300000;,
 8.299999;-3.000000;1.300000;,
 7.699999;-3.000000;1.300000;,
 7.699999;7.000000;1.300000;,
 8.299999;7.000000;-4.300000;,
 8.299999;-3.000000;-4.300000;,
 7.699999;-3.000000;-4.300000;,
 7.699999;7.000000;-4.300000;,
 8.299999;7.000000;-3.700000;,
 8.299999;-3.000000;-3.700000;,
 7.699999;-3.000000;-3.700000;,
 7.699999;7.000000;-3.700000;,
 8.299999;7.000000;-9.299999;,
 8.299999;-3.000000;-9.299999;,
 7.699999;-3.000000;-9.299999;,
 7.699999;7.000000;-9.299999;,
 8.299999;7.000000;-8.699999;,
 8.299999;-3.000000;-8.699999;,
 7.699999;-3.000000;-8.699999;,
 7.699999;7.000000;-8.699999;,
 8.299999;7.500000;-14.299999;,
 8.299999;-3.000000;-14.299999;,
 7.699999;-3.000000;-14.299999;,
 7.699999;7.500000;-14.299999;,
 8.299999;7.500000;-13.699999;,
 8.299999;-3.000000;-13.699999;,
 7.699999;-3.000000;-13.699999;,
 7.699999;7.500000;-13.699999;,
 4.300000;7.000000;10.699999;,
 4.300000;-3.000000;10.699999;,
 3.700000;-3.000000;10.699999;,
 3.700000;7.000000;10.699999;,
 4.300000;7.000000;11.299999;,
 4.300000;-3.000000;11.299999;,
 3.700000;-3.000000;11.299999;,
 3.700000;7.000000;11.299999;,
 4.300000;7.000000;5.699999;,
 4.300000;-3.000000;5.699999;,
 3.700000;-3.000000;5.699999;,
 3.700000;7.000000;5.699999;,
 4.300000;7.000000;6.300000;,
 4.300000;-3.000000;6.300000;,
 3.700000;-3.000000;6.300000;,
 3.700000;7.000000;6.300000;,
 4.300000;7.000000;0.700000;,
 4.300000;-3.000000;0.700000;,
 3.700000;-3.000000;0.700000;,
 3.700000;7.000000;0.700000;,
 4.300000;7.000000;1.300000;,
 4.300000;-3.000000;1.300000;,
 3.700000;-3.000000;1.300000;,
 3.700000;7.000000;1.300000;,
 4.300000;7.000000;-4.300000;,
 4.300000;-3.000000;-4.300000;,
 3.700000;-3.000000;-4.300000;,
 3.700000;7.000000;-4.300000;,
 4.300000;7.000000;-3.700000;,
 4.300000;-3.000000;-3.700000;,
 3.700000;-3.000000;-3.700000;,
 3.700000;7.000000;-3.700000;,
 4.300000;7.500000;-9.299999;,
 4.300000;-3.000000;-9.299999;,
 3.700000;-3.000000;-9.299999;,
 3.700000;7.500000;-9.299999;,
 4.300000;7.500000;-8.699999;,
 4.300000;-3.000000;-8.699999;,
 3.700000;-3.000000;-8.699999;,
 3.700000;7.500000;-8.699999;,
 4.300000;7.500000;-14.299999;,
 4.300000;-3.000000;-14.299999;,
 3.700000;-3.000000;-14.299999;,
 3.700000;7.500000;-14.299999;,
 4.300000;7.500000;-13.699999;,
 4.300000;-3.000000;-13.699999;,
 3.700000;-3.000000;-13.699999;,
 3.700000;7.500000;-13.699999;,
 -2.200000;7.000000;20.699999;,
 -2.200000;-3.000000;20.699999;,
 -2.800000;-3.000000;20.699999;,
 -2.800000;7.000000;20.699999;,
 -2.200000;7.000000;21.299997;,
 -2.200000;-3.000000;21.299997;,
 -2.800000;-3.000000;21.299997;,
 -2.800000;7.000000;21.299997;,
 -2.200000;7.000000;15.699999;,
 -2.200000;-3.000000;15.699999;,
 -2.800000;-3.000000;15.699999;,
 -2.800000;7.000000;15.699999;,
 -2.200000;7.000000;16.299997;,
 -2.200000;-3.000000;16.299997;,
 -2.800000;-3.000000;16.299997;,
 -2.800000;7.000000;16.299997;,
 -2.200000;7.000000;10.699999;,
 -2.200000;-3.000000;10.699999;,
 -2.800000;-3.000000;10.699999;,
 -2.800000;7.000000;10.699999;,
 -2.200000;7.000000;11.299999;,
 -2.200000;-3.000000;11.299999;,
 -2.800000;-3.000000;11.299999;,
 -2.800000;7.000000;11.299999;,
 -2.200000;7.000000;5.699999;,
 -2.200000;-3.000000;5.699999;,
 -2.800000;-3.000000;5.699999;,
 -2.800000;7.000000;5.699999;,
 -2.200000;7.000000;6.300000;,
 -2.200000;-3.000000;6.300000;,
 -2.800000;-3.000000;6.300000;,
 -2.800000;7.000000;6.300000;,
 -2.200000;7.500000;0.700000;,
 -2.200000;-3.000000;0.700000;,
 -2.800000;-3.000000;0.700000;,
 -2.800000;7.500000;0.700000;,
 -2.200000;7.500000;1.300000;,
 -2.200000;-3.000000;1.300000;,
 -2.800000;-3.000000;1.300000;,
 -2.800000;7.500000;1.300000;,
 -2.200000;7.000000;-4.300000;,
 -2.200000;-3.000000;-4.300000;,
 -2.800000;-3.000000;-4.300000;,
 -2.800000;7.000000;-4.300000;,
 -2.200000;7.000000;-3.700000;,
 -2.200000;-3.000000;-3.700000;,
 -2.800000;-3.000000;-3.700000;,
 -2.800000;7.000000;-3.700000;,
 -2.200000;7.500000;-9.299999;,
 -2.200000;-3.000000;-9.299999;,
 -2.800000;-3.000000;-9.299999;,
 -2.800000;7.500000;-9.299999;,
 -2.200000;7.500000;-8.699999;,
 -2.200000;-3.000000;-8.699999;,
 -2.800000;-3.000000;-8.699999;,
 -2.800000;7.500000;-8.699999;,
 -5.199999;7.000000;25.699999;,
 -5.199999;-3.000000;25.699999;,
 -5.800000;-3.000000;25.699999;,
 -5.800000;7.000000;25.699999;,
 -5.199999;7.000000;26.299997;,
 -5.199999;-3.000000;26.299997;,
 -5.800000;-3.000000;26.299997;,
 -5.800000;7.000000;26.299997;,
 -5.199999;7.000000;20.699999;,
 -5.199999;-3.000000;20.699999;,
 -5.800000;-3.000000;20.699999;,
 -5.800000;7.000000;20.699999;,
 -5.199999;7.000000;21.299997;,
 -5.199999;-3.000000;21.299997;,
 -5.800000;-3.000000;21.299997;,
 -5.800000;7.000000;21.299997;,
 -5.199999;7.000000;15.699999;,
 -5.199999;-3.000000;15.699999;,
 -5.800000;-3.000000;15.699999;,
 -5.800000;7.000000;15.699999;,
 -5.199999;7.000000;16.299997;,
 -5.199999;-3.000000;16.299997;,
 -5.800000;-3.000000;16.299997;,
 -5.800000;7.000000;16.299997;,
 -5.199999;7.000000;10.699999;,
 -5.199999;-3.000000;10.699999;,
 -5.800000;-3.000000;10.699999;,
 -5.800000;7.000000;10.699999;,
 -5.199999;7.000000;11.299999;,
 -5.199999;-3.000000;11.299999;,
 -5.800000;-3.000000;11.299999;,
 -5.800000;7.000000;11.299999;,
 -5.199999;7.500000;5.699999;,
 -5.199999;-3.000000;5.699999;,
 -5.800000;-3.000000;5.699999;,
 -5.800000;7.500000;5.699999;,
 -5.199999;7.500000;6.300000;,
 -5.199999;-3.000000;6.300000;,
 -5.800000;-3.000000;6.300000;,
 -5.800000;7.500000;6.300000;,
 -5.199999;7.500000;0.700000;,
 -5.199999;-3.000000;0.700000;,
 -5.800000;-3.000000;0.700000;,
 -5.800000;7.500000;0.700000;,
 -5.199999;7.500000;1.300000;,
 -5.199999;-3.000000;1.300000;,
 -5.800000;-3.000000;1.300000;,
 -5.800000;7.500000;1.300000;,
 -11.699999;7.000000;30.699999;,
 -11.699999;-3.000000;30.699999;,
 -12.299999;-3.000000;30.699999;,
 -12.299999;7.000000;30.699999;,
 -11.699999;7.000000;31.299997;,
 -11.699999;-3.000000;31.299997;,
 -12.299999;-3.000000;31.299997;,
 -12.299999;7.000000;31.299997;,
 -11.699999;7.000000;25.699999;,
 -11.699999;-3.000000;25.699999;,
 -12.299999;-3.000000;25.699999;,
 -12.299999;7.000000;25.699999;,
 -11.699999;7.000000;26.299997;,
 -11.699999;-3.000000;26.299997;,
 -12.299999;-3.000000;26.299997;,
 -12.299999;7.000000;26.299997;,
 -11.699999;7.000000;20.699999;,
 -11.699999;-3.000000;20.699999;,
 -12.299999;-3.000000;20.699999;,
 -12.299999;7.000000;20.699999;,
 -11.699999;7.000000;21.299997;,
 -11.699999;-3.000000;21.299997;,
 -12.299999;-3.000000;21.299997;,
 -12.299999;7.000000;21.299997;,
 -11.699999;7.500000;15.699999;,
 -11.699999;-3.000000;15.699999;,
 -12.299999;-3.000000;15.699999;,
 -12.299999;7.500000;15.699999;,
 -11.699999;7.500000;16.299997;,
 -11.699999;-3.000000;16.299997;,
 -12.299999;-3.000000;16.299997;,
 -12.299999;7.500000;16.299997;,
 -11.699999;7.000000;10.699999;,
 -11.699999;-3.000000;10.699999;,
 -12.299999;-3.000000;10.699999;,
 -12.299999;7.000000;10.699999;,
 -11.699999;7.000000;11.299999;,
 -11.699999;-3.000000;11.299999;,
 -12.299999;-3.000000;11.299999;,
 -12.299999;7.000000;11.299999;,
 -11.699999;7.500000;5.699999;,
 -11.699999;-3.000000;5.699999;,
 -12.299999;-3.000000;5.699999;,
 -12.299999;7.500000;5.699999;,
 -11.699999;7.500000;6.300000;,
 -11.699999;-3.000000;6.300000;,
 -12.299999;-3.000000;6.300000;,
 -12.299999;7.500000;6.300000;,
 -15.699999;7.000000;30.699999;,
 -15.699999;-3.000000;30.699999;,
 -16.299997;-3.000000;30.699999;,
 -16.299997;7.000000;30.699999;,
 -15.699999;7.000000;31.299997;,
 -15.699999;-3.000000;31.299997;,
 -16.299997;-3.000000;31.299997;,
 -16.299997;7.000000;31.299997;,
 -15.699999;7.000000;25.699999;,
 -15.699999;-3.000000;25.699999;,
 -16.299997;-3.000000;25.699999;,
 -16.299997;7.000000;25.699999;,
 -15.699999;7.000000;26.299997;,
 -15.699999;-3.000000;26.299997;,
 -16.299997;-3.000000;26.299997;,
 -16.299997;7.000000;26.299997;,
 -15.699999;7.000000;20.699999;,
 -15.699999;-3.000000;20.699999;,
 -16.299997;-3.000000;20.699999;,
 -16.299997;7.000000;20.699999;,
 -15.699999;7.000000;21.299997;,
 -15.699999;-3.000000;21.299997;,
 -16.299997;-3.000000;21.299997;,
 -16.299997;7.000000;21.299997;,
 -15.699999;7.500000;15.699999;,
 -15.699999;-3.000000;15.699999;,
 -16.299997;-3.000000;15.699999;,
 -16.299997;7.500000;15.699999;,
 -15.699999;7.500000;16.299997;,
 -15.699999;-3.000000;16.299997;,
 -16.299997;-3.000000;16.299997;,
 -16.299997;7.500000;16.299997;,
 -19.699999;7.000000;27.699999;,
 -19.699999;-3.000000;27.699999;,
 -20.299997;-3.000000;27.699999;,
 -20.299997;7.000000;27.699999;,
 -19.699999;7.000000;28.299997;,
 -19.699999;-3.000000;28.299997;,
 -20.299997;-3.000000;28.299997;,
 -20.299997;7.000000;28.299997;,
 4.300000;6.000000;-14.300000;,
 4.300000;7.500000;-14.300000;,
 5.300000;6.300000;-14.300000;,
 5.300000;7.500000;-14.300000;,
 6.700000;6.300000;-14.300000;,
 6.700000;7.500000;-14.300000;,
 7.700000;6.000000;-14.300000;,
 7.700000;7.500000;-14.300000;,
 -2.200000;6.000000;-9.300000;,
 -2.200000;7.500000;-9.300000;,
 -1.200000;6.300000;-9.300000;,
 -1.200000;7.500000;-9.300000;,
 2.700000;6.300000;-9.300000;,
 2.700000;7.500000;-9.300000;,
 3.700000;6.000000;-9.300000;,
 3.700000;7.500000;-9.300000;,
 -5.200000;6.000000;0.700000;,
 -5.200000;7.500000;0.700000;,
 -4.200000;6.300000;0.700000;,
 -4.200000;7.500000;0.700000;,
 -3.800000;6.300000;0.700000;,
 -3.800000;7.500000;0.700000;,
 -2.800000;6.000000;0.700000;,
 -2.800000;7.500000;0.700000;,
 -11.800000;6.000000;5.700000;,
 -11.800000;7.500000;5.700000;,
 -10.800000;6.300000;5.700000;,
 -10.800000;7.500000;5.700000;,
 -6.800000;6.300000;5.700000;,
 -6.800000;7.500000;5.700000;,
 -5.800000;6.000000;5.700000;,
 -5.800000;7.500000;5.700000;,
 -15.800000;6.000000;15.700000;,
 -15.800000;7.500000;15.700000;,
 -14.800000;6.300000;15.700000;,
 -14.800000;7.500000;15.700000;,
 -13.200000;6.300000;15.700000;,
 -13.200000;7.500000;15.700000;,
 -12.200000;6.000000;15.700000;,
 -12.200000;7.500000;15.700000;;
 450;
 3;0,1,2;,
 3;0,2,3;,
 3;3,2,6;,
 3;3,6,7;,
 3;7,6,5;,
 3;7,5,4;,
 3;4,5,1;,
 3;4,1,0;,
 3;0,3,7;,
 3;0,7,4;,
 3;1,5,6;,
 3;1,6,2;,
 3;8,9,10;,
 3;8,10,11;,
 3;11,10,14;,
 3;11,14,15;,
 3;15,14,13;,
 3;15,13,12;,
 3;12,13,9;,
 3;12,9,8;,
 3;8,11,15;,
 3;8,15,12;,
 3;9,13,14;,
 3;9,14,10;,
 3;16,17,18;,
 3;16,18,19;,
 3;19,18,22;,
 3;19,22,23;,
 3;23,22,21;,
 3;23,21,20;,
 3;20,21,17;,
 3;20,17,16;,
 3;16,19,23;,
 3;16,23,20;,
 3;17,21,22;,
 3;17,22,18;,
 3;24,25,26;,
 3;24,26,27;,
 3;27,26,30;,
 3;27,30,31;,
 3;31,30,29;,
 3;31,29,28;,
 3;28,29,25;,
 3;28,25,24;,
 3;24,27,31;,
 3;24,31,28;,
 3;25,29,30;,
 3;25,30,26;,
 3;32,33,34;,
 3;32,34,35;,
 3;35,34,38;,
 3;35,38,39;,
 3;39,38,37;,
 3;39,37,36;,
 3;36,37,33;,
 3;36,33,32;,
 3;32,35,39;,
 3;32,39,36;,
 3;33,37,38;,
 3;33,38,34;,
 3;40,41,42;,
 3;40,42,43;,
 3;43,42,46;,
 3;43,46,47;,
 3;47,46,45;,
 3;47,45,44;,
 3;44,45,41;,
 3;44,41,40;,
 3;40,43,47;,
 3;40,47,44;,
 3;41,45,46;,
 3;41,46,42;,
 3;48,49,50;,
 3;48,50,51;,
 3;51,50,54;,
 3;51,54,55;,
 3;55,54,53;,
 3;55,53,52;,
 3;52,53,49;,
 3;52,49,48;,
 3;48,51,55;,
 3;48,55,52;,
 3;49,53,54;,
 3;49,54,50;,
 3;56,57,58;,
 3;56,58,59;,
 3;59,58,62;,
 3;59,62,63;,
 3;63,62,61;,
 3;63,61,60;,
 3;60,61,57;,
 3;60,57,56;,
 3;56,59,63;,
 3;56,63,60;,
 3;57,61,62;,
 3;57,62,58;,
 3;64,65,66;,
 3;64,66,67;,
 3;67,66,70;,
 3;67,70,71;,
 3;71,70,69;,
 3;71,69,68;,
 3;68,69,65;,
 3;68,65,64;,
 3;64,67,71;,
 3;64,71,68;,
 3;65,69,70;,
 3;65,70,66;,
 3;72,73,74;,
 3;72,74,75;,
 3;75,74,78;,
 3;75,78,79;,
 3;79,78,77;,
 3;79,77,76;,
 3;76,77,73;,
 3;76,73,72;,
 3;72,75,79;,
 3;72,79,76;,
 3;73,77,78;,
 3;73,78,74;,
 3;80,81,82;,
 3;80,82,83;,
 3;83,82,86;,
 3;83,86,87;,
 3;87,86,85;,
 3;87,85,84;,
 3;84,85,81;,
 3;84,81,80;,
 3;80,83,87;,
 3;80,87,84;,
 3;81,85,86;,
 3;81,86,82;,
 3;88,89,90;,
 3;88,90,91;,
 3;91,90,94;,
 3;91,94,95;,
 3;95,94,93;,
 3;95,93,92;,
 3;92,93,89;,
 3;92,89,88;,
 3;88,91,95;,
 3;88,95,92;,
 3;89,93,94;,
 3;89,94,90;,
 3;96,97,98;,
 3;96,98,99;,
 3;99,98,102;,
 3;99,102,103;,
 3;103,102,101;,
 3;103,101,100;,
 3;100,101,97;,
 3;100,97,96;,
 3;96,99,103;,
 3;96,103,100;,
 3;97,101,102;,
 3;97,102,98;,
 3;104,105,106;,
 3;104,106,107;,
 3;107,106,110;,
 3;107,110,111;,
 3;111,110,109;,
 3;111,109,108;,
 3;108,109,105;,
 3;108,105,104;,
 3;104,107,111;,
 3;104,111,108;,
 3;105,109,110;,
 3;105,110,106;,
 3;112,113,114;,
 3;112,114,115;,
 3;115,114,118;,
 3;115,118,119;,
 3;119,118,117;,
 3;119,117,116;,
 3;116,117,113;,
 3;116,113,112;,
 3;112,115,119;,
 3;112,119,116;,
 3;113,117,118;,
 3;113,118,114;,
 3;120,121,122;,
 3;120,122,123;,
 3;123,122,126;,
 3;123,126,127;,
 3;127,126,125;,
 3;127,125,124;,
 3;124,125,121;,
 3;124,121,120;,
 3;120,123,127;,
 3;120,127,124;,
 3;121,125,126;,
 3;121,126,122;,
 3;128,129,130;,
 3;128,130,131;,
 3;131,130,134;,
 3;131,134,135;,
 3;135,134,133;,
 3;135,133,132;,
 3;132,133,129;,
 3;132,129,128;,
 3;128,131,135;,
 3;128,135,132;,
 3;129,133,134;,
 3;129,134,130;,
 3;136,137,138;,
 3;136,138,139;,
 3;139,138,142;,
 3;139,142,143;,
 3;143,142,141;,
 3;143,141,140;,
 3;140,141,137;,
 3;140,137,136;,
 3;136,139,143;,
 3;136,143,140;,
 3;137,141,142;,
 3;137,142,138;,
 3;144,145,146;,
 3;144,146,147;,
 3;147,146,150;,
 3;147,150,151;,
 3;151,150,149;,
 3;151,149,148;,
 3;148,149,145;,
 3;148,145,144;,
 3;144,147,151;,
 3;144,151,148;,
 3;145,149,150;,
 3;145,150,146;,
 3;152,153,154;,
 3;152,154,155;,
 3;155,154,158;,
 3;155,158,159;,
 3;159,158,157;,
 3;159,157,156;,
 3;156,157,153;,
 3;156,153,152;,
 3;152,155,159;,
 3;152,159,156;,
 3;153,157,158;,
 3;153,158,154;,
 3;160,161,162;,
 3;160,162,163;,
 3;163,162,166;,
 3;163,166,167;,
 3;167,166,165;,
 3;167,165,164;,
 3;164,165,161;,
 3;164,161,160;,
 3;160,163,167;,
 3;160,167,164;,
 3;161,165,166;,
 3;161,166,162;,
 3;168,169,170;,
 3;168,170,171;,
 3;171,170,174;,
 3;171,174,175;,
 3;175,174,173;,
 3;175,173,172;,
 3;172,173,169;,
 3;172,169,168;,
 3;168,171,175;,
 3;168,175,172;,
 3;169,173,174;,
 3;169,174,170;,
 3;176,177,178;,
 3;176,178,179;,
 3;179,178,182;,
 3;179,182,183;,
 3;183,182,181;,
 3;183,181,180;,
 3;180,181,177;,
 3;180,177,176;,
 3;176,179,183;,
 3;176,183,180;,
 3;177,181,182;,
 3;177,182,178;,
 3;184,185,186;,
 3;184,186,187;,
 3;187,186,190;,
 3;187,190,191;,
 3;191,190,189;,
 3;191,189,188;,
 3;188,189,185;,
 3;188,185,184;,
 3;184,187,191;,
 3;184,191,188;,
 3;185,189,190;,
 3;185,190,186;,
 3;192,193,194;,
 3;192,194,195;,
 3;195,194,198;,
 3;195,198,199;,
 3;199,198,197;,
 3;199,197,196;,
 3;196,197,193;,
 3;196,193,192;,
 3;192,195,199;,
 3;192,199,196;,
 3;193,197,198;,
 3;193,198,194;,
 3;200,201,202;,
 3;200,202,203;,
 3;203,202,206;,
 3;203,206,207;,
 3;207,206,205;,
 3;207,205,204;,
 3;204,205,201;,
 3;204,201,200;,
 3;200,203,207;,
 3;200,207,204;,
 3;201,205,206;,
 3;201,206,202;,
 3;208,209,210;,
 3;208,210,211;,
 3;211,210,214;,
 3;211,214,215;,
 3;215,214,213;,
 3;215,213,212;,
 3;212,213,209;,
 3;212,209,208;,
 3;208,211,215;,
 3;208,215,212;,
 3;209,213,214;,
 3;209,214,210;,
 3;216,217,218;,
 3;216,218,219;,
 3;219,218,222;,
 3;219,222,223;,
 3;223,222,221;,
 3;223,221,220;,
 3;220,221,217;,
 3;220,217,216;,
 3;216,219,223;,
 3;216,223,220;,
 3;217,221,222;,
 3;217,222,218;,
 3;224,225,226;,
 3;224,226,227;,
 3;227,226,230;,
 3;227,230,231;,
 3;231,230,229;,
 3;231,229,228;,
 3;228,229,225;,
 3;228,225,224;,
 3;224,227,231;,
 3;224,231,228;,
 3;225,229,230;,
 3;225,230,226;,
 3;232,233,234;,
 3;232,234,235;,
 3;235,234,238;,
 3;235,238,239;,
 3;239,238,237;,
 3;239,237,236;,
 3;236,237,233;,
 3;236,233,232;,
 3;232,235,239;,
 3;232,239,236;,
 3;233,237,238;,
 3;233,238,234;,
 3;240,241,242;,
 3;240,242,243;,
 3;243,242,246;,
 3;243,246,247;,
 3;247,246,245;,
 3;247,245,244;,
 3;244,245,241;,
 3;244,241,240;,
 3;240,243,247;,
 3;240,247,244;,
 3;241,245,246;,
 3;241,246,242;,
 3;248,249,250;,
 3;248,250,251;,
 3;251,250,254;,
 3;251,254,255;,
 3;255,254,253;,
 3;255,253,252;,
 3;252,253,249;,
 3;252,249,248;,
 3;248,251,255;,
 3;248,255,252;,
 3;249,253,254;,
 3;249,254,250;,
 3;256,257,258;,
 3;256,258,259;,
 3;259,258,262;,
 3;259,262,263;,
 3;263,262,261;,
 3;263,261,260;,
 3;260,261,257;,
 3;260,257,256;,
 3;256,259,263;,
 3;256,263,260;,
 3;257,261,262;,
 3;257,262,258;,
 3;264,265,266;,
 3;264,266,267;,
 3;267,266,270;,
 3;267,270,271;,
 3;271,270,269;,
 3;271,269,268;,
 3;268,269,265;,
 3;268,265,264;,
 3;264,267,271;,
 3;264,271,268;,
 3;265,269,270;,
 3;265,270,266;,
 3;272,273,274;,
 3;272,274,275;,
 3;275,274,278;,
 3;275,278,279;,
 3;279,278,277;,
 3;279,277,276;,
 3;276,277,273;,
 3;276,273,272;,
 3;272,275,279;,
 3;272,279,276;,
 3;273,277,278;,
 3;273,278,274;,
 3;280,281,283;,
 3;280,283,282;,
 3;282,283,285;,
 3;282,285,284;,
 3;284,285,287;,
 3;284,287,286;,
 3;288,289,291;,
 3;288,291,290;,
 3;290,291,293;,
 3;290,293,292;,
 3;292,293,295;,
 3;292,295,294;,
 3;296,297,299;,
 3;296,299,298;,
 3;298,299,301;,
 3;298,301,300;,
 3;300,301,303;,
 3;300,303,302;,
 3;304,305,307;,
 3;304,307,306;,
 3;306,307,309;,
 3;306,309,308;,
 3;308,309,311;,
 3;308,311,310;,
 3;312,313,315;,
 3;312,315,314;,
 3;314,315,317;,
 3;314,317,316;,
 3;316,317,319;,
 3;316,319,318;;

 MeshMaterialList  {
  40;
  450;
  0,
  0,
  0,
  0,
  0,
  0,
  0,
  0,
  0,
  0,
  0,
  0,
  1,
  1,
  1,
  1,
  1,
  1,
  1,
  1,
  1,
  1,
  1,
  1,
  2,
  2,
  2,
  2,
  2,
  2,
  2,
  2,
  2,
  2,
  2,
  2,
  3,
  3,
  3,
  3,
  3,
  3,
  3,
  3,
  3,
  3,
  3,
  3,
  4,
  4,
  4,
  4,
  4,
  4,
  4,
  4,
  4,
  4,
  4,
  4,
  5,
  5,
  5,
  5,
  5,
  5,
  5,
  5,
  5,
  5,
  5,
  5,
  6,
  6,
  6,
  6,
  6,
  6,
  6,
  6,
  6,
  6,
  6,
  6,
  7,
  7,
  7,
  7,
  7,
  7,
  7,
  7,
  7,
  7,
  7,
  7,
  8,
  8,
  8,
  8,
  8,
  8,
  8,
  8,
  8,
  8,
  8,
  8,
  9,
  9,
  9,
  9,
  9,
  9,
  9,
  9,
  9,
  9,
  9,
  9,
  10,
  10,
  10,
  10,
  10,
  10,
  10,
  10,
  10,
  10,
  10,
  10,
  11,
  11,
  11,
  11,
  11,
  11,
  11,
  11,
  11,
  11,
  11,
  11,
  12,
  12,
  12,
  12,
  12,
  12,
  12,
  12,
  12,
  12,
  12,
  12,
  13,
  13,
  13,
  13,
  13,
  13,
  13,
  13,
  13,
  13,
  13,
  13,
  14,
  14,
  14,
  14,
  14,
  14,
  14,
  14,
  14,
  14,
  14,
  14,
  15,
  15,
  15,
  15,
  15,
  15,
  15,
  15,
  15,
  15,
  15,
  15,
  16,
  16,
  16,
  16,
  16,
  16,
  16,
  16,
  16,
  16,
  16,
  16,
  17,
  17,
  17,
  17,
  17,
  17,
  17,
  17,
  17,
  17,
  17,
  17,
  18,
  18,
  18,
  18,
  18,
  18,
  18,
  18,
  18,
  18,
  18,
  18,
  19,
  19,
  19,
  19,
  19,
  19,
  19,
  19,
  19,
  19,
  19,
  19,
  20,
  20,
  20,
  20,
  20,
  20,
  20,
  20,
  20,
  20,
  20,
  20,
  21,
  21,
  21,
  21,
  21,
  21,
  21,
  21,
  21,
  21,
  21,
  21,
  22,
  22,
  22,
  22,
  22,
  22,
  22,
  22,
  22,
  22,
  22,
  22,
  23,
  23,
  23,
  23,
  23,
  23,
  23,
  23,
  23,
  23,
  23,
  23,
  24,
  24,
  24,
  24,
  24,
  24,
  24,
  24,
  24,
  24,
  24,
  24,
  25,
  25,
  25,
  25,
  25,
  25,
  25,
  25,
  25,
  25,
  25,
  25,
  26,
  26,
  26,
  26,
  26,
  26,
  26,
  26,
  26,
  26,
  26,
  26,
  27,
  27,
  27,
  27,
  27,
  27,
  27,
  27,
  27,
  27,
  27,
  27,
  28,
  28,
  28,
  28,
  28,
  28,
  28,
  28,
  28,
  28,
  28,
  28,
  29,
  29,
  29,
  29,
  29,
  29,
  29,
  29,
  29,
  29,
  29,
  29,
  30,
  30,
  30,
  30,
  30,
  30,
  30,
  30,
  30,
  30,
  30,
  30,
  31,
  31,
  31,
  31,
  31,
  31,
  31,
  31,
  31,
  31,
  31,
  31,
  32,
  32,
  32,
  32,
  32,
  32,
  32,
  32,
  32,
  32,
  32,
  32,
  33,
  33,
  33,
  33,
  33,
  33,
  33,
  33,
  33,
  33,
  33,
  33,
  34,
  34,
  34,
  34,
  34,
  34,
  34,
  34,
  34,
  34,
  34,
  34,
  35,
  35,
  35,
  35,
  35,
  35,
  36,
  36,
  36,
  36,
  36,
  36,
  37,
  37,
  37,
  37,
  37,
  37,
  38,
  38,
  38,
  38,
  38,
  38,
  39,
  39,
  39,
  39,
  39,
  39;

  Material  {
   0.431373;0.431373;0.431373;1.000000;;
   0.000000;
   0.000000;0.000000;0.000000;;
   0.000000;0.000000;0.000000;;
  }

  Material  {
   0.431373;0.431373;0.431373;1.000000;;
   0.000000;
   0.000000;0.000000;0.000000;;
   0.000000;0.000000;0.000000;;
  }

  Material  {
   0.431373;0.431373;0.431373;1.000000;;
   0.000000;
   0.000000;0.000000;0.000000;;
   0.000000;0.000000;0.000000;;
  }

  Material  {
   0.431373;0.431373;0.431373;1.000000;;
   0.000000;
   0.000000;0.000000;0.000000;;
   0.000000;0.000000;0.000000;;
  }

  Material  {
   1.000000;1.000000;1.000000;1.000000;;
   0.000000;
   0.000000;0.000000;0.000000;;
   0.000000;0.000000;0.000000;;

   TextureFilename  {
    "Pier1.png";
   }
  }

  Material  {
   0.431373;0.431373;0.431373;1.000000;;
   0.000000;
   0.000000;0.000000;0.000000;;
   0.000000;0.000000;0.000000;;
  }

  Material  {
   0.431373;0.431373;0.431373;1.000000;;
   0.000000;
   0.000000;0.000000;0.000000;;
   0.000000;0.000000;0.000000;;
  }

  Material  {
   0.431373;0.431373;0.431373;1.000000;;
   0.000000;
   0.000000;0.000000;0.000000;;
   0.000000;0.000000;0.000000;;
  }

  Material  {
   0.431373;0.431373;0.431373;1.000000;;
   0.000000;
   0.000000;0.000000;0.000000;;
   0.000000;0.000000;0.000000;;
  }

  Material  {
   1.000000;1.000000;1.000000;1.000000;;
   0.000000;
   0.000000;0.000000;0.000000;;
   0.000000;0.000000;0.000000;;

   TextureFilename  {
    "Pier1.png";
   }
  }

  Material  {
   1.000000;1.000000;1.000000;1.000000;;
   0.000000;
   0.000000;0.000000;0.000000;;
   0.000000;0.000000;0.000000;;

   TextureFilename  {
    "Pier1.png";
   }
  }

  Material  {
   0.431373;0.431373;0.431373;1.000000;;
   0.000000;
   0.000000;0.000000;0.000000;;
   0.000000;0.000000;0.000000;;
  }

  Material  {
   0.431373;0.431373;0.431373;1.000000;;
   0.000000;
   0.000000;0.000000;0.000000;;
   0.000000;0.000000;0.000000;;
  }

  Material  {
   0.431373;0.431373;0.431373;1.000000;;
   0.000000;
   0.000000;0.000000;0.000000;;
   0.000000;0.000000;0.000000;;
  }

  Material  {
   0.431373;0.431373;0.431373;1.000000;;
   0.000000;
   0.000000;0.000000;0.000000;;
   0.000000;0.000000;0.000000;;
  }

  Material  {
   1.000000;1.000000;1.000000;1.000000;;
   0.000000;
   0.000000;0.000000;0.000000;;
   0.000000;0.000000;0.000000;;

   TextureFilename  {
    "Pier1.png";
   }
  }

  Material  {
   0.431373;0.431373;0.431373;1.000000;;
   0.000000;
   0.000000;0.000000;0.000000;;
   0.000000;0.000000;0.000000;;
  }

  Material  {
   1.000000;1.000000;1.000000;1.000000;;
   0.000000;
   0.000000;0.000000;0.000000;;
   0.000000;0.000000;0.000000;;

   TextureFilename  {
    "Pier1.png";
   }
  }

  Material  {
   0.431373;0.431373;0.431373;1.000000;;
   0.000000;
   0.000000;0.000000;0.000000;;
   0.000000;0.000000;0.000000;;
  }

  Material  {
   0.431373;0.431373;0.431373;1.000000;;
   0.000000;
   0.000000;0.000000;0.000000;;
   0.000000;0.000000;0.000000;;
  }

  Material  {
   0.431373;0.431373;0.431373;1.000000;;
   0.000000;
   0.000000;0.000000;0.000000;;
   0.000000;0.000000;0.000000;;
  }

  Material  {
   0.431373;0.431373;0.431373;1.000000;;
   0.000000;
   0.000000;0.000000;0.000000;;
   0.000000;0.000000;0.000000;;
  }

  Material  {
   1.000000;1.000000;1.000000;1.000000;;
   0.000000;
   0.000000;0.000000;0.000000;;
   0.000000;0.000000;0.000000;;

   TextureFilename  {
    "Pier1.png";
   }
  }

  Material  {
   1.000000;1.000000;1.000000;1.000000;;
   0.000000;
   0.000000;0.000000;0.000000;;
   0.000000;0.000000;0.000000;;

   TextureFilename  {
    "Pier1.png";
   }
  }

  Material  {
   0.431373;0.431373;0.431373;1.000000;;
   0.000000;
   0.000000;0.000000;0.000000;;
   0.000000;0.000000;0.000000;;
  }

  Material  {
   0.431373;0.431373;0.431373;1.000000;;
   0.000000;
   0.000000;0.000000;0.000000;;
   0.000000;0.000000;0.000000;;
  }

  Material  {
   0.431373;0.431373;0.431373;1.000000;;
   0.000000;
   0.000000;0.000000;0.000000;;
   0.000000;0.000000;0.000000;;
  }

  Material  {
   1.000000;1.000000;1.000000;1.000000;;
   0.000000;
   0.000000;0.000000;0.000000;;
   0.000000;0.000000;0.000000;;

   TextureFilename  {
    "Pier1.png";
   }
  }

  Material  {
   0.431373;0.431373;0.431373;1.000000;;
   0.000000;
   0.000000;0.000000;0.000000;;
   0.000000;0.000000;0.000000;;
  }

  Material  {
   1.000000;1.000000;1.000000;1.000000;;
   0.000000;
   0.000000;0.000000;0.000000;;
   0.000000;0.000000;0.000000;;

   TextureFilename  {
    "Pier1.png";
   }
  }

  Material  {
   0.431373;0.431373;0.431373;1.000000;;
   0.000000;
   0.000000;0.000000;0.000000;;
   0.000000;0.000000;0.000000;;
  }

  Material  {
   0.431373;0.431373;0.431373;1.000000;;
   0.000000;
   0.000000;0.000000;0.000000;;
   0.000000;0.000000;0.000000;;
  }

  Material  {
   0.431373;0.431373;0.431373;1.000000;;
   0.000000;
   0.000000;0.000000;0.000000;;
   0.000000;0.000000;0.000000;;
  }

  Material  {
   1.000000;1.000000;1.000000;1.000000;;
   0.000000;
   0.000000;0.000000;0.000000;;
   0.000000;0.000000;0.000000;;

   TextureFilename  {
    "Pier1.png";
   }
  }

  Material  {
   0.431373;0.431373;0.431373;1.000000;;
   0.000000;
   0.000000;0.000000;0.000000;;
   0.000000;0.000000;0.000000;;
  }

  Material  {
   1.000000;1.000000;1.000000;1.000000;;
   0.000000;
   0.000000;0.000000;0.000000;;
   0.000000;0.000000;0.000000;;

   TextureFilename  {
    "Pier1.png";
   }
  }

  Material  {
   1.000000;1.000000;1.000000;1.000000;;
   0.000000;
   0.000000;0.000000;0.000000;;
   0.000000;0.000000;0.000000;;

   TextureFilename  {
    "Pier1.png";
   }
  }

  Material  {
   1.000000;1.000000;1.000000;1.000000;;
   0.000000;
   0.000000;0.000000;0.000000;;
   0.000000;0.000000;0.000000;;

   TextureFilename  {
    "Pier1.png";
   }
  }

  Material  {
   1.000000;1.000000;1.000000;1.000000;;
   0.000000;
   0.000000;0.000000;0.000000;;
   0.000000;0.000000;0.000000;;

   TextureFilename  {
    "Pier1.png";
   }
  }

  Material  {
   1.000000;1.000000;1.000000;1.000000;;
   0.000000;
   0.000000;0.000000;0.000000;;
   0.000000;0.000000;0.000000;;

   TextureFilename  {
    "Pier1.png";
   }
  }
 }

 MeshTextureCoords  {
  320;
  0.000000;0.000000;,
  0.000000;0.000000;,
  0.000000;0.000000;,
  0.000000;0.000000;,
  0.000000;0.000000;,
  0.000000;0.000000;,
  0.000000;0.000000;,
  0.000000;0.000000;,
  0.000000;0.000000;,
  0.000000;0.000000;,
  0.000000;0.000000;,
  0.000000;0.000000;,
  0.000000;0.000000;,
  0.000000;0.000000;,
  0.000000;0.000000;,
  0.000000;0.000000;,
  0.000000;0.000000;,
  0.000000;0.000000;,
  0.000000;0.000000;,
  0.000000;0.000000;,
  0.000000;0.000000;,
  0.000000;0.000000;,
  0.000000;0.000000;,
  0.000000;0.000000;,
  0.000000;0.000000;,
  0.000000;0.000000;,
  0.000000;0.000000;,
  0.000000;0.000000;,
  0.000000;0.000000;,
  0.000000;0.000000;,
  0.000000;0.000000;,
  0.000000;0.000000;,
  1.000000;0.100000;,
  0.500000;0.100000;,
  0.500000;0.000000;,
  1.000000;0.000000;,
  1.000000;0.000000;,
  0.500000;0.000000;,
  0.500000;0.100000;,
  1.000000;0.100000;,
  0.000000;0.000000;,
  0.000000;0.000000;,
  0.000000;0.000000;,
  0.000000;0.000000;,
  0.000000;0.000000;,
  0.000000;0.000000;,
  0.000000;0.000000;,
  0.000000;0.000000;,
  0.000000;0.000000;,
  0.000000;0.000000;,
  0.000000;0.000000;,
  0.000000;0.000000;,
  0.000000;0.000000;,
  0.000000;0.000000;,
  0.000000;0.000000;,
  0.000000;0.000000;,
  0.000000;0.000000;,
  0.000000;0.000000;,
  0.000000;0.000000;,
  0.000000;0.000000;,
  0.000000;0.000000;,
  0.000000;0.000000;,
  0.000000;0.000000;,
  0.000000;0.000000;,
  0.000000;0.000000;,
  0.000000;0.000000;,
  0.000000;0.000000;,
  0.000000;0.000000;,
  0.000000;0.000000;,
  0.000000;0.000000;,
  0.000000;0.000000;,
  0.000000;0.000000;,
  1.000000;0.100000;,
  0.500000;0.100000;,
  0.500000;0.000000;,
  1.000000;0.000000;,
  1.000000;0.000000;,
  0.500000;0.000000;,
  0.500000;0.100000;,
  1.000000;0.100000;,
  1.000000;0.100000;,
  0.500000;0.100000;,
  0.500000;0.000000;,
  1.000000;0.000000;,
  1.000000;0.000000;,
  0.500000;0.000000;,
  0.500000;0.100000;,
  1.000000;0.100000;,
  0.000000;0.000000;,
  0.000000;0.000000;,
  0.000000;0.000000;,
  0.000000;0.000000;,
  0.000000;0.000000;,
  0.000000;0.000000;,
  0.000000;0.000000;,
  0.000000;0.000000;,
  0.000000;0.000000;,
  0.000000;0.000000;,
  0.000000;0.000000;,
  0.000000;0.000000;,
  0.000000;0.000000;,
  0.000000;0.000000;,
  0.000000;0.000000;,
  0.000000;0.000000;,
  0.000000;0.000000;,
  0.000000;0.000000;,
  0.000000;0.000000;,
  0.000000;0.000000;,
  0.000000;0.000000;,
  0.000000;0.000000;,
  0.000000;0.000000;,
  0.000000;0.000000;,
  0.000000;0.000000;,
  0.000000;0.000000;,
  0.000000;0.000000;,
  0.000000;0.000000;,
  0.000000;0.000000;,
  0.000000;0.000000;,
  0.000000;0.000000;,
  0.000000;0.000000;,
  1.000000;0.100000;,
  0.500000;0.100000;,
  0.500000;0.000000;,
  1.000000;0.000000;,
  1.000000;0.000000;,
  0.500000;0.000000;,
  0.500000;0.100000;,
  1.000000;0.100000;,
  0.000000;0.000000;,
  0.000000;0.000000;,
  0.000000;0.000000;,
  0.000000;0.000000;,
  0.000000;0.000000;,
  0.000000;0.000000;,
  0.000000;0.000000;,
  0.000000;0.000000;,
  1.000000;0.100000;,
  0.500000;0.100000;,
  0.500000;0.000000;,
  1.000000;0.000000;,
  1.000000;0.000000;,
  0.500000;0.000000;,
  0.500000;0.100000;,
  1.000000;0.100000;,
  0.000000;0.000000;,
  0.000000;0.000000;,
  0.000000;0.000000;,
  0.000000;0.000000;,
  0.000000;0.000000;,
  0.000000;0.000000;,
  0.000000;0.000000;,
  0.000000;0.000000;,
  0.000000;0.000000;,
  0.000000;0.000000;,
  0.000000;0.000000;,
  0.000000;0.000000;,
  0.000000;0.000000;,
  0.000000;0.000000;,
  0.000000;0.000000;,
  0.000000;0.000000;,
  0.000000;0.000000;,
  0.000000;0.000000;,
  0.000000;0.000000;,
  0.000000;0.000000;,
  0.000000;0.000000;,
  0.000000;0.000000;,
  0.000000;0.000000;,
  0.000000;0.000000;,
  0.000000;0.000000;,
  0.000000;0.000000;,
  0.000000;0.000000;,
  0.000000;0.000000;,
  0.000000;0.000000;,
  0.000000;0.000000;,
  0.000000;0.000000;,
  0.000000;0.000000;,
  1.000000;0.100000;,
  0.500000;0.100000;,
  0.500000;0.000000;,
  1.000000;0.000000;,
  1.000000;0.000000;,
  0.500000;0.000000;,
  0.500000;0.100000;,
  1.000000;0.100000;,
  1.000000;0.100000;,
  0.500000;0.100000;,
  0.500000;0.000000;,
  1.000000;0.000000;,
  1.000000;0.000000;,
  0.500000;0.000000;,
  0.500000;0.100000;,
  1.000000;0.100000;,
  0.000000;0.000000;,
  0.000000;0.000000;,
  0.000000;0.000000;,
  0.000000;0.000000;,
  0.000000;0.000000;,
  0.000000;0.000000;,
  0.000000;0.000000;,
  0.000000;0.000000;,
  0.000000;0.000000;,
  0.000000;0.000000;,
  0.000000;0.000000;,
  0.000000;0.000000;,
  0.000000;0.000000;,
  0.000000;0.000000;,
  0.000000;0.000000;,
  0.000000;0.000000;,
  0.000000;0.000000;,
  0.000000;0.000000;,
  0.000000;0.000000;,
  0.000000;0.000000;,
  0.000000;0.000000;,
  0.000000;0.000000;,
  0.000000;0.000000;,
  0.000000;0.000000;,
  1.000000;0.100000;,
  0.500000;0.100000;,
  0.500000;0.000000;,
  1.000000;0.000000;,
  1.000000;0.000000;,
  0.500000;0.000000;,
  0.500000;0.100000;,
  1.000000;0.100000;,
  0.000000;0.000000;,
  0.000000;0.000000;,
  0.000000;0.000000;,
  0.000000;0.000000;,
  0.000000;0.000000;,
  0.000000;0.000000;,
  0.000000;0.000000;,
  0.000000;0.000000;,
  1.000000;0.100000;,
  0.500000;0.100000;,
  0.500000;0.000000;,
  1.000000;0.000000;,
  1.000000;0.000000;,
  0.500000;0.000000;,
  0.500000;0.100000;,
  1.000000;0.100000;,
  0.000000;0.000000;,
  0.000000;0.000000;,
  0.000000;0.000000;,
  0.000000;0.000000;,
  0.000000;0.000000;,
  0.000000;0.000000;,
  0.000000;0.000000;,
  0.000000;0.000000;,
  0.000000;0.000000;,
  0.000000;0.000000;,
  0.000000;0.000000;,
  0.000000;0.000000;,
  0.000000;0.000000;,
  0.000000;0.000000;,
  0.000000;0.000000;,
  0.000000;0.000000;,
  0.000000;0.000000;,
  0.000000;0.000000;,
  0.000000;0.000000;,
  0.000000;0.000000;,
  0.000000;0.000000;,
  0.000000;0.000000;,
  0.000000;0.000000;,
  0.000000;0.000000;,
  1.000000;0.100000;,
  0.500000;0.100000;,
  0.500000;0.000000;,
  1.000000;0.000000;,
  1.000000;0.000000;,
  0.500000;0.000000;,
  0.500000;0.100000;,
  1.000000;0.100000;,
  0.000000;0.000000;,
  0.000000;0.000000;,
  0.000000;0.000000;,
  0.000000;0.000000;,
  0.000000;0.000000;,
  0.000000;0.000000;,
  0.000000;0.000000;,
  0.000000;0.000000;,
  0.850000;0.000000;,
  1.000000;0.000000;,
  0.880000;0.100000;,
  1.000000;0.100000;,
  0.880000;0.200000;,
  1.000000;0.200000;,
  0.850000;0.300000;,
  1.000000;0.300000;,
  0.850000;0.000000;,
  1.000000;0.000000;,
  0.880000;0.100000;,
  1.000000;0.100000;,
  0.880000;0.200000;,
  1.000000;0.200000;,
  0.850000;0.300000;,
  1.000000;0.300000;,
  0.850000;0.000000;,
  1.000000;0.000000;,
  0.880000;0.100000;,
  1.000000;0.100000;,
  0.880000;0.200000;,
  1.000000;0.200000;,
  0.850000;0.300000;,
  1.000000;0.300000;,
  0.850000;0.000000;,
  1.000000;0.000000;,
  0.880000;0.100000;,
  1.000000;0.100000;,
  0.880000;0.200000;,
  1.000000;0.200000;,
  0.850000;0.300000;,
  1.000000;0.300000;,
  0.850000;0.000000;,
  1.000000;0.000000;,
  0.880000;0.100000;,
  1.000000;0.100000;,
  0.880000;0.200000;,
  1.000000;0.200000;,
  0.850000;0.300000;,
  1.000000;0.300000;;
 }

 MeshNormals  {
  450;
  0.000000;0.000000;-1.000000;,
  0.000000;0.000000;-1.000000;,
  -1.000000;0.000000;0.000000;,
  -1.000000;0.000000;0.000000;,
  0.000000;0.000000;1.000000;,
  0.000000;0.000000;1.000000;,
  1.000000;0.000000;0.000000;,
  1.000000;0.000000;0.000000;,
  0.000000;1.000000;0.000000;,
  0.000000;1.000000;0.000000;,
  0.000000;-1.000000;0.000000;,
  0.000000;-1.000000;0.000000;,
  0.000000;0.000000;-1.000000;,
  0.000000;0.000000;-1.000000;,
  -1.000000;0.000000;0.000000;,
  -1.000000;0.000000;0.000000;,
  0.000000;0.000000;1.000000;,
  0.000000;0.000000;1.000000;,
  1.000000;0.000000;0.000000;,
  1.000000;0.000000;0.000000;,
  0.000000;1.000000;0.000000;,
  0.000000;1.000000;0.000000;,
  0.000000;-1.000000;0.000000;,
  0.000000;-1.000000;0.000000;,
  0.000000;0.000000;-1.000000;,
  0.000000;0.000000;-1.000000;,
  -1.000000;0.000000;0.000000;,
  -1.000000;0.000000;0.000000;,
  0.000000;0.000000;1.000000;,
  0.000000;0.000000;1.000000;,
  1.000000;0.000000;0.000000;,
  1.000000;0.000000;0.000000;,
  0.000000;1.000000;0.000000;,
  0.000000;1.000000;0.000000;,
  0.000000;-1.000000;0.000000;,
  0.000000;-1.000000;0.000000;,
  0.000000;0.000000;-1.000000;,
  0.000000;0.000000;-1.000000;,
  -1.000000;0.000000;0.000000;,
  -1.000000;0.000000;0.000000;,
  0.000000;0.000000;1.000000;,
  0.000000;0.000000;1.000000;,
  1.000000;0.000000;0.000000;,
  1.000000;0.000000;0.000000;,
  0.000000;1.000000;0.000000;,
  0.000000;1.000000;0.000000;,
  0.000000;-1.000000;0.000000;,
  0.000000;-1.000000;0.000000;,
  0.000000;0.000000;-1.000000;,
  0.000000;0.000000;-1.000000;,
  -1.000000;0.000000;0.000000;,
  -1.000000;0.000000;0.000000;,
  0.000000;0.000000;1.000000;,
  0.000000;0.000000;1.000000;,
  1.000000;0.000000;0.000000;,
  1.000000;0.000000;0.000000;,
  0.000000;1.000000;0.000000;,
  0.000000;1.000000;0.000000;,
  0.000000;-1.000000;0.000000;,
  0.000000;-1.000000;0.000000;,
  0.000000;0.000000;-1.000000;,
  0.000000;0.000000;-1.000000;,
  -1.000000;0.000000;0.000000;,
  -1.000000;0.000000;0.000000;,
  0.000000;0.000000;1.000000;,
  0.000000;0.000000;1.000000;,
  1.000000;0.000000;0.000000;,
  1.000000;0.000000;0.000000;,
  0.000000;1.000000;0.000000;,
  0.000000;1.000000;0.000000;,
  0.000000;-1.000000;0.000000;,
  0.000000;-1.000000;0.000000;,
  0.000000;0.000000;-1.000000;,
  0.000000;0.000000;-1.000000;,
  -1.000000;0.000000;0.000000;,
  -1.000000;0.000000;0.000000;,
  0.000000;0.000000;1.000000;,
  0.000000;0.000000;1.000000;,
  1.000000;0.000000;0.000000;,
  1.000000;0.000000;0.000000;,
  0.000000;1.000000;0.000000;,
  0.000000;1.000000;0.000000;,
  0.000000;-1.000000;0.000000;,
  0.000000;-1.000000;0.000000;,
  0.000000;0.000000;-1.000000;,
  0.000000;0.000000;-1.000000;,
  -1.000000;0.000000;0.000000;,
  -1.000000;0.000000;0.000000;,
  0.000000;0.000000;1.000000;,
  0.000000;0.000000;1.000000;,
  1.000000;0.000000;0.000000;,
  1.000000;0.000000;0.000000;,
  0.000000;1.000000;0.000000;,
  0.000000;1.000000;0.000000;,
  0.000000;-1.000000;0.000000;,
  0.000000;-1.000000;0.000000;,
  0.000000;0.000000;-1.000000;,
  0.000000;0.000000;-1.000000;,
  -1.000000;0.000000;0.000000;,
  -1.000000;0.000000;0.000000;,
  0.000000;0.000000;1.000000;,
  0.000000;0.000000;1.000000;,
  1.000000;0.000000;0.000000;,
  1.000000;0.000000;0.000000;,
  0.000000;1.000000;0.000000;,
  0.000000;1.000000;0.000000;,
  0.000000;-1.000000;0.000000;,
  0.000000;-1.000000;0.000000;,
  0.000000;0.000000;-1.000000;,
  0.000000;0.000000;-1.000000;,
  -1.000000;0.000000;0.000000;,
  -1.000000;0.000000;0.000000;,
  0.000000;0.000000;1.000000;,
  0.000000;0.000000;1.000000;,
  1.000000;0.000000;0.000000;,
  1.000000;0.000000;0.000000;,
  0.000000;1.000000;0.000000;,
  0.000000;1.000000;0.000000;,
  0.000000;-1.000000;0.000000;,
  0.000000;-1.000000;0.000000;,
  0.000000;0.000000;-1.000000;,
  0.000000;0.000000;-1.000000;,
  -1.000000;0.000000;0.000000;,
  -1.000000;0.000000;0.000000;,
  0.000000;0.000000;1.000000;,
  0.000000;0.000000;1.000000;,
  1.000000;0.000000;0.000000;,
  1.000000;0.000000;0.000000;,
  0.000000;1.000000;0.000000;,
  0.000000;1.000000;0.000000;,
  0.000000;-1.000000;0.000000;,
  0.000000;-1.000000;0.000000;,
  0.000000;0.000000;-1.000000;,
  0.000000;0.000000;-1.000000;,
  -1.000000;0.000000;0.000000;,
  -1.000000;0.000000;0.000000;,
  0.000000;0.000000;1.000000;,
  0.000000;0.000000;1.000000;,
  1.000000;0.000000;0.000000;,
  1.000000;0.000000;0.000000;,
  0.000000;1.000000;0.000000;,
  0.000000;1.000000;0.000000;,
  0.000000;-1.000000;0.000000;,
  0.000000;-1.000000;0.000000;,
  0.000000;0.000000;-1.000000;,
  0.000000;0.000000;-1.000000;,
  -1.000000;0.000000;0.000000;,
  -1.000000;0.000000;0.000000;,
  0.000000;0.000000;1.000000;,
  0.000000;0.000000;1.000000;,
  1.000000;0.000000;0.000000;,
  1.000000;0.000000;0.000000;,
  0.000000;1.000000;0.000000;,
  0.000000;1.000000;0.000000;,
  0.000000;-1.000000;0.000000;,
  0.000000;-1.000000;0.000000;,
  0.000000;0.000000;-1.000000;,
  0.000000;0.000000;-1.000000;,
  -1.000000;0.000000;0.000000;,
  -1.000000;0.000000;0.000000;,
  0.000000;0.000000;1.000000;,
  0.000000;0.000000;1.000000;,
  1.000000;0.000000;0.000000;,
  1.000000;0.000000;0.000000;,
  0.000000;1.000000;0.000000;,
  0.000000;1.000000;0.000000;,
  0.000000;-1.000000;0.000000;,
  0.000000;-1.000000;0.000000;,
  0.000000;0.000000;-1.000000;,
  0.000000;0.000000;-1.000000;,
  -1.000000;0.000000;0.000000;,
  -1.000000;0.000000;0.000000;,
  0.000000;0.000000;1.000000;,
  0.000000;0.000000;1.000000;,
  1.000000;0.000000;0.000000;,
  1.000000;0.000000;0.000000;,
  0.000000;1.000000;0.000000;,
  0.000000;1.000000;0.000000;,
  0.000000;-1.000000;0.000000;,
  0.000000;-1.000000;0.000000;,
  0.000000;0.000000;-1.000000;,
  0.000000;0.000000;-1.000000;,
  -1.000000;0.000000;0.000000;,
  -1.000000;0.000000;0.000000;,
  0.000000;0.000000;1.000000;,
  0.000000;0.000000;1.000000;,
  1.000000;0.000000;0.000000;,
  1.000000;0.000000;0.000000;,
  0.000000;1.000000;0.000000;,
  0.000000;1.000000;0.000000;,
  0.000000;-1.000000;0.000000;,
  0.000000;-1.000000;0.000000;,
  0.000000;0.000000;-1.000000;,
  0.000000;0.000000;-1.000000;,
  -1.000000;0.000000;0.000000;,
  -1.000000;0.000000;0.000000;,
  0.000000;0.000000;1.000000;,
  0.000000;0.000000;1.000000;,
  1.000000;0.000000;0.000000;,
  1.000000;0.000000;0.000000;,
  0.000000;1.000000;0.000000;,
  0.000000;1.000000;0.000000;,
  0.000000;-1.000000;0.000000;,
  0.000000;-1.000000;0.000000;,
  0.000000;0.000000;-1.000000;,
  0.000000;0.000000;-1.000000;,
  -1.000000;0.000000;0.000000;,
  -1.000000;0.000000;0.000000;,
  0.000000;0.000000;1.000000;,
  0.000000;0.000000;1.000000;,
  1.000000;0.000000;0.000000;,
  1.000000;0.000000;0.000000;,
  0.000000;1.000000;0.000000;,
  0.000000;1.000000;0.000000;,
  0.000000;-1.000000;0.000000;,
  0.000000;-1.000000;0.000000;,
  0.000000;0.000000;-1.000000;,
  0.000000;0.000000;-1.000000;,
  -1.000000;0.000000;0.000000;,
  -1.000000;0.000000;0.000000;,
  0.000000;0.000000;1.000000;,
  0.000000;0.000000;1.000000;,
  1.000000;0.000000;0.000000;,
  1.000000;0.000000;0.000000;,
  0.000000;1.000000;0.000000;,
  0.000000;1.000000;0.000000;,
  0.000000;-1.000000;0.000000;,
  0.000000;-1.000000;0.000000;,
  0.000000;0.000000;-1.000000;,
  0.000000;0.000000;-1.000000;,
  -1.000000;0.000000;0.000000;,
  -1.000000;0.000000;0.000000;,
  0.000000;0.000000;1.000000;,
  0.000000;0.000000;1.000000;,
  1.000000;0.000000;0.000000;,
  1.000000;0.000000;0.000000;,
  0.000000;1.000000;0.000000;,
  0.000000;1.000000;0.000000;,
  0.000000;-1.000000;0.000000;,
  0.000000;-1.000000;0.000000;,
  0.000000;0.000000;-1.000000;,
  0.000000;0.000000;-1.000000;,
  -1.000000;0.000000;0.000000;,
  -1.000000;0.000000;0.000000;,
  0.000000;0.000000;1.000000;,
  0.000000;0.000000;1.000000;,
  1.000000;0.000000;0.000000;,
  1.000000;0.000000;0.000000;,
  0.000000;1.000000;0.000000;,
  0.000000;1.000000;0.000000;,
  0.000000;-1.000000;0.000000;,
  0.000000;-1.000000;0.000000;,
  0.000000;0.000000;-1.000000;,
  0.000000;0.000000;-1.000000;,
  -1.000000;0.000000;0.000000;,
  -1.000000;0.000000;0.000000;,
  0.000000;0.000000;1.000000;,
  0.000000;0.000000;1.000000;,
  1.000000;0.000000;0.000000;,
  1.000000;0.000000;0.000000;,
  0.000000;1.000000;0.000000;,
  0.000000;1.000000;0.000000;,
  0.000000;-1.000000;0.000000;,
  0.000000;-1.000000;0.000000;,
  0.000000;0.000000;-1.000000;,
  0.000000;0.000000;-1.000000;,
  -1.000000;0.000000;0.000000;,
  -1.000000;0.000000;0.000000;,
  0.000000;0.000000;1.000000;,
  0.000000;0.000000;1.000000;,
  1.000000;0.000000;0.000000;,
  1.000000;0.000000;0.000000;,
  0.000000;1.000000;0.000000;,
  0.000000;1.000000;0.000000;,
  0.000000;-1.000000;0.000000;,
  0.000000;-1.000000;0.000000;,
  0.000000;0.000000;-1.000000;,
  0.000000;0.000000;-1.000000;,
  -1.000000;0.000000;0.000000;,
  -1.000000;0.000000;0.000000;,
  0.000000;0.000000;1.000000;,
  0.000000;0.000000;1.000000;,
  1.000000;0.000000;0.000000;,
  1.000000;0.000000;0.000000;,
  0.000000;1.000000;0.000000;,
  0.000000;1.000000;0.000000;,
  0.000000;-1.000000;0.000000;,
  0.000000;-1.000000;0.000000;,
  0.000000;0.000000;-1.000000;,
  0.000000;0.000000;-1.000000;,
  -1.000000;0.000000;0.000000;,
  -1.000000;0.000000;0.000000;,
  0.000000;0.000000;1.000000;,
  0.000000;0.000000;1.000000;,
  1.000000;0.000000;0.000000;,
  1.000000;0.000000;0.000000;,
  0.000000;1.000000;0.000000;,
  0.000000;1.000000;0.000000;,
  0.000000;-1.000000;0.000000;,
  0.000000;-1.000000;0.000000;,
  0.000000;0.000000;-1.000000;,
  0.000000;0.000000;-1.000000;,
  -1.000000;0.000000;0.000000;,
  -1.000000;0.000000;0.000000;,
  0.000000;0.000000;1.000000;,
  0.000000;0.000000;1.000000;,
  1.000000;0.000000;0.000000;,
  1.000000;0.000000;0.000000;,
  0.000000;1.000000;0.000000;,
  0.000000;1.000000;0.000000;,
  0.000000;-1.000000;0.000000;,
  0.000000;-1.000000;0.000000;,
  0.000000;0.000000;-1.000000;,
  0.000000;0.000000;-1.000000;,
  -1.000000;0.000000;0.000000;,
  -1.000000;0.000000;0.000000;,
  0.000000;0.000000;1.000000;,
  0.000000;0.000000;1.000000;,
  1.000000;0.000000;0.000000;,
  1.000000;0.000000;0.000000;,
  0.000000;1.000000;0.000000;,
  0.000000;1.000000;0.000000;,
  0.000000;-1.000000;0.000000;,
  0.000000;-1.000000;0.000000;,
  0.000000;0.000000;-1.000000;,
  0.000000;0.000000;-1.000000;,
  -1.000000;0.000000;0.000000;,
  -1.000000;0.000000;0.000000;,
  0.000000;0.000000;1.000000;,
  0.000000;0.000000;1.000000;,
  1.000000;0.000000;0.000000;,
  1.000000;0.000000;0.000000;,
  0.000000;1.000000;0.000000;,
  0.000000;1.000000;0.000000;,
  0.000000;-1.000000;0.000000;,
  0.000000;-1.000000;0.000000;,
  0.000000;0.000000;-1.000000;,
  0.000000;0.000000;-1.000000;,
  -1.000000;0.000000;0.000000;,
  -1.000000;0.000000;0.000000;,
  0.000000;0.000000;1.000000;,
  0.000000;0.000000;1.000000;,
  1.000000;0.000000;0.000000;,
  1.000000;0.000000;0.000000;,
  0.000000;1.000000;0.000000;,
  0.000000;1.000000;0.000000;,
  0.000000;-1.000000;0.000000;,
  0.000000;-1.000000;0.000000;,
  0.000000;0.000000;-1.000000;,
  0.000000;0.000000;-1.000000;,
  -1.000000;0.000000;0.000000;,
  -1.000000;0.000000;0.000000;,
  0.000000;0.000000;1.000000;,
  0.000000;0.000000;1.000000;,
  1.000000;0.000000;0.000000;,
  1.000000;0.000000;0.000000;,
  0.000000;1.000000;0.000000;,
  0.000000;1.000000;0.000000;,
  0.000000;-1.000000;0.000000;,
  0.000000;-1.000000;0.000000;,
  0.000000;0.000000;-1.000000;,
  0.000000;0.000000;-1.000000;,
  -1.000000;0.000000;0.000000;,
  -1.000000;0.000000;0.000000;,
  0.000000;0.000000;1.000000;,
  0.000000;0.000000;1.000000;,
  1.000000;0.000000;0.000000;,
  1.000000;0.000000;0.000000;,
  0.000000;1.000000;0.000000;,
  0.000000;1.000000;0.000000;,
  0.000000;-1.000000;0.000000;,
  0.000000;-1.000000;0.000000;,
  0.000000;0.000000;-1.000000;,
  0.000000;0.000000;-1.000000;,
  -1.000000;0.000000;0.000000;,
  -1.000000;0.000000;0.000000;,
  0.000000;0.000000;1.000000;,
  0.000000;0.000000;1.000000;,
  1.000000;0.000000;0.000000;,
  1.000000;0.000000;0.000000;,
  0.000000;1.000000;0.000000;,
  0.000000;1.000000;0.000000;,
  0.000000;-1.000000;0.000000;,
  0.000000;-1.000000;0.000000;,
  0.000000;0.000000;-1.000000;,
  0.000000;0.000000;-1.000000;,
  -1.000000;0.000000;0.000000;,
  -1.000000;0.000000;0.000000;,
  0.000000;0.000000;1.000000;,
  0.000000;0.000000;1.000000;,
  1.000000;0.000000;0.000000;,
  1.000000;0.000000;0.000000;,
  0.000000;1.000000;0.000000;,
  0.000000;1.000000;0.000000;,
  0.000000;-1.000000;0.000000;,
  0.000000;-1.000000;0.000000;,
  0.000000;0.000000;-1.000000;,
  0.000000;0.000000;-1.000000;,
  -1.000000;0.000000;0.000000;,
  -1.000000;0.000000;0.000000;,
  0.000000;0.000000;1.000000;,
  0.000000;0.000000;1.000000;,
  1.000000;0.000000;0.000000;,
  1.000000;0.000000;0.000000;,
  0.000000;1.000000;0.000000;,
  0.000000;1.000000;0.000000;,
  0.000000;-1.000000;0.000000;,
  0.000000;-1.000000;0.000000;,
  0.000000;0.000000;-1.000000;,
  0.000000;0.000000;-1.000000;,
  -1.000000;0.000000;0.000000;,
  -1.000000;0.000000;0.000000;,
  0.000000;0.000000;1.000000;,
  0.000000;0.000000;1.000000;,
  1.000000;0.000000;0.000000;,
  1.000000;0.000000;0.000000;,
  0.000000;1.000000;0.000000;,
  0.000000;1.000000;0.000000;,
  0.000000;-1.000000;0.000000;,
  0.000000;-1.000000;0.000000;,
  0.000000;0.000000;-1.000000;,
  0.000000;0.000000;-1.000000;,
  0.000000;0.000000;-1.000000;,
  0.000000;0.000000;-1.000000;,
  0.000000;0.000000;-1.000000;,
  0.000000;0.000000;-1.000000;,
  0.000000;0.000000;-1.000000;,
  0.000000;0.000000;-1.000000;,
  0.000000;0.000000;-1.000000;,
  0.000000;0.000000;-1.000000;,
  0.000000;0.000000;-1.000000;,
  0.000000;0.000000;-1.000000;,
  0.000000;0.000000;-1.000000;,
  0.000000;0.000000;-1.000000;,
  0.000000;0.000000;-1.000000;,
  0.000000;0.000000;-1.000000;,
  0.000000;0.000000;-1.000000;,
  0.000000;0.000000;-1.000000;,
  0.000000;0.000000;-1.000000;,
  0.000000;0.000000;-1.000000;,
  0.000000;0.000000;-1.000000;,
  0.000000;0.000000;-1.000000;,
  0.000000;0.000000;-1.000000;,
  0.000000;0.000000;-1.000000;,
  0.000000;0.000000;-1.000000;,
  0.000000;0.000000;-1.000000;,
  0.000000;0.000000;-1.000000;,
  0.000000;0.000000;-1.000000;,
  0.000000;0.000000;-1.000000;,
  0.000000;0.000000;-1.000000;;
  450;
  3;0,0,0;,
  3;1,1,1;,
  3;2,2,2;,
  3;3,3,3;,
  3;4,4,4;,
  3;5,5,5;,
  3;6,6,6;,
  3;7,7,7;,
  3;8,8,8;,
  3;9,9,9;,
  3;10,10,10;,
  3;11,11,11;,
  3;12,12,12;,
  3;13,13,13;,
  3;14,14,14;,
  3;15,15,15;,
  3;16,16,16;,
  3;17,17,17;,
  3;18,18,18;,
  3;19,19,19;,
  3;20,20,20;,
  3;21,21,21;,
  3;22,22,22;,
  3;23,23,23;,
  3;24,24,24;,
  3;25,25,25;,
  3;26,26,26;,
  3;27,27,27;,
  3;28,28,28;,
  3;29,29,29;,
  3;30,30,30;,
  3;31,31,31;,
  3;32,32,32;,
  3;33,33,33;,
  3;34,34,34;,
  3;35,35,35;,
  3;36,36,36;,
  3;37,37,37;,
  3;38,38,38;,
  3;39,39,39;,
  3;40,40,40;,
  3;41,41,41;,
  3;42,42,42;,
  3;43,43,43;,
  3;44,44,44;,
  3;45,45,45;,
  3;46,46,46;,
  3;47,47,47;,
  3;48,48,48;,
  3;49,49,49;,
  3;50,50,50;,
  3;51,51,51;,
  3;52,52,52;,
  3;53,53,53;,
  3;54,54,54;,
  3;55,55,55;,
  3;56,56,56;,
  3;57,57,57;,
  3;58,58,58;,
  3;59,59,59;,
  3;60,60,60;,
  3;61,61,61;,
  3;62,62,62;,
  3;63,63,63;,
  3;64,64,64;,
  3;65,65,65;,
  3;66,66,66;,
  3;67,67,67;,
  3;68,68,68;,
  3;69,69,69;,
  3;70,70,70;,
  3;71,71,71;,
  3;72,72,72;,
  3;73,73,73;,
  3;74,74,74;,
  3;75,75,75;,
  3;76,76,76;,
  3;77,77,77;,
  3;78,78,78;,
  3;79,79,79;,
  3;80,80,80;,
  3;81,81,81;,
  3;82,82,82;,
  3;83,83,83;,
  3;84,84,84;,
  3;85,85,85;,
  3;86,86,86;,
  3;87,87,87;,
  3;88,88,88;,
  3;89,89,89;,
  3;90,90,90;,
  3;91,91,91;,
  3;92,92,92;,
  3;93,93,93;,
  3;94,94,94;,
  3;95,95,95;,
  3;96,96,96;,
  3;97,97,97;,
  3;98,98,98;,
  3;99,99,99;,
  3;100,100,100;,
  3;101,101,101;,
  3;102,102,102;,
  3;103,103,103;,
  3;104,104,104;,
  3;105,105,105;,
  3;106,106,106;,
  3;107,107,107;,
  3;108,108,108;,
  3;109,109,109;,
  3;110,110,110;,
  3;111,111,111;,
  3;112,112,112;,
  3;113,113,113;,
  3;114,114,114;,
  3;115,115,115;,
  3;116,116,116;,
  3;117,117,117;,
  3;118,118,118;,
  3;119,119,119;,
  3;120,120,120;,
  3;121,121,121;,
  3;122,122,122;,
  3;123,123,123;,
  3;124,124,124;,
  3;125,125,125;,
  3;126,126,126;,
  3;127,127,127;,
  3;128,128,128;,
  3;129,129,129;,
  3;130,130,130;,
  3;131,131,131;,
  3;132,132,132;,
  3;133,133,133;,
  3;134,134,134;,
  3;135,135,135;,
  3;136,136,136;,
  3;137,137,137;,
  3;138,138,138;,
  3;139,139,139;,
  3;140,140,140;,
  3;141,141,141;,
  3;142,142,142;,
  3;143,143,143;,
  3;144,144,144;,
  3;145,145,145;,
  3;146,146,146;,
  3;147,147,147;,
  3;148,148,148;,
  3;149,149,149;,
  3;150,150,150;,
  3;151,151,151;,
  3;152,152,152;,
  3;153,153,153;,
  3;154,154,154;,
  3;155,155,155;,
  3;156,156,156;,
  3;157,157,157;,
  3;158,158,158;,
  3;159,159,159;,
  3;160,160,160;,
  3;161,161,161;,
  3;162,162,162;,
  3;163,163,163;,
  3;164,164,164;,
  3;165,165,165;,
  3;166,166,166;,
  3;167,167,167;,
  3;168,168,168;,
  3;169,169,169;,
  3;170,170,170;,
  3;171,171,171;,
  3;172,172,172;,
  3;173,173,173;,
  3;174,174,174;,
  3;175,175,175;,
  3;176,176,176;,
  3;177,177,177;,
  3;178,178,178;,
  3;179,179,179;,
  3;180,180,180;,
  3;181,181,181;,
  3;182,182,182;,
  3;183,183,183;,
  3;184,184,184;,
  3;185,185,185;,
  3;186,186,186;,
  3;187,187,187;,
  3;188,188,188;,
  3;189,189,189;,
  3;190,190,190;,
  3;191,191,191;,
  3;192,192,192;,
  3;193,193,193;,
  3;194,194,194;,
  3;195,195,195;,
  3;196,196,196;,
  3;197,197,197;,
  3;198,198,198;,
  3;199,199,199;,
  3;200,200,200;,
  3;201,201,201;,
  3;202,202,202;,
  3;203,203,203;,
  3;204,204,204;,
  3;205,205,205;,
  3;206,206,206;,
  3;207,207,207;,
  3;208,208,208;,
  3;209,209,209;,
  3;210,210,210;,
  3;211,211,211;,
  3;212,212,212;,
  3;213,213,213;,
  3;214,214,214;,
  3;215,215,215;,
  3;216,216,216;,
  3;217,217,217;,
  3;218,218,218;,
  3;219,219,219;,
  3;220,220,220;,
  3;221,221,221;,
  3;222,222,222;,
  3;223,223,223;,
  3;224,224,224;,
  3;225,225,225;,
  3;226,226,226;,
  3;227,227,227;,
  3;228,228,228;,
  3;229,229,229;,
  3;230,230,230;,
  3;231,231,231;,
  3;232,232,232;,
  3;233,233,233;,
  3;234,234,234;,
  3;235,235,235;,
  3;236,236,236;,
  3;237,237,237;,
  3;238,238,238;,
  3;239,239,239;,
  3;240,240,240;,
  3;241,241,241;,
  3;242,242,242;,
  3;243,243,243;,
  3;244,244,244;,
  3;245,245,245;,
  3;246,246,246;,
  3;247,247,247;,
  3;248,248,248;,
  3;249,249,249;,
  3;250,250,250;,
  3;251,251,251;,
  3;252,252,252;,
  3;253,253,253;,
  3;254,254,254;,
  3;255,255,255;,
  3;256,256,256;,
  3;257,257,257;,
  3;258,258,258;,
  3;259,259,259;,
  3;260,260,260;,
  3;261,261,261;,
  3;262,262,262;,
  3;263,263,263;,
  3;264,264,264;,
  3;265,265,265;,
  3;266,266,266;,
  3;267,267,267;,
  3;268,268,268;,
  3;269,269,269;,
  3;270,270,270;,
  3;271,271,271;,
  3;272,272,272;,
  3;273,273,273;,
  3;274,274,274;,
  3;275,275,275;,
  3;276,276,276;,
  3;277,277,277;,
  3;278,278,278;,
  3;279,279,279;,
  3;280,280,280;,
  3;281,281,281;,
  3;282,282,282;,
  3;283,283,283;,
  3;284,284,284;,
  3;285,285,285;,
  3;286,286,286;,
  3;287,287,287;,
  3;288,288,288;,
  3;289,289,289;,
  3;290,290,290;,
  3;291,291,291;,
  3;292,292,292;,
  3;293,293,293;,
  3;294,294,294;,
  3;295,295,295;,
  3;296,296,296;,
  3;297,297,297;,
  3;298,298,298;,
  3;299,299,299;,
  3;300,300,300;,
  3;301,301,301;,
  3;302,302,302;,
  3;303,303,303;,
  3;304,304,304;,
  3;305,305,305;,
  3;306,306,306;,
  3;307,307,307;,
  3;308,308,308;,
  3;309,309,309;,
  3;310,310,310;,
  3;311,311,311;,
  3;312,312,312;,
  3;313,313,313;,
  3;314,314,314;,
  3;315,315,315;,
  3;316,316,316;,
  3;317,317,317;,
  3;318,318,318;,
  3;319,319,319;,
  3;320,320,320;,
  3;321,321,321;,
  3;322,322,322;,
  3;323,323,323;,
  3;324,324,324;,
  3;325,325,325;,
  3;326,326,326;,
  3;327,327,327;,
  3;328,328,328;,
  3;329,329,329;,
  3;330,330,330;,
  3;331,331,331;,
  3;332,332,332;,
  3;333,333,333;,
  3;334,334,334;,
  3;335,335,335;,
  3;336,336,336;,
  3;337,337,337;,
  3;338,338,338;,
  3;339,339,339;,
  3;340,340,340;,
  3;341,341,341;,
  3;342,342,342;,
  3;343,343,343;,
  3;344,344,344;,
  3;345,345,345;,
  3;346,346,346;,
  3;347,347,347;,
  3;348,348,348;,
  3;349,349,349;,
  3;350,350,350;,
  3;351,351,351;,
  3;352,352,352;,
  3;353,353,353;,
  3;354,354,354;,
  3;355,355,355;,
  3;356,356,356;,
  3;357,357,357;,
  3;358,358,358;,
  3;359,359,359;,
  3;360,360,360;,
  3;361,361,361;,
  3;362,362,362;,
  3;363,363,363;,
  3;364,364,364;,
  3;365,365,365;,
  3;366,366,366;,
  3;367,367,367;,
  3;368,368,368;,
  3;369,369,369;,
  3;370,370,370;,
  3;371,371,371;,
  3;372,372,372;,
  3;373,373,373;,
  3;374,374,374;,
  3;375,375,375;,
  3;376,376,376;,
  3;377,377,377;,
  3;378,378,378;,
  3;379,379,379;,
  3;380,380,380;,
  3;381,381,381;,
  3;382,382,382;,
  3;383,383,383;,
  3;384,384,384;,
  3;385,385,385;,
  3;386,386,386;,
  3;387,387,387;,
  3;388,388,388;,
  3;389,389,389;,
  3;390,390,390;,
  3;391,391,391;,
  3;392,392,392;,
  3;393,393,393;,
  3;394,394,394;,
  3;395,395,395;,
  3;396,396,396;,
  3;397,397,397;,
  3;398,398,398;,
  3;399,399,399;,
  3;400,400,400;,
  3;401,401,401;,
  3;402,402,402;,
  3;403,403,403;,
  3;404,404,404;,
  3;405,405,405;,
  3;406,406,406;,
  3;407,407,407;,
  3;408,408,408;,
  3;409,409,409;,
  3;410,410,410;,
  3;411,411,411;,
  3;412,412,412;,
  3;413,413,413;,
  3;414,414,414;,
  3;415,415,415;,
  3;416,416,416;,
  3;417,417,417;,
  3;418,418,418;,
  3;419,419,419;,
  3;420,420,420;,
  3;421,421,421;,
  3;422,422,422;,
  3;423,423,423;,
  3;424,424,424;,
  3;425,425,425;,
  3;426,426,426;,
  3;427,427,427;,
  3;428,428,428;,
  3;429,429,429;,
  3;430,430,430;,
  3;431,431,431;,
  3;432,432,432;,
  3;433,433,433;,
  3;434,434,434;,
  3;435,435,435;,
  3;436,436,436;,
  3;437,437,437;,
  3;438,438,438;,
  3;439,439,439;,
  3;440,440,440;,
  3;441,441,441;,
  3;442,442,442;,
  3;443,443,443;,
  3;444,444,444;,
  3;445,445,445;,
  3;446,446,446;,
  3;447,447,447;,
  3;448,448,448;,
  3;449,449,449;;
 }
}