xof 0303txt 0032
template Vector {
 <3d82ab5e-62da-11cf-ab39-0020af71e433>
 FLOAT x;
 FLOAT y;
 FLOAT z;
}

template MeshFace {
 <3d82ab5f-62da-11cf-ab39-0020af71e433>
 DWORD nFaceVertexIndices;
 array DWORD faceVertexIndices[nFaceVertexIndices];
}

template Mesh {
 <3d82ab44-62da-11cf-ab39-0020af71e433>
 DWORD nVertices;
 array Vector vertices[nVertices];
 DWORD nFaces;
 array MeshFace faces[nFaces];
 [...]
}

template ColorRGBA {
 <35ff44e0-6c7c-11cf-8f52-0040333594a3>
 FLOAT red;
 FLOAT green;
 FLOAT blue;
 FLOAT alpha;
}

template ColorRGB {
 <d3e16e81-7835-11cf-8f52-0040333594a3>
 FLOAT red;
 FLOAT green;
 FLOAT blue;
}

template Material {
 <3d82ab4d-62da-11cf-ab39-0020af71e433>
 ColorRGBA faceColor;
 FLOAT power;
 ColorRGB specularColor;
 ColorRGB emissiveColor;
 [...]
}

template MeshMaterialList {
 <f6f23f42-7686-11cf-8f52-0040333594a3>
 DWORD nMaterials;
 DWORD nFaceIndexes;
 array DWORD faceIndexes[nFaceIndexes];
 [Material <3d82ab4d-62da-11cf-ab39-0020af71e433>]
}

template TextureFilename {
 <a42790e1-7810-11cf-8f52-0040333594a3>
 STRING filename;
}

template Coords2d {
 <f6f23f44-7686-11cf-8f52-0040333594a3>
 FLOAT u;
 FLOAT v;
}

template MeshTextureCoords {
 <f6f23f40-7686-11cf-8f52-0040333594a3>
 DWORD nTextureCoords;
 array Coords2d textureCoords[nTextureCoords];
}

template MeshNormals {
 <f6f23f43-7686-11cf-8f52-0040333594a3>
 DWORD nNormals;
 array Vector normals[nNormals];
 DWORD nFaceNormals;
 array MeshFace faceNormals[nFaceNormals];
}


Mesh  {
 22;
 6.300000;-0.350000;-12.000000;,
 6.300000;0.850000;-12.000000;,
 13.955061;-0.350000;4.000000;,
 13.955061;0.850000;4.000000;,
 13.955061;-0.450000;4.000000;,
 13.955061;4.000000;4.000000;,
 7.000000;-0.450000;12.000000;,
 7.000000;4.000000;12.000000;,
 6.500000;-0.450000;25.000000;,
 6.500000;4.000000;25.000000;,
 6.300000;-0.440000;-12.000000;,
 13.955061;-0.440000;4.000000;,
 7.000000;-0.440000;12.000000;,
 6.500000;-0.440000;25.000000;,
 6.000000;-0.440000;-12.000000;,
 6.000000;-0.440000;25.000000;,
 6.300000;-10.000000;-12.150000;,
 6.300000;-0.350000;-12.150000;,
 6.300000;-0.350000;-11.850000;,
 13.955061;-10.000000;3.850000;,
 13.955061;-0.350000;3.850000;,
 13.955061;-0.350000;4.150000;;
 14;
 3;0,3,1;,
 3;0,2,3;,
 3;6,5,7;,
 3;6,4,5;,
 3;8,7,9;,
 3;8,6,7;,
 3;12,11,10;,
 3;15,13,12;,
 3;14,15,12;,
 3;14,12,10;,
 3;16,20,17;,
 3;16,19,20;,
 3;17,21,18;,
 3;17,20,21;;

 MeshMaterialList  {
  4;
  14;
  0,
  0,
  1,
  1,
  1,
  1,
  2,
  2,
  2,
  2,
  3,
  3,
  3,
  3;

  Material  {
   0.768627;0.768627;0.768627;1.000000;;
   0.000000;
   0.000000;0.000000;0.000000;;
   0.000000;0.000000;0.000000;;

   TextureFilename  {
    "Otsuka_Saku1.png";
   }
  }

  Material  {
   1.000000;1.000000;1.000000;1.000000;;
   0.000000;
   0.000000;0.000000;0.000000;;
   0.000000;0.000000;0.000000;;

   TextureFilename  {
    "Otsuka_Wall1.png";
   }
  }

  Material  {
   0.768627;0.768627;0.768627;1.000000;;
   0.000000;
   0.000000;0.000000;0.000000;;
   0.000000;0.000000;0.000000;;

   TextureFilename  {
    "Otsuka_Concreat1.png";
   }
  }

  Material  {
   1.000000;1.000000;1.000000;1.000000;;
   0.000000;
   0.000000;0.000000;0.000000;;
   0.000000;0.000000;0.000000;;

   TextureFilename  {
    "Otsuka_Concreat2.png";
   }
  }
 }

 MeshTextureCoords  {
  22;
  13.000000;1.000000;,
  13.000000;0.000000;,
  0.000000;1.000000;,
  0.000000;0.000000;,
  16.100000;1.000000;,
  16.100000;0.000000;,
  8.000000;1.000000;,
  8.000000;0.000000;,
  0.000000;1.000000;,
  0.000000;0.000000;,
  0.962288;0.000000;,
  0.000000;0.432432;,
  0.874294;0.648649;,
  0.937147;1.000000;,
  1.000000;0.000000;,
  1.000000;1.000000;,
  0.000000;1.000000;,
  0.000000;0.010000;,
  0.000000;0.000000;,
  1.000000;1.000000;,
  1.000000;0.010000;,
  1.000000;0.000000;;
 }

 MeshNormals  {
  14;
  0.902071;0.000000;-0.431588;,
  0.902071;0.000000;-0.431588;,
  -0.754674;0.000000;-0.656100;,
  -0.754674;0.000000;-0.656100;,
  -0.999261;0.000000;-0.038433;,
  -0.999261;0.000000;-0.038433;,
  0.000000;1.000000;0.000000;,
  0.000000;1.000000;0.000000;,
  0.000000;1.000000;0.000000;,
  0.000000;1.000000;0.000000;,
  0.902071;0.000000;-0.431588;,
  0.902071;0.000000;-0.431588;,
  0.000000;1.000000;0.000000;,
  0.000000;1.000000;0.000000;;
  14;
  3;0,0,0;,
  3;1,1,1;,
  3;2,2,2;,
  3;3,3,3;,
  3;4,4,4;,
  3;5,5,5;,
  3;6,6,6;,
  3;7,7,7;,
  3;8,8,8;,
  3;9,9,9;,
  3;10,10,10;,
  3;11,11,11;,
  3;12,12,12;,
  3;13,13,13;;
 }
}