xof 0303txt 0032
template Vector {
 <3d82ab5e-62da-11cf-ab39-0020af71e433>
 FLOAT x;
 FLOAT y;
 FLOAT z;
}

template MeshFace {
 <3d82ab5f-62da-11cf-ab39-0020af71e433>
 DWORD nFaceVertexIndices;
 array DWORD faceVertexIndices[nFaceVertexIndices];
}

template Mesh {
 <3d82ab44-62da-11cf-ab39-0020af71e433>
 DWORD nVertices;
 array Vector vertices[nVertices];
 DWORD nFaces;
 array MeshFace faces[nFaces];
 [...]
}

template ColorRGBA {
 <35ff44e0-6c7c-11cf-8f52-0040333594a3>
 FLOAT red;
 FLOAT green;
 FLOAT blue;
 FLOAT alpha;
}

template ColorRGB {
 <d3e16e81-7835-11cf-8f52-0040333594a3>
 FLOAT red;
 FLOAT green;
 FLOAT blue;
}

template Material {
 <3d82ab4d-62da-11cf-ab39-0020af71e433>
 ColorRGBA faceColor;
 FLOAT power;
 ColorRGB specularColor;
 ColorRGB emissiveColor;
 [...]
}

template MeshMaterialList {
 <f6f23f42-7686-11cf-8f52-0040333594a3>
 DWORD nMaterials;
 DWORD nFaceIndexes;
 array DWORD faceIndexes[nFaceIndexes];
 [Material <3d82ab4d-62da-11cf-ab39-0020af71e433>]
}

template TextureFilename {
 <a42790e1-7810-11cf-8f52-0040333594a3>
 STRING filename;
}

template Coords2d {
 <f6f23f44-7686-11cf-8f52-0040333594a3>
 FLOAT u;
 FLOAT v;
}

template MeshTextureCoords {
 <f6f23f40-7686-11cf-8f52-0040333594a3>
 DWORD nTextureCoords;
 array Coords2d textureCoords[nTextureCoords];
}

template MeshNormals {
 <f6f23f43-7686-11cf-8f52-0040333594a3>
 DWORD nNormals;
 array Vector normals[nNormals];
 DWORD nFaceNormals;
 array MeshFace faceNormals[nFaceNormals];
}


Mesh  {
 366;
 -6.300000;-3.100000;-22.000000;,
 -6.300000;-1.500000;-22.000000;,
 -7.300000;-1.500000;-22.000000;,
 -6.300000;4.100000;-17.000000;,
 -6.300000;5.700000;-17.000000;,
 -7.300000;5.700000;-17.000000;,
 -7.300000;4.100000;-17.000000;,
 -6.300000;4.100000;-17.000000;,
 -6.300000;5.700000;-17.000000;,
 -7.300000;-3.100000;-12.000000;,
 -6.300000;-3.100000;-12.000000;,
 -6.300000;-1.500000;-12.000000;,
 -7.300000;-1.500000;-12.000000;,
 -7.300000;4.100000;-7.000000;,
 -6.300000;4.100000;-7.000000;,
 -6.300000;5.700000;-7.000000;,
 -7.300000;5.700000;-7.000000;,
 -7.300000;-3.100000;-2.000000;,
 -6.300000;-3.100000;-2.000000;,
 -6.300000;-1.500000;-2.000000;,
 -7.300000;-1.500000;-2.000000;,
 -7.300000;4.100000;3.000000;,
 -6.300000;4.100000;3.000000;,
 -6.300000;5.700000;3.000000;,
 -7.300000;5.700000;3.000000;,
 -7.300000;-3.100000;8.000000;,
 -6.300000;-3.100000;8.000000;,
 -6.300000;-1.500000;8.000000;,
 -7.300000;-1.500000;8.000000;,
 -7.300000;4.100000;13.000000;,
 -6.300000;4.100000;13.000000;,
 -6.300000;5.700000;13.000000;,
 -7.300000;5.700000;13.000000;,
 -7.300000;-3.100000;18.000000;,
 -6.300000;-3.100000;18.000000;,
 -6.300000;-1.500000;18.000000;,
 -7.300000;-1.500000;18.000000;,
 -7.300000;4.100000;23.000000;,
 -6.300000;4.100000;23.000000;,
 -6.300000;5.700000;23.000000;,
 -7.300000;5.700000;23.000000;,
 -7.300000;-3.100000;28.000000;,
 -6.300000;-3.100000;28.000000;,
 -6.300000;-1.500000;28.000000;,
 6.300000;-3.100000;-25.000000;,
 6.300000;-1.500000;-25.000000;,
 7.300000;-1.500000;-25.000000;,
 6.300000;4.100000;-20.000000;,
 6.300000;5.700000;-20.000000;,
 7.300000;5.700000;-20.000000;,
 7.300000;4.100000;-20.000000;,
 6.300000;4.100000;-20.000000;,
 6.300000;5.700000;-20.000000;,
 7.300000;-3.100000;-15.000000;,
 6.300000;-3.100000;-15.000000;,
 6.300000;-1.500000;-15.000000;,
 7.300000;-1.500000;-15.000000;,
 7.300000;4.100000;-10.000000;,
 6.300000;4.100000;-10.000000;,
 6.300000;5.700000;-10.000000;,
 7.300000;5.700000;-10.000000;,
 7.300000;-3.100000;-5.000000;,
 6.300000;-3.100000;-5.000000;,
 6.300000;-1.500000;-5.000000;,
 7.300000;-1.500000;-5.000000;,
 7.300000;4.100000;0.000000;,
 6.300000;4.100000;0.000000;,
 6.300000;5.700000;0.000000;,
 7.300000;5.700000;0.000000;,
 7.300000;-3.100000;5.000000;,
 6.300000;-3.100000;5.000000;,
 6.300000;-1.500000;5.000000;,
 7.300000;-1.500000;5.000000;,
 7.300000;4.100000;10.000000;,
 6.300000;4.100000;10.000000;,
 6.300000;5.700000;10.000000;,
 7.300000;5.700000;10.000000;,
 7.300000;-3.100000;15.000000;,
 6.300000;-3.100000;15.000000;,
 6.300000;-1.500000;15.000000;,
 7.300000;-1.500000;15.000000;,
 7.300000;4.100000;20.000000;,
 6.300000;4.100000;20.000000;,
 6.300000;5.700000;20.000000;,
 7.300000;5.700000;20.000000;,
 7.300000;-3.100000;25.000000;,
 6.300000;-3.100000;25.000000;,
 6.300000;-1.500000;25.000000;,
 -7.290000;-1.300000;-17.200001;,
 -6.310000;-1.300000;-17.200001;,
 -6.310000;-1.300000;-16.799999;,
 -7.290000;4.100000;-17.200001;,
 -6.310000;4.100000;-17.200001;,
 -6.310000;4.100000;-16.799999;,
 -7.290000;-1.300000;-12.200000;,
 -6.310000;-1.300000;-12.200000;,
 -6.310000;-1.300000;-11.800000;,
 -7.290000;4.900000;-12.200000;,
 -6.310000;4.900000;-12.200000;,
 -6.310000;4.900000;-11.800000;,
 -7.290000;-1.300000;-7.200000;,
 -6.310000;-1.300000;-7.200000;,
 -6.310000;-1.300000;-6.800000;,
 -7.290000;4.900000;-7.200000;,
 -6.310000;4.900000;-7.200000;,
 -6.310000;4.900000;-6.800000;,
 -7.290000;-1.300000;-2.200000;,
 -6.310000;-1.300000;-2.200000;,
 -6.310000;-1.300000;-1.800000;,
 -7.290000;4.900000;-2.200000;,
 -6.310000;4.900000;-2.200000;,
 -6.310000;4.900000;-1.800000;,
 -7.290000;-1.300000;2.800000;,
 -6.310000;-1.300000;2.800000;,
 -6.310000;-1.300000;3.200000;,
 -7.290000;4.900000;2.800000;,
 -6.310000;4.900000;2.800000;,
 -6.310000;4.900000;3.200000;,
 -7.290000;-1.300000;7.800000;,
 -6.310000;-1.300000;7.800000;,
 -6.310000;-1.300000;8.200000;,
 -7.290000;4.900000;7.800000;,
 -6.310000;4.900000;7.800000;,
 -6.310000;4.900000;8.200000;,
 -7.290000;-1.300000;12.800000;,
 -6.310000;-1.300000;12.800000;,
 -6.310000;-1.300000;13.200000;,
 -7.290000;4.900000;12.800000;,
 -6.310000;4.900000;12.800000;,
 -6.310000;4.900000;13.200000;,
 -7.290000;-1.300000;17.799999;,
 -6.310000;-1.300000;17.799999;,
 -6.310000;-1.300000;18.200001;,
 -7.290000;4.900000;17.799999;,
 -6.310000;4.900000;17.799999;,
 -6.310000;4.900000;18.200001;,
 -7.290000;-1.300000;22.799999;,
 -6.310000;-1.300000;22.799999;,
 -6.310000;-1.300000;23.200001;,
 -7.290000;4.900000;22.799999;,
 -6.310000;4.900000;22.799999;,
 -6.310000;4.900000;23.200001;,
 7.290000;-1.300000;-20.200001;,
 6.310000;-1.300000;-20.200001;,
 6.310000;-1.300000;-19.799999;,
 7.290000;4.900000;-20.200001;,
 6.310000;4.900000;-20.200001;,
 6.310000;4.900000;-19.799999;,
 7.290000;-1.300000;-15.200000;,
 6.310000;-1.300000;-15.200000;,
 6.310000;-1.300000;-14.800000;,
 7.290000;4.900000;-15.200000;,
 6.310000;4.900000;-15.200000;,
 6.310000;4.900000;-14.800000;,
 7.290000;-1.300000;-10.200000;,
 6.310000;-1.300000;-10.200000;,
 6.310000;-1.300000;-9.800000;,
 7.290000;4.900000;-10.200000;,
 6.310000;4.900000;-10.200000;,
 6.310000;4.900000;-9.800000;,
 7.290000;-1.300000;-5.200000;,
 6.310000;-1.300000;-5.200000;,
 6.310000;-1.300000;-4.800000;,
 7.290000;4.900000;-5.200000;,
 6.310000;4.900000;-5.200000;,
 6.310000;4.900000;-4.800000;,
 7.290000;-1.300000;-0.200000;,
 6.310000;-1.300000;-0.200000;,
 6.310000;-1.300000;0.200000;,
 7.290000;4.900000;-0.200000;,
 6.310000;4.900000;-0.200000;,
 6.310000;4.900000;0.200000;,
 7.290000;-1.300000;4.800000;,
 6.310000;-1.300000;4.800000;,
 6.310000;-1.300000;5.200000;,
 7.290000;4.900000;4.800000;,
 6.310000;4.900000;4.800000;,
 6.310000;4.900000;5.200000;,
 7.290000;-1.300000;9.800000;,
 6.310000;-1.300000;9.800000;,
 6.310000;-1.300000;10.200000;,
 7.290000;4.900000;9.800000;,
 6.310000;4.900000;9.800000;,
 6.310000;4.900000;10.200000;,
 7.290000;-1.300000;14.800000;,
 6.310000;-1.300000;14.800000;,
 6.310000;-1.300000;15.200000;,
 7.290000;4.900000;14.800000;,
 6.310000;4.900000;14.800000;,
 6.310000;4.900000;15.200000;,
 7.290000;-1.300000;19.799999;,
 6.310000;-1.300000;19.799999;,
 6.310000;-1.300000;20.200001;,
 7.290000;4.900000;19.799999;,
 6.310000;4.900000;19.799999;,
 6.310000;4.900000;20.200001;,
 -6.310000;-1.300000;-17.200001;,
 -6.310000;-0.500000;-17.200001;,
 -6.310000;-0.500000;-16.799999;,
 6.310000;-1.300000;-20.200001;,
 6.310000;-0.500000;-20.200001;,
 6.310000;-0.500000;-19.799999;,
 -6.310000;-1.300000;-12.200000;,
 -6.310000;-0.500000;-12.200000;,
 -6.310000;-0.500000;-11.800000;,
 6.310000;-1.300000;-15.200000;,
 6.310000;-0.500000;-15.200000;,
 6.310000;-0.500000;-14.800000;,
 -6.310000;-1.300000;-7.200000;,
 -6.310000;-0.500000;-7.200000;,
 -6.310000;-0.500000;-6.800000;,
 6.310000;-1.300000;-10.200000;,
 6.310000;-0.500000;-10.200000;,
 6.310000;-0.500000;-9.800000;,
 -6.310000;-1.300000;-2.200000;,
 -6.310000;-0.500000;-2.200000;,
 -6.310000;-0.500000;-1.800000;,
 6.310000;-1.300000;-5.200000;,
 6.310000;-0.500000;-5.200000;,
 6.310000;-0.500000;-4.800000;,
 -6.310000;-1.300000;2.800000;,
 -6.310000;-0.500000;2.800000;,
 -6.310000;-0.500000;3.200000;,
 6.310000;-1.300000;-0.200000;,
 6.310000;-0.500000;-0.200000;,
 6.310000;-0.500000;0.200000;,
 -6.310000;-1.300000;7.800000;,
 -6.310000;-0.500000;7.800000;,
 -6.310000;-0.500000;8.200000;,
 6.310000;-1.300000;4.800000;,
 6.310000;-0.500000;4.800000;,
 6.310000;-0.500000;5.200000;,
 -6.310000;-1.300000;12.800000;,
 -6.310000;-0.500000;12.800000;,
 -6.310000;-0.500000;13.200000;,
 6.310000;-1.300000;9.800000;,
 6.310000;-0.500000;9.800000;,
 6.310000;-0.500000;10.200000;,
 -6.310000;-1.300000;17.799999;,
 -6.310000;-0.500000;17.799999;,
 -6.310000;-0.500000;18.200001;,
 6.310000;-1.300000;14.800000;,
 6.310000;-0.500000;14.800000;,
 6.310000;-0.500000;15.200000;,
 -6.310000;-1.300000;22.799999;,
 -6.310000;-0.500000;22.799999;,
 -6.310000;-0.500000;23.200001;,
 6.310000;-1.300000;19.799999;,
 6.310000;-0.500000;19.799999;,
 6.310000;-0.500000;20.200001;,
 -7.310000;-0.500000;-25.000000;,
 -6.290000;-0.500000;-25.000000;,
 -6.290000;-1.300000;-25.000000;,
 -7.310000;-0.500000;25.000000;,
 -6.290000;-0.500000;25.000000;,
 -6.290000;-1.300000;25.000000;,
 -7.310000;-2.600000;-22.000000;,
 -6.290000;-2.600000;-22.000000;,
 -6.290000;-3.100000;-22.000000;,
 -7.310000;-2.600000;28.000000;,
 -6.290000;-2.600000;28.000000;,
 -6.290000;-3.100000;28.000000;,
 -7.310000;4.900000;-18.000000;,
 -6.290000;4.900000;-18.000000;,
 -6.290000;5.700000;-18.000000;,
 -7.310000;4.900000;23.000000;,
 -6.290000;4.900000;23.000000;,
 -6.290000;5.700000;23.000000;,
 -7.310000;4.300000;-18.000000;,
 -7.310000;5.700000;-18.000000;,
 -6.290000;5.700000;-18.000000;,
 -6.290000;4.300000;-18.000000;,
 7.310000;-0.500000;-25.000000;,
 6.290000;-0.500000;-25.000000;,
 6.290000;-1.300000;-25.000000;,
 7.310000;-0.500000;25.000000;,
 6.290000;-0.500000;25.000000;,
 6.290000;-1.300000;25.000000;,
 7.310000;-2.600000;-25.000000;,
 6.290000;-2.600000;-25.000000;,
 6.290000;-3.100000;-25.000000;,
 7.310000;-2.600000;25.000000;,
 6.290000;-2.600000;25.000000;,
 6.290000;-3.100000;25.000000;,
 7.310000;4.900000;-21.000000;,
 6.290000;4.900000;-21.000000;,
 6.290000;5.700000;-21.000000;,
 7.310000;4.900000;20.000000;,
 6.290000;4.900000;20.000000;,
 6.290000;5.700000;20.000000;,
 7.310000;4.300000;-21.000000;,
 7.310000;5.700000;-21.000000;,
 6.290000;5.700000;-21.000000;,
 6.290000;4.300000;-21.000000;,
 -6.310000;5.700000;-16.799999;,
 -6.310000;6.200000;-16.799999;,
 -5.710000;6.300000;-16.799999;,
 5.710000;6.300000;-19.799999;,
 6.310000;6.200000;-19.799999;,
 6.310000;5.700000;-19.799999;,
 -6.310000;5.700000;-17.200001;,
 -6.310000;6.200000;-17.200001;,
 -5.710000;6.300000;-17.200001;,
 5.710000;6.300000;-20.200001;,
 6.310000;6.200000;-20.200001;,
 6.310000;5.700000;-20.200001;,
 -7.290000;5.700000;-17.200001;,
 -7.290000;7.000000;-17.200001;,
 -5.710000;7.000000;-17.200001;,
 5.710000;7.000000;-20.200001;,
 7.290000;7.000000;-20.200001;,
 7.290000;5.700000;-20.200001;,
 -6.310000;5.700000;-6.800000;,
 -6.310000;6.200000;-6.800000;,
 -5.710000;6.300000;-6.800000;,
 5.710000;6.300000;-4.800000;,
 6.310000;6.200000;-4.800000;,
 6.310000;5.700000;-4.800000;,
 -6.310000;5.700000;-7.200000;,
 -6.310000;6.200000;-7.200000;,
 -5.710000;6.300000;-7.200000;,
 5.710000;6.300000;-5.200000;,
 6.310000;6.200000;-5.200000;,
 6.310000;5.700000;-5.200000;,
 -7.290000;5.700000;-7.200000;,
 -7.290000;7.000000;-7.200000;,
 -5.710000;7.000000;-7.200000;,
 5.710000;7.000000;-5.200000;,
 7.290000;7.000000;-5.200000;,
 7.290000;5.700000;-5.200000;,
 -6.310000;5.700000;3.200000;,
 -6.310000;6.200000;3.200000;,
 -5.710000;6.300000;3.200000;,
 5.710000;6.300000;5.200000;,
 6.310000;6.200000;5.200000;,
 6.310000;5.700000;5.200000;,
 -6.310000;5.700000;2.800000;,
 -6.310000;6.200000;2.800000;,
 -5.710000;6.300000;2.800000;,
 5.710000;6.300000;4.800000;,
 6.310000;6.200000;4.800000;,
 6.310000;5.700000;4.800000;,
 -7.290000;5.700000;2.800000;,
 -7.290000;7.000000;2.800000;,
 -5.710000;7.000000;2.800000;,
 5.710000;7.000000;4.800000;,
 7.290000;7.000000;4.800000;,
 7.290000;5.700000;4.800000;,
 -6.310000;5.700000;18.200001;,
 -6.310000;6.200000;18.200001;,
 -5.710000;6.300000;18.200001;,
 5.710000;6.300000;15.200000;,
 6.310000;6.200000;15.200000;,
 6.310000;5.700000;15.200000;,
 -6.310000;5.700000;17.799999;,
 -6.310000;6.200000;17.799999;,
 -5.710000;6.300000;17.799999;,
 5.710000;6.300000;14.800000;,
 6.310000;6.200000;14.800000;,
 6.310000;5.700000;14.800000;,
 -7.290000;5.700000;17.799999;,
 -7.290000;7.000000;17.799999;,
 -5.710000;7.000000;17.799999;,
 5.710000;7.000000;14.800000;,
 7.290000;7.000000;14.800000;,
 7.290000;5.700000;14.800000;;
 296;
 3;0,1,4;,
 3;0,4,3;,
 3;1,2,5;,
 3;1,5,4;,
 3;7,10,9;,
 3;7,9,6;,
 3;8,11,10;,
 3;8,10,7;,
 3;11,15,14;,
 3;11,14,10;,
 3;12,16,15;,
 3;12,15,11;,
 3;14,18,17;,
 3;14,17,13;,
 3;15,19,18;,
 3;15,18,14;,
 3;19,23,22;,
 3;19,22,18;,
 3;20,24,23;,
 3;20,23,19;,
 3;22,26,25;,
 3;22,25,21;,
 3;23,27,26;,
 3;23,26,22;,
 3;27,31,30;,
 3;27,30,26;,
 3;28,32,31;,
 3;28,31,27;,
 3;30,34,33;,
 3;30,33,29;,
 3;31,35,34;,
 3;31,34,30;,
 3;35,39,38;,
 3;35,38,34;,
 3;36,40,39;,
 3;36,39,35;,
 3;38,42,41;,
 3;38,41,37;,
 3;39,43,42;,
 3;39,42,38;,
 3;47,48,45;,
 3;47,45,44;,
 3;48,49,46;,
 3;48,46,45;,
 3;50,53,54;,
 3;50,54,51;,
 3;51,54,55;,
 3;51,55,52;,
 3;54,58,59;,
 3;54,59,55;,
 3;55,59,60;,
 3;55,60,56;,
 3;57,61,62;,
 3;57,62,58;,
 3;58,62,63;,
 3;58,63,59;,
 3;62,66,67;,
 3;62,67,63;,
 3;63,67,68;,
 3;63,68,64;,
 3;65,69,70;,
 3;65,70,66;,
 3;66,70,71;,
 3;66,71,67;,
 3;70,74,75;,
 3;70,75,71;,
 3;71,75,76;,
 3;71,76,72;,
 3;73,77,78;,
 3;73,78,74;,
 3;74,78,79;,
 3;74,79,75;,
 3;78,82,83;,
 3;78,83,79;,
 3;79,83,84;,
 3;79,84,80;,
 3;81,85,86;,
 3;81,86,82;,
 3;82,86,87;,
 3;82,87,83;,
 3;88,91,92;,
 3;88,92,89;,
 3;89,92,93;,
 3;89,93,90;,
 3;94,97,98;,
 3;94,98,95;,
 3;95,98,99;,
 3;95,99,96;,
 3;100,103,104;,
 3;100,104,101;,
 3;101,104,105;,
 3;101,105,102;,
 3;106,109,110;,
 3;106,110,107;,
 3;107,110,111;,
 3;107,111,108;,
 3;112,115,116;,
 3;112,116,113;,
 3;113,116,117;,
 3;113,117,114;,
 3;118,121,122;,
 3;118,122,119;,
 3;119,122,123;,
 3;119,123,120;,
 3;124,127,128;,
 3;124,128,125;,
 3;125,128,129;,
 3;125,129,126;,
 3;130,133,134;,
 3;130,134,131;,
 3;131,134,135;,
 3;131,135,132;,
 3;136,139,140;,
 3;136,140,137;,
 3;137,140,141;,
 3;137,141,138;,
 3;143,146,145;,
 3;143,145,142;,
 3;144,147,146;,
 3;144,146,143;,
 3;149,152,151;,
 3;149,151,148;,
 3;150,153,152;,
 3;150,152,149;,
 3;155,158,157;,
 3;155,157,154;,
 3;156,159,158;,
 3;156,158,155;,
 3;161,164,163;,
 3;161,163,160;,
 3;162,165,164;,
 3;162,164,161;,
 3;167,170,169;,
 3;167,169,166;,
 3;168,171,170;,
 3;168,170,167;,
 3;173,176,175;,
 3;173,175,172;,
 3;174,177,176;,
 3;174,176,173;,
 3;179,182,181;,
 3;179,181,178;,
 3;180,183,182;,
 3;180,182,179;,
 3;185,188,187;,
 3;185,187,184;,
 3;186,189,188;,
 3;186,188,185;,
 3;191,194,193;,
 3;191,193,190;,
 3;192,195,194;,
 3;192,194,191;,
 3;196,197,200;,
 3;196,200,199;,
 3;197,198,201;,
 3;197,201,200;,
 3;202,203,206;,
 3;202,206,205;,
 3;203,204,207;,
 3;203,207,206;,
 3;208,209,212;,
 3;208,212,211;,
 3;209,210,213;,
 3;209,213,212;,
 3;214,215,218;,
 3;214,218,217;,
 3;215,216,219;,
 3;215,219,218;,
 3;220,221,224;,
 3;220,224,223;,
 3;221,222,225;,
 3;221,225,224;,
 3;226,227,230;,
 3;226,230,229;,
 3;227,228,231;,
 3;227,231,230;,
 3;232,233,236;,
 3;232,236,235;,
 3;233,234,237;,
 3;233,237,236;,
 3;238,239,242;,
 3;238,242,241;,
 3;239,240,243;,
 3;239,243,242;,
 3;244,245,248;,
 3;244,248,247;,
 3;245,246,249;,
 3;245,249,248;,
 3;251,250,253;,
 3;251,253,254;,
 3;252,251,254;,
 3;252,254,255;,
 3;259,260,257;,
 3;259,257,256;,
 3;260,261,258;,
 3;260,258,257;,
 3;262,263,266;,
 3;262,266,265;,
 3;263,264,267;,
 3;263,267,266;,
 3;268,269,270;,
 3;268,270,271;,
 3;276,275,272;,
 3;276,272,273;,
 3;277,276,273;,
 3;277,273,274;,
 3;278,279,282;,
 3;278,282,281;,
 3;279,280,283;,
 3;279,283,282;,
 3;287,288,285;,
 3;287,285,284;,
 3;288,289,286;,
 3;288,286,285;,
 3;293,292,291;,
 3;293,291,290;,
 3;294,300,301;,
 3;294,301,295;,
 3;295,301,302;,
 3;295,302,296;,
 3;296,302,303;,
 3;296,303,297;,
 3;297,303,304;,
 3;297,304,298;,
 3;298,304,305;,
 3;298,305,299;,
 3;300,306,307;,
 3;300,307,301;,
 3;301,307,308;,
 3;301,308,302;,
 3;302,308,309;,
 3;302,309,303;,
 3;303,309,310;,
 3;303,310,304;,
 3;304,310,311;,
 3;304,311,305;,
 3;312,318,319;,
 3;312,319,313;,
 3;313,319,320;,
 3;313,320,314;,
 3;314,320,321;,
 3;314,321,315;,
 3;315,321,322;,
 3;315,322,316;,
 3;316,322,323;,
 3;316,323,317;,
 3;318,324,325;,
 3;318,325,319;,
 3;319,325,326;,
 3;319,326,320;,
 3;320,326,327;,
 3;320,327,321;,
 3;321,327,328;,
 3;321,328,322;,
 3;322,328,329;,
 3;322,329,323;,
 3;330,336,337;,
 3;330,337,331;,
 3;331,337,338;,
 3;331,338,332;,
 3;332,338,339;,
 3;332,339,333;,
 3;333,339,340;,
 3;333,340,334;,
 3;334,340,341;,
 3;334,341,335;,
 3;336,342,343;,
 3;336,343,337;,
 3;337,343,344;,
 3;337,344,338;,
 3;338,344,345;,
 3;338,345,339;,
 3;339,345,346;,
 3;339,346,340;,
 3;340,346,347;,
 3;340,347,341;,
 3;348,354,355;,
 3;348,355,349;,
 3;349,355,356;,
 3;349,356,350;,
 3;350,356,357;,
 3;350,357,351;,
 3;351,357,358;,
 3;351,358,352;,
 3;352,358,359;,
 3;352,359,353;,
 3;354,360,361;,
 3;354,361,355;,
 3;355,361,362;,
 3;355,362,356;,
 3;356,362,363;,
 3;356,363,357;,
 3;357,363,364;,
 3;357,364,358;,
 3;358,364,365;,
 3;358,365,359;;

 MeshMaterialList  {
  43;
  296;
  0,
  0,
  0,
  0,
  1,
  1,
  1,
  1,
  1,
  1,
  1,
  1,
  1,
  1,
  1,
  1,
  1,
  1,
  1,
  1,
  1,
  1,
  1,
  1,
  1,
  1,
  1,
  1,
  1,
  1,
  1,
  1,
  1,
  1,
  1,
  1,
  1,
  1,
  1,
  1,
  2,
  2,
  2,
  2,
  3,
  3,
  3,
  3,
  3,
  3,
  3,
  3,
  3,
  3,
  3,
  3,
  3,
  3,
  3,
  3,
  3,
  3,
  3,
  3,
  3,
  3,
  3,
  3,
  3,
  3,
  3,
  3,
  3,
  3,
  3,
  3,
  3,
  3,
  3,
  3,
  4,
  4,
  4,
  4,
  5,
  5,
  5,
  5,
  6,
  6,
  6,
  6,
  7,
  7,
  7,
  7,
  8,
  8,
  8,
  8,
  9,
  9,
  9,
  9,
  10,
  10,
  10,
  10,
  11,
  11,
  11,
  11,
  12,
  12,
  12,
  12,
  13,
  13,
  13,
  13,
  14,
  14,
  14,
  14,
  15,
  15,
  15,
  15,
  16,
  16,
  16,
  16,
  17,
  17,
  17,
  17,
  18,
  18,
  18,
  18,
  19,
  19,
  19,
  19,
  20,
  20,
  20,
  20,
  21,
  21,
  21,
  21,
  22,
  22,
  22,
  22,
  23,
  23,
  23,
  23,
  24,
  24,
  24,
  24,
  25,
  25,
  25,
  25,
  26,
  26,
  26,
  26,
  27,
  27,
  27,
  27,
  28,
  28,
  28,
  28,
  29,
  29,
  29,
  29,
  30,
  30,
  30,
  30,
  31,
  31,
  31,
  31,
  32,
  32,
  32,
  32,
  33,
  33,
  33,
  33,
  34,
  34,
  35,
  35,
  35,
  35,
  36,
  36,
  36,
  36,
  37,
  37,
  37,
  37,
  38,
  38,
  39,
  39,
  39,
  39,
  39,
  39,
  39,
  39,
  39,
  39,
  39,
  39,
  39,
  39,
  39,
  39,
  39,
  39,
  39,
  39,
  40,
  40,
  40,
  40,
  40,
  40,
  40,
  40,
  40,
  40,
  40,
  40,
  40,
  40,
  40,
  40,
  40,
  40,
  40,
  40,
  41,
  41,
  41,
  41,
  41,
  41,
  41,
  41,
  41,
  41,
  41,
  41,
  41,
  41,
  41,
  41,
  41,
  41,
  41,
  41,
  42,
  42,
  42,
  42,
  42,
  42,
  42,
  42,
  42,
  42,
  42,
  42,
  42,
  42,
  42,
  42,
  42,
  42,
  42,
  42;

  Material  {
   1.000000;1.000000;1.000000;1.000000;;
   0.000000;
   0.000000;0.000000;0.000000;;
   0.000000;0.000000;0.000000;;

   TextureFilename  {
    "Toyokawa_Iron1.png";
   }
  }

  Material  {
   1.000000;1.000000;1.000000;1.000000;;
   0.000000;
   0.000000;0.000000;0.000000;;
   0.000000;0.000000;0.000000;;

   TextureFilename  {
    "Toyokawa_Iron2.png";
   }
  }

  Material  {
   1.000000;1.000000;1.000000;1.000000;;
   0.000000;
   0.000000;0.000000;0.000000;;
   0.000000;0.000000;0.000000;;

   TextureFilename  {
    "Toyokawa_Iron1.png";
   }
  }

  Material  {
   1.000000;1.000000;1.000000;1.000000;;
   0.000000;
   0.000000;0.000000;0.000000;;
   0.000000;0.000000;0.000000;;

   TextureFilename  {
    "Toyokawa_Iron2.png";
   }
  }

  Material  {
   1.000000;1.000000;1.000000;1.000000;;
   0.000000;
   0.000000;0.000000;0.000000;;
   0.000000;0.000000;0.000000;;

   TextureFilename  {
    "Toyokawa_Iron2.png";
   }
  }

  Material  {
   1.000000;1.000000;1.000000;1.000000;;
   0.000000;
   0.000000;0.000000;0.000000;;
   0.000000;0.000000;0.000000;;

   TextureFilename  {
    "Toyokawa_Iron2.png";
   }
  }

  Material  {
   1.000000;1.000000;1.000000;1.000000;;
   0.000000;
   0.000000;0.000000;0.000000;;
   0.000000;0.000000;0.000000;;

   TextureFilename  {
    "Toyokawa_Iron2.png";
   }
  }

  Material  {
   1.000000;1.000000;1.000000;1.000000;;
   0.000000;
   0.000000;0.000000;0.000000;;
   0.000000;0.000000;0.000000;;

   TextureFilename  {
    "Toyokawa_Iron2.png";
   }
  }

  Material  {
   1.000000;1.000000;1.000000;1.000000;;
   0.000000;
   0.000000;0.000000;0.000000;;
   0.000000;0.000000;0.000000;;

   TextureFilename  {
    "Toyokawa_Iron2.png";
   }
  }

  Material  {
   1.000000;1.000000;1.000000;1.000000;;
   0.000000;
   0.000000;0.000000;0.000000;;
   0.000000;0.000000;0.000000;;

   TextureFilename  {
    "Toyokawa_Iron2.png";
   }
  }

  Material  {
   1.000000;1.000000;1.000000;1.000000;;
   0.000000;
   0.000000;0.000000;0.000000;;
   0.000000;0.000000;0.000000;;

   TextureFilename  {
    "Toyokawa_Iron2.png";
   }
  }

  Material  {
   1.000000;1.000000;1.000000;1.000000;;
   0.000000;
   0.000000;0.000000;0.000000;;
   0.000000;0.000000;0.000000;;

   TextureFilename  {
    "Toyokawa_Iron2.png";
   }
  }

  Material  {
   1.000000;1.000000;1.000000;1.000000;;
   0.000000;
   0.000000;0.000000;0.000000;;
   0.000000;0.000000;0.000000;;

   TextureFilename  {
    "Toyokawa_Iron2.png";
   }
  }

  Material  {
   1.000000;1.000000;1.000000;1.000000;;
   0.000000;
   0.000000;0.000000;0.000000;;
   0.000000;0.000000;0.000000;;

   TextureFilename  {
    "Toyokawa_Iron2.png";
   }
  }

  Material  {
   1.000000;1.000000;1.000000;1.000000;;
   0.000000;
   0.000000;0.000000;0.000000;;
   0.000000;0.000000;0.000000;;

   TextureFilename  {
    "Toyokawa_Iron2.png";
   }
  }

  Material  {
   1.000000;1.000000;1.000000;1.000000;;
   0.000000;
   0.000000;0.000000;0.000000;;
   0.000000;0.000000;0.000000;;

   TextureFilename  {
    "Toyokawa_Iron2.png";
   }
  }

  Material  {
   1.000000;1.000000;1.000000;1.000000;;
   0.000000;
   0.000000;0.000000;0.000000;;
   0.000000;0.000000;0.000000;;

   TextureFilename  {
    "Toyokawa_Iron2.png";
   }
  }

  Material  {
   1.000000;1.000000;1.000000;1.000000;;
   0.000000;
   0.000000;0.000000;0.000000;;
   0.000000;0.000000;0.000000;;

   TextureFilename  {
    "Toyokawa_Iron2.png";
   }
  }

  Material  {
   1.000000;1.000000;1.000000;1.000000;;
   0.000000;
   0.000000;0.000000;0.000000;;
   0.000000;0.000000;0.000000;;

   TextureFilename  {
    "Toyokawa_Iron2.png";
   }
  }

  Material  {
   1.000000;1.000000;1.000000;1.000000;;
   0.000000;
   0.000000;0.000000;0.000000;;
   0.000000;0.000000;0.000000;;

   TextureFilename  {
    "Toyokawa_Iron2.png";
   }
  }

  Material  {
   1.000000;1.000000;1.000000;1.000000;;
   0.000000;
   0.000000;0.000000;0.000000;;
   0.000000;0.000000;0.000000;;

   TextureFilename  {
    "Toyokawa_Iron2.png";
   }
  }

  Material  {
   1.000000;1.000000;1.000000;1.000000;;
   0.000000;
   0.000000;0.000000;0.000000;;
   0.000000;0.000000;0.000000;;

   TextureFilename  {
    "Toyokawa_Iron2.png";
   }
  }

  Material  {
   1.000000;1.000000;1.000000;1.000000;;
   0.000000;
   0.000000;0.000000;0.000000;;
   0.000000;0.000000;0.000000;;

   TextureFilename  {
    "Toyokawa_Iron3.png";
   }
  }

  Material  {
   1.000000;1.000000;1.000000;1.000000;;
   0.000000;
   0.000000;0.000000;0.000000;;
   0.000000;0.000000;0.000000;;

   TextureFilename  {
    "Toyokawa_Iron3.png";
   }
  }

  Material  {
   1.000000;1.000000;1.000000;1.000000;;
   0.000000;
   0.000000;0.000000;0.000000;;
   0.000000;0.000000;0.000000;;

   TextureFilename  {
    "Toyokawa_Iron3.png";
   }
  }

  Material  {
   1.000000;1.000000;1.000000;1.000000;;
   0.000000;
   0.000000;0.000000;0.000000;;
   0.000000;0.000000;0.000000;;

   TextureFilename  {
    "Toyokawa_Iron3.png";
   }
  }

  Material  {
   1.000000;1.000000;1.000000;1.000000;;
   0.000000;
   0.000000;0.000000;0.000000;;
   0.000000;0.000000;0.000000;;

   TextureFilename  {
    "Toyokawa_Iron3.png";
   }
  }

  Material  {
   1.000000;1.000000;1.000000;1.000000;;
   0.000000;
   0.000000;0.000000;0.000000;;
   0.000000;0.000000;0.000000;;

   TextureFilename  {
    "Toyokawa_Iron3.png";
   }
  }

  Material  {
   1.000000;1.000000;1.000000;1.000000;;
   0.000000;
   0.000000;0.000000;0.000000;;
   0.000000;0.000000;0.000000;;

   TextureFilename  {
    "Toyokawa_Iron3.png";
   }
  }

  Material  {
   1.000000;1.000000;1.000000;1.000000;;
   0.000000;
   0.000000;0.000000;0.000000;;
   0.000000;0.000000;0.000000;;

   TextureFilename  {
    "Toyokawa_Iron3.png";
   }
  }

  Material  {
   1.000000;1.000000;1.000000;1.000000;;
   0.000000;
   0.000000;0.000000;0.000000;;
   0.000000;0.000000;0.000000;;

   TextureFilename  {
    "Toyokawa_Iron3.png";
   }
  }

  Material  {
   1.000000;1.000000;1.000000;1.000000;;
   0.000000;
   0.000000;0.000000;0.000000;;
   0.000000;0.000000;0.000000;;

   TextureFilename  {
    "Toyokawa_Iron2.png";
   }
  }

  Material  {
   1.000000;1.000000;1.000000;1.000000;;
   0.000000;
   0.000000;0.000000;0.000000;;
   0.000000;0.000000;0.000000;;

   TextureFilename  {
    "Toyokawa_Iron2.png";
   }
  }

  Material  {
   1.000000;1.000000;1.000000;1.000000;;
   0.000000;
   0.000000;0.000000;0.000000;;
   0.000000;0.000000;0.000000;;

   TextureFilename  {
    "Toyokawa_Iron4.png";
   }
  }

  Material  {
   1.000000;1.000000;1.000000;1.000000;;
   0.000000;
   0.000000;0.000000;0.000000;;
   0.000000;0.000000;0.000000;;

   TextureFilename  {
    "Toyokawa_Iron1.png";
   }
  }

  Material  {
   1.000000;1.000000;1.000000;1.000000;;
   0.000000;
   0.000000;0.000000;0.000000;;
   0.000000;0.000000;0.000000;;

   TextureFilename  {
    "Toyokawa_Iron2.png";
   }
  }

  Material  {
   1.000000;1.000000;1.000000;1.000000;;
   0.000000;
   0.000000;0.000000;0.000000;;
   0.000000;0.000000;0.000000;;

   TextureFilename  {
    "Toyokawa_Iron2.png";
   }
  }

  Material  {
   1.000000;1.000000;1.000000;1.000000;;
   0.000000;
   0.000000;0.000000;0.000000;;
   0.000000;0.000000;0.000000;;

   TextureFilename  {
    "Toyokawa_Iron4.png";
   }
  }

  Material  {
   1.000000;1.000000;1.000000;1.000000;;
   0.000000;
   0.000000;0.000000;0.000000;;
   0.000000;0.000000;0.000000;;

   TextureFilename  {
    "Toyokawa_Iron1.png";
   }
  }

  Material  {
   1.000000;1.000000;1.000000;1.000000;;
   0.000000;
   0.000000;0.000000;0.000000;;
   0.000000;0.000000;0.000000;;

   TextureFilename  {
    "Toyokawa_Iron2.png";
   }
  }

  Material  {
   1.000000;1.000000;1.000000;1.000000;;
   0.000000;
   0.000000;0.000000;0.000000;;
   0.000000;0.000000;0.000000;;

   TextureFilename  {
    "Toyokawa_Iron2.png";
   }
  }

  Material  {
   1.000000;1.000000;1.000000;1.000000;;
   0.000000;
   0.000000;0.000000;0.000000;;
   0.000000;0.000000;0.000000;;

   TextureFilename  {
    "Toyokawa_Iron2.png";
   }
  }

  Material  {
   1.000000;1.000000;1.000000;1.000000;;
   0.000000;
   0.000000;0.000000;0.000000;;
   0.000000;0.000000;0.000000;;

   TextureFilename  {
    "Toyokawa_Iron2.png";
   }
  }
 }

 MeshTextureCoords  {
  366;
  1.000000;4.000000;,
  0.750000;4.000000;,
  0.250000;4.000000;,
  1.000000;0.000000;,
  0.750000;0.000000;,
  0.250000;0.000000;,
  1.000000;9.000000;,
  0.750000;9.000000;,
  0.500000;9.000000;,
  1.000000;8.000000;,
  0.750000;8.000000;,
  0.500000;8.000000;,
  0.000000;8.000000;,
  1.000000;7.000000;,
  0.750000;7.000000;,
  0.500000;7.000000;,
  0.000000;7.000000;,
  1.000000;6.000000;,
  0.750000;6.000000;,
  0.500000;6.000000;,
  0.000000;6.000000;,
  1.000000;5.000000;,
  0.750000;5.000000;,
  0.500000;5.000000;,
  0.000000;5.000000;,
  1.000000;4.000000;,
  0.750000;4.000000;,
  0.500000;4.000000;,
  0.000000;4.000000;,
  1.000000;3.000000;,
  0.750000;3.000000;,
  0.500000;3.000000;,
  0.000000;3.000000;,
  1.000000;2.000000;,
  0.750000;2.000000;,
  0.500000;2.000000;,
  0.000000;2.000000;,
  1.000000;1.000000;,
  0.750000;1.000000;,
  0.500000;1.000000;,
  0.000000;1.000000;,
  1.000000;0.000000;,
  0.750000;0.000000;,
  0.500000;0.000000;,
  0.000000;4.000000;,
  0.250000;4.000000;,
  0.750000;4.000000;,
  0.000000;0.000000;,
  0.250000;0.000000;,
  0.750000;0.000000;,
  0.750000;9.000000;,
  0.800000;9.000000;,
  1.000000;9.000000;,
  0.750000;8.000000;,
  0.800000;8.000000;,
  1.000000;8.000000;,
  1.500000;8.000000;,
  0.750000;7.000000;,
  0.800000;7.000000;,
  1.000000;7.000000;,
  1.500000;7.000000;,
  0.750000;6.000000;,
  0.800000;6.000000;,
  1.000000;6.000000;,
  1.500000;6.000000;,
  0.750000;5.000000;,
  0.800000;5.000000;,
  1.000000;5.000000;,
  1.500000;5.000000;,
  0.750000;4.000000;,
  0.800000;4.000000;,
  1.000000;4.000000;,
  1.500000;4.000000;,
  0.750000;3.000000;,
  0.800000;3.000000;,
  1.000000;3.000000;,
  1.500000;3.000000;,
  0.750000;2.000000;,
  0.800000;2.000000;,
  1.000000;2.000000;,
  1.500000;2.000000;,
  0.750000;1.000000;,
  0.800000;1.000000;,
  1.000000;1.000000;,
  1.500000;1.000000;,
  0.750000;0.000000;,
  0.800000;0.000000;,
  1.000000;0.000000;,
  0.000000;0.500000;,
  0.500000;0.500000;,
  0.750000;0.500000;,
  0.000000;0.000000;,
  0.500000;0.000000;,
  0.750000;0.000000;,
  0.000000;1.000000;,
  0.500000;1.000000;,
  0.750000;1.000000;,
  0.000000;0.100000;,
  0.500000;0.100000;,
  0.750000;0.100000;,
  0.000000;0.500000;,
  0.500000;0.500000;,
  0.750000;0.500000;,
  0.000000;0.000000;,
  0.500000;0.000000;,
  0.750000;0.000000;,
  0.000000;1.000000;,
  0.500000;1.000000;,
  0.750000;1.000000;,
  0.000000;0.100000;,
  0.500000;0.100000;,
  0.750000;0.100000;,
  0.000000;0.500000;,
  0.500000;0.500000;,
  0.750000;0.500000;,
  0.000000;0.000000;,
  0.500000;0.000000;,
  0.750000;0.000000;,
  0.000000;1.000000;,
  0.500000;1.000000;,
  0.750000;1.000000;,
  0.000000;0.100000;,
  0.500000;0.100000;,
  0.750000;0.100000;,
  0.000000;0.500000;,
  0.500000;0.500000;,
  0.750000;0.500000;,
  0.000000;0.000000;,
  0.500000;0.000000;,
  0.750000;0.000000;,
  0.000000;1.000000;,
  0.500000;1.000000;,
  0.750000;1.000000;,
  0.000000;0.100000;,
  0.500000;0.100000;,
  0.750000;0.100000;,
  0.000000;0.500000;,
  0.500000;0.500000;,
  0.750000;0.500000;,
  0.000000;0.000000;,
  0.500000;0.000000;,
  0.750000;0.000000;,
  1.500000;0.500000;,
  1.000000;0.500000;,
  0.750000;0.500000;,
  1.500000;0.000000;,
  1.000000;0.000000;,
  0.750000;0.000000;,
  1.500000;1.000000;,
  1.000000;1.000000;,
  0.750000;1.000000;,
  1.500000;0.100000;,
  1.000000;0.100000;,
  0.750000;0.100000;,
  1.500000;0.500000;,
  1.000000;0.500000;,
  0.750000;0.500000;,
  1.500000;0.000000;,
  1.000000;0.000000;,
  0.750000;0.000000;,
  1.500000;1.000000;,
  1.000000;1.000000;,
  0.750000;1.000000;,
  1.500000;0.100000;,
  1.000000;0.100000;,
  0.750000;0.100000;,
  1.500000;0.500000;,
  1.000000;0.500000;,
  0.750000;0.500000;,
  1.500000;0.000000;,
  1.000000;0.000000;,
  0.750000;0.000000;,
  1.500000;1.000000;,
  1.000000;1.000000;,
  0.750000;1.000000;,
  1.500000;0.100000;,
  1.000000;0.100000;,
  0.750000;0.100000;,
  1.500000;0.500000;,
  1.000000;0.500000;,
  0.750000;0.500000;,
  1.500000;0.000000;,
  1.000000;0.000000;,
  0.750000;0.000000;,
  1.500000;1.000000;,
  1.000000;1.000000;,
  0.750000;1.000000;,
  1.500000;0.100000;,
  1.000000;0.100000;,
  0.750000;0.100000;,
  1.500000;0.500000;,
  1.000000;0.500000;,
  0.750000;0.500000;,
  1.500000;0.000000;,
  1.000000;0.000000;,
  0.750000;0.000000;,
  0.520000;1.000000;,
  0.320000;0.090000;,
  0.320000;0.000000;,
  3.820000;1.000000;,
  3.620000;0.090000;,
  3.620000;0.000000;,
  0.520000;1.000000;,
  0.320000;0.090000;,
  0.320000;0.000000;,
  3.820000;1.000000;,
  3.620000;0.090000;,
  3.620000;0.000000;,
  0.520000;1.000000;,
  0.320000;0.090000;,
  0.320000;0.000000;,
  3.820000;1.000000;,
  3.620000;0.090000;,
  3.620000;0.000000;,
  0.520000;1.000000;,
  0.320000;0.090000;,
  0.320000;0.000000;,
  3.820000;1.000000;,
  3.620000;0.090000;,
  3.620000;0.000000;,
  0.520000;1.000000;,
  0.320000;0.090000;,
  0.320000;0.000000;,
  3.820000;1.000000;,
  3.620000;0.090000;,
  3.620000;0.000000;,
  0.520000;1.000000;,
  0.320000;0.090000;,
  0.320000;0.000000;,
  3.820000;1.000000;,
  3.620000;0.090000;,
  3.620000;0.000000;,
  0.520000;1.000000;,
  0.320000;0.090000;,
  0.320000;0.000000;,
  3.820000;1.000000;,
  3.620000;0.090000;,
  3.620000;0.000000;,
  0.520000;1.000000;,
  0.320000;0.090000;,
  0.320000;0.000000;,
  3.820000;1.000000;,
  3.620000;0.090000;,
  3.620000;0.000000;,
  0.520000;1.000000;,
  0.320000;0.090000;,
  0.320000;0.000000;,
  3.820000;1.000000;,
  3.620000;0.090000;,
  3.620000;0.000000;,
  0.000000;0.500000;,
  0.500000;0.500000;,
  0.750000;0.500000;,
  0.000000;1.000000;,
  0.500000;1.000000;,
  0.750000;1.000000;,
  0.750000;0.000000;,
  0.825000;0.000000;,
  1.000000;0.000000;,
  0.750000;1.000000;,
  0.825000;1.000000;,
  1.000000;1.000000;,
  0.000000;0.437500;,
  0.000000;0.562500;,
  0.000000;1.000000;,
  1.000000;0.437500;,
  1.000000;0.562500;,
  1.000000;1.000000;,
  0.250000;1.000000;,
  0.250000;0.000000;,
  0.750000;0.000000;,
  0.750000;1.000000;,
  0.500000;0.500000;,
  0.750000;0.500000;,
  1.000000;0.500000;,
  0.500000;1.000000;,
  0.750000;1.000000;,
  1.000000;1.000000;,
  0.500000;0.000000;,
  0.750000;0.000000;,
  1.000000;0.000000;,
  0.500000;1.000000;,
  0.750000;1.000000;,
  1.000000;1.000000;,
  0.000000;0.562500;,
  0.000000;0.437500;,
  0.000000;0.000000;,
  1.000000;0.562500;,
  1.000000;0.437500;,
  1.000000;0.000000;,
  0.250000;1.000000;,
  0.250000;0.000000;,
  0.750000;0.000000;,
  0.750000;1.000000;,
  0.000000;0.500000;,
  0.192308;0.500000;,
  0.230769;0.522059;,
  0.230769;0.941912;,
  0.192308;0.963971;,
  0.000000;0.963971;,
  0.000000;0.500000;,
  0.192308;0.500000;,
  0.230769;0.522059;,
  0.230769;0.941912;,
  0.192308;0.963971;,
  0.000000;0.963971;,
  0.000000;0.463971;,
  0.500000;0.463971;,
  0.500000;0.522059;,
  0.500000;0.941912;,
  0.500000;1.000000;,
  0.000000;1.000000;,
  0.000000;0.500000;,
  0.192308;0.500000;,
  0.230769;0.522059;,
  0.230769;0.941912;,
  0.192308;0.963971;,
  0.000000;0.963971;,
  0.000000;0.500000;,
  0.192308;0.500000;,
  0.230769;0.522059;,
  0.230769;0.941912;,
  0.192308;0.963971;,
  0.000000;0.963971;,
  0.000000;0.463971;,
  0.500000;0.463971;,
  0.500000;0.522059;,
  0.500000;0.941912;,
  0.500000;1.000000;,
  0.000000;1.000000;,
  0.000000;0.500000;,
  0.192308;0.500000;,
  0.230769;0.522059;,
  0.230769;0.941912;,
  0.192308;0.963971;,
  0.000000;0.963971;,
  0.000000;0.500000;,
  0.192308;0.500000;,
  0.230769;0.522059;,
  0.230769;0.941912;,
  0.192308;0.963971;,
  0.000000;0.963971;,
  0.000000;0.463971;,
  0.500000;0.463971;,
  0.500000;0.522059;,
  0.500000;0.941912;,
  0.500000;1.000000;,
  0.000000;1.000000;,
  0.000000;0.500000;,
  0.192308;0.500000;,
  0.230769;0.522059;,
  0.230769;0.941912;,
  0.192308;0.963971;,
  0.000000;0.963971;,
  0.000000;0.500000;,
  0.192308;0.500000;,
  0.230769;0.522059;,
  0.230769;0.941912;,
  0.192308;0.963971;,
  0.000000;0.963971;,
  0.000000;0.463971;,
  0.500000;0.463971;,
  0.500000;0.522059;,
  0.500000;0.941912;,
  0.500000;1.000000;,
  0.000000;1.000000;;
 }

 MeshNormals  {
  296;
  1.000000;0.000000;0.000000;,
  1.000000;0.000000;0.000000;,
  0.000000;0.570396;-0.821370;,
  0.000000;0.570396;-0.821370;,
  0.000000;-0.570396;-0.821370;,
  0.000000;-0.570396;-0.821370;,
  1.000000;0.000000;0.000000;,
  1.000000;0.000000;0.000000;,
  1.000000;0.000000;0.000000;,
  1.000000;0.000000;0.000000;,
  0.000000;0.570396;-0.821370;,
  0.000000;0.570396;-0.821370;,
  0.000000;-0.570396;-0.821370;,
  0.000000;-0.570396;-0.821370;,
  1.000000;0.000000;0.000000;,
  1.000000;0.000000;0.000000;,
  1.000000;0.000000;0.000000;,
  1.000000;0.000000;0.000000;,
  0.000000;0.570396;-0.821370;,
  0.000000;0.570396;-0.821370;,
  0.000000;-0.570396;-0.821370;,
  0.000000;-0.570396;-0.821370;,
  1.000000;0.000000;0.000000;,
  1.000000;0.000000;0.000000;,
  1.000000;0.000000;0.000000;,
  1.000000;0.000000;0.000000;,
  0.000000;0.570396;-0.821370;,
  0.000000;0.570396;-0.821370;,
  0.000000;-0.570396;-0.821370;,
  0.000000;-0.570396;-0.821370;,
  1.000000;0.000000;0.000000;,
  1.000000;0.000000;0.000000;,
  1.000000;0.000000;0.000000;,
  1.000000;0.000000;0.000000;,
  0.000000;0.570396;-0.821370;,
  0.000000;0.570396;-0.821370;,
  0.000000;-0.570396;-0.821370;,
  0.000000;-0.570396;-0.821370;,
  1.000000;0.000000;0.000000;,
  1.000000;0.000000;0.000000;,
  -1.000000;0.000000;0.000000;,
  -1.000000;0.000000;0.000000;,
  0.000000;0.570396;-0.821370;,
  0.000000;0.570396;-0.821370;,
  0.000000;-0.570396;-0.821370;,
  0.000000;-0.570396;-0.821370;,
  -1.000000;0.000000;0.000000;,
  -1.000000;0.000000;0.000000;,
  -1.000000;0.000000;0.000000;,
  -1.000000;0.000000;0.000000;,
  0.000000;0.570396;-0.821370;,
  0.000000;0.570396;-0.821370;,
  0.000000;-0.570396;-0.821370;,
  0.000000;-0.570396;-0.821370;,
  -1.000000;0.000000;0.000000;,
  -1.000000;0.000000;0.000000;,
  -1.000000;0.000000;0.000000;,
  -1.000000;0.000000;0.000000;,
  0.000000;0.570396;-0.821370;,
  0.000000;0.570396;-0.821370;,
  0.000000;-0.570396;-0.821370;,
  0.000000;-0.570396;-0.821370;,
  -1.000000;0.000000;0.000000;,
  -1.000000;0.000000;0.000000;,
  -1.000000;0.000000;0.000000;,
  -1.000000;0.000000;0.000000;,
  0.000000;0.570396;-0.821370;,
  0.000000;0.570396;-0.821370;,
  0.000000;-0.570396;-0.821370;,
  0.000000;-0.570396;-0.821370;,
  -1.000000;0.000000;0.000000;,
  -1.000000;0.000000;0.000000;,
  -1.000000;0.000000;0.000000;,
  -1.000000;0.000000;0.000000;,
  0.000000;0.570396;-0.821370;,
  0.000000;0.570396;-0.821370;,
  0.000000;-0.570396;-0.821370;,
  0.000000;-0.570396;-0.821370;,
  -1.000000;0.000000;0.000000;,
  -1.000000;0.000000;0.000000;,
  0.000000;0.000000;-1.000000;,
  0.000000;0.000000;-1.000000;,
  1.000000;0.000000;0.000000;,
  1.000000;0.000000;0.000000;,
  0.000000;0.000000;-1.000000;,
  0.000000;0.000000;-1.000000;,
  1.000000;0.000000;0.000000;,
  1.000000;0.000000;0.000000;,
  0.000000;0.000000;-1.000000;,
  0.000000;0.000000;-1.000000;,
  1.000000;0.000000;0.000000;,
  1.000000;0.000000;0.000000;,
  0.000000;0.000000;-1.000000;,
  0.000000;0.000000;-1.000000;,
  1.000000;0.000000;0.000000;,
  1.000000;0.000000;0.000000;,
  0.000000;0.000000;-1.000000;,
  0.000000;0.000000;-1.000000;,
  1.000000;0.000000;0.000000;,
  1.000000;0.000000;0.000000;,
  0.000000;0.000000;-1.000000;,
  0.000000;0.000000;-1.000000;,
  1.000000;0.000000;0.000000;,
  1.000000;0.000000;0.000000;,
  0.000000;0.000000;-1.000000;,
  0.000000;0.000000;-1.000000;,
  1.000000;0.000000;0.000000;,
  1.000000;0.000000;0.000000;,
  0.000000;0.000000;-1.000000;,
  0.000000;0.000000;-1.000000;,
  1.000000;0.000000;0.000000;,
  1.000000;0.000000;0.000000;,
  0.000000;0.000000;-1.000000;,
  0.000000;0.000000;-1.000000;,
  1.000000;0.000000;0.000000;,
  1.000000;0.000000;0.000000;,
  0.000000;0.000000;-1.000000;,
  0.000000;0.000000;-1.000000;,
  -1.000000;0.000000;0.000000;,
  -1.000000;0.000000;0.000000;,
  0.000000;0.000000;-1.000000;,
  0.000000;0.000000;-1.000000;,
  -1.000000;0.000000;0.000000;,
  -1.000000;0.000000;0.000000;,
  0.000000;0.000000;-1.000000;,
  0.000000;0.000000;-1.000000;,
  -1.000000;0.000000;0.000000;,
  -1.000000;0.000000;0.000000;,
  0.000000;0.000000;-1.000000;,
  0.000000;0.000000;-1.000000;,
  -1.000000;0.000000;0.000000;,
  -1.000000;0.000000;0.000000;,
  0.000000;0.000000;-1.000000;,
  0.000000;0.000000;-1.000000;,
  -1.000000;0.000000;0.000000;,
  -1.000000;0.000000;0.000000;,
  0.000000;0.000000;-1.000000;,
  0.000000;0.000000;-1.000000;,
  -1.000000;0.000000;0.000000;,
  -1.000000;0.000000;0.000000;,
  0.000000;0.000000;-1.000000;,
  0.000000;0.000000;-1.000000;,
  -1.000000;0.000000;0.000000;,
  -1.000000;0.000000;0.000000;,
  0.000000;0.000000;-1.000000;,
  0.000000;0.000000;-1.000000;,
  -1.000000;0.000000;0.000000;,
  -1.000000;0.000000;0.000000;,
  0.000000;0.000000;-1.000000;,
  0.000000;0.000000;-1.000000;,
  -1.000000;0.000000;0.000000;,
  -1.000000;0.000000;0.000000;,
  -0.231273;0.000000;-0.972889;,
  -0.231273;0.000000;-0.972889;,
  0.000000;1.000000;0.000000;,
  0.000000;1.000000;0.000000;,
  -0.231273;0.000000;-0.972889;,
  -0.231273;0.000000;-0.972889;,
  0.000000;1.000000;0.000000;,
  0.000000;1.000000;0.000000;,
  -0.231273;0.000000;-0.972889;,
  -0.231273;0.000000;-0.972889;,
  0.000000;1.000000;0.000000;,
  0.000000;1.000000;0.000000;,
  -0.231273;0.000000;-0.972889;,
  -0.231273;0.000000;-0.972889;,
  0.000000;1.000000;0.000000;,
  0.000000;1.000000;0.000000;,
  -0.231273;0.000000;-0.972889;,
  -0.231273;0.000000;-0.972889;,
  0.000000;1.000000;0.000000;,
  0.000000;1.000000;0.000000;,
  -0.231273;0.000000;-0.972889;,
  -0.231273;0.000000;-0.972889;,
  0.000000;1.000000;0.000000;,
  0.000000;1.000000;0.000000;,
  -0.231273;0.000000;-0.972889;,
  -0.231273;0.000000;-0.972889;,
  0.000000;1.000000;0.000000;,
  0.000000;1.000000;0.000000;,
  -0.231273;0.000000;-0.972889;,
  -0.231273;0.000000;-0.972889;,
  0.000000;1.000000;0.000000;,
  0.000000;1.000000;0.000000;,
  -0.231273;0.000000;-0.972889;,
  -0.231273;0.000000;-0.972889;,
  0.000000;1.000000;0.000000;,
  0.000000;1.000000;0.000000;,
  0.000000;1.000000;0.000000;,
  0.000000;1.000000;0.000000;,
  1.000000;0.000000;0.000000;,
  1.000000;0.000000;0.000000;,
  0.000000;1.000000;0.000000;,
  0.000000;1.000000;0.000000;,
  1.000000;0.000000;0.000000;,
  1.000000;0.000000;0.000000;,
  0.000000;-1.000000;0.000000;,
  0.000000;-1.000000;0.000000;,
  1.000000;0.000000;0.000000;,
  1.000000;0.000000;0.000000;,
  0.000000;0.000000;-1.000000;,
  0.000000;0.000000;-1.000000;,
  0.000000;1.000000;0.000000;,
  0.000000;1.000000;0.000000;,
  -1.000000;0.000000;0.000000;,
  -1.000000;0.000000;0.000000;,
  0.000000;1.000000;0.000000;,
  0.000000;1.000000;0.000000;,
  -1.000000;0.000000;0.000000;,
  -1.000000;0.000000;0.000000;,
  0.000000;-1.000000;0.000000;,
  0.000000;-1.000000;0.000000;,
  -1.000000;0.000000;0.000000;,
  -1.000000;0.000000;0.000000;,
  0.000000;0.000000;-1.000000;,
  0.000000;0.000000;-1.000000;,
  1.000000;0.000000;0.000000;,
  1.000000;0.000000;0.000000;,
  0.164400;-0.986394;0.000000;,
  0.164400;-0.986394;0.000000;,
  0.000000;-1.000000;0.000000;,
  0.000000;-1.000000;0.000000;,
  -0.164400;-0.986394;0.000000;,
  -0.164400;-0.986394;0.000000;,
  -1.000000;0.000000;0.000000;,
  -1.000000;0.000000;0.000000;,
  0.000000;0.000000;-1.000000;,
  0.000000;0.000000;-1.000000;,
  0.000000;0.000000;-1.000000;,
  0.000000;0.000000;-1.000000;,
  -0.254076;0.000000;-0.967184;,
  -0.254076;0.000000;-0.967184;,
  0.000000;0.000000;-1.000000;,
  0.000000;0.000000;-1.000000;,
  0.000000;0.000000;-1.000000;,
  0.000000;0.000000;-1.000000;,
  1.000000;0.000000;0.000000;,
  1.000000;0.000000;0.000000;,
  0.164400;-0.986394;0.000000;,
  0.164400;-0.986394;0.000000;,
  0.000000;-1.000000;0.000000;,
  0.000000;-1.000000;0.000000;,
  -0.164400;-0.986394;0.000000;,
  -0.164400;-0.986394;0.000000;,
  -1.000000;0.000000;0.000000;,
  -1.000000;0.000000;0.000000;,
  0.000000;0.000000;-1.000000;,
  0.000000;0.000000;-1.000000;,
  0.000000;0.000000;-1.000000;,
  0.000000;0.000000;-1.000000;,
  0.172506;0.000000;-0.985009;,
  0.172506;0.000000;-0.985009;,
  0.000000;0.000000;-1.000000;,
  0.000000;0.000000;-1.000000;,
  0.000000;0.000000;-1.000000;,
  0.000000;0.000000;-1.000000;,
  1.000000;0.000000;0.000000;,
  1.000000;0.000000;0.000000;,
  0.164400;-0.986394;0.000000;,
  0.164400;-0.986394;0.000000;,
  0.000000;-1.000000;0.000000;,
  0.000000;-1.000000;0.000000;,
  -0.164400;-0.986394;0.000000;,
  -0.164400;-0.986394;0.000000;,
  -1.000000;0.000000;0.000000;,
  -1.000000;0.000000;0.000000;,
  0.000000;0.000000;-1.000000;,
  0.000000;0.000000;-1.000000;,
  0.000000;0.000000;-1.000000;,
  0.000000;0.000000;-1.000000;,
  0.172506;0.000000;-0.985008;,
  0.172506;0.000000;-0.985008;,
  0.000000;0.000000;-1.000000;,
  0.000000;0.000000;-1.000000;,
  0.000000;0.000000;-1.000000;,
  0.000000;0.000000;-1.000000;,
  1.000000;0.000000;0.000000;,
  1.000000;0.000000;0.000000;,
  0.164400;-0.986394;0.000000;,
  0.164400;-0.986394;0.000000;,
  0.000000;-1.000000;0.000000;,
  0.000000;-1.000000;0.000000;,
  -0.164400;-0.986394;0.000000;,
  -0.164400;-0.986394;0.000000;,
  -1.000000;0.000000;0.000000;,
  -1.000000;0.000000;0.000000;,
  0.000000;0.000000;-1.000000;,
  0.000000;0.000000;-1.000000;,
  0.000000;0.000000;-1.000000;,
  0.000000;0.000000;-1.000000;,
  -0.254076;0.000000;-0.967184;,
  -0.254076;0.000000;-0.967184;,
  0.000000;0.000000;-1.000000;,
  0.000000;0.000000;-1.000000;,
  0.000000;0.000000;-1.000000;,
  0.000000;0.000000;-1.000000;;
  296;
  3;0,0,0;,
  3;1,1,1;,
  3;2,2,2;,
  3;3,3,3;,
  3;4,4,4;,
  3;5,5,5;,
  3;6,6,6;,
  3;7,7,7;,
  3;8,8,8;,
  3;9,9,9;,
  3;10,10,10;,
  3;11,11,11;,
  3;12,12,12;,
  3;13,13,13;,
  3;14,14,14;,
  3;15,15,15;,
  3;16,16,16;,
  3;17,17,17;,
  3;18,18,18;,
  3;19,19,19;,
  3;20,20,20;,
  3;21,21,21;,
  3;22,22,22;,
  3;23,23,23;,
  3;24,24,24;,
  3;25,25,25;,
  3;26,26,26;,
  3;27,27,27;,
  3;28,28,28;,
  3;29,29,29;,
  3;30,30,30;,
  3;31,31,31;,
  3;32,32,32;,
  3;33,33,33;,
  3;34,34,34;,
  3;35,35,35;,
  3;36,36,36;,
  3;37,37,37;,
  3;38,38,38;,
  3;39,39,39;,
  3;40,40,40;,
  3;41,41,41;,
  3;42,42,42;,
  3;43,43,43;,
  3;44,44,44;,
  3;45,45,45;,
  3;46,46,46;,
  3;47,47,47;,
  3;48,48,48;,
  3;49,49,49;,
  3;50,50,50;,
  3;51,51,51;,
  3;52,52,52;,
  3;53,53,53;,
  3;54,54,54;,
  3;55,55,55;,
  3;56,56,56;,
  3;57,57,57;,
  3;58,58,58;,
  3;59,59,59;,
  3;60,60,60;,
  3;61,61,61;,
  3;62,62,62;,
  3;63,63,63;,
  3;64,64,64;,
  3;65,65,65;,
  3;66,66,66;,
  3;67,67,67;,
  3;68,68,68;,
  3;69,69,69;,
  3;70,70,70;,
  3;71,71,71;,
  3;72,72,72;,
  3;73,73,73;,
  3;74,74,74;,
  3;75,75,75;,
  3;76,76,76;,
  3;77,77,77;,
  3;78,78,78;,
  3;79,79,79;,
  3;80,80,80;,
  3;81,81,81;,
  3;82,82,82;,
  3;83,83,83;,
  3;84,84,84;,
  3;85,85,85;,
  3;86,86,86;,
  3;87,87,87;,
  3;88,88,88;,
  3;89,89,89;,
  3;90,90,90;,
  3;91,91,91;,
  3;92,92,92;,
  3;93,93,93;,
  3;94,94,94;,
  3;95,95,95;,
  3;96,96,96;,
  3;97,97,97;,
  3;98,98,98;,
  3;99,99,99;,
  3;100,100,100;,
  3;101,101,101;,
  3;102,102,102;,
  3;103,103,103;,
  3;104,104,104;,
  3;105,105,105;,
  3;106,106,106;,
  3;107,107,107;,
  3;108,108,108;,
  3;109,109,109;,
  3;110,110,110;,
  3;111,111,111;,
  3;112,112,112;,
  3;113,113,113;,
  3;114,114,114;,
  3;115,115,115;,
  3;116,116,116;,
  3;117,117,117;,
  3;118,118,118;,
  3;119,119,119;,
  3;120,120,120;,
  3;121,121,121;,
  3;122,122,122;,
  3;123,123,123;,
  3;124,124,124;,
  3;125,125,125;,
  3;126,126,126;,
  3;127,127,127;,
  3;128,128,128;,
  3;129,129,129;,
  3;130,130,130;,
  3;131,131,131;,
  3;132,132,132;,
  3;133,133,133;,
  3;134,134,134;,
  3;135,135,135;,
  3;136,136,136;,
  3;137,137,137;,
  3;138,138,138;,
  3;139,139,139;,
  3;140,140,140;,
  3;141,141,141;,
  3;142,142,142;,
  3;143,143,143;,
  3;144,144,144;,
  3;145,145,145;,
  3;146,146,146;,
  3;147,147,147;,
  3;148,148,148;,
  3;149,149,149;,
  3;150,150,150;,
  3;151,151,151;,
  3;152,152,152;,
  3;153,153,153;,
  3;154,154,154;,
  3;155,155,155;,
  3;156,156,156;,
  3;157,157,157;,
  3;158,158,158;,
  3;159,159,159;,
  3;160,160,160;,
  3;161,161,161;,
  3;162,162,162;,
  3;163,163,163;,
  3;164,164,164;,
  3;165,165,165;,
  3;166,166,166;,
  3;167,167,167;,
  3;168,168,168;,
  3;169,169,169;,
  3;170,170,170;,
  3;171,171,171;,
  3;172,172,172;,
  3;173,173,173;,
  3;174,174,174;,
  3;175,175,175;,
  3;176,176,176;,
  3;177,177,177;,
  3;178,178,178;,
  3;179,179,179;,
  3;180,180,180;,
  3;181,181,181;,
  3;182,182,182;,
  3;183,183,183;,
  3;184,184,184;,
  3;185,185,185;,
  3;186,186,186;,
  3;187,187,187;,
  3;188,188,188;,
  3;189,189,189;,
  3;190,190,190;,
  3;191,191,191;,
  3;192,192,192;,
  3;193,193,193;,
  3;194,194,194;,
  3;195,195,195;,
  3;196,196,196;,
  3;197,197,197;,
  3;198,198,198;,
  3;199,199,199;,
  3;200,200,200;,
  3;201,201,201;,
  3;202,202,202;,
  3;203,203,203;,
  3;204,204,204;,
  3;205,205,205;,
  3;206,206,206;,
  3;207,207,207;,
  3;208,208,208;,
  3;209,209,209;,
  3;210,210,210;,
  3;211,211,211;,
  3;212,212,212;,
  3;213,213,213;,
  3;214,214,214;,
  3;215,215,215;,
  3;216,216,216;,
  3;217,217,217;,
  3;218,218,218;,
  3;219,219,219;,
  3;220,220,220;,
  3;221,221,221;,
  3;222,222,222;,
  3;223,223,223;,
  3;224,224,224;,
  3;225,225,225;,
  3;226,226,226;,
  3;227,227,227;,
  3;228,228,228;,
  3;229,229,229;,
  3;230,230,230;,
  3;231,231,231;,
  3;232,232,232;,
  3;233,233,233;,
  3;234,234,234;,
  3;235,235,235;,
  3;236,236,236;,
  3;237,237,237;,
  3;238,238,238;,
  3;239,239,239;,
  3;240,240,240;,
  3;241,241,241;,
  3;242,242,242;,
  3;243,243,243;,
  3;244,244,244;,
  3;245,245,245;,
  3;246,246,246;,
  3;247,247,247;,
  3;248,248,248;,
  3;249,249,249;,
  3;250,250,250;,
  3;251,251,251;,
  3;252,252,252;,
  3;253,253,253;,
  3;254,254,254;,
  3;255,255,255;,
  3;256,256,256;,
  3;257,257,257;,
  3;258,258,258;,
  3;259,259,259;,
  3;260,260,260;,
  3;261,261,261;,
  3;262,262,262;,
  3;263,263,263;,
  3;264,264,264;,
  3;265,265,265;,
  3;266,266,266;,
  3;267,267,267;,
  3;268,268,268;,
  3;269,269,269;,
  3;270,270,270;,
  3;271,271,271;,
  3;272,272,272;,
  3;273,273,273;,
  3;274,274,274;,
  3;275,275,275;,
  3;276,276,276;,
  3;277,277,277;,
  3;278,278,278;,
  3;279,279,279;,
  3;280,280,280;,
  3;281,281,281;,
  3;282,282,282;,
  3;283,283,283;,
  3;284,284,284;,
  3;285,285,285;,
  3;286,286,286;,
  3;287,287,287;,
  3;288,288,288;,
  3;289,289,289;,
  3;290,290,290;,
  3;291,291,291;,
  3;292,292,292;,
  3;293,293,293;,
  3;294,294,294;,
  3;295,295,295;;
 }
}