xof 0303txt 0032
template Vector {
 <3d82ab5e-62da-11cf-ab39-0020af71e433>
 FLOAT x;
 FLOAT y;
 FLOAT z;
}

template MeshFace {
 <3d82ab5f-62da-11cf-ab39-0020af71e433>
 DWORD nFaceVertexIndices;
 array DWORD faceVertexIndices[nFaceVertexIndices];
}

template Mesh {
 <3d82ab44-62da-11cf-ab39-0020af71e433>
 DWORD nVertices;
 array Vector vertices[nVertices];
 DWORD nFaces;
 array MeshFace faces[nFaces];
 [...]
}

template ColorRGBA {
 <35ff44e0-6c7c-11cf-8f52-0040333594a3>
 FLOAT red;
 FLOAT green;
 FLOAT blue;
 FLOAT alpha;
}

template ColorRGB {
 <d3e16e81-7835-11cf-8f52-0040333594a3>
 FLOAT red;
 FLOAT green;
 FLOAT blue;
}

template Material {
 <3d82ab4d-62da-11cf-ab39-0020af71e433>
 ColorRGBA faceColor;
 FLOAT power;
 ColorRGB specularColor;
 ColorRGB emissiveColor;
 [...]
}

template MeshMaterialList {
 <f6f23f42-7686-11cf-8f52-0040333594a3>
 DWORD nMaterials;
 DWORD nFaceIndexes;
 array DWORD faceIndexes[nFaceIndexes];
 [Material <3d82ab4d-62da-11cf-ab39-0020af71e433>]
}

template TextureFilename {
 <a42790e1-7810-11cf-8f52-0040333594a3>
 STRING filename;
}

template Coords2d {
 <f6f23f44-7686-11cf-8f52-0040333594a3>
 FLOAT u;
 FLOAT v;
}

template MeshTextureCoords {
 <f6f23f40-7686-11cf-8f52-0040333594a3>
 DWORD nTextureCoords;
 array Coords2d textureCoords[nTextureCoords];
}

template MeshNormals {
 <f6f23f43-7686-11cf-8f52-0040333594a3>
 DWORD nNormals;
 array Vector normals[nNormals];
 DWORD nFaceNormals;
 array MeshFace faceNormals[nFaceNormals];
}


Mesh  {
 16;
 -6.600000;-3.000000;-2.000000;,
 -7.600000;-3.000000;-1.000000;,
 -7.600000;-3.000000;1.000000;,
 -6.600000;-3.000000;2.000000;,
 6.600000;-3.000000;2.000000;,
 7.600000;-3.000000;1.000000;,
 7.600000;-3.000000;-1.000000;,
 6.600000;-3.000000;-2.000000;,
 -5.600000;-4.000000;-2.000000;,
 -6.600000;-4.000000;-1.000000;,
 6.600000;-4.000000;-1.000000;,
 5.600000;-4.000000;-2.000000;,
 -5.600000;-8.000000;-2.000000;,
 -6.600000;-8.000000;-1.000000;,
 6.600000;-8.000000;-1.000000;,
 5.600000;-8.000000;-2.000000;;
 18;
 3;0,1,2;,
 3;0,2,3;,
 3;0,3,4;,
 3;0,4,5;,
 3;0,5,6;,
 3;0,6,7;,
 3;8,9,1;,
 3;8,1,0;,
 3;10,11,7;,
 3;10,7,6;,
 3;11,8,0;,
 3;11,0,7;,
 3;12,13,9;,
 3;12,9,8;,
 3;14,15,11;,
 3;14,11,10;,
 3;15,12,8;,
 3;15,8,11;;

 MeshMaterialList  {
  1;
  18;
  0,
  0,
  0,
  0,
  0,
  0,
  0,
  0,
  0,
  0,
  0,
  0,
  0,
  0,
  0,
  0,
  0,
  0;

  Material  {
   1.000000;1.000000;1.000000;1.000000;;
   0.000000;
   0.000000;0.000000;0.000000;;
   0.000000;0.000000;0.000000;;

   TextureFilename  {
    "Pier2.png";
   }
  }
 }

 MeshTextureCoords  {
  16;
  0.300000;0.100000;,
  0.200000;0.000000;,
  0.100000;0.000000;,
  0.000000;0.100000;,
  0.000000;0.400000;,
  0.100000;0.500000;,
  0.200000;0.500000;,
  0.300000;0.400000;,
  0.400000;0.100000;,
  0.400000;0.200000;,
  0.400000;0.400000;,
  0.400000;0.300000;,
  0.500000;0.100000;,
  0.500000;0.200000;,
  0.500000;0.400000;,
  0.500000;0.300000;;
 }

 MeshNormals  {
  18;
  0.000000;1.000000;0.000000;,
  0.000000;1.000000;0.000000;,
  0.000000;1.000000;0.000000;,
  0.000000;1.000000;0.000000;,
  0.000000;1.000000;0.000000;,
  0.000000;1.000000;0.000000;,
  -0.577350;-0.577350;-0.577350;,
  -0.577350;-0.577350;-0.577350;,
  0.577350;-0.577350;-0.577350;,
  0.577350;-0.577350;-0.577350;,
  0.000000;0.000000;-1.000000;,
  0.000000;0.000000;-1.000000;,
  -0.707107;0.000000;-0.707107;,
  -0.707107;0.000000;-0.707107;,
  0.707107;0.000000;-0.707107;,
  0.707107;0.000000;-0.707107;,
  0.000000;0.000000;-1.000000;,
  0.000000;0.000000;-1.000000;;
  18;
  3;0,0,0;,
  3;1,1,1;,
  3;2,2,2;,
  3;3,3,3;,
  3;4,4,4;,
  3;5,5,5;,
  3;6,6,6;,
  3;7,7,7;,
  3;8,8,8;,
  3;9,9,9;,
  3;10,10,10;,
  3;11,11,11;,
  3;12,12,12;,
  3;13,13,13;,
  3;14,14,14;,
  3;15,15,15;,
  3;16,16,16;,
  3;17,17,17;;
 }
}