xof 0303txt 0032
template Vector {
 <3d82ab5e-62da-11cf-ab39-0020af71e433>
 FLOAT x;
 FLOAT y;
 FLOAT z;
}

template MeshFace {
 <3d82ab5f-62da-11cf-ab39-0020af71e433>
 DWORD nFaceVertexIndices;
 array DWORD faceVertexIndices[nFaceVertexIndices];
}

template Mesh {
 <3d82ab44-62da-11cf-ab39-0020af71e433>
 DWORD nVertices;
 array Vector vertices[nVertices];
 DWORD nFaces;
 array MeshFace faces[nFaces];
 [...]
}

template MeshNormals {
 <f6f23f43-7686-11cf-8f52-0040333594a3>
 DWORD nNormals;
 array Vector normals[nNormals];
 DWORD nFaceNormals;
 array MeshFace faceNormals[nFaceNormals];
}

template Coords2d {
 <f6f23f44-7686-11cf-8f52-0040333594a3>
 FLOAT u;
 FLOAT v;
}

template MeshTextureCoords {
 <f6f23f40-7686-11cf-8f52-0040333594a3>
 DWORD nTextureCoords;
 array Coords2d textureCoords[nTextureCoords];
}

template ColorRGBA {
 <35ff44e0-6c7c-11cf-8f52-0040333594a3>
 FLOAT red;
 FLOAT green;
 FLOAT blue;
 FLOAT alpha;
}

template ColorRGB {
 <d3e16e81-7835-11cf-8f52-0040333594a3>
 FLOAT red;
 FLOAT green;
 FLOAT blue;
}

template Material {
 <3d82ab4d-62da-11cf-ab39-0020af71e433>
 ColorRGBA faceColor;
 FLOAT power;
 ColorRGB specularColor;
 ColorRGB emissiveColor;
 [...]
}

template MeshMaterialList {
 <f6f23f42-7686-11cf-8f52-0040333594a3>
 DWORD nMaterials;
 DWORD nFaceIndexes;
 array DWORD faceIndexes[nFaceIndexes];
 [Material <3d82ab4d-62da-11cf-ab39-0020af71e433>]
}

template TextureFilename {
 <a42790e1-7810-11cf-8f52-0040333594a3>
 STRING filename;
}


Mesh {
 284;
 0.000000;4.550000;-0.400000;,
 0.000000;4.550000;0.400000;,
 0.000000;3.700000;0.400000;,
 0.000000;3.700000;-0.400000;,
 0.000000;4.550000;-0.400000;,
 0.000000;4.550000;0.400000;,
 0.000000;3.700000;0.400000;,
 0.000000;3.700000;-0.400000;,
 -0.091850;-0.949902;8.974999;,
 -0.106850;6.513735;9.011200;,
 -0.106850;-0.949902;9.011200;,
 -0.091850;6.513735;8.974999;,
 -0.106850;-0.949902;9.011200;,
 -0.111949;6.513735;9.049999;,
 -0.111949;-0.949902;9.049999;,
 -0.106850;6.513735;9.011200;,
 -0.106850;6.513735;9.088799;,
 -0.106850;-0.949902;9.088799;,
 -0.091850;6.513735;9.125000;,
 -0.091850;-0.949902;9.125000;,
 -0.068050;6.513735;9.156099;,
 -0.068050;-0.949902;9.156099;,
 -0.036951;-0.949902;9.179899;,
 -0.036951;6.513735;9.179899;,
 -0.000750;-0.949902;9.194901;,
 -0.000750;6.513735;9.194901;,
 0.038050;-0.949902;9.200001;,
 0.038050;6.513735;9.200001;,
 0.076850;-0.949902;9.194901;,
 0.076850;6.513735;9.194901;,
 0.113050;-0.949902;9.179899;,
 0.113050;6.513735;9.179899;,
 0.144150;-0.949902;9.156099;,
 0.144150;6.513735;9.156099;,
 0.167950;6.513735;9.125000;,
 0.167950;-0.949902;9.125000;,
 0.182950;6.513735;9.088799;,
 0.182950;-0.949902;9.088799;,
 0.188050;6.513735;9.049999;,
 0.188050;-0.949902;9.049999;,
 0.182950;6.513735;9.011200;,
 0.182950;-0.949902;9.011200;,
 0.167950;6.513735;8.974999;,
 0.167950;-0.949902;8.974999;,
 0.144150;6.513735;8.943899;,
 0.144150;-0.949902;8.943899;,
 0.113050;-0.949902;8.920099;,
 0.113050;6.513735;8.920099;,
 0.076850;-0.949902;8.905100;,
 0.076850;6.513735;8.905100;,
 0.038050;-0.949902;8.900001;,
 0.038050;6.513735;8.900001;,
 -0.000750;-0.949902;8.905100;,
 -0.000750;6.513735;8.905100;,
 -0.036951;-0.949902;8.920099;,
 -0.036951;6.513735;8.920099;,
 -0.068050;-0.949902;8.943899;,
 -0.068050;6.513735;8.943899;,
 -0.106850;-0.949902;-9.088799;,
 -0.106850;6.513735;-9.088799;,
 -0.091850;-0.949902;-9.125000;,
 -0.091850;6.513735;-9.125000;,
 -0.111949;-0.949902;-9.049999;,
 -0.111949;6.513735;-9.049999;,
 -0.106850;-0.949902;-9.088799;,
 -0.106850;6.513735;-9.088799;,
 -0.106850;-0.949902;-9.011200;,
 -0.106850;6.513735;-9.011200;,
 -0.091850;-0.949902;-8.974999;,
 -0.091850;6.513735;-8.974999;,
 -0.068050;-0.949902;-8.943899;,
 -0.068050;6.513735;-8.943899;,
 -0.036951;-0.949902;-8.920099;,
 -0.036951;6.513735;-8.920099;,
 -0.000750;-0.949902;-8.905100;,
 -0.000750;6.513735;-8.905100;,
 0.038050;-0.949902;-8.900001;,
 0.038050;6.513735;-8.900001;,
 0.076850;-0.949902;-8.905100;,
 0.076850;6.513735;-8.905100;,
 0.113050;-0.949902;-8.920099;,
 0.113050;6.513735;-8.920099;,
 0.144150;-0.949902;-8.943899;,
 0.144150;6.513735;-8.943899;,
 0.167950;6.513735;-8.974999;,
 0.167950;-0.949902;-8.974999;,
 0.182950;6.513735;-9.011200;,
 0.182950;-0.949902;-9.011200;,
 0.188050;6.513735;-9.049999;,
 0.188050;-0.949902;-9.049999;,
 0.182950;6.513735;-9.088799;,
 0.182950;-0.949902;-9.088799;,
 0.167950;6.513735;-9.125000;,
 0.167950;-0.949902;-9.125000;,
 0.144150;6.513735;-9.156099;,
 0.144150;-0.949902;-9.156099;,
 0.113050;-0.949902;-9.179899;,
 0.113050;6.513735;-9.179899;,
 0.076850;-0.949902;-9.194901;,
 0.076850;6.513735;-9.194901;,
 0.038050;-0.949902;-9.200001;,
 0.038050;6.513735;-9.200001;,
 -0.000750;-0.949902;-9.194901;,
 -0.000750;6.513735;-9.194901;,
 -0.036951;-0.949902;-9.179899;,
 -0.036951;6.513735;-9.179899;,
 -0.068050;-0.949902;-9.156099;,
 -0.068050;6.513735;-9.156099;,
 0.182950;6.513735;9.088799;,
 0.182950;6.513735;9.011200;,
 0.188050;6.513735;9.049999;,
 0.167950;6.513735;9.125000;,
 0.167950;6.513735;8.974999;,
 0.144150;6.513735;9.156099;,
 0.144150;6.513735;8.943899;,
 0.113050;6.513735;9.179899;,
 0.113050;6.513735;8.920099;,
 0.076850;6.513735;9.194901;,
 0.076850;6.513735;8.905100;,
 0.038050;6.513735;9.200001;,
 0.038050;6.513735;8.900001;,
 -0.000750;6.513735;9.194901;,
 -0.000750;6.513735;8.905100;,
 -0.036951;6.513735;9.179899;,
 -0.036951;6.513735;8.920099;,
 -0.068050;6.513735;9.156099;,
 -0.068050;6.513735;8.943899;,
 -0.091850;6.513735;9.125000;,
 -0.091850;6.513735;8.974999;,
 -0.106850;6.513735;9.088799;,
 -0.106850;6.513735;9.011200;,
 -0.111949;6.513735;9.049999;,
 0.188050;6.513735;-9.049999;,
 0.182950;6.513735;-9.088799;,
 0.182950;6.513735;-9.011200;,
 0.167950;6.513735;-8.974999;,
 0.167950;6.513735;-9.125000;,
 0.144150;6.513735;-8.943899;,
 0.144150;6.513735;-9.156099;,
 0.113050;6.513735;-8.920099;,
 0.113050;6.513735;-9.179899;,
 0.076850;6.513735;-8.905100;,
 0.076850;6.513735;-9.194901;,
 0.038050;6.513735;-8.900001;,
 0.038050;6.513735;-9.200001;,
 -0.000750;6.513735;-8.905100;,
 -0.000750;6.513735;-9.194901;,
 -0.036951;6.513735;-8.920099;,
 -0.036951;6.513735;-9.179899;,
 -0.068050;6.513735;-8.943899;,
 -0.068050;6.513735;-9.156099;,
 -0.091850;6.513735;-8.974999;,
 -0.091850;6.513735;-9.125000;,
 -0.106850;6.513735;-9.011200;,
 -0.106850;6.513735;-9.088799;,
 -0.111949;6.513735;-9.049999;,
 0.010000;4.001026;9.010754;,
 0.010000;4.001027;-8.939287;,
 0.000000;3.991028;9.010754;,
 0.000000;3.991028;-8.939287;,
 -0.010000;4.001026;9.010754;,
 -0.010000;4.001027;-8.939287;,
 0.000000;4.011027;9.010754;,
 0.000000;4.011027;-8.939287;,
 0.000000;4.011027;9.010754;,
 -0.010000;4.001026;9.010754;,
 0.000000;3.991028;9.010754;,
 0.010000;4.001026;9.010754;,
 0.010000;4.001027;-8.939287;,
 0.000000;3.991028;-8.939287;,
 -0.010000;4.001027;-8.939287;,
 0.000000;4.011027;-8.939287;,
 0.003000;4.001027;-2.000000;,
 0.003000;4.548687;-2.000000;,
 -0.003000;4.548687;-2.000000;,
 -0.003000;4.001027;-2.000000;,
 0.003000;4.001027;1.999998;,
 0.003000;4.548687;1.999998;,
 -0.003000;4.548687;1.999998;,
 -0.003000;4.001027;1.999998;,
 -0.003000;4.001027;-2.000000;,
 0.003000;4.548687;-2.000000;,
 -0.003000;4.548687;-2.000000;,
 0.003000;4.001027;-2.000000;,
 -0.003000;4.001027;1.999998;,
 0.003000;4.548687;1.999998;,
 -0.003000;4.548687;1.999998;,
 0.003000;4.001027;1.999998;,
 0.030000;4.548687;-1.985002;,
 0.030000;4.548687;-2.015000;,
 0.000000;4.518688;-1.985002;,
 0.000000;4.518688;-2.015000;,
 -0.030000;4.548687;-1.985002;,
 -0.030000;4.548687;-2.015000;,
 0.000000;4.578688;-1.985002;,
 0.000000;4.578688;-2.015000;,
 0.030000;4.548687;2.014998;,
 0.030000;4.548687;1.984998;,
 0.000000;4.518688;2.014998;,
 0.000000;4.518688;1.984998;,
 -0.030000;4.548687;2.014998;,
 -0.030000;4.548687;1.984998;,
 0.000000;4.578688;2.014998;,
 0.000000;4.578688;1.984998;,
 0.008000;4.548687;-2.000000;,
 0.008000;4.787384;-8.947626;,
 0.000000;4.540688;-2.000000;,
 0.000000;4.779385;-8.947626;,
 -0.008000;4.548687;-2.000000;,
 -0.008000;4.787384;-8.947626;,
 0.000000;4.556686;-2.000000;,
 0.000000;4.795383;-8.947626;,
 0.008000;4.548687;1.999998;,
 0.008000;4.548687;-2.000000;,
 0.000000;4.540688;1.999998;,
 0.000000;4.540688;-2.000000;,
 -0.008000;4.548687;1.999998;,
 -0.008000;4.548687;-2.000000;,
 0.000000;4.556686;1.999998;,
 0.000000;4.556686;-2.000000;,
 0.008000;4.810152;9.020824;,
 0.008000;4.548687;1.999998;,
 0.000000;4.802153;9.020824;,
 0.000000;4.540688;1.999998;,
 -0.008000;4.810152;9.020824;,
 -0.008000;4.548687;1.999998;,
 0.000000;4.818151;9.020824;,
 0.000000;4.556686;1.999998;,
 0.000000;4.578688;-1.985002;,
 -0.030000;4.548687;-1.985002;,
 0.000000;4.518688;-1.985002;,
 0.030000;4.548687;-1.985002;,
 0.030000;4.548687;-2.015000;,
 0.000000;4.518688;-2.015000;,
 -0.030000;4.548687;-2.015000;,
 0.000000;4.578688;-2.015000;,
 0.000000;4.578688;2.014998;,
 -0.030000;4.548687;2.014998;,
 0.000000;4.518688;2.014998;,
 0.030000;4.548687;2.014998;,
 0.030000;4.548687;1.984998;,
 0.000000;4.518688;1.984998;,
 -0.030000;4.548687;1.984998;,
 0.000000;4.578688;1.984998;,
 0.008000;4.810152;9.020824;,
 0.000000;4.802153;9.020824;,
 -0.008000;4.810152;9.020824;,
 0.000000;4.818151;9.020824;,
 0.000000;4.556686;-2.000000;,
 -0.008000;4.548687;-2.000000;,
 0.000000;4.540688;-2.000000;,
 0.008000;4.548687;-2.000000;,
 0.000000;4.556686;1.999998;,
 -0.008000;4.548687;1.999998;,
 0.000000;4.540688;1.999998;,
 0.008000;4.548687;1.999998;,
 0.008000;4.548687;-2.000000;,
 0.000000;4.540688;-2.000000;,
 -0.008000;4.548687;-2.000000;,
 0.000000;4.556686;-2.000000;,
 0.000000;4.818151;9.020824;,
 -0.008000;4.810152;9.020824;,
 0.000000;4.802153;9.020824;,
 0.008000;4.810152;9.020824;,
 0.008000;4.548687;1.999998;,
 0.000000;4.540688;1.999998;,
 -0.008000;4.548687;1.999998;,
 0.000000;4.556686;1.999998;,
 0.007828;2.486885;-8.856743;,
 -0.310676;2.486885;-9.164318;,
 0.007828;2.044113;-8.856743;,
 -0.310676;2.044113;-9.164318;,
 0.007828;2.486885;-8.856743;,
 -0.310676;2.486885;-9.164318;,
 0.007828;2.044113;-8.856743;,
 -0.310676;2.044113;-9.164318;,
 0.007828;2.486885;8.856743;,
 -0.310675;2.486885;9.164318;,
 0.007828;2.044113;8.856743;,
 -0.310675;2.044113;9.164318;,
 0.007828;2.486885;8.856743;,
 -0.310675;2.486885;9.164318;,
 0.007828;2.044113;8.856743;,
 -0.310675;2.044113;9.164318;;
 232;
 3;0,1,2;,
 3;0,2,3;,
 3;7,6,5;,
 3;7,5,4;,
 3;10,9,8;,
 3;11,8,9;,
 3;14,13,12;,
 3;15,12,13;,
 3;17,16,14;,
 3;13,14,16;,
 3;19,18,17;,
 3;16,17,18;,
 3;21,20,19;,
 3;18,19,20;,
 3;21,22,20;,
 3;23,20,22;,
 3;22,24,23;,
 3;25,23,24;,
 3;24,26,25;,
 3;27,25,26;,
 3;26,28,27;,
 3;29,27,28;,
 3;28,30,29;,
 3;31,29,30;,
 3;30,32,31;,
 3;33,31,32;,
 3;33,32,34;,
 3;35,34,32;,
 3;34,35,36;,
 3;37,36,35;,
 3;36,37,38;,
 3;39,38,37;,
 3;38,39,40;,
 3;41,40,39;,
 3;40,41,42;,
 3;43,42,41;,
 3;42,43,44;,
 3;45,44,43;,
 3;45,46,44;,
 3;47,44,46;,
 3;46,48,47;,
 3;49,47,48;,
 3;48,50,49;,
 3;51,49,50;,
 3;50,52,51;,
 3;53,51,52;,
 3;52,54,53;,
 3;55,53,54;,
 3;54,56,55;,
 3;57,55,56;,
 3;8,11,56;,
 3;57,56,11;,
 3;58,59,60;,
 3;61,60,59;,
 3;62,63,64;,
 3;65,64,63;,
 3;66,67,62;,
 3;63,62,67;,
 3;68,69,66;,
 3;67,66,69;,
 3;70,71,68;,
 3;69,68,71;,
 3;70,72,71;,
 3;73,71,72;,
 3;72,74,73;,
 3;75,73,74;,
 3;74,76,75;,
 3;77,75,76;,
 3;76,78,77;,
 3;79,77,78;,
 3;78,80,79;,
 3;81,79,80;,
 3;80,82,81;,
 3;83,81,82;,
 3;83,82,84;,
 3;85,84,82;,
 3;84,85,86;,
 3;87,86,85;,
 3;86,87,88;,
 3;89,88,87;,
 3;88,89,90;,
 3;91,90,89;,
 3;90,91,92;,
 3;93,92,91;,
 3;92,93,94;,
 3;95,94,93;,
 3;95,96,94;,
 3;97,94,96;,
 3;96,98,97;,
 3;99,97,98;,
 3;98,100,99;,
 3;101,99,100;,
 3;100,102,101;,
 3;103,101,102;,
 3;102,104,103;,
 3;105,103,104;,
 3;104,106,105;,
 3;107,105,106;,
 3;60,61,106;,
 3;107,106,61;,
 3;110,109,108;,
 3;111,108,109;,
 3;112,111,109;,
 3;113,111,112;,
 3;114,113,112;,
 3;115,113,114;,
 3;116,115,114;,
 3;117,115,116;,
 3;118,117,116;,
 3;119,117,118;,
 3;120,119,118;,
 3;121,119,120;,
 3;122,121,120;,
 3;123,121,122;,
 3;124,123,122;,
 3;125,123,124;,
 3;126,125,124;,
 3;127,125,126;,
 3;128,127,126;,
 3;129,127,128;,
 3;130,129,128;,
 3;131,129,130;,
 3;132,133,134;,
 3;135,134,133;,
 3;136,135,133;,
 3;137,135,136;,
 3;138,137,136;,
 3;139,137,138;,
 3;140,139,138;,
 3;141,139,140;,
 3;142,141,140;,
 3;143,141,142;,
 3;144,143,142;,
 3;145,143,144;,
 3;146,145,144;,
 3;147,145,146;,
 3;148,147,146;,
 3;149,147,148;,
 3;150,149,148;,
 3;151,149,150;,
 3;152,151,150;,
 3;153,151,152;,
 3;154,153,152;,
 3;155,153,154;,
 3;157,156,158;,
 3;157,158,159;,
 3;159,158,160;,
 3;159,160,161;,
 3;161,160,162;,
 3;161,162,163;,
 3;163,162,156;,
 3;163,156,157;,
 3;164,165,166;,
 3;164,166,167;,
 3;168,169,170;,
 3;168,170,171;,
 3;175,173,174;,
 3;175,172,173;,
 3;179,177,178;,
 3;179,176,177;,
 3;180,182,181;,
 3;180,181,183;,
 3;184,186,185;,
 3;184,185,187;,
 3;189,188,190;,
 3;189,190,191;,
 3;191,190,192;,
 3;191,192,193;,
 3;193,192,194;,
 3;193,194,195;,
 3;195,194,188;,
 3;195,188,189;,
 3;228,229,230;,
 3;228,230,231;,
 3;232,233,234;,
 3;232,234,235;,
 3;197,196,198;,
 3;197,198,199;,
 3;199,198,200;,
 3;199,200,201;,
 3;201,200,202;,
 3;201,202,203;,
 3;203,202,196;,
 3;203,196,197;,
 3;236,237,238;,
 3;236,238,239;,
 3;240,241,242;,
 3;240,242,243;,
 3;244,245,246;,
 3;244,246,247;,
 3;205,204,206;,
 3;205,206,207;,
 3;207,206,208;,
 3;207,208,209;,
 3;209,208,210;,
 3;209,210,211;,
 3;211,210,204;,
 3;211,204,205;,
 3;248,249,250;,
 3;248,250,251;,
 3;213,212,214;,
 3;213,214,215;,
 3;215,214,216;,
 3;215,216,217;,
 3;217,216,218;,
 3;217,218,219;,
 3;219,218,212;,
 3;219,212,213;,
 3;252,253,254;,
 3;252,254,255;,
 3;256,257,258;,
 3;256,258,259;,
 3;221,220,222;,
 3;221,222,223;,
 3;223,222,224;,
 3;223,224,225;,
 3;225,224,226;,
 3;225,226,227;,
 3;227,226,220;,
 3;227,220,221;,
 3;260,261,262;,
 3;260,262,263;,
 3;264,265,266;,
 3;264,266,267;,
 3;268,269,270;,
 3;269,271,270;,
 3;272,274,273;,
 3;273,274,275;,
 3;276,277,278;,
 3;277,279,278;,
 3;280,282,281;,
 3;281,282,283;;

 MeshNormals {
  284;
  1.000000;0.000000;0.000000;,
  1.000000;0.000000;0.000000;,
  1.000000;0.000000;0.000000;,
  1.000000;0.000000;0.000000;,
  -1.000000;0.000000;0.000000;,
  -1.000000;0.000000;0.000000;,
  -1.000000;0.000000;0.000000;,
  -1.000000;0.000000;0.000000;,
  -0.866019;0.000000;-0.500011;,
  -0.965929;0.000000;-0.258808;,
  -0.965929;0.000000;-0.258808;,
  -0.866019;0.000000;-0.500011;,
  -0.965929;0.000000;-0.258808;,
  -1.000000;0.000000;0.000000;,
  -1.000000;0.000000;0.000000;,
  -0.965929;0.000000;-0.258808;,
  -0.965929;0.000000;0.258808;,
  -0.965929;0.000000;0.258808;,
  -0.866019;0.000000;0.500011;,
  -0.866019;0.000000;0.500011;,
  -0.707107;0.000000;0.707107;,
  -0.707107;0.000000;0.707107;,
  -0.500011;0.000000;0.866019;,
  -0.500011;0.000000;0.866019;,
  -0.258808;0.000000;0.965929;,
  -0.258808;0.000000;0.965929;,
  0.000000;0.000000;1.000000;,
  0.000000;0.000000;1.000000;,
  0.258808;0.000000;0.965929;,
  0.258808;0.000000;0.965929;,
  0.500011;0.000000;0.866019;,
  0.500011;0.000000;0.866019;,
  0.707107;0.000000;0.707107;,
  0.707107;0.000000;0.707107;,
  0.866019;0.000000;0.500011;,
  0.866019;0.000000;0.500011;,
  0.965929;0.000000;0.258808;,
  0.965929;0.000000;0.258808;,
  1.000000;0.000000;0.000000;,
  1.000000;0.000000;0.000000;,
  0.965929;0.000000;-0.258808;,
  0.965929;0.000000;-0.258808;,
  0.866019;0.000000;-0.500011;,
  0.866019;0.000000;-0.500011;,
  0.707107;0.000000;-0.707107;,
  0.707107;0.000000;-0.707107;,
  0.500011;0.000000;-0.866019;,
  0.500011;0.000000;-0.866019;,
  0.258808;0.000000;-0.965929;,
  0.258808;0.000000;-0.965929;,
  0.000000;0.000000;-1.000000;,
  0.000000;0.000000;-1.000000;,
  -0.258808;0.000000;-0.965929;,
  -0.258808;0.000000;-0.965929;,
  -0.500011;0.000000;-0.866019;,
  -0.500011;0.000000;-0.866019;,
  -0.707107;0.000000;-0.707107;,
  -0.707107;0.000000;-0.707107;,
  -0.965929;0.000000;-0.258808;,
  -0.965929;0.000000;-0.258808;,
  -0.866019;0.000000;-0.500011;,
  -0.866019;0.000000;-0.500011;,
  -1.000000;0.000000;0.000000;,
  -1.000000;0.000000;0.000000;,
  -0.965929;0.000000;-0.258808;,
  -0.965929;0.000000;-0.258808;,
  -0.965929;0.000000;0.258808;,
  -0.965929;0.000000;0.258808;,
  -0.866019;0.000000;0.500011;,
  -0.866019;0.000000;0.500011;,
  -0.707107;0.000000;0.707107;,
  -0.707107;0.000000;0.707107;,
  -0.500011;0.000000;0.866019;,
  -0.500011;0.000000;0.866019;,
  -0.258808;0.000000;0.965929;,
  -0.258808;0.000000;0.965929;,
  0.000000;0.000000;1.000000;,
  0.000000;0.000000;1.000000;,
  0.258808;0.000000;0.965929;,
  0.258808;0.000000;0.965929;,
  0.500011;0.000000;0.866019;,
  0.500011;0.000000;0.866019;,
  0.707107;0.000000;0.707107;,
  0.707107;0.000000;0.707107;,
  0.866019;0.000000;0.500011;,
  0.866019;0.000000;0.500011;,
  0.965929;0.000000;0.258808;,
  0.965929;0.000000;0.258808;,
  1.000000;0.000000;0.000000;,
  1.000000;0.000000;0.000000;,
  0.965929;0.000000;-0.258808;,
  0.965929;0.000000;-0.258808;,
  0.866019;0.000000;-0.500011;,
  0.866019;0.000000;-0.500011;,
  0.707107;0.000000;-0.707107;,
  0.707107;0.000000;-0.707107;,
  0.500011;0.000000;-0.866019;,
  0.500011;0.000000;-0.866019;,
  0.258808;0.000000;-0.965929;,
  0.258808;0.000000;-0.965929;,
  0.000000;0.000000;-1.000000;,
  0.000000;0.000000;-1.000000;,
  -0.258808;0.000000;-0.965929;,
  -0.258808;0.000000;-0.965929;,
  -0.500011;0.000000;-0.866019;,
  -0.500011;0.000000;-0.866019;,
  -0.707107;0.000000;-0.707107;,
  -0.707107;0.000000;-0.707107;,
  0.000000;1.000000;0.000000;,
  0.000000;1.000000;0.000000;,
  0.000000;1.000000;0.000000;,
  0.000000;1.000000;0.000000;,
  0.000000;1.000000;0.000000;,
  0.000000;1.000000;0.000000;,
  0.000000;1.000000;0.000000;,
  0.000000;1.000000;0.000000;,
  0.000000;1.000000;0.000000;,
  0.000000;1.000000;0.000000;,
  0.000000;1.000000;0.000000;,
  0.000000;1.000000;0.000000;,
  0.000000;1.000000;0.000000;,
  0.000000;1.000000;0.000000;,
  0.000000;1.000000;0.000000;,
  0.000000;1.000000;0.000000;,
  0.000000;1.000000;0.000000;,
  0.000000;1.000000;0.000000;,
  0.000000;1.000000;0.000000;,
  0.000000;1.000000;0.000000;,
  0.000000;1.000000;0.000000;,
  0.000000;1.000000;0.000000;,
  0.000000;1.000000;0.000000;,
  0.000000;1.000000;0.000000;,
  0.000000;1.000000;0.000000;,
  0.000000;1.000000;0.000000;,
  0.000000;1.000000;0.000000;,
  0.000000;1.000000;0.000000;,
  0.000000;1.000000;0.000000;,
  0.000000;1.000000;0.000000;,
  0.000000;1.000000;0.000000;,
  0.000000;1.000000;0.000000;,
  0.000000;1.000000;0.000000;,
  0.000000;1.000000;0.000000;,
  0.000000;1.000000;0.000000;,
  0.000000;1.000000;0.000000;,
  0.000000;1.000000;0.000000;,
  0.000000;1.000000;0.000000;,
  0.000000;1.000000;0.000000;,
  0.000000;1.000000;0.000000;,
  0.000000;1.000000;0.000000;,
  0.000000;1.000000;0.000000;,
  0.000000;1.000000;0.000000;,
  0.000000;1.000000;0.000000;,
  0.000000;1.000000;0.000000;,
  0.000000;1.000000;0.000000;,
  0.000000;1.000000;0.000000;,
  0.000000;1.000000;0.000000;,
  1.000000;0.000000;0.000000;,
  1.000000;0.000000;0.000000;,
  0.000000;0.000000;1.000000;,
  0.000000;0.000000;1.000000;,
  -1.000000;0.000000;0.000000;,
  -1.000000;0.000000;0.000000;,
  0.000000;0.000000;-1.000000;,
  0.000000;0.000000;-1.000000;,
  0.000000;1.000000;0.000000;,
  0.000000;1.000000;0.000000;,
  0.000000;1.000000;0.000000;,
  0.000000;1.000000;0.000000;,
  0.000000;-1.000000;0.000000;,
  0.000000;-1.000000;0.000000;,
  0.000000;-1.000000;0.000000;,
  0.000000;-1.000000;0.000000;,
  0.000000;0.000000;-1.000000;,
  0.000000;0.000000;-1.000000;,
  0.000000;0.000000;-1.000000;,
  0.000000;0.000000;-1.000000;,
  0.000000;0.000000;-1.000000;,
  0.000000;0.000000;-1.000000;,
  0.000000;0.000000;-1.000000;,
  0.000000;0.000000;-1.000000;,
  0.000000;0.000000;-1.000000;,
  0.000000;0.000000;-1.000000;,
  0.000000;0.000000;-1.000000;,
  0.000000;0.000000;-1.000000;,
  0.000000;0.000000;-1.000000;,
  0.000000;0.000000;-1.000000;,
  0.000000;0.000000;-1.000000;,
  0.000000;0.000000;-1.000000;,
  1.000000;0.000000;0.000000;,
  1.000000;0.000000;0.000000;,
  0.000000;0.000000;1.000000;,
  0.000000;0.000000;1.000000;,
  -1.000000;0.000000;0.000000;,
  -1.000000;0.000000;0.000000;,
  0.000000;0.000000;-1.000000;,
  0.000000;0.000000;-1.000000;,
  1.000000;0.000000;0.000000;,
  1.000000;0.000000;0.000000;,
  0.000000;0.000000;1.000000;,
  0.000000;0.000000;1.000000;,
  -1.000000;0.000000;0.000000;,
  -1.000000;0.000000;0.000000;,
  0.000000;0.000000;-1.000000;,
  0.000000;0.000000;-1.000000;,
  1.000000;0.000000;0.000000;,
  1.000000;0.000000;0.000000;,
  0.000000;0.000000;1.000000;,
  0.000000;0.000000;1.000000;,
  -1.000000;0.000000;0.000000;,
  -1.000000;0.000000;0.000000;,
  0.000000;0.000000;-1.000000;,
  0.000000;0.000000;-1.000000;,
  1.000000;0.000000;0.000000;,
  1.000000;0.000000;0.000000;,
  0.000000;0.000000;1.000000;,
  0.000000;0.000000;1.000000;,
  -1.000000;0.000000;0.000000;,
  -1.000000;0.000000;0.000000;,
  0.000000;0.000000;-1.000000;,
  0.000000;0.000000;-1.000000;,
  1.000000;0.000000;0.000000;,
  1.000000;0.000000;0.000000;,
  0.000000;0.000000;1.000000;,
  0.000000;0.000000;1.000000;,
  -1.000000;0.000000;0.000000;,
  -1.000000;0.000000;0.000000;,
  0.000000;0.000000;-1.000000;,
  0.000000;0.000000;-1.000000;,
  0.000000;1.000000;0.000000;,
  0.000000;1.000000;0.000000;,
  0.000000;1.000000;0.000000;,
  0.000000;1.000000;0.000000;,
  0.000000;-1.000000;0.000000;,
  0.000000;-1.000000;0.000000;,
  0.000000;-1.000000;0.000000;,
  0.000000;-1.000000;0.000000;,
  0.000000;1.000000;0.000000;,
  0.000000;1.000000;0.000000;,
  0.000000;1.000000;0.000000;,
  0.000000;1.000000;0.000000;,
  0.000000;-1.000000;0.000000;,
  0.000000;-1.000000;0.000000;,
  0.000000;-1.000000;0.000000;,
  0.000000;-1.000000;0.000000;,
  0.000000;-1.000000;0.000000;,
  0.000000;-1.000000;0.000000;,
  0.000000;-1.000000;0.000000;,
  0.000000;-1.000000;0.000000;,
  0.000000;1.000000;0.000000;,
  0.000000;1.000000;0.000000;,
  0.000000;1.000000;0.000000;,
  0.000000;1.000000;0.000000;,
  0.000000;1.000000;0.000000;,
  0.000000;1.000000;0.000000;,
  0.000000;1.000000;0.000000;,
  0.000000;1.000000;0.000000;,
  0.000000;-1.000000;0.000000;,
  0.000000;-1.000000;0.000000;,
  0.000000;-1.000000;0.000000;,
  0.000000;-1.000000;0.000000;,
  0.000000;1.000000;0.000000;,
  0.000000;1.000000;0.000000;,
  0.000000;1.000000;0.000000;,
  0.000000;1.000000;0.000000;,
  0.000000;-1.000000;0.000000;,
  0.000000;-1.000000;0.000000;,
  0.000000;-1.000000;0.000000;,
  0.000000;-1.000000;0.000000;,
  -0.694658;0.000000;0.719340;,
  -0.694658;0.000000;0.719340;,
  -0.694658;0.000000;0.719340;,
  -0.694658;0.000000;0.719340;,
  -0.694658;0.000000;0.719340;,
  -0.694658;0.000000;0.719340;,
  -0.694658;0.000000;0.719340;,
  -0.694658;0.000000;0.719340;,
  -0.694658;0.000000;-0.719340;,
  -0.694658;0.000000;-0.719340;,
  -0.694658;0.000000;-0.719340;,
  -0.694658;0.000000;-0.719340;,
  -0.694658;0.000000;-0.719340;,
  -0.694658;0.000000;-0.719340;,
  -0.694658;0.000000;-0.719340;,
  -0.694658;0.000000;-0.719340;;
  232;
  3;0,1,2;,
  3;0,2,3;,
  3;7,6,5;,
  3;7,5,4;,
  3;10,9,8;,
  3;11,8,9;,
  3;14,13,12;,
  3;15,12,13;,
  3;17,16,14;,
  3;13,14,16;,
  3;19,18,17;,
  3;16,17,18;,
  3;21,20,19;,
  3;18,19,20;,
  3;21,22,20;,
  3;23,20,22;,
  3;22,24,23;,
  3;25,23,24;,
  3;24,26,25;,
  3;27,25,26;,
  3;26,28,27;,
  3;29,27,28;,
  3;28,30,29;,
  3;31,29,30;,
  3;30,32,31;,
  3;33,31,32;,
  3;33,32,34;,
  3;35,34,32;,
  3;34,35,36;,
  3;37,36,35;,
  3;36,37,38;,
  3;39,38,37;,
  3;38,39,40;,
  3;41,40,39;,
  3;40,41,42;,
  3;43,42,41;,
  3;42,43,44;,
  3;45,44,43;,
  3;45,46,44;,
  3;47,44,46;,
  3;46,48,47;,
  3;49,47,48;,
  3;48,50,49;,
  3;51,49,50;,
  3;50,52,51;,
  3;53,51,52;,
  3;52,54,53;,
  3;55,53,54;,
  3;54,56,55;,
  3;57,55,56;,
  3;8,11,56;,
  3;57,56,11;,
  3;58,59,60;,
  3;61,60,59;,
  3;62,63,64;,
  3;65,64,63;,
  3;66,67,62;,
  3;63,62,67;,
  3;68,69,66;,
  3;67,66,69;,
  3;70,71,68;,
  3;69,68,71;,
  3;70,72,71;,
  3;73,71,72;,
  3;72,74,73;,
  3;75,73,74;,
  3;74,76,75;,
  3;77,75,76;,
  3;76,78,77;,
  3;79,77,78;,
  3;78,80,79;,
  3;81,79,80;,
  3;80,82,81;,
  3;83,81,82;,
  3;83,82,84;,
  3;85,84,82;,
  3;84,85,86;,
  3;87,86,85;,
  3;86,87,88;,
  3;89,88,87;,
  3;88,89,90;,
  3;91,90,89;,
  3;90,91,92;,
  3;93,92,91;,
  3;92,93,94;,
  3;95,94,93;,
  3;95,96,94;,
  3;97,94,96;,
  3;96,98,97;,
  3;99,97,98;,
  3;98,100,99;,
  3;101,99,100;,
  3;100,102,101;,
  3;103,101,102;,
  3;102,104,103;,
  3;105,103,104;,
  3;104,106,105;,
  3;107,105,106;,
  3;60,61,106;,
  3;107,106,61;,
  3;110,109,108;,
  3;111,108,109;,
  3;112,111,109;,
  3;113,111,112;,
  3;114,113,112;,
  3;115,113,114;,
  3;116,115,114;,
  3;117,115,116;,
  3;118,117,116;,
  3;119,117,118;,
  3;120,119,118;,
  3;121,119,120;,
  3;122,121,120;,
  3;123,121,122;,
  3;124,123,122;,
  3;125,123,124;,
  3;126,125,124;,
  3;127,125,126;,
  3;128,127,126;,
  3;129,127,128;,
  3;130,129,128;,
  3;131,129,130;,
  3;132,133,134;,
  3;135,134,133;,
  3;136,135,133;,
  3;137,135,136;,
  3;138,137,136;,
  3;139,137,138;,
  3;140,139,138;,
  3;141,139,140;,
  3;142,141,140;,
  3;143,141,142;,
  3;144,143,142;,
  3;145,143,144;,
  3;146,145,144;,
  3;147,145,146;,
  3;148,147,146;,
  3;149,147,148;,
  3;150,149,148;,
  3;151,149,150;,
  3;152,151,150;,
  3;153,151,152;,
  3;154,153,152;,
  3;155,153,154;,
  3;157,156,158;,
  3;157,158,159;,
  3;159,158,160;,
  3;159,160,161;,
  3;161,160,162;,
  3;161,162,163;,
  3;163,162,156;,
  3;163,156,157;,
  3;164,165,166;,
  3;164,166,167;,
  3;168,169,170;,
  3;168,170,171;,
  3;175,173,174;,
  3;175,172,173;,
  3;179,177,178;,
  3;179,176,177;,
  3;180,182,181;,
  3;180,181,183;,
  3;184,186,185;,
  3;184,185,187;,
  3;189,188,190;,
  3;189,190,191;,
  3;191,190,192;,
  3;191,192,193;,
  3;193,192,194;,
  3;193,194,195;,
  3;195,194,188;,
  3;195,188,189;,
  3;228,229,230;,
  3;228,230,231;,
  3;232,233,234;,
  3;232,234,235;,
  3;197,196,198;,
  3;197,198,199;,
  3;199,198,200;,
  3;199,200,201;,
  3;201,200,202;,
  3;201,202,203;,
  3;203,202,196;,
  3;203,196,197;,
  3;236,237,238;,
  3;236,238,239;,
  3;240,241,242;,
  3;240,242,243;,
  3;244,245,246;,
  3;244,246,247;,
  3;205,204,206;,
  3;205,206,207;,
  3;207,206,208;,
  3;207,208,209;,
  3;209,208,210;,
  3;209,210,211;,
  3;211,210,204;,
  3;211,204,205;,
  3;248,249,250;,
  3;248,250,251;,
  3;213,212,214;,
  3;213,214,215;,
  3;215,214,216;,
  3;215,216,217;,
  3;217,216,218;,
  3;217,218,219;,
  3;219,218,212;,
  3;219,212,213;,
  3;252,253,254;,
  3;252,254,255;,
  3;256,257,258;,
  3;256,258,259;,
  3;221,220,222;,
  3;221,222,223;,
  3;223,222,224;,
  3;223,224,225;,
  3;225,224,226;,
  3;225,226,227;,
  3;227,226,220;,
  3;227,220,221;,
  3;260,261,262;,
  3;260,262,263;,
  3;264,265,266;,
  3;264,266,267;,
  3;268,269,270;,
  3;269,271,270;,
  3;272,274,273;,
  3;273,274,275;,
  3;276,277,278;,
  3;277,279,278;,
  3;280,282,281;,
  3;281,282,283;;
 }

 MeshTextureCoords {
  284;
  0.000000;0.000000;,
  1.000000;0.000000;,
  1.000000;1.000000;,
  0.000000;1.000000;,
  1.000000;0.000000;,
  0.000000;0.000000;,
  0.000000;1.000000;,
  1.000000;1.000000;,
  0.041300;0.000000;,
  0.000000;-0.999900;,
  0.000000;0.000000;,
  0.041300;-0.999900;,
  0.992100;0.000000;,
  0.950700;-0.999900;,
  0.950700;0.000000;,
  0.992100;-0.999900;,
  0.909400;-0.999900;,
  0.909400;0.000000;,
  0.868100;-0.999900;,
  0.868100;0.000000;,
  0.826700;-0.999900;,
  0.826700;0.000000;,
  0.785400;0.000000;,
  0.785400;-0.999900;,
  0.744100;0.000000;,
  0.744100;-0.999900;,
  0.702700;0.000000;,
  0.702700;-0.999900;,
  0.661400;0.000000;,
  0.661400;-0.999900;,
  0.620100;0.000000;,
  0.620100;-0.999900;,
  0.578700;0.000000;,
  0.578700;-0.999900;,
  0.537400;-0.999900;,
  0.537400;0.000000;,
  0.496000;-0.999900;,
  0.496000;0.000000;,
  0.454700;-0.999900;,
  0.454700;0.000000;,
  0.413400;-0.999900;,
  0.413400;0.000000;,
  0.372000;-0.999900;,
  0.372000;0.000000;,
  0.330700;-0.999900;,
  0.330700;0.000000;,
  0.289400;0.000000;,
  0.289400;-0.999900;,
  0.248000;0.000000;,
  0.248000;-0.999900;,
  0.206700;0.000000;,
  0.206700;-0.999900;,
  0.165300;0.000000;,
  0.165300;-0.999900;,
  0.124000;0.000000;,
  0.124000;-0.999900;,
  0.082700;0.000000;,
  0.082700;-0.999900;,
  0.000000;0.000000;,
  0.000000;-0.999900;,
  0.041300;0.000000;,
  0.041300;-0.999900;,
  0.950700;0.000000;,
  0.950700;-0.999900;,
  0.992100;0.000000;,
  0.992100;-0.999900;,
  0.909400;0.000000;,
  0.909400;-0.999900;,
  0.868100;0.000000;,
  0.868100;-0.999900;,
  0.826700;0.000000;,
  0.826700;-0.999900;,
  0.785400;0.000000;,
  0.785400;-0.999900;,
  0.744100;0.000000;,
  0.744100;-0.999900;,
  0.702700;0.000000;,
  0.702700;-0.999900;,
  0.661400;0.000000;,
  0.661400;-0.999900;,
  0.620100;0.000000;,
  0.620100;-0.999900;,
  0.578700;0.000000;,
  0.578700;-0.999900;,
  0.537400;-0.999900;,
  0.537400;0.000000;,
  0.496000;-0.999900;,
  0.496000;0.000000;,
  0.454700;-0.999900;,
  0.454700;0.000000;,
  0.413400;-0.999900;,
  0.413400;0.000000;,
  0.372000;-0.999900;,
  0.372000;0.000000;,
  0.330700;-0.999900;,
  0.330700;0.000000;,
  0.289400;0.000000;,
  0.289400;-0.999900;,
  0.248000;0.000000;,
  0.248000;-0.999900;,
  0.206700;0.000000;,
  0.206700;-0.999900;,
  0.165300;0.000000;,
  0.165300;-0.999900;,
  0.124000;0.000000;,
  0.124000;-0.999900;,
  0.082700;0.000000;,
  0.082700;-0.999900;,
  0.000000;0.000000;,
  0.000000;0.000000;,
  0.000000;0.000000;,
  0.000000;0.000000;,
  0.000000;0.000000;,
  0.000000;0.000000;,
  0.000000;0.000000;,
  0.000000;0.000000;,
  0.000000;0.000000;,
  0.000000;0.000000;,
  0.000000;0.000000;,
  0.000000;0.000000;,
  0.000000;0.000000;,
  0.000000;0.000000;,
  0.000000;0.000000;,
  0.000000;0.000000;,
  0.000000;0.000000;,
  0.000000;0.000000;,
  0.000000;0.000000;,
  0.000000;0.000000;,
  0.000000;0.000000;,
  0.000000;0.000000;,
  0.000000;0.000000;,
  0.000000;0.000000;,
  0.000000;0.000000;,
  0.000000;0.000000;,
  0.000000;0.000000;,
  0.000000;0.000000;,
  0.000000;0.000000;,
  0.000000;0.000000;,
  0.000000;0.000000;,
  0.000000;0.000000;,
  0.000000;0.000000;,
  0.000000;0.000000;,
  0.000000;0.000000;,
  0.000000;0.000000;,
  0.000000;0.000000;,
  0.000000;0.000000;,
  0.000000;0.000000;,
  0.000000;0.000000;,
  0.000000;0.000000;,
  0.000000;0.000000;,
  0.000000;0.000000;,
  0.000000;0.000000;,
  0.000000;0.000000;,
  0.000000;0.000000;,
  0.000000;0.000000;,
  0.000000;0.000000;,
  0.000000;0.000000;,
  0.000000;0.000000;,
  0.000000;0.000000;,
  0.000000;0.000000;,
  0.000000;0.000000;,
  0.000000;0.000000;,
  0.000000;0.000000;,
  0.000000;0.000000;,
  0.000000;0.000000;,
  0.000000;0.000000;,
  0.000000;0.000000;,
  0.000000;0.000000;,
  0.000000;0.000000;,
  0.000000;0.000000;,
  0.000000;0.000000;,
  0.000000;0.000000;,
  0.000000;0.000000;,
  0.000000;0.000000;,
  0.000000;0.000000;,
  0.000000;0.000000;,
  0.000000;0.000000;,
  0.000000;0.000000;,
  0.000000;0.000000;,
  0.000000;0.000000;,
  0.000000;0.000000;,
  0.000000;0.000000;,
  0.000000;0.000000;,
  0.000000;0.000000;,
  0.000000;0.000000;,
  0.000000;0.000000;,
  0.000000;0.000000;,
  0.000000;0.000000;,
  0.000000;0.000000;,
  0.000000;0.000000;,
  0.000000;0.000000;,
  0.000000;0.000000;,
  0.000000;0.000000;,
  0.000000;0.000000;,
  0.000000;0.000000;,
  0.000000;0.000000;,
  0.000000;0.000000;,
  0.000000;0.000000;,
  0.000000;0.000000;,
  0.000000;0.000000;,
  0.000000;0.000000;,
  0.000000;0.000000;,
  0.000000;0.000000;,
  0.000000;0.000000;,
  0.000000;0.000000;,
  0.000000;0.000000;,
  0.000000;0.000000;,
  0.000000;0.000000;,
  0.000000;0.000000;,
  0.000000;0.000000;,
  0.000000;0.000000;,
  0.000000;0.000000;,
  0.000000;0.000000;,
  0.000000;0.000000;,
  0.000000;0.000000;,
  0.000000;0.000000;,
  0.000000;0.000000;,
  0.000000;0.000000;,
  0.000000;0.000000;,
  0.000000;0.000000;,
  0.000000;0.000000;,
  0.000000;0.000000;,
  0.000000;0.000000;,
  0.000000;0.000000;,
  0.000000;0.000000;,
  0.000000;0.000000;,
  0.000000;0.000000;,
  0.000000;0.000000;,
  0.000000;0.000000;,
  0.000000;0.000000;,
  0.000000;0.000000;,
  0.000000;0.000000;,
  0.000000;0.000000;,
  0.000000;0.000000;,
  0.000000;0.000000;,
  0.000000;0.000000;,
  0.000000;0.000000;,
  0.000000;0.000000;,
  0.000000;0.000000;,
  0.000000;0.000000;,
  0.000000;0.000000;,
  0.000000;0.000000;,
  0.000000;0.000000;,
  0.000000;0.000000;,
  0.000000;0.000000;,
  0.000000;0.000000;,
  0.000000;0.000000;,
  0.000000;0.000000;,
  0.000000;0.000000;,
  0.000000;0.000000;,
  0.000000;0.000000;,
  0.000000;0.000000;,
  0.000000;0.000000;,
  0.000000;0.000000;,
  0.000000;0.000000;,
  0.000000;0.000000;,
  0.000000;0.000000;,
  0.000000;0.000000;,
  0.000000;0.000000;,
  0.000000;0.000000;,
  0.000000;0.000000;,
  0.000000;0.000000;,
  0.000000;0.000000;,
  0.000000;0.000000;,
  0.000000;0.000000;,
  0.000000;0.000000;,
  0.000000;0.000000;,
  0.000000;0.000000;,
  0.000000;0.000000;,
  1.000000;0.000000;,
  0.000000;1.000000;,
  1.000000;1.000000;,
  0.000000;0.000000;,
  1.000000;0.000000;,
  0.000000;1.000000;,
  1.000000;1.000000;,
  1.000000;0.000000;,
  0.000000;0.000000;,
  1.000000;1.000000;,
  0.000000;1.000000;,
  1.000000;0.000000;,
  0.000000;0.000000;,
  1.000000;1.000000;,
  0.000000;1.000000;;
 }

 MeshMaterialList {
  9;
  232;
  0,
  0,
  1,
  1,
  2,
  2,
  2,
  2,
  2,
  2,
  2,
  2,
  2,
  2,
  2,
  2,
  2,
  2,
  2,
  2,
  2,
  2,
  2,
  2,
  2,
  2,
  2,
  2,
  2,
  2,
  2,
  2,
  2,
  2,
  2,
  2,
  2,
  2,
  2,
  2,
  2,
  2,
  2,
  2,
  2,
  2,
  2,
  2,
  2,
  2,
  2,
  2,
  2,
  2,
  2,
  2,
  2,
  2,
  2,
  2,
  2,
  2,
  2,
  2,
  2,
  2,
  2,
  2,
  2,
  2,
  2,
  2,
  2,
  2,
  2,
  2,
  2,
  2,
  2,
  2,
  2,
  2,
  2,
  2,
  2,
  2,
  2,
  2,
  2,
  2,
  2,
  2,
  2,
  2,
  2,
  2,
  2,
  2,
  2,
  2,
  3,
  3,
  3,
  3,
  3,
  3,
  3,
  3,
  3,
  3,
  3,
  3,
  3,
  3,
  3,
  3,
  3,
  3,
  3,
  3,
  3,
  3,
  3,
  3,
  3,
  3,
  3,
  3,
  3,
  3,
  3,
  3,
  3,
  3,
  3,
  3,
  3,
  3,
  3,
  3,
  3,
  3,
  3,
  3,
  4,
  4,
  4,
  4,
  4,
  4,
  4,
  4,
  4,
  4,
  4,
  4,
  4,
  4,
  4,
  4,
  4,
  4,
  4,
  4,
  5,
  5,
  5,
  5,
  5,
  5,
  5,
  5,
  5,
  5,
  5,
  5,
  5,
  5,
  5,
  5,
  5,
  5,
  5,
  5,
  5,
  5,
  5,
  5,
  5,
  5,
  5,
  5,
  5,
  5,
  5,
  5,
  5,
  5,
  5,
  5,
  5,
  5,
  5,
  5,
  5,
  5,
  5,
  5,
  5,
  5,
  5,
  5,
  5,
  5,
  5,
  5,
  5,
  5,
  5,
  5,
  5,
  5,
  5,
  5,
  6,
  6,
  7,
  7,
  7,
  7,
  8,
  8;

  Material {
   1.000000;1.000000;1.000000;1.000000;;
   0.000000;
   0.000000;0.000000;0.000000;;
   0.000000;0.000000;0.000000;;

   TextureFilename {
    "seigen_chu.dds";
   }
  }

  Material {
   1.000000;1.000000;1.000000;1.000000;;
   0.000000;
   0.000000;0.000000;0.000000;;
   0.000000;0.000000;0.000000;;

   TextureFilename {
    "seigen_ko.dds";
   }
  }

  Material {
   1.000000;1.000000;1.000000;1.000000;;
   5.000000;
   0.100000;0.100000;0.100000;;
   0.200000;0.200000;0.200000;;

   TextureFilename {
    "Pole_conc_cross.dds";
   }
  }

  Material {
   0.556900;0.556900;0.556900;1.000000;;
   5.000000;
   0.055700;0.055700;0.055700;;
   0.111400;0.111400;0.111400;;
  }

  Material {
   0.250980;0.250980;0.250980;1.000000;;
   0.000000;
   0.000000;0.000000;0.000000;;
   0.000000;0.000000;0.000000;;
  }

  Material {
   0.392157;0.392157;0.392157;1.000000;;
   0.000000;
   0.000000;0.000000;0.000000;;
   0.000000;0.000000;0.000000;;
  }

  Material {
   0.500000;0.500000;0.500000;1.000000;;
   0.000000;
   0.500000;0.500000;0.500000;;
   0.500000;0.500000;0.500000;;

   TextureFilename {
    "koudenatu.dds";
   }
  }

  Material {
   0.243137;0.243137;0.243137;1.000000;;
   0.000000;
   0.500000;0.500000;0.500000;;
   0.500000;0.500000;0.500000;;
  }

  Material {
   0.500000;0.500000;0.500000;1.000000;;
   0.000000;
   0.500000;0.500000;0.500000;;
   0.500000;0.500000;0.500000;;

   TextureFilename {
    "koudenatu2.dds";
   }
  }
 }
}