xof 0303txt 0032
template Vector {
 <3d82ab5e-62da-11cf-ab39-0020af71e433>
 FLOAT x;
 FLOAT y;
 FLOAT z;
}

template MeshFace {
 <3d82ab5f-62da-11cf-ab39-0020af71e433>
 DWORD nFaceVertexIndices;
 array DWORD faceVertexIndices[nFaceVertexIndices];
}

template Mesh {
 <3d82ab44-62da-11cf-ab39-0020af71e433>
 DWORD nVertices;
 array Vector vertices[nVertices];
 DWORD nFaces;
 array MeshFace faces[nFaces];
 [...]
}

template MeshNormals {
 <f6f23f43-7686-11cf-8f52-0040333594a3>
 DWORD nNormals;
 array Vector normals[nNormals];
 DWORD nFaceNormals;
 array MeshFace faceNormals[nFaceNormals];
}

template Coords2d {
 <f6f23f44-7686-11cf-8f52-0040333594a3>
 FLOAT u;
 FLOAT v;
}

template MeshTextureCoords {
 <f6f23f40-7686-11cf-8f52-0040333594a3>
 DWORD nTextureCoords;
 array Coords2d textureCoords[nTextureCoords];
}

template ColorRGBA {
 <35ff44e0-6c7c-11cf-8f52-0040333594a3>
 FLOAT red;
 FLOAT green;
 FLOAT blue;
 FLOAT alpha;
}

template ColorRGB {
 <d3e16e81-7835-11cf-8f52-0040333594a3>
 FLOAT red;
 FLOAT green;
 FLOAT blue;
}

template Material {
 <3d82ab4d-62da-11cf-ab39-0020af71e433>
 ColorRGBA faceColor;
 FLOAT power;
 ColorRGB specularColor;
 ColorRGB emissiveColor;
 [...]
}

template MeshMaterialList {
 <f6f23f42-7686-11cf-8f52-0040333594a3>
 DWORD nMaterials;
 DWORD nFaceIndexes;
 array DWORD faceIndexes[nFaceIndexes];
 [Material <3d82ab4d-62da-11cf-ab39-0020af71e433>]
}

template TextureFilename {
 <a42790e1-7810-11cf-8f52-0040333594a3>
 STRING filename;
}


Mesh {
 80;
 0.210544;2.019531;0.250000;,
 0.061366;2.035210;0.250000;,
 0.061366;2.035210;-0.250000;,
 0.210544;2.019531;-0.250000;,
 0.210544;2.019531;-0.250000;,
 0.061366;2.035210;-0.250000;,
 0.025826;1.697073;-0.250000;,
 0.126236;1.695114;-0.250000;,
 0.025826;1.697073;0.250000;,
 0.126236;1.695114;0.250000;,
 0.126236;1.695114;-0.250000;,
 0.025826;1.697073;-0.250000;,
 0.025826;1.697073;0.250000;,
 0.025826;1.697073;-0.250000;,
 0.061366;2.035210;-0.250000;,
 0.061366;2.035210;0.250000;,
 0.126236;1.695114;0.250000;,
 0.210544;2.019531;0.250000;,
 0.210544;2.019531;-0.250000;,
 0.126236;1.695114;-0.250000;,
 0.182763;1.295000;0.125000;,
 0.032763;1.295000;0.125000;,
 0.032763;1.295000;-0.125000;,
 0.182763;1.295000;-0.125000;,
 0.182763;1.295000;-0.125000;,
 0.032763;1.295000;-0.125000;,
 0.032763;1.005000;-0.125000;,
 0.182763;1.005000;-0.125000;,
 0.032763;1.005000;0.125000;,
 0.182763;1.005000;0.125000;,
 0.182763;1.005000;-0.125000;,
 0.032763;1.005000;-0.125000;,
 0.032763;1.005000;0.125000;,
 0.032763;1.005000;-0.125000;,
 0.032763;1.295000;-0.125000;,
 0.032763;1.295000;0.125000;,
 0.182763;1.005000;0.125000;,
 0.182763;1.295000;0.125000;,
 0.182763;1.295000;-0.125000;,
 0.182763;1.005000;-0.125000;,
 0.006504;2.700000;-0.396637;,
 0.006504;3.600000;-0.396637;,
 0.006504;3.600000;0.503363;,
 0.006504;2.700000;0.503363;,
 0.006504;2.700000;-0.396637;,
 0.006504;3.600000;-0.396637;,
 0.006504;3.600000;0.503363;,
 0.006504;2.700000;0.503363;,
 0.206504;2.200000;0.203363;,
 0.206504;2.550000;0.203363;,
 -0.043496;2.550000;0.303363;,
 -0.043496;2.200000;0.303363;,
 0.206504;2.200000;-0.296638;,
 0.206504;2.550000;-0.296638;,
 -0.043496;2.550000;-0.196637;,
 -0.043496;2.200000;-0.196637;,
 0.406504;-0.050000;-0.396637;,
 0.406504;3.700000;-0.396637;,
 -0.493496;3.700000;0.303363;,
 -0.493496;-0.050000;0.303363;,
 -0.146251;-0.027374;-0.167144;,
 -0.146251;-0.027374;0.167144;,
 0.146251;-0.027374;0.167144;,
 0.146251;-0.027374;-0.167144;,
 -0.146251;-0.654163;-0.167144;,
 -0.146251;-0.027374;-0.167144;,
 0.146251;-0.027374;-0.167144;,
 0.146251;-0.654163;-0.167144;,
 0.146251;-0.027374;-0.167144;,
 0.146251;-0.027374;0.167144;,
 0.146251;-0.654163;0.167144;,
 0.146251;-0.654163;-0.167144;,
 -0.146251;-0.027374;-0.167144;,
 -0.146251;-0.027374;0.167144;,
 -0.146251;-0.654163;0.167144;,
 -0.146251;-0.654163;-0.167144;,
 -0.146251;-0.654163;0.167144;,
 -0.146251;-0.027374;0.167144;,
 0.146251;-0.027374;0.167144;,
 0.146251;-0.654163;0.167144;;
 40;
 3;0,2,1;,
 3;2,0,3;,
 3;4,6,5;,
 3;6,4,7;,
 3;8,10,9;,
 3;10,8,11;,
 3;12,14,13;,
 3;14,12,15;,
 3;16,18,17;,
 3;18,16,19;,
 3;20,22,21;,
 3;22,20,23;,
 3;24,26,25;,
 3;26,24,27;,
 3;28,30,29;,
 3;30,28,31;,
 3;32,34,33;,
 3;34,32,35;,
 3;36,38,37;,
 3;38,36,39;,
 3;40,42,41;,
 3;40,43,42;,
 3;47,45,46;,
 3;47,44,45;,
 3;48,50,49;,
 3;48,51,50;,
 3;52,54,53;,
 3;52,55,54;,
 3;56,58,57;,
 3;56,59,58;,
 3;63,61,62;,
 3;63,60,61;,
 3;67,65,66;,
 3;67,64,65;,
 3;71,69,70;,
 3;71,68,69;,
 3;72,74,73;,
 3;72,75,74;,
 3;76,78,77;,
 3;76,79,78;;

 MeshNormals {
  80;
  0.104528;0.994522;0.000000;,
  0.104528;0.994522;0.000000;,
  0.104528;0.994522;0.000000;,
  0.104528;0.994522;0.000000;,
  -0.994522;0.104528;0.000000;,
  -0.994522;0.104528;0.000000;,
  -0.994522;0.104528;0.000000;,
  -0.994522;0.104528;0.000000;,
  -0.104528;-0.994522;0.000000;,
  -0.104528;-0.994522;0.000000;,
  -0.104528;-0.994522;0.000000;,
  -0.104528;-0.994522;0.000000;,
  0.000000;0.000000;1.000000;,
  0.000000;0.000000;1.000000;,
  0.000000;0.000000;1.000000;,
  0.000000;0.000000;1.000000;,
  0.000000;0.000000;-1.000000;,
  0.000000;0.000000;-1.000000;,
  0.000000;0.000000;-1.000000;,
  0.000000;0.000000;-1.000000;,
  0.000000;1.000000;0.000000;,
  0.000000;1.000000;0.000000;,
  0.000000;1.000000;0.000000;,
  0.000000;1.000000;0.000000;,
  -1.000000;0.000000;0.000000;,
  -1.000000;0.000000;0.000000;,
  -1.000000;0.000000;0.000000;,
  -1.000000;0.000000;0.000000;,
  0.000000;-1.000000;0.000000;,
  0.000000;-1.000000;0.000000;,
  0.000000;-1.000000;0.000000;,
  0.000000;-1.000000;0.000000;,
  0.000000;0.000000;1.000000;,
  0.000000;0.000000;1.000000;,
  0.000000;0.000000;1.000000;,
  0.000000;0.000000;1.000000;,
  0.000000;0.000000;-1.000000;,
  0.000000;0.000000;-1.000000;,
  0.000000;0.000000;-1.000000;,
  0.000000;0.000000;-1.000000;,
  -1.000000;0.000000;0.000000;,
  -1.000000;0.000000;0.000000;,
  -1.000000;0.000000;0.000000;,
  -1.000000;0.000000;0.000000;,
  1.000000;0.000000;0.000000;,
  1.000000;0.000000;0.000000;,
  1.000000;0.000000;0.000000;,
  1.000000;0.000000;0.000000;,
  -0.371391;0.000000;-0.928477;,
  -0.371391;0.000000;-0.928477;,
  -0.371391;0.000000;-0.928477;,
  -0.371391;0.000000;-0.928477;,
  -0.371391;0.000000;-0.928477;,
  -0.371391;0.000000;-0.928477;,
  -0.371391;0.000000;-0.928477;,
  -0.371391;0.000000;-0.928477;,
  -0.613941;0.000000;-0.789352;,
  -0.613941;0.000000;-0.789352;,
  -0.613941;0.000000;-0.789352;,
  -0.613941;0.000000;-0.789352;,
  0.000000;1.000000;0.000000;,
  0.000000;1.000000;0.000000;,
  0.000000;1.000000;0.000000;,
  0.000000;1.000000;0.000000;,
  0.000000;0.000000;-1.000000;,
  0.000000;0.000000;-1.000000;,
  0.000000;0.000000;-1.000000;,
  0.000000;0.000000;-1.000000;,
  1.000000;0.000000;0.000000;,
  1.000000;0.000000;0.000000;,
  1.000000;0.000000;0.000000;,
  1.000000;0.000000;0.000000;,
  -1.000000;0.000000;0.000000;,
  -1.000000;0.000000;0.000000;,
  -1.000000;0.000000;0.000000;,
  -1.000000;0.000000;0.000000;,
  0.000000;0.000000;1.000000;,
  0.000000;0.000000;1.000000;,
  0.000000;0.000000;1.000000;,
  0.000000;0.000000;1.000000;;
  40;
  3;0,2,1;,
  3;2,0,3;,
  3;4,6,5;,
  3;6,4,7;,
  3;8,10,9;,
  3;10,8,11;,
  3;12,14,13;,
  3;14,12,15;,
  3;16,18,17;,
  3;18,16,19;,
  3;20,22,21;,
  3;22,20,23;,
  3;24,26,25;,
  3;26,24,27;,
  3;28,30,29;,
  3;30,28,31;,
  3;32,34,33;,
  3;34,32,35;,
  3;36,38,37;,
  3;38,36,39;,
  3;40,42,41;,
  3;40,43,42;,
  3;47,45,46;,
  3;47,44,45;,
  3;48,50,49;,
  3;48,51,50;,
  3;52,54,53;,
  3;52,55,54;,
  3;56,58,57;,
  3;56,59,58;,
  3;63,61,62;,
  3;63,60,61;,
  3;67,65,66;,
  3;67,64,65;,
  3;71,69,70;,
  3;71,68,69;,
  3;72,74,73;,
  3;72,75,74;,
  3;76,78,77;,
  3;76,79,78;;
 }

 MeshTextureCoords {
  80;
  0.000000;0.000000;,
  0.000000;0.000000;,
  0.000000;0.000000;,
  0.000000;0.000000;,
  0.000000;0.000000;,
  0.000000;0.000000;,
  0.000000;0.000000;,
  0.000000;0.000000;,
  0.000000;0.000000;,
  0.000000;0.000000;,
  0.000000;0.000000;,
  0.000000;0.000000;,
  0.000000;0.000000;,
  0.000000;0.000000;,
  0.000000;0.000000;,
  0.000000;0.000000;,
  0.000000;0.000000;,
  0.000000;0.000000;,
  0.000000;0.000000;,
  0.000000;0.000000;,
  0.000000;0.000000;,
  0.000000;0.000000;,
  0.000000;0.000000;,
  0.000000;0.000000;,
  0.000000;0.000000;,
  0.000000;0.000000;,
  0.000000;0.000000;,
  0.000000;0.000000;,
  0.000000;0.000000;,
  0.000000;0.000000;,
  0.000000;0.000000;,
  0.000000;0.000000;,
  0.000000;0.000000;,
  0.000000;0.000000;,
  0.000000;0.000000;,
  0.000000;0.000000;,
  0.000000;0.000000;,
  0.000000;0.000000;,
  0.000000;0.000000;,
  0.000000;0.000000;,
  0.000000;1.000000;,
  0.000000;0.000000;,
  1.000000;0.000000;,
  1.000000;1.000000;,
  0.000000;1.000000;,
  0.000000;0.000000;,
  1.000000;0.000000;,
  1.000000;1.000000;,
  0.000000;1.000000;,
  0.000000;0.000000;,
  1.000000;0.000000;,
  1.000000;1.000000;,
  0.000000;1.000000;,
  0.000000;0.000000;,
  1.000000;0.000000;,
  1.000000;1.000000;,
  0.000000;1.000000;,
  0.000000;0.000000;,
  1.000000;0.000000;,
  1.000000;1.000000;,
  1.000000;1.000000;,
  1.000000;0.000000;,
  0.000000;0.000000;,
  0.000000;1.000000;,
  1.000000;1.000000;,
  1.000000;0.000000;,
  0.000000;0.000000;,
  0.000000;1.000000;,
  1.000000;0.000000;,
  0.000000;0.000000;,
  0.000000;1.000000;,
  1.000000;1.000000;,
  0.000000;0.000000;,
  1.000000;0.000000;,
  1.000000;1.000000;,
  0.000000;1.000000;,
  1.000000;1.000000;,
  1.000000;0.000000;,
  0.000000;0.000000;,
  0.000000;1.000000;;
 }

 MeshMaterialList {
  7;
  40;
  0,
  0,
  0,
  0,
  0,
  0,
  0,
  0,
  0,
  0,
  1,
  1,
  1,
  1,
  1,
  1,
  1,
  1,
  1,
  1,
  2,
  2,
  3,
  3,
  4,
  4,
  4,
  4,
  5,
  5,
  6,
  6,
  6,
  6,
  6,
  6,
  6,
  6,
  6,
  6;

  Material {
   0.105882;0.105882;0.105882;1.000000;;
   5.000000;
   0.000000;0.000000;0.000000;;
   0.000000;0.000000;0.000000;;
  }

  Material {
   0.513726;0.529412;0.478431;1.000000;;
   5.000000;
   0.000000;0.000000;0.000000;;
   0.000000;0.000000;0.000000;;
  }

  Material {
   1.000000;1.000000;1.000000;1.000000;;
   0.000000;
   0.000000;0.000000;0.000000;;
   0.000000;0.000000;0.000000;;

   TextureFilename {
    "xss2.dds";
   }
  }

  Material {
   1.000000;1.000000;1.000000;1.000000;;
   0.000000;
   0.000000;0.000000;0.000000;;
   0.000000;0.000000;0.000000;;

   TextureFilename {
    "xss1.dds";
   }
  }

  Material {
   1.000000;1.000000;1.000000;1.000000;;
   0.000000;
   0.000000;0.000000;0.000000;;
   0.000000;0.000000;0.000000;;

   TextureFilename {
    "rmp2.dds";
   }
  }

  Material {
   1.000000;1.000000;1.000000;1.000000;;
   0.000000;
   0.000000;0.000000;0.000000;;
   0.000000;0.000000;0.000000;;

   TextureFilename {
    "ter1.dds";
   }
  }

  Material {
   1.000000;1.000000;1.000000;1.000000;;
   0.000000;
   0.000000;0.000000;0.000000;;
   0.000000;0.000000;0.000000;;

   TextureFilename {
    "conc_dai.dds";
   }
  }
 }
}