xof 0303txt 0032

Header {
 1;
 0;
 1;
}

Mesh {
 345;
 1.40000;3.06102;-9.65002;,
 1.40000;3.06102;8.94998;,
 1.40000;1.90000;8.94998;,
 1.40000;1.90000;-9.65002;,
 -1.40000;3.06102;8.94998;,
 -1.40000;3.06102;-9.65002;,
 -1.40000;1.90000;-9.65002;,
 -1.40000;1.90000;8.94998;,
 -1.45000;3.25024;-6.40423;,
 -1.45000;2.86648;-6.40423;,
 -1.45000;2.86648;-5.10182;,
 -1.45000;3.25024;-5.10182;,
 1.45000;3.25024;-6.40423;,
 1.45000;3.25024;-5.10182;,
 1.45000;2.86648;-5.10182;,
 1.45000;2.86648;-6.40423;,
 -1.47500;1.55000;-9.75000;,
 1.47500;1.55000;-9.75000;,
 1.40000;1.00000;-9.75000;,
 -1.40000;1.00000;-9.75000;,
 -1.47500;2.15000;-9.75000;,
 1.47500;2.15000;-9.75000;,
 -1.47500;3.30000;-9.75000;,
 1.47500;3.30000;-9.75000;,
 -1.46500;3.35000;-9.75000;,
 1.46500;3.35000;-9.75000;,
 -1.35000;3.50000;-9.75000;,
 1.35000;3.50000;-9.75000;,
 -1.00000;3.58000;-9.75000;,
 1.00000;3.58000;-9.75000;,
 -0.70000;3.63000;-9.75000;,
 0.70000;3.63000;-9.75000;,
 -0.00000;3.65000;-9.75000;,
 1.47500;3.30000;-9.75000;,
 1.46500;3.35000;-9.75000;,
 1.46500;3.35000;8.44998;,
 1.47500;3.30000;8.44998;,
 1.35000;3.50000;-9.75000;,
 1.35000;3.50000;8.44998;,
 1.00000;3.58000;-9.75000;,
 1.00000;3.58000;8.44998;,
 0.70000;3.63000;-9.75000;,
 0.70000;3.63000;8.44998;,
 -0.00000;3.65000;-9.75000;,
 0.00000;3.65000;8.44998;,
 -1.47500;3.30000;-9.75000;,
 -1.47500;3.30000;8.44998;,
 -1.46500;3.35000;8.44998;,
 -1.46500;3.35000;-9.75000;,
 -1.35000;3.50000;8.44998;,
 -1.35000;3.50000;-9.75000;,
 -1.00000;3.58000;8.44998;,
 -1.00000;3.58000;-9.75000;,
 -0.70000;3.63000;8.44998;,
 -0.70000;3.63000;-9.75000;,
 -1.20000;3.45000;1.71179;,
 -1.20000;3.70000;1.71179;,
 -1.20000;3.70000;-1.68821;,
 -1.20000;3.45000;-1.68821;,
 -0.68000;3.95000;1.71179;,
 -0.68000;3.95000;-1.68821;,
 0.00000;4.05000;1.71179;,
 0.00000;4.05000;-1.68821;,
 0.68000;3.95000;1.71179;,
 0.68000;3.95000;-1.68821;,
 1.20000;3.70000;1.71179;,
 1.20000;3.70000;-1.68821;,
 1.20000;3.45000;1.71179;,
 1.20000;3.45000;-1.68821;,
 -1.20000;3.45000;-1.92262;,
 -1.20000;3.70000;-1.92262;,
 -1.20000;3.70000;-3.15176;,
 -1.20000;3.45000;-3.15176;,
 -0.68000;3.95000;-1.92262;,
 -0.68000;3.95000;-3.15176;,
 0.00000;4.05000;-1.92262;,
 0.00000;4.05000;-3.15176;,
 0.68000;3.95000;-1.92262;,
 0.68000;3.95000;-3.15176;,
 1.20000;3.70000;-1.92262;,
 1.20000;3.70000;-3.15176;,
 1.20000;3.45000;-1.92262;,
 1.20000;3.45000;-3.15176;,
 -1.20000;3.45000;3.15176;,
 -1.20000;3.70000;3.15176;,
 -1.20000;3.70000;1.92261;,
 -1.20000;3.45000;1.92261;,
 -0.68000;3.95000;3.15176;,
 -0.68000;3.95000;1.92261;,
 0.00000;4.05000;3.15176;,
 0.00000;4.05000;1.92261;,
 0.68000;3.95000;3.15176;,
 0.68000;3.95000;1.92261;,
 1.20000;3.70000;3.15176;,
 1.20000;3.70000;1.92261;,
 1.20000;3.45000;3.15176;,
 1.20000;3.45000;1.92261;,
 0.20000;3.67000;8.47809;,
 0.20000;3.67000;8.87809;,
 0.20000;3.30000;8.87809;,
 0.20000;3.30000;8.47809;,
 -0.20000;3.67000;8.47809;,
 -0.20000;3.67000;8.87809;,
 -0.20000;3.30000;8.87809;,
 -0.20000;3.30000;8.47809;,
 -0.09000;3.58000;8.05117;,
 -0.09000;3.58000;8.25117;,
 -0.09000;3.71000;8.35117;,
 -0.09000;3.71000;7.95117;,
 -0.06000;3.74000;8.35117;,
 -0.06000;3.74000;7.95117;,
 -0.03000;3.74000;8.35117;,
 -0.03000;3.74000;7.95117;,
 0.00000;3.71000;8.35117;,
 0.00000;3.71000;7.95117;,
 0.00000;3.58000;8.25117;,
 0.00000;3.58000;8.05117;,
 -0.05000;3.53275;9.06398;,
 -0.05000;3.78275;9.06398;,
 0.00000;3.78275;9.01398;,
 0.00000;3.53275;9.01398;,
 0.05000;3.78275;9.06398;,
 0.05000;3.53275;9.06398;,
 0.00000;3.78275;9.11398;,
 0.00000;3.53275;9.11398;,
 -0.07000;3.67775;9.06398;,
 -0.07000;3.73775;9.06398;,
 0.00000;3.73775;8.99398;,
 0.00000;3.67775;8.99398;,
 0.07000;3.73775;9.06398;,
 0.07000;3.67775;9.06398;,
 0.00000;3.73775;9.13398;,
 0.00000;3.67775;9.13398;,
 -0.07000;3.67000;8.67809;,
 -0.04000;3.92000;8.67809;,
 0.00000;3.92000;8.63809;,
 0.00000;3.67000;8.60809;,
 0.04000;3.92000;8.67809;,
 0.07000;3.67000;8.67809;,
 0.00000;3.92000;8.71809;,
 0.00000;3.67000;8.74809;,
 1.32000;1.20000;8.64998;,
 1.32000;1.20000;9.14998;,
 1.23000;0.40000;9.24998;,
 1.23000;0.40000;9.14998;,
 -1.32000;1.20000;9.14998;,
 -1.32000;1.20000;8.64998;,
 -1.23000;0.40000;8.94998;,
 -1.23000;0.40000;9.24998;,
 -0.31000;0.40000;9.59998;,
 -1.14000;0.40000;9.39998;,
 -1.21000;1.20000;9.29998;,
 -0.31000;1.20000;9.54998;,
 1.14000;0.40000;9.39998;,
 0.31000;0.40000;9.59998;,
 0.31000;1.20000;9.54998;,
 1.21000;1.20000;9.29998;,
 0.00000;0.40000;9.64998;,
 0.00000;1.20000;9.59998;,
 1.17000;0.17000;8.26047;,
 0.00000;0.17000;8.61047;,
 0.00000;0.40000;8.56047;,
 1.25000;0.40000;8.21047;,
 -1.17000;0.17000;8.26047;,
 -1.25000;0.40000;8.21047;,
 0.60000;0.93301;-7.55189;,
 0.60000;0.93301;-8.05189;,
 0.60000;1.00000;-7.80189;,
 0.90000;0.30000;-4.88970;,
 -0.90000;0.30000;-4.88970;,
 -0.90000;1.10000;-4.88970;,
 0.90000;1.10000;-4.88970;,
 -0.60000;0.06699;-8.05189;,
 0.60000;0.06699;-8.05189;,
 0.60000;0.00000;-7.80189;,
 -0.60000;-0.00000;-7.80189;,
 -0.60000;0.25000;-8.23490;,
 0.60000;0.25000;-8.23490;,
 -0.60000;0.50000;-8.30189;,
 0.60000;0.50000;-8.30189;,
 0.60000;0.75000;-8.23490;,
 -0.60000;0.75000;-8.23490;,
 -0.60000;0.93301;-8.05189;,
 -0.60000;1.00000;-7.80189;,
 0.60000;0.75000;-7.36887;,
 0.60000;0.50000;-7.30189;,
 0.60000;0.25000;-7.36888;,
 0.60000;0.06699;-7.55189;,
 -0.60000;0.93301;-7.55189;,
 -0.60000;0.75000;-7.36887;,
 -0.60000;0.50000;-7.30189;,
 -0.60000;0.25000;-7.36888;,
 -0.60000;0.06699;-7.55189;,
 0.60000;0.93301;-5.69297;,
 0.60000;0.93301;-6.19297;,
 0.60000;1.00000;-5.94297;,
 -0.60000;0.06699;-6.19297;,
 0.60000;0.06699;-6.19297;,
 0.60000;0.00000;-5.94297;,
 -0.60000;-0.00000;-5.94297;,
 -0.60000;0.25000;-6.37598;,
 0.60000;0.25000;-6.37598;,
 -0.60000;0.50000;-6.44297;,
 0.60000;0.50000;-6.44297;,
 0.60000;0.75000;-6.37598;,
 -0.60000;0.75000;-6.37598;,
 -0.60000;0.93301;-6.19297;,
 -0.60000;1.00000;-5.94297;,
 0.60000;0.75000;-5.50995;,
 0.60000;0.50000;-5.44297;,
 0.60000;0.25000;-5.50996;,
 0.60000;0.06699;-5.69297;,
 -0.60000;0.93301;-5.69297;,
 -0.60000;0.75000;-5.50995;,
 -0.60000;0.50000;-5.44297;,
 -0.60000;0.25000;-5.50996;,
 -0.60000;0.06699;-5.69297;,
 0.60000;0.93301;6.06852;,
 0.60000;0.93301;5.56851;,
 0.60000;1.00000;5.81851;,
 -0.60000;0.06699;5.56851;,
 0.60000;0.06699;5.56851;,
 0.60000;0.00000;5.81851;,
 -0.60000;-0.00000;5.81851;,
 -0.60000;0.25000;5.38550;,
 0.60000;0.25000;5.38550;,
 -0.60000;0.50000;5.31851;,
 0.60000;0.50000;5.31851;,
 0.60000;0.75000;5.38550;,
 -0.60000;0.75000;5.38550;,
 -0.60000;0.93301;5.56851;,
 -0.60000;1.00000;5.81851;,
 0.60000;0.75000;6.25153;,
 0.60000;0.50000;6.31851;,
 0.60000;0.25000;6.25153;,
 0.60000;0.06699;6.06851;,
 -0.60000;0.93301;6.06852;,
 -0.60000;0.75000;6.25153;,
 -0.60000;0.50000;6.31851;,
 -0.60000;0.25000;6.25153;,
 -0.60000;0.06699;6.06851;,
 0.60000;0.93301;7.93170;,
 0.60000;0.93301;7.43170;,
 0.60000;1.00000;7.68170;,
 -0.60000;0.06699;7.43170;,
 0.60000;0.06699;7.43170;,
 0.60000;0.00000;7.68170;,
 -0.60000;-0.00000;7.68170;,
 -0.60000;0.25000;7.24868;,
 0.60000;0.25000;7.24868;,
 -0.60000;0.50000;7.18170;,
 0.60000;0.50000;7.18170;,
 0.60000;0.75000;7.24868;,
 -0.60000;0.75000;7.24868;,
 -0.60000;0.93301;7.43170;,
 -0.60000;1.00000;7.68170;,
 0.60000;0.75000;8.11471;,
 0.60000;0.50000;8.18170;,
 0.60000;0.25000;8.11471;,
 0.60000;0.06699;7.93170;,
 -0.60000;0.93301;7.93170;,
 -0.60000;0.75000;8.11471;,
 -0.60000;0.50000;8.18170;,
 -0.60000;0.25000;8.11471;,
 -0.60000;0.06699;7.93170;,
 0.60000;0.00000;-7.80189;,
 0.60000;0.06699;-8.05189;,
 0.60000;0.06699;-7.55189;,
 0.60000;0.00000;-5.94297;,
 0.60000;0.06699;-6.19297;,
 0.60000;0.06699;-5.69297;,
 0.60000;0.00000;5.81851;,
 0.60000;0.06699;5.56851;,
 0.60000;0.06699;6.06851;,
 0.90000;1.10000;9.34998;,
 0.90000;1.10000;-9.65002;,
 0.90000;0.00000;-9.65002;,
 0.90000;0.00000;9.34998;,
 -0.90000;1.10000;9.34998;,
 -0.90000;1.10000;-9.65002;,
 -0.90000;0.00000;-9.65002;,
 -0.90000;0.00000;9.34998;,
 -0.90000;1.10000;-9.65002;,
 -0.90000;1.10000;9.34998;,
 -0.90000;0.00000;9.34998;,
 -0.90000;0.00000;-9.65002;,
 0.90000;1.10000;-9.65002;,
 0.90000;1.10000;9.34998;,
 0.90000;0.00000;9.34998;,
 0.90000;0.00000;-9.65002;,
 1.20000;0.00000;-9.55002;,
 -1.20000;0.00000;-9.55002;,
 -1.20000;1.10000;-9.55002;,
 1.20000;1.10000;-9.55002;,
 1.46500;3.30000;-9.75000;,
 1.46500;3.30000;9.05000;,
 1.47500;2.20000;9.05000;,
 1.47500;2.20000;-9.75000;,
 1.43500;3.30000;9.10000;,
 1.43500;2.20000;9.30000;,
 1.30000;3.30000;9.25000;,
 1.30000;2.20000;9.45000;,
 1.47500;1.60000;9.05000;,
 1.47500;1.60000;-9.75000;,
 1.43500;1.60000;9.30000;,
 1.30000;1.60000;9.45000;,
 1.40000;1.00000;9.05000;,
 1.40000;1.00000;-9.75000;,
 1.35000;1.00000;9.25000;,
 1.25000;1.00000;9.33000;,
 1.46500;3.30000;8.45000;,
 1.45500;3.35000;8.45000;,
 1.35000;3.50000;8.45000;,
 1.37000;3.45000;9.10000;,
 1.00000;3.58000;8.45000;,
 1.00000;3.53000;9.19000;,
 0.70000;3.63000;8.45000;,
 0.70000;3.56000;9.24000;,
 0.00000;3.65000;8.45000;,
 0.00000;3.58000;9.35000;,
 0.00000;3.30000;9.55000;,
 -1.46500;3.30000;-9.75000;,
 -1.47500;2.20000;-9.75000;,
 -1.47500;2.20000;9.05000;,
 -1.46500;3.30000;9.05000;,
 -1.43500;2.20000;9.30000;,
 -1.43500;3.30000;9.10000;,
 -1.30000;2.20000;9.45000;,
 -1.30000;3.30000;9.25000;,
 -1.47500;1.60000;-9.75000;,
 -1.47500;1.60000;9.05000;,
 -1.43500;1.60000;9.30000;,
 -1.30000;1.60000;9.45000;,
 -1.40000;1.00000;-9.75000;,
 -1.40000;1.00000;9.05000;,
 -1.35000;1.00000;9.25000;,
 -1.25000;1.00000;9.33000;,
 -1.46500;3.30000;8.45000;,
 -1.45500;3.35000;8.45000;,
 -1.37000;3.45000;9.10000;,
 -1.35000;3.50000;8.45000;,
 -1.00000;3.53000;9.19000;,
 -1.00000;3.58000;8.45000;,
 -0.70000;3.56000;9.24000;,
 -0.70000;3.63000;8.45000;;
 
 205;
 4;0,1,2,3;,
 4;4,5,6,7;,
 4;8,9,10,11;,
 4;12,13,14,15;,
 4;16,17,18,19;,
 4;20,21,17,16;,
 4;22,23,21,20;,
 4;24,25,23,22;,
 4;26,27,25,24;,
 4;28,29,27,26;,
 4;30,31,29,28;,
 3;32,31,30;,
 4;33,34,35,36;,
 4;34,37,38,35;,
 4;37,39,40,38;,
 4;39,41,42,40;,
 4;41,43,44,42;,
 4;45,46,47,48;,
 4;48,47,49,50;,
 4;50,49,51,52;,
 4;52,51,53,54;,
 4;54,53,44,43;,
 4;55,56,57,58;,
 4;56,59,60,57;,
 4;59,61,62,60;,
 4;61,63,64,62;,
 4;63,65,66,64;,
 4;65,67,68,66;,
 4;58,57,66,68;,
 4;66,57,60,64;,
 3;62,64,60;,
 4;69,70,71,72;,
 4;70,73,74,71;,
 4;73,75,76,74;,
 4;75,77,78,76;,
 4;77,79,80,78;,
 4;79,81,82,80;,
 4;72,71,80,82;,
 4;80,71,74,78;,
 3;76,78,74;,
 4;83,84,85,86;,
 4;84,87,88,85;,
 4;87,89,90,88;,
 4;89,91,92,90;,
 4;91,93,94,92;,
 4;93,95,96,94;,
 4;86,85,94,96;,
 4;94,85,88,92;,
 3;90,92,88;,
 4;97,98,99,100;,
 4;100,99,98,97;,
 4;101,102,103,104;,
 4;104,103,102,101;,
 4;101,102,98,97;,
 4;97,98,102,101;,
 4;105,106,107,108;,
 4;108,107,106,105;,
 4;108,107,109,110;,
 4;110,109,107,108;,
 4;110,109,111,112;,
 4;112,111,109,110;,
 4;112,111,113,114;,
 4;114,113,111,112;,
 4;114,113,115,116;,
 4;116,115,113,114;,
 4;117,118,119,120;,
 4;120,119,121,122;,
 4;122,121,123,124;,
 4;124,123,118,117;,
 4;125,126,127,128;,
 4;128,127,129,130;,
 4;130,129,131,132;,
 4;132,131,126,125;,
 4;133,134,135,136;,
 4;136,135,137,138;,
 4;138,137,139,140;,
 4;140,139,134,133;,
 4;141,142,143,144;,
 4;145,146,147,148;,
 4;149,150,151,152;,
 4;153,154,155,156;,
 4;154,157,158,155;,
 4;157,149,152,158;,
 4;143,153,156,142;,
 4;150,148,145,151;,
 4;159,160,161,162;,
 4;160,163,164,161;,
 3;165,166,167;,
 4;168,169,170,171;,
 4;172,173,174,175;,
 4;176,177,173,172;,
 4;178,179,177,176;,
 4;180,179,178,181;,
 4;166,180,181,182;,
 4;167,166,182,183;,
 4;180,184,185,179;,
 4;179,185,186,177;,
 4;177,186,187,173;,
 4;180,166,165,184;,
 3;188,183,182;,
 4;189,181,178,190;,
 4;190,178,176,191;,
 4;191,176,172,192;,
 3;192,172,175;,
 4;182,181,189,188;,
 3;193,194,195;,
 4;196,197,198,199;,
 4;200,201,197,196;,
 4;202,203,201,200;,
 4;204,203,202,205;,
 4;194,204,205,206;,
 4;195,194,206,207;,
 4;204,208,209,203;,
 4;203,209,210,201;,
 4;201,210,211,197;,
 4;204,194,193,208;,
 3;212,207,206;,
 4;213,205,202,214;,
 4;214,202,200,215;,
 4;215,200,196,216;,
 3;216,196,199;,
 4;206,205,213,212;,
 3;217,218,219;,
 4;220,221,222,223;,
 4;224,225,221,220;,
 4;226,227,225,224;,
 4;228,227,226,229;,
 4;218,228,229,230;,
 4;219,218,230,231;,
 4;228,232,233,227;,
 4;227,233,234,225;,
 4;225,234,235,221;,
 4;228,218,217,232;,
 3;236,231,230;,
 4;237,229,226,238;,
 4;238,226,224,239;,
 4;239,224,220,240;,
 3;240,220,223;,
 4;230,229,237,236;,
 3;241,242,243;,
 4;244,245,246,247;,
 4;248,249,245,244;,
 4;250,251,249,248;,
 4;252,251,250,253;,
 4;242,252,253,254;,
 4;243,242,254,255;,
 4;252,256,257,251;,
 4;251,257,258,249;,
 4;249,258,259,245;,
 4;252,242,241,256;,
 3;260,255,254;,
 4;261,253,250,262;,
 4;262,250,248,263;,
 4;263,248,244,264;,
 3;264,244,247;,
 4;254,253,261,260;,
 3;265,266,267;,
 3;268,269,270;,
 3;271,272,273;,
 3;246,245,259;,
 4;274,275,276,277;,
 4;278,279,280,281;,
 4;282,283,284,285;,
 4;286,287,288,289;,
 4;290,291,292,293;,
 4;294,295,296,297;,
 4;295,298,299,296;,
 4;298,300,301,299;,
 4;297,296,302,303;,
 4;296,299,304,302;,
 4;299,301,305,304;,
 4;303,302,306,307;,
 4;302,304,308,306;,
 4;304,305,309,308;,
 3;310,311,295;,
 4;311,312,313,295;,
 4;312,314,315,313;,
 4;314,316,317,315;,
 4;316,318,319,317;,
 3;295,313,298;,
 3;298,313,300;,
 3;313,315,300;,
 3;300,315,320;,
 3;315,317,320;,
 3;317,319,320;,
 4;321,322,323,324;,
 4;324,323,325,326;,
 4;326,325,327,328;,
 4;322,329,330,323;,
 4;323,330,331,325;,
 4;325,331,332,327;,
 4;329,333,334,330;,
 4;330,334,335,331;,
 4;331,335,336,332;,
 3;337,324,338;,
 4;338,324,339,340;,
 4;340,339,341,342;,
 4;342,341,343,344;,
 4;344,343,319,318;,
 3;324,326,339;,
 3;326,328,339;,
 3;339,328,341;,
 3;328,320,341;,
 3;341,320,343;,
 3;343,320,319;;
 
 MeshMaterialList {
  9;
  205;
  0,
  0,
  1,
  1,
  8,
  8,
  8,
  8,
  8,
  8,
  8,
  8,
  2,
  2,
  2,
  2,
  2,
  2,
  2,
  2,
  2,
  2,
  4,
  4,
  4,
  4,
  4,
  4,
  4,
  4,
  4,
  5,
  5,
  5,
  5,
  5,
  5,
  5,
  5,
  5,
  5,
  5,
  5,
  5,
  5,
  5,
  5,
  5,
  5,
  2,
  2,
  2,
  2,
  2,
  2,
  2,
  2,
  2,
  2,
  2,
  2,
  2,
  2,
  2,
  2,
  2,
  2,
  2,
  2,
  2,
  2,
  2,
  2,
  2,
  2,
  2,
  2,
  5,
  5,
  5,
  5,
  5,
  5,
  5,
  5,
  3,
  3,
  3,
  3,
  3,
  3,
  3,
  3,
  3,
  3,
  3,
  3,
  3,
  3,
  3,
  3,
  3,
  3,
  3,
  3,
  3,
  3,
  3,
  3,
  3,
  3,
  3,
  3,
  3,
  3,
  3,
  3,
  3,
  3,
  3,
  3,
  3,
  3,
  3,
  3,
  3,
  3,
  3,
  3,
  3,
  3,
  3,
  3,
  3,
  3,
  3,
  3,
  3,
  3,
  3,
  3,
  3,
  3,
  3,
  3,
  3,
  3,
  3,
  3,
  3,
  3,
  3,
  3,
  3,
  3,
  3,
  3,
  3,
  3,
  3,
  6,
  6,
  6,
  6,
  7,
  8,
  8,
  8,
  8,
  8,
  8,
  8,
  8,
  8,
  8,
  8,
  8,
  8,
  8,
  8,
  8,
  8,
  8,
  8,
  8,
  8,
  8,
  8,
  8,
  8,
  8,
  8,
  8,
  8,
  8,
  8,
  8,
  8,
  8,
  8,
  8,
  8,
  8,
  8,
  8;;
  Material {
   0.325000;0.325000;0.325000;1.000000;;
   0.000000;
   0.000000;0.000000;0.000000;;
   0.300000;0.300000;0.250000;;
  }
  Material {
   0.980000;0.980000;0.980000;1.000000;;
   0.000000;
   0.000000;0.000000;0.000000;;
   0.300000;0.300000;0.250000;;
  }
  Material {
   0.478000;0.478000;0.478000;1.000000;;
   0.000000;
   0.000000;0.000000;0.000000;;
   0.000000;0.000000;0.000000;;
  }
  Material {
   0.098000;0.098000;0.098000;1.000000;;
   5.000000;
   0.000000;0.000000;0.000000;;
   0.000000;0.000000;0.000000;;
  }
  Material {
   1.000000;1.000000;1.000000;1.000000;;
   0.000000;
   0.000000;0.000000;0.000000;;
   0.000000;0.000000;0.000000;;
   TextureFilename {
    "000_27.dds";
   }
  }
  Material {
   1.000000;1.000000;1.000000;1.000000;;
   0.000000;
   0.000000;0.000000;0.000000;;
   0.000000;0.000000;0.000000;;
   TextureFilename {
    "185_04.dds";
   }
  }
  Material {
   1.000000;1.000000;1.000000;1.000000;;
   5.000000;
   0.000000;0.000000;0.000000;;
   0.000000;0.000000;0.000000;;
   TextureFilename {
    "000_00.dds";
   }
  }
  Material {
   1.000000;1.000000;1.000000;1.000000;;
   5.000000;
   0.000000;0.000000;0.000000;;
   0.000000;0.000000;0.000000;;
   TextureFilename {
    "000_10.dds";
   }
  }
  Material {
   1.000000;1.000000;1.000000;1.000000;;
   0.000000;
   0.000000;0.000000;0.000000;;
   0.000000;0.000000;0.000000;;
   TextureFilename {
    "185_00.dds";
   }
  }
 }
 MeshNormals {
  146;
  1.000000;0.000000;-0.000000;,
  -1.000000;0.000000;0.000000;,
  -1.000000;0.000000;0.000001;,
  1.000000;0.000000;-0.000001;,
  0.000000;0.000000;-1.000000;,
  0.980581;0.196116;-0.000000;,
  0.910734;0.412994;-0.000000;,
  0.540232;0.841516;-0.000000;,
  0.193698;0.981061;-0.000000;,
  0.096705;0.995313;-0.000000;,
  0.000000;1.000000;0.000000;,
  -0.980581;0.196116;0.000000;,
  -0.910734;0.412994;0.000000;,
  -0.540232;0.841516;0.000000;,
  -0.193698;0.981061;0.000000;,
  -0.096705;0.995313;0.000000;,
  -1.000000;0.000000;0.000000;,
  -0.292728;0.956196;0.000000;,
  0.000000;1.000000;0.000000;,
  0.292728;0.956196;0.000000;,
  0.433294;0.901252;0.000000;,
  1.000000;0.000000;0.000000;,
  -0.292728;0.956196;0.000000;,
  0.292728;0.956196;0.000000;,
  0.433294;0.901252;0.000000;,
  -0.433294;0.901252;0.000000;,
  0.000000;0.000000;-1.000000;,
  -0.433294;0.901252;0.000000;,
  1.000000;0.000000;0.000000;,
  -1.000000;0.000000;0.000000;,
  0.000000;1.000000;0.000000;,
  0.000000;-1.000000;-0.000000;,
  -1.000000;0.000000;0.000000;,
  -0.923880;0.382683;0.000000;,
  -0.382683;0.923880;0.000000;,
  0.382683;0.923880;0.000000;,
  0.923880;0.382683;0.000000;,
  1.000000;0.000000;0.000000;,
  0.923880;-0.382683;-0.000000;,
  0.382683;-0.923880;-0.000000;,
  -0.382683;-0.923880;0.000000;,
  -0.923880;-0.382683;0.000000;,
  -1.000000;0.000000;0.000000;,
  0.000000;0.000000;-1.000000;,
  1.000000;0.000000;0.000000;,
  0.000000;0.000000;1.000000;,
  -0.992877;0.119145;0.000000;,
  0.000000;0.119145;-0.992877;,
  0.992877;0.119145;0.000000;,
  0.000000;0.119145;0.992877;,
  0.993731;-0.111795;-0.000000;,
  -0.580294;-0.034754;-0.813665;,
  -0.204790;-0.070188;-0.976286;,
  0.000000;-0.062378;-0.998053;,
  0.204790;-0.070188;-0.976286;,
  0.580294;-0.034754;-0.813665;,
  -0.993731;-0.111795;0.000000;,
  -0.832759;0.013773;-0.553465;,
  0.832759;0.013773;-0.553464;,
  -0.274502;-0.159504;-0.948265;,
  0.000000;-0.165876;-0.986147;,
  0.274502;-0.159504;-0.948265;,
  1.000000;0.000015;0.000000;,
  -0.000002;0.965926;-0.258818;,
  1.000000;0.000007;0.000000;,
  -0.000001;0.866027;-0.499998;,
  -0.000001;0.500000;-0.866026;,
  0.000000;0.000000;-1.000000;,
  0.000001;-0.500000;-0.866026;,
  0.000001;-0.866026;-0.499999;,
  0.000002;-0.965925;-0.258822;,
  1.000000;0.000005;0.000000;,
  -1.000000;-0.000007;-0.000000;,
  1.000000;0.000003;0.000000;,
  -1.000000;0.000000;0.000000;,
  1.000000;0.000000;0.000000;,
  -1.000000;-0.000003;-0.000000;,
  1.000000;0.000015;0.000000;,
  1.000000;0.000007;0.000000;,
  -0.000001;0.866026;-0.499999;,
  -0.000001;0.500000;-0.866025;,
  0.000001;-0.500000;-0.866025;,
  0.000001;-0.866025;-0.500000;,
  -1.000000;-0.000003;-0.000000;,
  1.000000;0.000015;0.000000;,
  1.000000;0.000007;0.000000;,
  -0.000001;0.499999;-0.866026;,
  0.000001;-0.499999;-0.866026;,
  1.000000;0.000005;0.000000;,
  1.000000;0.000003;0.000000;,
  -1.000000;-0.000003;-0.000000;,
  -1.000000;-0.000015;-0.000000;,
  -1.000000;0.000000;0.000000;,

  1.000000;0.000000;-0.000000;,
  0.000000;0.000000;-1.000000;,
  0.999959;0.009091;-0.000000;,
  0.955358;0.035778;0.178043;,
  0.991952;0.006993;0.126418;,
  0.999990;0.004545;-0.000000;,
  0.814747;0.202946;0.543139;,
  0.880070;0.035982;0.473479;,
  0.513270;0.395526;0.761652;,
  0.741932;0.060481;0.667742;,
  -0.000000;0.526290;0.850305;,
  0.993816;-0.065414;0.089731;,
  0.998068;-0.062137;-0.000000;,
  0.885787;-0.080921;0.456983;,
  0.712802;-0.086665;0.695990;,
  0.986387;-0.130664;0.099841;,
  0.992278;-0.124035;-0.000000;,
  0.862516;-0.161628;0.479523;,
  0.675777;-0.172534;0.716630;,
  0.980581;0.196116;0.000000;,
  0.924287;0.381495;0.012474;,
  0.569168;0.820751;0.049145;,
  0.646818;0.623959;0.438523;,
  0.181709;0.980710;0.072042;,
  0.235367;0.784188;0.574153;,
  0.086821;0.992998;0.080100;,
  0.141358;0.851396;0.505117;,
  0.000000;0.996557;0.082905;,
  0.000000;0.870531;0.492114;,
  -0.999959;0.009091;0.000000;,
  -0.955358;0.035778;0.178043;,
  -0.991952;0.006993;0.126418;,
  -0.999990;0.004545;0.000000;,
  -0.814747;0.202946;0.543139;,
  -0.880070;0.035982;0.473479;,
  -0.513270;0.395526;0.761652;,
  -0.741932;0.060481;0.667742;,
  -0.993816;-0.065414;0.089731;,
  -0.998068;-0.062137;0.000000;,
  -0.885787;-0.080921;0.456983;,
  -0.712803;-0.086665;0.695990;,
  -0.986387;-0.130664;0.099841;,
  -0.992278;-0.124035;0.000000;,
  -0.862516;-0.161628;0.479522;,
  -0.675777;-0.172534;0.716629;,
  -0.980581;0.196116;0.000000;,
  -0.924287;0.381495;0.012474;,
  -0.569168;0.820751;0.049145;,
  -0.646818;0.623959;0.438523;,
  -0.181709;0.980710;0.072042;,
  -0.235367;0.784188;0.574153;,
  -0.086821;0.992998;0.080100;,
  -0.141358;0.851396;0.505117;;
  205;
  4;0,0,0,0;,
  4;1,1,1,1;,
  4;2,2,2,2;,
  4;3,3,3,3;,
  4;4,4,4,4;,
  4;4,4,4,4;,
  4;4,4,4,4;,
  4;4,4,4,4;,
  4;4,4,4,4;,
  4;4,4,4,4;,
  4;4,4,4,4;,
  3;4,4,4;,
  4;5,6,6,5;,
  4;6,7,7,6;,
  4;7,8,8,7;,
  4;8,9,9,8;,
  4;9,10,10,9;,
  4;11,11,12,12;,
  4;12,12,13,13;,
  4;13,13,14,14;,
  4;14,14,15,15;,
  4;15,15,10,10;,
  4;16,16,16,16;,
  4;25,17,17,25;,
  4;17,18,18,17;,
  4;18,19,19,18;,
  4;19,20,20,19;,
  4;21,21,21,21;,
  4;26,26,26,26;,
  4;26,26,26,26;,
  3;26,26,26;,
  4;16,16,16,16;,
  4;25,17,17,25;,
  4;17,18,18,17;,
  4;18,19,19,18;,
  4;19,20,20,19;,
  4;21,21,21,21;,
  4;26,26,26,26;,
  4;26,26,26,26;,
  3;26,26,26;,
  4;16,16,16,16;,
  4;27,22,22,27;,
  4;22,18,18,22;,
  4;18,23,23,18;,
  4;23,24,24,23;,
  4;21,21,21,21;,
  4;26,26,26,26;,
  4;26,26,26,26;,
  3;26,26,26;,
  4;28,28,28,28;,
  4;29,29,29,29;,
  4;28,28,28,28;,
  4;29,29,29,29;,
  4;30,30,30,30;,
  4;31,31,31,31;,
  4;32,32,33,33;,
  4;38,38,37,37;,
  4;33,33,34,34;,
  4;39,39,38,38;,
  4;34,34,35,35;,
  4;40,40,39,39;,
  4;35,35,36,36;,
  4;41,41,40,40;,
  4;36,36,37,37;,
  4;32,32,41,41;,
  4;42,42,43,43;,
  4;43,43,44,44;,
  4;44,44,45,45;,
  4;45,45,42,42;,
  4;42,42,43,43;,
  4;43,43,44,44;,
  4;44,44,45,45;,
  4;45,45,42,42;,
  4;46,46,47,47;,
  4;47,47,48,48;,
  4;48,48,49,49;,
  4;49,49,46,46;,
  4;50,50,50,50;,
  4;56,56,56,56;,
  4;54,55,55,54;,
  4;51,52,52,51;,
  4;52,53,53,52;,
  4;53,54,54,53;,
  4;57,51,51,57;,
  4;55,58,58,55;,
  4;59,60,60,59;,
  4;60,61,61,60;,
  3;64,64,62;,
  4;67,67,67,67;,
  4;69,69,70,70;,
  4;68,68,69,69;,
  4;67,67,68,68;,
  4;66,67,67,66;,
  4;65,66,66,65;,
  4;63,65,65,63;,
  4;75,75,75,75;,
  4;75,75,73,73;,
  4;73,73,71,71;,
  4;75,64,64,75;,
  3;76,74,76;,
  4;76,76,74,74;,
  4;74,74,74,74;,
  4;74,74,72,72;,
  3;72,72,91;,
  4;76,76,76,76;,
  3;78,78,77;,
  4;82,82,70,70;,
  4;81,81,82,82;,
  4;67,67,81,81;,
  4;80,67,67,80;,
  4;79,80,80,79;,
  4;63,79,79,63;,
  4;75,75,75,75;,
  4;75,75,73,73;,
  4;73,73,71,71;,
  4;75,78,78,75;,
  3;83,74,83;,
  4;83,83,74,74;,
  4;74,74,74,74;,
  4;74,74,72,72;,
  3;72,72,91;,
  4;83,83,83,83;,
  3;85,85,84;,
  4;82,82,70,70;,
  4;87,87,82,82;,
  4;67,67,87,87;,
  4;86,67,67,86;,
  4;79,86,86,79;,
  4;63,79,79,63;,
  4;75,75,75,75;,
  4;75,75,89,89;,
  4;89,89,88,88;,
  4;75,85,85,75;,
  3;90,74,90;,
  4;90,90,74,74;,
  4;74,74,74,74;,
  4;74,74,72,72;,
  3;72,72,91;,
  4;90,90,90,90;,
  3;85,85,84;,
  4;82,82,70,70;,
  4;87,87,82,82;,
  4;67,67,87,87;,
  4;86,67,67,86;,
  4;79,86,86,79;,
  4;63,79,79,63;,
  4;75,75,75,75;,
  4;75,75,89,89;,
  4;89,89,89,89;,
  4;75,85,85,75;,
  3;90,74,90;,
  4;90,90,74,74;,
  4;74,74,74,74;,
  4;74,74,72,72;,
  3;72,72,91;,
  4;90,90,90,90;,
  3;75,75,75;,
  3;75,75,75;,
  3;75,75,75;,
  3;75,89,89;,
  4;92,92,92,92;,
  4;92,92,92,92;,
  4;93,93,93,93;,
  4;93,93,93,93;,
  4;94,94,94,94;,
  4;95,96,97,98;,
  4;96,99,100,97;,
  4;99,101,102,100;,
  4;98,97,104,105;,
  4;97,100,106,104;,
  4;100,102,107,106;,
  4;105,104,108,109;,
  4;104,106,110,108;,
  4;106,107,111,110;,
  3;112,113,96;,
  4;113,114,115,96;,
  4;114,116,117,115;,
  4;116,118,119,117;,
  4;118,120,121,119;,
  3;96,115,99;,
  3;99,115,101;,
  3;115,117,101;,
  3;101,117,103;,
  3;117,119,103;,
  3;119,121,103;,
  4;122,125,124,123;,
  4;123,124,127,126;,
  4;126,127,129,128;,
  4;125,131,130,124;,
  4;124,130,132,127;,
  4;127,132,133,129;,
  4;131,135,134,130;,
  4;130,134,136,132;,
  4;132,136,137,133;,
  3;138,123,139;,
  4;139,123,141,140;,
  4;140,141,143,142;,
  4;142,143,145,144;,
  4;144,145,121,120;,
  3;123,126,141;,
  3;126,128,141;,
  3;141,128,143;,
  3;128,103,143;,
  3;143,103,145;,
  3;145,103,121;;
 }
 MeshTextureCoords {
  345;
  0.000000;0.000000;,
  0.000000;0.000000;,
  0.000000;0.000000;,
  0.000000;0.000000;,
  0.000000;0.000000;,
  0.000000;0.000000;,
  0.000000;0.000000;,
  0.000000;0.000000;,
  0.000000;0.000000;,
  1.000000;0.000000;,
  1.000000;1.000000;,
  0.000000;1.000000;,
  0.000000;0.000000;,
  0.000000;1.000000;,
  1.000000;1.000000;,
  1.000000;0.000000;,
  0.264450;0.189890;,
  0.286350;0.190370;,
  0.285800;0.223070;,
  0.265010;0.222600;,
  0.264440;0.154220;,
  0.286350;0.154680;,
  0.264440;0.085820;,
  0.286360;0.086240;,
  0.264510;0.082850;,
  0.286280;0.083260;,
  0.265370;0.073940;,
  0.285430;0.074310;,
  0.267960;0.069230;,
  0.282820;0.069500;,
  0.270190;0.066290;,
  0.280590;0.066480;,
  0.275390;0.065200;,
  0.000000;0.000000;,
  0.000000;0.000000;,
  0.000000;0.000000;,
  0.000000;0.000000;,
  0.000000;0.000000;,
  0.000000;0.000000;,
  0.000000;0.000000;,
  0.000000;0.000000;,
  0.000000;0.000000;,
  0.000000;0.000000;,
  0.000000;0.000000;,
  0.000000;0.000000;,
  0.000000;0.000000;,
  0.000000;0.000000;,
  0.000000;0.000000;,
  0.000000;0.000000;,
  0.000000;0.000000;,
  0.000000;0.000000;,
  0.000000;0.000000;,
  0.000000;0.000000;,
  0.000000;0.000000;,
  0.000000;0.000000;,
  1.000000;0.980000;,
  0.930000;0.980000;,
  0.930000;0.020000;,
  1.000000;0.021050;,
  0.744070;0.980000;,
  0.744070;0.020000;,
  0.500000;0.980000;,
  0.500000;0.020000;,
  0.247920;0.980000;,
  0.247920;0.020000;,
  0.070000;0.980000;,
  0.070000;0.020000;,
  0.001210;0.980040;,
  0.000000;0.020000;,
  0.995300;0.489120;,
  0.995300;0.421670;,
  0.752150;0.421670;,
  0.752150;0.489120;,
  0.995300;0.223990;,
  0.752150;0.223990;,
  0.995300;0.006170;,
  0.752150;0.006170;,
  0.995300;0.223990;,
  0.752150;0.223990;,
  0.995300;0.421670;,
  0.752150;0.421670;,
  0.995300;0.489120;,
  0.752150;0.489120;,
  0.751690;0.491480;,
  0.751690;0.423210;,
  0.997010;0.423210;,
  0.997010;0.491480;,
  0.751690;0.223120;,
  0.997010;0.223120;,
  0.751690;0.002630;,
  0.997010;0.002630;,
  0.751690;0.223120;,
  0.997010;0.223120;,
  0.751690;0.423210;,
  0.997010;0.423210;,
  0.751690;0.491480;,
  0.997010;0.491480;,
  0.000000;0.000000;,
  0.000000;0.000000;,
  0.000000;0.000000;,
  0.000000;0.000000;,
  0.000000;0.000000;,
  0.000000;0.000000;,
  0.000000;0.000000;,
  0.000000;0.000000;,
  0.000000;0.000000;,
  0.000000;0.000000;,
  0.000000;0.000000;,
  0.000000;0.000000;,
  0.000000;0.000000;,
  0.000000;0.000000;,
  0.000000;0.000000;,
  0.000000;0.000000;,
  0.000000;0.000000;,
  0.000000;0.000000;,
  0.000000;0.000000;,
  0.000000;0.000000;,
  0.000000;0.000000;,
  0.000000;0.000000;,
  0.000000;0.000000;,
  0.000000;0.000000;,
  0.000000;0.000000;,
  0.000000;0.000000;,
  0.000000;0.000000;,
  0.000000;0.000000;,
  0.000000;0.000000;,
  0.000000;0.000000;,
  0.000000;0.000000;,
  0.000000;0.000000;,
  0.000000;0.000000;,
  0.000000;0.000000;,
  0.000000;0.000000;,
  0.000000;0.000000;,
  0.000000;0.000000;,
  0.000000;0.000000;,
  0.000000;0.000000;,
  0.000000;0.000000;,
  0.000000;0.000000;,
  0.000000;0.000000;,
  0.000000;0.000000;,
  0.000000;0.000000;,
  0.000000;0.450000;,
  0.000000;0.450000;,
  0.010000;1.000000;,
  0.010000;1.000000;,
  0.990000;0.450000;,
  1.000000;0.450000;,
  1.000000;1.000000;,
  0.990000;1.000000;,
  0.650000;1.000000;,
  0.940000;1.000000;,
  0.965000;0.450000;,
  0.650000;0.450000;,
  0.060000;1.000000;,
  0.350000;1.000000;,
  0.350000;0.450000;,
  0.045000;0.450000;,
  0.500000;1.000000;,
  0.500000;0.450000;,
  0.000000;0.000000;,
  0.000000;0.000000;,
  0.000000;0.000000;,
  0.000000;0.000000;,
  0.000000;0.000000;,
  0.000000;0.000000;,
  0.000000;0.000000;,
  0.000000;0.000000;,
  0.000000;0.000000;,
  0.000000;0.000000;,
  0.000000;0.000000;,
  0.000000;0.000000;,
  0.000000;0.000000;,
  0.000000;0.000000;,
  0.000000;0.000000;,
  0.000000;0.000000;,
  0.000000;0.000000;,
  0.000000;0.000000;,
  0.000000;0.000000;,
  0.000000;0.000000;,
  0.000000;0.000000;,
  0.000000;0.000000;,
  0.000000;0.000000;,
  0.000000;0.000000;,
  0.000000;0.000000;,
  0.000000;0.000000;,
  0.000000;0.000000;,
  0.000000;0.000000;,
  0.000000;0.000000;,
  0.000000;0.000000;,
  0.000000;0.000000;,
  0.000000;0.000000;,
  0.000000;0.000000;,
  0.000000;0.000000;,
  0.000000;0.000000;,
  0.000000;0.000000;,
  0.000000;0.000000;,
  0.000000;0.000000;,
  0.000000;0.000000;,
  0.000000;0.000000;,
  0.000000;0.000000;,
  0.000000;0.000000;,
  0.000000;0.000000;,
  0.000000;0.000000;,
  0.000000;0.000000;,
  0.000000;0.000000;,
  0.000000;0.000000;,
  0.000000;0.000000;,
  0.000000;0.000000;,
  0.000000;0.000000;,
  0.000000;0.000000;,
  0.000000;0.000000;,
  0.000000;0.000000;,
  0.000000;0.000000;,
  0.000000;0.000000;,
  0.000000;0.000000;,
  0.000000;0.000000;,
  0.000000;0.000000;,
  0.000000;0.000000;,
  0.000000;0.000000;,
  0.000000;0.000000;,
  0.000000;0.000000;,
  0.000000;0.000000;,
  0.000000;0.000000;,
  0.000000;0.000000;,
  0.000000;0.000000;,
  0.000000;0.000000;,
  0.000000;0.000000;,
  0.000000;0.000000;,
  0.000000;0.000000;,
  0.000000;0.000000;,
  0.000000;0.000000;,
  0.000000;0.000000;,
  0.000000;0.000000;,
  0.000000;0.000000;,
  0.000000;0.000000;,
  0.000000;0.000000;,
  0.000000;0.000000;,
  0.000000;0.000000;,
  0.000000;0.000000;,
  0.000000;0.000000;,
  0.000000;0.000000;,
  0.000000;0.000000;,
  0.000000;0.000000;,
  0.000000;0.000000;,
  0.000000;0.000000;,
  0.000000;0.000000;,
  0.000000;0.000000;,
  0.000000;0.000000;,
  0.000000;0.000000;,
  0.000000;0.000000;,
  0.000000;0.000000;,
  0.000000;0.000000;,
  0.000000;0.000000;,
  0.000000;0.000000;,
  0.000000;0.000000;,
  0.000000;0.000000;,
  0.000000;0.000000;,
  0.000000;0.000000;,
  0.000000;0.000000;,
  0.000000;0.000000;,
  0.000000;0.000000;,
  0.000000;0.000000;,
  0.000000;0.000000;,
  0.000000;0.000000;,
  0.000000;0.000000;,
  0.000000;0.000000;,
  0.000000;0.000000;,
  0.000000;0.000000;,
  0.000000;0.000000;,
  0.000000;0.000000;,
  0.000000;0.000000;,
  0.000000;0.000000;,
  0.000000;0.000000;,
  0.000000;0.000000;,
  0.015000;0.000000;,
  0.990000;0.000000;,
  0.990000;0.990000;,
  0.015000;0.990000;,
  0.015000;0.000000;,
  0.990000;0.000000;,
  0.990000;0.990000;,
  0.015000;0.990000;,
  0.990000;0.000000;,
  0.015000;0.000000;,
  0.015000;0.990000;,
  0.990000;0.990000;,
  0.990000;0.000000;,
  0.015000;0.000000;,
  0.015000;0.990000;,
  0.990000;0.990000;,
  0.000000;0.990000;,
  1.000000;0.990000;,
  1.000000;0.000000;,
  0.000000;0.000000;,
  1.000000;0.005000;,
  0.089000;0.005000;,
  0.089000;0.500000;,
  1.000000;0.500000;,
  0.080000;0.005000;,
  0.080000;0.500000;,
  0.068000;0.005000;,
  0.068000;0.500000;,
  0.089000;0.700000;,
  1.000000;0.700000;,
  0.075000;0.700000;,
  0.068000;0.700000;,
  0.089000;0.995000;,
  1.000000;0.995000;,
  0.075000;0.995000;,
  0.066000;0.995000;,
  0.800000;0.005000;,
  0.800000;0.004500;,
  0.800000;0.004000;,
  0.890000;0.004000;,
  0.800000;0.003500;,
  0.890000;0.003500;,
  0.800000;0.003000;,
  0.890000;0.003000;,
  0.800000;0.002500;,
  0.890000;0.002500;,
  0.001000;0.005000;,
  1.000000;0.005000;,
  1.000000;0.500000;,
  0.089000;0.500000;,
  0.089000;0.005000;,
  0.080000;0.500000;,
  0.080000;0.005000;,
  0.068000;0.500000;,
  0.068000;0.005000;,
  1.000000;0.700000;,
  0.089000;0.700000;,
  0.075000;0.700000;,
  0.068000;0.700000;,
  1.000000;0.995000;,
  0.089000;0.995000;,
  0.075000;0.995000;,
  0.066000;0.995000;,
  0.800000;0.005000;,
  0.800000;0.004500;,
  0.890000;0.004000;,
  0.800000;0.004000;,
  0.890000;0.003500;,
  0.800000;0.003500;,
  0.890000;0.003000;,
  0.800000;0.003000;;
 }
}
