xof 0303txt 0032

Header {
 1;
 0;
 1;
}

Mesh {
 551;
 -1.40000;3.06102;9.65000;,
 -1.40000;3.06102;-8.95000;,
 -1.40000;1.90000;-8.95000;,
 -1.40000;1.90000;9.65000;,
 1.40000;3.06102;-8.95000;,
 1.40000;3.06102;9.65000;,
 1.40000;1.90000;9.65000;,
 1.40000;1.90000;-8.95000;,
 1.45000;3.25024;6.40421;,
 1.45000;2.86648;6.40421;,
 1.45000;2.86648;5.10180;,
 1.45000;3.25024;5.10180;,
 -1.45000;3.25024;6.40421;,
 -1.45000;3.25024;5.10180;,
 -1.45000;2.86648;5.10180;,
 -1.45000;2.86648;6.40421;,
 -1.47500;3.30000;9.75000;,
 -1.46500;3.35000;9.75000;,
 -1.46500;3.35000;-8.45000;,
 -1.47500;3.30000;-8.45000;,
 -1.35000;3.50000;9.75000;,
 -1.35000;3.50000;-8.45000;,
 -1.00000;3.58000;9.75000;,
 -1.00000;3.58000;-8.45000;,
 -0.70000;3.63000;9.75000;,
 -0.70000;3.63000;-8.45000;,
 0.00000;3.65000;9.75000;,
 0.00000;3.65000;-8.45000;,
 1.47500;3.30000;9.75000;,
 1.47500;3.30000;-8.45000;,
 1.46500;3.35000;-8.45000;,
 1.46500;3.35000;9.75000;,
 1.35000;3.50000;-8.45000;,
 1.35000;3.50000;9.75000;,
 1.00000;3.58000;-8.45000;,
 1.00000;3.58000;9.75000;,
 0.70000;3.63000;-8.45000;,
 0.70000;3.63000;9.75000;,
 -0.20000;3.67000;-8.47811;,
 -0.20000;3.67000;-8.87811;,
 -0.20000;3.30000;-8.87811;,
 -0.20000;3.30000;-8.47811;,
 0.20000;3.67000;-8.47811;,
 0.20000;3.67000;-8.87811;,
 0.20000;3.30000;-8.87811;,
 0.20000;3.30000;-8.47811;,
 0.09000;3.58000;-8.05119;,
 0.09000;3.58000;-8.25119;,
 0.09000;3.71000;-8.35119;,
 0.09000;3.71000;-7.95119;,
 0.06000;3.74000;-8.35119;,
 0.06000;3.74000;-7.95119;,
 0.03000;3.74000;-8.35119;,
 0.03000;3.74000;-7.95119;,
 0.00000;3.71000;-8.35119;,
 0.00000;3.71000;-7.95119;,
 0.00000;3.58000;-8.25119;,
 0.00000;3.58000;-8.05119;,
 -1.20000;3.45000;1.71179;,
 -1.20000;3.70000;1.71179;,
 -1.20000;3.70000;-1.68821;,
 -1.20000;3.45000;-1.68821;,
 -0.68000;3.95000;1.71179;,
 -0.68000;3.95000;-1.68821;,
 0.00000;4.05000;1.71179;,
 0.00000;4.05000;-1.68821;,
 0.68000;3.95000;1.71179;,
 0.68000;3.95000;-1.68821;,
 1.20000;3.70000;1.71179;,
 1.20000;3.70000;-1.68821;,
 1.20000;3.45000;1.71179;,
 1.20000;3.45000;-1.68821;,
 -1.20000;3.45000;-1.92262;,
 -1.20000;3.70000;-1.92262;,
 -1.20000;3.70000;-3.15176;,
 -1.20000;3.45000;-3.15176;,
 -0.68000;3.95000;-1.92262;,
 -0.68000;3.95000;-3.15176;,
 0.00000;4.05000;-1.92262;,
 0.00000;4.05000;-3.15176;,
 0.68000;3.95000;-1.92262;,
 0.68000;3.95000;-3.15176;,
 1.20000;3.70000;-1.92262;,
 1.20000;3.70000;-3.15176;,
 1.20000;3.45000;-1.92262;,
 1.20000;3.45000;-3.15176;,
 -1.20000;3.45000;3.15176;,
 -1.20000;3.70000;3.15176;,
 -1.20000;3.70000;1.92261;,
 -1.20000;3.45000;1.92261;,
 -0.68000;3.95000;3.15176;,
 -0.68000;3.95000;1.92261;,
 0.00000;4.05000;3.15176;,
 0.00000;4.05000;1.92261;,
 0.68000;3.95000;3.15176;,
 0.68000;3.95000;1.92261;,
 1.20000;3.70000;3.15176;,
 1.20000;3.70000;1.92261;,
 1.20000;3.45000;3.15176;,
 1.20000;3.45000;1.92261;,
 0.05000;3.53275;-9.06400;,
 0.05000;3.78275;-9.06400;,
 0.00000;3.78275;-9.01400;,
 0.00000;3.53275;-9.01400;,
 -0.05000;3.78275;-9.06400;,
 -0.05000;3.53275;-9.06400;,
 0.00000;3.78275;-9.11400;,
 0.00000;3.53275;-9.11400;,
 0.07000;3.67775;-9.06400;,
 0.07000;3.73775;-9.06400;,
 0.00000;3.73775;-8.99400;,
 0.00000;3.67775;-8.99400;,
 -0.07000;3.73775;-9.06400;,
 -0.07000;3.67775;-9.06400;,
 0.00000;3.73775;-9.13400;,
 0.00000;3.67775;-9.13400;,
 0.07000;3.67000;-8.67811;,
 0.04000;3.92000;-8.67811;,
 0.00000;3.92000;-8.63811;,
 0.00000;3.67000;-8.60811;,
 -0.04000;3.92000;-8.67811;,
 -0.07000;3.67000;-8.67811;,
 0.00000;3.92000;-8.71811;,
 0.00000;3.67000;-8.74811;,
 0.96200;1.37000;-9.44250;,
 0.97000;1.37000;-9.59000;,
 0.98072;1.33000;-9.59000;,
 0.97379;1.32644;-9.44250;,
 1.01000;1.30072;-9.59000;,
 1.00600;1.29455;-9.44250;,
 1.05000;1.29000;-9.59000;,
 1.05000;1.28288;-9.44250;,
 1.09000;1.30072;-9.59000;,
 1.09400;1.29455;-9.44250;,
 1.11928;1.33000;-9.59000;,
 1.12621;1.32644;-9.44250;,
 1.13000;1.37000;-9.59000;,
 1.13800;1.37000;-9.44250;,
 1.11928;1.41000;-9.59000;,
 1.12621;1.41356;-9.44250;,
 1.09000;1.43928;-9.59000;,
 1.09400;1.44545;-9.44250;,
 1.05000;1.45000;-9.59000;,
 1.05000;1.45712;-9.44250;,
 1.01000;1.43928;-9.59000;,
 1.00600;1.44545;-9.44250;,
 0.98072;1.41000;-9.59000;,
 0.97379;1.41356;-9.44250;,
 1.01000;1.43928;-9.59000;,
 1.05000;1.45000;-9.59000;,
 1.05000;1.43600;-9.57500;,
 1.01700;1.42716;-9.57500;,
 0.99284;1.40300;-9.57500;,
 0.98072;1.41000;-9.59000;,
 0.98400;1.37000;-9.57500;,
 0.97000;1.37000;-9.59000;,
 0.99284;1.33700;-9.57500;,
 0.98072;1.33000;-9.59000;,
 1.01700;1.31284;-9.57500;,
 1.01000;1.30072;-9.59000;,
 1.05000;1.30400;-9.57500;,
 1.05000;1.29000;-9.59000;,
 1.08300;1.31284;-9.57500;,
 1.09000;1.30072;-9.59000;,
 1.10716;1.33700;-9.57500;,
 1.11928;1.33000;-9.59000;,
 1.11600;1.37000;-9.57500;,
 1.13000;1.37000;-9.59000;,
 1.10716;1.40300;-9.57500;,
 1.11928;1.41000;-9.59000;,
 1.08300;1.42716;-9.57500;,
 1.09000;1.43928;-9.59000;,
 -0.96200;1.37000;-9.44250;,
 -0.97379;1.32644;-9.44250;,
 -0.98072;1.33000;-9.59000;,
 -0.97000;1.37000;-9.59000;,
 -1.00600;1.29455;-9.44250;,
 -1.01000;1.30072;-9.59000;,
 -1.05000;1.28288;-9.44250;,
 -1.05000;1.29000;-9.59000;,
 -1.09400;1.29455;-9.44250;,
 -1.09000;1.30072;-9.59000;,
 -1.12621;1.32644;-9.44250;,
 -1.11928;1.33000;-9.59000;,
 -1.13800;1.37000;-9.44250;,
 -1.13000;1.37000;-9.59000;,
 -1.12621;1.41356;-9.44250;,
 -1.11928;1.41000;-9.59000;,
 -1.09400;1.44545;-9.44250;,
 -1.09000;1.43928;-9.59000;,
 -1.05000;1.45712;-9.44250;,
 -1.05000;1.45000;-9.59000;,
 -1.00600;1.44545;-9.44250;,
 -1.01000;1.43928;-9.59000;,
 -0.97379;1.41356;-9.44250;,
 -0.98072;1.41000;-9.59000;,
 -1.01000;1.43928;-9.59000;,
 -1.01700;1.42716;-9.57500;,
 -1.05000;1.43600;-9.57500;,
 -1.05000;1.45000;-9.59000;,
 -0.98072;1.41000;-9.59000;,
 -0.99284;1.40300;-9.57500;,
 -0.97000;1.37000;-9.59000;,
 -0.98400;1.37000;-9.57500;,
 -0.98072;1.33000;-9.59000;,
 -0.99284;1.33700;-9.57500;,
 -1.01000;1.30072;-9.59000;,
 -1.01700;1.31284;-9.57500;,
 -1.05000;1.29000;-9.59000;,
 -1.05000;1.30400;-9.57500;,
 -1.09000;1.30072;-9.59000;,
 -1.08300;1.31284;-9.57500;,
 -1.11928;1.33000;-9.59000;,
 -1.10716;1.33700;-9.57500;,
 -1.13000;1.37000;-9.59000;,
 -1.11600;1.37000;-9.57500;,
 -1.11928;1.41000;-9.59000;,
 -1.10716;1.40300;-9.57500;,
 -1.09000;1.43928;-9.59000;,
 -1.08300;1.42716;-9.57500;,
 -0.96200;1.37000;-9.44250;,
 -0.97379;1.32644;-9.44250;,
 -0.98072;1.33000;-9.59000;,
 -0.97000;1.37000;-9.59000;,
 -1.00600;1.29455;-9.44250;,
 -1.01000;1.30072;-9.59000;,
 -1.05000;1.28288;-9.44250;,
 -1.05000;1.29000;-9.59000;,
 -1.09400;1.29455;-9.44250;,
 -1.09000;1.30072;-9.59000;,
 -1.12621;1.32644;-9.44250;,
 -1.11928;1.33000;-9.59000;,
 -1.13800;1.37000;-9.44250;,
 -1.13000;1.37000;-9.59000;,
 -1.12621;1.41356;-9.44250;,
 -1.11928;1.41000;-9.59000;,
 -1.09400;1.44545;-9.44250;,
 -1.09000;1.43928;-9.59000;,
 -1.05000;1.45712;-9.44250;,
 -1.05000;1.45000;-9.59000;,
 -1.00600;1.44545;-9.44250;,
 -1.01000;1.43928;-9.59000;,
 -0.97379;1.41356;-9.44250;,
 -0.98072;1.41000;-9.59000;,
 -1.01000;1.43928;-9.59000;,
 -1.01700;1.42716;-9.57500;,
 -1.05000;1.43600;-9.57500;,
 -1.05000;1.45000;-9.59000;,
 -0.98072;1.41000;-9.59000;,
 -0.99284;1.40300;-9.57500;,
 -0.97000;1.37000;-9.59000;,
 -0.98400;1.37000;-9.57500;,
 -0.98072;1.33000;-9.59000;,
 -0.99284;1.33700;-9.57500;,
 -1.01000;1.30072;-9.59000;,
 -1.01700;1.31284;-9.57500;,
 -1.05000;1.29000;-9.59000;,
 -1.05000;1.30400;-9.57500;,
 -1.09000;1.30072;-9.59000;,
 -1.08300;1.31284;-9.57500;,
 -1.11928;1.33000;-9.59000;,
 -1.10716;1.33700;-9.57500;,
 -1.13000;1.37000;-9.59000;,
 -1.11600;1.37000;-9.57500;,
 -1.11928;1.41000;-9.59000;,
 -1.10716;1.40300;-9.57500;,
 -1.09000;1.43928;-9.59000;,
 -1.08300;1.42716;-9.57500;,
 0.96200;1.37000;-9.44250;,
 0.97000;1.37000;-9.59000;,
 0.98072;1.33000;-9.59000;,
 0.97379;1.32644;-9.44250;,
 1.01000;1.30072;-9.59000;,
 1.00600;1.29455;-9.44250;,
 1.05000;1.29000;-9.59000;,
 1.05000;1.28288;-9.44250;,
 1.09000;1.30072;-9.59000;,
 1.09400;1.29455;-9.44250;,
 1.11928;1.33000;-9.59000;,
 1.12621;1.32644;-9.44250;,
 1.13000;1.37000;-9.59000;,
 1.13800;1.37000;-9.44250;,
 1.11928;1.41000;-9.59000;,
 1.12621;1.41356;-9.44250;,
 1.09000;1.43928;-9.59000;,
 1.09400;1.44545;-9.44250;,
 1.05000;1.45000;-9.59000;,
 1.05000;1.45712;-9.44250;,
 1.01000;1.43928;-9.59000;,
 1.00600;1.44545;-9.44250;,
 0.98072;1.41000;-9.59000;,
 0.97379;1.41356;-9.44250;,
 1.01000;1.43928;-9.59000;,
 1.05000;1.45000;-9.59000;,
 1.05000;1.43600;-9.57500;,
 1.01700;1.42716;-9.57500;,
 0.99284;1.40300;-9.57500;,
 0.98072;1.41000;-9.59000;,
 0.98400;1.37000;-9.57500;,
 0.97000;1.37000;-9.59000;,
 0.99284;1.33700;-9.57500;,
 0.98072;1.33000;-9.59000;,
 1.01700;1.31284;-9.57500;,
 1.01000;1.30072;-9.59000;,
 1.05000;1.30400;-9.57500;,
 1.05000;1.29000;-9.59000;,
 1.08300;1.31284;-9.57500;,
 1.09000;1.30072;-9.59000;,
 1.10716;1.33700;-9.57500;,
 1.11928;1.33000;-9.59000;,
 1.11600;1.37000;-9.57500;,
 1.13000;1.37000;-9.59000;,
 1.10716;1.40300;-9.57500;,
 1.11928;1.41000;-9.59000;,
 1.08300;1.42716;-9.57500;,
 1.09000;1.43928;-9.59000;,
 -1.32000;1.20000;-8.65000;,
 -1.32000;1.20000;-9.15000;,
 -1.23000;0.40000;-9.25000;,
 -1.23000;0.40000;-9.15000;,
 -1.21000;1.20000;-9.30000;,
 -1.14000;0.40000;-9.40000;,
 -0.31000;1.20000;-9.55000;,
 -0.31000;0.40000;-9.60000;,
 0.00000;1.20000;-9.60000;,
 0.00000;0.40000;-9.65000;,
 0.31000;1.20000;-9.55000;,
 0.31000;0.40000;-9.60000;,
 1.21000;1.20000;-9.30000;,
 1.14000;0.40000;-9.40000;,
 1.32000;1.20000;-9.15000;,
 1.23000;0.40000;-9.25000;,
 1.32000;1.20000;-8.65000;,
 1.23000;0.40000;-8.95000;,
 -1.25000;0.40000;-8.21049;,
 0.00000;0.40000;-8.56049;,
 0.00000;0.17000;-8.61049;,
 -1.17000;0.17000;-8.26049;,
 1.25000;0.40000;-8.21049;,
 1.17000;0.17000;-8.26049;,
 0.60000;-0.00000;-7.67286;,
 -0.60000;0.00000;-7.67286;,
 -0.60000;0.06699;-7.92286;,
 0.60000;0.06699;-7.92286;,
 -0.60000;0.25000;-8.10588;,
 0.60000;0.25000;-8.10588;,
 -0.60000;0.50000;-8.17287;,
 0.60000;0.50000;-8.17287;,
 -0.60000;0.75000;-8.10588;,
 0.60000;0.75000;-8.10588;,
 -0.60000;0.93301;-7.92287;,
 0.60000;0.93301;-7.92287;,
 -0.60000;1.00000;-7.67287;,
 0.60000;1.00000;-7.67287;,
 -0.60000;0.93301;-7.42287;,
 -0.90000;1.10000;-4.98966;,
 0.90000;1.10000;-4.98966;,
 0.90000;0.30000;-4.98966;,
 -0.90000;0.30000;-4.98966;,
 0.60000;0.93301;-7.42287;,
 0.60000;0.75000;-7.23985;,
 0.60000;0.50000;-7.17287;,
 0.60000;0.25000;-7.23985;,
 0.60000;0.06699;-7.42286;,
 -0.60000;0.75000;-7.23985;,
 -0.60000;0.50000;-7.17287;,
 -0.60000;0.25000;-7.23985;,
 -0.60000;0.06699;-7.42286;,
 0.60000;-0.00000;-5.81424;,
 -0.60000;0.00000;-5.81424;,
 -0.60000;0.06699;-6.06424;,
 0.60000;0.06699;-6.06424;,
 -0.60000;0.25000;-6.24725;,
 0.60000;0.25000;-6.24725;,
 -0.60000;0.50000;-6.31424;,
 0.60000;0.50000;-6.31424;,
 -0.60000;0.75000;-6.24725;,
 0.60000;0.75000;-6.24725;,
 -0.60000;0.93301;-6.06424;,
 0.60000;0.93301;-6.06424;,
 -0.60000;1.00000;-5.81424;,
 0.60000;1.00000;-5.81424;,
 -0.60000;0.93301;-5.56424;,
 0.60000;0.93301;-5.56424;,
 0.60000;0.75000;-5.38123;,
 0.60000;0.50000;-5.31424;,
 0.60000;0.25000;-5.38123;,
 0.60000;0.06699;-5.56424;,
 -0.60000;0.75000;-5.38123;,
 -0.60000;0.50000;-5.31424;,
 -0.60000;0.25000;-5.38123;,
 -0.60000;0.06699;-5.56424;,
 0.60000;-0.00000;5.95179;,
 -0.60000;0.00000;5.95179;,
 -0.60000;0.06699;5.70179;,
 0.60000;0.06699;5.70179;,
 -0.60000;0.25000;5.51878;,
 0.60000;0.25000;5.51878;,
 -0.60000;0.50000;5.45179;,
 0.60000;0.50000;5.45179;,
 -0.60000;0.75000;5.51877;,
 0.60000;0.75000;5.51877;,
 -0.60000;0.93301;5.70179;,
 0.60000;0.93301;5.70179;,
 -0.60000;1.00000;5.95179;,
 0.60000;1.00000;5.95179;,
 -0.60000;0.93301;6.20179;,
 0.60000;0.93301;6.20179;,
 0.60000;0.75000;6.38480;,
 0.60000;0.50000;6.45179;,
 0.60000;0.25000;6.38480;,
 0.60000;0.06699;6.20179;,
 -0.60000;0.75000;6.38480;,
 -0.60000;0.50000;6.45179;,
 -0.60000;0.25000;6.38480;,
 -0.60000;0.06699;6.20179;,
 0.60000;-0.00000;7.81175;,
 -0.60000;0.00000;7.81175;,
 -0.60000;0.06699;7.56175;,
 0.60000;0.06699;7.56175;,
 -0.60000;0.25000;7.37873;,
 0.60000;0.25000;7.37873;,
 -0.60000;0.50000;7.31175;,
 0.60000;0.50000;7.31175;,
 -0.60000;0.75000;7.37873;,
 0.60000;0.75000;7.37873;,
 -0.60000;0.93301;7.56174;,
 0.60000;0.93301;7.56174;,
 -0.60000;1.00000;7.81175;,
 0.60000;1.00000;7.81175;,
 -0.60000;0.93301;8.06175;,
 0.60000;0.93301;8.06175;,
 0.60000;0.75000;8.24476;,
 0.60000;0.50000;8.31175;,
 0.60000;0.25000;8.24476;,
 0.60000;0.06699;8.06175;,
 -0.60000;0.75000;8.24476;,
 -0.60000;0.50000;8.31175;,
 -0.60000;0.25000;8.24476;,
 -0.60000;0.06699;8.06175;,
 0.90000;1.10000;9.65000;,
 0.90000;1.10000;-9.35000;,
 0.90000;0.00000;-9.35000;,
 0.90000;0.00000;9.65000;,
 -0.90000;1.10000;9.65000;,
 -0.90000;1.10000;-9.35000;,
 -0.90000;0.00000;-9.35000;,
 -0.90000;0.00000;9.65000;,
 -0.90000;1.10000;-9.35000;,
 -0.90000;1.10000;9.65000;,
 -0.90000;0.00000;9.65000;,
 -0.90000;0.00000;-9.35000;,
 0.90000;1.10000;-9.35000;,
 0.90000;1.10000;9.65000;,
 0.90000;0.00000;9.65000;,
 0.90000;0.00000;-9.35000;,
 -1.20000;1.10000;9.55000;,
 1.20000;1.10000;9.55000;,
 1.20000;0.00000;9.55000;,
 -1.20000;0.00000;9.55000;,
 -0.30000;2.40000;-9.66000;,
 0.00000;2.38000;-9.75000;,
 0.00000;2.20000;-9.75000;,
 0.30000;2.40000;-9.66000;,
 -0.14313;0.98000;-9.85000;,
 -0.14313;0.97922;-9.95000;,
 -0.14313;0.84077;-9.95000;,
 -0.14313;0.84000;-9.85000;,
 0.00313;0.97922;-9.95000;,
 0.00313;0.98000;-9.85000;,
 0.00313;0.83997;-9.85000;,
 0.00313;0.84075;-9.95000;,
 -0.14313;0.97922;-9.95000;,
 -0.07000;0.91000;-10.02941;,
 -0.14313;0.84077;-9.95000;,
 -0.14313;0.97922;-9.95000;,
 0.00313;0.97922;-9.95000;,
 0.00313;0.84075;-9.95000;,
 -0.14313;0.84077;-9.95000;,
 -0.27000;1.10000;-9.85000;,
 0.27000;1.10000;-9.85000;,
 0.27000;0.70000;-9.85000;,
 -0.27000;0.70000;-9.85000;,
 -0.25000;0.95000;-9.45000;,
 -0.25000;1.00000;-9.85000;,
 -0.25000;0.75000;-9.85000;,
 -0.25000;0.80000;-9.45000;,
 0.25000;1.00000;-9.85000;,
 0.25000;0.95000;-9.45000;,
 0.25000;0.80000;-9.45000;,
 0.25000;0.75000;-9.85000;,
 -1.46500;3.30000;9.75000;,
 -1.46500;3.30000;-9.05000;,
 -1.47500;2.20000;-9.05000;,
 -1.47500;2.20000;9.75000;,
 -1.43500;3.30000;-9.10000;,
 -1.43500;2.20000;-9.30000;,
 -1.35000;3.30000;-9.30000;,
 -1.35000;2.20000;-9.50000;,
 0.00000;3.30000;-9.55000;,
 0.00000;2.20000;-9.75000;,
 -1.47500;1.60000;-9.05000;,
 -1.47500;1.60000;9.75000;,
 -1.43500;1.60000;-9.30000;,
 -1.35000;1.60000;-9.50000;,
 0.00000;1.60000;-9.75000;,
 -1.40000;1.00000;-9.05000;,
 -1.40000;1.00000;9.75000;,
 -1.35000;1.00000;-9.25000;,
 -1.30000;1.00000;-9.38000;,
 0.00000;1.00000;-9.65000;,
 -1.46500;3.30000;-8.45000;,
 -1.45500;3.35000;-8.45000;,
 -1.35000;3.50000;-8.45000;,
 -1.37000;3.45000;-9.10000;,
 -1.00000;3.58000;-8.45000;,
 -1.00000;3.53000;-9.19000;,
 -0.70000;3.63000;-8.45000;,
 -0.70000;3.56000;-9.24000;,
 0.00000;3.65000;-8.45000;,
 0.00000;3.58000;-9.35000;,
 1.46500;3.30000;9.75000;,
 1.47500;2.20000;9.75000;,
 1.47500;2.20000;-9.05000;,
 1.46500;3.30000;-9.05000;,
 1.43500;2.20000;-9.30000;,
 1.43500;3.30000;-9.10000;,
 1.35000;2.20000;-9.50000;,
 1.35000;3.30000;-9.30000;,
 0.00000;2.20000;-9.75000;,
 0.00000;3.30000;-9.55000;,
 1.47500;1.60000;9.75000;,
 1.47500;1.60000;-9.05000;,
 1.43500;1.60000;-9.30000;,
 1.35000;1.60000;-9.50000;,
 0.00000;1.60000;-9.75000;,
 1.40000;1.00000;9.75000;,
 1.40000;1.00000;-9.05000;,
 1.35000;1.00000;-9.25000;,
 1.30000;1.00000;-9.38000;,
 0.00000;1.00000;-9.65000;,
 1.46500;3.30000;-8.45000;,
 1.45500;3.35000;-8.45000;,
 1.37000;3.45000;-9.10000;,
 1.35000;3.50000;-8.45000;,
 1.00000;3.53000;-9.19000;,
 1.00000;3.58000;-8.45000;,
 0.70000;3.56000;-9.24000;,
 0.70000;3.63000;-8.45000;,
 0.00000;3.58000;-9.35000;,
 0.00000;3.65000;-8.45000;;
 
 312;
 4;0,1,2,3;,
 4;4,5,6,7;,
 4;8,9,10,11;,
 4;12,13,14,15;,
 4;16,17,18,19;,
 4;17,20,21,18;,
 4;20,22,23,21;,
 4;22,24,25,23;,
 4;24,26,27,25;,
 4;28,29,30,31;,
 4;31,30,32,33;,
 4;33,32,34,35;,
 4;35,34,36,37;,
 4;37,36,27,26;,
 4;38,39,40,41;,
 4;41,40,39,38;,
 4;42,43,44,45;,
 4;45,44,43,42;,
 4;42,43,39,38;,
 4;38,39,43,42;,
 4;46,47,48,49;,
 4;49,48,47,46;,
 4;49,48,50,51;,
 4;51,50,48,49;,
 4;51,50,52,53;,
 4;53,52,50,51;,
 4;53,52,54,55;,
 4;55,54,52,53;,
 4;55,54,56,57;,
 4;57,56,54,55;,
 4;58,59,60,61;,
 4;59,62,63,60;,
 4;62,64,65,63;,
 4;64,66,67,65;,
 4;66,68,69,67;,
 4;68,70,71,69;,
 4;61,60,69,71;,
 4;69,60,63,67;,
 3;65,67,63;,
 4;72,73,74,75;,
 4;73,76,77,74;,
 4;76,78,79,77;,
 4;78,80,81,79;,
 4;80,82,83,81;,
 4;82,84,85,83;,
 4;75,74,83,85;,
 4;83,74,77,81;,
 3;79,81,77;,
 4;86,87,88,89;,
 4;87,90,91,88;,
 4;90,92,93,91;,
 4;92,94,95,93;,
 4;94,96,97,95;,
 4;96,98,99,97;,
 4;89,88,97,99;,
 4;97,88,91,95;,
 3;93,95,91;,
 4;100,101,102,103;,
 4;103,102,104,105;,
 4;105,104,106,107;,
 4;107,106,101,100;,
 4;108,109,110,111;,
 4;111,110,112,113;,
 4;113,112,114,115;,
 4;115,114,109,108;,
 4;116,117,118,119;,
 4;119,118,120,121;,
 4;121,120,122,123;,
 4;123,122,117,116;,
 4;124,125,126,127;,
 4;127,126,128,129;,
 4;129,128,130,131;,
 4;131,130,132,133;,
 4;133,132,134,135;,
 4;135,134,136,137;,
 4;137,136,138,139;,
 4;139,138,140,141;,
 4;141,140,142,143;,
 4;143,142,144,145;,
 4;145,144,146,147;,
 4;147,146,125,124;,
 4;148,149,150,151;,
 4;148,151,152,153;,
 4;153,152,154,155;,
 4;155,154,156,157;,
 4;157,156,158,159;,
 4;159,158,160,161;,
 4;161,160,162,163;,
 4;163,162,164,165;,
 4;165,164,166,167;,
 4;167,166,168,169;,
 4;169,168,170,171;,
 4;171,170,150,149;,
 4;172,173,174,175;,
 4;173,176,177,174;,
 4;176,178,179,177;,
 4;178,180,181,179;,
 4;180,182,183,181;,
 4;182,184,185,183;,
 4;184,186,187,185;,
 4;186,188,189,187;,
 4;188,190,191,189;,
 4;190,192,193,191;,
 4;192,194,195,193;,
 4;194,172,175,195;,
 4;196,197,198,199;,
 4;196,200,201,197;,
 4;200,202,203,201;,
 4;202,204,205,203;,
 4;204,206,207,205;,
 4;206,208,209,207;,
 4;208,210,211,209;,
 4;210,212,213,211;,
 4;212,214,215,213;,
 4;214,216,217,215;,
 4;216,218,219,217;,
 4;218,199,198,219;,
 4;220,221,222,223;,
 4;221,224,225,222;,
 4;224,226,227,225;,
 4;226,228,229,227;,
 4;228,230,231,229;,
 4;230,232,233,231;,
 4;232,234,235,233;,
 4;234,236,237,235;,
 4;236,238,239,237;,
 4;238,240,241,239;,
 4;240,242,243,241;,
 4;242,220,223,243;,
 4;244,245,246,247;,
 4;244,248,249,245;,
 4;248,250,251,249;,
 4;250,252,253,251;,
 4;252,254,255,253;,
 4;254,256,257,255;,
 4;256,258,259,257;,
 4;258,260,261,259;,
 4;260,262,263,261;,
 4;262,264,265,263;,
 4;264,266,267,265;,
 4;266,247,246,267;,
 4;268,269,270,271;,
 4;271,270,272,273;,
 4;273,272,274,275;,
 4;275,274,276,277;,
 4;277,276,278,279;,
 4;279,278,280,281;,
 4;281,280,282,283;,
 4;283,282,284,285;,
 4;285,284,286,287;,
 4;287,286,288,289;,
 4;289,288,290,291;,
 4;291,290,269,268;,
 4;292,293,294,295;,
 4;292,295,296,297;,
 4;297,296,298,299;,
 4;299,298,300,301;,
 4;301,300,302,303;,
 4;303,302,304,305;,
 4;305,304,306,307;,
 4;307,306,308,309;,
 4;309,308,310,311;,
 4;311,310,312,313;,
 4;313,312,314,315;,
 4;315,314,294,293;,
 4;316,317,318,319;,
 4;317,320,321,318;,
 4;320,322,323,321;,
 4;322,324,325,323;,
 4;324,326,327,325;,
 4;326,328,329,327;,
 4;328,330,331,329;,
 4;330,332,333,331;,
 4;334,335,336,337;,
 4;335,338,339,336;,
 4;340,341,342,343;,
 4;343,342,344,345;,
 4;345,344,346,347;,
 4;347,346,348,349;,
 4;349,348,350,351;,
 4;351,350,352,353;,
 3;350,354,352;,
 4;355,356,357,358;,
 3;351,353,359;,
 4;349,360,361,347;,
 4;347,361,362,345;,
 4;345,362,363,343;,
 3;343,363,340;,
 4;364,348,346,365;,
 4;365,346,344,366;,
 4;366,344,342,367;,
 3;367,342,341;,
 4;364,354,350,348;,
 4;351,359,360,349;,
 4;368,369,370,371;,
 4;371,370,372,373;,
 4;373,372,374,375;,
 4;375,374,376,377;,
 4;377,376,378,379;,
 4;379,378,380,381;,
 3;378,382,380;,
 3;379,381,383;,
 4;377,384,385,375;,
 4;375,385,386,373;,
 4;373,386,387,371;,
 3;371,387,368;,
 4;388,376,374,389;,
 4;389,374,372,390;,
 4;390,372,370,391;,
 3;391,370,369;,
 4;388,382,378,376;,
 4;379,383,384,377;,
 4;392,393,394,395;,
 4;395,394,396,397;,
 4;397,396,398,399;,
 4;399,398,400,401;,
 4;401,400,402,403;,
 4;403,402,404,405;,
 3;402,406,404;,
 3;403,405,407;,
 4;401,408,409,399;,
 4;399,409,410,397;,
 4;397,410,411,395;,
 3;395,411,392;,
 4;412,400,398,413;,
 4;413,398,396,414;,
 4;414,396,394,415;,
 3;415,394,393;,
 4;412,406,402,400;,
 4;403,407,408,401;,
 4;416,417,418,419;,
 4;419,418,420,421;,
 4;421,420,422,423;,
 4;423,422,424,425;,
 4;425,424,426,427;,
 4;427,426,428,429;,
 3;426,430,428;,
 3;427,429,431;,
 4;425,432,433,423;,
 4;423,433,434,421;,
 4;421,434,435,419;,
 3;419,435,416;,
 4;436,424,422,437;,
 4;437,422,420,438;,
 4;438,420,418,439;,
 3;439,418,417;,
 4;436,430,426,424;,
 4;427,431,432,425;,
 4;440,441,442,443;,
 4;444,445,446,447;,
 4;448,449,450,451;,
 4;452,453,454,455;,
 4;456,457,458,459;,
 3;460,461,462;,
 3;461,463,462;,
 4;464,465,466,467;,
 4;468,469,470,471;,
 4;464,469,468,465;,
 3;472,473,474;,
 3;475,476,473;,
 3;473,476,477;,
 3;478,473,477;,
 4;479,480,481,482;,
 4;483,484,485,486;,
 4;483,484,485,486;,
 4;487,488,489,490;,
 4;491,492,493,494;,
 4;492,495,496,493;,
 4;495,497,498,496;,
 4;497,499,500,498;,
 4;494,493,501,502;,
 4;493,496,503,501;,
 4;496,498,504,503;,
 4;498,500,505,504;,
 4;502,501,506,507;,
 4;501,503,508,506;,
 4;503,504,509,508;,
 4;504,505,510,509;,
 3;511,512,492;,
 4;512,513,514,492;,
 4;513,515,516,514;,
 4;515,517,518,516;,
 4;517,519,520,518;,
 3;492,514,495;,
 3;495,514,497;,
 3;514,516,497;,
 3;497,516,499;,
 3;516,518,499;,
 3;518,520,499;,
 4;521,522,523,524;,
 4;524,523,525,526;,
 4;526,525,527,528;,
 4;528,527,529,530;,
 4;522,531,532,523;,
 4;523,532,533,525;,
 4;525,533,534,527;,
 4;527,534,535,529;,
 4;531,536,537,532;,
 4;532,537,538,533;,
 4;533,538,539,534;,
 4;534,539,540,535;,
 3;541,524,542;,
 4;542,524,543,544;,
 4;544,543,545,546;,
 4;546,545,547,548;,
 4;548,547,549,550;,
 3;524,526,543;,
 3;526,528,543;,
 3;543,528,545;,
 3;528,530,545;,
 3;545,530,547;,
 3;547,530,549;;
 
 MeshMaterialList {
  9;
  312;
  0,
  0,
  1,
  1,
  2,
  2,
  2,
  2,
  2,
  2,
  2,
  2,
  2,
  2,
  2,
  2,
  2,
  2,
  2,
  2,
  2,
  2,
  2,
  2,
  2,
  2,
  2,
  2,
  2,
  2,
  4,
  4,
  4,
  4,
  4,
  4,
  4,
  4,
  4,
  5,
  5,
  5,
  5,
  5,
  5,
  5,
  5,
  5,
  5,
  5,
  5,
  5,
  5,
  5,
  5,
  5,
  5,
  2,
  2,
  2,
  2,
  2,
  2,
  2,
  2,
  2,
  2,
  2,
  2,
  8,
  8,
  8,
  8,
  8,
  8,
  8,
  8,
  8,
  8,
  8,
  8,
  8,
  8,
  8,
  8,
  8,
  8,
  8,
  8,
  8,
  8,
  8,
  8,
  8,
  8,
  8,
  8,
  8,
  8,
  8,
  8,
  8,
  8,
  8,
  8,
  8,
  8,
  8,
  8,
  8,
  8,
  8,
  8,
  8,
  8,
  8,
  8,
  8,
  8,
  8,
  8,
  8,
  8,
  8,
  8,
  8,
  8,
  8,
  8,
  8,
  8,
  8,
  8,
  8,
  8,
  8,
  8,
  8,
  8,
  8,
  8,
  8,
  8,
  8,
  8,
  8,
  8,
  8,
  8,
  8,
  8,
  8,
  8,
  8,
  8,
  8,
  8,
  8,
  8,
  8,
  8,
  8,
  8,
  8,
  8,
  5,
  5,
  5,
  5,
  5,
  5,
  5,
  5,
  3,
  3,
  3,
  3,
  3,
  3,
  3,
  3,
  3,
  3,
  3,
  3,
  3,
  3,
  3,
  3,
  3,
  3,
  3,
  3,
  3,
  3,
  3,
  3,
  3,
  3,
  3,
  3,
  3,
  3,
  3,
  3,
  3,
  3,
  3,
  3,
  3,
  3,
  3,
  3,
  3,
  3,
  3,
  3,
  3,
  3,
  3,
  3,
  3,
  3,
  3,
  3,
  3,
  3,
  3,
  3,
  3,
  3,
  3,
  3,
  3,
  3,
  3,
  3,
  3,
  3,
  3,
  3,
  3,
  3,
  3,
  3,
  3,
  3,
  3,
  6,
  6,
  6,
  6,
  7,
  5,
  5,
  5,
  5,
  5,
  5,
  5,
  5,
  5,
  5,
  3,
  3,
  3,
  8,
  8,
  8,
  8,
  8,
  8,
  8,
  8,
  8,
  8,
  8,
  8,
  8,
  8,
  8,
  8,
  8,
  8,
  8,
  8,
  8,
  8,
  8,
  8,
  8,
  8,
  8,
  8,
  8,
  8,
  8,
  8,
  8,
  8,
  8,
  8,
  8,
  8,
  8,
  8,
  8,
  8,
  8,
  8,
  8,
  8;;
  Material {
   0.325000;0.325000;0.325000;1.000000;;
   0.000000;
   0.000000;0.000000;0.000000;;
   0.300000;0.300000;0.250000;;
  }
  Material {
   0.980000;0.980000;0.980000;1.000000;;
   0.000000;
   0.000000;0.000000;0.000000;;
   0.300000;0.300000;0.250000;;
  }
  Material {
   0.478000;0.478000;0.478000;1.000000;;
   0.000000;
   0.000000;0.000000;0.000000;;
   0.000000;0.000000;0.000000;;
  }
  Material {
   0.098000;0.098000;0.098000;1.000000;;
   0.000000;
   0.000000;0.000000;0.000000;;
   0.000000;0.000000;0.000000;;
  }
  Material {
   1.000000;1.000000;1.000000;1.000000;;
   0.000000;
   0.000000;0.000000;0.000000;;
   0.000000;0.000000;0.000000;;
   TextureFilename {
    "000_27.dds";
   }
  }
  Material {
   1.000000;1.000000;1.000000;1.000000;;
   0.000000;
   0.000000;0.000000;0.000000;;
   0.000000;0.000000;0.000000;;
   TextureFilename {
    "185_04.dds";
   }
  }
  Material {
   1.000000;1.000000;1.000000;1.000000;;
   0.000000;
   0.000000;0.000000;0.000000;;
   0.000000;0.000000;0.000000;;
   TextureFilename {
    "000_00.dds";
   }
  }
  Material {
   1.000000;1.000000;1.000000;1.000000;;
   0.000000;
   0.000000;0.000000;0.000000;;
   0.000000;0.000000;0.000000;;
   TextureFilename {
    "000_10.dds";
   }
  }
  Material {
   1.000000;1.000000;1.000000;1.000000;;
   0.000000;
   0.000000;0.000000;0.000000;;
   0.000000;0.000000;0.000000;;
   TextureFilename {
    "185_00.dds";
   }
  }
 }
 MeshNormals {
  202;
  -1.000000;0.000000;0.000000;,
  1.000000;0.000000;0.000000;,
  -0.980581;0.196116;0.000000;,
  -0.910734;0.412994;0.000000;,
  -0.540232;0.841516;0.000000;,
  -0.193698;0.981061;0.000000;,
  -0.096705;0.995313;0.000000;,
  0.000000;1.000000;0.000000;,
  0.980581;0.196116;0.000000;,
  0.910734;0.412994;0.000000;,
  0.540232;0.841516;0.000000;,
  0.193698;0.981061;0.000000;,
  0.096705;0.995313;0.000000;,
  -1.000000;0.000000;0.000000;,
  1.000000;0.000000;0.000000;,
  0.000000;1.000000;0.000000;,
  0.000000;-1.000000;-0.000000;,
  1.000000;0.000000;0.000000;,
  0.923880;0.382683;0.000000;,
  0.382683;0.923880;0.000000;,
  -0.382683;0.923880;0.000000;,
  -0.923880;0.382683;0.000000;,
  -1.000000;0.000000;0.000000;,
  -0.292728;0.956196;0.000000;,
  0.000000;1.000000;0.000000;,
  0.292728;0.956196;0.000000;,
  0.433294;0.901252;0.000000;,
  -0.292728;0.956196;0.000000;,
  0.292728;0.956196;0.000000;,
  0.433294;0.901252;0.000000;,
  -0.923880;-0.382683;0.000000;,
  -0.382683;-0.923880;0.000000;,
  0.382683;-0.923880;-0.000000;,
  0.923880;-0.382683;-0.000000;,
  -0.433294;0.901252;0.000000;,
  0.000000;0.000000;-1.000000;,
  -0.433294;0.901252;0.000000;,
  1.000000;0.000000;0.000000;,
  0.000000;0.000000;1.000000;,
  -1.000000;0.000000;0.000000;,
  0.000000;0.000000;-1.000000;,
  0.992877;0.119145;0.000000;,
  0.000000;0.119145;0.992877;,
  -0.992877;0.119145;0.000000;,
  0.000000;0.119145;-0.992877;,
  -0.998552;0.000000;-0.053791;,
  -0.863880;-0.500958;-0.052467;,
  -0.497737;-0.865894;-0.049860;,
  0.000000;-0.998819;-0.048576;,
  0.497737;-0.865894;-0.049860;,
  0.863880;-0.500958;-0.052467;,
  0.998552;0.000000;-0.053791;,
  0.863880;0.500958;-0.052467;,
  0.497737;0.865894;-0.049860;,
  0.000000;0.998819;-0.048576;,
  -0.497737;0.865894;-0.049860;,
  -0.863880;0.500958;-0.052467;,
  -0.000004;-0.731025;-0.682350;,
  0.365515;-0.633088;-0.682348;,
  0.633084;-0.365511;-0.682353;,
  0.731025;-0.000004;-0.682351;,
  0.633094;0.365515;-0.682343;,
  0.365516;0.633094;-0.682342;,
  0.000000;0.731033;-0.682342;,
  -0.365515;0.633088;-0.682348;,
  -0.633084;0.365511;-0.682353;,
  -0.731025;0.000004;-0.682351;,
  -0.633088;-0.365515;-0.682348;,
  -0.365512;-0.633084;-0.682353;,
  0.000004;-0.731025;-0.682350;,
  -0.365515;-0.633088;-0.682348;,
  -0.633084;-0.365511;-0.682353;,
  -0.731025;-0.000004;-0.682351;,
  -0.633094;0.365515;-0.682343;,
  -0.365516;0.633094;-0.682342;,
  0.365515;0.633088;-0.682348;,
  0.633084;0.365511;-0.682353;,
  0.731025;0.000004;-0.682351;,
  0.633088;-0.365515;-0.682348;,
  0.365512;-0.633084;-0.682353;,
  -0.993731;-0.111795;0.000000;,
  -0.954962;-0.065652;-0.289373;,
  -0.580294;0.034754;-0.813665;,
  -0.204789;0.070187;-0.976286;,
  0.000000;0.062378;-0.998053;,
  0.204789;0.070187;-0.976286;,
  0.580294;0.034754;-0.813665;,
  0.954962;-0.065652;-0.289373;,
  0.993731;-0.111795;-0.000000;,
  -0.274503;0.159508;-0.948265;,
  0.274503;0.159508;-0.948265;,
  0.000001;0.965925;-0.258823;,
  -1.000000;0.000007;-0.000000;,
  1.000000;-0.000003;0.000000;,
  -1.000000;0.000000;0.000000;,
  1.000000;0.000000;0.000000;,
  -1.000000;0.000003;-0.000000;,
  1.000000;-0.000007;0.000000;,
  -0.000001;-0.965927;-0.258816;,
  -0.000001;-0.866028;-0.499996;,
  -0.000000;-0.500004;-0.866023;,
  0.000000;-0.000004;-1.000000;,
  0.000001;0.499998;-0.866027;,
  0.000001;0.866024;-0.500002;,
  0.000000;0.000000;-1.000000;,
  0.000001;0.965925;-0.258822;,
  -1.000000;0.000007;-0.000000;,
  1.000000;-0.000003;0.000000;,
  -0.000001;-0.866027;-0.499997;,
  -0.000000;-0.500003;-0.866024;,
  0.000001;0.499996;-0.866028;,
  0.000001;0.866024;-0.500003;,
  0.000001;0.965925;-0.258820;,
  -1.000000;0.000007;-0.000000;,
  1.000000;-0.000003;0.000000;,
  -1.000000;0.000003;-0.000000;,
  -0.000001;-0.866027;-0.499996;,
  -0.000000;-0.500003;-0.866024;,
  0.000000;-0.000003;-1.000000;,
  0.000001;0.499995;-0.866028;,
  0.000001;0.866023;-0.500004;,
  1.000000;-0.000003;0.000000;,
  0.000000;-0.000001;-1.000000;,
  0.000001;0.499997;-0.866027;,
  0.000001;0.866023;-0.500004;,
  -1.000000;0.000015;-0.000000;,
  1.000000;-0.000015;0.000000;,
  -1.000000;0.000015;-0.000000;,
  -1.000000;0.000015;-0.000000;,
  -1.000000;0.000000;0.000000;,
  1.000000;0.000000;0.000000;,
  0.000000;0.000000;-1.000000;,
  -0.287348;0.000000;-0.957826;,
  0.287348;0.000000;-0.957826;,
  -1.000000;0.000000;0.000000;,
  1.000000;0.000000;0.000000;,
  -0.735587;0.000000;-0.677430;,
  0.000000;0.000000;-1.000000;,
  0.000000;0.999970;-0.007750;,
  0.000000;0.753789;-0.657116;,
  0.735587;0.000000;-0.677430;,
  -0.000119;-0.753721;-0.657194;,

  -0.999959;0.009091;0.000000;,
  -0.955358;0.007778;-0.078043;,
  -0.991952;0.006993;-0.126418;,
  -0.999990;0.004545;0.000000;,
  -0.892883;0.205260;-0.400784;,
  -0.946411;0.022505;-0.322180;,
  -0.547920;0.447551;-0.706740;,
  -0.625520;0.070218;-0.777042;,
  -0.167594;0.469580;-0.866838;,
  -0.181378;0.088339;-0.979438;,
  -0.993816;-0.065414;-0.089731;,
  -0.998068;-0.062137;0.000000;,
  -0.956584;-0.073770;-0.281968;,
  -0.628656;-0.097057;-0.771603;,
  -0.186587;-0.092500;-0.978074;,
  -0.986387;-0.130664;-0.099841;,
  -0.992278;-0.124035;0.000000;,
  -0.946973;-0.146895;-0.285769;,
  -0.625663;-0.192962;-0.755851;,
  -0.189480;-0.184204;-0.964451;,
  -0.980581;0.196116;0.000000;,
  -0.924287;0.381495;-0.012474;,
  -0.569168;0.820751;-0.049145;,
  -0.668841;0.662028;-0.338189;,
  -0.181709;0.980710;-0.072042;,
  -0.218905;0.828074;-0.516114;,
  -0.086821;0.992998;-0.080100;,
  -0.141358;0.851396;-0.505117;,
  -0.034544;0.995963;-0.082856;,
  0.097891;0.866350;-0.489751;,
  0.999959;0.009091;0.000000;,
  0.955358;0.007778;-0.078043;,
  0.991952;0.006993;-0.126418;,
  0.999990;0.004545;0.000000;,
  0.892883;0.205260;-0.400784;,
  0.946411;0.022505;-0.322180;,
  0.547920;0.447551;-0.706740;,
  0.625520;0.070218;-0.777042;,
  0.167594;0.469580;-0.866838;,
  0.181378;0.088339;-0.979438;,
  0.993816;-0.065414;-0.089731;,
  0.998068;-0.062137;-0.000000;,
  0.956584;-0.073770;-0.281968;,
  0.628656;-0.097057;-0.771603;,
  0.186587;-0.092500;-0.978074;,
  0.986387;-0.130664;-0.099841;,
  0.992278;-0.124035;-0.000000;,
  0.946973;-0.146895;-0.285769;,
  0.625663;-0.192962;-0.755851;,
  0.189480;-0.184204;-0.964451;,
  0.980581;0.196116;0.000000;,
  0.924287;0.381495;-0.012474;,
  0.569168;0.820751;-0.049145;,
  0.668841;0.662028;-0.338189;,
  0.181709;0.980710;-0.072042;,
  0.218905;0.828074;-0.516114;,
  0.086821;0.992998;-0.080100;,
  0.141358;0.851396;-0.505117;,
  0.034544;0.995963;-0.082856;,
  0.097891;0.866350;-0.489751;;
  312;
  4;0,0,0,0;,
  4;1,1,1,1;,
  4;1,1,1,1;,
  4;0,0,0,0;,
  4;2,3,3,2;,
  4;3,4,4,3;,
  4;4,5,5,4;,
  4;5,6,6,5;,
  4;6,7,7,6;,
  4;8,8,9,9;,
  4;9,9,10,10;,
  4;10,10,11,11;,
  4;11,11,12,12;,
  4;12,12,7,7;,
  4;13,13,13,13;,
  4;14,14,14,14;,
  4;13,13,13,13;,
  4;14,14,14,14;,
  4;15,15,15,15;,
  4;16,16,16,16;,
  4;17,17,18,18;,
  4;30,30,22,22;,
  4;18,18,19,19;,
  4;31,31,30,30;,
  4;19,19,20,20;,
  4;32,32,31,31;,
  4;20,20,21,21;,
  4;33,33,32,32;,
  4;21,21,22,22;,
  4;17,17,33,33;,
  4;22,22,22,22;,
  4;34,23,23,34;,
  4;23,24,24,23;,
  4;24,25,25,24;,
  4;25,26,26,25;,
  4;17,17,17,17;,
  4;35,35,35,35;,
  4;35,35,35,35;,
  3;35,35,35;,
  4;22,22,22,22;,
  4;34,23,23,34;,
  4;23,24,24,23;,
  4;24,25,25,24;,
  4;25,26,26,25;,
  4;17,17,17,17;,
  4;35,35,35,35;,
  4;35,35,35,35;,
  3;35,35,35;,
  4;22,22,22,22;,
  4;36,27,27,36;,
  4;27,24,24,27;,
  4;24,28,28,24;,
  4;28,29,29,28;,
  4;17,17,17,17;,
  4;35,35,35,35;,
  4;35,35,35,35;,
  3;35,35,35;,
  4;37,37,38,38;,
  4;38,38,39,39;,
  4;39,39,40,40;,
  4;40,40,37,37;,
  4;37,37,38,38;,
  4;38,38,39,39;,
  4;39,39,40,40;,
  4;40,40,37,37;,
  4;41,41,42,42;,
  4;42,42,43,43;,
  4;43,43,44,44;,
  4;44,44,41,41;,
  4;45,45,46,46;,
  4;46,46,47,47;,
  4;47,47,48,48;,
  4;48,48,49,49;,
  4;49,49,50,50;,
  4;50,50,51,51;,
  4;51,51,52,52;,
  4;52,52,53,53;,
  4;53,53,54,54;,
  4;54,54,55,55;,
  4;55,55,56,56;,
  4;56,56,45,45;,
  4;58,57,57,58;,
  4;58,58,59,59;,
  4;59,59,60,60;,
  4;60,60,61,61;,
  4;61,61,62,62;,
  4;62,62,63,63;,
  4;63,63,64,64;,
  4;64,64,65,65;,
  4;65,65,66,66;,
  4;66,66,67,67;,
  4;67,67,68,68;,
  4;68,68,57,57;,
  4;51,50,50,51;,
  4;50,49,49,50;,
  4;49,48,48,49;,
  4;48,47,47,48;,
  4;47,46,46,47;,
  4;46,45,45,46;,
  4;45,56,56,45;,
  4;56,55,55,56;,
  4;55,54,54,55;,
  4;54,53,53,54;,
  4;53,52,52,53;,
  4;52,51,51,52;,
  4;70,70,69,69;,
  4;70,71,71,70;,
  4;71,72,72,71;,
  4;72,73,73,72;,
  4;73,74,74,73;,
  4;74,63,63,74;,
  4;63,75,75,63;,
  4;75,76,76,75;,
  4;76,77,77,76;,
  4;77,78,78,77;,
  4;78,79,79,78;,
  4;79,69,69,79;,
  4;51,50,50,51;,
  4;50,49,49,50;,
  4;49,48,48,49;,
  4;48,47,47,48;,
  4;47,46,46,47;,
  4;46,45,45,46;,
  4;45,56,56,45;,
  4;56,55,55,56;,
  4;55,54,54,55;,
  4;54,53,53,54;,
  4;53,52,52,53;,
  4;52,51,51,52;,
  4;70,70,69,69;,
  4;70,71,71,70;,
  4;71,72,72,71;,
  4;72,73,73,72;,
  4;73,74,74,73;,
  4;74,63,63,74;,
  4;63,75,75,63;,
  4;75,76,76,75;,
  4;76,77,77,76;,
  4;77,78,78,77;,
  4;78,79,79,78;,
  4;79,69,69,79;,
  4;45,45,46,46;,
  4;46,46,47,47;,
  4;47,47,48,48;,
  4;48,48,49,49;,
  4;49,49,50,50;,
  4;50,50,51,51;,
  4;51,51,52,52;,
  4;52,52,53,53;,
  4;53,53,54,54;,
  4;54,54,55,55;,
  4;55,55,56,56;,
  4;56,56,45,45;,
  4;58,57,57,58;,
  4;58,58,59,59;,
  4;59,59,60,60;,
  4;60,60,61,61;,
  4;61,61,62,62;,
  4;62,62,63,63;,
  4;63,63,64,64;,
  4;64,64,65,65;,
  4;65,65,66,66;,
  4;66,66,67,67;,
  4;67,67,68,68;,
  4;68,68,57,57;,
  4;80,81,81,80;,
  4;81,82,82,81;,
  4;82,83,83,82;,
  4;83,84,84,83;,
  4;84,85,85,84;,
  4;85,86,86,85;,
  4;86,87,87,86;,
  4;87,88,88,87;,
  4;89,89,89,89;,
  4;90,90,90,90;,
  4;98,98,99,99;,
  4;99,99,100,100;,
  4;100,100,101,101;,
  4;101,101,102,102;,
  4;102,102,103,103;,
  4;103,103,91,91;,
  3;92,92,125;,
  4;104,104,104,104;,
  3;93,95,93;,
  4;93,93,95,95;,
  4;95,95,95,95;,
  4;95,95,97,97;,
  3;97,97,126;,
  4;94,94,94,94;,
  4;94,94,96,96;,
  4;96,96,96,96;,
  3;96,96,94;,
  4;94,92,92,94;,
  4;93,93,93,93;,
  4;98,98,108,108;,
  4;108,108,109,109;,
  4;109,109,101,101;,
  4;101,101,110,110;,
  4;110,110,111,111;,
  4;111,111,105,105;,
  3;106,106,127;,
  3;107,95,107;,
  4;107,107,95,95;,
  4;95,95,95,95;,
  4;95,95,97,97;,
  3;97,97,126;,
  4;94,94,94,94;,
  4;94,94,96,96;,
  4;96,96,96,96;,
  3;96,96,94;,
  4;94,106,106,94;,
  4;107,107,107,107;,
  4;98,98,116,116;,
  4;116,116,117,117;,
  4;117,117,118,118;,
  4;118,118,119,119;,
  4;119,119,120,120;,
  4;120,120,112,112;,
  3;113,113,128;,
  3;114,95,114;,
  4;114,114,95,95;,
  4;95,95,95,95;,
  4;95,95,97,97;,
  3;97,97,126;,
  4;94,94,94,94;,
  4;94,94,115,115;,
  4;115,115,115,115;,
  3;115,115,94;,
  4;94,113,113,94;,
  4;114,114,114,114;,
  4;98,98,99,99;,
  4;99,99,100,100;,
  4;100,100,122,122;,
  4;122,122,123,123;,
  4;123,123,124,124;,
  4;124,124,105,105;,
  3;106,106,127;,
  3;121,95,121;,
  4;121,121,95,95;,
  4;95,95,95,95;,
  4;95,95,97,97;,
  3;97,97,126;,
  4;94,94,94,94;,
  4;94,94,96,96;,
  4;96,96,96,96;,
  3;96,96,94;,
  4;94,106,106,94;,
  4;121,121,121,121;,
  4;129,129,129,129;,
  4;129,129,129,129;,
  4;130,130,130,130;,
  4;130,130,130,130;,
  4;131,131,131,131;,
  3;132,132,132;,
  3;133,133,133;,
  4;134,134,134,134;,
  4;135,135,135,135;,
  4;138,138,138,138;,
  3;136,136,136;,
  3;139,139,139;,
  3;140,140,140;,
  3;141,141,141;,
  4;137,137,137,137;,
  4;134,134,134,134;,
  4;134,134,134,134;,
  4;135,135,135,135;,
  4;142,143,144,145;,
  4;143,146,147,144;,
  4;146,148,149,147;,
  4;148,150,151,149;,
  4;145,144,152,153;,
  4;144,147,154,152;,
  4;147,149,155,154;,
  4;149,151,156,155;,
  4;153,152,157,158;,
  4;152,154,159,157;,
  4;154,155,160,159;,
  4;155,156,161,160;,
  3;162,163,143;,
  4;163,164,165,143;,
  4;164,166,167,165;,
  4;166,168,169,167;,
  4;168,170,171,169;,
  3;143,165,146;,
  3;146,165,148;,
  3;165,167,148;,
  3;148,167,150;,
  3;167,169,150;,
  3;169,171,150;,
  4;172,175,174,173;,
  4;173,174,177,176;,
  4;176,177,179,178;,
  4;178,179,181,180;,
  4;175,183,182,174;,
  4;174,182,184,177;,
  4;177,184,185,179;,
  4;179,185,186,181;,
  4;183,188,187,182;,
  4;182,187,189,184;,
  4;184,189,190,185;,
  4;185,190,191,186;,
  3;192,173,193;,
  4;193,173,195,194;,
  4;194,195,197,196;,
  4;196,197,199,198;,
  4;198,199,201,200;,
  3;173,176,195;,
  3;176,178,195;,
  3;195,178,197;,
  3;178,180,197;,
  3;197,180,199;,
  3;199,180,201;;
 }
 MeshTextureCoords {
  551;
  0.000000;0.000000;,
  0.000000;0.000000;,
  0.000000;0.000000;,
  0.000000;0.000000;,
  0.000000;0.000000;,
  0.000000;0.000000;,
  0.000000;0.000000;,
  0.000000;0.000000;,
  0.000000;0.000000;,
  1.000000;0.000000;,
  1.000000;1.000000;,
  0.000000;1.000000;,
  0.000000;0.000000;,
  0.000000;1.000000;,
  1.000000;1.000000;,
  1.000000;0.000000;,
  0.000000;0.000000;,
  0.000000;0.000000;,
  0.000000;0.000000;,
  0.000000;0.000000;,
  0.000000;0.000000;,
  0.000000;0.000000;,
  0.000000;0.000000;,
  0.000000;0.000000;,
  0.000000;0.000000;,
  0.000000;0.000000;,
  0.000000;0.000000;,
  0.000000;0.000000;,
  0.000000;0.000000;,
  0.000000;0.000000;,
  0.000000;0.000000;,
  0.000000;0.000000;,
  0.000000;0.000000;,
  0.000000;0.000000;,
  0.000000;0.000000;,
  0.000000;0.000000;,
  0.000000;0.000000;,
  0.000000;0.000000;,
  0.000000;0.000000;,
  0.000000;0.000000;,
  0.000000;0.000000;,
  0.000000;0.000000;,
  0.000000;0.000000;,
  0.000000;0.000000;,
  0.000000;0.000000;,
  0.000000;0.000000;,
  0.000000;0.000000;,
  0.000000;0.000000;,
  0.000000;0.000000;,
  0.000000;0.000000;,
  0.000000;0.000000;,
  0.000000;0.000000;,
  0.000000;0.000000;,
  0.000000;0.000000;,
  0.000000;0.000000;,
  0.000000;0.000000;,
  0.000000;0.000000;,
  0.000000;0.000000;,
  1.000000;0.980000;,
  0.930000;0.980000;,
  0.930000;0.020000;,
  1.000000;0.021050;,
  0.744070;0.980000;,
  0.744070;0.020000;,
  0.500000;0.980000;,
  0.500000;0.020000;,
  0.247920;0.980000;,
  0.247920;0.020000;,
  0.070000;0.980000;,
  0.070000;0.020000;,
  0.001210;0.980040;,
  0.000000;0.020000;,
  0.995300;0.489120;,
  0.995300;0.421670;,
  0.752150;0.421670;,
  0.752150;0.489120;,
  0.995300;0.223990;,
  0.752150;0.223990;,
  0.995300;0.006170;,
  0.752150;0.006170;,
  0.995300;0.223990;,
  0.752150;0.223990;,
  0.995300;0.421670;,
  0.752150;0.421670;,
  0.995300;0.489120;,
  0.752150;0.489120;,
  0.751690;0.491480;,
  0.751690;0.423210;,
  0.997010;0.423210;,
  0.997010;0.491480;,
  0.751690;0.223120;,
  0.997010;0.223120;,
  0.751690;0.002630;,
  0.997010;0.002630;,
  0.751690;0.223120;,
  0.997010;0.223120;,
  0.751690;0.423210;,
  0.997010;0.423210;,
  0.751690;0.491480;,
  0.997010;0.491480;,
  0.000000;0.000000;,
  0.000000;0.000000;,
  0.000000;0.000000;,
  0.000000;0.000000;,
  0.000000;0.000000;,
  0.000000;0.000000;,
  0.000000;0.000000;,
  0.000000;0.000000;,
  0.000000;0.000000;,
  0.000000;0.000000;,
  0.000000;0.000000;,
  0.000000;0.000000;,
  0.000000;0.000000;,
  0.000000;0.000000;,
  0.000000;0.000000;,
  0.000000;0.000000;,
  0.000000;0.000000;,
  0.000000;0.000000;,
  0.000000;0.000000;,
  0.000000;0.000000;,
  0.000000;0.000000;,
  0.000000;0.000000;,
  0.000000;0.000000;,
  0.000000;0.000000;,
  0.040150;0.932940;,
  0.040150;0.932940;,
  0.039510;0.910260;,
  0.039510;0.910260;,
  0.037890;0.893890;,
  0.037890;0.893890;,
  0.035630;0.887680;,
  0.035630;0.887680;,
  0.033400;0.893910;,
  0.033400;0.893910;,
  0.031740;0.910300;,
  0.031740;0.910300;,
  0.031160;0.932940;,
  0.031160;0.932940;,
  0.031760;0.955630;,
  0.031760;0.955630;,
  0.033340;0.971810;,
  0.033340;0.971810;,
  0.035630;0.977700;,
  0.035630;0.977700;,
  0.037890;0.972140;,
  0.037890;0.972140;,
  0.039510;0.955460;,
  0.039510;0.955460;,
  0.033400;0.893910;,
  0.035630;0.887680;,
  0.035630;0.899200;,
  0.033990;0.903680;,
  0.032770;0.915920;,
  0.031740;0.910300;,
  0.032330;0.932940;,
  0.031160;0.932940;,
  0.032770;0.949350;,
  0.031760;0.955630;,
  0.033980;0.961580;,
  0.033340;0.971810;,
  0.035630;0.966060;,
  0.035630;0.977700;,
  0.037310;0.961590;,
  0.037890;0.972140;,
  0.038520;0.949360;,
  0.039510;0.955460;,
  0.038970;0.932940;,
  0.040080;0.932940;,
  0.038530;0.915930;,
  0.039510;0.910260;,
  0.037310;0.903680;,
  0.037890;0.893890;,
  0.040150;0.932940;,
  0.039510;0.910260;,
  0.039510;0.910260;,
  0.040150;0.932940;,
  0.037890;0.893890;,
  0.037890;0.893890;,
  0.035630;0.887680;,
  0.035630;0.887680;,
  0.033400;0.893910;,
  0.033400;0.893910;,
  0.031740;0.910300;,
  0.031740;0.910300;,
  0.031160;0.932940;,
  0.031160;0.932940;,
  0.031760;0.955630;,
  0.031760;0.955630;,
  0.033340;0.971810;,
  0.033340;0.971810;,
  0.035630;0.977700;,
  0.035630;0.977700;,
  0.037890;0.972140;,
  0.037890;0.972140;,
  0.039510;0.955460;,
  0.039510;0.955460;,
  0.033400;0.893910;,
  0.033990;0.903680;,
  0.035630;0.899200;,
  0.035630;0.887680;,
  0.031740;0.910300;,
  0.032770;0.915920;,
  0.031160;0.932940;,
  0.032330;0.932940;,
  0.031760;0.955630;,
  0.032770;0.949350;,
  0.033340;0.971810;,
  0.033980;0.961580;,
  0.035630;0.977700;,
  0.035630;0.966060;,
  0.037890;0.972140;,
  0.037310;0.961590;,
  0.039510;0.955460;,
  0.038520;0.949360;,
  0.040080;0.932940;,
  0.038970;0.932940;,
  0.039510;0.910260;,
  0.038530;0.915930;,
  0.037890;0.893890;,
  0.037310;0.903680;,
  0.040150;0.932940;,
  0.039510;0.910260;,
  0.039510;0.910260;,
  0.040150;0.932940;,
  0.037890;0.893890;,
  0.037890;0.893890;,
  0.035630;0.887680;,
  0.035630;0.887680;,
  0.033400;0.893910;,
  0.033400;0.893910;,
  0.031740;0.910300;,
  0.031740;0.910300;,
  0.031160;0.932940;,
  0.031160;0.932940;,
  0.031760;0.955630;,
  0.031760;0.955630;,
  0.033340;0.971810;,
  0.033340;0.971810;,
  0.035630;0.977700;,
  0.035630;0.977700;,
  0.037890;0.972140;,
  0.037890;0.972140;,
  0.039510;0.955460;,
  0.039510;0.955460;,
  0.033400;0.893910;,
  0.033990;0.903680;,
  0.035630;0.899200;,
  0.035630;0.887680;,
  0.031740;0.910300;,
  0.032770;0.915920;,
  0.031160;0.932940;,
  0.032330;0.932940;,
  0.031760;0.955630;,
  0.032770;0.949350;,
  0.033340;0.971810;,
  0.033980;0.961580;,
  0.035630;0.977700;,
  0.035630;0.966060;,
  0.037890;0.972140;,
  0.037310;0.961590;,
  0.039510;0.955460;,
  0.038520;0.949360;,
  0.040080;0.932940;,
  0.038970;0.932940;,
  0.039510;0.910260;,
  0.038530;0.915930;,
  0.037890;0.893890;,
  0.037310;0.903680;,
  0.040150;0.932940;,
  0.040150;0.932940;,
  0.039510;0.910260;,
  0.039510;0.910260;,
  0.037890;0.893890;,
  0.037890;0.893890;,
  0.035630;0.887680;,
  0.035630;0.887680;,
  0.033400;0.893910;,
  0.033400;0.893910;,
  0.031740;0.910300;,
  0.031740;0.910300;,
  0.031160;0.932940;,
  0.031160;0.932940;,
  0.031760;0.955630;,
  0.031760;0.955630;,
  0.033340;0.971810;,
  0.033340;0.971810;,
  0.035630;0.977700;,
  0.035630;0.977700;,
  0.037890;0.972140;,
  0.037890;0.972140;,
  0.039510;0.955460;,
  0.039510;0.955460;,
  0.033400;0.893910;,
  0.035630;0.887680;,
  0.035630;0.899200;,
  0.033990;0.903680;,
  0.032770;0.915920;,
  0.031740;0.910300;,
  0.032330;0.932940;,
  0.031160;0.932940;,
  0.032770;0.949350;,
  0.031760;0.955630;,
  0.033980;0.961580;,
  0.033340;0.971810;,
  0.035630;0.966060;,
  0.035630;0.977700;,
  0.037310;0.961590;,
  0.037890;0.972140;,
  0.038520;0.949360;,
  0.039510;0.955460;,
  0.038970;0.932940;,
  0.040080;0.932940;,
  0.038530;0.915930;,
  0.039510;0.910260;,
  0.037310;0.903680;,
  0.037890;0.893890;,
  0.000000;0.450000;,
  0.000000;0.450000;,
  0.010000;1.000000;,
  0.010000;1.000000;,
  0.045000;0.450000;,
  0.060000;1.000000;,
  0.350000;0.450000;,
  0.350000;1.000000;,
  0.500000;0.450000;,
  0.500000;1.000000;,
  0.650000;0.450000;,
  0.650000;1.000000;,
  0.965000;0.450000;,
  0.940000;1.000000;,
  0.990000;0.450000;,
  0.990000;1.000000;,
  1.000000;0.450000;,
  1.000000;1.000000;,
  0.000000;0.000000;,
  0.000000;0.000000;,
  0.000000;0.000000;,
  0.000000;0.000000;,
  0.000000;0.000000;,
  0.000000;0.000000;,
  0.000000;0.000000;,
  0.000000;0.000000;,
  0.000000;0.000000;,
  0.000000;0.000000;,
  0.000000;0.000000;,
  0.000000;0.000000;,
  0.000000;0.000000;,
  0.000000;0.000000;,
  0.000000;0.000000;,
  0.000000;0.000000;,
  0.000000;0.000000;,
  0.000000;0.000000;,
  0.000000;0.000000;,
  0.000000;0.000000;,
  0.000000;0.000000;,
  0.000000;0.000000;,
  0.000000;0.000000;,
  0.000000;0.000000;,
  0.000000;0.000000;,
  0.000000;0.000000;,
  0.000000;0.000000;,
  0.000000;0.000000;,
  0.000000;0.000000;,
  0.000000;0.000000;,
  0.000000;0.000000;,
  0.000000;0.000000;,
  0.000000;0.000000;,
  0.000000;0.000000;,
  0.000000;0.000000;,
  0.000000;0.000000;,
  0.000000;0.000000;,
  0.000000;0.000000;,
  0.000000;0.000000;,
  0.000000;0.000000;,
  0.000000;0.000000;,
  0.000000;0.000000;,
  0.000000;0.000000;,
  0.000000;0.000000;,
  0.000000;0.000000;,
  0.000000;0.000000;,
  0.000000;0.000000;,
  0.000000;0.000000;,
  0.000000;0.000000;,
  0.000000;0.000000;,
  0.000000;0.000000;,
  0.000000;0.000000;,
  0.000000;0.000000;,
  0.000000;0.000000;,
  0.000000;0.000000;,
  0.000000;0.000000;,
  0.000000;0.000000;,
  0.000000;0.000000;,
  0.000000;0.000000;,
  0.000000;0.000000;,
  0.000000;0.000000;,
  0.000000;0.000000;,
  0.000000;0.000000;,
  0.000000;0.000000;,
  0.000000;0.000000;,
  0.000000;0.000000;,
  0.000000;0.000000;,
  0.000000;0.000000;,
  0.000000;0.000000;,
  0.000000;0.000000;,
  0.000000;0.000000;,
  0.000000;0.000000;,
  0.000000;0.000000;,
  0.000000;0.000000;,
  0.000000;0.000000;,
  0.000000;0.000000;,
  0.000000;0.000000;,
  0.000000;0.000000;,
  0.000000;0.000000;,
  0.000000;0.000000;,
  0.000000;0.000000;,
  0.000000;0.000000;,
  0.000000;0.000000;,
  0.000000;0.000000;,
  0.000000;0.000000;,
  0.000000;0.000000;,
  0.000000;0.000000;,
  0.000000;0.000000;,
  0.000000;0.000000;,
  0.000000;0.000000;,
  0.000000;0.000000;,
  0.000000;0.000000;,
  0.000000;0.000000;,
  0.000000;0.000000;,
  0.000000;0.000000;,
  0.000000;0.000000;,
  0.000000;0.000000;,
  0.000000;0.000000;,
  0.000000;0.000000;,
  0.000000;0.000000;,
  0.000000;0.000000;,
  0.000000;0.000000;,
  0.000000;0.000000;,
  0.000000;0.000000;,
  0.000000;0.000000;,
  0.000000;0.000000;,
  0.990000;0.000000;,
  0.015000;0.000000;,
  0.015000;0.990000;,
  0.990000;0.990000;,
  0.990000;0.000000;,
  0.015000;0.000000;,
  0.015000;0.990000;,
  0.990000;0.990000;,
  0.015000;0.000000;,
  0.990000;0.000000;,
  0.990000;0.990000;,
  0.015000;0.990000;,
  0.015000;0.000000;,
  0.990000;0.000000;,
  0.990000;0.990000;,
  0.015000;0.990000;,
  0.000000;0.000000;,
  1.000000;0.000000;,
  1.000000;0.990000;,
  0.000000;0.990000;,
  0.000000;0.005000;,
  0.250000;0.005000;,
  0.250000;0.495000;,
  0.500000;0.005000;,
  0.615500;0.284100;,
  0.615500;0.284100;,
  0.595880;0.283770;,
  0.595880;0.283770;,
  0.615500;0.204690;,
  0.615500;0.204690;,
  0.595880;0.204060;,
  0.595880;0.204060;,
  0.554920;0.163680;,
  0.612670;0.244770;,
  0.554810;0.326160;,
  0.554810;0.326160;,
  0.554920;0.163680;,
  0.554810;0.326160;,
  0.554920;0.163680;,
  0.510000;0.050000;,
  0.740000;0.050000;,
  0.740000;0.450000;,
  0.510000;0.450000;,
  0.000000;0.000000;,
  0.000000;0.000000;,
  0.000000;0.000000;,
  0.000000;0.000000;,
  0.000000;0.000000;,
  0.000000;0.000000;,
  0.000000;0.000000;,
  0.000000;0.000000;,
  1.000000;0.005000;,
  0.089000;0.005000;,
  0.089000;0.500000;,
  1.000000;0.500000;,
  0.080000;0.005000;,
  0.080000;0.500000;,
  0.068000;0.005000;,
  0.068000;0.500000;,
  0.001000;0.005000;,
  0.001000;0.500000;,
  0.089000;0.700000;,
  1.000000;0.700000;,
  0.075000;0.700000;,
  0.068000;0.700000;,
  0.001000;0.700000;,
  0.089000;0.995000;,
  1.000000;0.995000;,
  0.075000;0.995000;,
  0.066000;0.995000;,
  0.001000;0.995000;,
  0.800000;0.005000;,
  0.800000;0.004500;,
  0.800000;0.004000;,
  0.890000;0.004000;,
  0.800000;0.003500;,
  0.890000;0.003500;,
  0.800000;0.003000;,
  0.890000;0.003000;,
  0.800000;0.002500;,
  0.890000;0.002500;,
  1.000000;0.005000;,
  1.000000;0.500000;,
  0.089000;0.500000;,
  0.089000;0.005000;,
  0.080000;0.500000;,
  0.080000;0.005000;,
  0.068000;0.500000;,
  0.068000;0.005000;,
  0.001000;0.500000;,
  0.001000;0.005000;,
  1.000000;0.700000;,
  0.089000;0.700000;,
  0.075000;0.700000;,
  0.068000;0.700000;,
  0.001000;0.700000;,
  1.000000;0.995000;,
  0.089000;0.995000;,
  0.075000;0.995000;,
  0.066000;0.995000;,
  0.001000;0.995000;,
  0.800000;0.005000;,
  0.800000;0.004500;,
  0.890000;0.004000;,
  0.800000;0.004000;,
  0.890000;0.003500;,
  0.800000;0.003500;,
  0.890000;0.003000;,
  0.800000;0.003000;,
  0.890000;0.002500;,
  0.800000;0.002500;;
 }
}
