xof 0303txt 0032

Header {
 1;
 0;
 1;
}

Mesh {
 247;
 -1.40000;3.11358;9.65000;,
 -1.40000;3.11358;-9.65000;,
 -1.40000;1.90000;-9.65000;,
 -1.40000;1.90000;9.65000;,
 1.40000;3.11358;-9.65000;,
 1.40000;3.11358;9.65000;,
 1.40000;1.90000;9.65000;,
 1.40000;1.90000;-9.65000;,
 1.45000;3.22926;7.19810;,
 1.45000;2.87493;7.19810;,
 1.45000;2.87493;6.00752;,
 1.45000;3.22926;6.00752;,
 -1.45000;3.22926;7.19810;,
 -1.45000;3.22926;6.00752;,
 -1.45000;2.87493;6.00752;,
 -1.45000;2.87493;7.19810;,
 -1.46500;3.30000;9.75000;,
 -1.45500;3.35000;9.75000;,
 -1.45500;3.35000;-9.75000;,
 -1.46500;3.30000;-9.75000;,
 -1.35000;3.50000;9.75000;,
 -1.35000;3.50000;-9.75000;,
 -1.00000;3.58000;9.75000;,
 -1.00000;3.58000;-9.75000;,
 -0.70000;3.63000;9.75000;,
 -0.70000;3.63000;-9.75000;,
 0.00000;3.65000;9.75000;,
 0.00000;3.65000;-9.75000;,
 0.70000;3.63000;9.75000;,
 0.70000;3.63000;-9.75000;,
 1.00000;3.58000;9.75000;,
 1.00000;3.58000;-9.75000;,
 1.35000;3.50000;9.75000;,
 1.35000;3.50000;-9.75000;,
 1.45500;3.35000;9.75000;,
 1.45500;3.35000;-9.75000;,
 1.46500;3.30000;9.75000;,
 1.46500;3.30000;-9.75000;,
 -1.20000;3.45000;1.71602;,
 -1.20000;3.70000;1.71602;,
 -1.20000;3.70000;-1.68398;,
 -1.20000;3.45000;-1.68398;,
 -0.68000;3.95000;1.71602;,
 -0.68000;3.95000;-1.68398;,
 0.00000;4.05000;1.71602;,
 0.00000;4.05000;-1.68398;,
 0.68000;3.95000;1.71602;,
 0.68000;3.95000;-1.68398;,
 1.20000;3.70000;1.71602;,
 1.20000;3.70000;-1.68398;,
 1.20000;3.45000;1.71602;,
 1.20000;3.45000;-1.68398;,
 -1.20000;3.45000;-1.91839;,
 -1.20000;3.70000;-1.91839;,
 -1.20000;3.70000;-3.14754;,
 -1.20000;3.45000;-3.14754;,
 -0.68000;3.95000;-1.91839;,
 -0.68000;3.95000;-3.14754;,
 0.00000;4.05000;-1.91839;,
 0.00000;4.05000;-3.14754;,
 0.68000;3.95000;-1.91839;,
 0.68000;3.95000;-3.14754;,
 1.20000;3.70000;-1.91839;,
 1.20000;3.70000;-3.14754;,
 1.20000;3.45000;-1.91839;,
 1.20000;3.45000;-3.14754;,
 -1.20000;3.45000;3.15598;,
 -1.20000;3.70000;3.15598;,
 -1.20000;3.70000;1.92683;,
 -1.20000;3.45000;1.92683;,
 -0.68000;3.95000;3.15598;,
 -0.68000;3.95000;1.92683;,
 0.00000;4.05000;3.15598;,
 0.00000;4.05000;1.92683;,
 0.68000;3.95000;3.15598;,
 0.68000;3.95000;1.92683;,
 1.20000;3.70000;3.15598;,
 1.20000;3.70000;1.92683;,
 1.20000;3.45000;3.15598;,
 1.20000;3.45000;1.92683;,
 0.60000;-0.00000;-7.83625;,
 -0.60000;0.00000;-7.83625;,
 -0.60000;0.06699;-8.08625;,
 0.60000;0.06699;-8.08625;,
 -0.60000;0.25000;-8.26926;,
 0.60000;0.25000;-8.26926;,
 -0.60000;0.50000;-8.33625;,
 0.60000;0.50000;-8.33625;,
 -0.60000;0.75000;-8.26927;,
 0.60000;0.75000;-8.26927;,
 -0.60000;0.93301;-8.08625;,
 0.60000;0.93301;-8.08625;,
 -0.60000;1.00000;-7.83625;,
 0.60000;1.00000;-7.83625;,
 -0.60000;0.93301;-7.58625;,
 -0.90000;1.10000;-5.20000;,
 0.90000;1.10000;-5.20000;,
 0.90000;0.32000;-5.20000;,
 -0.90000;0.32000;-5.20000;,
 0.60000;0.93301;-7.58625;,
 0.60000;0.75000;-7.40324;,
 0.60000;0.50000;-7.33625;,
 0.60000;0.25000;-7.40324;,
 0.60000;0.06699;-7.58625;,
 -0.60000;0.75000;-7.40324;,
 -0.60000;0.50000;-7.33625;,
 -0.60000;0.25000;-7.40324;,
 -0.60000;0.06699;-7.58625;,
 0.60000;-0.00000;-5.92663;,
 -0.60000;0.00000;-5.92663;,
 -0.60000;0.06699;-6.17663;,
 0.60000;0.06699;-6.17663;,
 -0.60000;0.25000;-6.35964;,
 0.60000;0.25000;-6.35964;,
 -0.60000;0.50000;-6.42663;,
 0.60000;0.50000;-6.42663;,
 -0.60000;0.75000;-6.35964;,
 0.60000;0.75000;-6.35964;,
 -0.60000;0.93301;-6.17663;,
 0.60000;0.93301;-6.17663;,
 -0.60000;1.00000;-5.92663;,
 0.60000;1.00000;-5.92663;,
 -0.60000;0.93301;-5.67663;,
 0.60000;0.93301;-5.67663;,
 0.60000;0.75000;-5.49362;,
 0.60000;0.50000;-5.42663;,
 0.60000;0.25000;-5.49361;,
 0.60000;0.06699;-5.67663;,
 -0.60000;0.75000;-5.49362;,
 -0.60000;0.50000;-5.42663;,
 -0.60000;0.25000;-5.49361;,
 -0.60000;0.06699;-5.67663;,
 0.60000;-0.00000;5.89035;,
 -0.60000;0.00000;5.89035;,
 -0.60000;0.06699;5.64035;,
 0.60000;0.06699;5.64035;,
 -0.60000;0.25000;5.45734;,
 0.60000;0.25000;5.45734;,
 -0.60000;0.50000;5.39035;,
 0.60000;0.50000;5.39035;,
 -0.60000;0.75000;5.45733;,
 0.60000;0.75000;5.45733;,
 -0.60000;0.93301;5.64034;,
 0.60000;0.93301;5.64034;,
 -0.60000;1.00000;5.89035;,
 0.60000;1.00000;5.89035;,
 -0.60000;0.93301;6.14035;,
 0.60000;0.93301;6.14035;,
 0.60000;0.75000;6.32336;,
 0.60000;0.50000;6.39035;,
 0.60000;0.25000;6.32336;,
 0.60000;0.06699;6.14035;,
 -0.60000;0.75000;6.32336;,
 -0.60000;0.50000;6.39035;,
 -0.60000;0.25000;6.32336;,
 -0.60000;0.06699;6.14035;,
 0.60000;-0.00000;7.79922;,
 -0.60000;0.00000;7.79922;,
 -0.60000;0.06699;7.54922;,
 0.60000;0.06699;7.54922;,
 -0.60000;0.25000;7.36620;,
 0.60000;0.25000;7.36620;,
 -0.60000;0.50000;7.29921;,
 0.60000;0.50000;7.29921;,
 -0.60000;0.75000;7.36620;,
 0.60000;0.75000;7.36620;,
 -0.60000;0.93301;7.54921;,
 0.60000;0.93301;7.54921;,
 -0.60000;1.00000;7.79921;,
 0.60000;1.00000;7.79921;,
 -0.60000;0.93301;8.04921;,
 0.60000;0.93301;8.04921;,
 0.60000;0.75000;8.23223;,
 0.60000;0.50000;8.29921;,
 0.60000;0.25000;8.23223;,
 0.60000;0.06699;8.04922;,
 -0.60000;0.75000;8.23223;,
 -0.60000;0.50000;8.29921;,
 -0.60000;0.25000;8.23223;,
 -0.60000;0.06699;8.04922;,
 0.90000;1.10000;9.75000;,
 0.90000;1.10000;-9.75000;,
 0.90000;0.00000;-9.75000;,
 0.90000;0.00000;9.75000;,
 -0.90000;1.10000;9.75000;,
 -0.90000;1.10000;-9.75000;,
 -0.90000;0.00000;-9.75000;,
 -0.90000;0.00000;9.75000;,
 -0.90000;1.10000;-9.75000;,
 -0.90000;1.10000;9.75000;,
 -0.90000;0.00000;9.75000;,
 -0.90000;0.00000;-9.75000;,
 0.90000;1.10000;-9.75000;,
 0.90000;1.10000;9.75000;,
 0.90000;0.00000;9.75000;,
 0.90000;0.00000;-9.75000;,
 -1.20000;1.10000;-9.55000;,
 1.20000;1.10000;-9.55000;,
 1.20000;0.00000;-9.55000;,
 -1.20000;0.00000;-9.55000;,
 -1.20000;1.10000;9.55000;,
 1.20000;1.10000;9.55000;,
 1.20000;0.00000;9.55000;,
 -1.20000;0.00000;9.55000;,
 -1.40000;1.00000;-9.75000;,
 -1.47500;1.60000;-9.75000;,
 1.47500;1.60000;-9.75000;,
 1.40000;1.00000;-9.75000;,
 -1.46500;3.30000;-9.75000;,
 1.46500;3.30000;-9.75000;,
 1.47500;1.60000;-9.75000;,
 -1.47500;1.60000;-9.75000;,
 -1.45500;3.35000;-9.75000;,
 1.45500;3.35000;-9.75000;,
 1.46500;3.30000;-9.75000;,
 -1.46500;3.30000;-9.75000;,
 -1.35000;3.50000;-9.75000;,
 1.35000;3.50000;-9.75000;,
 1.45500;3.35000;-9.75000;,
 -1.45500;3.35000;-9.75000;,
 -1.00000;3.58000;-9.75000;,
 1.00000;3.58000;-9.75000;,
 1.35000;3.50000;-9.75000;,
 -1.35000;3.50000;-9.75000;,
 -0.70000;3.63000;-9.75000;,
 0.70000;3.63000;-9.75000;,
 1.00000;3.58000;-9.75000;,
 -1.00000;3.58000;-9.75000;,
 0.00000;3.65000;-9.75000;,
 0.70000;3.63000;-9.75000;,
 -0.70000;3.63000;-9.75000;,
 -1.46500;3.30000;9.75000;,
 -1.46500;3.30000;-9.75000;,
 -1.47500;2.20000;-9.75000;,
 -1.47500;2.20000;9.75000;,
 -1.47500;1.60000;-9.75000;,
 -1.47500;1.60000;9.75000;,
 -1.40000;1.00000;-9.75000;,
 -1.40000;1.00000;9.75000;,
 1.46500;3.30000;-9.75000;,
 1.46500;3.30000;9.75000;,
 1.47500;2.20000;9.75000;,
 1.47500;2.20000;-9.75000;,
 1.47500;1.60000;9.75000;,
 1.47500;1.60000;-9.75000;,
 1.40000;1.00000;9.75000;,
 1.40000;1.00000;-9.75000;;
 
 134;
 4;0,1,2,3;,
 4;4,5,6,7;,
 4;8,9,10,11;,
 4;12,13,14,15;,
 4;16,17,18,19;,
 4;17,20,21,18;,
 4;20,22,23,21;,
 4;22,24,25,23;,
 4;24,26,27,25;,
 4;26,28,29,27;,
 4;28,30,31,29;,
 4;30,32,33,31;,
 4;32,34,35,33;,
 4;34,36,37,35;,
 4;38,39,40,41;,
 4;39,42,43,40;,
 4;42,44,45,43;,
 4;44,46,47,45;,
 4;46,48,49,47;,
 4;48,50,51,49;,
 4;41,40,49,51;,
 4;49,40,43,47;,
 3;45,47,43;,
 4;52,53,54,55;,
 4;53,56,57,54;,
 4;56,58,59,57;,
 4;58,60,61,59;,
 4;60,62,63,61;,
 4;62,64,65,63;,
 4;55,54,63,65;,
 4;63,54,57,61;,
 3;59,61,57;,
 4;66,67,68,69;,
 4;67,70,71,68;,
 4;70,72,73,71;,
 4;72,74,75,73;,
 4;74,76,77,75;,
 4;76,78,79,77;,
 4;69,68,77,79;,
 4;77,68,71,75;,
 3;73,75,71;,
 4;80,81,82,83;,
 4;83,82,84,85;,
 4;85,84,86,87;,
 4;87,86,88,89;,
 4;89,88,90,91;,
 4;91,90,92,93;,
 3;90,94,92;,
 4;95,96,97,98;,
 4;98,97,96,95;,
 3;91,93,99;,
 4;89,100,101,87;,
 4;87,101,102,85;,
 4;85,102,103,83;,
 3;83,103,80;,
 4;89,91,99,100;,
 4;104,88,86,105;,
 4;105,86,84,106;,
 4;106,84,82,107;,
 3;107,82,81;,
 4;104,94,90,88;,
 4;108,109,110,111;,
 4;111,110,112,113;,
 4;113,112,114,115;,
 4;115,114,116,117;,
 4;117,116,118,119;,
 4;119,118,120,121;,
 3;118,122,120;,
 3;119,121,123;,
 4;117,124,125,115;,
 4;115,125,126,113;,
 4;113,126,127,111;,
 3;111,127,108;,
 4;117,119,123,124;,
 4;128,116,114,129;,
 4;129,114,112,130;,
 4;130,112,110,131;,
 3;131,110,109;,
 4;128,122,118,116;,
 4;132,133,134,135;,
 4;135,134,136,137;,
 4;137,136,138,139;,
 4;139,138,140,141;,
 4;141,140,142,143;,
 4;143,142,144,145;,
 3;142,146,144;,
 3;143,145,147;,
 4;141,148,149,139;,
 4;139,149,150,137;,
 4;137,150,151,135;,
 3;135,151,132;,
 4;141,143,147,148;,
 4;152,140,138,153;,
 4;153,138,136,154;,
 4;154,136,134,155;,
 3;155,134,133;,
 4;152,146,142,140;,
 4;156,157,158,159;,
 4;159,158,160,161;,
 4;161,160,162,163;,
 4;163,162,164,165;,
 4;165,164,166,167;,
 4;167,166,168,169;,
 3;166,170,168;,
 3;167,169,171;,
 4;165,172,173,163;,
 4;163,173,174,161;,
 4;161,174,175,159;,
 3;159,175,156;,
 4;165,167,171,172;,
 4;176,164,162,177;,
 4;177,162,160,178;,
 4;178,160,158,179;,
 3;179,158,157;,
 4;176,170,166,164;,
 4;180,181,182,183;,
 4;184,185,186,187;,
 4;188,189,190,191;,
 4;192,193,194,195;,
 4;196,197,198,199;,
 4;200,201,202,203;,
 4;204,205,206,207;,
 4;208,209,210,211;,
 4;212,213,214,215;,
 4;216,217,218,219;,
 4;220,221,222,223;,
 4;224,225,226,227;,
 3;228,229,230;,
 4;231,232,233,234;,
 4;234,233,235,236;,
 4;236,235,237,238;,
 4;239,240,241,242;,
 4;242,241,243,244;,
 4;244,243,245,246;;
 
 MeshMaterialList {
  9;
  134;
  0,
  0,
  1,
  1,
  2,
  2,
  2,
  2,
  2,
  2,
  2,
  2,
  2,
  2,
  3,
  3,
  3,
  3,
  3,
  3,
  3,
  3,
  3,
  4,
  4,
  4,
  4,
  4,
  4,
  4,
  4,
  4,
  4,
  4,
  4,
  4,
  4,
  4,
  4,
  4,
  4,
  5,
  5,
  5,
  5,
  5,
  5,
  5,
  5,
  5,
  5,
  5,
  5,
  5,
  5,
  5,
  5,
  5,
  5,
  5,
  5,
  5,
  5,
  5,
  5,
  5,
  5,
  5,
  5,
  5,
  5,
  5,
  5,
  5,
  5,
  5,
  5,
  5,
  5,
  5,
  5,
  5,
  5,
  5,
  5,
  5,
  5,
  5,
  5,
  5,
  5,
  5,
  5,
  5,
  5,
  5,
  5,
  5,
  5,
  5,
  5,
  5,
  5,
  5,
  5,
  5,
  5,
  5,
  5,
  5,
  5,
  5,
  5,
  5,
  5,
  6,
  6,
  6,
  6,
  7,
  7,
  8,
  8,
  8,
  8,
  8,
  8,
  8,
  8,
  8,
  8,
  8,
  8,
  8;;
  Material {
   0.325000;0.325000;0.325000;1.000000;;
   0.000000;
   0.000000;0.000000;0.000000;;
   0.300000;0.300000;0.250000;;
  }
  Material {
   0.980000;0.980000;0.980000;1.000000;;
   0.000000;
   0.000000;0.000000;0.000000;;
   0.300000;0.300000;0.250000;;
  }
  Material {
   0.478000;0.478000;0.478000;1.000000;;
   0.000000;
   0.000000;0.000000;0.000000;;
   0.000000;0.000000;0.000000;;
  }
  Material {
   1.000000;1.000000;1.000000;1.000000;;
   0.000000;
   0.000000;0.000000;0.000000;;
   0.000000;0.000000;0.000000;;
   TextureFilename {
    "000_27.dds";
   }
  }
  Material {
   1.000000;1.000000;1.000000;1.000000;;
   0.000000;
   0.000000;0.000000;0.000000;;
   0.000000;0.000000;0.000000;;
   TextureFilename {
    "185_04.dds";
   }
  }
  Material {
   0.098000;0.098000;0.098000;1.000000;;
   0.000000;
   0.000000;0.000000;0.000000;;
   0.000000;0.000000;0.000000;;
  }
  Material {
   1.000000;1.000000;1.000000;1.000000;;
   0.000000;
   0.000000;0.000000;0.000000;;
   0.000000;0.000000;0.000000;;
   TextureFilename {
    "000_01.dds";
   }
  }
  Material {
   1.000000;1.000000;1.000000;1.000000;;
   0.000000;
   0.000000;0.000000;0.000000;;
   0.000000;0.000000;0.000000;;
   TextureFilename {
    "000_10.dds";
   }
  }
  Material {
   1.000000;1.000000;1.000000;1.000000;;
   0.000000;
   0.000000;0.000000;0.000000;;
   0.000000;0.000000;0.000000;;
   TextureFilename {
    "185_03.dds";
   }
  }
 }
 MeshNormals {
  69;
  -1.000000;0.000000;0.000000;,
  1.000000;0.000000;0.000000;,
  -0.980581;0.196116;0.000000;,
  -0.919472;0.393155;0.000000;,
  -0.558346;0.829608;0.000000;,
  -0.193698;0.981061;0.000000;,
  -0.096705;0.995313;0.000000;,
  0.000000;1.000000;0.000000;,
  0.096705;0.995313;0.000000;,
  0.193698;0.981061;0.000000;,
  0.558346;0.829608;0.000000;,
  0.919472;0.393155;0.000000;,
  0.980581;0.196116;0.000000;,
  -1.000000;0.000000;0.000000;,
  -0.292728;0.956196;0.000000;,
  0.000000;1.000000;0.000000;,
  0.292728;0.956196;0.000000;,
  0.433294;0.901252;0.000000;,
  1.000000;0.000000;0.000000;,
  -0.292728;0.956196;0.000000;,
  0.292728;0.956196;0.000000;,
  0.433294;0.901252;0.000000;,
  -0.433294;0.901252;0.000000;,
  0.000000;0.000000;-1.000000;,
  -0.433294;0.901252;0.000000;,
  0.000001;0.965925;-0.258822;,
  -1.000000;0.000007;-0.000000;,
  1.000000;-0.000003;0.000000;,
  -1.000000;0.000000;0.000000;,
  1.000000;0.000000;0.000000;,
  -1.000000;0.000003;-0.000000;,
  1.000000;-0.000007;0.000000;,
  -0.000001;-0.965927;-0.258816;,
  -0.000001;-0.866027;-0.499996;,
  -0.000000;-0.500003;-0.866023;,
  0.000000;-0.000004;-1.000000;,
  0.000001;0.499997;-0.866027;,
  0.000001;0.866024;-0.500002;,
  0.000000;0.000000;-1.000000;,
  1.000000;-0.000003;0.000000;,
  -1.000000;0.000003;-0.000000;,
  0.000001;0.965925;-0.258821;,
  -1.000000;0.000007;-0.000000;,
  1.000000;-0.000003;0.000000;,
  0.000000;-0.000005;-1.000000;,
  0.000001;0.499995;-0.866028;,
  0.000001;0.866024;-0.500003;,
  0.000001;0.965925;-0.258823;,
  -1.000000;0.000007;-0.000000;,
  1.000000;-0.000003;0.000000;,
  0.000001;0.499998;-0.866027;,
  0.000001;0.866024;-0.500002;,
  -1.000000;0.000015;-0.000000;,
  0.000000;0.000000;1.000000;,
  1.000000;-0.000015;0.000000;,
  -1.000000;0.000015;-0.000000;,
  -1.000000;0.000015;-0.000000;,
  -1.000000;0.000000;0.000000;,
  1.000000;0.000000;0.000000;,
  0.000000;0.000000;-1.000000;,
  0.000000;0.000000;-1.000000;,

  -0.999959;0.009091;0.000000;,
  -0.999990;0.007778;0.000000;,
  -0.998068;-0.006993;0.000000;,
  -0.992278;-0.205260;0.000000;,
  0.999959;0.009091;0.000000;,
  0.999990;0.007778;0.000000;,
  0.998068;-0.006993;-0.000000;,
  0.992278;-0.205260;-0.000000;;
  134;
  4;0,0,0,0;,
  4;1,1,1,1;,
  4;1,1,1,1;,
  4;0,0,0,0;,
  4;2,3,3,2;,
  4;3,4,4,3;,
  4;4,5,5,4;,
  4;5,6,6,5;,
  4;6,7,7,6;,
  4;7,8,8,7;,
  4;8,9,9,8;,
  4;9,10,10,9;,
  4;10,11,11,10;,
  4;11,12,12,11;,
  4;13,13,13,13;,
  4;22,14,14,22;,
  4;14,15,15,14;,
  4;15,16,16,15;,
  4;16,17,17,16;,
  4;18,18,18,18;,
  4;23,23,23,23;,
  4;23,23,23,23;,
  3;23,23,23;,
  4;13,13,13,13;,
  4;22,14,14,22;,
  4;14,15,15,14;,
  4;15,16,16,15;,
  4;16,17,17,16;,
  4;18,18,18,18;,
  4;23,23,23,23;,
  4;23,23,23,23;,
  3;23,23,23;,
  4;13,13,13,13;,
  4;24,19,19,24;,
  4;19,15,15,19;,
  4;15,20,20,15;,
  4;20,21,21,20;,
  4;18,18,18,18;,
  4;23,23,23,23;,
  4;23,23,23,23;,
  3;23,23,23;,
  4;32,32,33,33;,
  4;33,33,34,34;,
  4;34,34,35,35;,
  4;35,35,36,36;,
  4;36,36,37,37;,
  4;37,37,25,25;,
  3;26,26,52;,
  4;38,38,38,38;,
  4;53,53,53,53;,
  3;27,29,27;,
  4;27,27,29,29;,
  4;29,29,29,29;,
  4;29,29,31,31;,
  3;31,31,54;,
  4;27,27,27,27;,
  4;28,28,28,28;,
  4;28,28,30,30;,
  4;30,30,30,30;,
  3;30,30,28;,
  4;28,26,26,28;,
  4;32,32,33,33;,
  4;33,33,34,34;,
  4;34,34,35,35;,
  4;35,35,36,36;,
  4;36,36,37,37;,
  4;37,37,25,25;,
  3;26,26,52;,
  3;39,29,39;,
  4;39,39,29,29;,
  4;29,29,29,29;,
  4;29,29,31,31;,
  3;31,31,54;,
  4;39,39,39,39;,
  4;28,28,28,28;,
  4;28,28,40,40;,
  4;40,40,40,40;,
  3;40,40,28;,
  4;28,26,26,28;,
  4;32,32,33,33;,
  4;33,33,34,34;,
  4;34,34,44,44;,
  4;44,44,45,45;,
  4;45,45,46,46;,
  4;46,46,41,41;,
  3;42,42,55;,
  3;43,29,43;,
  4;43,43,29,29;,
  4;29,29,29,29;,
  4;29,29,31,31;,
  3;31,31,54;,
  4;43,43,43,43;,
  4;28,28,28,28;,
  4;28,28,40,40;,
  4;40,40,40,40;,
  3;40,40,28;,
  4;28,42,42,28;,
  4;32,32,33,33;,
  4;33,33,34,34;,
  4;34,34,35,35;,
  4;35,35,50,50;,
  4;50,50,51,51;,
  4;51,51,47,47;,
  3;48,48,56;,
  3;49,29,49;,
  4;49,49,29,29;,
  4;29,29,29,29;,
  4;29,29,31,31;,
  3;31,31,54;,
  4;49,49,49,49;,
  4;28,28,28,28;,
  4;28,28,40,40;,
  4;40,40,40,40;,
  3;40,40,28;,
  4;28,48,48,28;,
  4;57,57,57,57;,
  4;57,57,57,57;,
  4;58,58,58,58;,
  4;58,58,58,58;,
  4;59,59,59,59;,
  4;59,59,59,59;,
  4;60,60,60,60;,
  4;60,60,60,60;,
  4;60,60,60,60;,
  4;60,60,60,60;,
  4;60,60,60,60;,
  4;60,60,60,60;,
  3;60,60,60;,
  4;61,61,62,62;,
  4;62,62,63,63;,
  4;63,63,64,64;,
  4;65,65,66,66;,
  4;66,66,67,67;,
  4;67,67,68,68;;
 }
 MeshTextureCoords {
  247;
  0.000000;0.000000;,
  0.000000;0.000000;,
  0.000000;0.000000;,
  0.000000;0.000000;,
  0.000000;0.000000;,
  0.000000;0.000000;,
  0.000000;0.000000;,
  0.000000;0.000000;,
  0.000000;0.000000;,
  1.000000;0.000000;,
  1.000000;1.000000;,
  0.000000;1.000000;,
  0.000000;0.000000;,
  0.000000;1.000000;,
  1.000000;1.000000;,
  1.000000;0.000000;,
  0.000000;0.000000;,
  0.000000;0.000000;,
  0.000000;0.000000;,
  0.000000;0.000000;,
  0.000000;0.000000;,
  0.000000;0.000000;,
  0.000000;0.000000;,
  0.000000;0.000000;,
  0.000000;0.000000;,
  0.000000;0.000000;,
  0.000000;0.000000;,
  0.000000;0.000000;,
  0.000000;0.000000;,
  0.000000;0.000000;,
  0.000000;0.000000;,
  0.000000;0.000000;,
  0.000000;0.000000;,
  0.000000;0.000000;,
  0.000000;0.000000;,
  0.000000;0.000000;,
  0.000000;0.000000;,
  0.000000;0.000000;,
  1.000000;0.980000;,
  0.930000;0.980000;,
  0.930000;0.020000;,
  1.000000;0.021050;,
  0.744070;0.980000;,
  0.744070;0.020000;,
  0.500000;0.980000;,
  0.500000;0.020000;,
  0.247920;0.980000;,
  0.247920;0.020000;,
  0.070000;0.980000;,
  0.070000;0.020000;,
  0.001210;0.980040;,
  0.000000;0.020000;,
  0.995300;0.489120;,
  0.995300;0.421670;,
  0.752150;0.421670;,
  0.752150;0.489120;,
  0.995300;0.223990;,
  0.752150;0.223990;,
  0.995300;0.006170;,
  0.752150;0.006170;,
  0.995300;0.223990;,
  0.752150;0.223990;,
  0.995300;0.421670;,
  0.752150;0.421670;,
  0.995300;0.489120;,
  0.752150;0.489120;,
  0.751690;0.491480;,
  0.751690;0.423210;,
  0.997010;0.423210;,
  0.997010;0.491480;,
  0.751690;0.223120;,
  0.997010;0.223120;,
  0.751690;0.002630;,
  0.997010;0.002630;,
  0.751690;0.223120;,
  0.997010;0.223120;,
  0.751690;0.423210;,
  0.997010;0.423210;,
  0.751690;0.491480;,
  0.997010;0.491480;,
  0.000000;0.000000;,
  0.000000;0.000000;,
  0.000000;0.000000;,
  0.000000;0.000000;,
  0.000000;0.000000;,
  0.000000;0.000000;,
  0.000000;0.000000;,
  0.000000;0.000000;,
  0.000000;0.000000;,
  0.000000;0.000000;,
  0.000000;0.000000;,
  0.000000;0.000000;,
  0.000000;0.000000;,
  0.000000;0.000000;,
  0.000000;0.000000;,
  0.000000;0.000000;,
  0.000000;0.000000;,
  0.000000;0.000000;,
  0.000000;0.000000;,
  0.000000;0.000000;,
  0.000000;0.000000;,
  0.000000;0.000000;,
  0.000000;0.000000;,
  0.000000;0.000000;,
  0.000000;0.000000;,
  0.000000;0.000000;,
  0.000000;0.000000;,
  0.000000;0.000000;,
  0.000000;0.000000;,
  0.000000;0.000000;,
  0.000000;0.000000;,
  0.000000;0.000000;,
  0.000000;0.000000;,
  0.000000;0.000000;,
  0.000000;0.000000;,
  0.000000;0.000000;,
  0.000000;0.000000;,
  0.000000;0.000000;,
  0.000000;0.000000;,
  0.000000;0.000000;,
  0.000000;0.000000;,
  0.000000;0.000000;,
  0.000000;0.000000;,
  0.000000;0.000000;,
  0.000000;0.000000;,
  0.000000;0.000000;,
  0.000000;0.000000;,
  0.000000;0.000000;,
  0.000000;0.000000;,
  0.000000;0.000000;,
  0.000000;0.000000;,
  0.000000;0.000000;,
  0.000000;0.000000;,
  0.000000;0.000000;,
  0.000000;0.000000;,
  0.000000;0.000000;,
  0.000000;0.000000;,
  0.000000;0.000000;,
  0.000000;0.000000;,
  0.000000;0.000000;,
  0.000000;0.000000;,
  0.000000;0.000000;,
  0.000000;0.000000;,
  0.000000;0.000000;,
  0.000000;0.000000;,
  0.000000;0.000000;,
  0.000000;0.000000;,
  0.000000;0.000000;,
  0.000000;0.000000;,
  0.000000;0.000000;,
  0.000000;0.000000;,
  0.000000;0.000000;,
  0.000000;0.000000;,
  0.000000;0.000000;,
  0.000000;0.000000;,
  0.000000;0.000000;,
  0.000000;0.000000;,
  0.000000;0.000000;,
  0.000000;0.000000;,
  0.000000;0.000000;,
  0.000000;0.000000;,
  0.000000;0.000000;,
  0.000000;0.000000;,
  0.000000;0.000000;,
  0.000000;0.000000;,
  0.000000;0.000000;,
  0.000000;0.000000;,
  0.000000;0.000000;,
  0.000000;0.000000;,
  0.000000;0.000000;,
  0.000000;0.000000;,
  0.000000;0.000000;,
  0.000000;0.000000;,
  0.000000;0.000000;,
  0.000000;0.000000;,
  0.000000;0.000000;,
  0.000000;0.000000;,
  0.000000;0.000000;,
  0.000000;0.000000;,
  0.000000;0.000000;,
  0.990000;0.000000;,
  0.010000;0.000000;,
  0.010000;0.990000;,
  0.990000;0.990000;,
  0.990000;0.000000;,
  0.010000;0.000000;,
  0.010000;0.990000;,
  0.990000;0.990000;,
  0.010000;0.000000;,
  0.990000;0.000000;,
  0.990000;0.990000;,
  0.010000;0.990000;,
  0.010000;0.000000;,
  0.990000;0.000000;,
  0.990000;0.990000;,
  0.010000;0.990000;,
  0.000000;0.000000;,
  1.000000;0.000000;,
  1.000000;0.990000;,
  0.000000;0.990000;,
  0.000000;0.000000;,
  1.000000;0.000000;,
  1.000000;0.990000;,
  0.000000;0.990000;,
  0.271010;0.202570;,
  0.270760;0.165490;,
  0.280300;0.165670;,
  0.280050;0.202790;,
  0.270800;0.060250;,
  0.280260;0.060280;,
  0.280300;0.165670;,
  0.270760;0.165490;,
  0.270830;0.057150;,
  0.280250;0.057180;,
  0.280260;0.060280;,
  0.270800;0.060250;,
  0.271160;0.047850;,
  0.279900;0.047870;,
  0.280250;0.057180;,
  0.270830;0.057150;,
  0.272300;0.042890;,
  0.278760;0.042900;,
  0.279900;0.047870;,
  0.271160;0.047850;,
  0.273260;0.039790;,
  0.277800;0.039790;,
  0.278760;0.042900;,
  0.272300;0.042890;,
  0.275530;0.038550;,
  0.277800;0.039790;,
  0.273260;0.039790;,
  1.000000;0.005000;,
  0.000000;0.005000;,
  0.000000;0.500000;,
  1.000000;0.500000;,
  0.000000;0.700000;,
  1.000000;0.700000;,
  0.000000;0.995000;,
  1.000000;0.995000;,
  0.000000;0.005000;,
  1.000000;0.005000;,
  1.000000;0.500000;,
  0.000000;0.500000;,
  1.000000;0.700000;,
  0.000000;0.700000;,
  1.000000;0.995000;,
  0.000000;0.995000;;
 }
}
