xof 0303txt 0032

Header {
 1;
 0;
 1;
}

Mesh {
 425;
 -1.40000;3.11358;9.65000;,
 -1.40000;3.11358;-9.65000;,
 -1.40000;1.90000;-9.65000;,
 -1.40000;1.90000;9.65000;,
 1.40000;3.11358;-9.65000;,
 1.40000;3.11358;9.65000;,
 1.40000;1.90000;9.65000;,
 1.40000;1.90000;-9.65000;,
 1.45000;3.22926;6.19810;,
 1.45000;2.87493;6.19810;,
 1.45000;2.87493;5.00752;,
 1.45000;3.22926;5.00752;,
 -1.45000;3.22926;6.19810;,
 -1.45000;3.22926;5.00752;,
 -1.45000;2.87493;5.00752;,
 -1.45000;2.87493;6.19810;,
 -1.46500;3.30000;9.75000;,
 -1.45500;3.35000;9.75000;,
 -1.45500;3.35000;-9.75000;,
 -1.46500;3.30000;-9.75000;,
 -1.35000;3.50000;9.75000;,
 -1.35000;3.50000;-9.75000;,
 -1.00000;3.58000;9.75000;,
 -1.00000;3.58000;-9.75000;,
 -0.70000;3.63000;9.75000;,
 -0.70000;3.63000;-9.75000;,
 0.00000;3.65000;9.75000;,
 0.00000;3.65000;-9.75000;,
 0.70000;3.63000;9.75000;,
 0.70000;3.63000;-9.75000;,
 1.00000;3.58000;9.75000;,
 1.00000;3.58000;-9.75000;,
 1.35000;3.50000;9.75000;,
 1.35000;3.50000;-9.75000;,
 1.45500;3.35000;9.75000;,
 1.45500;3.35000;-9.75000;,
 1.46500;3.30000;9.75000;,
 1.46500;3.30000;-9.75000;,
 -1.20000;3.45000;1.71602;,
 -1.20000;3.70000;1.71602;,
 -1.20000;3.70000;-1.68398;,
 -1.20000;3.45000;-1.68398;,
 -0.68000;3.95000;1.71602;,
 -0.68000;3.95000;-1.68398;,
 0.00000;4.05000;1.71602;,
 0.00000;4.05000;-1.68398;,
 0.68000;3.95000;1.71602;,
 0.68000;3.95000;-1.68398;,
 1.20000;3.70000;1.71602;,
 1.20000;3.70000;-1.68398;,
 1.20000;3.45000;1.71602;,
 1.20000;3.45000;-1.68398;,
 -1.20000;3.45000;-1.91839;,
 -1.20000;3.70000;-1.91839;,
 -1.20000;3.70000;-3.14754;,
 -1.20000;3.45000;-3.14754;,
 -0.68000;3.95000;-1.91839;,
 -0.68000;3.95000;-3.14754;,
 0.00000;4.05000;-1.91839;,
 0.00000;4.05000;-3.14754;,
 0.68000;3.95000;-1.91839;,
 0.68000;3.95000;-3.14754;,
 1.20000;3.70000;-1.91839;,
 1.20000;3.70000;-3.14754;,
 1.20000;3.45000;-1.91839;,
 1.20000;3.45000;-3.14754;,
 -1.20000;3.45000;3.15598;,
 -1.20000;3.70000;3.15598;,
 -1.20000;3.70000;1.92683;,
 -1.20000;3.45000;1.92683;,
 -0.68000;3.95000;3.15598;,
 -0.68000;3.95000;1.92683;,
 0.00000;4.05000;3.15598;,
 0.00000;4.05000;1.92683;,
 0.68000;3.95000;3.15598;,
 0.68000;3.95000;1.92683;,
 1.20000;3.70000;3.15598;,
 1.20000;3.70000;1.92683;,
 1.20000;3.45000;3.15598;,
 1.20000;3.45000;1.92683;,
 0.50000;3.86000;6.07435;,
 0.50000;3.76000;6.07435;,
 -0.50000;3.76000;6.07435;,
 -0.50000;3.86000;6.07435;,
 -0.50000;3.76000;7.67435;,
 -0.50000;3.86000;7.67435;,
 0.50000;3.86000;7.67435;,
 0.50000;3.76000;7.67435;,
 0.60000;5.10000;6.93935;,
 0.60000;5.04000;6.93935;,
 -0.60000;5.04000;6.93935;,
 -0.60000;5.10000;6.93935;,
 -0.60000;5.04000;7.03935;,
 -0.60000;5.10000;7.03935;,
 0.60000;5.10000;7.03935;,
 0.60000;5.04000;7.03935;,
 0.60000;5.10000;6.70935;,
 0.60000;5.04000;6.70935;,
 -0.60000;5.04000;6.70935;,
 -0.60000;5.10000;6.70935;,
 -0.60000;5.04000;6.80935;,
 -0.60000;5.10000;6.80935;,
 0.60000;5.10000;6.80935;,
 0.60000;5.04000;6.80935;,
 0.14309;3.50000;8.70725;,
 0.14309;4.00000;8.70725;,
 0.08967;4.00000;8.87530;,
 0.08967;3.50000;8.87530;,
 -0.08666;3.50000;8.87642;,
 -0.08666;4.00000;8.87642;,
 -0.14222;4.00000;8.70907;,
 -0.14222;3.50000;8.70907;,
 -0.00023;4.00000;8.60452;,
 -0.00023;3.50000;8.60452;,
 0.64000;3.47500;6.02935;,
 0.64000;3.82500;6.02935;,
 0.55000;3.82500;6.11935;,
 0.55000;3.47500;6.11935;,
 0.46000;3.82500;6.02935;,
 0.46000;3.47500;6.02935;,
 0.55000;3.82500;5.93935;,
 0.55000;3.47500;5.93935;,
 -0.46000;3.47500;6.02935;,
 -0.46000;3.82500;6.02935;,
 -0.55000;3.82500;6.11935;,
 -0.55000;3.47500;6.11935;,
 -0.64000;3.82500;6.02935;,
 -0.64000;3.47500;6.02935;,
 -0.55000;3.82500;5.93935;,
 -0.55000;3.47500;5.93935;,
 0.64000;3.47500;7.71935;,
 0.64000;3.82500;7.71935;,
 0.55000;3.82500;7.80935;,
 0.55000;3.47500;7.80935;,
 0.46000;3.82500;7.71935;,
 0.46000;3.47500;7.71935;,
 0.55000;3.82500;7.62935;,
 0.55000;3.47500;7.62935;,
 -0.46000;3.47500;7.71935;,
 -0.46000;3.82500;7.71935;,
 -0.55000;3.82500;7.80935;,
 -0.55000;3.47500;7.80935;,
 -0.64000;3.82500;7.71935;,
 -0.64000;3.47500;7.71935;,
 -0.55000;3.82500;7.62935;,
 -0.55000;3.47500;7.62935;,
 0.45570;4.40840;5.36435;,
 0.45570;3.80470;6.19865;,
 0.44080;3.79140;6.19093;,
 0.44080;4.39470;5.36435;,
 0.42570;3.80470;6.19865;,
 0.42570;4.40840;5.36435;,
 0.44080;3.81790;6.20638;,
 0.44080;4.42200;5.36435;,
 0.45570;3.80470;7.55005;,
 0.45570;4.40840;8.38435;,
 0.44080;4.39470;8.38435;,
 0.44080;3.79140;7.55778;,
 0.42570;4.40840;8.38435;,
 0.42570;3.80470;7.55005;,
 0.44080;4.42200;8.38435;,
 0.44080;3.81790;7.54232;,
 -0.42390;4.40840;5.36435;,
 -0.42390;3.80470;6.19865;,
 -0.43870;3.79140;6.19093;,
 -0.43870;4.39470;5.36435;,
 -0.45390;3.80470;6.19865;,
 -0.45390;4.40840;5.36435;,
 -0.43870;3.81763;6.20638;,
 -0.43870;4.42200;5.36435;,
 -0.42390;3.80470;7.55005;,
 -0.42390;4.40840;8.38435;,
 -0.43870;4.39470;8.38435;,
 -0.43870;3.79140;7.55778;,
 -0.45390;4.40840;8.38435;,
 -0.45390;3.80470;7.55005;,
 -0.43870;4.42200;8.38435;,
 -0.43870;3.81763;7.54232;,
 0.45570;5.07570;6.87435;,
 0.44080;5.06160;6.87435;,
 0.42570;5.07570;6.87435;,
 0.44080;5.08980;6.87435;,
 -0.42390;5.07570;6.87435;,
 -0.43870;5.06160;6.87435;,
 -0.45390;5.07570;6.87435;,
 -0.43870;5.08980;6.87435;,
 0.45570;3.80470;6.46025;,
 0.44080;3.79140;6.45405;,
 0.42570;3.80470;6.46025;,
 0.44080;3.81810;6.46645;,
 0.45570;3.80470;7.28955;,
 0.44080;3.79140;7.29575;,
 0.42570;3.80470;7.28955;,
 0.44080;3.81810;7.28335;,
 -0.42390;3.80470;6.46025;,
 -0.43870;3.79140;6.45405;,
 -0.45390;3.80470;6.46025;,
 -0.43870;3.81810;6.46645;,
 -0.42390;3.80470;7.28955;,
 -0.43870;3.79140;7.29575;,
 -0.45390;3.80470;7.28955;,
 -0.43870;3.81810;7.28335;,
 -0.20000;3.80470;7.28955;,
 -0.21500;3.81810;7.28335;,
 -0.23000;3.80470;7.28955;,
 -0.21500;3.79140;7.29575;,
 0.23000;3.80470;7.28955;,
 0.21500;3.81810;7.28335;,
 0.20000;3.80470;7.28955;,
 0.21500;3.79140;7.29575;,
 -0.20000;3.80470;6.46025;,
 -0.21500;3.81810;6.46645;,
 -0.23000;3.80470;6.46025;,
 -0.21500;3.79140;6.45405;,
 0.23000;3.80470;6.46025;,
 0.21500;3.81810;6.46645;,
 0.20000;3.80470;6.46025;,
 0.21500;3.79140;6.45405;,
 -0.93155;4.90237;6.73935;,
 -0.92173;4.88512;6.75935;,
 -0.93155;4.90237;6.77935;,
 -0.94158;4.91962;6.75935;,
 0.94140;4.91950;6.75935;,
 0.93154;4.90290;6.77935;,
 0.92135;4.88528;6.75935;,
 0.93154;4.90290;6.73935;,
 -0.93155;4.90237;6.96935;,
 -0.92173;4.88512;6.98935;,
 -0.93155;4.90237;7.00935;,
 -0.94158;4.91962;6.98935;,
 0.94140;4.91950;6.98935;,
 0.93154;4.90290;7.00935;,
 0.92135;4.88528;6.98935;,
 0.93154;4.90290;6.96935;,
 0.62850;5.09000;6.75935;,
 0.62850;5.07000;6.77935;,
 0.62850;5.05000;6.75935;,
 0.62850;5.07000;6.73935;,
 0.62850;5.09000;6.98935;,
 0.62850;5.07000;7.00935;,
 0.62850;5.05000;6.98935;,
 0.62850;5.07000;6.96935;,
 -0.62863;5.09000;6.75935;,
 -0.62863;5.07000;6.77935;,
 -0.62863;5.05000;6.75935;,
 -0.62863;5.07000;6.73935;,
 -0.62863;5.09000;6.98935;,
 -0.62863;5.07000;7.00935;,
 -0.62863;5.05000;6.98935;,
 -0.62863;5.07000;6.96935;,
 0.44080;5.08980;6.87435;,
 -0.43870;5.08980;6.87435;,
 -0.43870;5.07570;6.88935;,
 0.44080;5.07570;6.88935;,
 -0.43870;5.06160;6.87435;,
 0.44080;5.06160;6.87435;,
 -0.43870;5.07570;6.85935;,
 0.44080;5.07570;6.85935;,
 0.60000;-0.00000;-7.83625;,
 -0.60000;0.00000;-7.83625;,
 -0.60000;0.06699;-8.08625;,
 0.60000;0.06699;-8.08625;,
 -0.60000;0.25000;-8.26926;,
 0.60000;0.25000;-8.26926;,
 -0.60000;0.50000;-8.33625;,
 0.60000;0.50000;-8.33625;,
 -0.60000;0.75000;-8.26927;,
 0.60000;0.75000;-8.26927;,
 -0.60000;0.93301;-8.08625;,
 0.60000;0.93301;-8.08625;,
 -0.60000;1.00000;-7.83625;,
 0.60000;1.00000;-7.83625;,
 -0.60000;0.93301;-7.58625;,
 -0.90000;1.10000;-5.20000;,
 0.90000;1.10000;-5.20000;,
 0.90000;0.32000;-5.20000;,
 -0.90000;0.32000;-5.20000;,
 0.60000;0.93301;-7.58625;,
 0.60000;0.75000;-7.40324;,
 0.60000;0.50000;-7.33625;,
 0.60000;0.25000;-7.40324;,
 0.60000;0.06699;-7.58625;,
 -0.60000;0.75000;-7.40324;,
 -0.60000;0.50000;-7.33625;,
 -0.60000;0.25000;-7.40324;,
 -0.60000;0.06699;-7.58625;,
 0.60000;-0.00000;-5.92663;,
 -0.60000;0.00000;-5.92663;,
 -0.60000;0.06699;-6.17663;,
 0.60000;0.06699;-6.17663;,
 -0.60000;0.25000;-6.35964;,
 0.60000;0.25000;-6.35964;,
 -0.60000;0.50000;-6.42663;,
 0.60000;0.50000;-6.42663;,
 -0.60000;0.75000;-6.35964;,
 0.60000;0.75000;-6.35964;,
 -0.60000;0.93301;-6.17663;,
 0.60000;0.93301;-6.17663;,
 -0.60000;1.00000;-5.92663;,
 0.60000;1.00000;-5.92663;,
 -0.60000;0.93301;-5.67663;,
 0.60000;0.93301;-5.67663;,
 0.60000;0.75000;-5.49362;,
 0.60000;0.50000;-5.42663;,
 0.60000;0.25000;-5.49361;,
 0.60000;0.06699;-5.67663;,
 -0.60000;0.75000;-5.49362;,
 -0.60000;0.50000;-5.42663;,
 -0.60000;0.25000;-5.49361;,
 -0.60000;0.06699;-5.67663;,
 0.60000;-0.00000;5.89035;,
 -0.60000;0.00000;5.89035;,
 -0.60000;0.06699;5.64035;,
 0.60000;0.06699;5.64035;,
 -0.60000;0.25000;5.45734;,
 0.60000;0.25000;5.45734;,
 -0.60000;0.50000;5.39035;,
 0.60000;0.50000;5.39035;,
 -0.60000;0.75000;5.45733;,
 0.60000;0.75000;5.45733;,
 -0.60000;0.93301;5.64034;,
 0.60000;0.93301;5.64034;,
 -0.60000;1.00000;5.89035;,
 0.60000;1.00000;5.89035;,
 -0.60000;0.93301;6.14035;,
 0.60000;0.93301;6.14035;,
 0.60000;0.75000;6.32336;,
 0.60000;0.50000;6.39035;,
 0.60000;0.25000;6.32336;,
 0.60000;0.06699;6.14035;,
 -0.60000;0.75000;6.32336;,
 -0.60000;0.50000;6.39035;,
 -0.60000;0.25000;6.32336;,
 -0.60000;0.06699;6.14035;,
 0.60000;-0.00000;7.79922;,
 -0.60000;0.00000;7.79922;,
 -0.60000;0.06699;7.54922;,
 0.60000;0.06699;7.54922;,
 -0.60000;0.25000;7.36620;,
 0.60000;0.25000;7.36620;,
 -0.60000;0.50000;7.29921;,
 0.60000;0.50000;7.29921;,
 -0.60000;0.75000;7.36620;,
 0.60000;0.75000;7.36620;,
 -0.60000;0.93301;7.54921;,
 0.60000;0.93301;7.54921;,
 -0.60000;1.00000;7.79921;,
 0.60000;1.00000;7.79921;,
 -0.60000;0.93301;8.04921;,
 0.60000;0.93301;8.04921;,
 0.60000;0.75000;8.23223;,
 0.60000;0.50000;8.29921;,
 0.60000;0.25000;8.23223;,
 0.60000;0.06699;8.04922;,
 -0.60000;0.75000;8.23223;,
 -0.60000;0.50000;8.29921;,
 -0.60000;0.25000;8.23223;,
 -0.60000;0.06699;8.04922;,
 0.90000;1.10000;9.75000;,
 0.90000;1.10000;-9.75000;,
 0.90000;0.00000;-9.75000;,
 0.90000;0.00000;9.75000;,
 -0.90000;1.10000;9.75000;,
 -0.90000;1.10000;-9.75000;,
 -0.90000;0.00000;-9.75000;,
 -0.90000;0.00000;9.75000;,
 -0.90000;1.10000;-9.75000;,
 -0.90000;1.10000;9.75000;,
 -0.90000;0.00000;9.75000;,
 -0.90000;0.00000;-9.75000;,
 0.90000;1.10000;-9.75000;,
 0.90000;1.10000;9.75000;,
 0.90000;0.00000;9.75000;,
 0.90000;0.00000;-9.75000;,
 -1.20000;1.10000;-9.55000;,
 1.20000;1.10000;-9.55000;,
 1.20000;0.00000;-9.55000;,
 -1.20000;0.00000;-9.55000;,
 -1.20000;1.10000;9.55000;,
 1.20000;1.10000;9.55000;,
 1.20000;0.00000;9.55000;,
 -1.20000;0.00000;9.55000;,
 -1.40000;1.00000;-9.75000;,
 -1.47500;1.60000;-9.75000;,
 1.47500;1.60000;-9.75000;,
 1.40000;1.00000;-9.75000;,
 -1.46500;3.30000;-9.75000;,
 1.46500;3.30000;-9.75000;,
 1.47500;1.60000;-9.75000;,
 -1.47500;1.60000;-9.75000;,
 -1.45500;3.35000;-9.75000;,
 1.45500;3.35000;-9.75000;,
 1.46500;3.30000;-9.75000;,
 -1.46500;3.30000;-9.75000;,
 -1.35000;3.50000;-9.75000;,
 1.35000;3.50000;-9.75000;,
 1.45500;3.35000;-9.75000;,
 -1.45500;3.35000;-9.75000;,
 -1.00000;3.58000;-9.75000;,
 1.00000;3.58000;-9.75000;,
 1.35000;3.50000;-9.75000;,
 -1.35000;3.50000;-9.75000;,
 -0.70000;3.63000;-9.75000;,
 0.70000;3.63000;-9.75000;,
 1.00000;3.58000;-9.75000;,
 -1.00000;3.58000;-9.75000;,
 0.00000;3.65000;-9.75000;,
 0.70000;3.63000;-9.75000;,
 -0.70000;3.63000;-9.75000;,
 -1.46500;3.30000;9.75000;,
 -1.46500;3.30000;-9.75000;,
 -1.47500;2.20000;-9.75000;,
 -1.47500;2.20000;9.75000;,
 -1.47500;1.60000;-9.75000;,
 -1.47500;1.60000;9.75000;,
 -1.40000;1.00000;-9.75000;,
 -1.40000;1.00000;9.75000;,
 1.46500;3.30000;-9.75000;,
 1.46500;3.30000;9.75000;,
 1.47500;2.20000;9.75000;,
 1.47500;2.20000;-9.75000;,
 1.47500;1.60000;9.75000;,
 1.47500;1.60000;-9.75000;,
 1.40000;1.00000;9.75000;,
 1.40000;1.00000;-9.75000;;
 
 281;
 4;0,1,2,3;,
 4;4,5,6,7;,
 4;8,9,10,11;,
 4;12,13,14,15;,
 4;16,17,18,19;,
 4;17,20,21,18;,
 4;20,22,23,21;,
 4;22,24,25,23;,
 4;24,26,27,25;,
 4;26,28,29,27;,
 4;28,30,31,29;,
 4;30,32,33,31;,
 4;32,34,35,33;,
 4;34,36,37,35;,
 4;38,39,40,41;,
 4;39,42,43,40;,
 4;42,44,45,43;,
 4;44,46,47,45;,
 4;46,48,49,47;,
 4;48,50,51,49;,
 4;41,40,49,51;,
 4;49,40,43,47;,
 3;45,47,43;,
 4;52,53,54,55;,
 4;53,56,57,54;,
 4;56,58,59,57;,
 4;58,60,61,59;,
 4;60,62,63,61;,
 4;62,64,65,63;,
 4;55,54,63,65;,
 4;63,54,57,61;,
 3;59,61,57;,
 4;66,67,68,69;,
 4;67,70,71,68;,
 4;70,72,73,71;,
 4;72,74,75,73;,
 4;74,76,77,75;,
 4;76,78,79,77;,
 4;69,68,77,79;,
 4;77,68,71,75;,
 3;73,75,71;,
 4;80,81,82,83;,
 4;83,82,84,85;,
 4;86,87,81,80;,
 4;80,83,85,86;,
 4;81,87,84,82;,
 4;88,89,90,91;,
 4;91,90,92,93;,
 4;94,95,89,88;,
 4;88,91,93,94;,
 4;89,95,92,90;,
 4;96,97,98,99;,
 4;99,98,100,101;,
 4;102,103,97,96;,
 4;96,99,101,102;,
 4;97,103,100,98;,
 4;104,105,106,107;,
 4;108,109,110,111;,
 4;111,110,112,113;,
 4;113,112,105,104;,
 4;114,115,116,117;,
 4;117,116,118,119;,
 4;119,118,120,121;,
 4;121,120,115,114;,
 4;120,118,116,115;,
 4;122,123,124,125;,
 4;125,124,126,127;,
 4;127,126,128,129;,
 4;129,128,123,122;,
 4;128,126,124,123;,
 4;130,131,132,133;,
 4;133,132,134,135;,
 4;135,134,136,137;,
 4;137,136,131,130;,
 4;136,134,132,131;,
 4;138,139,140,141;,
 4;141,140,142,143;,
 4;143,142,144,145;,
 4;145,144,139,138;,
 4;144,142,140,139;,
 4;146,147,148,149;,
 4;149,148,150,151;,
 4;151,150,152,153;,
 4;153,152,147,146;,
 4;146,149,151,153;,
 4;154,155,156,157;,
 4;157,156,158,159;,
 4;159,158,160,161;,
 4;161,160,155,154;,
 4;162,163,164,165;,
 4;165,164,166,167;,
 4;167,166,168,169;,
 4;169,168,163,162;,
 4;162,165,167,169;,
 4;170,171,172,173;,
 4;173,172,174,175;,
 4;175,174,176,177;,
 4;177,176,171,170;,
 4;146,178,179,149;,
 4;149,179,180,151;,
 4;151,180,181,153;,
 4;153,181,178,146;,
 4;178,155,156,179;,
 4;179,156,158,180;,
 4;180,158,160,181;,
 4;181,160,155,178;,
 4;162,182,183,165;,
 4;165,183,184,167;,
 4;167,184,185,169;,
 4;169,185,182,162;,
 4;182,171,172,183;,
 4;183,172,174,184;,
 4;184,174,176,185;,
 4;185,176,171,182;,
 4;146,186,187,149;,
 4;149,187,188,151;,
 4;151,188,189,153;,
 4;153,189,186,146;,
 4;190,155,156,191;,
 4;191,156,158,192;,
 4;192,158,160,193;,
 4;193,160,155,190;,
 4;162,194,195,165;,
 4;165,195,196,167;,
 4;167,196,197,169;,
 4;169,197,194,162;,
 4;198,171,172,199;,
 4;199,172,174,200;,
 4;200,174,176,201;,
 4;201,176,171,198;,
 4;182,155,156,183;,
 4;183,156,158,184;,
 4;184,158,160,185;,
 4;185,160,155,182;,
 4;162,178,179,165;,
 4;165,179,180,167;,
 4;167,180,181,169;,
 4;169,181,178,162;,
 4;171,202,203,176;,
 4;176,203,204,174;,
 4;174,204,205,172;,
 4;172,205,202,171;,
 4;155,206,207,160;,
 4;160,207,208,158;,
 4;158,208,209,156;,
 4;156,209,206,155;,
 4;210,162,169,211;,
 4;211,169,167,212;,
 4;212,167,165,213;,
 4;213,165,162,210;,
 4;214,146,153,215;,
 4;215,153,151,216;,
 4;216,151,149,217;,
 4;217,149,146,214;,
 4;218,219,220,221;,
 4;222,223,224,225;,
 4;226,227,228,229;,
 4;230,231,232,233;,
 4;234,235,223,222;,
 4;235,236,224,223;,
 4;236,237,225,224;,
 4;237,234,222,225;,
 4;238,239,231,230;,
 4;239,240,232,231;,
 4;240,241,233,232;,
 4;241,238,230,233;,
 4;242,221,220,243;,
 4;242,243,235,234;,
 4;243,220,219,244;,
 4;243,244,236,235;,
 4;244,219,218,245;,
 4;244,245,237,236;,
 4;245,218,221,242;,
 4;245,242,234,237;,
 4;246,229,228,247;,
 4;246,247,239,238;,
 4;247,228,227,248;,
 4;247,248,240,239;,
 4;248,227,226,249;,
 4;248,249,241,240;,
 4;249,226,229,246;,
 4;249,246,238,241;,
 4;250,251,252,253;,
 4;253,252,254,255;,
 4;255,254,256,257;,
 4;257,256,251,250;,
 4;256,254,252,251;,
 4;250,253,255,257;,
 4;258,259,260,261;,
 4;261,260,262,263;,
 4;263,262,264,265;,
 4;265,264,266,267;,
 4;267,266,268,269;,
 4;269,268,270,271;,
 3;268,272,270;,
 4;273,274,275,276;,
 4;276,275,274,273;,
 3;269,271,277;,
 4;267,278,279,265;,
 4;265,279,280,263;,
 4;263,280,281,261;,
 3;261,281,258;,
 4;267,269,277,278;,
 4;282,266,264,283;,
 4;283,264,262,284;,
 4;284,262,260,285;,
 3;285,260,259;,
 4;282,272,268,266;,
 4;286,287,288,289;,
 4;289,288,290,291;,
 4;291,290,292,293;,
 4;293,292,294,295;,
 4;295,294,296,297;,
 4;297,296,298,299;,
 3;296,300,298;,
 3;297,299,301;,
 4;295,302,303,293;,
 4;293,303,304,291;,
 4;291,304,305,289;,
 3;289,305,286;,
 4;295,297,301,302;,
 4;306,294,292,307;,
 4;307,292,290,308;,
 4;308,290,288,309;,
 3;309,288,287;,
 4;306,300,296,294;,
 4;310,311,312,313;,
 4;313,312,314,315;,
 4;315,314,316,317;,
 4;317,316,318,319;,
 4;319,318,320,321;,
 4;321,320,322,323;,
 3;320,324,322;,
 3;321,323,325;,
 4;319,326,327,317;,
 4;317,327,328,315;,
 4;315,328,329,313;,
 3;313,329,310;,
 4;319,321,325,326;,
 4;330,318,316,331;,
 4;331,316,314,332;,
 4;332,314,312,333;,
 3;333,312,311;,
 4;330,324,320,318;,
 4;334,335,336,337;,
 4;337,336,338,339;,
 4;339,338,340,341;,
 4;341,340,342,343;,
 4;343,342,344,345;,
 4;345,344,346,347;,
 3;344,348,346;,
 3;345,347,349;,
 4;343,350,351,341;,
 4;341,351,352,339;,
 4;339,352,353,337;,
 3;337,353,334;,
 4;343,345,349,350;,
 4;354,342,340,355;,
 4;355,340,338,356;,
 4;356,338,336,357;,
 3;357,336,335;,
 4;354,348,344,342;,
 4;358,359,360,361;,
 4;362,363,364,365;,
 4;366,367,368,369;,
 4;370,371,372,373;,
 4;374,375,376,377;,
 4;378,379,380,381;,
 4;382,383,384,385;,
 4;386,387,388,389;,
 4;390,391,392,393;,
 4;394,395,396,397;,
 4;398,399,400,401;,
 4;402,403,404,405;,
 3;406,407,408;,
 4;409,410,411,412;,
 4;412,411,413,414;,
 4;414,413,415,416;,
 4;417,418,419,420;,
 4;420,419,421,422;,
 4;422,421,423,424;;
 
 MeshMaterialList {
  10;
  281;
  0,
  0,
  1,
  1,
  2,
  2,
  2,
  2,
  2,
  2,
  2,
  2,
  2,
  2,
  4,
  4,
  4,
  4,
  4,
  4,
  4,
  4,
  4,
  5,
  5,
  5,
  5,
  5,
  5,
  5,
  5,
  5,
  5,
  5,
  5,
  5,
  5,
  5,
  5,
  5,
  5,
  2,
  2,
  2,
  2,
  2,
  2,
  2,
  2,
  2,
  2,
  2,
  2,
  2,
  2,
  2,
  2,
  2,
  2,
  2,
  3,
  3,
  3,
  3,
  3,
  3,
  3,
  3,
  3,
  3,
  3,
  3,
  3,
  3,
  3,
  3,
  3,
  3,
  3,
  3,
  2,
  2,
  2,
  2,
  2,
  2,
  2,
  2,
  2,
  2,
  2,
  2,
  2,
  2,
  2,
  2,
  2,
  2,
  2,
  2,
  2,
  2,
  2,
  2,
  2,
  2,
  2,
  2,
  2,
  2,
  2,
  2,
  2,
  2,
  2,
  2,
  2,
  2,
  2,
  2,
  2,
  2,
  2,
  2,
  2,
  2,
  2,
  2,
  2,
  2,
  2,
  2,
  2,
  2,
  2,
  2,
  2,
  2,
  2,
  2,
  2,
  2,
  2,
  2,
  2,
  2,
  2,
  2,
  2,
  2,
  2,
  2,
  2,
  2,
  2,
  2,
  2,
  2,
  2,
  2,
  2,
  2,
  2,
  2,
  2,
  2,
  2,
  2,
  2,
  2,
  2,
  2,
  2,
  2,
  2,
  2,
  2,
  2,
  2,
  2,
  2,
  2,
  2,
  2,
  2,
  2,
  2,
  2,
  6,
  6,
  6,
  6,
  6,
  6,
  6,
  6,
  6,
  6,
  6,
  6,
  6,
  6,
  6,
  6,
  6,
  6,
  6,
  6,
  6,
  6,
  6,
  6,
  6,
  6,
  6,
  6,
  6,
  6,
  6,
  6,
  6,
  6,
  6,
  6,
  6,
  6,
  6,
  6,
  6,
  6,
  6,
  6,
  6,
  6,
  6,
  6,
  6,
  6,
  6,
  6,
  6,
  6,
  6,
  6,
  6,
  6,
  6,
  6,
  6,
  6,
  6,
  6,
  6,
  6,
  6,
  6,
  6,
  6,
  6,
  6,
  6,
  6,
  7,
  7,
  7,
  7,
  8,
  8,
  9,
  9,
  9,
  9,
  9,
  9,
  9,
  9,
  9,
  9,
  9,
  9,
  9;;
  Material {
   0.325000;0.325000;0.325000;1.000000;;
   0.000000;
   0.000000;0.000000;0.000000;;
   0.000000;0.000000;0.000000;;
  }
  Material {
   0.980000;0.980000;0.980000;1.000000;;
   0.000000;
   0.000000;0.000000;0.000000;;
   0.000000;0.000000;0.000000;;
  }
  Material {
   0.478000;0.478000;0.478000;1.000000;;
   0.000000;
   0.000000;0.000000;0.000000;;
   0.000000;0.000000;0.000000;;
  }
  Material {
   0.859000;0.859000;0.859000;1.000000;;
   0.000000;
   0.000000;0.000000;0.000000;;
   0.000000;0.000000;0.000000;;
   TextureFilename {
    "000_26.dds";
   }
  }
  Material {
   1.000000;1.000000;1.000000;1.000000;;
   0.000000;
   0.000000;0.000000;0.000000;;
   0.000000;0.000000;0.000000;;
   TextureFilename {
    "000_27.dds";
   }
  }
  Material {
   1.000000;1.000000;1.000000;1.000000;;
   0.000000;
   0.000000;0.000000;0.000000;;
   0.000000;0.000000;0.000000;;
   TextureFilename {
    "185_04.dds";
   }
  }
  Material {
   0.098000;0.098000;0.098000;1.000000;;
   0.000000;
   0.000000;0.000000;0.000000;;
   0.000000;0.000000;0.000000;;
  }
  Material {
   1.000000;1.000000;1.000000;1.000000;;
   0.000000;
   0.000000;0.000000;0.000000;;
   0.000000;0.000000;0.000000;;
   TextureFilename {
    "000_01.dds";
   }
  }
  Material {
   1.000000;1.000000;1.000000;1.000000;;
   0.000000;
   0.000000;0.000000;0.000000;;
   0.000000;0.000000;0.000000;;
   TextureFilename {
    "000_10.dds";
   }
  }
  Material {
   1.000000;1.000000;1.000000;1.000000;;
   0.000000;
   0.000000;0.000000;0.000000;;
   0.000000;0.000000;0.000000;;
   TextureFilename {
    "185_01.dds";
   }
  }
 }
 MeshNormals {
  193;
  -1.000000;0.000000;0.000000;,
  1.000000;0.000000;0.000000;,
  -0.980581;0.196116;0.000000;,
  -0.919472;0.393155;0.000000;,
  -0.558346;0.829608;0.000000;,
  -0.193698;0.981061;0.000000;,
  -0.096705;0.995313;0.000000;,
  0.000000;1.000000;0.000000;,
  0.096705;0.995313;0.000000;,
  0.193698;0.981061;0.000000;,
  0.558346;0.829608;0.000000;,
  0.919472;0.393155;0.000000;,
  0.980581;0.196116;0.000000;,
  -1.000000;0.000000;0.000000;,
  -0.292728;0.956196;0.000000;,
  0.000000;1.000000;0.000000;,
  0.292728;0.956196;0.000000;,
  0.433294;0.901252;0.000000;,
  1.000000;0.000000;0.000000;,
  -0.292728;0.956196;0.000000;,
  0.292728;0.956196;0.000000;,
  0.433294;0.901252;0.000000;,
  -0.433294;0.901252;0.000000;,
  0.000000;0.000000;-1.000000;,
  -0.433294;0.901252;0.000000;,
  0.000000;0.000000;-1.000000;,
  1.000000;0.000000;0.000000;,
  -1.000000;0.000000;0.000000;,
  0.000000;1.000000;0.000000;,
  0.000000;-1.000000;-0.000000;,
  0.949071;0.000000;-0.315062;,
  0.953002;0.000000;0.302963;,
  -0.949068;0.000000;0.315070;,
  -0.953005;0.000000;-0.302953;,
  -0.006367;0.000000;-0.999980;,
  0.707107;0.000000;0.707107;,
  -0.707107;0.000000;0.707107;,
  -0.707107;0.000000;-0.707107;,
  0.707104;0.000000;0.707109;,
  -0.707104;0.000000;0.707109;,
  0.658922;-0.608559;-0.442129;,
  0.703850;-0.335230;-0.626272;,
  0.353738;-0.667916;-0.654796;,
  -0.654002;-0.612022;-0.444646;,
  -0.552164;-0.530645;-0.643063;,
  -0.652291;0.615028;0.443008;,
  -0.687956;0.699428;0.193692;,
  0.702006;-0.711350;0.034189;,
  0.658922;-0.608559;0.442128;,
  -0.686028;-0.694425;0.217117;,
  -0.654002;-0.612022;0.444646;,
  -0.696178;0.717049;-0.034312;,
  -0.652301;0.615022;-0.443003;,
  0.661398;-0.606799;-0.440849;,
  0.741778;-0.250874;-0.621954;,
  0.604845;-0.590886;-0.533870;,
  -0.651561;-0.613724;-0.445884;,
  -0.570816;-0.567972;-0.592940;,
  -0.647064;0.618600;0.445694;,
  -0.682908;0.697845;0.215983;,
  0.692585;-0.675220;0.253779;,
  0.661398;-0.606799;0.440848;,
  -0.686805;-0.699919;0.195988;,
  -0.651561;-0.613724;0.445883;,
  -0.682734;0.684807;-0.254782;,
  -0.647051;0.618608;-0.445700;,
  0.682302;-0.730610;-0.025942;,
  -0.661727;-0.719630;0.210357;,
  -0.675301;0.737185;0.022942;,
  0.668866;-0.712957;-0.210502;,
  -0.675042;-0.737406;0.023471;,
  -0.658746;0.722340;0.210425;,
  0.664835;-0.653918;-0.361090;,
  -0.659901;-0.657736;-0.363199;,
  -0.659942;0.658498;0.361743;,
  0.664787;-0.653802;0.361388;,
  -0.659853;-0.657619;0.363499;,
  -0.659890;0.658385;-0.362042;,
  0.667318;-0.651977;-0.360018;,
  -0.657452;-0.659613;-0.364235;,
  -0.657494;0.660376;0.362775;,
  0.667270;-0.651862;0.360316;,
  -0.657404;-0.659495;0.364536;,
  -0.657443;0.660262;-0.363075;,
  0.677008;0.694404;-0.243850;,
  -0.639853;0.610834;-0.466336;,
  -0.672028;-0.697786;0.247937;,
  0.642951;0.607587;-0.466318;,
  -0.673214;0.697614;-0.245191;,
  -0.640470;-0.608357;0.468721;,
  0.677026;0.694462;0.243635;,
  -0.639946;0.611006;0.465983;,
  -0.672044;-0.697848;-0.247719;,
  0.643045;0.607758;0.465966;,
  -0.673232;0.697672;0.244974;,
  -0.640560;-0.608535;-0.468367;,
  -0.866752;-0.498739;0.000000;,
  0.862828;-0.505498;-0.000000;,
  0.179750;0.687387;0.703697;,
  -0.179803;-0.682426;0.708496;,
  -0.179803;-0.682426;-0.708496;,
  -0.178505;0.684652;0.706674;,
  0.181206;-0.684397;0.706233;,
  0.181206;-0.684397;-0.706233;,
  0.000000;0.728627;0.684911;,
  0.000000;-0.728627;0.684911;,
  0.000000;-0.728627;-0.684911;,
  0.707107;0.000000;-0.707107;,
  0.000000;1.000000;0.000000;,
  -0.693929;-0.698012;-0.176751;,
  0.689638;0.678568;0.252873;,
  0.657218;0.611566;0.440512;,
  0.655895;0.625477;0.422588;,
  0.000000;0.000000;-1.000000;,
  0.657227;0.611560;-0.440507;,
  0.689633;0.691124;-0.216228;,
  -0.695642;-0.717489;-0.035956;,
  0.702070;0.711338;0.033106;,
  0.656946;0.611706;0.440723;,
  0.669706;0.655510;0.348999;,
  0.656934;0.611715;-0.440730;,
  0.693582;0.694155;-0.192594;,
  0.649081;-0.695838;0.307412;,
  -0.644064;-0.699728;0.309131;,
  0.665873;0.715731;-0.210573;,
  0.651608;-0.693860;0.306538;,
  -0.602330;-0.657724;0.452325;,
  0.682592;0.730358;-0.025413;,
  0.664872;0.654677;0.359643;,
  0.664821;0.654565;-0.359941;,
  0.667354;0.652735;0.358576;,
  0.667302;0.652624;-0.358873;,
  0.644007;-0.605963;0.466973;,
  0.675934;-0.695217;0.244511;,
  0.644097;-0.606140;-0.466620;,
  0.675950;-0.695278;-0.244296;,
  0.353619;0.645182;0.677269;,
  -0.353683;-0.635265;0.686547;,
  -0.353683;-0.635265;-0.686547;,
  0.179750;0.687387;-0.703697;,
  0.353619;0.645182;-0.677269;,
  -0.351234;0.640035;0.683366;,
  0.356369;-0.638861;0.681805;,
  0.356369;-0.638861;-0.681805;,
  -0.178505;0.684652;-0.706674;,
  -0.351234;0.640035;-0.683366;,
  0.000000;0.728627;-0.684911;,
  -1.000000;0.000000;0.000000;,
  1.000000;0.000000;0.000000;,
  0.000001;0.965925;-0.258822;,
  -1.000000;0.000007;-0.000000;,
  1.000000;-0.000003;0.000000;,
  -1.000000;0.000000;0.000000;,
  1.000000;0.000000;0.000000;,
  -1.000000;0.000003;-0.000000;,
  1.000000;-0.000007;0.000000;,
  -0.000001;-0.965927;-0.258816;,
  -0.000001;-0.866027;-0.499996;,
  -0.000000;-0.500003;-0.866023;,
  0.000000;-0.000004;-1.000000;,
  0.000001;0.499997;-0.866027;,
  0.000001;0.866024;-0.500002;,
  0.000000;0.000000;-1.000000;,
  1.000000;-0.000003;0.000000;,
  -1.000000;0.000003;-0.000000;,
  0.000001;0.965925;-0.258821;,
  -1.000000;0.000007;-0.000000;,
  1.000000;-0.000003;0.000000;,
  0.000000;-0.000005;-1.000000;,
  0.000001;0.499995;-0.866028;,
  0.000001;0.866024;-0.500003;,
  0.000001;0.965925;-0.258823;,
  -1.000000;0.000007;-0.000000;,
  1.000000;-0.000003;0.000000;,
  0.000001;0.499998;-0.866027;,
  0.000001;0.866024;-0.500002;,
  -1.000000;0.000015;-0.000000;,
  0.000000;0.000000;1.000000;,
  1.000000;-0.000015;0.000000;,
  -1.000000;0.000015;-0.000000;,
  -1.000000;0.000015;-0.000000;,
  -1.000000;0.000000;0.000000;,
  1.000000;0.000000;0.000000;,
  0.000000;0.000000;-1.000000;,
  0.000000;0.000000;-1.000000;,

  -0.999959;0.009091;0.000000;,
  -0.999990;0.007778;0.000000;,
  -0.998068;-0.006993;0.000000;,
  -0.992278;-0.205260;0.000000;,
  0.999959;0.009091;0.000000;,
  0.999990;0.007778;0.000000;,
  0.998068;-0.006993;-0.000000;,
  0.992278;-0.205260;-0.000000;;
  281;
  4;0,0,0,0;,
  4;1,1,1,1;,
  4;1,1,1,1;,
  4;0,0,0,0;,
  4;2,3,3,2;,
  4;3,4,4,3;,
  4;4,5,5,4;,
  4;5,6,6,5;,
  4;6,7,7,6;,
  4;7,8,8,7;,
  4;8,9,9,8;,
  4;9,10,10,9;,
  4;10,11,11,10;,
  4;11,12,12,11;,
  4;13,13,13,13;,
  4;22,14,14,22;,
  4;14,15,15,14;,
  4;15,16,16,15;,
  4;16,17,17,16;,
  4;18,18,18,18;,
  4;23,23,23,23;,
  4;23,23,23,23;,
  3;23,23,23;,
  4;13,13,13,13;,
  4;22,14,14,22;,
  4;14,15,15,14;,
  4;15,16,16,15;,
  4;16,17,17,16;,
  4;18,18,18,18;,
  4;23,23,23,23;,
  4;23,23,23,23;,
  3;23,23,23;,
  4;13,13,13,13;,
  4;24,19,19,24;,
  4;19,15,15,19;,
  4;15,20,20,15;,
  4;20,21,21,20;,
  4;18,18,18,18;,
  4;23,23,23,23;,
  4;23,23,23,23;,
  3;23,23,23;,
  4;25,25,25,25;,
  4;27,27,27,27;,
  4;26,26,26,26;,
  4;28,28,28,28;,
  4;29,29,29,29;,
  4;25,25,25,25;,
  4;27,27,27,27;,
  4;26,26,26,26;,
  4;28,28,28,28;,
  4;29,29,29,29;,
  4;25,25,25,25;,
  4;27,27,27,27;,
  4;26,26,26,26;,
  4;28,28,28,28;,
  4;29,29,29,29;,
  4;30,30,31,31;,
  4;32,32,33,33;,
  4;33,33,34,34;,
  4;34,34,30,30;,
  4;35,35,35,35;,
  4;36,36,36,36;,
  4;37,37,37,37;,
  4;107,107,107,107;,
  4;108,108,108,108;,
  4;35,35,35,35;,
  4;36,36,36,36;,
  4;37,37,37,37;,
  4;107,107,107,107;,
  4;108,108,108,108;,
  4;38,38,38,38;,
  4;39,39,39,39;,
  4;37,37,37,37;,
  4;107,107,107,107;,
  4;108,108,108,108;,
  4;38,38,38,38;,
  4;39,39,39,39;,
  4;37,37,37,37;,
  4;107,107,107,107;,
  4;108,108,108,108;,
  4;41,40,40,42;,
  4;109,43,43,44;,
  4;46,45,45,46;,
  4;110,111,111,112;,
  4;41,42,44,113;,
  4;48,47,47,48;,
  4;50,49,49,50;,
  4;52,51,51,52;,
  4;114,115,115,114;,
  4;54,53,53,55;,
  4;116,56,56,57;,
  4;59,58,58,59;,
  4;117,118,118,119;,
  4;54,55,57,113;,
  4;61,60,60,61;,
  4;63,62,62,63;,
  4;65,64,64,65;,
  4;120,121,121,120;,
  4;122,66,66,122;,
  4;109,67,67,123;,
  4;46,68,68,46;,
  4;110,124,124,41;,
  4;66,47,47,66;,
  4;67,49,49,67;,
  4;68,51,51,68;,
  4;124,115,115,124;,
  4;125,69,69,125;,
  4;116,70,70,126;,
  4;59,71,71,59;,
  4;117,127,127,54;,
  4;69,60,60,69;,
  4;70,62,62,70;,
  4;71,64,64,71;,
  4;127,121,121,127;,
  4;41,72,72,42;,
  4;109,73,73,44;,
  4;46,74,74,46;,
  4;110,128,128,112;,
  4;75,47,47,75;,
  4;76,49,49,76;,
  4;77,51,51,77;,
  4;129,115,115,129;,
  4;54,78,78,55;,
  4;116,79,79,57;,
  4;59,80,80,59;,
  4;117,130,130,119;,
  4;81,60,60,81;,
  4;82,62,62,82;,
  4;83,64,64,83;,
  4;131,121,121,131;,
  4;69,47,47,69;,
  4;70,49,49,70;,
  4;71,51,51,71;,
  4;127,115,115,127;,
  4;54,66,66,55;,
  4;116,67,67,126;,
  4;59,68,68,59;,
  4;117,124,124,54;,
  4;121,84,84,121;,
  4;64,85,85,64;,
  4;62,86,86,62;,
  4;60,132,132,60;,
  4;115,87,87,115;,
  4;51,88,88,51;,
  4;49,89,89,49;,
  4;47,133,133,47;,
  4;90,119,117,90;,
  4;91,59,59,91;,
  4;92,57,116,92;,
  4;134,55,54,134;,
  4;93,112,110,93;,
  4;94,46,46,94;,
  4;95,44,42,95;,
  4;135,42,41,135;,
  4;96,96,96,96;,
  4;97,97,97,97;,
  4;96,96,96,96;,
  4;97,97,97,97;,
  4;98,98,136,136;,
  4;99,99,137,137;,
  4;100,100,138,138;,
  4;139,139,140,140;,
  4;98,98,136,136;,
  4;99,99,137,137;,
  4;100,100,138,138;,
  4;139,139,140,140;,
  4;101,141,141,101;,
  4;101,101,98,98;,
  4;102,142,142,102;,
  4;102,102,99,99;,
  4;103,143,143,103;,
  4;103,103,100,100;,
  4;144,145,145,144;,
  4;144,144,139,139;,
  4;101,141,141,101;,
  4;101,101,98,98;,
  4;102,142,142,102;,
  4;102,102,99,99;,
  4;103,143,143,103;,
  4;103,103,100,100;,
  4;144,145,145,144;,
  4;144,144,139,139;,
  4;104,104,104,104;,
  4;105,105,105,105;,
  4;106,106,106,106;,
  4;146,146,146,146;,
  4;147,147,147,147;,
  4;148,148,148,148;,
  4;156,156,157,157;,
  4;157,157,158,158;,
  4;158,158,159,159;,
  4;159,159,160,160;,
  4;160,160,161,161;,
  4;161,161,149,149;,
  3;150,150,176;,
  4;162,162,162,162;,
  4;177,177,177,177;,
  3;151,153,151;,
  4;151,151,153,153;,
  4;153,153,153,153;,
  4;153,153,155,155;,
  3;155,155,178;,
  4;151,151,151,151;,
  4;152,152,152,152;,
  4;152,152,154,154;,
  4;154,154,154,154;,
  3;154,154,152;,
  4;152,150,150,152;,
  4;156,156,157,157;,
  4;157,157,158,158;,
  4;158,158,159,159;,
  4;159,159,160,160;,
  4;160,160,161,161;,
  4;161,161,149,149;,
  3;150,150,176;,
  3;163,153,163;,
  4;163,163,153,153;,
  4;153,153,153,153;,
  4;153,153,155,155;,
  3;155,155,178;,
  4;163,163,163,163;,
  4;152,152,152,152;,
  4;152,152,164,164;,
  4;164,164,164,164;,
  3;164,164,152;,
  4;152,150,150,152;,
  4;156,156,157,157;,
  4;157,157,158,158;,
  4;158,158,168,168;,
  4;168,168,169,169;,
  4;169,169,170,170;,
  4;170,170,165,165;,
  3;166,166,179;,
  3;167,153,167;,
  4;167,167,153,153;,
  4;153,153,153,153;,
  4;153,153,155,155;,
  3;155,155,178;,
  4;167,167,167,167;,
  4;152,152,152,152;,
  4;152,152,164,164;,
  4;164,164,164,164;,
  3;164,164,152;,
  4;152,166,166,152;,
  4;156,156,157,157;,
  4;157,157,158,158;,
  4;158,158,159,159;,
  4;159,159,174,174;,
  4;174,174,175,175;,
  4;175,175,171,171;,
  3;172,172,180;,
  3;173,153,173;,
  4;173,173,153,153;,
  4;153,153,153,153;,
  4;153,153,155,155;,
  3;155,155,178;,
  4;173,173,173,173;,
  4;152,152,152,152;,
  4;152,152,164,164;,
  4;164,164,164,164;,
  3;164,164,152;,
  4;152,172,172,152;,
  4;181,181,181,181;,
  4;181,181,181,181;,
  4;182,182,182,182;,
  4;182,182,182,182;,
  4;183,183,183,183;,
  4;183,183,183,183;,
  4;184,184,184,184;,
  4;184,184,184,184;,
  4;184,184,184,184;,
  4;184,184,184,184;,
  4;184,184,184,184;,
  4;184,184,184,184;,
  3;184,184,184;,
  4;185,185,186,186;,
  4;186,186,187,187;,
  4;187,187,188,188;,
  4;189,189,190,190;,
  4;190,190,191,191;,
  4;191,191,192,192;;
 }
 MeshTextureCoords {
  425;
  0.000000;0.000000;,
  0.000000;0.000000;,
  0.000000;0.000000;,
  0.000000;0.000000;,
  0.000000;0.000000;,
  0.000000;0.000000;,
  0.000000;0.000000;,
  0.000000;0.000000;,
  0.000000;0.000000;,
  1.000000;0.000000;,
  1.000000;1.000000;,
  0.000000;1.000000;,
  0.000000;0.000000;,
  0.000000;1.000000;,
  1.000000;1.000000;,
  1.000000;0.000000;,
  0.000000;0.000000;,
  0.000000;0.000000;,
  0.000000;0.000000;,
  0.000000;0.000000;,
  0.000000;0.000000;,
  0.000000;0.000000;,
  0.000000;0.000000;,
  0.000000;0.000000;,
  0.000000;0.000000;,
  0.000000;0.000000;,
  0.000000;0.000000;,
  0.000000;0.000000;,
  0.000000;0.000000;,
  0.000000;0.000000;,
  0.000000;0.000000;,
  0.000000;0.000000;,
  0.000000;0.000000;,
  0.000000;0.000000;,
  0.000000;0.000000;,
  0.000000;0.000000;,
  0.000000;0.000000;,
  0.000000;0.000000;,
  1.000000;0.980000;,
  0.930000;0.980000;,
  0.930000;0.020000;,
  1.000000;0.021050;,
  0.744070;0.980000;,
  0.744070;0.020000;,
  0.500000;0.980000;,
  0.500000;0.020000;,
  0.247920;0.980000;,
  0.247920;0.020000;,
  0.070000;0.980000;,
  0.070000;0.020000;,
  0.001210;0.980040;,
  0.000000;0.020000;,
  0.995300;0.489120;,
  0.995300;0.421670;,
  0.752150;0.421670;,
  0.752150;0.489120;,
  0.995300;0.223990;,
  0.752150;0.223990;,
  0.995300;0.006170;,
  0.752150;0.006170;,
  0.995300;0.223990;,
  0.752150;0.223990;,
  0.995300;0.421670;,
  0.752150;0.421670;,
  0.995300;0.489120;,
  0.752150;0.489120;,
  0.751690;0.491480;,
  0.751690;0.423210;,
  0.997010;0.423210;,
  0.997010;0.491480;,
  0.751690;0.223120;,
  0.997010;0.223120;,
  0.751690;0.002630;,
  0.997010;0.002630;,
  0.751690;0.223120;,
  0.997010;0.223120;,
  0.751690;0.423210;,
  0.997010;0.423210;,
  0.751690;0.491480;,
  0.997010;0.491480;,
  0.000000;0.000000;,
  0.000000;0.000000;,
  0.000000;0.000000;,
  0.000000;0.000000;,
  0.000000;0.000000;,
  0.000000;0.000000;,
  0.000000;0.000000;,
  0.000000;0.000000;,
  0.000000;0.000000;,
  0.000000;0.000000;,
  0.000000;0.000000;,
  0.000000;0.000000;,
  0.000000;0.000000;,
  0.000000;0.000000;,
  0.000000;0.000000;,
  0.000000;0.000000;,
  0.000000;0.000000;,
  0.000000;0.000000;,
  0.000000;0.000000;,
  0.000000;0.000000;,
  0.000000;0.000000;,
  0.000000;0.000000;,
  0.000000;0.000000;,
  0.000000;0.000000;,
  0.000000;0.000000;,
  0.000000;0.000000;,
  0.000000;0.000000;,
  0.000000;0.000000;,
  0.000000;0.000000;,
  0.000000;0.000000;,
  0.000000;0.000000;,
  0.000000;0.000000;,
  0.000000;0.000000;,
  0.000000;0.000000;,
  -0.424950;0.498926;,
  -0.928736;0.498926;,
  -0.928736;0.562096;,
  -0.424950;0.562096;,
  -0.928736;0.625265;,
  -0.424950;0.625265;,
  -0.928736;0.562096;,
  -0.424950;0.562096;,
  -0.424950;1.270997;,
  -0.928736;1.270997;,
  -0.928736;1.334166;,
  -0.424950;1.334166;,
  -0.928736;1.397336;,
  -0.424950;1.397336;,
  -0.928736;1.334166;,
  -0.424950;1.334166;,
  -0.424950;0.498926;,
  -0.928736;0.498926;,
  -0.928736;0.562096;,
  -0.424950;0.562096;,
  -0.928736;0.625265;,
  -0.424950;0.625265;,
  -0.928736;0.562096;,
  -0.424950;0.562096;,
  -0.424950;1.270997;,
  -0.928736;1.270997;,
  -0.928736;1.334166;,
  -0.424950;1.334166;,
  -0.928736;1.397336;,
  -0.424950;1.397336;,
  -0.928736;1.334166;,
  -0.424950;1.334166;,
  0.727850;-1.704200;,
  0.727850;-1.402350;,
  0.720400;-1.395700;,
  0.720400;-1.697350;,
  0.712850;-1.402350;,
  0.712850;-1.704200;,
  0.720400;-1.408950;,
  0.720400;-1.711000;,
  0.727850;-1.402350;,
  0.727850;-1.704200;,
  0.720400;-1.697350;,
  0.720400;-1.395700;,
  0.712850;-1.704200;,
  0.712850;-1.402350;,
  0.720400;-1.711000;,
  0.720400;-1.408950;,
  0.288050;-1.704200;,
  0.288050;-1.402350;,
  0.280650;-1.395700;,
  0.280650;-1.697350;,
  0.273050;-1.402350;,
  0.273050;-1.704200;,
  0.280650;-1.408810;,
  0.280650;-1.711000;,
  0.288050;-1.402350;,
  0.288050;-1.704200;,
  0.280650;-1.697350;,
  0.280650;-1.395700;,
  0.273050;-1.704200;,
  0.273050;-1.402350;,
  0.280650;-1.711000;,
  0.280650;-1.408810;,
  0.727850;-2.037850;,
  0.720400;-2.030800;,
  0.712850;-2.037850;,
  0.720400;-2.044900;,
  0.288050;-2.037850;,
  0.280650;-2.030800;,
  0.273050;-2.037850;,
  0.280650;-2.044900;,
  0.727850;-1.402350;,
  0.720400;-1.395700;,
  0.712850;-1.402350;,
  0.720400;-1.409050;,
  0.727850;-1.402350;,
  0.720400;-1.395700;,
  0.712850;-1.402350;,
  0.720400;-1.409050;,
  0.288050;-1.402350;,
  0.280650;-1.395700;,
  0.273050;-1.402350;,
  0.280650;-1.409050;,
  0.288050;-1.402350;,
  0.280650;-1.395700;,
  0.273050;-1.402350;,
  0.280650;-1.409050;,
  0.400000;-1.402350;,
  0.392500;-1.409050;,
  0.385000;-1.402350;,
  0.392500;-1.395700;,
  0.615000;-1.402350;,
  0.607500;-1.409050;,
  0.600000;-1.402350;,
  0.607500;-1.395700;,
  0.400000;-1.402350;,
  0.392500;-1.409050;,
  0.385000;-1.402350;,
  0.392500;-1.395700;,
  0.615000;-1.402350;,
  0.607500;-1.409050;,
  0.600000;-1.402350;,
  0.607500;-1.395700;,
  0.034220;-1.951190;,
  0.039140;-1.942560;,
  0.034220;-1.951190;,
  0.029210;-1.959810;,
  0.970700;-1.959750;,
  0.965770;-1.951450;,
  0.960670;-1.942640;,
  0.965770;-1.951450;,
  0.034220;-1.951190;,
  0.039140;-1.942560;,
  0.034220;-1.951190;,
  0.029210;-1.959810;,
  0.970700;-1.959750;,
  0.965770;-1.951450;,
  0.960670;-1.942640;,
  0.965770;-1.951450;,
  0.814250;-2.045000;,
  0.814250;-2.035000;,
  0.814250;-2.025000;,
  0.814250;-2.035000;,
  0.814250;-2.045000;,
  0.814250;-2.035000;,
  0.814250;-2.025000;,
  0.814250;-2.035000;,
  0.185680;-2.045000;,
  0.185680;-2.035000;,
  0.185680;-2.025000;,
  0.185680;-2.035000;,
  0.185680;-2.045000;,
  0.185680;-2.035000;,
  0.185680;-2.025000;,
  0.185680;-2.035000;,
  0.720400;-2.044900;,
  0.280650;-2.044900;,
  0.280650;-2.037850;,
  0.720400;-2.037850;,
  0.280650;-2.030800;,
  0.720400;-2.030800;,
  0.280650;-2.037850;,
  0.720400;-2.037850;,
  0.000000;0.000000;,
  0.000000;0.000000;,
  0.000000;0.000000;,
  0.000000;0.000000;,
  0.000000;0.000000;,
  0.000000;0.000000;,
  0.000000;0.000000;,
  0.000000;0.000000;,
  0.000000;0.000000;,
  0.000000;0.000000;,
  0.000000;0.000000;,
  0.000000;0.000000;,
  0.000000;0.000000;,
  0.000000;0.000000;,
  0.000000;0.000000;,
  0.000000;0.000000;,
  0.000000;0.000000;,
  0.000000;0.000000;,
  0.000000;0.000000;,
  0.000000;0.000000;,
  0.000000;0.000000;,
  0.000000;0.000000;,
  0.000000;0.000000;,
  0.000000;0.000000;,
  0.000000;0.000000;,
  0.000000;0.000000;,
  0.000000;0.000000;,
  0.000000;0.000000;,
  0.000000;0.000000;,
  0.000000;0.000000;,
  0.000000;0.000000;,
  0.000000;0.000000;,
  0.000000;0.000000;,
  0.000000;0.000000;,
  0.000000;0.000000;,
  0.000000;0.000000;,
  0.000000;0.000000;,
  0.000000;0.000000;,
  0.000000;0.000000;,
  0.000000;0.000000;,
  0.000000;0.000000;,
  0.000000;0.000000;,
  0.000000;0.000000;,
  0.000000;0.000000;,
  0.000000;0.000000;,
  0.000000;0.000000;,
  0.000000;0.000000;,
  0.000000;0.000000;,
  0.000000;0.000000;,
  0.000000;0.000000;,
  0.000000;0.000000;,
  0.000000;0.000000;,
  0.000000;0.000000;,
  0.000000;0.000000;,
  0.000000;0.000000;,
  0.000000;0.000000;,
  0.000000;0.000000;,
  0.000000;0.000000;,
  0.000000;0.000000;,
  0.000000;0.000000;,
  0.000000;0.000000;,
  0.000000;0.000000;,
  0.000000;0.000000;,
  0.000000;0.000000;,
  0.000000;0.000000;,
  0.000000;0.000000;,
  0.000000;0.000000;,
  0.000000;0.000000;,
  0.000000;0.000000;,
  0.000000;0.000000;,
  0.000000;0.000000;,
  0.000000;0.000000;,
  0.000000;0.000000;,
  0.000000;0.000000;,
  0.000000;0.000000;,
  0.000000;0.000000;,
  0.000000;0.000000;,
  0.000000;0.000000;,
  0.000000;0.000000;,
  0.000000;0.000000;,
  0.000000;0.000000;,
  0.000000;0.000000;,
  0.000000;0.000000;,
  0.000000;0.000000;,
  0.000000;0.000000;,
  0.000000;0.000000;,
  0.000000;0.000000;,
  0.000000;0.000000;,
  0.000000;0.000000;,
  0.000000;0.000000;,
  0.000000;0.000000;,
  0.000000;0.000000;,
  0.000000;0.000000;,
  0.000000;0.000000;,
  0.000000;0.000000;,
  0.000000;0.000000;,
  0.000000;0.000000;,
  0.000000;0.000000;,
  0.000000;0.000000;,
  0.000000;0.000000;,
  0.990000;0.000000;,
  0.010000;0.000000;,
  0.010000;0.990000;,
  0.990000;0.990000;,
  0.990000;0.000000;,
  0.010000;0.000000;,
  0.010000;0.990000;,
  0.990000;0.990000;,
  0.010000;0.000000;,
  0.990000;0.000000;,
  0.990000;0.990000;,
  0.010000;0.990000;,
  0.010000;0.000000;,
  0.990000;0.000000;,
  0.990000;0.990000;,
  0.010000;0.990000;,
  0.000000;0.000000;,
  1.000000;0.000000;,
  1.000000;0.990000;,
  0.000000;0.990000;,
  0.000000;0.000000;,
  1.000000;0.000000;,
  1.000000;0.990000;,
  0.000000;0.990000;,
  0.271010;0.202570;,
  0.270760;0.165490;,
  0.280300;0.165670;,
  0.280050;0.202790;,
  0.270800;0.060250;,
  0.280260;0.060280;,
  0.280300;0.165670;,
  0.270760;0.165490;,
  0.270830;0.057150;,
  0.280250;0.057180;,
  0.280260;0.060280;,
  0.270800;0.060250;,
  0.271160;0.047850;,
  0.279900;0.047870;,
  0.280250;0.057180;,
  0.270830;0.057150;,
  0.272300;0.042890;,
  0.278760;0.042900;,
  0.279900;0.047870;,
  0.271160;0.047850;,
  0.273260;0.039790;,
  0.277800;0.039790;,
  0.278760;0.042900;,
  0.272300;0.042890;,
  0.275530;0.038550;,
  0.277800;0.039790;,
  0.273260;0.039790;,
  1.000000;0.005000;,
  0.000000;0.005000;,
  0.000000;0.500000;,
  1.000000;0.500000;,
  0.000000;0.700000;,
  1.000000;0.700000;,
  0.000000;0.995000;,
  1.000000;0.995000;,
  0.000000;0.005000;,
  1.000000;0.005000;,
  1.000000;0.500000;,
  0.000000;0.500000;,
  1.000000;0.700000;,
  0.000000;0.700000;,
  1.000000;0.995000;,
  0.000000;0.995000;;
 }
}
