xof 0302txt 0064
template Header {
 <3D82AB43-62DA-11cf-AB39-0020AF71E433>
 WORD major;
 WORD minor;
 DWORD flags;
}

template Vector {
 <3D82AB5E-62DA-11cf-AB39-0020AF71E433>
 FLOAT x;
 FLOAT y;
 FLOAT z;
}

template Coords2d {
 <F6F23F44-7686-11cf-8F52-0040333594A3>
 FLOAT u;
 FLOAT v;
}

template Matrix4x4 {
 <F6F23F45-7686-11cf-8F52-0040333594A3>
 array FLOAT matrix[16];
}

template ColorRGBA {
 <35FF44E0-6C7C-11cf-8F52-0040333594A3>
 FLOAT red;
 FLOAT green;
 FLOAT blue;
 FLOAT alpha;
}

template ColorRGB {
 <D3E16E81-7835-11cf-8F52-0040333594A3>
 FLOAT red;
 FLOAT green;
 FLOAT blue;
}

template IndexedColor {
 <1630B820-7842-11cf-8F52-0040333594A3>
 DWORD index;
 ColorRGBA indexColor;
}

template Boolean {
 <4885AE61-78E8-11cf-8F52-0040333594A3>
 WORD truefalse;
}

template Boolean2d {
 <4885AE63-78E8-11cf-8F52-0040333594A3>
 Boolean u;
 Boolean v;
}

template MaterialWrap {
 <4885AE60-78E8-11cf-8F52-0040333594A3>
 Boolean u;
 Boolean v;
}

template TextureFilename {
 <A42790E1-7810-11cf-8F52-0040333594A3>
 STRING filename;
}

template Material {
 <3D82AB4D-62DA-11cf-AB39-0020AF71E433>
 ColorRGBA faceColor;
 FLOAT power;
 ColorRGB specularColor;
 ColorRGB emissiveColor;
 [...]
}

template MeshFace {
 <3D82AB5F-62DA-11cf-AB39-0020AF71E433>
 DWORD nFaceVertexIndices;
 array DWORD faceVertexIndices[nFaceVertexIndices];
}

template MeshFaceWraps {
 <4885AE62-78E8-11cf-8F52-0040333594A3>
 DWORD nFaceWrapValues;
 Boolean2d faceWrapValues;
}

template MeshTextureCoords {
 <F6F23F40-7686-11cf-8F52-0040333594A3>
 DWORD nTextureCoords;
 array Coords2d textureCoords[nTextureCoords];
}

template MeshMaterialList {
 <F6F23F42-7686-11cf-8F52-0040333594A3>
 DWORD nMaterials;
 DWORD nFaceIndexes;
 array DWORD faceIndexes[nFaceIndexes];
 [Material]
}

template MeshNormals {
 <F6F23F43-7686-11cf-8F52-0040333594A3>
 DWORD nNormals;
 array Vector normals[nNormals];
 DWORD nFaceNormals;
 array MeshFace faceNormals[nFaceNormals];
}

template MeshVertexColors {
 <1630B821-7842-11cf-8F52-0040333594A3>
 DWORD nVertexColors;
 array IndexedColor vertexColors[nVertexColors];
}

template Mesh {
 <3D82AB44-62DA-11cf-AB39-0020AF71E433>
 DWORD nVertices;
 array Vector vertices[nVertices];
 DWORD nFaces;
 array MeshFace faces[nFaces];
 [...]
}

Header{
1;
0;
1;
}

Mesh {
 16;
 1.28000;2.35000;-9.54010;,
 1.28000;1.22000;-9.54010;,
 0.19000;1.22000;-9.75010;,
 0.19000;2.35000;-9.75010;,
 -1.28000;2.35000;-9.54010;,
 -0.19000;2.35000;-9.75010;,
 -0.19000;1.22000;-9.75010;,
 -1.28000;1.22000;-9.54010;,
 -1.65000;2.35000;-9.48000;,
 -0.56000;2.35000;-9.69000;,
 -0.56000;1.22000;-9.69000;,
 -1.65000;1.22000;-9.48000;,
 1.65000;2.35000;-9.48000;,
 1.65000;1.22000;-9.48000;,
 0.56000;1.22000;-9.69000;,
 0.56000;2.35000;-9.69000;;
 
 4;
 4;0,1,2,3;,
 4;4,5,6,7;,
 4;8,9,10,11;,
 4;12,13,14,15;;
 
 MeshMaterialList {
  1;
  4;
  0,
  0,
  0,
  0;;
  Material {
   1.000000;1.000000;1.000000;1.000000;;
   0.000000;
   0.000000;0.000000;0.000000;;
   0.900000;0.900000;0.900000;;
   TextureFilename {
    "000_30.dds";
   }
  }
 }
 MeshNormals {
  2;
  0.189182;0.000000;-0.981942;,
  -0.189182;0.000000;-0.981942;;
  4;
  4;0,0,0,0;,
  4;1,1,1,1;,
  4;1,1,1,1;,
  4;0,0,0,0;;
 }
 MeshTextureCoords {
  16;
  0.990000;0.010000;,
  0.990000;0.990000;,
  0.010000;0.990000;,
  0.010000;0.010000;,
  0.990000;0.010000;,
  0.010000;0.010000;,
  0.010000;0.990000;,
  0.990000;0.990000;,
  0.010000;0.010000;,
  0.990000;0.010000;,
  0.990000;0.990000;,
  0.010000;0.990000;,
  0.010000;0.010000;,
  0.010000;0.990000;,
  0.990000;0.990000;,
  0.990000;0.010000;;
 }
}
