xof 0303txt 0032
template Vector {
 <3d82ab5e-62da-11cf-ab39-0020af71e433>
 FLOAT x;
 FLOAT y;
 FLOAT z;
}

template MeshFace {
 <3d82ab5f-62da-11cf-ab39-0020af71e433>
 DWORD nFaceVertexIndices;
 array DWORD faceVertexIndices[nFaceVertexIndices];
}

template Mesh {
 <3d82ab44-62da-11cf-ab39-0020af71e433>
 DWORD nVertices;
 array Vector vertices[nVertices];
 DWORD nFaces;
 array MeshFace faces[nFaces];
 [...]
}

template MeshNormals {
 <f6f23f43-7686-11cf-8f52-0040333594a3>
 DWORD nNormals;
 array Vector normals[nNormals];
 DWORD nFaceNormals;
 array MeshFace faceNormals[nFaceNormals];
}

template Coords2d {
 <f6f23f44-7686-11cf-8f52-0040333594a3>
 FLOAT u;
 FLOAT v;
}

template MeshTextureCoords {
 <f6f23f40-7686-11cf-8f52-0040333594a3>
 DWORD nTextureCoords;
 array Coords2d textureCoords[nTextureCoords];
}

template ColorRGBA {
 <35ff44e0-6c7c-11cf-8f52-0040333594a3>
 FLOAT red;
 FLOAT green;
 FLOAT blue;
 FLOAT alpha;
}

template ColorRGB {
 <d3e16e81-7835-11cf-8f52-0040333594a3>
 FLOAT red;
 FLOAT green;
 FLOAT blue;
}

template Material {
 <3d82ab4d-62da-11cf-ab39-0020af71e433>
 ColorRGBA faceColor;
 FLOAT power;
 ColorRGB specularColor;
 ColorRGB emissiveColor;
 [...]
}

template MeshMaterialList {
 <f6f23f42-7686-11cf-8f52-0040333594a3>
 DWORD nMaterials;
 DWORD nFaceIndexes;
 array DWORD faceIndexes[nFaceIndexes];
 [Material <3d82ab4d-62da-11cf-ab39-0020af71e433>]
}

template TextureFilename {
 <a42790e1-7810-11cf-8f52-0040333594a3>
 STRING filename;
}


Mesh {
 212;
 0.600000;-1.400000;5.000000;,
 0.600000;-0.300000;5.000000;,
 0.600000;-0.300000;0.000000;,
 0.600000;-1.400000;0.000000;,
 -0.600000;-1.400000;5.000000;,
 -0.600000;-0.300000;5.000000;,
 -0.600000;-0.300000;0.000000;,
 -0.600000;-1.400000;0.000000;,
 -1.000000;-0.150000;4.960000;,
 -1.000000;-0.350000;4.960000;,
 -2.200000;-0.350000;4.960000;,
 -2.200000;-0.150000;4.960000;,
 -1.000000;-0.150000;5.039999;,
 -1.000000;-0.350000;5.039999;,
 -2.200000;-0.350000;5.039999;,
 -2.200000;-0.150000;5.039999;,
 -2.200000;-0.150000;4.960000;,
 -2.200000;-0.350000;4.960000;,
 -2.200000;-0.150000;5.039999;,
 -2.200000;-0.350000;5.039999;,
 -1.000000;-0.150000;5.039999;,
 -1.000000;-0.350000;5.039999;,
 -1.000000;-0.350000;4.960000;,
 -1.000000;-0.150000;4.960000;,
 -1.000000;-0.150000;4.960000;,
 -2.200000;-0.150000;4.960000;,
 -2.200000;-0.150000;5.039999;,
 -1.000000;-0.150000;5.039999;,
 -1.000000;-0.350000;4.960000;,
 -1.000000;-0.350000;5.039999;,
 -2.200000;-0.350000;5.039999;,
 -2.200000;-0.350000;4.960000;,
 -1.000000;-0.150000;2.460000;,
 -1.000000;-0.350000;2.460000;,
 -2.200000;-0.350000;2.460000;,
 -2.200000;-0.150000;2.460000;,
 -1.000000;-0.150000;2.540000;,
 -1.000000;-0.350000;2.540000;,
 -2.200000;-0.350000;2.540000;,
 -2.200000;-0.150000;2.540000;,
 -2.200000;-0.150000;2.460000;,
 -2.200000;-0.350000;2.460000;,
 -2.200000;-0.150000;2.540000;,
 -2.200000;-0.350000;2.540000;,
 -1.000000;-0.150000;2.540000;,
 -1.000000;-0.350000;2.540000;,
 -1.000000;-0.350000;2.460000;,
 -1.000000;-0.150000;2.460000;,
 -1.000000;-0.150000;2.460000;,
 -2.200000;-0.150000;2.460000;,
 -2.200000;-0.150000;2.540000;,
 -1.000000;-0.150000;2.540000;,
 -1.000000;-0.350000;2.460000;,
 -1.000000;-0.350000;2.540000;,
 -2.200000;-0.350000;2.540000;,
 -2.200000;-0.350000;2.460000;,
 -1.000000;-0.150000;-0.040000;,
 -1.000000;-0.350000;-0.040000;,
 -2.200000;-0.350000;-0.040000;,
 -2.200000;-0.150000;-0.040000;,
 -1.000000;-0.150000;0.040000;,
 -1.000000;-0.350000;0.040000;,
 -2.200000;-0.350000;0.040000;,
 -2.200000;-0.150000;0.040000;,
 -2.200000;-0.150000;-0.040000;,
 -2.200000;-0.350000;-0.040000;,
 -2.200000;-0.150000;0.040000;,
 -2.200000;-0.350000;0.040000;,
 -1.000000;-0.150000;0.040000;,
 -1.000000;-0.350000;0.040000;,
 -1.000000;-0.350000;-0.040000;,
 -1.000000;-0.150000;-0.040000;,
 -1.000000;-0.150000;-0.040000;,
 -2.200000;-0.150000;-0.040000;,
 -2.200000;-0.150000;0.040000;,
 -1.000000;-0.150000;0.040000;,
 -1.000000;-0.350000;-0.040000;,
 -1.000000;-0.350000;0.040000;,
 -2.200000;-0.350000;0.040000;,
 -2.200000;-0.350000;-0.040000;,
 -2.120000;1.000000;5.099999;,
 -2.200000;1.000000;5.099999;,
 -2.200000;1.000000;5.099999;,
 -2.120000;1.000000;5.099999;,
 -2.120000;1.000000;7.460000;,
 -2.200000;1.000000;7.460000;,
 -2.200000;1.000000;7.539999;,
 -2.120000;1.000000;7.539999;,
 -2.120000;1.000000;4.960000;,
 -2.120000;-0.300000;4.960000;,
 -2.200000;-0.300000;4.960000;,
 -2.200000;1.000000;4.960000;,
 -2.120000;1.000000;5.039999;,
 -2.120000;-0.300000;5.039999;,
 -2.200000;-0.300000;5.039999;,
 -2.200000;1.000000;5.039999;,
 -2.200000;1.000000;4.960000;,
 -2.200000;-0.300000;4.960000;,
 -2.200000;1.000000;5.039999;,
 -2.200000;-0.300000;5.039999;,
 -2.120000;1.000000;5.039999;,
 -2.120000;-0.300000;5.039999;,
 -2.120000;-0.300000;4.960000;,
 -2.120000;1.000000;4.960000;,
 -2.120000;1.000000;4.960000;,
 -2.200000;1.000000;4.960000;,
 -2.200000;1.000000;5.039999;,
 -2.120000;1.000000;5.039999;,
 -2.120000;-0.300000;4.960000;,
 -2.120000;-0.300000;5.039999;,
 -2.200000;-0.300000;5.039999;,
 -2.200000;-0.300000;4.960000;,
 -2.120000;1.000000;2.460000;,
 -2.120000;-0.300000;2.460000;,
 -2.200000;-0.300000;2.460000;,
 -2.200000;1.000000;2.460000;,
 -2.120000;1.000000;2.540000;,
 -2.120000;-0.300000;2.540000;,
 -2.200000;-0.300000;2.540000;,
 -2.200000;1.000000;2.540000;,
 -2.200000;1.000000;2.460000;,
 -2.200000;-0.300000;2.460000;,
 -2.200000;1.000000;2.540000;,
 -2.200000;-0.300000;2.540000;,
 -2.120000;1.000000;2.540000;,
 -2.120000;-0.300000;2.540000;,
 -2.120000;-0.300000;2.460000;,
 -2.120000;1.000000;2.460000;,
 -2.120000;1.000000;2.460000;,
 -2.200000;1.000000;2.460000;,
 -2.200000;1.000000;2.540000;,
 -2.120000;1.000000;2.540000;,
 -2.120000;-0.300000;2.460000;,
 -2.120000;-0.300000;2.540000;,
 -2.200000;-0.300000;2.540000;,
 -2.200000;-0.300000;2.460000;,
 -2.120000;1.000000;-0.040000;,
 -2.120000;-0.300000;-0.040000;,
 -2.200000;-0.300000;-0.040000;,
 -2.200000;1.000000;-0.040000;,
 -2.120000;1.000000;0.040000;,
 -2.120000;-0.300000;0.040000;,
 -2.200000;-0.300000;0.040000;,
 -2.200000;1.000000;0.040000;,
 -2.200000;1.000000;-0.040000;,
 -2.200000;-0.300000;-0.040000;,
 -2.200000;1.000000;0.040000;,
 -2.200000;-0.300000;0.040000;,
 -2.120000;1.000000;0.040000;,
 -2.120000;-0.300000;0.040000;,
 -2.120000;-0.300000;-0.040000;,
 -2.120000;1.000000;-0.040000;,
 -2.120000;1.000000;-0.040000;,
 -2.200000;1.000000;-0.040000;,
 -2.200000;1.000000;0.040000;,
 -2.120000;1.000000;0.040000;,
 -2.120000;-0.300000;-0.040000;,
 -2.120000;-0.300000;0.040000;,
 -2.200000;-0.300000;0.040000;,
 -2.200000;-0.300000;-0.040000;,
 -2.120000;1.040000;-0.100000;,
 -2.120000;0.960000;-0.100000;,
 -2.200000;0.960000;-0.100000;,
 -2.200000;1.040000;-0.100000;,
 -2.120000;1.040000;5.099999;,
 -2.120000;0.960000;5.099999;,
 -2.200000;0.960000;5.099999;,
 -2.200000;1.040000;5.099999;,
 -2.200000;1.040000;-0.100000;,
 -2.200000;0.960000;-0.100000;,
 -2.200000;1.040000;5.000000;,
 -2.200000;0.960000;5.000000;,
 -2.120000;1.040000;5.000000;,
 -2.120000;0.960000;5.000000;,
 -2.120000;0.960000;-0.100000;,
 -2.120000;1.040000;-0.100000;,
 -2.120000;1.040000;-0.100000;,
 -2.200000;1.040000;-0.100000;,
 -2.200000;1.040000;5.000000;,
 -2.120000;1.040000;5.000000;,
 -2.120000;0.960000;-0.100000;,
 -2.120000;0.960000;5.000000;,
 -2.200000;0.960000;5.000000;,
 -2.200000;0.960000;-0.100000;,
 -2.135000;0.325000;0.000000;,
 -2.135000;0.275000;0.000000;,
 -2.185000;0.275000;0.000000;,
 -2.185000;0.325000;0.000000;,
 -2.135000;0.325000;5.000000;,
 -2.135000;0.275000;5.000000;,
 -2.185000;0.275000;5.000000;,
 -2.185000;0.325000;5.000000;,
 -2.185000;0.325000;0.000000;,
 -2.185000;0.275000;0.000000;,
 -2.185000;0.325000;5.000000;,
 -2.185000;0.275000;5.000000;,
 -2.135000;0.325000;5.000000;,
 -2.135000;0.275000;5.000000;,
 -2.135000;0.275000;0.000000;,
 -2.135000;0.325000;0.000000;,
 -2.135000;0.325000;0.000000;,
 -2.185000;0.325000;0.000000;,
 -2.185000;0.325000;5.000000;,
 -2.135000;0.325000;5.000000;,
 -2.135000;0.275000;0.000000;,
 -2.135000;0.275000;5.000000;,
 -2.185000;0.275000;5.000000;,
 -2.185000;0.275000;0.000000;,
 -2.100000;-0.050000;0.000000;,
 -2.100000;-0.050000;5.000000;,
 -1.350000;-0.050000;5.000000;,
 -1.350000;-0.050000;0.000000;;
 106;
 3;3,2,1;,
 3;3,1,0;,
 3;4,5,6;,
 3;4,6,7;,
 3;8,9,10;,
 3;8,10,11;,
 3;16,17,14;,
 3;16,14,15;,
 3;18,19,13;,
 3;18,13,12;,
 3;20,21,22;,
 3;20,22,23;,
 3;24,25,26;,
 3;24,26,27;,
 3;28,29,30;,
 3;28,30,31;,
 3;32,33,34;,
 3;32,34,35;,
 3;40,41,38;,
 3;40,38,39;,
 3;42,43,37;,
 3;42,37,36;,
 3;44,45,46;,
 3;44,46,47;,
 3;48,49,50;,
 3;48,50,51;,
 3;52,53,54;,
 3;52,54,55;,
 3;56,57,58;,
 3;56,58,59;,
 3;64,65,62;,
 3;64,62,63;,
 3;66,67,61;,
 3;66,61,60;,
 3;68,69,70;,
 3;68,70,71;,
 3;72,73,74;,
 3;72,74,75;,
 3;76,77,78;,
 3;76,78,79;,
 3;80,81,82;,
 3;80,82,83;,
 3;84,85,86;,
 3;84,86,87;,
 3;88,89,90;,
 3;88,90,91;,
 3;96,97,94;,
 3;96,94,95;,
 3;98,99,93;,
 3;98,93,92;,
 3;100,101,102;,
 3;100,102,103;,
 3;104,105,106;,
 3;104,106,107;,
 3;108,109,110;,
 3;108,110,111;,
 3;112,113,114;,
 3;112,114,115;,
 3;120,121,118;,
 3;120,118,119;,
 3;122,123,117;,
 3;122,117,116;,
 3;124,125,126;,
 3;124,126,127;,
 3;128,129,130;,
 3;128,130,131;,
 3;132,133,134;,
 3;132,134,135;,
 3;136,137,138;,
 3;136,138,139;,
 3;144,145,142;,
 3;144,142,143;,
 3;146,147,141;,
 3;146,141,140;,
 3;148,149,150;,
 3;148,150,151;,
 3;152,153,154;,
 3;152,154,155;,
 3;156,157,158;,
 3;156,158,159;,
 3;160,161,162;,
 3;160,162,163;,
 3;168,169,166;,
 3;168,166,167;,
 3;170,171,165;,
 3;170,165,164;,
 3;172,173,174;,
 3;172,174,175;,
 3;176,177,178;,
 3;176,178,179;,
 3;180,181,182;,
 3;180,182,183;,
 3;184,185,186;,
 3;184,186,187;,
 3;192,193,190;,
 3;192,190,191;,
 3;194,195,189;,
 3;194,189,188;,
 3;196,197,198;,
 3;196,198,199;,
 3;200,201,202;,
 3;200,202,203;,
 3;204,205,206;,
 3;204,206,207;,
 3;208,209,210;,
 3;208,210,211;;

 MeshNormals {
  212;
  1.000000;0.000000;0.000000;,
  1.000000;0.000000;0.000000;,
  1.000000;0.000000;0.000000;,
  1.000000;0.000000;0.000000;,
  -1.000000;0.000000;0.000000;,
  -1.000000;0.000000;0.000000;,
  -1.000000;0.000000;0.000000;,
  -1.000000;0.000000;0.000000;,
  0.000000;0.000000;-1.000000;,
  0.000000;0.000000;-1.000000;,
  0.000000;0.000000;-1.000000;,
  0.000000;0.000000;-1.000000;,
  0.000000;0.000000;1.000000;,
  0.000000;0.000000;1.000000;,
  -1.000000;0.000000;0.000000;,
  -1.000000;0.000000;0.000000;,
  -1.000000;0.000000;0.000000;,
  -1.000000;0.000000;0.000000;,
  0.000000;0.000000;1.000000;,
  0.000000;0.000000;1.000000;,
  1.000000;0.000000;0.000000;,
  1.000000;0.000000;0.000000;,
  1.000000;0.000000;0.000000;,
  1.000000;0.000000;0.000000;,
  0.000000;1.000000;0.000000;,
  0.000000;1.000000;0.000000;,
  0.000000;1.000000;0.000000;,
  0.000000;1.000000;0.000000;,
  0.000000;-1.000000;0.000000;,
  0.000000;-1.000000;0.000000;,
  0.000000;-1.000000;0.000000;,
  0.000000;-1.000000;0.000000;,
  0.000000;0.000000;-1.000000;,
  0.000000;0.000000;-1.000000;,
  0.000000;0.000000;-1.000000;,
  0.000000;0.000000;-1.000000;,
  0.000000;0.000000;1.000000;,
  0.000000;0.000000;1.000000;,
  -1.000000;0.000000;0.000000;,
  -1.000000;0.000000;0.000000;,
  -1.000000;0.000000;0.000000;,
  -1.000000;0.000000;0.000000;,
  0.000000;0.000000;1.000000;,
  0.000000;0.000000;1.000000;,
  1.000000;0.000000;0.000000;,
  1.000000;0.000000;0.000000;,
  1.000000;0.000000;0.000000;,
  1.000000;0.000000;0.000000;,
  0.000000;1.000000;0.000000;,
  0.000000;1.000000;0.000000;,
  0.000000;1.000000;0.000000;,
  0.000000;1.000000;0.000000;,
  0.000000;-1.000000;0.000000;,
  0.000000;-1.000000;0.000000;,
  0.000000;-1.000000;0.000000;,
  0.000000;-1.000000;0.000000;,
  0.000000;0.000000;-1.000000;,
  0.000000;0.000000;-1.000000;,
  0.000000;0.000000;-1.000000;,
  0.000000;0.000000;-1.000000;,
  0.000000;0.000000;1.000000;,
  0.000000;0.000000;1.000000;,
  -1.000000;0.000000;0.000000;,
  -1.000000;0.000000;0.000000;,
  -1.000000;0.000000;0.000000;,
  -1.000000;0.000000;0.000000;,
  0.000000;0.000000;1.000000;,
  0.000000;0.000000;1.000000;,
  1.000000;0.000000;0.000000;,
  1.000000;0.000000;0.000000;,
  1.000000;0.000000;0.000000;,
  1.000000;0.000000;0.000000;,
  0.000000;1.000000;0.000000;,
  0.000000;1.000000;0.000000;,
  0.000000;1.000000;0.000000;,
  0.000000;1.000000;0.000000;,
  0.000000;-1.000000;0.000000;,
  0.000000;-1.000000;0.000000;,
  0.000000;-1.000000;0.000000;,
  0.000000;-1.000000;0.000000;,
  0.000000;1.000000;0.000000;,
  0.000000;1.000000;0.000000;,
  0.000000;1.000000;0.000000;,
  0.000000;1.000000;0.000000;,
  0.000000;1.000000;0.000000;,
  0.000000;1.000000;0.000000;,
  0.000000;1.000000;0.000000;,
  0.000000;1.000000;0.000000;,
  0.000000;0.000000;-1.000000;,
  0.000000;0.000000;-1.000000;,
  0.000000;0.000000;-1.000000;,
  0.000000;0.000000;-1.000000;,
  0.000000;0.000000;1.000000;,
  0.000000;0.000000;1.000000;,
  -1.000000;0.000000;0.000000;,
  -1.000000;0.000000;0.000000;,
  -1.000000;0.000000;0.000000;,
  -1.000000;0.000000;0.000000;,
  0.000000;0.000000;1.000000;,
  0.000000;0.000000;1.000000;,
  1.000000;0.000000;0.000000;,
  1.000000;0.000000;0.000000;,
  1.000000;0.000000;0.000000;,
  1.000000;0.000000;0.000000;,
  0.000000;1.000000;0.000000;,
  0.000000;1.000000;0.000000;,
  0.000000;1.000000;0.000000;,
  0.000000;1.000000;0.000000;,
  0.000000;-1.000000;0.000000;,
  0.000000;-1.000000;0.000000;,
  0.000000;-1.000000;0.000000;,
  0.000000;-1.000000;0.000000;,
  0.000000;0.000000;-1.000000;,
  0.000000;0.000000;-1.000000;,
  0.000000;0.000000;-1.000000;,
  0.000000;0.000000;-1.000000;,
  0.000000;0.000000;1.000000;,
  0.000000;0.000000;1.000000;,
  -1.000000;0.000000;0.000000;,
  -1.000000;0.000000;0.000000;,
  -1.000000;0.000000;0.000000;,
  -1.000000;0.000000;0.000000;,
  0.000000;0.000000;1.000000;,
  0.000000;0.000000;1.000000;,
  1.000000;0.000000;0.000000;,
  1.000000;0.000000;0.000000;,
  1.000000;0.000000;0.000000;,
  1.000000;0.000000;0.000000;,
  0.000000;1.000000;0.000000;,
  0.000000;1.000000;0.000000;,
  0.000000;1.000000;0.000000;,
  0.000000;1.000000;0.000000;,
  0.000000;-1.000000;0.000000;,
  0.000000;-1.000000;0.000000;,
  0.000000;-1.000000;0.000000;,
  0.000000;-1.000000;0.000000;,
  0.000000;0.000000;-1.000000;,
  0.000000;0.000000;-1.000000;,
  0.000000;0.000000;-1.000000;,
  0.000000;0.000000;-1.000000;,
  0.000000;0.000000;1.000000;,
  0.000000;0.000000;1.000000;,
  -1.000000;0.000000;0.000000;,
  -1.000000;0.000000;0.000000;,
  -1.000000;0.000000;0.000000;,
  -1.000000;0.000000;0.000000;,
  0.000000;0.000000;1.000000;,
  0.000000;0.000000;1.000000;,
  1.000000;0.000000;0.000000;,
  1.000000;0.000000;0.000000;,
  1.000000;0.000000;0.000000;,
  1.000000;0.000000;0.000000;,
  0.000000;1.000000;0.000000;,
  0.000000;1.000000;0.000000;,
  0.000000;1.000000;0.000000;,
  0.000000;1.000000;0.000000;,
  0.000000;-1.000000;0.000000;,
  0.000000;-1.000000;0.000000;,
  0.000000;-1.000000;0.000000;,
  0.000000;-1.000000;0.000000;,
  0.000000;0.000000;-1.000000;,
  0.000000;0.000000;-1.000000;,
  0.000000;0.000000;-1.000000;,
  0.000000;0.000000;-1.000000;,
  0.000000;0.000000;1.000000;,
  0.000000;0.000000;1.000000;,
  -1.000000;0.000000;0.000000;,
  -1.000000;0.000000;0.000000;,
  -1.000000;0.000000;0.000000;,
  -1.000000;0.000000;0.000000;,
  0.000000;0.000000;1.000000;,
  0.000000;0.000000;1.000000;,
  1.000000;0.000000;0.000000;,
  1.000000;0.000000;0.000000;,
  1.000000;0.000000;0.000000;,
  1.000000;0.000000;0.000000;,
  0.000000;1.000000;0.000000;,
  0.000000;1.000000;0.000000;,
  0.000000;1.000000;0.000000;,
  0.000000;1.000000;0.000000;,
  0.000000;-1.000000;0.000000;,
  0.000000;-1.000000;0.000000;,
  0.000000;-1.000000;0.000000;,
  0.000000;-1.000000;0.000000;,
  0.000000;0.000000;-1.000000;,
  0.000000;0.000000;-1.000000;,
  0.000000;0.000000;-1.000000;,
  0.000000;0.000000;-1.000000;,
  0.000000;0.000000;1.000000;,
  0.000000;0.000000;1.000000;,
  -1.000000;0.000000;0.000000;,
  -1.000000;0.000000;0.000000;,
  -1.000000;0.000000;0.000000;,
  -1.000000;0.000000;0.000000;,
  0.000000;0.000000;1.000000;,
  0.000000;0.000000;1.000000;,
  1.000000;0.000000;0.000000;,
  1.000000;0.000000;0.000000;,
  1.000000;0.000000;0.000000;,
  1.000000;0.000000;0.000000;,
  0.000000;1.000000;0.000000;,
  0.000000;1.000000;0.000000;,
  0.000000;1.000000;0.000000;,
  0.000000;1.000000;0.000000;,
  0.000000;-1.000000;0.000000;,
  0.000000;-1.000000;0.000000;,
  0.000000;-1.000000;0.000000;,
  0.000000;-1.000000;0.000000;,
  0.000000;1.000000;0.000000;,
  0.000000;1.000000;0.000000;,
  0.000000;1.000000;0.000000;,
  0.000000;1.000000;0.000000;;
  106;
  3;3,2,1;,
  3;3,1,0;,
  3;4,5,6;,
  3;4,6,7;,
  3;8,9,10;,
  3;8,10,11;,
  3;16,17,14;,
  3;16,14,15;,
  3;18,19,13;,
  3;18,13,12;,
  3;20,21,22;,
  3;20,22,23;,
  3;24,25,26;,
  3;24,26,27;,
  3;28,29,30;,
  3;28,30,31;,
  3;32,33,34;,
  3;32,34,35;,
  3;40,41,38;,
  3;40,38,39;,
  3;42,43,37;,
  3;42,37,36;,
  3;44,45,46;,
  3;44,46,47;,
  3;48,49,50;,
  3;48,50,51;,
  3;52,53,54;,
  3;52,54,55;,
  3;56,57,58;,
  3;56,58,59;,
  3;64,65,62;,
  3;64,62,63;,
  3;66,67,61;,
  3;66,61,60;,
  3;68,69,70;,
  3;68,70,71;,
  3;72,73,74;,
  3;72,74,75;,
  3;76,77,78;,
  3;76,78,79;,
  3;80,81,82;,
  3;80,82,83;,
  3;84,85,86;,
  3;84,86,87;,
  3;88,89,90;,
  3;88,90,91;,
  3;96,97,94;,
  3;96,94,95;,
  3;98,99,93;,
  3;98,93,92;,
  3;100,101,102;,
  3;100,102,103;,
  3;104,105,106;,
  3;104,106,107;,
  3;108,109,110;,
  3;108,110,111;,
  3;112,113,114;,
  3;112,114,115;,
  3;120,121,118;,
  3;120,118,119;,
  3;122,123,117;,
  3;122,117,116;,
  3;124,125,126;,
  3;124,126,127;,
  3;128,129,130;,
  3;128,130,131;,
  3;132,133,134;,
  3;132,134,135;,
  3;136,137,138;,
  3;136,138,139;,
  3;144,145,142;,
  3;144,142,143;,
  3;146,147,141;,
  3;146,141,140;,
  3;148,149,150;,
  3;148,150,151;,
  3;152,153,154;,
  3;152,154,155;,
  3;156,157,158;,
  3;156,158,159;,
  3;160,161,162;,
  3;160,162,163;,
  3;168,169,166;,
  3;168,166,167;,
  3;170,171,165;,
  3;170,165,164;,
  3;172,173,174;,
  3;172,174,175;,
  3;176,177,178;,
  3;176,178,179;,
  3;180,181,182;,
  3;180,182,183;,
  3;184,185,186;,
  3;184,186,187;,
  3;192,193,190;,
  3;192,190,191;,
  3;194,195,189;,
  3;194,189,188;,
  3;196,197,198;,
  3;196,198,199;,
  3;200,201,202;,
  3;200,202,203;,
  3;204,205,206;,
  3;204,206,207;,
  3;208,209,210;,
  3;208,210,211;;
 }

 MeshTextureCoords {
  212;
  2.000000;1.000000;,
  2.000000;0.000000;,
  0.000000;0.000000;,
  0.000000;1.000000;,
  2.000000;1.000000;,
  2.000000;0.000000;,
  0.000000;0.000000;,
  0.000000;1.000000;,
  0.000000;0.000000;,
  0.000000;0.000000;,
  0.000000;0.000000;,
  0.000000;0.000000;,
  0.000000;0.000000;,
  0.000000;0.000000;,
  0.000000;0.000000;,
  0.000000;0.000000;,
  0.000000;0.000000;,
  0.000000;0.000000;,
  0.000000;0.000000;,
  0.000000;0.000000;,
  0.000000;0.000000;,
  0.000000;0.000000;,
  0.000000;0.000000;,
  0.000000;0.000000;,
  0.000000;0.000000;,
  0.000000;0.000000;,
  0.000000;0.000000;,
  0.000000;0.000000;,
  0.000000;0.000000;,
  0.000000;0.000000;,
  0.000000;0.000000;,
  0.000000;0.000000;,
  0.000000;0.000000;,
  0.000000;0.000000;,
  0.000000;0.000000;,
  0.000000;0.000000;,
  0.000000;0.000000;,
  0.000000;0.000000;,
  0.000000;0.000000;,
  0.000000;0.000000;,
  0.000000;0.000000;,
  0.000000;0.000000;,
  0.000000;0.000000;,
  0.000000;0.000000;,
  0.000000;0.000000;,
  0.000000;0.000000;,
  0.000000;0.000000;,
  0.000000;0.000000;,
  0.000000;0.000000;,
  0.000000;0.000000;,
  0.000000;0.000000;,
  0.000000;0.000000;,
  0.000000;0.000000;,
  0.000000;0.000000;,
  0.000000;0.000000;,
  0.000000;0.000000;,
  0.000000;0.000000;,
  0.000000;0.000000;,
  0.000000;0.000000;,
  0.000000;0.000000;,
  0.000000;0.000000;,
  0.000000;0.000000;,
  0.000000;0.000000;,
  0.000000;0.000000;,
  0.000000;0.000000;,
  0.000000;0.000000;,
  0.000000;0.000000;,
  0.000000;0.000000;,
  0.000000;0.000000;,
  0.000000;0.000000;,
  0.000000;0.000000;,
  0.000000;0.000000;,
  0.000000;0.000000;,
  0.000000;0.000000;,
  0.000000;0.000000;,
  0.000000;0.000000;,
  0.000000;0.000000;,
  0.000000;0.000000;,
  0.000000;0.000000;,
  0.000000;0.000000;,
  0.000000;0.000000;,
  0.000000;0.000000;,
  0.000000;0.000000;,
  0.000000;0.000000;,
  0.000000;0.000000;,
  0.000000;0.000000;,
  0.000000;0.000000;,
  0.000000;0.000000;,
  0.000000;0.000000;,
  0.000000;0.000000;,
  0.000000;0.000000;,
  0.000000;0.000000;,
  0.000000;0.000000;,
  0.000000;0.000000;,
  0.000000;0.000000;,
  0.000000;0.000000;,
  0.000000;0.000000;,
  0.000000;0.000000;,
  0.000000;0.000000;,
  0.000000;0.000000;,
  0.000000;0.000000;,
  0.000000;0.000000;,
  0.000000;0.000000;,
  0.000000;0.000000;,
  0.000000;0.000000;,
  0.000000;0.000000;,
  0.000000;0.000000;,
  0.000000;0.000000;,
  0.000000;0.000000;,
  0.000000;0.000000;,
  0.000000;0.000000;,
  0.000000;0.000000;,
  0.000000;0.000000;,
  0.000000;0.000000;,
  0.000000;0.000000;,
  0.000000;0.000000;,
  0.000000;0.000000;,
  0.000000;0.000000;,
  0.000000;0.000000;,
  0.000000;0.000000;,
  0.000000;0.000000;,
  0.000000;0.000000;,
  0.000000;0.000000;,
  0.000000;0.000000;,
  0.000000;0.000000;,
  0.000000;0.000000;,
  0.000000;0.000000;,
  0.000000;0.000000;,
  0.000000;0.000000;,
  0.000000;0.000000;,
  0.000000;0.000000;,
  0.000000;0.000000;,
  0.000000;0.000000;,
  0.000000;0.000000;,
  0.000000;0.000000;,
  0.000000;0.000000;,
  0.000000;0.000000;,
  0.000000;0.000000;,
  0.000000;0.000000;,
  0.000000;0.000000;,
  0.000000;0.000000;,
  0.000000;0.000000;,
  0.000000;0.000000;,
  0.000000;0.000000;,
  0.000000;0.000000;,
  0.000000;0.000000;,
  0.000000;0.000000;,
  0.000000;0.000000;,
  0.000000;0.000000;,
  0.000000;0.000000;,
  0.000000;0.000000;,
  0.000000;0.000000;,
  0.000000;0.000000;,
  0.000000;0.000000;,
  0.000000;0.000000;,
  0.000000;0.000000;,
  0.000000;0.000000;,
  0.000000;0.000000;,
  0.000000;0.000000;,
  0.000000;0.000000;,
  0.000000;0.000000;,
  0.000000;0.000000;,
  0.000000;0.000000;,
  0.000000;0.000000;,
  0.000000;0.000000;,
  0.000000;0.000000;,
  0.000000;0.000000;,
  0.000000;0.000000;,
  0.000000;0.000000;,
  0.000000;0.000000;,
  0.000000;0.000000;,
  0.000000;0.000000;,
  0.000000;0.000000;,
  0.000000;0.000000;,
  0.000000;0.000000;,
  0.000000;0.000000;,
  0.000000;0.000000;,
  0.000000;0.000000;,
  0.000000;0.000000;,
  0.000000;0.000000;,
  0.000000;0.000000;,
  0.000000;0.000000;,
  0.000000;0.000000;,
  0.000000;0.000000;,
  0.000000;0.000000;,
  0.000000;0.000000;,
  0.000000;0.000000;,
  0.000000;0.000000;,
  0.000000;0.000000;,
  0.000000;0.000000;,
  0.000000;0.000000;,
  0.000000;0.000000;,
  0.000000;0.000000;,
  0.000000;0.000000;,
  0.000000;0.000000;,
  0.000000;0.000000;,
  0.000000;0.000000;,
  0.000000;0.000000;,
  0.000000;0.000000;,
  0.000000;0.000000;,
  0.000000;0.000000;,
  0.000000;0.000000;,
  0.000000;0.000000;,
  0.000000;0.000000;,
  0.000000;0.000000;,
  0.000000;0.000000;,
  0.000000;0.000000;,
  0.000000;0.000000;,
  1.000000;1.000000;,
  1.000000;0.000000;,
  0.000000;0.000000;,
  0.000000;1.000000;;
 }

 MeshMaterialList {
  3;
  106;
  0,
  0,
  0,
  0,
  1,
  1,
  1,
  1,
  1,
  1,
  1,
  1,
  1,
  1,
  1,
  1,
  1,
  1,
  1,
  1,
  1,
  1,
  1,
  1,
  1,
  1,
  1,
  1,
  1,
  1,
  1,
  1,
  1,
  1,
  1,
  1,
  1,
  1,
  1,
  1,
  1,
  1,
  1,
  1,
  1,
  1,
  1,
  1,
  1,
  1,
  1,
  1,
  1,
  1,
  1,
  1,
  1,
  1,
  1,
  1,
  1,
  1,
  1,
  1,
  1,
  1,
  1,
  1,
  1,
  1,
  1,
  1,
  1,
  1,
  1,
  1,
  1,
  1,
  1,
  1,
  1,
  1,
  1,
  1,
  1,
  1,
  1,
  1,
  1,
  1,
  1,
  1,
  1,
  1,
  1,
  1,
  1,
  1,
  1,
  1,
  1,
  1,
  1,
  1,
  2,
  2;

  Material {
   1.000000;1.000000;1.000000;1.000000;;
   0.000000;
   0.000000;0.000000;0.000000;;
   0.000000;0.000000;0.000000;;

   TextureFilename {
    "tk_b_03.dds";
   }
  }

  Material {
   0.407843;0.525490;0.611765;1.000000;;
   0.000000;
   0.000000;0.000000;0.000000;;
   0.000000;0.000000;0.000000;;
  }

  Material {
   1.000000;1.000000;1.000000;1.000000;;
   0.000000;
   0.000000;0.000000;0.000000;;
   0.000000;0.000000;0.000000;;

   TextureFilename {
    "tk_b_01.dds";
   }
  }
 }
}