xof 0303txt 0032
template Vector {
 <3d82ab5e-62da-11cf-ab39-0020af71e433>
 FLOAT x;
 FLOAT y;
 FLOAT z;
}

template MeshFace {
 <3d82ab5f-62da-11cf-ab39-0020af71e433>
 DWORD nFaceVertexIndices;
 array DWORD faceVertexIndices[nFaceVertexIndices];
}

template Mesh {
 <3d82ab44-62da-11cf-ab39-0020af71e433>
 DWORD nVertices;
 array Vector vertices[nVertices];
 DWORD nFaces;
 array MeshFace faces[nFaces];
 [...]
}

template MeshNormals {
 <f6f23f43-7686-11cf-8f52-0040333594a3>
 DWORD nNormals;
 array Vector normals[nNormals];
 DWORD nFaceNormals;
 array MeshFace faceNormals[nFaceNormals];
}

template Coords2d {
 <f6f23f44-7686-11cf-8f52-0040333594a3>
 FLOAT u;
 FLOAT v;
}

template MeshTextureCoords {
 <f6f23f40-7686-11cf-8f52-0040333594a3>
 DWORD nTextureCoords;
 array Coords2d textureCoords[nTextureCoords];
}

template ColorRGBA {
 <35ff44e0-6c7c-11cf-8f52-0040333594a3>
 FLOAT red;
 FLOAT green;
 FLOAT blue;
 FLOAT alpha;
}

template ColorRGB {
 <d3e16e81-7835-11cf-8f52-0040333594a3>
 FLOAT red;
 FLOAT green;
 FLOAT blue;
}

template Material {
 <3d82ab4d-62da-11cf-ab39-0020af71e433>
 ColorRGBA faceColor;
 FLOAT power;
 ColorRGB specularColor;
 ColorRGB emissiveColor;
 [...]
}

template MeshMaterialList {
 <f6f23f42-7686-11cf-8f52-0040333594a3>
 DWORD nMaterials;
 DWORD nFaceIndexes;
 array DWORD faceIndexes[nFaceIndexes];
 [Material <3d82ab4d-62da-11cf-ab39-0020af71e433>]
}

template TextureFilename {
 <a42790e1-7810-11cf-8f52-0040333594a3>
 STRING filename;
}


Mesh {
 796;
 0.600000;-1.400000;24.999998;,
 0.600000;-0.300000;24.999998;,
 0.600000;-0.300000;0.000000;,
 0.600000;-1.400000;0.000000;,
 -0.600000;-1.400000;24.999998;,
 -0.600000;-0.300000;24.999998;,
 -0.600000;-0.300000;0.000000;,
 -0.600000;-1.400000;0.000000;,
 -1.000000;-0.150000;9.959996;,
 -1.000000;-0.350000;9.959996;,
 -2.200000;-0.350000;9.959996;,
 -2.200000;-0.150000;9.959996;,
 -1.000000;-0.150000;10.039996;,
 -1.000000;-0.350000;10.039996;,
 -2.200000;-0.350000;10.039996;,
 -2.200000;-0.150000;10.039996;,
 -1.000000;-0.150000;7.459998;,
 -1.000000;-0.350000;7.459998;,
 -2.200000;-0.350000;7.459998;,
 -2.200000;-0.150000;7.459998;,
 -1.000000;-0.150000;7.539998;,
 -1.000000;-0.350000;7.539998;,
 -2.200000;-0.350000;7.539998;,
 -2.200000;-0.150000;7.539998;,
 -1.000000;-0.150000;4.960000;,
 -1.000000;-0.350000;4.960000;,
 -2.200000;-0.350000;4.960000;,
 -2.200000;-0.150000;4.960000;,
 -1.000000;-0.150000;5.039998;,
 -1.000000;-0.350000;5.039998;,
 -2.200000;-0.350000;5.039998;,
 -2.200000;-0.150000;5.039998;,
 -1.000000;-0.150000;2.460000;,
 -1.000000;-0.350000;2.460000;,
 -2.200000;-0.350000;2.460000;,
 -2.200000;-0.150000;2.460000;,
 -1.000000;-0.150000;2.540000;,
 -1.000000;-0.350000;2.540000;,
 -2.200000;-0.350000;2.540000;,
 -2.200000;-0.150000;2.540000;,
 -1.000000;-0.150000;-0.040000;,
 -1.000000;-0.350000;-0.040000;,
 -2.200000;-0.350000;-0.040000;,
 -2.200000;-0.150000;-0.040000;,
 -1.000000;-0.150000;0.040000;,
 -1.000000;-0.350000;0.040000;,
 -2.200000;-0.350000;0.040000;,
 -2.200000;-0.150000;0.040000;,
 -2.120000;0.690406;9.959996;,
 -2.120000;-0.300000;9.959996;,
 -2.200000;-0.300000;9.959996;,
 -2.200000;0.690406;9.959996;,
 -2.120000;0.690406;10.039996;,
 -2.120000;-0.300000;10.039996;,
 -2.200000;-0.300000;10.039996;,
 -2.200000;0.690406;10.039996;,
 -2.120000;0.690406;7.459998;,
 -2.120000;-0.300000;7.459998;,
 -2.200000;-0.300000;7.459998;,
 -2.200000;0.690406;7.459998;,
 -2.120000;0.690406;7.539998;,
 -2.120000;-0.300000;7.539998;,
 -2.200000;-0.300000;7.539998;,
 -2.200000;0.690406;7.539998;,
 -2.120000;0.690406;4.960000;,
 -2.120000;-0.300000;4.960000;,
 -2.200000;-0.300000;4.960000;,
 -2.200000;0.690406;4.960000;,
 -2.120000;0.690406;5.039998;,
 -2.120000;-0.300000;5.039998;,
 -2.200000;-0.300000;5.039998;,
 -2.200000;0.690406;5.039998;,
 -2.120000;0.690406;2.460000;,
 -2.120000;-0.300000;2.460000;,
 -2.200000;-0.300000;2.460000;,
 -2.200000;0.690406;2.460000;,
 -2.120000;0.690406;2.540000;,
 -2.120000;-0.300000;2.540000;,
 -2.200000;-0.300000;2.540000;,
 -2.200000;0.690406;2.540000;,
 -2.120000;0.690406;-0.040000;,
 -2.120000;-0.300000;-0.040000;,
 -2.200000;-0.300000;-0.040000;,
 -2.200000;0.690406;-0.040000;,
 -2.120000;0.690406;0.040000;,
 -2.120000;-0.300000;0.040000;,
 -2.200000;-0.300000;0.040000;,
 -2.200000;0.690406;0.040000;,
 -2.120000;0.730406;-0.100000;,
 -2.120000;0.650406;-0.100000;,
 -2.200000;0.650406;-0.100000;,
 -2.200000;0.730406;-0.100000;,
 -2.120000;0.730406;15.029901;,
 -2.120000;0.650406;15.029901;,
 -2.200000;0.650406;15.029901;,
 -2.200000;0.730406;15.029901;,
 -2.135000;0.168280;0.000000;,
 -2.135000;0.118280;0.000000;,
 -2.185000;0.118280;0.000000;,
 -2.185000;0.168280;0.000000;,
 -2.135000;0.168280;15.029626;,
 -2.135000;0.118280;15.029626;,
 -2.185000;0.118280;15.029626;,
 -2.185000;0.168280;15.029626;,
 -2.200000;-0.150000;9.959996;,
 -2.200000;-0.350000;9.959996;,
 -2.200000;-0.150000;10.039996;,
 -2.200000;-0.350000;10.039996;,
 -1.000000;-0.150000;10.039996;,
 -1.000000;-0.350000;10.039996;,
 -1.000000;-0.350000;9.959996;,
 -1.000000;-0.150000;9.959996;,
 -1.000000;-0.150000;9.959996;,
 -2.200000;-0.150000;9.959996;,
 -2.200000;-0.150000;10.039996;,
 -1.000000;-0.150000;10.039996;,
 -1.000000;-0.350000;9.959996;,
 -1.000000;-0.350000;10.039996;,
 -2.200000;-0.350000;10.039996;,
 -2.200000;-0.350000;9.959996;,
 -2.200000;-0.150000;7.459998;,
 -2.200000;-0.350000;7.459998;,
 -2.200000;-0.150000;7.539998;,
 -2.200000;-0.350000;7.539998;,
 -1.000000;-0.150000;7.539998;,
 -1.000000;-0.350000;7.539998;,
 -1.000000;-0.350000;7.459998;,
 -1.000000;-0.150000;7.459998;,
 -1.000000;-0.150000;7.459998;,
 -2.200000;-0.150000;7.459998;,
 -2.200000;-0.150000;7.539998;,
 -1.000000;-0.150000;7.539998;,
 -1.000000;-0.350000;7.459998;,
 -1.000000;-0.350000;7.539998;,
 -2.200000;-0.350000;7.539998;,
 -2.200000;-0.350000;7.459998;,
 -2.200000;-0.150000;4.960000;,
 -2.200000;-0.350000;4.960000;,
 -2.200000;-0.150000;5.039998;,
 -2.200000;-0.350000;5.039998;,
 -1.000000;-0.150000;5.039998;,
 -1.000000;-0.350000;5.039998;,
 -1.000000;-0.350000;4.960000;,
 -1.000000;-0.150000;4.960000;,
 -1.000000;-0.150000;4.960000;,
 -2.200000;-0.150000;4.960000;,
 -2.200000;-0.150000;5.039998;,
 -1.000000;-0.150000;5.039998;,
 -1.000000;-0.350000;4.960000;,
 -1.000000;-0.350000;5.039998;,
 -2.200000;-0.350000;5.039998;,
 -2.200000;-0.350000;4.960000;,
 -2.200000;-0.150000;2.460000;,
 -2.200000;-0.350000;2.460000;,
 -2.200000;-0.150000;2.540000;,
 -2.200000;-0.350000;2.540000;,
 -1.000000;-0.150000;2.540000;,
 -1.000000;-0.350000;2.540000;,
 -1.000000;-0.350000;2.460000;,
 -1.000000;-0.150000;2.460000;,
 -1.000000;-0.150000;2.460000;,
 -2.200000;-0.150000;2.460000;,
 -2.200000;-0.150000;2.540000;,
 -1.000000;-0.150000;2.540000;,
 -1.000000;-0.350000;2.460000;,
 -1.000000;-0.350000;2.540000;,
 -2.200000;-0.350000;2.540000;,
 -2.200000;-0.350000;2.460000;,
 -2.200000;-0.150000;-0.040000;,
 -2.200000;-0.350000;-0.040000;,
 -2.200000;-0.150000;0.040000;,
 -2.200000;-0.350000;0.040000;,
 -1.000000;-0.150000;0.040000;,
 -1.000000;-0.350000;0.040000;,
 -1.000000;-0.350000;-0.040000;,
 -1.000000;-0.150000;-0.040000;,
 -1.000000;-0.150000;-0.040000;,
 -2.200000;-0.150000;-0.040000;,
 -2.200000;-0.150000;0.040000;,
 -1.000000;-0.150000;0.040000;,
 -1.000000;-0.350000;-0.040000;,
 -1.000000;-0.350000;0.040000;,
 -2.200000;-0.350000;0.040000;,
 -2.200000;-0.350000;-0.040000;,
 -2.200000;0.690406;9.959996;,
 -2.200000;-0.300000;9.959996;,
 -2.200000;0.690406;10.039996;,
 -2.200000;-0.300000;10.039996;,
 -2.120000;0.690406;10.039996;,
 -2.120000;-0.300000;10.039996;,
 -2.120000;-0.300000;9.959996;,
 -2.120000;0.690406;9.959996;,
 -2.120000;0.690406;9.959996;,
 -2.200000;0.690406;9.959996;,
 -2.200000;0.690406;10.039996;,
 -2.120000;0.690406;10.039996;,
 -2.120000;-0.300000;9.959996;,
 -2.120000;-0.300000;10.039996;,
 -2.200000;-0.300000;10.039996;,
 -2.200000;-0.300000;9.959996;,
 -2.200000;0.690406;7.459998;,
 -2.200000;-0.300000;7.459998;,
 -2.200000;0.690406;7.539998;,
 -2.200000;-0.300000;7.539998;,
 -2.120000;0.690406;7.539998;,
 -2.120000;-0.300000;7.539998;,
 -2.120000;-0.300000;7.459998;,
 -2.120000;0.690406;7.459998;,
 -2.120000;0.690406;7.459998;,
 -2.200000;0.690406;7.459998;,
 -2.200000;0.690406;7.539998;,
 -2.120000;0.690406;7.539998;,
 -2.120000;-0.300000;7.459998;,
 -2.120000;-0.300000;7.539998;,
 -2.200000;-0.300000;7.539998;,
 -2.200000;-0.300000;7.459998;,
 -2.200000;0.690406;4.960000;,
 -2.200000;-0.300000;4.960000;,
 -2.200000;0.690406;5.039998;,
 -2.200000;-0.300000;5.039998;,
 -2.120000;0.690406;5.039998;,
 -2.120000;-0.300000;5.039998;,
 -2.120000;-0.300000;4.960000;,
 -2.120000;0.690406;4.960000;,
 -2.120000;0.690406;4.960000;,
 -2.200000;0.690406;4.960000;,
 -2.200000;0.690406;5.039998;,
 -2.120000;0.690406;5.039998;,
 -2.120000;-0.300000;4.960000;,
 -2.120000;-0.300000;5.039998;,
 -2.200000;-0.300000;5.039998;,
 -2.200000;-0.300000;4.960000;,
 -2.200000;0.690406;2.460000;,
 -2.200000;-0.300000;2.460000;,
 -2.200000;0.690406;2.540000;,
 -2.200000;-0.300000;2.540000;,
 -2.120000;0.690406;2.540000;,
 -2.120000;-0.300000;2.540000;,
 -2.120000;-0.300000;2.460000;,
 -2.120000;0.690406;2.460000;,
 -2.120000;0.690406;2.460000;,
 -2.200000;0.690406;2.460000;,
 -2.200000;0.690406;2.540000;,
 -2.120000;0.690406;2.540000;,
 -2.120000;-0.300000;2.460000;,
 -2.120000;-0.300000;2.540000;,
 -2.200000;-0.300000;2.540000;,
 -2.200000;-0.300000;2.460000;,
 -2.200000;0.690406;-0.040000;,
 -2.200000;-0.300000;-0.040000;,
 -2.200000;0.690406;0.040000;,
 -2.200000;-0.300000;0.040000;,
 -2.120000;0.690406;0.040000;,
 -2.120000;-0.300000;0.040000;,
 -2.120000;-0.300000;-0.040000;,
 -2.120000;0.690406;-0.040000;,
 -2.120000;0.690406;-0.040000;,
 -2.200000;0.690406;-0.040000;,
 -2.200000;0.690406;0.040000;,
 -2.120000;0.690406;0.040000;,
 -2.120000;-0.300000;-0.040000;,
 -2.120000;-0.300000;0.040000;,
 -2.200000;-0.300000;0.040000;,
 -2.200000;-0.300000;-0.040000;,
 -2.200000;0.730406;-0.100000;,
 -2.200000;0.650406;-0.100000;,
 -2.200000;0.730406;15.029901;,
 -2.200000;0.650406;15.029901;,
 -2.120000;0.730406;15.029901;,
 -2.120000;0.650406;15.029901;,
 -2.120000;0.650406;-0.100000;,
 -2.120000;0.730406;-0.100000;,
 -2.120000;0.730406;-0.100000;,
 -2.200000;0.730406;-0.100000;,
 -2.200000;0.730406;15.029901;,
 -2.120000;0.730406;15.029901;,
 -2.120000;0.650406;-0.100000;,
 -2.120000;0.650406;15.029901;,
 -2.200000;0.650406;15.029901;,
 -2.200000;0.650406;-0.100000;,
 -2.185000;0.168280;0.000000;,
 -2.185000;0.118280;0.000000;,
 -2.185000;0.168280;15.029626;,
 -2.185000;0.118280;15.029626;,
 -2.135000;0.168280;15.029626;,
 -2.135000;0.118280;15.029626;,
 -2.135000;0.118280;0.000000;,
 -2.135000;0.168280;0.000000;,
 -2.135000;0.168280;0.000000;,
 -2.185000;0.168280;0.000000;,
 -2.185000;0.168280;15.029626;,
 -2.135000;0.168280;15.029626;,
 -2.135000;0.118280;0.000000;,
 -2.135000;0.118280;15.029626;,
 -2.185000;0.118280;15.029626;,
 -2.185000;0.118280;0.000000;,
 -2.169951;0.705621;0.500000;,
 -2.142522;0.705621;0.500000;,
 -2.169951;0.135407;0.500000;,
 -2.142522;0.135407;0.500000;,
 -2.169951;0.705621;1.000000;,
 -2.142522;0.705621;1.000000;,
 -2.169951;0.135407;1.000000;,
 -2.142522;0.135407;1.000000;,
 -2.169951;0.705621;1.500000;,
 -2.142522;0.705621;1.500000;,
 -2.169951;0.135407;1.500000;,
 -2.142522;0.135407;1.500000;,
 -2.169951;0.705621;2.000000;,
 -2.142522;0.705621;2.000000;,
 -2.169951;0.135407;2.000000;,
 -2.142522;0.135407;2.000000;,
 -2.169951;0.705621;7.999998;,
 -2.142522;0.705621;7.999998;,
 -2.169951;0.135407;7.999998;,
 -2.142522;0.135407;7.999998;,
 -2.169951;0.705621;8.499998;,
 -2.142522;0.705621;8.499998;,
 -2.169951;0.135407;8.499998;,
 -2.142522;0.135407;8.499998;,
 -2.169951;0.705621;8.999998;,
 -2.142522;0.705621;8.999998;,
 -2.169951;0.135407;8.999998;,
 -2.142522;0.135407;8.999998;,
 -2.169951;0.705621;9.499998;,
 -2.142522;0.705621;9.499998;,
 -2.169951;0.135407;9.499998;,
 -2.142522;0.135407;9.499998;,
 -2.169951;0.705621;3.000000;,
 -2.142522;0.705621;3.000000;,
 -2.169951;0.135407;3.000000;,
 -2.142522;0.135407;3.000000;,
 -2.169951;0.705621;3.500000;,
 -2.142522;0.705621;3.500000;,
 -2.169951;0.135407;3.500000;,
 -2.142522;0.135407;3.500000;,
 -2.169951;0.705621;4.000000;,
 -2.142522;0.705621;4.000000;,
 -2.169951;0.135407;4.000000;,
 -2.142522;0.135407;4.000000;,
 -2.169951;0.705621;4.500000;,
 -2.142522;0.705621;4.500000;,
 -2.169951;0.135407;4.500000;,
 -2.142522;0.135407;4.500000;,
 -2.169951;0.705621;5.500000;,
 -2.142522;0.705621;5.500000;,
 -2.169951;0.135407;5.500000;,
 -2.142522;0.135407;5.500000;,
 -2.169951;0.705621;6.000000;,
 -2.142522;0.705621;6.000000;,
 -2.169951;0.135407;6.000000;,
 -2.142522;0.135407;6.000000;,
 -2.169951;0.705621;6.500000;,
 -2.142522;0.705621;6.500000;,
 -2.169951;0.135407;6.500000;,
 -2.142522;0.135407;6.500000;,
 -2.169951;0.705621;6.999998;,
 -2.142522;0.705621;6.999998;,
 -2.169951;0.135407;6.999998;,
 -2.142522;0.135407;6.999998;,
 -2.169951;0.705621;15.499998;,
 -2.142522;0.705621;15.499998;,
 -2.169951;0.135407;15.499998;,
 -2.142522;0.135407;15.499998;,
 -2.169951;0.705621;15.999998;,
 -2.142522;0.705621;15.999998;,
 -2.169951;0.135407;15.999998;,
 -2.142522;0.135407;15.999998;,
 -2.169951;0.705621;16.499998;,
 -2.142522;0.705621;16.499998;,
 -2.169951;0.135407;16.499998;,
 -2.142522;0.135407;16.499998;,
 -2.169951;0.705621;16.999998;,
 -2.142522;0.705621;16.999998;,
 -2.169951;0.135407;16.999998;,
 -2.142522;0.135407;16.999998;,
 -2.169951;0.705621;22.999998;,
 -2.142522;0.705621;22.999998;,
 -2.169951;0.135407;22.999998;,
 -2.142522;0.135407;22.999998;,
 -2.169951;0.705621;23.499998;,
 -2.142522;0.705621;23.499998;,
 -2.169951;0.135407;23.499998;,
 -2.142522;0.135407;23.499998;,
 -2.169951;0.705621;23.999998;,
 -2.142522;0.705621;23.999998;,
 -2.169951;0.135407;23.999998;,
 -2.142522;0.135407;23.999998;,
 -2.169951;0.705621;24.499998;,
 -2.142522;0.705621;24.499998;,
 -2.169951;0.135407;24.499998;,
 -2.142522;0.135407;24.499998;,
 -2.169951;0.705621;17.999998;,
 -2.142522;0.705621;17.999998;,
 -2.169951;0.135407;17.999998;,
 -2.142522;0.135407;17.999998;,
 -2.169951;0.705621;18.499998;,
 -2.142522;0.705621;18.499998;,
 -2.169951;0.135407;18.499998;,
 -2.142522;0.135407;18.499998;,
 -2.169951;0.705621;18.999998;,
 -2.142522;0.705621;18.999998;,
 -2.169951;0.135407;18.999998;,
 -2.142522;0.135407;18.999998;,
 -2.169951;0.705621;19.499998;,
 -2.142522;0.705621;19.499998;,
 -2.169951;0.135407;19.499998;,
 -2.142522;0.135407;19.499998;,
 -2.169951;0.705621;20.499998;,
 -2.142522;0.705621;20.499998;,
 -2.169951;0.135407;20.499998;,
 -2.142522;0.135407;20.499998;,
 -2.169951;0.705621;20.999998;,
 -2.142522;0.705621;20.999998;,
 -2.169951;0.135407;20.999998;,
 -2.142522;0.135407;20.999998;,
 -2.169951;0.705621;21.499998;,
 -2.142522;0.705621;21.499998;,
 -2.169951;0.135407;21.499998;,
 -2.142522;0.135407;21.499998;,
 -2.169951;0.705621;21.999998;,
 -2.142522;0.705621;21.999998;,
 -2.169951;0.135407;21.999998;,
 -2.142522;0.135407;21.999998;,
 -1.000000;-0.150000;24.959995;,
 -1.000000;-0.350000;24.959995;,
 -2.200000;-0.350000;24.959995;,
 -2.200000;-0.150000;24.959995;,
 -2.200000;-0.150000;24.959995;,
 -2.200000;-0.350000;24.959995;,
 -2.200000;-0.350000;25.039995;,
 -2.200000;-0.150000;25.039995;,
 -2.200000;-0.150000;25.039995;,
 -2.200000;-0.350000;25.039995;,
 -1.000000;-0.350000;25.039995;,
 -1.000000;-0.150000;25.039995;,
 -1.000000;-0.150000;25.039995;,
 -1.000000;-0.350000;25.039995;,
 -1.000000;-0.350000;24.959995;,
 -1.000000;-0.150000;24.959995;,
 -1.000000;-0.150000;24.959995;,
 -2.200000;-0.150000;24.959995;,
 -2.200000;-0.150000;25.039995;,
 -1.000000;-0.150000;25.039995;,
 -1.000000;-0.350000;24.959995;,
 -1.000000;-0.350000;25.039995;,
 -2.200000;-0.350000;25.039995;,
 -2.200000;-0.350000;24.959995;,
 -1.000000;-0.150000;22.459995;,
 -1.000000;-0.350000;22.459995;,
 -2.200000;-0.350000;22.459995;,
 -2.200000;-0.150000;22.459995;,
 -2.200000;-0.150000;22.459995;,
 -2.200000;-0.350000;22.459995;,
 -2.200000;-0.350000;22.539995;,
 -2.200000;-0.150000;22.539995;,
 -2.200000;-0.150000;22.539995;,
 -2.200000;-0.350000;22.539995;,
 -1.000000;-0.350000;22.539995;,
 -1.000000;-0.150000;22.539995;,
 -1.000000;-0.150000;22.539995;,
 -1.000000;-0.350000;22.539995;,
 -1.000000;-0.350000;22.459995;,
 -1.000000;-0.150000;22.459995;,
 -1.000000;-0.150000;22.459995;,
 -2.200000;-0.150000;22.459995;,
 -2.200000;-0.150000;22.539995;,
 -1.000000;-0.150000;22.539995;,
 -1.000000;-0.350000;22.459995;,
 -1.000000;-0.350000;22.539995;,
 -2.200000;-0.350000;22.539995;,
 -2.200000;-0.350000;22.459995;,
 -1.000000;-0.150000;19.959995;,
 -1.000000;-0.350000;19.959995;,
 -2.200000;-0.350000;19.959995;,
 -2.200000;-0.150000;19.959995;,
 -2.200000;-0.150000;19.959995;,
 -2.200000;-0.350000;19.959995;,
 -2.200000;-0.350000;20.039995;,
 -2.200000;-0.150000;20.039995;,
 -2.200000;-0.150000;20.039995;,
 -2.200000;-0.350000;20.039995;,
 -1.000000;-0.350000;20.039995;,
 -1.000000;-0.150000;20.039995;,
 -1.000000;-0.150000;20.039995;,
 -1.000000;-0.350000;20.039995;,
 -1.000000;-0.350000;19.959995;,
 -1.000000;-0.150000;19.959995;,
 -1.000000;-0.150000;19.959995;,
 -2.200000;-0.150000;19.959995;,
 -2.200000;-0.150000;20.039995;,
 -1.000000;-0.150000;20.039995;,
 -1.000000;-0.350000;19.959995;,
 -1.000000;-0.350000;20.039995;,
 -2.200000;-0.350000;20.039995;,
 -2.200000;-0.350000;19.959995;,
 -1.000000;-0.150000;17.459995;,
 -1.000000;-0.350000;17.459995;,
 -2.200000;-0.350000;17.459995;,
 -2.200000;-0.150000;17.459995;,
 -2.200000;-0.150000;17.459995;,
 -2.200000;-0.350000;17.459995;,
 -2.200000;-0.350000;17.540002;,
 -2.200000;-0.150000;17.540002;,
 -2.200000;-0.150000;17.540002;,
 -2.200000;-0.350000;17.540002;,
 -1.000000;-0.350000;17.540002;,
 -1.000000;-0.150000;17.540002;,
 -1.000000;-0.150000;17.540002;,
 -1.000000;-0.350000;17.540002;,
 -1.000000;-0.350000;17.459995;,
 -1.000000;-0.150000;17.459995;,
 -1.000000;-0.150000;17.459995;,
 -2.200000;-0.150000;17.459995;,
 -2.200000;-0.150000;17.540002;,
 -1.000000;-0.150000;17.540002;,
 -1.000000;-0.350000;17.459995;,
 -1.000000;-0.350000;17.540002;,
 -2.200000;-0.350000;17.540002;,
 -2.200000;-0.350000;17.459995;,
 -1.000000;-0.150000;14.959998;,
 -1.000000;-0.350000;14.959998;,
 -2.200000;-0.350000;14.959998;,
 -2.200000;-0.150000;14.959998;,
 -2.200000;-0.150000;14.959998;,
 -2.200000;-0.350000;14.959998;,
 -2.200000;-0.350000;15.039998;,
 -2.200000;-0.150000;15.039998;,
 -2.200000;-0.150000;15.039998;,
 -2.200000;-0.350000;15.039998;,
 -1.000000;-0.350000;15.039998;,
 -1.000000;-0.150000;15.039998;,
 -1.000000;-0.150000;15.039998;,
 -1.000000;-0.350000;15.039998;,
 -1.000000;-0.350000;14.959998;,
 -1.000000;-0.150000;14.959998;,
 -1.000000;-0.150000;14.959998;,
 -2.200000;-0.150000;14.959998;,
 -2.200000;-0.150000;15.039998;,
 -1.000000;-0.150000;15.039998;,
 -1.000000;-0.350000;14.959998;,
 -1.000000;-0.350000;15.039998;,
 -2.200000;-0.350000;15.039998;,
 -2.200000;-0.350000;14.959998;,
 -2.120000;0.690406;24.959995;,
 -2.120000;-0.300000;24.959995;,
 -2.200000;-0.300000;24.959995;,
 -2.200000;0.690406;24.959995;,
 -2.200000;0.690406;24.959995;,
 -2.200000;-0.300000;24.959995;,
 -2.200000;-0.300000;25.039995;,
 -2.200000;0.690406;25.039995;,
 -2.200000;0.690406;25.039995;,
 -2.200000;-0.300000;25.039995;,
 -2.120000;-0.300000;25.039995;,
 -2.120000;0.690406;25.039995;,
 -2.120000;0.690406;25.039995;,
 -2.120000;-0.300000;25.039995;,
 -2.120000;-0.300000;24.959995;,
 -2.120000;0.690406;24.959995;,
 -2.120000;0.690406;24.959995;,
 -2.200000;0.690406;24.959995;,
 -2.200000;0.690406;25.039995;,
 -2.120000;0.690406;25.039995;,
 -2.120000;-0.300000;24.959995;,
 -2.120000;-0.300000;25.039995;,
 -2.200000;-0.300000;25.039995;,
 -2.200000;-0.300000;24.959995;,
 -2.120000;0.690406;22.459995;,
 -2.120000;-0.300000;22.459995;,
 -2.200000;-0.300000;22.459995;,
 -2.200000;0.690406;22.459995;,
 -2.200000;0.690406;22.459995;,
 -2.200000;-0.300000;22.459995;,
 -2.200000;-0.300000;22.539995;,
 -2.200000;0.690406;22.539995;,
 -2.200000;0.690406;22.539995;,
 -2.200000;-0.300000;22.539995;,
 -2.120000;-0.300000;22.539995;,
 -2.120000;0.690406;22.539995;,
 -2.120000;0.690406;22.539995;,
 -2.120000;-0.300000;22.539995;,
 -2.120000;-0.300000;22.459995;,
 -2.120000;0.690406;22.459995;,
 -2.120000;0.690406;22.459995;,
 -2.200000;0.690406;22.459995;,
 -2.200000;0.690406;22.539995;,
 -2.120000;0.690406;22.539995;,
 -2.120000;-0.300000;22.459995;,
 -2.120000;-0.300000;22.539995;,
 -2.200000;-0.300000;22.539995;,
 -2.200000;-0.300000;22.459995;,
 -2.120000;0.690406;19.959995;,
 -2.120000;-0.300000;19.959995;,
 -2.200000;-0.300000;19.959995;,
 -2.200000;0.690406;19.959995;,
 -2.200000;0.690406;19.959995;,
 -2.200000;-0.300000;19.959995;,
 -2.200000;-0.300000;20.039995;,
 -2.200000;0.690406;20.039995;,
 -2.200000;0.690406;20.039995;,
 -2.200000;-0.300000;20.039995;,
 -2.120000;-0.300000;20.039995;,
 -2.120000;0.690406;20.039995;,
 -2.120000;0.690406;20.039995;,
 -2.120000;-0.300000;20.039995;,
 -2.120000;-0.300000;19.959995;,
 -2.120000;0.690406;19.959995;,
 -2.120000;0.690406;19.959995;,
 -2.200000;0.690406;19.959995;,
 -2.200000;0.690406;20.039995;,
 -2.120000;0.690406;20.039995;,
 -2.120000;-0.300000;19.959995;,
 -2.120000;-0.300000;20.039995;,
 -2.200000;-0.300000;20.039995;,
 -2.200000;-0.300000;19.959995;,
 -2.120000;0.690406;17.459995;,
 -2.120000;-0.300000;17.459995;,
 -2.200000;-0.300000;17.459995;,
 -2.200000;0.690406;17.459995;,
 -2.200000;0.690406;17.459995;,
 -2.200000;-0.300000;17.459995;,
 -2.200000;-0.300000;17.540002;,
 -2.200000;0.690406;17.540002;,
 -2.200000;0.690406;17.540002;,
 -2.200000;-0.300000;17.540002;,
 -2.120000;-0.300000;17.540002;,
 -2.120000;0.690406;17.540002;,
 -2.120000;0.690406;17.540002;,
 -2.120000;-0.300000;17.540002;,
 -2.120000;-0.300000;17.459995;,
 -2.120000;0.690406;17.459995;,
 -2.120000;0.690406;17.459995;,
 -2.200000;0.690406;17.459995;,
 -2.200000;0.690406;17.540002;,
 -2.120000;0.690406;17.540002;,
 -2.120000;-0.300000;17.459995;,
 -2.120000;-0.300000;17.540002;,
 -2.200000;-0.300000;17.540002;,
 -2.200000;-0.300000;17.459995;,
 -2.120000;0.690406;14.959998;,
 -2.120000;-0.300000;14.959998;,
 -2.200000;-0.300000;14.959998;,
 -2.200000;0.690406;14.959998;,
 -2.200000;0.690406;14.959998;,
 -2.200000;-0.300000;14.959998;,
 -2.200000;-0.300000;15.039998;,
 -2.200000;0.690406;15.039998;,
 -2.200000;0.690406;15.039998;,
 -2.200000;-0.300000;15.039998;,
 -2.120000;-0.300000;15.039998;,
 -2.120000;0.690406;15.039998;,
 -2.120000;0.690406;15.039998;,
 -2.120000;-0.300000;15.039998;,
 -2.120000;-0.300000;14.959998;,
 -2.120000;0.690406;14.959998;,
 -2.120000;0.690406;14.959998;,
 -2.200000;0.690406;14.959998;,
 -2.200000;0.690406;15.039998;,
 -2.120000;0.690406;15.039998;,
 -2.120000;-0.300000;14.959998;,
 -2.120000;-0.300000;15.039998;,
 -2.200000;-0.300000;15.039998;,
 -2.200000;-0.300000;14.959998;,
 -2.120000;0.730406;14.899998;,
 -2.120000;0.650406;14.899998;,
 -2.200000;0.650406;14.899998;,
 -2.200000;0.730406;14.899998;,
 -2.200000;0.730406;14.899998;,
 -2.200000;0.650406;14.899998;,
 -2.200000;0.650406;25.099997;,
 -2.200000;0.730406;25.099997;,
 -2.200000;0.730406;25.099997;,
 -2.200000;0.650406;25.099997;,
 -2.120000;0.650406;25.099997;,
 -2.120000;0.730406;25.099997;,
 -2.120000;0.730406;25.099997;,
 -2.120000;0.650406;25.099997;,
 -2.120000;0.650406;14.899998;,
 -2.120000;0.730406;14.899998;,
 -2.120000;0.730406;14.899998;,
 -2.200000;0.730406;14.899998;,
 -2.200000;0.730406;25.099997;,
 -2.120000;0.730406;25.099997;,
 -2.120000;0.650406;14.899998;,
 -2.120000;0.650406;25.099997;,
 -2.200000;0.650406;25.099997;,
 -2.200000;0.650406;14.899998;,
 -2.135000;0.168280;14.999998;,
 -2.135000;0.118280;14.999998;,
 -2.185000;0.118280;14.999998;,
 -2.185000;0.168280;14.999998;,
 -2.185000;0.168280;14.999998;,
 -2.185000;0.118280;14.999998;,
 -2.185000;0.118280;24.999994;,
 -2.185000;0.168280;24.999994;,
 -2.185000;0.168280;24.999994;,
 -2.185000;0.118280;24.999994;,
 -2.135000;0.118280;24.999994;,
 -2.135000;0.168280;24.999994;,
 -2.135000;0.168280;24.999994;,
 -2.135000;0.118280;24.999994;,
 -2.135000;0.118280;14.999998;,
 -2.135000;0.168280;14.999998;,
 -2.135000;0.168280;14.999998;,
 -2.185000;0.168280;14.999998;,
 -2.185000;0.168280;24.999994;,
 -2.135000;0.168280;24.999994;,
 -2.135000;0.118280;14.999998;,
 -2.135000;0.118280;24.999994;,
 -2.185000;0.118280;24.999994;,
 -2.185000;0.118280;14.999998;,
 -1.000000;-0.150000;12.459998;,
 -1.000000;-0.350000;12.459998;,
 -2.200000;-0.350000;12.459998;,
 -2.200000;-0.150000;12.459998;,
 -2.200000;-0.150000;12.459998;,
 -2.200000;-0.350000;12.459998;,
 -2.200000;-0.350000;12.539996;,
 -2.200000;-0.150000;12.539996;,
 -2.200000;-0.150000;12.539996;,
 -2.200000;-0.350000;12.539996;,
 -1.000000;-0.350000;12.539996;,
 -1.000000;-0.150000;12.539996;,
 -1.000000;-0.150000;12.539996;,
 -1.000000;-0.350000;12.539996;,
 -1.000000;-0.350000;12.459998;,
 -1.000000;-0.150000;12.459998;,
 -1.000000;-0.150000;12.459998;,
 -2.200000;-0.150000;12.459998;,
 -2.200000;-0.150000;12.539996;,
 -1.000000;-0.150000;12.539996;,
 -1.000000;-0.350000;12.459998;,
 -1.000000;-0.350000;12.539996;,
 -2.200000;-0.350000;12.539996;,
 -2.200000;-0.350000;12.459998;,
 -2.120000;0.690406;12.459998;,
 -2.120000;-0.300000;12.459998;,
 -2.200000;-0.300000;12.459998;,
 -2.200000;0.690406;12.459998;,
 -2.200000;0.690406;12.459998;,
 -2.200000;-0.300000;12.459998;,
 -2.200000;-0.300000;12.539996;,
 -2.200000;0.690406;12.539996;,
 -2.200000;0.690406;12.539996;,
 -2.200000;-0.300000;12.539996;,
 -2.120000;-0.300000;12.539996;,
 -2.120000;0.690406;12.539996;,
 -2.120000;0.690406;12.539996;,
 -2.120000;-0.300000;12.539996;,
 -2.120000;-0.300000;12.459998;,
 -2.120000;0.690406;12.459998;,
 -2.120000;0.690406;12.459998;,
 -2.200000;0.690406;12.459998;,
 -2.200000;0.690406;12.539996;,
 -2.120000;0.690406;12.539996;,
 -2.120000;-0.300000;12.459998;,
 -2.120000;-0.300000;12.539996;,
 -2.200000;-0.300000;12.539996;,
 -2.200000;-0.300000;12.459998;,
 -2.169951;0.705621;12.999999;,
 -2.142522;0.705621;12.999999;,
 -2.169951;0.135407;12.999999;,
 -2.142522;0.135407;12.999999;,
 -2.169951;0.705621;13.499997;,
 -2.142522;0.705621;13.499997;,
 -2.169951;0.135407;13.499997;,
 -2.142522;0.135407;13.499997;,
 -2.169951;0.705621;13.999997;,
 -2.142522;0.705621;13.999997;,
 -2.169951;0.135407;13.999997;,
 -2.142522;0.135407;13.999997;,
 -2.169951;0.705621;14.499997;,
 -2.142522;0.705621;14.499997;,
 -2.169951;0.135407;14.499997;,
 -2.142522;0.135407;14.499997;,
 -2.169951;0.705621;10.499999;,
 -2.142522;0.705621;10.499999;,
 -2.169951;0.135407;10.499999;,
 -2.142522;0.135407;10.499999;,
 -2.169951;0.705621;10.999999;,
 -2.142522;0.705621;10.999999;,
 -2.169951;0.135407;10.999999;,
 -2.142522;0.135407;10.999999;,
 -2.169951;0.705621;11.499999;,
 -2.142522;0.705621;11.499999;,
 -2.169951;0.135407;11.499999;,
 -2.142522;0.135407;11.499999;,
 -2.169951;0.705621;11.999999;,
 -2.142522;0.705621;11.999999;,
 -2.169951;0.135407;11.999999;,
 -2.142522;0.135407;11.999999;,
 -2.100000;-0.050000;0.000000;,
 -2.100000;-0.050000;24.999998;,
 -1.350000;-0.050000;24.999998;,
 -1.350000;-0.050000;0.000000;;
 398;
 3;3,2,1;,
 3;3,1,0;,
 3;4,5,6;,
 3;4,6,7;,
 3;8,9,10;,
 3;8,10,11;,
 3;104,105,14;,
 3;104,14,15;,
 3;106,107,13;,
 3;106,13,12;,
 3;108,109,110;,
 3;108,110,111;,
 3;112,113,114;,
 3;112,114,115;,
 3;116,117,118;,
 3;116,118,119;,
 3;24,25,26;,
 3;24,26,27;,
 3;136,137,30;,
 3;136,30,31;,
 3;138,139,29;,
 3;138,29,28;,
 3;140,141,142;,
 3;140,142,143;,
 3;144,145,146;,
 3;144,146,147;,
 3;148,149,150;,
 3;148,150,151;,
 3;32,33,34;,
 3;32,34,35;,
 3;152,153,38;,
 3;152,38,39;,
 3;154,155,37;,
 3;154,37,36;,
 3;156,157,158;,
 3;156,158,159;,
 3;160,161,162;,
 3;160,162,163;,
 3;164,165,166;,
 3;164,166,167;,
 3;40,41,42;,
 3;40,42,43;,
 3;168,169,46;,
 3;168,46,47;,
 3;170,171,45;,
 3;170,45,44;,
 3;172,173,174;,
 3;172,174,175;,
 3;176,177,178;,
 3;176,178,179;,
 3;180,181,182;,
 3;180,182,183;,
 3;48,49,50;,
 3;48,50,51;,
 3;184,185,54;,
 3;184,54,55;,
 3;186,187,53;,
 3;186,53,52;,
 3;188,189,190;,
 3;188,190,191;,
 3;192,193,194;,
 3;192,194,195;,
 3;196,197,198;,
 3;196,198,199;,
 3;64,65,66;,
 3;64,66,67;,
 3;216,217,70;,
 3;216,70,71;,
 3;218,219,69;,
 3;218,69,68;,
 3;220,221,222;,
 3;220,222,223;,
 3;224,225,226;,
 3;224,226,227;,
 3;228,229,230;,
 3;228,230,231;,
 3;72,73,74;,
 3;72,74,75;,
 3;232,233,78;,
 3;232,78,79;,
 3;234,235,77;,
 3;234,77,76;,
 3;236,237,238;,
 3;236,238,239;,
 3;240,241,242;,
 3;240,242,243;,
 3;244,245,246;,
 3;244,246,247;,
 3;80,81,82;,
 3;80,82,83;,
 3;248,249,86;,
 3;248,86,87;,
 3;250,251,85;,
 3;250,85,84;,
 3;252,253,254;,
 3;252,254,255;,
 3;256,257,258;,
 3;256,258,259;,
 3;260,261,262;,
 3;260,262,263;,
 3;88,89,90;,
 3;88,90,91;,
 3;264,265,94;,
 3;264,94,95;,
 3;266,267,93;,
 3;266,93,92;,
 3;268,269,270;,
 3;268,270,271;,
 3;272,273,274;,
 3;272,274,275;,
 3;276,277,278;,
 3;276,278,279;,
 3;96,97,98;,
 3;96,98,99;,
 3;280,281,102;,
 3;280,102,103;,
 3;282,283,101;,
 3;282,101,100;,
 3;284,285,286;,
 3;284,286,287;,
 3;288,289,290;,
 3;288,290,291;,
 3;292,293,294;,
 3;292,294,295;,
 3;296,297,298;,
 3;297,299,298;,
 3;300,301,302;,
 3;301,303,302;,
 3;304,305,306;,
 3;305,307,306;,
 3;308,309,310;,
 3;309,311,310;,
 3;328,329,330;,
 3;329,331,330;,
 3;332,333,334;,
 3;333,335,334;,
 3;336,337,338;,
 3;337,339,338;,
 3;340,341,342;,
 3;341,343,342;,
 3;360,361,362;,
 3;361,363,362;,
 3;364,365,366;,
 3;365,367,366;,
 3;368,369,370;,
 3;369,371,370;,
 3;372,373,374;,
 3;373,375,374;,
 3;376,377,378;,
 3;377,379,378;,
 3;380,381,382;,
 3;381,383,382;,
 3;384,385,386;,
 3;385,387,386;,
 3;388,389,390;,
 3;389,391,390;,
 3;392,393,394;,
 3;393,395,394;,
 3;396,397,398;,
 3;397,399,398;,
 3;400,401,402;,
 3;401,403,402;,
 3;404,405,406;,
 3;405,407,406;,
 3;408,409,410;,
 3;409,411,410;,
 3;412,413,414;,
 3;413,415,414;,
 3;416,417,418;,
 3;417,419,418;,
 3;420,421,422;,
 3;421,423,422;,
 3;424,425,426;,
 3;424,426,427;,
 3;428,429,430;,
 3;428,430,431;,
 3;432,433,434;,
 3;432,434,435;,
 3;436,437,438;,
 3;436,438,439;,
 3;440,441,442;,
 3;440,442,443;,
 3;444,445,446;,
 3;444,446,447;,
 3;448,449,450;,
 3;448,450,451;,
 3;452,453,454;,
 3;452,454,455;,
 3;456,457,458;,
 3;456,458,459;,
 3;460,461,462;,
 3;460,462,463;,
 3;464,465,466;,
 3;464,466,467;,
 3;468,469,470;,
 3;468,470,471;,
 3;472,473,474;,
 3;472,474,475;,
 3;476,477,478;,
 3;476,478,479;,
 3;480,481,482;,
 3;480,482,483;,
 3;484,485,486;,
 3;484,486,487;,
 3;488,489,490;,
 3;488,490,491;,
 3;492,493,494;,
 3;492,494,495;,
 3;496,497,498;,
 3;496,498,499;,
 3;500,501,502;,
 3;500,502,503;,
 3;504,505,506;,
 3;504,506,507;,
 3;508,509,510;,
 3;508,510,511;,
 3;512,513,514;,
 3;512,514,515;,
 3;516,517,518;,
 3;516,518,519;,
 3;520,521,522;,
 3;520,522,523;,
 3;524,525,526;,
 3;524,526,527;,
 3;528,529,530;,
 3;528,530,531;,
 3;532,533,534;,
 3;532,534,535;,
 3;536,537,538;,
 3;536,538,539;,
 3;540,541,542;,
 3;540,542,543;,
 3;544,545,546;,
 3;544,546,547;,
 3;548,549,550;,
 3;548,550,551;,
 3;552,553,554;,
 3;552,554,555;,
 3;556,557,558;,
 3;556,558,559;,
 3;560,561,562;,
 3;560,562,563;,
 3;564,565,566;,
 3;564,566,567;,
 3;568,569,570;,
 3;568,570,571;,
 3;572,573,574;,
 3;572,574,575;,
 3;576,577,578;,
 3;576,578,579;,
 3;580,581,582;,
 3;580,582,583;,
 3;584,585,586;,
 3;584,586,587;,
 3;588,589,590;,
 3;588,590,591;,
 3;592,593,594;,
 3;592,594,595;,
 3;596,597,598;,
 3;596,598,599;,
 3;600,601,602;,
 3;600,602,603;,
 3;604,605,606;,
 3;604,606,607;,
 3;608,609,610;,
 3;608,610,611;,
 3;612,613,614;,
 3;612,614,615;,
 3;616,617,618;,
 3;616,618,619;,
 3;620,621,622;,
 3;620,622,623;,
 3;624,625,626;,
 3;624,626,627;,
 3;628,629,630;,
 3;628,630,631;,
 3;632,633,634;,
 3;632,634,635;,
 3;636,637,638;,
 3;636,638,639;,
 3;640,641,642;,
 3;640,642,643;,
 3;644,645,646;,
 3;644,646,647;,
 3;648,649,650;,
 3;648,650,651;,
 3;652,653,654;,
 3;652,654,655;,
 3;656,657,658;,
 3;656,658,659;,
 3;660,661,662;,
 3;660,662,663;,
 3;664,665,666;,
 3;664,666,667;,
 3;668,669,670;,
 3;668,670,671;,
 3;672,673,674;,
 3;672,674,675;,
 3;676,677,678;,
 3;676,678,679;,
 3;680,681,682;,
 3;680,682,683;,
 3;684,685,686;,
 3;684,686,687;,
 3;688,689,690;,
 3;688,690,691;,
 3;692,693,694;,
 3;692,694,695;,
 3;696,697,698;,
 3;696,698,699;,
 3;700,701,702;,
 3;700,702,703;,
 3;704,705,706;,
 3;704,706,707;,
 3;708,709,710;,
 3;708,710,711;,
 3;16,17,18;,
 3;16,18,19;,
 3;120,121,22;,
 3;120,22,23;,
 3;122,123,21;,
 3;122,21,20;,
 3;124,125,126;,
 3;124,126,127;,
 3;128,129,130;,
 3;128,130,131;,
 3;132,133,134;,
 3;132,134,135;,
 3;56,57,58;,
 3;56,58,59;,
 3;200,201,62;,
 3;200,62,63;,
 3;202,203,61;,
 3;202,61,60;,
 3;204,205,206;,
 3;204,206,207;,
 3;208,209,210;,
 3;208,210,211;,
 3;212,213,214;,
 3;212,214,215;,
 3;312,313,314;,
 3;313,315,314;,
 3;316,317,318;,
 3;317,319,318;,
 3;320,321,322;,
 3;321,323,322;,
 3;324,325,326;,
 3;325,327,326;,
 3;344,345,346;,
 3;345,347,346;,
 3;348,349,350;,
 3;349,351,350;,
 3;352,353,354;,
 3;353,355,354;,
 3;356,357,358;,
 3;357,359,358;,
 3;712,713,714;,
 3;712,714,715;,
 3;716,717,718;,
 3;716,718,719;,
 3;720,721,722;,
 3;720,722,723;,
 3;724,725,726;,
 3;724,726,727;,
 3;728,729,730;,
 3;728,730,731;,
 3;732,733,734;,
 3;732,734,735;,
 3;736,737,738;,
 3;736,738,739;,
 3;740,741,742;,
 3;740,742,743;,
 3;744,745,746;,
 3;744,746,747;,
 3;748,749,750;,
 3;748,750,751;,
 3;752,753,754;,
 3;752,754,755;,
 3;756,757,758;,
 3;756,758,759;,
 3;760,761,762;,
 3;761,763,762;,
 3;764,765,766;,
 3;765,767,766;,
 3;768,769,770;,
 3;769,771,770;,
 3;772,773,774;,
 3;773,775,774;,
 3;776,777,778;,
 3;777,779,778;,
 3;780,781,782;,
 3;781,783,782;,
 3;784,785,786;,
 3;785,787,786;,
 3;788,789,790;,
 3;789,791,790;,
 3;792,793,794;,
 3;792,794,795;;

 MeshNormals {
  796;
  1.000000;0.000000;0.000000;,
  1.000000;0.000000;0.000000;,
  1.000000;0.000000;0.000000;,
  1.000000;0.000000;0.000000;,
  -1.000000;0.000000;0.000000;,
  -1.000000;0.000000;0.000000;,
  -1.000000;0.000000;0.000000;,
  -1.000000;0.000000;0.000000;,
  0.000000;0.000000;-1.000000;,
  0.000000;0.000000;-1.000000;,
  0.000000;0.000000;-1.000000;,
  0.000000;0.000000;-1.000000;,
  0.000000;0.000000;1.000000;,
  0.000000;0.000000;1.000000;,
  -1.000000;0.000000;0.000000;,
  -1.000000;0.000000;0.000000;,
  0.000000;0.000000;-1.000000;,
  0.000000;0.000000;-1.000000;,
  0.000000;0.000000;-1.000000;,
  0.000000;0.000000;-1.000000;,
  0.000000;0.000000;1.000000;,
  0.000000;0.000000;1.000000;,
  -1.000000;0.000000;0.000000;,
  -1.000000;0.000000;0.000000;,
  0.000000;0.000000;-1.000000;,
  0.000000;0.000000;-1.000000;,
  0.000000;0.000000;-1.000000;,
  0.000000;0.000000;-1.000000;,
  0.000000;0.000000;1.000000;,
  0.000000;0.000000;1.000000;,
  -1.000000;0.000000;0.000000;,
  -1.000000;0.000000;0.000000;,
  0.000000;0.000000;-1.000000;,
  0.000000;0.000000;-1.000000;,
  0.000000;0.000000;-1.000000;,
  0.000000;0.000000;-1.000000;,
  0.000000;0.000000;1.000000;,
  0.000000;0.000000;1.000000;,
  -1.000000;0.000000;0.000000;,
  -1.000000;0.000000;0.000000;,
  0.000000;0.000000;-1.000000;,
  0.000000;0.000000;-1.000000;,
  0.000000;0.000000;-1.000000;,
  0.000000;0.000000;-1.000000;,
  0.000000;0.000000;1.000000;,
  0.000000;0.000000;1.000000;,
  -1.000000;0.000000;0.000000;,
  -1.000000;0.000000;0.000000;,
  0.000000;0.000000;-1.000000;,
  0.000000;0.000000;-1.000000;,
  0.000000;0.000000;-1.000000;,
  0.000000;0.000000;-1.000000;,
  0.000000;0.000000;1.000000;,
  0.000000;0.000000;1.000000;,
  -1.000000;0.000000;0.000000;,
  -1.000000;0.000000;0.000000;,
  0.000000;0.000000;-1.000000;,
  0.000000;0.000000;-1.000000;,
  0.000000;0.000000;-1.000000;,
  0.000000;0.000000;-1.000000;,
  0.000000;0.000000;1.000000;,
  0.000000;0.000000;1.000000;,
  -1.000000;0.000000;0.000000;,
  -1.000000;0.000000;0.000000;,
  0.000000;0.000000;-1.000000;,
  0.000000;0.000000;-1.000000;,
  0.000000;0.000000;-1.000000;,
  0.000000;0.000000;-1.000000;,
  0.000000;0.000000;1.000000;,
  0.000000;0.000000;1.000000;,
  -1.000000;0.000000;0.000000;,
  -1.000000;0.000000;0.000000;,
  0.000000;0.000000;-1.000000;,
  0.000000;0.000000;-1.000000;,
  0.000000;0.000000;-1.000000;,
  0.000000;0.000000;-1.000000;,
  0.000000;0.000000;1.000000;,
  0.000000;0.000000;1.000000;,
  -1.000000;0.000000;0.000000;,
  -1.000000;0.000000;0.000000;,
  0.000000;0.000000;-1.000000;,
  0.000000;0.000000;-1.000000;,
  0.000000;0.000000;-1.000000;,
  0.000000;0.000000;-1.000000;,
  0.000000;0.000000;1.000000;,
  0.000000;0.000000;1.000000;,
  -1.000000;0.000000;0.000000;,
  -1.000000;0.000000;0.000000;,
  0.000000;0.000000;-1.000000;,
  0.000000;0.000000;-1.000000;,
  0.000000;0.000000;-1.000000;,
  0.000000;0.000000;-1.000000;,
  0.000000;0.000000;1.000000;,
  0.000000;0.000000;1.000000;,
  -1.000000;0.000000;0.000000;,
  -1.000000;0.000000;0.000000;,
  0.000000;0.000000;-1.000000;,
  0.000000;0.000000;-1.000000;,
  0.000000;0.000000;-1.000000;,
  0.000000;0.000000;-1.000000;,
  0.000000;0.000000;1.000000;,
  0.000000;0.000000;1.000000;,
  -1.000000;0.000000;0.000000;,
  -1.000000;0.000000;0.000000;,
  -1.000000;0.000000;0.000000;,
  -1.000000;0.000000;0.000000;,
  0.000000;0.000000;1.000000;,
  0.000000;0.000000;1.000000;,
  1.000000;0.000000;0.000000;,
  1.000000;0.000000;0.000000;,
  1.000000;0.000000;0.000000;,
  1.000000;0.000000;0.000000;,
  0.000000;1.000000;0.000000;,
  0.000000;1.000000;0.000000;,
  0.000000;1.000000;0.000000;,
  0.000000;1.000000;0.000000;,
  0.000000;-1.000000;0.000000;,
  0.000000;-1.000000;0.000000;,
  0.000000;-1.000000;0.000000;,
  0.000000;-1.000000;0.000000;,
  -1.000000;0.000000;0.000000;,
  -1.000000;0.000000;0.000000;,
  0.000000;0.000000;1.000000;,
  0.000000;0.000000;1.000000;,
  1.000000;0.000000;0.000000;,
  1.000000;0.000000;0.000000;,
  1.000000;0.000000;0.000000;,
  1.000000;0.000000;0.000000;,
  0.000000;1.000000;0.000000;,
  0.000000;1.000000;0.000000;,
  0.000000;1.000000;0.000000;,
  0.000000;1.000000;0.000000;,
  0.000000;-1.000000;0.000000;,
  0.000000;-1.000000;0.000000;,
  0.000000;-1.000000;0.000000;,
  0.000000;-1.000000;0.000000;,
  -1.000000;0.000000;0.000000;,
  -1.000000;0.000000;0.000000;,
  0.000000;0.000000;1.000000;,
  0.000000;0.000000;1.000000;,
  1.000000;0.000000;0.000000;,
  1.000000;0.000000;0.000000;,
  1.000000;0.000000;0.000000;,
  1.000000;0.000000;0.000000;,
  0.000000;1.000000;0.000000;,
  0.000000;1.000000;0.000000;,
  0.000000;1.000000;0.000000;,
  0.000000;1.000000;0.000000;,
  0.000000;-1.000000;0.000000;,
  0.000000;-1.000000;0.000000;,
  0.000000;-1.000000;0.000000;,
  0.000000;-1.000000;0.000000;,
  -1.000000;0.000000;0.000000;,
  -1.000000;0.000000;0.000000;,
  0.000000;0.000000;1.000000;,
  0.000000;0.000000;1.000000;,
  1.000000;0.000000;0.000000;,
  1.000000;0.000000;0.000000;,
  1.000000;0.000000;0.000000;,
  1.000000;0.000000;0.000000;,
  0.000000;1.000000;0.000000;,
  0.000000;1.000000;0.000000;,
  0.000000;1.000000;0.000000;,
  0.000000;1.000000;0.000000;,
  0.000000;-1.000000;0.000000;,
  0.000000;-1.000000;0.000000;,
  0.000000;-1.000000;0.000000;,
  0.000000;-1.000000;0.000000;,
  -1.000000;0.000000;0.000000;,
  -1.000000;0.000000;0.000000;,
  0.000000;0.000000;1.000000;,
  0.000000;0.000000;1.000000;,
  1.000000;0.000000;0.000000;,
  1.000000;0.000000;0.000000;,
  1.000000;0.000000;0.000000;,
  1.000000;0.000000;0.000000;,
  0.000000;1.000000;0.000000;,
  0.000000;1.000000;0.000000;,
  0.000000;1.000000;0.000000;,
  0.000000;1.000000;0.000000;,
  0.000000;-1.000000;0.000000;,
  0.000000;-1.000000;0.000000;,
  0.000000;-1.000000;0.000000;,
  0.000000;-1.000000;0.000000;,
  -1.000000;0.000000;0.000000;,
  -1.000000;0.000000;0.000000;,
  0.000000;0.000000;1.000000;,
  0.000000;0.000000;1.000000;,
  1.000000;0.000000;0.000000;,
  1.000000;0.000000;0.000000;,
  1.000000;0.000000;0.000000;,
  1.000000;0.000000;0.000000;,
  0.000000;1.000000;0.000000;,
  0.000000;1.000000;0.000000;,
  0.000000;1.000000;0.000000;,
  0.000000;1.000000;0.000000;,
  0.000000;-1.000000;0.000000;,
  0.000000;-1.000000;0.000000;,
  0.000000;-1.000000;0.000000;,
  0.000000;-1.000000;0.000000;,
  -1.000000;0.000000;0.000000;,
  -1.000000;0.000000;0.000000;,
  0.000000;0.000000;1.000000;,
  0.000000;0.000000;1.000000;,
  1.000000;0.000000;0.000000;,
  1.000000;0.000000;0.000000;,
  1.000000;0.000000;0.000000;,
  1.000000;0.000000;0.000000;,
  0.000000;1.000000;0.000000;,
  0.000000;1.000000;0.000000;,
  0.000000;1.000000;0.000000;,
  0.000000;1.000000;0.000000;,
  0.000000;-1.000000;0.000000;,
  0.000000;-1.000000;0.000000;,
  0.000000;-1.000000;0.000000;,
  0.000000;-1.000000;0.000000;,
  -1.000000;0.000000;0.000000;,
  -1.000000;0.000000;0.000000;,
  0.000000;0.000000;1.000000;,
  0.000000;0.000000;1.000000;,
  1.000000;0.000000;0.000000;,
  1.000000;0.000000;0.000000;,
  1.000000;0.000000;0.000000;,
  1.000000;0.000000;0.000000;,
  0.000000;1.000000;0.000000;,
  0.000000;1.000000;0.000000;,
  0.000000;1.000000;0.000000;,
  0.000000;1.000000;0.000000;,
  0.000000;-1.000000;0.000000;,
  0.000000;-1.000000;0.000000;,
  0.000000;-1.000000;0.000000;,
  0.000000;-1.000000;0.000000;,
  -1.000000;0.000000;0.000000;,
  -1.000000;0.000000;0.000000;,
  0.000000;0.000000;1.000000;,
  0.000000;0.000000;1.000000;,
  1.000000;0.000000;0.000000;,
  1.000000;0.000000;0.000000;,
  1.000000;0.000000;0.000000;,
  1.000000;0.000000;0.000000;,
  0.000000;1.000000;0.000000;,
  0.000000;1.000000;0.000000;,
  0.000000;1.000000;0.000000;,
  0.000000;1.000000;0.000000;,
  0.000000;-1.000000;0.000000;,
  0.000000;-1.000000;0.000000;,
  0.000000;-1.000000;0.000000;,
  0.000000;-1.000000;0.000000;,
  -1.000000;0.000000;0.000000;,
  -1.000000;0.000000;0.000000;,
  0.000000;0.000000;1.000000;,
  0.000000;0.000000;1.000000;,
  1.000000;0.000000;0.000000;,
  1.000000;0.000000;0.000000;,
  1.000000;0.000000;0.000000;,
  1.000000;0.000000;0.000000;,
  0.000000;1.000000;0.000000;,
  0.000000;1.000000;0.000000;,
  0.000000;1.000000;0.000000;,
  0.000000;1.000000;0.000000;,
  0.000000;-1.000000;0.000000;,
  0.000000;-1.000000;0.000000;,
  0.000000;-1.000000;0.000000;,
  0.000000;-1.000000;0.000000;,
  -1.000000;0.000000;0.000000;,
  -1.000000;0.000000;0.000000;,
  0.000000;0.000000;1.000000;,
  0.000000;0.000000;1.000000;,
  1.000000;0.000000;0.000000;,
  1.000000;0.000000;0.000000;,
  1.000000;0.000000;0.000000;,
  1.000000;0.000000;0.000000;,
  0.000000;1.000000;0.000000;,
  0.000000;1.000000;0.000000;,
  0.000000;1.000000;0.000000;,
  0.000000;1.000000;0.000000;,
  0.000000;-1.000000;0.000000;,
  0.000000;-1.000000;0.000000;,
  0.000000;-1.000000;0.000000;,
  0.000000;-1.000000;0.000000;,
  -1.000000;0.000000;0.000000;,
  -1.000000;0.000000;0.000000;,
  0.000000;0.000000;1.000000;,
  0.000000;0.000000;1.000000;,
  1.000000;0.000000;0.000000;,
  1.000000;0.000000;0.000000;,
  1.000000;0.000000;0.000000;,
  1.000000;0.000000;0.000000;,
  0.000000;1.000000;0.000000;,
  0.000000;1.000000;0.000000;,
  0.000000;1.000000;0.000000;,
  0.000000;1.000000;0.000000;,
  0.000000;-1.000000;0.000000;,
  0.000000;-1.000000;0.000000;,
  0.000000;-1.000000;0.000000;,
  0.000000;-1.000000;0.000000;,
  0.000000;0.000000;-1.000000;,
  0.000000;0.000000;-1.000000;,
  0.000000;0.000000;-1.000000;,
  0.000000;0.000000;-1.000000;,
  0.000000;0.000000;-1.000000;,
  0.000000;0.000000;-1.000000;,
  0.000000;0.000000;-1.000000;,
  0.000000;0.000000;-1.000000;,
  0.000000;0.000000;-1.000000;,
  0.000000;0.000000;-1.000000;,
  0.000000;0.000000;-1.000000;,
  0.000000;0.000000;-1.000000;,
  0.000000;0.000000;-1.000000;,
  0.000000;0.000000;-1.000000;,
  0.000000;0.000000;-1.000000;,
  0.000000;0.000000;-1.000000;,
  0.000000;0.000000;-1.000000;,
  0.000000;0.000000;-1.000000;,
  0.000000;0.000000;-1.000000;,
  0.000000;0.000000;-1.000000;,
  0.000000;0.000000;-1.000000;,
  0.000000;0.000000;-1.000000;,
  0.000000;0.000000;-1.000000;,
  0.000000;0.000000;-1.000000;,
  0.000000;0.000000;-1.000000;,
  0.000000;0.000000;-1.000000;,
  0.000000;0.000000;-1.000000;,
  0.000000;0.000000;-1.000000;,
  0.000000;0.000000;-1.000000;,
  0.000000;0.000000;-1.000000;,
  0.000000;0.000000;-1.000000;,
  0.000000;0.000000;-1.000000;,
  0.000000;0.000000;-1.000000;,
  0.000000;0.000000;-1.000000;,
  0.000000;0.000000;-1.000000;,
  0.000000;0.000000;-1.000000;,
  0.000000;0.000000;-1.000000;,
  0.000000;0.000000;-1.000000;,
  0.000000;0.000000;-1.000000;,
  0.000000;0.000000;-1.000000;,
  0.000000;0.000000;-1.000000;,
  0.000000;0.000000;-1.000000;,
  0.000000;0.000000;-1.000000;,
  0.000000;0.000000;-1.000000;,
  0.000000;0.000000;-1.000000;,
  0.000000;0.000000;-1.000000;,
  0.000000;0.000000;-1.000000;,
  0.000000;0.000000;-1.000000;,
  0.000000;0.000000;-1.000000;,
  0.000000;0.000000;-1.000000;,
  0.000000;0.000000;-1.000000;,
  0.000000;0.000000;-1.000000;,
  0.000000;0.000000;-1.000000;,
  0.000000;0.000000;-1.000000;,
  0.000000;0.000000;-1.000000;,
  0.000000;0.000000;-1.000000;,
  0.000000;0.000000;-1.000000;,
  0.000000;0.000000;-1.000000;,
  0.000000;0.000000;-1.000000;,
  0.000000;0.000000;-1.000000;,
  0.000000;0.000000;-1.000000;,
  0.000000;0.000000;-1.000000;,
  0.000000;0.000000;-1.000000;,
  0.000000;0.000000;-1.000000;,
  0.000000;0.000000;-1.000000;,
  0.000000;0.000000;-1.000000;,
  0.000000;0.000000;-1.000000;,
  0.000000;0.000000;-1.000000;,
  0.000000;0.000000;-1.000000;,
  0.000000;0.000000;-1.000000;,
  0.000000;0.000000;-1.000000;,
  0.000000;0.000000;-1.000000;,
  0.000000;0.000000;-1.000000;,
  0.000000;0.000000;-1.000000;,
  0.000000;0.000000;-1.000000;,
  0.000000;0.000000;-1.000000;,
  0.000000;0.000000;-1.000000;,
  0.000000;0.000000;-1.000000;,
  0.000000;0.000000;-1.000000;,
  0.000000;0.000000;-1.000000;,
  0.000000;0.000000;-1.000000;,
  0.000000;0.000000;-1.000000;,
  0.000000;0.000000;-1.000000;,
  0.000000;0.000000;-1.000000;,
  0.000000;0.000000;-1.000000;,
  0.000000;0.000000;-1.000000;,
  0.000000;0.000000;-1.000000;,
  0.000000;0.000000;-1.000000;,
  0.000000;0.000000;-1.000000;,
  0.000000;0.000000;-1.000000;,
  0.000000;0.000000;-1.000000;,
  0.000000;0.000000;-1.000000;,
  0.000000;0.000000;-1.000000;,
  0.000000;0.000000;-1.000000;,
  0.000000;0.000000;-1.000000;,
  0.000000;0.000000;-1.000000;,
  0.000000;0.000000;-1.000000;,
  0.000000;0.000000;-1.000000;,
  0.000000;0.000000;-1.000000;,
  0.000000;0.000000;-1.000000;,
  0.000000;0.000000;-1.000000;,
  0.000000;0.000000;-1.000000;,
  0.000000;0.000000;-1.000000;,
  0.000000;0.000000;-1.000000;,
  0.000000;0.000000;-1.000000;,
  0.000000;0.000000;-1.000000;,
  0.000000;0.000000;-1.000000;,
  0.000000;0.000000;-1.000000;,
  0.000000;0.000000;-1.000000;,
  0.000000;0.000000;-1.000000;,
  0.000000;0.000000;-1.000000;,
  0.000000;0.000000;-1.000000;,
  0.000000;0.000000;-1.000000;,
  0.000000;0.000000;-1.000000;,
  0.000000;0.000000;-1.000000;,
  0.000000;0.000000;-1.000000;,
  0.000000;0.000000;-1.000000;,
  0.000000;0.000000;-1.000000;,
  0.000000;0.000000;-1.000000;,
  0.000000;0.000000;-1.000000;,
  0.000000;0.000000;-1.000000;,
  0.000000;0.000000;-1.000000;,
  0.000000;0.000000;-1.000000;,
  0.000000;0.000000;-1.000000;,
  0.000000;0.000000;-1.000000;,
  0.000000;0.000000;-1.000000;,
  0.000000;0.000000;-1.000000;,
  0.000000;0.000000;-1.000000;,
  0.000000;0.000000;-1.000000;,
  0.000000;0.000000;-1.000000;,
  0.000000;0.000000;-1.000000;,
  0.000000;0.000000;-1.000000;,
  -1.000000;0.000000;0.000000;,
  -1.000000;0.000000;0.000000;,
  -1.000000;0.000000;0.000000;,
  -1.000000;0.000000;0.000000;,
  0.000000;0.000000;1.000000;,
  0.000000;0.000000;1.000000;,
  0.000000;0.000000;1.000000;,
  0.000000;0.000000;1.000000;,
  1.000000;0.000000;0.000000;,
  1.000000;0.000000;0.000000;,
  1.000000;0.000000;0.000000;,
  1.000000;0.000000;0.000000;,
  0.000000;1.000000;0.000000;,
  0.000000;1.000000;0.000000;,
  0.000000;1.000000;0.000000;,
  0.000000;1.000000;0.000000;,
  0.000000;-1.000000;0.000000;,
  0.000000;-1.000000;0.000000;,
  0.000000;-1.000000;0.000000;,
  0.000000;-1.000000;0.000000;,
  0.000000;0.000000;-1.000000;,
  0.000000;0.000000;-1.000000;,
  0.000000;0.000000;-1.000000;,
  0.000000;0.000000;-1.000000;,
  -1.000000;0.000000;0.000000;,
  -1.000000;0.000000;0.000000;,
  -1.000000;0.000000;0.000000;,
  -1.000000;0.000000;0.000000;,
  0.000000;0.000000;1.000000;,
  0.000000;0.000000;1.000000;,
  0.000000;0.000000;1.000000;,
  0.000000;0.000000;1.000000;,
  1.000000;0.000000;0.000000;,
  1.000000;0.000000;0.000000;,
  1.000000;0.000000;0.000000;,
  1.000000;0.000000;0.000000;,
  0.000000;1.000000;0.000000;,
  0.000000;1.000000;0.000000;,
  0.000000;1.000000;0.000000;,
  0.000000;1.000000;0.000000;,
  0.000000;-1.000000;0.000000;,
  0.000000;-1.000000;0.000000;,
  0.000000;-1.000000;0.000000;,
  0.000000;-1.000000;0.000000;,
  0.000000;0.000000;-1.000000;,
  0.000000;0.000000;-1.000000;,
  0.000000;0.000000;-1.000000;,
  0.000000;0.000000;-1.000000;,
  -1.000000;0.000000;0.000000;,
  -1.000000;0.000000;0.000000;,
  -1.000000;0.000000;0.000000;,
  -1.000000;0.000000;0.000000;,
  0.000000;0.000000;1.000000;,
  0.000000;0.000000;1.000000;,
  0.000000;0.000000;1.000000;,
  0.000000;0.000000;1.000000;,
  1.000000;0.000000;0.000000;,
  1.000000;0.000000;0.000000;,
  1.000000;0.000000;0.000000;,
  1.000000;0.000000;0.000000;,
  0.000000;1.000000;0.000000;,
  0.000000;1.000000;0.000000;,
  0.000000;1.000000;0.000000;,
  0.000000;1.000000;0.000000;,
  0.000000;-1.000000;0.000000;,
  0.000000;-1.000000;0.000000;,
  0.000000;-1.000000;0.000000;,
  0.000000;-1.000000;0.000000;,
  0.000000;0.000000;-1.000000;,
  0.000000;0.000000;-1.000000;,
  0.000000;0.000000;-1.000000;,
  0.000000;0.000000;-1.000000;,
  -1.000000;0.000000;0.000000;,
  -1.000000;0.000000;0.000000;,
  -1.000000;0.000000;0.000000;,
  -1.000000;0.000000;0.000000;,
  0.000000;0.000000;1.000000;,
  0.000000;0.000000;1.000000;,
  0.000000;0.000000;1.000000;,
  0.000000;0.000000;1.000000;,
  1.000000;0.000000;0.000000;,
  1.000000;0.000000;0.000000;,
  1.000000;0.000000;0.000000;,
  1.000000;0.000000;0.000000;,
  0.000000;1.000000;0.000000;,
  0.000000;1.000000;0.000000;,
  0.000000;1.000000;0.000000;,
  0.000000;1.000000;0.000000;,
  0.000000;-1.000000;0.000000;,
  0.000000;-1.000000;0.000000;,
  0.000000;-1.000000;0.000000;,
  0.000000;-1.000000;0.000000;,
  0.000000;0.000000;-1.000000;,
  0.000000;0.000000;-1.000000;,
  0.000000;0.000000;-1.000000;,
  0.000000;0.000000;-1.000000;,
  -1.000000;0.000000;0.000000;,
  -1.000000;0.000000;0.000000;,
  -1.000000;0.000000;0.000000;,
  -1.000000;0.000000;0.000000;,
  0.000000;0.000000;1.000000;,
  0.000000;0.000000;1.000000;,
  0.000000;0.000000;1.000000;,
  0.000000;0.000000;1.000000;,
  1.000000;0.000000;0.000000;,
  1.000000;0.000000;0.000000;,
  1.000000;0.000000;0.000000;,
  1.000000;0.000000;0.000000;,
  0.000000;1.000000;0.000000;,
  0.000000;1.000000;0.000000;,
  0.000000;1.000000;0.000000;,
  0.000000;1.000000;0.000000;,
  0.000000;-1.000000;0.000000;,
  0.000000;-1.000000;0.000000;,
  0.000000;-1.000000;0.000000;,
  0.000000;-1.000000;0.000000;,
  0.000000;0.000000;-1.000000;,
  0.000000;0.000000;-1.000000;,
  0.000000;0.000000;-1.000000;,
  0.000000;0.000000;-1.000000;,
  -1.000000;0.000000;0.000000;,
  -1.000000;0.000000;0.000000;,
  -1.000000;0.000000;0.000000;,
  -1.000000;0.000000;0.000000;,
  0.000000;0.000000;1.000000;,
  0.000000;0.000000;1.000000;,
  0.000000;0.000000;1.000000;,
  0.000000;0.000000;1.000000;,
  1.000000;0.000000;0.000000;,
  1.000000;0.000000;0.000000;,
  1.000000;0.000000;0.000000;,
  1.000000;0.000000;0.000000;,
  0.000000;1.000000;0.000000;,
  0.000000;1.000000;0.000000;,
  0.000000;1.000000;0.000000;,
  0.000000;1.000000;0.000000;,
  0.000000;-1.000000;0.000000;,
  0.000000;-1.000000;0.000000;,
  0.000000;-1.000000;0.000000;,
  0.000000;-1.000000;0.000000;,
  0.000000;0.000000;-1.000000;,
  0.000000;0.000000;-1.000000;,
  0.000000;0.000000;-1.000000;,
  0.000000;0.000000;-1.000000;,
  -1.000000;0.000000;0.000000;,
  -1.000000;0.000000;0.000000;,
  -1.000000;0.000000;0.000000;,
  -1.000000;0.000000;0.000000;,
  0.000000;0.000000;1.000000;,
  0.000000;0.000000;1.000000;,
  0.000000;0.000000;1.000000;,
  0.000000;0.000000;1.000000;,
  1.000000;0.000000;0.000000;,
  1.000000;0.000000;0.000000;,
  1.000000;0.000000;0.000000;,
  1.000000;0.000000;0.000000;,
  0.000000;1.000000;0.000000;,
  0.000000;1.000000;0.000000;,
  0.000000;1.000000;0.000000;,
  0.000000;1.000000;0.000000;,
  0.000000;-1.000000;0.000000;,
  0.000000;-1.000000;0.000000;,
  0.000000;-1.000000;0.000000;,
  0.000000;-1.000000;0.000000;,
  0.000000;0.000000;-1.000000;,
  0.000000;0.000000;-1.000000;,
  0.000000;0.000000;-1.000000;,
  0.000000;0.000000;-1.000000;,
  -1.000000;0.000000;0.000000;,
  -1.000000;0.000000;0.000000;,
  -1.000000;0.000000;0.000000;,
  -1.000000;0.000000;0.000000;,
  0.000000;0.000000;1.000000;,
  0.000000;0.000000;1.000000;,
  0.000000;0.000000;1.000000;,
  0.000000;0.000000;1.000000;,
  1.000000;0.000000;0.000000;,
  1.000000;0.000000;0.000000;,
  1.000000;0.000000;0.000000;,
  1.000000;0.000000;0.000000;,
  0.000000;1.000000;0.000000;,
  0.000000;1.000000;0.000000;,
  0.000000;1.000000;0.000000;,
  0.000000;1.000000;0.000000;,
  0.000000;-1.000000;0.000000;,
  0.000000;-1.000000;0.000000;,
  0.000000;-1.000000;0.000000;,
  0.000000;-1.000000;0.000000;,
  0.000000;0.000000;-1.000000;,
  0.000000;0.000000;-1.000000;,
  0.000000;0.000000;-1.000000;,
  0.000000;0.000000;-1.000000;,
  -1.000000;0.000000;0.000000;,
  -1.000000;0.000000;0.000000;,
  -1.000000;0.000000;0.000000;,
  -1.000000;0.000000;0.000000;,
  0.000000;0.000000;1.000000;,
  0.000000;0.000000;1.000000;,
  0.000000;0.000000;1.000000;,
  0.000000;0.000000;1.000000;,
  1.000000;0.000000;0.000000;,
  1.000000;0.000000;0.000000;,
  1.000000;0.000000;0.000000;,
  1.000000;0.000000;0.000000;,
  0.000000;1.000000;0.000000;,
  0.000000;1.000000;0.000000;,
  0.000000;1.000000;0.000000;,
  0.000000;1.000000;0.000000;,
  0.000000;-1.000000;0.000000;,
  0.000000;-1.000000;0.000000;,
  0.000000;-1.000000;0.000000;,
  0.000000;-1.000000;0.000000;,
  0.000000;0.000000;-1.000000;,
  0.000000;0.000000;-1.000000;,
  0.000000;0.000000;-1.000000;,
  0.000000;0.000000;-1.000000;,
  -1.000000;0.000000;0.000000;,
  -1.000000;0.000000;0.000000;,
  -1.000000;0.000000;0.000000;,
  -1.000000;0.000000;0.000000;,
  0.000000;0.000000;1.000000;,
  0.000000;0.000000;1.000000;,
  0.000000;0.000000;1.000000;,
  0.000000;0.000000;1.000000;,
  1.000000;0.000000;0.000000;,
  1.000000;0.000000;0.000000;,
  1.000000;0.000000;0.000000;,
  1.000000;0.000000;0.000000;,
  0.000000;1.000000;0.000000;,
  0.000000;1.000000;0.000000;,
  0.000000;1.000000;0.000000;,
  0.000000;1.000000;0.000000;,
  0.000000;-1.000000;0.000000;,
  0.000000;-1.000000;0.000000;,
  0.000000;-1.000000;0.000000;,
  0.000000;-1.000000;0.000000;,
  0.000000;0.000000;-1.000000;,
  0.000000;0.000000;-1.000000;,
  0.000000;0.000000;-1.000000;,
  0.000000;0.000000;-1.000000;,
  -1.000000;0.000000;0.000000;,
  -1.000000;0.000000;0.000000;,
  -1.000000;0.000000;0.000000;,
  -1.000000;0.000000;0.000000;,
  0.000000;0.000000;1.000000;,
  0.000000;0.000000;1.000000;,
  0.000000;0.000000;1.000000;,
  0.000000;0.000000;1.000000;,
  1.000000;0.000000;0.000000;,
  1.000000;0.000000;0.000000;,
  1.000000;0.000000;0.000000;,
  1.000000;0.000000;0.000000;,
  0.000000;1.000000;0.000000;,
  0.000000;1.000000;0.000000;,
  0.000000;1.000000;0.000000;,
  0.000000;1.000000;0.000000;,
  0.000000;-1.000000;0.000000;,
  0.000000;-1.000000;0.000000;,
  0.000000;-1.000000;0.000000;,
  0.000000;-1.000000;0.000000;,
  0.000000;0.000000;-1.000000;,
  0.000000;0.000000;-1.000000;,
  0.000000;0.000000;-1.000000;,
  0.000000;0.000000;-1.000000;,
  -1.000000;0.000000;0.000000;,
  -1.000000;0.000000;0.000000;,
  -1.000000;0.000000;0.000000;,
  -1.000000;0.000000;0.000000;,
  0.000000;0.000000;1.000000;,
  0.000000;0.000000;1.000000;,
  0.000000;0.000000;1.000000;,
  0.000000;0.000000;1.000000;,
  1.000000;0.000000;0.000000;,
  1.000000;0.000000;0.000000;,
  1.000000;0.000000;0.000000;,
  1.000000;0.000000;0.000000;,
  0.000000;1.000000;0.000000;,
  0.000000;1.000000;0.000000;,
  0.000000;1.000000;0.000000;,
  0.000000;1.000000;0.000000;,
  0.000000;-1.000000;0.000000;,
  0.000000;-1.000000;0.000000;,
  0.000000;-1.000000;0.000000;,
  0.000000;-1.000000;0.000000;,
  0.000000;0.000000;-1.000000;,
  0.000000;0.000000;-1.000000;,
  0.000000;0.000000;-1.000000;,
  0.000000;0.000000;-1.000000;,
  -1.000000;0.000000;0.000000;,
  -1.000000;0.000000;0.000000;,
  -1.000000;0.000000;0.000000;,
  -1.000000;0.000000;0.000000;,
  0.000000;0.000000;1.000000;,
  0.000000;0.000000;1.000000;,
  0.000000;0.000000;1.000000;,
  0.000000;0.000000;1.000000;,
  1.000000;0.000000;0.000000;,
  1.000000;0.000000;0.000000;,
  1.000000;0.000000;0.000000;,
  1.000000;0.000000;0.000000;,
  0.000000;1.000000;0.000000;,
  0.000000;1.000000;0.000000;,
  0.000000;1.000000;0.000000;,
  0.000000;1.000000;0.000000;,
  0.000000;-1.000000;0.000000;,
  0.000000;-1.000000;0.000000;,
  0.000000;-1.000000;0.000000;,
  0.000000;-1.000000;0.000000;,
  0.000000;0.000000;-1.000000;,
  0.000000;0.000000;-1.000000;,
  0.000000;0.000000;-1.000000;,
  0.000000;0.000000;-1.000000;,
  -1.000000;0.000000;0.000000;,
  -1.000000;0.000000;0.000000;,
  -1.000000;0.000000;0.000000;,
  -1.000000;0.000000;0.000000;,
  0.000000;0.000000;1.000000;,
  0.000000;0.000000;1.000000;,
  0.000000;0.000000;1.000000;,
  0.000000;0.000000;1.000000;,
  1.000000;0.000000;0.000000;,
  1.000000;0.000000;0.000000;,
  1.000000;0.000000;0.000000;,
  1.000000;0.000000;0.000000;,
  0.000000;1.000000;0.000000;,
  0.000000;1.000000;0.000000;,
  0.000000;1.000000;0.000000;,
  0.000000;1.000000;0.000000;,
  0.000000;-1.000000;0.000000;,
  0.000000;-1.000000;0.000000;,
  0.000000;-1.000000;0.000000;,
  0.000000;-1.000000;0.000000;,
  0.000000;0.000000;-1.000000;,
  0.000000;0.000000;-1.000000;,
  0.000000;0.000000;-1.000000;,
  0.000000;0.000000;-1.000000;,
  0.000000;0.000000;-1.000000;,
  0.000000;0.000000;-1.000000;,
  0.000000;0.000000;-1.000000;,
  0.000000;0.000000;-1.000000;,
  0.000000;0.000000;-1.000000;,
  0.000000;0.000000;-1.000000;,
  0.000000;0.000000;-1.000000;,
  0.000000;0.000000;-1.000000;,
  0.000000;0.000000;-1.000000;,
  0.000000;0.000000;-1.000000;,
  0.000000;0.000000;-1.000000;,
  0.000000;0.000000;-1.000000;,
  0.000000;0.000000;-1.000000;,
  0.000000;0.000000;-1.000000;,
  0.000000;0.000000;-1.000000;,
  0.000000;0.000000;-1.000000;,
  0.000000;0.000000;-1.000000;,
  0.000000;0.000000;-1.000000;,
  0.000000;0.000000;-1.000000;,
  0.000000;0.000000;-1.000000;,
  0.000000;0.000000;-1.000000;,
  0.000000;0.000000;-1.000000;,
  0.000000;0.000000;-1.000000;,
  0.000000;0.000000;-1.000000;,
  0.000000;0.000000;-1.000000;,
  0.000000;0.000000;-1.000000;,
  0.000000;0.000000;-1.000000;,
  0.000000;0.000000;-1.000000;,
  0.000000;1.000000;0.000000;,
  0.000000;1.000000;0.000000;,
  0.000000;1.000000;0.000000;,
  0.000000;1.000000;0.000000;;
  398;
  3;3,2,1;,
  3;3,1,0;,
  3;4,5,6;,
  3;4,6,7;,
  3;8,9,10;,
  3;8,10,11;,
  3;104,105,14;,
  3;104,14,15;,
  3;106,107,13;,
  3;106,13,12;,
  3;108,109,110;,
  3;108,110,111;,
  3;112,113,114;,
  3;112,114,115;,
  3;116,117,118;,
  3;116,118,119;,
  3;24,25,26;,
  3;24,26,27;,
  3;136,137,30;,
  3;136,30,31;,
  3;138,139,29;,
  3;138,29,28;,
  3;140,141,142;,
  3;140,142,143;,
  3;144,145,146;,
  3;144,146,147;,
  3;148,149,150;,
  3;148,150,151;,
  3;32,33,34;,
  3;32,34,35;,
  3;152,153,38;,
  3;152,38,39;,
  3;154,155,37;,
  3;154,37,36;,
  3;156,157,158;,
  3;156,158,159;,
  3;160,161,162;,
  3;160,162,163;,
  3;164,165,166;,
  3;164,166,167;,
  3;40,41,42;,
  3;40,42,43;,
  3;168,169,46;,
  3;168,46,47;,
  3;170,171,45;,
  3;170,45,44;,
  3;172,173,174;,
  3;172,174,175;,
  3;176,177,178;,
  3;176,178,179;,
  3;180,181,182;,
  3;180,182,183;,
  3;48,49,50;,
  3;48,50,51;,
  3;184,185,54;,
  3;184,54,55;,
  3;186,187,53;,
  3;186,53,52;,
  3;188,189,190;,
  3;188,190,191;,
  3;192,193,194;,
  3;192,194,195;,
  3;196,197,198;,
  3;196,198,199;,
  3;64,65,66;,
  3;64,66,67;,
  3;216,217,70;,
  3;216,70,71;,
  3;218,219,69;,
  3;218,69,68;,
  3;220,221,222;,
  3;220,222,223;,
  3;224,225,226;,
  3;224,226,227;,
  3;228,229,230;,
  3;228,230,231;,
  3;72,73,74;,
  3;72,74,75;,
  3;232,233,78;,
  3;232,78,79;,
  3;234,235,77;,
  3;234,77,76;,
  3;236,237,238;,
  3;236,238,239;,
  3;240,241,242;,
  3;240,242,243;,
  3;244,245,246;,
  3;244,246,247;,
  3;80,81,82;,
  3;80,82,83;,
  3;248,249,86;,
  3;248,86,87;,
  3;250,251,85;,
  3;250,85,84;,
  3;252,253,254;,
  3;252,254,255;,
  3;256,257,258;,
  3;256,258,259;,
  3;260,261,262;,
  3;260,262,263;,
  3;88,89,90;,
  3;88,90,91;,
  3;264,265,94;,
  3;264,94,95;,
  3;266,267,93;,
  3;266,93,92;,
  3;268,269,270;,
  3;268,270,271;,
  3;272,273,274;,
  3;272,274,275;,
  3;276,277,278;,
  3;276,278,279;,
  3;96,97,98;,
  3;96,98,99;,
  3;280,281,102;,
  3;280,102,103;,
  3;282,283,101;,
  3;282,101,100;,
  3;284,285,286;,
  3;284,286,287;,
  3;288,289,290;,
  3;288,290,291;,
  3;292,293,294;,
  3;292,294,295;,
  3;296,297,298;,
  3;297,299,298;,
  3;300,301,302;,
  3;301,303,302;,
  3;304,305,306;,
  3;305,307,306;,
  3;308,309,310;,
  3;309,311,310;,
  3;328,329,330;,
  3;329,331,330;,
  3;332,333,334;,
  3;333,335,334;,
  3;336,337,338;,
  3;337,339,338;,
  3;340,341,342;,
  3;341,343,342;,
  3;360,361,362;,
  3;361,363,362;,
  3;364,365,366;,
  3;365,367,366;,
  3;368,369,370;,
  3;369,371,370;,
  3;372,373,374;,
  3;373,375,374;,
  3;376,377,378;,
  3;377,379,378;,
  3;380,381,382;,
  3;381,383,382;,
  3;384,385,386;,
  3;385,387,386;,
  3;388,389,390;,
  3;389,391,390;,
  3;392,393,394;,
  3;393,395,394;,
  3;396,397,398;,
  3;397,399,398;,
  3;400,401,402;,
  3;401,403,402;,
  3;404,405,406;,
  3;405,407,406;,
  3;408,409,410;,
  3;409,411,410;,
  3;412,413,414;,
  3;413,415,414;,
  3;416,417,418;,
  3;417,419,418;,
  3;420,421,422;,
  3;421,423,422;,
  3;424,425,426;,
  3;424,426,427;,
  3;428,429,430;,
  3;428,430,431;,
  3;432,433,434;,
  3;432,434,435;,
  3;436,437,438;,
  3;436,438,439;,
  3;440,441,442;,
  3;440,442,443;,
  3;444,445,446;,
  3;444,446,447;,
  3;448,449,450;,
  3;448,450,451;,
  3;452,453,454;,
  3;452,454,455;,
  3;456,457,458;,
  3;456,458,459;,
  3;460,461,462;,
  3;460,462,463;,
  3;464,465,466;,
  3;464,466,467;,
  3;468,469,470;,
  3;468,470,471;,
  3;472,473,474;,
  3;472,474,475;,
  3;476,477,478;,
  3;476,478,479;,
  3;480,481,482;,
  3;480,482,483;,
  3;484,485,486;,
  3;484,486,487;,
  3;488,489,490;,
  3;488,490,491;,
  3;492,493,494;,
  3;492,494,495;,
  3;496,497,498;,
  3;496,498,499;,
  3;500,501,502;,
  3;500,502,503;,
  3;504,505,506;,
  3;504,506,507;,
  3;508,509,510;,
  3;508,510,511;,
  3;512,513,514;,
  3;512,514,515;,
  3;516,517,518;,
  3;516,518,519;,
  3;520,521,522;,
  3;520,522,523;,
  3;524,525,526;,
  3;524,526,527;,
  3;528,529,530;,
  3;528,530,531;,
  3;532,533,534;,
  3;532,534,535;,
  3;536,537,538;,
  3;536,538,539;,
  3;540,541,542;,
  3;540,542,543;,
  3;544,545,546;,
  3;544,546,547;,
  3;548,549,550;,
  3;548,550,551;,
  3;552,553,554;,
  3;552,554,555;,
  3;556,557,558;,
  3;556,558,559;,
  3;560,561,562;,
  3;560,562,563;,
  3;564,565,566;,
  3;564,566,567;,
  3;568,569,570;,
  3;568,570,571;,
  3;572,573,574;,
  3;572,574,575;,
  3;576,577,578;,
  3;576,578,579;,
  3;580,581,582;,
  3;580,582,583;,
  3;584,585,586;,
  3;584,586,587;,
  3;588,589,590;,
  3;588,590,591;,
  3;592,593,594;,
  3;592,594,595;,
  3;596,597,598;,
  3;596,598,599;,
  3;600,601,602;,
  3;600,602,603;,
  3;604,605,606;,
  3;604,606,607;,
  3;608,609,610;,
  3;608,610,611;,
  3;612,613,614;,
  3;612,614,615;,
  3;616,617,618;,
  3;616,618,619;,
  3;620,621,622;,
  3;620,622,623;,
  3;624,625,626;,
  3;624,626,627;,
  3;628,629,630;,
  3;628,630,631;,
  3;632,633,634;,
  3;632,634,635;,
  3;636,637,638;,
  3;636,638,639;,
  3;640,641,642;,
  3;640,642,643;,
  3;644,645,646;,
  3;644,646,647;,
  3;648,649,650;,
  3;648,650,651;,
  3;652,653,654;,
  3;652,654,655;,
  3;656,657,658;,
  3;656,658,659;,
  3;660,661,662;,
  3;660,662,663;,
  3;664,665,666;,
  3;664,666,667;,
  3;668,669,670;,
  3;668,670,671;,
  3;672,673,674;,
  3;672,674,675;,
  3;676,677,678;,
  3;676,678,679;,
  3;680,681,682;,
  3;680,682,683;,
  3;684,685,686;,
  3;684,686,687;,
  3;688,689,690;,
  3;688,690,691;,
  3;692,693,694;,
  3;692,694,695;,
  3;696,697,698;,
  3;696,698,699;,
  3;700,701,702;,
  3;700,702,703;,
  3;704,705,706;,
  3;704,706,707;,
  3;708,709,710;,
  3;708,710,711;,
  3;16,17,18;,
  3;16,18,19;,
  3;120,121,22;,
  3;120,22,23;,
  3;122,123,21;,
  3;122,21,20;,
  3;124,125,126;,
  3;124,126,127;,
  3;128,129,130;,
  3;128,130,131;,
  3;132,133,134;,
  3;132,134,135;,
  3;56,57,58;,
  3;56,58,59;,
  3;200,201,62;,
  3;200,62,63;,
  3;202,203,61;,
  3;202,61,60;,
  3;204,205,206;,
  3;204,206,207;,
  3;208,209,210;,
  3;208,210,211;,
  3;212,213,214;,
  3;212,214,215;,
  3;312,313,314;,
  3;313,315,314;,
  3;316,317,318;,
  3;317,319,318;,
  3;320,321,322;,
  3;321,323,322;,
  3;324,325,326;,
  3;325,327,326;,
  3;344,345,346;,
  3;345,347,346;,
  3;348,349,350;,
  3;349,351,350;,
  3;352,353,354;,
  3;353,355,354;,
  3;356,357,358;,
  3;357,359,358;,
  3;712,713,714;,
  3;712,714,715;,
  3;716,717,718;,
  3;716,718,719;,
  3;720,721,722;,
  3;720,722,723;,
  3;724,725,726;,
  3;724,726,727;,
  3;728,729,730;,
  3;728,730,731;,
  3;732,733,734;,
  3;732,734,735;,
  3;736,737,738;,
  3;736,738,739;,
  3;740,741,742;,
  3;740,742,743;,
  3;744,745,746;,
  3;744,746,747;,
  3;748,749,750;,
  3;748,750,751;,
  3;752,753,754;,
  3;752,754,755;,
  3;756,757,758;,
  3;756,758,759;,
  3;760,761,762;,
  3;761,763,762;,
  3;764,765,766;,
  3;765,767,766;,
  3;768,769,770;,
  3;769,771,770;,
  3;772,773,774;,
  3;773,775,774;,
  3;776,777,778;,
  3;777,779,778;,
  3;780,781,782;,
  3;781,783,782;,
  3;784,785,786;,
  3;785,787,786;,
  3;788,789,790;,
  3;789,791,790;,
  3;792,793,794;,
  3;792,794,795;;
 }

 MeshTextureCoords {
  796;
  10.000000;1.000000;,
  10.000000;0.000000;,
  0.000000;0.000000;,
  0.000000;1.000000;,
  10.000000;1.000000;,
  10.000000;0.000000;,
  0.000000;0.000000;,
  0.000000;1.000000;,
  0.000000;0.000000;,
  0.000000;0.000000;,
  0.000000;0.000000;,
  0.000000;0.000000;,
  0.000000;0.000000;,
  0.000000;0.000000;,
  0.000000;0.000000;,
  0.000000;0.000000;,
  0.000000;0.000000;,
  0.000000;0.000000;,
  0.000000;0.000000;,
  0.000000;0.000000;,
  0.000000;0.000000;,
  0.000000;0.000000;,
  0.000000;0.000000;,
  0.000000;0.000000;,
  0.000000;0.000000;,
  0.000000;0.000000;,
  0.000000;0.000000;,
  0.000000;0.000000;,
  0.000000;0.000000;,
  0.000000;0.000000;,
  0.000000;0.000000;,
  0.000000;0.000000;,
  0.000000;0.000000;,
  0.000000;0.000000;,
  0.000000;0.000000;,
  0.000000;0.000000;,
  0.000000;0.000000;,
  0.000000;0.000000;,
  0.000000;0.000000;,
  0.000000;0.000000;,
  0.000000;0.000000;,
  0.000000;0.000000;,
  0.000000;0.000000;,
  0.000000;0.000000;,
  0.000000;0.000000;,
  0.000000;0.000000;,
  0.000000;0.000000;,
  0.000000;0.000000;,
  0.000000;0.000000;,
  0.000000;0.000000;,
  0.000000;0.000000;,
  0.000000;0.000000;,
  0.000000;0.000000;,
  0.000000;0.000000;,
  0.000000;0.000000;,
  0.000000;0.000000;,
  0.000000;0.000000;,
  0.000000;0.000000;,
  0.000000;0.000000;,
  0.000000;0.000000;,
  0.000000;0.000000;,
  0.000000;0.000000;,
  0.000000;0.000000;,
  0.000000;0.000000;,
  0.000000;0.000000;,
  0.000000;0.000000;,
  0.000000;0.000000;,
  0.000000;0.000000;,
  0.000000;0.000000;,
  0.000000;0.000000;,
  0.000000;0.000000;,
  0.000000;0.000000;,
  0.000000;0.000000;,
  0.000000;0.000000;,
  0.000000;0.000000;,
  0.000000;0.000000;,
  0.000000;0.000000;,
  0.000000;0.000000;,
  0.000000;0.000000;,
  0.000000;0.000000;,
  0.000000;0.000000;,
  0.000000;0.000000;,
  0.000000;0.000000;,
  0.000000;0.000000;,
  0.000000;0.000000;,
  0.000000;0.000000;,
  0.000000;0.000000;,
  0.000000;0.000000;,
  0.000000;0.000000;,
  0.000000;0.000000;,
  0.000000;0.000000;,
  0.000000;0.000000;,
  0.000000;0.000000;,
  0.000000;0.000000;,
  0.000000;0.000000;,
  0.000000;0.000000;,
  0.000000;0.000000;,
  0.000000;0.000000;,
  0.000000;0.000000;,
  0.000000;0.000000;,
  0.000000;0.000000;,
  0.000000;0.000000;,
  0.000000;0.000000;,
  0.000000;0.000000;,
  0.000000;0.000000;,
  0.000000;0.000000;,
  0.000000;0.000000;,
  0.000000;0.000000;,
  0.000000;0.000000;,
  0.000000;0.000000;,
  0.000000;0.000000;,
  0.000000;0.000000;,
  0.000000;0.000000;,
  0.000000;0.000000;,
  0.000000;0.000000;,
  0.000000;0.000000;,
  0.000000;0.000000;,
  0.000000;0.000000;,
  0.000000;0.000000;,
  0.000000;0.000000;,
  0.000000;0.000000;,
  0.000000;0.000000;,
  0.000000;0.000000;,
  0.000000;0.000000;,
  0.000000;0.000000;,
  0.000000;0.000000;,
  0.000000;0.000000;,
  0.000000;0.000000;,
  0.000000;0.000000;,
  0.000000;0.000000;,
  0.000000;0.000000;,
  0.000000;0.000000;,
  0.000000;0.000000;,
  0.000000;0.000000;,
  0.000000;0.000000;,
  0.000000;0.000000;,
  0.000000;0.000000;,
  0.000000;0.000000;,
  0.000000;0.000000;,
  0.000000;0.000000;,
  0.000000;0.000000;,
  0.000000;0.000000;,
  0.000000;0.000000;,
  0.000000;0.000000;,
  0.000000;0.000000;,
  0.000000;0.000000;,
  0.000000;0.000000;,
  0.000000;0.000000;,
  0.000000;0.000000;,
  0.000000;0.000000;,
  0.000000;0.000000;,
  0.000000;0.000000;,
  0.000000;0.000000;,
  0.000000;0.000000;,
  0.000000;0.000000;,
  0.000000;0.000000;,
  0.000000;0.000000;,
  0.000000;0.000000;,
  0.000000;0.000000;,
  0.000000;0.000000;,
  0.000000;0.000000;,
  0.000000;0.000000;,
  0.000000;0.000000;,
  0.000000;0.000000;,
  0.000000;0.000000;,
  0.000000;0.000000;,
  0.000000;0.000000;,
  0.000000;0.000000;,
  0.000000;0.000000;,
  0.000000;0.000000;,
  0.000000;0.000000;,
  0.000000;0.000000;,
  0.000000;0.000000;,
  0.000000;0.000000;,
  0.000000;0.000000;,
  0.000000;0.000000;,
  0.000000;0.000000;,
  0.000000;0.000000;,
  0.000000;0.000000;,
  0.000000;0.000000;,
  0.000000;0.000000;,
  0.000000;0.000000;,
  0.000000;0.000000;,
  0.000000;0.000000;,
  0.000000;0.000000;,
  0.000000;0.000000;,
  0.000000;0.000000;,
  0.000000;0.000000;,
  0.000000;0.000000;,
  0.000000;0.000000;,
  0.000000;0.000000;,
  0.000000;0.000000;,
  0.000000;0.000000;,
  0.000000;0.000000;,
  0.000000;0.000000;,
  0.000000;0.000000;,
  0.000000;0.000000;,
  0.000000;0.000000;,
  0.000000;0.000000;,
  0.000000;0.000000;,
  0.000000;0.000000;,
  0.000000;0.000000;,
  0.000000;0.000000;,
  0.000000;0.000000;,
  0.000000;0.000000;,
  0.000000;0.000000;,
  0.000000;0.000000;,
  0.000000;0.000000;,
  0.000000;0.000000;,
  0.000000;0.000000;,
  0.000000;0.000000;,
  0.000000;0.000000;,
  0.000000;0.000000;,
  0.000000;0.000000;,
  0.000000;0.000000;,
  0.000000;0.000000;,
  0.000000;0.000000;,
  0.000000;0.000000;,
  0.000000;0.000000;,
  0.000000;0.000000;,
  0.000000;0.000000;,
  0.000000;0.000000;,
  0.000000;0.000000;,
  0.000000;0.000000;,
  0.000000;0.000000;,
  0.000000;0.000000;,
  0.000000;0.000000;,
  0.000000;0.000000;,
  0.000000;0.000000;,
  0.000000;0.000000;,
  0.000000;0.000000;,
  0.000000;0.000000;,
  0.000000;0.000000;,
  0.000000;0.000000;,
  0.000000;0.000000;,
  0.000000;0.000000;,
  0.000000;0.000000;,
  0.000000;0.000000;,
  0.000000;0.000000;,
  0.000000;0.000000;,
  0.000000;0.000000;,
  0.000000;0.000000;,
  0.000000;0.000000;,
  0.000000;0.000000;,
  0.000000;0.000000;,
  0.000000;0.000000;,
  0.000000;0.000000;,
  0.000000;0.000000;,
  0.000000;0.000000;,
  0.000000;0.000000;,
  0.000000;0.000000;,
  0.000000;0.000000;,
  0.000000;0.000000;,
  0.000000;0.000000;,
  0.000000;0.000000;,
  0.000000;0.000000;,
  0.000000;0.000000;,
  0.000000;0.000000;,
  0.000000;0.000000;,
  0.000000;0.000000;,
  0.000000;0.000000;,
  0.000000;0.000000;,
  0.000000;0.000000;,
  0.000000;0.000000;,
  0.000000;0.000000;,
  0.000000;0.000000;,
  0.000000;0.000000;,
  0.000000;0.000000;,
  0.000000;0.000000;,
  0.000000;0.000000;,
  0.000000;0.000000;,
  0.000000;0.000000;,
  0.000000;0.000000;,
  0.000000;0.000000;,
  0.000000;0.000000;,
  0.000000;0.000000;,
  0.000000;0.000000;,
  0.000000;0.000000;,
  0.000000;0.000000;,
  0.000000;0.000000;,
  0.000000;0.000000;,
  0.000000;0.000000;,
  0.000000;0.000000;,
  0.000000;0.000000;,
  0.000000;0.000000;,
  0.000000;0.000000;,
  0.000000;0.000000;,
  0.000000;0.000000;,
  0.000000;0.000000;,
  0.000000;0.000000;,
  0.000000;0.000000;,
  0.000000;0.000000;,
  0.000000;0.000000;,
  0.000000;0.000000;,
  0.000000;0.000000;,
  0.000000;0.000000;,
  0.000000;0.000000;,
  1.000000;0.000000;,
  0.000000;1.000000;,
  1.000000;1.000000;,
  0.000000;0.000000;,
  1.000000;0.000000;,
  0.000000;1.000000;,
  1.000000;1.000000;,
  0.000000;0.000000;,
  1.000000;0.000000;,
  0.000000;1.000000;,
  1.000000;1.000000;,
  0.000000;0.000000;,
  1.000000;0.000000;,
  0.000000;1.000000;,
  1.000000;1.000000;,
  0.000000;0.000000;,
  1.000000;0.000000;,
  0.000000;1.000000;,
  1.000000;1.000000;,
  0.000000;0.000000;,
  1.000000;0.000000;,
  0.000000;1.000000;,
  1.000000;1.000000;,
  0.000000;0.000000;,
  1.000000;0.000000;,
  0.000000;1.000000;,
  1.000000;1.000000;,
  0.000000;0.000000;,
  1.000000;0.000000;,
  0.000000;1.000000;,
  1.000000;1.000000;,
  0.000000;0.000000;,
  1.000000;0.000000;,
  0.000000;1.000000;,
  1.000000;1.000000;,
  0.000000;0.000000;,
  1.000000;0.000000;,
  0.000000;1.000000;,
  1.000000;1.000000;,
  0.000000;0.000000;,
  1.000000;0.000000;,
  0.000000;1.000000;,
  1.000000;1.000000;,
  0.000000;0.000000;,
  1.000000;0.000000;,
  0.000000;1.000000;,
  1.000000;1.000000;,
  0.000000;0.000000;,
  1.000000;0.000000;,
  0.000000;1.000000;,
  1.000000;1.000000;,
  0.000000;0.000000;,
  1.000000;0.000000;,
  0.000000;1.000000;,
  1.000000;1.000000;,
  0.000000;0.000000;,
  1.000000;0.000000;,
  0.000000;1.000000;,
  1.000000;1.000000;,
  0.000000;0.000000;,
  1.000000;0.000000;,
  0.000000;1.000000;,
  1.000000;1.000000;,
  0.000000;0.000000;,
  1.000000;0.000000;,
  0.000000;1.000000;,
  1.000000;1.000000;,
  0.000000;0.000000;,
  1.000000;0.000000;,
  0.000000;1.000000;,
  1.000000;1.000000;,
  0.000000;0.000000;,
  1.000000;0.000000;,
  0.000000;1.000000;,
  1.000000;1.000000;,
  0.000000;0.000000;,
  1.000000;0.000000;,
  0.000000;1.000000;,
  1.000000;1.000000;,
  0.000000;0.000000;,
  1.000000;0.000000;,
  0.000000;1.000000;,
  1.000000;1.000000;,
  0.000000;0.000000;,
  1.000000;0.000000;,
  0.000000;1.000000;,
  1.000000;1.000000;,
  0.000000;0.000000;,
  1.000000;0.000000;,
  0.000000;1.000000;,
  1.000000;1.000000;,
  0.000000;0.000000;,
  1.000000;0.000000;,
  0.000000;1.000000;,
  1.000000;1.000000;,
  0.000000;0.000000;,
  1.000000;0.000000;,
  0.000000;1.000000;,
  1.000000;1.000000;,
  0.000000;0.000000;,
  1.000000;0.000000;,
  0.000000;1.000000;,
  1.000000;1.000000;,
  0.000000;0.000000;,
  1.000000;0.000000;,
  0.000000;1.000000;,
  1.000000;1.000000;,
  0.000000;0.000000;,
  1.000000;0.000000;,
  0.000000;1.000000;,
  1.000000;1.000000;,
  0.000000;0.000000;,
  1.000000;0.000000;,
  0.000000;1.000000;,
  1.000000;1.000000;,
  0.000000;0.000000;,
  1.000000;0.000000;,
  0.000000;1.000000;,
  1.000000;1.000000;,
  0.000000;0.000000;,
  1.000000;0.000000;,
  0.000000;1.000000;,
  1.000000;1.000000;,
  0.000000;0.000000;,
  1.000000;0.000000;,
  0.000000;1.000000;,
  1.000000;1.000000;,
  0.000000;0.000000;,
  0.000000;0.000000;,
  0.000000;0.000000;,
  0.000000;0.000000;,
  0.000000;0.000000;,
  0.000000;0.000000;,
  0.000000;0.000000;,
  0.000000;0.000000;,
  0.000000;0.000000;,
  0.000000;0.000000;,
  0.000000;0.000000;,
  0.000000;0.000000;,
  0.000000;0.000000;,
  0.000000;0.000000;,
  0.000000;0.000000;,
  0.000000;0.000000;,
  0.000000;0.000000;,
  0.000000;0.000000;,
  0.000000;0.000000;,
  0.000000;0.000000;,
  0.000000;0.000000;,
  0.000000;0.000000;,
  0.000000;0.000000;,
  0.000000;0.000000;,
  0.000000;0.000000;,
  0.000000;0.000000;,
  0.000000;0.000000;,
  0.000000;0.000000;,
  0.000000;0.000000;,
  0.000000;0.000000;,
  0.000000;0.000000;,
  0.000000;0.000000;,
  0.000000;0.000000;,
  0.000000;0.000000;,
  0.000000;0.000000;,
  0.000000;0.000000;,
  0.000000;0.000000;,
  0.000000;0.000000;,
  0.000000;0.000000;,
  0.000000;0.000000;,
  0.000000;0.000000;,
  0.000000;0.000000;,
  0.000000;0.000000;,
  0.000000;0.000000;,
  0.000000;0.000000;,
  0.000000;0.000000;,
  0.000000;0.000000;,
  0.000000;0.000000;,
  0.000000;0.000000;,
  0.000000;0.000000;,
  0.000000;0.000000;,
  0.000000;0.000000;,
  0.000000;0.000000;,
  0.000000;0.000000;,
  0.000000;0.000000;,
  0.000000;0.000000;,
  0.000000;0.000000;,
  0.000000;0.000000;,
  0.000000;0.000000;,
  0.000000;0.000000;,
  0.000000;0.000000;,
  0.000000;0.000000;,
  0.000000;0.000000;,
  0.000000;0.000000;,
  0.000000;0.000000;,
  0.000000;0.000000;,
  0.000000;0.000000;,
  0.000000;0.000000;,
  0.000000;0.000000;,
  0.000000;0.000000;,
  0.000000;0.000000;,
  0.000000;0.000000;,
  0.000000;0.000000;,
  0.000000;0.000000;,
  0.000000;0.000000;,
  0.000000;0.000000;,
  0.000000;0.000000;,
  0.000000;0.000000;,
  0.000000;0.000000;,
  0.000000;0.000000;,
  0.000000;0.000000;,
  0.000000;0.000000;,
  0.000000;0.000000;,
  0.000000;0.000000;,
  0.000000;0.000000;,
  0.000000;0.000000;,
  0.000000;0.000000;,
  0.000000;0.000000;,
  0.000000;0.000000;,
  0.000000;0.000000;,
  0.000000;0.000000;,
  0.000000;0.000000;,
  0.000000;0.000000;,
  0.000000;0.000000;,
  0.000000;0.000000;,
  0.000000;0.000000;,
  0.000000;0.000000;,
  0.000000;0.000000;,
  0.000000;0.000000;,
  0.000000;0.000000;,
  0.000000;0.000000;,
  0.000000;0.000000;,
  0.000000;0.000000;,
  0.000000;0.000000;,
  0.000000;0.000000;,
  0.000000;0.000000;,
  0.000000;0.000000;,
  0.000000;0.000000;,
  0.000000;0.000000;,
  0.000000;0.000000;,
  0.000000;0.000000;,
  0.000000;0.000000;,
  0.000000;0.000000;,
  0.000000;0.000000;,
  0.000000;0.000000;,
  0.000000;0.000000;,
  0.000000;0.000000;,
  0.000000;0.000000;,
  0.000000;0.000000;,
  0.000000;0.000000;,
  0.000000;0.000000;,
  0.000000;0.000000;,
  0.000000;0.000000;,
  0.000000;0.000000;,
  0.000000;0.000000;,
  0.000000;0.000000;,
  0.000000;0.000000;,
  0.000000;0.000000;,
  0.000000;0.000000;,
  0.000000;0.000000;,
  0.000000;0.000000;,
  0.000000;0.000000;,
  0.000000;0.000000;,
  0.000000;0.000000;,
  0.000000;0.000000;,
  0.000000;0.000000;,
  0.000000;0.000000;,
  0.000000;0.000000;,
  0.000000;0.000000;,
  0.000000;0.000000;,
  0.000000;0.000000;,
  0.000000;0.000000;,
  0.000000;0.000000;,
  0.000000;0.000000;,
  0.000000;0.000000;,
  0.000000;0.000000;,
  0.000000;0.000000;,
  0.000000;0.000000;,
  0.000000;0.000000;,
  0.000000;0.000000;,
  0.000000;0.000000;,
  0.000000;0.000000;,
  0.000000;0.000000;,
  0.000000;0.000000;,
  0.000000;0.000000;,
  0.000000;0.000000;,
  0.000000;0.000000;,
  0.000000;0.000000;,
  0.000000;0.000000;,
  0.000000;0.000000;,
  0.000000;0.000000;,
  0.000000;0.000000;,
  0.000000;0.000000;,
  0.000000;0.000000;,
  0.000000;0.000000;,
  0.000000;0.000000;,
  0.000000;0.000000;,
  0.000000;0.000000;,
  0.000000;0.000000;,
  0.000000;0.000000;,
  0.000000;0.000000;,
  0.000000;0.000000;,
  0.000000;0.000000;,
  0.000000;0.000000;,
  0.000000;0.000000;,
  0.000000;0.000000;,
  0.000000;0.000000;,
  0.000000;0.000000;,
  0.000000;0.000000;,
  0.000000;0.000000;,
  0.000000;0.000000;,
  0.000000;0.000000;,
  0.000000;0.000000;,
  0.000000;0.000000;,
  0.000000;0.000000;,
  0.000000;0.000000;,
  0.000000;0.000000;,
  0.000000;0.000000;,
  0.000000;0.000000;,
  0.000000;0.000000;,
  0.000000;0.000000;,
  0.000000;0.000000;,
  0.000000;0.000000;,
  0.000000;0.000000;,
  0.000000;0.000000;,
  0.000000;0.000000;,
  0.000000;0.000000;,
  0.000000;0.000000;,
  0.000000;0.000000;,
  0.000000;0.000000;,
  0.000000;0.000000;,
  0.000000;0.000000;,
  0.000000;0.000000;,
  0.000000;0.000000;,
  0.000000;0.000000;,
  0.000000;0.000000;,
  0.000000;0.000000;,
  0.000000;0.000000;,
  0.000000;0.000000;,
  0.000000;0.000000;,
  0.000000;0.000000;,
  0.000000;0.000000;,
  0.000000;0.000000;,
  0.000000;0.000000;,
  0.000000;0.000000;,
  0.000000;0.000000;,
  0.000000;0.000000;,
  0.000000;0.000000;,
  0.000000;0.000000;,
  0.000000;0.000000;,
  0.000000;0.000000;,
  0.000000;0.000000;,
  0.000000;0.000000;,
  0.000000;0.000000;,
  0.000000;0.000000;,
  0.000000;0.000000;,
  0.000000;0.000000;,
  0.000000;0.000000;,
  0.000000;0.000000;,
  0.000000;0.000000;,
  0.000000;0.000000;,
  0.000000;0.000000;,
  0.000000;0.000000;,
  0.000000;0.000000;,
  0.000000;0.000000;,
  0.000000;0.000000;,
  0.000000;0.000000;,
  0.000000;0.000000;,
  0.000000;0.000000;,
  0.000000;0.000000;,
  0.000000;0.000000;,
  0.000000;0.000000;,
  0.000000;0.000000;,
  0.000000;0.000000;,
  0.000000;0.000000;,
  0.000000;0.000000;,
  0.000000;0.000000;,
  0.000000;0.000000;,
  0.000000;0.000000;,
  0.000000;0.000000;,
  0.000000;0.000000;,
  0.000000;0.000000;,
  0.000000;0.000000;,
  0.000000;0.000000;,
  0.000000;0.000000;,
  0.000000;0.000000;,
  0.000000;0.000000;,
  0.000000;0.000000;,
  0.000000;0.000000;,
  0.000000;0.000000;,
  0.000000;0.000000;,
  0.000000;0.000000;,
  0.000000;0.000000;,
  0.000000;0.000000;,
  0.000000;0.000000;,
  0.000000;0.000000;,
  0.000000;0.000000;,
  0.000000;0.000000;,
  0.000000;0.000000;,
  0.000000;0.000000;,
  0.000000;0.000000;,
  0.000000;0.000000;,
  0.000000;0.000000;,
  0.000000;0.000000;,
  0.000000;0.000000;,
  0.000000;0.000000;,
  0.000000;0.000000;,
  0.000000;0.000000;,
  0.000000;0.000000;,
  0.000000;0.000000;,
  0.000000;0.000000;,
  0.000000;0.000000;,
  0.000000;0.000000;,
  0.000000;0.000000;,
  0.000000;0.000000;,
  0.000000;0.000000;,
  0.000000;0.000000;,
  0.000000;0.000000;,
  0.000000;0.000000;,
  0.000000;0.000000;,
  0.000000;0.000000;,
  0.000000;0.000000;,
  0.000000;0.000000;,
  0.000000;0.000000;,
  0.000000;0.000000;,
  0.000000;0.000000;,
  0.000000;0.000000;,
  0.000000;0.000000;,
  0.000000;0.000000;,
  0.000000;0.000000;,
  0.000000;0.000000;,
  0.000000;0.000000;,
  0.000000;0.000000;,
  0.000000;0.000000;,
  0.000000;0.000000;,
  0.000000;0.000000;,
  0.000000;0.000000;,
  0.000000;0.000000;,
  0.000000;0.000000;,
  0.000000;0.000000;,
  0.000000;0.000000;,
  0.000000;0.000000;,
  0.000000;0.000000;,
  0.000000;0.000000;,
  0.000000;0.000000;,
  0.000000;0.000000;,
  0.000000;0.000000;,
  0.000000;0.000000;,
  0.000000;0.000000;,
  0.000000;0.000000;,
  0.000000;0.000000;,
  0.000000;0.000000;,
  0.000000;0.000000;,
  0.000000;0.000000;,
  0.000000;0.000000;,
  0.000000;0.000000;,
  0.000000;0.000000;,
  0.000000;0.000000;,
  0.000000;0.000000;,
  0.000000;0.000000;,
  0.000000;0.000000;,
  0.000000;0.000000;,
  0.000000;0.000000;,
  0.000000;0.000000;,
  0.000000;0.000000;,
  0.000000;0.000000;,
  0.000000;0.000000;,
  1.000000;0.000000;,
  0.000000;1.000000;,
  1.000000;1.000000;,
  0.000000;0.000000;,
  1.000000;0.000000;,
  0.000000;1.000000;,
  1.000000;1.000000;,
  0.000000;0.000000;,
  1.000000;0.000000;,
  0.000000;1.000000;,
  1.000000;1.000000;,
  0.000000;0.000000;,
  1.000000;0.000000;,
  0.000000;1.000000;,
  1.000000;1.000000;,
  0.000000;0.000000;,
  1.000000;0.000000;,
  0.000000;1.000000;,
  1.000000;1.000000;,
  0.000000;0.000000;,
  1.000000;0.000000;,
  0.000000;1.000000;,
  1.000000;1.000000;,
  0.000000;0.000000;,
  1.000000;0.000000;,
  0.000000;1.000000;,
  1.000000;1.000000;,
  0.000000;0.000000;,
  1.000000;0.000000;,
  0.000000;1.000000;,
  1.000000;1.000000;,
  1.000000;2.000000;,
  1.000000;0.000000;,
  0.000000;0.000000;,
  0.000000;2.000000;;
 }

 MeshMaterialList {
  3;
  398;
  0,
  0,
  0,
  0,
  1,
  1,
  1,
  1,
  1,
  1,
  1,
  1,
  1,
  1,
  1,
  1,
  1,
  1,
  1,
  1,
  1,
  1,
  1,
  1,
  1,
  1,
  1,
  1,
  1,
  1,
  1,
  1,
  1,
  1,
  1,
  1,
  1,
  1,
  1,
  1,
  1,
  1,
  1,
  1,
  1,
  1,
  1,
  1,
  1,
  1,
  1,
  1,
  1,
  1,
  1,
  1,
  1,
  1,
  1,
  1,
  1,
  1,
  1,
  1,
  1,
  1,
  1,
  1,
  1,
  1,
  1,
  1,
  1,
  1,
  1,
  1,
  1,
  1,
  1,
  1,
  1,
  1,
  1,
  1,
  1,
  1,
  1,
  1,
  1,
  1,
  1,
  1,
  1,
  1,
  1,
  1,
  1,
  1,
  1,
  1,
  1,
  1,
  1,
  1,
  1,
  1,
  1,
  1,
  1,
  1,
  1,
  1,
  1,
  1,
  1,
  1,
  1,
  1,
  1,
  1,
  1,
  1,
  1,
  1,
  1,
  1,
  1,
  1,
  1,
  1,
  1,
  1,
  1,
  1,
  1,
  1,
  1,
  1,
  1,
  1,
  1,
  1,
  1,
  1,
  1,
  1,
  1,
  1,
  1,
  1,
  1,
  1,
  1,
  1,
  1,
  1,
  1,
  1,
  1,
  1,
  1,
  1,
  1,
  1,
  1,
  1,
  1,
  1,
  1,
  1,
  1,
  1,
  1,
  1,
  1,
  1,
  1,
  1,
  1,
  1,
  1,
  1,
  1,
  1,
  1,
  1,
  1,
  1,
  1,
  1,
  1,
  1,
  1,
  1,
  1,
  1,
  1,
  1,
  1,
  1,
  1,
  1,
  1,
  1,
  1,
  1,
  1,
  1,
  1,
  1,
  1,
  1,
  1,
  1,
  1,
  1,
  1,
  1,
  1,
  1,
  1,
  1,
  1,
  1,
  1,
  1,
  1,
  1,
  1,
  1,
  1,
  1,
  1,
  1,
  1,
  1,
  1,
  1,
  1,
  1,
  1,
  1,
  1,
  1,
  1,
  1,
  1,
  1,
  1,
  1,
  1,
  1,
  1,
  1,
  1,
  1,
  1,
  1,
  1,
  1,
  1,
  1,
  1,
  1,
  1,
  1,
  1,
  1,
  1,
  1,
  1,
  1,
  1,
  1,
  1,
  1,
  1,
  1,
  1,
  1,
  1,
  1,
  1,
  1,
  1,
  1,
  1,
  1,
  1,
  1,
  1,
  1,
  1,
  1,
  1,
  1,
  1,
  1,
  1,
  1,
  1,
  1,
  1,
  1,
  1,
  1,
  1,
  1,
  1,
  1,
  1,
  1,
  1,
  1,
  1,
  1,
  1,
  1,
  1,
  1,
  1,
  1,
  1,
  1,
  1,
  1,
  1,
  1,
  1,
  1,
  1,
  1,
  1,
  1,
  1,
  1,
  1,
  1,
  1,
  1,
  1,
  1,
  1,
  1,
  1,
  1,
  1,
  1,
  1,
  1,
  1,
  1,
  1,
  1,
  1,
  1,
  1,
  1,
  1,
  1,
  1,
  1,
  1,
  1,
  1,
  1,
  1,
  1,
  1,
  1,
  1,
  1,
  1,
  1,
  1,
  1,
  1,
  1,
  1,
  1,
  1,
  1,
  1,
  1,
  1,
  1,
  1,
  1,
  1,
  1,
  1,
  1,
  1,
  1,
  1,
  1,
  2,
  2;

  Material {
   1.000000;1.000000;1.000000;1.000000;;
   0.000000;
   0.000000;0.000000;0.000000;;
   0.000000;0.000000;0.000000;;

   TextureFilename {
    "tk_r_03.dds";
   }
  }

  Material {
   0.270588;0.403922;0.270588;1.000000;;
   0.000000;
   0.000000;0.000000;0.000000;;
   0.000000;0.000000;0.000000;;
  }

  Material {
   1.000000;1.000000;1.000000;1.000000;;
   0.000000;
   0.000000;0.000000;0.000000;;
   0.000000;0.000000;0.000000;;

   TextureFilename {
    "tk_r_01.dds";
   }
  }
 }
}