xof 0303txt 0032
template Vector {
 <3d82ab5e-62da-11cf-ab39-0020af71e433>
 FLOAT x;
 FLOAT y;
 FLOAT z;
}

template MeshFace {
 <3d82ab5f-62da-11cf-ab39-0020af71e433>
 DWORD nFaceVertexIndices;
 array DWORD faceVertexIndices[nFaceVertexIndices];
}

template Mesh {
 <3d82ab44-62da-11cf-ab39-0020af71e433>
 DWORD nVertices;
 array Vector vertices[nVertices];
 DWORD nFaces;
 array MeshFace faces[nFaces];
 [...]
}

template MeshNormals {
 <f6f23f43-7686-11cf-8f52-0040333594a3>
 DWORD nNormals;
 array Vector normals[nNormals];
 DWORD nFaceNormals;
 array MeshFace faceNormals[nFaceNormals];
}

template Coords2d {
 <f6f23f44-7686-11cf-8f52-0040333594a3>
 FLOAT u;
 FLOAT v;
}

template MeshTextureCoords {
 <f6f23f40-7686-11cf-8f52-0040333594a3>
 DWORD nTextureCoords;
 array Coords2d textureCoords[nTextureCoords];
}

template ColorRGBA {
 <35ff44e0-6c7c-11cf-8f52-0040333594a3>
 FLOAT red;
 FLOAT green;
 FLOAT blue;
 FLOAT alpha;
}

template ColorRGB {
 <d3e16e81-7835-11cf-8f52-0040333594a3>
 FLOAT red;
 FLOAT green;
 FLOAT blue;
}

template Material {
 <3d82ab4d-62da-11cf-ab39-0020af71e433>
 ColorRGBA faceColor;
 FLOAT power;
 ColorRGB specularColor;
 ColorRGB emissiveColor;
 [...]
}

template MeshMaterialList {
 <f6f23f42-7686-11cf-8f52-0040333594a3>
 DWORD nMaterials;
 DWORD nFaceIndexes;
 array DWORD faceIndexes[nFaceIndexes];
 [Material <3d82ab4d-62da-11cf-ab39-0020af71e433>]
}

template TextureFilename {
 <a42790e1-7810-11cf-8f52-0040333594a3>
 STRING filename;
}


Mesh {
 796;
 -0.600000;-1.400000;24.999997;,
 -0.600000;-0.300000;24.999997;,
 -0.600000;-0.300000;0.000000;,
 -0.600000;-1.400000;0.000000;,
 0.600000;-1.400000;24.999997;,
 0.600000;-0.300000;24.999997;,
 0.600000;-0.300000;0.000000;,
 0.600000;-1.400000;0.000000;,
 1.000000;-0.150000;9.959995;,
 1.000000;-0.350000;9.959995;,
 2.200000;-0.350000;9.959995;,
 2.200000;-0.150000;9.959995;,
 1.000000;-0.150000;10.039995;,
 1.000000;-0.350000;10.039995;,
 2.200000;-0.350000;10.039995;,
 2.200000;-0.150000;10.039995;,
 1.000000;-0.150000;7.459998;,
 1.000000;-0.350000;7.459998;,
 2.200000;-0.350000;7.459998;,
 2.200000;-0.150000;7.459998;,
 1.000000;-0.150000;7.539998;,
 1.000000;-0.350000;7.539998;,
 2.200000;-0.350000;7.539998;,
 2.200000;-0.150000;7.539998;,
 1.000000;-0.150000;4.960000;,
 1.000000;-0.350000;4.960000;,
 2.200000;-0.350000;4.960000;,
 2.200000;-0.150000;4.960000;,
 1.000000;-0.150000;5.039998;,
 1.000000;-0.350000;5.039998;,
 2.200000;-0.350000;5.039998;,
 2.200000;-0.150000;5.039998;,
 1.000000;-0.150000;2.460000;,
 1.000000;-0.350000;2.460000;,
 2.200000;-0.350000;2.460000;,
 2.200000;-0.150000;2.460000;,
 1.000000;-0.150000;2.540000;,
 1.000000;-0.350000;2.540000;,
 2.200000;-0.350000;2.540000;,
 2.200000;-0.150000;2.540000;,
 1.000000;-0.150000;-0.040000;,
 1.000000;-0.350000;-0.040000;,
 2.200000;-0.350000;-0.040000;,
 2.200000;-0.150000;-0.040000;,
 1.000000;-0.150000;0.040000;,
 1.000000;-0.350000;0.040000;,
 2.200000;-0.350000;0.040000;,
 2.200000;-0.150000;0.040000;,
 2.120000;0.690406;9.959995;,
 2.120000;-0.300000;9.959995;,
 2.200000;-0.300000;9.959995;,
 2.200000;0.690406;9.959995;,
 2.120000;0.690406;10.039995;,
 2.120000;-0.300000;10.039995;,
 2.200000;-0.300000;10.039995;,
 2.200000;0.690406;10.039995;,
 2.120000;0.690406;7.459998;,
 2.120000;-0.300000;7.459998;,
 2.200000;-0.300000;7.459998;,
 2.200000;0.690406;7.459998;,
 2.120000;0.690406;7.539998;,
 2.120000;-0.300000;7.539998;,
 2.200000;-0.300000;7.539998;,
 2.200000;0.690406;7.539998;,
 2.120000;0.690406;4.960000;,
 2.120000;-0.300000;4.960000;,
 2.200000;-0.300000;4.960000;,
 2.200000;0.690406;4.960000;,
 2.120000;0.690406;5.039998;,
 2.120000;-0.300000;5.039998;,
 2.200000;-0.300000;5.039998;,
 2.200000;0.690406;5.039998;,
 2.120000;0.690406;2.460000;,
 2.120000;-0.300000;2.460000;,
 2.200000;-0.300000;2.460000;,
 2.200000;0.690406;2.460000;,
 2.120000;0.690406;2.540000;,
 2.120000;-0.300000;2.540000;,
 2.200000;-0.300000;2.540000;,
 2.200000;0.690406;2.540000;,
 2.120000;0.690406;-0.040000;,
 2.120000;-0.300000;-0.040000;,
 2.200000;-0.300000;-0.040000;,
 2.200000;0.690406;-0.040000;,
 2.120000;0.690406;0.040000;,
 2.120000;-0.300000;0.040000;,
 2.200000;-0.300000;0.040000;,
 2.200000;0.690406;0.040000;,
 2.120000;0.730406;-0.100000;,
 2.120000;0.650406;-0.100000;,
 2.200000;0.650406;-0.100000;,
 2.200000;0.730406;-0.100000;,
 2.120000;0.730406;15.029899;,
 2.120000;0.650406;15.029899;,
 2.200000;0.650406;15.029899;,
 2.200000;0.730406;15.029899;,
 2.135000;0.168280;0.000000;,
 2.135000;0.118280;0.000000;,
 2.185000;0.118280;0.000000;,
 2.185000;0.168280;0.000000;,
 2.135000;0.168280;15.029626;,
 2.135000;0.118280;15.029626;,
 2.185000;0.118280;15.029626;,
 2.185000;0.168280;15.029626;,
 2.200000;-0.150000;9.959995;,
 2.200000;-0.350000;9.959995;,
 2.200000;-0.150000;10.039995;,
 2.200000;-0.350000;10.039995;,
 1.000000;-0.150000;10.039995;,
 1.000000;-0.350000;10.039995;,
 1.000000;-0.350000;9.959995;,
 1.000000;-0.150000;9.959995;,
 1.000000;-0.150000;9.959995;,
 2.200000;-0.150000;9.959995;,
 2.200000;-0.150000;10.039995;,
 1.000000;-0.150000;10.039995;,
 1.000000;-0.350000;9.959995;,
 1.000000;-0.350000;10.039995;,
 2.200000;-0.350000;10.039995;,
 2.200000;-0.350000;9.959995;,
 2.200000;-0.150000;7.459998;,
 2.200000;-0.350000;7.459998;,
 2.200000;-0.150000;7.539998;,
 2.200000;-0.350000;7.539998;,
 1.000000;-0.150000;7.539998;,
 1.000000;-0.350000;7.539998;,
 1.000000;-0.350000;7.459998;,
 1.000000;-0.150000;7.459998;,
 1.000000;-0.150000;7.459998;,
 2.200000;-0.150000;7.459998;,
 2.200000;-0.150000;7.539998;,
 1.000000;-0.150000;7.539998;,
 1.000000;-0.350000;7.459998;,
 1.000000;-0.350000;7.539998;,
 2.200000;-0.350000;7.539998;,
 2.200000;-0.350000;7.459998;,
 2.200000;-0.150000;4.960000;,
 2.200000;-0.350000;4.960000;,
 2.200000;-0.150000;5.039998;,
 2.200000;-0.350000;5.039998;,
 1.000000;-0.150000;5.039998;,
 1.000000;-0.350000;5.039998;,
 1.000000;-0.350000;4.960000;,
 1.000000;-0.150000;4.960000;,
 1.000000;-0.150000;4.960000;,
 2.200000;-0.150000;4.960000;,
 2.200000;-0.150000;5.039998;,
 1.000000;-0.150000;5.039998;,
 1.000000;-0.350000;4.960000;,
 1.000000;-0.350000;5.039998;,
 2.200000;-0.350000;5.039998;,
 2.200000;-0.350000;4.960000;,
 2.200000;-0.150000;2.460000;,
 2.200000;-0.350000;2.460000;,
 2.200000;-0.150000;2.540000;,
 2.200000;-0.350000;2.540000;,
 1.000000;-0.150000;2.540000;,
 1.000000;-0.350000;2.540000;,
 1.000000;-0.350000;2.460000;,
 1.000000;-0.150000;2.460000;,
 1.000000;-0.150000;2.460000;,
 2.200000;-0.150000;2.460000;,
 2.200000;-0.150000;2.540000;,
 1.000000;-0.150000;2.540000;,
 1.000000;-0.350000;2.460000;,
 1.000000;-0.350000;2.540000;,
 2.200000;-0.350000;2.540000;,
 2.200000;-0.350000;2.460000;,
 2.200000;-0.150000;-0.040000;,
 2.200000;-0.350000;-0.040000;,
 2.200000;-0.150000;0.040000;,
 2.200000;-0.350000;0.040000;,
 1.000000;-0.150000;0.040000;,
 1.000000;-0.350000;0.040000;,
 1.000000;-0.350000;-0.040000;,
 1.000000;-0.150000;-0.040000;,
 1.000000;-0.150000;-0.040000;,
 2.200000;-0.150000;-0.040000;,
 2.200000;-0.150000;0.040000;,
 1.000000;-0.150000;0.040000;,
 1.000000;-0.350000;-0.040000;,
 1.000000;-0.350000;0.040000;,
 2.200000;-0.350000;0.040000;,
 2.200000;-0.350000;-0.040000;,
 2.200000;0.690406;9.959995;,
 2.200000;-0.300000;9.959995;,
 2.200000;0.690406;10.039995;,
 2.200000;-0.300000;10.039995;,
 2.120000;0.690406;10.039995;,
 2.120000;-0.300000;10.039995;,
 2.120000;-0.300000;9.959995;,
 2.120000;0.690406;9.959995;,
 2.120000;0.690406;9.959995;,
 2.200000;0.690406;9.959995;,
 2.200000;0.690406;10.039995;,
 2.120000;0.690406;10.039995;,
 2.120000;-0.300000;9.959995;,
 2.120000;-0.300000;10.039995;,
 2.200000;-0.300000;10.039995;,
 2.200000;-0.300000;9.959995;,
 2.200000;0.690406;7.459998;,
 2.200000;-0.300000;7.459998;,
 2.200000;0.690406;7.539998;,
 2.200000;-0.300000;7.539998;,
 2.120000;0.690406;7.539998;,
 2.120000;-0.300000;7.539998;,
 2.120000;-0.300000;7.459998;,
 2.120000;0.690406;7.459998;,
 2.120000;0.690406;7.459998;,
 2.200000;0.690406;7.459998;,
 2.200000;0.690406;7.539998;,
 2.120000;0.690406;7.539998;,
 2.120000;-0.300000;7.459998;,
 2.120000;-0.300000;7.539998;,
 2.200000;-0.300000;7.539998;,
 2.200000;-0.300000;7.459998;,
 2.200000;0.690406;4.960000;,
 2.200000;-0.300000;4.960000;,
 2.200000;0.690406;5.039998;,
 2.200000;-0.300000;5.039998;,
 2.120000;0.690406;5.039998;,
 2.120000;-0.300000;5.039998;,
 2.120000;-0.300000;4.960000;,
 2.120000;0.690406;4.960000;,
 2.120000;0.690406;4.960000;,
 2.200000;0.690406;4.960000;,
 2.200000;0.690406;5.039998;,
 2.120000;0.690406;5.039998;,
 2.120000;-0.300000;4.960000;,
 2.120000;-0.300000;5.039998;,
 2.200000;-0.300000;5.039998;,
 2.200000;-0.300000;4.960000;,
 2.200000;0.690406;2.460000;,
 2.200000;-0.300000;2.460000;,
 2.200000;0.690406;2.540000;,
 2.200000;-0.300000;2.540000;,
 2.120000;0.690406;2.540000;,
 2.120000;-0.300000;2.540000;,
 2.120000;-0.300000;2.460000;,
 2.120000;0.690406;2.460000;,
 2.120000;0.690406;2.460000;,
 2.200000;0.690406;2.460000;,
 2.200000;0.690406;2.540000;,
 2.120000;0.690406;2.540000;,
 2.120000;-0.300000;2.460000;,
 2.120000;-0.300000;2.540000;,
 2.200000;-0.300000;2.540000;,
 2.200000;-0.300000;2.460000;,
 2.200000;0.690406;-0.040000;,
 2.200000;-0.300000;-0.040000;,
 2.200000;0.690406;0.040000;,
 2.200000;-0.300000;0.040000;,
 2.120000;0.690406;0.040000;,
 2.120000;-0.300000;0.040000;,
 2.120000;-0.300000;-0.040000;,
 2.120000;0.690406;-0.040000;,
 2.120000;0.690406;-0.040000;,
 2.200000;0.690406;-0.040000;,
 2.200000;0.690406;0.040000;,
 2.120000;0.690406;0.040000;,
 2.120000;-0.300000;-0.040000;,
 2.120000;-0.300000;0.040000;,
 2.200000;-0.300000;0.040000;,
 2.200000;-0.300000;-0.040000;,
 2.200000;0.730406;-0.100000;,
 2.200000;0.650406;-0.100000;,
 2.200000;0.730406;15.029899;,
 2.200000;0.650406;15.029899;,
 2.120000;0.730406;15.029899;,
 2.120000;0.650406;15.029899;,
 2.120000;0.650406;-0.100000;,
 2.120000;0.730406;-0.100000;,
 2.120000;0.730406;-0.100000;,
 2.200000;0.730406;-0.100000;,
 2.200000;0.730406;15.029899;,
 2.120000;0.730406;15.029899;,
 2.120000;0.650406;-0.100000;,
 2.120000;0.650406;15.029899;,
 2.200000;0.650406;15.029899;,
 2.200000;0.650406;-0.100000;,
 2.185000;0.168280;0.000000;,
 2.185000;0.118280;0.000000;,
 2.185000;0.168280;15.029626;,
 2.185000;0.118280;15.029626;,
 2.135000;0.168280;15.029626;,
 2.135000;0.118280;15.029626;,
 2.135000;0.118280;0.000000;,
 2.135000;0.168280;0.000000;,
 2.135000;0.168280;0.000000;,
 2.185000;0.168280;0.000000;,
 2.185000;0.168280;15.029626;,
 2.135000;0.168280;15.029626;,
 2.135000;0.118280;0.000000;,
 2.135000;0.118280;15.029626;,
 2.185000;0.118280;15.029626;,
 2.185000;0.118280;0.000000;,
 2.169951;0.705621;0.500000;,
 2.142522;0.705621;0.500000;,
 2.169951;0.135407;0.500000;,
 2.142522;0.135407;0.500000;,
 2.169951;0.705621;1.000000;,
 2.142522;0.705621;1.000000;,
 2.169951;0.135407;1.000000;,
 2.142522;0.135407;1.000000;,
 2.169951;0.705621;1.500000;,
 2.142522;0.705621;1.500000;,
 2.169951;0.135407;1.500000;,
 2.142522;0.135407;1.500000;,
 2.169951;0.705621;2.000000;,
 2.142522;0.705621;2.000000;,
 2.169951;0.135407;2.000000;,
 2.142522;0.135407;2.000000;,
 2.169951;0.705621;7.999998;,
 2.142522;0.705621;7.999998;,
 2.169951;0.135407;7.999998;,
 2.142522;0.135407;7.999998;,
 2.169951;0.705621;8.499997;,
 2.142522;0.705621;8.499997;,
 2.169951;0.135407;8.499997;,
 2.142522;0.135407;8.499997;,
 2.169951;0.705621;8.999997;,
 2.142522;0.705621;8.999997;,
 2.169951;0.135407;8.999997;,
 2.142522;0.135407;8.999997;,
 2.169951;0.705621;9.499997;,
 2.142522;0.705621;9.499997;,
 2.169951;0.135407;9.499997;,
 2.142522;0.135407;9.499997;,
 2.169951;0.705621;3.000000;,
 2.142522;0.705621;3.000000;,
 2.169951;0.135407;3.000000;,
 2.142522;0.135407;3.000000;,
 2.169951;0.705621;3.500000;,
 2.142522;0.705621;3.500000;,
 2.169951;0.135407;3.500000;,
 2.142522;0.135407;3.500000;,
 2.169951;0.705621;4.000000;,
 2.142522;0.705621;4.000000;,
 2.169951;0.135407;4.000000;,
 2.142522;0.135407;4.000000;,
 2.169951;0.705621;4.500000;,
 2.142522;0.705621;4.500000;,
 2.169951;0.135407;4.500000;,
 2.142522;0.135407;4.500000;,
 2.169951;0.705621;5.500000;,
 2.142522;0.705621;5.500000;,
 2.169951;0.135407;5.500000;,
 2.142522;0.135407;5.500000;,
 2.169951;0.705621;6.000000;,
 2.142522;0.705621;6.000000;,
 2.169951;0.135407;6.000000;,
 2.142522;0.135407;6.000000;,
 2.169951;0.705621;6.500000;,
 2.142522;0.705621;6.500000;,
 2.169951;0.135407;6.500000;,
 2.142522;0.135407;6.500000;,
 2.169951;0.705621;6.999998;,
 2.142522;0.705621;6.999998;,
 2.169951;0.135407;6.999998;,
 2.142522;0.135407;6.999998;,
 2.169951;0.705621;15.499997;,
 2.142522;0.705621;15.499997;,
 2.169951;0.135407;15.499997;,
 2.142522;0.135407;15.499997;,
 2.169951;0.705621;15.999997;,
 2.142522;0.705621;15.999997;,
 2.169951;0.135407;15.999997;,
 2.142522;0.135407;15.999997;,
 2.169951;0.705621;16.499997;,
 2.142522;0.705621;16.499997;,
 2.169951;0.135407;16.499997;,
 2.142522;0.135407;16.499997;,
 2.169951;0.705621;16.999997;,
 2.142522;0.705621;16.999997;,
 2.169951;0.135407;16.999997;,
 2.142522;0.135407;16.999997;,
 2.169951;0.705621;22.999997;,
 2.142522;0.705621;22.999997;,
 2.169951;0.135407;22.999997;,
 2.142522;0.135407;22.999997;,
 2.169951;0.705621;23.499997;,
 2.142522;0.705621;23.499997;,
 2.169951;0.135407;23.499997;,
 2.142522;0.135407;23.499997;,
 2.169951;0.705621;23.999997;,
 2.142522;0.705621;23.999997;,
 2.169951;0.135407;23.999997;,
 2.142522;0.135407;23.999997;,
 2.169951;0.705621;24.499997;,
 2.142522;0.705621;24.499997;,
 2.169951;0.135407;24.499997;,
 2.142522;0.135407;24.499997;,
 2.169951;0.705621;17.999997;,
 2.142522;0.705621;17.999997;,
 2.169951;0.135407;17.999997;,
 2.142522;0.135407;17.999997;,
 2.169951;0.705621;18.499997;,
 2.142522;0.705621;18.499997;,
 2.169951;0.135407;18.499997;,
 2.142522;0.135407;18.499997;,
 2.169951;0.705621;18.999997;,
 2.142522;0.705621;18.999997;,
 2.169951;0.135407;18.999997;,
 2.142522;0.135407;18.999997;,
 2.169951;0.705621;19.499997;,
 2.142522;0.705621;19.499997;,
 2.169951;0.135407;19.499997;,
 2.142522;0.135407;19.499997;,
 2.169951;0.705621;20.499997;,
 2.142522;0.705621;20.499997;,
 2.169951;0.135407;20.499997;,
 2.142522;0.135407;20.499997;,
 2.169951;0.705621;20.999997;,
 2.142522;0.705621;20.999997;,
 2.169951;0.135407;20.999997;,
 2.142522;0.135407;20.999997;,
 2.169951;0.705621;21.499997;,
 2.142522;0.705621;21.499997;,
 2.169951;0.135407;21.499997;,
 2.142522;0.135407;21.499997;,
 2.169951;0.705621;21.999997;,
 2.142522;0.705621;21.999997;,
 2.169951;0.135407;21.999997;,
 2.142522;0.135407;21.999997;,
 1.000000;-0.150000;24.959994;,
 1.000000;-0.350000;24.959994;,
 2.200000;-0.350000;24.959994;,
 2.200000;-0.150000;24.959994;,
 2.200000;-0.150000;24.959994;,
 2.200000;-0.350000;24.959994;,
 2.200000;-0.350000;25.039994;,
 2.200000;-0.150000;25.039994;,
 2.200000;-0.150000;25.039994;,
 2.200000;-0.350000;25.039994;,
 1.000000;-0.350000;25.039994;,
 1.000000;-0.150000;25.039994;,
 1.000000;-0.150000;25.039994;,
 1.000000;-0.350000;25.039994;,
 1.000000;-0.350000;24.959994;,
 1.000000;-0.150000;24.959994;,
 1.000000;-0.150000;24.959994;,
 2.200000;-0.150000;24.959994;,
 2.200000;-0.150000;25.039994;,
 1.000000;-0.150000;25.039994;,
 1.000000;-0.350000;24.959994;,
 1.000000;-0.350000;25.039994;,
 2.200000;-0.350000;25.039994;,
 2.200000;-0.350000;24.959994;,
 1.000000;-0.150000;22.459994;,
 1.000000;-0.350000;22.459994;,
 2.200000;-0.350000;22.459994;,
 2.200000;-0.150000;22.459994;,
 2.200000;-0.150000;22.459994;,
 2.200000;-0.350000;22.459994;,
 2.200000;-0.350000;22.539994;,
 2.200000;-0.150000;22.539994;,
 2.200000;-0.150000;22.539994;,
 2.200000;-0.350000;22.539994;,
 1.000000;-0.350000;22.539994;,
 1.000000;-0.150000;22.539994;,
 1.000000;-0.150000;22.539994;,
 1.000000;-0.350000;22.539994;,
 1.000000;-0.350000;22.459994;,
 1.000000;-0.150000;22.459994;,
 1.000000;-0.150000;22.459994;,
 2.200000;-0.150000;22.459994;,
 2.200000;-0.150000;22.539994;,
 1.000000;-0.150000;22.539994;,
 1.000000;-0.350000;22.459994;,
 1.000000;-0.350000;22.539994;,
 2.200000;-0.350000;22.539994;,
 2.200000;-0.350000;22.459994;,
 1.000000;-0.150000;19.959994;,
 1.000000;-0.350000;19.959994;,
 2.200000;-0.350000;19.959994;,
 2.200000;-0.150000;19.959994;,
 2.200000;-0.150000;19.959994;,
 2.200000;-0.350000;19.959994;,
 2.200000;-0.350000;20.039994;,
 2.200000;-0.150000;20.039994;,
 2.200000;-0.150000;20.039994;,
 2.200000;-0.350000;20.039994;,
 1.000000;-0.350000;20.039994;,
 1.000000;-0.150000;20.039994;,
 1.000000;-0.150000;20.039994;,
 1.000000;-0.350000;20.039994;,
 1.000000;-0.350000;19.959994;,
 1.000000;-0.150000;19.959994;,
 1.000000;-0.150000;19.959994;,
 2.200000;-0.150000;19.959994;,
 2.200000;-0.150000;20.039994;,
 1.000000;-0.150000;20.039994;,
 1.000000;-0.350000;19.959994;,
 1.000000;-0.350000;20.039994;,
 2.200000;-0.350000;20.039994;,
 2.200000;-0.350000;19.959994;,
 1.000000;-0.150000;17.459994;,
 1.000000;-0.350000;17.459994;,
 2.200000;-0.350000;17.459994;,
 2.200000;-0.150000;17.459994;,
 2.200000;-0.150000;17.459994;,
 2.200000;-0.350000;17.459994;,
 2.200000;-0.350000;17.540002;,
 2.200000;-0.150000;17.540002;,
 2.200000;-0.150000;17.540002;,
 2.200000;-0.350000;17.540002;,
 1.000000;-0.350000;17.540002;,
 1.000000;-0.150000;17.540002;,
 1.000000;-0.150000;17.540002;,
 1.000000;-0.350000;17.540002;,
 1.000000;-0.350000;17.459994;,
 1.000000;-0.150000;17.459994;,
 1.000000;-0.150000;17.459994;,
 2.200000;-0.150000;17.459994;,
 2.200000;-0.150000;17.540002;,
 1.000000;-0.150000;17.540002;,
 1.000000;-0.350000;17.459994;,
 1.000000;-0.350000;17.540002;,
 2.200000;-0.350000;17.540002;,
 2.200000;-0.350000;17.459994;,
 1.000000;-0.150000;14.959997;,
 1.000000;-0.350000;14.959997;,
 2.200000;-0.350000;14.959997;,
 2.200000;-0.150000;14.959997;,
 2.200000;-0.150000;14.959997;,
 2.200000;-0.350000;14.959997;,
 2.200000;-0.350000;15.039997;,
 2.200000;-0.150000;15.039997;,
 2.200000;-0.150000;15.039997;,
 2.200000;-0.350000;15.039997;,
 1.000000;-0.350000;15.039997;,
 1.000000;-0.150000;15.039997;,
 1.000000;-0.150000;15.039997;,
 1.000000;-0.350000;15.039997;,
 1.000000;-0.350000;14.959997;,
 1.000000;-0.150000;14.959997;,
 1.000000;-0.150000;14.959997;,
 2.200000;-0.150000;14.959997;,
 2.200000;-0.150000;15.039997;,
 1.000000;-0.150000;15.039997;,
 1.000000;-0.350000;14.959997;,
 1.000000;-0.350000;15.039997;,
 2.200000;-0.350000;15.039997;,
 2.200000;-0.350000;14.959997;,
 2.120000;0.690406;24.959994;,
 2.120000;-0.300000;24.959994;,
 2.200000;-0.300000;24.959994;,
 2.200000;0.690406;24.959994;,
 2.200000;0.690406;24.959994;,
 2.200000;-0.300000;24.959994;,
 2.200000;-0.300000;25.039994;,
 2.200000;0.690406;25.039994;,
 2.200000;0.690406;25.039994;,
 2.200000;-0.300000;25.039994;,
 2.120000;-0.300000;25.039994;,
 2.120000;0.690406;25.039994;,
 2.120000;0.690406;25.039994;,
 2.120000;-0.300000;25.039994;,
 2.120000;-0.300000;24.959994;,
 2.120000;0.690406;24.959994;,
 2.120000;0.690406;24.959994;,
 2.200000;0.690406;24.959994;,
 2.200000;0.690406;25.039994;,
 2.120000;0.690406;25.039994;,
 2.120000;-0.300000;24.959994;,
 2.120000;-0.300000;25.039994;,
 2.200000;-0.300000;25.039994;,
 2.200000;-0.300000;24.959994;,
 2.120000;0.690406;22.459994;,
 2.120000;-0.300000;22.459994;,
 2.200000;-0.300000;22.459994;,
 2.200000;0.690406;22.459994;,
 2.200000;0.690406;22.459994;,
 2.200000;-0.300000;22.459994;,
 2.200000;-0.300000;22.539994;,
 2.200000;0.690406;22.539994;,
 2.200000;0.690406;22.539994;,
 2.200000;-0.300000;22.539994;,
 2.120000;-0.300000;22.539994;,
 2.120000;0.690406;22.539994;,
 2.120000;0.690406;22.539994;,
 2.120000;-0.300000;22.539994;,
 2.120000;-0.300000;22.459994;,
 2.120000;0.690406;22.459994;,
 2.120000;0.690406;22.459994;,
 2.200000;0.690406;22.459994;,
 2.200000;0.690406;22.539994;,
 2.120000;0.690406;22.539994;,
 2.120000;-0.300000;22.459994;,
 2.120000;-0.300000;22.539994;,
 2.200000;-0.300000;22.539994;,
 2.200000;-0.300000;22.459994;,
 2.120000;0.690406;19.959994;,
 2.120000;-0.300000;19.959994;,
 2.200000;-0.300000;19.959994;,
 2.200000;0.690406;19.959994;,
 2.200000;0.690406;19.959994;,
 2.200000;-0.300000;19.959994;,
 2.200000;-0.300000;20.039994;,
 2.200000;0.690406;20.039994;,
 2.200000;0.690406;20.039994;,
 2.200000;-0.300000;20.039994;,
 2.120000;-0.300000;20.039994;,
 2.120000;0.690406;20.039994;,
 2.120000;0.690406;20.039994;,
 2.120000;-0.300000;20.039994;,
 2.120000;-0.300000;19.959994;,
 2.120000;0.690406;19.959994;,
 2.120000;0.690406;19.959994;,
 2.200000;0.690406;19.959994;,
 2.200000;0.690406;20.039994;,
 2.120000;0.690406;20.039994;,
 2.120000;-0.300000;19.959994;,
 2.120000;-0.300000;20.039994;,
 2.200000;-0.300000;20.039994;,
 2.200000;-0.300000;19.959994;,
 2.120000;0.690406;17.459994;,
 2.120000;-0.300000;17.459994;,
 2.200000;-0.300000;17.459994;,
 2.200000;0.690406;17.459994;,
 2.200000;0.690406;17.459994;,
 2.200000;-0.300000;17.459994;,
 2.200000;-0.300000;17.540002;,
 2.200000;0.690406;17.540002;,
 2.200000;0.690406;17.540002;,
 2.200000;-0.300000;17.540002;,
 2.120000;-0.300000;17.540002;,
 2.120000;0.690406;17.540002;,
 2.120000;0.690406;17.540002;,
 2.120000;-0.300000;17.540002;,
 2.120000;-0.300000;17.459994;,
 2.120000;0.690406;17.459994;,
 2.120000;0.690406;17.459994;,
 2.200000;0.690406;17.459994;,
 2.200000;0.690406;17.540002;,
 2.120000;0.690406;17.540002;,
 2.120000;-0.300000;17.459994;,
 2.120000;-0.300000;17.540002;,
 2.200000;-0.300000;17.540002;,
 2.200000;-0.300000;17.459994;,
 2.120000;0.690406;14.959997;,
 2.120000;-0.300000;14.959997;,
 2.200000;-0.300000;14.959997;,
 2.200000;0.690406;14.959997;,
 2.200000;0.690406;14.959997;,
 2.200000;-0.300000;14.959997;,
 2.200000;-0.300000;15.039997;,
 2.200000;0.690406;15.039997;,
 2.200000;0.690406;15.039997;,
 2.200000;-0.300000;15.039997;,
 2.120000;-0.300000;15.039997;,
 2.120000;0.690406;15.039997;,
 2.120000;0.690406;15.039997;,
 2.120000;-0.300000;15.039997;,
 2.120000;-0.300000;14.959997;,
 2.120000;0.690406;14.959997;,
 2.120000;0.690406;14.959997;,
 2.200000;0.690406;14.959997;,
 2.200000;0.690406;15.039997;,
 2.120000;0.690406;15.039997;,
 2.120000;-0.300000;14.959997;,
 2.120000;-0.300000;15.039997;,
 2.200000;-0.300000;15.039997;,
 2.200000;-0.300000;14.959997;,
 2.120000;0.730406;14.899997;,
 2.120000;0.650406;14.899997;,
 2.200000;0.650406;14.899997;,
 2.200000;0.730406;14.899997;,
 2.200000;0.730406;14.899997;,
 2.200000;0.650406;14.899997;,
 2.200000;0.650406;25.099995;,
 2.200000;0.730406;25.099995;,
 2.200000;0.730406;25.099995;,
 2.200000;0.650406;25.099995;,
 2.120000;0.650406;25.099995;,
 2.120000;0.730406;25.099995;,
 2.120000;0.730406;25.099995;,
 2.120000;0.650406;25.099995;,
 2.120000;0.650406;14.899997;,
 2.120000;0.730406;14.899997;,
 2.120000;0.730406;14.899997;,
 2.200000;0.730406;14.899997;,
 2.200000;0.730406;25.099995;,
 2.120000;0.730406;25.099995;,
 2.120000;0.650406;14.899997;,
 2.120000;0.650406;25.099995;,
 2.200000;0.650406;25.099995;,
 2.200000;0.650406;14.899997;,
 2.135000;0.168280;14.999997;,
 2.135000;0.118280;14.999997;,
 2.185000;0.118280;14.999997;,
 2.185000;0.168280;14.999997;,
 2.185000;0.168280;14.999997;,
 2.185000;0.118280;14.999997;,
 2.185000;0.118280;24.999992;,
 2.185000;0.168280;24.999992;,
 2.185000;0.168280;24.999992;,
 2.185000;0.118280;24.999992;,
 2.135000;0.118280;24.999992;,
 2.135000;0.168280;24.999992;,
 2.135000;0.168280;24.999992;,
 2.135000;0.118280;24.999992;,
 2.135000;0.118280;14.999997;,
 2.135000;0.168280;14.999997;,
 2.135000;0.168280;14.999997;,
 2.185000;0.168280;14.999997;,
 2.185000;0.168280;24.999992;,
 2.135000;0.168280;24.999992;,
 2.135000;0.118280;14.999997;,
 2.135000;0.118280;24.999992;,
 2.185000;0.118280;24.999992;,
 2.185000;0.118280;14.999997;,
 1.000000;-0.150000;12.459997;,
 1.000000;-0.350000;12.459997;,
 2.200000;-0.350000;12.459997;,
 2.200000;-0.150000;12.459997;,
 2.200000;-0.150000;12.459997;,
 2.200000;-0.350000;12.459997;,
 2.200000;-0.350000;12.539995;,
 2.200000;-0.150000;12.539995;,
 2.200000;-0.150000;12.539995;,
 2.200000;-0.350000;12.539995;,
 1.000000;-0.350000;12.539995;,
 1.000000;-0.150000;12.539995;,
 1.000000;-0.150000;12.539995;,
 1.000000;-0.350000;12.539995;,
 1.000000;-0.350000;12.459997;,
 1.000000;-0.150000;12.459997;,
 1.000000;-0.150000;12.459997;,
 2.200000;-0.150000;12.459997;,
 2.200000;-0.150000;12.539995;,
 1.000000;-0.150000;12.539995;,
 1.000000;-0.350000;12.459997;,
 1.000000;-0.350000;12.539995;,
 2.200000;-0.350000;12.539995;,
 2.200000;-0.350000;12.459997;,
 2.120000;0.690406;12.459997;,
 2.120000;-0.300000;12.459997;,
 2.200000;-0.300000;12.459997;,
 2.200000;0.690406;12.459997;,
 2.200000;0.690406;12.459997;,
 2.200000;-0.300000;12.459997;,
 2.200000;-0.300000;12.539995;,
 2.200000;0.690406;12.539995;,
 2.200000;0.690406;12.539995;,
 2.200000;-0.300000;12.539995;,
 2.120000;-0.300000;12.539995;,
 2.120000;0.690406;12.539995;,
 2.120000;0.690406;12.539995;,
 2.120000;-0.300000;12.539995;,
 2.120000;-0.300000;12.459997;,
 2.120000;0.690406;12.459997;,
 2.120000;0.690406;12.459997;,
 2.200000;0.690406;12.459997;,
 2.200000;0.690406;12.539995;,
 2.120000;0.690406;12.539995;,
 2.120000;-0.300000;12.459997;,
 2.120000;-0.300000;12.539995;,
 2.200000;-0.300000;12.539995;,
 2.200000;-0.300000;12.459997;,
 2.169951;0.705621;12.999998;,
 2.142522;0.705621;12.999998;,
 2.169951;0.135407;12.999998;,
 2.142522;0.135407;12.999998;,
 2.169951;0.705621;13.499997;,
 2.142522;0.705621;13.499997;,
 2.169951;0.135407;13.499997;,
 2.142522;0.135407;13.499997;,
 2.169951;0.705621;13.999997;,
 2.142522;0.705621;13.999997;,
 2.169951;0.135407;13.999997;,
 2.142522;0.135407;13.999997;,
 2.169951;0.705621;14.499997;,
 2.142522;0.705621;14.499997;,
 2.169951;0.135407;14.499997;,
 2.142522;0.135407;14.499997;,
 2.169951;0.705621;10.499998;,
 2.142522;0.705621;10.499998;,
 2.169951;0.135407;10.499998;,
 2.142522;0.135407;10.499998;,
 2.169951;0.705621;10.999998;,
 2.142522;0.705621;10.999998;,
 2.169951;0.135407;10.999998;,
 2.142522;0.135407;10.999998;,
 2.169951;0.705621;11.499998;,
 2.142522;0.705621;11.499998;,
 2.169951;0.135407;11.499998;,
 2.142522;0.135407;11.499998;,
 2.169951;0.705621;11.999998;,
 2.142522;0.705621;11.999998;,
 2.169951;0.135407;11.999998;,
 2.142522;0.135407;11.999998;,
 2.100000;-0.050000;0.000000;,
 2.100000;-0.050000;24.999997;,
 1.350000;-0.050000;24.999997;,
 1.350000;-0.050000;0.000000;;
 398;
 3;3,1,2;,
 3;3,0,1;,
 3;4,6,5;,
 3;4,7,6;,
 3;8,10,9;,
 3;8,11,10;,
 3;104,14,105;,
 3;104,15,14;,
 3;106,13,107;,
 3;106,12,13;,
 3;108,110,109;,
 3;108,111,110;,
 3;112,114,113;,
 3;112,115,114;,
 3;116,118,117;,
 3;116,119,118;,
 3;24,26,25;,
 3;24,27,26;,
 3;136,30,137;,
 3;136,31,30;,
 3;138,29,139;,
 3;138,28,29;,
 3;140,142,141;,
 3;140,143,142;,
 3;144,146,145;,
 3;144,147,146;,
 3;148,150,149;,
 3;148,151,150;,
 3;32,34,33;,
 3;32,35,34;,
 3;152,38,153;,
 3;152,39,38;,
 3;154,37,155;,
 3;154,36,37;,
 3;156,158,157;,
 3;156,159,158;,
 3;160,162,161;,
 3;160,163,162;,
 3;164,166,165;,
 3;164,167,166;,
 3;40,42,41;,
 3;40,43,42;,
 3;168,46,169;,
 3;168,47,46;,
 3;170,45,171;,
 3;170,44,45;,
 3;172,174,173;,
 3;172,175,174;,
 3;176,178,177;,
 3;176,179,178;,
 3;180,182,181;,
 3;180,183,182;,
 3;48,50,49;,
 3;48,51,50;,
 3;184,54,185;,
 3;184,55,54;,
 3;186,53,187;,
 3;186,52,53;,
 3;188,190,189;,
 3;188,191,190;,
 3;192,194,193;,
 3;192,195,194;,
 3;196,198,197;,
 3;196,199,198;,
 3;64,66,65;,
 3;64,67,66;,
 3;216,70,217;,
 3;216,71,70;,
 3;218,69,219;,
 3;218,68,69;,
 3;220,222,221;,
 3;220,223,222;,
 3;224,226,225;,
 3;224,227,226;,
 3;228,230,229;,
 3;228,231,230;,
 3;72,74,73;,
 3;72,75,74;,
 3;232,78,233;,
 3;232,79,78;,
 3;234,77,235;,
 3;234,76,77;,
 3;236,238,237;,
 3;236,239,238;,
 3;240,242,241;,
 3;240,243,242;,
 3;244,246,245;,
 3;244,247,246;,
 3;80,82,81;,
 3;80,83,82;,
 3;248,86,249;,
 3;248,87,86;,
 3;250,85,251;,
 3;250,84,85;,
 3;252,254,253;,
 3;252,255,254;,
 3;256,258,257;,
 3;256,259,258;,
 3;260,262,261;,
 3;260,263,262;,
 3;88,90,89;,
 3;88,91,90;,
 3;264,94,265;,
 3;264,95,94;,
 3;266,93,267;,
 3;266,92,93;,
 3;268,270,269;,
 3;268,271,270;,
 3;272,274,273;,
 3;272,275,274;,
 3;276,278,277;,
 3;276,279,278;,
 3;96,98,97;,
 3;96,99,98;,
 3;280,102,281;,
 3;280,103,102;,
 3;282,101,283;,
 3;282,100,101;,
 3;284,286,285;,
 3;284,287,286;,
 3;288,290,289;,
 3;288,291,290;,
 3;292,294,293;,
 3;292,295,294;,
 3;296,298,297;,
 3;297,298,299;,
 3;300,302,301;,
 3;301,302,303;,
 3;304,306,305;,
 3;305,306,307;,
 3;308,310,309;,
 3;309,310,311;,
 3;328,330,329;,
 3;329,330,331;,
 3;332,334,333;,
 3;333,334,335;,
 3;336,338,337;,
 3;337,338,339;,
 3;340,342,341;,
 3;341,342,343;,
 3;360,362,361;,
 3;361,362,363;,
 3;364,366,365;,
 3;365,366,367;,
 3;368,370,369;,
 3;369,370,371;,
 3;372,374,373;,
 3;373,374,375;,
 3;376,378,377;,
 3;377,378,379;,
 3;380,382,381;,
 3;381,382,383;,
 3;384,386,385;,
 3;385,386,387;,
 3;388,390,389;,
 3;389,390,391;,
 3;392,394,393;,
 3;393,394,395;,
 3;396,398,397;,
 3;397,398,399;,
 3;400,402,401;,
 3;401,402,403;,
 3;404,406,405;,
 3;405,406,407;,
 3;408,410,409;,
 3;409,410,411;,
 3;412,414,413;,
 3;413,414,415;,
 3;416,418,417;,
 3;417,418,419;,
 3;420,422,421;,
 3;421,422,423;,
 3;424,426,425;,
 3;424,427,426;,
 3;428,430,429;,
 3;428,431,430;,
 3;432,434,433;,
 3;432,435,434;,
 3;436,438,437;,
 3;436,439,438;,
 3;440,442,441;,
 3;440,443,442;,
 3;444,446,445;,
 3;444,447,446;,
 3;448,450,449;,
 3;448,451,450;,
 3;452,454,453;,
 3;452,455,454;,
 3;456,458,457;,
 3;456,459,458;,
 3;460,462,461;,
 3;460,463,462;,
 3;464,466,465;,
 3;464,467,466;,
 3;468,470,469;,
 3;468,471,470;,
 3;472,474,473;,
 3;472,475,474;,
 3;476,478,477;,
 3;476,479,478;,
 3;480,482,481;,
 3;480,483,482;,
 3;484,486,485;,
 3;484,487,486;,
 3;488,490,489;,
 3;488,491,490;,
 3;492,494,493;,
 3;492,495,494;,
 3;496,498,497;,
 3;496,499,498;,
 3;500,502,501;,
 3;500,503,502;,
 3;504,506,505;,
 3;504,507,506;,
 3;508,510,509;,
 3;508,511,510;,
 3;512,514,513;,
 3;512,515,514;,
 3;516,518,517;,
 3;516,519,518;,
 3;520,522,521;,
 3;520,523,522;,
 3;524,526,525;,
 3;524,527,526;,
 3;528,530,529;,
 3;528,531,530;,
 3;532,534,533;,
 3;532,535,534;,
 3;536,538,537;,
 3;536,539,538;,
 3;540,542,541;,
 3;540,543,542;,
 3;544,546,545;,
 3;544,547,546;,
 3;548,550,549;,
 3;548,551,550;,
 3;552,554,553;,
 3;552,555,554;,
 3;556,558,557;,
 3;556,559,558;,
 3;560,562,561;,
 3;560,563,562;,
 3;564,566,565;,
 3;564,567,566;,
 3;568,570,569;,
 3;568,571,570;,
 3;572,574,573;,
 3;572,575,574;,
 3;576,578,577;,
 3;576,579,578;,
 3;580,582,581;,
 3;580,583,582;,
 3;584,586,585;,
 3;584,587,586;,
 3;588,590,589;,
 3;588,591,590;,
 3;592,594,593;,
 3;592,595,594;,
 3;596,598,597;,
 3;596,599,598;,
 3;600,602,601;,
 3;600,603,602;,
 3;604,606,605;,
 3;604,607,606;,
 3;608,610,609;,
 3;608,611,610;,
 3;612,614,613;,
 3;612,615,614;,
 3;616,618,617;,
 3;616,619,618;,
 3;620,622,621;,
 3;620,623,622;,
 3;624,626,625;,
 3;624,627,626;,
 3;628,630,629;,
 3;628,631,630;,
 3;632,634,633;,
 3;632,635,634;,
 3;636,638,637;,
 3;636,639,638;,
 3;640,642,641;,
 3;640,643,642;,
 3;644,646,645;,
 3;644,647,646;,
 3;648,650,649;,
 3;648,651,650;,
 3;652,654,653;,
 3;652,655,654;,
 3;656,658,657;,
 3;656,659,658;,
 3;660,662,661;,
 3;660,663,662;,
 3;664,666,665;,
 3;664,667,666;,
 3;668,670,669;,
 3;668,671,670;,
 3;672,674,673;,
 3;672,675,674;,
 3;676,678,677;,
 3;676,679,678;,
 3;680,682,681;,
 3;680,683,682;,
 3;684,686,685;,
 3;684,687,686;,
 3;688,690,689;,
 3;688,691,690;,
 3;692,694,693;,
 3;692,695,694;,
 3;696,698,697;,
 3;696,699,698;,
 3;700,702,701;,
 3;700,703,702;,
 3;704,706,705;,
 3;704,707,706;,
 3;708,710,709;,
 3;708,711,710;,
 3;16,18,17;,
 3;16,19,18;,
 3;120,22,121;,
 3;120,23,22;,
 3;122,21,123;,
 3;122,20,21;,
 3;124,126,125;,
 3;124,127,126;,
 3;128,130,129;,
 3;128,131,130;,
 3;132,134,133;,
 3;132,135,134;,
 3;56,58,57;,
 3;56,59,58;,
 3;200,62,201;,
 3;200,63,62;,
 3;202,61,203;,
 3;202,60,61;,
 3;204,206,205;,
 3;204,207,206;,
 3;208,210,209;,
 3;208,211,210;,
 3;212,214,213;,
 3;212,215,214;,
 3;312,314,313;,
 3;313,314,315;,
 3;316,318,317;,
 3;317,318,319;,
 3;320,322,321;,
 3;321,322,323;,
 3;324,326,325;,
 3;325,326,327;,
 3;344,346,345;,
 3;345,346,347;,
 3;348,350,349;,
 3;349,350,351;,
 3;352,354,353;,
 3;353,354,355;,
 3;356,358,357;,
 3;357,358,359;,
 3;712,714,713;,
 3;712,715,714;,
 3;716,718,717;,
 3;716,719,718;,
 3;720,722,721;,
 3;720,723,722;,
 3;724,726,725;,
 3;724,727,726;,
 3;728,730,729;,
 3;728,731,730;,
 3;732,734,733;,
 3;732,735,734;,
 3;736,738,737;,
 3;736,739,738;,
 3;740,742,741;,
 3;740,743,742;,
 3;744,746,745;,
 3;744,747,746;,
 3;748,750,749;,
 3;748,751,750;,
 3;752,754,753;,
 3;752,755,754;,
 3;756,758,757;,
 3;756,759,758;,
 3;760,762,761;,
 3;761,762,763;,
 3;764,766,765;,
 3;765,766,767;,
 3;768,770,769;,
 3;769,770,771;,
 3;772,774,773;,
 3;773,774,775;,
 3;776,778,777;,
 3;777,778,779;,
 3;780,782,781;,
 3;781,782,783;,
 3;784,786,785;,
 3;785,786,787;,
 3;788,790,789;,
 3;789,790,791;,
 3;792,794,793;,
 3;792,795,794;;

 MeshNormals {
  796;
  -1.000000;0.000000;0.000000;,
  -1.000000;0.000000;0.000000;,
  -1.000000;0.000000;0.000000;,
  -1.000000;0.000000;0.000000;,
  1.000000;0.000000;0.000000;,
  1.000000;0.000000;0.000000;,
  1.000000;0.000000;0.000000;,
  1.000000;0.000000;0.000000;,
  0.000000;0.000000;-1.000000;,
  0.000000;0.000000;-1.000000;,
  0.000000;0.000000;-1.000000;,
  0.000000;0.000000;-1.000000;,
  0.000000;0.000000;1.000000;,
  0.000000;0.000000;1.000000;,
  1.000000;0.000000;0.000000;,
  1.000000;0.000000;0.000000;,
  0.000000;0.000000;-1.000000;,
  0.000000;0.000000;-1.000000;,
  0.000000;0.000000;-1.000000;,
  0.000000;0.000000;-1.000000;,
  0.000000;0.000000;1.000000;,
  0.000000;0.000000;1.000000;,
  1.000000;0.000000;0.000000;,
  1.000000;0.000000;0.000000;,
  0.000000;0.000000;-1.000000;,
  0.000000;0.000000;-1.000000;,
  0.000000;0.000000;-1.000000;,
  0.000000;0.000000;-1.000000;,
  0.000000;0.000000;1.000000;,
  0.000000;0.000000;1.000000;,
  1.000000;0.000000;0.000000;,
  1.000000;0.000000;0.000000;,
  0.000000;0.000000;-1.000000;,
  0.000000;0.000000;-1.000000;,
  0.000000;0.000000;-1.000000;,
  0.000000;0.000000;-1.000000;,
  0.000000;0.000000;1.000000;,
  0.000000;0.000000;1.000000;,
  1.000000;0.000000;0.000000;,
  1.000000;0.000000;0.000000;,
  0.000000;0.000000;-1.000000;,
  0.000000;0.000000;-1.000000;,
  0.000000;0.000000;-1.000000;,
  0.000000;0.000000;-1.000000;,
  0.000000;0.000000;1.000000;,
  0.000000;0.000000;1.000000;,
  1.000000;0.000000;0.000000;,
  1.000000;0.000000;0.000000;,
  0.000000;0.000000;-1.000000;,
  0.000000;0.000000;-1.000000;,
  0.000000;0.000000;-1.000000;,
  0.000000;0.000000;-1.000000;,
  0.000000;0.000000;1.000000;,
  0.000000;0.000000;1.000000;,
  1.000000;0.000000;0.000000;,
  1.000000;0.000000;0.000000;,
  0.000000;0.000000;-1.000000;,
  0.000000;0.000000;-1.000000;,
  0.000000;0.000000;-1.000000;,
  0.000000;0.000000;-1.000000;,
  0.000000;0.000000;1.000000;,
  0.000000;0.000000;1.000000;,
  1.000000;0.000000;0.000000;,
  1.000000;0.000000;0.000000;,
  0.000000;0.000000;-1.000000;,
  0.000000;0.000000;-1.000000;,
  0.000000;0.000000;-1.000000;,
  0.000000;0.000000;-1.000000;,
  0.000000;0.000000;1.000000;,
  0.000000;0.000000;1.000000;,
  1.000000;0.000000;0.000000;,
  1.000000;0.000000;0.000000;,
  0.000000;0.000000;-1.000000;,
  0.000000;0.000000;-1.000000;,
  0.000000;0.000000;-1.000000;,
  0.000000;0.000000;-1.000000;,
  0.000000;0.000000;1.000000;,
  0.000000;0.000000;1.000000;,
  1.000000;0.000000;0.000000;,
  1.000000;0.000000;0.000000;,
  0.000000;0.000000;-1.000000;,
  0.000000;0.000000;-1.000000;,
  0.000000;0.000000;-1.000000;,
  0.000000;0.000000;-1.000000;,
  0.000000;0.000000;1.000000;,
  0.000000;0.000000;1.000000;,
  1.000000;0.000000;0.000000;,
  1.000000;0.000000;0.000000;,
  0.000000;0.000000;-1.000000;,
  0.000000;0.000000;-1.000000;,
  0.000000;0.000000;-1.000000;,
  0.000000;0.000000;-1.000000;,
  0.000000;0.000000;1.000000;,
  0.000000;0.000000;1.000000;,
  1.000000;0.000000;0.000000;,
  1.000000;0.000000;0.000000;,
  0.000000;0.000000;-1.000000;,
  0.000000;0.000000;-1.000000;,
  0.000000;0.000000;-1.000000;,
  0.000000;0.000000;-1.000000;,
  0.000000;0.000000;1.000000;,
  0.000000;0.000000;1.000000;,
  1.000000;0.000000;0.000000;,
  1.000000;0.000000;0.000000;,
  1.000000;0.000000;0.000000;,
  1.000000;0.000000;0.000000;,
  0.000000;0.000000;1.000000;,
  0.000000;0.000000;1.000000;,
  -1.000000;0.000000;0.000000;,
  -1.000000;0.000000;0.000000;,
  -1.000000;0.000000;0.000000;,
  -1.000000;0.000000;0.000000;,
  0.000000;1.000000;0.000000;,
  0.000000;1.000000;0.000000;,
  0.000000;1.000000;0.000000;,
  0.000000;1.000000;0.000000;,
  0.000000;-1.000000;0.000000;,
  0.000000;-1.000000;0.000000;,
  0.000000;-1.000000;0.000000;,
  0.000000;-1.000000;0.000000;,
  1.000000;0.000000;0.000000;,
  1.000000;0.000000;0.000000;,
  0.000000;0.000000;1.000000;,
  0.000000;0.000000;1.000000;,
  -1.000000;0.000000;0.000000;,
  -1.000000;0.000000;0.000000;,
  -1.000000;0.000000;0.000000;,
  -1.000000;0.000000;0.000000;,
  0.000000;1.000000;0.000000;,
  0.000000;1.000000;0.000000;,
  0.000000;1.000000;0.000000;,
  0.000000;1.000000;0.000000;,
  0.000000;-1.000000;0.000000;,
  0.000000;-1.000000;0.000000;,
  0.000000;-1.000000;0.000000;,
  0.000000;-1.000000;0.000000;,
  1.000000;0.000000;0.000000;,
  1.000000;0.000000;0.000000;,
  0.000000;0.000000;1.000000;,
  0.000000;0.000000;1.000000;,
  -1.000000;0.000000;0.000000;,
  -1.000000;0.000000;0.000000;,
  -1.000000;0.000000;0.000000;,
  -1.000000;0.000000;0.000000;,
  0.000000;1.000000;0.000000;,
  0.000000;1.000000;0.000000;,
  0.000000;1.000000;0.000000;,
  0.000000;1.000000;0.000000;,
  0.000000;-1.000000;0.000000;,
  0.000000;-1.000000;0.000000;,
  0.000000;-1.000000;0.000000;,
  0.000000;-1.000000;0.000000;,
  1.000000;0.000000;0.000000;,
  1.000000;0.000000;0.000000;,
  0.000000;0.000000;1.000000;,
  0.000000;0.000000;1.000000;,
  -1.000000;0.000000;0.000000;,
  -1.000000;0.000000;0.000000;,
  -1.000000;0.000000;0.000000;,
  -1.000000;0.000000;0.000000;,
  0.000000;1.000000;0.000000;,
  0.000000;1.000000;0.000000;,
  0.000000;1.000000;0.000000;,
  0.000000;1.000000;0.000000;,
  0.000000;-1.000000;0.000000;,
  0.000000;-1.000000;0.000000;,
  0.000000;-1.000000;0.000000;,
  0.000000;-1.000000;0.000000;,
  1.000000;0.000000;0.000000;,
  1.000000;0.000000;0.000000;,
  0.000000;0.000000;1.000000;,
  0.000000;0.000000;1.000000;,
  -1.000000;0.000000;0.000000;,
  -1.000000;0.000000;0.000000;,
  -1.000000;0.000000;0.000000;,
  -1.000000;0.000000;0.000000;,
  0.000000;1.000000;0.000000;,
  0.000000;1.000000;0.000000;,
  0.000000;1.000000;0.000000;,
  0.000000;1.000000;0.000000;,
  0.000000;-1.000000;0.000000;,
  0.000000;-1.000000;0.000000;,
  0.000000;-1.000000;0.000000;,
  0.000000;-1.000000;0.000000;,
  1.000000;0.000000;0.000000;,
  1.000000;0.000000;0.000000;,
  0.000000;0.000000;1.000000;,
  0.000000;0.000000;1.000000;,
  -1.000000;0.000000;0.000000;,
  -1.000000;0.000000;0.000000;,
  -1.000000;0.000000;0.000000;,
  -1.000000;0.000000;0.000000;,
  0.000000;1.000000;0.000000;,
  0.000000;1.000000;0.000000;,
  0.000000;1.000000;0.000000;,
  0.000000;1.000000;0.000000;,
  0.000000;-1.000000;0.000000;,
  0.000000;-1.000000;0.000000;,
  0.000000;-1.000000;0.000000;,
  0.000000;-1.000000;0.000000;,
  1.000000;0.000000;0.000000;,
  1.000000;0.000000;0.000000;,
  0.000000;0.000000;1.000000;,
  0.000000;0.000000;1.000000;,
  -1.000000;0.000000;0.000000;,
  -1.000000;0.000000;0.000000;,
  -1.000000;0.000000;0.000000;,
  -1.000000;0.000000;0.000000;,
  0.000000;1.000000;0.000000;,
  0.000000;1.000000;0.000000;,
  0.000000;1.000000;0.000000;,
  0.000000;1.000000;0.000000;,
  0.000000;-1.000000;0.000000;,
  0.000000;-1.000000;0.000000;,
  0.000000;-1.000000;0.000000;,
  0.000000;-1.000000;0.000000;,
  1.000000;0.000000;0.000000;,
  1.000000;0.000000;0.000000;,
  0.000000;0.000000;1.000000;,
  0.000000;0.000000;1.000000;,
  -1.000000;0.000000;0.000000;,
  -1.000000;0.000000;0.000000;,
  -1.000000;0.000000;0.000000;,
  -1.000000;0.000000;0.000000;,
  0.000000;1.000000;0.000000;,
  0.000000;1.000000;0.000000;,
  0.000000;1.000000;0.000000;,
  0.000000;1.000000;0.000000;,
  0.000000;-1.000000;0.000000;,
  0.000000;-1.000000;0.000000;,
  0.000000;-1.000000;0.000000;,
  0.000000;-1.000000;0.000000;,
  1.000000;0.000000;0.000000;,
  1.000000;0.000000;0.000000;,
  0.000000;0.000000;1.000000;,
  0.000000;0.000000;1.000000;,
  -1.000000;0.000000;0.000000;,
  -1.000000;0.000000;0.000000;,
  -1.000000;0.000000;0.000000;,
  -1.000000;0.000000;0.000000;,
  0.000000;1.000000;0.000000;,
  0.000000;1.000000;0.000000;,
  0.000000;1.000000;0.000000;,
  0.000000;1.000000;0.000000;,
  0.000000;-1.000000;0.000000;,
  0.000000;-1.000000;0.000000;,
  0.000000;-1.000000;0.000000;,
  0.000000;-1.000000;0.000000;,
  1.000000;0.000000;0.000000;,
  1.000000;0.000000;0.000000;,
  0.000000;0.000000;1.000000;,
  0.000000;0.000000;1.000000;,
  -1.000000;0.000000;0.000000;,
  -1.000000;0.000000;0.000000;,
  -1.000000;0.000000;0.000000;,
  -1.000000;0.000000;0.000000;,
  0.000000;1.000000;0.000000;,
  0.000000;1.000000;0.000000;,
  0.000000;1.000000;0.000000;,
  0.000000;1.000000;0.000000;,
  0.000000;-1.000000;0.000000;,
  0.000000;-1.000000;0.000000;,
  0.000000;-1.000000;0.000000;,
  0.000000;-1.000000;0.000000;,
  1.000000;0.000000;0.000000;,
  1.000000;0.000000;0.000000;,
  0.000000;0.000000;1.000000;,
  0.000000;0.000000;1.000000;,
  -1.000000;0.000000;0.000000;,
  -1.000000;0.000000;0.000000;,
  -1.000000;0.000000;0.000000;,
  -1.000000;0.000000;0.000000;,
  0.000000;1.000000;0.000000;,
  0.000000;1.000000;0.000000;,
  0.000000;1.000000;0.000000;,
  0.000000;1.000000;0.000000;,
  0.000000;-1.000000;0.000000;,
  0.000000;-1.000000;0.000000;,
  0.000000;-1.000000;0.000000;,
  0.000000;-1.000000;0.000000;,
  1.000000;0.000000;0.000000;,
  1.000000;0.000000;0.000000;,
  0.000000;0.000000;1.000000;,
  0.000000;0.000000;1.000000;,
  -1.000000;0.000000;0.000000;,
  -1.000000;0.000000;0.000000;,
  -1.000000;0.000000;0.000000;,
  -1.000000;0.000000;0.000000;,
  0.000000;1.000000;0.000000;,
  0.000000;1.000000;0.000000;,
  0.000000;1.000000;0.000000;,
  0.000000;1.000000;0.000000;,
  0.000000;-1.000000;0.000000;,
  0.000000;-1.000000;0.000000;,
  0.000000;-1.000000;0.000000;,
  0.000000;-1.000000;0.000000;,
  0.000000;0.000000;-1.000000;,
  0.000000;0.000000;-1.000000;,
  0.000000;0.000000;-1.000000;,
  0.000000;0.000000;-1.000000;,
  0.000000;0.000000;-1.000000;,
  0.000000;0.000000;-1.000000;,
  0.000000;0.000000;-1.000000;,
  0.000000;0.000000;-1.000000;,
  0.000000;0.000000;-1.000000;,
  0.000000;0.000000;-1.000000;,
  0.000000;0.000000;-1.000000;,
  0.000000;0.000000;-1.000000;,
  0.000000;0.000000;-1.000000;,
  0.000000;0.000000;-1.000000;,
  0.000000;0.000000;-1.000000;,
  0.000000;0.000000;-1.000000;,
  0.000000;0.000000;-1.000000;,
  0.000000;0.000000;-1.000000;,
  0.000000;0.000000;-1.000000;,
  0.000000;0.000000;-1.000000;,
  0.000000;0.000000;-1.000000;,
  0.000000;0.000000;-1.000000;,
  0.000000;0.000000;-1.000000;,
  0.000000;0.000000;-1.000000;,
  0.000000;0.000000;-1.000000;,
  0.000000;0.000000;-1.000000;,
  0.000000;0.000000;-1.000000;,
  0.000000;0.000000;-1.000000;,
  0.000000;0.000000;-1.000000;,
  0.000000;0.000000;-1.000000;,
  0.000000;0.000000;-1.000000;,
  0.000000;0.000000;-1.000000;,
  0.000000;0.000000;-1.000000;,
  0.000000;0.000000;-1.000000;,
  0.000000;0.000000;-1.000000;,
  0.000000;0.000000;-1.000000;,
  0.000000;0.000000;-1.000000;,
  0.000000;0.000000;-1.000000;,
  0.000000;0.000000;-1.000000;,
  0.000000;0.000000;-1.000000;,
  0.000000;0.000000;-1.000000;,
  0.000000;0.000000;-1.000000;,
  0.000000;0.000000;-1.000000;,
  0.000000;0.000000;-1.000000;,
  0.000000;0.000000;-1.000000;,
  0.000000;0.000000;-1.000000;,
  0.000000;0.000000;-1.000000;,
  0.000000;0.000000;-1.000000;,
  0.000000;0.000000;-1.000000;,
  0.000000;0.000000;-1.000000;,
  0.000000;0.000000;-1.000000;,
  0.000000;0.000000;-1.000000;,
  0.000000;0.000000;-1.000000;,
  0.000000;0.000000;-1.000000;,
  0.000000;0.000000;-1.000000;,
  0.000000;0.000000;-1.000000;,
  0.000000;0.000000;-1.000000;,
  0.000000;0.000000;-1.000000;,
  0.000000;0.000000;-1.000000;,
  0.000000;0.000000;-1.000000;,
  0.000000;0.000000;-1.000000;,
  0.000000;0.000000;-1.000000;,
  0.000000;0.000000;-1.000000;,
  0.000000;0.000000;-1.000000;,
  0.000000;0.000000;-1.000000;,
  0.000000;0.000000;-1.000000;,
  0.000000;0.000000;-1.000000;,
  0.000000;0.000000;-1.000000;,
  0.000000;0.000000;-1.000000;,
  0.000000;0.000000;-1.000000;,
  0.000000;0.000000;-1.000000;,
  0.000000;0.000000;-1.000000;,
  0.000000;0.000000;-1.000000;,
  0.000000;0.000000;-1.000000;,
  0.000000;0.000000;-1.000000;,
  0.000000;0.000000;-1.000000;,
  0.000000;0.000000;-1.000000;,
  0.000000;0.000000;-1.000000;,
  0.000000;0.000000;-1.000000;,
  0.000000;0.000000;-1.000000;,
  0.000000;0.000000;-1.000000;,
  0.000000;0.000000;-1.000000;,
  0.000000;0.000000;-1.000000;,
  0.000000;0.000000;-1.000000;,
  0.000000;0.000000;-1.000000;,
  0.000000;0.000000;-1.000000;,
  0.000000;0.000000;-1.000000;,
  0.000000;0.000000;-1.000000;,
  0.000000;0.000000;-1.000000;,
  0.000000;0.000000;-1.000000;,
  0.000000;0.000000;-1.000000;,
  0.000000;0.000000;-1.000000;,
  0.000000;0.000000;-1.000000;,
  0.000000;0.000000;-1.000000;,
  0.000000;0.000000;-1.000000;,
  0.000000;0.000000;-1.000000;,
  0.000000;0.000000;-1.000000;,
  0.000000;0.000000;-1.000000;,
  0.000000;0.000000;-1.000000;,
  0.000000;0.000000;-1.000000;,
  0.000000;0.000000;-1.000000;,
  0.000000;0.000000;-1.000000;,
  0.000000;0.000000;-1.000000;,
  0.000000;0.000000;-1.000000;,
  0.000000;0.000000;-1.000000;,
  0.000000;0.000000;-1.000000;,
  0.000000;0.000000;-1.000000;,
  0.000000;0.000000;-1.000000;,
  0.000000;0.000000;-1.000000;,
  0.000000;0.000000;-1.000000;,
  0.000000;0.000000;-1.000000;,
  0.000000;0.000000;-1.000000;,
  0.000000;0.000000;-1.000000;,
  0.000000;0.000000;-1.000000;,
  0.000000;0.000000;-1.000000;,
  0.000000;0.000000;-1.000000;,
  0.000000;0.000000;-1.000000;,
  0.000000;0.000000;-1.000000;,
  0.000000;0.000000;-1.000000;,
  0.000000;0.000000;-1.000000;,
  0.000000;0.000000;-1.000000;,
  0.000000;0.000000;-1.000000;,
  0.000000;0.000000;-1.000000;,
  0.000000;0.000000;-1.000000;,
  0.000000;0.000000;-1.000000;,
  0.000000;0.000000;-1.000000;,
  0.000000;0.000000;-1.000000;,
  0.000000;0.000000;-1.000000;,
  0.000000;0.000000;-1.000000;,
  0.000000;0.000000;-1.000000;,
  0.000000;0.000000;-1.000000;,
  0.000000;0.000000;-1.000000;,
  1.000000;0.000000;0.000000;,
  1.000000;0.000000;0.000000;,
  1.000000;0.000000;0.000000;,
  1.000000;0.000000;0.000000;,
  0.000000;0.000000;1.000000;,
  0.000000;0.000000;1.000000;,
  0.000000;0.000000;1.000000;,
  0.000000;0.000000;1.000000;,
  -1.000000;0.000000;0.000000;,
  -1.000000;0.000000;0.000000;,
  -1.000000;0.000000;0.000000;,
  -1.000000;0.000000;0.000000;,
  0.000000;1.000000;0.000000;,
  0.000000;1.000000;0.000000;,
  0.000000;1.000000;0.000000;,
  0.000000;1.000000;0.000000;,
  0.000000;-1.000000;0.000000;,
  0.000000;-1.000000;0.000000;,
  0.000000;-1.000000;0.000000;,
  0.000000;-1.000000;0.000000;,
  0.000000;0.000000;-1.000000;,
  0.000000;0.000000;-1.000000;,
  0.000000;0.000000;-1.000000;,
  0.000000;0.000000;-1.000000;,
  1.000000;0.000000;0.000000;,
  1.000000;0.000000;0.000000;,
  1.000000;0.000000;0.000000;,
  1.000000;0.000000;0.000000;,
  0.000000;0.000000;1.000000;,
  0.000000;0.000000;1.000000;,
  0.000000;0.000000;1.000000;,
  0.000000;0.000000;1.000000;,
  -1.000000;0.000000;0.000000;,
  -1.000000;0.000000;0.000000;,
  -1.000000;0.000000;0.000000;,
  -1.000000;0.000000;0.000000;,
  0.000000;1.000000;0.000000;,
  0.000000;1.000000;0.000000;,
  0.000000;1.000000;0.000000;,
  0.000000;1.000000;0.000000;,
  0.000000;-1.000000;0.000000;,
  0.000000;-1.000000;0.000000;,
  0.000000;-1.000000;0.000000;,
  0.000000;-1.000000;0.000000;,
  0.000000;0.000000;-1.000000;,
  0.000000;0.000000;-1.000000;,
  0.000000;0.000000;-1.000000;,
  0.000000;0.000000;-1.000000;,
  1.000000;0.000000;0.000000;,
  1.000000;0.000000;0.000000;,
  1.000000;0.000000;0.000000;,
  1.000000;0.000000;0.000000;,
  0.000000;0.000000;1.000000;,
  0.000000;0.000000;1.000000;,
  0.000000;0.000000;1.000000;,
  0.000000;0.000000;1.000000;,
  -1.000000;0.000000;0.000000;,
  -1.000000;0.000000;0.000000;,
  -1.000000;0.000000;0.000000;,
  -1.000000;0.000000;0.000000;,
  0.000000;1.000000;0.000000;,
  0.000000;1.000000;0.000000;,
  0.000000;1.000000;0.000000;,
  0.000000;1.000000;0.000000;,
  0.000000;-1.000000;0.000000;,
  0.000000;-1.000000;0.000000;,
  0.000000;-1.000000;0.000000;,
  0.000000;-1.000000;0.000000;,
  0.000000;0.000000;-1.000000;,
  0.000000;0.000000;-1.000000;,
  0.000000;0.000000;-1.000000;,
  0.000000;0.000000;-1.000000;,
  1.000000;0.000000;0.000000;,
  1.000000;0.000000;0.000000;,
  1.000000;0.000000;0.000000;,
  1.000000;0.000000;0.000000;,
  0.000000;0.000000;1.000000;,
  0.000000;0.000000;1.000000;,
  0.000000;0.000000;1.000000;,
  0.000000;0.000000;1.000000;,
  -1.000000;0.000000;0.000000;,
  -1.000000;0.000000;0.000000;,
  -1.000000;0.000000;0.000000;,
  -1.000000;0.000000;0.000000;,
  0.000000;1.000000;0.000000;,
  0.000000;1.000000;0.000000;,
  0.000000;1.000000;0.000000;,
  0.000000;1.000000;0.000000;,
  0.000000;-1.000000;0.000000;,
  0.000000;-1.000000;0.000000;,
  0.000000;-1.000000;0.000000;,
  0.000000;-1.000000;0.000000;,
  0.000000;0.000000;-1.000000;,
  0.000000;0.000000;-1.000000;,
  0.000000;0.000000;-1.000000;,
  0.000000;0.000000;-1.000000;,
  1.000000;0.000000;0.000000;,
  1.000000;0.000000;0.000000;,
  1.000000;0.000000;0.000000;,
  1.000000;0.000000;0.000000;,
  0.000000;0.000000;1.000000;,
  0.000000;0.000000;1.000000;,
  0.000000;0.000000;1.000000;,
  0.000000;0.000000;1.000000;,
  -1.000000;0.000000;0.000000;,
  -1.000000;0.000000;0.000000;,
  -1.000000;0.000000;0.000000;,
  -1.000000;0.000000;0.000000;,
  0.000000;1.000000;0.000000;,
  0.000000;1.000000;0.000000;,
  0.000000;1.000000;0.000000;,
  0.000000;1.000000;0.000000;,
  0.000000;-1.000000;0.000000;,
  0.000000;-1.000000;0.000000;,
  0.000000;-1.000000;0.000000;,
  0.000000;-1.000000;0.000000;,
  0.000000;0.000000;-1.000000;,
  0.000000;0.000000;-1.000000;,
  0.000000;0.000000;-1.000000;,
  0.000000;0.000000;-1.000000;,
  1.000000;0.000000;0.000000;,
  1.000000;0.000000;0.000000;,
  1.000000;0.000000;0.000000;,
  1.000000;0.000000;0.000000;,
  0.000000;0.000000;1.000000;,
  0.000000;0.000000;1.000000;,
  0.000000;0.000000;1.000000;,
  0.000000;0.000000;1.000000;,
  -1.000000;0.000000;0.000000;,
  -1.000000;0.000000;0.000000;,
  -1.000000;0.000000;0.000000;,
  -1.000000;0.000000;0.000000;,
  0.000000;1.000000;0.000000;,
  0.000000;1.000000;0.000000;,
  0.000000;1.000000;0.000000;,
  0.000000;1.000000;0.000000;,
  0.000000;-1.000000;0.000000;,
  0.000000;-1.000000;0.000000;,
  0.000000;-1.000000;0.000000;,
  0.000000;-1.000000;0.000000;,
  0.000000;0.000000;-1.000000;,
  0.000000;0.000000;-1.000000;,
  0.000000;0.000000;-1.000000;,
  0.000000;0.000000;-1.000000;,
  1.000000;0.000000;0.000000;,
  1.000000;0.000000;0.000000;,
  1.000000;0.000000;0.000000;,
  1.000000;0.000000;0.000000;,
  0.000000;0.000000;1.000000;,
  0.000000;0.000000;1.000000;,
  0.000000;0.000000;1.000000;,
  0.000000;0.000000;1.000000;,
  -1.000000;0.000000;0.000000;,
  -1.000000;0.000000;0.000000;,
  -1.000000;0.000000;0.000000;,
  -1.000000;0.000000;0.000000;,
  0.000000;1.000000;0.000000;,
  0.000000;1.000000;0.000000;,
  0.000000;1.000000;0.000000;,
  0.000000;1.000000;0.000000;,
  0.000000;-1.000000;0.000000;,
  0.000000;-1.000000;0.000000;,
  0.000000;-1.000000;0.000000;,
  0.000000;-1.000000;0.000000;,
  0.000000;0.000000;-1.000000;,
  0.000000;0.000000;-1.000000;,
  0.000000;0.000000;-1.000000;,
  0.000000;0.000000;-1.000000;,
  1.000000;0.000000;0.000000;,
  1.000000;0.000000;0.000000;,
  1.000000;0.000000;0.000000;,
  1.000000;0.000000;0.000000;,
  0.000000;0.000000;1.000000;,
  0.000000;0.000000;1.000000;,
  0.000000;0.000000;1.000000;,
  0.000000;0.000000;1.000000;,
  -1.000000;0.000000;0.000000;,
  -1.000000;0.000000;0.000000;,
  -1.000000;0.000000;0.000000;,
  -1.000000;0.000000;0.000000;,
  0.000000;1.000000;0.000000;,
  0.000000;1.000000;0.000000;,
  0.000000;1.000000;0.000000;,
  0.000000;1.000000;0.000000;,
  0.000000;-1.000000;0.000000;,
  0.000000;-1.000000;0.000000;,
  0.000000;-1.000000;0.000000;,
  0.000000;-1.000000;0.000000;,
  0.000000;0.000000;-1.000000;,
  0.000000;0.000000;-1.000000;,
  0.000000;0.000000;-1.000000;,
  0.000000;0.000000;-1.000000;,
  1.000000;0.000000;0.000000;,
  1.000000;0.000000;0.000000;,
  1.000000;0.000000;0.000000;,
  1.000000;0.000000;0.000000;,
  0.000000;0.000000;1.000000;,
  0.000000;0.000000;1.000000;,
  0.000000;0.000000;1.000000;,
  0.000000;0.000000;1.000000;,
  -1.000000;0.000000;0.000000;,
  -1.000000;0.000000;0.000000;,
  -1.000000;0.000000;0.000000;,
  -1.000000;0.000000;0.000000;,
  0.000000;1.000000;0.000000;,
  0.000000;1.000000;0.000000;,
  0.000000;1.000000;0.000000;,
  0.000000;1.000000;0.000000;,
  0.000000;-1.000000;0.000000;,
  0.000000;-1.000000;0.000000;,
  0.000000;-1.000000;0.000000;,
  0.000000;-1.000000;0.000000;,
  0.000000;0.000000;-1.000000;,
  0.000000;0.000000;-1.000000;,
  0.000000;0.000000;-1.000000;,
  0.000000;0.000000;-1.000000;,
  1.000000;0.000000;0.000000;,
  1.000000;0.000000;0.000000;,
  1.000000;0.000000;0.000000;,
  1.000000;0.000000;0.000000;,
  0.000000;0.000000;1.000000;,
  0.000000;0.000000;1.000000;,
  0.000000;0.000000;1.000000;,
  0.000000;0.000000;1.000000;,
  -1.000000;0.000000;0.000000;,
  -1.000000;0.000000;0.000000;,
  -1.000000;0.000000;0.000000;,
  -1.000000;0.000000;0.000000;,
  0.000000;1.000000;0.000000;,
  0.000000;1.000000;0.000000;,
  0.000000;1.000000;0.000000;,
  0.000000;1.000000;0.000000;,
  0.000000;-1.000000;0.000000;,
  0.000000;-1.000000;0.000000;,
  0.000000;-1.000000;0.000000;,
  0.000000;-1.000000;0.000000;,
  0.000000;0.000000;-1.000000;,
  0.000000;0.000000;-1.000000;,
  0.000000;0.000000;-1.000000;,
  0.000000;0.000000;-1.000000;,
  1.000000;0.000000;0.000000;,
  1.000000;0.000000;0.000000;,
  1.000000;0.000000;0.000000;,
  1.000000;0.000000;0.000000;,
  0.000000;0.000000;1.000000;,
  0.000000;0.000000;1.000000;,
  0.000000;0.000000;1.000000;,
  0.000000;0.000000;1.000000;,
  -1.000000;0.000000;0.000000;,
  -1.000000;0.000000;0.000000;,
  -1.000000;0.000000;0.000000;,
  -1.000000;0.000000;0.000000;,
  0.000000;1.000000;0.000000;,
  0.000000;1.000000;0.000000;,
  0.000000;1.000000;0.000000;,
  0.000000;1.000000;0.000000;,
  0.000000;-1.000000;0.000000;,
  0.000000;-1.000000;0.000000;,
  0.000000;-1.000000;0.000000;,
  0.000000;-1.000000;0.000000;,
  0.000000;0.000000;-1.000000;,
  0.000000;0.000000;-1.000000;,
  0.000000;0.000000;-1.000000;,
  0.000000;0.000000;-1.000000;,
  1.000000;0.000000;0.000000;,
  1.000000;0.000000;0.000000;,
  1.000000;0.000000;0.000000;,
  1.000000;0.000000;0.000000;,
  0.000000;0.000000;1.000000;,
  0.000000;0.000000;1.000000;,
  0.000000;0.000000;1.000000;,
  0.000000;0.000000;1.000000;,
  -1.000000;0.000000;0.000000;,
  -1.000000;0.000000;0.000000;,
  -1.000000;0.000000;0.000000;,
  -1.000000;0.000000;0.000000;,
  0.000000;1.000000;0.000000;,
  0.000000;1.000000;0.000000;,
  0.000000;1.000000;0.000000;,
  0.000000;1.000000;0.000000;,
  0.000000;-1.000000;0.000000;,
  0.000000;-1.000000;0.000000;,
  0.000000;-1.000000;0.000000;,
  0.000000;-1.000000;0.000000;,
  0.000000;0.000000;-1.000000;,
  0.000000;0.000000;-1.000000;,
  0.000000;0.000000;-1.000000;,
  0.000000;0.000000;-1.000000;,
  1.000000;0.000000;0.000000;,
  1.000000;0.000000;0.000000;,
  1.000000;0.000000;0.000000;,
  1.000000;0.000000;0.000000;,
  0.000000;0.000000;1.000000;,
  0.000000;0.000000;1.000000;,
  0.000000;0.000000;1.000000;,
  0.000000;0.000000;1.000000;,
  -1.000000;0.000000;0.000000;,
  -1.000000;0.000000;0.000000;,
  -1.000000;0.000000;0.000000;,
  -1.000000;0.000000;0.000000;,
  0.000000;1.000000;0.000000;,
  0.000000;1.000000;0.000000;,
  0.000000;1.000000;0.000000;,
  0.000000;1.000000;0.000000;,
  0.000000;-1.000000;0.000000;,
  0.000000;-1.000000;0.000000;,
  0.000000;-1.000000;0.000000;,
  0.000000;-1.000000;0.000000;,
  0.000000;0.000000;-1.000000;,
  0.000000;0.000000;-1.000000;,
  0.000000;0.000000;-1.000000;,
  0.000000;0.000000;-1.000000;,
  1.000000;0.000000;0.000000;,
  1.000000;0.000000;0.000000;,
  1.000000;0.000000;0.000000;,
  1.000000;0.000000;0.000000;,
  0.000000;0.000000;1.000000;,
  0.000000;0.000000;1.000000;,
  0.000000;0.000000;1.000000;,
  0.000000;0.000000;1.000000;,
  -1.000000;0.000000;0.000000;,
  -1.000000;0.000000;0.000000;,
  -1.000000;0.000000;0.000000;,
  -1.000000;0.000000;0.000000;,
  0.000000;1.000000;0.000000;,
  0.000000;1.000000;0.000000;,
  0.000000;1.000000;0.000000;,
  0.000000;1.000000;0.000000;,
  0.000000;-1.000000;0.000000;,
  0.000000;-1.000000;0.000000;,
  0.000000;-1.000000;0.000000;,
  0.000000;-1.000000;0.000000;,
  0.000000;0.000000;-1.000000;,
  0.000000;0.000000;-1.000000;,
  0.000000;0.000000;-1.000000;,
  0.000000;0.000000;-1.000000;,
  0.000000;0.000000;-1.000000;,
  0.000000;0.000000;-1.000000;,
  0.000000;0.000000;-1.000000;,
  0.000000;0.000000;-1.000000;,
  0.000000;0.000000;-1.000000;,
  0.000000;0.000000;-1.000000;,
  0.000000;0.000000;-1.000000;,
  0.000000;0.000000;-1.000000;,
  0.000000;0.000000;-1.000000;,
  0.000000;0.000000;-1.000000;,
  0.000000;0.000000;-1.000000;,
  0.000000;0.000000;-1.000000;,
  0.000000;0.000000;-1.000000;,
  0.000000;0.000000;-1.000000;,
  0.000000;0.000000;-1.000000;,
  0.000000;0.000000;-1.000000;,
  0.000000;0.000000;-1.000000;,
  0.000000;0.000000;-1.000000;,
  0.000000;0.000000;-1.000000;,
  0.000000;0.000000;-1.000000;,
  0.000000;0.000000;-1.000000;,
  0.000000;0.000000;-1.000000;,
  0.000000;0.000000;-1.000000;,
  0.000000;0.000000;-1.000000;,
  0.000000;0.000000;-1.000000;,
  0.000000;0.000000;-1.000000;,
  0.000000;0.000000;-1.000000;,
  0.000000;0.000000;-1.000000;,
  0.000000;1.000000;0.000000;,
  0.000000;1.000000;0.000000;,
  0.000000;1.000000;0.000000;,
  0.000000;1.000000;0.000000;;
  398;
  3;3,1,2;,
  3;3,0,1;,
  3;4,6,5;,
  3;4,7,6;,
  3;8,10,9;,
  3;8,11,10;,
  3;104,14,105;,
  3;104,15,14;,
  3;106,13,107;,
  3;106,12,13;,
  3;108,110,109;,
  3;108,111,110;,
  3;112,114,113;,
  3;112,115,114;,
  3;116,118,117;,
  3;116,119,118;,
  3;24,26,25;,
  3;24,27,26;,
  3;136,30,137;,
  3;136,31,30;,
  3;138,29,139;,
  3;138,28,29;,
  3;140,142,141;,
  3;140,143,142;,
  3;144,146,145;,
  3;144,147,146;,
  3;148,150,149;,
  3;148,151,150;,
  3;32,34,33;,
  3;32,35,34;,
  3;152,38,153;,
  3;152,39,38;,
  3;154,37,155;,
  3;154,36,37;,
  3;156,158,157;,
  3;156,159,158;,
  3;160,162,161;,
  3;160,163,162;,
  3;164,166,165;,
  3;164,167,166;,
  3;40,42,41;,
  3;40,43,42;,
  3;168,46,169;,
  3;168,47,46;,
  3;170,45,171;,
  3;170,44,45;,
  3;172,174,173;,
  3;172,175,174;,
  3;176,178,177;,
  3;176,179,178;,
  3;180,182,181;,
  3;180,183,182;,
  3;48,50,49;,
  3;48,51,50;,
  3;184,54,185;,
  3;184,55,54;,
  3;186,53,187;,
  3;186,52,53;,
  3;188,190,189;,
  3;188,191,190;,
  3;192,194,193;,
  3;192,195,194;,
  3;196,198,197;,
  3;196,199,198;,
  3;64,66,65;,
  3;64,67,66;,
  3;216,70,217;,
  3;216,71,70;,
  3;218,69,219;,
  3;218,68,69;,
  3;220,222,221;,
  3;220,223,222;,
  3;224,226,225;,
  3;224,227,226;,
  3;228,230,229;,
  3;228,231,230;,
  3;72,74,73;,
  3;72,75,74;,
  3;232,78,233;,
  3;232,79,78;,
  3;234,77,235;,
  3;234,76,77;,
  3;236,238,237;,
  3;236,239,238;,
  3;240,242,241;,
  3;240,243,242;,
  3;244,246,245;,
  3;244,247,246;,
  3;80,82,81;,
  3;80,83,82;,
  3;248,86,249;,
  3;248,87,86;,
  3;250,85,251;,
  3;250,84,85;,
  3;252,254,253;,
  3;252,255,254;,
  3;256,258,257;,
  3;256,259,258;,
  3;260,262,261;,
  3;260,263,262;,
  3;88,90,89;,
  3;88,91,90;,
  3;264,94,265;,
  3;264,95,94;,
  3;266,93,267;,
  3;266,92,93;,
  3;268,270,269;,
  3;268,271,270;,
  3;272,274,273;,
  3;272,275,274;,
  3;276,278,277;,
  3;276,279,278;,
  3;96,98,97;,
  3;96,99,98;,
  3;280,102,281;,
  3;280,103,102;,
  3;282,101,283;,
  3;282,100,101;,
  3;284,286,285;,
  3;284,287,286;,
  3;288,290,289;,
  3;288,291,290;,
  3;292,294,293;,
  3;292,295,294;,
  3;296,298,297;,
  3;297,298,299;,
  3;300,302,301;,
  3;301,302,303;,
  3;304,306,305;,
  3;305,306,307;,
  3;308,310,309;,
  3;309,310,311;,
  3;328,330,329;,
  3;329,330,331;,
  3;332,334,333;,
  3;333,334,335;,
  3;336,338,337;,
  3;337,338,339;,
  3;340,342,341;,
  3;341,342,343;,
  3;360,362,361;,
  3;361,362,363;,
  3;364,366,365;,
  3;365,366,367;,
  3;368,370,369;,
  3;369,370,371;,
  3;372,374,373;,
  3;373,374,375;,
  3;376,378,377;,
  3;377,378,379;,
  3;380,382,381;,
  3;381,382,383;,
  3;384,386,385;,
  3;385,386,387;,
  3;388,390,389;,
  3;389,390,391;,
  3;392,394,393;,
  3;393,394,395;,
  3;396,398,397;,
  3;397,398,399;,
  3;400,402,401;,
  3;401,402,403;,
  3;404,406,405;,
  3;405,406,407;,
  3;408,410,409;,
  3;409,410,411;,
  3;412,414,413;,
  3;413,414,415;,
  3;416,418,417;,
  3;417,418,419;,
  3;420,422,421;,
  3;421,422,423;,
  3;424,426,425;,
  3;424,427,426;,
  3;428,430,429;,
  3;428,431,430;,
  3;432,434,433;,
  3;432,435,434;,
  3;436,438,437;,
  3;436,439,438;,
  3;440,442,441;,
  3;440,443,442;,
  3;444,446,445;,
  3;444,447,446;,
  3;448,450,449;,
  3;448,451,450;,
  3;452,454,453;,
  3;452,455,454;,
  3;456,458,457;,
  3;456,459,458;,
  3;460,462,461;,
  3;460,463,462;,
  3;464,466,465;,
  3;464,467,466;,
  3;468,470,469;,
  3;468,471,470;,
  3;472,474,473;,
  3;472,475,474;,
  3;476,478,477;,
  3;476,479,478;,
  3;480,482,481;,
  3;480,483,482;,
  3;484,486,485;,
  3;484,487,486;,
  3;488,490,489;,
  3;488,491,490;,
  3;492,494,493;,
  3;492,495,494;,
  3;496,498,497;,
  3;496,499,498;,
  3;500,502,501;,
  3;500,503,502;,
  3;504,506,505;,
  3;504,507,506;,
  3;508,510,509;,
  3;508,511,510;,
  3;512,514,513;,
  3;512,515,514;,
  3;516,518,517;,
  3;516,519,518;,
  3;520,522,521;,
  3;520,523,522;,
  3;524,526,525;,
  3;524,527,526;,
  3;528,530,529;,
  3;528,531,530;,
  3;532,534,533;,
  3;532,535,534;,
  3;536,538,537;,
  3;536,539,538;,
  3;540,542,541;,
  3;540,543,542;,
  3;544,546,545;,
  3;544,547,546;,
  3;548,550,549;,
  3;548,551,550;,
  3;552,554,553;,
  3;552,555,554;,
  3;556,558,557;,
  3;556,559,558;,
  3;560,562,561;,
  3;560,563,562;,
  3;564,566,565;,
  3;564,567,566;,
  3;568,570,569;,
  3;568,571,570;,
  3;572,574,573;,
  3;572,575,574;,
  3;576,578,577;,
  3;576,579,578;,
  3;580,582,581;,
  3;580,583,582;,
  3;584,586,585;,
  3;584,587,586;,
  3;588,590,589;,
  3;588,591,590;,
  3;592,594,593;,
  3;592,595,594;,
  3;596,598,597;,
  3;596,599,598;,
  3;600,602,601;,
  3;600,603,602;,
  3;604,606,605;,
  3;604,607,606;,
  3;608,610,609;,
  3;608,611,610;,
  3;612,614,613;,
  3;612,615,614;,
  3;616,618,617;,
  3;616,619,618;,
  3;620,622,621;,
  3;620,623,622;,
  3;624,626,625;,
  3;624,627,626;,
  3;628,630,629;,
  3;628,631,630;,
  3;632,634,633;,
  3;632,635,634;,
  3;636,638,637;,
  3;636,639,638;,
  3;640,642,641;,
  3;640,643,642;,
  3;644,646,645;,
  3;644,647,646;,
  3;648,650,649;,
  3;648,651,650;,
  3;652,654,653;,
  3;652,655,654;,
  3;656,658,657;,
  3;656,659,658;,
  3;660,662,661;,
  3;660,663,662;,
  3;664,666,665;,
  3;664,667,666;,
  3;668,670,669;,
  3;668,671,670;,
  3;672,674,673;,
  3;672,675,674;,
  3;676,678,677;,
  3;676,679,678;,
  3;680,682,681;,
  3;680,683,682;,
  3;684,686,685;,
  3;684,687,686;,
  3;688,690,689;,
  3;688,691,690;,
  3;692,694,693;,
  3;692,695,694;,
  3;696,698,697;,
  3;696,699,698;,
  3;700,702,701;,
  3;700,703,702;,
  3;704,706,705;,
  3;704,707,706;,
  3;708,710,709;,
  3;708,711,710;,
  3;16,18,17;,
  3;16,19,18;,
  3;120,22,121;,
  3;120,23,22;,
  3;122,21,123;,
  3;122,20,21;,
  3;124,126,125;,
  3;124,127,126;,
  3;128,130,129;,
  3;128,131,130;,
  3;132,134,133;,
  3;132,135,134;,
  3;56,58,57;,
  3;56,59,58;,
  3;200,62,201;,
  3;200,63,62;,
  3;202,61,203;,
  3;202,60,61;,
  3;204,206,205;,
  3;204,207,206;,
  3;208,210,209;,
  3;208,211,210;,
  3;212,214,213;,
  3;212,215,214;,
  3;312,314,313;,
  3;313,314,315;,
  3;316,318,317;,
  3;317,318,319;,
  3;320,322,321;,
  3;321,322,323;,
  3;324,326,325;,
  3;325,326,327;,
  3;344,346,345;,
  3;345,346,347;,
  3;348,350,349;,
  3;349,350,351;,
  3;352,354,353;,
  3;353,354,355;,
  3;356,358,357;,
  3;357,358,359;,
  3;712,714,713;,
  3;712,715,714;,
  3;716,718,717;,
  3;716,719,718;,
  3;720,722,721;,
  3;720,723,722;,
  3;724,726,725;,
  3;724,727,726;,
  3;728,730,729;,
  3;728,731,730;,
  3;732,734,733;,
  3;732,735,734;,
  3;736,738,737;,
  3;736,739,738;,
  3;740,742,741;,
  3;740,743,742;,
  3;744,746,745;,
  3;744,747,746;,
  3;748,750,749;,
  3;748,751,750;,
  3;752,754,753;,
  3;752,755,754;,
  3;756,758,757;,
  3;756,759,758;,
  3;760,762,761;,
  3;761,762,763;,
  3;764,766,765;,
  3;765,766,767;,
  3;768,770,769;,
  3;769,770,771;,
  3;772,774,773;,
  3;773,774,775;,
  3;776,778,777;,
  3;777,778,779;,
  3;780,782,781;,
  3;781,782,783;,
  3;784,786,785;,
  3;785,786,787;,
  3;788,790,789;,
  3;789,790,791;,
  3;792,794,793;,
  3;792,795,794;;
 }

 MeshTextureCoords {
  796;
  10.000000;1.000000;,
  10.000000;0.000000;,
  0.000000;0.000000;,
  0.000000;1.000000;,
  10.000000;1.000000;,
  10.000000;0.000000;,
  0.000000;0.000000;,
  0.000000;1.000000;,
  0.000000;0.000000;,
  0.000000;0.000000;,
  0.000000;0.000000;,
  0.000000;0.000000;,
  0.000000;0.000000;,
  0.000000;0.000000;,
  0.000000;0.000000;,
  0.000000;0.000000;,
  0.000000;0.000000;,
  0.000000;0.000000;,
  0.000000;0.000000;,
  0.000000;0.000000;,
  0.000000;0.000000;,
  0.000000;0.000000;,
  0.000000;0.000000;,
  0.000000;0.000000;,
  0.000000;0.000000;,
  0.000000;0.000000;,
  0.000000;0.000000;,
  0.000000;0.000000;,
  0.000000;0.000000;,
  0.000000;0.000000;,
  0.000000;0.000000;,
  0.000000;0.000000;,
  0.000000;0.000000;,
  0.000000;0.000000;,
  0.000000;0.000000;,
  0.000000;0.000000;,
  0.000000;0.000000;,
  0.000000;0.000000;,
  0.000000;0.000000;,
  0.000000;0.000000;,
  0.000000;0.000000;,
  0.000000;0.000000;,
  0.000000;0.000000;,
  0.000000;0.000000;,
  0.000000;0.000000;,
  0.000000;0.000000;,
  0.000000;0.000000;,
  0.000000;0.000000;,
  0.000000;0.000000;,
  0.000000;0.000000;,
  0.000000;0.000000;,
  0.000000;0.000000;,
  0.000000;0.000000;,
  0.000000;0.000000;,
  0.000000;0.000000;,
  0.000000;0.000000;,
  0.000000;0.000000;,
  0.000000;0.000000;,
  0.000000;0.000000;,
  0.000000;0.000000;,
  0.000000;0.000000;,
  0.000000;0.000000;,
  0.000000;0.000000;,
  0.000000;0.000000;,
  0.000000;0.000000;,
  0.000000;0.000000;,
  0.000000;0.000000;,
  0.000000;0.000000;,
  0.000000;0.000000;,
  0.000000;0.000000;,
  0.000000;0.000000;,
  0.000000;0.000000;,
  0.000000;0.000000;,
  0.000000;0.000000;,
  0.000000;0.000000;,
  0.000000;0.000000;,
  0.000000;0.000000;,
  0.000000;0.000000;,
  0.000000;0.000000;,
  0.000000;0.000000;,
  0.000000;0.000000;,
  0.000000;0.000000;,
  0.000000;0.000000;,
  0.000000;0.000000;,
  0.000000;0.000000;,
  0.000000;0.000000;,
  0.000000;0.000000;,
  0.000000;0.000000;,
  0.000000;0.000000;,
  0.000000;0.000000;,
  0.000000;0.000000;,
  0.000000;0.000000;,
  0.000000;0.000000;,
  0.000000;0.000000;,
  0.000000;0.000000;,
  0.000000;0.000000;,
  0.000000;0.000000;,
  0.000000;0.000000;,
  0.000000;0.000000;,
  0.000000;0.000000;,
  0.000000;0.000000;,
  0.000000;0.000000;,
  0.000000;0.000000;,
  0.000000;0.000000;,
  0.000000;0.000000;,
  0.000000;0.000000;,
  0.000000;0.000000;,
  0.000000;0.000000;,
  0.000000;0.000000;,
  0.000000;0.000000;,
  0.000000;0.000000;,
  0.000000;0.000000;,
  0.000000;0.000000;,
  0.000000;0.000000;,
  0.000000;0.000000;,
  0.000000;0.000000;,
  0.000000;0.000000;,
  0.000000;0.000000;,
  0.000000;0.000000;,
  0.000000;0.000000;,
  0.000000;0.000000;,
  0.000000;0.000000;,
  0.000000;0.000000;,
  0.000000;0.000000;,
  0.000000;0.000000;,
  0.000000;0.000000;,
  0.000000;0.000000;,
  0.000000;0.000000;,
  0.000000;0.000000;,
  0.000000;0.000000;,
  0.000000;0.000000;,
  0.000000;0.000000;,
  0.000000;0.000000;,
  0.000000;0.000000;,
  0.000000;0.000000;,
  0.000000;0.000000;,
  0.000000;0.000000;,
  0.000000;0.000000;,
  0.000000;0.000000;,
  0.000000;0.000000;,
  0.000000;0.000000;,
  0.000000;0.000000;,
  0.000000;0.000000;,
  0.000000;0.000000;,
  0.000000;0.000000;,
  0.000000;0.000000;,
  0.000000;0.000000;,
  0.000000;0.000000;,
  0.000000;0.000000;,
  0.000000;0.000000;,
  0.000000;0.000000;,
  0.000000;0.000000;,
  0.000000;0.000000;,
  0.000000;0.000000;,
  0.000000;0.000000;,
  0.000000;0.000000;,
  0.000000;0.000000;,
  0.000000;0.000000;,
  0.000000;0.000000;,
  0.000000;0.000000;,
  0.000000;0.000000;,
  0.000000;0.000000;,
  0.000000;0.000000;,
  0.000000;0.000000;,
  0.000000;0.000000;,
  0.000000;0.000000;,
  0.000000;0.000000;,
  0.000000;0.000000;,
  0.000000;0.000000;,
  0.000000;0.000000;,
  0.000000;0.000000;,
  0.000000;0.000000;,
  0.000000;0.000000;,
  0.000000;0.000000;,
  0.000000;0.000000;,
  0.000000;0.000000;,
  0.000000;0.000000;,
  0.000000;0.000000;,
  0.000000;0.000000;,
  0.000000;0.000000;,
  0.000000;0.000000;,
  0.000000;0.000000;,
  0.000000;0.000000;,
  0.000000;0.000000;,
  0.000000;0.000000;,
  0.000000;0.000000;,
  0.000000;0.000000;,
  0.000000;0.000000;,
  0.000000;0.000000;,
  0.000000;0.000000;,
  0.000000;0.000000;,
  0.000000;0.000000;,
  0.000000;0.000000;,
  0.000000;0.000000;,
  0.000000;0.000000;,
  0.000000;0.000000;,
  0.000000;0.000000;,
  0.000000;0.000000;,
  0.000000;0.000000;,
  0.000000;0.000000;,
  0.000000;0.000000;,
  0.000000;0.000000;,
  0.000000;0.000000;,
  0.000000;0.000000;,
  0.000000;0.000000;,
  0.000000;0.000000;,
  0.000000;0.000000;,
  0.000000;0.000000;,
  0.000000;0.000000;,
  0.000000;0.000000;,
  0.000000;0.000000;,
  0.000000;0.000000;,
  0.000000;0.000000;,
  0.000000;0.000000;,
  0.000000;0.000000;,
  0.000000;0.000000;,
  0.000000;0.000000;,
  0.000000;0.000000;,
  0.000000;0.000000;,
  0.000000;0.000000;,
  0.000000;0.000000;,
  0.000000;0.000000;,
  0.000000;0.000000;,
  0.000000;0.000000;,
  0.000000;0.000000;,
  0.000000;0.000000;,
  0.000000;0.000000;,
  0.000000;0.000000;,
  0.000000;0.000000;,
  0.000000;0.000000;,
  0.000000;0.000000;,
  0.000000;0.000000;,
  0.000000;0.000000;,
  0.000000;0.000000;,
  0.000000;0.000000;,
  0.000000;0.000000;,
  0.000000;0.000000;,
  0.000000;0.000000;,
  0.000000;0.000000;,
  0.000000;0.000000;,
  0.000000;0.000000;,
  0.000000;0.000000;,
  0.000000;0.000000;,
  0.000000;0.000000;,
  0.000000;0.000000;,
  0.000000;0.000000;,
  0.000000;0.000000;,
  0.000000;0.000000;,
  0.000000;0.000000;,
  0.000000;0.000000;,
  0.000000;0.000000;,
  0.000000;0.000000;,
  0.000000;0.000000;,
  0.000000;0.000000;,
  0.000000;0.000000;,
  0.000000;0.000000;,
  0.000000;0.000000;,
  0.000000;0.000000;,
  0.000000;0.000000;,
  0.000000;0.000000;,
  0.000000;0.000000;,
  0.000000;0.000000;,
  0.000000;0.000000;,
  0.000000;0.000000;,
  0.000000;0.000000;,
  0.000000;0.000000;,
  0.000000;0.000000;,
  0.000000;0.000000;,
  0.000000;0.000000;,
  0.000000;0.000000;,
  0.000000;0.000000;,
  0.000000;0.000000;,
  0.000000;0.000000;,
  0.000000;0.000000;,
  0.000000;0.000000;,
  0.000000;0.000000;,
  0.000000;0.000000;,
  0.000000;0.000000;,
  0.000000;0.000000;,
  0.000000;0.000000;,
  0.000000;0.000000;,
  0.000000;0.000000;,
  0.000000;0.000000;,
  0.000000;0.000000;,
  0.000000;0.000000;,
  0.000000;0.000000;,
  0.000000;0.000000;,
  0.000000;0.000000;,
  0.000000;0.000000;,
  0.000000;0.000000;,
  0.000000;0.000000;,
  0.000000;0.000000;,
  0.000000;0.000000;,
  0.000000;0.000000;,
  0.000000;0.000000;,
  0.000000;0.000000;,
  0.000000;0.000000;,
  1.000000;0.000000;,
  0.000000;1.000000;,
  1.000000;1.000000;,
  0.000000;0.000000;,
  1.000000;0.000000;,
  0.000000;1.000000;,
  1.000000;1.000000;,
  0.000000;0.000000;,
  1.000000;0.000000;,
  0.000000;1.000000;,
  1.000000;1.000000;,
  0.000000;0.000000;,
  1.000000;0.000000;,
  0.000000;1.000000;,
  1.000000;1.000000;,
  0.000000;0.000000;,
  1.000000;0.000000;,
  0.000000;1.000000;,
  1.000000;1.000000;,
  0.000000;0.000000;,
  1.000000;0.000000;,
  0.000000;1.000000;,
  1.000000;1.000000;,
  0.000000;0.000000;,
  1.000000;0.000000;,
  0.000000;1.000000;,
  1.000000;1.000000;,
  0.000000;0.000000;,
  1.000000;0.000000;,
  0.000000;1.000000;,
  1.000000;1.000000;,
  0.000000;0.000000;,
  1.000000;0.000000;,
  0.000000;1.000000;,
  1.000000;1.000000;,
  0.000000;0.000000;,
  1.000000;0.000000;,
  0.000000;1.000000;,
  1.000000;1.000000;,
  0.000000;0.000000;,
  1.000000;0.000000;,
  0.000000;1.000000;,
  1.000000;1.000000;,
  0.000000;0.000000;,
  1.000000;0.000000;,
  0.000000;1.000000;,
  1.000000;1.000000;,
  0.000000;0.000000;,
  1.000000;0.000000;,
  0.000000;1.000000;,
  1.000000;1.000000;,
  0.000000;0.000000;,
  1.000000;0.000000;,
  0.000000;1.000000;,
  1.000000;1.000000;,
  0.000000;0.000000;,
  1.000000;0.000000;,
  0.000000;1.000000;,
  1.000000;1.000000;,
  0.000000;0.000000;,
  1.000000;0.000000;,
  0.000000;1.000000;,
  1.000000;1.000000;,
  0.000000;0.000000;,
  1.000000;0.000000;,
  0.000000;1.000000;,
  1.000000;1.000000;,
  0.000000;0.000000;,
  1.000000;0.000000;,
  0.000000;1.000000;,
  1.000000;1.000000;,
  0.000000;0.000000;,
  1.000000;0.000000;,
  0.000000;1.000000;,
  1.000000;1.000000;,
  0.000000;0.000000;,
  1.000000;0.000000;,
  0.000000;1.000000;,
  1.000000;1.000000;,
  0.000000;0.000000;,
  1.000000;0.000000;,
  0.000000;1.000000;,
  1.000000;1.000000;,
  0.000000;0.000000;,
  1.000000;0.000000;,
  0.000000;1.000000;,
  1.000000;1.000000;,
  0.000000;0.000000;,
  1.000000;0.000000;,
  0.000000;1.000000;,
  1.000000;1.000000;,
  0.000000;0.000000;,
  1.000000;0.000000;,
  0.000000;1.000000;,
  1.000000;1.000000;,
  0.000000;0.000000;,
  1.000000;0.000000;,
  0.000000;1.000000;,
  1.000000;1.000000;,
  0.000000;0.000000;,
  1.000000;0.000000;,
  0.000000;1.000000;,
  1.000000;1.000000;,
  0.000000;0.000000;,
  1.000000;0.000000;,
  0.000000;1.000000;,
  1.000000;1.000000;,
  0.000000;0.000000;,
  1.000000;0.000000;,
  0.000000;1.000000;,
  1.000000;1.000000;,
  0.000000;0.000000;,
  1.000000;0.000000;,
  0.000000;1.000000;,
  1.000000;1.000000;,
  0.000000;0.000000;,
  1.000000;0.000000;,
  0.000000;1.000000;,
  1.000000;1.000000;,
  0.000000;0.000000;,
  1.000000;0.000000;,
  0.000000;1.000000;,
  1.000000;1.000000;,
  0.000000;0.000000;,
  1.000000;0.000000;,
  0.000000;1.000000;,
  1.000000;1.000000;,
  0.000000;0.000000;,
  0.000000;0.000000;,
  0.000000;0.000000;,
  0.000000;0.000000;,
  0.000000;0.000000;,
  0.000000;0.000000;,
  0.000000;0.000000;,
  0.000000;0.000000;,
  0.000000;0.000000;,
  0.000000;0.000000;,
  0.000000;0.000000;,
  0.000000;0.000000;,
  0.000000;0.000000;,
  0.000000;0.000000;,
  0.000000;0.000000;,
  0.000000;0.000000;,
  0.000000;0.000000;,
  0.000000;0.000000;,
  0.000000;0.000000;,
  0.000000;0.000000;,
  0.000000;0.000000;,
  0.000000;0.000000;,
  0.000000;0.000000;,
  0.000000;0.000000;,
  0.000000;0.000000;,
  0.000000;0.000000;,
  0.000000;0.000000;,
  0.000000;0.000000;,
  0.000000;0.000000;,
  0.000000;0.000000;,
  0.000000;0.000000;,
  0.000000;0.000000;,
  0.000000;0.000000;,
  0.000000;0.000000;,
  0.000000;0.000000;,
  0.000000;0.000000;,
  0.000000;0.000000;,
  0.000000;0.000000;,
  0.000000;0.000000;,
  0.000000;0.000000;,
  0.000000;0.000000;,
  0.000000;0.000000;,
  0.000000;0.000000;,
  0.000000;0.000000;,
  0.000000;0.000000;,
  0.000000;0.000000;,
  0.000000;0.000000;,
  0.000000;0.000000;,
  0.000000;0.000000;,
  0.000000;0.000000;,
  0.000000;0.000000;,
  0.000000;0.000000;,
  0.000000;0.000000;,
  0.000000;0.000000;,
  0.000000;0.000000;,
  0.000000;0.000000;,
  0.000000;0.000000;,
  0.000000;0.000000;,
  0.000000;0.000000;,
  0.000000;0.000000;,
  0.000000;0.000000;,
  0.000000;0.000000;,
  0.000000;0.000000;,
  0.000000;0.000000;,
  0.000000;0.000000;,
  0.000000;0.000000;,
  0.000000;0.000000;,
  0.000000;0.000000;,
  0.000000;0.000000;,
  0.000000;0.000000;,
  0.000000;0.000000;,
  0.000000;0.000000;,
  0.000000;0.000000;,
  0.000000;0.000000;,
  0.000000;0.000000;,
  0.000000;0.000000;,
  0.000000;0.000000;,
  0.000000;0.000000;,
  0.000000;0.000000;,
  0.000000;0.000000;,
  0.000000;0.000000;,
  0.000000;0.000000;,
  0.000000;0.000000;,
  0.000000;0.000000;,
  0.000000;0.000000;,
  0.000000;0.000000;,
  0.000000;0.000000;,
  0.000000;0.000000;,
  0.000000;0.000000;,
  0.000000;0.000000;,
  0.000000;0.000000;,
  0.000000;0.000000;,
  0.000000;0.000000;,
  0.000000;0.000000;,
  0.000000;0.000000;,
  0.000000;0.000000;,
  0.000000;0.000000;,
  0.000000;0.000000;,
  0.000000;0.000000;,
  0.000000;0.000000;,
  0.000000;0.000000;,
  0.000000;0.000000;,
  0.000000;0.000000;,
  0.000000;0.000000;,
  0.000000;0.000000;,
  0.000000;0.000000;,
  0.000000;0.000000;,
  0.000000;0.000000;,
  0.000000;0.000000;,
  0.000000;0.000000;,
  0.000000;0.000000;,
  0.000000;0.000000;,
  0.000000;0.000000;,
  0.000000;0.000000;,
  0.000000;0.000000;,
  0.000000;0.000000;,
  0.000000;0.000000;,
  0.000000;0.000000;,
  0.000000;0.000000;,
  0.000000;0.000000;,
  0.000000;0.000000;,
  0.000000;0.000000;,
  0.000000;0.000000;,
  0.000000;0.000000;,
  0.000000;0.000000;,
  0.000000;0.000000;,
  0.000000;0.000000;,
  0.000000;0.000000;,
  0.000000;0.000000;,
  0.000000;0.000000;,
  0.000000;0.000000;,
  0.000000;0.000000;,
  0.000000;0.000000;,
  0.000000;0.000000;,
  0.000000;0.000000;,
  0.000000;0.000000;,
  0.000000;0.000000;,
  0.000000;0.000000;,
  0.000000;0.000000;,
  0.000000;0.000000;,
  0.000000;0.000000;,
  0.000000;0.000000;,
  0.000000;0.000000;,
  0.000000;0.000000;,
  0.000000;0.000000;,
  0.000000;0.000000;,
  0.000000;0.000000;,
  0.000000;0.000000;,
  0.000000;0.000000;,
  0.000000;0.000000;,
  0.000000;0.000000;,
  0.000000;0.000000;,
  0.000000;0.000000;,
  0.000000;0.000000;,
  0.000000;0.000000;,
  0.000000;0.000000;,
  0.000000;0.000000;,
  0.000000;0.000000;,
  0.000000;0.000000;,
  0.000000;0.000000;,
  0.000000;0.000000;,
  0.000000;0.000000;,
  0.000000;0.000000;,
  0.000000;0.000000;,
  0.000000;0.000000;,
  0.000000;0.000000;,
  0.000000;0.000000;,
  0.000000;0.000000;,
  0.000000;0.000000;,
  0.000000;0.000000;,
  0.000000;0.000000;,
  0.000000;0.000000;,
  0.000000;0.000000;,
  0.000000;0.000000;,
  0.000000;0.000000;,
  0.000000;0.000000;,
  0.000000;0.000000;,
  0.000000;0.000000;,
  0.000000;0.000000;,
  0.000000;0.000000;,
  0.000000;0.000000;,
  0.000000;0.000000;,
  0.000000;0.000000;,
  0.000000;0.000000;,
  0.000000;0.000000;,
  0.000000;0.000000;,
  0.000000;0.000000;,
  0.000000;0.000000;,
  0.000000;0.000000;,
  0.000000;0.000000;,
  0.000000;0.000000;,
  0.000000;0.000000;,
  0.000000;0.000000;,
  0.000000;0.000000;,
  0.000000;0.000000;,
  0.000000;0.000000;,
  0.000000;0.000000;,
  0.000000;0.000000;,
  0.000000;0.000000;,
  0.000000;0.000000;,
  0.000000;0.000000;,
  0.000000;0.000000;,
  0.000000;0.000000;,
  0.000000;0.000000;,
  0.000000;0.000000;,
  0.000000;0.000000;,
  0.000000;0.000000;,
  0.000000;0.000000;,
  0.000000;0.000000;,
  0.000000;0.000000;,
  0.000000;0.000000;,
  0.000000;0.000000;,
  0.000000;0.000000;,
  0.000000;0.000000;,
  0.000000;0.000000;,
  0.000000;0.000000;,
  0.000000;0.000000;,
  0.000000;0.000000;,
  0.000000;0.000000;,
  0.000000;0.000000;,
  0.000000;0.000000;,
  0.000000;0.000000;,
  0.000000;0.000000;,
  0.000000;0.000000;,
  0.000000;0.000000;,
  0.000000;0.000000;,
  0.000000;0.000000;,
  0.000000;0.000000;,
  0.000000;0.000000;,
  0.000000;0.000000;,
  0.000000;0.000000;,
  0.000000;0.000000;,
  0.000000;0.000000;,
  0.000000;0.000000;,
  0.000000;0.000000;,
  0.000000;0.000000;,
  0.000000;0.000000;,
  0.000000;0.000000;,
  0.000000;0.000000;,
  0.000000;0.000000;,
  0.000000;0.000000;,
  0.000000;0.000000;,
  0.000000;0.000000;,
  0.000000;0.000000;,
  0.000000;0.000000;,
  0.000000;0.000000;,
  0.000000;0.000000;,
  0.000000;0.000000;,
  0.000000;0.000000;,
  0.000000;0.000000;,
  0.000000;0.000000;,
  0.000000;0.000000;,
  0.000000;0.000000;,
  0.000000;0.000000;,
  0.000000;0.000000;,
  0.000000;0.000000;,
  0.000000;0.000000;,
  0.000000;0.000000;,
  0.000000;0.000000;,
  0.000000;0.000000;,
  0.000000;0.000000;,
  0.000000;0.000000;,
  0.000000;0.000000;,
  0.000000;0.000000;,
  0.000000;0.000000;,
  0.000000;0.000000;,
  0.000000;0.000000;,
  0.000000;0.000000;,
  0.000000;0.000000;,
  0.000000;0.000000;,
  0.000000;0.000000;,
  0.000000;0.000000;,
  0.000000;0.000000;,
  0.000000;0.000000;,
  0.000000;0.000000;,
  0.000000;0.000000;,
  0.000000;0.000000;,
  0.000000;0.000000;,
  0.000000;0.000000;,
  0.000000;0.000000;,
  0.000000;0.000000;,
  0.000000;0.000000;,
  0.000000;0.000000;,
  0.000000;0.000000;,
  0.000000;0.000000;,
  0.000000;0.000000;,
  0.000000;0.000000;,
  0.000000;0.000000;,
  0.000000;0.000000;,
  0.000000;0.000000;,
  0.000000;0.000000;,
  0.000000;0.000000;,
  0.000000;0.000000;,
  0.000000;0.000000;,
  0.000000;0.000000;,
  0.000000;0.000000;,
  0.000000;0.000000;,
  0.000000;0.000000;,
  0.000000;0.000000;,
  0.000000;0.000000;,
  0.000000;0.000000;,
  0.000000;0.000000;,
  0.000000;0.000000;,
  0.000000;0.000000;,
  0.000000;0.000000;,
  0.000000;0.000000;,
  0.000000;0.000000;,
  0.000000;0.000000;,
  0.000000;0.000000;,
  0.000000;0.000000;,
  0.000000;0.000000;,
  0.000000;0.000000;,
  0.000000;0.000000;,
  0.000000;0.000000;,
  0.000000;0.000000;,
  0.000000;0.000000;,
  0.000000;0.000000;,
  0.000000;0.000000;,
  0.000000;0.000000;,
  0.000000;0.000000;,
  0.000000;0.000000;,
  0.000000;0.000000;,
  0.000000;0.000000;,
  0.000000;0.000000;,
  0.000000;0.000000;,
  0.000000;0.000000;,
  0.000000;0.000000;,
  0.000000;0.000000;,
  0.000000;0.000000;,
  0.000000;0.000000;,
  0.000000;0.000000;,
  0.000000;0.000000;,
  0.000000;0.000000;,
  0.000000;0.000000;,
  0.000000;0.000000;,
  0.000000;0.000000;,
  0.000000;0.000000;,
  1.000000;0.000000;,
  0.000000;1.000000;,
  1.000000;1.000000;,
  0.000000;0.000000;,
  1.000000;0.000000;,
  0.000000;1.000000;,
  1.000000;1.000000;,
  0.000000;0.000000;,
  1.000000;0.000000;,
  0.000000;1.000000;,
  1.000000;1.000000;,
  0.000000;0.000000;,
  1.000000;0.000000;,
  0.000000;1.000000;,
  1.000000;1.000000;,
  0.000000;0.000000;,
  1.000000;0.000000;,
  0.000000;1.000000;,
  1.000000;1.000000;,
  0.000000;0.000000;,
  1.000000;0.000000;,
  0.000000;1.000000;,
  1.000000;1.000000;,
  0.000000;0.000000;,
  1.000000;0.000000;,
  0.000000;1.000000;,
  1.000000;1.000000;,
  0.000000;0.000000;,
  1.000000;0.000000;,
  0.000000;1.000000;,
  1.000000;1.000000;,
  1.000000;2.000000;,
  1.000000;0.000000;,
  0.000000;0.000000;,
  0.000000;2.000000;;
 }

 MeshMaterialList {
  3;
  398;
  0,
  0,
  0,
  0,
  1,
  1,
  1,
  1,
  1,
  1,
  1,
  1,
  1,
  1,
  1,
  1,
  1,
  1,
  1,
  1,
  1,
  1,
  1,
  1,
  1,
  1,
  1,
  1,
  1,
  1,
  1,
  1,
  1,
  1,
  1,
  1,
  1,
  1,
  1,
  1,
  1,
  1,
  1,
  1,
  1,
  1,
  1,
  1,
  1,
  1,
  1,
  1,
  1,
  1,
  1,
  1,
  1,
  1,
  1,
  1,
  1,
  1,
  1,
  1,
  1,
  1,
  1,
  1,
  1,
  1,
  1,
  1,
  1,
  1,
  1,
  1,
  1,
  1,
  1,
  1,
  1,
  1,
  1,
  1,
  1,
  1,
  1,
  1,
  1,
  1,
  1,
  1,
  1,
  1,
  1,
  1,
  1,
  1,
  1,
  1,
  1,
  1,
  1,
  1,
  1,
  1,
  1,
  1,
  1,
  1,
  1,
  1,
  1,
  1,
  1,
  1,
  1,
  1,
  1,
  1,
  1,
  1,
  1,
  1,
  1,
  1,
  1,
  1,
  1,
  1,
  1,
  1,
  1,
  1,
  1,
  1,
  1,
  1,
  1,
  1,
  1,
  1,
  1,
  1,
  1,
  1,
  1,
  1,
  1,
  1,
  1,
  1,
  1,
  1,
  1,
  1,
  1,
  1,
  1,
  1,
  1,
  1,
  1,
  1,
  1,
  1,
  1,
  1,
  1,
  1,
  1,
  1,
  1,
  1,
  1,
  1,
  1,
  1,
  1,
  1,
  1,
  1,
  1,
  1,
  1,
  1,
  1,
  1,
  1,
  1,
  1,
  1,
  1,
  1,
  1,
  1,
  1,
  1,
  1,
  1,
  1,
  1,
  1,
  1,
  1,
  1,
  1,
  1,
  1,
  1,
  1,
  1,
  1,
  1,
  1,
  1,
  1,
  1,
  1,
  1,
  1,
  1,
  1,
  1,
  1,
  1,
  1,
  1,
  1,
  1,
  1,
  1,
  1,
  1,
  1,
  1,
  1,
  1,
  1,
  1,
  1,
  1,
  1,
  1,
  1,
  1,
  1,
  1,
  1,
  1,
  1,
  1,
  1,
  1,
  1,
  1,
  1,
  1,
  1,
  1,
  1,
  1,
  1,
  1,
  1,
  1,
  1,
  1,
  1,
  1,
  1,
  1,
  1,
  1,
  1,
  1,
  1,
  1,
  1,
  1,
  1,
  1,
  1,
  1,
  1,
  1,
  1,
  1,
  1,
  1,
  1,
  1,
  1,
  1,
  1,
  1,
  1,
  1,
  1,
  1,
  1,
  1,
  1,
  1,
  1,
  1,
  1,
  1,
  1,
  1,
  1,
  1,
  1,
  1,
  1,
  1,
  1,
  1,
  1,
  1,
  1,
  1,
  1,
  1,
  1,
  1,
  1,
  1,
  1,
  1,
  1,
  1,
  1,
  1,
  1,
  1,
  1,
  1,
  1,
  1,
  1,
  1,
  1,
  1,
  1,
  1,
  1,
  1,
  1,
  1,
  1,
  1,
  1,
  1,
  1,
  1,
  1,
  1,
  1,
  1,
  1,
  1,
  1,
  1,
  1,
  1,
  1,
  1,
  1,
  1,
  1,
  1,
  1,
  1,
  1,
  1,
  1,
  1,
  1,
  1,
  1,
  1,
  1,
  1,
  1,
  1,
  1,
  1,
  1,
  1,
  1,
  1,
  1,
  1,
  1,
  1,
  2,
  2;

  Material {
   1.000000;1.000000;1.000000;1.000000;;
   0.000000;
   0.000000;0.000000;0.000000;;
   0.000000;0.000000;0.000000;;

   TextureFilename {
    "tk_b_03.dds";
   }
  }

  Material {
   0.270588;0.403922;0.270588;1.000000;;
   0.000000;
   0.000000;0.000000;0.000000;;
   0.000000;0.000000;0.000000;;
  }

  Material {
   1.000000;1.000000;1.000000;1.000000;;
   0.000000;
   0.000000;0.000000;0.000000;;
   0.000000;0.000000;0.000000;;

   TextureFilename {
    "tk_b_01.dds";
   }
  }
 }
}