xof 0303txt 0032
template Vector {
 <3d82ab5e-62da-11cf-ab39-0020af71e433>
 FLOAT x;
 FLOAT y;
 FLOAT z;
}

template MeshFace {
 <3d82ab5f-62da-11cf-ab39-0020af71e433>
 DWORD nFaceVertexIndices;
 array DWORD faceVertexIndices[nFaceVertexIndices];
}

template Mesh {
 <3d82ab44-62da-11cf-ab39-0020af71e433>
 DWORD nVertices;
 array Vector vertices[nVertices];
 DWORD nFaces;
 array MeshFace faces[nFaces];
 [...]
}

template MeshNormals {
 <f6f23f43-7686-11cf-8f52-0040333594a3>
 DWORD nNormals;
 array Vector normals[nNormals];
 DWORD nFaceNormals;
 array MeshFace faceNormals[nFaceNormals];
}

template Coords2d {
 <f6f23f44-7686-11cf-8f52-0040333594a3>
 FLOAT u;
 FLOAT v;
}

template MeshTextureCoords {
 <f6f23f40-7686-11cf-8f52-0040333594a3>
 DWORD nTextureCoords;
 array Coords2d textureCoords[nTextureCoords];
}

template ColorRGBA {
 <35ff44e0-6c7c-11cf-8f52-0040333594a3>
 FLOAT red;
 FLOAT green;
 FLOAT blue;
 FLOAT alpha;
}

template ColorRGB {
 <d3e16e81-7835-11cf-8f52-0040333594a3>
 FLOAT red;
 FLOAT green;
 FLOAT blue;
}

template Material {
 <3d82ab4d-62da-11cf-ab39-0020af71e433>
 ColorRGBA faceColor;
 FLOAT power;
 ColorRGB specularColor;
 ColorRGB emissiveColor;
 [...]
}

template MeshMaterialList {
 <f6f23f42-7686-11cf-8f52-0040333594a3>
 DWORD nMaterials;
 DWORD nFaceIndexes;
 array DWORD faceIndexes[nFaceIndexes];
 [Material <3d82ab4d-62da-11cf-ab39-0020af71e433>]
}

template TextureFilename {
 <a42790e1-7810-11cf-8f52-0040333594a3>
 STRING filename;
}


Mesh {
 212;
 -0.600000;-1.400000;5.000000;,
 -0.600000;-0.300000;5.000000;,
 -0.600000;-0.300000;0.000000;,
 -0.600000;-1.400000;0.000000;,
 0.600000;-1.400000;5.000000;,
 0.600000;-0.300000;5.000000;,
 0.600000;-0.300000;0.000000;,
 0.600000;-1.400000;0.000000;,
 1.000000;-0.150000;4.960000;,
 1.000000;-0.350000;4.960000;,
 2.200000;-0.350000;4.960000;,
 2.200000;-0.150000;4.960000;,
 1.000000;-0.150000;5.039999;,
 1.000000;-0.350000;5.039999;,
 2.200000;-0.350000;5.039999;,
 2.200000;-0.150000;5.039999;,
 2.200000;-0.150000;4.960000;,
 2.200000;-0.350000;4.960000;,
 2.200000;-0.150000;5.039999;,
 2.200000;-0.350000;5.039999;,
 1.000000;-0.150000;5.039999;,
 1.000000;-0.350000;5.039999;,
 1.000000;-0.350000;4.960000;,
 1.000000;-0.150000;4.960000;,
 1.000000;-0.150000;4.960000;,
 2.200000;-0.150000;4.960000;,
 2.200000;-0.150000;5.039999;,
 1.000000;-0.150000;5.039999;,
 1.000000;-0.350000;4.960000;,
 1.000000;-0.350000;5.039999;,
 2.200000;-0.350000;5.039999;,
 2.200000;-0.350000;4.960000;,
 1.000000;-0.150000;2.460000;,
 1.000000;-0.350000;2.460000;,
 2.200000;-0.350000;2.460000;,
 2.200000;-0.150000;2.460000;,
 1.000000;-0.150000;2.540000;,
 1.000000;-0.350000;2.540000;,
 2.200000;-0.350000;2.540000;,
 2.200000;-0.150000;2.540000;,
 2.200000;-0.150000;2.460000;,
 2.200000;-0.350000;2.460000;,
 2.200000;-0.150000;2.540000;,
 2.200000;-0.350000;2.540000;,
 1.000000;-0.150000;2.540000;,
 1.000000;-0.350000;2.540000;,
 1.000000;-0.350000;2.460000;,
 1.000000;-0.150000;2.460000;,
 1.000000;-0.150000;2.460000;,
 2.200000;-0.150000;2.460000;,
 2.200000;-0.150000;2.540000;,
 1.000000;-0.150000;2.540000;,
 1.000000;-0.350000;2.460000;,
 1.000000;-0.350000;2.540000;,
 2.200000;-0.350000;2.540000;,
 2.200000;-0.350000;2.460000;,
 1.000000;-0.150000;-0.040000;,
 1.000000;-0.350000;-0.040000;,
 2.200000;-0.350000;-0.040000;,
 2.200000;-0.150000;-0.040000;,
 1.000000;-0.150000;0.040000;,
 1.000000;-0.350000;0.040000;,
 2.200000;-0.350000;0.040000;,
 2.200000;-0.150000;0.040000;,
 2.200000;-0.150000;-0.040000;,
 2.200000;-0.350000;-0.040000;,
 2.200000;-0.150000;0.040000;,
 2.200000;-0.350000;0.040000;,
 1.000000;-0.150000;0.040000;,
 1.000000;-0.350000;0.040000;,
 1.000000;-0.350000;-0.040000;,
 1.000000;-0.150000;-0.040000;,
 1.000000;-0.150000;-0.040000;,
 2.200000;-0.150000;-0.040000;,
 2.200000;-0.150000;0.040000;,
 1.000000;-0.150000;0.040000;,
 1.000000;-0.350000;-0.040000;,
 1.000000;-0.350000;0.040000;,
 2.200000;-0.350000;0.040000;,
 2.200000;-0.350000;-0.040000;,
 2.120000;1.000000;5.099998;,
 2.200000;1.000000;5.099998;,
 2.200000;1.000000;5.099998;,
 2.120000;1.000000;5.099998;,
 2.120000;1.000000;7.460000;,
 2.200000;1.000000;7.460000;,
 2.200000;1.000000;7.539999;,
 2.120000;1.000000;7.539999;,
 2.120000;1.000000;4.960000;,
 2.120000;-0.300000;4.960000;,
 2.200000;-0.300000;4.960000;,
 2.200000;1.000000;4.960000;,
 2.120000;1.000000;5.039999;,
 2.120000;-0.300000;5.039999;,
 2.200000;-0.300000;5.039999;,
 2.200000;1.000000;5.039999;,
 2.200000;1.000000;4.960000;,
 2.200000;-0.300000;4.960000;,
 2.200000;1.000000;5.039999;,
 2.200000;-0.300000;5.039999;,
 2.120000;1.000000;5.039999;,
 2.120000;-0.300000;5.039999;,
 2.120000;-0.300000;4.960000;,
 2.120000;1.000000;4.960000;,
 2.120000;1.000000;4.960000;,
 2.200000;1.000000;4.960000;,
 2.200000;1.000000;5.039999;,
 2.120000;1.000000;5.039999;,
 2.120000;-0.300000;4.960000;,
 2.120000;-0.300000;5.039999;,
 2.200000;-0.300000;5.039999;,
 2.200000;-0.300000;4.960000;,
 2.120000;1.000000;2.460000;,
 2.120000;-0.300000;2.460000;,
 2.200000;-0.300000;2.460000;,
 2.200000;1.000000;2.460000;,
 2.120000;1.000000;2.540000;,
 2.120000;-0.300000;2.540000;,
 2.200000;-0.300000;2.540000;,
 2.200000;1.000000;2.540000;,
 2.200000;1.000000;2.460000;,
 2.200000;-0.300000;2.460000;,
 2.200000;1.000000;2.540000;,
 2.200000;-0.300000;2.540000;,
 2.120000;1.000000;2.540000;,
 2.120000;-0.300000;2.540000;,
 2.120000;-0.300000;2.460000;,
 2.120000;1.000000;2.460000;,
 2.120000;1.000000;2.460000;,
 2.200000;1.000000;2.460000;,
 2.200000;1.000000;2.540000;,
 2.120000;1.000000;2.540000;,
 2.120000;-0.300000;2.460000;,
 2.120000;-0.300000;2.540000;,
 2.200000;-0.300000;2.540000;,
 2.200000;-0.300000;2.460000;,
 2.120000;1.000000;-0.040000;,
 2.120000;-0.300000;-0.040000;,
 2.200000;-0.300000;-0.040000;,
 2.200000;1.000000;-0.040000;,
 2.120000;1.000000;0.040000;,
 2.120000;-0.300000;0.040000;,
 2.200000;-0.300000;0.040000;,
 2.200000;1.000000;0.040000;,
 2.200000;1.000000;-0.040000;,
 2.200000;-0.300000;-0.040000;,
 2.200000;1.000000;0.040000;,
 2.200000;-0.300000;0.040000;,
 2.120000;1.000000;0.040000;,
 2.120000;-0.300000;0.040000;,
 2.120000;-0.300000;-0.040000;,
 2.120000;1.000000;-0.040000;,
 2.120000;1.000000;-0.040000;,
 2.200000;1.000000;-0.040000;,
 2.200000;1.000000;0.040000;,
 2.120000;1.000000;0.040000;,
 2.120000;-0.300000;-0.040000;,
 2.120000;-0.300000;0.040000;,
 2.200000;-0.300000;0.040000;,
 2.200000;-0.300000;-0.040000;,
 2.120000;1.040000;-0.100000;,
 2.120000;0.960000;-0.100000;,
 2.200000;0.960000;-0.100000;,
 2.200000;1.040000;-0.100000;,
 2.120000;1.040000;5.099998;,
 2.120000;0.960000;5.099998;,
 2.200000;0.960000;5.099998;,
 2.200000;1.040000;5.099998;,
 2.200000;1.040000;-0.100000;,
 2.200000;0.960000;-0.100000;,
 2.200000;1.040000;5.000000;,
 2.200000;0.960000;5.000000;,
 2.120000;1.040000;5.000000;,
 2.120000;0.960000;5.000000;,
 2.120000;0.960000;-0.100000;,
 2.120000;1.040000;-0.100000;,
 2.120000;1.040000;-0.100000;,
 2.200000;1.040000;-0.100000;,
 2.200000;1.040000;5.000000;,
 2.120000;1.040000;5.000000;,
 2.120000;0.960000;-0.100000;,
 2.120000;0.960000;5.000000;,
 2.200000;0.960000;5.000000;,
 2.200000;0.960000;-0.100000;,
 2.135000;0.325000;0.000000;,
 2.135000;0.275000;0.000000;,
 2.185000;0.275000;0.000000;,
 2.185000;0.325000;0.000000;,
 2.135000;0.325000;5.000000;,
 2.135000;0.275000;5.000000;,
 2.185000;0.275000;5.000000;,
 2.185000;0.325000;5.000000;,
 2.185000;0.325000;0.000000;,
 2.185000;0.275000;0.000000;,
 2.185000;0.325000;5.000000;,
 2.185000;0.275000;5.000000;,
 2.135000;0.325000;5.000000;,
 2.135000;0.275000;5.000000;,
 2.135000;0.275000;0.000000;,
 2.135000;0.325000;0.000000;,
 2.135000;0.325000;0.000000;,
 2.185000;0.325000;0.000000;,
 2.185000;0.325000;5.000000;,
 2.135000;0.325000;5.000000;,
 2.135000;0.275000;0.000000;,
 2.135000;0.275000;5.000000;,
 2.185000;0.275000;5.000000;,
 2.185000;0.275000;0.000000;,
 2.100000;-0.050000;0.000000;,
 2.100000;-0.050000;5.000000;,
 1.350000;-0.050000;5.000000;,
 1.350000;-0.050000;0.000000;;
 106;
 3;3,1,2;,
 3;3,0,1;,
 3;4,6,5;,
 3;4,7,6;,
 3;8,10,9;,
 3;8,11,10;,
 3;16,14,17;,
 3;16,15,14;,
 3;18,13,19;,
 3;18,12,13;,
 3;20,22,21;,
 3;20,23,22;,
 3;24,26,25;,
 3;24,27,26;,
 3;28,30,29;,
 3;28,31,30;,
 3;32,34,33;,
 3;32,35,34;,
 3;40,38,41;,
 3;40,39,38;,
 3;42,37,43;,
 3;42,36,37;,
 3;44,46,45;,
 3;44,47,46;,
 3;48,50,49;,
 3;48,51,50;,
 3;52,54,53;,
 3;52,55,54;,
 3;56,58,57;,
 3;56,59,58;,
 3;64,62,65;,
 3;64,63,62;,
 3;66,61,67;,
 3;66,60,61;,
 3;68,70,69;,
 3;68,71,70;,
 3;72,74,73;,
 3;72,75,74;,
 3;76,78,77;,
 3;76,79,78;,
 3;80,82,81;,
 3;80,83,82;,
 3;84,86,85;,
 3;84,87,86;,
 3;88,90,89;,
 3;88,91,90;,
 3;96,94,97;,
 3;96,95,94;,
 3;98,93,99;,
 3;98,92,93;,
 3;100,102,101;,
 3;100,103,102;,
 3;104,106,105;,
 3;104,107,106;,
 3;108,110,109;,
 3;108,111,110;,
 3;112,114,113;,
 3;112,115,114;,
 3;120,118,121;,
 3;120,119,118;,
 3;122,117,123;,
 3;122,116,117;,
 3;124,126,125;,
 3;124,127,126;,
 3;128,130,129;,
 3;128,131,130;,
 3;132,134,133;,
 3;132,135,134;,
 3;136,138,137;,
 3;136,139,138;,
 3;144,142,145;,
 3;144,143,142;,
 3;146,141,147;,
 3;146,140,141;,
 3;148,150,149;,
 3;148,151,150;,
 3;152,154,153;,
 3;152,155,154;,
 3;156,158,157;,
 3;156,159,158;,
 3;160,162,161;,
 3;160,163,162;,
 3;168,166,169;,
 3;168,167,166;,
 3;170,165,171;,
 3;170,164,165;,
 3;172,174,173;,
 3;172,175,174;,
 3;176,178,177;,
 3;176,179,178;,
 3;180,182,181;,
 3;180,183,182;,
 3;184,186,185;,
 3;184,187,186;,
 3;192,190,193;,
 3;192,191,190;,
 3;194,189,195;,
 3;194,188,189;,
 3;196,198,197;,
 3;196,199,198;,
 3;200,202,201;,
 3;200,203,202;,
 3;204,206,205;,
 3;204,207,206;,
 3;208,210,209;,
 3;208,211,210;;

 MeshNormals {
  212;
  -1.000000;0.000000;0.000000;,
  -1.000000;0.000000;0.000000;,
  -1.000000;0.000000;0.000000;,
  -1.000000;0.000000;0.000000;,
  1.000000;0.000000;0.000000;,
  1.000000;0.000000;0.000000;,
  1.000000;0.000000;0.000000;,
  1.000000;0.000000;0.000000;,
  0.000000;0.000000;-1.000000;,
  0.000000;0.000000;-1.000000;,
  0.000000;0.000000;-1.000000;,
  0.000000;0.000000;-1.000000;,
  0.000000;0.000000;1.000000;,
  0.000000;0.000000;1.000000;,
  1.000000;0.000000;0.000000;,
  1.000000;0.000000;0.000000;,
  1.000000;0.000000;0.000000;,
  1.000000;0.000000;0.000000;,
  0.000000;0.000000;1.000000;,
  0.000000;0.000000;1.000000;,
  -1.000000;0.000000;0.000000;,
  -1.000000;0.000000;0.000000;,
  -1.000000;0.000000;0.000000;,
  -1.000000;0.000000;0.000000;,
  0.000000;1.000000;0.000000;,
  0.000000;1.000000;0.000000;,
  0.000000;1.000000;0.000000;,
  0.000000;1.000000;0.000000;,
  0.000000;-1.000000;0.000000;,
  0.000000;-1.000000;0.000000;,
  0.000000;-1.000000;0.000000;,
  0.000000;-1.000000;0.000000;,
  0.000000;0.000000;-1.000000;,
  0.000000;0.000000;-1.000000;,
  0.000000;0.000000;-1.000000;,
  0.000000;0.000000;-1.000000;,
  0.000000;0.000000;1.000000;,
  0.000000;0.000000;1.000000;,
  1.000000;0.000000;0.000000;,
  1.000000;0.000000;0.000000;,
  1.000000;0.000000;0.000000;,
  1.000000;0.000000;0.000000;,
  0.000000;0.000000;1.000000;,
  0.000000;0.000000;1.000000;,
  -1.000000;0.000000;0.000000;,
  -1.000000;0.000000;0.000000;,
  -1.000000;0.000000;0.000000;,
  -1.000000;0.000000;0.000000;,
  0.000000;1.000000;0.000000;,
  0.000000;1.000000;0.000000;,
  0.000000;1.000000;0.000000;,
  0.000000;1.000000;0.000000;,
  0.000000;-1.000000;0.000000;,
  0.000000;-1.000000;0.000000;,
  0.000000;-1.000000;0.000000;,
  0.000000;-1.000000;0.000000;,
  0.000000;0.000000;-1.000000;,
  0.000000;0.000000;-1.000000;,
  0.000000;0.000000;-1.000000;,
  0.000000;0.000000;-1.000000;,
  0.000000;0.000000;1.000000;,
  0.000000;0.000000;1.000000;,
  1.000000;0.000000;0.000000;,
  1.000000;0.000000;0.000000;,
  1.000000;0.000000;0.000000;,
  1.000000;0.000000;0.000000;,
  0.000000;0.000000;1.000000;,
  0.000000;0.000000;1.000000;,
  -1.000000;0.000000;0.000000;,
  -1.000000;0.000000;0.000000;,
  -1.000000;0.000000;0.000000;,
  -1.000000;0.000000;0.000000;,
  0.000000;1.000000;0.000000;,
  0.000000;1.000000;0.000000;,
  0.000000;1.000000;0.000000;,
  0.000000;1.000000;0.000000;,
  0.000000;-1.000000;0.000000;,
  0.000000;-1.000000;0.000000;,
  0.000000;-1.000000;0.000000;,
  0.000000;-1.000000;0.000000;,
  0.000000;1.000000;0.000000;,
  0.000000;1.000000;0.000000;,
  0.000000;1.000000;0.000000;,
  0.000000;1.000000;0.000000;,
  0.000000;1.000000;0.000000;,
  0.000000;1.000000;0.000000;,
  0.000000;1.000000;0.000000;,
  0.000000;1.000000;0.000000;,
  0.000000;0.000000;-1.000000;,
  0.000000;0.000000;-1.000000;,
  0.000000;0.000000;-1.000000;,
  0.000000;0.000000;-1.000000;,
  0.000000;0.000000;1.000000;,
  0.000000;0.000000;1.000000;,
  1.000000;0.000000;0.000000;,
  1.000000;0.000000;0.000000;,
  1.000000;0.000000;0.000000;,
  1.000000;0.000000;0.000000;,
  0.000000;0.000000;1.000000;,
  0.000000;0.000000;1.000000;,
  -1.000000;0.000000;0.000000;,
  -1.000000;0.000000;0.000000;,
  -1.000000;0.000000;0.000000;,
  -1.000000;0.000000;0.000000;,
  0.000000;1.000000;0.000000;,
  0.000000;1.000000;0.000000;,
  0.000000;1.000000;0.000000;,
  0.000000;1.000000;0.000000;,
  0.000000;-1.000000;0.000000;,
  0.000000;-1.000000;0.000000;,
  0.000000;-1.000000;0.000000;,
  0.000000;-1.000000;0.000000;,
  0.000000;0.000000;-1.000000;,
  0.000000;0.000000;-1.000000;,
  0.000000;0.000000;-1.000000;,
  0.000000;0.000000;-1.000000;,
  0.000000;0.000000;1.000000;,
  0.000000;0.000000;1.000000;,
  1.000000;0.000000;0.000000;,
  1.000000;0.000000;0.000000;,
  1.000000;0.000000;0.000000;,
  1.000000;0.000000;0.000000;,
  0.000000;0.000000;1.000000;,
  0.000000;0.000000;1.000000;,
  -1.000000;0.000000;0.000000;,
  -1.000000;0.000000;0.000000;,
  -1.000000;0.000000;0.000000;,
  -1.000000;0.000000;0.000000;,
  0.000000;1.000000;0.000000;,
  0.000000;1.000000;0.000000;,
  0.000000;1.000000;0.000000;,
  0.000000;1.000000;0.000000;,
  0.000000;-1.000000;0.000000;,
  0.000000;-1.000000;0.000000;,
  0.000000;-1.000000;0.000000;,
  0.000000;-1.000000;0.000000;,
  0.000000;0.000000;-1.000000;,
  0.000000;0.000000;-1.000000;,
  0.000000;0.000000;-1.000000;,
  0.000000;0.000000;-1.000000;,
  0.000000;0.000000;1.000000;,
  0.000000;0.000000;1.000000;,
  1.000000;0.000000;0.000000;,
  1.000000;0.000000;0.000000;,
  1.000000;0.000000;0.000000;,
  1.000000;0.000000;0.000000;,
  0.000000;0.000000;1.000000;,
  0.000000;0.000000;1.000000;,
  -1.000000;0.000000;0.000000;,
  -1.000000;0.000000;0.000000;,
  -1.000000;0.000000;0.000000;,
  -1.000000;0.000000;0.000000;,
  0.000000;1.000000;0.000000;,
  0.000000;1.000000;0.000000;,
  0.000000;1.000000;0.000000;,
  0.000000;1.000000;0.000000;,
  0.000000;-1.000000;0.000000;,
  0.000000;-1.000000;0.000000;,
  0.000000;-1.000000;0.000000;,
  0.000000;-1.000000;0.000000;,
  0.000000;0.000000;-1.000000;,
  0.000000;0.000000;-1.000000;,
  0.000000;0.000000;-1.000000;,
  0.000000;0.000000;-1.000000;,
  0.000000;0.000000;1.000000;,
  0.000000;0.000000;1.000000;,
  1.000000;0.000000;0.000000;,
  1.000000;0.000000;0.000000;,
  1.000000;0.000000;0.000000;,
  1.000000;0.000000;0.000000;,
  0.000000;0.000000;1.000000;,
  0.000000;0.000000;1.000000;,
  -1.000000;0.000000;0.000000;,
  -1.000000;0.000000;0.000000;,
  -1.000000;0.000000;0.000000;,
  -1.000000;0.000000;0.000000;,
  0.000000;1.000000;0.000000;,
  0.000000;1.000000;0.000000;,
  0.000000;1.000000;0.000000;,
  0.000000;1.000000;0.000000;,
  0.000000;-1.000000;0.000000;,
  0.000000;-1.000000;0.000000;,
  0.000000;-1.000000;0.000000;,
  0.000000;-1.000000;0.000000;,
  0.000000;0.000000;-1.000000;,
  0.000000;0.000000;-1.000000;,
  0.000000;0.000000;-1.000000;,
  0.000000;0.000000;-1.000000;,
  0.000000;0.000000;1.000000;,
  0.000000;0.000000;1.000000;,
  1.000000;0.000000;0.000000;,
  1.000000;0.000000;0.000000;,
  1.000000;0.000000;0.000000;,
  1.000000;0.000000;0.000000;,
  0.000000;0.000000;1.000000;,
  0.000000;0.000000;1.000000;,
  -1.000000;0.000000;0.000000;,
  -1.000000;0.000000;0.000000;,
  -1.000000;0.000000;0.000000;,
  -1.000000;0.000000;0.000000;,
  0.000000;1.000000;0.000000;,
  0.000000;1.000000;0.000000;,
  0.000000;1.000000;0.000000;,
  0.000000;1.000000;0.000000;,
  0.000000;-1.000000;0.000000;,
  0.000000;-1.000000;0.000000;,
  0.000000;-1.000000;0.000000;,
  0.000000;-1.000000;0.000000;,
  0.000000;1.000000;0.000000;,
  0.000000;1.000000;0.000000;,
  0.000000;1.000000;0.000000;,
  0.000000;1.000000;0.000000;;
  106;
  3;3,1,2;,
  3;3,0,1;,
  3;4,6,5;,
  3;4,7,6;,
  3;8,10,9;,
  3;8,11,10;,
  3;16,14,17;,
  3;16,15,14;,
  3;18,13,19;,
  3;18,12,13;,
  3;20,22,21;,
  3;20,23,22;,
  3;24,26,25;,
  3;24,27,26;,
  3;28,30,29;,
  3;28,31,30;,
  3;32,34,33;,
  3;32,35,34;,
  3;40,38,41;,
  3;40,39,38;,
  3;42,37,43;,
  3;42,36,37;,
  3;44,46,45;,
  3;44,47,46;,
  3;48,50,49;,
  3;48,51,50;,
  3;52,54,53;,
  3;52,55,54;,
  3;56,58,57;,
  3;56,59,58;,
  3;64,62,65;,
  3;64,63,62;,
  3;66,61,67;,
  3;66,60,61;,
  3;68,70,69;,
  3;68,71,70;,
  3;72,74,73;,
  3;72,75,74;,
  3;76,78,77;,
  3;76,79,78;,
  3;80,82,81;,
  3;80,83,82;,
  3;84,86,85;,
  3;84,87,86;,
  3;88,90,89;,
  3;88,91,90;,
  3;96,94,97;,
  3;96,95,94;,
  3;98,93,99;,
  3;98,92,93;,
  3;100,102,101;,
  3;100,103,102;,
  3;104,106,105;,
  3;104,107,106;,
  3;108,110,109;,
  3;108,111,110;,
  3;112,114,113;,
  3;112,115,114;,
  3;120,118,121;,
  3;120,119,118;,
  3;122,117,123;,
  3;122,116,117;,
  3;124,126,125;,
  3;124,127,126;,
  3;128,130,129;,
  3;128,131,130;,
  3;132,134,133;,
  3;132,135,134;,
  3;136,138,137;,
  3;136,139,138;,
  3;144,142,145;,
  3;144,143,142;,
  3;146,141,147;,
  3;146,140,141;,
  3;148,150,149;,
  3;148,151,150;,
  3;152,154,153;,
  3;152,155,154;,
  3;156,158,157;,
  3;156,159,158;,
  3;160,162,161;,
  3;160,163,162;,
  3;168,166,169;,
  3;168,167,166;,
  3;170,165,171;,
  3;170,164,165;,
  3;172,174,173;,
  3;172,175,174;,
  3;176,178,177;,
  3;176,179,178;,
  3;180,182,181;,
  3;180,183,182;,
  3;184,186,185;,
  3;184,187,186;,
  3;192,190,193;,
  3;192,191,190;,
  3;194,189,195;,
  3;194,188,189;,
  3;196,198,197;,
  3;196,199,198;,
  3;200,202,201;,
  3;200,203,202;,
  3;204,206,205;,
  3;204,207,206;,
  3;208,210,209;,
  3;208,211,210;;
 }

 MeshTextureCoords {
  212;
  2.000000;1.000000;,
  2.000000;0.000000;,
  0.000000;0.000000;,
  0.000000;1.000000;,
  2.000000;1.000000;,
  2.000000;0.000000;,
  0.000000;0.000000;,
  0.000000;1.000000;,
  0.000000;0.000000;,
  0.000000;0.000000;,
  0.000000;0.000000;,
  0.000000;0.000000;,
  0.000000;0.000000;,
  0.000000;0.000000;,
  0.000000;0.000000;,
  0.000000;0.000000;,
  0.000000;0.000000;,
  0.000000;0.000000;,
  0.000000;0.000000;,
  0.000000;0.000000;,
  0.000000;0.000000;,
  0.000000;0.000000;,
  0.000000;0.000000;,
  0.000000;0.000000;,
  0.000000;0.000000;,
  0.000000;0.000000;,
  0.000000;0.000000;,
  0.000000;0.000000;,
  0.000000;0.000000;,
  0.000000;0.000000;,
  0.000000;0.000000;,
  0.000000;0.000000;,
  0.000000;0.000000;,
  0.000000;0.000000;,
  0.000000;0.000000;,
  0.000000;0.000000;,
  0.000000;0.000000;,
  0.000000;0.000000;,
  0.000000;0.000000;,
  0.000000;0.000000;,
  0.000000;0.000000;,
  0.000000;0.000000;,
  0.000000;0.000000;,
  0.000000;0.000000;,
  0.000000;0.000000;,
  0.000000;0.000000;,
  0.000000;0.000000;,
  0.000000;0.000000;,
  0.000000;0.000000;,
  0.000000;0.000000;,
  0.000000;0.000000;,
  0.000000;0.000000;,
  0.000000;0.000000;,
  0.000000;0.000000;,
  0.000000;0.000000;,
  0.000000;0.000000;,
  0.000000;0.000000;,
  0.000000;0.000000;,
  0.000000;0.000000;,
  0.000000;0.000000;,
  0.000000;0.000000;,
  0.000000;0.000000;,
  0.000000;0.000000;,
  0.000000;0.000000;,
  0.000000;0.000000;,
  0.000000;0.000000;,
  0.000000;0.000000;,
  0.000000;0.000000;,
  0.000000;0.000000;,
  0.000000;0.000000;,
  0.000000;0.000000;,
  0.000000;0.000000;,
  0.000000;0.000000;,
  0.000000;0.000000;,
  0.000000;0.000000;,
  0.000000;0.000000;,
  0.000000;0.000000;,
  0.000000;0.000000;,
  0.000000;0.000000;,
  0.000000;0.000000;,
  0.000000;0.000000;,
  0.000000;0.000000;,
  0.000000;0.000000;,
  0.000000;0.000000;,
  0.000000;0.000000;,
  0.000000;0.000000;,
  0.000000;0.000000;,
  0.000000;0.000000;,
  0.000000;0.000000;,
  0.000000;0.000000;,
  0.000000;0.000000;,
  0.000000;0.000000;,
  0.000000;0.000000;,
  0.000000;0.000000;,
  0.000000;0.000000;,
  0.000000;0.000000;,
  0.000000;0.000000;,
  0.000000;0.000000;,
  0.000000;0.000000;,
  0.000000;0.000000;,
  0.000000;0.000000;,
  0.000000;0.000000;,
  0.000000;0.000000;,
  0.000000;0.000000;,
  0.000000;0.000000;,
  0.000000;0.000000;,
  0.000000;0.000000;,
  0.000000;0.000000;,
  0.000000;0.000000;,
  0.000000;0.000000;,
  0.000000;0.000000;,
  0.000000;0.000000;,
  0.000000;0.000000;,
  0.000000;0.000000;,
  0.000000;0.000000;,
  0.000000;0.000000;,
  0.000000;0.000000;,
  0.000000;0.000000;,
  0.000000;0.000000;,
  0.000000;0.000000;,
  0.000000;0.000000;,
  0.000000;0.000000;,
  0.000000;0.000000;,
  0.000000;0.000000;,
  0.000000;0.000000;,
  0.000000;0.000000;,
  0.000000;0.000000;,
  0.000000;0.000000;,
  0.000000;0.000000;,
  0.000000;0.000000;,
  0.000000;0.000000;,
  0.000000;0.000000;,
  0.000000;0.000000;,
  0.000000;0.000000;,
  0.000000;0.000000;,
  0.000000;0.000000;,
  0.000000;0.000000;,
  0.000000;0.000000;,
  0.000000;0.000000;,
  0.000000;0.000000;,
  0.000000;0.000000;,
  0.000000;0.000000;,
  0.000000;0.000000;,
  0.000000;0.000000;,
  0.000000;0.000000;,
  0.000000;0.000000;,
  0.000000;0.000000;,
  0.000000;0.000000;,
  0.000000;0.000000;,
  0.000000;0.000000;,
  0.000000;0.000000;,
  0.000000;0.000000;,
  0.000000;0.000000;,
  0.000000;0.000000;,
  0.000000;0.000000;,
  0.000000;0.000000;,
  0.000000;0.000000;,
  0.000000;0.000000;,
  0.000000;0.000000;,
  0.000000;0.000000;,
  0.000000;0.000000;,
  0.000000;0.000000;,
  0.000000;0.000000;,
  0.000000;0.000000;,
  0.000000;0.000000;,
  0.000000;0.000000;,
  0.000000;0.000000;,
  0.000000;0.000000;,
  0.000000;0.000000;,
  0.000000;0.000000;,
  0.000000;0.000000;,
  0.000000;0.000000;,
  0.000000;0.000000;,
  0.000000;0.000000;,
  0.000000;0.000000;,
  0.000000;0.000000;,
  0.000000;0.000000;,
  0.000000;0.000000;,
  0.000000;0.000000;,
  0.000000;0.000000;,
  0.000000;0.000000;,
  0.000000;0.000000;,
  0.000000;0.000000;,
  0.000000;0.000000;,
  0.000000;0.000000;,
  0.000000;0.000000;,
  0.000000;0.000000;,
  0.000000;0.000000;,
  0.000000;0.000000;,
  0.000000;0.000000;,
  0.000000;0.000000;,
  0.000000;0.000000;,
  0.000000;0.000000;,
  0.000000;0.000000;,
  0.000000;0.000000;,
  0.000000;0.000000;,
  0.000000;0.000000;,
  0.000000;0.000000;,
  0.000000;0.000000;,
  0.000000;0.000000;,
  0.000000;0.000000;,
  0.000000;0.000000;,
  0.000000;0.000000;,
  0.000000;0.000000;,
  0.000000;0.000000;,
  0.000000;0.000000;,
  0.000000;0.000000;,
  0.000000;0.000000;,
  1.000000;1.000000;,
  1.000000;0.000000;,
  0.000000;0.000000;,
  0.000000;1.000000;;
 }

 MeshMaterialList {
  3;
  106;
  0,
  0,
  0,
  0,
  1,
  1,
  1,
  1,
  1,
  1,
  1,
  1,
  1,
  1,
  1,
  1,
  1,
  1,
  1,
  1,
  1,
  1,
  1,
  1,
  1,
  1,
  1,
  1,
  1,
  1,
  1,
  1,
  1,
  1,
  1,
  1,
  1,
  1,
  1,
  1,
  1,
  1,
  1,
  1,
  1,
  1,
  1,
  1,
  1,
  1,
  1,
  1,
  1,
  1,
  1,
  1,
  1,
  1,
  1,
  1,
  1,
  1,
  1,
  1,
  1,
  1,
  1,
  1,
  1,
  1,
  1,
  1,
  1,
  1,
  1,
  1,
  1,
  1,
  1,
  1,
  1,
  1,
  1,
  1,
  1,
  1,
  1,
  1,
  1,
  1,
  1,
  1,
  1,
  1,
  1,
  1,
  1,
  1,
  1,
  1,
  1,
  1,
  1,
  1,
  2,
  2;

  Material {
   1.000000;1.000000;1.000000;1.000000;;
   0.000000;
   0.000000;0.000000;0.000000;;
   0.000000;0.000000;0.000000;;

   TextureFilename {
    "tk_r_03.dds";
   }
  }

  Material {
   0.619608;0.427451;0.333333;1.000000;;
   0.000000;
   0.000000;0.000000;0.000000;;
   0.000000;0.000000;0.000000;;
  }

  Material {
   1.000000;1.000000;1.000000;1.000000;;
   0.000000;
   0.000000;0.000000;0.000000;;
   0.000000;0.000000;0.000000;;

   TextureFilename {
    "tk_r_01.dds";
   }
  }
 }
}