xof 0303txt 0032
template Vector {
 <3d82ab5e-62da-11cf-ab39-0020af71e433>
 FLOAT x;
 FLOAT y;
 FLOAT z;
}

template MeshFace {
 <3d82ab5f-62da-11cf-ab39-0020af71e433>
 DWORD nFaceVertexIndices;
 array DWORD faceVertexIndices[nFaceVertexIndices];
}

template Mesh {
 <3d82ab44-62da-11cf-ab39-0020af71e433>
 DWORD nVertices;
 array Vector vertices[nVertices];
 DWORD nFaces;
 array MeshFace faces[nFaces];
 [...]
}

template MeshNormals {
 <f6f23f43-7686-11cf-8f52-0040333594a3>
 DWORD nNormals;
 array Vector normals[nNormals];
 DWORD nFaceNormals;
 array MeshFace faceNormals[nFaceNormals];
}

template Coords2d {
 <f6f23f44-7686-11cf-8f52-0040333594a3>
 FLOAT u;
 FLOAT v;
}

template MeshTextureCoords {
 <f6f23f40-7686-11cf-8f52-0040333594a3>
 DWORD nTextureCoords;
 array Coords2d textureCoords[nTextureCoords];
}

template ColorRGBA {
 <35ff44e0-6c7c-11cf-8f52-0040333594a3>
 FLOAT red;
 FLOAT green;
 FLOAT blue;
 FLOAT alpha;
}

template ColorRGB {
 <d3e16e81-7835-11cf-8f52-0040333594a3>
 FLOAT red;
 FLOAT green;
 FLOAT blue;
}

template Material {
 <3d82ab4d-62da-11cf-ab39-0020af71e433>
 ColorRGBA faceColor;
 FLOAT power;
 ColorRGB specularColor;
 ColorRGB emissiveColor;
 [...]
}

template MeshMaterialList {
 <f6f23f42-7686-11cf-8f52-0040333594a3>
 DWORD nMaterials;
 DWORD nFaceIndexes;
 array DWORD faceIndexes[nFaceIndexes];
 [Material <3d82ab4d-62da-11cf-ab39-0020af71e433>]
}

template TextureFilename {
 <a42790e1-7810-11cf-8f52-0040333594a3>
 STRING filename;
}


Mesh {
 364;
 0.600000;-1.400000;9.999999;,
 0.600000;-0.300000;9.999999;,
 0.600000;-0.300000;0.000000;,
 0.600000;-1.400000;0.000000;,
 -0.600000;-1.400000;9.999999;,
 -0.600000;-0.300000;9.999999;,
 -0.600000;-0.300000;0.000000;,
 -0.600000;-1.400000;0.000000;,
 -1.000000;-0.150000;9.959998;,
 -1.000000;-0.350000;9.959998;,
 -2.200000;-0.350000;9.959998;,
 -2.200000;-0.150000;9.959998;,
 -1.000000;-0.150000;10.039998;,
 -1.000000;-0.350000;10.039998;,
 -2.200000;-0.350000;10.039998;,
 -2.200000;-0.150000;10.039998;,
 -1.000000;-0.150000;7.459999;,
 -1.000000;-0.350000;7.459999;,
 -2.200000;-0.350000;7.459999;,
 -2.200000;-0.150000;7.459999;,
 -1.000000;-0.150000;7.539998;,
 -1.000000;-0.350000;7.539998;,
 -2.200000;-0.350000;7.539998;,
 -2.200000;-0.150000;7.539998;,
 -1.000000;-0.150000;4.960000;,
 -1.000000;-0.350000;4.960000;,
 -2.200000;-0.350000;4.960000;,
 -2.200000;-0.150000;4.960000;,
 -1.000000;-0.150000;5.039998;,
 -1.000000;-0.350000;5.039998;,
 -2.200000;-0.350000;5.039998;,
 -2.200000;-0.150000;5.039998;,
 -1.000000;-0.150000;2.460000;,
 -1.000000;-0.350000;2.460000;,
 -2.200000;-0.350000;2.460000;,
 -2.200000;-0.150000;2.460000;,
 -1.000000;-0.150000;2.540000;,
 -1.000000;-0.350000;2.540000;,
 -2.200000;-0.350000;2.540000;,
 -2.200000;-0.150000;2.540000;,
 -1.000000;-0.150000;-0.040000;,
 -1.000000;-0.350000;-0.040000;,
 -2.200000;-0.350000;-0.040000;,
 -2.200000;-0.150000;-0.040000;,
 -1.000000;-0.150000;0.040000;,
 -1.000000;-0.350000;0.040000;,
 -2.200000;-0.350000;0.040000;,
 -2.200000;-0.150000;0.040000;,
 -2.120000;0.690406;9.959998;,
 -2.120000;-0.300000;9.959998;,
 -2.200000;-0.300000;9.959998;,
 -2.200000;0.690406;9.959998;,
 -2.120000;0.690406;10.039998;,
 -2.120000;-0.300000;10.039998;,
 -2.200000;-0.300000;10.039998;,
 -2.200000;0.690406;10.039998;,
 -2.120000;0.690406;7.459999;,
 -2.120000;-0.300000;7.459999;,
 -2.200000;-0.300000;7.459999;,
 -2.200000;0.690406;7.459999;,
 -2.120000;0.690406;7.539998;,
 -2.120000;-0.300000;7.539998;,
 -2.200000;-0.300000;7.539998;,
 -2.200000;0.690406;7.539998;,
 -2.120000;0.690406;4.960000;,
 -2.120000;-0.300000;4.960000;,
 -2.200000;-0.300000;4.960000;,
 -2.200000;0.690406;4.960000;,
 -2.120000;0.690406;5.039998;,
 -2.120000;-0.300000;5.039998;,
 -2.200000;-0.300000;5.039998;,
 -2.200000;0.690406;5.039998;,
 -2.120000;0.690406;2.460000;,
 -2.120000;-0.300000;2.460000;,
 -2.200000;-0.300000;2.460000;,
 -2.200000;0.690406;2.460000;,
 -2.120000;0.690406;2.540000;,
 -2.120000;-0.300000;2.540000;,
 -2.200000;-0.300000;2.540000;,
 -2.200000;0.690406;2.540000;,
 -2.120000;0.690406;-0.040000;,
 -2.120000;-0.300000;-0.040000;,
 -2.200000;-0.300000;-0.040000;,
 -2.200000;0.690406;-0.040000;,
 -2.120000;0.690406;0.040000;,
 -2.120000;-0.300000;0.040000;,
 -2.200000;-0.300000;0.040000;,
 -2.200000;0.690406;0.040000;,
 -2.120000;0.730406;-0.100000;,
 -2.120000;0.650406;-0.100000;,
 -2.200000;0.650406;-0.100000;,
 -2.200000;0.730406;-0.100000;,
 -2.120000;0.730406;10.099998;,
 -2.120000;0.650406;10.099998;,
 -2.200000;0.650406;10.099998;,
 -2.200000;0.730406;10.099998;,
 -2.135000;0.168280;0.000000;,
 -2.135000;0.118280;0.000000;,
 -2.185000;0.118280;0.000000;,
 -2.185000;0.168280;0.000000;,
 -2.135000;0.168280;9.999998;,
 -2.135000;0.118280;9.999998;,
 -2.185000;0.118280;9.999998;,
 -2.185000;0.168280;9.999998;,
 -2.200000;-0.150000;9.959998;,
 -2.200000;-0.350000;9.959998;,
 -2.200000;-0.150000;10.039998;,
 -2.200000;-0.350000;10.039998;,
 -1.000000;-0.150000;10.039998;,
 -1.000000;-0.350000;10.039998;,
 -1.000000;-0.350000;9.959998;,
 -1.000000;-0.150000;9.959998;,
 -1.000000;-0.150000;9.959998;,
 -2.200000;-0.150000;9.959998;,
 -2.200000;-0.150000;10.039998;,
 -1.000000;-0.150000;10.039998;,
 -1.000000;-0.350000;9.959998;,
 -1.000000;-0.350000;10.039998;,
 -2.200000;-0.350000;10.039998;,
 -2.200000;-0.350000;9.959998;,
 -2.200000;-0.150000;7.459999;,
 -2.200000;-0.350000;7.459999;,
 -2.200000;-0.150000;7.539998;,
 -2.200000;-0.350000;7.539998;,
 -1.000000;-0.150000;7.539998;,
 -1.000000;-0.350000;7.539998;,
 -1.000000;-0.350000;7.459999;,
 -1.000000;-0.150000;7.459999;,
 -1.000000;-0.150000;7.459999;,
 -2.200000;-0.150000;7.459999;,
 -2.200000;-0.150000;7.539998;,
 -1.000000;-0.150000;7.539998;,
 -1.000000;-0.350000;7.459999;,
 -1.000000;-0.350000;7.539998;,
 -2.200000;-0.350000;7.539998;,
 -2.200000;-0.350000;7.459999;,
 -2.200000;-0.150000;4.960000;,
 -2.200000;-0.350000;4.960000;,
 -2.200000;-0.150000;5.039998;,
 -2.200000;-0.350000;5.039998;,
 -1.000000;-0.150000;5.039998;,
 -1.000000;-0.350000;5.039998;,
 -1.000000;-0.350000;4.960000;,
 -1.000000;-0.150000;4.960000;,
 -1.000000;-0.150000;4.960000;,
 -2.200000;-0.150000;4.960000;,
 -2.200000;-0.150000;5.039998;,
 -1.000000;-0.150000;5.039998;,
 -1.000000;-0.350000;4.960000;,
 -1.000000;-0.350000;5.039998;,
 -2.200000;-0.350000;5.039998;,
 -2.200000;-0.350000;4.960000;,
 -2.200000;-0.150000;2.460000;,
 -2.200000;-0.350000;2.460000;,
 -2.200000;-0.150000;2.540000;,
 -2.200000;-0.350000;2.540000;,
 -1.000000;-0.150000;2.540000;,
 -1.000000;-0.350000;2.540000;,
 -1.000000;-0.350000;2.460000;,
 -1.000000;-0.150000;2.460000;,
 -1.000000;-0.150000;2.460000;,
 -2.200000;-0.150000;2.460000;,
 -2.200000;-0.150000;2.540000;,
 -1.000000;-0.150000;2.540000;,
 -1.000000;-0.350000;2.460000;,
 -1.000000;-0.350000;2.540000;,
 -2.200000;-0.350000;2.540000;,
 -2.200000;-0.350000;2.460000;,
 -2.200000;-0.150000;-0.040000;,
 -2.200000;-0.350000;-0.040000;,
 -2.200000;-0.150000;0.040000;,
 -2.200000;-0.350000;0.040000;,
 -1.000000;-0.150000;0.040000;,
 -1.000000;-0.350000;0.040000;,
 -1.000000;-0.350000;-0.040000;,
 -1.000000;-0.150000;-0.040000;,
 -1.000000;-0.150000;-0.040000;,
 -2.200000;-0.150000;-0.040000;,
 -2.200000;-0.150000;0.040000;,
 -1.000000;-0.150000;0.040000;,
 -1.000000;-0.350000;-0.040000;,
 -1.000000;-0.350000;0.040000;,
 -2.200000;-0.350000;0.040000;,
 -2.200000;-0.350000;-0.040000;,
 -2.200000;0.690406;9.959998;,
 -2.200000;-0.300000;9.959998;,
 -2.200000;0.690406;10.039998;,
 -2.200000;-0.300000;10.039998;,
 -2.120000;0.690406;10.039998;,
 -2.120000;-0.300000;10.039998;,
 -2.120000;-0.300000;9.959998;,
 -2.120000;0.690406;9.959998;,
 -2.120000;0.690406;9.959998;,
 -2.200000;0.690406;9.959998;,
 -2.200000;0.690406;10.039998;,
 -2.120000;0.690406;10.039998;,
 -2.120000;-0.300000;9.959998;,
 -2.120000;-0.300000;10.039998;,
 -2.200000;-0.300000;10.039998;,
 -2.200000;-0.300000;9.959998;,
 -2.200000;0.690406;7.459999;,
 -2.200000;-0.300000;7.459999;,
 -2.200000;0.690406;7.539998;,
 -2.200000;-0.300000;7.539998;,
 -2.120000;0.690406;7.539998;,
 -2.120000;-0.300000;7.539998;,
 -2.120000;-0.300000;7.459999;,
 -2.120000;0.690406;7.459999;,
 -2.120000;0.690406;7.459999;,
 -2.200000;0.690406;7.459999;,
 -2.200000;0.690406;7.539998;,
 -2.120000;0.690406;7.539998;,
 -2.120000;-0.300000;7.459999;,
 -2.120000;-0.300000;7.539998;,
 -2.200000;-0.300000;7.539998;,
 -2.200000;-0.300000;7.459999;,
 -2.200000;0.690406;4.960000;,
 -2.200000;-0.300000;4.960000;,
 -2.200000;0.690406;5.039998;,
 -2.200000;-0.300000;5.039998;,
 -2.120000;0.690406;5.039998;,
 -2.120000;-0.300000;5.039998;,
 -2.120000;-0.300000;4.960000;,
 -2.120000;0.690406;4.960000;,
 -2.120000;0.690406;4.960000;,
 -2.200000;0.690406;4.960000;,
 -2.200000;0.690406;5.039998;,
 -2.120000;0.690406;5.039998;,
 -2.120000;-0.300000;4.960000;,
 -2.120000;-0.300000;5.039998;,
 -2.200000;-0.300000;5.039998;,
 -2.200000;-0.300000;4.960000;,
 -2.200000;0.690406;2.460000;,
 -2.200000;-0.300000;2.460000;,
 -2.200000;0.690406;2.540000;,
 -2.200000;-0.300000;2.540000;,
 -2.120000;0.690406;2.540000;,
 -2.120000;-0.300000;2.540000;,
 -2.120000;-0.300000;2.460000;,
 -2.120000;0.690406;2.460000;,
 -2.120000;0.690406;2.460000;,
 -2.200000;0.690406;2.460000;,
 -2.200000;0.690406;2.540000;,
 -2.120000;0.690406;2.540000;,
 -2.120000;-0.300000;2.460000;,
 -2.120000;-0.300000;2.540000;,
 -2.200000;-0.300000;2.540000;,
 -2.200000;-0.300000;2.460000;,
 -2.200000;0.690406;-0.040000;,
 -2.200000;-0.300000;-0.040000;,
 -2.200000;0.690406;0.040000;,
 -2.200000;-0.300000;0.040000;,
 -2.120000;0.690406;0.040000;,
 -2.120000;-0.300000;0.040000;,
 -2.120000;-0.300000;-0.040000;,
 -2.120000;0.690406;-0.040000;,
 -2.120000;0.690406;-0.040000;,
 -2.200000;0.690406;-0.040000;,
 -2.200000;0.690406;0.040000;,
 -2.120000;0.690406;0.040000;,
 -2.120000;-0.300000;-0.040000;,
 -2.120000;-0.300000;0.040000;,
 -2.200000;-0.300000;0.040000;,
 -2.200000;-0.300000;-0.040000;,
 -2.200000;0.730406;-0.100000;,
 -2.200000;0.650406;-0.100000;,
 -2.200000;0.730406;10.099998;,
 -2.200000;0.650406;10.099998;,
 -2.120000;0.730406;10.099998;,
 -2.120000;0.650406;10.099998;,
 -2.120000;0.650406;-0.100000;,
 -2.120000;0.730406;-0.100000;,
 -2.120000;0.730406;-0.100000;,
 -2.200000;0.730406;-0.100000;,
 -2.200000;0.730406;10.099998;,
 -2.120000;0.730406;10.099998;,
 -2.120000;0.650406;-0.100000;,
 -2.120000;0.650406;10.099998;,
 -2.200000;0.650406;10.099998;,
 -2.200000;0.650406;-0.100000;,
 -2.185000;0.168280;0.000000;,
 -2.185000;0.118280;0.000000;,
 -2.185000;0.168280;9.999998;,
 -2.185000;0.118280;9.999998;,
 -2.135000;0.168280;9.999998;,
 -2.135000;0.118280;9.999998;,
 -2.135000;0.118280;0.000000;,
 -2.135000;0.168280;0.000000;,
 -2.135000;0.168280;0.000000;,
 -2.185000;0.168280;0.000000;,
 -2.185000;0.168280;9.999998;,
 -2.135000;0.168280;9.999998;,
 -2.135000;0.118280;0.000000;,
 -2.135000;0.118280;9.999998;,
 -2.185000;0.118280;9.999998;,
 -2.185000;0.118280;0.000000;,
 -2.100000;-0.050000;0.000000;,
 -2.100000;-0.050000;9.999999;,
 -1.350000;-0.050000;9.999999;,
 -1.350000;-0.050000;0.000000;,
 -2.169951;0.705621;0.500000;,
 -2.142522;0.705621;0.500000;,
 -2.169951;0.135407;0.500000;,
 -2.142522;0.135407;0.500000;,
 -2.169951;0.705621;1.000000;,
 -2.142522;0.705621;1.000000;,
 -2.169951;0.135407;1.000000;,
 -2.142522;0.135407;1.000000;,
 -2.169951;0.705621;1.500000;,
 -2.142522;0.705621;1.500000;,
 -2.169951;0.135407;1.500000;,
 -2.142522;0.135407;1.500000;,
 -2.169951;0.705621;2.000000;,
 -2.142522;0.705621;2.000000;,
 -2.169951;0.135407;2.000000;,
 -2.142522;0.135407;2.000000;,
 -2.169951;0.705621;8.000000;,
 -2.142522;0.705621;8.000000;,
 -2.169951;0.135407;8.000000;,
 -2.142522;0.135407;8.000000;,
 -2.169951;0.705621;8.500000;,
 -2.142522;0.705621;8.500000;,
 -2.169951;0.135407;8.500000;,
 -2.142522;0.135407;8.500000;,
 -2.169951;0.705621;9.000000;,
 -2.142522;0.705621;9.000000;,
 -2.169951;0.135407;9.000000;,
 -2.142522;0.135407;9.000000;,
 -2.169951;0.705621;9.500000;,
 -2.142522;0.705621;9.500000;,
 -2.169951;0.135407;9.500000;,
 -2.142522;0.135407;9.500000;,
 -2.169951;0.705621;3.000000;,
 -2.142522;0.705621;3.000000;,
 -2.169951;0.135407;3.000000;,
 -2.142522;0.135407;3.000000;,
 -2.169951;0.705621;3.500000;,
 -2.142522;0.705621;3.500000;,
 -2.169951;0.135407;3.500000;,
 -2.142522;0.135407;3.500000;,
 -2.169951;0.705621;4.000000;,
 -2.142522;0.705621;4.000000;,
 -2.169951;0.135407;4.000000;,
 -2.142522;0.135407;4.000000;,
 -2.169951;0.705621;4.500000;,
 -2.142522;0.705621;4.500000;,
 -2.169951;0.135407;4.500000;,
 -2.142522;0.135407;4.500000;,
 -2.169951;0.705621;5.500000;,
 -2.142522;0.705621;5.500000;,
 -2.169951;0.135407;5.500000;,
 -2.142522;0.135407;5.500000;,
 -2.169951;0.705621;6.000000;,
 -2.142522;0.705621;6.000000;,
 -2.169951;0.135407;6.000000;,
 -2.142522;0.135407;6.000000;,
 -2.169951;0.705621;6.500000;,
 -2.142522;0.705621;6.500000;,
 -2.169951;0.135407;6.500000;,
 -2.142522;0.135407;6.500000;,
 -2.169951;0.705621;7.000000;,
 -2.142522;0.705621;7.000000;,
 -2.169951;0.135407;7.000000;,
 -2.142522;0.135407;7.000000;;
 182;
 3;3,2,1;,
 3;3,1,0;,
 3;4,5,6;,
 3;4,6,7;,
 3;8,9,10;,
 3;8,10,11;,
 3;104,105,14;,
 3;104,14,15;,
 3;106,107,13;,
 3;106,13,12;,
 3;108,109,110;,
 3;108,110,111;,
 3;112,113,114;,
 3;112,114,115;,
 3;116,117,118;,
 3;116,118,119;,
 3;16,17,18;,
 3;16,18,19;,
 3;120,121,22;,
 3;120,22,23;,
 3;122,123,21;,
 3;122,21,20;,
 3;124,125,126;,
 3;124,126,127;,
 3;128,129,130;,
 3;128,130,131;,
 3;132,133,134;,
 3;132,134,135;,
 3;24,25,26;,
 3;24,26,27;,
 3;136,137,30;,
 3;136,30,31;,
 3;138,139,29;,
 3;138,29,28;,
 3;140,141,142;,
 3;140,142,143;,
 3;144,145,146;,
 3;144,146,147;,
 3;148,149,150;,
 3;148,150,151;,
 3;32,33,34;,
 3;32,34,35;,
 3;152,153,38;,
 3;152,38,39;,
 3;154,155,37;,
 3;154,37,36;,
 3;156,157,158;,
 3;156,158,159;,
 3;160,161,162;,
 3;160,162,163;,
 3;164,165,166;,
 3;164,166,167;,
 3;40,41,42;,
 3;40,42,43;,
 3;168,169,46;,
 3;168,46,47;,
 3;170,171,45;,
 3;170,45,44;,
 3;172,173,174;,
 3;172,174,175;,
 3;176,177,178;,
 3;176,178,179;,
 3;180,181,182;,
 3;180,182,183;,
 3;48,49,50;,
 3;48,50,51;,
 3;184,185,54;,
 3;184,54,55;,
 3;186,187,53;,
 3;186,53,52;,
 3;188,189,190;,
 3;188,190,191;,
 3;192,193,194;,
 3;192,194,195;,
 3;196,197,198;,
 3;196,198,199;,
 3;56,57,58;,
 3;56,58,59;,
 3;200,201,62;,
 3;200,62,63;,
 3;202,203,61;,
 3;202,61,60;,
 3;204,205,206;,
 3;204,206,207;,
 3;208,209,210;,
 3;208,210,211;,
 3;212,213,214;,
 3;212,214,215;,
 3;64,65,66;,
 3;64,66,67;,
 3;216,217,70;,
 3;216,70,71;,
 3;218,219,69;,
 3;218,69,68;,
 3;220,221,222;,
 3;220,222,223;,
 3;224,225,226;,
 3;224,226,227;,
 3;228,229,230;,
 3;228,230,231;,
 3;72,73,74;,
 3;72,74,75;,
 3;232,233,78;,
 3;232,78,79;,
 3;234,235,77;,
 3;234,77,76;,
 3;236,237,238;,
 3;236,238,239;,
 3;240,241,242;,
 3;240,242,243;,
 3;244,245,246;,
 3;244,246,247;,
 3;80,81,82;,
 3;80,82,83;,
 3;248,249,86;,
 3;248,86,87;,
 3;250,251,85;,
 3;250,85,84;,
 3;252,253,254;,
 3;252,254,255;,
 3;256,257,258;,
 3;256,258,259;,
 3;260,261,262;,
 3;260,262,263;,
 3;88,89,90;,
 3;88,90,91;,
 3;264,265,94;,
 3;264,94,95;,
 3;266,267,93;,
 3;266,93,92;,
 3;268,269,270;,
 3;268,270,271;,
 3;272,273,274;,
 3;272,274,275;,
 3;276,277,278;,
 3;276,278,279;,
 3;96,97,98;,
 3;96,98,99;,
 3;280,281,102;,
 3;280,102,103;,
 3;282,283,101;,
 3;282,101,100;,
 3;284,285,286;,
 3;284,286,287;,
 3;288,289,290;,
 3;288,290,291;,
 3;292,293,294;,
 3;292,294,295;,
 3;296,297,298;,
 3;296,298,299;,
 3;300,301,302;,
 3;301,303,302;,
 3;304,305,306;,
 3;305,307,306;,
 3;308,309,310;,
 3;309,311,310;,
 3;312,313,314;,
 3;313,315,314;,
 3;316,317,318;,
 3;317,319,318;,
 3;320,321,322;,
 3;321,323,322;,
 3;324,325,326;,
 3;325,327,326;,
 3;328,329,330;,
 3;329,331,330;,
 3;332,333,334;,
 3;333,335,334;,
 3;336,337,338;,
 3;337,339,338;,
 3;340,341,342;,
 3;341,343,342;,
 3;344,345,346;,
 3;345,347,346;,
 3;348,349,350;,
 3;349,351,350;,
 3;352,353,354;,
 3;353,355,354;,
 3;356,357,358;,
 3;357,359,358;,
 3;360,361,362;,
 3;361,363,362;;

 MeshNormals {
  364;
  1.000000;0.000000;0.000000;,
  1.000000;0.000000;0.000000;,
  1.000000;0.000000;0.000000;,
  1.000000;0.000000;0.000000;,
  -1.000000;0.000000;0.000000;,
  -1.000000;0.000000;0.000000;,
  -1.000000;0.000000;0.000000;,
  -1.000000;0.000000;0.000000;,
  0.000000;0.000000;-1.000000;,
  0.000000;0.000000;-1.000000;,
  0.000000;0.000000;-1.000000;,
  0.000000;0.000000;-1.000000;,
  0.000000;0.000000;1.000000;,
  0.000000;0.000000;1.000000;,
  -1.000000;0.000000;0.000000;,
  -1.000000;0.000000;0.000000;,
  0.000000;0.000000;-1.000000;,
  0.000000;0.000000;-1.000000;,
  0.000000;0.000000;-1.000000;,
  0.000000;0.000000;-1.000000;,
  0.000000;0.000000;1.000000;,
  0.000000;0.000000;1.000000;,
  -1.000000;0.000000;0.000000;,
  -1.000000;0.000000;0.000000;,
  0.000000;0.000000;-1.000000;,
  0.000000;0.000000;-1.000000;,
  0.000000;0.000000;-1.000000;,
  0.000000;0.000000;-1.000000;,
  0.000000;0.000000;1.000000;,
  0.000000;0.000000;1.000000;,
  -1.000000;0.000000;0.000000;,
  -1.000000;0.000000;0.000000;,
  0.000000;0.000000;-1.000000;,
  0.000000;0.000000;-1.000000;,
  0.000000;0.000000;-1.000000;,
  0.000000;0.000000;-1.000000;,
  0.000000;0.000000;1.000000;,
  0.000000;0.000000;1.000000;,
  -1.000000;0.000000;0.000000;,
  -1.000000;0.000000;0.000000;,
  0.000000;0.000000;-1.000000;,
  0.000000;0.000000;-1.000000;,
  0.000000;0.000000;-1.000000;,
  0.000000;0.000000;-1.000000;,
  0.000000;0.000000;1.000000;,
  0.000000;0.000000;1.000000;,
  -1.000000;0.000000;0.000000;,
  -1.000000;0.000000;0.000000;,
  0.000000;0.000000;-1.000000;,
  0.000000;0.000000;-1.000000;,
  0.000000;0.000000;-1.000000;,
  0.000000;0.000000;-1.000000;,
  0.000000;0.000000;1.000000;,
  0.000000;0.000000;1.000000;,
  -1.000000;0.000000;0.000000;,
  -1.000000;0.000000;0.000000;,
  0.000000;0.000000;-1.000000;,
  0.000000;0.000000;-1.000000;,
  0.000000;0.000000;-1.000000;,
  0.000000;0.000000;-1.000000;,
  0.000000;0.000000;1.000000;,
  0.000000;0.000000;1.000000;,
  -1.000000;0.000000;0.000000;,
  -1.000000;0.000000;0.000000;,
  0.000000;0.000000;-1.000000;,
  0.000000;0.000000;-1.000000;,
  0.000000;0.000000;-1.000000;,
  0.000000;0.000000;-1.000000;,
  0.000000;0.000000;1.000000;,
  0.000000;0.000000;1.000000;,
  -1.000000;0.000000;0.000000;,
  -1.000000;0.000000;0.000000;,
  0.000000;0.000000;-1.000000;,
  0.000000;0.000000;-1.000000;,
  0.000000;0.000000;-1.000000;,
  0.000000;0.000000;-1.000000;,
  0.000000;0.000000;1.000000;,
  0.000000;0.000000;1.000000;,
  -1.000000;0.000000;0.000000;,
  -1.000000;0.000000;0.000000;,
  0.000000;0.000000;-1.000000;,
  0.000000;0.000000;-1.000000;,
  0.000000;0.000000;-1.000000;,
  0.000000;0.000000;-1.000000;,
  0.000000;0.000000;1.000000;,
  0.000000;0.000000;1.000000;,
  -1.000000;0.000000;0.000000;,
  -1.000000;0.000000;0.000000;,
  0.000000;0.000000;-1.000000;,
  0.000000;0.000000;-1.000000;,
  0.000000;0.000000;-1.000000;,
  0.000000;0.000000;-1.000000;,
  0.000000;0.000000;1.000000;,
  0.000000;0.000000;1.000000;,
  -1.000000;0.000000;0.000000;,
  -1.000000;0.000000;0.000000;,
  0.000000;0.000000;-1.000000;,
  0.000000;0.000000;-1.000000;,
  0.000000;0.000000;-1.000000;,
  0.000000;0.000000;-1.000000;,
  0.000000;0.000000;1.000000;,
  0.000000;0.000000;1.000000;,
  -1.000000;0.000000;0.000000;,
  -1.000000;0.000000;0.000000;,
  -1.000000;0.000000;0.000000;,
  -1.000000;0.000000;0.000000;,
  0.000000;0.000000;1.000000;,
  0.000000;0.000000;1.000000;,
  1.000000;0.000000;0.000000;,
  1.000000;0.000000;0.000000;,
  1.000000;0.000000;0.000000;,
  1.000000;0.000000;0.000000;,
  0.000000;1.000000;0.000000;,
  0.000000;1.000000;0.000000;,
  0.000000;1.000000;0.000000;,
  0.000000;1.000000;0.000000;,
  0.000000;-1.000000;0.000000;,
  0.000000;-1.000000;0.000000;,
  0.000000;-1.000000;0.000000;,
  0.000000;-1.000000;0.000000;,
  -1.000000;0.000000;0.000000;,
  -1.000000;0.000000;0.000000;,
  0.000000;0.000000;1.000000;,
  0.000000;0.000000;1.000000;,
  1.000000;0.000000;0.000000;,
  1.000000;0.000000;0.000000;,
  1.000000;0.000000;0.000000;,
  1.000000;0.000000;0.000000;,
  0.000000;1.000000;0.000000;,
  0.000000;1.000000;0.000000;,
  0.000000;1.000000;0.000000;,
  0.000000;1.000000;0.000000;,
  0.000000;-1.000000;0.000000;,
  0.000000;-1.000000;0.000000;,
  0.000000;-1.000000;0.000000;,
  0.000000;-1.000000;0.000000;,
  -1.000000;0.000000;0.000000;,
  -1.000000;0.000000;0.000000;,
  0.000000;0.000000;1.000000;,
  0.000000;0.000000;1.000000;,
  1.000000;0.000000;0.000000;,
  1.000000;0.000000;0.000000;,
  1.000000;0.000000;0.000000;,
  1.000000;0.000000;0.000000;,
  0.000000;1.000000;0.000000;,
  0.000000;1.000000;0.000000;,
  0.000000;1.000000;0.000000;,
  0.000000;1.000000;0.000000;,
  0.000000;-1.000000;0.000000;,
  0.000000;-1.000000;0.000000;,
  0.000000;-1.000000;0.000000;,
  0.000000;-1.000000;0.000000;,
  -1.000000;0.000000;0.000000;,
  -1.000000;0.000000;0.000000;,
  0.000000;0.000000;1.000000;,
  0.000000;0.000000;1.000000;,
  1.000000;0.000000;0.000000;,
  1.000000;0.000000;0.000000;,
  1.000000;0.000000;0.000000;,
  1.000000;0.000000;0.000000;,
  0.000000;1.000000;0.000000;,
  0.000000;1.000000;0.000000;,
  0.000000;1.000000;0.000000;,
  0.000000;1.000000;0.000000;,
  0.000000;-1.000000;0.000000;,
  0.000000;-1.000000;0.000000;,
  0.000000;-1.000000;0.000000;,
  0.000000;-1.000000;0.000000;,
  -1.000000;0.000000;0.000000;,
  -1.000000;0.000000;0.000000;,
  0.000000;0.000000;1.000000;,
  0.000000;0.000000;1.000000;,
  1.000000;0.000000;0.000000;,
  1.000000;0.000000;0.000000;,
  1.000000;0.000000;0.000000;,
  1.000000;0.000000;0.000000;,
  0.000000;1.000000;0.000000;,
  0.000000;1.000000;0.000000;,
  0.000000;1.000000;0.000000;,
  0.000000;1.000000;0.000000;,
  0.000000;-1.000000;0.000000;,
  0.000000;-1.000000;0.000000;,
  0.000000;-1.000000;0.000000;,
  0.000000;-1.000000;0.000000;,
  -1.000000;0.000000;0.000000;,
  -1.000000;0.000000;0.000000;,
  0.000000;0.000000;1.000000;,
  0.000000;0.000000;1.000000;,
  1.000000;0.000000;0.000000;,
  1.000000;0.000000;0.000000;,
  1.000000;0.000000;0.000000;,
  1.000000;0.000000;0.000000;,
  0.000000;1.000000;0.000000;,
  0.000000;1.000000;0.000000;,
  0.000000;1.000000;0.000000;,
  0.000000;1.000000;0.000000;,
  0.000000;-1.000000;0.000000;,
  0.000000;-1.000000;0.000000;,
  0.000000;-1.000000;0.000000;,
  0.000000;-1.000000;0.000000;,
  -1.000000;0.000000;0.000000;,
  -1.000000;0.000000;0.000000;,
  0.000000;0.000000;1.000000;,
  0.000000;0.000000;1.000000;,
  1.000000;0.000000;0.000000;,
  1.000000;0.000000;0.000000;,
  1.000000;0.000000;0.000000;,
  1.000000;0.000000;0.000000;,
  0.000000;1.000000;0.000000;,
  0.000000;1.000000;0.000000;,
  0.000000;1.000000;0.000000;,
  0.000000;1.000000;0.000000;,
  0.000000;-1.000000;0.000000;,
  0.000000;-1.000000;0.000000;,
  0.000000;-1.000000;0.000000;,
  0.000000;-1.000000;0.000000;,
  -1.000000;0.000000;0.000000;,
  -1.000000;0.000000;0.000000;,
  0.000000;0.000000;1.000000;,
  0.000000;0.000000;1.000000;,
  1.000000;0.000000;0.000000;,
  1.000000;0.000000;0.000000;,
  1.000000;0.000000;0.000000;,
  1.000000;0.000000;0.000000;,
  0.000000;1.000000;0.000000;,
  0.000000;1.000000;0.000000;,
  0.000000;1.000000;0.000000;,
  0.000000;1.000000;0.000000;,
  0.000000;-1.000000;0.000000;,
  0.000000;-1.000000;0.000000;,
  0.000000;-1.000000;0.000000;,
  0.000000;-1.000000;0.000000;,
  -1.000000;0.000000;0.000000;,
  -1.000000;0.000000;0.000000;,
  0.000000;0.000000;1.000000;,
  0.000000;0.000000;1.000000;,
  1.000000;0.000000;0.000000;,
  1.000000;0.000000;0.000000;,
  1.000000;0.000000;0.000000;,
  1.000000;0.000000;0.000000;,
  0.000000;1.000000;0.000000;,
  0.000000;1.000000;0.000000;,
  0.000000;1.000000;0.000000;,
  0.000000;1.000000;0.000000;,
  0.000000;-1.000000;0.000000;,
  0.000000;-1.000000;0.000000;,
  0.000000;-1.000000;0.000000;,
  0.000000;-1.000000;0.000000;,
  -1.000000;0.000000;0.000000;,
  -1.000000;0.000000;0.000000;,
  0.000000;0.000000;1.000000;,
  0.000000;0.000000;1.000000;,
  1.000000;0.000000;0.000000;,
  1.000000;0.000000;0.000000;,
  1.000000;0.000000;0.000000;,
  1.000000;0.000000;0.000000;,
  0.000000;1.000000;0.000000;,
  0.000000;1.000000;0.000000;,
  0.000000;1.000000;0.000000;,
  0.000000;1.000000;0.000000;,
  0.000000;-1.000000;0.000000;,
  0.000000;-1.000000;0.000000;,
  0.000000;-1.000000;0.000000;,
  0.000000;-1.000000;0.000000;,
  -1.000000;0.000000;0.000000;,
  -1.000000;0.000000;0.000000;,
  0.000000;0.000000;1.000000;,
  0.000000;0.000000;1.000000;,
  1.000000;0.000000;0.000000;,
  1.000000;0.000000;0.000000;,
  1.000000;0.000000;0.000000;,
  1.000000;0.000000;0.000000;,
  0.000000;1.000000;0.000000;,
  0.000000;1.000000;0.000000;,
  0.000000;1.000000;0.000000;,
  0.000000;1.000000;0.000000;,
  0.000000;-1.000000;0.000000;,
  0.000000;-1.000000;0.000000;,
  0.000000;-1.000000;0.000000;,
  0.000000;-1.000000;0.000000;,
  -1.000000;0.000000;0.000000;,
  -1.000000;0.000000;0.000000;,
  0.000000;0.000000;1.000000;,
  0.000000;0.000000;1.000000;,
  1.000000;0.000000;0.000000;,
  1.000000;0.000000;0.000000;,
  1.000000;0.000000;0.000000;,
  1.000000;0.000000;0.000000;,
  0.000000;1.000000;0.000000;,
  0.000000;1.000000;0.000000;,
  0.000000;1.000000;0.000000;,
  0.000000;1.000000;0.000000;,
  0.000000;-1.000000;0.000000;,
  0.000000;-1.000000;0.000000;,
  0.000000;-1.000000;0.000000;,
  0.000000;-1.000000;0.000000;,
  0.000000;1.000000;0.000000;,
  0.000000;1.000000;0.000000;,
  0.000000;1.000000;0.000000;,
  0.000000;1.000000;0.000000;,
  0.000000;0.000000;-1.000000;,
  0.000000;0.000000;-1.000000;,
  0.000000;0.000000;-1.000000;,
  0.000000;0.000000;-1.000000;,
  0.000000;0.000000;-1.000000;,
  0.000000;0.000000;-1.000000;,
  0.000000;0.000000;-1.000000;,
  0.000000;0.000000;-1.000000;,
  0.000000;0.000000;-1.000000;,
  0.000000;0.000000;-1.000000;,
  0.000000;0.000000;-1.000000;,
  0.000000;0.000000;-1.000000;,
  0.000000;0.000000;-1.000000;,
  0.000000;0.000000;-1.000000;,
  0.000000;0.000000;-1.000000;,
  0.000000;0.000000;-1.000000;,
  0.000000;0.000000;-1.000000;,
  0.000000;0.000000;-1.000000;,
  0.000000;0.000000;-1.000000;,
  0.000000;0.000000;-1.000000;,
  0.000000;0.000000;-1.000000;,
  0.000000;0.000000;-1.000000;,
  0.000000;0.000000;-1.000000;,
  0.000000;0.000000;-1.000000;,
  0.000000;0.000000;-1.000000;,
  0.000000;0.000000;-1.000000;,
  0.000000;0.000000;-1.000000;,
  0.000000;0.000000;-1.000000;,
  0.000000;0.000000;-1.000000;,
  0.000000;0.000000;-1.000000;,
  0.000000;0.000000;-1.000000;,
  0.000000;0.000000;-1.000000;,
  0.000000;0.000000;-1.000000;,
  0.000000;0.000000;-1.000000;,
  0.000000;0.000000;-1.000000;,
  0.000000;0.000000;-1.000000;,
  0.000000;0.000000;-1.000000;,
  0.000000;0.000000;-1.000000;,
  0.000000;0.000000;-1.000000;,
  0.000000;0.000000;-1.000000;,
  0.000000;0.000000;-1.000000;,
  0.000000;0.000000;-1.000000;,
  0.000000;0.000000;-1.000000;,
  0.000000;0.000000;-1.000000;,
  0.000000;0.000000;-1.000000;,
  0.000000;0.000000;-1.000000;,
  0.000000;0.000000;-1.000000;,
  0.000000;0.000000;-1.000000;,
  0.000000;0.000000;-1.000000;,
  0.000000;0.000000;-1.000000;,
  0.000000;0.000000;-1.000000;,
  0.000000;0.000000;-1.000000;,
  0.000000;0.000000;-1.000000;,
  0.000000;0.000000;-1.000000;,
  0.000000;0.000000;-1.000000;,
  0.000000;0.000000;-1.000000;,
  0.000000;0.000000;-1.000000;,
  0.000000;0.000000;-1.000000;,
  0.000000;0.000000;-1.000000;,
  0.000000;0.000000;-1.000000;,
  0.000000;0.000000;-1.000000;,
  0.000000;0.000000;-1.000000;,
  0.000000;0.000000;-1.000000;,
  0.000000;0.000000;-1.000000;;
  182;
  3;3,2,1;,
  3;3,1,0;,
  3;4,5,6;,
  3;4,6,7;,
  3;8,9,10;,
  3;8,10,11;,
  3;104,105,14;,
  3;104,14,15;,
  3;106,107,13;,
  3;106,13,12;,
  3;108,109,110;,
  3;108,110,111;,
  3;112,113,114;,
  3;112,114,115;,
  3;116,117,118;,
  3;116,118,119;,
  3;16,17,18;,
  3;16,18,19;,
  3;120,121,22;,
  3;120,22,23;,
  3;122,123,21;,
  3;122,21,20;,
  3;124,125,126;,
  3;124,126,127;,
  3;128,129,130;,
  3;128,130,131;,
  3;132,133,134;,
  3;132,134,135;,
  3;24,25,26;,
  3;24,26,27;,
  3;136,137,30;,
  3;136,30,31;,
  3;138,139,29;,
  3;138,29,28;,
  3;140,141,142;,
  3;140,142,143;,
  3;144,145,146;,
  3;144,146,147;,
  3;148,149,150;,
  3;148,150,151;,
  3;32,33,34;,
  3;32,34,35;,
  3;152,153,38;,
  3;152,38,39;,
  3;154,155,37;,
  3;154,37,36;,
  3;156,157,158;,
  3;156,158,159;,
  3;160,161,162;,
  3;160,162,163;,
  3;164,165,166;,
  3;164,166,167;,
  3;40,41,42;,
  3;40,42,43;,
  3;168,169,46;,
  3;168,46,47;,
  3;170,171,45;,
  3;170,45,44;,
  3;172,173,174;,
  3;172,174,175;,
  3;176,177,178;,
  3;176,178,179;,
  3;180,181,182;,
  3;180,182,183;,
  3;48,49,50;,
  3;48,50,51;,
  3;184,185,54;,
  3;184,54,55;,
  3;186,187,53;,
  3;186,53,52;,
  3;188,189,190;,
  3;188,190,191;,
  3;192,193,194;,
  3;192,194,195;,
  3;196,197,198;,
  3;196,198,199;,
  3;56,57,58;,
  3;56,58,59;,
  3;200,201,62;,
  3;200,62,63;,
  3;202,203,61;,
  3;202,61,60;,
  3;204,205,206;,
  3;204,206,207;,
  3;208,209,210;,
  3;208,210,211;,
  3;212,213,214;,
  3;212,214,215;,
  3;64,65,66;,
  3;64,66,67;,
  3;216,217,70;,
  3;216,70,71;,
  3;218,219,69;,
  3;218,69,68;,
  3;220,221,222;,
  3;220,222,223;,
  3;224,225,226;,
  3;224,226,227;,
  3;228,229,230;,
  3;228,230,231;,
  3;72,73,74;,
  3;72,74,75;,
  3;232,233,78;,
  3;232,78,79;,
  3;234,235,77;,
  3;234,77,76;,
  3;236,237,238;,
  3;236,238,239;,
  3;240,241,242;,
  3;240,242,243;,
  3;244,245,246;,
  3;244,246,247;,
  3;80,81,82;,
  3;80,82,83;,
  3;248,249,86;,
  3;248,86,87;,
  3;250,251,85;,
  3;250,85,84;,
  3;252,253,254;,
  3;252,254,255;,
  3;256,257,258;,
  3;256,258,259;,
  3;260,261,262;,
  3;260,262,263;,
  3;88,89,90;,
  3;88,90,91;,
  3;264,265,94;,
  3;264,94,95;,
  3;266,267,93;,
  3;266,93,92;,
  3;268,269,270;,
  3;268,270,271;,
  3;272,273,274;,
  3;272,274,275;,
  3;276,277,278;,
  3;276,278,279;,
  3;96,97,98;,
  3;96,98,99;,
  3;280,281,102;,
  3;280,102,103;,
  3;282,283,101;,
  3;282,101,100;,
  3;284,285,286;,
  3;284,286,287;,
  3;288,289,290;,
  3;288,290,291;,
  3;292,293,294;,
  3;292,294,295;,
  3;296,297,298;,
  3;296,298,299;,
  3;300,301,302;,
  3;301,303,302;,
  3;304,305,306;,
  3;305,307,306;,
  3;308,309,310;,
  3;309,311,310;,
  3;312,313,314;,
  3;313,315,314;,
  3;316,317,318;,
  3;317,319,318;,
  3;320,321,322;,
  3;321,323,322;,
  3;324,325,326;,
  3;325,327,326;,
  3;328,329,330;,
  3;329,331,330;,
  3;332,333,334;,
  3;333,335,334;,
  3;336,337,338;,
  3;337,339,338;,
  3;340,341,342;,
  3;341,343,342;,
  3;344,345,346;,
  3;345,347,346;,
  3;348,349,350;,
  3;349,351,350;,
  3;352,353,354;,
  3;353,355,354;,
  3;356,357,358;,
  3;357,359,358;,
  3;360,361,362;,
  3;361,363,362;;
 }

 MeshTextureCoords {
  364;
  6.000000;1.000000;,
  6.000000;0.000000;,
  0.000000;0.000000;,
  0.000000;1.000000;,
  3.000000;1.000000;,
  3.000000;0.000000;,
  0.000000;0.000000;,
  0.000000;1.000000;,
  0.000000;0.000000;,
  0.000000;0.000000;,
  0.000000;0.000000;,
  0.000000;0.000000;,
  0.000000;0.000000;,
  0.000000;0.000000;,
  0.000000;0.000000;,
  0.000000;0.000000;,
  0.000000;0.000000;,
  0.000000;0.000000;,
  0.000000;0.000000;,
  0.000000;0.000000;,
  0.000000;0.000000;,
  0.000000;0.000000;,
  0.000000;0.000000;,
  0.000000;0.000000;,
  0.000000;0.000000;,
  0.000000;0.000000;,
  0.000000;0.000000;,
  0.000000;0.000000;,
  0.000000;0.000000;,
  0.000000;0.000000;,
  0.000000;0.000000;,
  0.000000;0.000000;,
  0.000000;0.000000;,
  0.000000;0.000000;,
  0.000000;0.000000;,
  0.000000;0.000000;,
  0.000000;0.000000;,
  0.000000;0.000000;,
  0.000000;0.000000;,
  0.000000;0.000000;,
  0.000000;0.000000;,
  0.000000;0.000000;,
  0.000000;0.000000;,
  0.000000;0.000000;,
  0.000000;0.000000;,
  0.000000;0.000000;,
  0.000000;0.000000;,
  0.000000;0.000000;,
  0.000000;0.000000;,
  0.000000;0.000000;,
  0.000000;0.000000;,
  0.000000;0.000000;,
  0.000000;0.000000;,
  0.000000;0.000000;,
  0.000000;0.000000;,
  0.000000;0.000000;,
  0.000000;0.000000;,
  0.000000;0.000000;,
  0.000000;0.000000;,
  0.000000;0.000000;,
  0.000000;0.000000;,
  0.000000;0.000000;,
  0.000000;0.000000;,
  0.000000;0.000000;,
  0.000000;0.000000;,
  0.000000;0.000000;,
  0.000000;0.000000;,
  0.000000;0.000000;,
  0.000000;0.000000;,
  0.000000;0.000000;,
  0.000000;0.000000;,
  0.000000;0.000000;,
  0.000000;0.000000;,
  0.000000;0.000000;,
  0.000000;0.000000;,
  0.000000;0.000000;,
  0.000000;0.000000;,
  0.000000;0.000000;,
  0.000000;0.000000;,
  0.000000;0.000000;,
  0.000000;0.000000;,
  0.000000;0.000000;,
  0.000000;0.000000;,
  0.000000;0.000000;,
  0.000000;0.000000;,
  0.000000;0.000000;,
  0.000000;0.000000;,
  0.000000;0.000000;,
  0.000000;0.000000;,
  0.000000;0.000000;,
  0.000000;0.000000;,
  0.000000;0.000000;,
  0.000000;0.000000;,
  0.000000;0.000000;,
  0.000000;0.000000;,
  0.000000;0.000000;,
  0.000000;0.000000;,
  0.000000;0.000000;,
  0.000000;0.000000;,
  0.000000;0.000000;,
  0.000000;0.000000;,
  0.000000;0.000000;,
  0.000000;0.000000;,
  0.000000;0.000000;,
  0.000000;0.000000;,
  0.000000;0.000000;,
  0.000000;0.000000;,
  0.000000;0.000000;,
  0.000000;0.000000;,
  0.000000;0.000000;,
  0.000000;0.000000;,
  0.000000;0.000000;,
  0.000000;0.000000;,
  0.000000;0.000000;,
  0.000000;0.000000;,
  0.000000;0.000000;,
  0.000000;0.000000;,
  0.000000;0.000000;,
  0.000000;0.000000;,
  0.000000;0.000000;,
  0.000000;0.000000;,
  0.000000;0.000000;,
  0.000000;0.000000;,
  0.000000;0.000000;,
  0.000000;0.000000;,
  0.000000;0.000000;,
  0.000000;0.000000;,
  0.000000;0.000000;,
  0.000000;0.000000;,
  0.000000;0.000000;,
  0.000000;0.000000;,
  0.000000;0.000000;,
  0.000000;0.000000;,
  0.000000;0.000000;,
  0.000000;0.000000;,
  0.000000;0.000000;,
  0.000000;0.000000;,
  0.000000;0.000000;,
  0.000000;0.000000;,
  0.000000;0.000000;,
  0.000000;0.000000;,
  0.000000;0.000000;,
  0.000000;0.000000;,
  0.000000;0.000000;,
  0.000000;0.000000;,
  0.000000;0.000000;,
  0.000000;0.000000;,
  0.000000;0.000000;,
  0.000000;0.000000;,
  0.000000;0.000000;,
  0.000000;0.000000;,
  0.000000;0.000000;,
  0.000000;0.000000;,
  0.000000;0.000000;,
  0.000000;0.000000;,
  0.000000;0.000000;,
  0.000000;0.000000;,
  0.000000;0.000000;,
  0.000000;0.000000;,
  0.000000;0.000000;,
  0.000000;0.000000;,
  0.000000;0.000000;,
  0.000000;0.000000;,
  0.000000;0.000000;,
  0.000000;0.000000;,
  0.000000;0.000000;,
  0.000000;0.000000;,
  0.000000;0.000000;,
  0.000000;0.000000;,
  0.000000;0.000000;,
  0.000000;0.000000;,
  0.000000;0.000000;,
  0.000000;0.000000;,
  0.000000;0.000000;,
  0.000000;0.000000;,
  0.000000;0.000000;,
  0.000000;0.000000;,
  0.000000;0.000000;,
  0.000000;0.000000;,
  0.000000;0.000000;,
  0.000000;0.000000;,
  0.000000;0.000000;,
  0.000000;0.000000;,
  0.000000;0.000000;,
  0.000000;0.000000;,
  0.000000;0.000000;,
  0.000000;0.000000;,
  0.000000;0.000000;,
  0.000000;0.000000;,
  0.000000;0.000000;,
  0.000000;0.000000;,
  0.000000;0.000000;,
  0.000000;0.000000;,
  0.000000;0.000000;,
  0.000000;0.000000;,
  0.000000;0.000000;,
  0.000000;0.000000;,
  0.000000;0.000000;,
  0.000000;0.000000;,
  0.000000;0.000000;,
  0.000000;0.000000;,
  0.000000;0.000000;,
  0.000000;0.000000;,
  0.000000;0.000000;,
  0.000000;0.000000;,
  0.000000;0.000000;,
  0.000000;0.000000;,
  0.000000;0.000000;,
  0.000000;0.000000;,
  0.000000;0.000000;,
  0.000000;0.000000;,
  0.000000;0.000000;,
  0.000000;0.000000;,
  0.000000;0.000000;,
  0.000000;0.000000;,
  0.000000;0.000000;,
  0.000000;0.000000;,
  0.000000;0.000000;,
  0.000000;0.000000;,
  0.000000;0.000000;,
  0.000000;0.000000;,
  0.000000;0.000000;,
  0.000000;0.000000;,
  0.000000;0.000000;,
  0.000000;0.000000;,
  0.000000;0.000000;,
  0.000000;0.000000;,
  0.000000;0.000000;,
  0.000000;0.000000;,
  0.000000;0.000000;,
  0.000000;0.000000;,
  0.000000;0.000000;,
  0.000000;0.000000;,
  0.000000;0.000000;,
  0.000000;0.000000;,
  0.000000;0.000000;,
  0.000000;0.000000;,
  0.000000;0.000000;,
  0.000000;0.000000;,
  0.000000;0.000000;,
  0.000000;0.000000;,
  0.000000;0.000000;,
  0.000000;0.000000;,
  0.000000;0.000000;,
  0.000000;0.000000;,
  0.000000;0.000000;,
  0.000000;0.000000;,
  0.000000;0.000000;,
  0.000000;0.000000;,
  0.000000;0.000000;,
  0.000000;0.000000;,
  0.000000;0.000000;,
  0.000000;0.000000;,
  0.000000;0.000000;,
  0.000000;0.000000;,
  0.000000;0.000000;,
  0.000000;0.000000;,
  0.000000;0.000000;,
  0.000000;0.000000;,
  0.000000;0.000000;,
  0.000000;0.000000;,
  0.000000;0.000000;,
  0.000000;0.000000;,
  0.000000;0.000000;,
  0.000000;0.000000;,
  0.000000;0.000000;,
  0.000000;0.000000;,
  0.000000;0.000000;,
  0.000000;0.000000;,
  0.000000;0.000000;,
  0.000000;0.000000;,
  0.000000;0.000000;,
  0.000000;0.000000;,
  0.000000;0.000000;,
  0.000000;0.000000;,
  0.000000;0.000000;,
  0.000000;0.000000;,
  0.000000;0.000000;,
  0.000000;0.000000;,
  0.000000;0.000000;,
  0.000000;0.000000;,
  0.000000;0.000000;,
  0.000000;0.000000;,
  0.000000;0.000000;,
  0.000000;0.000000;,
  0.000000;0.000000;,
  0.000000;0.000000;,
  0.000000;0.000000;,
  0.000000;0.000000;,
  0.000000;0.000000;,
  0.000000;0.000000;,
  0.000000;0.000000;,
  0.000000;0.000000;,
  0.000000;0.000000;,
  0.000000;0.000000;,
  0.000000;0.000000;,
  1.000000;2.000000;,
  1.000000;0.000000;,
  0.000000;0.000000;,
  0.000000;2.000000;,
  0.000000;0.000000;,
  1.000000;0.000000;,
  0.000000;1.000000;,
  1.000000;1.000000;,
  0.000000;0.000000;,
  1.000000;0.000000;,
  0.000000;1.000000;,
  1.000000;1.000000;,
  0.000000;0.000000;,
  1.000000;0.000000;,
  0.000000;1.000000;,
  1.000000;1.000000;,
  0.000000;0.000000;,
  1.000000;0.000000;,
  0.000000;1.000000;,
  1.000000;1.000000;,
  0.000000;0.000000;,
  1.000000;0.000000;,
  0.000000;1.000000;,
  1.000000;1.000000;,
  0.000000;0.000000;,
  1.000000;0.000000;,
  0.000000;1.000000;,
  1.000000;1.000000;,
  0.000000;0.000000;,
  1.000000;0.000000;,
  0.000000;1.000000;,
  1.000000;1.000000;,
  0.000000;0.000000;,
  1.000000;0.000000;,
  0.000000;1.000000;,
  1.000000;1.000000;,
  0.000000;0.000000;,
  1.000000;0.000000;,
  0.000000;1.000000;,
  1.000000;1.000000;,
  0.000000;0.000000;,
  1.000000;0.000000;,
  0.000000;1.000000;,
  1.000000;1.000000;,
  0.000000;0.000000;,
  1.000000;0.000000;,
  0.000000;1.000000;,
  1.000000;1.000000;,
  0.000000;0.000000;,
  1.000000;0.000000;,
  0.000000;1.000000;,
  1.000000;1.000000;,
  0.000000;0.000000;,
  1.000000;0.000000;,
  0.000000;1.000000;,
  1.000000;1.000000;,
  0.000000;0.000000;,
  1.000000;0.000000;,
  0.000000;1.000000;,
  1.000000;1.000000;,
  0.000000;0.000000;,
  1.000000;0.000000;,
  0.000000;1.000000;,
  1.000000;1.000000;,
  0.000000;0.000000;,
  1.000000;0.000000;,
  0.000000;1.000000;,
  1.000000;1.000000;;
 }

 MeshMaterialList {
  4;
  182;
  0,
  0,
  0,
  0,
  1,
  1,
  1,
  1,
  1,
  1,
  1,
  1,
  1,
  1,
  1,
  1,
  1,
  1,
  1,
  1,
  1,
  1,
  1,
  1,
  1,
  1,
  1,
  1,
  1,
  1,
  1,
  1,
  1,
  1,
  1,
  1,
  1,
  1,
  1,
  1,
  1,
  1,
  1,
  1,
  1,
  1,
  1,
  1,
  1,
  1,
  1,
  1,
  1,
  1,
  1,
  1,
  1,
  1,
  1,
  1,
  1,
  1,
  1,
  1,
  1,
  1,
  1,
  1,
  1,
  1,
  1,
  1,
  1,
  1,
  1,
  1,
  1,
  1,
  1,
  1,
  1,
  1,
  1,
  1,
  1,
  1,
  1,
  1,
  1,
  1,
  1,
  1,
  1,
  1,
  1,
  1,
  1,
  1,
  1,
  1,
  1,
  1,
  1,
  1,
  1,
  1,
  1,
  1,
  1,
  1,
  1,
  1,
  1,
  1,
  1,
  1,
  1,
  1,
  1,
  1,
  1,
  1,
  1,
  1,
  1,
  1,
  1,
  1,
  1,
  1,
  1,
  1,
  1,
  1,
  1,
  1,
  1,
  1,
  1,
  1,
  1,
  1,
  1,
  1,
  1,
  1,
  1,
  1,
  2,
  2,
  3,
  3,
  3,
  3,
  3,
  3,
  3,
  3,
  3,
  3,
  3,
  3,
  3,
  3,
  3,
  3,
  3,
  3,
  3,
  3,
  3,
  3,
  3,
  3,
  3,
  3,
  3,
  3,
  3,
  3,
  3,
  3;

  Material {
   1.000000;1.000000;1.000000;1.000000;;
   0.000000;
   0.000000;0.000000;0.000000;;
   0.000000;0.000000;0.000000;;

   TextureFilename {
    "tk_r_03.dds";
   }
  }

  Material {
   0.662745;0.305882;0.227451;1.000000;;
   0.000000;
   0.000000;0.000000;0.000000;;
   0.000000;0.000000;0.000000;;
  }

  Material {
   1.000000;1.000000;1.000000;1.000000;;
   0.000000;
   0.000000;0.000000;0.000000;;
   0.000000;0.000000;0.000000;;

   TextureFilename {
    "tk_r_01.dds";
   }
  }

  Material {
   0.662745;0.305882;0.227451;1.000000;;
   0.000000;
   0.000000;0.000000;0.000000;;
   0.000000;0.000000;0.000000;;
  }
 }
}