xof 0303txt 0032
template Vector {
 <3d82ab5e-62da-11cf-ab39-0020af71e433>
 FLOAT x;
 FLOAT y;
 FLOAT z;
}

template MeshFace {
 <3d82ab5f-62da-11cf-ab39-0020af71e433>
 DWORD nFaceVertexIndices;
 array DWORD faceVertexIndices[nFaceVertexIndices];
}

template Mesh {
 <3d82ab44-62da-11cf-ab39-0020af71e433>
 DWORD nVertices;
 array Vector vertices[nVertices];
 DWORD nFaces;
 array MeshFace faces[nFaces];
 [...]
}

template ColorRGBA {
 <35ff44e0-6c7c-11cf-8f52-0040333594a3>
 FLOAT red;
 FLOAT green;
 FLOAT blue;
 FLOAT alpha;
}

template ColorRGB {
 <d3e16e81-7835-11cf-8f52-0040333594a3>
 FLOAT red;
 FLOAT green;
 FLOAT blue;
}

template Material {
 <3d82ab4d-62da-11cf-ab39-0020af71e433>
 ColorRGBA faceColor;
 FLOAT power;
 ColorRGB specularColor;
 ColorRGB emissiveColor;
 [...]
}

template MeshMaterialList {
 <f6f23f42-7686-11cf-8f52-0040333594a3>
 DWORD nMaterials;
 DWORD nFaceIndexes;
 array DWORD faceIndexes[nFaceIndexes];
 [Material <3d82ab4d-62da-11cf-ab39-0020af71e433>]
}

template Coords2d {
 <f6f23f44-7686-11cf-8f52-0040333594a3>
 FLOAT u;
 FLOAT v;
}

template MeshTextureCoords {
 <f6f23f40-7686-11cf-8f52-0040333594a3>
 DWORD nTextureCoords;
 array Coords2d textureCoords[nTextureCoords];
}

template MeshNormals {
 <f6f23f43-7686-11cf-8f52-0040333594a3>
 DWORD nNormals;
 array Vector normals[nNormals];
 DWORD nFaceNormals;
 array MeshFace faceNormals[nFaceNormals];
}


Mesh  {
 74;
 0.057000;0.700000;0.000000;,
 0.057000;-0.300000;0.000000;,
 0.052661;0.700000;0.021813;,
 0.052661;-0.300000;0.021813;,
 0.040305;0.700000;0.040305;,
 0.040305;-0.300000;0.040305;,
 0.021813;0.700000;0.052661;,
 0.021813;-0.300000;0.052661;,
 0.000000;0.700000;0.057000;,
 0.000000;-0.300000;0.057000;,
 -0.021813;0.700000;0.052661;,
 -0.021813;-0.300000;0.052661;,
 -0.040305;0.700000;0.040305;,
 -0.040305;-0.300000;0.040305;,
 -0.052661;0.700000;0.021813;,
 -0.052661;-0.300000;0.021813;,
 -0.057000;0.700000;0.000000;,
 -0.057000;-0.300000;0.000000;,
 -0.052661;0.700000;-0.021813;,
 -0.052661;-0.300000;-0.021813;,
 -0.040305;0.700000;-0.040305;,
 -0.040305;-0.300000;-0.040305;,
 -0.021813;0.700000;-0.052661;,
 -0.021813;-0.300000;-0.052661;,
 -0.000000;0.700000;-0.057000;,
 -0.000000;-0.300000;-0.057000;,
 0.021813;0.700000;-0.052661;,
 0.021813;-0.300000;-0.052661;,
 0.040305;0.700000;-0.040305;,
 0.040305;-0.300000;-0.040305;,
 0.052661;0.700000;-0.021813;,
 0.052661;-0.300000;-0.021813;,
 -0.080000;0.640000;0.206000;,
 -0.080000;0.560000;0.206000;,
 -0.084000;0.778000;0.160000;,
 -0.130000;0.732000;0.160000;,
 -0.130000;0.686000;0.160000;,
 -0.130000;0.514000;0.160000;,
 -0.130000;0.468000;0.160000;,
 -0.084000;0.422000;0.160000;,
 -0.084000;0.778000;-0.160000;,
 -0.130000;0.732000;-0.160000;,
 -0.130000;0.468000;-0.160000;,
 -0.084000;0.422000;-0.160000;,
 -0.130000;0.778000;-0.206000;,
 -0.130000;0.422000;-0.206000;,
 -0.130000;0.778000;-0.400000;,
 -0.130000;0.422000;-0.400000;,
 -0.126000;0.778000;-0.425000;,
 -0.126000;0.422000;-0.425000;,
 -0.116000;0.778000;-0.450000;,
 -0.116000;0.422000;-0.450000;,
 -0.101000;0.778000;-0.470000;,
 -0.101000;0.422000;-0.470000;,
 -0.080000;0.778000;-0.486000;,
 -0.080000;0.422000;-0.486000;,
 -0.056000;0.778000;-0.497000;,
 -0.056000;0.422000;-0.497000;,
 -0.030000;0.778000;-0.500000;,
 -0.030000;0.422000;-0.500000;,
 -0.004000;0.778000;-0.497000;,
 -0.004000;0.422000;-0.497000;,
 0.020000;0.778000;-0.486000;,
 0.020000;0.422000;-0.486000;,
 0.042000;0.778000;-0.470000;,
 0.042000;0.422000;-0.470000;,
 0.057000;0.778000;-0.450000;,
 0.057000;0.422000;-0.450000;,
 0.067000;0.778000;-0.425000;,
 0.067000;0.422000;-0.425000;,
 0.070000;0.778000;-0.400000;,
 0.070000;0.422000;-0.400000;,
 0.070000;0.778000;-0.300000;,
 0.070000;0.422000;-0.300000;;
 140;
 3;1,0,2;,
 3;1,2,3;,
 3;3,2,4;,
 3;3,4,5;,
 3;5,4,6;,
 3;5,6,7;,
 3;7,6,8;,
 3;7,8,9;,
 3;9,8,10;,
 3;9,10,11;,
 3;11,10,12;,
 3;11,12,13;,
 3;13,12,14;,
 3;13,14,15;,
 3;15,14,16;,
 3;15,16,17;,
 3;17,16,18;,
 3;17,18,19;,
 3;19,18,20;,
 3;19,20,21;,
 3;21,20,22;,
 3;21,22,23;,
 3;23,22,24;,
 3;23,24,25;,
 3;25,24,26;,
 3;25,26,27;,
 3;27,26,28;,
 3;27,28,29;,
 3;29,28,30;,
 3;29,30,31;,
 3;31,30,0;,
 3;31,0,1;,
 3;30,28,26;,
 3;30,26,24;,
 3;30,24,22;,
 3;30,22,20;,
 3;30,20,18;,
 3;30,18,16;,
 3;30,16,14;,
 3;30,14,12;,
 3;30,12,10;,
 3;30,10,8;,
 3;30,8,6;,
 3;30,6,4;,
 3;30,4,2;,
 3;30,2,0;,
 3;1,3,5;,
 3;1,5,7;,
 3;1,7,9;,
 3;1,9,11;,
 3;1,11,13;,
 3;1,13,15;,
 3;1,15,17;,
 3;1,17,19;,
 3;1,19,21;,
 3;1,21,23;,
 3;1,23,25;,
 3;1,25,27;,
 3;1,27,29;,
 3;1,29,31;,
 3;32,33,37;,
 3;32,37,36;,
 3;36,37,33;,
 3;36,33,32;,
 3;34,35,41;,
 3;34,41,40;,
 3;40,41,35;,
 3;40,35,34;,
 3;35,38,42;,
 3;35,42,41;,
 3;41,42,38;,
 3;41,38,35;,
 3;38,39,43;,
 3;38,43,42;,
 3;42,43,39;,
 3;42,39,38;,
 3;40,41,44;,
 3;44,41,40;,
 3;42,43,45;,
 3;45,43,42;,
 3;44,41,42;,
 3;44,42,45;,
 3;45,42,41;,
 3;45,41,44;,
 3;44,45,47;,
 3;44,47,46;,
 3;46,47,45;,
 3;46,45,44;,
 3;46,47,49;,
 3;46,49,48;,
 3;48,49,47;,
 3;48,47,46;,
 3;48,49,51;,
 3;48,51,50;,
 3;50,51,49;,
 3;50,49,48;,
 3;50,51,53;,
 3;50,53,52;,
 3;52,53,51;,
 3;52,51,50;,
 3;52,53,55;,
 3;52,55,54;,
 3;54,55,53;,
 3;54,53,52;,
 3;54,55,57;,
 3;54,57,56;,
 3;56,57,55;,
 3;56,55,54;,
 3;56,57,59;,
 3;56,59,58;,
 3;58,59,57;,
 3;58,57,56;,
 3;58,59,61;,
 3;58,61,60;,
 3;60,61,59;,
 3;60,59,58;,
 3;60,61,63;,
 3;60,63,62;,
 3;62,63,61;,
 3;62,61,60;,
 3;62,63,65;,
 3;62,65,64;,
 3;64,65,63;,
 3;64,63,62;,
 3;64,65,67;,
 3;64,67,66;,
 3;66,67,65;,
 3;66,65,64;,
 3;66,67,69;,
 3;66,69,68;,
 3;68,69,67;,
 3;68,67,66;,
 3;68,69,71;,
 3;68,71,70;,
 3;70,71,69;,
 3;70,69,68;,
 3;70,71,73;,
 3;70,73,72;,
 3;72,73,71;,
 3;72,71,70;;

 MeshMaterialList  {
  2;
  140;
  0,
  0,
  0,
  0,
  0,
  0,
  0,
  0,
  0,
  0,
  0,
  0,
  0,
  0,
  0,
  0,
  0,
  0,
  0,
  0,
  0,
  0,
  0,
  0,
  0,
  0,
  0,
  0,
  0,
  0,
  0,
  0,
  0,
  0,
  0,
  0,
  0,
  0,
  0,
  0,
  0,
  0,
  0,
  0,
  0,
  0,
  0,
  0,
  0,
  0,
  0,
  0,
  0,
  0,
  0,
  0,
  0,
  0,
  0,
  0,
  1,
  1,
  1,
  1,
  1,
  1,
  1,
  1,
  1,
  1,
  1,
  1,
  1,
  1,
  1,
  1,
  1,
  1,
  1,
  1,
  1,
  1,
  1,
  1,
  1,
  1,
  1,
  1,
  1,
  1,
  1,
  1,
  1,
  1,
  1,
  1,
  1,
  1,
  1,
  1,
  1,
  1,
  1,
  1,
  1,
  1,
  1,
  1,
  1,
  1,
  1,
  1,
  1,
  1,
  1,
  1,
  1,
  1,
  1,
  1,
  1,
  1,
  1,
  1,
  1,
  1,
  1,
  1,
  1,
  1,
  1,
  1,
  1,
  1,
  1,
  1,
  1,
  1,
  1,
  1;

  Material  {
   0.862745;0.862745;0.862745;1.000000;;
   0.000000;
   0.000000;0.000000;0.000000;;
   0.000000;0.000000;0.000000;;
  }

  Material  {
   0.862745;0.862745;0.862745;1.000000;;
   0.000000;
   0.000000;0.000000;0.000000;;
   0.000000;0.000000;0.000000;;
  }
 }

 MeshTextureCoords  {
  74;
  0.000000;0.000000;,
  0.000000;0.000000;,
  0.000000;0.000000;,
  0.000000;0.000000;,
  0.000000;0.000000;,
  0.000000;0.000000;,
  0.000000;0.000000;,
  0.000000;0.000000;,
  0.000000;0.000000;,
  0.000000;0.000000;,
  0.000000;0.000000;,
  0.000000;0.000000;,
  0.000000;0.000000;,
  0.000000;0.000000;,
  0.000000;0.000000;,
  0.000000;0.000000;,
  0.000000;0.000000;,
  0.000000;0.000000;,
  0.000000;0.000000;,
  0.000000;0.000000;,
  0.000000;0.000000;,
  0.000000;0.000000;,
  0.000000;0.000000;,
  0.000000;0.000000;,
  0.000000;0.000000;,
  0.000000;0.000000;,
  0.000000;0.000000;,
  0.000000;0.000000;,
  0.000000;0.000000;,
  0.000000;0.000000;,
  0.000000;0.000000;,
  0.000000;0.000000;,
  0.000000;0.000000;,
  0.000000;0.000000;,
  0.000000;0.000000;,
  0.000000;0.000000;,
  0.000000;0.000000;,
  0.000000;0.000000;,
  0.000000;0.000000;,
  0.000000;0.000000;,
  0.000000;0.000000;,
  0.000000;0.000000;,
  0.000000;0.000000;,
  0.000000;0.000000;,
  0.000000;0.000000;,
  0.000000;0.000000;,
  0.000000;0.000000;,
  0.000000;0.000000;,
  0.000000;0.000000;,
  0.000000;0.000000;,
  0.000000;0.000000;,
  0.000000;0.000000;,
  0.000000;0.000000;,
  0.000000;0.000000;,
  0.000000;0.000000;,
  0.000000;0.000000;,
  0.000000;0.000000;,
  0.000000;0.000000;,
  0.000000;0.000000;,
  0.000000;0.000000;,
  0.000000;0.000000;,
  0.000000;0.000000;,
  0.000000;0.000000;,
  0.000000;0.000000;,
  0.000000;0.000000;,
  0.000000;0.000000;,
  0.000000;0.000000;,
  0.000000;0.000000;,
  0.000000;0.000000;,
  0.000000;0.000000;,
  0.000000;0.000000;,
  0.000000;0.000000;,
  0.000000;0.000000;,
  0.000000;0.000000;;
 }

 MeshNormals  {
  112;
  0.703702;0.707107;-0.069309;,
  0.000096;-1.000000;0.000000;,
  0.353553;0.923880;0.146447;,
  0.623612;-0.707107;0.333328;,
  0.270598;0.923880;0.270598;,
  0.242772;-0.923880;0.295818;,
  0.146447;0.923880;0.353553;,
  0.111087;-0.923880;0.366205;,
  0.000000;0.923880;0.382683;,
  -0.037510;-0.923880;0.380841;,
  -0.146447;0.923880;0.353553;,
  -0.180396;-0.923880;0.337497;,
  -0.270598;0.923880;0.270598;,
  -0.295818;-0.923880;0.242772;,
  -0.353553;0.923880;0.146447;,
  -0.366205;-0.923880;0.111087;,
  -0.382683;0.923880;0.000000;,
  -0.380841;-0.923880;-0.037510;,
  -0.353553;0.923880;-0.146447;,
  -0.337497;-0.923880;-0.180396;,
  -0.270598;0.923880;-0.270598;,
  -0.242772;-0.923880;-0.295818;,
  -0.146447;0.923880;-0.353553;,
  -0.111087;-0.923880;-0.366205;,
  0.000000;0.923880;-0.382683;,
  0.037510;-0.923880;-0.380841;,
  0.146447;0.923880;-0.353553;,
  0.180396;-0.923880;-0.337497;,
  0.500000;0.707107;-0.500000;,
  0.295818;-0.923880;-0.242772;,
  0.000089;1.000000;-0.000037;,
  0.676659;-0.707107;-0.205262;,
  0.677057;0.000000;-0.735931;,
  0.677057;0.000000;-0.735931;,
  -0.677057;0.000000;0.735931;,
  -0.677057;0.000000;0.735931;,
  0.707107;-0.707107;0.000000;,
  0.707107;-0.707107;0.000000;,
  -0.707107;0.707107;0.000000;,
  -0.707107;0.707107;0.000000;,
  1.000000;0.000000;0.000000;,
  1.000000;0.000000;0.000000;,
  -1.000000;0.000000;0.000000;,
  -1.000000;0.000000;0.000000;,
  0.707107;0.707107;0.000000;,
  0.707107;0.707107;0.000000;,
  -0.707107;-0.707107;0.000000;,
  -0.707107;-0.707107;0.000000;,
  0.577350;-0.577350;-0.577350;,
  -0.577350;0.577350;0.577350;,
  0.577350;0.577350;-0.577350;,
  -0.577350;-0.577350;0.577350;,
  1.000000;0.000000;0.000000;,
  1.000000;0.000000;0.000000;,
  -1.000000;0.000000;0.000000;,
  -1.000000;0.000000;0.000000;,
  1.000000;0.000000;0.000000;,
  1.000000;0.000000;0.000000;,
  -1.000000;0.000000;0.000000;,
  -1.000000;0.000000;0.000000;,
  0.987441;0.000000;0.157990;,
  0.987441;0.000000;0.157990;,
  -0.987441;0.000000;-0.157990;,
  -0.987441;0.000000;-0.157990;,
  0.928477;0.000000;0.371391;,
  0.928477;0.000000;0.371391;,
  -0.928477;0.000000;-0.371391;,
  -0.928477;0.000000;-0.371391;,
  0.800000;0.000000;0.600000;,
  0.800000;0.000000;0.600000;,
  -0.800000;0.000000;-0.600000;,
  -0.800000;0.000000;-0.600000;,
  0.606043;0.000000;0.795432;,
  0.606043;0.000000;0.795432;,
  -0.606043;0.000000;-0.795432;,
  -0.606043;0.000000;-0.795432;,
  0.416655;0.000000;0.909065;,
  0.416655;0.000000;0.909065;,
  -0.416655;0.000000;-0.909065;,
  -0.416655;0.000000;-0.909065;,
  0.114624;0.000000;0.993409;,
  0.114624;0.000000;0.993409;,
  -0.114624;0.000000;-0.993409;,
  -0.114624;0.000000;-0.993409;,
  -0.114624;0.000000;0.993409;,
  -0.114624;0.000000;0.993409;,
  0.114624;0.000000;-0.993409;,
  0.114624;0.000000;-0.993409;,
  -0.416655;0.000000;0.909065;,
  -0.416655;0.000000;0.909065;,
  0.416655;0.000000;-0.909065;,
  0.416655;0.000000;-0.909065;,
  -0.588172;0.000000;0.808736;,
  -0.588172;0.000000;0.808736;,
  0.588172;0.000000;-0.808736;,
  0.588172;0.000000;-0.808736;,
  -0.800000;0.000000;0.600000;,
  -0.800000;0.000000;0.600000;,
  0.800000;0.000000;-0.600000;,
  0.800000;0.000000;-0.600000;,
  -0.928477;0.000000;0.371391;,
  -0.928477;0.000000;0.371391;,
  0.928477;0.000000;-0.371391;,
  0.928477;0.000000;-0.371391;,
  -0.992877;0.000000;0.119145;,
  -0.992877;0.000000;0.119145;,
  0.992877;0.000000;-0.119145;,
  0.992877;0.000000;-0.119145;,
  -1.000000;0.000000;0.000000;,
  -1.000000;0.000000;0.000000;,
  1.000000;0.000000;0.000000;,
  1.000000;0.000000;0.000000;;
  140;
  3;1,0,2;,
  3;1,2,3;,
  3;3,2,4;,
  3;3,4,5;,
  3;5,4,6;,
  3;5,6,7;,
  3;7,6,8;,
  3;7,8,9;,
  3;9,8,10;,
  3;9,10,11;,
  3;11,10,12;,
  3;11,12,13;,
  3;13,12,14;,
  3;13,14,15;,
  3;15,14,16;,
  3;15,16,17;,
  3;17,16,18;,
  3;17,18,19;,
  3;19,18,20;,
  3;19,20,21;,
  3;21,20,22;,
  3;21,22,23;,
  3;23,22,24;,
  3;23,24,25;,
  3;25,24,26;,
  3;25,26,27;,
  3;27,26,28;,
  3;27,28,29;,
  3;29,28,30;,
  3;29,30,31;,
  3;31,30,0;,
  3;31,0,1;,
  3;30,28,26;,
  3;30,26,24;,
  3;30,24,22;,
  3;30,22,20;,
  3;30,20,18;,
  3;30,18,16;,
  3;30,16,14;,
  3;30,14,12;,
  3;30,12,10;,
  3;30,10,8;,
  3;30,8,6;,
  3;30,6,4;,
  3;30,4,2;,
  3;30,2,0;,
  3;1,3,5;,
  3;1,5,7;,
  3;1,7,9;,
  3;1,9,11;,
  3;1,11,13;,
  3;1,13,15;,
  3;1,15,17;,
  3;1,17,19;,
  3;1,19,21;,
  3;1,21,23;,
  3;1,23,25;,
  3;1,25,27;,
  3;1,27,29;,
  3;1,29,31;,
  3;32,32,32;,
  3;33,33,33;,
  3;34,34,34;,
  3;35,35,35;,
  3;36,36,36;,
  3;37,37,37;,
  3;38,38,38;,
  3;39,39,39;,
  3;40,40,40;,
  3;41,41,41;,
  3;42,42,42;,
  3;43,43,43;,
  3;44,44,44;,
  3;45,45,45;,
  3;46,46,46;,
  3;47,47,47;,
  3;48,48,48;,
  3;49,49,49;,
  3;50,50,50;,
  3;51,51,51;,
  3;52,52,52;,
  3;53,53,53;,
  3;54,54,54;,
  3;55,55,55;,
  3;56,56,56;,
  3;57,57,57;,
  3;58,58,58;,
  3;59,59,59;,
  3;60,60,60;,
  3;61,61,61;,
  3;62,62,62;,
  3;63,63,63;,
  3;64,64,64;,
  3;65,65,65;,
  3;66,66,66;,
  3;67,67,67;,
  3;68,68,68;,
  3;69,69,69;,
  3;70,70,70;,
  3;71,71,71;,
  3;72,72,72;,
  3;73,73,73;,
  3;74,74,74;,
  3;75,75,75;,
  3;76,76,76;,
  3;77,77,77;,
  3;78,78,78;,
  3;79,79,79;,
  3;80,80,80;,
  3;81,81,81;,
  3;82,82,82;,
  3;83,83,83;,
  3;84,84,84;,
  3;85,85,85;,
  3;86,86,86;,
  3;87,87,87;,
  3;88,88,88;,
  3;89,89,89;,
  3;90,90,90;,
  3;91,91,91;,
  3;92,92,92;,
  3;93,93,93;,
  3;94,94,94;,
  3;95,95,95;,
  3;96,96,96;,
  3;97,97,97;,
  3;98,98,98;,
  3;99,99,99;,
  3;100,100,100;,
  3;101,101,101;,
  3;102,102,102;,
  3;103,103,103;,
  3;104,104,104;,
  3;105,105,105;,
  3;106,106,106;,
  3;107,107,107;,
  3;108,108,108;,
  3;109,109,109;,
  3;110,110,110;,
  3;111,111,111;;
 }
}