xof 0303txt 0032
template Vector {
 <3d82ab5e-62da-11cf-ab39-0020af71e433>
 FLOAT x;
 FLOAT y;
 FLOAT z;
}

template MeshFace {
 <3d82ab5f-62da-11cf-ab39-0020af71e433>
 DWORD nFaceVertexIndices;
 array DWORD faceVertexIndices[nFaceVertexIndices];
}

template Mesh {
 <3d82ab44-62da-11cf-ab39-0020af71e433>
 DWORD nVertices;
 array Vector vertices[nVertices];
 DWORD nFaces;
 array MeshFace faces[nFaces];
 [...]
}

template ColorRGBA {
 <35ff44e0-6c7c-11cf-8f52-0040333594a3>
 FLOAT red;
 FLOAT green;
 FLOAT blue;
 FLOAT alpha;
}

template ColorRGB {
 <d3e16e81-7835-11cf-8f52-0040333594a3>
 FLOAT red;
 FLOAT green;
 FLOAT blue;
}

template Material {
 <3d82ab4d-62da-11cf-ab39-0020af71e433>
 ColorRGBA faceColor;
 FLOAT power;
 ColorRGB specularColor;
 ColorRGB emissiveColor;
 [...]
}

template MeshMaterialList {
 <f6f23f42-7686-11cf-8f52-0040333594a3>
 DWORD nMaterials;
 DWORD nFaceIndexes;
 array DWORD faceIndexes[nFaceIndexes];
 [Material <3d82ab4d-62da-11cf-ab39-0020af71e433>]
}

template TextureFilename {
 <a42790e1-7810-11cf-8f52-0040333594a3>
 STRING filename;
}

template Coords2d {
 <f6f23f44-7686-11cf-8f52-0040333594a3>
 FLOAT u;
 FLOAT v;
}

template MeshTextureCoords {
 <f6f23f40-7686-11cf-8f52-0040333594a3>
 DWORD nTextureCoords;
 array Coords2d textureCoords[nTextureCoords];
}

template MeshNormals {
 <f6f23f43-7686-11cf-8f52-0040333594a3>
 DWORD nNormals;
 array Vector normals[nNormals];
 DWORD nFaceNormals;
 array MeshFace faceNormals[nFaceNormals];
}


Mesh  {
 18;
 -3.700000;5.700000;7.000000;,
 3.700000;5.700000;-7.000000;,
 -3.700000;-1.800000;7.000000;,
 3.700000;-1.800000;-7.000000;,
 -3.700000;5.700000;32.000000;,
 3.700000;5.700000;18.000000;,
 -3.700000;-1.800000;32.000000;,
 3.700000;-1.800000;18.000000;,
 -4.000000;6.000000;7.150000;,
 4.000000;6.000000;-7.150000;,
 -4.000000;-1.800000;7.150000;,
 4.000000;-1.800000;-7.150000;,
 -3.700000;0.020000;32.000000;,
 3.700000;0.020000;18.000000;,
 -3.700000;0.020000;8.000000;,
 3.700000;0.020000;-6.000000;,
 -3.700000;-1.480000;7.000000;,
 3.700000;-1.480000;-7.000000;;
 20;
 3;0,4,6;,
 3;0,6,2;,
 3;4,0,1;,
 3;4,1,5;,
 3;1,3,7;,
 3;1,7,5;,
 3;0,2,10;,
 3;0,10,8;,
 3;8,9,0;,
 3;9,1,0;,
 3;9,11,3;,
 3;9,3,1;,
 3;12,13,15;,
 3;12,15,14;,
 3;14,15,13;,
 3;14,13,12;,
 3;14,15,17;,
 3;14,17,16;,
 3;16,17,15;,
 3;16,15,14;;

 MeshMaterialList  {
  2;
  20;
  0,
  0,
  0,
  0,
  0,
  0,
  0,
  0,
  0,
  0,
  0,
  0,
  1,
  1,
  1,
  1,
  1,
  1,
  1,
  1;

  Material  {
   1.000000;1.000000;1.000000;1.000000;;
   0.000000;
   0.000000;0.000000;0.000000;;
   0.000000;0.000000;0.000000;;

   TextureFilename  {
    "ConL_1.dds";
   }
  }

  Material  {
   0.000000;0.000000;0.000000;0.250980;;
   0.000000;
   0.000000;0.000000;0.000000;;
   0.000000;0.000000;0.000000;;
  }
 }

 MeshTextureCoords  {
  18;
  2.000000;0.000000;,
  4.000000;0.000000;,
  0.000000;0.000000;,
  6.000000;0.000000;,
  2.000000;5.000000;,
  4.000000;5.000000;,
  0.000000;5.000000;,
  6.000000;5.000000;,
  2.000000;0.100000;,
  4.000000;0.100000;,
  0.000000;0.100000;,
  6.000000;0.100000;,
  0.000000;0.000000;,
  0.000000;0.000000;,
  0.000000;0.000000;,
  0.000000;0.000000;,
  0.000000;0.000000;,
  0.000000;0.000000;;
 }

 MeshNormals  {
  20;
  1.000000;0.000000;0.000000;,
  1.000000;0.000000;0.000000;,
  0.000000;-1.000000;0.000000;,
  0.000000;-1.000000;0.000000;,
  -1.000000;0.000000;0.000000;,
  -1.000000;0.000000;0.000000;,
  -0.447214;0.000000;-0.894427;,
  -0.447214;0.000000;-0.894427;,
  -0.738863;-0.532187;-0.413350;,
  -0.741114;0.545248;-0.391732;,
  -0.447214;0.000000;-0.894427;,
  -0.447214;0.000000;-0.894427;,
  0.000000;1.000000;0.000000;,
  0.000000;1.000000;0.000000;,
  0.000000;-1.000000;0.000000;,
  0.000000;-1.000000;0.000000;,
  -0.844082;0.297438;-0.446157;,
  -0.844082;0.297438;-0.446157;,
  0.844082;-0.297438;0.446157;,
  0.844082;-0.297438;0.446157;;
  20;
  3;0,0,0;,
  3;1,1,1;,
  3;2,2,2;,
  3;3,3,3;,
  3;4,4,4;,
  3;5,5,5;,
  3;6,6,6;,
  3;7,7,7;,
  3;8,8,8;,
  3;9,9,9;,
  3;10,10,10;,
  3;11,11,11;,
  3;12,12,12;,
  3;13,13,13;,
  3;14,14,14;,
  3;15,15,15;,
  3;16,16,16;,
  3;17,17,17;,
  3;18,18,18;,
  3;19,19,19;;
 }
}