xof 0303txt 0032
template Vector {
 <3d82ab5e-62da-11cf-ab39-0020af71e433>
 FLOAT x;
 FLOAT y;
 FLOAT z;
}

template MeshFace {
 <3d82ab5f-62da-11cf-ab39-0020af71e433>
 DWORD nFaceVertexIndices;
 array DWORD faceVertexIndices[nFaceVertexIndices];
}

template Mesh {
 <3d82ab44-62da-11cf-ab39-0020af71e433>
 DWORD nVertices;
 array Vector vertices[nVertices];
 DWORD nFaces;
 array MeshFace faces[nFaces];
 [...]
}

template ColorRGBA {
 <35ff44e0-6c7c-11cf-8f52-0040333594a3>
 FLOAT red;
 FLOAT green;
 FLOAT blue;
 FLOAT alpha;
}

template ColorRGB {
 <d3e16e81-7835-11cf-8f52-0040333594a3>
 FLOAT red;
 FLOAT green;
 FLOAT blue;
}

template Material {
 <3d82ab4d-62da-11cf-ab39-0020af71e433>
 ColorRGBA faceColor;
 FLOAT power;
 ColorRGB specularColor;
 ColorRGB emissiveColor;
 [...]
}

template MeshMaterialList {
 <f6f23f42-7686-11cf-8f52-0040333594a3>
 DWORD nMaterials;
 DWORD nFaceIndexes;
 array DWORD faceIndexes[nFaceIndexes];
 [Material <3d82ab4d-62da-11cf-ab39-0020af71e433>]
}

template TextureFilename {
 <a42790e1-7810-11cf-8f52-0040333594a3>
 STRING filename;
}

template Coords2d {
 <f6f23f44-7686-11cf-8f52-0040333594a3>
 FLOAT u;
 FLOAT v;
}

template MeshTextureCoords {
 <f6f23f40-7686-11cf-8f52-0040333594a3>
 DWORD nTextureCoords;
 array Coords2d textureCoords[nTextureCoords];
}

template MeshNormals {
 <f6f23f43-7686-11cf-8f52-0040333594a3>
 DWORD nNormals;
 array Vector normals[nNormals];
 DWORD nFaceNormals;
 array MeshFace faceNormals[nFaceNormals];
}


Mesh  {
 48;
 -5.150000;20.000000;-1.000000;,
 -4.350000;20.000000;-1.800000;,
 4.350000;20.000000;-1.800000;,
 5.150000;20.000000;-1.000000;,
 -4.636000;16.000000;-1.000000;,
 -3.836000;16.000000;-1.800000;,
 3.836000;16.000000;-1.800000;,
 4.636000;16.000000;-1.000000;,
 -4.178000;12.000000;-1.000000;,
 -3.378000;12.000000;-1.800000;,
 3.378000;12.000000;-1.800000;,
 4.178000;12.000000;-1.000000;,
 -3.778000;8.000000;-1.000000;,
 -2.978000;8.000000;-1.800000;,
 2.978000;8.000000;-1.800000;,
 3.778000;8.000000;-1.000000;,
 -3.435000;4.000000;-1.000000;,
 -2.635000;4.000000;-1.800000;,
 2.635000;4.000000;-1.800000;,
 3.435000;4.000000;-1.000000;,
 -3.150000;0.000000;-1.000000;,
 -2.350000;0.000000;-1.800000;,
 2.350000;0.000000;-1.800000;,
 3.150000;0.000000;-1.000000;,
 -5.150000;20.000000;1.000000;,
 -4.350000;20.000000;1.800000;,
 4.350000;20.000000;1.800000;,
 5.150000;20.000000;1.000000;,
 -4.636000;16.000000;1.000000;,
 -3.836000;16.000000;1.800000;,
 3.836000;16.000000;1.800000;,
 4.636000;16.000000;1.000000;,
 -4.178000;12.000000;1.000000;,
 -3.378000;12.000000;1.800000;,
 3.378000;12.000000;1.800000;,
 4.178000;12.000000;1.000000;,
 -3.778000;8.000000;1.000000;,
 -2.978000;8.000000;1.800000;,
 2.978000;8.000000;1.800000;,
 3.778000;8.000000;1.000000;,
 -3.435000;4.000000;1.000000;,
 -2.635000;4.000000;1.800000;,
 2.635000;4.000000;1.800000;,
 3.435000;4.000000;1.000000;,
 -3.150000;0.000000;1.000000;,
 -2.350000;0.000000;1.800000;,
 2.350000;0.000000;1.800000;,
 3.150000;0.000000;1.000000;;
 80;
 3;0,1,5;,
 3;0,5,4;,
 3;1,2,6;,
 3;1,6,5;,
 3;2,3,7;,
 3;2,7,6;,
 3;3,27,31;,
 3;3,31,7;,
 3;27,26,30;,
 3;27,30,31;,
 3;26,25,29;,
 3;26,29,30;,
 3;25,24,28;,
 3;25,28,29;,
 3;24,0,4;,
 3;24,4,28;,
 3;4,5,9;,
 3;4,9,8;,
 3;5,6,10;,
 3;5,10,9;,
 3;6,7,11;,
 3;6,11,10;,
 3;7,31,35;,
 3;7,35,11;,
 3;31,30,34;,
 3;31,34,35;,
 3;30,29,33;,
 3;30,33,34;,
 3;29,28,32;,
 3;29,32,33;,
 3;28,4,8;,
 3;28,8,32;,
 3;8,9,13;,
 3;8,13,12;,
 3;9,10,14;,
 3;9,14,13;,
 3;10,11,15;,
 3;10,15,14;,
 3;11,35,39;,
 3;11,39,15;,
 3;35,34,38;,
 3;35,38,39;,
 3;34,33,37;,
 3;34,37,38;,
 3;33,32,36;,
 3;33,36,37;,
 3;32,8,12;,
 3;32,12,36;,
 3;12,13,17;,
 3;12,17,16;,
 3;13,14,18;,
 3;13,18,17;,
 3;14,15,19;,
 3;14,19,18;,
 3;15,39,43;,
 3;15,43,19;,
 3;39,38,42;,
 3;39,42,43;,
 3;38,37,41;,
 3;38,41,42;,
 3;37,36,40;,
 3;37,40,41;,
 3;36,12,16;,
 3;36,16,40;,
 3;16,17,21;,
 3;16,21,20;,
 3;17,18,22;,
 3;17,22,21;,
 3;18,19,23;,
 3;18,23,22;,
 3;19,43,47;,
 3;19,47,23;,
 3;43,42,46;,
 3;43,46,47;,
 3;42,41,45;,
 3;42,45,46;,
 3;41,40,44;,
 3;41,44,45;,
 3;40,16,20;,
 3;40,20,44;;

 MeshMaterialList  {
  1;
  80;
  0,
  0,
  0,
  0,
  0,
  0,
  0,
  0,
  0,
  0,
  0,
  0,
  0,
  0,
  0,
  0,
  0,
  0,
  0,
  0,
  0,
  0,
  0,
  0,
  0,
  0,
  0,
  0,
  0,
  0,
  0,
  0,
  0,
  0,
  0,
  0,
  0,
  0,
  0,
  0,
  0,
  0,
  0,
  0,
  0,
  0,
  0,
  0,
  0,
  0,
  0,
  0,
  0,
  0,
  0,
  0,
  0,
  0,
  0,
  0,
  0,
  0,
  0,
  0,
  0,
  0,
  0,
  0,
  0,
  0,
  0,
  0,
  0,
  0,
  0,
  0,
  0,
  0,
  0,
  0;

  Material  {
   0.549020;0.568627;0.549020;1.000000;;
   0.000000;
   0.000000;0.000000;0.000000;;
   0.000000;0.000000;0.000000;;

   TextureFilename  {
    "conL_1.dds";
   }
  }
 }

 MeshTextureCoords  {
  48;
  0.000000;0.000000;,
  1.000000;0.000000;,
  5.000000;0.000000;,
  6.000000;0.000000;,
  0.000000;2.000000;,
  1.000000;2.000000;,
  5.000000;2.000000;,
  6.000000;2.000000;,
  0.000000;4.000000;,
  1.000000;4.000000;,
  5.000000;4.000000;,
  6.000000;4.000000;,
  0.000000;6.000000;,
  1.000000;6.000000;,
  5.000000;6.000000;,
  6.000000;6.000000;,
  0.000000;8.000000;,
  1.000000;8.000000;,
  5.000000;8.000000;,
  6.000000;8.000000;,
  0.000000;10.000000;,
  1.000000;10.000000;,
  5.000000;10.000000;,
  6.000000;10.000000;,
  7.000000;0.000000;,
  6.000000;0.000000;,
  2.000000;0.000000;,
  1.000000;0.000000;,
  7.000000;2.000000;,
  6.000000;2.000000;,
  2.000000;2.000000;,
  1.000000;2.000000;,
  7.000000;4.000000;,
  6.000000;4.000000;,
  2.000000;4.000000;,
  1.000000;4.000000;,
  7.000000;6.000000;,
  6.000000;6.000000;,
  2.000000;6.000000;,
  1.000000;6.000000;,
  7.000000;8.000000;,
  6.000000;8.000000;,
  2.000000;8.000000;,
  1.000000;8.000000;,
  7.000000;10.000000;,
  6.000000;10.000000;,
  2.000000;10.000000;,
  1.000000;10.000000;;
 }

 MeshNormals  {
  80;
  -0.704206;-0.090490;-0.704206;,
  -0.704206;-0.090490;-0.704206;,
  0.000000;0.000000;-1.000000;,
  0.000000;0.000000;-1.000000;,
  0.704206;-0.090490;-0.704206;,
  0.704206;-0.090490;-0.704206;,
  0.991845;-0.127452;0.000000;,
  0.991845;-0.127452;0.000000;,
  0.704206;-0.090490;0.704206;,
  0.704206;-0.090490;0.704206;,
  0.000000;0.000000;1.000000;,
  0.000000;0.000000;1.000000;,
  -0.704206;-0.090490;0.704206;,
  -0.704206;-0.090490;0.704206;,
  -0.991845;-0.127452;0.000000;,
  -0.991845;-0.127452;0.000000;,
  -0.704800;-0.080700;-0.704801;,
  -0.704801;-0.080700;-0.704801;,
  0.000000;0.000000;-1.000000;,
  0.000000;0.000000;-1.000000;,
  0.704800;-0.080700;-0.704801;,
  0.704801;-0.080700;-0.704801;,
  0.993509;-0.113757;0.000000;,
  0.993509;-0.113757;0.000000;,
  0.704800;-0.080700;0.704801;,
  0.704801;-0.080700;0.704801;,
  0.000000;0.000000;1.000000;,
  0.000000;0.000000;1.000000;,
  -0.704800;-0.080700;0.704801;,
  -0.704801;-0.080700;0.704801;,
  -0.993509;-0.113757;0.000000;,
  -0.993509;-0.113757;0.000000;,
  -0.705346;-0.070535;-0.705346;,
  -0.705346;-0.070535;-0.705346;,
  0.000000;0.000000;-1.000000;,
  0.000000;0.000000;-1.000000;,
  0.705346;-0.070535;-0.705346;,
  0.705346;-0.070535;-0.705346;,
  0.995037;-0.099504;0.000000;,
  0.995037;-0.099504;0.000000;,
  0.705346;-0.070535;0.705346;,
  0.705346;-0.070535;0.705346;,
  0.000000;0.000000;1.000000;,
  0.000000;0.000000;1.000000;,
  -0.705346;-0.070535;0.705346;,
  -0.705346;-0.070535;0.705346;,
  -0.995037;-0.099504;0.000000;,
  -0.995037;-0.099504;0.000000;,
  -0.705810;-0.060523;-0.705811;,
  -0.705810;-0.060523;-0.705810;,
  0.000000;0.000000;-1.000000;,
  0.000000;0.000000;-1.000000;,
  0.705810;-0.060523;-0.705811;,
  0.705810;-0.060523;-0.705810;,
  0.996344;-0.085437;0.000000;,
  0.996344;-0.085437;0.000000;,
  0.705810;-0.060523;0.705811;,
  0.705810;-0.060523;0.705810;,
  0.000000;0.000000;1.000000;,
  0.000000;0.000000;1.000000;,
  -0.705810;-0.060523;0.705811;,
  -0.705810;-0.060523;0.705810;,
  -0.996344;-0.085437;0.000000;,
  -0.996344;-0.085437;0.000000;,
  -0.706211;-0.050318;-0.706211;,
  -0.706211;-0.050318;-0.706211;,
  0.000000;0.000000;-1.000000;,
  0.000000;0.000000;-1.000000;,
  0.706211;-0.050318;-0.706211;,
  0.706211;-0.050318;-0.706211;,
  0.997471;-0.071070;0.000000;,
  0.997471;-0.071070;0.000000;,
  0.706211;-0.050318;0.706211;,
  0.706211;-0.050318;0.706211;,
  0.000000;0.000000;1.000000;,
  0.000000;0.000000;1.000000;,
  -0.706211;-0.050318;0.706211;,
  -0.706211;-0.050318;0.706211;,
  -0.997471;-0.071070;0.000000;,
  -0.997471;-0.071070;0.000000;;
  80;
  3;0,0,0;,
  3;1,1,1;,
  3;2,2,2;,
  3;3,3,3;,
  3;4,4,4;,
  3;5,5,5;,
  3;6,6,6;,
  3;7,7,7;,
  3;8,8,8;,
  3;9,9,9;,
  3;10,10,10;,
  3;11,11,11;,
  3;12,12,12;,
  3;13,13,13;,
  3;14,14,14;,
  3;15,15,15;,
  3;16,16,16;,
  3;17,17,17;,
  3;18,18,18;,
  3;19,19,19;,
  3;20,20,20;,
  3;21,21,21;,
  3;22,22,22;,
  3;23,23,23;,
  3;24,24,24;,
  3;25,25,25;,
  3;26,26,26;,
  3;27,27,27;,
  3;28,28,28;,
  3;29,29,29;,
  3;30,30,30;,
  3;31,31,31;,
  3;32,32,32;,
  3;33,33,33;,
  3;34,34,34;,
  3;35,35,35;,
  3;36,36,36;,
  3;37,37,37;,
  3;38,38,38;,
  3;39,39,39;,
  3;40,40,40;,
  3;41,41,41;,
  3;42,42,42;,
  3;43,43,43;,
  3;44,44,44;,
  3;45,45,45;,
  3;46,46,46;,
  3;47,47,47;,
  3;48,48,48;,
  3;49,49,49;,
  3;50,50,50;,
  3;51,51,51;,
  3;52,52,52;,
  3;53,53,53;,
  3;54,54,54;,
  3;55,55,55;,
  3;56,56,56;,
  3;57,57,57;,
  3;58,58,58;,
  3;59,59,59;,
  3;60,60,60;,
  3;61,61,61;,
  3;62,62,62;,
  3;63,63,63;,
  3;64,64,64;,
  3;65,65,65;,
  3;66,66,66;,
  3;67,67,67;,
  3;68,68,68;,
  3;69,69,69;,
  3;70,70,70;,
  3;71,71,71;,
  3;72,72,72;,
  3;73,73,73;,
  3;74,74,74;,
  3;75,75,75;,
  3;76,76,76;,
  3;77,77,77;,
  3;78,78,78;,
  3;79,79,79;;
 }
}