xof 0303txt 0032
template Vector {
 <3d82ab5e-62da-11cf-ab39-0020af71e433>
 FLOAT x;
 FLOAT y;
 FLOAT z;
}

template MeshFace {
 <3d82ab5f-62da-11cf-ab39-0020af71e433>
 DWORD nFaceVertexIndices;
 array DWORD faceVertexIndices[nFaceVertexIndices];
}

template Mesh {
 <3d82ab44-62da-11cf-ab39-0020af71e433>
 DWORD nVertices;
 array Vector vertices[nVertices];
 DWORD nFaces;
 array MeshFace faces[nFaces];
 [...]
}

template ColorRGBA {
 <35ff44e0-6c7c-11cf-8f52-0040333594a3>
 FLOAT red;
 FLOAT green;
 FLOAT blue;
 FLOAT alpha;
}

template ColorRGB {
 <d3e16e81-7835-11cf-8f52-0040333594a3>
 FLOAT red;
 FLOAT green;
 FLOAT blue;
}

template Material {
 <3d82ab4d-62da-11cf-ab39-0020af71e433>
 ColorRGBA faceColor;
 FLOAT power;
 ColorRGB specularColor;
 ColorRGB emissiveColor;
 [...]
}

template MeshMaterialList {
 <f6f23f42-7686-11cf-8f52-0040333594a3>
 DWORD nMaterials;
 DWORD nFaceIndexes;
 array DWORD faceIndexes[nFaceIndexes];
 [Material <3d82ab4d-62da-11cf-ab39-0020af71e433>]
}

template TextureFilename {
 <a42790e1-7810-11cf-8f52-0040333594a3>
 STRING filename;
}

template Coords2d {
 <f6f23f44-7686-11cf-8f52-0040333594a3>
 FLOAT u;
 FLOAT v;
}

template MeshTextureCoords {
 <f6f23f40-7686-11cf-8f52-0040333594a3>
 DWORD nTextureCoords;
 array Coords2d textureCoords[nTextureCoords];
}

template MeshNormals {
 <f6f23f43-7686-11cf-8f52-0040333594a3>
 DWORD nNormals;
 array Vector normals[nNormals];
 DWORD nFaceNormals;
 array MeshFace faceNormals[nFaceNormals];
}


Mesh  {
 16;
 -3.283000;8.660000;0.000000;,
 -3.283000;8.660000;25.200001;,
 -0.517000;8.660000;0.000000;,
 -0.517000;8.660000;25.200001;,
 1.877000;7.277000;0.000000;,
 1.877000;7.277000;25.200001;,
 3.260000;4.883000;0.000000;,
 3.260000;4.883000;25.200001;,
 3.260000;2.117000;0.000000;,
 3.260000;2.117000;25.200001;,
 1.877000;-0.277000;0.000000;,
 1.877000;-0.277000;25.200001;,
 -0.517000;-1.660000;0.000000;,
 -0.517000;-1.660000;25.200001;,
 -3.283000;-1.660000;0.000000;,
 -3.283000;-1.660000;25.200001;;
 28;
 3;0,2,3;,
 3;0,3,1;,
 3;1,3,2;,
 3;1,2,0;,
 3;2,4,5;,
 3;2,5,3;,
 3;3,5,4;,
 3;3,4,2;,
 3;4,6,7;,
 3;4,7,5;,
 3;5,7,6;,
 3;5,6,4;,
 3;6,8,9;,
 3;6,9,7;,
 3;7,9,8;,
 3;7,8,6;,
 3;8,10,11;,
 3;8,11,9;,
 3;9,11,10;,
 3;9,10,8;,
 3;10,12,13;,
 3;10,13,11;,
 3;11,13,12;,
 3;11,12,10;,
 3;12,14,15;,
 3;12,15,13;,
 3;13,15,14;,
 3;13,14,12;;

 MeshMaterialList  {
  1;
  28;
  0,
  0,
  0,
  0,
  0,
  0,
  0,
  0,
  0,
  0,
  0,
  0,
  0,
  0,
  0,
  0,
  0,
  0,
  0,
  0,
  0,
  0,
  0,
  0,
  0,
  0,
  0,
  0;

  Material  {
   1.000000;1.000000;1.000000;1.000000;;
   0.000000;
   0.000000;0.000000;0.000000;;
   0.000000;0.000000;0.000000;;

   TextureFilename  {
    "Ton-WallX.dds";
   }
  }
 }

 MeshTextureCoords  {
  16;
  0.000000;0.000000;,
  9.000000;0.000000;,
  0.000000;2.000000;,
  9.000000;2.000000;,
  0.000000;4.000000;,
  9.000000;4.000000;,
  0.000000;6.000000;,
  9.000000;6.000000;,
  0.000000;8.000000;,
  9.000000;8.000000;,
  0.000000;10.000000;,
  9.000000;10.000000;,
  0.000000;12.000000;,
  9.000000;12.000000;,
  0.000000;14.000000;,
  9.000000;14.000000;;
 }

 MeshNormals  {
  28;
  0.000000;-1.000000;0.000000;,
  0.000000;-1.000000;0.000000;,
  0.000000;1.000000;0.000000;,
  0.000000;1.000000;0.000000;,
  -0.500223;-0.865896;0.000000;,
  -0.500223;-0.865896;0.000000;,
  0.500223;0.865896;0.000000;,
  0.500223;0.865896;0.000000;,
  -0.865896;-0.500223;0.000000;,
  -0.865896;-0.500223;0.000000;,
  0.865896;0.500223;0.000000;,
  0.865896;0.500223;0.000000;,
  -1.000000;0.000000;0.000000;,
  -1.000000;0.000000;0.000000;,
  1.000000;0.000000;0.000000;,
  1.000000;0.000000;0.000000;,
  -0.865896;0.500223;0.000000;,
  -0.865896;0.500223;0.000000;,
  0.865896;-0.500223;0.000000;,
  0.865896;-0.500223;0.000000;,
  -0.500223;0.865896;0.000000;,
  -0.500223;0.865896;0.000000;,
  0.500223;-0.865896;0.000000;,
  0.500223;-0.865896;0.000000;,
  0.000000;1.000000;0.000000;,
  0.000000;1.000000;0.000000;,
  0.000000;-1.000000;0.000000;,
  0.000000;-1.000000;0.000000;;
  28;
  3;0,0,0;,
  3;1,1,1;,
  3;2,2,2;,
  3;3,3,3;,
  3;4,4,4;,
  3;5,5,5;,
  3;6,6,6;,
  3;7,7,7;,
  3;8,8,8;,
  3;9,9,9;,
  3;10,10,10;,
  3;11,11,11;,
  3;12,12,12;,
  3;13,13,13;,
  3;14,14,14;,
  3;15,15,15;,
  3;16,16,16;,
  3;17,17,17;,
  3;18,18,18;,
  3;19,19,19;,
  3;20,20,20;,
  3;21,21,21;,
  3;22,22,22;,
  3;23,23,23;,
  3;24,24,24;,
  3;25,25,25;,
  3;26,26,26;,
  3;27,27,27;;
 }
}