xof 0303txt 0032
template Vector {
 <3d82ab5e-62da-11cf-ab39-0020af71e433>
 FLOAT x;
 FLOAT y;
 FLOAT z;
}

template MeshFace {
 <3d82ab5f-62da-11cf-ab39-0020af71e433>
 DWORD nFaceVertexIndices;
 array DWORD faceVertexIndices[nFaceVertexIndices];
}

template Mesh {
 <3d82ab44-62da-11cf-ab39-0020af71e433>
 DWORD nVertices;
 array Vector vertices[nVertices];
 DWORD nFaces;
 array MeshFace faces[nFaces];
 [...]
}

template ColorRGBA {
 <35ff44e0-6c7c-11cf-8f52-0040333594a3>
 FLOAT red;
 FLOAT green;
 FLOAT blue;
 FLOAT alpha;
}

template ColorRGB {
 <d3e16e81-7835-11cf-8f52-0040333594a3>
 FLOAT red;
 FLOAT green;
 FLOAT blue;
}

template Material {
 <3d82ab4d-62da-11cf-ab39-0020af71e433>
 ColorRGBA faceColor;
 FLOAT power;
 ColorRGB specularColor;
 ColorRGB emissiveColor;
 [...]
}

template MeshMaterialList {
 <f6f23f42-7686-11cf-8f52-0040333594a3>
 DWORD nMaterials;
 DWORD nFaceIndexes;
 array DWORD faceIndexes[nFaceIndexes];
 [Material <3d82ab4d-62da-11cf-ab39-0020af71e433>]
}

template Coords2d {
 <f6f23f44-7686-11cf-8f52-0040333594a3>
 FLOAT u;
 FLOAT v;
}

template MeshTextureCoords {
 <f6f23f40-7686-11cf-8f52-0040333594a3>
 DWORD nTextureCoords;
 array Coords2d textureCoords[nTextureCoords];
}

template MeshNormals {
 <f6f23f43-7686-11cf-8f52-0040333594a3>
 DWORD nNormals;
 array Vector normals[nNormals];
 DWORD nFaceNormals;
 array MeshFace faceNormals[nFaceNormals];
}


Mesh  {
 50;
 3.200000;-1.600000;-0.500000;,
 3.200000;-1.600000;0.500000;,
 5.600000;-0.200000;-0.500000;,
 5.600000;-0.200000;0.500000;,
 7.000000;2.100000;-0.500000;,
 7.000000;2.100000;0.500000;,
 7.000000;4.800000;-0.500000;,
 7.000000;4.800000;0.500000;,
 5.600000;7.200000;-0.500000;,
 5.600000;7.200000;0.500000;,
 3.200000;8.600000;-0.500000;,
 3.200000;8.600000;0.500000;,
 0.500000;8.600000;-0.500000;,
 0.500000;8.600000;0.500000;,
 -1.800000;7.200000;-0.500000;,
 -1.800000;7.200000;0.500000;,
 -3.200000;4.800000;-0.500000;,
 -3.200000;4.800000;0.500000;,
 -3.200000;2.100000;-0.500000;,
 -3.200000;2.100000;0.500000;,
 -1.800000;-0.200000;-0.500000;,
 -1.800000;-0.200000;0.500000;,
 0.500000;-1.600000;-0.500000;,
 0.500000;-1.600000;0.500000;,
 -4.200000;10.600000;-0.500000;,
 8.000000;10.600000;-0.500000;,
 -4.200000;8.600000;-0.500000;,
 8.000000;8.600000;-0.500000;,
 -4.200000;7.200000;-0.500000;,
 8.000000;7.200000;-0.500000;,
 -4.200000;4.800000;-0.500000;,
 8.000000;4.800000;-0.500000;,
 -4.200000;2.100000;-0.500000;,
 8.000000;2.100000;-0.500000;,
 -4.200000;-0.200000;-0.500000;,
 8.000000;-0.200000;-0.500000;,
 -4.200000;-1.600000;-0.500000;,
 8.000000;-1.600000;-0.500000;,
 3.200000;-1.600000;0.500000;,
 5.600000;-0.200000;0.500000;,
 7.000000;2.100000;0.500000;,
 7.000000;4.800000;0.500000;,
 5.600000;7.200000;0.500000;,
 3.200000;8.600000;0.500000;,
 0.500000;8.600000;0.500000;,
 -1.800000;7.200000;0.500000;,
 -3.200000;4.800000;0.500000;,
 -3.200000;2.100000;0.500000;,
 -1.800000;-0.200000;0.500000;,
 0.500000;-1.600000;0.500000;;
 98;
 3;0,1,3;,
 3;0,3,2;,
 3;2,3,1;,
 3;2,1,0;,
 3;2,3,5;,
 3;2,5,4;,
 3;4,5,3;,
 3;4,3,2;,
 3;4,5,7;,
 3;4,7,6;,
 3;6,7,5;,
 3;6,5,4;,
 3;6,7,9;,
 3;6,9,8;,
 3;8,9,7;,
 3;8,7,6;,
 3;8,9,11;,
 3;8,11,10;,
 3;10,11,9;,
 3;10,9,8;,
 3;10,11,13;,
 3;10,13,12;,
 3;12,13,11;,
 3;12,11,10;,
 3;12,13,15;,
 3;12,15,14;,
 3;14,15,13;,
 3;14,13,12;,
 3;14,15,17;,
 3;14,17,16;,
 3;16,17,15;,
 3;16,15,14;,
 3;16,17,19;,
 3;16,19,18;,
 3;18,19,17;,
 3;18,17,16;,
 3;18,19,21;,
 3;18,21,20;,
 3;20,21,19;,
 3;20,19,18;,
 3;20,21,23;,
 3;20,23,22;,
 3;22,23,21;,
 3;22,21,20;,
 3;24,25,27;,
 3;24,27,26;,
 3;26,27,25;,
 3;26,25,24;,
 3;35,37,0;,
 3;35,0,2;,
 3;2,0,37;,
 3;2,37,35;,
 3;33,35,2;,
 3;33,2,4;,
 3;4,2,35;,
 3;4,35,33;,
 3;31,33,4;,
 3;31,4,6;,
 3;6,4,33;,
 3;6,33,31;,
 3;29,31,6;,
 3;29,6,8;,
 3;8,6,31;,
 3;8,31,29;,
 3;27,29,8;,
 3;27,8,10;,
 3;10,8,29;,
 3;10,29,27;,
 3;28,26,12;,
 3;28,12,14;,
 3;14,12,26;,
 3;14,26,28;,
 3;30,28,14;,
 3;30,14,16;,
 3;16,14,28;,
 3;16,28,30;,
 3;32,30,16;,
 3;32,16,18;,
 3;18,16,30;,
 3;18,30,32;,
 3;34,32,18;,
 3;34,18,20;,
 3;20,18,32;,
 3;20,32,34;,
 3;36,34,20;,
 3;36,20,22;,
 3;22,20,34;,
 3;22,34,36;,
 3;49,48,47;,
 3;49,47,46;,
 3;49,46,45;,
 3;49,45,44;,
 3;49,44,43;,
 3;49,43,42;,
 3;49,42,41;,
 3;49,41,40;,
 3;49,40,39;,
 3;49,39,38;;

 MeshMaterialList  {
  2;
  98;
  0,
  0,
  0,
  0,
  0,
  0,
  0,
  0,
  0,
  0,
  0,
  0,
  0,
  0,
  0,
  0,
  0,
  0,
  0,
  0,
  0,
  0,
  0,
  0,
  0,
  0,
  0,
  0,
  0,
  0,
  0,
  0,
  0,
  0,
  0,
  0,
  0,
  0,
  0,
  0,
  0,
  0,
  0,
  0,
  0,
  0,
  0,
  0,
  0,
  0,
  0,
  0,
  0,
  0,
  0,
  0,
  0,
  0,
  0,
  0,
  0,
  0,
  0,
  0,
  0,
  0,
  0,
  0,
  0,
  0,
  0,
  0,
  0,
  0,
  0,
  0,
  0,
  0,
  0,
  0,
  0,
  0,
  0,
  0,
  0,
  0,
  0,
  0,
  1,
  1,
  1,
  1,
  1,
  1,
  1,
  1,
  1,
  1;

  Material  {
   0.352941;0.352941;0.352941;1.000000;;
   0.000000;
   0.000000;0.000000;0.000000;;
   0.000000;0.000000;0.000000;;
  }

  Material  {
   0.000000;0.000000;0.000000;0.784314;;
   0.000000;
   0.000000;0.000000;0.000000;;
   0.000000;0.000000;0.000000;;
  }
 }

 MeshTextureCoords  {
  50;
  0.000000;0.000000;,
  0.000000;0.000000;,
  0.000000;0.000000;,
  0.000000;0.000000;,
  0.000000;0.000000;,
  0.000000;0.000000;,
  0.000000;0.000000;,
  0.000000;0.000000;,
  0.000000;0.000000;,
  0.000000;0.000000;,
  0.000000;0.000000;,
  0.000000;0.000000;,
  0.000000;0.000000;,
  0.000000;0.000000;,
  0.000000;0.000000;,
  0.000000;0.000000;,
  0.000000;0.000000;,
  0.000000;0.000000;,
  0.000000;0.000000;,
  0.000000;0.000000;,
  0.000000;0.000000;,
  0.000000;0.000000;,
  0.000000;0.000000;,
  0.000000;0.000000;,
  0.000000;0.000000;,
  0.000000;0.000000;,
  0.000000;0.000000;,
  0.000000;0.000000;,
  0.000000;0.000000;,
  0.000000;0.000000;,
  0.000000;0.000000;,
  0.000000;0.000000;,
  0.000000;0.000000;,
  0.000000;0.000000;,
  0.000000;0.000000;,
  0.000000;0.000000;,
  0.000000;0.000000;,
  0.000000;0.000000;,
  0.000000;0.000000;,
  0.000000;0.000000;,
  0.000000;0.000000;,
  0.000000;0.000000;,
  0.000000;0.000000;,
  0.000000;0.000000;,
  0.000000;0.000000;,
  0.000000;0.000000;,
  0.000000;0.000000;,
  0.000000;0.000000;,
  0.000000;0.000000;,
  0.000000;0.000000;;
 }

 MeshNormals  {
  98;
  -0.503871;0.863779;0.000000;,
  -0.503871;0.863779;0.000000;,
  0.503871;-0.863779;0.000000;,
  0.503871;-0.863779;0.000000;,
  -0.854199;0.519947;0.000000;,
  -0.854199;0.519947;0.000000;,
  0.854199;-0.519947;0.000000;,
  0.854199;-0.519947;0.000000;,
  -1.000000;0.000000;0.000000;,
  -1.000000;0.000000;0.000000;,
  1.000000;0.000000;0.000000;,
  1.000000;0.000000;0.000000;,
  -0.863779;-0.503871;0.000000;,
  -0.863779;-0.503871;0.000000;,
  0.863779;0.503871;0.000000;,
  0.863779;0.503871;0.000000;,
  -0.503871;-0.863779;0.000000;,
  -0.503871;-0.863779;0.000000;,
  0.503871;0.863779;0.000000;,
  0.503871;0.863779;0.000000;,
  0.000000;-1.000000;0.000000;,
  0.000000;-1.000000;0.000000;,
  0.000000;1.000000;0.000000;,
  0.000000;1.000000;0.000000;,
  0.519947;-0.854199;0.000000;,
  0.519947;-0.854199;0.000000;,
  -0.519947;0.854199;0.000000;,
  -0.519947;0.854199;0.000000;,
  0.863779;-0.503871;0.000000;,
  0.863779;-0.503871;0.000000;,
  -0.863779;0.503871;0.000000;,
  -0.863779;0.503871;0.000000;,
  1.000000;0.000000;0.000000;,
  1.000000;0.000000;0.000000;,
  -1.000000;0.000000;0.000000;,
  -1.000000;0.000000;0.000000;,
  0.854199;0.519947;0.000000;,
  0.854199;0.519947;0.000000;,
  -0.854199;-0.519947;0.000000;,
  -0.854199;-0.519947;0.000000;,
  0.519947;0.854199;0.000000;,
  0.519947;0.854199;0.000000;,
  -0.519947;-0.854199;0.000000;,
  -0.519947;-0.854199;0.000000;,
  0.000000;0.000000;-1.000000;,
  0.000000;0.000000;-1.000000;,
  0.000000;0.000000;1.000000;,
  0.000000;0.000000;1.000000;,
  0.000000;0.000000;-1.000000;,
  0.000000;0.000000;-1.000000;,
  0.000000;0.000000;1.000000;,
  0.000000;0.000000;1.000000;,
  0.000000;0.000000;-1.000000;,
  0.000000;0.000000;-1.000000;,
  0.000000;0.000000;1.000000;,
  0.000000;0.000000;1.000000;,
  0.000000;0.000000;-1.000000;,
  0.000000;0.000000;-1.000000;,
  0.000000;0.000000;1.000000;,
  0.000000;0.000000;1.000000;,
  0.000000;0.000000;-1.000000;,
  0.000000;0.000000;-1.000000;,
  0.000000;0.000000;1.000000;,
  0.000000;0.000000;1.000000;,
  0.000000;0.000000;-1.000000;,
  0.000000;0.000000;-1.000000;,
  0.000000;0.000000;1.000000;,
  0.000000;0.000000;1.000000;,
  0.000000;0.000000;-1.000000;,
  0.000000;0.000000;-1.000000;,
  0.000000;0.000000;1.000000;,
  0.000000;0.000000;1.000000;,
  0.000000;0.000000;-1.000000;,
  0.000000;0.000000;-1.000000;,
  0.000000;0.000000;1.000000;,
  0.000000;0.000000;1.000000;,
  0.000000;0.000000;-1.000000;,
  0.000000;0.000000;-1.000000;,
  0.000000;0.000000;1.000000;,
  0.000000;0.000000;1.000000;,
  0.000000;0.000000;-1.000000;,
  0.000000;0.000000;-1.000000;,
  0.000000;0.000000;1.000000;,
  0.000000;0.000000;1.000000;,
  0.000000;0.000000;-1.000000;,
  0.000000;0.000000;-1.000000;,
  0.000000;0.000000;1.000000;,
  0.000000;0.000000;1.000000;,
  0.000000;0.000000;-1.000000;,
  0.000000;0.000000;-1.000000;,
  0.000000;0.000000;-1.000000;,
  0.000000;0.000000;-1.000000;,
  0.000000;0.000000;-1.000000;,
  0.000000;0.000000;-1.000000;,
  0.000000;0.000000;-1.000000;,
  0.000000;0.000000;-1.000000;,
  0.000000;0.000000;-1.000000;,
  0.000000;0.000000;-1.000000;;
  98;
  3;0,0,0;,
  3;1,1,1;,
  3;2,2,2;,
  3;3,3,3;,
  3;4,4,4;,
  3;5,5,5;,
  3;6,6,6;,
  3;7,7,7;,
  3;8,8,8;,
  3;9,9,9;,
  3;10,10,10;,
  3;11,11,11;,
  3;12,12,12;,
  3;13,13,13;,
  3;14,14,14;,
  3;15,15,15;,
  3;16,16,16;,
  3;17,17,17;,
  3;18,18,18;,
  3;19,19,19;,
  3;20,20,20;,
  3;21,21,21;,
  3;22,22,22;,
  3;23,23,23;,
  3;24,24,24;,
  3;25,25,25;,
  3;26,26,26;,
  3;27,27,27;,
  3;28,28,28;,
  3;29,29,29;,
  3;30,30,30;,
  3;31,31,31;,
  3;32,32,32;,
  3;33,33,33;,
  3;34,34,34;,
  3;35,35,35;,
  3;36,36,36;,
  3;37,37,37;,
  3;38,38,38;,
  3;39,39,39;,
  3;40,40,40;,
  3;41,41,41;,
  3;42,42,42;,
  3;43,43,43;,
  3;44,44,44;,
  3;45,45,45;,
  3;46,46,46;,
  3;47,47,47;,
  3;48,48,48;,
  3;49,49,49;,
  3;50,50,50;,
  3;51,51,51;,
  3;52,52,52;,
  3;53,53,53;,
  3;54,54,54;,
  3;55,55,55;,
  3;56,56,56;,
  3;57,57,57;,
  3;58,58,58;,
  3;59,59,59;,
  3;60,60,60;,
  3;61,61,61;,
  3;62,62,62;,
  3;63,63,63;,
  3;64,64,64;,
  3;65,65,65;,
  3;66,66,66;,
  3;67,67,67;,
  3;68,68,68;,
  3;69,69,69;,
  3;70,70,70;,
  3;71,71,71;,
  3;72,72,72;,
  3;73,73,73;,
  3;74,74,74;,
  3;75,75,75;,
  3;76,76,76;,
  3;77,77,77;,
  3;78,78,78;,
  3;79,79,79;,
  3;80,80,80;,
  3;81,81,81;,
  3;82,82,82;,
  3;83,83,83;,
  3;84,84,84;,
  3;85,85,85;,
  3;86,86,86;,
  3;87,87,87;,
  3;88,88,88;,
  3;89,89,89;,
  3;90,90,90;,
  3;91,91,91;,
  3;92,92,92;,
  3;93,93,93;,
  3;94,94,94;,
  3;95,95,95;,
  3;96,96,96;,
  3;97,97,97;;
 }
}