xof 0303txt 0032
template Vector {
 <3d82ab5e-62da-11cf-ab39-0020af71e433>
 FLOAT x;
 FLOAT y;
 FLOAT z;
}

template MeshFace {
 <3d82ab5f-62da-11cf-ab39-0020af71e433>
 DWORD nFaceVertexIndices;
 array DWORD faceVertexIndices[nFaceVertexIndices];
}

template Mesh {
 <3d82ab44-62da-11cf-ab39-0020af71e433>
 DWORD nVertices;
 array Vector vertices[nVertices];
 DWORD nFaces;
 array MeshFace faces[nFaces];
 [...]
}

template ColorRGBA {
 <35ff44e0-6c7c-11cf-8f52-0040333594a3>
 FLOAT red;
 FLOAT green;
 FLOAT blue;
 FLOAT alpha;
}

template ColorRGB {
 <d3e16e81-7835-11cf-8f52-0040333594a3>
 FLOAT red;
 FLOAT green;
 FLOAT blue;
}

template Material {
 <3d82ab4d-62da-11cf-ab39-0020af71e433>
 ColorRGBA faceColor;
 FLOAT power;
 ColorRGB specularColor;
 ColorRGB emissiveColor;
 [...]
}

template MeshMaterialList {
 <f6f23f42-7686-11cf-8f52-0040333594a3>
 DWORD nMaterials;
 DWORD nFaceIndexes;
 array DWORD faceIndexes[nFaceIndexes];
 [Material <3d82ab4d-62da-11cf-ab39-0020af71e433>]
}

template Coords2d {
 <f6f23f44-7686-11cf-8f52-0040333594a3>
 FLOAT u;
 FLOAT v;
}

template MeshTextureCoords {
 <f6f23f40-7686-11cf-8f52-0040333594a3>
 DWORD nTextureCoords;
 array Coords2d textureCoords[nTextureCoords];
}

template MeshNormals {
 <f6f23f43-7686-11cf-8f52-0040333594a3>
 DWORD nNormals;
 array Vector normals[nNormals];
 DWORD nFaceNormals;
 array MeshFace faceNormals[nFaceNormals];
}


Mesh  {
 48;
 -4.700000;-0.450000;0.000000;,
 -4.700000;-0.450000;25.200001;,
 -1.000000;-0.450000;0.000000;,
 -1.000000;-0.450000;25.200001;,
 -4.700000;6.240000;0.000000;,
 -4.700000;6.240000;25.200001;,
 -1.000000;6.240000;0.000000;,
 -1.000000;6.240000;25.200001;,
 -3.500000;-0.450000;1.600000;,
 -3.500000;-0.450000;3.400000;,
 -2.200000;-0.450000;1.600000;,
 -2.200000;-0.450000;3.400000;,
 -3.500000;6.240000;1.600000;,
 -3.500000;6.240000;3.400000;,
 -2.200000;6.240000;1.600000;,
 -2.200000;6.240000;3.400000;,
 -3.500000;-0.450000;6.600000;,
 -3.500000;-0.450000;8.400000;,
 -2.200000;-0.450000;6.600000;,
 -2.200000;-0.450000;8.400000;,
 -3.500000;6.240000;6.600000;,
 -3.500000;6.240000;8.400000;,
 -2.200000;6.240000;6.600000;,
 -2.200000;6.240000;8.400000;,
 -3.500000;-0.450000;11.600000;,
 -3.500000;-0.450000;13.400000;,
 -2.200000;-0.450000;11.600000;,
 -2.200000;-0.450000;13.400000;,
 -3.500000;6.240000;11.600000;,
 -3.500000;6.240000;13.400000;,
 -2.200000;6.240000;11.600000;,
 -2.200000;6.240000;13.400000;,
 -3.500000;-0.450000;16.600000;,
 -3.500000;-0.450000;18.400000;,
 -2.200000;-0.450000;16.600000;,
 -2.200000;-0.450000;18.400000;,
 -3.500000;6.240000;16.600000;,
 -3.500000;6.240000;18.400000;,
 -2.200000;6.240000;16.600000;,
 -2.200000;6.240000;18.400000;,
 -3.500000;-0.450000;21.600000;,
 -3.500000;-0.450000;23.400000;,
 -2.200000;-0.450000;21.600000;,
 -2.200000;-0.450000;23.400000;,
 -3.500000;6.240000;21.600000;,
 -3.500000;6.240000;23.400000;,
 -2.200000;6.240000;21.600000;,
 -2.200000;6.240000;23.400000;;
 34;
 3;0,1,3;,
 3;0,3,2;,
 3;4,6,7;,
 3;4,7,5;,
 3;9,13,12;,
 3;9,12,8;,
 3;8,12,14;,
 3;8,14,10;,
 3;10,14,15;,
 3;10,15,11;,
 3;17,21,20;,
 3;17,20,16;,
 3;16,20,22;,
 3;16,22,18;,
 3;18,22,23;,
 3;18,23,19;,
 3;25,29,28;,
 3;25,28,24;,
 3;24,28,30;,
 3;24,30,26;,
 3;26,30,31;,
 3;26,31,27;,
 3;33,37,36;,
 3;33,36,32;,
 3;32,36,38;,
 3;32,38,34;,
 3;34,38,39;,
 3;34,39,35;,
 3;41,45,44;,
 3;41,44,40;,
 3;40,44,46;,
 3;40,46,42;,
 3;42,46,47;,
 3;42,47,43;;

 MeshMaterialList  {
  6;
  34;
  0,
  0,
  0,
  0,
  1,
  1,
  1,
  1,
  1,
  1,
  2,
  2,
  2,
  2,
  2,
  2,
  3,
  3,
  3,
  3,
  3,
  3,
  4,
  4,
  4,
  4,
  4,
  4,
  5,
  5,
  5,
  5,
  5,
  5;

  Material  {
   0.047059;0.047059;0.047059;1.000000;;
   0.000000;
   0.000000;0.000000;0.000000;;
   0.000000;0.000000;0.000000;;
  }

  Material  {
   0.141176;0.141176;0.141176;1.000000;;
   0.000000;
   0.000000;0.000000;0.000000;;
   0.000000;0.000000;0.000000;;
  }

  Material  {
   0.141176;0.141176;0.141176;1.000000;;
   0.000000;
   0.000000;0.000000;0.000000;;
   0.000000;0.000000;0.000000;;
  }

  Material  {
   0.141176;0.141176;0.141176;1.000000;;
   0.000000;
   0.000000;0.000000;0.000000;;
   0.000000;0.000000;0.000000;;
  }

  Material  {
   0.141176;0.141176;0.141176;1.000000;;
   0.000000;
   0.000000;0.000000;0.000000;;
   0.000000;0.000000;0.000000;;
  }

  Material  {
   0.141176;0.141176;0.141176;1.000000;;
   0.000000;
   0.000000;0.000000;0.000000;;
   0.000000;0.000000;0.000000;;
  }
 }

 MeshTextureCoords  {
  48;
  0.000000;0.000000;,
  0.000000;0.000000;,
  0.000000;0.000000;,
  0.000000;0.000000;,
  0.000000;0.000000;,
  0.000000;0.000000;,
  0.000000;0.000000;,
  0.000000;0.000000;,
  0.000000;0.000000;,
  0.000000;0.000000;,
  0.000000;0.000000;,
  0.000000;0.000000;,
  0.000000;0.000000;,
  0.000000;0.000000;,
  0.000000;0.000000;,
  0.000000;0.000000;,
  0.000000;0.000000;,
  0.000000;0.000000;,
  0.000000;0.000000;,
  0.000000;0.000000;,
  0.000000;0.000000;,
  0.000000;0.000000;,
  0.000000;0.000000;,
  0.000000;0.000000;,
  0.000000;0.000000;,
  0.000000;0.000000;,
  0.000000;0.000000;,
  0.000000;0.000000;,
  0.000000;0.000000;,
  0.000000;0.000000;,
  0.000000;0.000000;,
  0.000000;0.000000;,
  0.000000;0.000000;,
  0.000000;0.000000;,
  0.000000;0.000000;,
  0.000000;0.000000;,
  0.000000;0.000000;,
  0.000000;0.000000;,
  0.000000;0.000000;,
  0.000000;0.000000;,
  0.000000;0.000000;,
  0.000000;0.000000;,
  0.000000;0.000000;,
  0.000000;0.000000;,
  0.000000;0.000000;,
  0.000000;0.000000;,
  0.000000;0.000000;,
  0.000000;0.000000;;
 }

 MeshNormals  {
  34;
  0.000000;1.000000;0.000000;,
  0.000000;1.000000;0.000000;,
  0.000000;-1.000000;0.000000;,
  0.000000;-1.000000;0.000000;,
  -1.000000;0.000000;0.000000;,
  -1.000000;0.000000;0.000000;,
  0.000000;0.000000;-1.000000;,
  0.000000;0.000000;-1.000000;,
  1.000000;0.000000;0.000000;,
  1.000000;0.000000;0.000000;,
  -1.000000;0.000000;0.000000;,
  -1.000000;0.000000;0.000000;,
  0.000000;0.000000;-1.000000;,
  0.000000;0.000000;-1.000000;,
  1.000000;0.000000;0.000000;,
  1.000000;0.000000;0.000000;,
  -1.000000;0.000000;0.000000;,
  -1.000000;0.000000;0.000000;,
  0.000000;0.000000;-1.000000;,
  0.000000;0.000000;-1.000000;,
  1.000000;0.000000;0.000000;,
  1.000000;0.000000;0.000000;,
  -1.000000;0.000000;0.000000;,
  -1.000000;0.000000;0.000000;,
  0.000000;0.000000;-1.000000;,
  0.000000;0.000000;-1.000000;,
  1.000000;0.000000;0.000000;,
  1.000000;0.000000;0.000000;,
  -1.000000;0.000000;0.000000;,
  -1.000000;0.000000;0.000000;,
  0.000000;0.000000;-1.000000;,
  0.000000;0.000000;-1.000000;,
  1.000000;0.000000;0.000000;,
  1.000000;0.000000;0.000000;;
  34;
  3;0,0,0;,
  3;1,1,1;,
  3;2,2,2;,
  3;3,3,3;,
  3;4,4,4;,
  3;5,5,5;,
  3;6,6,6;,
  3;7,7,7;,
  3;8,8,8;,
  3;9,9,9;,
  3;10,10,10;,
  3;11,11,11;,
  3;12,12,12;,
  3;13,13,13;,
  3;14,14,14;,
  3;15,15,15;,
  3;16,16,16;,
  3;17,17,17;,
  3;18,18,18;,
  3;19,19,19;,
  3;20,20,20;,
  3;21,21,21;,
  3;22,22,22;,
  3;23,23,23;,
  3;24,24,24;,
  3;25,25,25;,
  3;26,26,26;,
  3;27,27,27;,
  3;28,28,28;,
  3;29,29,29;,
  3;30,30,30;,
  3;31,31,31;,
  3;32,32,32;,
  3;33,33,33;;
 }
}