xof 0303txt 0032
template Vector {
 <3d82ab5e-62da-11cf-ab39-0020af71e433>
 FLOAT x;
 FLOAT y;
 FLOAT z;
}

template MeshFace {
 <3d82ab5f-62da-11cf-ab39-0020af71e433>
 DWORD nFaceVertexIndices;
 array DWORD faceVertexIndices[nFaceVertexIndices];
}

template Mesh {
 <3d82ab44-62da-11cf-ab39-0020af71e433>
 DWORD nVertices;
 array Vector vertices[nVertices];
 DWORD nFaces;
 array MeshFace faces[nFaces];
 [...]
}

template ColorRGBA {
 <35ff44e0-6c7c-11cf-8f52-0040333594a3>
 FLOAT red;
 FLOAT green;
 FLOAT blue;
 FLOAT alpha;
}

template ColorRGB {
 <d3e16e81-7835-11cf-8f52-0040333594a3>
 FLOAT red;
 FLOAT green;
 FLOAT blue;
}

template Material {
 <3d82ab4d-62da-11cf-ab39-0020af71e433>
 ColorRGBA faceColor;
 FLOAT power;
 ColorRGB specularColor;
 ColorRGB emissiveColor;
 [...]
}

template MeshMaterialList {
 <f6f23f42-7686-11cf-8f52-0040333594a3>
 DWORD nMaterials;
 DWORD nFaceIndexes;
 array DWORD faceIndexes[nFaceIndexes];
 [Material <3d82ab4d-62da-11cf-ab39-0020af71e433>]
}

template TextureFilename {
 <a42790e1-7810-11cf-8f52-0040333594a3>
 STRING filename;
}

template Coords2d {
 <f6f23f44-7686-11cf-8f52-0040333594a3>
 FLOAT u;
 FLOAT v;
}

template MeshTextureCoords {
 <f6f23f40-7686-11cf-8f52-0040333594a3>
 DWORD nTextureCoords;
 array Coords2d textureCoords[nTextureCoords];
}

template MeshNormals {
 <f6f23f43-7686-11cf-8f52-0040333594a3>
 DWORD nNormals;
 array Vector normals[nNormals];
 DWORD nFaceNormals;
 array MeshFace faceNormals[nFaceNormals];
}


Mesh  {
 120;
 -7.850000;6.000000;-11.600000;,
 -7.850000;6.000000;-17.000000;,
 -7.850000;10.000000;-17.000000;,
 19.150000;6.000000;-11.600000;,
 20.872000;6.000000;-17.000000;,
 20.872000;10.000000;-17.000000;,
 19.150000;6.000000;-11.600000;,
 22.090000;6.000000;-15.782000;,
 22.090000;10.000000;-15.782000;,
 19.150000;6.800000;-11.600000;,
 22.090000;6.800000;-15.782000;,
 22.090000;7.000000;-15.782000;,
 23.740000;3.050000;-7.010000;,
 26.680000;3.050000;-11.192000;,
 26.680000;3.250000;-11.192000;,
 24.240000;3.050000;-6.510000;,
 27.180000;3.050000;-10.692000;,
 27.180000;3.250000;-10.692000;,
 28.830000;-0.700000;-1.920000;,
 31.770000;-0.700000;-6.102000;,
 31.770000;-0.500000;-6.102000;,
 22.080000;7.000000;-15.782000;,
 26.670000;3.250000;-11.192000;,
 27.170000;3.250000;-10.692000;,
 31.760000;-0.500000;-6.102000;,
 22.080000;9.000000;-15.782000;,
 26.920000;5.250000;-10.942000;,
 31.760000;1.500000;-6.102000;,
 22.090000;8.780000;-15.782000;,
 31.770000;1.280000;-6.103000;,
 22.090000;10.000000;-15.782000;,
 31.770000;2.500000;-6.103000;,
 18.000000;6.000000;-11.600000;,
 16.500000;6.000000;-11.600000;,
 16.500000;6.500000;-11.600000;,
 16.500000;6.000000;-10.100000;,
 16.500000;6.500000;-10.100000;,
 16.500000;6.000000;-10.100000;,
 17.299999;5.600000;-9.300000;,
 18.500000;5.600000;-8.100000;,
 18.799999;5.300000;-7.800000;,
 20.000000;5.300000;-6.600000;,
 27.100000;-0.500000;0.500000;,
 18.000000;6.000000;-11.600000;,
 18.799999;5.600000;-10.800000;,
 20.000000;5.600000;-9.600000;,
 20.299999;5.300000;-9.300000;,
 21.500000;5.300000;-8.100000;,
 28.600000;-0.500000;-1.000000;,
 18.000000;6.500000;-11.600000;,
 21.500000;6.500000;-8.100000;,
 28.600000;0.700000;-1.000000;,
 17.999998;-1.000000;-13.449999;,
 17.999998;4.800000;-13.449999;,
 17.999998;5.199999;-11.499999;,
 17.999998;5.800000;-11.499999;,
 18.199999;6.000000;-11.599999;,
 18.199999;6.000000;-16.999998;,
 17.999998;5.800000;-17.099998;,
 17.999998;5.199999;-17.099998;,
 17.999998;4.800000;-14.949999;,
 17.999998;-1.000000;-14.949999;,
 18.999998;-1.000000;-13.449999;,
 19.099998;4.800000;-13.449999;,
 19.099998;5.199999;-11.499999;,
 19.099998;5.800000;-11.499999;,
 18.899998;6.000000;-11.599999;,
 18.899998;6.000000;-16.999998;,
 19.099998;5.800000;-17.099998;,
 19.099998;5.199999;-17.099998;,
 19.099998;4.800000;-14.949999;,
 19.099998;-1.000000;-14.949999;,
 25.759996;3.050000;-8.850999;,
 25.759996;-0.350000;-8.850999;,
 25.609997;3.050000;-8.591191;,
 25.609997;-0.350000;-8.591191;,
 25.309998;3.050000;-8.591191;,
 25.309998;-0.350000;-8.591191;,
 25.159998;3.050000;-8.850999;,
 25.159998;-0.350000;-8.850999;,
 25.309998;3.050000;-9.110806;,
 25.309998;-0.350000;-9.110806;,
 25.609997;3.050000;-9.110806;,
 25.609997;-0.350000;-9.110806;,
 25.859997;-0.350000;-8.850999;,
 25.859997;-0.850000;-8.850999;,
 25.659998;-0.350000;-8.504589;,
 25.659998;-0.850000;-8.504589;,
 25.259996;-0.350000;-8.504589;,
 25.259996;-0.850000;-8.504589;,
 25.059998;-0.350000;-8.850999;,
 25.059998;-0.850000;-8.850999;,
 25.259996;-0.350000;-9.197409;,
 25.259996;-0.850000;-9.197409;,
 25.659998;-0.350000;-9.197409;,
 25.659998;-0.850000;-9.197409;,
 20.449997;5.300000;-8.399999;,
 20.449997;-0.350000;-8.399999;,
 20.299997;5.300000;-8.140191;,
 20.299997;-0.350000;-8.140191;,
 19.999998;5.300000;-8.140191;,
 19.999998;-0.350000;-8.140191;,
 19.849998;5.300000;-8.399999;,
 19.849998;-0.350000;-8.399999;,
 19.999998;5.300000;-8.659806;,
 19.999998;-0.350000;-8.659806;,
 20.299997;5.300000;-8.659806;,
 20.299997;-0.350000;-8.659806;,
 20.549997;-0.350000;-8.399999;,
 20.549997;-0.850000;-8.399999;,
 20.349998;-0.350000;-8.053589;,
 20.349998;-0.850000;-8.053589;,
 19.949997;-0.350000;-8.053589;,
 19.949997;-0.850000;-8.053589;,
 19.749998;-0.350000;-8.399999;,
 19.749998;-0.850000;-8.399999;,
 19.949997;-0.350000;-8.746408;,
 19.949997;-0.850000;-8.746408;,
 20.349998;-0.350000;-8.746408;,
 20.349998;-0.850000;-8.746408;;
 150;
 3;0,1,4;,
 3;0,4,3;,
 3;1,2,5;,
 3;1,5,4;,
 3;3,4,7;,
 3;3,7,6;,
 3;4,5,8;,
 3;4,8,7;,
 3;9,10,13;,
 3;9,13,12;,
 3;10,11,14;,
 3;10,14,13;,
 3;12,13,16;,
 3;12,16,15;,
 3;13,14,17;,
 3;13,17,16;,
 3;15,16,19;,
 3;15,19,18;,
 3;16,17,20;,
 3;16,20,19;,
 3;25,26,22;,
 3;25,22,21;,
 3;26,23,22;,
 3;26,27,24;,
 3;26,24,23;,
 3;29,28,30;,
 3;29,30,31;,
 3;35,33,32;,
 3;35,36,34;,
 3;35,34,33;,
 3;37,43,44;,
 3;37,44,38;,
 3;38,44,45;,
 3;38,45,39;,
 3;39,45,46;,
 3;39,46,40;,
 3;40,46,47;,
 3;40,47,41;,
 3;41,47,48;,
 3;41,48,42;,
 3;49,50,45;,
 3;49,45,44;,
 3;50,47,46;,
 3;50,46,45;,
 3;50,51,48;,
 3;50,48,47;,
 3;52,53,60;,
 3;52,60,61;,
 3;53,54,59;,
 3;53,59,60;,
 3;54,55,58;,
 3;54,58,59;,
 3;55,56,57;,
 3;55,57,58;,
 3;71,70,63;,
 3;71,63,62;,
 3;70,69,64;,
 3;70,64,63;,
 3;69,68,65;,
 3;69,65,64;,
 3;68,67,66;,
 3;68,66,65;,
 3;61,60,70;,
 3;61,70,71;,
 3;60,59,69;,
 3;60,69,70;,
 3;59,58,68;,
 3;59,68,69;,
 3;58,57,67;,
 3;58,67,68;,
 3;73,72,74;,
 3;73,74,75;,
 3;75,74,76;,
 3;75,76,77;,
 3;77,76,78;,
 3;77,78,79;,
 3;79,78,80;,
 3;79,80,81;,
 3;81,80,82;,
 3;81,82,83;,
 3;83,82,72;,
 3;83,72,73;,
 3;82,80,78;,
 3;82,78,76;,
 3;82,76,74;,
 3;82,74,72;,
 3;73,75,77;,
 3;73,77,79;,
 3;73,79,81;,
 3;73,81,83;,
 3;85,84,86;,
 3;85,86,87;,
 3;87,86,88;,
 3;87,88,89;,
 3;89,88,90;,
 3;89,90,91;,
 3;91,90,92;,
 3;91,92,93;,
 3;93,92,94;,
 3;93,94,95;,
 3;95,94,84;,
 3;95,84,85;,
 3;94,92,90;,
 3;94,90,88;,
 3;94,88,86;,
 3;94,86,84;,
 3;85,87,89;,
 3;85,89,91;,
 3;85,91,93;,
 3;85,93,95;,
 3;97,96,98;,
 3;97,98,99;,
 3;99,98,100;,
 3;99,100,101;,
 3;101,100,102;,
 3;101,102,103;,
 3;103,102,104;,
 3;103,104,105;,
 3;105,104,106;,
 3;105,106,107;,
 3;107,106,96;,
 3;107,96,97;,
 3;106,104,102;,
 3;106,102,100;,
 3;106,100,98;,
 3;106,98,96;,
 3;97,99,101;,
 3;97,101,103;,
 3;97,103,105;,
 3;97,105,107;,
 3;109,108,110;,
 3;109,110,111;,
 3;111,110,112;,
 3;111,112,113;,
 3;113,112,114;,
 3;113,114,115;,
 3;115,114,116;,
 3;115,116,117;,
 3;117,116,118;,
 3;117,118,119;,
 3;119,118,108;,
 3;119,108,109;,
 3;118,116,114;,
 3;118,114,112;,
 3;118,112,110;,
 3;118,110,108;,
 3;109,111,113;,
 3;109,113,115;,
 3;109,115,117;,
 3;109,117,119;;

 MeshMaterialList  {
  11;
  150;
  0,
  0,
  0,
  0,
  0,
  0,
  0,
  0,
  1,
  1,
  1,
  1,
  1,
  1,
  1,
  1,
  1,
  1,
  1,
  1,
  2,
  2,
  2,
  2,
  2,
  3,
  3,
  4,
  4,
  4,
  5,
  5,
  5,
  5,
  5,
  5,
  5,
  5,
  5,
  5,
  5,
  5,
  5,
  5,
  5,
  5,
  6,
  6,
  6,
  6,
  6,
  6,
  6,
  6,
  6,
  6,
  6,
  6,
  6,
  6,
  6,
  6,
  6,
  6,
  6,
  6,
  6,
  6,
  6,
  6,
  7,
  7,
  7,
  7,
  7,
  7,
  7,
  7,
  7,
  7,
  7,
  7,
  7,
  7,
  7,
  7,
  7,
  7,
  7,
  7,
  8,
  8,
  8,
  8,
  8,
  8,
  8,
  8,
  8,
  8,
  8,
  8,
  8,
  8,
  8,
  8,
  8,
  8,
  8,
  8,
  9,
  9,
  9,
  9,
  9,
  9,
  9,
  9,
  9,
  9,
  9,
  9,
  9,
  9,
  9,
  9,
  9,
  9,
  9,
  9,
  10,
  10,
  10,
  10,
  10,
  10,
  10,
  10,
  10,
  10,
  10,
  10,
  10,
  10,
  10,
  10,
  10,
  10,
  10,
  10;

  Material  {
   1.000000;1.000000;1.000000;1.000000;;
   0.000000;
   0.000000;0.000000;0.000000;;
   0.000000;0.000000;0.000000;;

   TextureFilename  {
    "Kosen_Wall1.png";
   }
  }

  Material  {
   1.000000;1.000000;1.000000;1.000000;;
   0.000000;
   0.000000;0.000000;0.000000;;
   0.000000;0.000000;0.000000;;

   TextureFilename  {
    "Kosen_Kaidan.png";
   }
  }

  Material  {
   1.000000;1.000000;1.000000;1.000000;;
   0.000000;
   0.000000;0.000000;0.000000;;
   0.000000;0.000000;0.000000;;

   TextureFilename  {
    "Kosen_Wall1.png";
   }
  }

  Material  {
   1.000000;1.000000;1.000000;1.000000;;
   0.000000;
   0.000000;0.000000;0.000000;;
   0.000000;0.000000;0.000000;;

   TextureFilename  {
    "Kosen_Wall1.png";
   }
  }

  Material  {
   1.000000;1.000000;1.000000;1.000000;;
   0.000000;
   0.000000;0.000000;0.000000;;
   0.000000;0.000000;0.000000;;

   TextureFilename  {
    "Escalator_Wall1.png";
   }
  }

  Material  {
   1.000000;1.000000;1.000000;1.000000;;
   0.000000;
   0.000000;0.000000;0.000000;;
   0.000000;0.000000;0.000000;;

   TextureFilename  {
    "Escalator_Wall1.png";
   }
  }

  Material  {
   1.000000;1.000000;1.000000;1.000000;;
   0.000000;
   0.000000;0.000000;0.000000;;
   0.000000;0.000000;0.000000;;

   TextureFilename  {
    "Pier1.png";
   }
  }

  Material  {
   0.313726;0.313726;0.235294;1.000000;;
   0.000000;
   0.000000;0.000000;0.000000;;
   0.000000;0.000000;0.000000;;
  }

  Material  {
   0.392157;0.392157;0.392157;1.000000;;
   0.000000;
   0.000000;0.000000;0.000000;;
   0.000000;0.000000;0.000000;;
  }

  Material  {
   0.313726;0.313726;0.235294;1.000000;;
   0.000000;
   0.000000;0.000000;0.000000;;
   0.000000;0.000000;0.000000;;
  }

  Material  {
   0.392157;0.392157;0.392157;1.000000;;
   0.000000;
   0.000000;0.000000;0.000000;;
   0.000000;0.000000;0.000000;;
  }
 }

 MeshTextureCoords  {
  120;
  0.000000;1.000000;,
  0.000000;0.828000;,
  0.000000;0.000000;,
  2.000000;1.000000;,
  2.000000;0.828000;,
  2.000000;0.000000;,
  2.200000;1.000000;,
  2.200000;0.828000;,
  2.200000;0.000000;,
  1.000000;0.000000;,
  0.070000;0.000000;,
  0.000000;0.000000;,
  1.000000;0.750000;,
  0.070000;0.750000;,
  0.000000;0.750000;,
  1.000000;0.750000;,
  0.070000;0.750000;,
  0.000000;0.750000;,
  1.000000;1.500000;,
  0.070000;1.500000;,
  0.000000;1.500000;,
  0.000000;0.600000;,
  0.950000;0.600000;,
  1.050000;0.600000;,
  2.000000;0.600000;,
  0.000000;0.300000;,
  1.000000;0.300000;,
  2.000000;0.300000;,
  0.000000;0.250000;,
  2.000000;0.250000;,
  0.000000;0.000000;,
  2.000000;0.000000;,
  0.000000;1.000000;,
  0.000000;0.700000;,
  0.000000;0.000000;,
  0.250000;0.700000;,
  0.250000;0.000000;,
  0.000000;1.000000;,
  0.211000;1.000000;,
  0.527000;1.000000;,
  0.606000;1.000000;,
  0.920000;1.000000;,
  2.920000;1.000000;,
  0.000000;0.700000;,
  0.211000;0.700000;,
  0.527000;0.700000;,
  0.606000;0.700000;,
  0.920000;0.700000;,
  2.920000;0.700000;,
  0.000000;0.000000;,
  0.920000;0.000000;,
  2.920000;0.000000;,
  0.986486;1.000000;,
  0.986486;0.171429;,
  1.513514;0.114286;,
  1.513514;0.028571;,
  1.486486;0.000000;,
  0.027027;0.000000;,
  0.000000;0.028571;,
  0.000000;0.114286;,
  0.581081;0.171429;,
  0.581081;1.000000;,
  1.986486;1.000000;,
  1.986486;0.171429;,
  2.513514;0.114286;,
  2.513514;0.028571;,
  2.486486;0.000000;,
  1.027027;0.000000;,
  1.000000;0.028571;,
  1.000000;0.114286;,
  1.581081;0.171429;,
  1.581081;1.000000;,
  0.000000;0.000000;,
  0.000000;0.000000;,
  0.000000;0.000000;,
  0.000000;0.000000;,
  0.000000;0.000000;,
  0.000000;0.000000;,
  0.000000;0.000000;,
  0.000000;0.000000;,
  0.000000;0.000000;,
  0.000000;0.000000;,
  0.000000;0.000000;,
  0.000000;0.000000;,
  0.000000;0.000000;,
  0.000000;0.000000;,
  0.000000;0.000000;,
  0.000000;0.000000;,
  0.000000;0.000000;,
  0.000000;0.000000;,
  0.000000;0.000000;,
  0.000000;0.000000;,
  0.000000;0.000000;,
  0.000000;0.000000;,
  0.000000;0.000000;,
  0.000000;0.000000;,
  0.000000;0.000000;,
  0.000000;0.000000;,
  0.000000;0.000000;,
  0.000000;0.000000;,
  0.000000;0.000000;,
  0.000000;0.000000;,
  0.000000;0.000000;,
  0.000000;0.000000;,
  0.000000;0.000000;,
  0.000000;0.000000;,
  0.000000;0.000000;,
  0.000000;0.000000;,
  0.000000;0.000000;,
  0.000000;0.000000;,
  0.000000;0.000000;,
  0.000000;0.000000;,
  0.000000;0.000000;,
  0.000000;0.000000;,
  0.000000;0.000000;,
  0.000000;0.000000;,
  0.000000;0.000000;,
  0.000000;0.000000;,
  0.000000;0.000000;,
  0.000000;0.000000;;
 }

 MeshNormals  {
  118;
  0.000000;-1.000000;0.000000;,
  0.000000;-1.000000;0.000000;,
  0.000000;0.000000;-1.000000;,
  0.000000;0.000000;-1.000000;,
  0.000000;-1.000000;0.000000;,
  0.000000;0.000000;0.000000;,
  0.707107;0.000000;-0.707107;,
  0.707107;0.000000;-0.707107;,
  -0.413827;-0.862618;-0.290926;,
  -0.413827;-0.862618;-0.290926;,
  0.707107;0.000000;-0.707107;,
  0.707107;0.000000;-0.707107;,
  0.000000;-1.000000;0.000000;,
  0.000000;-1.000000;0.000000;,
  0.707107;0.000000;-0.707107;,
  0.707107;0.000000;-0.707107;,
  -0.413827;-0.862618;-0.290926;,
  -0.413827;-0.862618;-0.290926;,
  0.707107;0.000000;-0.707107;,
  0.707107;0.000000;-0.707107;,
  0.707107;0.000000;-0.707107;,
  0.707107;0.000000;-0.707107;,
  0.707107;0.000000;-0.707107;,
  0.707107;0.000000;-0.707107;,
  0.707107;0.000000;-0.707107;,
  0.707070;0.000000;-0.707143;,
  0.707070;0.000000;-0.707143;,
  0.000000;-1.000000;0.000000;,
  -1.000000;0.000000;0.000000;,
  -1.000000;0.000000;0.000000;,
  -0.235702;-0.942809;-0.235702;,
  -0.235702;-0.942809;-0.235702;,
  0.000000;-1.000000;0.000000;,
  0.000000;-1.000000;0.000000;,
  -0.408248;-0.816497;-0.408248;,
  -0.408248;-0.816497;-0.408248;,
  0.000000;-1.000000;0.000000;,
  0.000000;-1.000000;0.000000;,
  -0.353685;-0.865918;-0.353685;,
  -0.353685;-0.865918;-0.353685;,
  0.707107;0.000000;-0.707107;,
  0.707107;-0.000001;-0.707107;,
  0.707107;0.000000;-0.707107;,
  0.707107;-0.000001;-0.707106;,
  0.707107;0.000000;-0.707107;,
  0.707107;0.000000;-0.707107;,
  -1.000000;0.000000;0.000000;,
  -1.000000;0.000000;0.000000;,
  -1.000000;0.000000;0.000000;,
  -1.000000;0.000000;0.000000;,
  -1.000000;0.000000;0.000000;,
  -1.000000;0.000000;0.000000;,
  -0.707105;0.707108;0.000000;,
  -0.707105;0.707108;0.000000;,
  1.000000;0.000000;0.000000;,
  0.997638;-0.017201;0.066509;,
  1.000000;0.000000;0.000000;,
  1.000000;0.000000;0.000000;,
  1.000000;0.000000;0.000000;,
  1.000000;0.000000;0.000000;,
  0.707105;0.707108;0.000000;,
  0.707105;0.707108;0.000000;,
  0.000000;0.000000;-1.000000;,
  0.000000;0.000000;-1.000000;,
  0.000000;-0.983130;-0.182908;,
  0.000000;-0.983130;-0.182908;,
  0.000000;0.000000;-1.000000;,
  0.000000;0.000000;-1.000000;,
  0.000000;0.447215;-0.894426;,
  0.000000;0.447215;-0.894426;,
  0.965926;0.000000;-0.258819;,
  1.000000;0.000000;-0.000000;,
  0.500000;0.000000;0.866025;,
  0.258819;0.000000;0.965926;,
  -0.500000;0.000000;0.866025;,
  -0.707107;0.000000;0.707107;,
  -1.000000;0.000000;-0.000000;,
  -0.965926;0.000000;-0.258819;,
  -0.500000;0.000000;-0.866025;,
  -0.258819;0.000000;-0.965926;,
  0.500000;0.000000;-0.866025;,
  0.707107;0.000000;-0.707107;,
  0.965926;0.000000;-0.258819;,
  1.000000;0.000000;0.000000;,
  0.500000;0.000000;0.866025;,
  0.258819;0.000000;0.965926;,
  -0.500000;0.000000;0.866025;,
  -0.707107;0.000000;0.707107;,
  -1.000000;0.000000;0.000000;,
  -0.965926;0.000000;-0.258819;,
  -0.500000;0.000000;-0.866025;,
  -0.258819;0.000000;-0.965926;,
  0.500000;0.000000;-0.866025;,
  0.707107;0.000000;-0.707107;,
  0.965926;0.000000;-0.258819;,
  1.000000;0.000000;0.000000;,
  0.500000;0.000000;0.866025;,
  0.258819;0.000000;0.965926;,
  -0.500000;0.000000;0.866025;,
  -0.707107;0.000000;0.707107;,
  -1.000000;0.000000;0.000000;,
  -0.965926;0.000000;-0.258819;,
  -0.500000;0.000000;-0.866025;,
  -0.258819;0.000000;-0.965926;,
  0.500000;0.000000;-0.866025;,
  0.707107;0.000000;-0.707107;,
  0.965926;0.000000;-0.258819;,
  1.000000;0.000000;0.000000;,
  0.500000;0.000000;0.866025;,
  0.258819;0.000000;0.965926;,
  -0.500000;0.000000;0.866025;,
  -0.707107;0.000000;0.707107;,
  -1.000000;0.000000;0.000000;,
  -0.965926;0.000000;-0.258819;,
  -0.500000;0.000000;-0.866025;,
  -0.258819;0.000000;-0.965926;,
  0.500000;0.000000;-0.866025;,
  0.707107;0.000000;-0.707107;;
  150;
  3;0,0,0;,
  3;1,1,1;,
  3;2,2,2;,
  3;3,3,3;,
  3;4,4,4;,
  3;5,5,5;,
  3;6,6,6;,
  3;7,7,7;,
  3;8,8,8;,
  3;9,9,9;,
  3;10,10,10;,
  3;11,11,11;,
  3;12,12,12;,
  3;13,13,13;,
  3;14,14,14;,
  3;15,15,15;,
  3;16,16,16;,
  3;17,17,17;,
  3;18,18,18;,
  3;19,19,19;,
  3;20,20,20;,
  3;21,21,21;,
  3;22,22,22;,
  3;23,23,23;,
  3;24,24,24;,
  3;25,25,25;,
  3;26,26,26;,
  3;27,27,27;,
  3;28,28,28;,
  3;29,29,29;,
  3;30,30,30;,
  3;31,31,31;,
  3;32,32,32;,
  3;33,33,33;,
  3;34,34,34;,
  3;35,35,35;,
  3;36,36,36;,
  3;37,37,37;,
  3;38,38,38;,
  3;39,39,39;,
  3;40,40,40;,
  3;41,41,41;,
  3;42,42,42;,
  3;43,43,43;,
  3;44,44,44;,
  3;45,45,45;,
  3;46,46,46;,
  3;47,47,47;,
  3;48,48,48;,
  3;49,49,49;,
  3;50,50,50;,
  3;51,51,51;,
  3;52,52,52;,
  3;53,53,53;,
  3;54,54,54;,
  3;55,55,55;,
  3;56,56,56;,
  3;57,57,57;,
  3;58,58,58;,
  3;59,59,59;,
  3;60,60,60;,
  3;61,61,61;,
  3;62,62,62;,
  3;63,63,63;,
  3;64,64,64;,
  3;65,65,65;,
  3;66,66,66;,
  3;67,67,67;,
  3;68,68,68;,
  3;69,69,69;,
  3;71,70,72;,
  3;71,72,73;,
  3;73,72,74;,
  3;73,74,75;,
  3;75,74,76;,
  3;75,76,77;,
  3;77,76,78;,
  3;77,78,79;,
  3;79,78,80;,
  3;79,80,81;,
  3;81,80,70;,
  3;81,70,71;,
  3;80,78,76;,
  3;80,76,74;,
  3;80,74,72;,
  3;80,72,70;,
  3;71,73,75;,
  3;71,75,77;,
  3;71,77,79;,
  3;71,79,81;,
  3;83,82,84;,
  3;83,84,85;,
  3;85,84,86;,
  3;85,86,87;,
  3;87,86,88;,
  3;87,88,89;,
  3;89,88,90;,
  3;89,90,91;,
  3;91,90,92;,
  3;91,92,93;,
  3;93,92,82;,
  3;93,82,83;,
  3;92,90,88;,
  3;92,88,86;,
  3;92,86,84;,
  3;92,84,82;,
  3;83,85,87;,
  3;83,87,89;,
  3;83,89,91;,
  3;83,91,93;,
  3;95,94,96;,
  3;95,96,97;,
  3;97,96,98;,
  3;97,98,99;,
  3;99,98,100;,
  3;99,100,101;,
  3;101,100,102;,
  3;101,102,103;,
  3;103,102,104;,
  3;103,104,105;,
  3;105,104,94;,
  3;105,94,95;,
  3;104,102,100;,
  3;104,100,98;,
  3;104,98,96;,
  3;104,96,94;,
  3;95,97,99;,
  3;95,99,101;,
  3;95,101,103;,
  3;95,103,105;,
  3;107,106,108;,
  3;107,108,109;,
  3;109,108,110;,
  3;109,110,111;,
  3;111,110,112;,
  3;111,112,113;,
  3;113,112,114;,
  3;113,114,115;,
  3;115,114,116;,
  3;115,116,117;,
  3;117,116,106;,
  3;117,106,107;,
  3;116,114,112;,
  3;116,112,110;,
  3;116,110,108;,
  3;116,108,106;,
  3;107,109,111;,
  3;107,111,113;,
  3;107,113,115;,
  3;107,115,117;;
 }
}