xof 0303txt 0032
template Vector {
 <3d82ab5e-62da-11cf-ab39-0020af71e433>
 FLOAT x;
 FLOAT y;
 FLOAT z;
}

template MeshFace {
 <3d82ab5f-62da-11cf-ab39-0020af71e433>
 DWORD nFaceVertexIndices;
 array DWORD faceVertexIndices[nFaceVertexIndices];
}

template Mesh {
 <3d82ab44-62da-11cf-ab39-0020af71e433>
 DWORD nVertices;
 array Vector vertices[nVertices];
 DWORD nFaces;
 array MeshFace faces[nFaces];
 [...]
}

template ColorRGBA {
 <35ff44e0-6c7c-11cf-8f52-0040333594a3>
 FLOAT red;
 FLOAT green;
 FLOAT blue;
 FLOAT alpha;
}

template ColorRGB {
 <d3e16e81-7835-11cf-8f52-0040333594a3>
 FLOAT red;
 FLOAT green;
 FLOAT blue;
}

template Material {
 <3d82ab4d-62da-11cf-ab39-0020af71e433>
 ColorRGBA faceColor;
 FLOAT power;
 ColorRGB specularColor;
 ColorRGB emissiveColor;
 [...]
}

template MeshMaterialList {
 <f6f23f42-7686-11cf-8f52-0040333594a3>
 DWORD nMaterials;
 DWORD nFaceIndexes;
 array DWORD faceIndexes[nFaceIndexes];
 [Material <3d82ab4d-62da-11cf-ab39-0020af71e433>]
}

template TextureFilename {
 <a42790e1-7810-11cf-8f52-0040333594a3>
 STRING filename;
}

template Coords2d {
 <f6f23f44-7686-11cf-8f52-0040333594a3>
 FLOAT u;
 FLOAT v;
}

template MeshTextureCoords {
 <f6f23f40-7686-11cf-8f52-0040333594a3>
 DWORD nTextureCoords;
 array Coords2d textureCoords[nTextureCoords];
}

template MeshNormals {
 <f6f23f43-7686-11cf-8f52-0040333594a3>
 DWORD nNormals;
 array Vector normals[nNormals];
 DWORD nFaceNormals;
 array MeshFace faceNormals[nFaceNormals];
}


Mesh  {
 292;
 -7.850000;6.000000;-10.600000;,
 -7.850000;6.000000;-15.100000;,
 -7.850000;10.000000;-15.100000;,
 21.600000;6.000000;-10.600000;,
 21.600000;6.000000;-15.100000;,
 21.600000;10.000000;-15.100000;,
 20.199997;6.000000;-12.849999;,
 20.199997;-0.500000;-12.849999;,
 20.049997;6.000000;-12.590192;,
 20.049997;-0.500000;-12.590192;,
 19.749998;6.000000;-12.590192;,
 19.749998;-0.500000;-12.590192;,
 19.599998;6.000000;-12.849999;,
 19.599998;-0.500000;-12.849999;,
 19.749998;6.000000;-13.109807;,
 19.749998;-0.500000;-13.109807;,
 20.049997;6.000000;-13.109807;,
 20.049997;-0.500000;-13.109807;,
 20.299997;-0.250000;-12.849999;,
 20.299997;-0.750000;-12.849999;,
 20.099998;-0.250000;-12.503590;,
 20.099998;-0.750000;-12.503590;,
 19.699997;-0.250000;-12.503590;,
 19.699997;-0.750000;-12.503590;,
 19.499998;-0.250000;-12.849999;,
 19.499998;-0.750000;-12.849999;,
 19.699997;-0.250000;-13.196409;,
 19.699997;-0.750000;-13.196409;,
 20.099998;-0.250000;-13.196409;,
 20.099998;-0.750000;-13.196409;,
 6.500000;6.025000;-12.849999;,
 6.500000;1.275000;-12.849999;,
 6.200000;6.025000;-12.330384;,
 6.200000;1.275000;-12.330384;,
 5.599999;6.025000;-12.330384;,
 5.599999;1.275000;-12.330384;,
 5.300000;6.025000;-12.849999;,
 5.300000;1.275000;-12.849999;,
 5.599999;6.025000;-13.369615;,
 5.599999;1.275000;-13.369615;,
 6.200000;6.025000;-13.369615;,
 6.200000;1.275000;-13.369615;,
 6.800000;1.300000;-12.849999;,
 6.800000;1.100000;-12.849999;,
 6.745723;1.300000;-12.542181;,
 6.745723;1.100000;-12.542181;,
 6.589439;1.300000;-12.271491;,
 6.589439;1.100000;-12.271491;,
 6.349999;1.300000;-12.070577;,
 6.349999;1.100000;-12.070577;,
 6.056283;1.300000;-11.963673;,
 6.056283;1.100000;-11.963673;,
 5.743716;1.300000;-11.963673;,
 5.743716;1.100000;-11.963673;,
 5.450000;1.300000;-12.070577;,
 5.450000;1.100000;-12.070577;,
 5.210560;1.300000;-12.271491;,
 5.210560;1.100000;-12.271491;,
 5.054276;1.300000;-12.542181;,
 5.054276;1.100000;-12.542181;,
 5.000000;1.300000;-12.849999;,
 5.000000;1.100000;-12.849999;,
 5.054276;1.300000;-13.157818;,
 5.054276;1.100000;-13.157818;,
 5.210560;1.300000;-13.428508;,
 5.210560;1.100000;-13.428508;,
 5.450000;1.300000;-13.629422;,
 5.450000;1.100000;-13.629422;,
 5.743716;1.300000;-13.736326;,
 5.743716;1.100000;-13.736326;,
 6.056283;1.300000;-13.736326;,
 6.056283;1.100000;-13.736326;,
 6.349999;1.300000;-13.629422;,
 6.349999;1.100000;-13.629422;,
 6.589439;1.300000;-13.428508;,
 6.589439;1.100000;-13.428508;,
 6.745723;1.300000;-13.157818;,
 6.745723;1.100000;-13.157818;,
 21.250000;6.000000;-10.600000;,
 18.549999;6.000000;-10.600000;,
 18.549999;6.800000;-10.600000;,
 21.250000;4.000000;-6.107926;,
 18.549999;4.000000;-6.107926;,
 18.549999;4.800000;-6.107926;,
 21.250000;4.000000;-5.107926;,
 18.549999;4.000000;-5.107926;,
 18.549999;4.800000;-5.107926;,
 21.250000;0.300000;3.202410;,
 18.549999;0.300000;3.202410;,
 18.549999;1.100000;3.202410;,
 20.199997;4.000000;-5.607926;,
 20.199997;-0.250000;-5.607926;,
 20.049997;4.000000;-5.348118;,
 20.049997;-0.250000;-5.348118;,
 19.749998;4.000000;-5.348118;,
 19.749998;-0.250000;-5.348118;,
 19.599998;4.000000;-5.607926;,
 19.599998;-0.250000;-5.607926;,
 19.749998;4.000000;-5.867733;,
 19.749998;-0.250000;-5.867733;,
 20.049997;4.000000;-5.867733;,
 20.049997;-0.250000;-5.867733;,
 20.299997;-0.250000;-5.607926;,
 20.299997;-0.750000;-5.607926;,
 20.099998;-0.250000;-5.261516;,
 20.099998;-0.750000;-5.261516;,
 19.699997;-0.250000;-5.261516;,
 19.699997;-0.750000;-5.261516;,
 19.499998;-0.250000;-5.607926;,
 19.499998;-0.750000;-5.607926;,
 19.699997;-0.250000;-5.954336;,
 19.699997;-0.750000;-5.954336;,
 20.099998;-0.250000;-5.954336;,
 20.099998;-0.750000;-5.954336;,
 18.549999;6.800000;-10.600000;,
 18.549999;4.800000;-6.107926;,
 18.549999;4.800000;-5.107926;,
 18.549999;1.100000;3.202410;,
 18.549999;8.600000;-10.600000;,
 18.549999;6.538416;-5.607926;,
 18.549999;2.900000;3.202410;,
 18.549999;8.600000;-10.600000;,
 18.549999;2.900000;3.202410;,
 18.549999;10.000000;-10.600000;,
 18.549999;4.300000;3.202410;,
 21.249998;1.100000;3.102409;,
 21.249998;-0.900000;3.102409;,
 18.549997;-0.900000;3.102409;,
 18.549997;1.100000;3.102409;,
 21.249998;1.100000;3.502409;,
 21.249998;-0.900000;3.502409;,
 18.549997;-0.900000;3.502409;,
 18.549997;1.100000;3.502409;,
 8.250000;6.000000;-10.600000;,
 3.550000;6.000000;-10.600000;,
 3.550000;6.800000;-10.600000;,
 8.250000;4.000000;-6.107926;,
 3.550000;4.000000;-6.107926;,
 3.550000;4.800000;-6.107926;,
 8.250000;4.000000;-5.107926;,
 3.550000;4.000000;-5.107926;,
 3.550000;4.800000;-5.107926;,
 8.250000;0.300000;3.202410;,
 3.550000;0.300000;3.202410;,
 3.550000;1.100000;3.202410;,
 6.300000;4.000000;-5.599999;,
 6.300000;1.300000;-5.599999;,
 6.099999;4.000000;-5.253589;,
 6.099999;1.300000;-5.253589;,
 5.700000;4.000000;-5.253589;,
 5.700000;1.300000;-5.253589;,
 5.500000;4.000000;-5.599999;,
 5.500000;1.300000;-5.599999;,
 5.700000;4.000000;-5.946410;,
 5.700000;1.300000;-5.946410;,
 6.099999;4.000000;-5.946410;,
 6.099999;1.300000;-5.946410;,
 6.500000;1.300000;-5.599999;,
 6.500000;1.100000;-5.599999;,
 6.463815;1.300000;-5.394787;,
 6.463815;1.100000;-5.394787;,
 6.359626;1.300000;-5.214327;,
 6.359626;1.100000;-5.214327;,
 6.200000;1.300000;-5.080384;,
 6.200000;1.100000;-5.080384;,
 6.004189;1.300000;-5.009115;,
 6.004189;1.100000;-5.009115;,
 5.795811;1.300000;-5.009115;,
 5.795811;1.100000;-5.009115;,
 5.599999;1.300000;-5.080384;,
 5.599999;1.100000;-5.080384;,
 5.440373;1.300000;-5.214327;,
 5.440373;1.100000;-5.214327;,
 5.336184;1.300000;-5.394787;,
 5.336184;1.100000;-5.394787;,
 5.300000;1.300000;-5.599999;,
 5.300000;1.100000;-5.599999;,
 5.336184;1.300000;-5.805212;,
 5.336184;1.100000;-5.805212;,
 5.440373;1.300000;-5.985672;,
 5.440373;1.100000;-5.985672;,
 5.599999;1.300000;-6.119615;,
 5.599999;1.100000;-6.119615;,
 5.795811;1.300000;-6.190884;,
 5.795811;1.100000;-6.190884;,
 6.004189;1.300000;-6.190884;,
 6.004189;1.100000;-6.190884;,
 6.200000;1.300000;-6.119615;,
 6.200000;1.100000;-6.119615;,
 6.359626;1.300000;-5.985672;,
 6.359626;1.100000;-5.985672;,
 6.463815;1.300000;-5.805212;,
 6.463815;1.100000;-5.805212;,
 3.550000;6.800000;-10.600000;,
 3.550000;4.800000;-6.107926;,
 3.550000;4.800000;-5.107926;,
 3.550000;1.100000;3.202410;,
 3.550000;8.600000;-10.600000;,
 3.550000;6.538416;-5.607926;,
 3.550000;2.900000;3.202410;,
 3.550000;8.600000;-10.600000;,
 3.550000;2.900000;3.202410;,
 3.550000;10.000000;-10.600000;,
 3.550000;4.300000;3.202410;,
 3.550000;1.100000;1.405580;,
 3.550000;1.100000;-1.963475;,
 8.050000;1.100000;-1.963475;,
 3.550000;2.600000;-1.963475;,
 8.050000;2.600000;-1.963475;,
 3.550000;1.300000;-1.970000;,
 3.550000;2.600000;-1.970000;,
 3.750000;1.300000;-1.970000;,
 3.750000;2.600000;-1.970000;,
 7.850000;1.300000;-1.970000;,
 7.850000;2.600000;-1.970000;,
 8.050000;1.300000;-1.970000;,
 8.050000;2.600000;-1.970000;,
 -11.600000;6.000000;-10.600000;,
 -8.900000;6.000000;-10.600000;,
 -8.900000;6.800000;-10.600000;,
 -11.600000;4.000000;-6.107926;,
 -8.900000;4.000000;-6.107926;,
 -8.900000;4.800000;-6.107926;,
 -11.600000;4.000000;-5.107926;,
 -8.900000;4.000000;-5.107926;,
 -8.900000;4.800000;-5.107926;,
 -11.600000;0.300000;3.202410;,
 -8.900000;0.300000;3.202410;,
 -8.900000;1.100000;3.202410;,
 -9.949999;4.000000;-5.607926;,
 -9.949999;-0.250000;-5.607926;,
 -10.099999;4.000000;-5.348118;,
 -10.099999;-0.250000;-5.348118;,
 -10.399999;4.000000;-5.348118;,
 -10.399999;-0.250000;-5.348118;,
 -10.549999;4.000000;-5.607926;,
 -10.549999;-0.250000;-5.607926;,
 -10.399999;4.000000;-5.867733;,
 -10.399999;-0.250000;-5.867733;,
 -10.099999;4.000000;-5.867733;,
 -10.099999;-0.250000;-5.867733;,
 -9.849999;-0.250000;-5.607926;,
 -9.849999;-0.750000;-5.607926;,
 -10.049999;-0.250000;-5.261516;,
 -10.049999;-0.750000;-5.261516;,
 -10.449999;-0.250000;-5.261516;,
 -10.449999;-0.750000;-5.261516;,
 -10.649999;-0.250000;-5.607926;,
 -10.649999;-0.750000;-5.607926;,
 -10.449999;-0.250000;-5.954336;,
 -10.449999;-0.750000;-5.954336;,
 -10.049999;-0.250000;-5.954336;,
 -10.049999;-0.750000;-5.954336;,
 -8.900000;6.800000;-10.600000;,
 -8.900000;4.800000;-6.107926;,
 -8.900000;4.800000;-5.107926;,
 -8.900000;1.100000;3.202410;,
 -8.900000;8.600000;-10.600000;,
 -8.900000;6.538416;-5.607926;,
 -8.900000;2.900000;3.202410;,
 -8.900000;8.600000;-10.600000;,
 -8.900000;2.900000;3.202410;,
 -8.900000;10.000000;-10.600000;,
 -8.900000;4.300000;3.202410;,
 -8.899999;1.100000;3.102409;,
 -8.899999;-0.900000;3.102409;,
 -11.599999;-0.900000;3.102409;,
 -11.599999;1.100000;3.102409;,
 -8.899999;1.100000;3.502409;,
 -8.899999;-0.900000;3.502409;,
 -11.599999;-0.900000;3.502409;,
 -11.599999;1.100000;3.502409;,
 4.450000;1.100000;-16.000000;,
 4.450000;1.100000;-18.000000;,
 7.350000;1.100000;-18.000000;,
 4.450000;1.700000;-16.000000;,
 4.450000;1.700000;-18.000000;,
 7.350000;1.700000;-18.000000;,
 4.450000;1.700000;-16.000000;,
 4.450000;1.700000;-18.000000;,
 7.350000;1.700000;-18.000000;,
 4.450000;6.500000;-15.100000;,
 4.450000;6.500000;-16.000000;,
 4.450000;9.700000;-15.100000;,
 4.450000;9.700000;-16.000000;,
 4.450000;10.500000;-16.000000;,
 4.450000;10.500000;-18.000000;,
 7.350000;10.500000;-18.000000;,
 4.450000;6.500000;-15.100000;,
 4.450000;6.500000;-16.000000;,
 7.350000;6.500000;-15.100000;,
 7.350000;6.500000;-16.000000;;
 402;
 3;0,1,4;,
 3;0,4,3;,
 3;1,2,5;,
 3;1,5,4;,
 3;7,6,8;,
 3;7,8,9;,
 3;9,8,10;,
 3;9,10,11;,
 3;11,10,12;,
 3;11,12,13;,
 3;13,12,14;,
 3;13,14,15;,
 3;15,14,16;,
 3;15,16,17;,
 3;17,16,6;,
 3;17,6,7;,
 3;16,14,12;,
 3;16,12,10;,
 3;16,10,8;,
 3;16,8,6;,
 3;7,9,11;,
 3;7,11,13;,
 3;7,13,15;,
 3;7,15,17;,
 3;19,18,20;,
 3;19,20,21;,
 3;21,20,22;,
 3;21,22,23;,
 3;23,22,24;,
 3;23,24,25;,
 3;25,24,26;,
 3;25,26,27;,
 3;27,26,28;,
 3;27,28,29;,
 3;29,28,18;,
 3;29,18,19;,
 3;28,26,24;,
 3;28,24,22;,
 3;28,22,20;,
 3;28,20,18;,
 3;19,21,23;,
 3;19,23,25;,
 3;19,25,27;,
 3;19,27,29;,
 3;31,30,32;,
 3;31,32,33;,
 3;33,32,34;,
 3;33,34,35;,
 3;35,34,36;,
 3;35,36,37;,
 3;37,36,38;,
 3;37,38,39;,
 3;39,38,40;,
 3;39,40,41;,
 3;41,40,30;,
 3;41,30,31;,
 3;40,38,36;,
 3;40,36,34;,
 3;40,34,32;,
 3;40,32,30;,
 3;31,33,35;,
 3;31,35,37;,
 3;31,37,39;,
 3;31,39,41;,
 3;43,42,44;,
 3;43,44,45;,
 3;45,44,46;,
 3;45,46,47;,
 3;47,46,48;,
 3;47,48,49;,
 3;49,48,50;,
 3;49,50,51;,
 3;51,50,52;,
 3;51,52,53;,
 3;53,52,54;,
 3;53,54,55;,
 3;55,54,56;,
 3;55,56,57;,
 3;57,56,58;,
 3;57,58,59;,
 3;59,58,60;,
 3;59,60,61;,
 3;61,60,62;,
 3;61,62,63;,
 3;63,62,64;,
 3;63,64,65;,
 3;65,64,66;,
 3;65,66,67;,
 3;67,66,68;,
 3;67,68,69;,
 3;69,68,70;,
 3;69,70,71;,
 3;71,70,72;,
 3;71,72,73;,
 3;73,72,74;,
 3;73,74,75;,
 3;75,74,76;,
 3;75,76,77;,
 3;77,76,42;,
 3;77,42,43;,
 3;76,74,72;,
 3;76,72,70;,
 3;76,70,68;,
 3;76,68,66;,
 3;76,66,64;,
 3;76,64,62;,
 3;76,62,60;,
 3;76,60,58;,
 3;76,58,56;,
 3;76,56,54;,
 3;76,54,52;,
 3;76,52,50;,
 3;76,50,48;,
 3;76,48,46;,
 3;76,46,44;,
 3;76,44,42;,
 3;43,45,47;,
 3;43,47,49;,
 3;43,49,51;,
 3;43,51,53;,
 3;43,53,55;,
 3;43,55,57;,
 3;43,57,59;,
 3;43,59,61;,
 3;43,61,63;,
 3;43,63,65;,
 3;43,65,67;,
 3;43,67,69;,
 3;43,69,71;,
 3;43,71,73;,
 3;43,73,75;,
 3;43,75,77;,
 3;81,82,79;,
 3;81,79,78;,
 3;82,83,80;,
 3;82,80,79;,
 3;84,85,82;,
 3;84,82,81;,
 3;85,86,83;,
 3;85,83,82;,
 3;87,88,85;,
 3;87,85,84;,
 3;88,89,86;,
 3;88,86,85;,
 3;91,90,92;,
 3;91,92,93;,
 3;93,92,94;,
 3;93,94,95;,
 3;95,94,96;,
 3;95,96,97;,
 3;97,96,98;,
 3;97,98,99;,
 3;99,98,100;,
 3;99,100,101;,
 3;101,100,90;,
 3;101,90,91;,
 3;100,98,96;,
 3;100,96,94;,
 3;100,94,92;,
 3;100,92,90;,
 3;91,93,95;,
 3;91,95,97;,
 3;91,97,99;,
 3;91,99,101;,
 3;103,102,104;,
 3;103,104,105;,
 3;105,104,106;,
 3;105,106,107;,
 3;107,106,108;,
 3;107,108,109;,
 3;109,108,110;,
 3;109,110,111;,
 3;111,110,112;,
 3;111,112,113;,
 3;113,112,102;,
 3;113,102,103;,
 3;112,110,108;,
 3;112,108,106;,
 3;112,106,104;,
 3;112,104,102;,
 3;103,105,107;,
 3;103,107,109;,
 3;103,109,111;,
 3;103,111,113;,
 3;114,115,119;,
 3;114,119,118;,
 3;115,116,119;,
 3;116,117,120;,
 3;116,120,119;,
 3;121,122,124;,
 3;121,124,123;,
 3;125,126,127;,
 3;125,127,128;,
 3;128,127,131;,
 3;128,131,132;,
 3;132,131,130;,
 3;132,130,129;,
 3;129,130,126;,
 3;129,126,125;,
 3;125,128,132;,
 3;125,132,129;,
 3;126,130,131;,
 3;126,131,127;,
 3;136,137,134;,
 3;136,134,133;,
 3;137,138,135;,
 3;137,135,134;,
 3;139,140,137;,
 3;139,137,136;,
 3;140,141,138;,
 3;140,138,137;,
 3;142,143,140;,
 3;142,140,139;,
 3;143,144,141;,
 3;143,141,140;,
 3;146,145,147;,
 3;146,147,148;,
 3;148,147,149;,
 3;148,149,150;,
 3;150,149,151;,
 3;150,151,152;,
 3;152,151,153;,
 3;152,153,154;,
 3;154,153,155;,
 3;154,155,156;,
 3;156,155,145;,
 3;156,145,146;,
 3;155,153,151;,
 3;155,151,149;,
 3;155,149,147;,
 3;155,147,145;,
 3;146,148,150;,
 3;146,150,152;,
 3;146,152,154;,
 3;146,154,156;,
 3;158,157,159;,
 3;158,159,160;,
 3;160,159,161;,
 3;160,161,162;,
 3;162,161,163;,
 3;162,163,164;,
 3;164,163,165;,
 3;164,165,166;,
 3;166,165,167;,
 3;166,167,168;,
 3;168,167,169;,
 3;168,169,170;,
 3;170,169,171;,
 3;170,171,172;,
 3;172,171,173;,
 3;172,173,174;,
 3;174,173,175;,
 3;174,175,176;,
 3;176,175,177;,
 3;176,177,178;,
 3;178,177,179;,
 3;178,179,180;,
 3;180,179,181;,
 3;180,181,182;,
 3;182,181,183;,
 3;182,183,184;,
 3;184,183,185;,
 3;184,185,186;,
 3;186,185,187;,
 3;186,187,188;,
 3;188,187,189;,
 3;188,189,190;,
 3;190,189,191;,
 3;190,191,192;,
 3;192,191,157;,
 3;192,157,158;,
 3;191,189,187;,
 3;191,187,185;,
 3;191,185,183;,
 3;191,183,181;,
 3;191,181,179;,
 3;191,179,177;,
 3;191,177,175;,
 3;191,175,173;,
 3;191,173,171;,
 3;191,171,169;,
 3;191,169,167;,
 3;191,167,165;,
 3;191,165,163;,
 3;191,163,161;,
 3;191,161,159;,
 3;191,159,157;,
 3;158,160,162;,
 3;158,162,164;,
 3;158,164,166;,
 3;158,166,168;,
 3;158,168,170;,
 3;158,170,172;,
 3;158,172,174;,
 3;158,174,176;,
 3;158,176,178;,
 3;158,178,180;,
 3;158,180,182;,
 3;158,182,184;,
 3;158,184,186;,
 3;158,186,188;,
 3;158,188,190;,
 3;158,190,192;,
 3;193,194,198;,
 3;193,198,197;,
 3;194,195,198;,
 3;195,196,199;,
 3;195,199,198;,
 3;200,201,203;,
 3;200,203,202;,
 3;204,207,205;,
 3;205,207,208;,
 3;205,208,206;,
 3;209,210,212;,
 3;209,212,211;,
 3;213,214,216;,
 3;213,216,215;,
 3;217,218,221;,
 3;217,221,220;,
 3;218,219,222;,
 3;218,222,221;,
 3;220,221,224;,
 3;220,224,223;,
 3;221,222,225;,
 3;221,225,224;,
 3;223,224,227;,
 3;223,227,226;,
 3;224,225,228;,
 3;224,228,227;,
 3;230,229,231;,
 3;230,231,232;,
 3;232,231,233;,
 3;232,233,234;,
 3;234,233,235;,
 3;234,235,236;,
 3;236,235,237;,
 3;236,237,238;,
 3;238,237,239;,
 3;238,239,240;,
 3;240,239,229;,
 3;240,229,230;,
 3;239,237,235;,
 3;239,235,233;,
 3;239,233,231;,
 3;239,231,229;,
 3;230,232,234;,
 3;230,234,236;,
 3;230,236,238;,
 3;230,238,240;,
 3;242,241,243;,
 3;242,243,244;,
 3;244,243,245;,
 3;244,245,246;,
 3;246,245,247;,
 3;246,247,248;,
 3;248,247,249;,
 3;248,249,250;,
 3;250,249,251;,
 3;250,251,252;,
 3;252,251,241;,
 3;252,241,242;,
 3;251,249,247;,
 3;251,247,245;,
 3;251,245,243;,
 3;251,243,241;,
 3;242,244,246;,
 3;242,246,248;,
 3;242,248,250;,
 3;242,250,252;,
 3;257,258,254;,
 3;257,254,253;,
 3;258,255,254;,
 3;258,259,256;,
 3;258,256,255;,
 3;262,263,261;,
 3;262,261,260;,
 3;264,265,266;,
 3;264,266,267;,
 3;267,266,270;,
 3;267,270,271;,
 3;271,270,269;,
 3;271,269,268;,
 3;268,269,265;,
 3;268,265,264;,
 3;264,267,271;,
 3;264,271,268;,
 3;265,269,270;,
 3;265,270,266;,
 3;272,275,276;,
 3;272,276,273;,
 3;273,276,277;,
 3;273,277,274;,
 3;278,282,284;,
 3;278,284,285;,
 3;278,285,286;,
 3;278,286,279;,
 3;281,283,284;,
 3;281,284,282;,
 3;279,286,287;,
 3;279,287,280;,
 3;288,289,291;,
 3;288,291,290;;

 MeshMaterialList  {
  28;
  402;
  0,
  0,
  0,
  0,
  1,
  1,
  1,
  1,
  1,
  1,
  1,
  1,
  1,
  1,
  1,
  1,
  1,
  1,
  1,
  1,
  1,
  1,
  1,
  1,
  2,
  2,
  2,
  2,
  2,
  2,
  2,
  2,
  2,
  2,
  2,
  2,
  2,
  2,
  2,
  2,
  2,
  2,
  2,
  2,
  3,
  3,
  3,
  3,
  3,
  3,
  3,
  3,
  3,
  3,
  3,
  3,
  3,
  3,
  3,
  3,
  3,
  3,
  3,
  3,
  4,
  4,
  4,
  4,
  4,
  4,
  4,
  4,
  4,
  4,
  4,
  4,
  4,
  4,
  4,
  4,
  4,
  4,
  4,
  4,
  4,
  4,
  4,
  4,
  4,
  4,
  4,
  4,
  4,
  4,
  4,
  4,
  4,
  4,
  4,
  4,
  4,
  4,
  4,
  4,
  4,
  4,
  4,
  4,
  4,
  4,
  4,
  4,
  4,
  4,
  4,
  4,
  4,
  4,
  4,
  4,
  4,
  4,
  4,
  4,
  4,
  4,
  4,
  4,
  4,
  4,
  4,
  4,
  5,
  5,
  5,
  5,
  5,
  5,
  5,
  5,
  5,
  5,
  5,
  5,
  6,
  6,
  6,
  6,
  6,
  6,
  6,
  6,
  6,
  6,
  6,
  6,
  6,
  6,
  6,
  6,
  6,
  6,
  6,
  6,
  7,
  7,
  7,
  7,
  7,
  7,
  7,
  7,
  7,
  7,
  7,
  7,
  7,
  7,
  7,
  7,
  7,
  7,
  7,
  7,
  8,
  8,
  8,
  8,
  8,
  9,
  9,
  10,
  10,
  10,
  10,
  10,
  10,
  10,
  10,
  10,
  10,
  10,
  10,
  11,
  11,
  11,
  11,
  11,
  11,
  11,
  11,
  11,
  11,
  11,
  11,
  12,
  12,
  12,
  12,
  12,
  12,
  12,
  12,
  12,
  12,
  12,
  12,
  12,
  12,
  12,
  12,
  12,
  12,
  12,
  12,
  13,
  13,
  13,
  13,
  13,
  13,
  13,
  13,
  13,
  13,
  13,
  13,
  13,
  13,
  13,
  13,
  13,
  13,
  13,
  13,
  13,
  13,
  13,
  13,
  13,
  13,
  13,
  13,
  13,
  13,
  13,
  13,
  13,
  13,
  13,
  13,
  13,
  13,
  13,
  13,
  13,
  13,
  13,
  13,
  13,
  13,
  13,
  13,
  13,
  13,
  13,
  13,
  13,
  13,
  13,
  13,
  13,
  13,
  13,
  13,
  13,
  13,
  13,
  13,
  13,
  13,
  13,
  13,
  14,
  14,
  14,
  14,
  14,
  15,
  15,
  16,
  16,
  16,
  17,
  17,
  18,
  18,
  19,
  19,
  19,
  19,
  19,
  19,
  19,
  19,
  19,
  19,
  19,
  19,
  20,
  20,
  20,
  20,
  20,
  20,
  20,
  20,
  20,
  20,
  20,
  20,
  20,
  20,
  20,
  20,
  20,
  20,
  20,
  20,
  21,
  21,
  21,
  21,
  21,
  21,
  21,
  21,
  21,
  21,
  21,
  21,
  21,
  21,
  21,
  21,
  21,
  21,
  21,
  21,
  22,
  22,
  22,
  22,
  22,
  23,
  23,
  24,
  24,
  24,
  24,
  24,
  24,
  24,
  24,
  24,
  24,
  24,
  24,
  25,
  25,
  25,
  25,
  26,
  26,
  26,
  26,
  26,
  26,
  26,
  26,
  27,
  27;

  Material  {
   1.000000;1.000000;1.000000;1.000000;;
   0.000000;
   0.000000;0.000000;0.000000;;
   0.000000;0.000000;0.000000;;

   TextureFilename  {
    "Kosen_Wall1.png";
   }
  }

  Material  {
   0.313726;0.313726;0.235294;1.000000;;
   0.000000;
   0.000000;0.000000;0.000000;;
   0.000000;0.000000;0.000000;;
  }

  Material  {
   0.392157;0.392157;0.392157;1.000000;;
   0.000000;
   0.000000;0.000000;0.000000;;
   0.000000;0.000000;0.000000;;
  }

  Material  {
   1.000000;1.000000;1.000000;1.000000;;
   0.000000;
   0.000000;0.000000;0.000000;;
   0.000000;0.000000;0.000000;;

   TextureFilename  {
    "Pier3.png";
   }
  }

  Material  {
   0.392157;0.392157;0.392157;1.000000;;
   0.000000;
   0.000000;0.000000;0.000000;;
   0.000000;0.000000;0.000000;;
  }

  Material  {
   1.000000;1.000000;1.000000;1.000000;;
   0.000000;
   0.000000;0.000000;0.000000;;
   0.000000;0.000000;0.000000;;

   TextureFilename  {
    "Kosen_Kaidan2.png";
   }
  }

  Material  {
   0.313726;0.313726;0.235294;1.000000;;
   0.000000;
   0.000000;0.000000;0.000000;;
   0.000000;0.000000;0.000000;;
  }

  Material  {
   0.392157;0.392157;0.392157;1.000000;;
   0.000000;
   0.000000;0.000000;0.000000;;
   0.000000;0.000000;0.000000;;
  }

  Material  {
   1.000000;1.000000;1.000000;1.000000;;
   0.000000;
   0.000000;0.000000;0.000000;;
   0.000000;0.000000;0.000000;;

   TextureFilename  {
    "Kosen_Wall2.png";
   }
  }

  Material  {
   1.000000;1.000000;1.000000;1.000000;;
   0.000000;
   0.000000;0.000000;0.000000;;
   0.000000;0.000000;0.000000;;

   TextureFilename  {
    "Kosen_Wall2.png";
   }
  }

  Material  {
   0.392157;0.392157;0.392157;1.000000;;
   0.000000;
   0.000000;0.000000;0.000000;;
   0.000000;0.000000;0.000000;;
  }

  Material  {
   1.000000;1.000000;1.000000;1.000000;;
   0.000000;
   0.000000;0.000000;0.000000;;
   0.000000;0.000000;0.000000;;

   TextureFilename  {
    "Kosen_Kaidan2.png";
   }
  }

  Material  {
   1.000000;1.000000;1.000000;1.000000;;
   0.000000;
   0.000000;0.000000;0.000000;;
   0.000000;0.000000;0.000000;;

   TextureFilename  {
    "Pier3.png";
   }
  }

  Material  {
   0.392157;0.392157;0.392157;1.000000;;
   0.000000;
   0.000000;0.000000;0.000000;;
   0.000000;0.000000;0.000000;;
  }

  Material  {
   1.000000;1.000000;1.000000;1.000000;;
   0.000000;
   0.000000;0.000000;0.000000;;
   0.000000;0.000000;0.000000;;

   TextureFilename  {
    "Kosen_Wall2.png";
   }
  }

  Material  {
   1.000000;1.000000;1.000000;1.000000;;
   0.000000;
   0.000000;0.000000;0.000000;;
   0.000000;0.000000;0.000000;;

   TextureFilename  {
    "Kosen_Wall2.png";
   }
  }

  Material  {
   1.000000;1.000000;1.000000;1.000000;;
   0.000000;
   0.000000;0.000000;0.000000;;
   0.000000;0.000000;0.000000;;

   TextureFilename  {
    "Pier2.png";
   }
  }

  Material  {
   1.000000;1.000000;1.000000;1.000000;;
   0.000000;
   0.000000;0.000000;0.000000;;
   0.000000;0.000000;0.000000;;

   TextureFilename  {
    "Caution.png";
   }
  }

  Material  {
   1.000000;1.000000;1.000000;1.000000;;
   0.000000;
   0.000000;0.000000;0.000000;;
   0.000000;0.000000;0.000000;;

   TextureFilename  {
    "Caution.png";
   }
  }

  Material  {
   1.000000;1.000000;1.000000;1.000000;;
   0.000000;
   0.000000;0.000000;0.000000;;
   0.000000;0.000000;0.000000;;

   TextureFilename  {
    "Kosen_Kaidan2.png";
   }
  }

  Material  {
   1.000000;1.000000;1.000000;1.000000;;
   0.000000;
   0.000000;0.000000;0.000000;;
   0.000000;0.000000;0.000000;;

   TextureFilename  {
    "Pier3.png";
   }
  }

  Material  {
   0.392157;0.392157;0.392157;1.000000;;
   0.000000;
   0.000000;0.000000;0.000000;;
   0.000000;0.000000;0.000000;;
  }

  Material  {
   1.000000;1.000000;1.000000;1.000000;;
   0.000000;
   0.000000;0.000000;0.000000;;
   0.000000;0.000000;0.000000;;

   TextureFilename  {
    "Kosen_Wall2.png";
   }
  }

  Material  {
   1.000000;1.000000;1.000000;1.000000;;
   0.000000;
   0.000000;0.000000;0.000000;;
   0.000000;0.000000;0.000000;;

   TextureFilename  {
    "Kosen_Wall2.png";
   }
  }

  Material  {
   0.392157;0.392157;0.392157;1.000000;;
   0.000000;
   0.000000;0.000000;0.000000;;
   0.000000;0.000000;0.000000;;
  }

  Material  {
   1.000000;1.000000;1.000000;1.000000;;
   0.000000;
   0.000000;0.000000;0.000000;;
   0.000000;0.000000;0.000000;;

   TextureFilename  {
    "Pier1.png";
   }
  }

  Material  {
   1.000000;1.000000;1.000000;1.000000;;
   0.000000;
   0.000000;0.000000;0.000000;;
   0.000000;0.000000;0.000000;;

   TextureFilename  {
    "EV_Wall1.png";
   }
  }

  Material  {
   0.490196;0.490196;0.490196;1.000000;;
   0.000000;
   0.000000;0.000000;0.000000;;
   0.000000;0.000000;0.000000;;

   TextureFilename  {
    "Kosen_Wall2.png";
   }
  }
 }

 MeshTextureCoords  {
  292;
  0.000000;1.000000;,
  0.000000;0.820000;,
  0.000000;0.000000;,
  2.000000;1.000000;,
  2.000000;0.820000;,
  2.000000;0.000000;,
  0.000000;0.000000;,
  0.000000;0.000000;,
  0.000000;0.000000;,
  0.000000;0.000000;,
  0.000000;0.000000;,
  0.000000;0.000000;,
  0.000000;0.000000;,
  0.000000;0.000000;,
  0.000000;0.000000;,
  0.000000;0.000000;,
  0.000000;0.000000;,
  0.000000;0.000000;,
  0.000000;0.000000;,
  0.000000;0.000000;,
  0.000000;0.000000;,
  0.000000;0.000000;,
  0.000000;0.000000;,
  0.000000;0.000000;,
  0.000000;0.000000;,
  0.000000;0.000000;,
  0.000000;0.000000;,
  0.000000;0.000000;,
  0.000000;0.000000;,
  0.000000;0.000000;,
  0.000000;0.000000;,
  0.000000;1.000000;,
  0.000000;0.000000;,
  0.000000;1.000000;,
  0.000000;0.000000;,
  0.000000;1.000000;,
  0.000000;0.000000;,
  0.000000;1.000000;,
  0.000000;0.000000;,
  0.000000;1.000000;,
  0.000000;0.000000;,
  0.000000;1.000000;,
  0.000000;0.000000;,
  0.000000;0.000000;,
  0.000000;0.000000;,
  0.000000;0.000000;,
  0.000000;0.000000;,
  0.000000;0.000000;,
  0.000000;0.000000;,
  0.000000;0.000000;,
  0.000000;0.000000;,
  0.000000;0.000000;,
  0.000000;0.000000;,
  0.000000;0.000000;,
  0.000000;0.000000;,
  0.000000;0.000000;,
  0.000000;0.000000;,
  0.000000;0.000000;,
  0.000000;0.000000;,
  0.000000;0.000000;,
  0.000000;0.000000;,
  0.000000;0.000000;,
  0.000000;0.000000;,
  0.000000;0.000000;,
  0.000000;0.000000;,
  0.000000;0.000000;,
  0.000000;0.000000;,
  0.000000;0.000000;,
  0.000000;0.000000;,
  0.000000;0.000000;,
  0.000000;0.000000;,
  0.000000;0.000000;,
  0.000000;0.000000;,
  0.000000;0.000000;,
  0.000000;0.000000;,
  0.000000;0.000000;,
  0.000000;0.000000;,
  0.000000;0.000000;,
  1.000000;0.000000;,
  0.400000;0.000000;,
  0.000000;0.000000;,
  1.000000;1.500000;,
  0.400000;1.500000;,
  0.000000;1.500000;,
  1.000000;1.500000;,
  0.400000;1.500000;,
  0.000000;1.500000;,
  1.000000;3.000000;,
  0.400000;3.000000;,
  0.000000;3.000000;,
  0.000000;0.000000;,
  0.000000;0.000000;,
  0.000000;0.000000;,
  0.000000;0.000000;,
  0.000000;0.000000;,
  0.000000;0.000000;,
  0.000000;0.000000;,
  0.000000;0.000000;,
  0.000000;0.000000;,
  0.000000;0.000000;,
  0.000000;0.000000;,
  0.000000;0.000000;,
  0.000000;0.000000;,
  0.000000;0.000000;,
  0.000000;0.000000;,
  0.000000;0.000000;,
  0.000000;0.000000;,
  0.000000;0.000000;,
  0.000000;0.000000;,
  0.000000;0.000000;,
  0.000000;0.000000;,
  0.000000;0.000000;,
  0.000000;0.000000;,
  0.000000;0.000000;,
  0.000000;0.550000;,
  0.950000;0.550000;,
  1.050000;0.550000;,
  2.000000;0.550000;,
  0.000000;0.240000;,
  1.000000;0.240000;,
  2.000000;0.240000;,
  0.000000;0.240000;,
  2.000000;0.240000;,
  0.000000;0.000000;,
  2.000000;0.000000;,
  0.000000;0.000000;,
  0.000000;0.000000;,
  0.000000;0.000000;,
  0.000000;0.000000;,
  0.000000;0.000000;,
  0.000000;0.000000;,
  0.000000;0.000000;,
  0.000000;0.000000;,
  1.000000;0.000000;,
  0.400000;0.000000;,
  0.000000;0.000000;,
  1.000000;1.500000;,
  0.400000;1.500000;,
  0.000000;1.500000;,
  1.000000;1.500000;,
  0.400000;1.500000;,
  0.000000;1.500000;,
  1.000000;3.000000;,
  0.400000;3.000000;,
  0.000000;3.000000;,
  0.000000;0.000000;,
  0.000000;1.000000;,
  0.000000;0.000000;,
  0.000000;1.000000;,
  0.000000;0.000000;,
  0.000000;1.000000;,
  0.000000;0.000000;,
  0.000000;1.000000;,
  0.000000;0.000000;,
  0.000000;1.000000;,
  0.000000;0.000000;,
  0.000000;1.000000;,
  0.000000;0.000000;,
  0.000000;0.000000;,
  0.000000;0.000000;,
  0.000000;0.000000;,
  0.000000;0.000000;,
  0.000000;0.000000;,
  0.000000;0.000000;,
  0.000000;0.000000;,
  0.000000;0.000000;,
  0.000000;0.000000;,
  0.000000;0.000000;,
  0.000000;0.000000;,
  0.000000;0.000000;,
  0.000000;0.000000;,
  0.000000;0.000000;,
  0.000000;0.000000;,
  0.000000;0.000000;,
  0.000000;0.000000;,
  0.000000;0.000000;,
  0.000000;0.000000;,
  0.000000;0.000000;,
  0.000000;0.000000;,
  0.000000;0.000000;,
  0.000000;0.000000;,
  0.000000;0.000000;,
  0.000000;0.000000;,
  0.000000;0.000000;,
  0.000000;0.000000;,
  0.000000;0.000000;,
  0.000000;0.000000;,
  0.000000;0.000000;,
  0.000000;0.000000;,
  0.000000;0.000000;,
  0.000000;0.000000;,
  0.000000;0.000000;,
  0.000000;0.000000;,
  0.000000;0.550000;,
  0.950000;0.550000;,
  1.050000;0.550000;,
  2.000000;0.550000;,
  0.000000;0.240000;,
  1.000000;0.240000;,
  2.000000;0.240000;,
  0.000000;0.240000;,
  2.000000;0.240000;,
  0.000000;0.000000;,
  2.000000;0.000000;,
  0.000000;1.000000;,
  0.250000;1.000000;,
  0.500000;1.000000;,
  0.250000;0.000000;,
  0.500000;0.000000;,
  0.000000;1.000000;,
  0.000000;0.000000;,
  1.000000;1.000000;,
  1.000000;0.000000;,
  0.000000;1.000000;,
  0.000000;0.000000;,
  1.000000;1.000000;,
  1.000000;0.000000;,
  1.000000;0.000000;,
  0.400000;0.000000;,
  0.000000;0.000000;,
  1.000000;1.500000;,
  0.400000;1.500000;,
  0.000000;1.500000;,
  1.000000;1.500000;,
  0.400000;1.500000;,
  0.000000;1.500000;,
  1.000000;3.000000;,
  0.400000;3.000000;,
  0.000000;3.000000;,
  0.000000;0.000000;,
  0.000000;1.000000;,
  0.000000;0.000000;,
  0.000000;1.000000;,
  0.000000;0.000000;,
  0.000000;1.000000;,
  0.000000;0.000000;,
  0.000000;1.000000;,
  0.000000;0.000000;,
  0.000000;1.000000;,
  0.000000;0.000000;,
  0.000000;1.000000;,
  0.000000;0.000000;,
  0.000000;0.000000;,
  0.000000;0.000000;,
  0.000000;0.000000;,
  0.000000;0.000000;,
  0.000000;0.000000;,
  0.000000;0.000000;,
  0.000000;0.000000;,
  0.000000;0.000000;,
  0.000000;0.000000;,
  0.000000;0.000000;,
  0.000000;0.000000;,
  0.000000;0.550000;,
  0.950000;0.550000;,
  1.050000;0.550000;,
  2.000000;0.550000;,
  0.000000;0.240000;,
  1.000000;0.240000;,
  2.000000;0.240000;,
  0.000000;0.240000;,
  2.000000;0.240000;,
  0.000000;0.000000;,
  2.000000;0.000000;,
  0.000000;0.000000;,
  0.000000;0.000000;,
  0.000000;0.000000;,
  0.000000;0.000000;,
  0.000000;0.000000;,
  0.000000;0.000000;,
  0.000000;0.000000;,
  0.000000;0.000000;,
  0.000000;0.500000;,
  0.500000;0.500000;,
  1.000000;0.500000;,
  0.000000;0.000000;,
  0.500000;0.000000;,
  1.000000;0.000000;,
  0.310345;0.000000;,
  0.965000;0.000000;,
  1.965000;0.000000;,
  0.000000;1.800000;,
  0.310345;1.800000;,
  0.000000;3.000000;,
  0.310345;3.000000;,
  0.310345;3.300000;,
  0.965000;3.300000;,
  1.965000;3.300000;,
  0.000000;0.820000;,
  0.000000;1.000000;,
  0.100000;0.820000;,
  0.100000;1.000000;;
 }

 MeshNormals  {
  274;
  0.000000;-1.000000;0.000000;,
  0.000000;-1.000000;0.000000;,
  0.000000;0.000000;-1.000000;,
  0.000000;0.000000;-1.000000;,
  0.965926;0.000000;-0.258819;,
  1.000000;0.000000;0.000000;,
  0.500000;0.000000;0.866025;,
  0.258819;0.000000;0.965926;,
  -0.500000;0.000000;0.866025;,
  -0.707107;0.000000;0.707107;,
  -1.000000;0.000000;0.000000;,
  -0.965926;0.000000;-0.258819;,
  -0.500000;0.000000;-0.866025;,
  -0.258819;0.000000;-0.965926;,
  0.500000;0.000000;-0.866025;,
  0.707107;0.000000;-0.707107;,
  0.965926;0.000000;-0.258819;,
  1.000000;0.000000;0.000000;,
  0.500000;0.000000;0.866025;,
  0.258819;0.000000;0.965926;,
  -0.500000;0.000000;0.866025;,
  -0.707107;0.000000;0.707107;,
  -1.000000;0.000000;0.000000;,
  -0.965926;0.000000;-0.258819;,
  -0.500000;0.000000;-0.866025;,
  -0.258819;0.000000;-0.965926;,
  0.500000;0.000000;-0.866025;,
  0.707107;0.000000;-0.707107;,
  0.965926;0.000000;-0.258819;,
  1.000000;0.000000;0.000000;,
  0.500000;0.000000;0.866025;,
  0.258819;0.000000;0.965926;,
  -0.500000;0.000000;0.866025;,
  -0.707107;0.000000;0.707107;,
  -1.000000;0.000000;0.000000;,
  -0.965926;0.000000;-0.258819;,
  -0.500000;0.000000;-0.866025;,
  -0.258819;0.000000;-0.965926;,
  0.500000;0.000000;-0.866025;,
  0.707107;0.000000;-0.707107;,
  0.996195;0.000000;-0.087156;,
  1.000000;0.000000;0.000000;,
  0.939693;0.000000;0.342020;,
  0.906308;0.000000;0.422618;,
  0.766044;0.000000;0.642788;,
  0.707107;0.000000;0.707107;,
  0.500000;0.000000;0.866025;,
  0.422618;0.000000;0.906308;,
  0.173648;0.000000;0.984808;,
  0.087156;0.000000;0.996195;,
  -0.173648;0.000000;0.984808;,
  -0.258819;0.000000;0.965926;,
  -0.500000;0.000000;0.866025;,
  -0.573576;0.000000;0.819152;,
  -0.766044;0.000000;0.642788;,
  -0.819152;0.000000;0.573576;,
  -0.939693;0.000000;0.342020;,
  -0.965926;0.000000;0.258819;,
  -1.000000;0.000000;0.000000;,
  -0.996195;0.000000;-0.087156;,
  -0.939693;0.000000;-0.342020;,
  -0.906308;0.000000;-0.422618;,
  -0.766044;0.000000;-0.642788;,
  -0.707107;0.000000;-0.707107;,
  -0.500000;0.000000;-0.866025;,
  -0.422618;0.000000;-0.906308;,
  -0.173648;0.000000;-0.984808;,
  -0.087156;0.000000;-0.996195;,
  0.173648;0.000000;-0.984808;,
  0.258819;0.000000;-0.965926;,
  0.500000;0.000000;-0.866025;,
  0.573576;0.000000;-0.819152;,
  0.766044;0.000000;-0.642788;,
  0.819152;0.000000;-0.573576;,
  0.939693;0.000000;-0.342020;,
  0.965926;0.000000;-0.258819;,
  0.000000;-0.913545;-0.406737;,
  0.000000;-0.913545;-0.406737;,
  -1.000000;0.000000;0.000000;,
  -1.000000;0.000000;0.000000;,
  0.000000;-1.000000;0.000000;,
  0.000000;-1.000000;0.000000;,
  -1.000000;0.000000;0.000000;,
  -1.000000;0.000000;0.000000;,
  0.000000;-0.913545;-0.406737;,
  0.000000;-0.913545;-0.406737;,
  -1.000000;0.000000;0.000000;,
  -1.000000;0.000000;0.000000;,
  0.965926;0.000000;-0.258819;,
  1.000000;0.000000;-0.000000;,
  0.500000;0.000000;0.866025;,
  0.258819;0.000000;0.965926;,
  -0.500000;0.000000;0.866025;,
  -0.707107;0.000000;0.707107;,
  -1.000000;0.000000;-0.000000;,
  -0.965926;0.000000;-0.258819;,
  -0.500000;0.000000;-0.866025;,
  -0.258819;0.000000;-0.965926;,
  0.500000;0.000000;-0.866025;,
  0.707107;0.000000;-0.707107;,
  0.965926;0.000000;-0.258819;,
  1.000000;0.000000;0.000000;,
  0.500000;0.000000;0.866025;,
  0.258819;0.000000;0.965926;,
  -0.500000;0.000000;0.866025;,
  -0.707107;0.000000;0.707107;,
  -1.000000;0.000000;0.000000;,
  -0.965926;0.000000;-0.258819;,
  -0.500000;0.000000;-0.866025;,
  -0.258819;0.000000;-0.965926;,
  0.500000;0.000000;-0.866025;,
  0.707107;0.000000;-0.707107;,
  -1.000000;0.000000;0.000000;,
  -1.000000;0.000000;0.000000;,
  -1.000000;0.000000;0.000000;,
  -1.000000;0.000000;0.000000;,
  -1.000000;0.000000;0.000000;,
  -1.000000;0.000000;0.000000;,
  -1.000000;0.000000;0.000000;,
  0.000000;0.000000;-1.000000;,
  0.000000;0.000000;-1.000000;,
  -1.000000;0.000000;0.000000;,
  -1.000000;0.000000;0.000000;,
  0.000000;0.000000;1.000000;,
  0.000000;0.000000;1.000000;,
  1.000000;0.000000;0.000000;,
  1.000000;0.000000;0.000000;,
  0.000000;1.000000;0.000000;,
  0.000000;1.000000;0.000000;,
  0.000000;-1.000000;0.000000;,
  0.000000;-1.000000;0.000000;,
  0.000000;-0.913545;-0.406737;,
  0.000000;-0.913545;-0.406737;,
  -1.000000;0.000000;0.000000;,
  -1.000000;0.000000;0.000000;,
  0.000000;-1.000000;0.000000;,
  0.000000;-1.000000;0.000000;,
  -1.000000;0.000000;0.000000;,
  -1.000000;0.000000;0.000000;,
  0.000000;-0.913545;-0.406737;,
  0.000000;-0.913545;-0.406737;,
  -1.000000;0.000000;0.000000;,
  -1.000000;0.000000;0.000000;,
  0.965926;0.000000;-0.258819;,
  1.000000;0.000000;0.000000;,
  0.500000;0.000000;0.866025;,
  0.258819;0.000000;0.965926;,
  -0.500000;0.000000;0.866025;,
  -0.707107;0.000000;0.707107;,
  -1.000000;0.000000;0.000000;,
  -0.965926;0.000000;-0.258819;,
  -0.500000;0.000000;-0.866025;,
  -0.258819;0.000000;-0.965926;,
  0.500000;0.000000;-0.866025;,
  0.707107;0.000000;-0.707107;,
  0.996195;0.000000;-0.087156;,
  1.000000;0.000000;0.000000;,
  0.939693;0.000000;0.342020;,
  0.906308;0.000000;0.422618;,
  0.766044;0.000000;0.642788;,
  0.707107;0.000000;0.707107;,
  0.500000;0.000000;0.866025;,
  0.422618;0.000000;0.906308;,
  0.173648;0.000000;0.984808;,
  0.087156;0.000000;0.996195;,
  -0.173648;0.000000;0.984808;,
  -0.258819;0.000000;0.965926;,
  -0.500000;0.000000;0.866025;,
  -0.573576;0.000000;0.819152;,
  -0.766044;0.000000;0.642788;,
  -0.819152;0.000000;0.573576;,
  -0.939693;0.000000;0.342020;,
  -0.965926;0.000000;0.258819;,
  -1.000000;0.000000;0.000000;,
  -0.996195;0.000000;-0.087156;,
  -0.939693;0.000000;-0.342020;,
  -0.906308;0.000000;-0.422618;,
  -0.766044;0.000000;-0.642788;,
  -0.707107;0.000000;-0.707107;,
  -0.500000;0.000000;-0.866025;,
  -0.422618;0.000000;-0.906308;,
  -0.173648;0.000000;-0.984808;,
  -0.087156;0.000000;-0.996195;,
  0.173648;0.000000;-0.984808;,
  0.258819;0.000000;-0.965926;,
  0.500000;0.000000;-0.866025;,
  0.573576;0.000000;-0.819152;,
  0.766044;0.000000;-0.642788;,
  0.819152;0.000000;-0.573576;,
  0.939693;0.000000;-0.342020;,
  0.965926;0.000000;-0.258819;,
  -1.000000;0.000000;0.000000;,
  -1.000000;0.000000;0.000000;,
  -1.000000;0.000000;0.000000;,
  -1.000000;0.000000;0.000000;,
  -1.000000;0.000000;0.000000;,
  -1.000000;0.000000;0.000000;,
  -1.000000;0.000000;0.000000;,
  -1.000000;0.000000;0.000000;,
  0.000000;0.000000;-1.000000;,
  0.000000;0.000000;-1.000000;,
  0.000000;0.000000;-1.000000;,
  0.000000;0.000000;-1.000000;,
  0.000000;0.000000;-1.000000;,
  0.000000;0.000000;-1.000000;,
  0.000000;-0.913545;-0.406737;,
  0.000000;-0.913545;-0.406737;,
  1.000000;0.000000;0.000000;,
  1.000000;0.000000;0.000000;,
  0.000000;-1.000000;0.000000;,
  0.000000;-1.000000;0.000000;,
  1.000000;0.000000;0.000000;,
  1.000000;0.000000;0.000000;,
  0.000000;-0.913545;-0.406737;,
  0.000000;-0.913545;-0.406737;,
  1.000000;0.000000;0.000000;,
  1.000000;0.000000;0.000000;,
  0.965926;0.000000;-0.258819;,
  1.000000;0.000000;-0.000000;,
  0.500000;0.000000;0.866025;,
  0.258819;0.000000;0.965926;,
  -0.500000;0.000000;0.866025;,
  -0.707107;0.000000;0.707107;,
  -1.000000;0.000000;-0.000000;,
  -0.965926;0.000000;-0.258819;,
  -0.500000;0.000000;-0.866025;,
  -0.258819;0.000000;-0.965926;,
  0.500000;0.000000;-0.866025;,
  0.707107;0.000000;-0.707107;,
  0.965926;0.000000;-0.258819;,
  1.000000;0.000000;0.000000;,
  0.500000;0.000000;0.866025;,
  0.258819;0.000000;0.965926;,
  -0.500000;0.000000;0.866025;,
  -0.707107;0.000000;0.707107;,
  -1.000000;0.000000;0.000000;,
  -0.965926;0.000000;-0.258819;,
  -0.500000;0.000000;-0.866025;,
  -0.258819;0.000000;-0.965926;,
  0.500000;0.000000;-0.866025;,
  0.707107;0.000000;-0.707107;,
  1.000000;0.000000;0.000000;,
  1.000000;0.000000;0.000000;,
  1.000000;0.000000;0.000000;,
  1.000000;0.000000;0.000000;,
  1.000000;0.000000;0.000000;,
  1.000000;0.000000;0.000000;,
  1.000000;0.000000;0.000000;,
  0.000000;0.000000;-1.000000;,
  0.000000;0.000000;-1.000000;,
  -1.000000;0.000000;0.000000;,
  -1.000000;0.000000;0.000000;,
  0.000000;0.000000;1.000000;,
  0.000000;0.000000;1.000000;,
  1.000000;0.000000;0.000000;,
  1.000000;0.000000;0.000000;,
  0.000000;1.000000;0.000000;,
  0.000000;1.000000;0.000000;,
  0.000000;-1.000000;0.000000;,
  0.000000;-1.000000;0.000000;,
  -1.000000;0.000000;0.000000;,
  -1.000000;0.000000;0.000000;,
  0.000000;0.000000;-1.000000;,
  0.000000;0.000000;-1.000000;,
  0.000000;0.000000;0.000000;,
  0.000000;0.000000;0.000000;,
  -1.000000;0.000000;0.000000;,
  -1.000000;0.000000;0.000000;,
  -1.000000;0.000000;0.000000;,
  -1.000000;0.000000;0.000000;,
  0.000000;0.000000;-1.000000;,
  0.000000;0.000000;-1.000000;,
  0.000000;-1.000000;0.000000;,
  0.000000;-1.000000;0.000000;;
  402;
  3;0,0,0;,
  3;1,1,1;,
  3;2,2,2;,
  3;3,3,3;,
  3;5,4,6;,
  3;5,6,7;,
  3;7,6,8;,
  3;7,8,9;,
  3;9,8,10;,
  3;9,10,11;,
  3;11,10,12;,
  3;11,12,13;,
  3;13,12,14;,
  3;13,14,15;,
  3;15,14,4;,
  3;15,4,5;,
  3;14,12,10;,
  3;14,10,8;,
  3;14,8,6;,
  3;14,6,4;,
  3;5,7,9;,
  3;5,9,11;,
  3;5,11,13;,
  3;5,13,15;,
  3;17,16,18;,
  3;17,18,19;,
  3;19,18,20;,
  3;19,20,21;,
  3;21,20,22;,
  3;21,22,23;,
  3;23,22,24;,
  3;23,24,25;,
  3;25,24,26;,
  3;25,26,27;,
  3;27,26,16;,
  3;27,16,17;,
  3;26,24,22;,
  3;26,22,20;,
  3;26,20,18;,
  3;26,18,16;,
  3;17,19,21;,
  3;17,21,23;,
  3;17,23,25;,
  3;17,25,27;,
  3;29,28,30;,
  3;29,30,31;,
  3;31,30,32;,
  3;31,32,33;,
  3;33,32,34;,
  3;33,34,35;,
  3;35,34,36;,
  3;35,36,37;,
  3;37,36,38;,
  3;37,38,39;,
  3;39,38,28;,
  3;39,28,29;,
  3;38,36,34;,
  3;38,34,32;,
  3;38,32,30;,
  3;38,30,28;,
  3;29,31,33;,
  3;29,33,35;,
  3;29,35,37;,
  3;29,37,39;,
  3;41,40,42;,
  3;41,42,43;,
  3;43,42,44;,
  3;43,44,45;,
  3;45,44,46;,
  3;45,46,47;,
  3;47,46,48;,
  3;47,48,49;,
  3;49,48,50;,
  3;49,50,51;,
  3;51,50,52;,
  3;51,52,53;,
  3;53,52,54;,
  3;53,54,55;,
  3;55,54,56;,
  3;55,56,57;,
  3;57,56,58;,
  3;57,58,59;,
  3;59,58,60;,
  3;59,60,61;,
  3;61,60,62;,
  3;61,62,63;,
  3;63,62,64;,
  3;63,64,65;,
  3;65,64,66;,
  3;65,66,67;,
  3;67,66,68;,
  3;67,68,69;,
  3;69,68,70;,
  3;69,70,71;,
  3;71,70,72;,
  3;71,72,73;,
  3;73,72,74;,
  3;73,74,75;,
  3;75,74,40;,
  3;75,40,41;,
  3;74,72,70;,
  3;74,70,68;,
  3;74,68,66;,
  3;74,66,64;,
  3;74,64,62;,
  3;74,62,60;,
  3;74,60,58;,
  3;74,58,56;,
  3;74,56,54;,
  3;74,54,52;,
  3;74,52,50;,
  3;74,50,48;,
  3;74,48,46;,
  3;74,46,44;,
  3;74,44,42;,
  3;74,42,40;,
  3;41,43,45;,
  3;41,45,47;,
  3;41,47,49;,
  3;41,49,51;,
  3;41,51,53;,
  3;41,53,55;,
  3;41,55,57;,
  3;41,57,59;,
  3;41,59,61;,
  3;41,61,63;,
  3;41,63,65;,
  3;41,65,67;,
  3;41,67,69;,
  3;41,69,71;,
  3;41,71,73;,
  3;41,73,75;,
  3;76,76,76;,
  3;77,77,77;,
  3;78,78,78;,
  3;79,79,79;,
  3;80,80,80;,
  3;81,81,81;,
  3;82,82,82;,
  3;83,83,83;,
  3;84,84,84;,
  3;85,85,85;,
  3;86,86,86;,
  3;87,87,87;,
  3;89,88,90;,
  3;89,90,91;,
  3;91,90,92;,
  3;91,92,93;,
  3;93,92,94;,
  3;93,94,95;,
  3;95,94,96;,
  3;95,96,97;,
  3;97,96,98;,
  3;97,98,99;,
  3;99,98,88;,
  3;99,88,89;,
  3;98,96,94;,
  3;98,94,92;,
  3;98,92,90;,
  3;98,90,88;,
  3;89,91,93;,
  3;89,93,95;,
  3;89,95,97;,
  3;89,97,99;,
  3;101,100,102;,
  3;101,102,103;,
  3;103,102,104;,
  3;103,104,105;,
  3;105,104,106;,
  3;105,106,107;,
  3;107,106,108;,
  3;107,108,109;,
  3;109,108,110;,
  3;109,110,111;,
  3;111,110,100;,
  3;111,100,101;,
  3;110,108,106;,
  3;110,106,104;,
  3;110,104,102;,
  3;110,102,100;,
  3;101,103,105;,
  3;101,105,107;,
  3;101,107,109;,
  3;101,109,111;,
  3;112,112,112;,
  3;113,113,113;,
  3;114,114,114;,
  3;115,115,115;,
  3;116,116,116;,
  3;117,117,117;,
  3;118,118,118;,
  3;119,119,119;,
  3;120,120,120;,
  3;121,121,121;,
  3;122,122,122;,
  3;123,123,123;,
  3;124,124,124;,
  3;125,125,125;,
  3;126,126,126;,
  3;127,127,127;,
  3;128,128,128;,
  3;129,129,129;,
  3;130,130,130;,
  3;131,131,131;,
  3;132,132,132;,
  3;133,133,133;,
  3;134,134,134;,
  3;135,135,135;,
  3;136,136,136;,
  3;137,137,137;,
  3;138,138,138;,
  3;139,139,139;,
  3;140,140,140;,
  3;141,141,141;,
  3;142,142,142;,
  3;144,143,145;,
  3;144,145,146;,
  3;146,145,147;,
  3;146,147,148;,
  3;148,147,149;,
  3;148,149,150;,
  3;150,149,151;,
  3;150,151,152;,
  3;152,151,153;,
  3;152,153,154;,
  3;154,153,143;,
  3;154,143,144;,
  3;153,151,149;,
  3;153,149,147;,
  3;153,147,145;,
  3;153,145,143;,
  3;144,146,148;,
  3;144,148,150;,
  3;144,150,152;,
  3;144,152,154;,
  3;156,155,157;,
  3;156,157,158;,
  3;158,157,159;,
  3;158,159,160;,
  3;160,159,161;,
  3;160,161,162;,
  3;162,161,163;,
  3;162,163,164;,
  3;164,163,165;,
  3;164,165,166;,
  3;166,165,167;,
  3;166,167,168;,
  3;168,167,169;,
  3;168,169,170;,
  3;170,169,171;,
  3;170,171,172;,
  3;172,171,173;,
  3;172,173,174;,
  3;174,173,175;,
  3;174,175,176;,
  3;176,175,177;,
  3;176,177,178;,
  3;178,177,179;,
  3;178,179,180;,
  3;180,179,181;,
  3;180,181,182;,
  3;182,181,183;,
  3;182,183,184;,
  3;184,183,185;,
  3;184,185,186;,
  3;186,185,187;,
  3;186,187,188;,
  3;188,187,189;,
  3;188,189,190;,
  3;190,189,155;,
  3;190,155,156;,
  3;189,187,185;,
  3;189,185,183;,
  3;189,183,181;,
  3;189,181,179;,
  3;189,179,177;,
  3;189,177,175;,
  3;189,175,173;,
  3;189,173,171;,
  3;189,171,169;,
  3;189,169,167;,
  3;189,167,165;,
  3;189,165,163;,
  3;189,163,161;,
  3;189,161,159;,
  3;189,159,157;,
  3;189,157,155;,
  3;156,158,160;,
  3;156,160,162;,
  3;156,162,164;,
  3;156,164,166;,
  3;156,166,168;,
  3;156,168,170;,
  3;156,170,172;,
  3;156,172,174;,
  3;156,174,176;,
  3;156,176,178;,
  3;156,178,180;,
  3;156,180,182;,
  3;156,182,184;,
  3;156,184,186;,
  3;156,186,188;,
  3;156,188,190;,
  3;191,191,191;,
  3;192,192,192;,
  3;193,193,193;,
  3;194,194,194;,
  3;195,195,195;,
  3;196,196,196;,
  3;197,197,197;,
  3;198,198,198;,
  3;199,199,199;,
  3;200,200,200;,
  3;201,201,201;,
  3;202,202,202;,
  3;203,203,203;,
  3;204,204,204;,
  3;205,205,205;,
  3;206,206,206;,
  3;207,207,207;,
  3;208,208,208;,
  3;209,209,209;,
  3;210,210,210;,
  3;211,211,211;,
  3;212,212,212;,
  3;213,213,213;,
  3;214,214,214;,
  3;215,215,215;,
  3;216,216,216;,
  3;218,217,219;,
  3;218,219,220;,
  3;220,219,221;,
  3;220,221,222;,
  3;222,221,223;,
  3;222,223,224;,
  3;224,223,225;,
  3;224,225,226;,
  3;226,225,227;,
  3;226,227,228;,
  3;228,227,217;,
  3;228,217,218;,
  3;227,225,223;,
  3;227,223,221;,
  3;227,221,219;,
  3;227,219,217;,
  3;218,220,222;,
  3;218,222,224;,
  3;218,224,226;,
  3;218,226,228;,
  3;230,229,231;,
  3;230,231,232;,
  3;232,231,233;,
  3;232,233,234;,
  3;234,233,235;,
  3;234,235,236;,
  3;236,235,237;,
  3;236,237,238;,
  3;238,237,239;,
  3;238,239,240;,
  3;240,239,229;,
  3;240,229,230;,
  3;239,237,235;,
  3;239,235,233;,
  3;239,233,231;,
  3;239,231,229;,
  3;230,232,234;,
  3;230,234,236;,
  3;230,236,238;,
  3;230,238,240;,
  3;241,241,241;,
  3;242,242,242;,
  3;243,243,243;,
  3;244,244,244;,
  3;245,245,245;,
  3;246,246,246;,
  3;247,247,247;,
  3;248,248,248;,
  3;249,249,249;,
  3;250,250,250;,
  3;251,251,251;,
  3;252,252,252;,
  3;253,253,253;,
  3;254,254,254;,
  3;255,255,255;,
  3;256,256,256;,
  3;257,257,257;,
  3;258,258,258;,
  3;259,259,259;,
  3;260,260,260;,
  3;261,261,261;,
  3;262,262,262;,
  3;263,263,263;,
  3;264,264,264;,
  3;265,265,265;,
  3;266,266,266;,
  3;267,267,267;,
  3;268,268,268;,
  3;269,269,269;,
  3;270,270,270;,
  3;271,271,271;,
  3;272,272,272;,
  3;273,273,273;;
 }
}