xof 0303txt 0032
template Vector {
 <3d82ab5e-62da-11cf-ab39-0020af71e433>
 FLOAT x;
 FLOAT y;
 FLOAT z;
}

template MeshFace {
 <3d82ab5f-62da-11cf-ab39-0020af71e433>
 DWORD nFaceVertexIndices;
 array DWORD faceVertexIndices[nFaceVertexIndices];
}

template Mesh {
 <3d82ab44-62da-11cf-ab39-0020af71e433>
 DWORD nVertices;
 array Vector vertices[nVertices];
 DWORD nFaces;
 array MeshFace faces[nFaces];
 [...]
}

template ColorRGBA {
 <35ff44e0-6c7c-11cf-8f52-0040333594a3>
 FLOAT red;
 FLOAT green;
 FLOAT blue;
 FLOAT alpha;
}

template ColorRGB {
 <d3e16e81-7835-11cf-8f52-0040333594a3>
 FLOAT red;
 FLOAT green;
 FLOAT blue;
}

template Material {
 <3d82ab4d-62da-11cf-ab39-0020af71e433>
 ColorRGBA faceColor;
 FLOAT power;
 ColorRGB specularColor;
 ColorRGB emissiveColor;
 [...]
}

template MeshMaterialList {
 <f6f23f42-7686-11cf-8f52-0040333594a3>
 DWORD nMaterials;
 DWORD nFaceIndexes;
 array DWORD faceIndexes[nFaceIndexes];
 [Material <3d82ab4d-62da-11cf-ab39-0020af71e433>]
}

template TextureFilename {
 <a42790e1-7810-11cf-8f52-0040333594a3>
 STRING filename;
}

template Coords2d {
 <f6f23f44-7686-11cf-8f52-0040333594a3>
 FLOAT u;
 FLOAT v;
}

template MeshTextureCoords {
 <f6f23f40-7686-11cf-8f52-0040333594a3>
 DWORD nTextureCoords;
 array Coords2d textureCoords[nTextureCoords];
}

template MeshNormals {
 <f6f23f43-7686-11cf-8f52-0040333594a3>
 DWORD nNormals;
 array Vector normals[nNormals];
 DWORD nFaceNormals;
 array MeshFace faceNormals[nFaceNormals];
}


Mesh  {
 163;
 -24.990000;-0.250000;-28.100000;,
 -24.990000;-0.250000;16.700001;,
 -6.010000;-0.250000;16.700001;,
 -6.010000;-0.250000;-28.100000;,
 -24.990000;-0.750000;-28.100000;,
 -6.010000;-0.750000;16.700001;,
 -6.010000;-0.750000;-28.100000;,
 -22.990000;-0.250000;-26.100000;,
 -22.990000;0.000000;-26.100000;,
 -8.010000;-0.250000;-26.100000;,
 -8.010000;0.000000;-26.100000;,
 -8.010000;-0.250000;-17.500000;,
 -8.010000;0.000000;-17.500000;,
 -7.860000;-0.250000;-17.500000;,
 -7.860000;0.000000;-17.500000;,
 -7.860000;-0.250000;14.700000;,
 -7.860000;0.000000;14.700000;,
 -23.000000;0.000000;-26.100000;,
 -23.000000;12.000000;-26.100000;,
 -8.000000;0.000000;-26.100000;,
 -8.000000;12.000000;-26.100000;,
 -8.000000;0.000000;-17.500000;,
 -8.000000;12.000000;-17.500000;,
 -7.850000;0.000000;-17.500000;,
 -7.850000;12.000000;-17.500000;,
 -7.850000;0.000000;14.700000;,
 -7.850000;12.000000;14.700000;,
 -17.934999;3.500000;-26.110001;,
 -17.934999;4.500000;-26.110001;,
 -16.285000;4.500000;-26.110001;,
 -16.285000;3.500000;-26.110001;,
 -17.934999;5.500000;-26.110001;,
 -17.934999;6.500000;-26.110001;,
 -16.285000;6.500000;-26.110001;,
 -16.285000;5.500000;-26.110001;,
 -17.934999;7.500000;-26.110001;,
 -17.934999;8.500000;-26.110001;,
 -16.285000;8.500000;-26.110001;,
 -16.285000;7.500000;-26.110001;,
 -7.990000;1.950000;-23.000000;,
 -7.990000;2.950000;-23.000000;,
 -7.990000;2.950000;-22.000000;,
 -7.990000;1.950000;-22.000000;,
 -7.990000;1.950000;-19.500000;,
 -7.990000;2.950000;-19.500000;,
 -7.990000;2.950000;-18.500000;,
 -7.990000;1.950000;-18.500000;,
 -7.990000;4.600000;-23.000000;,
 -7.990000;6.000000;-23.000000;,
 -7.990000;6.000000;-18.500000;,
 -7.990000;4.600000;-18.500000;,
 -7.840000;1.800000;-10.100000;,
 -7.840000;2.700000;-10.100000;,
 -7.840000;2.700000;-7.100000;,
 -7.840000;1.800000;-7.100000;,
 -7.840000;5.500000;-10.100000;,
 -7.840000;6.400000;-10.100000;,
 -7.840000;6.400000;-7.100000;,
 -7.840000;5.500000;-7.100000;,
 -7.840000;4.800000;-4.600000;,
 -7.840000;6.000000;-4.600000;,
 -7.840000;6.000000;-2.600000;,
 -7.840000;4.800000;-2.600000;,
 -7.840000;6.000000;-4.600000;,
 -7.840000;6.400000;-4.600000;,
 -7.840000;6.400000;-2.600000;,
 -7.840000;6.000000;-2.600000;,
 -7.840000;4.800000;1.400000;,
 -7.840000;6.000000;1.400000;,
 -7.840000;6.000000;3.400000;,
 -7.840000;4.800000;3.400000;,
 -7.840000;8.300000;1.400000;,
 -7.840000;9.500000;1.400000;,
 -7.840000;9.500000;3.400000;,
 -7.840000;8.300000;3.400000;,
 -7.840000;1.000000;1.055000;,
 -7.840000;1.900000;1.055000;,
 -7.840000;1.900000;1.955000;,
 -7.840000;1.000000;1.955000;,
 -7.840000;1.200000;9.000000;,
 -7.840000;2.700000;9.000000;,
 -7.840000;2.700000;10.200000;,
 -7.840000;1.200000;10.200000;,
 -7.840000;1.200000;10.600000;,
 -7.840000;2.700000;10.600000;,
 -7.840000;2.700000;11.800000;,
 -7.840000;1.200000;11.800000;,
 -7.840000;1.200000;12.800000;,
 -7.840000;2.700000;12.800000;,
 -7.840000;2.700000;14.000000;,
 -7.840000;1.200000;14.000000;,
 -7.840000;1.850000;-6.000000;,
 -7.840000;2.700000;-6.000000;,
 -7.840000;2.700000;-5.100000;,
 -7.840000;1.850000;-5.100000;,
 -7.840000;1.850000;-4.800000;,
 -7.840000;2.700000;-4.800000;,
 -7.840000;2.700000;-2.400000;,
 -7.840000;1.850000;-2.400000;,
 -7.500000;2.950000;-23.200001;,
 -7.500000;3.150000;-23.200001;,
 -7.500000;3.150000;-21.799999;,
 -7.500000;2.950000;-21.799999;,
 -8.000000;2.950000;-23.200001;,
 -8.000000;3.150000;-23.200001;,
 -8.000000;3.150000;-21.799999;,
 -8.000000;2.950000;-21.799999;,
 -7.500000;2.950000;-19.700001;,
 -7.500000;3.150000;-19.700001;,
 -7.500000;3.150000;-18.299999;,
 -7.500000;2.950000;-18.299999;,
 -8.000000;2.950000;-19.700001;,
 -8.000000;3.150000;-19.700001;,
 -8.000000;3.150000;-18.299999;,
 -8.000000;2.950000;-18.299999;,
 -7.500000;2.700000;-5.000000;,
 -7.500000;2.900000;-5.000000;,
 -7.500000;2.900000;-2.200000;,
 -7.500000;2.700000;-2.200000;,
 -8.000000;2.700000;-5.000000;,
 -8.000000;2.900000;-5.000000;,
 -8.000000;2.900000;-2.200000;,
 -8.000000;2.700000;-2.200000;,
 -7.500000;1.950000;0.700000;,
 -7.500000;2.150000;0.700000;,
 -7.500000;2.150000;3.100000;,
 -7.500000;1.950000;3.100000;,
 -8.000000;1.950000;0.700000;,
 -8.000000;2.150000;0.700000;,
 -8.000000;2.150000;3.100000;,
 -8.000000;1.950000;3.100000;,
 -7.850000;4.800000;-17.500000;,
 -7.850000;6.000000;-17.500000;,
 -7.000000;6.000000;-17.500000;,
 -7.000000;5.200000;-17.500000;,
 -7.850000;4.800000;-11.100000;,
 -7.850000;6.000000;-11.100000;,
 -7.000000;6.000000;-11.100000;,
 -7.000000;5.200000;-11.100000;,
 -7.850000;4.800000;9.400000;,
 -7.850000;6.000000;9.400000;,
 -7.000000;6.000000;9.400000;,
 -7.000000;5.200000;9.400000;,
 -7.850000;4.800000;14.400000;,
 -7.850000;6.000000;14.400000;,
 -7.000000;6.000000;14.400000;,
 -7.000000;5.200000;14.400000;,
 -7.990000;-0.250000;-23.000000;,
 -7.990000;1.850000;-23.000000;,
 -7.990000;1.850000;-22.000000;,
 -7.990000;-0.250000;-22.000000;,
 -7.990000;-0.250000;-19.500000;,
 -7.990000;1.850000;-19.500000;,
 -7.990000;1.850000;-18.500000;,
 -7.990000;-0.250000;-18.500000;,
 -7.840000;-0.250000;-4.800000;,
 -7.840000;1.850000;-4.800000;,
 -7.840000;1.850000;-2.400000;,
 -7.840000;-0.250000;-2.400000;,
 -7.845000;-0.250000;0.900000;,
 -7.845000;1.850000;0.900000;,
 -7.845000;1.850000;2.900000;,
 -7.845000;-0.250000;2.900000;;
 110;
 3;0,1,2;,
 3;0,2,3;,
 3;4,0,3;,
 3;4,3,6;,
 3;6,3,2;,
 3;6,2,5;,
 3;7,8,10;,
 3;7,10,9;,
 3;9,10,12;,
 3;9,12,11;,
 3;11,12,14;,
 3;11,14,13;,
 3;13,14,16;,
 3;13,16,15;,
 3;17,18,20;,
 3;17,20,19;,
 3;19,20,22;,
 3;19,22,21;,
 3;21,22,24;,
 3;21,24,23;,
 3;23,24,26;,
 3;23,26,25;,
 3;27,28,29;,
 3;27,29,30;,
 3;31,32,33;,
 3;31,33,34;,
 3;35,36,37;,
 3;35,37,38;,
 3;39,40,41;,
 3;39,41,42;,
 3;43,44,45;,
 3;43,45,46;,
 3;47,48,49;,
 3;47,49,50;,
 3;51,52,53;,
 3;51,53,54;,
 3;55,56,57;,
 3;55,57,58;,
 3;59,60,61;,
 3;59,61,62;,
 3;63,64,65;,
 3;63,65,66;,
 3;67,68,69;,
 3;67,69,70;,
 3;71,72,73;,
 3;71,73,74;,
 3;75,76,77;,
 3;75,77,78;,
 3;79,80,81;,
 3;79,81,82;,
 3;83,84,85;,
 3;83,85,86;,
 3;87,88,89;,
 3;87,89,90;,
 3;91,92,93;,
 3;91,93,94;,
 3;95,96,97;,
 3;95,97,98;,
 3;103,104,100;,
 3;103,100,99;,
 3;104,105,101;,
 3;104,101,100;,
 3;106,103,99;,
 3;106,99,102;,
 3;99,100,101;,
 3;99,101,102;,
 3;111,112,108;,
 3;111,108,107;,
 3;112,113,109;,
 3;112,109,108;,
 3;114,111,107;,
 3;114,107,110;,
 3;107,108,109;,
 3;107,109,110;,
 3;119,120,116;,
 3;119,116,115;,
 3;120,121,117;,
 3;120,117,116;,
 3;122,119,115;,
 3;122,115,118;,
 3;115,116,117;,
 3;115,117,118;,
 3;127,128,124;,
 3;127,124,123;,
 3;128,129,125;,
 3;128,125,124;,
 3;130,127,123;,
 3;130,123,126;,
 3;123,124,125;,
 3;123,125,126;,
 3;131,132,133;,
 3;131,133,134;,
 3;134,133,137;,
 3;134,137,138;,
 3;131,134,138;,
 3;131,138,135;,
 3;139,140,141;,
 3;139,141,142;,
 3;142,141,145;,
 3;142,145,146;,
 3;139,142,146;,
 3;139,146,143;,
 3;147,148,149;,
 3;147,149,150;,
 3;151,152,153;,
 3;151,153,154;,
 3;155,156,157;,
 3;155,157,158;,
 3;159,160,161;,
 3;159,161,162;;

 MeshMaterialList  {
  31;
  110;
  0,
  0,
  0,
  0,
  0,
  0,
  1,
  1,
  1,
  1,
  1,
  1,
  1,
  1,
  2,
  2,
  2,
  2,
  2,
  2,
  2,
  2,
  3,
  3,
  4,
  4,
  5,
  5,
  6,
  6,
  7,
  7,
  8,
  8,
  9,
  9,
  10,
  10,
  11,
  11,
  12,
  12,
  13,
  13,
  14,
  14,
  15,
  15,
  16,
  16,
  17,
  17,
  18,
  18,
  19,
  19,
  20,
  20,
  21,
  21,
  21,
  21,
  21,
  21,
  21,
  21,
  22,
  22,
  22,
  22,
  22,
  22,
  22,
  22,
  23,
  23,
  23,
  23,
  23,
  23,
  23,
  23,
  24,
  24,
  24,
  24,
  24,
  24,
  24,
  24,
  25,
  25,
  25,
  25,
  25,
  25,
  26,
  26,
  26,
  26,
  26,
  26,
  27,
  27,
  28,
  28,
  29,
  29,
  30,
  30;

  Material  {
   1.000000;1.000000;1.000000;1.000000;;
   0.000000;
   0.000000;0.000000;0.000000;;
   0.000000;0.000000;0.000000;;

   TextureFilename  {
    "Pier1.png";
   }
  }

  Material  {
   1.000000;1.000000;1.000000;1.000000;;
   0.000000;
   0.000000;0.000000;0.000000;;
   0.000000;0.000000;0.000000;;

   TextureFilename  {
    "Pier1.png";
   }
  }

  Material  {
   1.000000;1.000000;1.000000;1.000000;;
   0.000000;
   0.000000;0.000000;0.000000;;
   0.000000;0.000000;0.000000;;

   TextureFilename  {
    "Building_Wall.png";
   }
  }

  Material  {
   1.000000;1.000000;1.000000;1.000000;;
   0.000000;
   0.000000;0.000000;0.000000;;
   0.000000;0.000000;0.000000;;

   TextureFilename  {
    "Building_Window1.png";
   }
  }

  Material  {
   1.000000;1.000000;1.000000;1.000000;;
   0.000000;
   0.000000;0.000000;0.000000;;
   0.000000;0.000000;0.000000;;

   TextureFilename  {
    "Building_Window1.png";
   }
  }

  Material  {
   1.000000;1.000000;1.000000;1.000000;;
   0.000000;
   0.000000;0.000000;0.000000;;
   0.000000;0.000000;0.000000;;

   TextureFilename  {
    "Building_Window1.png";
   }
  }

  Material  {
   1.000000;1.000000;1.000000;1.000000;;
   0.000000;
   0.000000;0.000000;0.000000;;
   0.000000;0.000000;0.000000;;

   TextureFilename  {
    "Building_Window1.png";
   }
  }

  Material  {
   1.000000;1.000000;1.000000;1.000000;;
   0.000000;
   0.000000;0.000000;0.000000;;
   0.000000;0.000000;0.000000;;

   TextureFilename  {
    "Building_Window1.png";
   }
  }

  Material  {
   1.000000;1.000000;1.000000;1.000000;;
   0.000000;
   0.000000;0.000000;0.000000;;
   0.000000;0.000000;0.000000;;

   TextureFilename  {
    "Building_Window1.png";
   }
  }

  Material  {
   1.000000;1.000000;1.000000;1.000000;;
   0.000000;
   0.000000;0.000000;0.000000;;
   0.000000;0.000000;0.000000;;

   TextureFilename  {
    "Building_Window2.png";
   }
  }

  Material  {
   1.000000;1.000000;1.000000;1.000000;;
   0.000000;
   0.000000;0.000000;0.000000;;
   0.000000;0.000000;0.000000;;

   TextureFilename  {
    "Building_Window1.png";
   }
  }

  Material  {
   1.000000;1.000000;1.000000;1.000000;;
   0.000000;
   0.000000;0.000000;0.000000;;
   0.000000;0.000000;0.000000;;

   TextureFilename  {
    "Building_Window1.png";
   }
  }

  Material  {
   1.000000;1.000000;1.000000;1.000000;;
   0.000000;
   0.000000;0.000000;0.000000;;
   0.000000;0.000000;0.000000;;

   TextureFilename  {
    "Building_Window1.png";
   }
  }

  Material  {
   1.000000;1.000000;1.000000;1.000000;;
   0.000000;
   0.000000;0.000000;0.000000;;
   0.000000;0.000000;0.000000;;

   TextureFilename  {
    "Building_Window1.png";
   }
  }

  Material  {
   1.000000;1.000000;1.000000;1.000000;;
   0.000000;
   0.000000;0.000000;0.000000;;
   0.000000;0.000000;0.000000;;

   TextureFilename  {
    "Building_Window1.png";
   }
  }

  Material  {
   1.000000;1.000000;1.000000;1.000000;;
   0.000000;
   0.000000;0.000000;0.000000;;
   0.000000;0.000000;0.000000;;

   TextureFilename  {
    "Building_Window1.png";
   }
  }

  Material  {
   1.000000;1.000000;1.000000;1.000000;;
   0.000000;
   0.000000;0.000000;0.000000;;
   0.000000;0.000000;0.000000;;

   TextureFilename  {
    "Building_Window1.png";
   }
  }

  Material  {
   1.000000;1.000000;1.000000;1.000000;;
   0.000000;
   0.000000;0.000000;0.000000;;
   0.000000;0.000000;0.000000;;

   TextureFilename  {
    "Building_Window1.png";
   }
  }

  Material  {
   1.000000;1.000000;1.000000;1.000000;;
   0.000000;
   0.000000;0.000000;0.000000;;
   0.000000;0.000000;0.000000;;

   TextureFilename  {
    "Building_Window1.png";
   }
  }

  Material  {
   1.000000;1.000000;1.000000;1.000000;;
   0.000000;
   0.000000;0.000000;0.000000;;
   0.000000;0.000000;0.000000;;

   TextureFilename  {
    "Building_Ventilater.png";
   }
  }

  Material  {
   1.000000;1.000000;1.000000;1.000000;;
   0.000000;
   0.000000;0.000000;0.000000;;
   0.000000;0.000000;0.000000;;

   TextureFilename  {
    "Building_Ventilater.png";
   }
  }

  Material  {
   1.000000;1.000000;1.000000;1.000000;;
   0.000000;
   0.000000;0.000000;0.000000;;
   0.000000;0.000000;0.000000;;

   TextureFilename  {
    "Building_Wall.png";
   }
  }

  Material  {
   1.000000;1.000000;1.000000;1.000000;;
   0.000000;
   0.000000;0.000000;0.000000;;
   0.000000;0.000000;0.000000;;

   TextureFilename  {
    "Building_Wall.png";
   }
  }

  Material  {
   1.000000;1.000000;1.000000;1.000000;;
   0.000000;
   0.000000;0.000000;0.000000;;
   0.000000;0.000000;0.000000;;

   TextureFilename  {
    "Building_Wall.png";
   }
  }

  Material  {
   1.000000;1.000000;1.000000;1.000000;;
   0.000000;
   0.000000;0.000000;0.000000;;
   0.000000;0.000000;0.000000;;

   TextureFilename  {
    "Building_Wall.png";
   }
  }

  Material  {
   1.000000;1.000000;1.000000;1.000000;;
   0.000000;
   0.000000;0.000000;0.000000;;
   0.000000;0.000000;0.000000;;

   TextureFilename  {
    "Building_Wall.png";
   }
  }

  Material  {
   1.000000;1.000000;1.000000;1.000000;;
   0.000000;
   0.000000;0.000000;0.000000;;
   0.000000;0.000000;0.000000;;

   TextureFilename  {
    "Building_Wall.png";
   }
  }

  Material  {
   1.000000;1.000000;1.000000;1.000000;;
   0.000000;
   0.000000;0.000000;0.000000;;
   0.000000;0.000000;0.000000;;

   TextureFilename  {
    "Building_Door1.png";
   }
  }

  Material  {
   1.000000;1.000000;1.000000;1.000000;;
   0.000000;
   0.000000;0.000000;0.000000;;
   0.000000;0.000000;0.000000;;

   TextureFilename  {
    "Building_Door1.png";
   }
  }

  Material  {
   0.627451;0.627451;0.627451;1.000000;;
   0.000000;
   0.000000;0.000000;0.000000;;
   0.000000;0.000000;0.000000;;

   TextureFilename  {
    "Building_Door2.png";
   }
  }

  Material  {
   0.627451;0.627451;0.627451;1.000000;;
   0.000000;
   0.000000;0.000000;0.000000;;
   0.000000;0.000000;0.000000;;

   TextureFilename  {
    "Building_Door2.png";
   }
  }
 }

 MeshTextureCoords  {
  163;
  1.000000;0.000000;,
  0.000000;0.000000;,
  0.000000;1.000000;,
  1.000000;1.000000;,
  1.000000;0.000000;,
  0.000000;1.000000;,
  1.000000;1.000000;,
  0.000000;0.050000;,
  0.000000;0.000000;,
  0.241886;0.050000;,
  0.241886;0.000000;,
  0.380752;0.050000;,
  0.380752;0.000000;,
  0.383175;0.050000;,
  0.383175;0.000000;,
  0.903116;0.050000;,
  0.903116;0.000000;,
  0.000000;1.000000;,
  0.000000;0.000000;,
  0.725658;1.000000;,
  0.725658;0.000000;,
  1.142257;1.000000;,
  1.142257;0.000000;,
  1.149524;1.000000;,
  1.149524;0.000000;,
  2.709349;1.000000;,
  2.709349;0.000000;,
  1.000000;1.000000;,
  1.000000;0.000000;,
  0.000000;0.000000;,
  0.000000;1.000000;,
  1.000000;1.000000;,
  1.000000;0.000000;,
  0.000000;0.000000;,
  0.000000;1.000000;,
  1.000000;1.000000;,
  1.000000;0.000000;,
  0.000000;0.000000;,
  0.000000;1.000000;,
  0.500000;1.000000;,
  0.500000;0.000000;,
  1.000000;0.000000;,
  1.000000;1.000000;,
  0.500000;1.000000;,
  0.500000;0.000000;,
  1.000000;0.000000;,
  1.000000;1.000000;,
  0.000000;1.000000;,
  0.000000;0.000000;,
  2.000000;0.000000;,
  2.000000;1.000000;,
  0.000000;1.000000;,
  0.000000;0.000000;,
  1.000000;0.000000;,
  1.000000;1.000000;,
  0.500000;1.000000;,
  0.500000;0.000000;,
  2.000000;0.000000;,
  2.000000;1.000000;,
  0.000000;1.000000;,
  0.000000;0.000000;,
  1.000000;0.000000;,
  1.000000;1.000000;,
  0.000000;1.000000;,
  0.000000;0.000000;,
  1.000000;0.000000;,
  1.000000;1.000000;,
  0.000000;1.000000;,
  0.000000;0.000000;,
  1.000000;0.000000;,
  1.000000;1.000000;,
  0.000000;1.000000;,
  0.000000;0.000000;,
  1.000000;0.000000;,
  1.000000;1.000000;,
  0.550000;0.980000;,
  0.550000;0.020000;,
  0.950000;0.020000;,
  0.950000;0.980000;,
  0.000000;1.000000;,
  0.000000;0.000000;,
  1.000000;0.000000;,
  1.000000;1.000000;,
  0.000000;1.000000;,
  0.000000;0.000000;,
  1.000000;0.000000;,
  1.000000;1.000000;,
  0.000000;1.000000;,
  0.000000;0.000000;,
  1.000000;0.000000;,
  1.000000;1.000000;,
  0.000000;1.000000;,
  0.000000;0.000000;,
  1.000000;0.000000;,
  1.000000;1.000000;,
  0.000000;1.000000;,
  0.000000;0.000000;,
  2.000000;0.000000;,
  2.000000;1.000000;,
  0.000000;0.000000;,
  0.000000;0.000000;,
  0.000000;0.000000;,
  0.000000;0.000000;,
  0.000000;0.000000;,
  0.000000;0.000000;,
  0.000000;0.000000;,
  0.000000;0.000000;,
  0.000000;0.000000;,
  0.000000;0.000000;,
  0.000000;0.000000;,
  0.000000;0.000000;,
  0.000000;0.000000;,
  0.000000;0.000000;,
  0.000000;0.000000;,
  0.000000;0.000000;,
  0.000000;0.000000;,
  0.000000;0.000000;,
  0.000000;0.000000;,
  0.000000;0.000000;,
  0.000000;0.000000;,
  0.000000;0.000000;,
  0.000000;0.000000;,
  0.000000;0.000000;,
  0.000000;0.000000;,
  0.000000;0.000000;,
  0.000000;0.000000;,
  0.000000;0.000000;,
  0.000000;0.000000;,
  0.000000;0.000000;,
  0.000000;0.000000;,
  0.000000;0.000000;,
  0.000000;0.700000;,
  0.000000;0.800000;,
  0.000000;0.900000;,
  0.000000;1.000000;,
  1.000000;1.000000;,
  1.000000;1.000000;,
  1.000000;0.900000;,
  1.000000;1.000000;,
  0.000000;0.400000;,
  0.000000;0.450000;,
  0.000000;0.500000;,
  0.000000;0.550000;,
  1.000000;0.400000;,
  1.000000;0.450000;,
  1.000000;0.500000;,
  1.000000;0.550000;,
  1.000000;1.000000;,
  1.000000;0.000000;,
  0.000000;0.000000;,
  0.000000;1.000000;,
  1.000000;1.000000;,
  1.000000;0.000000;,
  0.000000;0.000000;,
  0.000000;1.000000;,
  0.000000;1.000000;,
  0.000000;0.000000;,
  1.000000;0.000000;,
  1.000000;1.000000;,
  0.000000;1.000000;,
  0.000000;0.000000;,
  0.750000;0.000000;,
  0.750000;1.000000;;
 }

 MeshNormals  {
  110;
  0.000000;1.000000;0.000000;,
  0.000000;1.000000;0.000000;,
  0.000000;0.000000;-1.000000;,
  0.000000;0.000000;-1.000000;,
  1.000000;0.000000;0.000000;,
  1.000000;0.000000;0.000000;,
  0.000000;0.000000;-1.000000;,
  0.000000;0.000000;-1.000000;,
  1.000000;0.000000;0.000000;,
  1.000000;0.000000;0.000000;,
  0.000000;0.000000;-1.000000;,
  0.000000;0.000000;-1.000000;,
  1.000000;0.000000;0.000000;,
  1.000000;0.000000;0.000000;,
  0.000000;0.000000;-1.000000;,
  0.000000;0.000000;-1.000000;,
  1.000000;0.000000;0.000000;,
  1.000000;0.000000;0.000000;,
  0.000000;0.000000;-1.000000;,
  0.000000;0.000000;-1.000000;,
  1.000000;0.000000;0.000000;,
  1.000000;0.000000;0.000000;,
  0.000000;0.000000;-1.000000;,
  0.000000;0.000000;-1.000000;,
  0.000000;0.000000;-1.000000;,
  0.000000;0.000000;-1.000000;,
  0.000000;0.000000;-1.000000;,
  0.000000;0.000000;-1.000000;,
  1.000000;0.000000;0.000000;,
  1.000000;0.000000;0.000000;,
  1.000000;0.000000;0.000000;,
  1.000000;0.000000;0.000000;,
  1.000000;0.000000;0.000000;,
  1.000000;0.000000;0.000000;,
  1.000000;0.000000;0.000000;,
  1.000000;0.000000;0.000000;,
  1.000000;0.000000;0.000000;,
  1.000000;0.000000;0.000000;,
  1.000000;0.000000;0.000000;,
  1.000000;0.000000;0.000000;,
  1.000000;0.000000;0.000000;,
  1.000000;0.000000;0.000000;,
  1.000000;0.000000;0.000000;,
  1.000000;0.000000;0.000000;,
  1.000000;0.000000;0.000000;,
  1.000000;0.000000;0.000000;,
  1.000000;0.000000;0.000000;,
  1.000000;0.000000;0.000000;,
  1.000000;0.000000;0.000000;,
  1.000000;0.000000;0.000000;,
  1.000000;0.000000;0.000000;,
  1.000000;0.000000;0.000000;,
  1.000000;0.000000;0.000000;,
  1.000000;0.000000;0.000000;,
  1.000000;0.000000;0.000000;,
  1.000000;0.000000;0.000000;,
  1.000000;0.000000;0.000000;,
  1.000000;0.000000;0.000000;,
  0.000000;0.000000;-1.000000;,
  0.000000;0.000000;-1.000000;,
  0.000000;1.000000;0.000000;,
  0.000000;1.000000;0.000000;,
  0.000000;-1.000000;0.000000;,
  0.000000;-1.000000;0.000000;,
  1.000000;0.000000;0.000000;,
  1.000000;0.000000;0.000000;,
  0.000000;0.000000;-1.000000;,
  0.000000;0.000000;-1.000000;,
  0.000000;1.000000;0.000000;,
  0.000000;1.000000;0.000000;,
  0.000000;-1.000000;0.000000;,
  0.000000;-1.000000;0.000000;,
  1.000000;0.000000;0.000000;,
  1.000000;0.000000;0.000000;,
  0.000000;0.000000;-1.000000;,
  0.000000;0.000000;-1.000000;,
  0.000000;1.000000;0.000000;,
  0.000000;1.000000;0.000000;,
  0.000000;-1.000000;0.000000;,
  0.000000;-1.000000;0.000000;,
  1.000000;0.000000;0.000000;,
  1.000000;0.000000;0.000000;,
  0.000000;0.000000;-1.000000;,
  0.000000;0.000000;-1.000000;,
  0.000000;1.000000;0.000000;,
  0.000000;1.000000;0.000000;,
  0.000000;-1.000000;0.000000;,
  0.000000;-1.000000;0.000000;,
  1.000000;0.000000;0.000000;,
  1.000000;0.000000;0.000000;,
  0.000000;0.000000;-1.000000;,
  0.000000;0.000000;-1.000000;,
  1.000000;0.000000;0.000000;,
  1.000000;0.000000;0.000000;,
  0.425797;-0.904819;0.000000;,
  0.425797;-0.904819;0.000000;,
  0.000000;0.000000;-1.000000;,
  0.000000;0.000000;-1.000000;,
  1.000000;0.000000;0.000000;,
  1.000000;0.000000;0.000000;,
  0.425797;-0.904819;0.000000;,
  0.425797;-0.904819;0.000000;,
  1.000000;0.000000;0.000000;,
  1.000000;0.000000;0.000000;,
  1.000000;0.000000;0.000000;,
  1.000000;0.000000;0.000000;,
  1.000000;0.000000;0.000000;,
  1.000000;0.000000;0.000000;,
  1.000000;0.000000;0.000000;,
  1.000000;0.000000;0.000000;;
  110;
  3;0,0,0;,
  3;1,1,1;,
  3;2,2,2;,
  3;3,3,3;,
  3;4,4,4;,
  3;5,5,5;,
  3;6,6,6;,
  3;7,7,7;,
  3;8,8,8;,
  3;9,9,9;,
  3;10,10,10;,
  3;11,11,11;,
  3;12,12,12;,
  3;13,13,13;,
  3;14,14,14;,
  3;15,15,15;,
  3;16,16,16;,
  3;17,17,17;,
  3;18,18,18;,
  3;19,19,19;,
  3;20,20,20;,
  3;21,21,21;,
  3;22,22,22;,
  3;23,23,23;,
  3;24,24,24;,
  3;25,25,25;,
  3;26,26,26;,
  3;27,27,27;,
  3;28,28,28;,
  3;29,29,29;,
  3;30,30,30;,
  3;31,31,31;,
  3;32,32,32;,
  3;33,33,33;,
  3;34,34,34;,
  3;35,35,35;,
  3;36,36,36;,
  3;37,37,37;,
  3;38,38,38;,
  3;39,39,39;,
  3;40,40,40;,
  3;41,41,41;,
  3;42,42,42;,
  3;43,43,43;,
  3;44,44,44;,
  3;45,45,45;,
  3;46,46,46;,
  3;47,47,47;,
  3;48,48,48;,
  3;49,49,49;,
  3;50,50,50;,
  3;51,51,51;,
  3;52,52,52;,
  3;53,53,53;,
  3;54,54,54;,
  3;55,55,55;,
  3;56,56,56;,
  3;57,57,57;,
  3;58,58,58;,
  3;59,59,59;,
  3;60,60,60;,
  3;61,61,61;,
  3;62,62,62;,
  3;63,63,63;,
  3;64,64,64;,
  3;65,65,65;,
  3;66,66,66;,
  3;67,67,67;,
  3;68,68,68;,
  3;69,69,69;,
  3;70,70,70;,
  3;71,71,71;,
  3;72,72,72;,
  3;73,73,73;,
  3;74,74,74;,
  3;75,75,75;,
  3;76,76,76;,
  3;77,77,77;,
  3;78,78,78;,
  3;79,79,79;,
  3;80,80,80;,
  3;81,81,81;,
  3;82,82,82;,
  3;83,83,83;,
  3;84,84,84;,
  3;85,85,85;,
  3;86,86,86;,
  3;87,87,87;,
  3;88,88,88;,
  3;89,89,89;,
  3;90,90,90;,
  3;91,91,91;,
  3;92,92,92;,
  3;93,93,93;,
  3;94,94,94;,
  3;95,95,95;,
  3;96,96,96;,
  3;97,97,97;,
  3;98,98,98;,
  3;99,99,99;,
  3;100,100,100;,
  3;101,101,101;,
  3;102,102,102;,
  3;103,103,103;,
  3;104,104,104;,
  3;105,105,105;,
  3;106,106,106;,
  3;107,107,107;,
  3;108,108,108;,
  3;109,109,109;;
 }
}