xof 0303txt 0032
template Vector {
 <3d82ab5e-62da-11cf-ab39-0020af71e433>
 FLOAT x;
 FLOAT y;
 FLOAT z;
}

template MeshFace {
 <3d82ab5f-62da-11cf-ab39-0020af71e433>
 DWORD nFaceVertexIndices;
 array DWORD faceVertexIndices[nFaceVertexIndices];
}

template Mesh {
 <3d82ab44-62da-11cf-ab39-0020af71e433>
 DWORD nVertices;
 array Vector vertices[nVertices];
 DWORD nFaces;
 array MeshFace faces[nFaces];
 [...]
}

template ColorRGBA {
 <35ff44e0-6c7c-11cf-8f52-0040333594a3>
 FLOAT red;
 FLOAT green;
 FLOAT blue;
 FLOAT alpha;
}

template ColorRGB {
 <d3e16e81-7835-11cf-8f52-0040333594a3>
 FLOAT red;
 FLOAT green;
 FLOAT blue;
}

template Material {
 <3d82ab4d-62da-11cf-ab39-0020af71e433>
 ColorRGBA faceColor;
 FLOAT power;
 ColorRGB specularColor;
 ColorRGB emissiveColor;
 [...]
}

template MeshMaterialList {
 <f6f23f42-7686-11cf-8f52-0040333594a3>
 DWORD nMaterials;
 DWORD nFaceIndexes;
 array DWORD faceIndexes[nFaceIndexes];
 [Material <3d82ab4d-62da-11cf-ab39-0020af71e433>]
}

template TextureFilename {
 <a42790e1-7810-11cf-8f52-0040333594a3>
 STRING filename;
}

template Coords2d {
 <f6f23f44-7686-11cf-8f52-0040333594a3>
 FLOAT u;
 FLOAT v;
}

template MeshTextureCoords {
 <f6f23f40-7686-11cf-8f52-0040333594a3>
 DWORD nTextureCoords;
 array Coords2d textureCoords[nTextureCoords];
}

template MeshNormals {
 <f6f23f43-7686-11cf-8f52-0040333594a3>
 DWORD nNormals;
 array Vector normals[nNormals];
 DWORD nFaceNormals;
 array MeshFace faceNormals[nFaceNormals];
}


Mesh  {
 70;
 1.500000;-0.450000;-4.000000;,
 1.500000;0.950000;-4.000000;,
 2.500000;0.950000;-4.000000;,
 1.500000;-0.450000;6.000000;,
 1.500000;1.100000;6.000000;,
 2.500000;1.100000;6.000000;,
 1.500000;-0.450000;6.000000;,
 1.500000;1.100000;6.000000;,
 2.700000;1.100000;6.000000;,
 1.500000;-0.450000;25.000000;,
 1.500000;1.100000;25.000000;,
 2.700000;1.100000;25.000000;,
 9.661100;0.950000;-4.000000;,
 8.661100;0.950000;-4.000000;,
 9.759300;1.009250;-0.050000;,
 8.759300;1.009250;-0.050000;,
 9.870100;1.084550;4.970000;,
 8.870100;1.084550;4.970000;,
 9.890000;1.100000;6.000000;,
 8.890000;1.100000;6.000000;,
 9.889600;1.100000;6.000000;,
 8.689600;1.100000;6.000000;,
 9.965100;1.100000;9.990000;,
 8.765100;1.100000;9.990000;,
 10.044300;1.100000;15.010000;,
 8.844300;1.100000;15.010000;,
 10.107700;1.100000;20.030001;,
 8.907700;1.100000;20.030001;,
 10.155400;1.100000;25.049999;,
 8.955400;1.100000;25.049999;,
 2.500000;0.950000;-4.000000;,
 2.500000;1.100000;6.000000;,
 2.700000;1.100000;6.000000;,
 2.700000;1.100000;25.000000;,
 8.661100;0.950000;-4.000000;,
 8.759300;1.009250;-0.050000;,
 8.870100;1.084550;4.970000;,
 8.890000;1.100000;6.000000;,
 8.689600;1.100000;6.000000;,
 8.765100;1.100000;9.990000;,
 8.844300;1.100000;15.010000;,
 8.907700;1.100000;20.030001;,
 8.955400;1.100000;25.049999;,
 3.750000;1.100000;25.700001;,
 3.750000;4.170000;25.700001;,
 3.750000;1.100000;17.700001;,
 3.750000;4.170000;17.700001;,
 7.750000;1.100000;17.700001;,
 7.750000;4.170000;17.700001;,
 3.750000;4.170000;25.700001;,
 3.000000;4.200000;25.700001;,
 3.000000;4.500000;25.700001;,
 3.750000;4.170000;17.700001;,
 3.000000;4.200000;16.950001;,
 3.000000;4.500000;16.950001;,
 7.750000;4.030000;17.700001;,
 8.500000;4.000000;16.950001;,
 8.500000;4.300000;16.950001;,
 5.400000;3.500000;17.700001;,
 5.400000;3.650000;17.700001;,
 5.400000;3.500000;17.700001;,
 5.400000;3.500000;17.000000;,
 5.400000;3.650000;17.000000;,
 7.300000;3.500000;17.700001;,
 7.300000;3.500000;17.000000;,
 7.300000;3.650000;17.000000;,
 5.600000;1.300000;17.690001;,
 5.600000;3.100000;17.690001;,
 7.100000;1.300000;17.690001;,
 7.100000;3.100000;17.690001;;
 51;
 3;3,4,1;,
 3;3,1,0;,
 3;4,5,2;,
 3;4,2,1;,
 3;9,10,7;,
 3;9,7,6;,
 3;10,11,8;,
 3;10,8,7;,
 3;12,13,15;,
 3;12,15,14;,
 3;14,15,17;,
 3;14,17,16;,
 3;16,17,19;,
 3;16,19,18;,
 3;20,21,23;,
 3;20,23,22;,
 3;22,23,25;,
 3;22,25,24;,
 3;24,25,27;,
 3;24,27,26;,
 3;26,27,29;,
 3;26,29,28;,
 3;30,31,37;,
 3;30,37,36;,
 3;30,36,35;,
 3;30,35,34;,
 3;32,33,42;,
 3;32,42,41;,
 3;32,41,40;,
 3;32,40,39;,
 3;32,39,38;,
 3;43,44,46;,
 3;43,46,45;,
 3;45,46,48;,
 3;45,48,47;,
 3;49,50,53;,
 3;49,53,52;,
 3;50,51,54;,
 3;50,54,53;,
 3;52,53,56;,
 3;52,56,55;,
 3;53,54,57;,
 3;53,57,56;,
 3;58,59,62;,
 3;58,62,61;,
 3;60,61,64;,
 3;60,64,63;,
 3;61,62,65;,
 3;61,65,64;,
 3;66,67,69;,
 3;66,69,68;;

 MeshMaterialList  {
  9;
  51;
  0,
  0,
  0,
  0,
  1,
  1,
  1,
  1,
  2,
  2,
  2,
  2,
  2,
  2,
  3,
  3,
  3,
  3,
  3,
  3,
  3,
  3,
  4,
  4,
  4,
  4,
  4,
  4,
  4,
  4,
  4,
  5,
  5,
  5,
  5,
  6,
  6,
  6,
  6,
  6,
  6,
  6,
  6,
  7,
  7,
  7,
  7,
  7,
  7,
  8,
  8;

  Material  {
   1.000000;1.000000;1.000000;1.000000;;
   0.000000;
   0.000000;0.000000;0.000000;;
   0.000000;0.000000;0.000000;;

   TextureFilename  {
    "FormSide2.png";
   }
  }

  Material  {
   1.000000;1.000000;1.000000;1.000000;;
   0.000000;
   0.000000;0.000000;0.000000;;
   0.000000;0.000000;0.000000;;

   TextureFilename  {
    "FormSide3.png";
   }
  }

  Material  {
   1.000000;1.000000;1.000000;1.000000;;
   0.000000;
   0.000000;0.000000;0.000000;;
   0.000000;0.000000;0.000000;;

   TextureFilename  {
    "FormSide2.png";
   }
  }

  Material  {
   1.000000;1.000000;1.000000;1.000000;;
   0.000000;
   0.000000;0.000000;0.000000;;
   0.000000;0.000000;0.000000;;

   TextureFilename  {
    "FormSide3.png";
   }
  }

  Material  {
   1.000000;1.000000;1.000000;1.000000;;
   0.000000;
   0.000000;0.000000;0.000000;;
   0.000000;0.000000;0.000000;;

   TextureFilename  {
    "FormC2.png";
   }
  }

  Material  {
   1.000000;1.000000;1.000000;1.000000;;
   0.000000;
   0.000000;0.000000;0.000000;;
   0.000000;0.000000;0.000000;;

   TextureFilename  {
    "StorageWall1.png";
   }
  }

  Material  {
   1.000000;1.000000;1.000000;1.000000;;
   0.000000;
   0.000000;0.000000;0.000000;;
   0.000000;0.000000;0.000000;;

   TextureFilename  {
    "StorageRoof1.png";
   }
  }

  Material  {
   1.000000;1.000000;1.000000;1.000000;;
   0.000000;
   0.000000;0.000000;0.000000;;
   0.000000;0.000000;0.000000;;

   TextureFilename  {
    "StorageRoof1.png";
   }
  }

  Material  {
   1.000000;1.000000;1.000000;1.000000;;
   0.000000;
   0.000000;0.000000;0.000000;;
   0.000000;0.000000;0.000000;;

   TextureFilename  {
    "StorageDoor1.png";
   }
  }
 }

 MeshTextureCoords  {
  70;
  0.000000;1.000000;,
  0.000000;0.312500;,
  0.000000;0.000000;,
  1.000000;1.000000;,
  1.000000;0.312500;,
  1.000000;0.000000;,
  0.600000;1.000000;,
  0.600000;0.312500;,
  0.600000;0.000000;,
  2.500000;1.000000;,
  2.500000;0.312500;,
  2.500000;0.000000;,
  -0.400000;0.312500;,
  -0.400000;0.000000;,
  -0.005000;0.312500;,
  -0.005000;0.000000;,
  0.497000;0.312500;,
  0.497000;0.000000;,
  0.600000;0.312500;,
  0.600000;0.000000;,
  0.600000;0.312500;,
  0.600000;0.000000;,
  0.999000;0.312500;,
  0.999000;0.000000;,
  1.501000;0.312500;,
  1.501000;0.000000;,
  2.003000;0.312500;,
  2.003000;0.000000;,
  2.505000;0.312500;,
  2.505000;0.000000;,
  0.000000;0.000000;,
  0.000000;0.400000;,
  0.022846;0.400000;,
  0.022846;1.160000;,
  0.703793;0.000000;,
  0.715010;0.158000;,
  0.727667;0.358800;,
  0.729940;0.400000;,
  0.707048;0.400000;,
  0.715673;0.559600;,
  0.724720;0.760400;,
  0.731962;0.961200;,
  0.737411;1.162000;,
  1.000000;1.000000;,
  1.000000;0.000000;,
  0.500000;1.000000;,
  0.500000;0.000000;,
  0.000000;1.000000;,
  0.000000;0.000000;,
  1.000000;1.000000;,
  1.000000;0.730000;,
  1.000000;0.000000;,
  0.490000;1.000000;,
  0.490000;0.730000;,
  0.490000;0.000000;,
  0.000000;1.000000;,
  0.000000;0.730000;,
  0.000000;0.000000;,
  1.000000;0.730000;,
  1.000000;0.000000;,
  0.490000;1.000000;,
  0.490000;0.730000;,
  0.490000;0.000000;,
  0.000000;1.000000;,
  0.000000;0.730000;,
  0.000000;0.000000;,
  0.000000;1.000000;,
  0.000000;0.000000;,
  1.000000;1.000000;,
  1.000000;0.000000;;
 }

 MeshNormals  {
  51;
  -1.000000;0.000000;0.000000;,
  -1.000000;0.000000;0.000000;,
  0.000000;0.999888;-0.014998;,
  0.000000;0.999888;-0.014998;,
  -1.000000;0.000000;0.000000;,
  -1.000000;0.000000;0.000000;,
  0.000000;1.000000;0.000000;,
  0.000000;1.000000;0.000000;,
  0.000000;0.999888;-0.014998;,
  0.000000;0.999888;-0.014998;,
  0.000000;0.999888;-0.014998;,
  0.000000;0.999888;-0.014998;,
  0.000000;0.999888;-0.014998;,
  0.000000;0.999888;-0.014998;,
  0.000000;1.000000;0.000000;,
  0.000000;1.000000;0.000000;,
  0.000000;1.000000;0.000000;,
  0.000000;1.000000;0.000000;,
  0.000000;1.000000;0.000000;,
  0.000000;1.000000;0.000000;,
  0.000000;1.000000;0.000000;,
  0.000000;1.000000;0.000000;,
  0.000000;0.999887;-0.014998;,
  -0.000000;0.999887;-0.014998;,
  -0.000000;0.999888;-0.014998;,
  0.000000;0.999888;-0.014998;,
  0.000000;1.000000;0.000000;,
  0.000000;1.000000;0.000000;,
  0.000000;1.000000;0.000000;,
  0.000000;1.000000;0.000000;,
  0.000000;1.000000;0.000000;,
  -1.000000;0.000000;0.000000;,
  -1.000000;0.000000;0.000000;,
  0.000000;0.000000;-1.000000;,
  0.000000;0.000000;-1.000000;,
  -0.039968;-0.999201;0.000000;,
  -0.039968;-0.999201;0.000000;,
  -1.000000;0.000000;0.000000;,
  -1.000000;0.000000;0.000000;,
  -0.036339;-0.999333;-0.003634;,
  -0.034978;-0.999376;0.004997;,
  0.000000;0.000000;-1.000000;,
  0.000000;0.000000;-1.000000;,
  -1.000000;0.000000;0.000000;,
  -1.000000;0.000000;0.000000;,
  0.000000;-1.000000;0.000000;,
  0.000000;-1.000000;0.000000;,
  0.000000;0.000000;-1.000000;,
  0.000000;0.000000;-1.000000;,
  0.000000;0.000000;-1.000000;,
  0.000000;0.000000;-1.000000;;
  51;
  3;0,0,0;,
  3;1,1,1;,
  3;2,2,2;,
  3;3,3,3;,
  3;4,4,4;,
  3;5,5,5;,
  3;6,6,6;,
  3;7,7,7;,
  3;8,8,8;,
  3;9,9,9;,
  3;10,10,10;,
  3;11,11,11;,
  3;12,12,12;,
  3;13,13,13;,
  3;14,14,14;,
  3;15,15,15;,
  3;16,16,16;,
  3;17,17,17;,
  3;18,18,18;,
  3;19,19,19;,
  3;20,20,20;,
  3;21,21,21;,
  3;22,22,22;,
  3;23,23,23;,
  3;24,24,24;,
  3;25,25,25;,
  3;26,26,26;,
  3;27,27,27;,
  3;28,28,28;,
  3;29,29,29;,
  3;30,30,30;,
  3;31,31,31;,
  3;32,32,32;,
  3;33,33,33;,
  3;34,34,34;,
  3;35,35,35;,
  3;36,36,36;,
  3;37,37,37;,
  3;38,38,38;,
  3;39,39,39;,
  3;40,40,40;,
  3;41,41,41;,
  3;42,42,42;,
  3;43,43,43;,
  3;44,44,44;,
  3;45,45,45;,
  3;46,46,46;,
  3;47,47,47;,
  3;48,48,48;,
  3;49,49,49;,
  3;50,50,50;;
 }
}