xof 0303txt 0032
template Vector {
 <3d82ab5e-62da-11cf-ab39-0020af71e433>
 FLOAT x;
 FLOAT y;
 FLOAT z;
}

template MeshFace {
 <3d82ab5f-62da-11cf-ab39-0020af71e433>
 DWORD nFaceVertexIndices;
 array DWORD faceVertexIndices[nFaceVertexIndices];
}

template Mesh {
 <3d82ab44-62da-11cf-ab39-0020af71e433>
 DWORD nVertices;
 array Vector vertices[nVertices];
 DWORD nFaces;
 array MeshFace faces[nFaces];
 [...]
}

template ColorRGBA {
 <35ff44e0-6c7c-11cf-8f52-0040333594a3>
 FLOAT red;
 FLOAT green;
 FLOAT blue;
 FLOAT alpha;
}

template ColorRGB {
 <d3e16e81-7835-11cf-8f52-0040333594a3>
 FLOAT red;
 FLOAT green;
 FLOAT blue;
}

template Material {
 <3d82ab4d-62da-11cf-ab39-0020af71e433>
 ColorRGBA faceColor;
 FLOAT power;
 ColorRGB specularColor;
 ColorRGB emissiveColor;
 [...]
}

template MeshMaterialList {
 <f6f23f42-7686-11cf-8f52-0040333594a3>
 DWORD nMaterials;
 DWORD nFaceIndexes;
 array DWORD faceIndexes[nFaceIndexes];
 [Material <3d82ab4d-62da-11cf-ab39-0020af71e433>]
}

template TextureFilename {
 <a42790e1-7810-11cf-8f52-0040333594a3>
 STRING filename;
}

template Coords2d {
 <f6f23f44-7686-11cf-8f52-0040333594a3>
 FLOAT u;
 FLOAT v;
}

template MeshTextureCoords {
 <f6f23f40-7686-11cf-8f52-0040333594a3>
 DWORD nTextureCoords;
 array Coords2d textureCoords[nTextureCoords];
}

template MeshNormals {
 <f6f23f43-7686-11cf-8f52-0040333594a3>
 DWORD nNormals;
 array Vector normals[nNormals];
 DWORD nFaceNormals;
 array MeshFace faceNormals[nFaceNormals];
}


Mesh  {
 53;
 1.500000;-0.450000;-0.050000;,
 1.500000;0.000000;-0.050000;,
 1.515800;-0.450000;4.970000;,
 1.515800;0.000000;4.970000;,
 1.523600;-0.450000;9.990000;,
 1.523600;0.000000;9.990000;,
 1.523600;-0.450000;15.010000;,
 1.523600;0.000000;15.010000;,
 1.515800;-0.450000;20.030001;,
 1.515800;0.000000;20.030001;,
 6.528600;0.950000;-0.050000;,
 5.528600;0.950000;-0.050000;,
 6.283400;0.950000;6.000000;,
 5.283400;0.950000;6.000000;,
 5.881500;0.000000;16.000000;,
 4.881500;0.000000;16.000000;,
 4.028600;-0.450000;-0.050000;,
 4.028600;0.950000;-0.050000;,
 4.528600;0.950000;-0.050000;,
 3.783400;-0.450000;6.000000;,
 3.783400;0.950000;6.000000;,
 4.283400;0.950000;6.000000;,
 3.381500;-0.450000;16.000000;,
 3.381500;0.000000;16.000000;,
 3.881500;0.000000;16.000000;,
 3.702500;-0.450000;20.030001;,
 3.702500;0.000000;20.030001;,
 3.515700;-0.450000;25.049999;,
 3.515700;0.000000;25.049999;,
 1.500000;0.000000;-0.050000;,
 1.515800;0.000000;4.970000;,
 1.523600;0.000000;9.990000;,
 1.523600;0.000000;15.010000;,
 1.515800;0.000000;20.030001;,
 4.028600;0.000000;-0.050000;,
 3.381500;0.000000;16.000000;,
 4.528600;0.950000;-0.050000;,
 4.283400;0.950000;6.000000;,
 3.881500;0.000000;16.000000;,
 5.528600;0.950000;-0.050000;,
 5.283400;0.950000;6.000000;,
 4.881500;0.000000;16.000000;,
 3.702500;0.000000;20.030001;,
 3.515700;0.000000;25.049999;,
 5.381500;0.000000;16.000000;,
 5.202500;0.000000;20.030001;,
 5.015700;0.000000;25.049999;,
 4.628600;0.950000;-0.050000;,
 4.628600;2.150000;-0.050000;,
 4.383400;0.950000;6.000000;,
 4.383400;2.150000;6.000000;,
 5.683400;0.950000;6.000000;,
 5.683400;2.150000;6.000000;;
 42;
 3;2,3,1;,
 3;2,1,0;,
 3;4,5,3;,
 3;4,3,2;,
 3;6,7,5;,
 3;6,5,4;,
 3;8,9,7;,
 3;8,7,6;,
 3;10,11,13;,
 3;10,13,12;,
 3;12,13,15;,
 3;12,15,14;,
 3;19,20,17;,
 3;19,17,16;,
 3;20,21,18;,
 3;20,18,17;,
 3;22,23,20;,
 3;22,20,19;,
 3;23,24,21;,
 3;23,21,20;,
 3;27,28,26;,
 3;27,26,25;,
 3;29,30,31;,
 3;29,31,34;,
 3;31,32,35;,
 3;31,35,34;,
 3;32,33,35;,
 3;35,33,42;,
 3;35,42,38;,
 3;36,37,40;,
 3;36,40,39;,
 3;37,38,41;,
 3;37,41,40;,
 3;38,42,45;,
 3;38,45,44;,
 3;38,44,41;,
 3;42,43,46;,
 3;42,46,45;,
 3;49,50,48;,
 3;49,48,47;,
 3;49,50,52;,
 3;49,52,51;;

 MeshMaterialList  {
  6;
  42;
  0,
  0,
  0,
  0,
  0,
  0,
  0,
  0,
  1,
  1,
  1,
  1,
  2,
  2,
  2,
  2,
  2,
  2,
  2,
  2,
  3,
  3,
  4,
  4,
  4,
  4,
  4,
  4,
  4,
  4,
  4,
  4,
  4,
  4,
  4,
  4,
  4,
  4,
  5,
  5,
  5,
  5;

  Material  {
   1.000000;1.000000;1.000000;1.000000;;
   0.000000;
   0.000000;0.000000;0.000000;;
   0.000000;0.000000;0.000000;;

   TextureFilename  {
    "FormSide3.png";
   }
  }

  Material  {
   1.000000;1.000000;1.000000;1.000000;;
   0.000000;
   0.000000;0.000000;0.000000;;
   0.000000;0.000000;0.000000;;

   TextureFilename  {
    "FormSide1.png";
   }
  }

  Material  {
   1.000000;1.000000;1.000000;1.000000;;
   0.000000;
   0.000000;0.000000;0.000000;;
   0.000000;0.000000;0.000000;;

   TextureFilename  {
    "FormSide1.png";
   }
  }

  Material  {
   1.000000;1.000000;1.000000;1.000000;;
   0.000000;
   0.000000;0.000000;0.000000;;
   0.000000;0.000000;0.000000;;

   TextureFilename  {
    "FormSide1.png";
   }
  }

  Material  {
   1.000000;1.000000;1.000000;1.000000;;
   0.000000;
   0.000000;0.000000;0.000000;;
   0.000000;0.000000;0.000000;;

   TextureFilename  {
    "FormC1.png";
   }
  }

  Material  {
   1.000000;1.000000;1.000000;1.000000;;
   0.000000;
   0.000000;0.000000;0.000000;;
   0.000000;0.000000;0.000000;;

   TextureFilename  {
    "Saku1.png";
   }
  }
 }

 MeshTextureCoords  {
  53;
  -0.005000;1.000000;,
  -0.005000;0.312500;,
  0.497000;1.000000;,
  0.497000;0.312500;,
  0.999000;1.000000;,
  0.999000;0.312500;,
  1.501000;1.000000;,
  1.501000;0.312500;,
  2.003000;1.000000;,
  2.003000;0.312500;,
  -0.005000;0.312500;,
  -0.005000;0.000000;,
  0.600000;0.312500;,
  0.600000;0.000000;,
  1.600000;0.312500;,
  1.600000;0.000000;,
  -0.005000;1.000000;,
  -0.005000;0.312500;,
  -0.005000;0.150000;,
  0.600000;1.000000;,
  0.600000;0.312500;,
  0.600000;0.150000;,
  1.600000;1.000000;,
  1.600000;0.312500;,
  1.600000;0.150000;,
  2.003000;1.000000;,
  2.003000;0.312500;,
  2.505000;1.000000;,
  2.505000;0.312500;,
  0.000000;-0.005000;,
  0.002339;0.497000;,
  0.003494;0.999000;,
  0.003494;1.501000;,
  0.002339;2.003000;,
  0.374378;-0.005000;,
  0.278570;1.600000;,
  0.448406;-0.005000;,
  0.412103;0.600000;,
  0.352599;1.600000;,
  0.596464;-0.005000;,
  0.560160;0.600000;,
  0.500656;1.600000;,
  0.326096;2.003000;,
  0.298439;2.505000;,
  0.574685;1.600000;,
  0.548182;2.003000;,
  0.520525;2.505000;,
  0.875000;1.000000;,
  0.875000;0.000000;,
  4.050000;1.000000;,
  4.050000;0.000000;,
  4.550000;1.000000;,
  4.550000;0.000000;;
 }

 MeshNormals  {
  42;
  -0.999995;0.000000;0.003147;,
  -0.999995;0.000000;0.003147;,
  -0.999999;0.000000;0.001554;,
  -0.999999;0.000000;0.001554;,
  -1.000000;0.000000;0.000000;,
  -1.000000;0.000000;0.000000;,
  -0.999999;0.000000;-0.001554;,
  -0.999999;0.000000;-0.001554;,
  0.000000;1.000000;0.000000;,
  0.000000;1.000000;0.000000;,
  0.000000;0.995518;0.094574;,
  0.000000;0.995518;0.094574;,
  -0.999180;0.000000;-0.040496;,
  -0.999180;0.000000;-0.040496;,
  0.000000;1.000000;0.000000;,
  0.000000;1.000000;0.000000;,
  -0.999193;0.000000;-0.040158;,
  -0.999193;0.000000;-0.040158;,
  0.000000;0.995518;0.094574;,
  0.000000;0.995518;0.094574;,
  -0.999308;0.000000;-0.037185;,
  -0.999308;0.000000;-0.037185;,
  0.000000;-1.000000;0.000000;,
  0.000000;1.000000;0.000000;,
  0.000000;1.000000;0.000000;,
  0.000000;1.000000;0.000000;,
  0.000000;1.000000;0.000000;,
  0.000000;1.000000;0.000000;,
  0.000000;1.000000;0.000000;,
  0.000000;1.000000;0.000000;,
  0.000000;1.000000;0.000000;,
  0.000000;0.995518;0.094574;,
  0.000000;0.995518;0.094574;,
  0.000000;1.000000;0.000000;,
  0.000000;1.000000;0.000000;,
  0.000000;0.000000;0.000000;,
  0.000000;1.000000;0.000000;,
  0.000000;1.000000;0.000000;,
  -0.999180;0.000000;-0.040496;,
  -0.999180;0.000000;-0.040496;,
  0.000000;0.000000;-1.000000;,
  0.000000;0.000000;-1.000000;;
  42;
  3;0,0,0;,
  3;1,1,1;,
  3;2,2,2;,
  3;3,3,3;,
  3;4,4,4;,
  3;5,5,5;,
  3;6,6,6;,
  3;7,7,7;,
  3;8,8,8;,
  3;9,9,9;,
  3;10,10,10;,
  3;11,11,11;,
  3;12,12,12;,
  3;13,13,13;,
  3;14,14,14;,
  3;15,15,15;,
  3;16,16,16;,
  3;17,17,17;,
  3;18,18,18;,
  3;19,19,19;,
  3;20,20,20;,
  3;21,21,21;,
  3;22,22,22;,
  3;23,23,23;,
  3;24,24,24;,
  3;25,25,25;,
  3;26,26,26;,
  3;27,27,27;,
  3;28,28,28;,
  3;29,29,29;,
  3;30,30,30;,
  3;31,31,31;,
  3;32,32,32;,
  3;33,33,33;,
  3;34,34,34;,
  3;35,35,35;,
  3;36,36,36;,
  3;37,37,37;,
  3;38,38,38;,
  3;39,39,39;,
  3;40,40,40;,
  3;41,41,41;;
 }
}