xof 0303txt 0032
template Vector {
 <3d82ab5e-62da-11cf-ab39-0020af71e433>
 FLOAT x;
 FLOAT y;
 FLOAT z;
}

template MeshFace {
 <3d82ab5f-62da-11cf-ab39-0020af71e433>
 DWORD nFaceVertexIndices;
 array DWORD faceVertexIndices[nFaceVertexIndices];
}

template Mesh {
 <3d82ab44-62da-11cf-ab39-0020af71e433>
 DWORD nVertices;
 array Vector vertices[nVertices];
 DWORD nFaces;
 array MeshFace faces[nFaces];
 [...]
}

template ColorRGBA {
 <35ff44e0-6c7c-11cf-8f52-0040333594a3>
 FLOAT red;
 FLOAT green;
 FLOAT blue;
 FLOAT alpha;
}

template ColorRGB {
 <d3e16e81-7835-11cf-8f52-0040333594a3>
 FLOAT red;
 FLOAT green;
 FLOAT blue;
}

template Material {
 <3d82ab4d-62da-11cf-ab39-0020af71e433>
 ColorRGBA faceColor;
 FLOAT power;
 ColorRGB specularColor;
 ColorRGB emissiveColor;
 [...]
}

template MeshMaterialList {
 <f6f23f42-7686-11cf-8f52-0040333594a3>
 DWORD nMaterials;
 DWORD nFaceIndexes;
 array DWORD faceIndexes[nFaceIndexes];
 [Material <3d82ab4d-62da-11cf-ab39-0020af71e433>]
}

template TextureFilename {
 <a42790e1-7810-11cf-8f52-0040333594a3>
 STRING filename;
}

template Coords2d {
 <f6f23f44-7686-11cf-8f52-0040333594a3>
 FLOAT u;
 FLOAT v;
}

template MeshTextureCoords {
 <f6f23f40-7686-11cf-8f52-0040333594a3>
 DWORD nTextureCoords;
 array Coords2d textureCoords[nTextureCoords];
}

template MeshNormals {
 <f6f23f43-7686-11cf-8f52-0040333594a3>
 DWORD nNormals;
 array Vector normals[nNormals];
 DWORD nFaceNormals;
 array MeshFace faceNormals[nFaceNormals];
}


Mesh  {
 8;
 3.518900;-0.450000;0.000000;,
 3.518900;0.000000;0.000000;,
 2.604800;-0.450000;25.000000;,
 2.604800;0.000000;25.000000;,
 3.518900;0.000000;0.000000;,
 2.604800;0.000000;25.000000;,
 5.018900;0.000000;0.000000;,
 4.104800;0.000000;25.000000;;
 4;
 3;2,3,1;,
 3;2,1,0;,
 3;4,5,7;,
 3;4,7,6;;

 MeshMaterialList  {
  2;
  4;
  0,
  0,
  1,
  1;

  Material  {
   1.000000;1.000000;1.000000;1.000000;;
   0.000000;
   0.000000;0.000000;0.000000;;
   0.000000;0.000000;0.000000;;

   TextureFilename  {
    "FormSide3.png";
   }
  }

  Material  {
   1.000000;1.000000;1.000000;1.000000;;
   0.000000;
   0.000000;0.000000;0.000000;;
   0.000000;0.000000;0.000000;;

   TextureFilename  {
    "FormC1.png";
   }
  }
 }

 MeshTextureCoords  {
  8;
  -0.005000;1.000000;,
  -0.005000;0.312500;,
  0.497000;1.000000;,
  0.497000;0.312500;,
  0.298913;0.000000;,
  0.163574;2.500000;,
  0.520999;0.000000;,
  0.385660;2.500000;;
 }

 MeshNormals  {
  4;
  -0.999332;0.000000;-0.036540;,
  -0.999332;0.000000;-0.036540;,
  0.000000;1.000000;0.000000;,
  0.000000;1.000000;0.000000;;
  4;
  3;0,0,0;,
  3;1,1,1;,
  3;2,2,2;,
  3;3,3,3;;
 }
}