xof 0303txt 0032
template Vector {
 <3d82ab5e-62da-11cf-ab39-0020af71e433>
 FLOAT x;
 FLOAT y;
 FLOAT z;
}

template MeshFace {
 <3d82ab5f-62da-11cf-ab39-0020af71e433>
 DWORD nFaceVertexIndices;
 array DWORD faceVertexIndices[nFaceVertexIndices];
}

template Mesh {
 <3d82ab44-62da-11cf-ab39-0020af71e433>
 DWORD nVertices;
 array Vector vertices[nVertices];
 DWORD nFaces;
 array MeshFace faces[nFaces];
 [...]
}

template ColorRGBA {
 <35ff44e0-6c7c-11cf-8f52-0040333594a3>
 FLOAT red;
 FLOAT green;
 FLOAT blue;
 FLOAT alpha;
}

template ColorRGB {
 <d3e16e81-7835-11cf-8f52-0040333594a3>
 FLOAT red;
 FLOAT green;
 FLOAT blue;
}

template Material {
 <3d82ab4d-62da-11cf-ab39-0020af71e433>
 ColorRGBA faceColor;
 FLOAT power;
 ColorRGB specularColor;
 ColorRGB emissiveColor;
 [...]
}

template MeshMaterialList {
 <f6f23f42-7686-11cf-8f52-0040333594a3>
 DWORD nMaterials;
 DWORD nFaceIndexes;
 array DWORD faceIndexes[nFaceIndexes];
 [Material <3d82ab4d-62da-11cf-ab39-0020af71e433>]
}

template TextureFilename {
 <a42790e1-7810-11cf-8f52-0040333594a3>
 STRING filename;
}

template Coords2d {
 <f6f23f44-7686-11cf-8f52-0040333594a3>
 FLOAT u;
 FLOAT v;
}

template MeshTextureCoords {
 <f6f23f40-7686-11cf-8f52-0040333594a3>
 DWORD nTextureCoords;
 array Coords2d textureCoords[nTextureCoords];
}

template MeshNormals {
 <f6f23f43-7686-11cf-8f52-0040333594a3>
 DWORD nNormals;
 array Vector normals[nNormals];
 DWORD nFaceNormals;
 array MeshFace faceNormals[nFaceNormals];
}


Mesh  {
 26;
 1.500000;-0.450000;0.000000;,
 1.500000;1.100000;0.000000;,
 2.700000;1.100000;0.000000;,
 1.500000;-0.450000;25.000000;,
 1.500000;1.100000;25.000000;,
 2.700000;1.100000;25.000000;,
 10.154000;1.100000;-0.050000;,
 8.954000;1.100000;-0.050000;,
 10.189900;1.100000;4.970000;,
 8.989900;1.100000;4.970000;,
 10.217700;1.100000;9.990000;,
 9.017700;1.100000;9.990000;,
 10.237800;1.100000;15.010000;,
 9.037800;1.100000;15.010000;,
 10.250100;1.100000;20.030001;,
 9.050100;1.100000;20.030001;,
 10.254300;1.100000;25.049999;,
 9.054300;1.100000;25.049999;,
 2.700000;1.100000;0.000000;,
 2.700000;1.100000;25.000000;,
 8.954000;1.100000;-0.050000;,
 8.989900;1.100000;4.970000;,
 9.017700;1.100000;9.990000;,
 9.037800;1.100000;15.010000;,
 9.050100;1.100000;20.030001;,
 9.054300;1.100000;25.049999;;
 20;
 3;3,4,1;,
 3;3,1,0;,
 3;4,5,2;,
 3;4,2,1;,
 3;6,7,9;,
 3;6,9,8;,
 3;8,9,11;,
 3;8,11,10;,
 3;10,11,13;,
 3;10,13,12;,
 3;12,13,15;,
 3;12,15,14;,
 3;14,15,17;,
 3;14,17,16;,
 3;18,19,25;,
 3;18,25,24;,
 3;18,24,23;,
 3;18,23,22;,
 3;18,22,21;,
 3;18,21,20;;

 MeshMaterialList  {
  3;
  20;
  0,
  0,
  0,
  0,
  1,
  1,
  1,
  1,
  1,
  1,
  1,
  1,
  1,
  1,
  2,
  2,
  2,
  2,
  2,
  2;

  Material  {
   1.000000;1.000000;1.000000;1.000000;;
   0.000000;
   0.000000;0.000000;0.000000;;
   0.000000;0.000000;0.000000;;

   TextureFilename  {
    "FormSide3.png";
   }
  }

  Material  {
   1.000000;1.000000;1.000000;1.000000;;
   0.000000;
   0.000000;0.000000;0.000000;;
   0.000000;0.000000;0.000000;;

   TextureFilename  {
    "FormSide3.png";
   }
  }

  Material  {
   1.000000;1.000000;1.000000;1.000000;;
   0.000000;
   0.000000;0.000000;0.000000;;
   0.000000;0.000000;0.000000;;

   TextureFilename  {
    "FormC2.png";
   }
  }
 }

 MeshTextureCoords  {
  26;
  0.000000;1.000000;,
  0.000000;0.312500;,
  0.000000;0.000000;,
  2.500000;1.000000;,
  2.500000;0.312500;,
  2.500000;0.000000;,
  -0.005000;0.312500;,
  -0.005000;0.000000;,
  0.497000;0.312500;,
  0.497000;0.000000;,
  0.999000;0.312500;,
  0.999000;0.000000;,
  1.501000;0.312500;,
  1.501000;0.000000;,
  2.003000;0.312500;,
  2.003000;0.000000;,
  2.505000;0.312500;,
  2.505000;0.000000;,
  0.022846;0.160000;,
  0.022846;2.660000;,
  0.737251;0.155000;,
  0.741352;0.657000;,
  0.744528;1.159000;,
  0.746824;1.661000;,
  0.748229;2.163000;,
  0.748709;2.665000;;
 }

 MeshNormals  {
  20;
  -1.000000;0.000000;0.000000;,
  -1.000000;0.000000;0.000000;,
  0.000000;1.000000;0.000000;,
  0.000000;1.000000;0.000000;,
  0.000000;1.000000;0.000000;,
  0.000000;1.000000;0.000000;,
  0.000000;1.000000;0.000000;,
  0.000000;1.000000;0.000000;,
  0.000000;1.000000;0.000000;,
  0.000000;1.000000;0.000000;,
  0.000000;1.000000;0.000000;,
  0.000000;1.000000;0.000000;,
  0.000000;1.000000;0.000000;,
  0.000000;1.000000;0.000000;,
  0.000000;1.000000;0.000000;,
  0.000000;1.000000;0.000000;,
  0.000000;1.000000;0.000000;,
  0.000000;1.000000;0.000000;,
  0.000000;1.000000;0.000000;,
  0.000000;1.000000;0.000000;;
  20;
  3;0,0,0;,
  3;1,1,1;,
  3;2,2,2;,
  3;3,3,3;,
  3;4,4,4;,
  3;5,5,5;,
  3;6,6,6;,
  3;7,7,7;,
  3;8,8,8;,
  3;9,9,9;,
  3;10,10,10;,
  3;11,11,11;,
  3;12,12,12;,
  3;13,13,13;,
  3;14,14,14;,
  3;15,15,15;,
  3;16,16,16;,
  3;17,17,17;,
  3;18,18,18;,
  3;19,19,19;;
 }
}