xof 0303txt 0032
template Vector {
 <3d82ab5e-62da-11cf-ab39-0020af71e433>
 FLOAT x;
 FLOAT y;
 FLOAT z;
}

template MeshFace {
 <3d82ab5f-62da-11cf-ab39-0020af71e433>
 DWORD nFaceVertexIndices;
 array DWORD faceVertexIndices[nFaceVertexIndices];
}

template Mesh {
 <3d82ab44-62da-11cf-ab39-0020af71e433>
 DWORD nVertices;
 array Vector vertices[nVertices];
 DWORD nFaces;
 array MeshFace faces[nFaces];
 [...]
}

template ColorRGBA {
 <35ff44e0-6c7c-11cf-8f52-0040333594a3>
 FLOAT red;
 FLOAT green;
 FLOAT blue;
 FLOAT alpha;
}

template ColorRGB {
 <d3e16e81-7835-11cf-8f52-0040333594a3>
 FLOAT red;
 FLOAT green;
 FLOAT blue;
}

template Material {
 <3d82ab4d-62da-11cf-ab39-0020af71e433>
 ColorRGBA faceColor;
 FLOAT power;
 ColorRGB specularColor;
 ColorRGB emissiveColor;
 [...]
}

template MeshMaterialList {
 <f6f23f42-7686-11cf-8f52-0040333594a3>
 DWORD nMaterials;
 DWORD nFaceIndexes;
 array DWORD faceIndexes[nFaceIndexes];
 [Material <3d82ab4d-62da-11cf-ab39-0020af71e433>]
}

template TextureFilename {
 <a42790e1-7810-11cf-8f52-0040333594a3>
 STRING filename;
}

template Coords2d {
 <f6f23f44-7686-11cf-8f52-0040333594a3>
 FLOAT u;
 FLOAT v;
}

template MeshTextureCoords {
 <f6f23f40-7686-11cf-8f52-0040333594a3>
 DWORD nTextureCoords;
 array Coords2d textureCoords[nTextureCoords];
}

template MeshNormals {
 <f6f23f43-7686-11cf-8f52-0040333594a3>
 DWORD nNormals;
 array Vector normals[nNormals];
 DWORD nFaceNormals;
 array MeshFace faceNormals[nFaceNormals];
}


Mesh  {
 49;
 1.500000;-0.450000;6.000000;,
 1.500000;0.000000;6.000000;,
 2.500000;0.000000;6.000000;,
 1.500000;-0.450000;16.000000;,
 1.500000;0.000000;16.000000;,
 2.500000;0.000000;16.000000;,
 1.500000;-0.450000;26.000000;,
 1.500000;0.950000;26.000000;,
 2.500000;0.950000;26.000000;,
 8.168500;0.000000;6.000000;,
 7.168500;0.000000;6.000000;,
 8.346600;0.000000;9.990000;,
 7.346600;0.000000;9.990000;,
 8.562900;0.000000;15.010000;,
 7.562900;0.000000;15.010000;,
 8.604000;0.000000;16.000000;,
 7.604000;0.000000;16.000000;,
 8.771400;0.382850;20.030001;,
 7.771400;0.382850;20.030001;,
 8.971900;0.859750;25.049999;,
 7.971900;0.859750;25.049999;,
 9.019400;0.950000;26.000000;,
 8.019400;0.950000;26.000000;,
 0.600000;-0.450000;8.000000;,
 0.600000;0.000000;8.000000;,
 0.600000;-0.450000;6.250000;,
 0.600000;0.000000;6.250000;,
 1.500000;-0.450000;6.000000;,
 1.500000;0.000000;6.000000;,
 8.168500;-0.450000;6.000000;,
 8.168500;0.000000;6.000000;,
 2.500000;0.000000;6.000000;,
 2.500000;0.000000;16.000000;,
 2.500000;0.950000;26.000000;,
 7.168500;0.000000;6.000000;,
 7.346600;0.000000;9.990000;,
 7.562900;0.000000;15.010000;,
 7.604000;0.000000;16.000000;,
 7.771400;0.382850;20.030001;,
 7.971900;0.859750;25.049999;,
 8.019400;0.950000;26.000000;,
 0.600000;0.000000;6.250000;,
 0.600000;0.000000;8.000000;,
 1.500000;0.000000;6.000000;,
 1.500000;0.000000;9.000000;,
 2.100000;0.950000;26.100000;,
 2.100000;2.150000;26.100000;,
 8.419400;0.950000;26.100000;,
 8.419400;2.150000;26.100000;;
 38;
 3;3,4,1;,
 3;3,1,0;,
 3;4,5,2;,
 3;4,2,1;,
 3;6,7,4;,
 3;6,4,3;,
 3;7,8,5;,
 3;7,5,4;,
 3;9,10,12;,
 3;9,12,11;,
 3;11,12,14;,
 3;11,14,13;,
 3;13,14,16;,
 3;13,16,15;,
 3;15,16,18;,
 3;15,18,17;,
 3;17,18,20;,
 3;17,20,19;,
 3;19,20,22;,
 3;19,22,21;,
 3;23,24,26;,
 3;23,26,25;,
 3;25,26,28;,
 3;25,28,27;,
 3;27,28,30;,
 3;27,30,29;,
 3;31,35,34;,
 3;31,32,36;,
 3;31,36,35;,
 3;32,37,36;,
 3;32,33,40;,
 3;32,40,39;,
 3;32,39,38;,
 3;32,38,37;,
 3;41,42,44;,
 3;41,44,43;,
 3;45,46,48;,
 3;45,48,47;;

 MeshMaterialList  {
  6;
  38;
  0,
  0,
  0,
  0,
  0,
  0,
  0,
  0,
  1,
  1,
  1,
  1,
  1,
  1,
  1,
  1,
  1,
  1,
  1,
  1,
  2,
  2,
  2,
  2,
  2,
  2,
  3,
  3,
  3,
  3,
  3,
  3,
  3,
  3,
  4,
  4,
  5,
  5;

  Material  {
   1.000000;1.000000;1.000000;1.000000;;
   0.000000;
   0.000000;0.000000;0.000000;;
   0.000000;0.000000;0.000000;;

   TextureFilename  {
    "FormSide1.png";
   }
  }

  Material  {
   1.000000;1.000000;1.000000;1.000000;;
   0.000000;
   0.000000;0.000000;0.000000;;
   0.000000;0.000000;0.000000;;

   TextureFilename  {
    "FormSide1.png";
   }
  }

  Material  {
   1.000000;1.000000;1.000000;1.000000;;
   0.000000;
   0.000000;0.000000;0.000000;;
   0.000000;0.000000;0.000000;;

   TextureFilename  {
    "FormSide1.png";
   }
  }

  Material  {
   1.000000;1.000000;1.000000;1.000000;;
   0.000000;
   0.000000;0.000000;0.000000;;
   0.000000;0.000000;0.000000;;

   TextureFilename  {
    "FormC1.png";
   }
  }

  Material  {
   1.000000;1.000000;1.000000;1.000000;;
   0.000000;
   0.000000;0.000000;0.000000;;
   0.000000;0.000000;0.000000;;

   TextureFilename  {
    "FormC1.png";
   }
  }

  Material  {
   1.000000;1.000000;1.000000;1.000000;;
   0.000000;
   0.000000;0.000000;0.000000;;
   0.000000;0.000000;0.000000;;

   TextureFilename  {
    "Saku1.png";
   }
  }
 }

 MeshTextureCoords  {
  49;
  0.600000;1.000000;,
  0.600000;0.312500;,
  0.600000;0.000000;,
  1.600000;1.000000;,
  1.600000;0.312500;,
  1.600000;0.000000;,
  2.600000;1.000000;,
  2.600000;0.312500;,
  2.600000;0.000000;,
  0.600000;0.312500;,
  0.600000;0.000000;,
  1.000000;0.312500;,
  1.000000;0.000000;,
  1.501000;0.312500;,
  1.501000;0.000000;,
  1.600000;0.312500;,
  1.600000;0.000000;,
  2.003000;0.312500;,
  2.003000;0.000000;,
  2.505000;0.312500;,
  2.505000;0.000000;,
  2.600000;0.312500;,
  2.600000;0.000000;,
  0.000000;1.000000;,
  0.000000;0.780000;,
  0.250000;1.000000;,
  0.250000;0.780000;,
  0.350000;1.000000;,
  0.350000;0.780000;,
  0.750000;1.000000;,
  0.750000;0.780000;,
  0.000000;0.000000;,
  0.000000;0.500000;,
  0.000000;1.000000;,
  0.533291;0.000000;,
  0.553635;0.199500;,
  0.578344;0.450500;,
  0.583038;0.500000;,
  0.602161;0.701500;,
  0.625064;0.952500;,
  0.630490;1.000000;,
  0.000000;0.916667;,
  0.000000;0.333333;,
  1.000000;1.000000;,
  1.000000;0.000000;,
  0.000000;1.000000;,
  0.000000;0.000000;,
  3.050000;1.000000;,
  3.050000;0.000000;;
 }

 MeshNormals  {
  38;
  -1.000000;0.000000;0.000000;,
  -1.000000;0.000000;0.000000;,
  0.000000;1.000000;0.000000;,
  0.000000;1.000000;0.000000;,
  -1.000000;0.000000;0.000000;,
  -1.000000;0.000000;0.000000;,
  0.000000;0.995518;-0.094574;,
  0.000000;0.995518;-0.094574;,
  0.000000;1.000000;0.000000;,
  0.000000;1.000000;0.000000;,
  0.000000;1.000000;0.000000;,
  0.000000;1.000000;0.000000;,
  0.000000;1.000000;0.000000;,
  0.000000;1.000000;0.000000;,
  0.000000;0.995518;-0.094574;,
  0.000000;0.995518;-0.094574;,
  0.000000;0.995518;-0.094574;,
  0.000000;0.995518;-0.094574;,
  0.000000;0.995518;-0.094574;,
  0.000000;0.995518;-0.094574;,
  -1.000000;0.000000;0.000000;,
  -1.000000;0.000000;0.000000;,
  -0.267644;0.000000;-0.963518;,
  -0.267644;0.000000;-0.963518;,
  0.000000;0.000000;-1.000000;,
  0.000000;0.000000;-1.000000;,
  0.000000;1.000000;0.000000;,
  0.000000;1.000000;0.000000;,
  0.000000;1.000000;0.000000;,
  0.000000;1.000000;0.000000;,
  0.000000;0.995518;-0.094574;,
  -0.000000;0.995518;-0.094574;,
  0.000000;0.995518;-0.094574;,
  0.000000;0.995518;-0.094574;,
  0.000000;1.000000;0.000000;,
  0.000000;1.000000;0.000000;,
  0.000000;0.000000;-1.000000;,
  0.000000;0.000000;-1.000000;;
  38;
  3;0,0,0;,
  3;1,1,1;,
  3;2,2,2;,
  3;3,3,3;,
  3;4,4,4;,
  3;5,5,5;,
  3;6,6,6;,
  3;7,7,7;,
  3;8,8,8;,
  3;9,9,9;,
  3;10,10,10;,
  3;11,11,11;,
  3;12,12,12;,
  3;13,13,13;,
  3;14,14,14;,
  3;15,15,15;,
  3;16,16,16;,
  3;17,17,17;,
  3;18,18,18;,
  3;19,19,19;,
  3;20,20,20;,
  3;21,21,21;,
  3;22,22,22;,
  3;23,23,23;,
  3;24,24,24;,
  3;25,25,25;,
  3;26,26,26;,
  3;27,27,27;,
  3;28,28,28;,
  3;29,29,29;,
  3;30,30,30;,
  3;31,31,31;,
  3;32,32,32;,
  3;33,33,33;,
  3;34,34,34;,
  3;35,35,35;,
  3;36,36,36;,
  3;37,37,37;;
 }
}