xof 0303txt 0032
template Vector {
 <3d82ab5e-62da-11cf-ab39-0020af71e433>
 FLOAT x;
 FLOAT y;
 FLOAT z;
}

template MeshFace {
 <3d82ab5f-62da-11cf-ab39-0020af71e433>
 DWORD nFaceVertexIndices;
 array DWORD faceVertexIndices[nFaceVertexIndices];
}

template Mesh {
 <3d82ab44-62da-11cf-ab39-0020af71e433>
 DWORD nVertices;
 array Vector vertices[nVertices];
 DWORD nFaces;
 array MeshFace faces[nFaces];
 [...]
}

template ColorRGBA {
 <35ff44e0-6c7c-11cf-8f52-0040333594a3>
 FLOAT red;
 FLOAT green;
 FLOAT blue;
 FLOAT alpha;
}

template ColorRGB {
 <d3e16e81-7835-11cf-8f52-0040333594a3>
 FLOAT red;
 FLOAT green;
 FLOAT blue;
}

template Material {
 <3d82ab4d-62da-11cf-ab39-0020af71e433>
 ColorRGBA faceColor;
 FLOAT power;
 ColorRGB specularColor;
 ColorRGB emissiveColor;
 [...]
}

template MeshMaterialList {
 <f6f23f42-7686-11cf-8f52-0040333594a3>
 DWORD nMaterials;
 DWORD nFaceIndexes;
 array DWORD faceIndexes[nFaceIndexes];
 [Material <3d82ab4d-62da-11cf-ab39-0020af71e433>]
}

template TextureFilename {
 <a42790e1-7810-11cf-8f52-0040333594a3>
 STRING filename;
}

template Coords2d {
 <f6f23f44-7686-11cf-8f52-0040333594a3>
 FLOAT u;
 FLOAT v;
}

template MeshTextureCoords {
 <f6f23f40-7686-11cf-8f52-0040333594a3>
 DWORD nTextureCoords;
 array Coords2d textureCoords[nTextureCoords];
}

template MeshNormals {
 <f6f23f43-7686-11cf-8f52-0040333594a3>
 DWORD nNormals;
 array Vector normals[nNormals];
 DWORD nFaceNormals;
 array MeshFace faceNormals[nFaceNormals];
}


Mesh  {
 38;
 1.500000;-0.450000;-0.050000;,
 1.500000;1.100000;-0.050000;,
 2.700000;1.100000;-0.050000;,
 1.515800;-0.450000;4.970000;,
 1.515800;1.100000;4.970000;,
 2.715800;1.100000;4.970000;,
 1.523600;-0.450000;9.990000;,
 1.523600;1.100000;9.990000;,
 2.723600;1.100000;9.990000;,
 1.523600;-0.450000;15.010000;,
 1.523600;1.100000;15.010000;,
 2.723600;1.100000;15.010000;,
 1.515800;-0.450000;20.030001;,
 1.515800;1.100000;20.030001;,
 2.715800;1.100000;20.030001;,
 1.500000;-0.450000;25.049999;,
 1.500000;1.100000;25.049999;,
 2.700000;1.100000;25.049999;,
 8.839700;1.100000;-0.050000;,
 7.639700;1.100000;-0.050000;,
 8.642500;1.100000;4.970000;,
 7.442500;1.100000;4.970000;,
 8.429500;1.100000;9.990000;,
 7.229500;1.100000;9.990000;,
 8.200800;1.100000;15.010000;,
 7.000800;1.100000;15.010000;,
 7.956300;1.100000;20.030001;,
 6.756300;1.100000;20.030001;,
 7.696000;1.100000;25.049999;,
 6.496000;1.100000;25.049999;,
 2.700000;1.100000;0.000000;,
 2.700000;1.100000;25.000000;,
 7.639700;1.100000;-0.050000;,
 7.442500;1.100000;4.970000;,
 7.229500;1.100000;9.990000;,
 7.000800;1.100000;15.010000;,
 6.756300;1.100000;20.030001;,
 6.496000;1.100000;25.049999;;
 36;
 3;3,4,1;,
 3;3,1,0;,
 3;4,5,2;,
 3;4,2,1;,
 3;6,7,4;,
 3;6,4,3;,
 3;7,8,5;,
 3;7,5,4;,
 3;9,10,7;,
 3;9,7,6;,
 3;10,11,8;,
 3;10,8,7;,
 3;12,13,10;,
 3;12,10,9;,
 3;13,14,11;,
 3;13,11,10;,
 3;15,16,13;,
 3;15,13,12;,
 3;16,17,14;,
 3;16,14,13;,
 3;18,19,21;,
 3;18,21,20;,
 3;20,21,23;,
 3;20,23,22;,
 3;22,23,25;,
 3;22,25,24;,
 3;24,25,27;,
 3;24,27,26;,
 3;26,27,29;,
 3;26,29,28;,
 3;30,31,37;,
 3;30,37,36;,
 3;30,36,35;,
 3;30,35,34;,
 3;30,34,33;,
 3;30,33,32;;

 MeshMaterialList  {
  3;
  36;
  0,
  0,
  0,
  0,
  0,
  0,
  0,
  0,
  0,
  0,
  0,
  0,
  0,
  0,
  0,
  0,
  0,
  0,
  0,
  0,
  1,
  1,
  1,
  1,
  1,
  1,
  1,
  1,
  1,
  1,
  2,
  2,
  2,
  2,
  2,
  2;

  Material  {
   1.000000;1.000000;1.000000;1.000000;;
   0.000000;
   0.000000;0.000000;0.000000;;
   0.000000;0.000000;0.000000;;

   TextureFilename  {
    "FormSide3.png";
   }
  }

  Material  {
   1.000000;1.000000;1.000000;1.000000;;
   0.000000;
   0.000000;0.000000;0.000000;;
   0.000000;0.000000;0.000000;;

   TextureFilename  {
    "FormSide3.png";
   }
  }

  Material  {
   1.000000;1.000000;1.000000;1.000000;;
   0.000000;
   0.000000;0.000000;0.000000;;
   0.000000;0.000000;0.000000;;

   TextureFilename  {
    "FormC2.png";
   }
  }
 }

 MeshTextureCoords  {
  38;
  -0.005000;1.000000;,
  -0.005000;0.312500;,
  -0.005000;0.000000;,
  0.497000;1.000000;,
  0.497000;0.312500;,
  0.497000;0.000000;,
  0.999000;1.000000;,
  0.999000;0.312500;,
  0.999000;0.000000;,
  1.501000;1.000000;,
  1.501000;0.312500;,
  1.501000;0.000000;,
  2.003000;1.000000;,
  2.003000;0.312500;,
  2.003000;0.000000;,
  2.505000;1.000000;,
  2.505000;0.312500;,
  2.505000;0.000000;,
  -0.005000;0.312500;,
  -0.005000;0.000000;,
  0.497000;0.312500;,
  0.497000;0.000000;,
  0.999000;0.312500;,
  0.999000;0.000000;,
  1.501000;0.312500;,
  1.501000;0.000000;,
  2.003000;0.312500;,
  2.003000;0.000000;,
  2.505000;0.312500;,
  2.505000;0.000000;,
  0.029611;0.160000;,
  0.029611;2.660000;,
  0.760970;0.155000;,
  0.731773;0.657000;,
  0.700237;1.159000;,
  0.666376;1.661000;,
  0.630176;2.163000;,
  0.591637;2.665000;;
 }

 MeshNormals  {
  36;
  -0.999995;0.000000;0.003147;,
  -0.999995;0.000000;0.003147;,
  0.000000;1.000000;0.000000;,
  0.000000;1.000000;0.000000;,
  -0.999999;0.000000;0.001554;,
  -0.999999;0.000000;0.001554;,
  0.000000;1.000000;0.000000;,
  0.000000;1.000000;0.000000;,
  -1.000000;0.000000;0.000000;,
  -1.000000;0.000000;0.000000;,
  0.000000;1.000000;0.000000;,
  0.000000;1.000000;0.000000;,
  -0.999999;0.000000;-0.001554;,
  -0.999999;0.000000;-0.001554;,
  0.000000;1.000000;0.000000;,
  0.000000;1.000000;0.000000;,
  -0.999995;0.000000;-0.003147;,
  -0.999995;0.000000;-0.003147;,
  0.000000;1.000000;0.000000;,
  0.000000;1.000000;0.000000;,
  0.000000;1.000000;0.000000;,
  0.000000;1.000000;0.000000;,
  0.000000;1.000000;0.000000;,
  0.000000;1.000000;0.000000;,
  0.000000;1.000000;0.000000;,
  0.000000;1.000000;0.000000;,
  0.000000;1.000000;0.000000;,
  0.000000;1.000000;0.000000;,
  0.000000;1.000000;0.000000;,
  0.000000;1.000000;0.000000;,
  0.000000;1.000000;0.000000;,
  0.000000;1.000000;0.000000;,
  0.000000;1.000000;0.000000;,
  0.000000;1.000000;0.000000;,
  0.000000;1.000000;0.000000;,
  0.000000;1.000000;0.000000;;
  36;
  3;0,0,0;,
  3;1,1,1;,
  3;2,2,2;,
  3;3,3,3;,
  3;4,4,4;,
  3;5,5,5;,
  3;6,6,6;,
  3;7,7,7;,
  3;8,8,8;,
  3;9,9,9;,
  3;10,10,10;,
  3;11,11,11;,
  3;12,12,12;,
  3;13,13,13;,
  3;14,14,14;,
  3;15,15,15;,
  3;16,16,16;,
  3;17,17,17;,
  3;18,18,18;,
  3;19,19,19;,
  3;20,20,20;,
  3;21,21,21;,
  3;22,22,22;,
  3;23,23,23;,
  3;24,24,24;,
  3;25,25,25;,
  3;26,26,26;,
  3;27,27,27;,
  3;28,28,28;,
  3;29,29,29;,
  3;30,30,30;,
  3;31,31,31;,
  3;32,32,32;,
  3;33,33,33;,
  3;34,34,34;,
  3;35,35,35;;
 }
}