xof 0303txt 0032
template Vector {
 <3d82ab5e-62da-11cf-ab39-0020af71e433>
 FLOAT x;
 FLOAT y;
 FLOAT z;
}

template MeshFace {
 <3d82ab5f-62da-11cf-ab39-0020af71e433>
 DWORD nFaceVertexIndices;
 array DWORD faceVertexIndices[nFaceVertexIndices];
}

template Mesh {
 <3d82ab44-62da-11cf-ab39-0020af71e433>
 DWORD nVertices;
 array Vector vertices[nVertices];
 DWORD nFaces;
 array MeshFace faces[nFaces];
 [...]
}

template ColorRGBA {
 <35ff44e0-6c7c-11cf-8f52-0040333594a3>
 FLOAT red;
 FLOAT green;
 FLOAT blue;
 FLOAT alpha;
}

template ColorRGB {
 <d3e16e81-7835-11cf-8f52-0040333594a3>
 FLOAT red;
 FLOAT green;
 FLOAT blue;
}

template Material {
 <3d82ab4d-62da-11cf-ab39-0020af71e433>
 ColorRGBA faceColor;
 FLOAT power;
 ColorRGB specularColor;
 ColorRGB emissiveColor;
 [...]
}

template MeshMaterialList {
 <f6f23f42-7686-11cf-8f52-0040333594a3>
 DWORD nMaterials;
 DWORD nFaceIndexes;
 array DWORD faceIndexes[nFaceIndexes];
 [Material <3d82ab4d-62da-11cf-ab39-0020af71e433>]
}

template TextureFilename {
 <a42790e1-7810-11cf-8f52-0040333594a3>
 STRING filename;
}

template Coords2d {
 <f6f23f44-7686-11cf-8f52-0040333594a3>
 FLOAT u;
 FLOAT v;
}

template MeshTextureCoords {
 <f6f23f40-7686-11cf-8f52-0040333594a3>
 DWORD nTextureCoords;
 array Coords2d textureCoords[nTextureCoords];
}

template MeshNormals {
 <f6f23f43-7686-11cf-8f52-0040333594a3>
 DWORD nNormals;
 array Vector normals[nNormals];
 DWORD nFaceNormals;
 array MeshFace faceNormals[nFaceNormals];
}


Mesh  {
 93;
 1.500000;-0.450000;-0.050000;,
 1.500000;1.100000;-0.050000;,
 2.700000;1.100000;-0.050000;,
 1.531500;-0.450000;4.970000;,
 1.531500;1.100000;4.970000;,
 2.731500;1.100000;4.970000;,
 1.547300;-0.450000;9.990000;,
 1.547300;1.100000;9.990000;,
 2.747300;1.100000;9.990000;,
 1.547300;-0.450000;11.400000;,
 1.547300;1.100000;11.400000;,
 2.747300;1.100000;11.400000;,
 1.547300;-0.450000;11.400000;,
 1.547300;1.100000;11.400000;,
 2.047300;1.100000;11.400000;,
 1.547300;-0.450000;15.010000;,
 1.547300;0.725400;15.010000;,
 2.047300;0.725400;15.010000;,
 1.531500;-0.450000;20.030001;,
 1.531500;0.204400;20.030001;,
 2.031500;0.204400;20.030001;,
 1.519100;-0.450000;22.000000;,
 1.519100;0.000000;22.000000;,
 2.019100;0.000000;22.000000;,
 1.500000;-0.450000;25.049999;,
 1.500000;0.000000;25.049999;,
 7.701600;1.100000;-0.050000;,
 6.501600;1.100000;-0.050000;,
 7.481900;1.100000;4.970000;,
 6.281900;1.100000;4.970000;,
 7.254200;1.100000;9.990000;,
 6.054200;1.100000;9.990000;,
 7.188100;1.100000;11.400000;,
 5.988100;1.100000;11.400000;,
 7.188100;1.100000;11.400000;,
 6.188100;1.100000;11.400000;,
 7.018700;1.048915;15.010000;,
 6.018700;1.048915;15.010000;,
 6.775400;0.977877;20.030001;,
 5.775400;0.977877;20.030001;,
 6.676800;0.950000;22.000000;,
 5.676800;0.950000;22.000000;,
 6.676800;0.950000;22.000000;,
 5.676800;0.950000;22.000000;,
 6.524100;0.950000;25.049999;,
 5.524100;0.950000;25.049999;,
 4.688100;-0.450000;11.400000;,
 4.688100;1.100000;11.400000;,
 5.188100;1.100000;11.400000;,
 4.176800;-0.450000;22.000000;,
 4.176800;0.950000;22.000000;,
 4.676800;0.950000;22.000000;,
 4.176800;-0.450000;22.000000;,
 4.176800;0.950000;22.000000;,
 4.676800;0.950000;22.000000;,
 4.024100;-0.450000;25.049999;,
 4.024100;0.950000;25.049999;,
 4.524100;0.950000;25.049999;,
 2.700000;1.100000;-0.050000;,
 2.731500;1.100000;4.970000;,
 2.747300;1.100000;9.990000;,
 2.747300;1.100000;11.400000;,
 5.188100;1.100000;11.400000;,
 4.676800;0.950000;22.000000;,
 6.501600;1.100000;-0.050000;,
 6.281900;1.100000;4.970000;,
 6.054200;1.100000;9.990000;,
 5.988100;1.100000;11.400000;,
 6.188100;1.100000;11.400000;,
 6.018700;1.048915;15.010000;,
 5.775400;0.977877;20.030001;,
 5.676800;0.950000;22.000000;,
 2.047300;1.100000;11.400000;,
 2.047300;0.725400;15.010000;,
 2.031500;0.204400;20.030001;,
 2.019100;0.000000;22.000000;,
 1.519100;0.000000;22.000000;,
 1.500000;0.000000;25.049999;,
 4.688100;1.100000;11.400000;,
 4.176800;0.000000;22.000000;,
 4.024100;0.000000;25.049999;,
 5.676800;0.950000;22.000000;,
 5.524100;0.950000;25.049999;,
 4.676800;0.950000;22.000000;,
 4.524100;0.950000;25.049999;,
 2.147300;1.100000;11.400000;,
 2.147300;2.300000;11.400000;,
 5.288100;1.100000;11.400000;,
 5.288100;2.300000;11.400000;,
 4.776800;0.950000;22.000000;,
 4.776800;2.150000;22.000000;,
 4.624100;0.950000;25.049999;,
 4.624100;2.150000;25.049999;;
 72;
 3;3,4,1;,
 3;3,1,0;,
 3;4,5,2;,
 3;4,2,1;,
 3;6,7,4;,
 3;6,4,3;,
 3;7,8,5;,
 3;7,5,4;,
 3;9,10,7;,
 3;9,7,6;,
 3;10,11,8;,
 3;10,8,7;,
 3;15,16,13;,
 3;15,13,12;,
 3;16,17,14;,
 3;16,14,13;,
 3;18,19,16;,
 3;18,16,15;,
 3;19,20,17;,
 3;19,17,16;,
 3;21,22,19;,
 3;21,19,18;,
 3;22,23,20;,
 3;22,20,19;,
 3;24,25,22;,
 3;24,22,21;,
 3;26,27,29;,
 3;26,29,28;,
 3;28,29,31;,
 3;28,31,30;,
 3;30,31,33;,
 3;30,33,32;,
 3;34,35,37;,
 3;34,37,36;,
 3;36,37,39;,
 3;36,39,38;,
 3;38,39,41;,
 3;38,41,40;,
 3;42,43,45;,
 3;42,45,44;,
 3;49,50,47;,
 3;49,47,46;,
 3;50,51,48;,
 3;50,48,47;,
 3;55,56,53;,
 3;55,53,52;,
 3;56,57,54;,
 3;56,54,53;,
 3;58,59,60;,
 3;58,60,61;,
 3;58,61,67;,
 3;58,67,66;,
 3;58,66,65;,
 3;58,65,64;,
 3;62,63,71;,
 3;62,71,70;,
 3;62,70,69;,
 3;62,69,68;,
 3;72,73,74;,
 3;72,74,75;,
 3;72,75,79;,
 3;72,79,78;,
 3;76,77,80;,
 3;76,80,79;,
 3;83,84,82;,
 3;83,82,81;,
 3;85,86,88;,
 3;85,88,87;,
 3;89,90,88;,
 3;89,88,87;,
 3;91,92,90;,
 3;91,90,89;;

 MeshMaterialList  {
  11;
  72;
  0,
  0,
  0,
  0,
  0,
  0,
  0,
  0,
  0,
  0,
  0,
  0,
  1,
  1,
  1,
  1,
  1,
  1,
  1,
  1,
  1,
  1,
  1,
  1,
  1,
  1,
  2,
  2,
  2,
  2,
  2,
  2,
  3,
  3,
  3,
  3,
  3,
  3,
  4,
  4,
  5,
  5,
  5,
  5,
  6,
  6,
  6,
  6,
  7,
  7,
  7,
  7,
  7,
  7,
  7,
  7,
  7,
  7,
  8,
  8,
  8,
  8,
  8,
  8,
  9,
  9,
  10,
  10,
  10,
  10,
  10,
  10;

  Material  {
   1.000000;1.000000;1.000000;1.000000;;
   0.000000;
   0.000000;0.000000;0.000000;;
   0.000000;0.000000;0.000000;;

   TextureFilename  {
    "FormSide3.png";
   }
  }

  Material  {
   1.000000;1.000000;1.000000;1.000000;;
   0.000000;
   0.000000;0.000000;0.000000;;
   0.000000;0.000000;0.000000;;

   TextureFilename  {
    "FormSide1.png";
   }
  }

  Material  {
   1.000000;1.000000;1.000000;1.000000;;
   0.000000;
   0.000000;0.000000;0.000000;;
   0.000000;0.000000;0.000000;;

   TextureFilename  {
    "FormSide3.png";
   }
  }

  Material  {
   1.000000;1.000000;1.000000;1.000000;;
   0.000000;
   0.000000;0.000000;0.000000;;
   0.000000;0.000000;0.000000;;

   TextureFilename  {
    "FormSide2.png";
   }
  }

  Material  {
   1.000000;1.000000;1.000000;1.000000;;
   0.000000;
   0.000000;0.000000;0.000000;;
   0.000000;0.000000;0.000000;;

   TextureFilename  {
    "FormSide1.png";
   }
  }

  Material  {
   1.000000;1.000000;1.000000;1.000000;;
   0.000000;
   0.000000;0.000000;0.000000;;
   0.000000;0.000000;0.000000;;

   TextureFilename  {
    "FormSide2.png";
   }
  }

  Material  {
   1.000000;1.000000;1.000000;1.000000;;
   0.000000;
   0.000000;0.000000;0.000000;;
   0.000000;0.000000;0.000000;;

   TextureFilename  {
    "FormSide1.png";
   }
  }

  Material  {
   1.000000;1.000000;1.000000;1.000000;;
   0.000000;
   0.000000;0.000000;0.000000;;
   0.000000;0.000000;0.000000;;

   TextureFilename  {
    "FormC2.png";
   }
  }

  Material  {
   1.000000;1.000000;1.000000;1.000000;;
   0.000000;
   0.000000;0.000000;0.000000;;
   0.000000;0.000000;0.000000;;

   TextureFilename  {
    "FormC1.png";
   }
  }

  Material  {
   1.000000;1.000000;1.000000;1.000000;;
   0.000000;
   0.000000;0.000000;0.000000;;
   0.000000;0.000000;0.000000;;

   TextureFilename  {
    "FormC1.png";
   }
  }

  Material  {
   1.000000;1.000000;1.000000;1.000000;;
   0.000000;
   0.000000;0.000000;0.000000;;
   0.000000;0.000000;0.000000;;

   TextureFilename  {
    "Saku1.png";
   }
  }
 }

 MeshTextureCoords  {
  93;
  -0.005000;1.000000;,
  -0.005000;0.312500;,
  -0.005000;0.000000;,
  0.497000;1.000000;,
  0.497000;0.312500;,
  0.497000;0.000000;,
  0.999000;1.000000;,
  0.999000;0.312500;,
  0.999000;0.000000;,
  1.140000;1.000000;,
  1.140000;0.312500;,
  1.140000;0.000000;,
  0.140000;1.000000;,
  0.140000;0.312500;,
  0.140000;0.150000;,
  0.501000;1.000000;,
  0.501000;0.312500;,
  0.501000;0.150000;,
  1.003000;1.000000;,
  1.003000;0.312500;,
  1.003000;0.150000;,
  1.200000;1.000000;,
  1.200000;0.312500;,
  1.200000;0.150000;,
  1.505000;1.000000;,
  1.505000;0.312500;,
  -0.005000;0.312500;,
  -0.005000;0.000000;,
  0.497000;0.312500;,
  0.497000;0.000000;,
  0.999000;0.312500;,
  0.999000;0.000000;,
  1.140000;0.312500;,
  1.140000;0.000000;,
  1.140000;0.312500;,
  1.140000;0.000000;,
  1.501000;0.312500;,
  1.501000;0.000000;,
  2.003000;0.312500;,
  2.003000;0.000000;,
  2.200000;0.312500;,
  2.200000;0.000000;,
  2.200000;0.312500;,
  2.200000;0.000000;,
  2.505000;0.312500;,
  2.505000;0.000000;,
  1.140000;1.000000;,
  1.140000;0.312500;,
  1.140000;0.150000;,
  2.200000;1.000000;,
  2.200000;0.312500;,
  2.200000;0.150000;,
  2.200000;1.000000;,
  2.200000;0.312500;,
  2.200000;0.150000;,
  2.505000;1.000000;,
  2.505000;0.312500;,
  2.505000;0.150000;,
  0.029611;0.155000;,
  0.034275;0.657000;,
  0.036615;1.159000;,
  0.036615;1.300000;,
  0.397993;1.300000;,
  0.322291;2.360000;,
  0.592466;0.155000;,
  0.559938;0.657000;,
  0.526225;1.159000;,
  0.516439;1.300000;,
  0.546050;1.300000;,
  0.520969;1.661000;,
  0.484947;2.163000;,
  0.470349;2.360000;,
  0.081032;1.140000;,
  0.081032;1.501000;,
  0.078692;2.003000;,
  0.076857;2.200000;,
  0.002828;2.200000;,
  0.000000;2.505000;,
  0.472022;1.140000;,
  0.396320;2.200000;,
  0.373712;2.505000;,
  0.618406;2.200000;,
  0.595798;2.505000;,
  0.396320;2.200000;,
  0.373712;2.505000;,
  0.000000;1.000000;,
  0.000000;0.000000;,
  1.050000;1.000000;,
  1.050000;0.000000;,
  6.350000;1.000000;,
  6.350000;0.000000;,
  7.875000;1.000000;,
  7.875000;0.000000;;
 }

 MeshNormals  {
  72;
  -0.999980;0.000000;0.006275;,
  -0.999980;0.000000;0.006275;,
  0.000000;1.000000;0.000000;,
  0.000000;1.000000;0.000000;,
  -0.999995;0.000000;0.003147;,
  -0.999995;0.000000;0.003147;,
  0.000000;1.000000;0.000000;,
  0.000000;1.000000;0.000000;,
  -1.000000;0.000000;0.000000;,
  -1.000000;0.000000;0.000000;,
  0.000000;1.000000;0.000000;,
  0.000000;1.000000;0.000000;,
  -1.000000;0.000000;0.000000;,
  -1.000000;0.000000;0.000000;,
  0.000000;0.994659;0.103213;,
  0.000000;0.994659;0.103213;,
  -0.999995;0.000000;-0.003147;,
  -0.999995;0.000000;-0.003147;,
  0.000000;0.994657;0.103230;,
  0.000000;0.994657;0.103230;,
  -0.999980;0.000000;-0.006294;,
  -0.999980;0.000000;-0.006294;,
  0.000000;0.994660;0.103202;,
  0.000000;0.994660;0.103202;,
  -0.999980;0.000000;-0.006262;,
  -0.999980;0.000000;-0.006262;,
  0.000000;1.000000;0.000000;,
  0.000000;1.000000;0.000000;,
  0.000000;1.000000;0.000000;,
  0.000000;1.000000;0.000000;,
  0.000000;1.000000;0.000000;,
  0.000000;1.000000;0.000000;,
  0.000000;0.999900;0.014150;,
  0.000000;0.999900;0.014150;,
  0.000000;0.999900;0.014150;,
  0.000000;0.999900;0.014150;,
  0.000000;0.999900;0.014150;,
  0.000000;0.999900;0.014150;,
  0.000000;1.000000;0.000000;,
  0.000000;1.000000;0.000000;,
  -0.998839;0.000000;-0.048180;,
  -0.998839;0.000000;-0.048180;,
  0.000000;0.999900;0.014150;,
  0.000000;0.999900;0.014150;,
  -0.998749;0.000000;-0.050003;,
  -0.998749;0.000000;-0.050003;,
  0.000000;1.000000;0.000000;,
  0.000000;1.000000;0.000000;,
  0.000000;-1.000000;0.000000;,
  0.000000;-1.000000;0.000000;,
  0.000000;1.000000;0.000000;,
  0.000000;1.000000;0.000000;,
  0.000000;1.000000;0.000000;,
  0.000000;1.000000;0.000000;,
  0.000000;0.999900;0.014150;,
  -0.000000;0.999900;0.014150;,
  -0.000000;0.999900;0.014150;,
  0.000000;0.999900;0.014150;,
  0.005541;-0.994644;-0.103212;,
  -0.004708;-0.994646;-0.103231;,
  0.000000;0.994659;0.103219;,
  0.000000;0.994659;0.103219;,
  0.000000;1.000000;0.000000;,
  0.000000;1.000000;0.000000;,
  0.000000;1.000000;0.000000;,
  0.000000;1.000000;0.000000;,
  0.000000;0.000000;-1.000000;,
  0.000000;0.000000;-1.000000;,
  -0.998839;0.000000;-0.048180;,
  -0.998839;0.000000;-0.048180;,
  -0.998749;0.000000;-0.050003;,
  -0.998749;0.000000;-0.050003;;
  72;
  3;0,0,0;,
  3;1,1,1;,
  3;2,2,2;,
  3;3,3,3;,
  3;4,4,4;,
  3;5,5,5;,
  3;6,6,6;,
  3;7,7,7;,
  3;8,8,8;,
  3;9,9,9;,
  3;10,10,10;,
  3;11,11,11;,
  3;12,12,12;,
  3;13,13,13;,
  3;14,14,14;,
  3;15,15,15;,
  3;16,16,16;,
  3;17,17,17;,
  3;18,18,18;,
  3;19,19,19;,
  3;20,20,20;,
  3;21,21,21;,
  3;22,22,22;,
  3;23,23,23;,
  3;24,24,24;,
  3;25,25,25;,
  3;26,26,26;,
  3;27,27,27;,
  3;28,28,28;,
  3;29,29,29;,
  3;30,30,30;,
  3;31,31,31;,
  3;32,32,32;,
  3;33,33,33;,
  3;34,34,34;,
  3;35,35,35;,
  3;36,36,36;,
  3;37,37,37;,
  3;38,38,38;,
  3;39,39,39;,
  3;40,40,40;,
  3;41,41,41;,
  3;42,42,42;,
  3;43,43,43;,
  3;44,44,44;,
  3;45,45,45;,
  3;46,46,46;,
  3;47,47,47;,
  3;48,48,48;,
  3;49,49,49;,
  3;50,50,50;,
  3;51,51,51;,
  3;52,52,52;,
  3;53,53,53;,
  3;54,54,54;,
  3;55,55,55;,
  3;56,56,56;,
  3;57,57,57;,
  3;58,58,58;,
  3;59,59,59;,
  3;60,60,60;,
  3;61,61,61;,
  3;62,62,62;,
  3;63,63,63;,
  3;64,64,64;,
  3;65,65,65;,
  3;66,66,66;,
  3;67,67,67;,
  3;68,68,68;,
  3;69,69,69;,
  3;70,70,70;,
  3;71,71,71;;
 }
}