xof 0303txt 0032
template Vector {
 <3d82ab5e-62da-11cf-ab39-0020af71e433>
 FLOAT x;
 FLOAT y;
 FLOAT z;
}

template MeshFace {
 <3d82ab5f-62da-11cf-ab39-0020af71e433>
 DWORD nFaceVertexIndices;
 array DWORD faceVertexIndices[nFaceVertexIndices];
}

template Mesh {
 <3d82ab44-62da-11cf-ab39-0020af71e433>
 DWORD nVertices;
 array Vector vertices[nVertices];
 DWORD nFaces;
 array MeshFace faces[nFaces];
 [...]
}

template MeshNormals {
 <f6f23f43-7686-11cf-8f52-0040333594a3>
 DWORD nNormals;
 array Vector normals[nNormals];
 DWORD nFaceNormals;
 array MeshFace faceNormals[nFaceNormals];
}

template Coords2d {
 <f6f23f44-7686-11cf-8f52-0040333594a3>
 FLOAT u;
 FLOAT v;
}

template MeshTextureCoords {
 <f6f23f40-7686-11cf-8f52-0040333594a3>
 DWORD nTextureCoords;
 array Coords2d textureCoords[nTextureCoords];
}

template ColorRGBA {
 <35ff44e0-6c7c-11cf-8f52-0040333594a3>
 FLOAT red;
 FLOAT green;
 FLOAT blue;
 FLOAT alpha;
}

template ColorRGB {
 <d3e16e81-7835-11cf-8f52-0040333594a3>
 FLOAT red;
 FLOAT green;
 FLOAT blue;
}

template Material {
 <3d82ab4d-62da-11cf-ab39-0020af71e433>
 ColorRGBA faceColor;
 FLOAT power;
 ColorRGB specularColor;
 ColorRGB emissiveColor;
 [...]
}

template MeshMaterialList {
 <f6f23f42-7686-11cf-8f52-0040333594a3>
 DWORD nMaterials;
 DWORD nFaceIndexes;
 array DWORD faceIndexes[nFaceIndexes];
 [Material <3d82ab4d-62da-11cf-ab39-0020af71e433>]
}

template TextureFilename {
 <a42790e1-7810-11cf-8f52-0040333594a3>
 STRING filename;
}


Mesh {
 20;
 -1.000000;-0.152000;-0.070000;,
 1.000000;-0.152000;-0.070000;,
 -1.000000;-0.152000;5.070000;,
 1.000000;-0.152000;5.070000;,
 -2.500000;-0.499000;-0.070000;,
 -1.900000;-0.209000;-0.070000;,
 -1.000000;-0.152000;-0.070000;,
 -2.500000;-0.499000;5.070000;,
 -1.900000;-0.209000;5.070000;,
 -1.000000;-0.152000;5.070000;,
 -1.900000;-0.209000;-0.070000;,
 -1.900000;-0.209000;5.070000;,
 2.500000;-0.499000;-0.070000;,
 1.900000;-0.209000;-0.070000;,
 1.000000;-0.152000;-0.070000;,
 2.500000;-0.499000;5.070000;,
 1.900000;-0.209000;5.070000;,
 1.000000;-0.152000;5.070000;,
 1.900000;-0.209000;-0.070000;,
 1.900000;-0.209000;5.070000;;
 10;
 3;0,2,3;,
 3;0,3,1;,
 3;4,7,8;,
 3;4,8,5;,
 3;10,11,9;,
 3;10,9,6;,
 3;12,13,16;,
 3;12,16,15;,
 3;18,14,17;,
 3;18,17,19;;

 MeshNormals {
  20;
  0.000000;1.000000;0.000000;,
  0.000000;1.000000;0.000000;,
  0.000000;1.000000;0.000000;,
  0.000000;1.000000;0.000000;,
  -0.435169;0.900349;0.000000;,
  -0.435169;0.900349;0.000000;,
  -0.063207;0.998000;0.000000;,
  -0.435169;0.900349;0.000000;,
  -0.435169;0.900349;0.000000;,
  -0.063207;0.998000;0.000000;,
  -0.063207;0.998000;0.000000;,
  -0.063207;0.998000;0.000000;,
  0.435169;0.900349;0.000000;,
  0.435169;0.900349;0.000000;,
  0.063207;0.998000;0.000000;,
  0.435169;0.900349;0.000000;,
  0.435169;0.900349;0.000000;,
  0.063207;0.998000;0.000000;,
  0.063207;0.998000;0.000000;,
  0.063207;0.998000;0.000000;;
  10;
  3;0,2,3;,
  3;0,3,1;,
  3;4,7,8;,
  3;4,8,5;,
  3;10,11,9;,
  3;10,9,6;,
  3;12,13,16;,
  3;12,16,15;,
  3;18,14,17;,
  3;18,17,19;;
 }

 MeshTextureCoords {
  20;
  0.000000;2.000000;,
  1.000000;2.000000;,
  0.000000;0.000000;,
  1.000000;0.000000;,
  1.000000;1.000000;,
  0.600000;1.000000;,
  0.000000;1.000000;,
  1.000000;0.000000;,
  0.600000;0.000000;,
  0.000000;0.000000;,
  0.600000;1.000000;,
  0.600000;0.000000;,
  1.000000;1.000000;,
  0.600000;1.000000;,
  0.000000;1.000000;,
  1.000000;0.000000;,
  0.600000;0.000000;,
  0.000000;0.000000;,
  0.600000;1.000000;,
  0.600000;0.000000;;
 }

 MeshMaterialList {
  1;
  10;
  0,
  0,
  0,
  0,
  0,
  0,
  0,
  0,
  0,
  0;

  Material {
   0.000000;0.000000;0.000000;0.700000;;
   0.000000;
   0.000000;0.000000;0.000000;;
   0.000000;0.000000;0.000000;;

   TextureFilename {
    "sdw1.png";
   }
  }
 }
}