xof 0303txt 0032
template Vector {
 <3d82ab5e-62da-11cf-ab39-0020af71e433>
 FLOAT x;
 FLOAT y;
 FLOAT z;
}

template MeshFace {
 <3d82ab5f-62da-11cf-ab39-0020af71e433>
 DWORD nFaceVertexIndices;
 array DWORD faceVertexIndices[nFaceVertexIndices];
}

template Mesh {
 <3d82ab44-62da-11cf-ab39-0020af71e433>
 DWORD nVertices;
 array Vector vertices[nVertices];
 DWORD nFaces;
 array MeshFace faces[nFaces];
 [...]
}

template MeshNormals {
 <f6f23f43-7686-11cf-8f52-0040333594a3>
 DWORD nNormals;
 array Vector normals[nNormals];
 DWORD nFaceNormals;
 array MeshFace faceNormals[nFaceNormals];
}

template Coords2d {
 <f6f23f44-7686-11cf-8f52-0040333594a3>
 FLOAT u;
 FLOAT v;
}

template MeshTextureCoords {
 <f6f23f40-7686-11cf-8f52-0040333594a3>
 DWORD nTextureCoords;
 array Coords2d textureCoords[nTextureCoords];
}

template ColorRGBA {
 <35ff44e0-6c7c-11cf-8f52-0040333594a3>
 FLOAT red;
 FLOAT green;
 FLOAT blue;
 FLOAT alpha;
}

template ColorRGB {
 <d3e16e81-7835-11cf-8f52-0040333594a3>
 FLOAT red;
 FLOAT green;
 FLOAT blue;
}

template Material {
 <3d82ab4d-62da-11cf-ab39-0020af71e433>
 ColorRGBA faceColor;
 FLOAT power;
 ColorRGB specularColor;
 ColorRGB emissiveColor;
 [...]
}

template MeshMaterialList {
 <f6f23f42-7686-11cf-8f52-0040333594a3>
 DWORD nMaterials;
 DWORD nFaceIndexes;
 array DWORD faceIndexes[nFaceIndexes];
 [Material <3d82ab4d-62da-11cf-ab39-0020af71e433>]
}

template TextureFilename {
 <a42790e1-7810-11cf-8f52-0040333594a3>
 STRING filename;
}


Mesh {
 28;
 1.050000;-0.140000;0.000000;,
 1.050000;-0.140000;5.000000;,
 -1.050000;-0.140000;5.000000;,
 -1.050000;-0.140000;0.000000;,
 -0.602000;0.000000;0.000000;,
 -0.534000;0.000000;0.000000;,
 -0.622000;-0.144000;0.000000;,
 -0.514000;-0.144000;0.000000;,
 -0.602000;0.000000;5.400000;,
 -0.534000;0.000000;5.400000;,
 -0.622000;-0.144000;5.400000;,
 -0.514000;-0.144000;5.400000;,
 0.602000;0.000000;0.000000;,
 0.534000;0.000000;0.000000;,
 0.622000;-0.144000;0.000000;,
 0.514000;-0.144000;0.000000;,
 0.602000;0.000000;5.400000;,
 0.534000;0.000000;5.400000;,
 0.622000;-0.144000;5.400000;,
 0.514000;-0.144000;5.400000;,
 -0.602000;0.000000;0.000000;,
 -0.602000;0.000000;5.400000;,
 -0.534000;0.000000;0.000000;,
 -0.534000;0.000000;5.400000;,
 0.534000;0.000000;0.000000;,
 0.534000;0.000000;5.400000;,
 0.602000;0.000000;0.000000;,
 0.602000;0.000000;5.400000;;
 14;
 3;3,2,1;,
 3;3,1,0;,
 3;4,6,10;,
 3;4,10,8;,
 3;5,20,21;,
 3;5,21,9;,
 3;7,22,23;,
 3;7,23,11;,
 3;13,15,19;,
 3;13,19,17;,
 3;12,24,25;,
 3;12,25,16;,
 3;14,26,27;,
 3;14,27,18;;

 MeshNormals {
  28;
  0.000000;1.000000;0.000000;,
  0.000000;1.000000;0.000000;,
  0.000000;1.000000;0.000000;,
  0.000000;1.000000;0.000000;,
  -0.990492;0.137568;0.000000;,
  0.000000;1.000000;0.000000;,
  -0.990492;0.137568;0.000000;,
  0.990492;0.137568;0.000000;,
  -0.990492;0.137568;0.000000;,
  0.000000;1.000000;0.000000;,
  -0.990492;0.137568;0.000000;,
  0.990492;0.137568;0.000000;,
  0.000000;1.000000;0.000000;,
  -0.990492;0.137568;0.000000;,
  0.990492;0.137568;0.000000;,
  -0.990492;0.137568;0.000000;,
  0.000000;1.000000;0.000000;,
  -0.990492;0.137568;0.000000;,
  0.990492;0.137568;0.000000;,
  -0.990492;0.137568;0.000000;,
  0.000000;1.000000;0.000000;,
  0.000000;1.000000;0.000000;,
  0.990492;0.137568;0.000000;,
  0.990492;0.137568;0.000000;,
  0.000000;1.000000;0.000000;,
  0.000000;1.000000;0.000000;,
  0.990492;0.137568;0.000000;,
  0.990492;0.137568;0.000000;;
  14;
  3;3,2,1;,
  3;3,1,0;,
  3;4,6,10;,
  3;4,10,8;,
  3;5,20,21;,
  3;5,21,9;,
  3;7,22,23;,
  3;7,23,11;,
  3;13,15,19;,
  3;13,19,17;,
  3;12,24,25;,
  3;12,25,16;,
  3;14,26,27;,
  3;14,27,18;;
 }

 MeshTextureCoords {
  28;
  0.000000;2.000000;,
  0.000000;0.000000;,
  1.000000;0.000000;,
  1.000000;2.000000;,
  0.670000;1.000000;,
  0.330000;1.000000;,
  1.000000;1.000000;,
  0.000000;1.000000;,
  0.670000;0.000000;,
  0.330000;0.000000;,
  1.000000;0.000000;,
  0.000000;0.000000;,
  0.670000;1.000000;,
  0.330000;1.000000;,
  1.000000;1.000000;,
  0.000000;1.000000;,
  0.670000;0.000000;,
  0.330000;0.000000;,
  1.000000;0.000000;,
  0.000000;0.000000;,
  0.670000;1.000000;,
  0.670000;0.000000;,
  0.330000;1.000000;,
  0.330000;0.000000;,
  0.330000;1.000000;,
  0.330000;0.000000;,
  0.670000;1.000000;,
  0.670000;0.000000;;
 }

 MeshMaterialList {
  2;
  14;
  0,
  0,
  1,
  1,
  1,
  1,
  1,
  1,
  1,
  1,
  1,
  1,
  1,
  1;

  Material {
   1.000000;1.000000;1.000000;1.000000;;
   0.000000;
   0.000000;0.000000;0.000000;;
   0.000000;0.000000;0.000000;;

   TextureFilename {
    "Tie_brg.dds";
   }
  }

  Material {
   1.000000;1.000000;1.000000;1.000000;;
   0.000000;
   0.000000;0.000000;0.000000;;
   0.000000;0.000000;0.000000;;

   TextureFilename {
    "rail1.dds";
   }
  }
 }
}