xof 0303txt 0032
template Vector {
 <3d82ab5e-62da-11cf-ab39-0020af71e433>
 FLOAT x;
 FLOAT y;
 FLOAT z;
}

template MeshFace {
 <3d82ab5f-62da-11cf-ab39-0020af71e433>
 DWORD nFaceVertexIndices;
 array DWORD faceVertexIndices[nFaceVertexIndices];
}

template Mesh {
 <3d82ab44-62da-11cf-ab39-0020af71e433>
 DWORD nVertices;
 array Vector vertices[nVertices];
 DWORD nFaces;
 array MeshFace faces[nFaces];
 [...]
}

template ColorRGBA {
 <35ff44e0-6c7c-11cf-8f52-0040333594a3>
 FLOAT red;
 FLOAT green;
 FLOAT blue;
 FLOAT alpha;
}

template ColorRGB {
 <d3e16e81-7835-11cf-8f52-0040333594a3>
 FLOAT red;
 FLOAT green;
 FLOAT blue;
}

template Material {
 <3d82ab4d-62da-11cf-ab39-0020af71e433>
 ColorRGBA faceColor;
 FLOAT power;
 ColorRGB specularColor;
 ColorRGB emissiveColor;
 [...]
}

template MeshMaterialList {
 <f6f23f42-7686-11cf-8f52-0040333594a3>
 DWORD nMaterials;
 DWORD nFaceIndexes;
 array DWORD faceIndexes[nFaceIndexes];
 [Material <3d82ab4d-62da-11cf-ab39-0020af71e433>]
}

template TextureFilename {
 <a42790e1-7810-11cf-8f52-0040333594a3>
 STRING filename;
}

template Coords2d {
 <f6f23f44-7686-11cf-8f52-0040333594a3>
 FLOAT u;
 FLOAT v;
}

template MeshTextureCoords {
 <f6f23f40-7686-11cf-8f52-0040333594a3>
 DWORD nTextureCoords;
 array Coords2d textureCoords[nTextureCoords];
}

template MeshNormals {
 <f6f23f43-7686-11cf-8f52-0040333594a3>
 DWORD nNormals;
 array Vector normals[nNormals];
 DWORD nFaceNormals;
 array MeshFace faceNormals[nFaceNormals];
}


Mesh  {
 40;
 1.050000;-0.140000;0.000000;,
 1.050000;-0.140000;25.000000;,
 -1.050000;-0.140000;25.000000;,
 -1.050000;-0.140000;0.000000;,
 -0.602000;0.000000;0.000000;,
 -0.534000;0.000000;0.000000;,
 -0.622000;-0.144000;0.000000;,
 -0.514000;-0.144000;0.000000;,
 -0.602000;0.000000;25.639999;,
 -0.534000;0.000000;25.639999;,
 -0.622000;-0.144000;25.639999;,
 -0.514000;-0.144000;25.639999;,
 0.602000;0.000000;0.000000;,
 0.534000;0.000000;0.000000;,
 0.622000;-0.144000;0.000000;,
 0.514000;-0.144000;0.000000;,
 0.602000;0.000000;25.639999;,
 0.534000;0.000000;25.639999;,
 0.622000;-0.144000;25.639999;,
 0.514000;-0.144000;25.639999;,
 -0.012000;5.100000;0.000000;,
 -0.012000;5.100000;25.200001;,
 0.012000;5.100000;25.200001;,
 0.012000;5.100000;0.000000;,
 -0.008000;5.700000;0.000000;,
 -0.008000;5.700000;25.200001;,
 0.008000;5.700000;25.200001;,
 0.008000;5.700000;0.000000;,
 0.060000;5.700000;4.167000;,
 0.000000;5.760000;4.167000;,
 -0.060000;5.700000;4.167000;,
 0.000000;5.640000;4.167000;,
 0.060000;5.700000;12.500000;,
 0.000000;5.760000;12.500000;,
 -0.060000;5.700000;12.500000;,
 0.000000;5.640000;12.500000;,
 0.060000;5.700000;20.833000;,
 0.000000;5.760000;20.833000;,
 -0.060000;5.700000;20.833000;,
 0.000000;5.640000;20.833000;;
 28;
 3;3,2,1;,
 3;3,1,0;,
 3;4,6,10;,
 3;4,10,8;,
 3;5,4,8;,
 3;5,8,9;,
 3;7,5,9;,
 3;7,9,11;,
 3;13,15,19;,
 3;13,19,17;,
 3;12,13,17;,
 3;12,17,16;,
 3;14,12,16;,
 3;14,16,18;,
 3;23,22,21;,
 3;23,21,20;,
 3;20,21,22;,
 3;20,22,23;,
 3;27,26,25;,
 3;27,25,24;,
 3;24,25,26;,
 3;24,26,27;,
 3;31,30,29;,
 3;31,29,28;,
 3;35,34,33;,
 3;35,33,32;,
 3;39,38,37;,
 3;39,37,36;;

 MeshMaterialList  {
  8;
  28;
  0,
  0,
  1,
  1,
  1,
  1,
  1,
  1,
  2,
  2,
  2,
  2,
  2,
  2,
  3,
  3,
  3,
  3,
  4,
  4,
  4,
  4,
  5,
  5,
  6,
  6,
  7,
  7;

  Material  {
   1.000000;1.000000;1.000000;1.000000;;
   0.000000;
   0.000000;0.000000;0.000000;;
   0.000000;0.000000;0.000000;;

   TextureFilename  {
    "Tie_brg.dds";
   }
  }

  Material  {
   1.000000;1.000000;1.000000;1.000000;;
   0.000000;
   0.000000;0.000000;0.000000;;
   0.000000;0.000000;0.000000;;

   TextureFilename  {
    "rail1.dds";
   }
  }

  Material  {
   1.000000;1.000000;1.000000;1.000000;;
   0.000000;
   0.000000;0.000000;0.000000;;
   0.000000;0.000000;0.000000;;

   TextureFilename  {
    "rail1.dds";
   }
  }

  Material  {
   0.250980;0.250980;0.250980;1.000000;;
   0.000000;
   0.000000;0.000000;0.000000;;
   0.000000;0.000000;0.000000;;
  }

  Material  {
   0.752941;0.690196;0.627451;1.000000;;
   0.000000;
   0.000000;0.000000;0.000000;;
   0.000000;0.000000;0.000000;;
  }

  Material  {
   0.250980;0.250980;0.250980;1.000000;;
   0.000000;
   0.000000;0.000000;0.000000;;
   0.000000;0.000000;0.000000;;
  }

  Material  {
   0.250980;0.250980;0.250980;1.000000;;
   0.000000;
   0.000000;0.000000;0.000000;;
   0.000000;0.000000;0.000000;;
  }

  Material  {
   0.250980;0.250980;0.250980;1.000000;;
   0.000000;
   0.000000;0.000000;0.000000;;
   0.000000;0.000000;0.000000;;
  }
 }

 MeshTextureCoords  {
  40;
  0.000000;9.000000;,
  0.000000;0.000000;,
  1.000000;0.000000;,
  1.000000;9.000000;,
  0.670000;1.000000;,
  0.330000;1.000000;,
  1.000000;1.000000;,
  0.000000;1.000000;,
  0.670000;0.000000;,
  0.330000;0.000000;,
  1.000000;0.000000;,
  0.000000;0.000000;,
  0.670000;1.000000;,
  0.330000;1.000000;,
  1.000000;1.000000;,
  0.000000;1.000000;,
  0.670000;0.000000;,
  0.330000;0.000000;,
  1.000000;0.000000;,
  0.000000;0.000000;,
  0.000000;0.000000;,
  0.000000;0.000000;,
  0.000000;0.000000;,
  0.000000;0.000000;,
  0.000000;0.000000;,
  0.000000;0.000000;,
  0.000000;0.000000;,
  0.000000;0.000000;,
  0.000000;0.000000;,
  0.000000;0.000000;,
  0.000000;0.000000;,
  0.000000;0.000000;,
  0.000000;0.000000;,
  0.000000;0.000000;,
  0.000000;0.000000;,
  0.000000;0.000000;,
  0.000000;0.000000;,
  0.000000;0.000000;,
  0.000000;0.000000;,
  0.000000;0.000000;;
 }

 MeshNormals  {
  28;
  0.000000;1.000000;0.000000;,
  0.000000;1.000000;0.000000;,
  -0.990492;0.137568;0.000000;,
  -0.990492;0.137568;0.000000;,
  0.000000;1.000000;0.000000;,
  0.000000;1.000000;0.000000;,
  0.990492;0.137568;0.000000;,
  0.990492;0.137568;0.000000;,
  -0.990492;0.137568;0.000000;,
  -0.990492;0.137568;0.000000;,
  0.000000;1.000000;0.000000;,
  0.000000;1.000000;0.000000;,
  0.990492;0.137568;0.000000;,
  0.990492;0.137568;0.000000;,
  0.000000;-1.000000;0.000000;,
  0.000000;-1.000000;0.000000;,
  0.000000;1.000000;0.000000;,
  0.000000;1.000000;0.000000;,
  0.000000;-1.000000;0.000000;,
  0.000000;-1.000000;0.000000;,
  0.000000;1.000000;0.000000;,
  0.000000;1.000000;0.000000;,
  0.000000;0.000000;-1.000000;,
  0.000000;0.000000;-1.000000;,
  0.000000;0.000000;-1.000000;,
  0.000000;0.000000;-1.000000;,
  0.000000;0.000000;-1.000000;,
  0.000000;0.000000;-1.000000;;
  28;
  3;0,0,0;,
  3;1,1,1;,
  3;2,2,2;,
  3;3,3,3;,
  3;4,4,4;,
  3;5,5,5;,
  3;6,6,6;,
  3;7,7,7;,
  3;8,8,8;,
  3;9,9,9;,
  3;10,10,10;,
  3;11,11,11;,
  3;12,12,12;,
  3;13,13,13;,
  3;14,14,14;,
  3;15,15,15;,
  3;16,16,16;,
  3;17,17,17;,
  3;18,18,18;,
  3;19,19,19;,
  3;20,20,20;,
  3;21,21,21;,
  3;22,22,22;,
  3;23,23,23;,
  3;24,24,24;,
  3;25,25,25;,
  3;26,26,26;,
  3;27,27,27;;
 }
}