xof 0303txt 0032
template Vector {
 <3d82ab5e-62da-11cf-ab39-0020af71e433>
 FLOAT x;
 FLOAT y;
 FLOAT z;
}

template MeshFace {
 <3d82ab5f-62da-11cf-ab39-0020af71e433>
 DWORD nFaceVertexIndices;
 array DWORD faceVertexIndices[nFaceVertexIndices];
}

template Mesh {
 <3d82ab44-62da-11cf-ab39-0020af71e433>
 DWORD nVertices;
 array Vector vertices[nVertices];
 DWORD nFaces;
 array MeshFace faces[nFaces];
 [...]
}

template MeshNormals {
 <f6f23f43-7686-11cf-8f52-0040333594a3>
 DWORD nNormals;
 array Vector normals[nNormals];
 DWORD nFaceNormals;
 array MeshFace faceNormals[nFaceNormals];
}

template Coords2d {
 <f6f23f44-7686-11cf-8f52-0040333594a3>
 FLOAT u;
 FLOAT v;
}

template MeshTextureCoords {
 <f6f23f40-7686-11cf-8f52-0040333594a3>
 DWORD nTextureCoords;
 array Coords2d textureCoords[nTextureCoords];
}

template ColorRGBA {
 <35ff44e0-6c7c-11cf-8f52-0040333594a3>
 FLOAT red;
 FLOAT green;
 FLOAT blue;
 FLOAT alpha;
}

template ColorRGB {
 <d3e16e81-7835-11cf-8f52-0040333594a3>
 FLOAT red;
 FLOAT green;
 FLOAT blue;
}

template Material {
 <3d82ab4d-62da-11cf-ab39-0020af71e433>
 ColorRGBA faceColor;
 FLOAT power;
 ColorRGB specularColor;
 ColorRGB emissiveColor;
 [...]
}

template MeshMaterialList {
 <f6f23f42-7686-11cf-8f52-0040333594a3>
 DWORD nMaterials;
 DWORD nFaceIndexes;
 array DWORD faceIndexes[nFaceIndexes];
 [Material <3d82ab4d-62da-11cf-ab39-0020af71e433>]
}

template TextureFilename {
 <a42790e1-7810-11cf-8f52-0040333594a3>
 STRING filename;
}


Mesh {
 44;
 0.201868;0.030411;-0.001854;,
 -0.810603;0.030411;-0.001854;,
 -0.810603;-3.355125;-0.001854;,
 -0.791578;-0.029011;-0.001854;,
 0.201868;-0.029011;-0.001854;,
 -0.810603;-0.029011;-0.001854;,
 -0.752669;-0.027848;-0.001854;,
 -0.752669;-3.355125;-0.001854;,
 -0.752669;-0.150536;-0.001854;,
 -0.350034;-0.027666;-0.001854;,
 -0.351379;-0.029011;-0.001854;,
 -0.671540;-0.349173;-0.001854;,
 -0.752669;-0.430301;-0.001854;,
 -0.440022;-0.027447;-0.001854;,
 -0.760642;-0.348067;-0.001854;,
 -0.441587;-0.029011;-0.001854;,
 -0.441067;-0.028491;-0.001854;,
 -0.691434;-0.278858;-0.001854;,
 -0.752669;-0.340093;-0.001854;,
 -0.752669;-0.244356;-0.001854;,
 -0.810603;-3.355125;0.051879;,
 -0.752669;-3.355125;0.051879;,
 -0.810603;-0.029011;0.051879;,
 -0.810603;0.030411;0.051879;,
 0.201868;0.030411;0.051879;,
 -0.752669;-0.430301;0.051879;,
 -0.752669;-0.150536;0.051879;,
 -0.752669;-0.027848;0.051879;,
 0.201868;-0.029011;0.051879;,
 -0.671540;-0.349173;0.051879;,
 -0.351379;-0.029011;0.051879;,
 -0.441587;-0.029011;0.051879;,
 -0.691434;-0.278858;0.051879;,
 -0.752669;-0.340093;0.051879;,
 -0.752669;-0.244356;0.051879;,
 -0.763499;-0.029011;-0.001854;,
 0.201868;-0.029011;-0.001854;,
 -0.762153;-0.027666;-0.001854;,
 -0.763499;-0.029011;-0.001854;,
 0.201868;-0.029011;0.051879;,
 0.201868;-0.029011;-0.001854;,
 0.201868;-0.029011;0.051879;,
 -0.763499;-0.029011;-0.001854;,
 -0.763499;-0.029011;0.051879;;
 53;
 3;1,6,3;,
 3;3,7,2;,
 3;0,13,6;,
 3;3,2,5;,
 3;3,5,1;,
 3;6,1,0;,
 3;7,14,12;,
 3;6,8,3;,
 3;9,0,4;,
 3;11,15,10;,
 3;8,14,3;,
 3;12,17,11;,
 3;10,13,9;,
 3;13,0,9;,
 3;14,7,3;,
 3;15,6,16;,
 3;15,16,10;,
 3;15,11,17;,
 3;14,19,18;,
 3;14,18,12;,
 3;17,12,18;,
 3;13,10,16;,
 3;13,16,6;,
 3;19,14,8;,
 3;2,7,21;,
 3;21,20,2;,
 3;5,2,20;,
 3;20,22,5;,
 3;1,5,22;,
 3;22,23,1;,
 3;0,1,23;,
 3;23,24,0;,
 3;7,12,25;,
 3;25,21,7;,
 3;8,6,27;,
 3;27,26,8;,
 3;4,0,24;,
 3;24,28,4;,
 3;11,10,30;,
 3;30,29,11;,
 3;12,11,29;,
 3;29,25,12;,
 3;15,17,32;,
 3;32,31,15;,
 3;18,19,34;,
 3;34,33,18;,
 3;17,18,33;,
 3;33,32,17;,
 3;19,8,26;,
 3;26,34,19;,
 3;35,37,36;,
 3;38,40,39;,
 3;41,43,42;;

 MeshNormals {
  44;
  0.000000;0.000000;-1.000000;,
  0.000000;0.000000;-1.000000;,
  0.000000;0.000000;-1.000000;,
  0.000000;0.000000;-1.000000;,
  0.000000;0.000000;-1.000000;,
  0.000000;0.000000;-1.000000;,
  0.000000;0.000000;-1.000000;,
  0.000000;0.000000;-1.000000;,
  0.000000;0.000000;-1.000000;,
  0.000000;0.000000;-1.000000;,
  0.000000;0.000000;-1.000000;,
  0.000000;0.000000;-1.000000;,
  0.000000;0.000000;-1.000000;,
  0.000000;0.000000;-1.000000;,
  0.000000;0.000000;-1.000000;,
  0.000000;0.000000;-1.000000;,
  0.000000;0.000000;-1.000000;,
  0.000000;0.000000;-1.000000;,
  0.000000;0.000000;-1.000000;,
  0.000000;0.000000;-1.000000;,
  0.000000;0.000000;-1.000000;,
  0.000000;0.000000;-1.000000;,
  0.000000;0.000000;-1.000000;,
  0.000000;0.000000;-1.000000;,
  0.000000;0.000000;-1.000000;,
  0.000000;0.000000;-1.000000;,
  0.000000;0.000000;-1.000000;,
  0.000000;0.000000;-1.000000;,
  0.000000;0.000000;-1.000000;,
  0.000000;0.000000;-1.000000;,
  0.000000;0.000000;-1.000000;,
  0.000000;0.000000;-1.000000;,
  0.000000;0.000000;-1.000000;,
  0.000000;0.000000;-1.000000;,
  0.000000;0.000000;-1.000000;,
  0.000000;0.000000;-1.000000;,
  0.000000;0.000000;-1.000000;,
  0.000000;0.000000;-1.000000;,
  0.000000;0.000000;-1.000000;,
  0.000000;0.000000;-1.000000;,
  0.000000;0.000000;-1.000000;,
  0.000000;0.000000;-1.000000;,
  0.000000;0.000000;-1.000000;,
  0.000000;0.000000;-1.000000;;
  53;
  3;1,6,3;,
  3;3,7,2;,
  3;0,13,6;,
  3;3,2,5;,
  3;3,5,1;,
  3;6,1,0;,
  3;7,14,12;,
  3;6,8,3;,
  3;9,0,4;,
  3;11,15,10;,
  3;8,14,3;,
  3;12,17,11;,
  3;10,13,9;,
  3;13,0,9;,
  3;14,7,3;,
  3;15,6,16;,
  3;15,16,10;,
  3;15,11,17;,
  3;14,19,18;,
  3;14,18,12;,
  3;17,12,18;,
  3;13,10,16;,
  3;13,16,6;,
  3;19,14,8;,
  3;2,7,21;,
  3;21,20,2;,
  3;5,2,20;,
  3;20,22,5;,
  3;1,5,22;,
  3;22,23,1;,
  3;0,1,23;,
  3;23,24,0;,
  3;7,12,25;,
  3;25,21,7;,
  3;8,6,27;,
  3;27,26,8;,
  3;4,0,24;,
  3;24,28,4;,
  3;11,10,30;,
  3;30,29,11;,
  3;12,11,29;,
  3;29,25,12;,
  3;15,17,32;,
  3;32,31,15;,
  3;18,19,34;,
  3;34,33,18;,
  3;17,18,33;,
  3;33,32,17;,
  3;19,8,26;,
  3;26,34,19;,
  3;35,37,36;,
  3;38,40,39;,
  3;41,43,42;;
 }

 MeshTextureCoords {
  44;
  0.002423;-0.000404;,
  1.000000;0.000000;,
  1.000000;1.000000;,
  0.981209;0.018791;,
  0.001937;0.017330;,
  1.000000;0.018791;,
  0.942779;0.018055;,
  0.942779;1.000000;,
  0.942779;0.057221;,
  0.545941;0.018699;,
  0.558490;0.017736;,
  0.855423;0.114365;,
  0.942779;0.143483;,
  0.633984;0.018296;,
  0.950654;0.119686;,
  0.635529;0.018791;,
  0.635016;0.018627;,
  0.897373;0.102627;,
  0.942779;0.117165;,
  0.942779;0.086890;,
  1.000000;1.000000;,
  0.942779;1.000000;,
  1.000000;0.018791;,
  1.000000;0.000000;,
  0.002423;-0.000404;,
  0.942216;0.143156;,
  0.942779;0.057221;,
  0.942779;0.018055;,
  0.001937;0.017080;,
  0.851788;0.114992;,
  0.556657;0.018264;,
  0.635529;0.018791;,
  0.897373;0.102627;,
  0.942779;0.117165;,
  0.942779;0.086890;,
  0.546433;0.018791;,
  0.000000;0.018791;,
  0.545104;0.018366;,
  0.546433;0.018791;,
  0.000000;0.018791;,
  0.000000;0.018791;,
  0.000000;0.018791;,
  0.546433;0.018791;,
  0.546433;0.018791;;
 }

 MeshMaterialList {
  1;
  53;
  0,
  0,
  0,
  0,
  0,
  0,
  0,
  0,
  0,
  0,
  0,
  0,
  0,
  0,
  0,
  0,
  0,
  0,
  0,
  0,
  0,
  0,
  0,
  0,
  0,
  0,
  0,
  0,
  0,
  0,
  0,
  0,
  0,
  0,
  0,
  0,
  0,
  0,
  0,
  0,
  0,
  0,
  0,
  0,
  0,
  0,
  0,
  0,
  0,
  0,
  0,
  0,
  0;

  Material {
   1.000000;1.000000;1.000000;1.000000;;
   0.000000;
   0.000000;0.000000;0.000000;;
   0.000000;0.000000;0.000000;;

   TextureFilename {
    "Pole01.dds";
   }
  }
 }
}