xof 0303txt 0032
template Vector {
 <3d82ab5e-62da-11cf-ab39-0020af71e433>
 FLOAT x;
 FLOAT y;
 FLOAT z;
}

template MeshFace {
 <3d82ab5f-62da-11cf-ab39-0020af71e433>
 DWORD nFaceVertexIndices;
 array DWORD faceVertexIndices[nFaceVertexIndices];
}

template Mesh {
 <3d82ab44-62da-11cf-ab39-0020af71e433>
 DWORD nVertices;
 array Vector vertices[nVertices];
 DWORD nFaces;
 array MeshFace faces[nFaces];
 [...]
}

template ColorRGBA {
 <35ff44e0-6c7c-11cf-8f52-0040333594a3>
 FLOAT red;
 FLOAT green;
 FLOAT blue;
 FLOAT alpha;
}

template ColorRGB {
 <d3e16e81-7835-11cf-8f52-0040333594a3>
 FLOAT red;
 FLOAT green;
 FLOAT blue;
}

template Material {
 <3d82ab4d-62da-11cf-ab39-0020af71e433>
 ColorRGBA faceColor;
 FLOAT power;
 ColorRGB specularColor;
 ColorRGB emissiveColor;
 [...]
}

template MeshMaterialList {
 <f6f23f42-7686-11cf-8f52-0040333594a3>
 DWORD nMaterials;
 DWORD nFaceIndexes;
 array DWORD faceIndexes[nFaceIndexes];
 [Material <3d82ab4d-62da-11cf-ab39-0020af71e433>]
}

template TextureFilename {
 <a42790e1-7810-11cf-8f52-0040333594a3>
 STRING filename;
}

template Coords2d {
 <f6f23f44-7686-11cf-8f52-0040333594a3>
 FLOAT u;
 FLOAT v;
}

template MeshTextureCoords {
 <f6f23f40-7686-11cf-8f52-0040333594a3>
 DWORD nTextureCoords;
 array Coords2d textureCoords[nTextureCoords];
}

template MeshNormals {
 <f6f23f43-7686-11cf-8f52-0040333594a3>
 DWORD nNormals;
 array Vector normals[nNormals];
 DWORD nFaceNormals;
 array MeshFace faceNormals[nFaceNormals];
}


Mesh  {
 36;
 -5.300000;-4.000000;-0.500000;,
 -5.000000;-4.000000;-0.500000;,
 -5.000000;-4.000000;-0.300000;,
 -5.300000;0.000000;-0.500000;,
 -5.000000;0.000000;-0.500000;,
 -5.000000;0.000000;-0.300000;,
 -5.300000;-4.000000;7.000000;,
 -5.000000;-4.000000;7.000000;,
 -5.000000;-4.000000;7.200000;,
 -5.300000;0.000000;7.000000;,
 -5.000000;0.000000;7.000000;,
 -5.000000;0.000000;7.200000;,
 -5.300000;-0.500000;-0.300000;,
 -5.000000;-0.500000;-0.300000;,
 -5.000000;-0.700000;-0.300000;,
 -5.300000;-0.500000;7.000000;,
 -5.000000;-0.500000;7.000000;,
 -5.000000;-0.700000;7.000000;,
 -3.268000;-4.000000;-0.500000;,
 -2.968000;-3.922000;-0.500000;,
 -2.968000;-3.922000;-0.300000;,
 -5.000000;-1.000000;-0.500000;,
 -4.700000;-0.922000;-0.500000;,
 -4.700000;-0.922000;-0.300000;,
 -5.000000;-0.700000;-0.500000;,
 -4.700000;-0.700000;-0.500000;,
 -4.700000;-0.700000;-0.300000;,
 -3.268000;-4.000000;7.000000;,
 -2.968000;-3.922000;7.000000;,
 -2.968000;-3.922000;7.200000;,
 -5.000000;-1.000000;7.000000;,
 -4.700000;-0.922000;7.000000;,
 -4.700000;-0.922000;7.200000;,
 -5.000000;-0.700000;7.000000;,
 -4.700000;-0.700000;7.000000;,
 -4.700000;-0.700000;7.200000;;
 28;
 3;3,4,1;,
 3;3,1,0;,
 3;4,5,2;,
 3;4,2,1;,
 3;9,10,7;,
 3;9,7,6;,
 3;10,11,8;,
 3;10,8,7;,
 3;15,16,13;,
 3;15,13,12;,
 3;16,17,14;,
 3;16,14,13;,
 3;21,22,19;,
 3;21,19,18;,
 3;22,23,20;,
 3;22,20,19;,
 3;24,25,22;,
 3;24,22,21;,
 3;25,26,23;,
 3;25,23,22;,
 3;30,31,28;,
 3;30,28,27;,
 3;31,32,29;,
 3;31,29,28;,
 3;33,34,31;,
 3;33,31,30;,
 3;34,35,32;,
 3;34,32,31;;

 MeshMaterialList  {
  5;
  28;
  0,
  0,
  0,
  0,
  1,
  1,
  1,
  1,
  2,
  2,
  2,
  2,
  3,
  3,
  3,
  3,
  3,
  3,
  3,
  3,
  4,
  4,
  4,
  4,
  4,
  4,
  4,
  4;

  Material  {
   1.000000;1.000000;1.000000;1.000000;;
   0.000000;
   0.000000;0.000000;0.000000;;
   0.000000;0.000000;0.000000;;

   TextureFilename  {
    "Iron1.png";
   }
  }

  Material  {
   1.000000;1.000000;1.000000;1.000000;;
   0.000000;
   0.000000;0.000000;0.000000;;
   0.000000;0.000000;0.000000;;

   TextureFilename  {
    "Iron1.png";
   }
  }

  Material  {
   1.000000;1.000000;1.000000;1.000000;;
   0.000000;
   0.000000;0.000000;0.000000;;
   0.000000;0.000000;0.000000;;

   TextureFilename  {
    "Iron1.png";
   }
  }

  Material  {
   1.000000;1.000000;1.000000;1.000000;;
   0.000000;
   0.000000;0.000000;0.000000;;
   0.000000;0.000000;0.000000;;

   TextureFilename  {
    "Iron1.png";
   }
  }

  Material  {
   1.000000;1.000000;1.000000;1.000000;;
   0.000000;
   0.000000;0.000000;0.000000;;
   0.000000;0.000000;0.000000;;

   TextureFilename  {
    "Iron1.png";
   }
  }
 }

 MeshTextureCoords  {
  36;
  0.000000;0.000000;,
  0.000000;0.800000;,
  0.000000;1.000000;,
  1.000000;0.000000;,
  1.000000;0.800000;,
  1.000000;1.000000;,
  0.000000;0.000000;,
  0.000000;0.800000;,
  0.000000;1.000000;,
  1.000000;0.000000;,
  1.000000;0.800000;,
  1.000000;1.000000;,
  0.000000;0.000000;,
  0.000000;0.800000;,
  0.000000;1.000000;,
  1.000000;0.000000;,
  1.000000;0.800000;,
  1.000000;1.000000;,
  0.000000;0.000000;,
  0.000000;0.800000;,
  0.000000;1.000000;,
  0.900000;0.000000;,
  0.900000;0.800000;,
  0.900000;1.000000;,
  1.000000;0.000000;,
  1.000000;0.800000;,
  1.000000;1.000000;,
  0.000000;0.000000;,
  0.000000;0.800000;,
  0.000000;1.000000;,
  0.900000;0.000000;,
  0.900000;0.800000;,
  0.900000;1.000000;,
  1.000000;0.000000;,
  1.000000;0.800000;,
  1.000000;1.000000;;
 }

 MeshNormals  {
  28;
  0.000000;0.000000;-1.000000;,
  0.000000;0.000000;-1.000000;,
  1.000000;0.000000;0.000000;,
  1.000000;0.000000;0.000000;,
  0.000000;0.000000;-1.000000;,
  0.000000;0.000000;-1.000000;,
  1.000000;0.000000;0.000000;,
  1.000000;0.000000;0.000000;,
  0.000000;1.000000;0.000000;,
  0.000000;1.000000;0.000000;,
  1.000000;0.000000;0.000000;,
  1.000000;0.000000;0.000000;,
  0.000000;0.000000;-1.000000;,
  0.000000;0.000000;-1.000000;,
  0.866032;0.499989;0.000000;,
  0.866032;0.499989;0.000000;,
  0.000000;0.000000;-1.000000;,
  0.000000;0.000000;-1.000000;,
  1.000000;0.000000;0.000000;,
  1.000000;0.000000;0.000000;,
  0.000000;0.000000;-1.000000;,
  0.000000;0.000000;-1.000000;,
  0.866032;0.499989;0.000000;,
  0.866032;0.499989;0.000000;,
  0.000000;0.000000;-1.000000;,
  0.000000;0.000000;-1.000000;,
  1.000000;0.000000;0.000000;,
  1.000000;0.000000;0.000000;;
  28;
  3;0,0,0;,
  3;1,1,1;,
  3;2,2,2;,
  3;3,3,3;,
  3;4,4,4;,
  3;5,5,5;,
  3;6,6,6;,
  3;7,7,7;,
  3;8,8,8;,
  3;9,9,9;,
  3;10,10,10;,
  3;11,11,11;,
  3;12,12,12;,
  3;13,13,13;,
  3;14,14,14;,
  3;15,15,15;,
  3;16,16,16;,
  3;17,17,17;,
  3;18,18,18;,
  3;19,19,19;,
  3;20,20,20;,
  3;21,21,21;,
  3;22,22,22;,
  3;23,23,23;,
  3;24,24,24;,
  3;25,25,25;,
  3;26,26,26;,
  3;27,27,27;;
 }
}