xof 0303txt 0032
template Vector {
 <3d82ab5e-62da-11cf-ab39-0020af71e433>
 FLOAT x;
 FLOAT y;
 FLOAT z;
}

template MeshFace {
 <3d82ab5f-62da-11cf-ab39-0020af71e433>
 DWORD nFaceVertexIndices;
 array DWORD faceVertexIndices[nFaceVertexIndices];
}

template Mesh {
 <3d82ab44-62da-11cf-ab39-0020af71e433>
 DWORD nVertices;
 array Vector vertices[nVertices];
 DWORD nFaces;
 array MeshFace faces[nFaces];
 [...]
}

template ColorRGBA {
 <35ff44e0-6c7c-11cf-8f52-0040333594a3>
 FLOAT red;
 FLOAT green;
 FLOAT blue;
 FLOAT alpha;
}

template ColorRGB {
 <d3e16e81-7835-11cf-8f52-0040333594a3>
 FLOAT red;
 FLOAT green;
 FLOAT blue;
}

template Material {
 <3d82ab4d-62da-11cf-ab39-0020af71e433>
 ColorRGBA faceColor;
 FLOAT power;
 ColorRGB specularColor;
 ColorRGB emissiveColor;
 [...]
}

template MeshMaterialList {
 <f6f23f42-7686-11cf-8f52-0040333594a3>
 DWORD nMaterials;
 DWORD nFaceIndexes;
 array DWORD faceIndexes[nFaceIndexes];
 [Material <3d82ab4d-62da-11cf-ab39-0020af71e433>]
}

template TextureFilename {
 <a42790e1-7810-11cf-8f52-0040333594a3>
 STRING filename;
}

template Coords2d {
 <f6f23f44-7686-11cf-8f52-0040333594a3>
 FLOAT u;
 FLOAT v;
}

template MeshTextureCoords {
 <f6f23f40-7686-11cf-8f52-0040333594a3>
 DWORD nTextureCoords;
 array Coords2d textureCoords[nTextureCoords];
}

template MeshNormals {
 <f6f23f43-7686-11cf-8f52-0040333594a3>
 DWORD nNormals;
 array Vector normals[nNormals];
 DWORD nFaceNormals;
 array MeshFace faceNormals[nFaceNormals];
}


Mesh  {
 453;
 -1.380000;1.000000;-20.799999;,
 -1.473500;1.600000;-20.799999;,
 -1.473500;3.300000;-20.799999;,
 -1.340000;3.500000;-20.799999;,
 -1.380000;1.000000;-1.800000;,
 -1.473500;1.600000;-1.800000;,
 -1.473500;3.300000;-1.800000;,
 -1.340000;3.500000;-1.800000;,
 -1.380000;1.000000;-1.200000;,
 -1.473500;1.600000;-1.200000;,
 -1.473500;3.270000;-1.200000;,
 -1.340000;3.470000;-1.200000;,
 -1.380000;1.000000;-0.800000;,
 -1.473500;1.600000;-0.800000;,
 -1.473500;3.200000;-0.800000;,
 -1.340000;3.400000;-0.800000;,
 -1.280000;1.000000;-0.620000;,
 -1.320000;1.100000;-0.600000;,
 -1.383500;1.500000;-0.600000;,
 -1.373500;1.600000;-0.600000;,
 -1.373500;3.200000;-0.600000;,
 1.380000;1.000000;-20.799999;,
 1.473500;1.600000;-20.799999;,
 1.473500;3.300000;-20.799999;,
 1.340000;3.500000;-20.799999;,
 1.380000;1.000000;-1.800000;,
 1.473500;1.600000;-1.800000;,
 1.473500;3.300000;-1.800000;,
 1.340000;3.500000;-1.800000;,
 1.380000;1.000000;-1.200000;,
 1.473500;1.600000;-1.200000;,
 1.473500;3.270000;-1.200000;,
 1.340000;3.470000;-1.200000;,
 1.380000;1.000000;-0.800000;,
 1.473500;1.600000;-0.800000;,
 1.473500;3.200000;-0.800000;,
 1.340000;3.400000;-0.800000;,
 1.280000;1.000000;-0.620000;,
 1.320000;1.100000;-0.600000;,
 1.383500;1.500000;-0.600000;,
 1.373500;1.600000;-0.600000;,
 1.373500;3.200000;-0.600000;,
 -1.380000;1.000000;-20.799999;,
 1.380000;1.000000;-20.799999;,
 1.473500;1.600000;-20.799999;,
 -1.473500;1.600000;-20.799999;,
 -1.473500;3.300000;-20.799999;,
 1.473500;3.300000;-20.799999;,
 1.340000;3.500000;-20.799999;,
 -1.340000;3.500000;-20.799999;,
 -1.000000;3.600000;-20.799999;,
 1.000000;3.600000;-20.799999;,
 0.300000;3.650000;-20.799999;,
 -0.300000;3.650000;-20.799999;,
 -1.280000;1.000000;-0.620000;,
 -1.320000;1.100000;-0.600000;,
 -1.383500;1.500000;-0.600000;,
 -1.373500;1.600000;-0.600000;,
 -1.373500;3.200000;-0.600000;,
 -1.340000;3.400000;-0.800000;,
 -1.180000;1.000000;-0.470000;,
 -1.220000;1.100000;-0.450000;,
 -1.293500;1.500000;-0.450000;,
 -1.273500;1.600000;-0.450000;,
 -1.273500;3.200000;-0.450000;,
 -1.180000;3.400000;-0.650000;,
 -1.080000;1.000000;-0.370000;,
 -1.120000;1.100000;-0.350000;,
 -1.203500;1.500000;-0.350000;,
 -1.173500;1.600000;-0.350000;,
 -1.173500;3.200000;-0.350000;,
 -1.040000;3.400000;-0.550000;,
 -0.880000;1.000000;-0.220000;,
 -0.920000;1.100000;-0.200000;,
 -1.003500;1.500000;-0.200000;,
 -0.973500;1.600000;-0.200000;,
 -0.973500;3.200000;-0.200000;,
 -0.840000;3.400000;-0.400000;,
 -0.690000;1.000000;-0.120000;,
 -0.730000;1.100000;-0.100000;,
 -0.766750;1.500000;-0.100000;,
 -0.736750;1.600000;-0.100000;,
 -0.736750;3.200000;-0.100000;,
 -0.670000;3.400000;-0.300000;,
 -0.300000;1.000000;-0.020000;,
 -0.300000;1.100000;0.000000;,
 -0.300000;1.500000;0.000000;,
 -0.300000;1.600000;0.000000;,
 -0.300000;3.200000;0.000000;,
 -0.300000;3.400000;-0.200000;,
 0.300000;1.000000;-0.020000;,
 0.300000;1.100000;0.000000;,
 0.300000;1.500000;0.000000;,
 0.300000;1.600000;0.000000;,
 0.300000;3.200000;0.000000;,
 0.300000;3.400000;-0.200000;,
 0.690000;1.000000;-0.120000;,
 0.730000;1.100000;-0.100000;,
 0.766750;1.500000;-0.100000;,
 0.736750;1.600000;-0.100000;,
 0.736750;3.200000;-0.100000;,
 0.670000;3.400000;-0.300000;,
 0.880000;1.000000;-0.220000;,
 0.920000;1.100000;-0.200000;,
 1.003500;1.500000;-0.200000;,
 0.973500;1.600000;-0.200000;,
 0.973500;3.200000;-0.200000;,
 0.840000;3.400000;-0.400000;,
 1.080000;1.000000;-0.370000;,
 1.120000;1.100000;-0.350000;,
 1.203500;1.500000;-0.350000;,
 1.173500;1.600000;-0.350000;,
 1.173500;3.200000;-0.350000;,
 1.040000;3.400000;-0.550000;,
 1.180000;1.000000;-0.470000;,
 1.220000;1.100000;-0.450000;,
 1.293500;1.500000;-0.450000;,
 1.273500;1.600000;-0.450000;,
 1.273500;3.200000;-0.450000;,
 1.140000;3.400000;-0.650000;,
 1.280000;1.000000;-0.620000;,
 1.320000;1.100000;-0.600000;,
 1.383500;1.500000;-0.600000;,
 1.373500;1.600000;-0.600000;,
 1.373500;3.200000;-0.600000;,
 1.340000;3.400000;-0.800000;,
 -1.340000;3.500000;-20.799999;,
 -1.000000;3.600000;-20.799999;,
 -0.300000;3.650000;-20.799999;,
 0.300000;3.650000;-20.799999;,
 1.000000;3.600000;-20.799999;,
 1.340000;3.500000;-20.799999;,
 -1.340000;3.500000;-1.800000;,
 -1.000000;3.600000;-1.800000;,
 -0.300000;3.650000;-1.800000;,
 0.300000;3.650000;-1.800000;,
 1.000000;3.600000;-1.800000;,
 1.340000;3.500000;-1.800000;,
 -1.340000;3.470000;-1.200000;,
 -1.000000;3.570000;-1.200000;,
 -0.300000;3.620000;-1.200000;,
 0.300000;3.620000;-1.200000;,
 1.000000;3.570000;-1.200000;,
 1.340000;3.470000;-1.200000;,
 -1.340000;3.400000;-0.800000;,
 -1.000000;3.530000;-0.800000;,
 -0.300000;3.580000;-0.800000;,
 0.300000;3.580000;-0.800000;,
 1.000000;3.530000;-0.800000;,
 1.340000;3.400000;-0.800000;,
 -0.650000;3.515000;-0.600000;,
 -0.300000;3.500000;-0.400000;,
 0.300000;3.500000;-0.400000;,
 0.650000;3.515000;-0.600000;,
 -1.180000;3.400000;-0.650000;,
 -1.040000;3.400000;-0.550000;,
 -0.840000;3.400000;-0.400000;,
 -0.670000;3.400000;-0.300000;,
 -0.300000;3.400000;-0.200000;,
 0.300000;3.400000;-0.200000;,
 0.670000;3.400000;-0.300000;,
 0.840000;3.400000;-0.400000;,
 1.040000;3.400000;-0.550000;,
 1.180000;3.400000;-0.650000;,
 -0.500000;3.600000;-6.200000;,
 -0.500000;3.600000;-7.300000;,
 -0.400000;3.800000;-7.200000;,
 -0.400000;3.800000;-6.300000;,
 0.400000;3.800000;-6.300000;,
 0.400000;3.800000;-7.200000;,
 0.500000;3.600000;-7.300000;,
 0.500000;3.600000;-6.200000;,
 -0.500000;3.600000;-14.600000;,
 -0.500000;3.600000;-13.500000;,
 -0.400000;3.800000;-13.600000;,
 -0.400000;3.800000;-14.500000;,
 0.400000;3.800000;-14.500000;,
 0.400000;3.800000;-13.600000;,
 0.500000;3.600000;-13.500000;,
 0.500000;3.600000;-14.600000;,
 -1.000000;3.525000;-12.800000;,
 -1.000000;3.525000;-8.000000;,
 -0.900000;3.825000;-12.700000;,
 -0.900000;3.825000;-8.100000;,
 -0.350000;3.950000;-12.500000;,
 -0.350000;3.950000;-8.300000;,
 0.350000;3.950000;-12.500000;,
 0.350000;3.950000;-8.300000;,
 0.900000;3.825000;-12.700000;,
 0.900000;3.825000;-8.100000;,
 1.000000;3.525000;-12.800000;,
 1.000000;3.525000;-8.000000;,
 -0.350000;3.825000;-13.100000;,
 -0.350000;3.825000;-7.700000;,
 0.350000;3.825000;-13.100000;,
 0.350000;3.825000;-7.700000;,
 -1.000000;3.525000;-12.800000;,
 -0.900000;3.825000;-12.700000;,
 -0.450000;3.525000;-13.200000;,
 -0.350000;3.825000;-13.100000;,
 0.450000;3.525000;-13.200000;,
 0.350000;3.825000;-13.100000;,
 1.000000;3.525000;-12.800000;,
 0.900000;3.825000;-12.700000;,
 1.370000;1.000000;-0.800000;,
 1.080000;1.000000;-0.400000;,
 0.650000;1.000000;-0.150000;,
 0.450000;1.000000;-0.100000;,
 -0.450000;1.000000;-0.100000;,
 -0.650000;1.000000;-0.150000;,
 -1.080000;1.000000;-0.400000;,
 -1.370000;1.000000;-0.800000;,
 1.270000;0.400000;-0.900000;,
 0.980000;0.400000;-0.500000;,
 0.550000;0.400000;-0.250000;,
 0.350000;0.400000;-0.200000;,
 -0.350000;0.400000;-0.200000;,
 -0.550000;0.400000;-0.250000;,
 -0.980000;0.400000;-0.500000;,
 -1.270000;0.400000;-0.900000;,
 1.170000;0.200000;-0.900000;,
 0.880000;0.200000;-0.450000;,
 0.450000;0.200000;-0.200000;,
 0.250000;0.200000;-0.150000;,
 -0.250000;0.200000;-0.150000;,
 -0.450000;0.200000;-0.200000;,
 -0.880000;0.200000;-0.450000;,
 -1.170000;0.200000;-0.900000;,
 1.370000;1.000000;-0.800000;,
 1.270000;0.400000;-0.900000;,
 1.170000;0.200000;-0.900000;,
 1.370000;1.000000;-1.850000;,
 1.270000;0.400000;-1.450000;,
 1.170000;0.200000;-1.300000;,
 -1.370000;1.000000;-0.800000;,
 -1.270000;0.400000;-0.900000;,
 -1.170000;0.200000;-0.900000;,
 -1.370000;1.000000;-1.850000;,
 -1.270000;0.400000;-1.450000;,
 -1.170000;0.200000;-1.300000;,
 -0.450000;0.700000;-0.100000;,
 -0.450000;1.000000;-0.100000;,
 0.450000;1.000000;-0.100000;,
 0.450000;0.700000;-0.100000;,
 -1.250000;0.000000;-20.700001;,
 -1.250000;1.200000;-20.700001;,
 -1.250000;0.000000;-1.500000;,
 -1.250000;1.200000;-1.500000;,
 -0.900000;0.000000;-0.600000;,
 -0.900000;1.200000;-0.600000;,
 -0.300000;0.000000;-0.300000;,
 -0.300000;1.200000;-0.300000;,
 0.300000;0.000000;-0.300000;,
 0.300000;1.200000;-0.300000;,
 0.900000;0.000000;-0.600000;,
 0.900000;1.200000;-0.600000;,
 1.250000;0.000000;-1.500000;,
 1.250000;1.200000;-1.500000;,
 1.250000;0.000000;-20.700001;,
 1.250000;1.200000;-20.700001;,
 -0.200000;0.700000;0.100000;,
 -0.200000;1.100000;0.100000;,
 0.200000;1.100000;0.100000;,
 0.200000;0.700000;0.100000;,
 -0.100000;0.800000;-0.300000;,
 -0.100000;1.000000;-0.300000;,
 0.100000;0.800000;-0.300000;,
 0.100000;1.000000;-0.300000;,
 -0.100000;0.800000;-0.100000;,
 -0.100000;1.000000;-0.100000;,
 0.100000;0.800000;-0.100000;,
 0.100000;1.000000;-0.100000;,
 -0.150000;0.780000;0.100000;,
 -0.150000;1.035000;0.100000;,
 0.150000;0.780000;0.100000;,
 0.150000;1.035000;0.100000;,
 -0.200000;0.500000;0.100000;,
 -0.200000;0.500000;-0.050000;,
 -0.200000;0.730000;-0.050000;,
 -0.200000;0.730000;0.100000;,
 0.200000;0.730000;0.100000;,
 0.200000;0.730000;-0.050000;,
 0.200000;0.500000;-0.050000;,
 0.200000;0.500000;0.100000;,
 -0.150000;0.715000;0.050000;,
 0.150000;0.715000;0.050000;,
 -0.150000;0.695902;0.108778;,
 0.150000;0.695902;0.108778;,
 -0.150000;0.645902;0.145106;,
 0.150000;0.645902;0.145106;,
 -0.150000;0.584098;0.145106;,
 0.150000;0.584098;0.145106;,
 -0.150000;0.534098;0.108778;,
 0.150000;0.534098;0.108778;,
 -0.150000;0.515000;0.050000;,
 0.150000;0.515000;0.050000;,
 -0.150000;0.534098;-0.008779;,
 0.150000;0.534098;-0.008779;,
 -0.150000;0.584098;-0.045106;,
 0.150000;0.584098;-0.045106;,
 -0.150000;0.645902;-0.045106;,
 0.150000;0.645902;-0.045106;,
 -0.150000;0.695902;-0.008779;,
 0.150000;0.695902;-0.008779;,
 0.140000;0.835000;0.100000;,
 0.140000;0.965000;0.100000;,
 0.010000;0.835000;0.100000;,
 0.010000;0.965000;0.100000;,
 0.140000;0.835000;0.200000;,
 0.140000;0.965000;0.200000;,
 0.010000;0.835000;0.200000;,
 0.010000;0.965000;0.200000;,
 0.075000;0.900000;0.300000;,
 0.120000;3.675000;-2.500000;,
 0.120000;3.625000;-2.500000;,
 0.037082;3.675000;-2.385873;,
 0.037082;3.625000;-2.385873;,
 -0.097082;3.675000;-2.429466;,
 -0.097082;3.625000;-2.429466;,
 -0.097082;3.675000;-2.570534;,
 -0.097082;3.625000;-2.570534;,
 0.037082;3.675000;-2.614126;,
 0.037082;3.625000;-2.614126;,
 0.070000;3.930000;-2.500000;,
 0.090000;3.630000;-2.500000;,
 0.021631;3.930000;-2.433426;,
 0.027812;3.630000;-2.414405;,
 -0.056631;3.930000;-2.458855;,
 -0.072812;3.630000;-2.447099;,
 -0.056631;3.930000;-2.541145;,
 -0.072812;3.630000;-2.552901;,
 0.021631;3.930000;-2.566574;,
 0.027812;3.630000;-2.585595;,
 -0.530000;3.745000;-2.200000;,
 -0.530000;3.695000;-2.200000;,
 -0.578369;3.745000;-2.133426;,
 -0.578369;3.695000;-2.133426;,
 -0.656631;3.745000;-2.158855;,
 -0.656631;3.695000;-2.158855;,
 -0.656631;3.745000;-2.241145;,
 -0.656631;3.695000;-2.241145;,
 -0.578369;3.745000;-2.266574;,
 -0.578369;3.695000;-2.266574;,
 -0.570000;3.725000;-2.200000;,
 -0.570000;3.575000;-2.200000;,
 -0.590729;3.725000;-2.171468;,
 -0.590729;3.575000;-2.171468;,
 -0.624270;3.725000;-2.182366;,
 -0.624270;3.575000;-2.182366;,
 -0.624270;3.725000;-2.217633;,
 -0.624270;3.575000;-2.217633;,
 -0.590729;3.725000;-2.228532;,
 -0.590729;3.575000;-2.228532;,
 -0.585000;3.795000;-2.200000;,
 -0.585000;3.745000;-2.200000;,
 -0.595365;3.795000;-2.185734;,
 -0.595365;3.745000;-2.185734;,
 -0.612135;3.795000;-2.191183;,
 -0.612135;3.745000;-2.191183;,
 -0.612135;3.795000;-2.208817;,
 -0.612135;3.745000;-2.208817;,
 -0.595365;3.795000;-2.214266;,
 -0.595365;3.745000;-2.214266;,
 -0.550000;3.770000;-2.200000;,
 -0.550000;3.730000;-2.200000;,
 -0.584549;3.770000;-2.152447;,
 -0.584549;3.730000;-2.152447;,
 -0.640451;3.770000;-2.170611;,
 -0.640451;3.730000;-2.170611;,
 -0.640451;3.770000;-2.229389;,
 -0.640451;3.730000;-2.229389;,
 -0.584549;3.770000;-2.247553;,
 -0.584549;3.730000;-2.247553;,
 -0.250000;3.850000;-18.499998;,
 -0.250000;3.650000;-18.499998;,
 -0.300000;3.850000;-18.449999;,
 -0.300000;3.650000;-18.449999;,
 -0.350000;3.850000;-18.499998;,
 -0.350000;3.650000;-18.499998;,
 -0.300000;3.850000;-18.549997;,
 -0.300000;3.650000;-18.549997;,
 0.350000;3.850000;-18.499998;,
 0.350000;3.650000;-18.499998;,
 0.300000;3.850000;-18.449999;,
 0.300000;3.650000;-18.449999;,
 0.250000;3.850000;-18.499998;,
 0.250000;3.650000;-18.499998;,
 0.300000;3.850000;-18.549997;,
 0.300000;3.650000;-18.549997;,
 -0.250000;3.850000;-17.499998;,
 -0.250000;3.650000;-17.499998;,
 -0.300000;3.850000;-17.449999;,
 -0.300000;3.650000;-17.449999;,
 -0.350000;3.850000;-17.499998;,
 -0.350000;3.650000;-17.499998;,
 -0.300000;3.850000;-17.549997;,
 -0.300000;3.650000;-17.549997;,
 0.350000;3.850000;-17.499998;,
 0.350000;3.650000;-17.499998;,
 0.300000;3.850000;-17.449999;,
 0.300000;3.650000;-17.449999;,
 0.250000;3.850000;-17.499998;,
 0.250000;3.650000;-17.499998;,
 0.300000;3.850000;-17.549997;,
 0.300000;3.650000;-17.549997;,
 -0.300000;3.800000;-18.500000;,
 -0.300000;3.800000;-17.500000;,
 0.300000;3.800000;-17.500000;,
 0.300000;3.800000;-18.500000;,
 0.300000;3.750000;-18.500000;,
 0.300000;3.750000;-17.500000;,
 -0.300000;3.750000;-17.500000;,
 -0.300000;3.750000;-18.500000;,
 -0.050000;3.750000;-17.559999;,
 -0.030000;4.300000;-18.680000;,
 -0.030000;4.300000;-18.799999;,
 -0.050000;3.750000;-17.700001;,
 0.050000;3.750000;-17.700001;,
 0.030000;4.300000;-18.799999;,
 0.030000;4.300000;-18.650000;,
 0.050000;3.750000;-17.559999;,
 -0.035000;4.100000;-18.780001;,
 -0.030000;4.300000;-18.680000;,
 -0.030000;4.300000;-18.799999;,
 -0.035000;4.100000;-18.850000;,
 0.035000;4.100000;-18.850000;,
 0.030000;4.300000;-18.799999;,
 0.030000;4.300000;-18.680000;,
 0.035000;4.100000;-18.780001;,
 -0.010000;3.750000;-17.980000;,
 -0.010000;4.200000;-18.750000;,
 -0.010000;4.200000;-18.790001;,
 -0.010000;3.750000;-18.000000;,
 0.010000;3.750000;-18.000000;,
 0.010000;4.200000;-18.790001;,
 0.010000;4.200000;-18.750000;,
 0.010000;3.750000;-17.980000;,
 -0.020000;5.090000;-17.500000;,
 -0.030000;4.300000;-18.680000;,
 -0.030000;4.300000;-18.799999;,
 -0.020000;5.090000;-17.540001;,
 0.020000;5.090000;-17.540001;,
 0.030000;4.300000;-18.799999;,
 0.030000;4.300000;-18.680000;,
 0.020000;5.090000;-17.500000;,
 -1.200000;4.900000;-17.299999;,
 -1.200000;4.900000;-17.650000;,
 -0.900000;5.090000;-17.650000;,
 -0.900000;5.090000;-17.299999;,
 0.900000;5.090000;-17.299999;,
 0.900000;5.090000;-17.650000;,
 1.200000;4.900000;-17.650000;,
 1.200000;4.900000;-17.299999;;
 630;
 3;4,5,1;,
 3;4,1,0;,
 3;5,6,2;,
 3;5,2,1;,
 3;6,7,3;,
 3;6,3,2;,
 3;8,9,5;,
 3;8,5,4;,
 3;9,10,6;,
 3;9,6,5;,
 3;10,11,7;,
 3;10,7,6;,
 3;12,13,9;,
 3;12,9,8;,
 3;13,14,10;,
 3;13,10,9;,
 3;14,15,11;,
 3;14,11,10;,
 3;16,17,12;,
 3;17,13,12;,
 3;17,18,13;,
 3;18,19,13;,
 3;19,20,14;,
 3;19,14,13;,
 3;20,15,14;,
 3;21,22,26;,
 3;21,26,25;,
 3;22,23,27;,
 3;22,27,26;,
 3;23,24,28;,
 3;23,28,27;,
 3;25,26,30;,
 3;25,30,29;,
 3;26,27,31;,
 3;26,31,30;,
 3;27,28,32;,
 3;27,32,31;,
 3;29,30,34;,
 3;29,34,33;,
 3;30,31,35;,
 3;30,35,34;,
 3;31,32,36;,
 3;31,36,35;,
 3;33,38,37;,
 3;33,34,38;,
 3;34,39,38;,
 3;34,40,39;,
 3;34,35,41;,
 3;34,41,40;,
 3;35,36,41;,
 3;45,44,43;,
 3;45,43,42;,
 3;44,45,46;,
 3;44,46,47;,
 3;49,48,47;,
 3;49,47,46;,
 3;48,49,50;,
 3;48,50,51;,
 3;53,52,51;,
 3;53,51,50;,
 3;60,61,55;,
 3;60,55,54;,
 3;61,62,56;,
 3;61,56,55;,
 3;62,63,57;,
 3;62,57,56;,
 3;63,64,58;,
 3;63,58,57;,
 3;64,65,59;,
 3;64,59,58;,
 3;66,67,61;,
 3;66,61,60;,
 3;67,68,62;,
 3;67,62,61;,
 3;68,69,63;,
 3;68,63,62;,
 3;69,70,64;,
 3;69,64,63;,
 3;70,71,65;,
 3;70,65,64;,
 3;72,73,67;,
 3;72,67,66;,
 3;73,74,68;,
 3;73,68,67;,
 3;74,75,69;,
 3;74,69,68;,
 3;75,76,70;,
 3;75,70,69;,
 3;76,77,71;,
 3;76,71,70;,
 3;78,79,73;,
 3;78,73,72;,
 3;79,80,74;,
 3;79,74,73;,
 3;80,81,75;,
 3;80,75,74;,
 3;81,82,76;,
 3;81,76,75;,
 3;82,83,77;,
 3;82,77,76;,
 3;84,85,79;,
 3;84,79,78;,
 3;85,86,80;,
 3;85,80,79;,
 3;86,87,81;,
 3;86,81,80;,
 3;87,88,82;,
 3;87,82,81;,
 3;88,89,83;,
 3;88,83,82;,
 3;90,91,85;,
 3;90,85,84;,
 3;91,92,86;,
 3;91,86,85;,
 3;92,93,87;,
 3;92,87,86;,
 3;93,94,88;,
 3;93,88,87;,
 3;94,95,89;,
 3;94,89,88;,
 3;96,97,91;,
 3;96,91,90;,
 3;97,98,92;,
 3;97,92,91;,
 3;98,99,93;,
 3;98,93,92;,
 3;99,100,94;,
 3;99,94,93;,
 3;100,101,95;,
 3;100,95,94;,
 3;102,103,97;,
 3;102,97,96;,
 3;103,104,98;,
 3;103,98,97;,
 3;104,105,99;,
 3;104,99,98;,
 3;105,106,100;,
 3;105,100,99;,
 3;106,107,101;,
 3;106,101,100;,
 3;108,109,103;,
 3;108,103,102;,
 3;109,110,104;,
 3;109,104,103;,
 3;110,111,105;,
 3;110,105,104;,
 3;111,112,106;,
 3;111,106,105;,
 3;112,113,107;,
 3;112,107,106;,
 3;114,115,109;,
 3;114,109,108;,
 3;115,116,110;,
 3;115,110,109;,
 3;116,117,111;,
 3;116,111,110;,
 3;117,118,112;,
 3;117,112,111;,
 3;118,119,113;,
 3;118,113,112;,
 3;120,121,115;,
 3;120,115,114;,
 3;121,122,116;,
 3;121,116,115;,
 3;122,123,117;,
 3;122,117,116;,
 3;123,124,118;,
 3;123,118,117;,
 3;124,125,119;,
 3;124,119,118;,
 3;154,145,144;,
 3;154,155,150;,
 3;154,150,145;,
 3;155,156,150;,
 3;156,157,150;,
 3;157,158,151;,
 3;157,151,150;,
 3;158,159,152;,
 3;158,152,151;,
 3;159,160,153;,
 3;159,153,152;,
 3;153,161,162;,
 3;153,160,161;,
 3;148,153,162;,
 3;148,162,163;,
 3;149,148,163;,
 3;132,133,127;,
 3;132,127,126;,
 3;133,134,128;,
 3;133,128,127;,
 3;134,135,129;,
 3;134,129,128;,
 3;135,136,130;,
 3;135,130,129;,
 3;136,137,131;,
 3;136,131,130;,
 3;138,139,133;,
 3;138,133,132;,
 3;139,140,134;,
 3;139,134,133;,
 3;140,141,135;,
 3;140,135,134;,
 3;141,142,136;,
 3;141,136,135;,
 3;142,143,137;,
 3;142,137,136;,
 3;144,145,139;,
 3;144,139,138;,
 3;145,146,140;,
 3;145,140,139;,
 3;146,147,141;,
 3;146,141,140;,
 3;147,148,142;,
 3;147,142,141;,
 3;148,149,143;,
 3;148,143,142;,
 3;150,146,145;,
 3;150,151,146;,
 3;151,152,147;,
 3;151,147,146;,
 3;147,152,153;,
 3;153,148,147;,
 3;167,166,165;,
 3;167,165,164;,
 3;166,167,168;,
 3;166,168,169;,
 3;171,170,169;,
 3;171,169,168;,
 3;165,166,169;,
 3;165,169,170;,
 3;172,173,174;,
 3;172,174,175;,
 3;177,176,175;,
 3;177,175,174;,
 3;176,177,178;,
 3;176,178,179;,
 3;172,175,176;,
 3;172,176,179;,
 3;180,181,183;,
 3;180,183,182;,
 3;182,183,185;,
 3;182,185,184;,
 3;184,185,187;,
 3;184,187,186;,
 3;186,187,189;,
 3;186,189,188;,
 3;188,189,191;,
 3;188,191,190;,
 3;182,184,192;,
 3;186,194,192;,
 3;186,192,184;,
 3;186,188,194;,
 3;193,185,183;,
 3;185,193,195;,
 3;185,195,187;,
 3;195,189,187;,
 3;196,197,199;,
 3;196,199,198;,
 3;198,199,201;,
 3;198,201,200;,
 3;200,201,203;,
 3;200,203,202;,
 3;204,205,213;,
 3;204,213,212;,
 3;212,213,205;,
 3;212,205,204;,
 3;205,206,214;,
 3;205,214,213;,
 3;213,214,206;,
 3;213,206,205;,
 3;206,207,215;,
 3;206,215,214;,
 3;214,215,207;,
 3;214,207,206;,
 3;207,208,216;,
 3;207,216,215;,
 3;215,216,208;,
 3;215,208,207;,
 3;208,209,217;,
 3;208,217,216;,
 3;216,217,209;,
 3;216,209,208;,
 3;209,210,218;,
 3;209,218,217;,
 3;217,218,210;,
 3;217,210,209;,
 3;210,211,219;,
 3;210,219,218;,
 3;218,219,211;,
 3;218,211,210;,
 3;212,213,221;,
 3;212,221,220;,
 3;220,221,213;,
 3;220,213,212;,
 3;213,214,222;,
 3;213,222,221;,
 3;221,222,214;,
 3;221,214,213;,
 3;214,215,223;,
 3;214,223,222;,
 3;222,223,215;,
 3;222,215,214;,
 3;215,216,224;,
 3;215,224,223;,
 3;223,224,216;,
 3;223,216,215;,
 3;216,217,225;,
 3;216,225,224;,
 3;224,225,217;,
 3;224,217,216;,
 3;217,218,226;,
 3;217,226,225;,
 3;225,226,218;,
 3;225,218,217;,
 3;218,219,227;,
 3;218,227,226;,
 3;226,227,219;,
 3;226,219,218;,
 3;228,229,232;,
 3;228,232,231;,
 3;231,232,229;,
 3;231,229,228;,
 3;229,230,233;,
 3;229,233,232;,
 3;232,233,230;,
 3;232,230,229;,
 3;234,235,238;,
 3;234,238,237;,
 3;237,238,235;,
 3;237,235,234;,
 3;235,236,239;,
 3;235,239,238;,
 3;238,239,236;,
 3;238,236,235;,
 3;243,242,241;,
 3;243,241,240;,
 3;246,247,245;,
 3;246,245,244;,
 3;248,249,247;,
 3;248,247,246;,
 3;250,251,249;,
 3;250,249,248;,
 3;252,253,251;,
 3;252,251,250;,
 3;254,255,253;,
 3;254,253,252;,
 3;256,257,255;,
 3;256,255,254;,
 3;258,259,257;,
 3;258,257,256;,
 3;244,245,259;,
 3;244,259,258;,
 3;263,262,261;,
 3;263,261,260;,
 3;268,269,265;,
 3;268,265,264;,
 3;266,267,271;,
 3;266,271,270;,
 3;264,266,270;,
 3;264,270,268;,
 3;269,271,267;,
 3;269,267,265;,
 3;272,273,269;,
 3;272,269,268;,
 3;270,271,275;,
 3;270,275,274;,
 3;268,270,274;,
 3;268,274,272;,
 3;273,275,271;,
 3;273,271,269;,
 3;279,278,277;,
 3;279,277,276;,
 3;278,279,280;,
 3;278,280,281;,
 3;283,282,281;,
 3;283,281,280;,
 3;276,277,282;,
 3;276,282,283;,
 3;277,278,281;,
 3;277,281,282;,
 3;283,280,279;,
 3;283,279,276;,
 3;285,284,286;,
 3;285,286,287;,
 3;287,286,288;,
 3;287,288,289;,
 3;289,288,290;,
 3;289,290,291;,
 3;291,290,292;,
 3;291,292,293;,
 3;293,292,294;,
 3;293,294,295;,
 3;295,294,296;,
 3;295,296,297;,
 3;297,296,298;,
 3;297,298,299;,
 3;299,298,300;,
 3;299,300,301;,
 3;301,300,302;,
 3;301,302,303;,
 3;303,302,284;,
 3;303,284,285;,
 3;302,300,298;,
 3;302,298,296;,
 3;302,296,294;,
 3;302,294,292;,
 3;302,292,290;,
 3;302,290,288;,
 3;302,288,286;,
 3;302,286,284;,
 3;285,287,289;,
 3;285,289,291;,
 3;285,291,293;,
 3;285,293,295;,
 3;285,295,297;,
 3;285,297,299;,
 3;285,299,301;,
 3;285,301,303;,
 3;304,305,309;,
 3;304,309,308;,
 3;310,311,307;,
 3;310,307,306;,
 3;308,310,306;,
 3;308,306,304;,
 3;305,307,311;,
 3;305,311,309;,
 3;308,309,312;,
 3;312,311,310;,
 3;312,310,308;,
 3;309,311,312;,
 3;314,313,315;,
 3;314,315,316;,
 3;316,315,317;,
 3;316,317,318;,
 3;318,317,319;,
 3;318,319,320;,
 3;320,319,321;,
 3;320,321,322;,
 3;322,321,313;,
 3;322,313,314;,
 3;321,319,317;,
 3;321,317,315;,
 3;321,315,313;,
 3;314,316,318;,
 3;314,318,320;,
 3;314,320,322;,
 3;324,323,325;,
 3;324,325,326;,
 3;326,325,327;,
 3;326,327,328;,
 3;328,327,329;,
 3;328,329,330;,
 3;330,329,331;,
 3;330,331,332;,
 3;332,331,323;,
 3;332,323,324;,
 3;331,329,327;,
 3;331,327,325;,
 3;331,325,323;,
 3;324,326,328;,
 3;324,328,330;,
 3;324,330,332;,
 3;334,333,335;,
 3;334,335,336;,
 3;336,335,337;,
 3;336,337,338;,
 3;338,337,339;,
 3;338,339,340;,
 3;340,339,341;,
 3;340,341,342;,
 3;342,341,333;,
 3;342,333,334;,
 3;341,339,337;,
 3;341,337,335;,
 3;341,335,333;,
 3;334,336,338;,
 3;334,338,340;,
 3;334,340,342;,
 3;344,343,345;,
 3;344,345,346;,
 3;346,345,347;,
 3;346,347,348;,
 3;348,347,349;,
 3;348,349,350;,
 3;350,349,351;,
 3;350,351,352;,
 3;352,351,343;,
 3;352,343,344;,
 3;351,349,347;,
 3;351,347,345;,
 3;351,345,343;,
 3;344,346,348;,
 3;344,348,350;,
 3;344,350,352;,
 3;354,353,355;,
 3;354,355,356;,
 3;356,355,357;,
 3;356,357,358;,
 3;358,357,359;,
 3;358,359,360;,
 3;360,359,361;,
 3;360,361,362;,
 3;362,361,353;,
 3;362,353,354;,
 3;361,359,357;,
 3;361,357,355;,
 3;361,355,353;,
 3;354,356,358;,
 3;354,358,360;,
 3;354,360,362;,
 3;364,363,365;,
 3;364,365,366;,
 3;366,365,367;,
 3;366,367,368;,
 3;368,367,369;,
 3;368,369,370;,
 3;370,369,371;,
 3;370,371,372;,
 3;372,371,363;,
 3;372,363,364;,
 3;371,369,367;,
 3;371,367,365;,
 3;371,365,363;,
 3;364,366,368;,
 3;364,368,370;,
 3;364,370,372;,
 3;374,373,375;,
 3;374,375,376;,
 3;376,375,377;,
 3;376,377,378;,
 3;378,377,379;,
 3;378,379,380;,
 3;380,379,373;,
 3;380,373,374;,
 3;379,377,375;,
 3;379,375,373;,
 3;374,376,378;,
 3;374,378,380;,
 3;382,381,383;,
 3;382,383,384;,
 3;384,383,385;,
 3;384,385,386;,
 3;386,385,387;,
 3;386,387,388;,
 3;388,387,381;,
 3;388,381,382;,
 3;387,385,383;,
 3;387,383,381;,
 3;382,384,386;,
 3;382,386,388;,
 3;390,389,391;,
 3;390,391,392;,
 3;392,391,393;,
 3;392,393,394;,
 3;394,393,395;,
 3;394,395,396;,
 3;396,395,389;,
 3;396,389,390;,
 3;395,393,391;,
 3;395,391,389;,
 3;390,392,394;,
 3;390,394,396;,
 3;398,397,399;,
 3;398,399,400;,
 3;400,399,401;,
 3;400,401,402;,
 3;402,401,403;,
 3;402,403,404;,
 3;404,403,397;,
 3;404,397,398;,
 3;403,401,399;,
 3;403,399,397;,
 3;398,400,402;,
 3;398,402,404;,
 3;405,406,407;,
 3;405,407,408;,
 3;410,409,408;,
 3;410,408,407;,
 3;409,410,411;,
 3;409,411,412;,
 3;412,411,406;,
 3;412,406,405;,
 3;405,408,409;,
 3;405,409,412;,
 3;411,410,407;,
 3;411,407,406;,
 3;413,414,415;,
 3;413,415,416;,
 3;418,417,416;,
 3;418,416,415;,
 3;417,418,419;,
 3;417,419,420;,
 3;420,419,414;,
 3;420,414,413;,
 3;421,422,423;,
 3;421,423,424;,
 3;426,425,424;,
 3;426,424,423;,
 3;425,426,427;,
 3;425,427,428;,
 3;428,427,422;,
 3;428,422,421;,
 3;429,430,431;,
 3;429,431,432;,
 3;434,433,432;,
 3;434,432,431;,
 3;433,434,435;,
 3;433,435,436;,
 3;436,435,430;,
 3;436,430,429;,
 3;440,439,438;,
 3;440,438,437;,
 3;439,440,441;,
 3;439,441,442;,
 3;444,443,442;,
 3;444,442,441;,
 3;437,438,443;,
 3;437,443,444;,
 3;448,447,446;,
 3;448,446,445;,
 3;445,446,447;,
 3;445,447,448;,
 3;447,448,449;,
 3;447,449,450;,
 3;450,449,448;,
 3;450,448,447;,
 3;452,451,450;,
 3;452,450,449;,
 3;449,450,451;,
 3;449,451,452;;

 MeshMaterialList  {
  35;
  630;
  0,
  0,
  0,
  0,
  0,
  0,
  0,
  0,
  0,
  0,
  0,
  0,
  0,
  0,
  0,
  0,
  0,
  0,
  0,
  0,
  0,
  0,
  0,
  0,
  0,
  1,
  1,
  1,
  1,
  1,
  1,
  1,
  1,
  1,
  1,
  1,
  1,
  1,
  1,
  1,
  1,
  1,
  1,
  1,
  1,
  1,
  1,
  1,
  1,
  1,
  2,
  2,
  2,
  2,
  2,
  2,
  2,
  2,
  2,
  2,
  3,
  3,
  3,
  3,
  3,
  3,
  3,
  3,
  3,
  3,
  3,
  3,
  3,
  3,
  3,
  3,
  3,
  3,
  3,
  3,
  3,
  3,
  3,
  3,
  3,
  3,
  3,
  3,
  3,
  3,
  3,
  3,
  3,
  3,
  3,
  3,
  3,
  3,
  3,
  3,
  3,
  3,
  3,
  3,
  3,
  3,
  3,
  3,
  3,
  3,
  3,
  3,
  3,
  3,
  3,
  3,
  3,
  3,
  3,
  3,
  3,
  3,
  3,
  3,
  3,
  3,
  3,
  3,
  3,
  3,
  3,
  3,
  3,
  3,
  3,
  3,
  3,
  3,
  3,
  3,
  3,
  3,
  3,
  3,
  3,
  3,
  3,
  3,
  3,
  3,
  3,
  3,
  3,
  3,
  3,
  3,
  3,
  3,
  3,
  3,
  3,
  3,
  3,
  3,
  3,
  3,
  3,
  3,
  3,
  3,
  4,
  4,
  4,
  4,
  4,
  4,
  4,
  4,
  4,
  4,
  4,
  4,
  4,
  4,
  4,
  4,
  4,
  4,
  4,
  4,
  4,
  4,
  4,
  4,
  4,
  4,
  4,
  4,
  4,
  4,
  4,
  4,
  4,
  4,
  4,
  4,
  4,
  4,
  4,
  4,
  4,
  4,
  4,
  4,
  4,
  4,
  4,
  4,
  4,
  4,
  4,
  4,
  5,
  5,
  5,
  5,
  5,
  5,
  5,
  5,
  6,
  6,
  6,
  6,
  6,
  6,
  6,
  6,
  7,
  7,
  7,
  7,
  7,
  7,
  7,
  7,
  7,
  7,
  7,
  7,
  7,
  7,
  7,
  7,
  7,
  7,
  8,
  8,
  8,
  8,
  8,
  8,
  9,
  9,
  9,
  9,
  9,
  9,
  9,
  9,
  9,
  9,
  9,
  9,
  9,
  9,
  9,
  9,
  9,
  9,
  9,
  9,
  9,
  9,
  9,
  9,
  9,
  9,
  9,
  9,
  9,
  9,
  9,
  9,
  9,
  9,
  9,
  9,
  9,
  9,
  9,
  9,
  9,
  9,
  9,
  9,
  9,
  9,
  9,
  9,
  9,
  9,
  9,
  9,
  9,
  9,
  9,
  9,
  10,
  10,
  10,
  10,
  10,
  10,
  10,
  10,
  11,
  11,
  11,
  11,
  11,
  11,
  11,
  11,
  12,
  12,
  13,
  13,
  13,
  13,
  13,
  13,
  13,
  13,
  13,
  13,
  13,
  13,
  13,
  13,
  13,
  13,
  14,
  14,
  15,
  15,
  15,
  15,
  15,
  15,
  15,
  15,
  15,
  15,
  15,
  15,
  15,
  15,
  15,
  15,
  16,
  16,
  16,
  16,
  16,
  16,
  16,
  16,
  16,
  16,
  16,
  16,
  17,
  17,
  17,
  17,
  17,
  17,
  17,
  17,
  17,
  17,
  17,
  17,
  17,
  17,
  17,
  17,
  17,
  17,
  17,
  17,
  17,
  17,
  17,
  17,
  17,
  17,
  17,
  17,
  17,
  17,
  17,
  17,
  17,
  17,
  17,
  17,
  18,
  18,
  18,
  18,
  18,
  18,
  18,
  18,
  18,
  18,
  18,
  18,
  19,
  19,
  19,
  19,
  19,
  19,
  19,
  19,
  19,
  19,
  19,
  19,
  19,
  19,
  19,
  19,
  20,
  20,
  20,
  20,
  20,
  20,
  20,
  20,
  20,
  20,
  20,
  20,
  20,
  20,
  20,
  20,
  21,
  21,
  21,
  21,
  21,
  21,
  21,
  21,
  21,
  21,
  21,
  21,
  21,
  21,
  21,
  21,
  22,
  22,
  22,
  22,
  22,
  22,
  22,
  22,
  22,
  22,
  22,
  22,
  22,
  22,
  22,
  22,
  23,
  23,
  23,
  23,
  23,
  23,
  23,
  23,
  23,
  23,
  23,
  23,
  23,
  23,
  23,
  23,
  24,
  24,
  24,
  24,
  24,
  24,
  24,
  24,
  24,
  24,
  24,
  24,
  24,
  24,
  24,
  24,
  25,
  25,
  25,
  25,
  25,
  25,
  25,
  25,
  25,
  25,
  25,
  25,
  26,
  26,
  26,
  26,
  26,
  26,
  26,
  26,
  26,
  26,
  26,
  26,
  27,
  27,
  27,
  27,
  27,
  27,
  27,
  27,
  27,
  27,
  27,
  27,
  28,
  28,
  28,
  28,
  28,
  28,
  28,
  28,
  28,
  28,
  28,
  28,
  29,
  29,
  29,
  29,
  29,
  29,
  29,
  29,
  29,
  29,
  29,
  29,
  30,
  30,
  30,
  30,
  30,
  30,
  30,
  30,
  31,
  31,
  31,
  31,
  31,
  31,
  31,
  31,
  32,
  32,
  32,
  32,
  32,
  32,
  32,
  32,
  33,
  33,
  33,
  33,
  33,
  33,
  33,
  33,
  34,
  34,
  34,
  34,
  34,
  34,
  34,
  34,
  34,
  34,
  34,
  34;

  Material  {
   1.000000;1.000000;1.000000;1.000000;;
   0.000000;
   0.000000;0.000000;0.000000;;
   0.000000;0.000000;0.000000;;

   TextureFilename  {
    "Mc373s2.png";
   }
  }

  Material  {
   1.000000;1.000000;1.000000;1.000000;;
   0.000000;
   0.000000;0.000000;0.000000;;
   0.000000;0.000000;0.000000;;

   TextureFilename  {
    "Mc373s1.png";
   }
  }

  Material  {
   1.000000;1.000000;1.000000;1.000000;;
   0.000000;
   0.000000;0.000000;0.000000;;
   0.000000;0.000000;0.000000;;

   TextureFilename  {
    "373t.png";
   }
  }

  Material  {
   1.000000;1.000000;1.000000;1.000000;;
   0.000000;
   0.000000;0.000000;0.000000;;
   0.000000;0.000000;0.000000;;

   TextureFilename  {
    "373fb.png";
   }
  }

  Material  {
   1.000000;1.000000;1.000000;1.000000;;
   0.000000;
   0.000000;0.000000;0.000000;;
   0.000000;0.000000;0.000000;;

   TextureFilename  {
    "373r.png";
   }
  }

  Material  {
   1.000000;1.000000;1.000000;1.000000;;
   0.000000;
   0.000000;0.000000;0.000000;;
   0.000000;0.000000;0.000000;;

   TextureFilename  {
    "co2.png";
   }
  }

  Material  {
   1.000000;1.000000;1.000000;1.000000;;
   0.000000;
   0.000000;0.000000;0.000000;;
   0.000000;0.000000;0.000000;;

   TextureFilename  {
    "co2.png";
   }
  }

  Material  {
   1.000000;1.000000;1.000000;1.000000;;
   0.000000;
   0.000000;0.000000;0.000000;;
   0.000000;0.000000;0.000000;;

   TextureFilename  {
    "co1.png";
   }
  }

  Material  {
   1.000000;1.000000;1.000000;1.000000;;
   0.000000;
   0.000000;0.000000;0.000000;;
   0.000000;0.000000;0.000000;;

   TextureFilename  {
    "co2.png";
   }
  }

  Material  {
   1.000000;1.000000;1.000000;1.000000;;
   0.000000;
   0.000000;0.000000;0.000000;;
   0.000000;0.000000;0.000000;;

   TextureFilename  {
    "373sk.png";
   }
  }

  Material  {
   1.000000;1.000000;1.000000;1.000000;;
   0.000000;
   0.000000;0.000000;0.000000;;
   0.000000;0.000000;0.000000;;

   TextureFilename  {
    "373sk2.png";
   }
  }

  Material  {
   1.000000;1.000000;1.000000;1.000000;;
   0.000000;
   0.000000;0.000000;0.000000;;
   0.000000;0.000000;0.000000;;

   TextureFilename  {
    "373sk2.png";
   }
  }

  Material  {
   1.000000;1.000000;1.000000;1.000000;;
   0.000000;
   0.000000;0.000000;0.000000;;
   0.000000;0.000000;0.000000;;

   TextureFilename  {
    "373sk3.png";
   }
  }

  Material  {
   0.078431;0.078431;0.078431;1.000000;;
   0.000000;
   0.000000;0.000000;0.000000;;
   0.000000;0.000000;0.000000;;
  }

  Material  {
   1.000000;1.000000;1.000000;1.000000;;
   0.000000;
   0.000000;0.000000;0.000000;;
   0.000000;0.000000;0.000000;;

   TextureFilename  {
    "373sk4.png";
   }
  }

  Material  {
   1.000000;1.000000;1.000000;1.000000;;
   0.000000;
   0.000000;0.000000;0.000000;;
   0.000000;0.000000;0.000000;;

   TextureFilename  {
    "373sk5.png";
   }
  }

  Material  {
   0.282353;0.239216;0.188235;1.000000;;
   0.000000;
   0.000000;0.000000;0.000000;;
   0.000000;0.000000;0.000000;;
  }

  Material  {
   0.509804;0.509804;0.509804;1.000000;;
   0.000000;
   0.000000;0.000000;0.000000;;
   0.000000;0.000000;0.000000;;
  }

  Material  {
   1.000000;1.000000;1.000000;1.000000;;
   0.000000;
   0.000000;0.000000;0.000000;;
   0.000000;0.000000;0.000000;;

   TextureFilename  {
    "connect.png";
   }
  }

  Material  {
   0.588235;0.588235;0.588235;1.000000;;
   0.000000;
   0.000000;0.000000;0.000000;;
   0.000000;0.000000;0.000000;;
  }

  Material  {
   0.588235;0.588235;0.588235;1.000000;;
   0.000000;
   0.000000;0.000000;0.000000;;
   0.000000;0.000000;0.000000;;
  }

  Material  {
   0.588235;0.588235;0.588235;1.000000;;
   0.000000;
   0.000000;0.000000;0.000000;;
   0.000000;0.000000;0.000000;;
  }

  Material  {
   0.588235;0.588235;0.588235;1.000000;;
   0.000000;
   0.000000;0.000000;0.000000;;
   0.000000;0.000000;0.000000;;
  }

  Material  {
   0.588235;0.588235;0.588235;1.000000;;
   0.000000;
   0.000000;0.000000;0.000000;;
   0.000000;0.000000;0.000000;;
  }

  Material  {
   0.588235;0.588235;0.588235;1.000000;;
   0.000000;
   0.000000;0.000000;0.000000;;
   0.000000;0.000000;0.000000;;
  }

  Material  {
   0.666667;0.666667;0.666667;1.000000;;
   0.000000;
   0.000000;0.000000;0.000000;;
   0.000000;0.000000;0.000000;;
  }

  Material  {
   0.666667;0.666667;0.666667;1.000000;;
   0.000000;
   0.000000;0.000000;0.000000;;
   0.000000;0.000000;0.000000;;
  }

  Material  {
   0.666667;0.666667;0.666667;1.000000;;
   0.000000;
   0.000000;0.000000;0.000000;;
   0.000000;0.000000;0.000000;;
  }

  Material  {
   0.666667;0.666667;0.666667;1.000000;;
   0.000000;
   0.000000;0.000000;0.000000;;
   0.000000;0.000000;0.000000;;
  }

  Material  {
   0.509804;0.509804;0.509804;1.000000;;
   0.000000;
   0.000000;0.000000;0.000000;;
   0.000000;0.000000;0.000000;;
  }

  Material  {
   0.588235;0.588235;0.588235;1.000000;;
   0.000000;
   0.000000;0.000000;0.000000;;
   0.000000;0.000000;0.000000;;
  }

  Material  {
   0.588235;0.588235;0.588235;1.000000;;
   0.000000;
   0.000000;0.000000;0.000000;;
   0.000000;0.000000;0.000000;;
  }

  Material  {
   0.509804;0.509804;0.509804;1.000000;;
   0.000000;
   0.000000;0.000000;0.000000;;
   0.000000;0.000000;0.000000;;
  }

  Material  {
   0.588235;0.588235;0.588235;1.000000;;
   0.000000;
   0.000000;0.000000;0.000000;;
   0.000000;0.000000;0.000000;;
  }

  Material  {
   1.000000;1.000000;1.000000;1.000000;;
   0.000000;
   0.000000;0.000000;0.000000;;
   0.000000;0.000000;0.000000;;

   TextureFilename  {
    "Pan2.png";
   }
  }
 }

 MeshTextureCoords  {
  453;
  1.000000;0.995000;,
  1.000000;0.757400;,
  1.000000;0.084200;,
  1.000000;0.005000;,
  0.086538;0.995000;,
  0.086538;0.757400;,
  0.086538;0.084200;,
  0.086538;0.005000;,
  0.057692;0.995000;,
  0.057692;0.757400;,
  0.057692;0.096080;,
  0.057692;0.016880;,
  0.038462;0.995000;,
  0.038462;0.757400;,
  0.038462;0.123800;,
  0.038462;0.044600;,
  0.029808;0.995000;,
  0.028846;0.955400;,
  0.028846;0.797000;,
  0.028846;0.757400;,
  0.028846;0.123800;,
  1.000000;0.995000;,
  1.000000;0.757400;,
  1.000000;0.084200;,
  1.000000;0.005000;,
  0.086538;0.995000;,
  0.086538;0.757400;,
  0.086538;0.084200;,
  0.086538;0.005000;,
  0.057692;0.995000;,
  0.057692;0.757400;,
  0.057692;0.096080;,
  0.057692;0.016880;,
  0.038462;0.995000;,
  0.038462;0.757400;,
  0.038462;0.123800;,
  0.038462;0.044600;,
  0.029808;0.995000;,
  0.028846;0.955400;,
  0.028846;0.797000;,
  0.028846;0.757400;,
  0.028846;0.123800;,
  0.000000;1.000000;,
  0.000000;0.000000;,
  1.000000;0.000000;,
  1.000000;1.000000;,
  0.000000;0.000000;,
  0.000000;0.000000;,
  0.000000;0.000000;,
  0.000000;0.000000;,
  0.000000;0.000000;,
  0.000000;0.000000;,
  0.000000;0.000000;,
  0.000000;0.000000;,
  0.934340;0.995000;,
  0.947913;0.955400;,
  0.976247;0.797000;,
  0.966067;0.757400;,
  0.966067;0.123800;,
  0.954700;0.044600;,
  0.900407;0.995000;,
  0.913980;0.955400;,
  0.942314;0.797000;,
  0.932134;0.757400;,
  0.932134;0.123800;,
  0.886834;0.044600;,
  0.866474;0.995000;,
  0.880048;0.955400;,
  0.908381;0.797000;,
  0.898202;0.757400;,
  0.898202;0.123800;,
  0.852901;0.044600;,
  0.798609;0.995000;,
  0.812182;0.955400;,
  0.840516;0.797000;,
  0.830336;0.757400;,
  0.830336;0.123800;,
  0.785036;0.044600;,
  0.734136;0.995000;,
  0.747710;0.955400;,
  0.760180;0.797000;,
  0.750000;0.757400;,
  0.750000;0.123800;,
  0.727350;0.044600;,
  0.601798;0.995000;,
  0.601798;0.955400;,
  0.601798;0.797000;,
  0.601798;0.757400;,
  0.601798;0.123800;,
  0.601798;0.044600;,
  0.398202;0.995000;,
  0.398202;0.955400;,
  0.398202;0.797000;,
  0.398202;0.757400;,
  0.398202;0.123800;,
  0.398202;0.044600;,
  0.265864;0.995000;,
  0.252290;0.955400;,
  0.239820;0.797000;,
  0.250000;0.757400;,
  0.250000;0.123800;,
  0.272650;0.044600;,
  0.201391;0.995000;,
  0.187818;0.955400;,
  0.159484;0.797000;,
  0.169664;0.757400;,
  0.169664;0.123800;,
  0.214964;0.044600;,
  0.133526;0.995000;,
  0.119952;0.955400;,
  0.091619;0.797000;,
  0.101798;0.757400;,
  0.101798;0.123800;,
  0.147099;0.044600;,
  0.099593;0.995000;,
  0.086020;0.955400;,
  0.061079;0.797000;,
  0.067866;0.757400;,
  0.067866;0.123800;,
  0.099593;0.044600;,
  0.065660;0.995000;,
  0.052087;0.955400;,
  0.030540;0.797000;,
  0.033933;0.757400;,
  0.033933;0.123800;,
  0.045300;0.044600;,
  1.000000;1.000000;,
  1.000000;0.873134;,
  1.000000;0.611940;,
  1.000000;0.388060;,
  1.000000;0.126866;,
  1.000000;0.000000;,
  0.086538;1.000000;,
  0.086538;0.873134;,
  0.086538;0.611940;,
  0.086538;0.388060;,
  0.086538;0.126866;,
  0.086538;0.000000;,
  0.057692;1.000000;,
  0.057692;0.873134;,
  0.057692;0.611940;,
  0.057692;0.388060;,
  0.057692;0.126866;,
  0.057692;0.000000;,
  0.038462;1.000000;,
  0.038462;0.873134;,
  0.038462;0.611940;,
  0.038462;0.388060;,
  0.038462;0.126866;,
  0.038462;0.000000;,
  0.028846;0.742537;,
  0.019231;0.611940;,
  0.019231;0.388060;,
  0.028846;0.257463;,
  0.031250;0.940298;,
  0.026442;0.888060;,
  0.019231;0.813433;,
  0.014423;0.750000;,
  0.009615;0.611940;,
  0.009615;0.388060;,
  0.014423;0.250000;,
  0.019231;0.186567;,
  0.026442;0.111940;,
  0.031250;0.059701;,
  1.000000;1.000000;,
  0.000000;1.000000;,
  0.000000;0.900000;,
  1.000000;0.900000;,
  1.000000;0.100000;,
  0.000000;0.100000;,
  0.000000;0.000000;,
  1.000000;0.000000;,
  1.000000;1.000000;,
  0.000000;1.000000;,
  0.000000;0.900000;,
  1.000000;0.900000;,
  1.000000;0.100000;,
  0.000000;0.100000;,
  0.000000;0.000000;,
  1.000000;0.000000;,
  1.000000;1.000000;,
  0.000000;1.000000;,
  0.980000;0.850000;,
  0.020000;0.850000;,
  0.937000;0.620000;,
  0.063000;0.620000;,
  0.937000;0.380000;,
  0.063000;0.380000;,
  0.980000;0.150000;,
  0.020000;0.150000;,
  1.000000;0.000000;,
  0.000000;0.000000;,
  1.000000;0.620000;,
  0.000000;0.620000;,
  1.000000;0.380000;,
  0.000000;0.380000;,
  1.000000;1.000000;,
  0.850000;0.000000;,
  0.620000;1.000000;,
  0.380000;0.000000;,
  0.620000;1.000000;,
  0.380000;0.000000;,
  0.150000;1.000000;,
  0.000000;0.000000;,
  0.000000;0.000000;,
  0.105839;0.000000;,
  0.262774;0.000000;,
  0.335766;0.000000;,
  0.664234;0.000000;,
  0.737226;0.000000;,
  0.894161;0.000000;,
  1.000000;0.000000;,
  0.036496;0.750000;,
  0.142336;0.750000;,
  0.299270;0.750000;,
  0.372263;0.750000;,
  0.627737;0.750000;,
  0.700730;0.750000;,
  0.857664;0.750000;,
  0.963504;0.750000;,
  0.072993;1.000000;,
  0.178832;1.000000;,
  0.335766;1.000000;,
  0.408759;1.000000;,
  0.591241;1.000000;,
  0.664234;1.000000;,
  0.821168;1.000000;,
  0.927007;1.000000;,
  0.000000;0.000000;,
  0.095240;0.750000;,
  0.095240;1.000000;,
  1.000000;0.000000;,
  0.619050;0.750000;,
  0.476190;1.000000;,
  0.000000;0.000000;,
  0.095240;0.750000;,
  0.095240;1.000000;,
  1.000000;0.000000;,
  0.619050;0.750000;,
  0.476190;1.000000;,
  0.000000;0.970000;,
  0.000000;0.010000;,
  1.000000;0.010000;,
  1.000000;0.970000;,
  0.000000;0.000000;,
  0.000000;0.000000;,
  0.000000;0.000000;,
  0.000000;0.000000;,
  0.000000;0.000000;,
  0.000000;0.000000;,
  0.000000;0.000000;,
  0.000000;0.000000;,
  0.000000;0.000000;,
  0.000000;0.000000;,
  0.000000;0.000000;,
  0.000000;0.000000;,
  0.000000;0.000000;,
  0.000000;0.000000;,
  0.000000;0.000000;,
  0.000000;0.000000;,
  1.000000;1.000000;,
  1.000000;0.000000;,
  0.000000;0.000000;,
  0.000000;1.000000;,
  1.000000;1.000000;,
  1.000000;0.750000;,
  1.000000;0.250000;,
  1.000000;0.000000;,
  0.400000;1.000000;,
  0.400000;0.750000;,
  0.400000;0.250000;,
  0.400000;0.000000;,
  0.000000;1.000000;,
  0.000000;0.750000;,
  0.000000;0.250000;,
  0.000000;0.000000;,
  0.000000;0.000000;,
  0.000000;0.000000;,
  0.000000;0.000000;,
  0.000000;0.000000;,
  0.000000;0.000000;,
  0.000000;0.000000;,
  0.000000;0.000000;,
  0.000000;0.000000;,
  0.000000;0.000000;,
  0.000000;0.000000;,
  0.000000;0.000000;,
  0.000000;0.000000;,
  0.000000;0.000000;,
  0.000000;0.000000;,
  0.000000;0.000000;,
  0.000000;0.000000;,
  0.000000;0.000000;,
  0.000000;0.000000;,
  0.000000;0.000000;,
  0.000000;0.000000;,
  0.000000;0.000000;,
  0.000000;0.000000;,
  0.000000;0.000000;,
  0.000000;0.000000;,
  0.000000;0.000000;,
  0.000000;0.000000;,
  0.000000;0.000000;,
  0.000000;0.000000;,
  0.000000;1.000000;,
  0.000000;0.000000;,
  1.000000;1.000000;,
  1.000000;0.000000;,
  0.010000;0.990000;,
  0.010000;0.010000;,
  0.990000;0.990000;,
  0.990000;0.010000;,
  0.500000;0.500000;,
  0.000000;0.000000;,
  0.000000;0.000000;,
  0.000000;0.000000;,
  0.000000;0.000000;,
  0.000000;0.000000;,
  0.000000;0.000000;,
  0.000000;0.000000;,
  0.000000;0.000000;,
  0.000000;0.000000;,
  0.000000;0.000000;,
  0.000000;0.000000;,
  0.000000;0.000000;,
  0.000000;0.000000;,
  0.000000;0.000000;,
  0.000000;0.000000;,
  0.000000;0.000000;,
  0.000000;0.000000;,
  0.000000;0.000000;,
  0.000000;0.000000;,
  0.000000;0.000000;,
  0.000000;0.000000;,
  0.000000;0.000000;,
  0.000000;0.000000;,
  0.000000;0.000000;,
  0.000000;0.000000;,
  0.000000;0.000000;,
  0.000000;0.000000;,
  0.000000;0.000000;,
  0.000000;0.000000;,
  0.000000;0.000000;,
  0.000000;0.000000;,
  0.000000;0.000000;,
  0.000000;0.000000;,
  0.000000;0.000000;,
  0.000000;0.000000;,
  0.000000;0.000000;,
  0.000000;0.000000;,
  0.000000;0.000000;,
  0.000000;0.000000;,
  0.000000;0.000000;,
  0.000000;0.000000;,
  0.000000;0.000000;,
  0.000000;0.000000;,
  0.000000;0.000000;,
  0.000000;0.000000;,
  0.000000;0.000000;,
  0.000000;0.000000;,
  0.000000;0.000000;,
  0.000000;0.000000;,
  0.000000;0.000000;,
  0.000000;0.000000;,
  0.000000;0.000000;,
  0.000000;0.000000;,
  0.000000;0.000000;,
  0.000000;0.000000;,
  0.000000;0.000000;,
  0.000000;0.000000;,
  0.000000;0.000000;,
  0.000000;0.000000;,
  0.000000;0.000000;,
  0.000000;0.000000;,
  0.000000;0.000000;,
  0.000000;0.000000;,
  0.000000;0.000000;,
  0.000000;0.000000;,
  0.000000;0.000000;,
  0.000000;0.000000;,
  0.000000;0.000000;,
  0.000000;0.000000;,
  0.000000;0.000000;,
  0.000000;0.000000;,
  0.000000;0.000000;,
  0.000000;0.000000;,
  0.000000;0.000000;,
  0.000000;0.000000;,
  0.000000;0.000000;,
  0.000000;0.000000;,
  0.000000;0.000000;,
  0.000000;0.000000;,
  0.000000;0.000000;,
  0.000000;0.000000;,
  0.000000;0.000000;,
  0.000000;0.000000;,
  0.000000;0.000000;,
  0.000000;0.000000;,
  0.000000;0.000000;,
  0.000000;0.000000;,
  0.000000;0.000000;,
  0.000000;0.000000;,
  0.000000;0.000000;,
  0.000000;0.000000;,
  0.000000;0.000000;,
  0.000000;0.000000;,
  0.000000;0.000000;,
  0.000000;0.000000;,
  0.000000;0.000000;,
  0.000000;0.000000;,
  0.000000;0.000000;,
  0.000000;0.000000;,
  0.000000;0.000000;,
  0.000000;0.000000;,
  0.000000;0.000000;,
  0.000000;0.000000;,
  0.000000;0.000000;,
  0.000000;0.000000;,
  0.000000;0.000000;,
  0.000000;0.000000;,
  0.000000;0.000000;,
  0.000000;0.000000;,
  0.000000;0.000000;,
  0.000000;0.000000;,
  0.000000;0.000000;,
  0.000000;0.000000;,
  0.000000;0.000000;,
  0.000000;0.000000;,
  0.000000;0.000000;,
  0.000000;0.000000;,
  0.000000;0.000000;,
  0.000000;0.000000;,
  0.000000;0.000000;,
  0.000000;0.000000;,
  0.000000;0.000000;,
  0.000000;0.000000;,
  0.000000;0.000000;,
  0.000000;0.000000;,
  0.000000;0.000000;,
  0.000000;0.000000;,
  0.000000;0.000000;,
  0.000000;0.000000;,
  0.000000;0.000000;,
  0.000000;0.000000;,
  0.000000;0.000000;,
  1.000000;1.000000;,
  0.000000;1.000000;,
  0.000000;0.900000;,
  1.000000;0.900000;,
  1.000000;0.100000;,
  0.000000;0.100000;,
  0.000000;0.000000;,
  1.000000;0.000000;;
 }

 MeshNormals  {
  562;
  -0.988075;-0.153975;0.000000;,
  -0.988075;-0.153975;0.000000;,
  -1.000000;0.000000;0.000000;,
  -1.000000;0.000000;0.000000;,
  -0.831730;0.555180;0.000000;,
  -0.831730;0.555180;0.000000;,
  -0.988075;-0.153975;0.000000;,
  -0.988075;-0.153975;0.000000;,
  -1.000000;0.000000;0.000000;,
  -1.000000;0.000000;0.000000;,
  -0.831410;0.554966;0.027748;,
  -0.831410;0.554966;0.027748;,
  -0.988075;-0.153975;0.000000;,
  -0.988075;-0.153975;0.000000;,
  -1.000000;0.000000;0.000000;,
  -1.000000;0.000000;0.000000;,
  -0.827832;0.552578;0.096701;,
  -0.827832;0.552578;0.096701;,
  -0.798118;-0.407928;0.443399;,
  -0.925646;-0.144247;0.349817;,
  -0.927452;-0.147233;0.343737;,
  -0.890871;0.089087;0.445435;,
  -0.894427;0.000000;0.447214;,
  -0.894427;0.000000;0.447214;,
  -0.767969;0.512619;0.383985;,
  0.988075;-0.153975;0.000000;,
  0.988075;-0.153975;0.000000;,
  1.000000;0.000000;0.000000;,
  1.000000;0.000000;0.000000;,
  0.831730;0.555180;0.000000;,
  0.831730;0.555180;0.000000;,
  0.988075;-0.153975;0.000000;,
  0.988075;-0.153975;0.000000;,
  1.000000;0.000000;0.000000;,
  1.000000;0.000000;0.000000;,
  0.831410;0.554966;0.027748;,
  0.831410;0.554966;0.027748;,
  0.988075;-0.153975;0.000000;,
  0.988075;-0.153975;0.000000;,
  1.000000;0.000000;0.000000;,
  1.000000;0.000000;0.000000;,
  0.827832;0.552578;0.096701;,
  0.827832;0.552578;0.096701;,
  0.798118;-0.407928;0.443399;,
  0.925646;-0.144247;0.349817;,
  0.927452;-0.147233;0.343737;,
  0.890871;0.089087;0.445435;,
  0.894427;0.000000;0.447214;,
  0.894427;0.000000;0.447214;,
  0.767969;0.512619;0.383985;,
  0.000000;0.000000;-1.000000;,
  0.000000;0.000000;-1.000000;,
  0.000000;0.000000;-1.000000;,
  0.000000;0.000000;-1.000000;,
  0.000000;0.000000;-1.000000;,
  0.000000;0.000000;-1.000000;,
  0.000000;0.000000;-1.000000;,
  0.000000;0.000000;-1.000000;,
  0.000000;0.000000;-1.000000;,
  0.000000;0.000000;-1.000000;,
  -0.760530;-0.405617;0.507020;,
  -0.760530;-0.405616;0.507020;,
  -0.847043;-0.155644;0.508226;,
  -0.824885;-0.130950;0.549924;,
  -0.820764;0.164153;0.547176;,
  -0.854358;0.085436;0.512615;,
  -0.832050;0.000000;0.554700;,
  -0.832050;0.000000;0.554700;,
  -0.471853;0.723901;0.503310;,
  -0.683542;0.570187;0.455694;,
  -0.650945;-0.390567;0.650945;,
  -0.650945;-0.390567;0.650944;,
  -0.734505;-0.153328;0.661054;,
  -0.701213;-0.128848;0.701213;,
  -0.691714;0.207515;0.691714;,
  -0.735215;0.147043;0.661693;,
  -0.707107;0.000000;0.707107;,
  -0.707107;0.000000;0.707107;,
  -0.371787;0.768669;0.520502;,
  -0.490670;0.720059;0.490671;,
  -0.557086;-0.371391;0.742781;,
  -0.557086;-0.371390;0.742781;,
  -0.595348;-0.124279;0.793798;,
  -0.595348;-0.124279;0.793798;,
  -0.590510;0.177153;0.787347;,
  -0.590510;0.177153;0.787347;,
  -0.600000;0.000000;0.800000;,
  -0.600000;0.000000;0.800000;,
  -0.384016;0.768352;0.512022;,
  -0.384016;0.768352;0.512022;,
  -0.437755;-0.341449;0.831735;,
  -0.437755;-0.341449;0.831735;,
  -0.388852;-0.035726;0.920607;,
  -0.463561;-0.096768;0.880765;,
  -0.386476;0.115943;0.914983;,
  -0.386476;0.115943;0.914983;,
  -0.389100;0.000000;0.921195;,
  -0.389100;0.000000;0.921195;,
  -0.352977;0.717867;0.600061;,
  -0.251448;0.763144;0.595303;,
  -0.222334;-0.191207;0.956037;,
  -0.238349;-0.281252;0.929563;,
  -0.209493;0.000000;0.977810;,
  -0.226464;-0.020806;0.973797;,
  -0.223188;0.000000;0.974775;,
  -0.209081;0.062724;0.975885;,
  -0.223188;0.000000;0.974775;,
  -0.223188;0.000000;0.974775;,
  -0.187713;0.694537;0.694537;,
  -0.153980;0.723897;0.672506;,
  0.000000;-0.196116;0.980581;,
  0.000000;-0.196116;0.980581;,
  0.000000;0.000000;1.000000;,
  0.000000;0.000000;1.000000;,
  0.000000;0.000000;1.000000;,
  0.000000;0.000000;1.000000;,
  0.000000;0.000000;1.000000;,
  0.000000;0.000000;1.000000;,
  0.000000;0.707107;0.707107;,
  0.000000;0.707107;0.707107;,
  0.217816;-0.274448;0.936608;,
  0.243842;-0.190196;0.950982;,
  0.209455;-0.019244;0.977629;,
  0.226514;0.000000;0.974008;,
  0.222690;0.066807;0.972598;,
  0.209493;0.000000;0.977810;,
  0.223188;0.000000;0.974775;,
  0.223188;0.000000;0.974775;,
  0.179718;0.724937;0.664957;,
  0.159821;0.698018;0.698018;,
  0.437755;-0.341449;0.831735;,
  0.437755;-0.341449;0.831735;,
  0.387823;-0.080958;0.918172;,
  0.465321;-0.042751;0.884109;,
  0.386476;0.115943;0.914983;,
  0.386476;0.115943;0.914983;,
  0.389100;0.000000;0.921195;,
  0.389100;0.000000;0.921195;,
  0.324527;0.768318;0.551696;,
  0.268203;0.724485;0.634972;,
  0.557086;-0.371390;0.742781;,
  0.557086;-0.371391;0.742781;,
  0.595348;-0.124279;0.793798;,
  0.595348;-0.124279;0.793798;,
  0.590510;0.177153;0.787346;,
  0.590510;0.177153;0.787347;,
  0.600000;0.000000;0.800000;,
  0.600000;0.000000;0.800000;,
  0.384016;0.768352;0.512022;,
  0.384016;0.768352;0.512022;,
  0.650944;-0.390567;0.650944;,
  0.650945;-0.390567;0.650944;,
  0.736457;-0.135324;0.662811;,
  0.699527;-0.146026;0.699527;,
  0.700140;0.140028;0.700140;,
  0.725476;0.217644;0.652928;,
  0.707107;0.000000;0.707107;,
  0.707107;0.000000;0.707107;,
  0.457363;0.762652;0.457363;,
  0.457363;0.762652;0.457363;,
  0.760530;-0.405616;0.507020;,
  0.760530;-0.405617;0.507020;,
  0.849657;-0.134883;0.509794;,
  0.822493;-0.151133;0.548329;,
  0.829185;0.082918;0.552790;,
  0.845154;0.169031;0.507093;,
  0.832050;0.000000;0.554700;,
  0.832050;0.000000;0.554700;,
  0.445866;0.669170;0.594488;,
  0.556894;0.742989;0.371263;,
  -0.333741;0.872862;0.355990;,
  -0.229658;0.918630;0.321521;,
  -0.229390;0.854781;0.465541;,
  -0.232202;0.922078;0.309603;,
  -0.199482;0.919351;0.339119;,
  -0.119995;0.887965;0.443982;,
  -0.157098;0.925607;0.344343;,
  0.000000;0.894427;0.447213;,
  0.000000;0.894427;0.447213;,
  0.094813;0.931636;0.350806;,
  0.212268;0.874045;0.437022;,
  0.232202;0.922078;0.309603;,
  0.199482;0.919351;0.339119;,
  0.205346;0.881373;0.425458;,
  0.289157;0.867473;0.404820;,
  0.333741;0.872862;0.355990;,
  -0.282166;0.959365;0.000000;,
  -0.282166;0.959365;0.000000;,
  -0.071247;0.997459;0.000000;,
  -0.071247;0.997459;0.000000;,
  0.000000;1.000000;0.000000;,
  0.000000;1.000000;0.000000;,
  0.071247;0.997459;0.000000;,
  0.071247;0.997459;0.000000;,
  0.282166;0.959365;0.000000;,
  0.282166;0.959365;0.000000;,
  -0.281842;0.958264;0.047913;,
  -0.281842;0.958264;0.047913;,
  -0.071159;0.996220;0.049811;,
  -0.071159;0.996220;0.049811;,
  0.000000;0.998752;0.049938;,
  0.000000;0.998752;0.049938;,
  0.071159;0.996220;0.049811;,
  0.071159;0.996220;0.049811;,
  0.281842;0.958264;0.047913;,
  0.281842;0.958264;0.047913;,
  -0.355589;0.930004;0.093000;,
  -0.278272;0.946124;0.165572;,
  -0.070895;0.992533;0.099253;,
  -0.070895;0.992533;0.099253;,
  0.000000;0.995037;0.099504;,
  0.000000;0.995037;0.099504;,
  0.070895;0.992533;0.099253;,
  0.070895;0.992533;0.099253;,
  0.352460;0.921818;0.161318;,
  0.280876;0.954981;0.095498;,
  -0.069870;0.978184;0.195636;,
  -0.069870;0.978184;0.195637;,
  0.000000;0.980581;0.196116;,
  0.000000;0.980581;0.196116;,
  0.069870;0.978184;0.195637;,
  0.069870;0.978184;0.195636;,
  -0.894427;0.447214;0.000000;,
  -0.894427;0.447214;0.000000;,
  0.000000;1.000000;0.000000;,
  0.000000;1.000000;0.000000;,
  0.894427;0.447214;0.000000;,
  0.894427;0.447214;0.000000;,
  0.000000;0.447215;-0.894427;,
  0.000000;0.447215;-0.894427;,
  -0.894427;0.447214;0.000000;,
  -0.894427;0.447214;0.000000;,
  0.000000;1.000000;0.000000;,
  0.000000;1.000000;0.000000;,
  0.894427;0.447214;0.000000;,
  0.894427;0.447214;0.000000;,
  0.000000;0.447215;-0.894427;,
  0.000000;0.447215;-0.894427;,
  -0.948683;0.316228;0.000000;,
  -0.948683;0.316228;0.000000;,
  -0.221621;0.975133;0.000000;,
  -0.221621;0.975133;0.000000;,
  0.000000;1.000000;0.000000;,
  0.000000;1.000000;0.000000;,
  0.221621;0.975133;0.000000;,
  0.221621;0.975133;0.000000;,
  0.948683;0.316228;0.000000;,
  0.948683;0.316228;0.000000;,
  -0.146725;0.968385;-0.201747;,
  0.000000;0.978980;-0.203954;,
  0.000000;0.978980;-0.203954;,
  0.146725;0.968385;-0.201747;,
  -0.146725;0.968385;0.201747;,
  0.000000;0.978980;0.203954;,
  0.000000;0.978980;0.203954;,
  0.146725;0.968385;0.201747;,
  -0.533202;0.422119;-0.733152;,
  -0.533202;0.422117;-0.733153;,
  0.000000;0.316226;-0.948684;,
  0.000000;0.316226;-0.948684;,
  0.533202;0.422117;-0.733152;,
  0.533201;0.422119;-0.733152;,
  0.788531;-0.226703;0.571685;,
  0.788531;-0.226703;0.571685;,
  -0.788531;0.226703;-0.571685;,
  -0.788531;0.226703;-0.571685;,
  0.490060;-0.222160;0.842903;,
  0.490060;-0.222161;0.842903;,
  -0.490060;0.222160;-0.842903;,
  -0.490060;0.222161;-0.842903;,
  0.237729;-0.198107;0.950915;,
  0.237729;-0.198107;0.950915;,
  -0.237729;0.198107;-0.950915;,
  -0.237729;0.198107;-0.950915;,
  0.000000;-0.164399;0.986394;,
  0.000000;-0.164399;0.986394;,
  0.000000;0.164399;-0.986394;,
  0.000000;0.164399;-0.986394;,
  -0.237729;-0.198107;0.950915;,
  -0.237729;-0.198107;0.950915;,
  0.237729;0.198107;-0.950915;,
  0.237729;0.198107;-0.950915;,
  -0.490060;-0.222161;0.842903;,
  -0.490060;-0.222160;0.842903;,
  0.490060;0.222161;-0.842903;,
  0.490060;0.222160;-0.842903;,
  -0.788531;-0.226703;0.571685;,
  -0.788531;-0.226703;0.571685;,
  0.788531;0.226703;-0.571685;,
  0.788531;0.226703;-0.571685;,
  0.783928;-0.249877;0.568347;,
  0.774912;-0.387456;0.499388;,
  -0.808411;0.273962;-0.520976;,
  -0.750455;0.375227;-0.544079;,
  0.502310;-0.035162;0.863973;,
  0.502310;-0.035162;0.863973;,
  -0.502310;0.035162;-0.863973;,
  -0.502310;0.035162;-0.863973;,
  0.240772;0.120386;0.963087;,
  0.240772;0.120386;0.963087;,
  -0.240772;-0.120386;-0.963087;,
  -0.240772;-0.120386;-0.963087;,
  0.000000;0.242536;0.970142;,
  0.000000;0.242536;0.970142;,
  0.000000;-0.242536;-0.970142;,
  0.000000;-0.242536;-0.970142;,
  -0.240772;0.120386;0.963087;,
  -0.240772;0.120386;0.963087;,
  0.240772;-0.120386;-0.963087;,
  0.240772;-0.120386;-0.963087;,
  -0.502310;-0.035162;0.863973;,
  -0.502310;-0.035162;0.863973;,
  0.502310;0.035162;-0.863973;,
  0.502310;0.035162;-0.863973;,
  -0.750455;-0.375227;0.544079;,
  -0.808411;-0.273962;0.520976;,
  0.774912;0.387456;-0.499388;,
  0.783928;0.249877;-0.568347;,
  0.986394;-0.164399;0.000000;,
  0.986394;-0.164399;0.000000;,
  -0.986394;0.164399;0.000000;,
  -0.986394;0.164399;0.000000;,
  0.894427;-0.447214;0.000000;,
  0.894427;-0.447214;0.000000;,
  -0.894427;0.447214;0.000000;,
  -0.894427;0.447214;0.000000;,
  0.986394;0.164399;0.000000;,
  0.986394;0.164399;0.000000;,
  -0.986394;-0.164399;0.000000;,
  -0.986394;-0.164399;0.000000;,
  0.894427;0.447214;0.000000;,
  0.894427;0.447214;0.000000;,
  -0.894427;-0.447214;0.000000;,
  -0.894427;-0.447214;0.000000;,
  0.000000;0.000000;1.000000;,
  0.000000;0.000000;1.000000;,
  -1.000000;0.000000;0.000000;,
  -1.000000;0.000000;0.000000;,
  -0.932005;0.000000;0.362446;,
  -0.932005;0.000000;0.362446;,
  -0.447214;0.000000;0.894427;,
  -0.447214;0.000000;0.894427;,
  0.000000;0.000000;1.000000;,
  0.000000;0.000000;1.000000;,
  0.447214;0.000000;0.894427;,
  0.447214;0.000000;0.894427;,
  0.932005;0.000000;0.362446;,
  0.932005;0.000000;0.362446;,
  1.000000;0.000000;0.000000;,
  1.000000;0.000000;0.000000;,
  0.000000;0.000000;-1.000000;,
  0.000000;0.000000;-1.000000;,
  0.000000;0.000000;1.000000;,
  0.000000;0.000000;1.000000;,
  -1.000000;0.000000;0.000000;,
  -1.000000;0.000000;0.000000;,
  1.000000;0.000000;0.000000;,
  1.000000;0.000000;0.000000;,
  0.000000;-1.000000;0.000000;,
  0.000000;-1.000000;0.000000;,
  0.000000;1.000000;0.000000;,
  0.000000;1.000000;0.000000;,
  -0.970142;0.000000;-0.242536;,
  -0.970142;0.000000;-0.242536;,
  0.970142;0.000000;-0.242536;,
  0.970142;0.000000;-0.242536;,
  0.000000;-0.995037;-0.099504;,
  0.000000;-0.995037;-0.099504;,
  0.000000;0.985031;-0.172380;,
  0.000000;0.985031;-0.172380;,
  -1.000000;0.000000;0.000000;,
  -1.000000;0.000000;0.000000;,
  0.000000;1.000000;0.000000;,
  0.000000;1.000000;0.000000;,
  1.000000;0.000000;0.000000;,
  1.000000;0.000000;0.000000;,
  0.000000;-1.000000;0.000000;,
  0.000000;-1.000000;0.000000;,
  0.000000;0.000000;-1.000000;,
  0.000000;0.000000;-1.000000;,
  0.000000;0.000000;1.000000;,
  0.000000;0.000000;1.000000;,
  0.698401;0.707107;-0.110616;,
  0.006136;-0.999981;0.000000;,
  0.309597;0.923880;0.224936;,
  0.500000;-0.707107;0.500000;,
  0.118256;0.923880;0.363954;,
  0.059865;-0.923879;0.377972;,
  -0.118256;0.923880;0.363954;,
  -0.173735;-0.923880;0.340973;,
  -0.309597;0.923880;0.224936;,
  -0.340973;-0.923880;0.173735;,
  -0.382683;0.923880;0.000000;,
  -0.377972;-0.923880;-0.059865;,
  -0.309597;0.923880;-0.224936;,
  -0.270598;-0.923880;-0.270598;,
  -0.118256;0.923880;-0.363954;,
  -0.059865;-0.923880;-0.377972;,
  0.218508;0.707107;-0.672498;,
  0.173735;-0.923880;-0.340973;,
  0.004964;0.999981;-0.003607;,
  0.630037;-0.707107;-0.321020;,
  1.000000;0.000000;0.000000;,
  1.000000;0.000000;0.000000;,
  -1.000000;0.000000;0.000000;,
  -1.000000;0.000000;0.000000;,
  0.000000;-1.000000;0.000000;,
  0.000000;-1.000000;0.000000;,
  0.000000;1.000000;0.000000;,
  0.000000;1.000000;0.000000;,
  0.838444;0.000000;0.544988;,
  -0.838444;0.000000;0.544988;,
  0.000000;-0.838444;0.544988;,
  0.000000;0.838444;0.544988;,
  0.672498;0.707107;-0.218508;,
  0.195090;-0.980785;0.000000;,
  0.118256;0.923880;0.363954;,
  0.000000;-0.707107;0.707107;,
  -0.309597;0.923880;0.224936;,
  -0.363954;-0.923880;0.118256;,
  -0.572061;0.707107;-0.415627;,
  -0.224936;-0.923880;-0.309597;,
  0.060286;0.980785;-0.185542;,
  0.415627;-0.707107;-0.572061;,
  0.650849;0.729135;-0.211563;,
  0.203245;-0.979128;-0.000000;,
  0.113488;0.930120;0.349281;,
  -0.000091;-0.684370;0.729134;,
  -0.297116;0.930120;0.215868;,
  -0.377831;-0.917706;0.122713;,
  -0.552708;0.730246;-0.401566;,
  -0.233463;-0.917706;-0.321418;,
  0.057762;0.982375;-0.177774;,
  0.428648;-0.684371;-0.589829;,
  0.672498;0.707107;-0.218508;,
  0.195090;-0.980785;0.000000;,
  0.118256;0.923880;0.363954;,
  0.000000;-0.707107;0.707107;,
  -0.309597;0.923880;0.224936;,
  -0.363954;-0.923880;0.118256;,
  -0.572061;0.707107;-0.415627;,
  -0.224936;-0.923880;-0.309597;,
  0.060286;0.980785;-0.185542;,
  0.415627;-0.707107;-0.572061;,
  0.672498;0.707107;-0.218508;,
  0.195090;-0.980785;0.000000;,
  0.118256;0.923880;0.363954;,
  -0.000000;-0.707107;0.707107;,
  -0.309597;0.923880;0.224936;,
  -0.363954;-0.923880;0.118256;,
  -0.572061;0.707107;-0.415627;,
  -0.224936;-0.923880;-0.309597;,
  0.060286;0.980785;-0.185542;,
  0.415627;-0.707107;-0.572061;,
  0.672498;0.707107;-0.218508;,
  0.195090;-0.980785;0.000000;,
  0.118256;0.923880;0.363954;,
  0.000000;-0.707107;0.707107;,
  -0.309597;0.923880;0.224936;,
  -0.363954;-0.923880;0.118256;,
  -0.572061;0.707107;-0.415627;,
  -0.224936;-0.923880;-0.309597;,
  0.060286;0.980785;-0.185542;,
  0.415627;-0.707107;-0.572061;,
  0.672498;0.707107;-0.218508;,
  0.195090;-0.980785;0.000000;,
  0.118256;0.923880;0.363954;,
  0.000000;-0.707107;0.707107;,
  -0.309597;0.923880;0.224936;,
  -0.363954;-0.923880;0.118256;,
  -0.572061;0.707107;-0.415627;,
  -0.224936;-0.923880;-0.309597;,
  0.060286;0.980785;-0.185542;,
  0.415627;-0.707107;-0.572061;,
  0.653282;0.707107;-0.270598;,
  0.382683;-0.923879;0.000000;,
  0.000000;0.923879;0.382683;,
  -0.270598;-0.707107;0.653282;,
  -0.707107;0.707107;0.000000;,
  -0.353553;-0.923880;-0.146447;,
  0.000000;0.923879;-0.382683;,
  0.270598;-0.707107;-0.653282;,
  0.653282;0.707107;-0.270598;,
  0.382683;-0.923879;0.000000;,
  0.000000;0.923879;0.382683;,
  -0.270598;-0.707107;0.653282;,
  -0.707107;0.707107;0.000000;,
  -0.353553;-0.923880;-0.146447;,
  0.000000;0.923879;-0.382683;,
  0.270598;-0.707107;-0.653282;,
  0.653282;0.707107;-0.270598;,
  0.382683;-0.923879;0.000000;,
  0.000000;0.923879;0.382683;,
  -0.270598;-0.707107;0.653282;,
  -0.707107;0.707107;0.000000;,
  -0.353553;-0.923880;-0.146447;,
  0.000000;0.923879;-0.382683;,
  0.270598;-0.707107;-0.653282;,
  0.653282;0.707107;-0.270598;,
  0.382683;-0.923879;0.000000;,
  0.000000;0.923879;0.382683;,
  -0.270598;-0.707107;0.653282;,
  -0.707107;0.707107;0.000000;,
  -0.353553;-0.923880;-0.146447;,
  0.000000;0.923879;-0.382683;,
  0.270598;-0.707107;-0.653282;,
  0.000000;1.000000;0.000000;,
  0.000000;1.000000;0.000000;,
  1.000000;0.000000;0.000000;,
  1.000000;0.000000;0.000000;,
  0.000000;-1.000000;0.000000;,
  0.000000;-1.000000;0.000000;,
  -1.000000;0.000000;0.000000;,
  -1.000000;0.000000;0.000000;,
  0.000000;0.000000;-1.000000;,
  0.000000;0.000000;-1.000000;,
  0.000000;0.000000;1.000000;,
  0.000000;0.000000;1.000000;,
  -0.999340;0.036340;0.000000;,
  -0.999339;0.036340;0.000000;,
  0.000000;-0.894427;-0.447214;,
  0.000000;-0.894427;-0.447214;,
  0.999339;0.036340;0.000000;,
  0.999339;0.036340;0.000000;,
  -0.221281;0.869012;0.442553;,
  0.000000;0.897610;0.440790;,
  -0.999688;0.024992;0.000000;,
  -0.999688;0.024992;0.000000;,
  0.000000;0.242541;-0.970141;,
  0.000000;0.242541;-0.970141;,
  0.999688;0.024992;0.000000;,
  0.999688;0.024992;0.000000;,
  0.000000;-0.447214;0.894427;,
  0.000000;-0.447214;0.894427;,
  -1.000000;0.000000;0.000000;,
  -1.000000;0.000000;0.000000;,
  0.000000;-0.868920;-0.494953;,
  0.000000;-0.868920;-0.494953;,
  1.000000;0.000000;0.000000;,
  1.000000;0.000000;0.000000;,
  0.000000;0.863372;0.504568;,
  0.000000;0.863372;0.504568;,
  -0.999920;0.012657;0.000000;,
  -0.999920;0.012657;0.000000;,
  0.000000;0.847242;-0.531208;,
  0.000000;0.847242;-0.531208;,
  0.999920;0.012657;0.000000;,
  0.999920;0.012657;0.000000;,
  0.000000;-0.830965;0.556324;,
  0.000000;-0.830965;0.556324;,
  -0.535052;0.844819;0.000000;,
  -0.535052;0.844819;0.000000;,
  0.535052;-0.844819;0.000000;,
  0.535052;-0.844819;0.000000;,
  0.000000;1.000000;0.000000;,
  0.000000;1.000000;0.000000;,
  0.000000;-1.000000;0.000000;,
  0.000000;-1.000000;0.000000;,
  0.535052;0.844819;0.000000;,
  0.535052;0.844819;0.000000;,
  -0.535052;-0.844819;0.000000;,
  -0.535052;-0.844819;0.000000;;
  630;
  3;0,0,0;,
  3;1,1,1;,
  3;2,2,2;,
  3;3,3,3;,
  3;4,4,4;,
  3;5,5,5;,
  3;6,6,6;,
  3;7,7,7;,
  3;8,8,8;,
  3;9,9,9;,
  3;10,10,10;,
  3;11,11,11;,
  3;12,12,12;,
  3;13,13,13;,
  3;14,14,14;,
  3;15,15,15;,
  3;16,16,16;,
  3;17,17,17;,
  3;18,18,18;,
  3;19,19,19;,
  3;20,20,20;,
  3;21,21,21;,
  3;22,22,22;,
  3;23,23,23;,
  3;24,24,24;,
  3;25,25,25;,
  3;26,26,26;,
  3;27,27,27;,
  3;28,28,28;,
  3;29,29,29;,
  3;30,30,30;,
  3;31,31,31;,
  3;32,32,32;,
  3;33,33,33;,
  3;34,34,34;,
  3;35,35,35;,
  3;36,36,36;,
  3;37,37,37;,
  3;38,38,38;,
  3;39,39,39;,
  3;40,40,40;,
  3;41,41,41;,
  3;42,42,42;,
  3;43,43,43;,
  3;44,44,44;,
  3;45,45,45;,
  3;46,46,46;,
  3;47,47,47;,
  3;48,48,48;,
  3;49,49,49;,
  3;50,50,50;,
  3;51,51,51;,
  3;52,52,52;,
  3;53,53,53;,
  3;54,54,54;,
  3;55,55,55;,
  3;56,56,56;,
  3;57,57,57;,
  3;58,58,58;,
  3;59,59,59;,
  3;60,60,60;,
  3;61,61,61;,
  3;62,62,62;,
  3;63,63,63;,
  3;64,64,64;,
  3;65,65,65;,
  3;66,66,66;,
  3;67,67,67;,
  3;68,68,68;,
  3;69,69,69;,
  3;70,70,70;,
  3;71,71,71;,
  3;72,72,72;,
  3;73,73,73;,
  3;74,74,74;,
  3;75,75,75;,
  3;76,76,76;,
  3;77,77,77;,
  3;78,78,78;,
  3;79,79,79;,
  3;80,80,80;,
  3;81,81,81;,
  3;82,82,82;,
  3;83,83,83;,
  3;84,84,84;,
  3;85,85,85;,
  3;86,86,86;,
  3;87,87,87;,
  3;88,88,88;,
  3;89,89,89;,
  3;90,90,90;,
  3;91,91,91;,
  3;92,92,92;,
  3;93,93,93;,
  3;94,94,94;,
  3;95,95,95;,
  3;96,96,96;,
  3;97,97,97;,
  3;98,98,98;,
  3;99,99,99;,
  3;100,100,100;,
  3;101,101,101;,
  3;102,102,102;,
  3;103,103,103;,
  3;104,104,104;,
  3;105,105,105;,
  3;106,106,106;,
  3;107,107,107;,
  3;108,108,108;,
  3;109,109,109;,
  3;110,110,110;,
  3;111,111,111;,
  3;112,112,112;,
  3;113,113,113;,
  3;114,114,114;,
  3;115,115,115;,
  3;116,116,116;,
  3;117,117,117;,
  3;118,118,118;,
  3;119,119,119;,
  3;120,120,120;,
  3;121,121,121;,
  3;122,122,122;,
  3;123,123,123;,
  3;124,124,124;,
  3;125,125,125;,
  3;126,126,126;,
  3;127,127,127;,
  3;128,128,128;,
  3;129,129,129;,
  3;130,130,130;,
  3;131,131,131;,
  3;132,132,132;,
  3;133,133,133;,
  3;134,134,134;,
  3;135,135,135;,
  3;136,136,136;,
  3;137,137,137;,
  3;138,138,138;,
  3;139,139,139;,
  3;140,140,140;,
  3;141,141,141;,
  3;142,142,142;,
  3;143,143,143;,
  3;144,144,144;,
  3;145,145,145;,
  3;146,146,146;,
  3;147,147,147;,
  3;148,148,148;,
  3;149,149,149;,
  3;150,150,150;,
  3;151,151,151;,
  3;152,152,152;,
  3;153,153,153;,
  3;154,154,154;,
  3;155,155,155;,
  3;156,156,156;,
  3;157,157,157;,
  3;158,158,158;,
  3;159,159,159;,
  3;160,160,160;,
  3;161,161,161;,
  3;162,162,162;,
  3;163,163,163;,
  3;164,164,164;,
  3;165,165,165;,
  3;166,166,166;,
  3;167,167,167;,
  3;168,168,168;,
  3;169,169,169;,
  3;170,170,170;,
  3;171,171,171;,
  3;172,172,172;,
  3;173,173,173;,
  3;174,174,174;,
  3;175,175,175;,
  3;176,176,176;,
  3;177,177,177;,
  3;178,178,178;,
  3;179,179,179;,
  3;180,180,180;,
  3;181,181,181;,
  3;182,182,182;,
  3;183,183,183;,
  3;184,184,184;,
  3;185,185,185;,
  3;186,186,186;,
  3;187,187,187;,
  3;188,188,188;,
  3;189,189,189;,
  3;190,190,190;,
  3;191,191,191;,
  3;192,192,192;,
  3;193,193,193;,
  3;194,194,194;,
  3;195,195,195;,
  3;196,196,196;,
  3;197,197,197;,
  3;198,198,198;,
  3;199,199,199;,
  3;200,200,200;,
  3;201,201,201;,
  3;202,202,202;,
  3;203,203,203;,
  3;204,204,204;,
  3;205,205,205;,
  3;206,206,206;,
  3;207,207,207;,
  3;208,208,208;,
  3;209,209,209;,
  3;210,210,210;,
  3;211,211,211;,
  3;212,212,212;,
  3;213,213,213;,
  3;214,214,214;,
  3;215,215,215;,
  3;216,216,216;,
  3;217,217,217;,
  3;218,218,218;,
  3;219,219,219;,
  3;220,220,220;,
  3;221,221,221;,
  3;222,222,222;,
  3;223,223,223;,
  3;224,224,224;,
  3;225,225,225;,
  3;226,226,226;,
  3;227,227,227;,
  3;228,228,228;,
  3;229,229,229;,
  3;230,230,230;,
  3;231,231,231;,
  3;232,232,232;,
  3;233,233,233;,
  3;234,234,234;,
  3;235,235,235;,
  3;236,236,236;,
  3;237,237,237;,
  3;238,238,238;,
  3;239,239,239;,
  3;240,240,240;,
  3;241,241,241;,
  3;242,242,242;,
  3;243,243,243;,
  3;244,244,244;,
  3;245,245,245;,
  3;246,246,246;,
  3;247,247,247;,
  3;248,248,248;,
  3;249,249,249;,
  3;250,250,250;,
  3;251,251,251;,
  3;252,252,252;,
  3;253,253,253;,
  3;254,254,254;,
  3;255,255,255;,
  3;256,256,256;,
  3;257,257,257;,
  3;258,258,258;,
  3;259,259,259;,
  3;260,260,260;,
  3;261,261,261;,
  3;262,262,262;,
  3;263,263,263;,
  3;264,264,264;,
  3;265,265,265;,
  3;266,266,266;,
  3;267,267,267;,
  3;268,268,268;,
  3;269,269,269;,
  3;270,270,270;,
  3;271,271,271;,
  3;272,272,272;,
  3;273,273,273;,
  3;274,274,274;,
  3;275,275,275;,
  3;276,276,276;,
  3;277,277,277;,
  3;278,278,278;,
  3;279,279,279;,
  3;280,280,280;,
  3;281,281,281;,
  3;282,282,282;,
  3;283,283,283;,
  3;284,284,284;,
  3;285,285,285;,
  3;286,286,286;,
  3;287,287,287;,
  3;288,288,288;,
  3;289,289,289;,
  3;290,290,290;,
  3;291,291,291;,
  3;292,292,292;,
  3;293,293,293;,
  3;294,294,294;,
  3;295,295,295;,
  3;296,296,296;,
  3;297,297,297;,
  3;298,298,298;,
  3;299,299,299;,
  3;300,300,300;,
  3;301,301,301;,
  3;302,302,302;,
  3;303,303,303;,
  3;304,304,304;,
  3;305,305,305;,
  3;306,306,306;,
  3;307,307,307;,
  3;308,308,308;,
  3;309,309,309;,
  3;310,310,310;,
  3;311,311,311;,
  3;312,312,312;,
  3;313,313,313;,
  3;314,314,314;,
  3;315,315,315;,
  3;316,316,316;,
  3;317,317,317;,
  3;318,318,318;,
  3;319,319,319;,
  3;320,320,320;,
  3;321,321,321;,
  3;322,322,322;,
  3;323,323,323;,
  3;324,324,324;,
  3;325,325,325;,
  3;326,326,326;,
  3;327,327,327;,
  3;328,328,328;,
  3;329,329,329;,
  3;330,330,330;,
  3;331,331,331;,
  3;332,332,332;,
  3;333,333,333;,
  3;334,334,334;,
  3;335,335,335;,
  3;336,336,336;,
  3;337,337,337;,
  3;338,338,338;,
  3;339,339,339;,
  3;340,340,340;,
  3;341,341,341;,
  3;342,342,342;,
  3;343,343,343;,
  3;344,344,344;,
  3;345,345,345;,
  3;346,346,346;,
  3;347,347,347;,
  3;348,348,348;,
  3;349,349,349;,
  3;350,350,350;,
  3;351,351,351;,
  3;352,352,352;,
  3;353,353,353;,
  3;354,354,354;,
  3;355,355,355;,
  3;356,356,356;,
  3;357,357,357;,
  3;358,358,358;,
  3;359,359,359;,
  3;360,360,360;,
  3;361,361,361;,
  3;362,362,362;,
  3;363,363,363;,
  3;364,364,364;,
  3;365,365,365;,
  3;366,366,366;,
  3;367,367,367;,
  3;368,368,368;,
  3;369,369,369;,
  3;370,370,370;,
  3;371,371,371;,
  3;372,372,372;,
  3;373,373,373;,
  3;374,374,374;,
  3;375,375,375;,
  3;376,376,376;,
  3;377,377,377;,
  3;378,378,378;,
  3;379,379,379;,
  3;380,380,380;,
  3;381,381,381;,
  3;383,382,384;,
  3;383,384,385;,
  3;385,384,386;,
  3;385,386,387;,
  3;387,386,388;,
  3;387,388,389;,
  3;389,388,390;,
  3;389,390,391;,
  3;391,390,392;,
  3;391,392,393;,
  3;393,392,394;,
  3;393,394,395;,
  3;395,394,396;,
  3;395,396,397;,
  3;397,396,398;,
  3;397,398,399;,
  3;399,398,400;,
  3;399,400,401;,
  3;401,400,382;,
  3;401,382,383;,
  3;400,398,396;,
  3;400,396,394;,
  3;400,394,392;,
  3;400,392,390;,
  3;400,390,388;,
  3;400,388,386;,
  3;400,386,384;,
  3;400,384,382;,
  3;383,385,387;,
  3;383,387,389;,
  3;383,389,391;,
  3;383,391,393;,
  3;383,393,395;,
  3;383,395,397;,
  3;383,397,399;,
  3;383,399,401;,
  3;402,402,402;,
  3;403,403,403;,
  3;404,404,404;,
  3;405,405,405;,
  3;406,406,406;,
  3;407,407,407;,
  3;408,408,408;,
  3;409,409,409;,
  3;410,410,410;,
  3;411,411,411;,
  3;412,412,412;,
  3;413,413,413;,
  3;415,414,416;,
  3;415,416,417;,
  3;417,416,418;,
  3;417,418,419;,
  3;419,418,420;,
  3;419,420,421;,
  3;421,420,422;,
  3;421,422,423;,
  3;423,422,414;,
  3;423,414,415;,
  3;422,420,418;,
  3;422,418,416;,
  3;422,416,414;,
  3;415,417,419;,
  3;415,419,421;,
  3;415,421,423;,
  3;425,424,426;,
  3;425,426,427;,
  3;427,426,428;,
  3;427,428,429;,
  3;429,428,430;,
  3;429,430,431;,
  3;431,430,432;,
  3;431,432,433;,
  3;433,432,424;,
  3;433,424,425;,
  3;432,430,428;,
  3;432,428,426;,
  3;432,426,424;,
  3;425,427,429;,
  3;425,429,431;,
  3;425,431,433;,
  3;435,434,436;,
  3;435,436,437;,
  3;437,436,438;,
  3;437,438,439;,
  3;439,438,440;,
  3;439,440,441;,
  3;441,440,442;,
  3;441,442,443;,
  3;443,442,434;,
  3;443,434,435;,
  3;442,440,438;,
  3;442,438,436;,
  3;442,436,434;,
  3;435,437,439;,
  3;435,439,441;,
  3;435,441,443;,
  3;445,444,446;,
  3;445,446,447;,
  3;447,446,448;,
  3;447,448,449;,
  3;449,448,450;,
  3;449,450,451;,
  3;451,450,452;,
  3;451,452,453;,
  3;453,452,444;,
  3;453,444,445;,
  3;452,450,448;,
  3;452,448,446;,
  3;452,446,444;,
  3;445,447,449;,
  3;445,449,451;,
  3;445,451,453;,
  3;455,454,456;,
  3;455,456,457;,
  3;457,456,458;,
  3;457,458,459;,
  3;459,458,460;,
  3;459,460,461;,
  3;461,460,462;,
  3;461,462,463;,
  3;463,462,454;,
  3;463,454,455;,
  3;462,460,458;,
  3;462,458,456;,
  3;462,456,454;,
  3;455,457,459;,
  3;455,459,461;,
  3;455,461,463;,
  3;465,464,466;,
  3;465,466,467;,
  3;467,466,468;,
  3;467,468,469;,
  3;469,468,470;,
  3;469,470,471;,
  3;471,470,472;,
  3;471,472,473;,
  3;473,472,464;,
  3;473,464,465;,
  3;472,470,468;,
  3;472,468,466;,
  3;472,466,464;,
  3;465,467,469;,
  3;465,469,471;,
  3;465,471,473;,
  3;475,474,476;,
  3;475,476,477;,
  3;477,476,478;,
  3;477,478,479;,
  3;479,478,480;,
  3;479,480,481;,
  3;481,480,474;,
  3;481,474,475;,
  3;480,478,476;,
  3;480,476,474;,
  3;475,477,479;,
  3;475,479,481;,
  3;483,482,484;,
  3;483,484,485;,
  3;485,484,486;,
  3;485,486,487;,
  3;487,486,488;,
  3;487,488,489;,
  3;489,488,482;,
  3;489,482,483;,
  3;488,486,484;,
  3;488,484,482;,
  3;483,485,487;,
  3;483,487,489;,
  3;491,490,492;,
  3;491,492,493;,
  3;493,492,494;,
  3;493,494,495;,
  3;495,494,496;,
  3;495,496,497;,
  3;497,496,490;,
  3;497,490,491;,
  3;496,494,492;,
  3;496,492,490;,
  3;491,493,495;,
  3;491,495,497;,
  3;499,498,500;,
  3;499,500,501;,
  3;501,500,502;,
  3;501,502,503;,
  3;503,502,504;,
  3;503,504,505;,
  3;505,504,498;,
  3;505,498,499;,
  3;504,502,500;,
  3;504,500,498;,
  3;499,501,503;,
  3;499,503,505;,
  3;506,506,506;,
  3;507,507,507;,
  3;508,508,508;,
  3;509,509,509;,
  3;510,510,510;,
  3;511,511,511;,
  3;512,512,512;,
  3;513,513,513;,
  3;514,514,514;,
  3;515,515,515;,
  3;516,516,516;,
  3;517,517,517;,
  3;518,518,518;,
  3;519,519,519;,
  3;520,520,520;,
  3;521,521,521;,
  3;522,522,522;,
  3;523,523,523;,
  3;524,524,524;,
  3;525,525,525;,
  3;526,526,526;,
  3;527,527,527;,
  3;528,528,528;,
  3;529,529,529;,
  3;530,530,530;,
  3;531,531,531;,
  3;532,532,532;,
  3;533,533,533;,
  3;534,534,534;,
  3;535,535,535;,
  3;536,536,536;,
  3;537,537,537;,
  3;538,538,538;,
  3;539,539,539;,
  3;540,540,540;,
  3;541,541,541;,
  3;542,542,542;,
  3;543,543,543;,
  3;544,544,544;,
  3;545,545,545;,
  3;546,546,546;,
  3;547,547,547;,
  3;548,548,548;,
  3;549,549,549;,
  3;550,550,550;,
  3;551,551,551;,
  3;552,552,552;,
  3;553,553,553;,
  3;554,554,554;,
  3;555,555,555;,
  3;556,556,556;,
  3;557,557,557;,
  3;558,558,558;,
  3;559,559,559;,
  3;560,560,560;,
  3;561,561,561;;
 }
}