xof 0303txt 0032
template Vector {
 <3d82ab5e-62da-11cf-ab39-0020af71e433>
 FLOAT x;
 FLOAT y;
 FLOAT z;
}

template MeshFace {
 <3d82ab5f-62da-11cf-ab39-0020af71e433>
 DWORD nFaceVertexIndices;
 array DWORD faceVertexIndices[nFaceVertexIndices];
}

template Mesh {
 <3d82ab44-62da-11cf-ab39-0020af71e433>
 DWORD nVertices;
 array Vector vertices[nVertices];
 DWORD nFaces;
 array MeshFace faces[nFaces];
 [...]
}

template ColorRGBA {
 <35ff44e0-6c7c-11cf-8f52-0040333594a3>
 FLOAT red;
 FLOAT green;
 FLOAT blue;
 FLOAT alpha;
}

template ColorRGB {
 <d3e16e81-7835-11cf-8f52-0040333594a3>
 FLOAT red;
 FLOAT green;
 FLOAT blue;
}

template Material {
 <3d82ab4d-62da-11cf-ab39-0020af71e433>
 ColorRGBA faceColor;
 FLOAT power;
 ColorRGB specularColor;
 ColorRGB emissiveColor;
 [...]
}

template MeshMaterialList {
 <f6f23f42-7686-11cf-8f52-0040333594a3>
 DWORD nMaterials;
 DWORD nFaceIndexes;
 array DWORD faceIndexes[nFaceIndexes];
 [Material <3d82ab4d-62da-11cf-ab39-0020af71e433>]
}

template TextureFilename {
 <a42790e1-7810-11cf-8f52-0040333594a3>
 STRING filename;
}

template Coords2d {
 <f6f23f44-7686-11cf-8f52-0040333594a3>
 FLOAT u;
 FLOAT v;
}

template MeshTextureCoords {
 <f6f23f40-7686-11cf-8f52-0040333594a3>
 DWORD nTextureCoords;
 array Coords2d textureCoords[nTextureCoords];
}

template MeshNormals {
 <f6f23f43-7686-11cf-8f52-0040333594a3>
 DWORD nNormals;
 array Vector normals[nNormals];
 DWORD nFaceNormals;
 array MeshFace faceNormals[nFaceNormals];
}


Mesh  {
 128;
 -1.380000;1.000000;0.000000;,
 -1.380000;1.000000;-20.799999;,
 -1.473500;1.600000;-20.799999;,
 -1.473500;1.600000;0.000000;,
 -1.473500;3.300000;0.000000;,
 -1.473500;3.300000;-20.799999;,
 -1.340000;3.500000;-20.799999;,
 -1.340000;3.500000;0.000000;,
 1.380000;1.000000;0.000000;,
 1.380000;1.000000;-20.799999;,
 1.473500;1.600000;-20.799999;,
 1.473500;1.600000;0.000000;,
 1.473500;3.300000;0.000000;,
 1.473500;3.300000;-20.799999;,
 1.340000;3.500000;-20.799999;,
 1.340000;3.500000;0.000000;,
 -1.380000;1.000000;-20.799999;,
 1.380000;1.000000;-20.799999;,
 1.473500;1.600000;-20.799999;,
 -1.473500;1.600000;-20.799999;,
 -1.473500;3.300000;-20.799999;,
 1.473500;3.300000;-20.799999;,
 1.340000;3.500000;-20.799999;,
 -1.340000;3.500000;-20.799999;,
 -1.000000;3.600000;-20.799999;,
 1.000000;3.600000;-20.799999;,
 0.300000;3.650000;-20.799999;,
 -0.300000;3.650000;-20.799999;,
 -1.340000;3.500000;0.000000;,
 -1.000000;3.600000;0.000000;,
 -0.300000;3.650000;0.000000;,
 0.300000;3.650000;0.000000;,
 1.000000;3.600000;0.000000;,
 1.340000;3.500000;0.000000;,
 -1.340000;3.500000;-20.799999;,
 -1.000000;3.600000;-20.799999;,
 -0.300000;3.650000;-20.799999;,
 0.300000;3.650000;-20.799999;,
 1.000000;3.600000;-20.799999;,
 1.340000;3.500000;-20.799999;,
 -1.250000;0.000000;-0.100000;,
 -1.250000;1.200000;-0.100000;,
 -1.250000;0.000000;-20.700001;,
 -1.250000;1.200000;-20.700001;,
 1.250000;0.000000;-20.700001;,
 1.250000;1.200000;-20.700001;,
 1.250000;0.000000;-0.100000;,
 1.250000;1.200000;-0.100000;,
 -0.500000;3.600000;-6.200000;,
 -0.500000;3.600000;-7.300000;,
 -0.400000;3.800000;-7.200000;,
 -0.400000;3.800000;-6.300000;,
 0.400000;3.800000;-6.300000;,
 0.400000;3.800000;-7.200000;,
 0.500000;3.600000;-7.300000;,
 0.500000;3.600000;-6.200000;,
 -0.500000;3.600000;-14.600000;,
 -0.500000;3.600000;-13.500000;,
 -0.400000;3.800000;-13.600000;,
 -0.400000;3.800000;-14.500000;,
 0.400000;3.800000;-14.500000;,
 0.400000;3.800000;-13.600000;,
 0.500000;3.600000;-13.500000;,
 0.500000;3.600000;-14.600000;,
 -1.000000;3.525000;-12.800000;,
 -1.000000;3.525000;-8.000000;,
 -0.900000;3.825000;-12.700000;,
 -0.900000;3.825000;-8.100000;,
 -0.350000;3.950000;-12.500000;,
 -0.350000;3.950000;-8.300000;,
 0.350000;3.950000;-12.500000;,
 0.350000;3.950000;-8.300000;,
 0.900000;3.825000;-12.700000;,
 0.900000;3.825000;-8.100000;,
 1.000000;3.525000;-12.800000;,
 1.000000;3.525000;-8.000000;,
 -0.350000;3.825000;-13.100000;,
 -0.350000;3.825000;-7.700000;,
 0.350000;3.825000;-13.100000;,
 0.350000;3.825000;-7.700000;,
 -1.000000;3.525000;-12.800000;,
 -0.900000;3.825000;-12.700000;,
 -0.450000;3.525000;-13.200000;,
 -0.350000;3.825000;-13.100000;,
 0.450000;3.525000;-13.200000;,
 0.350000;3.825000;-13.100000;,
 1.000000;3.525000;-12.800000;,
 0.900000;3.825000;-12.700000;,
 -0.900000;3.900000;-8.100000;,
 -1.000000;3.500000;-7.900000;,
 -0.950000;3.450000;-7.700000;,
 -0.850000;3.850000;-7.900000;,
 -0.400000;3.850000;-7.700000;,
 -0.500000;3.450000;-7.500000;,
 0.500000;3.450000;-7.500000;,
 0.400000;3.850000;-7.700000;,
 0.850000;3.850000;-7.900000;,
 0.950000;3.450000;-7.700000;,
 1.000000;3.500000;-7.900000;,
 0.900000;3.900000;-8.100000;,
 0.850000;3.870000;-8.300000;,
 0.400000;4.020000;-8.300000;,
 -0.400000;4.020000;-8.300000;,
 -0.850000;3.870000;-8.300000;,
 -0.900000;3.900000;-12.700000;,
 -1.000000;3.500000;-12.900000;,
 -0.950000;3.450000;-13.100000;,
 -0.850000;3.850000;-12.900000;,
 -0.400000;3.850000;-13.100000;,
 -0.500000;3.450000;-13.300000;,
 0.500000;3.450000;-13.300000;,
 0.400000;3.850000;-13.100000;,
 0.850000;3.850000;-12.900000;,
 0.950000;3.450000;-13.100000;,
 1.000000;3.500000;-12.900000;,
 0.900000;3.900000;-12.700000;,
 0.850000;3.870000;-12.500000;,
 0.400000;4.020000;-12.500000;,
 -0.400000;4.020000;-12.500000;,
 -0.850000;3.870000;-12.500000;,
 1.150000;1.400000;-20.700001;,
 1.150000;0.000000;-20.700001;,
 -1.150000;0.000000;-20.700001;,
 -1.150000;1.400000;-20.700001;,
 -1.150000;1.400000;-0.100000;,
 -1.150000;0.000000;-0.100000;,
 1.150000;0.000000;-0.100000;,
 1.150000;1.400000;-0.100000;;
 78;
 3;3,2,1;,
 3;3,1,0;,
 3;2,3,4;,
 3;2,4,5;,
 3;7,6,5;,
 3;7,5,4;,
 3;8,9,10;,
 3;8,10,11;,
 3;13,12,11;,
 3;13,11,10;,
 3;12,13,14;,
 3;12,14,15;,
 3;19,18,17;,
 3;19,17,16;,
 3;18,19,20;,
 3;18,20,21;,
 3;23,22,21;,
 3;23,21,20;,
 3;22,23,24;,
 3;22,24,25;,
 3;27,26,25;,
 3;27,25,24;,
 3;28,29,35;,
 3;28,35,34;,
 3;29,30,36;,
 3;29,36,35;,
 3;30,31,37;,
 3;30,37,36;,
 3;31,32,38;,
 3;31,38,37;,
 3;32,33,39;,
 3;32,39,38;,
 3;40,41,43;,
 3;40,43,42;,
 3;42,43,45;,
 3;42,45,44;,
 3;44,45,47;,
 3;44,47,46;,
 3;51,50,49;,
 3;51,49,48;,
 3;50,51,52;,
 3;50,52,53;,
 3;55,54,53;,
 3;55,53,52;,
 3;49,50,53;,
 3;49,53,54;,
 3;56,57,58;,
 3;56,58,59;,
 3;61,60,59;,
 3;61,59,58;,
 3;60,61,62;,
 3;60,62,63;,
 3;56,59,60;,
 3;56,60,63;,
 3;64,65,67;,
 3;64,67,66;,
 3;66,67,69;,
 3;66,69,68;,
 3;68,69,71;,
 3;68,71,70;,
 3;70,71,73;,
 3;70,73,72;,
 3;72,73,75;,
 3;72,75,74;,
 3;66,68,76;,
 3;70,78,76;,
 3;70,76,68;,
 3;70,72,78;,
 3;77,69,67;,
 3;69,77,79;,
 3;69,79,71;,
 3;79,73,71;,
 3;80,81,83;,
 3;80,83,82;,
 3;82,83,85;,
 3;82,85,84;,
 3;84,85,87;,
 3;84,87,86;;

 MeshMaterialList  {
  11;
  78;
  0,
  0,
  0,
  0,
  0,
  0,
  1,
  1,
  1,
  1,
  1,
  1,
  2,
  2,
  2,
  2,
  2,
  2,
  2,
  2,
  2,
  2,
  3,
  3,
  3,
  3,
  3,
  3,
  3,
  3,
  3,
  3,
  4,
  4,
  4,
  4,
  4,
  4,
  5,
  5,
  5,
  5,
  5,
  5,
  5,
  5,
  6,
  6,
  6,
  6,
  6,
  6,
  6,
  6,
  7,
  7,
  7,
  7,
  7,
  7,
  7,
  7,
  7,
  7,
  7,
  7,
  7,
  7,
  7,
  7,
  7,
  7,
  8,
  8,
  8,
  8,
  8,
  8;

  Material  {
   1.000000;1.000000;1.000000;1.000000;;
   0.000000;
   0.000000;0.000000;0.000000;;
   0.000000;0.000000;0.000000;;

   TextureFilename  {
    "T373s2.png";
   }
  }

  Material  {
   1.000000;1.000000;1.000000;1.000000;;
   0.000000;
   0.000000;0.000000;0.000000;;
   0.000000;0.000000;0.000000;;

   TextureFilename  {
    "T373s1.png";
   }
  }

  Material  {
   1.000000;1.000000;1.000000;1.000000;;
   0.000000;
   0.000000;0.000000;0.000000;;
   0.000000;0.000000;0.000000;;

   TextureFilename  {
    "373t.png";
   }
  }

  Material  {
   1.000000;1.000000;1.000000;1.000000;;
   0.000000;
   0.000000;0.000000;0.000000;;
   0.000000;0.000000;0.000000;;

   TextureFilename  {
    "373r.png";
   }
  }

  Material  {
   0.078431;0.078431;0.078431;1.000000;;
   0.000000;
   0.000000;0.000000;0.000000;;
   0.000000;0.000000;0.000000;;
  }

  Material  {
   1.000000;1.000000;1.000000;1.000000;;
   0.000000;
   0.000000;0.000000;0.000000;;
   0.000000;0.000000;0.000000;;

   TextureFilename  {
    "co2.png";
   }
  }

  Material  {
   1.000000;1.000000;1.000000;1.000000;;
   0.000000;
   0.000000;0.000000;0.000000;;
   0.000000;0.000000;0.000000;;

   TextureFilename  {
    "co2.png";
   }
  }

  Material  {
   1.000000;1.000000;1.000000;1.000000;;
   0.000000;
   0.000000;0.000000;0.000000;;
   0.000000;0.000000;0.000000;;

   TextureFilename  {
    "co1.png";
   }
  }

  Material  {
   1.000000;1.000000;1.000000;1.000000;;
   0.000000;
   0.000000;0.000000;0.000000;;
   0.000000;0.000000;0.000000;;

   TextureFilename  {
    "co2.png";
   }
  }

  Material  {
   1.000000;1.000000;1.000000;1.000000;;
   0.000000;
   0.000000;0.000000;0.000000;;
   0.000000;0.000000;0.000000;;

   TextureFilename  {
    "373r3.png";
   }
  }

  Material  {
   0.078431;0.078431;0.078431;1.000000;;
   0.000000;
   0.000000;0.000000;0.000000;;
   0.000000;0.000000;0.000000;;
  }
 }

 MeshTextureCoords  {
  128;
  1.000000;0.995000;,
  0.000000;0.995000;,
  0.000000;0.757400;,
  1.000000;0.757400;,
  1.000000;0.084200;,
  0.000000;0.084200;,
  0.000000;0.005000;,
  1.000000;0.005000;,
  1.000000;0.995000;,
  0.000000;0.995000;,
  0.000000;0.757400;,
  1.000000;0.757400;,
  1.000000;0.084200;,
  0.000000;0.084200;,
  0.000000;0.005000;,
  1.000000;0.005000;,
  0.000000;1.000000;,
  0.000000;0.000000;,
  1.000000;0.000000;,
  1.000000;1.000000;,
  0.000000;0.000000;,
  0.000000;0.000000;,
  0.000000;0.000000;,
  0.000000;0.000000;,
  0.000000;0.000000;,
  0.000000;0.000000;,
  0.000000;0.000000;,
  0.000000;0.000000;,
  1.000000;1.000000;,
  1.000000;0.873134;,
  1.000000;0.611940;,
  1.000000;0.388060;,
  1.000000;0.126866;,
  1.000000;0.000000;,
  0.200000;1.000000;,
  0.200000;0.873134;,
  0.200000;0.611940;,
  0.200000;0.388060;,
  0.200000;0.126866;,
  0.200000;0.000000;,
  0.000000;0.000000;,
  0.000000;0.000000;,
  0.000000;0.000000;,
  0.000000;0.000000;,
  0.000000;0.000000;,
  0.000000;0.000000;,
  0.000000;0.000000;,
  0.000000;0.000000;,
  1.000000;1.000000;,
  0.000000;1.000000;,
  0.000000;0.900000;,
  1.000000;0.900000;,
  1.000000;0.100000;,
  0.000000;0.100000;,
  0.000000;0.000000;,
  1.000000;0.000000;,
  1.000000;1.000000;,
  0.000000;1.000000;,
  0.000000;0.900000;,
  1.000000;0.900000;,
  1.000000;0.100000;,
  0.000000;0.100000;,
  0.000000;0.000000;,
  1.000000;0.000000;,
  1.000000;1.000000;,
  0.000000;1.000000;,
  0.980000;0.850000;,
  0.020000;0.850000;,
  0.937000;0.620000;,
  0.063000;0.620000;,
  0.937000;0.380000;,
  0.063000;0.380000;,
  0.980000;0.150000;,
  0.020000;0.150000;,
  1.000000;0.000000;,
  0.000000;0.000000;,
  1.000000;0.620000;,
  0.000000;0.620000;,
  1.000000;0.380000;,
  0.000000;0.380000;,
  1.000000;1.000000;,
  0.850000;0.000000;,
  0.620000;1.000000;,
  0.380000;0.000000;,
  0.620000;1.000000;,
  0.380000;0.000000;,
  0.150000;1.000000;,
  0.000000;0.000000;,
  0.000000;1.000000;,
  0.000000;0.000000;,
  1.000000;0.000000;,
  1.000000;1.000000;,
  0.000000;0.000000;,
  0.000000;0.000000;,
  0.000000;0.000000;,
  0.000000;0.000000;,
  0.000000;0.000000;,
  0.000000;0.000000;,
  0.000000;0.000000;,
  0.000000;0.000000;,
  0.000000;0.000000;,
  0.000000;0.000000;,
  0.000000;0.000000;,
  0.000000;0.000000;,
  0.000000;0.000000;,
  0.000000;0.000000;,
  0.000000;0.000000;,
  0.000000;0.000000;,
  0.000000;0.000000;,
  0.000000;0.000000;,
  0.000000;0.000000;,
  0.000000;0.000000;,
  0.000000;0.000000;,
  0.000000;0.000000;,
  0.000000;0.000000;,
  0.000000;0.000000;,
  0.000000;0.000000;,
  0.000000;0.000000;,
  0.000000;0.000000;,
  0.000000;0.000000;,
  0.000000;0.000000;,
  0.000000;0.000000;,
  0.000000;0.000000;,
  0.000000;0.000000;,
  0.000000;0.000000;,
  0.000000;0.000000;,
  0.000000;0.000000;,
  0.000000;0.000000;;
 }

 MeshNormals  {
  78;
  -0.988075;-0.153975;0.000000;,
  -0.988075;-0.153975;0.000000;,
  -1.000000;0.000000;0.000000;,
  -1.000000;0.000000;0.000000;,
  -0.831730;0.555180;0.000000;,
  -0.831730;0.555180;0.000000;,
  0.988075;-0.153975;0.000000;,
  0.988075;-0.153975;0.000000;,
  1.000000;0.000000;0.000000;,
  1.000000;0.000000;0.000000;,
  0.831730;0.555180;0.000000;,
  0.831730;0.555180;0.000000;,
  0.000000;0.000000;-1.000000;,
  0.000000;0.000000;-1.000000;,
  0.000000;0.000000;-1.000000;,
  0.000000;0.000000;-1.000000;,
  0.000000;0.000000;-1.000000;,
  0.000000;0.000000;-1.000000;,
  0.000000;0.000000;-1.000000;,
  0.000000;0.000000;-1.000000;,
  0.000000;0.000000;-1.000000;,
  0.000000;0.000000;-1.000000;,
  -0.282166;0.959365;0.000000;,
  -0.282166;0.959365;0.000000;,
  -0.071247;0.997459;0.000000;,
  -0.071247;0.997459;0.000000;,
  0.000000;1.000000;0.000000;,
  0.000000;1.000000;0.000000;,
  0.071247;0.997459;0.000000;,
  0.071247;0.997459;0.000000;,
  0.282166;0.959365;0.000000;,
  0.282166;0.959365;0.000000;,
  -1.000000;0.000000;0.000000;,
  -1.000000;0.000000;0.000000;,
  0.000000;0.000000;-1.000000;,
  0.000000;0.000000;-1.000000;,
  1.000000;0.000000;0.000000;,
  1.000000;0.000000;0.000000;,
  -0.894427;0.447214;0.000000;,
  -0.894427;0.447214;0.000000;,
  0.000000;1.000000;0.000000;,
  0.000000;1.000000;0.000000;,
  0.894427;0.447214;0.000000;,
  0.894427;0.447214;0.000000;,
  0.000000;0.447215;-0.894427;,
  0.000000;0.447215;-0.894427;,
  -0.894427;0.447214;0.000000;,
  -0.894427;0.447214;0.000000;,
  0.000000;1.000000;0.000000;,
  0.000000;1.000000;0.000000;,
  0.894427;0.447214;0.000000;,
  0.894427;0.447214;0.000000;,
  0.000000;0.447215;-0.894427;,
  0.000000;0.447215;-0.894427;,
  -0.948683;0.316228;0.000000;,
  -0.948683;0.316228;0.000000;,
  -0.221621;0.975133;0.000000;,
  -0.221621;0.975133;0.000000;,
  0.000000;1.000000;0.000000;,
  0.000000;1.000000;0.000000;,
  0.221621;0.975133;0.000000;,
  0.221621;0.975133;0.000000;,
  0.948683;0.316228;0.000000;,
  0.948683;0.316228;0.000000;,
  -0.146725;0.968385;-0.201747;,
  0.000000;0.978980;-0.203954;,
  0.000000;0.978980;-0.203954;,
  0.146725;0.968385;-0.201747;,
  -0.146725;0.968385;0.201747;,
  0.000000;0.978980;0.203954;,
  0.000000;0.978980;0.203954;,
  0.146725;0.968385;0.201747;,
  -0.533202;0.422119;-0.733152;,
  -0.533202;0.422117;-0.733153;,
  0.000000;0.316226;-0.948684;,
  0.000000;0.316226;-0.948684;,
  0.533202;0.422117;-0.733152;,
  0.533201;0.422119;-0.733152;;
  78;
  3;0,0,0;,
  3;1,1,1;,
  3;2,2,2;,
  3;3,3,3;,
  3;4,4,4;,
  3;5,5,5;,
  3;6,6,6;,
  3;7,7,7;,
  3;8,8,8;,
  3;9,9,9;,
  3;10,10,10;,
  3;11,11,11;,
  3;12,12,12;,
  3;13,13,13;,
  3;14,14,14;,
  3;15,15,15;,
  3;16,16,16;,
  3;17,17,17;,
  3;18,18,18;,
  3;19,19,19;,
  3;20,20,20;,
  3;21,21,21;,
  3;22,22,22;,
  3;23,23,23;,
  3;24,24,24;,
  3;25,25,25;,
  3;26,26,26;,
  3;27,27,27;,
  3;28,28,28;,
  3;29,29,29;,
  3;30,30,30;,
  3;31,31,31;,
  3;32,32,32;,
  3;33,33,33;,
  3;34,34,34;,
  3;35,35,35;,
  3;36,36,36;,
  3;37,37,37;,
  3;38,38,38;,
  3;39,39,39;,
  3;40,40,40;,
  3;41,41,41;,
  3;42,42,42;,
  3;43,43,43;,
  3;44,44,44;,
  3;45,45,45;,
  3;46,46,46;,
  3;47,47,47;,
  3;48,48,48;,
  3;49,49,49;,
  3;50,50,50;,
  3;51,51,51;,
  3;52,52,52;,
  3;53,53,53;,
  3;54,54,54;,
  3;55,55,55;,
  3;56,56,56;,
  3;57,57,57;,
  3;58,58,58;,
  3;59,59,59;,
  3;60,60,60;,
  3;61,61,61;,
  3;62,62,62;,
  3;63,63,63;,
  3;64,64,64;,
  3;65,65,65;,
  3;66,66,66;,
  3;67,67,67;,
  3;68,68,68;,
  3;69,69,69;,
  3;70,70,70;,
  3;71,71,71;,
  3;72,72,72;,
  3;73,73,73;,
  3;74,74,74;,
  3;75,75,75;,
  3;76,76,76;,
  3;77,77,77;;
 }
}