xof 0303txt 0032
template Vector {
 <3d82ab5e-62da-11cf-ab39-0020af71e433>
 FLOAT x;
 FLOAT y;
 FLOAT z;
}

template MeshFace {
 <3d82ab5f-62da-11cf-ab39-0020af71e433>
 DWORD nFaceVertexIndices;
 array DWORD faceVertexIndices[nFaceVertexIndices];
}

template Mesh {
 <3d82ab44-62da-11cf-ab39-0020af71e433>
 DWORD nVertices;
 array Vector vertices[nVertices];
 DWORD nFaces;
 array MeshFace faces[nFaces];
 [...]
}

template ColorRGBA {
 <35ff44e0-6c7c-11cf-8f52-0040333594a3>
 FLOAT red;
 FLOAT green;
 FLOAT blue;
 FLOAT alpha;
}

template ColorRGB {
 <d3e16e81-7835-11cf-8f52-0040333594a3>
 FLOAT red;
 FLOAT green;
 FLOAT blue;
}

template Material {
 <3d82ab4d-62da-11cf-ab39-0020af71e433>
 ColorRGBA faceColor;
 FLOAT power;
 ColorRGB specularColor;
 ColorRGB emissiveColor;
 [...]
}

template MeshMaterialList {
 <f6f23f42-7686-11cf-8f52-0040333594a3>
 DWORD nMaterials;
 DWORD nFaceIndexes;
 array DWORD faceIndexes[nFaceIndexes];
 [Material <3d82ab4d-62da-11cf-ab39-0020af71e433>]
}

template TextureFilename {
 <a42790e1-7810-11cf-8f52-0040333594a3>
 STRING filename;
}

template Coords2d {
 <f6f23f44-7686-11cf-8f52-0040333594a3>
 FLOAT u;
 FLOAT v;
}

template MeshTextureCoords {
 <f6f23f40-7686-11cf-8f52-0040333594a3>
 DWORD nTextureCoords;
 array Coords2d textureCoords[nTextureCoords];
}

template MeshNormals {
 <f6f23f43-7686-11cf-8f52-0040333594a3>
 DWORD nNormals;
 array Vector normals[nNormals];
 DWORD nFaceNormals;
 array MeshFace faceNormals[nFaceNormals];
}


Mesh  {
 361;
 -1.380000;1.000000;0.000000;,
 -1.473500;1.600000;0.000000;,
 -1.473500;3.300000;0.000000;,
 -1.340000;3.500000;0.000000;,
 -1.380000;1.000000;-19.000000;,
 -1.473500;1.600000;-19.000000;,
 -1.473500;3.300000;-19.000000;,
 -1.340000;3.500000;-19.000000;,
 -1.380000;1.000000;-19.600000;,
 -1.473500;1.600000;-19.600000;,
 -1.473500;3.270000;-19.600000;,
 -1.340000;3.470000;-19.600000;,
 -1.380000;1.000000;-20.000000;,
 -1.473500;1.600000;-20.000000;,
 -1.473500;3.200000;-20.000000;,
 -1.340000;3.400000;-20.000000;,
 -1.280000;1.000000;-20.180000;,
 -1.320000;1.100000;-20.200001;,
 -1.383500;1.500000;-20.200001;,
 -1.373500;1.600000;-20.200001;,
 -1.373500;3.200000;-20.200001;,
 1.380000;1.000000;0.000000;,
 1.473500;1.600000;0.000000;,
 1.473500;3.300000;0.000000;,
 1.340000;3.500000;0.000000;,
 1.380000;1.000000;-19.000000;,
 1.473500;1.600000;-19.000000;,
 1.473500;3.300000;-19.000000;,
 1.340000;3.500000;-19.000000;,
 1.380000;1.000000;-19.600000;,
 1.473500;1.600000;-19.600000;,
 1.473500;3.270000;-19.600000;,
 1.340000;3.470000;-19.600000;,
 1.380000;1.000000;-20.000000;,
 1.473500;1.600000;-20.000000;,
 1.473500;3.200000;-20.000000;,
 1.340000;3.400000;-20.000000;,
 1.280000;1.000000;-20.180000;,
 1.320000;1.100000;-20.200001;,
 1.383500;1.500000;-20.200001;,
 1.373500;1.600000;-20.200001;,
 1.373500;3.200000;-20.200001;,
 -1.280000;1.000000;-20.180000;,
 -1.320000;1.100000;-20.200001;,
 -1.383500;1.500000;-20.200001;,
 -1.373500;1.600000;-20.200001;,
 -1.373500;3.200000;-20.200001;,
 -1.340000;3.400000;-20.000000;,
 -1.180000;1.000000;-20.330000;,
 -1.220000;1.100000;-20.350000;,
 -1.293500;1.500000;-20.350000;,
 -1.273500;1.600000;-20.350000;,
 -1.273500;3.200000;-20.350000;,
 -1.180000;3.400000;-20.150000;,
 -1.080000;1.000000;-20.430000;,
 -1.120000;1.100000;-20.450001;,
 -1.203500;1.500000;-20.450001;,
 -1.173500;1.600000;-20.450001;,
 -1.173500;3.200000;-20.450001;,
 -1.040000;3.400000;-20.250000;,
 -0.880000;1.000000;-20.580000;,
 -0.920000;1.100000;-20.600000;,
 -1.003500;1.500000;-20.600000;,
 -0.973500;1.600000;-20.600000;,
 -0.973500;3.200000;-20.600000;,
 -0.840000;3.400000;-20.400000;,
 -0.690000;1.000000;-20.680000;,
 -0.730000;1.100000;-20.700001;,
 -0.766750;1.500000;-20.700001;,
 -0.736750;1.600000;-20.700001;,
 -0.736750;3.200000;-20.700001;,
 -0.670000;3.400000;-20.500000;,
 -0.300000;1.000000;-20.780001;,
 -0.300000;1.100000;-20.799999;,
 -0.300000;1.500000;-20.799999;,
 -0.300000;1.600000;-20.799999;,
 -0.300000;3.200000;-20.799999;,
 -0.300000;3.400000;-20.600000;,
 0.300000;1.000000;-20.780001;,
 0.300000;1.100000;-20.799999;,
 0.300000;1.500000;-20.799999;,
 0.300000;1.600000;-20.799999;,
 0.300000;3.200000;-20.799999;,
 0.300000;3.400000;-20.600000;,
 0.690000;1.000000;-20.680000;,
 0.730000;1.100000;-20.700001;,
 0.766750;1.500000;-20.700001;,
 0.736750;1.600000;-20.700001;,
 0.736750;3.200000;-20.700001;,
 0.670000;3.400000;-20.500000;,
 0.880000;1.000000;-20.580000;,
 0.920000;1.100000;-20.600000;,
 1.003500;1.500000;-20.600000;,
 0.973500;1.600000;-20.600000;,
 0.973500;3.200000;-20.600000;,
 0.840000;3.400000;-20.400000;,
 1.080000;1.000000;-20.430000;,
 1.120000;1.100000;-20.450001;,
 1.203500;1.500000;-20.450001;,
 1.173500;1.600000;-20.450001;,
 1.173500;3.200000;-20.450001;,
 1.040000;3.400000;-20.250000;,
 1.180000;1.000000;-20.330000;,
 1.220000;1.100000;-20.350000;,
 1.293500;1.500000;-20.350000;,
 1.273500;1.600000;-20.350000;,
 1.273500;3.200000;-20.350000;,
 1.140000;3.400000;-20.150000;,
 1.280000;1.000000;-20.180000;,
 1.320000;1.100000;-20.200001;,
 1.383500;1.500000;-20.200001;,
 1.373500;1.600000;-20.200001;,
 1.373500;3.200000;-20.200001;,
 1.340000;3.400000;-20.000000;,
 -1.340000;3.500000;0.000000;,
 -1.000000;3.600000;0.000000;,
 -0.300000;3.650000;0.000000;,
 0.300000;3.650000;0.000000;,
 1.000000;3.600000;0.000000;,
 1.340000;3.500000;0.000000;,
 -1.340000;3.500000;-19.000000;,
 -1.000000;3.600000;-19.000000;,
 -0.300000;3.650000;-19.000000;,
 0.300000;3.650000;-19.000000;,
 1.000000;3.600000;-19.000000;,
 1.340000;3.500000;-19.000000;,
 -1.340000;3.470000;-19.600000;,
 -1.000000;3.570000;-19.600000;,
 -0.300000;3.620000;-19.600000;,
 0.300000;3.620000;-19.600000;,
 1.000000;3.570000;-19.600000;,
 1.340000;3.470000;-19.600000;,
 -1.340000;3.400000;-20.000000;,
 -1.000000;3.530000;-20.000000;,
 -0.300000;3.580000;-20.000000;,
 0.300000;3.580000;-20.000000;,
 1.000000;3.530000;-20.000000;,
 1.340000;3.400000;-20.000000;,
 -0.650000;3.515000;-20.200001;,
 -0.300000;3.500000;-20.400000;,
 0.300000;3.500000;-20.400000;,
 0.650000;3.515000;-20.200001;,
 -1.180000;3.400000;-20.150000;,
 -1.040000;3.400000;-20.250000;,
 -0.840000;3.400000;-20.400000;,
 -0.670000;3.400000;-20.500000;,
 -0.300000;3.400000;-20.600000;,
 0.300000;3.400000;-20.600000;,
 0.670000;3.400000;-20.500000;,
 0.840000;3.400000;-20.400000;,
 1.040000;3.400000;-20.250000;,
 1.180000;3.400000;-20.150000;,
 -0.500000;3.600000;-6.200000;,
 -0.500000;3.600000;-7.300000;,
 -0.400000;3.800000;-7.200000;,
 -0.400000;3.800000;-6.300000;,
 0.400000;3.800000;-6.300000;,
 0.400000;3.800000;-7.200000;,
 0.500000;3.600000;-7.300000;,
 0.500000;3.600000;-6.200000;,
 -0.500000;3.600000;-14.600000;,
 -0.500000;3.600000;-13.500000;,
 -0.400000;3.800000;-13.600000;,
 -0.400000;3.800000;-14.500000;,
 0.400000;3.800000;-14.500000;,
 0.400000;3.800000;-13.600000;,
 0.500000;3.600000;-13.500000;,
 0.500000;3.600000;-14.600000;,
 -1.000000;3.525000;-12.800000;,
 -1.000000;3.525000;-8.000000;,
 -0.900000;3.825000;-12.700000;,
 -0.900000;3.825000;-8.100000;,
 -0.350000;3.950000;-12.500000;,
 -0.350000;3.950000;-8.300000;,
 0.350000;3.950000;-12.500000;,
 0.350000;3.950000;-8.300000;,
 0.900000;3.825000;-12.700000;,
 0.900000;3.825000;-8.100000;,
 1.000000;3.525000;-12.800000;,
 1.000000;3.525000;-8.000000;,
 -0.350000;3.825000;-13.100000;,
 -0.350000;3.825000;-7.700000;,
 0.350000;3.825000;-13.100000;,
 0.350000;3.825000;-7.700000;,
 -1.000000;3.525000;-12.800000;,
 -0.900000;3.825000;-12.700000;,
 -0.450000;3.525000;-13.200000;,
 -0.350000;3.825000;-13.100000;,
 0.450000;3.525000;-13.200000;,
 0.350000;3.825000;-13.100000;,
 1.000000;3.525000;-12.800000;,
 0.900000;3.825000;-12.700000;,
 1.370000;1.000000;-20.000000;,
 1.080000;1.000000;-20.400000;,
 0.650000;1.000000;-20.650000;,
 0.450000;1.000000;-20.700001;,
 -0.450000;1.000000;-20.700001;,
 -0.650000;1.000000;-20.650000;,
 -1.080000;1.000000;-20.400000;,
 -1.370000;1.000000;-20.000000;,
 1.270000;0.400000;-19.900000;,
 0.980000;0.400000;-20.299999;,
 0.550000;0.400000;-20.549999;,
 0.350000;0.400000;-20.600000;,
 -0.350000;0.400000;-20.600000;,
 -0.550000;0.400000;-20.549999;,
 -0.980000;0.400000;-20.299999;,
 -1.270000;0.400000;-19.900000;,
 1.170000;0.200000;-19.900000;,
 0.880000;0.200000;-20.350000;,
 0.450000;0.200000;-20.600000;,
 0.250000;0.200000;-20.650000;,
 -0.250000;0.200000;-20.650000;,
 -0.450000;0.200000;-20.600000;,
 -0.880000;0.200000;-20.350000;,
 -1.170000;0.200000;-19.900000;,
 1.370000;1.000000;-20.000000;,
 1.270000;0.400000;-19.900000;,
 1.170000;0.200000;-19.900000;,
 1.370000;1.000000;-18.950001;,
 1.270000;0.400000;-19.350000;,
 1.170000;0.200000;-19.500000;,
 -1.370000;1.000000;-20.000000;,
 -1.270000;0.400000;-19.900000;,
 -1.170000;0.200000;-19.900000;,
 -1.370000;1.000000;-18.950001;,
 -1.270000;0.400000;-19.350000;,
 -1.170000;0.200000;-19.500000;,
 -0.450000;0.700000;-20.700001;,
 -0.450000;1.000000;-20.700001;,
 0.450000;1.000000;-20.700001;,
 0.450000;0.700000;-20.700001;,
 -1.250000;0.000000;-0.100000;,
 -1.250000;1.200000;-0.100000;,
 -1.250000;0.000000;-19.299999;,
 -1.250000;1.200000;-19.299999;,
 -0.900000;0.000000;-20.200001;,
 -0.900000;1.200000;-20.200001;,
 -0.300000;0.000000;-20.500000;,
 -0.300000;1.200000;-20.500000;,
 0.300000;0.000000;-20.500000;,
 0.300000;1.200000;-20.500000;,
 0.900000;0.000000;-20.200001;,
 0.900000;1.200000;-20.200001;,
 1.250000;0.000000;-19.299999;,
 1.250000;1.200000;-19.299999;,
 1.250000;0.000000;-0.100000;,
 1.250000;1.200000;-0.100000;,
 -0.200000;0.700000;-20.900000;,
 -0.200000;1.100000;-20.900000;,
 0.200000;1.100000;-20.900000;,
 0.200000;0.700000;-20.900000;,
 -0.100000;0.800000;-20.500000;,
 -0.100000;1.000000;-20.500000;,
 0.100000;0.800000;-20.500000;,
 0.100000;1.000000;-20.500000;,
 -0.100000;0.800000;-20.700001;,
 -0.100000;1.000000;-20.700001;,
 0.100000;0.800000;-20.700001;,
 0.100000;1.000000;-20.700001;,
 -0.150000;0.780000;-20.900000;,
 -0.150000;1.035000;-20.900000;,
 0.150000;0.780000;-20.900000;,
 0.150000;1.035000;-20.900000;,
 -0.200000;0.500000;-20.900000;,
 -0.200000;0.500000;-20.750000;,
 -0.200000;0.730000;-20.750000;,
 -0.200000;0.730000;-20.900000;,
 0.200000;0.730000;-20.900000;,
 0.200000;0.730000;-20.750000;,
 0.200000;0.500000;-20.750000;,
 0.200000;0.500000;-20.900000;,
 -0.150000;0.715000;-20.849998;,
 0.150000;0.715000;-20.849998;,
 -0.150000;0.695902;-20.791220;,
 0.150000;0.695902;-20.791220;,
 -0.150000;0.645902;-20.754892;,
 0.150000;0.645902;-20.754892;,
 -0.150000;0.584098;-20.754892;,
 0.150000;0.584098;-20.754892;,
 -0.150000;0.534098;-20.791220;,
 0.150000;0.534098;-20.791220;,
 -0.150000;0.515000;-20.849998;,
 0.150000;0.515000;-20.849998;,
 -0.150000;0.534098;-20.908777;,
 0.150000;0.534098;-20.908777;,
 -0.150000;0.584098;-20.945105;,
 0.150000;0.584098;-20.945105;,
 -0.150000;0.645902;-20.945105;,
 0.150000;0.645902;-20.945105;,
 -0.150000;0.695902;-20.908777;,
 0.150000;0.695902;-20.908777;,
 -0.140000;0.835000;-20.900000;,
 -0.140000;0.965000;-20.900000;,
 -0.010000;0.835000;-20.900000;,
 -0.010000;0.965000;-20.900000;,
 -0.140000;0.835000;-21.000000;,
 -0.140000;0.965000;-21.000000;,
 -0.010000;0.835000;-21.000000;,
 -0.010000;0.965000;-21.000000;,
 -0.075000;0.900000;-21.100000;,
 0.120000;3.675000;-18.299997;,
 0.120000;3.625000;-18.299997;,
 0.037082;3.675000;-18.185871;,
 0.037082;3.625000;-18.185871;,
 -0.097082;3.675000;-18.229464;,
 -0.097082;3.625000;-18.229464;,
 -0.097082;3.675000;-18.370531;,
 -0.097082;3.625000;-18.370531;,
 0.037082;3.675000;-18.414124;,
 0.037082;3.625000;-18.414124;,
 0.070000;3.930000;-18.299997;,
 0.090000;3.630000;-18.299997;,
 0.021631;3.930000;-18.233423;,
 0.027812;3.630000;-18.214403;,
 -0.056631;3.930000;-18.258852;,
 -0.072812;3.630000;-18.247097;,
 -0.056631;3.930000;-18.341143;,
 -0.072812;3.630000;-18.352898;,
 0.021631;3.930000;-18.366571;,
 0.027812;3.630000;-18.385592;,
 0.670000;3.745000;-18.599998;,
 0.670000;3.695000;-18.599998;,
 0.621631;3.745000;-18.533424;,
 0.621631;3.695000;-18.533424;,
 0.543369;3.745000;-18.558853;,
 0.543369;3.695000;-18.558853;,
 0.543369;3.745000;-18.641144;,
 0.543369;3.695000;-18.641144;,
 0.621631;3.745000;-18.666573;,
 0.621631;3.695000;-18.666573;,
 0.630000;3.725000;-18.599998;,
 0.630000;3.575000;-18.599998;,
 0.609270;3.725000;-18.571466;,
 0.609270;3.575000;-18.571466;,
 0.575729;3.725000;-18.582365;,
 0.575729;3.575000;-18.582365;,
 0.575729;3.725000;-18.617632;,
 0.575729;3.575000;-18.617632;,
 0.609270;3.725000;-18.628531;,
 0.609270;3.575000;-18.628531;,
 0.615000;3.795000;-18.599998;,
 0.615000;3.745000;-18.599998;,
 0.604635;3.795000;-18.585733;,
 0.604635;3.745000;-18.585733;,
 0.587865;3.795000;-18.591181;,
 0.587865;3.745000;-18.591181;,
 0.587865;3.795000;-18.608816;,
 0.587865;3.745000;-18.608816;,
 0.604635;3.795000;-18.614264;,
 0.604635;3.745000;-18.614264;,
 0.650000;3.770000;-18.599998;,
 0.650000;3.730000;-18.599998;,
 0.615451;3.770000;-18.552446;,
 0.615451;3.730000;-18.552446;,
 0.559549;3.770000;-18.570610;,
 0.559549;3.730000;-18.570610;,
 0.559549;3.770000;-18.629387;,
 0.559549;3.730000;-18.629387;,
 0.615451;3.770000;-18.647551;,
 0.615451;3.730000;-18.647551;;
 514;
 3;0,1,5;,
 3;0,5,4;,
 3;1,2,6;,
 3;1,6,5;,
 3;2,3,7;,
 3;2,7,6;,
 3;4,5,9;,
 3;4,9,8;,
 3;5,6,10;,
 3;5,10,9;,
 3;6,7,11;,
 3;6,11,10;,
 3;8,9,13;,
 3;8,13,12;,
 3;9,10,14;,
 3;9,14,13;,
 3;10,11,15;,
 3;10,15,14;,
 3;12,17,16;,
 3;12,13,17;,
 3;13,18,17;,
 3;13,19,18;,
 3;13,14,20;,
 3;13,20,19;,
 3;14,15,20;,
 3;25,26,22;,
 3;25,22,21;,
 3;26,27,23;,
 3;26,23,22;,
 3;27,28,24;,
 3;27,24,23;,
 3;29,30,26;,
 3;29,26,25;,
 3;30,31,27;,
 3;30,27,26;,
 3;31,32,28;,
 3;31,28,27;,
 3;33,34,30;,
 3;33,30,29;,
 3;34,35,31;,
 3;34,31,30;,
 3;35,36,32;,
 3;35,32,31;,
 3;37,38,33;,
 3;38,34,33;,
 3;38,39,34;,
 3;39,40,34;,
 3;40,41,35;,
 3;40,35,34;,
 3;41,36,35;,
 3;42,43,49;,
 3;42,49,48;,
 3;43,44,50;,
 3;43,50,49;,
 3;44,45,51;,
 3;44,51,50;,
 3;45,46,52;,
 3;45,52,51;,
 3;46,47,53;,
 3;46,53,52;,
 3;48,49,55;,
 3;48,55,54;,
 3;49,50,56;,
 3;49,56,55;,
 3;50,51,57;,
 3;50,57,56;,
 3;51,52,58;,
 3;51,58,57;,
 3;52,53,59;,
 3;52,59,58;,
 3;54,55,61;,
 3;54,61,60;,
 3;55,56,62;,
 3;55,62,61;,
 3;56,57,63;,
 3;56,63,62;,
 3;57,58,64;,
 3;57,64,63;,
 3;58,59,65;,
 3;58,65,64;,
 3;60,61,67;,
 3;60,67,66;,
 3;61,62,68;,
 3;61,68,67;,
 3;62,63,69;,
 3;62,69,68;,
 3;63,64,70;,
 3;63,70,69;,
 3;64,65,71;,
 3;64,71,70;,
 3;66,67,73;,
 3;66,73,72;,
 3;67,68,74;,
 3;67,74,73;,
 3;68,69,75;,
 3;68,75,74;,
 3;69,70,76;,
 3;69,76,75;,
 3;70,71,77;,
 3;70,77,76;,
 3;72,73,79;,
 3;72,79,78;,
 3;73,74,80;,
 3;73,80,79;,
 3;74,75,81;,
 3;74,81,80;,
 3;75,76,82;,
 3;75,82,81;,
 3;76,77,83;,
 3;76,83,82;,
 3;78,79,85;,
 3;78,85,84;,
 3;79,80,86;,
 3;79,86,85;,
 3;80,81,87;,
 3;80,87,86;,
 3;81,82,88;,
 3;81,88,87;,
 3;82,83,89;,
 3;82,89,88;,
 3;84,85,91;,
 3;84,91,90;,
 3;85,86,92;,
 3;85,92,91;,
 3;86,87,93;,
 3;86,93,92;,
 3;87,88,94;,
 3;87,94,93;,
 3;88,89,95;,
 3;88,95,94;,
 3;90,91,97;,
 3;90,97,96;,
 3;91,92,98;,
 3;91,98,97;,
 3;92,93,99;,
 3;92,99,98;,
 3;93,94,100;,
 3;93,100,99;,
 3;94,95,101;,
 3;94,101,100;,
 3;96,97,103;,
 3;96,103,102;,
 3;97,98,104;,
 3;97,104,103;,
 3;98,99,105;,
 3;98,105,104;,
 3;99,100,106;,
 3;99,106,105;,
 3;100,101,107;,
 3;100,107,106;,
 3;102,103,109;,
 3;102,109,108;,
 3;103,104,110;,
 3;103,110,109;,
 3;104,105,111;,
 3;104,111,110;,
 3;105,106,112;,
 3;105,112,111;,
 3;106,107,113;,
 3;106,113,112;,
 3;132,133,142;,
 3;133,138,143;,
 3;133,143,142;,
 3;138,144,143;,
 3;138,145,144;,
 3;138,139,146;,
 3;138,146,145;,
 3;139,140,147;,
 3;139,147,146;,
 3;140,141,148;,
 3;140,148,147;,
 3;150,149,141;,
 3;149,148,141;,
 3;151,150,141;,
 3;151,141,136;,
 3;151,136,137;,
 3;114,115,121;,
 3;114,121,120;,
 3;115,116,122;,
 3;115,122,121;,
 3;116,117,123;,
 3;116,123,122;,
 3;117,118,124;,
 3;117,124,123;,
 3;118,119,125;,
 3;118,125,124;,
 3;120,121,127;,
 3;120,127,126;,
 3;121,122,128;,
 3;121,128,127;,
 3;122,123,129;,
 3;122,129,128;,
 3;123,124,130;,
 3;123,130,129;,
 3;124,125,131;,
 3;124,131,130;,
 3;126,127,133;,
 3;126,133,132;,
 3;127,128,134;,
 3;127,134,133;,
 3;128,129,135;,
 3;128,135,134;,
 3;129,130,136;,
 3;129,136,135;,
 3;130,131,137;,
 3;130,137,136;,
 3;133,134,138;,
 3;134,139,138;,
 3;134,135,140;,
 3;134,140,139;,
 3;141,140,135;,
 3;135,136,141;,
 3;155,154,153;,
 3;155,153,152;,
 3;154,155,156;,
 3;154,156,157;,
 3;159,158,157;,
 3;159,157,156;,
 3;153,154,157;,
 3;153,157,158;,
 3;160,161,162;,
 3;160,162,163;,
 3;165,164,163;,
 3;165,163,162;,
 3;164,165,166;,
 3;164,166,167;,
 3;160,163,164;,
 3;160,164,167;,
 3;168,169,171;,
 3;168,171,170;,
 3;170,171,173;,
 3;170,173,172;,
 3;172,173,175;,
 3;172,175,174;,
 3;174,175,177;,
 3;174,177,176;,
 3;176,177,179;,
 3;176,179,178;,
 3;170,172,180;,
 3;174,182,180;,
 3;174,180,172;,
 3;174,176,182;,
 3;181,173,171;,
 3;173,181,183;,
 3;173,183,175;,
 3;183,177,175;,
 3;184,185,187;,
 3;184,187,186;,
 3;186,187,189;,
 3;186,189,188;,
 3;188,189,191;,
 3;188,191,190;,
 3;192,193,201;,
 3;192,201,200;,
 3;200,201,193;,
 3;200,193,192;,
 3;193,194,202;,
 3;193,202,201;,
 3;201,202,194;,
 3;201,194,193;,
 3;194,195,203;,
 3;194,203,202;,
 3;202,203,195;,
 3;202,195,194;,
 3;195,196,204;,
 3;195,204,203;,
 3;203,204,196;,
 3;203,196,195;,
 3;196,197,205;,
 3;196,205,204;,
 3;204,205,197;,
 3;204,197,196;,
 3;197,198,206;,
 3;197,206,205;,
 3;205,206,198;,
 3;205,198,197;,
 3;198,199,207;,
 3;198,207,206;,
 3;206,207,199;,
 3;206,199,198;,
 3;200,201,209;,
 3;200,209,208;,
 3;208,209,201;,
 3;208,201,200;,
 3;201,202,210;,
 3;201,210,209;,
 3;209,210,202;,
 3;209,202,201;,
 3;202,203,211;,
 3;202,211,210;,
 3;210,211,203;,
 3;210,203,202;,
 3;203,204,212;,
 3;203,212,211;,
 3;211,212,204;,
 3;211,204,203;,
 3;204,205,213;,
 3;204,213,212;,
 3;212,213,205;,
 3;212,205,204;,
 3;205,206,214;,
 3;205,214,213;,
 3;213,214,206;,
 3;213,206,205;,
 3;206,207,215;,
 3;206,215,214;,
 3;214,215,207;,
 3;214,207,206;,
 3;216,217,220;,
 3;216,220,219;,
 3;219,220,217;,
 3;219,217,216;,
 3;217,218,221;,
 3;217,221,220;,
 3;220,221,218;,
 3;220,218,217;,
 3;222,223,226;,
 3;222,226,225;,
 3;225,226,223;,
 3;225,223,222;,
 3;223,224,227;,
 3;223,227,226;,
 3;226,227,224;,
 3;226,224,223;,
 3;228,229,230;,
 3;228,230,231;,
 3;232,233,235;,
 3;232,235,234;,
 3;234,235,237;,
 3;234,237,236;,
 3;236,237,239;,
 3;236,239,238;,
 3;238,239,241;,
 3;238,241,240;,
 3;240,241,243;,
 3;240,243,242;,
 3;242,243,245;,
 3;242,245,244;,
 3;244,245,247;,
 3;244,247,246;,
 3;248,249,250;,
 3;248,250,251;,
 3;252,253,257;,
 3;252,257,256;,
 3;258,259,255;,
 3;258,255,254;,
 3;256,258,254;,
 3;256,254,252;,
 3;253,255,259;,
 3;253,259,257;,
 3;256,257,261;,
 3;256,261,260;,
 3;262,263,259;,
 3;262,259,258;,
 3;260,262,258;,
 3;260,258,256;,
 3;257,259,263;,
 3;257,263,261;,
 3;264,265,266;,
 3;264,266,267;,
 3;269,268,267;,
 3;269,267,266;,
 3;268,269,270;,
 3;268,270,271;,
 3;271,270,265;,
 3;271,265,264;,
 3;270,269,266;,
 3;270,266,265;,
 3;264,267,268;,
 3;264,268,271;,
 3;273,272,274;,
 3;273,274,275;,
 3;275,274,276;,
 3;275,276,277;,
 3;277,276,278;,
 3;277,278,279;,
 3;279,278,280;,
 3;279,280,281;,
 3;281,280,282;,
 3;281,282,283;,
 3;283,282,284;,
 3;283,284,285;,
 3;285,284,286;,
 3;285,286,287;,
 3;287,286,288;,
 3;287,288,289;,
 3;289,288,290;,
 3;289,290,291;,
 3;291,290,272;,
 3;291,272,273;,
 3;290,288,286;,
 3;290,286,284;,
 3;290,284,282;,
 3;290,282,280;,
 3;290,280,278;,
 3;290,278,276;,
 3;290,276,274;,
 3;290,274,272;,
 3;273,275,277;,
 3;273,277,279;,
 3;273,279,281;,
 3;273,281,283;,
 3;273,283,285;,
 3;273,285,287;,
 3;273,287,289;,
 3;273,289,291;,
 3;292,293,297;,
 3;292,297,296;,
 3;298,299,295;,
 3;298,295,294;,
 3;296,298,294;,
 3;296,294,292;,
 3;293,295,299;,
 3;293,299,297;,
 3;296,297,300;,
 3;300,299,298;,
 3;300,298,296;,
 3;297,299,300;,
 3;302,301,303;,
 3;302,303,304;,
 3;304,303,305;,
 3;304,305,306;,
 3;306,305,307;,
 3;306,307,308;,
 3;308,307,309;,
 3;308,309,310;,
 3;310,309,301;,
 3;310,301,302;,
 3;309,307,305;,
 3;309,305,303;,
 3;309,303,301;,
 3;302,304,306;,
 3;302,306,308;,
 3;302,308,310;,
 3;312,311,313;,
 3;312,313,314;,
 3;314,313,315;,
 3;314,315,316;,
 3;316,315,317;,
 3;316,317,318;,
 3;318,317,319;,
 3;318,319,320;,
 3;320,319,311;,
 3;320,311,312;,
 3;319,317,315;,
 3;319,315,313;,
 3;319,313,311;,
 3;312,314,316;,
 3;312,316,318;,
 3;312,318,320;,
 3;322,321,323;,
 3;322,323,324;,
 3;324,323,325;,
 3;324,325,326;,
 3;326,325,327;,
 3;326,327,328;,
 3;328,327,329;,
 3;328,329,330;,
 3;330,329,321;,
 3;330,321,322;,
 3;329,327,325;,
 3;329,325,323;,
 3;329,323,321;,
 3;322,324,326;,
 3;322,326,328;,
 3;322,328,330;,
 3;332,331,333;,
 3;332,333,334;,
 3;334,333,335;,
 3;334,335,336;,
 3;336,335,337;,
 3;336,337,338;,
 3;338,337,339;,
 3;338,339,340;,
 3;340,339,331;,
 3;340,331,332;,
 3;339,337,335;,
 3;339,335,333;,
 3;339,333,331;,
 3;332,334,336;,
 3;332,336,338;,
 3;332,338,340;,
 3;342,341,343;,
 3;342,343,344;,
 3;344,343,345;,
 3;344,345,346;,
 3;346,345,347;,
 3;346,347,348;,
 3;348,347,349;,
 3;348,349,350;,
 3;350,349,341;,
 3;350,341,342;,
 3;349,347,345;,
 3;349,345,343;,
 3;349,343,341;,
 3;342,344,346;,
 3;342,346,348;,
 3;342,348,350;,
 3;352,351,353;,
 3;352,353,354;,
 3;354,353,355;,
 3;354,355,356;,
 3;356,355,357;,
 3;356,357,358;,
 3;358,357,359;,
 3;358,359,360;,
 3;360,359,351;,
 3;360,351,352;,
 3;359,357,355;,
 3;359,355,353;,
 3;359,353,351;,
 3;352,354,356;,
 3;352,356,358;,
 3;352,358,360;;

 MeshMaterialList  {
  24;
  514;
  0,
  0,
  0,
  0,
  0,
  0,
  0,
  0,
  0,
  0,
  0,
  0,
  0,
  0,
  0,
  0,
  0,
  0,
  0,
  0,
  0,
  0,
  0,
  0,
  0,
  1,
  1,
  1,
  1,
  1,
  1,
  1,
  1,
  1,
  1,
  1,
  1,
  1,
  1,
  1,
  1,
  1,
  1,
  1,
  1,
  1,
  1,
  1,
  1,
  1,
  2,
  2,
  2,
  2,
  2,
  2,
  2,
  2,
  2,
  2,
  2,
  2,
  2,
  2,
  2,
  2,
  2,
  2,
  2,
  2,
  2,
  2,
  2,
  2,
  2,
  2,
  2,
  2,
  2,
  2,
  2,
  2,
  2,
  2,
  2,
  2,
  2,
  2,
  2,
  2,
  2,
  2,
  2,
  2,
  2,
  2,
  2,
  2,
  2,
  2,
  2,
  2,
  2,
  2,
  2,
  2,
  2,
  2,
  2,
  2,
  2,
  2,
  2,
  2,
  2,
  2,
  2,
  2,
  2,
  2,
  2,
  2,
  2,
  2,
  2,
  2,
  2,
  2,
  2,
  2,
  2,
  2,
  2,
  2,
  2,
  2,
  2,
  2,
  2,
  2,
  2,
  2,
  2,
  2,
  2,
  2,
  2,
  2,
  2,
  2,
  2,
  2,
  2,
  2,
  2,
  2,
  2,
  2,
  2,
  2,
  3,
  3,
  3,
  3,
  3,
  3,
  3,
  3,
  3,
  3,
  3,
  3,
  3,
  3,
  3,
  3,
  3,
  3,
  3,
  3,
  3,
  3,
  3,
  3,
  3,
  3,
  3,
  3,
  3,
  3,
  3,
  3,
  3,
  3,
  3,
  3,
  3,
  3,
  3,
  3,
  3,
  3,
  3,
  3,
  3,
  3,
  3,
  3,
  3,
  3,
  3,
  3,
  4,
  4,
  4,
  4,
  4,
  4,
  4,
  4,
  5,
  5,
  5,
  5,
  5,
  5,
  5,
  5,
  6,
  6,
  6,
  6,
  6,
  6,
  6,
  6,
  6,
  6,
  6,
  6,
  6,
  6,
  6,
  6,
  6,
  6,
  7,
  7,
  7,
  7,
  7,
  7,
  8,
  8,
  8,
  8,
  8,
  8,
  8,
  8,
  8,
  8,
  8,
  8,
  8,
  8,
  8,
  8,
  8,
  8,
  8,
  8,
  8,
  8,
  8,
  8,
  8,
  8,
  8,
  8,
  8,
  8,
  8,
  8,
  8,
  8,
  8,
  8,
  8,
  8,
  8,
  8,
  8,
  8,
  8,
  8,
  8,
  8,
  8,
  8,
  8,
  8,
  8,
  8,
  8,
  8,
  8,
  8,
  9,
  9,
  9,
  9,
  9,
  9,
  9,
  9,
  10,
  10,
  10,
  10,
  10,
  10,
  10,
  10,
  11,
  11,
  12,
  12,
  12,
  12,
  12,
  12,
  12,
  12,
  12,
  12,
  12,
  12,
  12,
  12,
  13,
  13,
  14,
  14,
  14,
  14,
  14,
  14,
  14,
  14,
  14,
  14,
  14,
  14,
  14,
  14,
  14,
  14,
  15,
  15,
  15,
  15,
  15,
  15,
  15,
  15,
  15,
  15,
  15,
  15,
  16,
  16,
  16,
  16,
  16,
  16,
  16,
  16,
  16,
  16,
  16,
  16,
  16,
  16,
  16,
  16,
  16,
  16,
  16,
  16,
  16,
  16,
  16,
  16,
  16,
  16,
  16,
  16,
  16,
  16,
  16,
  16,
  16,
  16,
  16,
  16,
  17,
  17,
  17,
  17,
  17,
  17,
  17,
  17,
  17,
  17,
  17,
  17,
  18,
  18,
  18,
  18,
  18,
  18,
  18,
  18,
  18,
  18,
  18,
  18,
  18,
  18,
  18,
  18,
  19,
  19,
  19,
  19,
  19,
  19,
  19,
  19,
  19,
  19,
  19,
  19,
  19,
  19,
  19,
  19,
  20,
  20,
  20,
  20,
  20,
  20,
  20,
  20,
  20,
  20,
  20,
  20,
  20,
  20,
  20,
  20,
  21,
  21,
  21,
  21,
  21,
  21,
  21,
  21,
  21,
  21,
  21,
  21,
  21,
  21,
  21,
  21,
  22,
  22,
  22,
  22,
  22,
  22,
  22,
  22,
  22,
  22,
  22,
  22,
  22,
  22,
  22,
  22,
  23,
  23,
  23,
  23,
  23,
  23,
  23,
  23,
  23,
  23,
  23,
  23,
  23,
  23,
  23,
  23;

  Material  {
   1.000000;1.000000;1.000000;1.000000;;
   0.000000;
   0.000000;0.000000;0.000000;;
   0.000000;0.000000;0.000000;;

   TextureFilename  {
    "Tc372s2.png";
   }
  }

  Material  {
   1.000000;1.000000;1.000000;1.000000;;
   0.000000;
   0.000000;0.000000;0.000000;;
   0.000000;0.000000;0.000000;;

   TextureFilename  {
    "Tc372s1.png";
   }
  }

  Material  {
   1.000000;1.000000;1.000000;1.000000;;
   0.000000;
   0.000000;0.000000;0.000000;;
   0.000000;0.000000;0.000000;;

   TextureFilename  {
    "373f.png";
   }
  }

  Material  {
   1.000000;1.000000;1.000000;1.000000;;
   0.000000;
   0.000000;0.000000;0.000000;;
   0.000000;0.000000;0.000000;;

   TextureFilename  {
    "373r.png";
   }
  }

  Material  {
   1.000000;1.000000;1.000000;1.000000;;
   0.000000;
   0.000000;0.000000;0.000000;;
   0.000000;0.000000;0.000000;;

   TextureFilename  {
    "co2.png";
   }
  }

  Material  {
   1.000000;1.000000;1.000000;1.000000;;
   0.000000;
   0.000000;0.000000;0.000000;;
   0.000000;0.000000;0.000000;;

   TextureFilename  {
    "co2.png";
   }
  }

  Material  {
   1.000000;1.000000;1.000000;1.000000;;
   0.000000;
   0.000000;0.000000;0.000000;;
   0.000000;0.000000;0.000000;;

   TextureFilename  {
    "co1.png";
   }
  }

  Material  {
   1.000000;1.000000;1.000000;1.000000;;
   0.000000;
   0.000000;0.000000;0.000000;;
   0.000000;0.000000;0.000000;;

   TextureFilename  {
    "co2.png";
   }
  }

  Material  {
   1.000000;1.000000;1.000000;1.000000;;
   0.000000;
   0.000000;0.000000;0.000000;;
   0.000000;0.000000;0.000000;;

   TextureFilename  {
    "373sk.png";
   }
  }

  Material  {
   1.000000;1.000000;1.000000;1.000000;;
   0.000000;
   0.000000;0.000000;0.000000;;
   0.000000;0.000000;0.000000;;

   TextureFilename  {
    "373sk2.png";
   }
  }

  Material  {
   1.000000;1.000000;1.000000;1.000000;;
   0.000000;
   0.000000;0.000000;0.000000;;
   0.000000;0.000000;0.000000;;

   TextureFilename  {
    "373sk2.png";
   }
  }

  Material  {
   1.000000;1.000000;1.000000;1.000000;;
   0.000000;
   0.000000;0.000000;0.000000;;
   0.000000;0.000000;0.000000;;

   TextureFilename  {
    "373sk3.png";
   }
  }

  Material  {
   0.078431;0.078431;0.078431;1.000000;;
   0.000000;
   0.000000;0.000000;0.000000;;
   0.000000;0.000000;0.000000;;
  }

  Material  {
   1.000000;1.000000;1.000000;1.000000;;
   0.000000;
   0.000000;0.000000;0.000000;;
   0.000000;0.000000;0.000000;;

   TextureFilename  {
    "373sk4.png";
   }
  }

  Material  {
   1.000000;1.000000;1.000000;1.000000;;
   0.000000;
   0.000000;0.000000;0.000000;;
   0.000000;0.000000;0.000000;;

   TextureFilename  {
    "373sk5.png";
   }
  }

  Material  {
   0.282353;0.239216;0.188235;1.000000;;
   0.000000;
   0.000000;0.000000;0.000000;;
   0.000000;0.000000;0.000000;;
  }

  Material  {
   0.509804;0.509804;0.509804;1.000000;;
   0.000000;
   0.000000;0.000000;0.000000;;
   0.000000;0.000000;0.000000;;
  }

  Material  {
   1.000000;1.000000;1.000000;1.000000;;
   0.000000;
   0.000000;0.000000;0.000000;;
   0.000000;0.000000;0.000000;;

   TextureFilename  {
    "connect.png";
   }
  }

  Material  {
   0.588235;0.588235;0.588235;1.000000;;
   0.000000;
   0.000000;0.000000;0.000000;;
   0.000000;0.000000;0.000000;;
  }

  Material  {
   0.588235;0.588235;0.588235;1.000000;;
   0.000000;
   0.000000;0.000000;0.000000;;
   0.000000;0.000000;0.000000;;
  }

  Material  {
   0.588235;0.588235;0.588235;1.000000;;
   0.000000;
   0.000000;0.000000;0.000000;;
   0.000000;0.000000;0.000000;;
  }

  Material  {
   0.588235;0.588235;0.588235;1.000000;;
   0.000000;
   0.000000;0.000000;0.000000;;
   0.000000;0.000000;0.000000;;
  }

  Material  {
   0.588235;0.588235;0.588235;1.000000;;
   0.000000;
   0.000000;0.000000;0.000000;;
   0.000000;0.000000;0.000000;;
  }

  Material  {
   0.588235;0.588235;0.588235;1.000000;;
   0.000000;
   0.000000;0.000000;0.000000;;
   0.000000;0.000000;0.000000;;
  }
 }

 MeshTextureCoords  {
  361;
  1.000000;0.995000;,
  1.000000;0.757400;,
  1.000000;0.084200;,
  1.000000;0.005000;,
  0.086538;0.995000;,
  0.086538;0.757400;,
  0.086538;0.084200;,
  0.086538;0.005000;,
  0.057692;0.995000;,
  0.057692;0.757400;,
  0.057692;0.096080;,
  0.057692;0.016880;,
  0.038462;0.995000;,
  0.038462;0.757400;,
  0.038462;0.123800;,
  0.038462;0.044600;,
  0.029808;0.995000;,
  0.028846;0.955400;,
  0.028846;0.797000;,
  0.028846;0.757400;,
  0.028846;0.123800;,
  1.000000;0.995000;,
  1.000000;0.757400;,
  1.000000;0.084200;,
  1.000000;0.005000;,
  0.086538;0.995000;,
  0.086538;0.757400;,
  0.086538;0.084200;,
  0.086538;0.005000;,
  0.057692;0.995000;,
  0.057692;0.757400;,
  0.057692;0.096080;,
  0.057692;0.016880;,
  0.038462;0.995000;,
  0.038462;0.757400;,
  0.038462;0.123800;,
  0.038462;0.044600;,
  0.029808;0.995000;,
  0.028846;0.955400;,
  0.028846;0.797000;,
  0.028846;0.757400;,
  0.028846;0.123800;,
  0.065660;0.995000;,
  0.052087;0.955400;,
  0.030540;0.797000;,
  0.033933;0.757400;,
  0.033933;0.123800;,
  0.045300;0.044600;,
  0.099593;0.995000;,
  0.086020;0.955400;,
  0.061079;0.797000;,
  0.067866;0.757400;,
  0.067866;0.123800;,
  0.099593;0.044600;,
  0.133526;0.995000;,
  0.119952;0.955400;,
  0.091619;0.797000;,
  0.101798;0.757400;,
  0.101798;0.123800;,
  0.147099;0.044600;,
  0.201391;0.995000;,
  0.187818;0.955400;,
  0.159484;0.797000;,
  0.169664;0.757400;,
  0.169664;0.123800;,
  0.214964;0.044600;,
  0.265864;0.995000;,
  0.252290;0.955400;,
  0.239820;0.797000;,
  0.250000;0.757400;,
  0.250000;0.123800;,
  0.272650;0.044600;,
  0.398202;0.995000;,
  0.398202;0.955400;,
  0.398202;0.797000;,
  0.398202;0.757400;,
  0.398202;0.123800;,
  0.398202;0.044600;,
  0.601798;0.995000;,
  0.601798;0.955400;,
  0.601798;0.797000;,
  0.601798;0.757400;,
  0.601798;0.123800;,
  0.601798;0.044600;,
  0.734136;0.995000;,
  0.747710;0.955400;,
  0.760180;0.797000;,
  0.750000;0.757400;,
  0.750000;0.123800;,
  0.727350;0.044600;,
  0.798609;0.995000;,
  0.812182;0.955400;,
  0.840516;0.797000;,
  0.830336;0.757400;,
  0.830336;0.123800;,
  0.785036;0.044600;,
  0.866474;0.995000;,
  0.880048;0.955400;,
  0.908381;0.797000;,
  0.898202;0.757400;,
  0.898202;0.123800;,
  0.852901;0.044600;,
  0.900407;0.995000;,
  0.913980;0.955400;,
  0.942314;0.797000;,
  0.932134;0.757400;,
  0.932134;0.123800;,
  0.886834;0.044600;,
  0.934340;0.995000;,
  0.947913;0.955400;,
  0.976247;0.797000;,
  0.966067;0.757400;,
  0.966067;0.123800;,
  0.954700;0.044600;,
  1.000000;1.000000;,
  1.000000;0.873134;,
  1.000000;0.611940;,
  1.000000;0.388060;,
  1.000000;0.126866;,
  1.000000;0.000000;,
  0.086538;1.000000;,
  0.086538;0.873134;,
  0.086538;0.611940;,
  0.086538;0.388060;,
  0.086538;0.126866;,
  0.086538;0.000000;,
  0.057692;1.000000;,
  0.057692;0.873134;,
  0.057692;0.611940;,
  0.057692;0.388060;,
  0.057692;0.126866;,
  0.057692;0.000000;,
  0.038462;1.000000;,
  0.038462;0.873134;,
  0.038462;0.611940;,
  0.038462;0.388060;,
  0.038462;0.126866;,
  0.038462;0.000000;,
  0.028846;0.742537;,
  0.019231;0.611940;,
  0.019231;0.388060;,
  0.028846;0.257463;,
  0.031250;0.940298;,
  0.026442;0.888060;,
  0.019231;0.813433;,
  0.014423;0.750000;,
  0.009615;0.611940;,
  0.009615;0.388060;,
  0.014423;0.250000;,
  0.019231;0.186567;,
  0.026442;0.111940;,
  0.031250;0.059701;,
  1.000000;1.000000;,
  0.000000;1.000000;,
  0.000000;0.900000;,
  1.000000;0.900000;,
  1.000000;0.100000;,
  0.000000;0.100000;,
  0.000000;0.000000;,
  1.000000;0.000000;,
  1.000000;1.000000;,
  0.000000;1.000000;,
  0.000000;0.900000;,
  1.000000;0.900000;,
  1.000000;0.100000;,
  0.000000;0.100000;,
  0.000000;0.000000;,
  1.000000;0.000000;,
  1.000000;1.000000;,
  0.000000;1.000000;,
  0.980000;0.850000;,
  0.020000;0.850000;,
  0.937000;0.620000;,
  0.063000;0.620000;,
  0.937000;0.380000;,
  0.063000;0.380000;,
  0.980000;0.150000;,
  0.020000;0.150000;,
  1.000000;0.000000;,
  0.000000;0.000000;,
  1.000000;0.620000;,
  0.000000;0.620000;,
  1.000000;0.380000;,
  0.000000;0.380000;,
  1.000000;1.000000;,
  0.850000;0.000000;,
  0.620000;1.000000;,
  0.380000;0.000000;,
  0.620000;1.000000;,
  0.380000;0.000000;,
  0.150000;1.000000;,
  0.000000;0.000000;,
  0.000000;0.000000;,
  0.105839;0.000000;,
  0.262774;0.000000;,
  0.335766;0.000000;,
  0.664234;0.000000;,
  0.737226;0.000000;,
  0.894161;0.000000;,
  1.000000;0.000000;,
  0.036496;0.750000;,
  0.142336;0.750000;,
  0.299270;0.750000;,
  0.372263;0.750000;,
  0.627737;0.750000;,
  0.700730;0.750000;,
  0.857664;0.750000;,
  0.963504;0.750000;,
  0.072993;1.000000;,
  0.178832;1.000000;,
  0.335766;1.000000;,
  0.408759;1.000000;,
  0.591241;1.000000;,
  0.664234;1.000000;,
  0.821168;1.000000;,
  0.927007;1.000000;,
  0.000000;0.000000;,
  0.095240;0.750000;,
  0.095240;1.000000;,
  1.000000;0.000000;,
  0.619050;0.750000;,
  0.476190;1.000000;,
  0.000000;0.000000;,
  0.095240;0.750000;,
  0.095240;1.000000;,
  1.000000;0.000000;,
  0.619050;0.750000;,
  0.476190;1.000000;,
  0.000000;0.970000;,
  0.000000;0.010000;,
  1.000000;0.010000;,
  1.000000;0.970000;,
  0.000000;0.000000;,
  0.000000;0.000000;,
  0.000000;0.000000;,
  0.000000;0.000000;,
  0.000000;0.000000;,
  0.000000;0.000000;,
  0.000000;0.000000;,
  0.000000;0.000000;,
  0.000000;0.000000;,
  0.000000;0.000000;,
  0.000000;0.000000;,
  0.000000;0.000000;,
  0.000000;0.000000;,
  0.000000;0.000000;,
  0.000000;0.000000;,
  0.000000;0.000000;,
  0.000000;1.000000;,
  0.000000;0.000000;,
  1.000000;0.000000;,
  1.000000;1.000000;,
  1.000000;1.000000;,
  1.000000;0.750000;,
  1.000000;0.250000;,
  1.000000;0.000000;,
  0.400000;1.000000;,
  0.400000;0.750000;,
  0.400000;0.250000;,
  0.400000;0.000000;,
  0.000000;1.000000;,
  0.000000;0.750000;,
  0.000000;0.250000;,
  0.000000;0.000000;,
  0.000000;0.000000;,
  0.000000;0.000000;,
  0.000000;0.000000;,
  0.000000;0.000000;,
  0.000000;0.000000;,
  0.000000;0.000000;,
  0.000000;0.000000;,
  0.000000;0.000000;,
  0.000000;0.000000;,
  0.000000;0.000000;,
  0.000000;0.000000;,
  0.000000;0.000000;,
  0.000000;0.000000;,
  0.000000;0.000000;,
  0.000000;0.000000;,
  0.000000;0.000000;,
  0.000000;0.000000;,
  0.000000;0.000000;,
  0.000000;0.000000;,
  0.000000;0.000000;,
  0.000000;0.000000;,
  0.000000;0.000000;,
  0.000000;0.000000;,
  0.000000;0.000000;,
  0.000000;0.000000;,
  0.000000;0.000000;,
  0.000000;0.000000;,
  0.000000;0.000000;,
  0.000000;1.000000;,
  0.000000;0.000000;,
  1.000000;1.000000;,
  1.000000;0.000000;,
  0.010000;0.990000;,
  0.010000;0.010000;,
  0.990000;0.990000;,
  0.990000;0.010000;,
  0.500000;0.500000;,
  0.000000;0.000000;,
  0.000000;0.000000;,
  0.000000;0.000000;,
  0.000000;0.000000;,
  0.000000;0.000000;,
  0.000000;0.000000;,
  0.000000;0.000000;,
  0.000000;0.000000;,
  0.000000;0.000000;,
  0.000000;0.000000;,
  0.000000;0.000000;,
  0.000000;0.000000;,
  0.000000;0.000000;,
  0.000000;0.000000;,
  0.000000;0.000000;,
  0.000000;0.000000;,
  0.000000;0.000000;,
  0.000000;0.000000;,
  0.000000;0.000000;,
  0.000000;0.000000;,
  0.000000;0.000000;,
  0.000000;0.000000;,
  0.000000;0.000000;,
  0.000000;0.000000;,
  0.000000;0.000000;,
  0.000000;0.000000;,
  0.000000;0.000000;,
  0.000000;0.000000;,
  0.000000;0.000000;,
  0.000000;0.000000;,
  0.000000;0.000000;,
  0.000000;0.000000;,
  0.000000;0.000000;,
  0.000000;0.000000;,
  0.000000;0.000000;,
  0.000000;0.000000;,
  0.000000;0.000000;,
  0.000000;0.000000;,
  0.000000;0.000000;,
  0.000000;0.000000;,
  0.000000;0.000000;,
  0.000000;0.000000;,
  0.000000;0.000000;,
  0.000000;0.000000;,
  0.000000;0.000000;,
  0.000000;0.000000;,
  0.000000;0.000000;,
  0.000000;0.000000;,
  0.000000;0.000000;,
  0.000000;0.000000;,
  0.000000;0.000000;,
  0.000000;0.000000;,
  0.000000;0.000000;,
  0.000000;0.000000;,
  0.000000;0.000000;,
  0.000000;0.000000;,
  0.000000;0.000000;,
  0.000000;0.000000;,
  0.000000;0.000000;,
  0.000000;0.000000;;
 }

 MeshNormals  {
  462;
  -0.988075;-0.153975;0.000000;,
  -0.988075;-0.153975;0.000000;,
  -1.000000;0.000000;0.000000;,
  -1.000000;0.000000;0.000000;,
  -0.831730;0.555180;0.000000;,
  -0.831730;0.555180;0.000000;,
  -0.988075;-0.153975;0.000000;,
  -0.988075;-0.153975;0.000000;,
  -1.000000;0.000000;0.000000;,
  -1.000000;0.000000;0.000000;,
  -0.831410;0.554966;-0.027748;,
  -0.831410;0.554966;-0.027748;,
  -0.988075;-0.153975;0.000000;,
  -0.988075;-0.153975;0.000000;,
  -1.000000;0.000000;0.000000;,
  -1.000000;0.000000;0.000000;,
  -0.827832;0.552578;-0.096701;,
  -0.827832;0.552578;-0.096701;,
  -0.798118;-0.407929;-0.443398;,
  -0.925647;-0.144247;-0.349816;,
  -0.927452;-0.147233;-0.343736;,
  -0.890871;0.089087;-0.445434;,
  -0.894428;0.000000;-0.447212;,
  -0.894428;0.000000;-0.447212;,
  -0.767970;0.512620;-0.383984;,
  0.988075;-0.153975;0.000000;,
  0.988075;-0.153975;0.000000;,
  1.000000;0.000000;0.000000;,
  1.000000;0.000000;0.000000;,
  0.831730;0.555180;0.000000;,
  0.831730;0.555180;0.000000;,
  0.988075;-0.153975;0.000000;,
  0.988075;-0.153975;0.000000;,
  1.000000;0.000000;0.000000;,
  1.000000;0.000000;0.000000;,
  0.831410;0.554966;-0.027748;,
  0.831410;0.554966;-0.027748;,
  0.988075;-0.153975;0.000000;,
  0.988075;-0.153975;0.000000;,
  1.000000;0.000000;0.000000;,
  1.000000;0.000000;0.000000;,
  0.827832;0.552578;-0.096701;,
  0.827832;0.552578;-0.096701;,
  0.798118;-0.407929;-0.443398;,
  0.925647;-0.144247;-0.349816;,
  0.927452;-0.147233;-0.343736;,
  0.890871;0.089087;-0.445434;,
  0.894428;0.000000;-0.447212;,
  0.894428;0.000000;-0.447212;,
  0.767970;0.512620;-0.383984;,
  -0.760529;-0.405618;-0.507020;,
  -0.760529;-0.405618;-0.507020;,
  -0.849656;-0.134883;-0.509795;,
  -0.822492;-0.151133;-0.548330;,
  -0.829184;0.082918;-0.552791;,
  -0.845154;0.169031;-0.507094;,
  -0.832050;0.000000;-0.554701;,
  -0.832050;0.000000;-0.554701;,
  -0.522639;0.645027;-0.557483;,
  -0.605140;0.686332;-0.403428;,
  -0.650945;-0.390570;-0.650942;,
  -0.650945;-0.390569;-0.650942;,
  -0.736458;-0.135324;-0.662809;,
  -0.699528;-0.146027;-0.699526;,
  -0.700141;0.140028;-0.700139;,
  -0.725478;0.217644;-0.652927;,
  -0.707108;0.000000;-0.707106;,
  -0.707108;0.000000;-0.707106;,
  -0.393825;0.735467;-0.551352;,
  -0.457363;0.762653;-0.457361;,
  -0.557085;-0.371393;-0.742781;,
  -0.557084;-0.371393;-0.742781;,
  -0.595347;-0.124279;-0.793799;,
  -0.595348;-0.124279;-0.793799;,
  -0.590509;0.177153;-0.787347;,
  -0.590509;0.177152;-0.787347;,
  -0.599999;0.000000;-0.800001;,
  -0.599999;0.000000;-0.800001;,
  -0.384015;0.768353;-0.512021;,
  -0.384015;0.768353;-0.512021;,
  -0.437756;-0.341453;-0.831733;,
  -0.437756;-0.341453;-0.831733;,
  -0.387825;-0.080958;-0.918171;,
  -0.465322;-0.042751;-0.884108;,
  -0.386478;0.115943;-0.914982;,
  -0.386478;0.115943;-0.914982;,
  -0.389102;0.000000;-0.921195;,
  -0.389102;0.000000;-0.921195;,
  -0.324528;0.768319;-0.551695;,
  -0.268204;0.724486;-0.634970;,
  -0.217812;-0.274451;-0.936608;,
  -0.243843;-0.190183;-0.950984;,
  -0.209451;-0.019243;-0.977630;,
  -0.226510;0.000000;-0.974009;,
  -0.222687;0.066806;-0.972598;,
  -0.209490;0.000000;-0.977811;,
  -0.223185;0.000000;-0.974776;,
  -0.223185;0.000000;-0.974776;,
  -0.179718;0.724939;-0.664955;,
  -0.159819;0.698016;-0.698020;,
  0.000000;-0.196102;-0.980583;,
  0.000000;-0.196102;-0.980583;,
  0.000000;0.000000;-1.000000;,
  0.000000;0.000000;-1.000000;,
  0.000000;0.000000;-1.000000;,
  0.000000;0.000000;-1.000000;,
  0.000000;0.000000;-1.000000;,
  0.000000;0.000000;-1.000000;,
  0.000000;0.707105;-0.707109;,
  0.000000;0.707105;-0.707109;,
  0.222332;-0.191194;-0.956040;,
  0.238350;-0.281256;-0.929561;,
  0.209490;0.000000;-0.977811;,
  0.226461;-0.020806;-0.973798;,
  0.223185;0.000000;-0.974776;,
  0.209078;0.062723;-0.975885;,
  0.223185;0.000000;-0.974776;,
  0.223185;0.000000;-0.974776;,
  0.187714;0.694535;-0.694539;,
  0.153977;0.723898;-0.672505;,
  0.437756;-0.341453;-0.831733;,
  0.437756;-0.341453;-0.831733;,
  0.388853;-0.035726;-0.920607;,
  0.463562;-0.096769;-0.880764;,
  0.386478;0.115943;-0.914982;,
  0.386478;0.115943;-0.914982;,
  0.389102;0.000000;-0.921195;,
  0.389102;0.000000;-0.921195;,
  0.352978;0.717868;-0.600060;,
  0.251448;0.763145;-0.595301;,
  0.557084;-0.371393;-0.742781;,
  0.557084;-0.371393;-0.742781;,
  0.595347;-0.124279;-0.793799;,
  0.595347;-0.124279;-0.793799;,
  0.590509;0.177153;-0.787347;,
  0.590509;0.177153;-0.787347;,
  0.599999;0.000000;-0.800001;,
  0.599999;0.000000;-0.800001;,
  0.384015;0.768353;-0.512021;,
  0.384015;0.768353;-0.512021;,
  0.650945;-0.390569;-0.650943;,
  0.650945;-0.390570;-0.650942;,
  0.734506;-0.153328;-0.661053;,
  0.701214;-0.128848;-0.701211;,
  0.691716;0.207515;-0.691713;,
  0.735216;0.147043;-0.661691;,
  0.707108;0.000000;-0.707106;,
  0.707108;0.000000;-0.707106;,
  0.457363;0.762653;-0.457361;,
  0.457363;0.762653;-0.457361;,
  0.760529;-0.405618;-0.507020;,
  0.760529;-0.405618;-0.507020;,
  0.847042;-0.155644;-0.508227;,
  0.824885;-0.130950;-0.549925;,
  0.820763;0.164152;-0.547177;,
  0.854357;0.085436;-0.512616;,
  0.832050;0.000000;-0.554701;,
  0.832050;0.000000;-0.554701;,
  0.384015;0.768353;-0.512021;,
  0.683540;0.570189;-0.455695;,
  -0.333741;0.872862;-0.355991;,
  -0.205347;0.881373;-0.425458;,
  -0.289158;0.867472;-0.404820;,
  -0.232202;0.922078;-0.309604;,
  -0.199483;0.919350;-0.339120;,
  -0.212265;0.874046;-0.437021;,
  -0.094813;0.931636;-0.350807;,
  0.000000;0.894428;-0.447212;,
  0.000000;0.894428;-0.447212;,
  0.157098;0.925607;-0.344344;,
  0.119995;0.887965;-0.443981;,
  0.232202;0.922078;-0.309604;,
  0.199483;0.919350;-0.339120;,
  0.229658;0.918630;-0.321520;,
  0.229391;0.854781;-0.465541;,
  0.333741;0.872862;-0.355991;,
  -0.282166;0.959365;0.000000;,
  -0.282166;0.959365;0.000000;,
  -0.071247;0.997459;0.000000;,
  -0.071247;0.997459;0.000000;,
  0.000000;1.000000;0.000000;,
  0.000000;1.000000;0.000000;,
  0.071247;0.997459;0.000000;,
  0.071247;0.997459;0.000000;,
  0.282166;0.959365;0.000000;,
  0.282166;0.959365;0.000000;,
  -0.281842;0.958264;-0.047913;,
  -0.281842;0.958264;-0.047913;,
  -0.071159;0.996220;-0.049811;,
  -0.071159;0.996220;-0.049811;,
  0.000000;0.998752;-0.049938;,
  0.000000;0.998752;-0.049938;,
  0.071159;0.996220;-0.049811;,
  0.071159;0.996220;-0.049811;,
  0.281842;0.958264;-0.047913;,
  0.281842;0.958264;-0.047913;,
  -0.280876;0.954981;-0.095498;,
  -0.352460;0.921818;-0.161318;,
  -0.070895;0.992533;-0.099253;,
  -0.070895;0.992533;-0.099253;,
  0.000000;0.995037;-0.099504;,
  0.000000;0.995037;-0.099504;,
  0.070895;0.992533;-0.099253;,
  0.070895;0.992533;-0.099253;,
  0.278272;0.946124;-0.165572;,
  0.355589;0.930004;-0.093000;,
  -0.069870;0.978184;-0.195635;,
  -0.069869;0.978184;-0.195637;,
  0.000000;0.980581;-0.196116;,
  0.000000;0.980581;-0.196116;,
  0.069869;0.978184;-0.195637;,
  0.069870;0.978184;-0.195635;,
  -0.894427;0.447214;0.000000;,
  -0.894427;0.447214;0.000000;,
  0.000000;1.000000;0.000000;,
  0.000000;1.000000;0.000000;,
  0.894427;0.447214;0.000000;,
  0.894427;0.447214;0.000000;,
  0.000000;0.447215;-0.894427;,
  0.000000;0.447215;-0.894427;,
  -0.894427;0.447214;0.000000;,
  -0.894427;0.447214;0.000000;,
  0.000000;1.000000;0.000000;,
  0.000000;1.000000;0.000000;,
  0.894427;0.447214;0.000000;,
  0.894427;0.447214;0.000000;,
  0.000000;0.447215;-0.894427;,
  0.000000;0.447215;-0.894427;,
  -0.948683;0.316228;0.000000;,
  -0.948683;0.316228;0.000000;,
  -0.221621;0.975133;0.000000;,
  -0.221621;0.975133;0.000000;,
  0.000000;1.000000;0.000000;,
  0.000000;1.000000;0.000000;,
  0.221621;0.975133;0.000000;,
  0.221621;0.975133;0.000000;,
  0.948683;0.316228;0.000000;,
  0.948683;0.316228;0.000000;,
  -0.146725;0.968385;-0.201747;,
  0.000000;0.978980;-0.203954;,
  0.000000;0.978980;-0.203954;,
  0.146725;0.968385;-0.201747;,
  -0.146725;0.968385;0.201747;,
  0.000000;0.978980;0.203954;,
  0.000000;0.978980;0.203954;,
  0.146725;0.968385;0.201747;,
  -0.533202;0.422119;-0.733152;,
  -0.533202;0.422117;-0.733153;,
  0.000000;0.316226;-0.948684;,
  0.000000;0.316226;-0.948684;,
  0.533202;0.422117;-0.733152;,
  0.533201;0.422119;-0.733152;,
  -0.788531;0.226703;0.571686;,
  -0.788531;0.226703;0.571686;,
  0.788531;-0.226703;-0.571686;,
  0.788531;-0.226703;-0.571686;,
  -0.490060;0.222161;0.842903;,
  -0.490060;0.222161;0.842903;,
  0.490060;-0.222161;-0.842903;,
  0.490060;-0.222161;-0.842903;,
  -0.237734;0.198108;0.950913;,
  -0.237734;0.198108;0.950913;,
  0.237734;-0.198108;-0.950913;,
  0.237734;-0.198108;-0.950913;,
  0.000000;0.164400;0.986394;,
  0.000000;0.164400;0.986394;,
  0.000000;-0.164400;-0.986394;,
  0.000000;-0.164400;-0.986394;,
  0.237734;0.198108;0.950913;,
  0.237734;0.198108;0.950913;,
  -0.237734;-0.198108;-0.950913;,
  -0.237734;-0.198108;-0.950913;,
  0.490060;0.222161;0.842903;,
  0.490060;0.222161;0.842903;,
  -0.490060;-0.222161;-0.842903;,
  -0.490060;-0.222161;-0.842903;,
  0.788531;0.226703;0.571686;,
  0.788531;0.226703;0.571686;,
  -0.788531;-0.226703;-0.571686;,
  -0.788531;-0.226703;-0.571686;,
  -0.783928;0.249874;0.568348;,
  -0.774913;0.387456;0.499387;,
  0.808412;-0.273959;-0.520976;,
  0.750454;-0.375227;-0.544080;,
  -0.502310;0.035157;0.863973;,
  -0.502310;0.035157;0.863973;,
  0.502310;-0.035157;-0.863973;,
  0.502310;-0.035157;-0.863973;,
  -0.240777;-0.120379;0.963086;,
  -0.240768;-0.120393;0.963087;,
  0.240768;0.120384;-0.963088;,
  0.240777;0.120388;-0.963085;,
  0.000000;-0.242532;0.970143;,
  0.000000;-0.242532;0.970143;,
  0.000000;0.242532;-0.970143;,
  0.000000;0.242532;-0.970143;,
  0.240777;-0.120388;0.963085;,
  0.240768;-0.120384;0.963088;,
  -0.240768;0.120393;-0.963087;,
  -0.240777;0.120379;-0.963086;,
  0.502310;0.035157;0.863973;,
  0.502310;0.035157;0.863973;,
  -0.502310;-0.035157;-0.863973;,
  -0.502310;-0.035157;-0.863973;,
  0.750454;0.375227;0.544080;,
  0.808412;0.273959;0.520976;,
  -0.774913;-0.387456;-0.499387;,
  -0.783928;-0.249874;-0.568348;,
  -0.986394;0.164399;0.000000;,
  -0.986394;0.164399;0.000000;,
  0.986394;-0.164399;0.000000;,
  0.986394;-0.164399;0.000000;,
  -0.894427;0.447214;0.000000;,
  -0.894427;0.447214;0.000000;,
  0.894427;-0.447214;0.000000;,
  0.894427;-0.447214;0.000000;,
  -0.986394;-0.164399;0.000000;,
  -0.986394;-0.164399;0.000000;,
  0.986394;0.164399;0.000000;,
  0.986394;0.164399;0.000000;,
  -0.894427;-0.447214;0.000000;,
  -0.894427;-0.447214;0.000000;,
  0.894427;0.447214;0.000000;,
  0.894427;0.447214;0.000000;,
  0.000000;0.000000;-1.000000;,
  0.000000;0.000000;-1.000000;,
  -1.000000;0.000000;0.000000;,
  -1.000000;0.000000;0.000000;,
  -0.932005;0.000000;-0.362446;,
  -0.932005;0.000000;-0.362446;,
  -0.447213;0.000000;-0.894428;,
  -0.447213;0.000000;-0.894428;,
  0.000000;0.000000;-1.000000;,
  0.000000;0.000000;-1.000000;,
  0.447213;0.000000;-0.894428;,
  0.447213;0.000000;-0.894428;,
  0.932005;0.000000;-0.362446;,
  0.932005;0.000000;-0.362446;,
  1.000000;0.000000;0.000000;,
  1.000000;0.000000;0.000000;,
  0.000000;0.000000;-1.000000;,
  0.000000;0.000000;-1.000000;,
  -1.000000;0.000000;0.000000;,
  -1.000000;0.000000;0.000000;,
  1.000000;0.000000;0.000000;,
  1.000000;0.000000;0.000000;,
  0.000000;-1.000000;0.000000;,
  0.000000;-1.000000;0.000000;,
  0.000000;1.000000;0.000000;,
  0.000000;1.000000;0.000000;,
  -0.970142;0.000000;0.242537;,
  -0.970142;0.000000;0.242537;,
  0.970142;0.000000;0.242537;,
  0.970142;0.000000;0.242537;,
  0.000000;-0.995037;0.099504;,
  0.000000;-0.995037;0.099504;,
  0.000000;0.985030;0.172381;,
  0.000000;0.985030;0.172381;,
  -1.000000;0.000000;0.000000;,
  -1.000000;0.000000;0.000000;,
  0.000000;1.000000;0.000000;,
  0.000000;1.000000;0.000000;,
  1.000000;0.000000;0.000000;,
  1.000000;0.000000;0.000000;,
  0.000000;-1.000000;0.000000;,
  0.000000;-1.000000;0.000000;,
  0.000000;0.000000;1.000000;,
  0.000000;0.000000;1.000000;,
  0.000000;0.000000;-1.000000;,
  0.000000;0.000000;-1.000000;,
  0.698401;0.707107;-0.110616;,
  0.006136;-0.999981;0.000000;,
  0.309597;0.923880;0.224936;,
  0.500000;-0.707107;0.500000;,
  0.118256;0.923880;0.363954;,
  0.059865;-0.923879;0.377972;,
  -0.118256;0.923880;0.363954;,
  -0.173735;-0.923880;0.340973;,
  -0.309597;0.923880;0.224936;,
  -0.340973;-0.923880;0.173735;,
  -0.382683;0.923880;0.000000;,
  -0.377972;-0.923880;-0.059865;,
  -0.309597;0.923880;-0.224936;,
  -0.270598;-0.923880;-0.270598;,
  -0.118256;0.923880;-0.363954;,
  -0.059865;-0.923880;-0.377972;,
  0.218508;0.707107;-0.672498;,
  0.173735;-0.923880;-0.340973;,
  0.004964;0.999981;-0.003607;,
  0.630037;-0.707107;-0.321020;,
  -1.000000;0.000000;0.000000;,
  -1.000000;0.000000;0.000000;,
  1.000000;0.000000;0.000000;,
  1.000000;0.000000;0.000000;,
  0.000000;-1.000000;0.000000;,
  0.000000;-1.000000;0.000000;,
  0.000000;1.000000;0.000000;,
  0.000000;1.000000;0.000000;,
  -0.838445;0.000000;-0.544987;,
  0.838445;0.000000;-0.544987;,
  0.000000;-0.838445;-0.544987;,
  0.000000;0.838445;-0.544987;,
  0.672498;0.707107;-0.218508;,
  0.195090;-0.980785;0.000000;,
  0.118256;0.923880;0.363954;,
  0.000000;-0.707107;0.707107;,
  -0.309597;0.923880;0.224936;,
  -0.363954;-0.923880;0.118256;,
  -0.572061;0.707107;-0.415627;,
  -0.224936;-0.923880;-0.309597;,
  0.060286;0.980785;-0.185542;,
  0.415627;-0.707107;-0.572061;,
  0.650849;0.729135;-0.211563;,
  0.203245;-0.979128;-0.000000;,
  0.113488;0.930120;0.349281;,
  -0.000091;-0.684370;0.729134;,
  -0.297116;0.930120;0.215868;,
  -0.377831;-0.917706;0.122713;,
  -0.552708;0.730246;-0.401566;,
  -0.233463;-0.917706;-0.321418;,
  0.057762;0.982375;-0.177774;,
  0.428648;-0.684371;-0.589829;,
  0.672498;0.707107;-0.218508;,
  0.195090;-0.980785;0.000000;,
  0.118256;0.923880;0.363954;,
  0.000000;-0.707107;0.707107;,
  -0.309597;0.923880;0.224936;,
  -0.363954;-0.923880;0.118256;,
  -0.572061;0.707107;-0.415627;,
  -0.224936;-0.923880;-0.309597;,
  0.060286;0.980785;-0.185542;,
  0.415627;-0.707107;-0.572061;,
  0.672498;0.707107;-0.218508;,
  0.195090;-0.980785;0.000000;,
  0.118256;0.923880;0.363954;,
  -0.000000;-0.707107;0.707107;,
  -0.309597;0.923880;0.224936;,
  -0.363954;-0.923880;0.118256;,
  -0.572061;0.707107;-0.415627;,
  -0.224936;-0.923880;-0.309597;,
  0.060286;0.980785;-0.185542;,
  0.415627;-0.707107;-0.572061;,
  0.672498;0.707107;-0.218508;,
  0.195090;-0.980785;0.000000;,
  0.118256;0.923880;0.363954;,
  0.000000;-0.707107;0.707107;,
  -0.309597;0.923880;0.224936;,
  -0.363954;-0.923880;0.118256;,
  -0.572061;0.707107;-0.415627;,
  -0.224936;-0.923880;-0.309597;,
  0.060286;0.980785;-0.185542;,
  0.415627;-0.707107;-0.572061;,
  0.672498;0.707107;-0.218508;,
  0.195090;-0.980785;0.000000;,
  0.118256;0.923880;0.363954;,
  0.000000;-0.707107;0.707107;,
  -0.309597;0.923880;0.224936;,
  -0.363954;-0.923880;0.118256;,
  -0.572061;0.707107;-0.415627;,
  -0.224936;-0.923880;-0.309597;,
  0.060286;0.980785;-0.185542;,
  0.415627;-0.707107;-0.572061;;
  514;
  3;0,0,0;,
  3;1,1,1;,
  3;2,2,2;,
  3;3,3,3;,
  3;4,4,4;,
  3;5,5,5;,
  3;6,6,6;,
  3;7,7,7;,
  3;8,8,8;,
  3;9,9,9;,
  3;10,10,10;,
  3;11,11,11;,
  3;12,12,12;,
  3;13,13,13;,
  3;14,14,14;,
  3;15,15,15;,
  3;16,16,16;,
  3;17,17,17;,
  3;18,18,18;,
  3;19,19,19;,
  3;20,20,20;,
  3;21,21,21;,
  3;22,22,22;,
  3;23,23,23;,
  3;24,24,24;,
  3;25,25,25;,
  3;26,26,26;,
  3;27,27,27;,
  3;28,28,28;,
  3;29,29,29;,
  3;30,30,30;,
  3;31,31,31;,
  3;32,32,32;,
  3;33,33,33;,
  3;34,34,34;,
  3;35,35,35;,
  3;36,36,36;,
  3;37,37,37;,
  3;38,38,38;,
  3;39,39,39;,
  3;40,40,40;,
  3;41,41,41;,
  3;42,42,42;,
  3;43,43,43;,
  3;44,44,44;,
  3;45,45,45;,
  3;46,46,46;,
  3;47,47,47;,
  3;48,48,48;,
  3;49,49,49;,
  3;50,50,50;,
  3;51,51,51;,
  3;52,52,52;,
  3;53,53,53;,
  3;54,54,54;,
  3;55,55,55;,
  3;56,56,56;,
  3;57,57,57;,
  3;58,58,58;,
  3;59,59,59;,
  3;60,60,60;,
  3;61,61,61;,
  3;62,62,62;,
  3;63,63,63;,
  3;64,64,64;,
  3;65,65,65;,
  3;66,66,66;,
  3;67,67,67;,
  3;68,68,68;,
  3;69,69,69;,
  3;70,70,70;,
  3;71,71,71;,
  3;72,72,72;,
  3;73,73,73;,
  3;74,74,74;,
  3;75,75,75;,
  3;76,76,76;,
  3;77,77,77;,
  3;78,78,78;,
  3;79,79,79;,
  3;80,80,80;,
  3;81,81,81;,
  3;82,82,82;,
  3;83,83,83;,
  3;84,84,84;,
  3;85,85,85;,
  3;86,86,86;,
  3;87,87,87;,
  3;88,88,88;,
  3;89,89,89;,
  3;90,90,90;,
  3;91,91,91;,
  3;92,92,92;,
  3;93,93,93;,
  3;94,94,94;,
  3;95,95,95;,
  3;96,96,96;,
  3;97,97,97;,
  3;98,98,98;,
  3;99,99,99;,
  3;100,100,100;,
  3;101,101,101;,
  3;102,102,102;,
  3;103,103,103;,
  3;104,104,104;,
  3;105,105,105;,
  3;106,106,106;,
  3;107,107,107;,
  3;108,108,108;,
  3;109,109,109;,
  3;110,110,110;,
  3;111,111,111;,
  3;112,112,112;,
  3;113,113,113;,
  3;114,114,114;,
  3;115,115,115;,
  3;116,116,116;,
  3;117,117,117;,
  3;118,118,118;,
  3;119,119,119;,
  3;120,120,120;,
  3;121,121,121;,
  3;122,122,122;,
  3;123,123,123;,
  3;124,124,124;,
  3;125,125,125;,
  3;126,126,126;,
  3;127,127,127;,
  3;128,128,128;,
  3;129,129,129;,
  3;130,130,130;,
  3;131,131,131;,
  3;132,132,132;,
  3;133,133,133;,
  3;134,134,134;,
  3;135,135,135;,
  3;136,136,136;,
  3;137,137,137;,
  3;138,138,138;,
  3;139,139,139;,
  3;140,140,140;,
  3;141,141,141;,
  3;142,142,142;,
  3;143,143,143;,
  3;144,144,144;,
  3;145,145,145;,
  3;146,146,146;,
  3;147,147,147;,
  3;148,148,148;,
  3;149,149,149;,
  3;150,150,150;,
  3;151,151,151;,
  3;152,152,152;,
  3;153,153,153;,
  3;154,154,154;,
  3;155,155,155;,
  3;156,156,156;,
  3;157,157,157;,
  3;158,158,158;,
  3;159,159,159;,
  3;160,160,160;,
  3;161,161,161;,
  3;162,162,162;,
  3;163,163,163;,
  3;164,164,164;,
  3;165,165,165;,
  3;166,166,166;,
  3;167,167,167;,
  3;168,168,168;,
  3;169,169,169;,
  3;170,170,170;,
  3;171,171,171;,
  3;172,172,172;,
  3;173,173,173;,
  3;174,174,174;,
  3;175,175,175;,
  3;176,176,176;,
  3;177,177,177;,
  3;178,178,178;,
  3;179,179,179;,
  3;180,180,180;,
  3;181,181,181;,
  3;182,182,182;,
  3;183,183,183;,
  3;184,184,184;,
  3;185,185,185;,
  3;186,186,186;,
  3;187,187,187;,
  3;188,188,188;,
  3;189,189,189;,
  3;190,190,190;,
  3;191,191,191;,
  3;192,192,192;,
  3;193,193,193;,
  3;194,194,194;,
  3;195,195,195;,
  3;196,196,196;,
  3;197,197,197;,
  3;198,198,198;,
  3;199,199,199;,
  3;200,200,200;,
  3;201,201,201;,
  3;202,202,202;,
  3;203,203,203;,
  3;204,204,204;,
  3;205,205,205;,
  3;206,206,206;,
  3;207,207,207;,
  3;208,208,208;,
  3;209,209,209;,
  3;210,210,210;,
  3;211,211,211;,
  3;212,212,212;,
  3;213,213,213;,
  3;214,214,214;,
  3;215,215,215;,
  3;216,216,216;,
  3;217,217,217;,
  3;218,218,218;,
  3;219,219,219;,
  3;220,220,220;,
  3;221,221,221;,
  3;222,222,222;,
  3;223,223,223;,
  3;224,224,224;,
  3;225,225,225;,
  3;226,226,226;,
  3;227,227,227;,
  3;228,228,228;,
  3;229,229,229;,
  3;230,230,230;,
  3;231,231,231;,
  3;232,232,232;,
  3;233,233,233;,
  3;234,234,234;,
  3;235,235,235;,
  3;236,236,236;,
  3;237,237,237;,
  3;238,238,238;,
  3;239,239,239;,
  3;240,240,240;,
  3;241,241,241;,
  3;242,242,242;,
  3;243,243,243;,
  3;244,244,244;,
  3;245,245,245;,
  3;246,246,246;,
  3;247,247,247;,
  3;248,248,248;,
  3;249,249,249;,
  3;250,250,250;,
  3;251,251,251;,
  3;252,252,252;,
  3;253,253,253;,
  3;254,254,254;,
  3;255,255,255;,
  3;256,256,256;,
  3;257,257,257;,
  3;258,258,258;,
  3;259,259,259;,
  3;260,260,260;,
  3;261,261,261;,
  3;262,262,262;,
  3;263,263,263;,
  3;264,264,264;,
  3;265,265,265;,
  3;266,266,266;,
  3;267,267,267;,
  3;268,268,268;,
  3;269,269,269;,
  3;270,270,270;,
  3;271,271,271;,
  3;272,272,272;,
  3;273,273,273;,
  3;274,274,274;,
  3;275,275,275;,
  3;276,276,276;,
  3;277,277,277;,
  3;278,278,278;,
  3;279,279,279;,
  3;280,280,280;,
  3;281,281,281;,
  3;282,282,282;,
  3;283,283,283;,
  3;284,284,284;,
  3;285,285,285;,
  3;286,286,286;,
  3;287,287,287;,
  3;288,288,288;,
  3;289,289,289;,
  3;290,290,290;,
  3;291,291,291;,
  3;292,292,292;,
  3;293,293,293;,
  3;294,294,294;,
  3;295,295,295;,
  3;296,296,296;,
  3;297,297,297;,
  3;298,298,298;,
  3;299,299,299;,
  3;300,300,300;,
  3;301,301,301;,
  3;302,302,302;,
  3;303,303,303;,
  3;304,304,304;,
  3;305,305,305;,
  3;306,306,306;,
  3;307,307,307;,
  3;308,308,308;,
  3;309,309,309;,
  3;310,310,310;,
  3;311,311,311;,
  3;312,312,312;,
  3;313,313,313;,
  3;314,314,314;,
  3;315,315,315;,
  3;316,316,316;,
  3;317,317,317;,
  3;318,318,318;,
  3;319,319,319;,
  3;320,320,320;,
  3;321,321,321;,
  3;322,322,322;,
  3;323,323,323;,
  3;324,324,324;,
  3;325,325,325;,
  3;326,326,326;,
  3;327,327,327;,
  3;328,328,328;,
  3;329,329,329;,
  3;330,330,330;,
  3;331,331,331;,
  3;332,332,332;,
  3;333,333,333;,
  3;334,334,334;,
  3;335,335,335;,
  3;336,336,336;,
  3;337,337,337;,
  3;338,338,338;,
  3;339,339,339;,
  3;340,340,340;,
  3;341,341,341;,
  3;342,342,342;,
  3;343,343,343;,
  3;344,344,344;,
  3;345,345,345;,
  3;346,346,346;,
  3;347,347,347;,
  3;348,348,348;,
  3;349,349,349;,
  3;350,350,350;,
  3;351,351,351;,
  3;352,352,352;,
  3;353,353,353;,
  3;354,354,354;,
  3;355,355,355;,
  3;356,356,356;,
  3;357,357,357;,
  3;358,358,358;,
  3;359,359,359;,
  3;360,360,360;,
  3;361,361,361;,
  3;362,362,362;,
  3;363,363,363;,
  3;364,364,364;,
  3;365,365,365;,
  3;366,366,366;,
  3;367,367,367;,
  3;368,368,368;,
  3;369,369,369;,
  3;371,370,372;,
  3;371,372,373;,
  3;373,372,374;,
  3;373,374,375;,
  3;375,374,376;,
  3;375,376,377;,
  3;377,376,378;,
  3;377,378,379;,
  3;379,378,380;,
  3;379,380,381;,
  3;381,380,382;,
  3;381,382,383;,
  3;383,382,384;,
  3;383,384,385;,
  3;385,384,386;,
  3;385,386,387;,
  3;387,386,388;,
  3;387,388,389;,
  3;389,388,370;,
  3;389,370,371;,
  3;388,386,384;,
  3;388,384,382;,
  3;388,382,380;,
  3;388,380,378;,
  3;388,378,376;,
  3;388,376,374;,
  3;388,374,372;,
  3;388,372,370;,
  3;371,373,375;,
  3;371,375,377;,
  3;371,377,379;,
  3;371,379,381;,
  3;371,381,383;,
  3;371,383,385;,
  3;371,385,387;,
  3;371,387,389;,
  3;390,390,390;,
  3;391,391,391;,
  3;392,392,392;,
  3;393,393,393;,
  3;394,394,394;,
  3;395,395,395;,
  3;396,396,396;,
  3;397,397,397;,
  3;398,398,398;,
  3;399,399,399;,
  3;400,400,400;,
  3;401,401,401;,
  3;403,402,404;,
  3;403,404,405;,
  3;405,404,406;,
  3;405,406,407;,
  3;407,406,408;,
  3;407,408,409;,
  3;409,408,410;,
  3;409,410,411;,
  3;411,410,402;,
  3;411,402,403;,
  3;410,408,406;,
  3;410,406,404;,
  3;410,404,402;,
  3;403,405,407;,
  3;403,407,409;,
  3;403,409,411;,
  3;413,412,414;,
  3;413,414,415;,
  3;415,414,416;,
  3;415,416,417;,
  3;417,416,418;,
  3;417,418,419;,
  3;419,418,420;,
  3;419,420,421;,
  3;421,420,412;,
  3;421,412,413;,
  3;420,418,416;,
  3;420,416,414;,
  3;420,414,412;,
  3;413,415,417;,
  3;413,417,419;,
  3;413,419,421;,
  3;423,422,424;,
  3;423,424,425;,
  3;425,424,426;,
  3;425,426,427;,
  3;427,426,428;,
  3;427,428,429;,
  3;429,428,430;,
  3;429,430,431;,
  3;431,430,422;,
  3;431,422,423;,
  3;430,428,426;,
  3;430,426,424;,
  3;430,424,422;,
  3;423,425,427;,
  3;423,427,429;,
  3;423,429,431;,
  3;433,432,434;,
  3;433,434,435;,
  3;435,434,436;,
  3;435,436,437;,
  3;437,436,438;,
  3;437,438,439;,
  3;439,438,440;,
  3;439,440,441;,
  3;441,440,432;,
  3;441,432,433;,
  3;440,438,436;,
  3;440,436,434;,
  3;440,434,432;,
  3;433,435,437;,
  3;433,437,439;,
  3;433,439,441;,
  3;443,442,444;,
  3;443,444,445;,
  3;445,444,446;,
  3;445,446,447;,
  3;447,446,448;,
  3;447,448,449;,
  3;449,448,450;,
  3;449,450,451;,
  3;451,450,442;,
  3;451,442,443;,
  3;450,448,446;,
  3;450,446,444;,
  3;450,444,442;,
  3;443,445,447;,
  3;443,447,449;,
  3;443,449,451;,
  3;453,452,454;,
  3;453,454,455;,
  3;455,454,456;,
  3;455,456,457;,
  3;457,456,458;,
  3;457,458,459;,
  3;459,458,460;,
  3;459,460,461;,
  3;461,460,452;,
  3;461,452,453;,
  3;460,458,456;,
  3;460,456,454;,
  3;460,454,452;,
  3;453,455,457;,
  3;453,457,459;,
  3;453,459,461;;
 }
}