xof 0303txt 0032
template Vector {
 <3d82ab5e-62da-11cf-ab39-0020af71e433>
 FLOAT x;
 FLOAT y;
 FLOAT z;
}

template MeshFace {
 <3d82ab5f-62da-11cf-ab39-0020af71e433>
 DWORD nFaceVertexIndices;
 array DWORD faceVertexIndices[nFaceVertexIndices];
}

template Mesh {
 <3d82ab44-62da-11cf-ab39-0020af71e433>
 DWORD nVertices;
 array Vector vertices[nVertices];
 DWORD nFaces;
 array MeshFace faces[nFaces];
 [...]
}

template ColorRGBA {
 <35ff44e0-6c7c-11cf-8f52-0040333594a3>
 FLOAT red;
 FLOAT green;
 FLOAT blue;
 FLOAT alpha;
}

template ColorRGB {
 <d3e16e81-7835-11cf-8f52-0040333594a3>
 FLOAT red;
 FLOAT green;
 FLOAT blue;
}

template Material {
 <3d82ab4d-62da-11cf-ab39-0020af71e433>
 ColorRGBA faceColor;
 FLOAT power;
 ColorRGB specularColor;
 ColorRGB emissiveColor;
 [...]
}

template MeshMaterialList {
 <f6f23f42-7686-11cf-8f52-0040333594a3>
 DWORD nMaterials;
 DWORD nFaceIndexes;
 array DWORD faceIndexes[nFaceIndexes];
 [Material <3d82ab4d-62da-11cf-ab39-0020af71e433>]
}

template Coords2d {
 <f6f23f44-7686-11cf-8f52-0040333594a3>
 FLOAT u;
 FLOAT v;
}

template MeshTextureCoords {
 <f6f23f40-7686-11cf-8f52-0040333594a3>
 DWORD nTextureCoords;
 array Coords2d textureCoords[nTextureCoords];
}

template MeshNormals {
 <f6f23f43-7686-11cf-8f52-0040333594a3>
 DWORD nNormals;
 array Vector normals[nNormals];
 DWORD nFaceNormals;
 array MeshFace faceNormals[nFaceNormals];
}


Mesh  {
 134;
 0.400000;-0.160000;0.000000;,
 0.400000;1.300000;0.000000;,
 0.200000;2.000000;0.000000;,
 0.200000;-0.160000;0.000000;,
 0.400000;-0.160000;5.000000;,
 0.400000;1.300000;5.000000;,
 0.200000;2.000000;5.000000;,
 0.200000;-0.160000;5.000000;,
 0.300000;-0.160000;0.040000;,
 0.300000;1.100000;0.040000;,
 0.100000;1.800000;0.040000;,
 0.300000;-0.160000;5.000000;,
 0.300000;1.100000;5.000000;,
 0.100000;1.800000;5.000000;,
 0.200000;2.000000;0.000000;,
 0.200000;1.800000;0.000000;,
 0.100000;1.800000;0.000000;,
 0.100000;2.000000;0.000000;,
 0.200000;2.000000;5.000000;,
 0.200000;1.800000;5.000000;,
 0.100000;1.800000;5.000000;,
 0.100000;2.000000;5.000000;,
 0.400000;-0.160000;0.000000;,
 0.400000;-0.500000;0.000000;,
 0.000000;-0.500000;0.000000;,
 0.000000;-0.160000;0.000000;,
 0.400000;-0.160000;5.000000;,
 0.400000;-0.500000;5.000000;,
 0.000000;-0.500000;5.000000;,
 0.000000;-0.160000;5.000000;,
 0.200000;1.800000;0.000000;,
 0.200000;-0.160000;0.000000;,
 0.100000;-0.160000;0.000000;,
 0.100000;1.800000;0.000000;,
 0.200000;1.800000;0.080000;,
 0.200000;-0.160000;0.080000;,
 0.100000;-0.160000;0.080000;,
 0.100000;1.800000;0.080000;,
 0.200000;1.800000;1.170000;,
 0.200000;-0.160000;1.170000;,
 0.100000;-0.160000;1.170000;,
 0.100000;1.800000;1.170000;,
 0.200000;1.800000;1.330000;,
 0.200000;-0.160000;1.330000;,
 0.100000;-0.160000;1.330000;,
 0.100000;1.800000;1.330000;,
 0.300000;1.650000;1.170000;,
 0.300000;-0.210000;1.170000;,
 0.200000;-0.210000;1.170000;,
 0.200000;1.650000;1.170000;,
 0.300000;1.650000;1.330000;,
 0.300000;-0.210000;1.330000;,
 0.200000;-0.210000;1.330000;,
 0.200000;1.650000;1.330000;,
 0.200000;1.800000;2.420000;,
 0.200000;-0.160000;2.420000;,
 0.100000;-0.160000;2.420000;,
 0.100000;1.800000;2.420000;,
 0.200000;1.800000;2.580000;,
 0.200000;-0.160000;2.580000;,
 0.100000;-0.160000;2.580000;,
 0.100000;1.800000;2.580000;,
 0.300000;1.650000;2.420000;,
 0.300000;-0.210000;2.420000;,
 0.200000;-0.210000;2.420000;,
 0.200000;1.650000;2.420000;,
 0.300000;1.650000;2.580000;,
 0.300000;-0.210000;2.580000;,
 0.200000;-0.210000;2.580000;,
 0.200000;1.650000;2.580000;,
 0.200000;1.800000;3.670000;,
 0.200000;-0.160000;3.670000;,
 0.100000;-0.160000;3.670000;,
 0.100000;1.800000;3.670000;,
 0.200000;1.800000;3.830000;,
 0.200000;-0.160000;3.830000;,
 0.100000;-0.160000;3.830000;,
 0.100000;1.800000;3.830000;,
 0.300000;1.650000;3.670000;,
 0.300000;-0.210000;3.670000;,
 0.200000;-0.210000;3.670000;,
 0.200000;1.650000;3.670000;,
 0.300000;1.650000;3.830000;,
 0.300000;-0.210000;3.830000;,
 0.200000;-0.210000;3.830000;,
 0.200000;1.650000;3.830000;,
 0.200000;1.800000;4.920000;,
 0.200000;-0.160000;4.920000;,
 0.100000;-0.160000;4.920000;,
 0.100000;1.800000;4.920000;,
 0.200000;1.800000;5.000000;,
 0.200000;-0.160000;5.000000;,
 0.100000;-0.160000;5.000000;,
 0.100000;1.800000;5.000000;,
 0.100000;0.000000;0.000000;,
 0.100000;-0.160000;0.000000;,
 0.000000;-0.160000;0.000000;,
 0.000000;0.000000;0.000000;,
 0.100000;0.000000;0.080000;,
 0.100000;-0.160000;0.080000;,
 0.000000;-0.160000;0.080000;,
 0.000000;0.000000;0.080000;,
 0.100000;0.000000;1.170000;,
 0.100000;-0.160000;1.170000;,
 0.000000;-0.160000;1.170000;,
 0.000000;0.000000;1.170000;,
 0.100000;0.000000;1.330000;,
 0.100000;-0.160000;1.330000;,
 0.000000;-0.160000;1.330000;,
 0.000000;0.000000;1.330000;,
 0.100000;0.000000;2.420000;,
 0.100000;-0.160000;2.420000;,
 0.000000;-0.160000;2.420000;,
 0.000000;0.000000;2.420000;,
 0.100000;0.000000;2.580000;,
 0.100000;-0.160000;2.580000;,
 0.000000;-0.160000;2.580000;,
 0.000000;0.000000;2.580000;,
 0.100000;0.000000;3.670000;,
 0.100000;-0.160000;3.670000;,
 0.000000;-0.160000;3.670000;,
 0.000000;0.000000;3.670000;,
 0.100000;0.000000;3.830000;,
 0.100000;-0.160000;3.830000;,
 0.000000;-0.160000;3.830000;,
 0.000000;0.000000;3.830000;,
 0.100000;0.000000;4.920000;,
 0.100000;-0.160000;4.920000;,
 0.000000;-0.160000;4.920000;,
 0.000000;0.000000;4.920000;,
 0.100000;0.000000;5.000000;,
 0.100000;-0.160000;5.000000;,
 0.000000;-0.160000;5.000000;,
 0.000000;0.000000;5.000000;;
 204;
 3;1,5,6;,
 3;1,6,2;,
 3;2,6,5;,
 3;2,5,1;,
 3;0,1,5;,
 3;0,5,4;,
 3;4,5,1;,
 3;4,1,0;,
 3;0,1,2;,
 3;0,2,3;,
 3;3,2,1;,
 3;3,1,0;,
 3;4,5,6;,
 3;4,6,7;,
 3;7,6,5;,
 3;7,5,4;,
 3;8,9,12;,
 3;8,12,11;,
 3;11,12,9;,
 3;11,9,8;,
 3;9,10,13;,
 3;9,13,12;,
 3;12,13,10;,
 3;12,10,9;,
 3;14,15,16;,
 3;14,16,17;,
 3;17,16,20;,
 3;17,20,21;,
 3;21,20,19;,
 3;21,19,18;,
 3;18,19,15;,
 3;18,15,14;,
 3;14,17,21;,
 3;14,21,18;,
 3;15,19,20;,
 3;15,20,16;,
 3;22,23,24;,
 3;22,24,25;,
 3;25,24,28;,
 3;25,28,29;,
 3;29,28,27;,
 3;29,27,26;,
 3;26,27,23;,
 3;26,23,22;,
 3;22,25,29;,
 3;22,29,26;,
 3;23,27,28;,
 3;23,28,24;,
 3;30,31,32;,
 3;30,32,33;,
 3;33,32,36;,
 3;33,36,37;,
 3;37,36,35;,
 3;37,35,34;,
 3;34,35,31;,
 3;34,31,30;,
 3;30,33,37;,
 3;30,37,34;,
 3;31,35,36;,
 3;31,36,32;,
 3;38,39,40;,
 3;38,40,41;,
 3;41,40,44;,
 3;41,44,45;,
 3;45,44,43;,
 3;45,43,42;,
 3;42,43,39;,
 3;42,39,38;,
 3;38,41,45;,
 3;38,45,42;,
 3;39,43,44;,
 3;39,44,40;,
 3;46,47,48;,
 3;46,48,49;,
 3;49,48,52;,
 3;49,52,53;,
 3;53,52,51;,
 3;53,51,50;,
 3;50,51,47;,
 3;50,47,46;,
 3;46,49,53;,
 3;46,53,50;,
 3;47,51,52;,
 3;47,52,48;,
 3;54,55,56;,
 3;54,56,57;,
 3;57,56,60;,
 3;57,60,61;,
 3;61,60,59;,
 3;61,59,58;,
 3;58,59,55;,
 3;58,55,54;,
 3;54,57,61;,
 3;54,61,58;,
 3;55,59,60;,
 3;55,60,56;,
 3;62,63,64;,
 3;62,64,65;,
 3;65,64,68;,
 3;65,68,69;,
 3;69,68,67;,
 3;69,67,66;,
 3;66,67,63;,
 3;66,63,62;,
 3;62,65,69;,
 3;62,69,66;,
 3;63,67,68;,
 3;63,68,64;,
 3;70,71,72;,
 3;70,72,73;,
 3;73,72,76;,
 3;73,76,77;,
 3;77,76,75;,
 3;77,75,74;,
 3;74,75,71;,
 3;74,71,70;,
 3;70,73,77;,
 3;70,77,74;,
 3;71,75,76;,
 3;71,76,72;,
 3;78,79,80;,
 3;78,80,81;,
 3;81,80,84;,
 3;81,84,85;,
 3;85,84,83;,
 3;85,83,82;,
 3;82,83,79;,
 3;82,79,78;,
 3;78,81,85;,
 3;78,85,82;,
 3;79,83,84;,
 3;79,84,80;,
 3;86,87,88;,
 3;86,88,89;,
 3;89,88,92;,
 3;89,92,93;,
 3;93,92,91;,
 3;93,91,90;,
 3;90,91,87;,
 3;90,87,86;,
 3;86,89,93;,
 3;86,93,90;,
 3;87,91,92;,
 3;87,92,88;,
 3;94,95,96;,
 3;94,96,97;,
 3;97,96,100;,
 3;97,100,101;,
 3;101,100,99;,
 3;101,99,98;,
 3;98,99,95;,
 3;98,95,94;,
 3;94,97,101;,
 3;94,101,98;,
 3;95,99,100;,
 3;95,100,96;,
 3;102,103,104;,
 3;102,104,105;,
 3;105,104,108;,
 3;105,108,109;,
 3;109,108,107;,
 3;109,107,106;,
 3;106,107,103;,
 3;106,103,102;,
 3;102,105,109;,
 3;102,109,106;,
 3;103,107,108;,
 3;103,108,104;,
 3;110,111,112;,
 3;110,112,113;,
 3;113,112,116;,
 3;113,116,117;,
 3;117,116,115;,
 3;117,115,114;,
 3;114,115,111;,
 3;114,111,110;,
 3;110,113,117;,
 3;110,117,114;,
 3;111,115,116;,
 3;111,116,112;,
 3;118,119,120;,
 3;118,120,121;,
 3;121,120,124;,
 3;121,124,125;,
 3;125,124,123;,
 3;125,123,122;,
 3;122,123,119;,
 3;122,119,118;,
 3;118,121,125;,
 3;118,125,122;,
 3;119,123,124;,
 3;119,124,120;,
 3;126,127,128;,
 3;126,128,129;,
 3;129,128,132;,
 3;129,132,133;,
 3;133,132,131;,
 3;133,131,130;,
 3;130,131,127;,
 3;130,127,126;,
 3;126,129,133;,
 3;126,133,130;,
 3;127,131,132;,
 3;127,132,128;;

 MeshMaterialList  {
  16;
  204;
  0,
  0,
  0,
  0,
  0,
  0,
  0,
  0,
  0,
  0,
  0,
  0,
  0,
  0,
  0,
  0,
  0,
  0,
  0,
  0,
  0,
  0,
  0,
  0,
  1,
  1,
  1,
  1,
  1,
  1,
  1,
  1,
  1,
  1,
  1,
  1,
  2,
  2,
  2,
  2,
  2,
  2,
  2,
  2,
  2,
  2,
  2,
  2,
  3,
  3,
  3,
  3,
  3,
  3,
  3,
  3,
  3,
  3,
  3,
  3,
  4,
  4,
  4,
  4,
  4,
  4,
  4,
  4,
  4,
  4,
  4,
  4,
  5,
  5,
  5,
  5,
  5,
  5,
  5,
  5,
  5,
  5,
  5,
  5,
  6,
  6,
  6,
  6,
  6,
  6,
  6,
  6,
  6,
  6,
  6,
  6,
  7,
  7,
  7,
  7,
  7,
  7,
  7,
  7,
  7,
  7,
  7,
  7,
  8,
  8,
  8,
  8,
  8,
  8,
  8,
  8,
  8,
  8,
  8,
  8,
  9,
  9,
  9,
  9,
  9,
  9,
  9,
  9,
  9,
  9,
  9,
  9,
  10,
  10,
  10,
  10,
  10,
  10,
  10,
  10,
  10,
  10,
  10,
  10,
  11,
  11,
  11,
  11,
  11,
  11,
  11,
  11,
  11,
  11,
  11,
  11,
  12,
  12,
  12,
  12,
  12,
  12,
  12,
  12,
  12,
  12,
  12,
  12,
  13,
  13,
  13,
  13,
  13,
  13,
  13,
  13,
  13,
  13,
  13,
  13,
  14,
  14,
  14,
  14,
  14,
  14,
  14,
  14,
  14,
  14,
  14,
  14,
  15,
  15,
  15,
  15,
  15,
  15,
  15,
  15,
  15,
  15,
  15,
  15;

  Material  {
   0.752941;0.752941;0.752941;1.000000;;
   0.000000;
   0.000000;0.000000;0.000000;;
   0.000000;0.000000;0.000000;;
  }

  Material  {
   0.752941;0.752941;0.752941;1.000000;;
   0.000000;
   0.000000;0.000000;0.000000;;
   0.000000;0.000000;0.000000;;
  }

  Material  {
   0.752941;0.752941;0.752941;1.000000;;
   0.000000;
   0.000000;0.000000;0.000000;;
   0.000000;0.000000;0.000000;;
  }

  Material  {
   0.752941;0.752941;0.752941;1.000000;;
   0.000000;
   0.000000;0.000000;0.000000;;
   0.000000;0.000000;0.000000;;
  }

  Material  {
   0.752941;0.752941;0.752941;1.000000;;
   0.000000;
   0.000000;0.000000;0.000000;;
   0.000000;0.000000;0.000000;;
  }

  Material  {
   0.752941;0.752941;0.752941;1.000000;;
   0.000000;
   0.000000;0.000000;0.000000;;
   0.000000;0.000000;0.000000;;
  }

  Material  {
   0.752941;0.752941;0.752941;1.000000;;
   0.000000;
   0.000000;0.000000;0.000000;;
   0.000000;0.000000;0.000000;;
  }

  Material  {
   0.752941;0.752941;0.752941;1.000000;;
   0.000000;
   0.000000;0.000000;0.000000;;
   0.000000;0.000000;0.000000;;
  }

  Material  {
   0.752941;0.752941;0.752941;1.000000;;
   0.000000;
   0.000000;0.000000;0.000000;;
   0.000000;0.000000;0.000000;;
  }

  Material  {
   0.752941;0.752941;0.752941;1.000000;;
   0.000000;
   0.000000;0.000000;0.000000;;
   0.000000;0.000000;0.000000;;
  }

  Material  {
   0.752941;0.752941;0.752941;1.000000;;
   0.000000;
   0.000000;0.000000;0.000000;;
   0.000000;0.000000;0.000000;;
  }

  Material  {
   0.752941;0.752941;0.752941;1.000000;;
   0.000000;
   0.000000;0.000000;0.000000;;
   0.000000;0.000000;0.000000;;
  }

  Material  {
   0.752941;0.752941;0.752941;1.000000;;
   0.000000;
   0.000000;0.000000;0.000000;;
   0.000000;0.000000;0.000000;;
  }

  Material  {
   0.752941;0.752941;0.752941;1.000000;;
   0.000000;
   0.000000;0.000000;0.000000;;
   0.000000;0.000000;0.000000;;
  }

  Material  {
   0.752941;0.752941;0.752941;1.000000;;
   0.000000;
   0.000000;0.000000;0.000000;;
   0.000000;0.000000;0.000000;;
  }

  Material  {
   0.752941;0.752941;0.752941;1.000000;;
   0.000000;
   0.000000;0.000000;0.000000;;
   0.000000;0.000000;0.000000;;
  }
 }

 MeshTextureCoords  {
  134;
  0.000000;0.000000;,
  0.000000;0.000000;,
  0.000000;0.000000;,
  0.000000;0.000000;,
  0.000000;0.000000;,
  0.000000;0.000000;,
  0.000000;0.000000;,
  0.000000;0.000000;,
  0.000000;0.000000;,
  0.000000;0.000000;,
  0.000000;0.000000;,
  0.000000;0.000000;,
  0.000000;0.000000;,
  0.000000;0.000000;,
  0.000000;0.000000;,
  0.000000;0.000000;,
  0.000000;0.000000;,
  0.000000;0.000000;,
  0.000000;0.000000;,
  0.000000;0.000000;,
  0.000000;0.000000;,
  0.000000;0.000000;,
  0.000000;0.000000;,
  0.000000;0.000000;,
  0.000000;0.000000;,
  0.000000;0.000000;,
  0.000000;0.000000;,
  0.000000;0.000000;,
  0.000000;0.000000;,
  0.000000;0.000000;,
  0.000000;0.000000;,
  0.000000;0.000000;,
  0.000000;0.000000;,
  0.000000;0.000000;,
  0.000000;0.000000;,
  0.000000;0.000000;,
  0.000000;0.000000;,
  0.000000;0.000000;,
  0.000000;0.000000;,
  0.000000;0.000000;,
  0.000000;0.000000;,
  0.000000;0.000000;,
  0.000000;0.000000;,
  0.000000;0.000000;,
  0.000000;0.000000;,
  0.000000;0.000000;,
  0.000000;0.000000;,
  0.000000;0.000000;,
  0.000000;0.000000;,
  0.000000;0.000000;,
  0.000000;0.000000;,
  0.000000;0.000000;,
  0.000000;0.000000;,
  0.000000;0.000000;,
  0.000000;0.000000;,
  0.000000;0.000000;,
  0.000000;0.000000;,
  0.000000;0.000000;,
  0.000000;0.000000;,
  0.000000;0.000000;,
  0.000000;0.000000;,
  0.000000;0.000000;,
  0.000000;0.000000;,
  0.000000;0.000000;,
  0.000000;0.000000;,
  0.000000;0.000000;,
  0.000000;0.000000;,
  0.000000;0.000000;,
  0.000000;0.000000;,
  0.000000;0.000000;,
  0.000000;0.000000;,
  0.000000;0.000000;,
  0.000000;0.000000;,
  0.000000;0.000000;,
  0.000000;0.000000;,
  0.000000;0.000000;,
  0.000000;0.000000;,
  0.000000;0.000000;,
  0.000000;0.000000;,
  0.000000;0.000000;,
  0.000000;0.000000;,
  0.000000;0.000000;,
  0.000000;0.000000;,
  0.000000;0.000000;,
  0.000000;0.000000;,
  0.000000;0.000000;,
  0.000000;0.000000;,
  0.000000;0.000000;,
  0.000000;0.000000;,
  0.000000;0.000000;,
  0.000000;0.000000;,
  0.000000;0.000000;,
  0.000000;0.000000;,
  0.000000;0.000000;,
  0.000000;0.000000;,
  0.000000;0.000000;,
  0.000000;0.000000;,
  0.000000;0.000000;,
  0.000000;0.000000;,
  0.000000;0.000000;,
  0.000000;0.000000;,
  0.000000;0.000000;,
  0.000000;0.000000;,
  0.000000;0.000000;,
  0.000000;0.000000;,
  0.000000;0.000000;,
  0.000000;0.000000;,
  0.000000;0.000000;,
  0.000000;0.000000;,
  0.000000;0.000000;,
  0.000000;0.000000;,
  0.000000;0.000000;,
  0.000000;0.000000;,
  0.000000;0.000000;,
  0.000000;0.000000;,
  0.000000;0.000000;,
  0.000000;0.000000;,
  0.000000;0.000000;,
  0.000000;0.000000;,
  0.000000;0.000000;,
  0.000000;0.000000;,
  0.000000;0.000000;,
  0.000000;0.000000;,
  0.000000;0.000000;,
  0.000000;0.000000;,
  0.000000;0.000000;,
  0.000000;0.000000;,
  0.000000;0.000000;,
  0.000000;0.000000;,
  0.000000;0.000000;,
  0.000000;0.000000;,
  0.000000;0.000000;,
  0.000000;0.000000;,
  0.000000;0.000000;;
 }

 MeshNormals  {
  204;
  -0.961524;-0.274721;0.000000;,
  -0.961524;-0.274721;0.000000;,
  0.961524;0.274721;0.000000;,
  0.961524;0.274721;0.000000;,
  1.000000;0.000000;0.000000;,
  1.000000;0.000000;0.000000;,
  -1.000000;0.000000;0.000000;,
  -1.000000;0.000000;0.000000;,
  0.000000;0.000000;1.000000;,
  0.000000;0.000000;1.000000;,
  0.000000;0.000000;-1.000000;,
  0.000000;0.000000;-1.000000;,
  0.000000;0.000000;1.000000;,
  0.000000;0.000000;1.000000;,
  0.000000;0.000000;-1.000000;,
  0.000000;0.000000;-1.000000;,
  1.000000;0.000000;0.000000;,
  1.000000;0.000000;0.000000;,
  -1.000000;0.000000;0.000000;,
  -1.000000;0.000000;0.000000;,
  0.961524;0.274721;0.000000;,
  0.961524;0.274721;0.000000;,
  -0.961524;-0.274721;0.000000;,
  -0.961524;-0.274721;0.000000;,
  0.000000;0.000000;-1.000000;,
  0.000000;0.000000;-1.000000;,
  -1.000000;0.000000;0.000000;,
  -1.000000;0.000000;0.000000;,
  0.000000;0.000000;1.000000;,
  0.000000;0.000000;1.000000;,
  1.000000;0.000000;0.000000;,
  1.000000;0.000000;0.000000;,
  0.000000;1.000000;0.000000;,
  0.000000;1.000000;0.000000;,
  0.000000;-1.000000;0.000000;,
  0.000000;-1.000000;0.000000;,
  0.000000;0.000000;-1.000000;,
  0.000000;0.000000;-1.000000;,
  -1.000000;0.000000;0.000000;,
  -1.000000;0.000000;0.000000;,
  0.000000;0.000000;1.000000;,
  0.000000;0.000000;1.000000;,
  1.000000;0.000000;0.000000;,
  1.000000;0.000000;0.000000;,
  0.000000;1.000000;0.000000;,
  0.000000;1.000000;0.000000;,
  0.000000;-1.000000;0.000000;,
  0.000000;-1.000000;0.000000;,
  0.000000;0.000000;-1.000000;,
  0.000000;0.000000;-1.000000;,
  -1.000000;0.000000;0.000000;,
  -1.000000;0.000000;0.000000;,
  0.000000;0.000000;1.000000;,
  0.000000;0.000000;1.000000;,
  1.000000;0.000000;0.000000;,
  1.000000;0.000000;0.000000;,
  0.000000;1.000000;0.000000;,
  0.000000;1.000000;0.000000;,
  0.000000;-1.000000;0.000000;,
  0.000000;-1.000000;0.000000;,
  0.000000;0.000000;-1.000000;,
  0.000000;0.000000;-1.000000;,
  -1.000000;0.000000;0.000000;,
  -1.000000;0.000000;0.000000;,
  0.000000;0.000000;1.000000;,
  0.000000;0.000000;1.000000;,
  1.000000;0.000000;0.000000;,
  1.000000;0.000000;0.000000;,
  0.000000;1.000000;0.000000;,
  0.000000;1.000000;0.000000;,
  0.000000;-1.000000;0.000000;,
  0.000000;-1.000000;0.000000;,
  0.000000;0.000000;-1.000000;,
  0.000000;0.000000;-1.000000;,
  -1.000000;0.000000;0.000000;,
  -1.000000;0.000000;0.000000;,
  0.000000;0.000000;1.000000;,
  0.000000;0.000000;1.000000;,
  1.000000;0.000000;0.000000;,
  1.000000;0.000000;0.000000;,
  0.000000;1.000000;0.000000;,
  0.000000;1.000000;0.000000;,
  0.000000;-1.000000;0.000000;,
  0.000000;-1.000000;0.000000;,
  0.000000;0.000000;-1.000000;,
  0.000000;0.000000;-1.000000;,
  -1.000000;0.000000;0.000000;,
  -1.000000;0.000000;0.000000;,
  0.000000;0.000000;1.000000;,
  0.000000;0.000000;1.000000;,
  1.000000;0.000000;0.000000;,
  1.000000;0.000000;0.000000;,
  0.000000;1.000000;0.000000;,
  0.000000;1.000000;0.000000;,
  0.000000;-1.000000;0.000000;,
  0.000000;-1.000000;0.000000;,
  0.000000;0.000000;-1.000000;,
  0.000000;0.000000;-1.000000;,
  -1.000000;0.000000;0.000000;,
  -1.000000;0.000000;0.000000;,
  0.000000;0.000000;1.000000;,
  0.000000;0.000000;1.000000;,
  1.000000;0.000000;0.000000;,
  1.000000;0.000000;0.000000;,
  0.000000;1.000000;0.000000;,
  0.000000;1.000000;0.000000;,
  0.000000;-1.000000;0.000000;,
  0.000000;-1.000000;0.000000;,
  0.000000;0.000000;-1.000000;,
  0.000000;0.000000;-1.000000;,
  -1.000000;0.000000;0.000000;,
  -1.000000;0.000000;0.000000;,
  0.000000;0.000000;1.000000;,
  0.000000;0.000000;1.000000;,
  1.000000;0.000000;0.000000;,
  1.000000;0.000000;0.000000;,
  0.000000;1.000000;0.000000;,
  0.000000;1.000000;0.000000;,
  0.000000;-1.000000;0.000000;,
  0.000000;-1.000000;0.000000;,
  0.000000;0.000000;-1.000000;,
  0.000000;0.000000;-1.000000;,
  -1.000000;0.000000;0.000000;,
  -1.000000;0.000000;0.000000;,
  0.000000;0.000000;1.000000;,
  0.000000;0.000000;1.000000;,
  1.000000;0.000000;0.000000;,
  1.000000;0.000000;0.000000;,
  0.000000;1.000000;0.000000;,
  0.000000;1.000000;0.000000;,
  0.000000;-1.000000;0.000000;,
  0.000000;-1.000000;0.000000;,
  0.000000;0.000000;-1.000000;,
  0.000000;0.000000;-1.000000;,
  -1.000000;0.000000;0.000000;,
  -1.000000;0.000000;0.000000;,
  0.000000;0.000000;1.000000;,
  0.000000;0.000000;1.000000;,
  1.000000;0.000000;0.000000;,
  1.000000;0.000000;0.000000;,
  0.000000;1.000000;0.000000;,
  0.000000;1.000000;0.000000;,
  0.000000;-1.000000;0.000000;,
  0.000000;-1.000000;0.000000;,
  0.000000;0.000000;-1.000000;,
  0.000000;0.000000;-1.000000;,
  -1.000000;0.000000;0.000000;,
  -1.000000;0.000000;0.000000;,
  0.000000;0.000000;1.000000;,
  0.000000;0.000000;1.000000;,
  1.000000;0.000000;0.000000;,
  1.000000;0.000000;0.000000;,
  0.000000;1.000000;0.000000;,
  0.000000;1.000000;0.000000;,
  0.000000;-1.000000;0.000000;,
  0.000000;-1.000000;0.000000;,
  0.000000;0.000000;-1.000000;,
  0.000000;0.000000;-1.000000;,
  -1.000000;0.000000;0.000000;,
  -1.000000;0.000000;0.000000;,
  0.000000;0.000000;1.000000;,
  0.000000;0.000000;1.000000;,
  1.000000;0.000000;0.000000;,
  1.000000;0.000000;0.000000;,
  0.000000;1.000000;0.000000;,
  0.000000;1.000000;0.000000;,
  0.000000;-1.000000;0.000000;,
  0.000000;-1.000000;0.000000;,
  0.000000;0.000000;-1.000000;,
  0.000000;0.000000;-1.000000;,
  -1.000000;0.000000;0.000000;,
  -1.000000;0.000000;0.000000;,
  0.000000;0.000000;1.000000;,
  0.000000;0.000000;1.000000;,
  1.000000;0.000000;0.000000;,
  1.000000;0.000000;0.000000;,
  0.000000;1.000000;0.000000;,
  0.000000;1.000000;0.000000;,
  0.000000;-1.000000;0.000000;,
  0.000000;-1.000000;0.000000;,
  0.000000;0.000000;-1.000000;,
  0.000000;0.000000;-1.000000;,
  -1.000000;0.000000;0.000000;,
  -1.000000;0.000000;0.000000;,
  0.000000;0.000000;1.000000;,
  0.000000;0.000000;1.000000;,
  1.000000;0.000000;0.000000;,
  1.000000;0.000000;0.000000;,
  0.000000;1.000000;0.000000;,
  0.000000;1.000000;0.000000;,
  0.000000;-1.000000;0.000000;,
  0.000000;-1.000000;0.000000;,
  0.000000;0.000000;-1.000000;,
  0.000000;0.000000;-1.000000;,
  -1.000000;0.000000;0.000000;,
  -1.000000;0.000000;0.000000;,
  0.000000;0.000000;1.000000;,
  0.000000;0.000000;1.000000;,
  1.000000;0.000000;0.000000;,
  1.000000;0.000000;0.000000;,
  0.000000;1.000000;0.000000;,
  0.000000;1.000000;0.000000;,
  0.000000;-1.000000;0.000000;,
  0.000000;-1.000000;0.000000;;
  204;
  3;0,0,0;,
  3;1,1,1;,
  3;2,2,2;,
  3;3,3,3;,
  3;4,4,4;,
  3;5,5,5;,
  3;6,6,6;,
  3;7,7,7;,
  3;8,8,8;,
  3;9,9,9;,
  3;10,10,10;,
  3;11,11,11;,
  3;12,12,12;,
  3;13,13,13;,
  3;14,14,14;,
  3;15,15,15;,
  3;16,16,16;,
  3;17,17,17;,
  3;18,18,18;,
  3;19,19,19;,
  3;20,20,20;,
  3;21,21,21;,
  3;22,22,22;,
  3;23,23,23;,
  3;24,24,24;,
  3;25,25,25;,
  3;26,26,26;,
  3;27,27,27;,
  3;28,28,28;,
  3;29,29,29;,
  3;30,30,30;,
  3;31,31,31;,
  3;32,32,32;,
  3;33,33,33;,
  3;34,34,34;,
  3;35,35,35;,
  3;36,36,36;,
  3;37,37,37;,
  3;38,38,38;,
  3;39,39,39;,
  3;40,40,40;,
  3;41,41,41;,
  3;42,42,42;,
  3;43,43,43;,
  3;44,44,44;,
  3;45,45,45;,
  3;46,46,46;,
  3;47,47,47;,
  3;48,48,48;,
  3;49,49,49;,
  3;50,50,50;,
  3;51,51,51;,
  3;52,52,52;,
  3;53,53,53;,
  3;54,54,54;,
  3;55,55,55;,
  3;56,56,56;,
  3;57,57,57;,
  3;58,58,58;,
  3;59,59,59;,
  3;60,60,60;,
  3;61,61,61;,
  3;62,62,62;,
  3;63,63,63;,
  3;64,64,64;,
  3;65,65,65;,
  3;66,66,66;,
  3;67,67,67;,
  3;68,68,68;,
  3;69,69,69;,
  3;70,70,70;,
  3;71,71,71;,
  3;72,72,72;,
  3;73,73,73;,
  3;74,74,74;,
  3;75,75,75;,
  3;76,76,76;,
  3;77,77,77;,
  3;78,78,78;,
  3;79,79,79;,
  3;80,80,80;,
  3;81,81,81;,
  3;82,82,82;,
  3;83,83,83;,
  3;84,84,84;,
  3;85,85,85;,
  3;86,86,86;,
  3;87,87,87;,
  3;88,88,88;,
  3;89,89,89;,
  3;90,90,90;,
  3;91,91,91;,
  3;92,92,92;,
  3;93,93,93;,
  3;94,94,94;,
  3;95,95,95;,
  3;96,96,96;,
  3;97,97,97;,
  3;98,98,98;,
  3;99,99,99;,
  3;100,100,100;,
  3;101,101,101;,
  3;102,102,102;,
  3;103,103,103;,
  3;104,104,104;,
  3;105,105,105;,
  3;106,106,106;,
  3;107,107,107;,
  3;108,108,108;,
  3;109,109,109;,
  3;110,110,110;,
  3;111,111,111;,
  3;112,112,112;,
  3;113,113,113;,
  3;114,114,114;,
  3;115,115,115;,
  3;116,116,116;,
  3;117,117,117;,
  3;118,118,118;,
  3;119,119,119;,
  3;120,120,120;,
  3;121,121,121;,
  3;122,122,122;,
  3;123,123,123;,
  3;124,124,124;,
  3;125,125,125;,
  3;126,126,126;,
  3;127,127,127;,
  3;128,128,128;,
  3;129,129,129;,
  3;130,130,130;,
  3;131,131,131;,
  3;132,132,132;,
  3;133,133,133;,
  3;134,134,134;,
  3;135,135,135;,
  3;136,136,136;,
  3;137,137,137;,
  3;138,138,138;,
  3;139,139,139;,
  3;140,140,140;,
  3;141,141,141;,
  3;142,142,142;,
  3;143,143,143;,
  3;144,144,144;,
  3;145,145,145;,
  3;146,146,146;,
  3;147,147,147;,
  3;148,148,148;,
  3;149,149,149;,
  3;150,150,150;,
  3;151,151,151;,
  3;152,152,152;,
  3;153,153,153;,
  3;154,154,154;,
  3;155,155,155;,
  3;156,156,156;,
  3;157,157,157;,
  3;158,158,158;,
  3;159,159,159;,
  3;160,160,160;,
  3;161,161,161;,
  3;162,162,162;,
  3;163,163,163;,
  3;164,164,164;,
  3;165,165,165;,
  3;166,166,166;,
  3;167,167,167;,
  3;168,168,168;,
  3;169,169,169;,
  3;170,170,170;,
  3;171,171,171;,
  3;172,172,172;,
  3;173,173,173;,
  3;174,174,174;,
  3;175,175,175;,
  3;176,176,176;,
  3;177,177,177;,
  3;178,178,178;,
  3;179,179,179;,
  3;180,180,180;,
  3;181,181,181;,
  3;182,182,182;,
  3;183,183,183;,
  3;184,184,184;,
  3;185,185,185;,
  3;186,186,186;,
  3;187,187,187;,
  3;188,188,188;,
  3;189,189,189;,
  3;190,190,190;,
  3;191,191,191;,
  3;192,192,192;,
  3;193,193,193;,
  3;194,194,194;,
  3;195,195,195;,
  3;196,196,196;,
  3;197,197,197;,
  3;198,198,198;,
  3;199,199,199;,
  3;200,200,200;,
  3;201,201,201;,
  3;202,202,202;,
  3;203,203,203;;
 }
}