xof 0303txt 0032
template Vector {
 <3d82ab5e-62da-11cf-ab39-0020af71e433>
 FLOAT x;
 FLOAT y;
 FLOAT z;
}

template MeshFace {
 <3d82ab5f-62da-11cf-ab39-0020af71e433>
 DWORD nFaceVertexIndices;
 array DWORD faceVertexIndices[nFaceVertexIndices];
}

template Mesh {
 <3d82ab44-62da-11cf-ab39-0020af71e433>
 DWORD nVertices;
 array Vector vertices[nVertices];
 DWORD nFaces;
 array MeshFace faces[nFaces];
 [...]
}

template ColorRGBA {
 <35ff44e0-6c7c-11cf-8f52-0040333594a3>
 FLOAT red;
 FLOAT green;
 FLOAT blue;
 FLOAT alpha;
}

template ColorRGB {
 <d3e16e81-7835-11cf-8f52-0040333594a3>
 FLOAT red;
 FLOAT green;
 FLOAT blue;
}

template Material {
 <3d82ab4d-62da-11cf-ab39-0020af71e433>
 ColorRGBA faceColor;
 FLOAT power;
 ColorRGB specularColor;
 ColorRGB emissiveColor;
 [...]
}

template MeshMaterialList {
 <f6f23f42-7686-11cf-8f52-0040333594a3>
 DWORD nMaterials;
 DWORD nFaceIndexes;
 array DWORD faceIndexes[nFaceIndexes];
 [Material <3d82ab4d-62da-11cf-ab39-0020af71e433>]
}

template TextureFilename {
 <a42790e1-7810-11cf-8f52-0040333594a3>
 STRING filename;
}

template Coords2d {
 <f6f23f44-7686-11cf-8f52-0040333594a3>
 FLOAT u;
 FLOAT v;
}

template MeshTextureCoords {
 <f6f23f40-7686-11cf-8f52-0040333594a3>
 DWORD nTextureCoords;
 array Coords2d textureCoords[nTextureCoords];
}

template MeshNormals {
 <f6f23f43-7686-11cf-8f52-0040333594a3>
 DWORD nNormals;
 array Vector normals[nNormals];
 DWORD nFaceNormals;
 array MeshFace faceNormals[nFaceNormals];
}


Mesh  {
 50;
 0.000000;3.700000;6.000000;,
 0.000000;0.000000;6.000000;,
 0.000000;3.700000;0.000000;,
 0.000000;0.000000;0.000000;,
 -2.000000;0.000000;6.000000;,
 -2.000000;0.000000;0.000000;,
 0.000000;4.000000;0.700000;,
 0.000000;0.000000;0.700000;,
 5.000000;4.000000;0.700000;,
 5.000000;0.000000;0.700000;,
 0.800000;4.000000;6.000000;,
 -0.500000;3.600000;6.000000;,
 0.800000;4.000000;0.000000;,
 -0.500000;3.600000;0.000000;,
 -1.620000;2.700000;-2.080000;,
 -1.620000;-0.100000;-2.080000;,
 -1.780000;-0.100000;-2.080000;,
 -1.780000;2.700000;-2.080000;,
 -1.620000;2.700000;-1.920000;,
 -1.620000;-0.100000;-1.920000;,
 -1.780000;-0.100000;-1.920000;,
 -1.780000;2.700000;-1.920000;,
 -1.620000;2.700000;4.920000;,
 -1.620000;-0.100000;4.920000;,
 -1.780000;-0.100000;4.920000;,
 -1.780000;2.700000;4.920000;,
 -1.620000;2.700000;5.079999;,
 -1.620000;-0.100000;5.079999;,
 -1.780000;-0.100000;5.079999;,
 -1.780000;2.700000;5.079999;,
 -1.620000;2.700000;-1.980000;,
 -1.620000;2.600000;-1.980000;,
 -1.780000;2.600000;-1.980000;,
 -1.780000;2.700000;-1.980000;,
 -1.620000;2.700000;4.980000;,
 -1.620000;2.600000;4.980000;,
 -1.780000;2.600000;4.980000;,
 -1.780000;2.700000;4.980000;,
 -1.940000;2.700000;-2.000000;,
 -1.940000;2.600000;-2.000000;,
 -2.000000;2.600000;-2.000000;,
 -2.000000;2.700000;-2.000000;,
 -1.940000;2.700000;5.000000;,
 -1.940000;2.600000;5.000000;,
 -2.000000;2.600000;5.000000;,
 -2.000000;2.700000;5.000000;,
 0.000000;3.100000;5.000000;,
 -2.000000;2.700000;5.000000;,
 0.000000;3.100000;-2.000000;,
 -2.000000;2.700000;-2.000000;;
 58;
 3;0,2,3;,
 3;0,3,1;,
 3;1,3,5;,
 3;1,5,4;,
 3;6,8,9;,
 3;6,9,7;,
 3;10,12,13;,
 3;10,13,11;,
 3;14,15,16;,
 3;14,16,17;,
 3;17,16,20;,
 3;17,20,21;,
 3;21,20,19;,
 3;21,19,18;,
 3;18,19,15;,
 3;18,15,14;,
 3;14,17,21;,
 3;14,21,18;,
 3;15,19,20;,
 3;15,20,16;,
 3;22,23,24;,
 3;22,24,25;,
 3;25,24,28;,
 3;25,28,29;,
 3;29,28,27;,
 3;29,27,26;,
 3;26,27,23;,
 3;26,23,22;,
 3;22,25,29;,
 3;22,29,26;,
 3;23,27,28;,
 3;23,28,24;,
 3;30,31,32;,
 3;30,32,33;,
 3;33,32,36;,
 3;33,36,37;,
 3;37,36,35;,
 3;37,35,34;,
 3;34,35,31;,
 3;34,31,30;,
 3;30,33,37;,
 3;30,37,34;,
 3;31,35,36;,
 3;31,36,32;,
 3;38,39,40;,
 3;38,40,41;,
 3;41,40,44;,
 3;41,44,45;,
 3;45,44,43;,
 3;45,43,42;,
 3;42,43,39;,
 3;42,39,38;,
 3;38,41,45;,
 3;38,45,42;,
 3;39,43,44;,
 3;39,44,40;,
 3;46,48,49;,
 3;46,49,47;;

 MeshMaterialList  {
  6;
  58;
  0,
  0,
  0,
  0,
  0,
  0,
  0,
  0,
  1,
  1,
  1,
  1,
  1,
  1,
  1,
  1,
  1,
  1,
  1,
  1,
  2,
  2,
  2,
  2,
  2,
  2,
  2,
  2,
  2,
  2,
  2,
  2,
  3,
  3,
  3,
  3,
  3,
  3,
  3,
  3,
  3,
  3,
  3,
  3,
  4,
  4,
  4,
  4,
  4,
  4,
  4,
  4,
  4,
  4,
  4,
  4,
  5,
  5;

  Material  {
   1.000000;1.000000;1.000000;1.000000;;
   0.000000;
   0.000000;0.000000;0.000000;;
   0.000000;0.000000;0.000000;;

   TextureFilename  {
    "Sta_CC09_House1.dds";
   }
  }

  Material  {
   0.901961;0.901961;0.901961;1.000000;;
   0.000000;
   0.000000;0.000000;0.000000;;
   0.000000;0.000000;0.000000;;
  }

  Material  {
   0.901961;0.901961;0.901961;1.000000;;
   0.000000;
   0.000000;0.000000;0.000000;;
   0.000000;0.000000;0.000000;;
  }

  Material  {
   0.901961;0.901961;0.901961;1.000000;;
   0.000000;
   0.000000;0.000000;0.000000;;
   0.000000;0.000000;0.000000;;
  }

  Material  {
   0.901961;0.901961;0.901961;1.000000;;
   0.000000;
   0.000000;0.000000;0.000000;;
   0.000000;0.000000;0.000000;;
  }

  Material  {
   0.901961;0.901961;0.901961;1.000000;;
   0.000000;
   0.000000;0.000000;0.000000;;
   0.000000;0.000000;0.000000;;
  }
 }

 MeshTextureCoords  {
  50;
  0.000000;0.102000;,
  0.000000;0.843000;,
  0.500000;0.102000;,
  0.500000;0.843000;,
  0.000000;1.000000;,
  0.500000;1.000000;,
  0.500000;0.000000;,
  0.500000;0.843000;,
  1.000000;0.000000;,
  1.000000;0.843000;,
  0.074000;0.000000;,
  0.000000;0.102000;,
  0.476000;0.000000;,
  0.500000;0.102000;,
  0.000000;0.000000;,
  0.000000;0.000000;,
  0.000000;0.000000;,
  0.000000;0.000000;,
  0.000000;0.000000;,
  0.000000;0.000000;,
  0.000000;0.000000;,
  0.000000;0.000000;,
  0.000000;0.000000;,
  0.000000;0.000000;,
  0.000000;0.000000;,
  0.000000;0.000000;,
  0.000000;0.000000;,
  0.000000;0.000000;,
  0.000000;0.000000;,
  0.000000;0.000000;,
  0.000000;0.000000;,
  0.000000;0.000000;,
  0.000000;0.000000;,
  0.000000;0.000000;,
  0.000000;0.000000;,
  0.000000;0.000000;,
  0.000000;0.000000;,
  0.000000;0.000000;,
  0.000000;0.000000;,
  0.000000;0.000000;,
  0.000000;0.000000;,
  0.000000;0.000000;,
  0.000000;0.000000;,
  0.000000;0.000000;,
  0.000000;0.000000;,
  0.000000;0.000000;,
  0.000000;0.000000;,
  0.000000;0.000000;,
  0.000000;0.000000;,
  0.000000;0.000000;;
 }

 MeshNormals  {
  58;
  -1.000000;0.000000;0.000000;,
  -1.000000;0.000000;0.000000;,
  0.000000;1.000000;0.000000;,
  0.000000;1.000000;0.000000;,
  0.000000;0.000000;-1.000000;,
  0.000000;0.000000;-1.000000;,
  -0.294086;0.955779;0.000000;,
  -0.294086;0.955779;0.000000;,
  0.000000;0.000000;-1.000000;,
  0.000000;0.000000;-1.000000;,
  -1.000000;0.000000;0.000000;,
  -1.000000;0.000000;0.000000;,
  0.000000;0.000000;1.000000;,
  0.000000;0.000000;1.000000;,
  1.000000;0.000000;0.000000;,
  1.000000;0.000000;0.000000;,
  0.000000;1.000000;0.000000;,
  0.000000;1.000000;0.000000;,
  0.000000;-1.000000;0.000000;,
  0.000000;-1.000000;0.000000;,
  0.000000;0.000000;-1.000000;,
  0.000000;0.000000;-1.000000;,
  -1.000000;0.000000;0.000000;,
  -1.000000;0.000000;0.000000;,
  0.000000;0.000000;1.000000;,
  0.000000;0.000000;1.000000;,
  1.000000;0.000000;0.000000;,
  1.000000;0.000000;0.000000;,
  0.000000;1.000000;0.000000;,
  0.000000;1.000000;0.000000;,
  0.000000;-1.000000;0.000000;,
  0.000000;-1.000000;0.000000;,
  0.000000;0.000000;-1.000000;,
  0.000000;0.000000;-1.000000;,
  -1.000000;0.000000;0.000000;,
  -1.000000;0.000000;0.000000;,
  0.000000;0.000000;1.000000;,
  0.000000;0.000000;1.000000;,
  1.000000;0.000000;0.000000;,
  1.000000;0.000000;0.000000;,
  0.000000;1.000000;0.000000;,
  0.000000;1.000000;0.000000;,
  0.000000;-1.000000;0.000000;,
  0.000000;-1.000000;0.000000;,
  0.000000;0.000000;-1.000000;,
  0.000000;0.000000;-1.000000;,
  -1.000000;0.000000;0.000000;,
  -1.000000;0.000000;0.000000;,
  0.000000;0.000000;1.000000;,
  0.000000;0.000000;1.000000;,
  1.000000;0.000000;0.000000;,
  1.000000;0.000000;0.000000;,
  0.000000;1.000000;0.000000;,
  0.000000;1.000000;0.000000;,
  0.000000;-1.000000;0.000000;,
  0.000000;-1.000000;0.000000;,
  -0.196116;0.980581;0.000000;,
  -0.196116;0.980581;0.000000;;
  58;
  3;0,0,0;,
  3;1,1,1;,
  3;2,2,2;,
  3;3,3,3;,
  3;4,4,4;,
  3;5,5,5;,
  3;6,6,6;,
  3;7,7,7;,
  3;8,8,8;,
  3;9,9,9;,
  3;10,10,10;,
  3;11,11,11;,
  3;12,12,12;,
  3;13,13,13;,
  3;14,14,14;,
  3;15,15,15;,
  3;16,16,16;,
  3;17,17,17;,
  3;18,18,18;,
  3;19,19,19;,
  3;20,20,20;,
  3;21,21,21;,
  3;22,22,22;,
  3;23,23,23;,
  3;24,24,24;,
  3;25,25,25;,
  3;26,26,26;,
  3;27,27,27;,
  3;28,28,28;,
  3;29,29,29;,
  3;30,30,30;,
  3;31,31,31;,
  3;32,32,32;,
  3;33,33,33;,
  3;34,34,34;,
  3;35,35,35;,
  3;36,36,36;,
  3;37,37,37;,
  3;38,38,38;,
  3;39,39,39;,
  3;40,40,40;,
  3;41,41,41;,
  3;42,42,42;,
  3;43,43,43;,
  3;44,44,44;,
  3;45,45,45;,
  3;46,46,46;,
  3;47,47,47;,
  3;48,48,48;,
  3;49,49,49;,
  3;50,50,50;,
  3;51,51,51;,
  3;52,52,52;,
  3;53,53,53;,
  3;54,54,54;,
  3;55,55,55;,
  3;56,56,56;,
  3;57,57,57;;
 }
}