xof 0303txt 0032
template Vector {
 <3d82ab5e-62da-11cf-ab39-0020af71e433>
 FLOAT x;
 FLOAT y;
 FLOAT z;
}

template MeshFace {
 <3d82ab5f-62da-11cf-ab39-0020af71e433>
 DWORD nFaceVertexIndices;
 array DWORD faceVertexIndices[nFaceVertexIndices];
}

template Mesh {
 <3d82ab44-62da-11cf-ab39-0020af71e433>
 DWORD nVertices;
 array Vector vertices[nVertices];
 DWORD nFaces;
 array MeshFace faces[nFaces];
 [...]
}

template ColorRGBA {
 <35ff44e0-6c7c-11cf-8f52-0040333594a3>
 FLOAT red;
 FLOAT green;
 FLOAT blue;
 FLOAT alpha;
}

template ColorRGB {
 <d3e16e81-7835-11cf-8f52-0040333594a3>
 FLOAT red;
 FLOAT green;
 FLOAT blue;
}

template Material {
 <3d82ab4d-62da-11cf-ab39-0020af71e433>
 ColorRGBA faceColor;
 FLOAT power;
 ColorRGB specularColor;
 ColorRGB emissiveColor;
 [...]
}

template MeshMaterialList {
 <f6f23f42-7686-11cf-8f52-0040333594a3>
 DWORD nMaterials;
 DWORD nFaceIndexes;
 array DWORD faceIndexes[nFaceIndexes];
 [Material <3d82ab4d-62da-11cf-ab39-0020af71e433>]
}

template TextureFilename {
 <a42790e1-7810-11cf-8f52-0040333594a3>
 STRING filename;
}

template Coords2d {
 <f6f23f44-7686-11cf-8f52-0040333594a3>
 FLOAT u;
 FLOAT v;
}

template MeshTextureCoords {
 <f6f23f40-7686-11cf-8f52-0040333594a3>
 DWORD nTextureCoords;
 array Coords2d textureCoords[nTextureCoords];
}

template MeshNormals {
 <f6f23f43-7686-11cf-8f52-0040333594a3>
 DWORD nNormals;
 array Vector normals[nNormals];
 DWORD nFaceNormals;
 array MeshFace faceNormals[nFaceNormals];
}


Mesh  {
 154;
 0.000000;3.300000;0.000000;,
 0.000000;3.300000;10.000000;,
 0.000000;-0.100000;0.000000;,
 0.000000;-0.100000;10.000000;,
 -4.000000;3.300000;0.000000;,
 0.000000;3.300000;0.000000;,
 -4.000000;3.000000;0.000000;,
 0.000000;3.000000;0.000000;,
 -4.000000;-0.100000;0.000000;,
 0.000000;-0.100000;0.000000;,
 2.500000;3.000000;0.400000;,
 2.500000;0.000000;0.400000;,
 2.300000;0.000000;0.400000;,
 2.300000;3.000000;0.400000;,
 2.500000;3.000000;0.600000;,
 2.500000;0.000000;0.600000;,
 2.300000;0.000000;0.600000;,
 2.300000;3.000000;0.600000;,
 2.500000;3.000000;9.399999;,
 2.500000;0.000000;9.399999;,
 2.300000;0.000000;9.399999;,
 2.300000;3.000000;9.399999;,
 2.500000;3.000000;9.599999;,
 2.500000;0.000000;9.599999;,
 2.300000;0.000000;9.599999;,
 2.300000;3.000000;9.599999;,
 3.000000;3.100000;0.000000;,
 3.000000;3.000000;0.000000;,
 2.940000;3.000000;0.000000;,
 2.940000;3.100000;0.000000;,
 3.000000;3.100000;9.999999;,
 3.000000;3.000000;9.999999;,
 2.940000;3.000000;9.999999;,
 2.940000;3.100000;9.999999;,
 2.500000;3.000000;0.000000;,
 2.500000;2.800000;0.000000;,
 2.300000;2.800000;0.000000;,
 2.300000;3.000000;0.000000;,
 2.500000;3.000000;9.999999;,
 2.500000;2.800000;9.999999;,
 2.300000;2.800000;9.999999;,
 2.300000;3.000000;9.999999;,
 3.000000;3.000000;0.420000;,
 3.000000;2.840000;0.420000;,
 0.000000;2.840000;0.420000;,
 0.000000;3.000000;0.420000;,
 3.000000;3.000000;0.580000;,
 3.000000;2.840000;0.580000;,
 0.000000;2.840000;0.580000;,
 0.000000;3.000000;0.580000;,
 3.000000;3.100000;3.270000;,
 3.000000;3.000000;3.270000;,
 0.000000;3.000000;3.270000;,
 0.000000;3.100000;3.270000;,
 3.000000;3.100000;3.330000;,
 3.000000;3.000000;3.330000;,
 0.000000;3.000000;3.330000;,
 0.000000;3.100000;3.330000;,
 3.000000;3.100000;6.669999;,
 3.000000;3.000000;6.669999;,
 0.000000;3.000000;6.669999;,
 0.000000;3.100000;6.669999;,
 3.000000;3.100000;6.730000;,
 3.000000;3.000000;6.730000;,
 0.000000;3.000000;6.730000;,
 0.000000;3.100000;6.730000;,
 3.000000;3.000000;9.419999;,
 3.000000;2.840000;9.419999;,
 0.000000;2.840000;9.419999;,
 0.000000;3.000000;9.419999;,
 3.000000;3.000000;9.579999;,
 3.000000;2.840000;9.579999;,
 0.000000;2.840000;9.579999;,
 0.000000;3.000000;9.579999;,
 0.000000;3.300000;0.000000;,
 3.000000;3.300000;0.000000;,
 0.000000;2.800000;0.000000;,
 3.000000;2.800000;0.000000;,
 0.000000;3.300000;10.000000;,
 3.000000;3.300000;10.000000;,
 0.000000;2.800000;10.000000;,
 3.000000;2.800000;10.000000;,
 1.600000;2.700000;-9.499999;,
 1.600000;-0.100000;-9.499999;,
 1.400000;-0.100000;-9.499999;,
 1.400000;2.700000;-9.499999;,
 1.600000;2.700000;-9.299998;,
 1.600000;-0.100000;-9.299998;,
 1.400000;-0.100000;-9.299998;,
 1.400000;2.700000;-9.299998;,
 1.600000;2.700000;-0.200000;,
 1.600000;-0.100000;-0.200000;,
 1.400000;-0.100000;-0.200000;,
 1.400000;2.700000;-0.200000;,
 1.600000;2.700000;0.000000;,
 1.600000;-0.100000;0.000000;,
 1.400000;-0.100000;0.000000;,
 1.400000;2.700000;0.000000;,
 1.600000;2.700000;-9.494999;,
 1.600000;2.500000;-9.494999;,
 1.400000;2.500000;-9.494999;,
 1.400000;2.700000;-9.494999;,
 1.600000;2.700000;-0.005000;,
 1.600000;2.500000;-0.005000;,
 1.400000;2.500000;-0.005000;,
 1.400000;2.700000;-0.005000;,
 0.000000;3.200000;-9.499999;,
 0.000000;3.100000;-9.499999;,
 1.400000;2.700000;-9.499999;,
 1.400000;2.500000;-9.499999;,
 1.600000;2.700000;-9.499999;,
 1.600000;2.500000;-9.499999;,
 3.000000;3.200000;-9.499999;,
 3.000000;3.100000;-9.499999;,
 0.000000;3.200000;-6.300000;,
 0.000000;3.100000;-6.300000;,
 1.400000;2.700000;-6.300000;,
 1.400000;2.500000;-6.300000;,
 1.600000;2.700000;-6.300000;,
 1.600000;2.500000;-6.300000;,
 3.000000;3.200000;-6.300000;,
 3.000000;3.100000;-6.300000;,
 0.000000;3.200000;-3.100000;,
 0.000000;3.100000;-3.100000;,
 1.400000;2.700000;-3.100000;,
 1.400000;2.500000;-3.100000;,
 1.600000;2.700000;-3.100000;,
 1.600000;2.500000;-3.100000;,
 3.000000;3.200000;-3.100000;,
 3.000000;3.100000;-3.100000;,
 0.000000;3.200000;-0.200000;,
 0.000000;3.100000;-0.200000;,
 1.400000;2.700000;-0.200000;,
 1.400000;2.500000;-0.200000;,
 1.600000;2.700000;-0.200000;,
 1.600000;2.500000;-0.200000;,
 3.000000;3.200000;-0.200000;,
 3.000000;3.100000;-0.200000;,
 0.000000;3.000000;-9.500000;,
 0.000000;3.000000;0.000000;,
 0.000000;3.200000;-9.500000;,
 0.000000;3.200000;0.000000;,
 1.400000;2.700000;-9.500000;,
 1.400000;2.700000;0.000000;,
 1.600000;2.700000;-9.500000;,
 1.600000;2.700000;0.000000;,
 3.000000;3.200000;-9.500000;,
 3.000000;3.200000;0.000000;,
 3.000000;3.000000;-9.500000;,
 3.000000;3.000000;0.000000;,
 0.000000;3.000000;-9.500000;,
 0.000000;3.000000;-5.500000;,
 0.000000;2.000000;-9.500000;,
 0.000000;2.000000;-5.500000;;
 202;
 3;0,1,3;,
 3;0,3,2;,
 3;2,3,1;,
 3;2,1,0;,
 3;4,5,7;,
 3;4,7,6;,
 3;6,7,5;,
 3;6,5,4;,
 3;6,7,9;,
 3;6,9,8;,
 3;8,9,7;,
 3;8,7,6;,
 3;10,11,12;,
 3;10,12,13;,
 3;13,12,16;,
 3;13,16,17;,
 3;17,16,15;,
 3;17,15,14;,
 3;14,15,11;,
 3;14,11,10;,
 3;10,13,17;,
 3;10,17,14;,
 3;11,15,16;,
 3;11,16,12;,
 3;18,19,20;,
 3;18,20,21;,
 3;21,20,24;,
 3;21,24,25;,
 3;25,24,23;,
 3;25,23,22;,
 3;22,23,19;,
 3;22,19,18;,
 3;18,21,25;,
 3;18,25,22;,
 3;19,23,24;,
 3;19,24,20;,
 3;26,27,28;,
 3;26,28,29;,
 3;29,28,32;,
 3;29,32,33;,
 3;33,32,31;,
 3;33,31,30;,
 3;30,31,27;,
 3;30,27,26;,
 3;26,29,33;,
 3;26,33,30;,
 3;27,31,32;,
 3;27,32,28;,
 3;34,35,36;,
 3;34,36,37;,
 3;37,36,40;,
 3;37,40,41;,
 3;41,40,39;,
 3;41,39,38;,
 3;38,39,35;,
 3;38,35,34;,
 3;34,37,41;,
 3;34,41,38;,
 3;35,39,40;,
 3;35,40,36;,
 3;42,43,44;,
 3;42,44,45;,
 3;45,44,48;,
 3;45,48,49;,
 3;49,48,47;,
 3;49,47,46;,
 3;46,47,43;,
 3;46,43,42;,
 3;42,45,49;,
 3;42,49,46;,
 3;43,47,48;,
 3;43,48,44;,
 3;50,51,52;,
 3;50,52,53;,
 3;53,52,56;,
 3;53,56,57;,
 3;57,56,55;,
 3;57,55,54;,
 3;54,55,51;,
 3;54,51,50;,
 3;50,53,57;,
 3;50,57,54;,
 3;51,55,56;,
 3;51,56,52;,
 3;58,59,60;,
 3;58,60,61;,
 3;61,60,64;,
 3;61,64,65;,
 3;65,64,63;,
 3;65,63,62;,
 3;62,63,59;,
 3;62,59,58;,
 3;58,61,65;,
 3;58,65,62;,
 3;59,63,64;,
 3;59,64,60;,
 3;66,67,68;,
 3;66,68,69;,
 3;69,68,72;,
 3;69,72,73;,
 3;73,72,71;,
 3;73,71,70;,
 3;70,71,67;,
 3;70,67,66;,
 3;66,69,73;,
 3;66,73,70;,
 3;67,71,72;,
 3;67,72,68;,
 3;74,75,77;,
 3;74,77,76;,
 3;78,79,81;,
 3;78,81,80;,
 3;82,83,84;,
 3;82,84,85;,
 3;85,84,88;,
 3;85,88,89;,
 3;89,88,87;,
 3;89,87,86;,
 3;86,87,83;,
 3;86,83,82;,
 3;82,85,89;,
 3;82,89,86;,
 3;83,87,88;,
 3;83,88,84;,
 3;90,91,92;,
 3;90,92,93;,
 3;93,92,96;,
 3;93,96,97;,
 3;97,96,95;,
 3;97,95,94;,
 3;94,95,91;,
 3;94,91,90;,
 3;90,93,97;,
 3;90,97,94;,
 3;91,95,96;,
 3;91,96,92;,
 3;98,99,100;,
 3;98,100,101;,
 3;101,100,104;,
 3;101,104,105;,
 3;105,104,103;,
 3;105,103,102;,
 3;102,103,99;,
 3;102,99,98;,
 3;98,101,105;,
 3;98,105,102;,
 3;99,103,104;,
 3;99,104,100;,
 3;106,107,109;,
 3;106,109,108;,
 3;108,109,107;,
 3;108,107,106;,
 3;110,111,113;,
 3;110,113,112;,
 3;112,113,111;,
 3;112,111,110;,
 3;114,115,117;,
 3;114,117,116;,
 3;116,117,115;,
 3;116,115,114;,
 3;118,119,121;,
 3;118,121,120;,
 3;120,121,119;,
 3;120,119,118;,
 3;122,123,125;,
 3;122,125,124;,
 3;124,125,123;,
 3;124,123,122;,
 3;126,127,129;,
 3;126,129,128;,
 3;128,129,127;,
 3;128,127,126;,
 3;130,131,133;,
 3;130,133,132;,
 3;132,133,131;,
 3;132,131,130;,
 3;134,135,137;,
 3;134,137,136;,
 3;136,137,135;,
 3;136,135,134;,
 3;138,139,141;,
 3;138,141,140;,
 3;140,141,139;,
 3;140,139,138;,
 3;140,141,143;,
 3;140,143,142;,
 3;142,143,141;,
 3;142,141,140;,
 3;142,143,145;,
 3;142,145,144;,
 3;144,145,143;,
 3;144,143,142;,
 3;144,145,147;,
 3;144,147,146;,
 3;146,147,145;,
 3;146,145,144;,
 3;146,147,149;,
 3;146,149,148;,
 3;148,149,147;,
 3;148,147,146;,
 3;150,151,153;,
 3;150,153,152;;

 MeshMaterialList  {
  20;
  202;
  0,
  0,
  0,
  0,
  1,
  1,
  1,
  1,
  1,
  1,
  1,
  1,
  2,
  2,
  2,
  2,
  2,
  2,
  2,
  2,
  2,
  2,
  2,
  2,
  3,
  3,
  3,
  3,
  3,
  3,
  3,
  3,
  3,
  3,
  3,
  3,
  4,
  4,
  4,
  4,
  4,
  4,
  4,
  4,
  4,
  4,
  4,
  4,
  5,
  5,
  5,
  5,
  5,
  5,
  5,
  5,
  5,
  5,
  5,
  5,
  6,
  6,
  6,
  6,
  6,
  6,
  6,
  6,
  6,
  6,
  6,
  6,
  7,
  7,
  7,
  7,
  7,
  7,
  7,
  7,
  7,
  7,
  7,
  7,
  8,
  8,
  8,
  8,
  8,
  8,
  8,
  8,
  8,
  8,
  8,
  8,
  9,
  9,
  9,
  9,
  9,
  9,
  9,
  9,
  9,
  9,
  9,
  9,
  10,
  10,
  10,
  10,
  11,
  11,
  11,
  11,
  11,
  11,
  11,
  11,
  11,
  11,
  11,
  11,
  12,
  12,
  12,
  12,
  12,
  12,
  12,
  12,
  12,
  12,
  12,
  12,
  13,
  13,
  13,
  13,
  13,
  13,
  13,
  13,
  13,
  13,
  13,
  13,
  14,
  14,
  14,
  14,
  14,
  14,
  14,
  14,
  15,
  15,
  15,
  15,
  15,
  15,
  15,
  15,
  16,
  16,
  16,
  16,
  16,
  16,
  16,
  16,
  17,
  17,
  17,
  17,
  17,
  17,
  17,
  17,
  18,
  18,
  18,
  18,
  18,
  18,
  18,
  18,
  18,
  18,
  18,
  18,
  18,
  18,
  18,
  18,
  18,
  18,
  18,
  18,
  19,
  19;

  Material  {
   1.000000;1.000000;1.000000;1.000000;;
   0.000000;
   0.000000;0.000000;0.000000;;
   0.000000;0.000000;0.000000;;

   TextureFilename  {
    "Sta_CC27_House1.dds";
   }
  }

  Material  {
   1.000000;1.000000;1.000000;1.000000;;
   0.000000;
   0.000000;0.000000;0.000000;;
   0.000000;0.000000;0.000000;;

   TextureFilename  {
    "Sta_CC27_House2.dds";
   }
  }

  Material  {
   0.847059;0.862745;0.882353;1.000000;;
   0.000000;
   0.000000;0.000000;0.000000;;
   0.000000;0.000000;0.000000;;
  }

  Material  {
   0.847059;0.862745;0.882353;1.000000;;
   0.000000;
   0.000000;0.000000;0.000000;;
   0.000000;0.000000;0.000000;;
  }

  Material  {
   0.847059;0.862745;0.882353;1.000000;;
   0.000000;
   0.000000;0.000000;0.000000;;
   0.000000;0.000000;0.000000;;
  }

  Material  {
   0.847059;0.862745;0.882353;1.000000;;
   0.000000;
   0.000000;0.000000;0.000000;;
   0.000000;0.000000;0.000000;;
  }

  Material  {
   0.847059;0.862745;0.882353;1.000000;;
   0.000000;
   0.000000;0.000000;0.000000;;
   0.000000;0.000000;0.000000;;
  }

  Material  {
   0.847059;0.862745;0.882353;1.000000;;
   0.000000;
   0.000000;0.000000;0.000000;;
   0.000000;0.000000;0.000000;;
  }

  Material  {
   0.847059;0.862745;0.882353;1.000000;;
   0.000000;
   0.000000;0.000000;0.000000;;
   0.000000;0.000000;0.000000;;
  }

  Material  {
   0.847059;0.862745;0.882353;1.000000;;
   0.000000;
   0.000000;0.000000;0.000000;;
   0.000000;0.000000;0.000000;;
  }

  Material  {
   0.847059;0.862745;0.882353;1.000000;;
   0.000000;
   0.000000;0.000000;0.000000;;
   0.000000;0.000000;0.000000;;
  }

  Material  {
   0.847059;0.862745;0.882353;1.000000;;
   0.000000;
   0.000000;0.000000;0.000000;;
   0.000000;0.000000;0.000000;;
  }

  Material  {
   0.847059;0.862745;0.882353;1.000000;;
   0.000000;
   0.000000;0.000000;0.000000;;
   0.000000;0.000000;0.000000;;
  }

  Material  {
   0.847059;0.862745;0.882353;1.000000;;
   0.000000;
   0.000000;0.000000;0.000000;;
   0.000000;0.000000;0.000000;;
  }

  Material  {
   0.847059;0.862745;0.882353;1.000000;;
   0.000000;
   0.000000;0.000000;0.000000;;
   0.000000;0.000000;0.000000;;
  }

  Material  {
   0.847059;0.862745;0.882353;1.000000;;
   0.000000;
   0.000000;0.000000;0.000000;;
   0.000000;0.000000;0.000000;;
  }

  Material  {
   0.847059;0.862745;0.882353;1.000000;;
   0.000000;
   0.000000;0.000000;0.000000;;
   0.000000;0.000000;0.000000;;
  }

  Material  {
   0.847059;0.862745;0.882353;1.000000;;
   0.000000;
   0.000000;0.000000;0.000000;;
   0.000000;0.000000;0.000000;;
  }

  Material  {
   0.768627;0.784314;0.803922;1.000000;;
   0.000000;
   0.000000;0.000000;0.000000;;
   0.000000;0.000000;0.000000;;
  }

  Material  {
   1.000000;1.000000;1.000000;1.000000;;
   0.000000;
   0.000000;0.000000;0.000000;;
   0.000000;0.000000;0.000000;;

   TextureFilename  {
    "Sta_CC27_Wall2.dds";
   }
  }
 }

 MeshTextureCoords  {
  154;
  0.000000;0.000000;,
  1.000000;0.000000;,
  0.000000;1.000000;,
  1.000000;1.000000;,
  0.000000;0.050000;,
  1.000000;0.050000;,
  0.000000;0.000000;,
  1.000000;0.000000;,
  0.000000;1.000000;,
  1.000000;1.000000;,
  0.000000;0.000000;,
  0.000000;0.000000;,
  0.000000;0.000000;,
  0.000000;0.000000;,
  0.000000;0.000000;,
  0.000000;0.000000;,
  0.000000;0.000000;,
  0.000000;0.000000;,
  0.000000;0.000000;,
  0.000000;0.000000;,
  0.000000;0.000000;,
  0.000000;0.000000;,
  0.000000;0.000000;,
  0.000000;0.000000;,
  0.000000;0.000000;,
  0.000000;0.000000;,
  0.000000;0.000000;,
  0.000000;0.000000;,
  0.000000;0.000000;,
  0.000000;0.000000;,
  0.000000;0.000000;,
  0.000000;0.000000;,
  0.000000;0.000000;,
  0.000000;0.000000;,
  0.000000;0.000000;,
  0.000000;0.000000;,
  0.000000;0.000000;,
  0.000000;0.000000;,
  0.000000;0.000000;,
  0.000000;0.000000;,
  0.000000;0.000000;,
  0.000000;0.000000;,
  0.000000;0.000000;,
  0.000000;0.000000;,
  0.000000;0.000000;,
  0.000000;0.000000;,
  0.000000;0.000000;,
  0.000000;0.000000;,
  0.000000;0.000000;,
  0.000000;0.000000;,
  0.000000;0.000000;,
  0.000000;0.000000;,
  0.000000;0.000000;,
  0.000000;0.000000;,
  0.000000;0.000000;,
  0.000000;0.000000;,
  0.000000;0.000000;,
  0.000000;0.000000;,
  0.000000;0.000000;,
  0.000000;0.000000;,
  0.000000;0.000000;,
  0.000000;0.000000;,
  0.000000;0.000000;,
  0.000000;0.000000;,
  0.000000;0.000000;,
  0.000000;0.000000;,
  0.000000;0.000000;,
  0.000000;0.000000;,
  0.000000;0.000000;,
  0.000000;0.000000;,
  0.000000;0.000000;,
  0.000000;0.000000;,
  0.000000;0.000000;,
  0.000000;0.000000;,
  0.000000;0.000000;,
  0.000000;0.000000;,
  0.000000;0.000000;,
  0.000000;0.000000;,
  0.000000;0.000000;,
  0.000000;0.000000;,
  0.000000;0.000000;,
  0.000000;0.000000;,
  0.000000;0.000000;,
  0.000000;0.000000;,
  0.000000;0.000000;,
  0.000000;0.000000;,
  0.000000;0.000000;,
  0.000000;0.000000;,
  0.000000;0.000000;,
  0.000000;0.000000;,
  0.000000;0.000000;,
  0.000000;0.000000;,
  0.000000;0.000000;,
  0.000000;0.000000;,
  0.000000;0.000000;,
  0.000000;0.000000;,
  0.000000;0.000000;,
  0.000000;0.000000;,
  0.000000;0.000000;,
  0.000000;0.000000;,
  0.000000;0.000000;,
  0.000000;0.000000;,
  0.000000;0.000000;,
  0.000000;0.000000;,
  0.000000;0.000000;,
  0.000000;0.000000;,
  0.000000;0.000000;,
  0.000000;0.000000;,
  0.000000;0.000000;,
  0.000000;0.000000;,
  0.000000;0.000000;,
  0.000000;0.000000;,
  0.000000;0.000000;,
  0.000000;0.000000;,
  0.000000;0.000000;,
  0.000000;0.000000;,
  0.000000;0.000000;,
  0.000000;0.000000;,
  0.000000;0.000000;,
  0.000000;0.000000;,
  0.000000;0.000000;,
  0.000000;0.000000;,
  0.000000;0.000000;,
  0.000000;0.000000;,
  0.000000;0.000000;,
  0.000000;0.000000;,
  0.000000;0.000000;,
  0.000000;0.000000;,
  0.000000;0.000000;,
  0.000000;0.000000;,
  0.000000;0.000000;,
  0.000000;0.000000;,
  0.000000;0.000000;,
  0.000000;0.000000;,
  0.000000;0.000000;,
  0.000000;0.000000;,
  0.000000;0.000000;,
  0.000000;0.000000;,
  0.000000;0.000000;,
  0.000000;0.000000;,
  0.000000;0.000000;,
  0.000000;0.000000;,
  0.000000;0.000000;,
  0.000000;0.000000;,
  0.000000;0.000000;,
  0.000000;0.000000;,
  0.000000;0.000000;,
  0.000000;0.000000;,
  0.000000;0.000000;,
  0.000000;0.000000;,
  0.000000;0.000000;,
  2.000000;0.000000;,
  0.000000;1.000000;,
  2.000000;1.000000;;
 }

 MeshNormals  {
  202;
  1.000000;0.000000;0.000000;,
  1.000000;0.000000;0.000000;,
  -1.000000;0.000000;0.000000;,
  -1.000000;0.000000;0.000000;,
  0.000000;0.000000;-1.000000;,
  0.000000;0.000000;-1.000000;,
  0.000000;0.000000;1.000000;,
  0.000000;0.000000;1.000000;,
  0.000000;0.000000;-1.000000;,
  0.000000;0.000000;-1.000000;,
  0.000000;0.000000;1.000000;,
  0.000000;0.000000;1.000000;,
  0.000000;0.000000;-1.000000;,
  0.000000;0.000000;-1.000000;,
  -1.000000;0.000000;0.000000;,
  -1.000000;0.000000;0.000000;,
  0.000000;0.000000;1.000000;,
  0.000000;0.000000;1.000000;,
  1.000000;0.000000;0.000000;,
  1.000000;0.000000;0.000000;,
  0.000000;1.000000;0.000000;,
  0.000000;1.000000;0.000000;,
  0.000000;-1.000000;0.000000;,
  0.000000;-1.000000;0.000000;,
  0.000000;0.000000;-1.000000;,
  0.000000;0.000000;-1.000000;,
  -1.000000;0.000000;0.000000;,
  -1.000000;0.000000;0.000000;,
  0.000000;0.000000;1.000000;,
  0.000000;0.000000;1.000000;,
  1.000000;0.000000;0.000000;,
  1.000000;0.000000;0.000000;,
  0.000000;1.000000;0.000000;,
  0.000000;1.000000;0.000000;,
  0.000000;-1.000000;0.000000;,
  0.000000;-1.000000;0.000000;,
  0.000000;0.000000;-1.000000;,
  0.000000;0.000000;-1.000000;,
  -1.000000;0.000000;0.000000;,
  -1.000000;0.000000;0.000000;,
  0.000000;0.000000;1.000000;,
  0.000000;0.000000;1.000000;,
  1.000000;0.000000;0.000000;,
  1.000000;0.000000;0.000000;,
  0.000000;1.000000;0.000000;,
  0.000000;1.000000;0.000000;,
  0.000000;-1.000000;0.000000;,
  0.000000;-1.000000;0.000000;,
  0.000000;0.000000;-1.000000;,
  0.000000;0.000000;-1.000000;,
  -1.000000;0.000000;0.000000;,
  -1.000000;0.000000;0.000000;,
  0.000000;0.000000;1.000000;,
  0.000000;0.000000;1.000000;,
  1.000000;0.000000;0.000000;,
  1.000000;0.000000;0.000000;,
  0.000000;1.000000;0.000000;,
  0.000000;1.000000;0.000000;,
  0.000000;-1.000000;0.000000;,
  0.000000;-1.000000;0.000000;,
  0.000000;0.000000;-1.000000;,
  0.000000;0.000000;-1.000000;,
  -1.000000;0.000000;0.000000;,
  -1.000000;0.000000;0.000000;,
  0.000000;0.000000;1.000000;,
  0.000000;0.000000;1.000000;,
  1.000000;0.000000;0.000000;,
  1.000000;0.000000;0.000000;,
  0.000000;1.000000;0.000000;,
  0.000000;1.000000;0.000000;,
  0.000000;-1.000000;0.000000;,
  0.000000;-1.000000;0.000000;,
  0.000000;0.000000;-1.000000;,
  0.000000;0.000000;-1.000000;,
  -1.000000;0.000000;0.000000;,
  -1.000000;0.000000;0.000000;,
  0.000000;0.000000;1.000000;,
  0.000000;0.000000;1.000000;,
  1.000000;0.000000;0.000000;,
  1.000000;0.000000;0.000000;,
  0.000000;1.000000;0.000000;,
  0.000000;1.000000;0.000000;,
  0.000000;-1.000000;0.000000;,
  0.000000;-1.000000;0.000000;,
  0.000000;0.000000;-1.000000;,
  0.000000;0.000000;-1.000000;,
  -1.000000;0.000000;0.000000;,
  -1.000000;0.000000;0.000000;,
  0.000000;0.000000;1.000000;,
  0.000000;0.000000;1.000000;,
  1.000000;0.000000;0.000000;,
  1.000000;0.000000;0.000000;,
  0.000000;1.000000;0.000000;,
  0.000000;1.000000;0.000000;,
  0.000000;-1.000000;0.000000;,
  0.000000;-1.000000;0.000000;,
  0.000000;0.000000;-1.000000;,
  0.000000;0.000000;-1.000000;,
  -1.000000;0.000000;0.000000;,
  -1.000000;0.000000;0.000000;,
  0.000000;0.000000;1.000000;,
  0.000000;0.000000;1.000000;,
  1.000000;0.000000;0.000000;,
  1.000000;0.000000;0.000000;,
  0.000000;1.000000;0.000000;,
  0.000000;1.000000;0.000000;,
  0.000000;-1.000000;0.000000;,
  0.000000;-1.000000;0.000000;,
  0.000000;0.000000;-1.000000;,
  0.000000;0.000000;-1.000000;,
  0.000000;0.000000;-1.000000;,
  0.000000;0.000000;-1.000000;,
  0.000000;0.000000;-1.000000;,
  0.000000;0.000000;-1.000000;,
  -1.000000;0.000000;0.000000;,
  -1.000000;0.000000;0.000000;,
  0.000000;0.000000;1.000000;,
  0.000000;0.000000;1.000000;,
  1.000000;0.000000;0.000000;,
  1.000000;0.000000;0.000000;,
  0.000000;1.000000;0.000000;,
  0.000000;1.000000;0.000000;,
  0.000000;-1.000000;0.000000;,
  0.000000;-1.000000;0.000000;,
  0.000000;0.000000;-1.000000;,
  0.000000;0.000000;-1.000000;,
  -1.000000;0.000000;0.000000;,
  -1.000000;0.000000;0.000000;,
  0.000000;0.000000;1.000000;,
  0.000000;0.000000;1.000000;,
  1.000000;0.000000;0.000000;,
  1.000000;0.000000;0.000000;,
  0.000000;1.000000;0.000000;,
  0.000000;1.000000;0.000000;,
  0.000000;-1.000000;0.000000;,
  0.000000;-1.000000;0.000000;,
  0.000000;0.000000;-1.000000;,
  0.000000;0.000000;-1.000000;,
  -1.000000;0.000000;0.000000;,
  -1.000000;0.000000;0.000000;,
  0.000000;0.000000;1.000000;,
  0.000000;0.000000;1.000000;,
  1.000000;0.000000;0.000000;,
  1.000000;0.000000;0.000000;,
  0.000000;1.000000;0.000000;,
  0.000000;1.000000;0.000000;,
  0.000000;-1.000000;0.000000;,
  0.000000;-1.000000;0.000000;,
  0.000000;0.000000;1.000000;,
  0.000000;0.000000;1.000000;,
  0.000000;0.000000;-1.000000;,
  0.000000;0.000000;-1.000000;,
  0.000000;0.000000;1.000000;,
  0.000000;0.000000;1.000000;,
  0.000000;0.000000;-1.000000;,
  0.000000;0.000000;-1.000000;,
  0.000000;0.000000;1.000000;,
  0.000000;0.000000;1.000000;,
  0.000000;0.000000;-1.000000;,
  0.000000;0.000000;-1.000000;,
  0.000000;0.000000;1.000000;,
  0.000000;0.000000;1.000000;,
  0.000000;0.000000;-1.000000;,
  0.000000;0.000000;-1.000000;,
  0.000000;0.000000;1.000000;,
  0.000000;0.000000;1.000000;,
  0.000000;0.000000;-1.000000;,
  0.000000;0.000000;-1.000000;,
  0.000000;0.000000;1.000000;,
  0.000000;0.000000;1.000000;,
  0.000000;0.000000;-1.000000;,
  0.000000;0.000000;-1.000000;,
  0.000000;0.000000;1.000000;,
  0.000000;0.000000;1.000000;,
  0.000000;0.000000;-1.000000;,
  0.000000;0.000000;-1.000000;,
  0.000000;0.000000;1.000000;,
  0.000000;0.000000;1.000000;,
  0.000000;0.000000;-1.000000;,
  0.000000;0.000000;-1.000000;,
  -1.000000;0.000000;0.000000;,
  -1.000000;0.000000;0.000000;,
  1.000000;0.000000;0.000000;,
  1.000000;0.000000;0.000000;,
  0.336336;0.941742;0.000000;,
  0.336336;0.941742;0.000000;,
  -0.336336;-0.941742;0.000000;,
  -0.336336;-0.941742;0.000000;,
  0.000000;1.000000;0.000000;,
  0.000000;1.000000;0.000000;,
  0.000000;-1.000000;0.000000;,
  0.000000;-1.000000;0.000000;,
  -0.336336;0.941742;0.000000;,
  -0.336336;0.941742;0.000000;,
  0.336336;-0.941742;0.000000;,
  0.336336;-0.941742;0.000000;,
  1.000000;0.000000;0.000000;,
  1.000000;0.000000;0.000000;,
  -1.000000;0.000000;0.000000;,
  -1.000000;0.000000;0.000000;,
  1.000000;0.000000;0.000000;,
  1.000000;0.000000;0.000000;;
  202;
  3;0,0,0;,
  3;1,1,1;,
  3;2,2,2;,
  3;3,3,3;,
  3;4,4,4;,
  3;5,5,5;,
  3;6,6,6;,
  3;7,7,7;,
  3;8,8,8;,
  3;9,9,9;,
  3;10,10,10;,
  3;11,11,11;,
  3;12,12,12;,
  3;13,13,13;,
  3;14,14,14;,
  3;15,15,15;,
  3;16,16,16;,
  3;17,17,17;,
  3;18,18,18;,
  3;19,19,19;,
  3;20,20,20;,
  3;21,21,21;,
  3;22,22,22;,
  3;23,23,23;,
  3;24,24,24;,
  3;25,25,25;,
  3;26,26,26;,
  3;27,27,27;,
  3;28,28,28;,
  3;29,29,29;,
  3;30,30,30;,
  3;31,31,31;,
  3;32,32,32;,
  3;33,33,33;,
  3;34,34,34;,
  3;35,35,35;,
  3;36,36,36;,
  3;37,37,37;,
  3;38,38,38;,
  3;39,39,39;,
  3;40,40,40;,
  3;41,41,41;,
  3;42,42,42;,
  3;43,43,43;,
  3;44,44,44;,
  3;45,45,45;,
  3;46,46,46;,
  3;47,47,47;,
  3;48,48,48;,
  3;49,49,49;,
  3;50,50,50;,
  3;51,51,51;,
  3;52,52,52;,
  3;53,53,53;,
  3;54,54,54;,
  3;55,55,55;,
  3;56,56,56;,
  3;57,57,57;,
  3;58,58,58;,
  3;59,59,59;,
  3;60,60,60;,
  3;61,61,61;,
  3;62,62,62;,
  3;63,63,63;,
  3;64,64,64;,
  3;65,65,65;,
  3;66,66,66;,
  3;67,67,67;,
  3;68,68,68;,
  3;69,69,69;,
  3;70,70,70;,
  3;71,71,71;,
  3;72,72,72;,
  3;73,73,73;,
  3;74,74,74;,
  3;75,75,75;,
  3;76,76,76;,
  3;77,77,77;,
  3;78,78,78;,
  3;79,79,79;,
  3;80,80,80;,
  3;81,81,81;,
  3;82,82,82;,
  3;83,83,83;,
  3;84,84,84;,
  3;85,85,85;,
  3;86,86,86;,
  3;87,87,87;,
  3;88,88,88;,
  3;89,89,89;,
  3;90,90,90;,
  3;91,91,91;,
  3;92,92,92;,
  3;93,93,93;,
  3;94,94,94;,
  3;95,95,95;,
  3;96,96,96;,
  3;97,97,97;,
  3;98,98,98;,
  3;99,99,99;,
  3;100,100,100;,
  3;101,101,101;,
  3;102,102,102;,
  3;103,103,103;,
  3;104,104,104;,
  3;105,105,105;,
  3;106,106,106;,
  3;107,107,107;,
  3;108,108,108;,
  3;109,109,109;,
  3;110,110,110;,
  3;111,111,111;,
  3;112,112,112;,
  3;113,113,113;,
  3;114,114,114;,
  3;115,115,115;,
  3;116,116,116;,
  3;117,117,117;,
  3;118,118,118;,
  3;119,119,119;,
  3;120,120,120;,
  3;121,121,121;,
  3;122,122,122;,
  3;123,123,123;,
  3;124,124,124;,
  3;125,125,125;,
  3;126,126,126;,
  3;127,127,127;,
  3;128,128,128;,
  3;129,129,129;,
  3;130,130,130;,
  3;131,131,131;,
  3;132,132,132;,
  3;133,133,133;,
  3;134,134,134;,
  3;135,135,135;,
  3;136,136,136;,
  3;137,137,137;,
  3;138,138,138;,
  3;139,139,139;,
  3;140,140,140;,
  3;141,141,141;,
  3;142,142,142;,
  3;143,143,143;,
  3;144,144,144;,
  3;145,145,145;,
  3;146,146,146;,
  3;147,147,147;,
  3;148,148,148;,
  3;149,149,149;,
  3;150,150,150;,
  3;151,151,151;,
  3;152,152,152;,
  3;153,153,153;,
  3;154,154,154;,
  3;155,155,155;,
  3;156,156,156;,
  3;157,157,157;,
  3;158,158,158;,
  3;159,159,159;,
  3;160,160,160;,
  3;161,161,161;,
  3;162,162,162;,
  3;163,163,163;,
  3;164,164,164;,
  3;165,165,165;,
  3;166,166,166;,
  3;167,167,167;,
  3;168,168,168;,
  3;169,169,169;,
  3;170,170,170;,
  3;171,171,171;,
  3;172,172,172;,
  3;173,173,173;,
  3;174,174,174;,
  3;175,175,175;,
  3;176,176,176;,
  3;177,177,177;,
  3;178,178,178;,
  3;179,179,179;,
  3;180,180,180;,
  3;181,181,181;,
  3;182,182,182;,
  3;183,183,183;,
  3;184,184,184;,
  3;185,185,185;,
  3;186,186,186;,
  3;187,187,187;,
  3;188,188,188;,
  3;189,189,189;,
  3;190,190,190;,
  3;191,191,191;,
  3;192,192,192;,
  3;193,193,193;,
  3;194,194,194;,
  3;195,195,195;,
  3;196,196,196;,
  3;197,197,197;,
  3;198,198,198;,
  3;199,199,199;,
  3;200,200,200;,
  3;201,201,201;;
 }
}