xof 0303txt 0032
template Vector {
 <3d82ab5e-62da-11cf-ab39-0020af71e433>
 FLOAT x;
 FLOAT y;
 FLOAT z;
}

template MeshFace {
 <3d82ab5f-62da-11cf-ab39-0020af71e433>
 DWORD nFaceVertexIndices;
 array DWORD faceVertexIndices[nFaceVertexIndices];
}

template Mesh {
 <3d82ab44-62da-11cf-ab39-0020af71e433>
 DWORD nVertices;
 array Vector vertices[nVertices];
 DWORD nFaces;
 array MeshFace faces[nFaces];
 [...]
}

template ColorRGBA {
 <35ff44e0-6c7c-11cf-8f52-0040333594a3>
 FLOAT red;
 FLOAT green;
 FLOAT blue;
 FLOAT alpha;
}

template ColorRGB {
 <d3e16e81-7835-11cf-8f52-0040333594a3>
 FLOAT red;
 FLOAT green;
 FLOAT blue;
}

template Material {
 <3d82ab4d-62da-11cf-ab39-0020af71e433>
 ColorRGBA faceColor;
 FLOAT power;
 ColorRGB specularColor;
 ColorRGB emissiveColor;
 [...]
}

template MeshMaterialList {
 <f6f23f42-7686-11cf-8f52-0040333594a3>
 DWORD nMaterials;
 DWORD nFaceIndexes;
 array DWORD faceIndexes[nFaceIndexes];
 [Material <3d82ab4d-62da-11cf-ab39-0020af71e433>]
}

template TextureFilename {
 <a42790e1-7810-11cf-8f52-0040333594a3>
 STRING filename;
}

template Coords2d {
 <f6f23f44-7686-11cf-8f52-0040333594a3>
 FLOAT u;
 FLOAT v;
}

template MeshTextureCoords {
 <f6f23f40-7686-11cf-8f52-0040333594a3>
 DWORD nTextureCoords;
 array Coords2d textureCoords[nTextureCoords];
}

template MeshNormals {
 <f6f23f43-7686-11cf-8f52-0040333594a3>
 DWORD nNormals;
 array Vector normals[nNormals];
 DWORD nFaceNormals;
 array MeshFace faceNormals[nFaceNormals];
}


Mesh  {
 45;
 0.000000;3.800000;0.000000;,
 0.000000;3.800000;20.000000;,
 0.000000;0.000000;0.000000;,
 0.000000;0.000000;20.000000;,
 -5.000000;3.800000;0.000000;,
 0.000000;3.800000;0.000000;,
 -5.000000;0.000000;0.000000;,
 0.000000;0.000000;0.000000;,
 -5.000000;-2.000000;0.000000;,
 0.000000;-2.000000;0.000000;,
 -4.000000;0.000000;0.000000;,
 -4.000000;-2.000000;-2.000000;,
 0.000000;-2.000000;-2.000000;,
 1.600000;4.000000;-0.400000;,
 1.600000;3.800000;-0.400000;,
 -5.000000;3.800000;-0.400000;,
 -5.000000;4.000000;-0.400000;,
 1.600000;4.000000;19.999998;,
 1.600000;3.800000;19.999998;,
 -5.000000;3.800000;19.999998;,
 -5.000000;4.000000;19.999998;,
 -3.950000;-1.000000;-2.000000;,
 -3.950000;-2.000000;-2.000000;,
 -4.050000;-2.000000;-2.000000;,
 -4.050000;-1.000000;-2.000000;,
 -3.950000;-1.000000;-1.900000;,
 -3.950000;-2.000000;-1.900000;,
 -4.050000;-2.000000;-1.900000;,
 -4.050000;-1.000000;-1.900000;,
 -3.800000;-0.100000;-1.050000;,
 -3.800000;-1.100000;-1.050000;,
 -3.900000;-1.100000;-1.050000;,
 -3.900000;-0.100000;-1.050000;,
 -3.800000;-0.100000;-0.950000;,
 -3.800000;-1.100000;-0.950000;,
 -3.900000;-1.100000;-0.950000;,
 -3.900000;-0.100000;-0.950000;,
 -3.550918;0.990459;-0.070711;,
 -3.928701;-0.953062;-2.050608;,
 -4.026863;-0.933982;-2.050608;,
 -3.649081;1.009540;-0.070711;,
 -3.564410;0.921048;-0.000000;,
 -3.942193;-1.022474;-1.979898;,
 -4.040355;-1.003393;-1.979898;,
 -3.662573;0.940129;-0.000000;;
 56;
 3;0,1,3;,
 3;0,3,2;,
 3;4,5,7;,
 3;4,7,6;,
 3;6,7,9;,
 3;6,9,8;,
 3;10,7,12;,
 3;10,12,11;,
 3;13,14,15;,
 3;13,15,16;,
 3;16,15,19;,
 3;16,19,20;,
 3;20,19,18;,
 3;20,18,17;,
 3;17,18,14;,
 3;17,14,13;,
 3;13,16,20;,
 3;13,20,17;,
 3;14,18,19;,
 3;14,19,15;,
 3;21,22,23;,
 3;21,23,24;,
 3;24,23,27;,
 3;24,27,28;,
 3;28,27,26;,
 3;28,26,25;,
 3;25,26,22;,
 3;25,22,21;,
 3;21,24,28;,
 3;21,28,25;,
 3;22,26,27;,
 3;22,27,23;,
 3;29,30,31;,
 3;29,31,32;,
 3;32,31,35;,
 3;32,35,36;,
 3;36,35,34;,
 3;36,34,33;,
 3;33,34,30;,
 3;33,30,29;,
 3;29,32,36;,
 3;29,36,33;,
 3;30,34,35;,
 3;30,35,31;,
 3;37,38,39;,
 3;37,39,40;,
 3;40,39,43;,
 3;40,43,44;,
 3;44,43,42;,
 3;44,42,41;,
 3;41,42,38;,
 3;41,38,37;,
 3;37,40,44;,
 3;37,44,41;,
 3;38,42,43;,
 3;38,43,39;;

 MeshMaterialList  {
  6;
  56;
  0,
  0,
  1,
  1,
  1,
  1,
  1,
  1,
  2,
  2,
  2,
  2,
  2,
  2,
  2,
  2,
  2,
  2,
  2,
  2,
  3,
  3,
  3,
  3,
  3,
  3,
  3,
  3,
  3,
  3,
  3,
  3,
  4,
  4,
  4,
  4,
  4,
  4,
  4,
  4,
  4,
  4,
  4,
  4,
  5,
  5,
  5,
  5,
  5,
  5,
  5,
  5,
  5,
  5,
  5,
  5;

  Material  {
   1.000000;1.000000;1.000000;1.000000;;
   0.000000;
   0.000000;0.000000;0.000000;;
   0.000000;0.000000;0.000000;;

   TextureFilename  {
    "Sta_CC37_House1.dds";
   }
  }

  Material  {
   1.000000;1.000000;1.000000;1.000000;;
   0.000000;
   0.000000;0.000000;0.000000;;
   0.000000;0.000000;0.000000;;

   TextureFilename  {
    "Sta_CC37_House2.dds";
   }
  }

  Material  {
   0.501961;0.501961;0.501961;1.000000;;
   0.000000;
   0.000000;0.000000;0.000000;;
   0.000000;0.000000;0.000000;;
  }

  Material  {
   0.000000;0.627451;0.501961;1.000000;;
   0.000000;
   0.000000;0.000000;0.000000;;
   0.000000;0.000000;0.000000;;
  }

  Material  {
   0.000000;0.627451;0.501961;1.000000;;
   0.000000;
   0.000000;0.000000;0.000000;;
   0.000000;0.000000;0.000000;;
  }

  Material  {
   0.000000;0.627451;0.501961;1.000000;;
   0.000000;
   0.000000;0.000000;0.000000;;
   0.000000;0.000000;0.000000;;
  }
 }

 MeshTextureCoords  {
  45;
  0.000000;0.000000;,
  1.000000;0.000000;,
  0.000000;1.000000;,
  1.000000;1.000000;,
  0.000000;0.000000;,
  1.000000;0.000000;,
  0.000000;0.620000;,
  1.000000;0.620000;,
  0.000000;1.000000;,
  1.000000;1.000000;,
  0.200000;0.620000;,
  0.200000;1.000000;,
  1.000000;1.000000;,
  0.000000;0.000000;,
  0.000000;0.000000;,
  0.000000;0.000000;,
  0.000000;0.000000;,
  0.000000;0.000000;,
  0.000000;0.000000;,
  0.000000;0.000000;,
  0.000000;0.000000;,
  0.000000;0.000000;,
  0.000000;0.000000;,
  0.000000;0.000000;,
  0.000000;0.000000;,
  0.000000;0.000000;,
  0.000000;0.000000;,
  0.000000;0.000000;,
  0.000000;0.000000;,
  0.000000;0.000000;,
  0.000000;0.000000;,
  0.000000;0.000000;,
  0.000000;0.000000;,
  0.000000;0.000000;,
  0.000000;0.000000;,
  0.000000;0.000000;,
  0.000000;0.000000;,
  0.000000;0.000000;,
  0.000000;0.000000;,
  0.000000;0.000000;,
  0.000000;0.000000;,
  0.000000;0.000000;,
  0.000000;0.000000;,
  0.000000;0.000000;,
  0.000000;0.000000;;
 }

 MeshNormals  {
  56;
  1.000000;0.000000;0.000000;,
  1.000000;0.000000;0.000000;,
  0.000000;0.000000;-1.000000;,
  0.000000;0.000000;-1.000000;,
  0.000000;0.000000;-1.000000;,
  0.000000;0.000000;-1.000000;,
  0.000000;0.707107;-0.707107;,
  0.000000;0.707107;-0.707107;,
  0.000000;0.000000;-1.000000;,
  0.000000;0.000000;-1.000000;,
  -1.000000;0.000000;0.000000;,
  -1.000000;0.000000;0.000000;,
  0.000000;0.000000;1.000000;,
  0.000000;0.000000;1.000000;,
  1.000000;0.000000;0.000000;,
  1.000000;0.000000;0.000000;,
  0.000000;1.000000;0.000000;,
  0.000000;1.000000;0.000000;,
  0.000000;-1.000000;0.000000;,
  0.000000;-1.000000;0.000000;,
  0.000000;0.000000;-1.000000;,
  0.000000;0.000000;-1.000000;,
  -1.000000;0.000000;0.000000;,
  -1.000000;0.000000;0.000000;,
  0.000000;0.000000;1.000000;,
  0.000000;0.000000;1.000000;,
  1.000000;0.000000;0.000000;,
  1.000000;0.000000;0.000000;,
  0.000000;1.000000;0.000000;,
  0.000000;1.000000;0.000000;,
  0.000000;-1.000000;0.000000;,
  0.000000;-1.000000;0.000000;,
  0.000000;0.000000;-1.000000;,
  0.000000;0.000000;-1.000000;,
  -1.000000;0.000000;0.000000;,
  -1.000000;0.000000;0.000000;,
  0.000000;0.000000;1.000000;,
  0.000000;0.000000;1.000000;,
  1.000000;0.000000;0.000000;,
  1.000000;0.000000;0.000000;,
  0.000000;1.000000;0.000000;,
  0.000000;1.000000;0.000000;,
  0.000000;-1.000000;0.000000;,
  0.000000;-1.000000;0.000000;,
  0.000000;0.000000;-1.000000;,
  0.000000;0.000000;-1.000000;,
  -1.000000;0.000000;0.000000;,
  -1.000000;0.000000;0.000000;,
  0.000000;0.000000;1.000000;,
  0.000000;0.000000;1.000000;,
  1.000000;0.000000;0.000000;,
  1.000000;0.000000;0.000000;,
  0.000000;1.000000;0.000000;,
  0.000000;1.000000;0.000000;,
  0.000000;-1.000000;0.000000;,
  0.000000;-1.000000;0.000000;;
  56;
  3;0,0,0;,
  3;1,1,1;,
  3;2,2,2;,
  3;3,3,3;,
  3;4,4,4;,
  3;5,5,5;,
  3;6,6,6;,
  3;7,7,7;,
  3;8,8,8;,
  3;9,9,9;,
  3;10,10,10;,
  3;11,11,11;,
  3;12,12,12;,
  3;13,13,13;,
  3;14,14,14;,
  3;15,15,15;,
  3;16,16,16;,
  3;17,17,17;,
  3;18,18,18;,
  3;19,19,19;,
  3;20,20,20;,
  3;21,21,21;,
  3;22,22,22;,
  3;23,23,23;,
  3;24,24,24;,
  3;25,25,25;,
  3;26,26,26;,
  3;27,27,27;,
  3;28,28,28;,
  3;29,29,29;,
  3;30,30,30;,
  3;31,31,31;,
  3;32,32,32;,
  3;33,33,33;,
  3;34,34,34;,
  3;35,35,35;,
  3;36,36,36;,
  3;37,37,37;,
  3;38,38,38;,
  3;39,39,39;,
  3;40,40,40;,
  3;41,41,41;,
  3;42,42,42;,
  3;43,43,43;,
  3;44,44,44;,
  3;45,45,45;,
  3;46,46,46;,
  3;47,47,47;,
  3;48,48,48;,
  3;49,49,49;,
  3;50,50,50;,
  3;51,51,51;,
  3;52,52,52;,
  3;53,53,53;,
  3;54,54,54;,
  3;55,55,55;;
 }
}