xof 0303txt 0032
template Vector {
 <3d82ab5e-62da-11cf-ab39-0020af71e433>
 FLOAT x;
 FLOAT y;
 FLOAT z;
}

template MeshFace {
 <3d82ab5f-62da-11cf-ab39-0020af71e433>
 DWORD nFaceVertexIndices;
 array DWORD faceVertexIndices[nFaceVertexIndices];
}

template Mesh {
 <3d82ab44-62da-11cf-ab39-0020af71e433>
 DWORD nVertices;
 array Vector vertices[nVertices];
 DWORD nFaces;
 array MeshFace faces[nFaces];
 [...]
}

template ColorRGBA {
 <35ff44e0-6c7c-11cf-8f52-0040333594a3>
 FLOAT red;
 FLOAT green;
 FLOAT blue;
 FLOAT alpha;
}

template ColorRGB {
 <d3e16e81-7835-11cf-8f52-0040333594a3>
 FLOAT red;
 FLOAT green;
 FLOAT blue;
}

template Material {
 <3d82ab4d-62da-11cf-ab39-0020af71e433>
 ColorRGBA faceColor;
 FLOAT power;
 ColorRGB specularColor;
 ColorRGB emissiveColor;
 [...]
}

template MeshMaterialList {
 <f6f23f42-7686-11cf-8f52-0040333594a3>
 DWORD nMaterials;
 DWORD nFaceIndexes;
 array DWORD faceIndexes[nFaceIndexes];
 [Material <3d82ab4d-62da-11cf-ab39-0020af71e433>]
}

template TextureFilename {
 <a42790e1-7810-11cf-8f52-0040333594a3>
 STRING filename;
}

template Coords2d {
 <f6f23f44-7686-11cf-8f52-0040333594a3>
 FLOAT u;
 FLOAT v;
}

template MeshTextureCoords {
 <f6f23f40-7686-11cf-8f52-0040333594a3>
 DWORD nTextureCoords;
 array Coords2d textureCoords[nTextureCoords];
}

template MeshNormals {
 <f6f23f43-7686-11cf-8f52-0040333594a3>
 DWORD nNormals;
 array Vector normals[nNormals];
 DWORD nFaceNormals;
 array MeshFace faceNormals[nFaceNormals];
}


Mesh  {
 32;
 19.999998;0.500000;0.000000;,
 19.999998;-0.500000;0.000000;,
 0.000000;-0.500000;0.000000;,
 0.000000;0.500000;0.000000;,
 19.999998;0.500000;114.999992;,
 19.999998;-0.500000;114.999992;,
 0.000000;-0.500000;114.999992;,
 0.000000;0.500000;114.999992;,
 1.000000;3.500000;0.000000;,
 1.000000;3.500000;64.000000;,
 1.000000;0.500000;0.000000;,
 1.000000;0.500000;64.000000;,
 1.000000;8.899999;63.999996;,
 1.000000;8.899999;73.999992;,
 1.000000;0.500000;63.999996;,
 1.000000;0.500000;73.999992;,
 1.000000;7.400000;64.499992;,
 18.999998;7.400000;64.499992;,
 1.000000;0.500000;64.499992;,
 18.999998;0.500000;64.499992;,
 1.000000;8.899999;68.999992;,
 18.999998;8.899999;68.999992;,
 1.000000;7.400000;63.999996;,
 18.999998;7.400000;63.999996;,
 1.000000;6.900000;73.999992;,
 1.000000;6.900000;95.999992;,
 1.000000;0.500000;73.999992;,
 1.000000;0.500000;95.999992;,
 1.000000;5.900000;95.999992;,
 1.000000;5.900000;113.999992;,
 1.000000;0.500000;95.999992;,
 1.000000;0.500000;113.999992;;
 24;
 3;0,1,2;,
 3;0,2,3;,
 3;3,2,6;,
 3;3,6,7;,
 3;7,6,5;,
 3;7,5,4;,
 3;4,5,1;,
 3;4,1,0;,
 3;0,3,7;,
 3;0,7,4;,
 3;1,5,6;,
 3;1,6,2;,
 3;8,10,11;,
 3;8,11,9;,
 3;12,14,15;,
 3;12,15,13;,
 3;16,17,19;,
 3;16,19,18;,
 3;20,21,23;,
 3;20,23,22;,
 3;24,26,27;,
 3;24,27,25;,
 3;28,30,31;,
 3;28,31,29;;

 MeshMaterialList  {
  6;
  24;
  0,
  0,
  0,
  0,
  0,
  0,
  0,
  0,
  0,
  0,
  0,
  0,
  1,
  1,
  2,
  2,
  3,
  3,
  3,
  3,
  4,
  4,
  5,
  5;

  Material  {
   0.862745;0.862745;0.862745;1.000000;;
   0.000000;
   0.000000;0.000000;0.000000;;
   0.000000;0.000000;0.000000;;
  }

  Material  {
   1.000000;1.000000;1.000000;1.000000;;
   0.000000;
   0.000000;0.000000;0.000000;;
   0.000000;0.000000;0.000000;;

   TextureFilename  {
    "Sta_CC38_Shop0.dds";
   }
  }

  Material  {
   1.000000;1.000000;1.000000;1.000000;;
   0.000000;
   0.000000;0.000000;0.000000;;
   0.000000;0.000000;0.000000;;

   TextureFilename  {
    "Sta_CC38_Shop3.dds";
   }
  }

  Material  {
   0.250980;0.250980;0.250980;1.000000;;
   0.000000;
   0.000000;0.000000;0.000000;;
   0.000000;0.000000;0.000000;;
  }

  Material  {
   1.000000;1.000000;1.000000;1.000000;;
   0.000000;
   0.000000;0.000000;0.000000;;
   0.000000;0.000000;0.000000;;

   TextureFilename  {
    "Sta_CC38_Shop2.dds";
   }
  }

  Material  {
   1.000000;1.000000;1.000000;1.000000;;
   0.000000;
   0.000000;0.000000;0.000000;;
   0.000000;0.000000;0.000000;;

   TextureFilename  {
    "Sta_CC38_Shop1.dds";
   }
  }
 }

 MeshTextureCoords  {
  32;
  0.000000;0.000000;,
  0.000000;0.000000;,
  0.000000;0.000000;,
  0.000000;0.000000;,
  0.000000;0.000000;,
  0.000000;0.000000;,
  0.000000;0.000000;,
  0.000000;0.000000;,
  10.000000;0.000000;,
  0.000000;0.000000;,
  10.000000;1.000000;,
  0.000000;1.000000;,
  1.000000;0.000000;,
  0.000000;0.000000;,
  1.000000;1.000000;,
  0.000000;1.000000;,
  0.000000;0.000000;,
  0.000000;0.000000;,
  0.000000;0.000000;,
  0.000000;0.000000;,
  0.000000;0.000000;,
  0.000000;0.000000;,
  0.000000;0.000000;,
  0.000000;0.000000;,
  1.000000;0.000000;,
  0.000000;0.000000;,
  1.000000;1.000000;,
  0.000000;1.000000;,
  1.000000;0.000000;,
  0.000000;0.000000;,
  1.000000;1.000000;,
  0.000000;1.000000;;
 }

 MeshNormals  {
  24;
  0.000000;0.000000;-1.000000;,
  0.000000;0.000000;-1.000000;,
  -1.000000;0.000000;0.000000;,
  -1.000000;0.000000;0.000000;,
  0.000000;0.000000;1.000000;,
  0.000000;0.000000;1.000000;,
  1.000000;0.000000;0.000000;,
  1.000000;0.000000;0.000000;,
  0.000000;1.000000;0.000000;,
  0.000000;1.000000;0.000000;,
  0.000000;-1.000000;0.000000;,
  0.000000;-1.000000;0.000000;,
  -1.000000;0.000000;0.000000;,
  -1.000000;0.000000;0.000000;,
  -1.000000;0.000000;0.000000;,
  -1.000000;0.000000;0.000000;,
  0.000000;0.000000;-1.000000;,
  0.000000;0.000000;-1.000000;,
  0.000000;0.957826;-0.287348;,
  0.000000;0.957826;-0.287348;,
  -1.000000;0.000000;0.000000;,
  -1.000000;0.000000;0.000000;,
  -1.000000;0.000000;0.000000;,
  -1.000000;0.000000;0.000000;;
  24;
  3;0,0,0;,
  3;1,1,1;,
  3;2,2,2;,
  3;3,3,3;,
  3;4,4,4;,
  3;5,5,5;,
  3;6,6,6;,
  3;7,7,7;,
  3;8,8,8;,
  3;9,9,9;,
  3;10,10,10;,
  3;11,11,11;,
  3;12,12,12;,
  3;13,13,13;,
  3;14,14,14;,
  3;15,15,15;,
  3;16,16,16;,
  3;17,17,17;,
  3;18,18,18;,
  3;19,19,19;,
  3;20,20,20;,
  3;21,21,21;,
  3;22,22,22;,
  3;23,23,23;;
 }
}