xof 0303txt 0032
template Vector {
 <3d82ab5e-62da-11cf-ab39-0020af71e433>
 FLOAT x;
 FLOAT y;
 FLOAT z;
}

template MeshFace {
 <3d82ab5f-62da-11cf-ab39-0020af71e433>
 DWORD nFaceVertexIndices;
 array DWORD faceVertexIndices[nFaceVertexIndices];
}

template Mesh {
 <3d82ab44-62da-11cf-ab39-0020af71e433>
 DWORD nVertices;
 array Vector vertices[nVertices];
 DWORD nFaces;
 array MeshFace faces[nFaces];
 [...]
}

template ColorRGBA {
 <35ff44e0-6c7c-11cf-8f52-0040333594a3>
 FLOAT red;
 FLOAT green;
 FLOAT blue;
 FLOAT alpha;
}

template ColorRGB {
 <d3e16e81-7835-11cf-8f52-0040333594a3>
 FLOAT red;
 FLOAT green;
 FLOAT blue;
}

template Material {
 <3d82ab4d-62da-11cf-ab39-0020af71e433>
 ColorRGBA faceColor;
 FLOAT power;
 ColorRGB specularColor;
 ColorRGB emissiveColor;
 [...]
}

template MeshMaterialList {
 <f6f23f42-7686-11cf-8f52-0040333594a3>
 DWORD nMaterials;
 DWORD nFaceIndexes;
 array DWORD faceIndexes[nFaceIndexes];
 [Material <3d82ab4d-62da-11cf-ab39-0020af71e433>]
}

template TextureFilename {
 <a42790e1-7810-11cf-8f52-0040333594a3>
 STRING filename;
}

template Coords2d {
 <f6f23f44-7686-11cf-8f52-0040333594a3>
 FLOAT u;
 FLOAT v;
}

template MeshTextureCoords {
 <f6f23f40-7686-11cf-8f52-0040333594a3>
 DWORD nTextureCoords;
 array Coords2d textureCoords[nTextureCoords];
}

template MeshNormals {
 <f6f23f43-7686-11cf-8f52-0040333594a3>
 DWORD nNormals;
 array Vector normals[nNormals];
 DWORD nFaceNormals;
 array MeshFace faceNormals[nFaceNormals];
}


Mesh  {
 10;
 -1.000000;-0.200000;0.000000;,
 -1.000000;-0.200000;5.010000;,
 0.000000;0.000000;0.000000;,
 0.000000;0.000000;5.010000;,
 0.250000;1.000000;0.000000;,
 0.250000;1.000000;5.010000;,
 0.500000;1.200000;0.000000;,
 0.500000;1.200000;5.010000;,
 0.500000;0.000000;0.000000;,
 0.500000;1.000000;0.000000;;
 9;
 3;0,1,3;,
 3;0,3,2;,
 3;2,3,5;,
 3;2,5,4;,
 3;4,5,7;,
 3;4,7,6;,
 3;2,4,9;,
 3;2,9,8;,
 3;4,6,8;;

 MeshMaterialList  {
  1;
  9;
  0,
  0,
  0,
  0,
  0,
  0,
  0,
  0,
  0;

  Material  {
   1.000000;1.000000;1.000000;1.000000;;
   0.000000;
   0.000000;0.000000;0.000000;;
   0.000000;0.000000;0.000000;;

   TextureFilename  {
    "ishigaki.dds";
   }
  }
 }

 MeshTextureCoords  {
  10;
  0.000000;1.000000;,
  1.000000;1.000000;,
  0.000000;0.824000;,
  1.000000;0.824000;,
  0.000000;0.199000;,
  1.000000;0.199000;,
  0.000000;0.000000;,
  1.000000;0.000000;,
  1.000000;0.824000;,
  1.000000;0.199000;;
 }

 MeshNormals  {
  9;
  -0.196116;0.980581;0.000000;,
  -0.196116;0.980581;0.000000;,
  -0.970143;0.242536;0.000000;,
  -0.970143;0.242536;0.000000;,
  -0.624695;0.780869;0.000000;,
  -0.624695;0.780869;0.000000;,
  0.000000;0.000000;-1.000000;,
  0.000000;0.000000;-1.000000;,
  0.000000;0.000000;-1.000000;;
  9;
  3;0,0,0;,
  3;1,1,1;,
  3;2,2,2;,
  3;3,3,3;,
  3;4,4,4;,
  3;5,5,5;,
  3;6,6,6;,
  3;7,7,7;,
  3;8,8,8;;
 }
}