xof 0303txt 0032
template Vector {
 <3d82ab5e-62da-11cf-ab39-0020af71e433>
 FLOAT x;
 FLOAT y;
 FLOAT z;
}

template MeshFace {
 <3d82ab5f-62da-11cf-ab39-0020af71e433>
 DWORD nFaceVertexIndices;
 array DWORD faceVertexIndices[nFaceVertexIndices];
}

template Mesh {
 <3d82ab44-62da-11cf-ab39-0020af71e433>
 DWORD nVertices;
 array Vector vertices[nVertices];
 DWORD nFaces;
 array MeshFace faces[nFaces];
 [...]
}

template ColorRGBA {
 <35ff44e0-6c7c-11cf-8f52-0040333594a3>
 FLOAT red;
 FLOAT green;
 FLOAT blue;
 FLOAT alpha;
}

template ColorRGB {
 <d3e16e81-7835-11cf-8f52-0040333594a3>
 FLOAT red;
 FLOAT green;
 FLOAT blue;
}

template Material {
 <3d82ab4d-62da-11cf-ab39-0020af71e433>
 ColorRGBA faceColor;
 FLOAT power;
 ColorRGB specularColor;
 ColorRGB emissiveColor;
 [...]
}

template MeshMaterialList {
 <f6f23f42-7686-11cf-8f52-0040333594a3>
 DWORD nMaterials;
 DWORD nFaceIndexes;
 array DWORD faceIndexes[nFaceIndexes];
 [Material <3d82ab4d-62da-11cf-ab39-0020af71e433>]
}

template TextureFilename {
 <a42790e1-7810-11cf-8f52-0040333594a3>
 STRING filename;
}

template Coords2d {
 <f6f23f44-7686-11cf-8f52-0040333594a3>
 FLOAT u;
 FLOAT v;
}

template MeshTextureCoords {
 <f6f23f40-7686-11cf-8f52-0040333594a3>
 DWORD nTextureCoords;
 array Coords2d textureCoords[nTextureCoords];
}

template MeshNormals {
 <f6f23f43-7686-11cf-8f52-0040333594a3>
 DWORD nNormals;
 array Vector normals[nNormals];
 DWORD nFaceNormals;
 array MeshFace faceNormals[nFaceNormals];
}


Mesh  {
 102;
 -1.900000;0.400000;0.500000;,
 -2.100000;0.700000;0.500000;,
 -2.400000;0.800000;0.500000;,
 -2.700000;0.700000;0.500000;,
 -2.900000;0.400000;0.500000;,
 -1.900000;0.400000;23.500000;,
 -2.100000;0.700000;23.500000;,
 -2.400000;0.800000;23.500000;,
 -2.600000;0.700000;23.500000;,
 -2.700000;0.400000;23.500000;,
 -3.100000;1.000000;0.500000;,
 -3.300000;1.300000;0.500000;,
 -3.600000;1.400000;0.500000;,
 -3.900000;1.300000;0.500000;,
 -4.100000;1.000000;0.500000;,
 -3.100000;1.000000;23.500000;,
 -3.300000;1.300000;23.500000;,
 -3.600000;1.400000;23.500000;,
 -3.800000;1.300000;23.500000;,
 -3.900000;1.000000;23.500000;,
 -4.300000;1.600000;0.500000;,
 -4.500000;1.900000;0.500000;,
 -4.800000;2.000000;0.500000;,
 -5.100000;1.900000;0.500000;,
 -5.300000;1.800000;0.500000;,
 -4.300000;1.800000;23.500000;,
 -4.500000;1.900000;23.500000;,
 -4.800000;2.000000;23.500000;,
 -5.000000;1.900000;23.500000;,
 -5.100000;1.600000;23.500000;,
 -5.500000;2.200000;0.500000;,
 -5.700000;2.500000;0.500000;,
 -6.000000;2.600000;0.500000;,
 -6.300000;2.500000;0.500000;,
 -6.500000;2.200000;0.500000;,
 -5.500000;2.200000;23.500000;,
 -5.700000;2.500000;23.500000;,
 -6.000000;2.600000;23.500000;,
 -6.200000;2.500000;23.500000;,
 -6.300000;2.200000;23.500000;,
 -6.700000;2.800000;0.500000;,
 -6.900000;3.100000;0.500000;,
 -7.200000;3.200000;0.500000;,
 -7.500000;3.100000;0.500000;,
 -7.700000;2.800000;0.500000;,
 -6.700000;2.800000;23.500000;,
 -6.900000;3.100000;23.500000;,
 -7.200000;3.200000;23.500000;,
 -7.400000;3.100000;23.500000;,
 -7.500000;2.800000;23.500000;,
 -1.900000;0.000000;0.000000;,
 -7.900000;3.000000;0.000000;,
 -7.900000;3.000000;25.100000;,
 -1.900000;0.000000;25.100000;,
 -2.700000;9.999999;23.999998;,
 -2.700000;0.000000;23.999998;,
 -2.707612;9.999999;24.038267;,
 -2.707612;0.000000;24.038267;,
 -2.729289;9.999999;24.070709;,
 -2.729289;0.000000;24.070709;,
 -2.761731;9.999999;24.092386;,
 -2.761731;0.000000;24.092386;,
 -2.800000;9.999999;24.099998;,
 -2.800000;0.000000;24.099998;,
 -2.838268;9.999999;24.092386;,
 -2.838268;0.000000;24.092386;,
 -2.870710;9.999999;24.070709;,
 -2.870710;0.000000;24.070709;,
 -2.892388;9.999999;24.038267;,
 -2.892388;0.000000;24.038267;,
 -2.900000;9.999999;23.999998;,
 -2.900000;0.000000;23.999998;,
 -2.892388;9.999999;23.961729;,
 -2.892388;0.000000;23.961729;,
 -2.870710;9.999999;23.929287;,
 -2.870710;0.000000;23.929287;,
 -2.838268;9.999999;23.907610;,
 -2.838268;0.000000;23.907610;,
 -2.800000;9.999999;23.899998;,
 -2.800000;0.000000;23.899998;,
 -2.761731;9.999999;23.907610;,
 -2.761731;0.000000;23.907610;,
 -2.729289;9.999999;23.929287;,
 -2.729289;0.000000;23.929287;,
 -2.707612;9.999999;23.961729;,
 -2.707612;0.000000;23.961729;,
 -2.800000;9.400000;23.850000;,
 -2.500000;9.000000;23.850000;,
 -3.100000;9.000000;23.850000;,
 -2.800000;8.900000;23.850000;,
 -2.800000;9.400000;23.850000;,
 -2.500000;9.800000;23.850000;,
 -3.100000;9.800000;23.850000;,
 -2.800000;9.900000;23.850000;,
 -2.800000;9.400000;23.850000;,
 -2.400000;9.100000;23.850000;,
 -2.400000;9.700000;23.850000;,
 -2.300000;9.400000;23.850000;,
 -2.800000;9.400000;23.850000;,
 -3.200000;9.100000;23.850000;,
 -3.200000;9.700000;23.850000;,
 -3.300000;9.400000;23.850000;;
 148;
 3;0,1,6;,
 3;0,6,5;,
 3;1,2,7;,
 3;1,7,6;,
 3;2,3,8;,
 3;2,8,7;,
 3;3,4,9;,
 3;3,9,8;,
 3;4,3,2;,
 3;4,2,1;,
 3;4,1,0;,
 3;5,6,7;,
 3;5,7,8;,
 3;5,8,9;,
 3;10,11,16;,
 3;10,16,15;,
 3;11,12,17;,
 3;11,17,16;,
 3;12,13,18;,
 3;12,18,17;,
 3;13,14,19;,
 3;13,19,18;,
 3;14,13,12;,
 3;14,12,11;,
 3;14,11,10;,
 3;15,16,17;,
 3;15,17,18;,
 3;15,18,19;,
 3;20,21,26;,
 3;20,26,25;,
 3;21,22,27;,
 3;21,27,26;,
 3;22,23,28;,
 3;22,28,27;,
 3;23,24,29;,
 3;23,29,28;,
 3;24,23,22;,
 3;24,22,21;,
 3;24,21,20;,
 3;25,26,27;,
 3;25,27,28;,
 3;25,28,29;,
 3;30,31,36;,
 3;30,36,35;,
 3;31,32,37;,
 3;31,37,36;,
 3;32,33,38;,
 3;32,38,37;,
 3;33,34,39;,
 3;33,39,38;,
 3;34,33,32;,
 3;34,32,31;,
 3;34,31,30;,
 3;35,36,37;,
 3;35,37,38;,
 3;35,38,39;,
 3;40,41,46;,
 3;40,46,45;,
 3;41,42,47;,
 3;41,47,46;,
 3;42,43,48;,
 3;42,48,47;,
 3;43,44,49;,
 3;43,49,48;,
 3;44,43,42;,
 3;44,42,41;,
 3;44,41,40;,
 3;45,46,47;,
 3;45,47,48;,
 3;45,48,49;,
 3;50,51,52;,
 3;50,52,53;,
 3;55,54,56;,
 3;55,56,57;,
 3;57,56,58;,
 3;57,58,59;,
 3;59,58,60;,
 3;59,60,61;,
 3;61,60,62;,
 3;61,62,63;,
 3;63,62,64;,
 3;63,64,65;,
 3;65,64,66;,
 3;65,66,67;,
 3;67,66,68;,
 3;67,68,69;,
 3;69,68,70;,
 3;69,70,71;,
 3;71,70,72;,
 3;71,72,73;,
 3;73,72,74;,
 3;73,74,75;,
 3;75,74,76;,
 3;75,76,77;,
 3;77,76,78;,
 3;77,78,79;,
 3;79,78,80;,
 3;79,80,81;,
 3;81,80,82;,
 3;81,82,83;,
 3;83,82,84;,
 3;83,84,85;,
 3;85,84,54;,
 3;85,54,55;,
 3;84,82,80;,
 3;84,80,78;,
 3;84,78,76;,
 3;84,76,74;,
 3;84,74,72;,
 3;84,72,70;,
 3;84,70,68;,
 3;84,68,66;,
 3;84,66,64;,
 3;84,64,62;,
 3;84,62,60;,
 3;84,60,58;,
 3;84,58,56;,
 3;84,56,54;,
 3;55,57,59;,
 3;55,59,61;,
 3;55,61,63;,
 3;55,63,65;,
 3;55,65,67;,
 3;55,67,69;,
 3;55,69,71;,
 3;55,71,73;,
 3;55,73,75;,
 3;55,75,77;,
 3;55,77,79;,
 3;55,79,81;,
 3;55,81,83;,
 3;55,83,85;,
 3;86,87,89;,
 3;86,89,88;,
 3;88,89,87;,
 3;88,87,86;,
 3;90,92,93;,
 3;90,93,91;,
 3;91,93,92;,
 3;91,92,90;,
 3;94,96,97;,
 3;94,97,95;,
 3;95,97,96;,
 3;95,96,94;,
 3;98,100,101;,
 3;98,101,99;,
 3;99,101,100;,
 3;99,100,98;;

 MeshMaterialList  {
  4;
  148;
  0,
  0,
  0,
  0,
  0,
  0,
  0,
  0,
  0,
  0,
  0,
  0,
  0,
  0,
  0,
  0,
  0,
  0,
  0,
  0,
  0,
  0,
  0,
  0,
  0,
  0,
  0,
  0,
  0,
  0,
  0,
  0,
  0,
  0,
  0,
  0,
  0,
  0,
  0,
  0,
  0,
  0,
  0,
  0,
  0,
  0,
  0,
  0,
  0,
  0,
  0,
  0,
  0,
  0,
  0,
  0,
  0,
  0,
  0,
  0,
  0,
  0,
  0,
  0,
  0,
  0,
  0,
  0,
  0,
  0,
  1,
  1,
  2,
  2,
  2,
  2,
  2,
  2,
  2,
  2,
  2,
  2,
  2,
  2,
  2,
  2,
  2,
  2,
  2,
  2,
  2,
  2,
  2,
  2,
  2,
  2,
  2,
  2,
  2,
  2,
  2,
  2,
  2,
  2,
  2,
  2,
  2,
  2,
  2,
  2,
  2,
  2,
  2,
  2,
  2,
  2,
  2,
  2,
  2,
  2,
  2,
  2,
  2,
  2,
  2,
  2,
  2,
  2,
  2,
  2,
  2,
  2,
  3,
  3,
  3,
  3,
  3,
  3,
  3,
  3,
  3,
  3,
  3,
  3,
  3,
  3,
  3,
  3;

  Material  {
   1.000000;1.000000;1.000000;1.000000;;
   0.000000;
   0.000000;0.000000;0.000000;;
   0.000000;0.000000;0.000000;;

   TextureFilename  {
    "Tea.dds";
   }
  }

  Material  {
   1.000000;1.000000;1.000000;1.000000;;
   0.000000;
   0.000000;0.000000;0.000000;;
   0.000000;0.000000;0.000000;;

   TextureFilename  {
    "Gr.dds";
   }
  }

  Material  {
   0.501961;0.501961;0.501961;1.000000;;
   0.000000;
   0.000000;0.000000;0.000000;;
   0.000000;0.000000;0.000000;;
  }

  Material  {
   0.501961;0.501961;0.501961;1.000000;;
   0.000000;
   0.000000;0.000000;0.000000;;
   0.000000;0.000000;0.000000;;
  }
 }

 MeshTextureCoords  {
  102;
  0.000000;1.000000;,
  0.000000;0.000000;,
  0.000000;1.000000;,
  0.000000;0.000000;,
  0.000000;1.000000;,
  25.000000;1.000000;,
  25.000000;0.000000;,
  25.000000;1.000000;,
  25.000000;0.000000;,
  25.000000;1.000000;,
  0.000000;1.000000;,
  0.000000;0.000000;,
  0.000000;1.000000;,
  0.000000;0.000000;,
  0.000000;1.000000;,
  25.000000;1.000000;,
  25.000000;0.000000;,
  25.000000;1.000000;,
  25.000000;0.000000;,
  25.000000;1.000000;,
  0.000000;1.000000;,
  0.000000;0.000000;,
  0.000000;1.000000;,
  0.000000;0.000000;,
  0.000000;1.000000;,
  25.000000;1.000000;,
  25.000000;0.000000;,
  25.000000;1.000000;,
  25.000000;0.000000;,
  25.000000;1.000000;,
  0.000000;1.000000;,
  0.000000;0.000000;,
  0.000000;1.000000;,
  0.000000;0.000000;,
  0.000000;1.000000;,
  25.000000;1.000000;,
  25.000000;0.000000;,
  25.000000;1.000000;,
  25.000000;0.000000;,
  25.000000;1.000000;,
  0.000000;1.000000;,
  0.000000;0.000000;,
  0.000000;1.000000;,
  0.000000;0.000000;,
  0.000000;1.000000;,
  25.000000;1.000000;,
  25.000000;0.000000;,
  25.000000;1.000000;,
  25.000000;0.000000;,
  25.000000;1.000000;,
  0.000000;0.000000;,
  10.000000;0.000000;,
  10.000000;25.000000;,
  0.000000;25.000000;,
  0.000000;0.000000;,
  0.000000;0.000000;,
  0.000000;0.000000;,
  0.000000;0.000000;,
  0.000000;0.000000;,
  0.000000;0.000000;,
  0.000000;0.000000;,
  0.000000;0.000000;,
  0.000000;0.000000;,
  0.000000;0.000000;,
  0.000000;0.000000;,
  0.000000;0.000000;,
  0.000000;0.000000;,
  0.000000;0.000000;,
  0.000000;0.000000;,
  0.000000;0.000000;,
  0.000000;0.000000;,
  0.000000;0.000000;,
  0.000000;0.000000;,
  0.000000;0.000000;,
  0.000000;0.000000;,
  0.000000;0.000000;,
  0.000000;0.000000;,
  0.000000;0.000000;,
  0.000000;0.000000;,
  0.000000;0.000000;,
  0.000000;0.000000;,
  0.000000;0.000000;,
  0.000000;0.000000;,
  0.000000;0.000000;,
  0.000000;0.000000;,
  0.000000;0.000000;,
  0.000000;0.000000;,
  0.000000;0.000000;,
  0.000000;0.000000;,
  0.000000;0.000000;,
  0.000000;0.000000;,
  0.000000;0.000000;,
  0.000000;0.000000;,
  0.000000;0.000000;,
  0.000000;0.000000;,
  0.000000;0.000000;,
  0.000000;0.000000;,
  0.000000;0.000000;,
  0.000000;0.000000;,
  0.000000;0.000000;,
  0.000000;0.000000;,
  0.000000;0.000000;;
 }

 MeshNormals  {
  120;
  0.832050;0.554700;0.000000;,
  0.832050;0.554700;0.000000;,
  0.316228;0.948683;0.000000;,
  0.316228;0.948683;0.000000;,
  -0.316228;0.948682;0.001375;,
  -0.447214;0.894427;0.000000;,
  -0.832028;0.554686;0.007235;,
  -0.948675;0.316225;0.004125;,
  0.000000;0.000000;-1.000000;,
  0.000000;0.000000;-1.000000;,
  0.000000;0.000000;-1.000000;,
  0.000000;0.000000;1.000000;,
  0.000000;0.000000;1.000000;,
  0.000000;0.000000;1.000000;,
  0.832050;0.554700;0.000000;,
  0.832050;0.554700;0.000000;,
  0.316228;0.948683;0.000000;,
  0.316228;0.948683;0.000000;,
  -0.316227;0.948682;0.001375;,
  -0.447214;0.894427;0.000000;,
  -0.832029;0.554685;0.007235;,
  -0.948675;0.316225;0.004125;,
  0.000000;0.000000;-1.000000;,
  0.000000;0.000000;-1.000000;,
  0.000000;0.000000;-1.000000;,
  0.000000;0.000000;1.000000;,
  0.000000;0.000000;1.000000;,
  0.000000;0.000000;1.000000;,
  0.832051;0.554700;0.000000;,
  0.447201;0.894400;-0.007777;,
  0.316228;0.948683;0.000000;,
  0.316228;0.948683;0.000000;,
  -0.316228;0.948682;0.001375;,
  -0.447214;0.894427;0.000000;,
  -0.447183;0.894367;0.011666;,
  -0.948675;0.316225;0.004125;,
  0.000000;0.000000;-1.000000;,
  0.000000;0.000000;-1.000000;,
  0.000000;0.000000;-1.000000;,
  0.000000;0.000000;1.000000;,
  0.000000;0.000000;1.000000;,
  0.000000;0.000000;1.000000;,
  0.832051;0.554700;0.000000;,
  0.832051;0.554700;0.000000;,
  0.316227;0.948684;0.000000;,
  0.316227;0.948684;0.000000;,
  -0.316227;0.948683;0.001375;,
  -0.447214;0.894427;0.000000;,
  -0.832029;0.554685;0.007235;,
  -0.948675;0.316226;0.004125;,
  0.000000;0.000000;-1.000000;,
  0.000000;0.000000;-1.000000;,
  0.000000;0.000000;-1.000000;,
  0.000000;0.000000;1.000000;,
  0.000000;0.000000;1.000000;,
  0.000000;0.000000;1.000000;,
  0.832050;0.554701;0.000000;,
  0.832050;0.554701;0.000000;,
  0.316228;0.948683;0.000000;,
  0.316228;0.948683;0.000000;,
  -0.316228;0.948682;0.001375;,
  -0.447214;0.894427;0.000000;,
  -0.832029;0.554685;0.007235;,
  -0.948675;0.316225;0.004125;,
  0.000000;0.000000;-1.000000;,
  0.000000;0.000000;-1.000000;,
  0.000000;0.000000;-1.000000;,
  0.000000;0.000000;1.000000;,
  0.000000;0.000000;1.000000;,
  0.000000;0.000000;1.000000;,
  0.447214;0.894427;0.000000;,
  0.447214;0.894427;0.000000;,
  0.995185;0.000000;-0.098017;,
  1.000000;0.000000;0.000000;,
  0.923880;0.000000;0.382683;,
  0.881921;0.000000;0.471397;,
  0.707107;0.000000;0.707107;,
  0.634393;0.000000;0.773010;,
  0.382683;0.000000;0.923880;,
  0.290285;0.000000;0.956940;,
  0.000000;0.000000;1.000000;,
  -0.098017;0.000000;0.995185;,
  -0.382683;0.000000;0.923880;,
  -0.471397;0.000000;0.881921;,
  -0.707107;0.000000;0.707107;,
  -0.773010;0.000000;0.634393;,
  -0.923880;0.000000;0.382683;,
  -0.956940;0.000000;0.290285;,
  -1.000000;0.000000;0.000000;,
  -0.995185;0.000000;-0.098017;,
  -0.923880;0.000000;-0.382683;,
  -0.881921;0.000000;-0.471397;,
  -0.707107;0.000000;-0.707107;,
  -0.634393;0.000000;-0.773010;,
  -0.382683;0.000000;-0.923880;,
  -0.290285;0.000000;-0.956940;,
  -0.000000;0.000000;-1.000000;,
  0.098017;0.000000;-0.995185;,
  0.382683;0.000000;-0.923880;,
  0.471397;0.000000;-0.881921;,
  0.707107;0.000000;-0.707107;,
  0.773010;0.000000;-0.634393;,
  0.923880;0.000000;-0.382683;,
  0.956940;0.000000;-0.290285;,
  0.000000;0.000000;-1.000000;,
  0.000000;0.000000;-1.000000;,
  0.000000;0.000000;1.000000;,
  0.000000;0.000000;1.000000;,
  0.000000;0.000000;-1.000000;,
  0.000000;0.000000;-1.000000;,
  0.000000;0.000000;1.000000;,
  0.000000;0.000000;1.000000;,
  0.000000;0.000000;-1.000000;,
  0.000000;0.000000;-1.000000;,
  0.000000;0.000000;1.000000;,
  0.000000;0.000000;1.000000;,
  0.000000;0.000000;1.000000;,
  0.000000;0.000000;1.000000;,
  0.000000;0.000000;-1.000000;,
  0.000000;0.000000;-1.000000;;
  148;
  3;0,0,0;,
  3;1,1,1;,
  3;2,2,2;,
  3;3,3,3;,
  3;4,4,4;,
  3;5,5,5;,
  3;6,6,6;,
  3;7,7,7;,
  3;8,8,8;,
  3;9,9,9;,
  3;10,10,10;,
  3;11,11,11;,
  3;12,12,12;,
  3;13,13,13;,
  3;14,14,14;,
  3;15,15,15;,
  3;16,16,16;,
  3;17,17,17;,
  3;18,18,18;,
  3;19,19,19;,
  3;20,20,20;,
  3;21,21,21;,
  3;22,22,22;,
  3;23,23,23;,
  3;24,24,24;,
  3;25,25,25;,
  3;26,26,26;,
  3;27,27,27;,
  3;28,28,28;,
  3;29,29,29;,
  3;30,30,30;,
  3;31,31,31;,
  3;32,32,32;,
  3;33,33,33;,
  3;34,34,34;,
  3;35,35,35;,
  3;36,36,36;,
  3;37,37,37;,
  3;38,38,38;,
  3;39,39,39;,
  3;40,40,40;,
  3;41,41,41;,
  3;42,42,42;,
  3;43,43,43;,
  3;44,44,44;,
  3;45,45,45;,
  3;46,46,46;,
  3;47,47,47;,
  3;48,48,48;,
  3;49,49,49;,
  3;50,50,50;,
  3;51,51,51;,
  3;52,52,52;,
  3;53,53,53;,
  3;54,54,54;,
  3;55,55,55;,
  3;56,56,56;,
  3;57,57,57;,
  3;58,58,58;,
  3;59,59,59;,
  3;60,60,60;,
  3;61,61,61;,
  3;62,62,62;,
  3;63,63,63;,
  3;64,64,64;,
  3;65,65,65;,
  3;66,66,66;,
  3;67,67,67;,
  3;68,68,68;,
  3;69,69,69;,
  3;70,70,70;,
  3;71,71,71;,
  3;73,72,74;,
  3;73,74,75;,
  3;75,74,76;,
  3;75,76,77;,
  3;77,76,78;,
  3;77,78,79;,
  3;79,78,80;,
  3;79,80,81;,
  3;81,80,82;,
  3;81,82,83;,
  3;83,82,84;,
  3;83,84,85;,
  3;85,84,86;,
  3;85,86,87;,
  3;87,86,88;,
  3;87,88,89;,
  3;89,88,90;,
  3;89,90,91;,
  3;91,90,92;,
  3;91,92,93;,
  3;93,92,94;,
  3;93,94,95;,
  3;95,94,96;,
  3;95,96,97;,
  3;97,96,98;,
  3;97,98,99;,
  3;99,98,100;,
  3;99,100,101;,
  3;101,100,102;,
  3;101,102,103;,
  3;103,102,72;,
  3;103,72,73;,
  3;102,100,98;,
  3;102,98,96;,
  3;102,96,94;,
  3;102,94,92;,
  3;102,92,90;,
  3;102,90,88;,
  3;102,88,86;,
  3;102,86,84;,
  3;102,84,82;,
  3;102,82,80;,
  3;102,80,78;,
  3;102,78,76;,
  3;102,76,74;,
  3;102,74,72;,
  3;73,75,77;,
  3;73,77,79;,
  3;73,79,81;,
  3;73,81,83;,
  3;73,83,85;,
  3;73,85,87;,
  3;73,87,89;,
  3;73,89,91;,
  3;73,91,93;,
  3;73,93,95;,
  3;73,95,97;,
  3;73,97,99;,
  3;73,99,101;,
  3;73,101,103;,
  3;104,104,104;,
  3;105,105,105;,
  3;106,106,106;,
  3;107,107,107;,
  3;108,108,108;,
  3;109,109,109;,
  3;110,110,110;,
  3;111,111,111;,
  3;112,112,112;,
  3;113,113,113;,
  3;114,114,114;,
  3;115,115,115;,
  3;116,116,116;,
  3;117,117,117;,
  3;118,118,118;,
  3;119,119,119;;
 }
}