xof 0303txt 0032
template Vector {
 <3d82ab5e-62da-11cf-ab39-0020af71e433>
 FLOAT x;
 FLOAT y;
 FLOAT z;
}

template MeshFace {
 <3d82ab5f-62da-11cf-ab39-0020af71e433>
 DWORD nFaceVertexIndices;
 array DWORD faceVertexIndices[nFaceVertexIndices];
}

template Mesh {
 <3d82ab44-62da-11cf-ab39-0020af71e433>
 DWORD nVertices;
 array Vector vertices[nVertices];
 DWORD nFaces;
 array MeshFace faces[nFaces];
 [...]
}

template ColorRGBA {
 <35ff44e0-6c7c-11cf-8f52-0040333594a3>
 FLOAT red;
 FLOAT green;
 FLOAT blue;
 FLOAT alpha;
}

template ColorRGB {
 <d3e16e81-7835-11cf-8f52-0040333594a3>
 FLOAT red;
 FLOAT green;
 FLOAT blue;
}

template Material {
 <3d82ab4d-62da-11cf-ab39-0020af71e433>
 ColorRGBA faceColor;
 FLOAT power;
 ColorRGB specularColor;
 ColorRGB emissiveColor;
 [...]
}

template MeshMaterialList {
 <f6f23f42-7686-11cf-8f52-0040333594a3>
 DWORD nMaterials;
 DWORD nFaceIndexes;
 array DWORD faceIndexes[nFaceIndexes];
 [Material <3d82ab4d-62da-11cf-ab39-0020af71e433>]
}

template TextureFilename {
 <a42790e1-7810-11cf-8f52-0040333594a3>
 STRING filename;
}

template Coords2d {
 <f6f23f44-7686-11cf-8f52-0040333594a3>
 FLOAT u;
 FLOAT v;
}

template MeshTextureCoords {
 <f6f23f40-7686-11cf-8f52-0040333594a3>
 DWORD nTextureCoords;
 array Coords2d textureCoords[nTextureCoords];
}

template MeshNormals {
 <f6f23f43-7686-11cf-8f52-0040333594a3>
 DWORD nNormals;
 array Vector normals[nNormals];
 DWORD nFaceNormals;
 array MeshFace faceNormals[nFaceNormals];
}


Mesh  {
 54;
 -1.900000;0.400000;0.500000;,
 -2.100000;0.700000;0.500000;,
 -2.400000;0.800000;0.500000;,
 -2.700000;0.700000;0.500000;,
 -2.900000;0.400000;0.500000;,
 -1.900000;0.400000;23.500000;,
 -2.100000;0.700000;23.500000;,
 -2.400000;0.800000;23.500000;,
 -2.600000;0.700000;23.500000;,
 -2.700000;0.400000;23.500000;,
 -3.100000;1.000000;0.500000;,
 -3.300000;1.300000;0.500000;,
 -3.600000;1.400000;0.500000;,
 -3.900000;1.300000;0.500000;,
 -4.100000;1.000000;0.500000;,
 -3.100000;1.000000;23.500000;,
 -3.300000;1.300000;23.500000;,
 -3.600000;1.400000;23.500000;,
 -3.800000;1.300000;23.500000;,
 -3.900000;1.000000;23.500000;,
 -4.300000;1.600000;0.500000;,
 -4.500000;1.900000;0.500000;,
 -4.800000;2.000000;0.500000;,
 -5.100000;1.900000;0.500000;,
 -5.300000;1.800000;0.500000;,
 -4.300000;1.800000;23.500000;,
 -4.500000;1.900000;23.500000;,
 -4.800000;2.000000;23.500000;,
 -5.000000;1.900000;23.500000;,
 -5.100000;1.600000;23.500000;,
 -5.500000;2.200000;0.500000;,
 -5.700000;2.500000;0.500000;,
 -6.000000;2.600000;0.500000;,
 -6.300000;2.500000;0.500000;,
 -6.500000;2.200000;0.500000;,
 -5.500000;2.200000;23.500000;,
 -5.700000;2.500000;23.500000;,
 -6.000000;2.600000;23.500000;,
 -6.200000;2.500000;23.500000;,
 -6.300000;2.200000;23.500000;,
 -6.700000;2.800000;0.500000;,
 -6.900000;3.100000;0.500000;,
 -7.200000;3.200000;0.500000;,
 -7.500000;3.100000;0.500000;,
 -7.700000;2.800000;0.500000;,
 -6.700000;2.800000;23.500000;,
 -6.900000;3.100000;23.500000;,
 -7.200000;3.200000;23.500000;,
 -7.400000;3.100000;23.500000;,
 -7.500000;2.800000;23.500000;,
 -1.900000;0.000000;0.000000;,
 -7.900000;3.000000;0.000000;,
 -7.900000;3.000000;25.100000;,
 -1.900000;0.000000;25.100000;;
 72;
 3;0,1,6;,
 3;0,6,5;,
 3;1,2,7;,
 3;1,7,6;,
 3;2,3,8;,
 3;2,8,7;,
 3;3,4,9;,
 3;3,9,8;,
 3;4,3,2;,
 3;4,2,1;,
 3;4,1,0;,
 3;5,6,7;,
 3;5,7,8;,
 3;5,8,9;,
 3;10,11,16;,
 3;10,16,15;,
 3;11,12,17;,
 3;11,17,16;,
 3;12,13,18;,
 3;12,18,17;,
 3;13,14,19;,
 3;13,19,18;,
 3;14,13,12;,
 3;14,12,11;,
 3;14,11,10;,
 3;15,16,17;,
 3;15,17,18;,
 3;15,18,19;,
 3;20,21,26;,
 3;20,26,25;,
 3;21,22,27;,
 3;21,27,26;,
 3;22,23,28;,
 3;22,28,27;,
 3;23,24,29;,
 3;23,29,28;,
 3;24,23,22;,
 3;24,22,21;,
 3;24,21,20;,
 3;25,26,27;,
 3;25,27,28;,
 3;25,28,29;,
 3;30,31,36;,
 3;30,36,35;,
 3;31,32,37;,
 3;31,37,36;,
 3;32,33,38;,
 3;32,38,37;,
 3;33,34,39;,
 3;33,39,38;,
 3;34,33,32;,
 3;34,32,31;,
 3;34,31,30;,
 3;35,36,37;,
 3;35,37,38;,
 3;35,38,39;,
 3;40,41,46;,
 3;40,46,45;,
 3;41,42,47;,
 3;41,47,46;,
 3;42,43,48;,
 3;42,48,47;,
 3;43,44,49;,
 3;43,49,48;,
 3;44,43,42;,
 3;44,42,41;,
 3;44,41,40;,
 3;45,46,47;,
 3;45,47,48;,
 3;45,48,49;,
 3;50,51,52;,
 3;50,52,53;;

 MeshMaterialList  {
  2;
  72;
  0,
  0,
  0,
  0,
  0,
  0,
  0,
  0,
  0,
  0,
  0,
  0,
  0,
  0,
  0,
  0,
  0,
  0,
  0,
  0,
  0,
  0,
  0,
  0,
  0,
  0,
  0,
  0,
  0,
  0,
  0,
  0,
  0,
  0,
  0,
  0,
  0,
  0,
  0,
  0,
  0,
  0,
  0,
  0,
  0,
  0,
  0,
  0,
  0,
  0,
  0,
  0,
  0,
  0,
  0,
  0,
  0,
  0,
  0,
  0,
  0,
  0,
  0,
  0,
  0,
  0,
  0,
  0,
  0,
  0,
  1,
  1;

  Material  {
   1.000000;1.000000;1.000000;1.000000;;
   0.000000;
   0.000000;0.000000;0.000000;;
   0.000000;0.000000;0.000000;;

   TextureFilename  {
    "Tea.dds";
   }
  }

  Material  {
   1.000000;1.000000;1.000000;1.000000;;
   0.000000;
   0.000000;0.000000;0.000000;;
   0.000000;0.000000;0.000000;;

   TextureFilename  {
    "Gr.dds";
   }
  }
 }

 MeshTextureCoords  {
  54;
  0.000000;1.000000;,
  0.000000;0.000000;,
  0.000000;1.000000;,
  0.000000;0.000000;,
  0.000000;1.000000;,
  25.000000;1.000000;,
  25.000000;0.000000;,
  25.000000;1.000000;,
  25.000000;0.000000;,
  25.000000;1.000000;,
  0.000000;1.000000;,
  0.000000;0.000000;,
  0.000000;1.000000;,
  0.000000;0.000000;,
  0.000000;1.000000;,
  25.000000;1.000000;,
  25.000000;0.000000;,
  25.000000;1.000000;,
  25.000000;0.000000;,
  25.000000;1.000000;,
  0.000000;1.000000;,
  0.000000;0.000000;,
  0.000000;1.000000;,
  0.000000;0.000000;,
  0.000000;1.000000;,
  25.000000;1.000000;,
  25.000000;0.000000;,
  25.000000;1.000000;,
  25.000000;0.000000;,
  25.000000;1.000000;,
  0.000000;1.000000;,
  0.000000;0.000000;,
  0.000000;1.000000;,
  0.000000;0.000000;,
  0.000000;1.000000;,
  25.000000;1.000000;,
  25.000000;0.000000;,
  25.000000;1.000000;,
  25.000000;0.000000;,
  25.000000;1.000000;,
  0.000000;1.000000;,
  0.000000;0.000000;,
  0.000000;1.000000;,
  0.000000;0.000000;,
  0.000000;1.000000;,
  25.000000;1.000000;,
  25.000000;0.000000;,
  25.000000;1.000000;,
  25.000000;0.000000;,
  25.000000;1.000000;,
  0.000000;0.000000;,
  10.000000;0.000000;,
  10.000000;25.000000;,
  0.000000;25.000000;;
 }

 MeshNormals  {
  72;
  0.832050;0.554700;0.000000;,
  0.832050;0.554700;0.000000;,
  0.316228;0.948683;0.000000;,
  0.316228;0.948683;0.000000;,
  -0.316228;0.948682;0.001375;,
  -0.447214;0.894427;0.000000;,
  -0.832028;0.554686;0.007235;,
  -0.948675;0.316225;0.004125;,
  0.000000;0.000000;-1.000000;,
  0.000000;0.000000;-1.000000;,
  0.000000;0.000000;-1.000000;,
  0.000000;0.000000;1.000000;,
  0.000000;0.000000;1.000000;,
  0.000000;0.000000;1.000000;,
  0.832050;0.554700;0.000000;,
  0.832050;0.554700;0.000000;,
  0.316228;0.948683;0.000000;,
  0.316228;0.948683;0.000000;,
  -0.316227;0.948682;0.001375;,
  -0.447214;0.894427;0.000000;,
  -0.832029;0.554685;0.007235;,
  -0.948675;0.316225;0.004125;,
  0.000000;0.000000;-1.000000;,
  0.000000;0.000000;-1.000000;,
  0.000000;0.000000;-1.000000;,
  0.000000;0.000000;1.000000;,
  0.000000;0.000000;1.000000;,
  0.000000;0.000000;1.000000;,
  0.832051;0.554700;0.000000;,
  0.447201;0.894400;-0.007777;,
  0.316228;0.948683;0.000000;,
  0.316228;0.948683;0.000000;,
  -0.316228;0.948682;0.001375;,
  -0.447214;0.894427;0.000000;,
  -0.447183;0.894367;0.011666;,
  -0.948675;0.316225;0.004125;,
  0.000000;0.000000;-1.000000;,
  0.000000;0.000000;-1.000000;,
  0.000000;0.000000;-1.000000;,
  0.000000;0.000000;1.000000;,
  0.000000;0.000000;1.000000;,
  0.000000;0.000000;1.000000;,
  0.832051;0.554700;0.000000;,
  0.832051;0.554700;0.000000;,
  0.316227;0.948684;0.000000;,
  0.316227;0.948684;0.000000;,
  -0.316227;0.948683;0.001375;,
  -0.447214;0.894427;0.000000;,
  -0.832029;0.554685;0.007235;,
  -0.948675;0.316226;0.004125;,
  0.000000;0.000000;-1.000000;,
  0.000000;0.000000;-1.000000;,
  0.000000;0.000000;-1.000000;,
  0.000000;0.000000;1.000000;,
  0.000000;0.000000;1.000000;,
  0.000000;0.000000;1.000000;,
  0.832050;0.554701;0.000000;,
  0.832050;0.554701;0.000000;,
  0.316228;0.948683;0.000000;,
  0.316228;0.948683;0.000000;,
  -0.316228;0.948682;0.001375;,
  -0.447214;0.894427;0.000000;,
  -0.832029;0.554685;0.007235;,
  -0.948675;0.316225;0.004125;,
  0.000000;0.000000;-1.000000;,
  0.000000;0.000000;-1.000000;,
  0.000000;0.000000;-1.000000;,
  0.000000;0.000000;1.000000;,
  0.000000;0.000000;1.000000;,
  0.000000;0.000000;1.000000;,
  0.447214;0.894427;0.000000;,
  0.447214;0.894427;0.000000;;
  72;
  3;0,0,0;,
  3;1,1,1;,
  3;2,2,2;,
  3;3,3,3;,
  3;4,4,4;,
  3;5,5,5;,
  3;6,6,6;,
  3;7,7,7;,
  3;8,8,8;,
  3;9,9,9;,
  3;10,10,10;,
  3;11,11,11;,
  3;12,12,12;,
  3;13,13,13;,
  3;14,14,14;,
  3;15,15,15;,
  3;16,16,16;,
  3;17,17,17;,
  3;18,18,18;,
  3;19,19,19;,
  3;20,20,20;,
  3;21,21,21;,
  3;22,22,22;,
  3;23,23,23;,
  3;24,24,24;,
  3;25,25,25;,
  3;26,26,26;,
  3;27,27,27;,
  3;28,28,28;,
  3;29,29,29;,
  3;30,30,30;,
  3;31,31,31;,
  3;32,32,32;,
  3;33,33,33;,
  3;34,34,34;,
  3;35,35,35;,
  3;36,36,36;,
  3;37,37,37;,
  3;38,38,38;,
  3;39,39,39;,
  3;40,40,40;,
  3;41,41,41;,
  3;42,42,42;,
  3;43,43,43;,
  3;44,44,44;,
  3;45,45,45;,
  3;46,46,46;,
  3;47,47,47;,
  3;48,48,48;,
  3;49,49,49;,
  3;50,50,50;,
  3;51,51,51;,
  3;52,52,52;,
  3;53,53,53;,
  3;54,54,54;,
  3;55,55,55;,
  3;56,56,56;,
  3;57,57,57;,
  3;58,58,58;,
  3;59,59,59;,
  3;60,60,60;,
  3;61,61,61;,
  3;62,62,62;,
  3;63,63,63;,
  3;64,64,64;,
  3;65,65,65;,
  3;66,66,66;,
  3;67,67,67;,
  3;68,68,68;,
  3;69,69,69;,
  3;70,70,70;,
  3;71,71,71;;
 }
}