xof 0303txt 0032
template Vector {
 <3d82ab5e-62da-11cf-ab39-0020af71e433>
 FLOAT x;
 FLOAT y;
 FLOAT z;
}

template MeshFace {
 <3d82ab5f-62da-11cf-ab39-0020af71e433>
 DWORD nFaceVertexIndices;
 array DWORD faceVertexIndices[nFaceVertexIndices];
}

template Mesh {
 <3d82ab44-62da-11cf-ab39-0020af71e433>
 DWORD nVertices;
 array Vector vertices[nVertices];
 DWORD nFaces;
 array MeshFace faces[nFaces];
 [...]
}

template ColorRGBA {
 <35ff44e0-6c7c-11cf-8f52-0040333594a3>
 FLOAT red;
 FLOAT green;
 FLOAT blue;
 FLOAT alpha;
}

template ColorRGB {
 <d3e16e81-7835-11cf-8f52-0040333594a3>
 FLOAT red;
 FLOAT green;
 FLOAT blue;
}

template Material {
 <3d82ab4d-62da-11cf-ab39-0020af71e433>
 ColorRGBA faceColor;
 FLOAT power;
 ColorRGB specularColor;
 ColorRGB emissiveColor;
 [...]
}

template MeshMaterialList {
 <f6f23f42-7686-11cf-8f52-0040333594a3>
 DWORD nMaterials;
 DWORD nFaceIndexes;
 array DWORD faceIndexes[nFaceIndexes];
 [Material <3d82ab4d-62da-11cf-ab39-0020af71e433>]
}

template TextureFilename {
 <a42790e1-7810-11cf-8f52-0040333594a3>
 STRING filename;
}

template Coords2d {
 <f6f23f44-7686-11cf-8f52-0040333594a3>
 FLOAT u;
 FLOAT v;
}

template MeshTextureCoords {
 <f6f23f40-7686-11cf-8f52-0040333594a3>
 DWORD nTextureCoords;
 array Coords2d textureCoords[nTextureCoords];
}

template MeshNormals {
 <f6f23f43-7686-11cf-8f52-0040333594a3>
 DWORD nNormals;
 array Vector normals[nNormals];
 DWORD nFaceNormals;
 array MeshFace faceNormals[nFaceNormals];
}


Mesh  {
 42;
 -3.550000;-0.750000;0.000000;,
 -1.900000;-0.750000;0.000000;,
 -1.900000;-1.500000;0.000000;,
 1.900000;-1.500000;0.000000;,
 -3.550000;-0.750000;25.000000;,
 -1.900000;-0.750000;25.000000;,
 -1.900000;-1.500000;25.000000;,
 1.900000;-1.500000;25.000000;,
 -1.900000;-0.750000;0.000000;,
 -1.900000;-0.300000;0.000000;,
 -2.500000;-0.300000;0.000000;,
 -1.900000;-0.750000;25.000000;,
 -1.900000;-0.300000;25.000000;,
 -2.500000;-0.300000;25.000000;,
 -2.500000;0.750000;0.000000;,
 -2.500000;1.200000;0.000000;,
 -3.400000;1.200000;0.000000;,
 -3.400000;0.750000;0.000000;,
 -2.500000;0.750000;25.000000;,
 -2.500000;1.200000;25.000000;,
 -3.400000;1.200000;25.000000;,
 -3.400000;0.750000;25.000000;,
 -2.500000;0.750000;0.000000;,
 -2.650000;0.750000;0.000000;,
 -2.350000;-0.750000;0.000000;,
 -2.500000;0.750000;25.000000;,
 -2.650000;0.750000;25.000000;,
 -2.350000;-0.750000;25.000000;,
 -3.400000;0.750000;0.000000;,
 -3.250000;0.750000;0.000000;,
 -3.550000;-0.750000;0.000000;,
 -3.400000;0.750000;25.000000;,
 -3.250000;0.750000;25.000000;,
 -3.550000;-0.750000;25.000000;,
 -2.500000;1.200000;0.000000;,
 -2.500000;0.750000;0.000000;,
 -2.650000;0.750000;0.000000;,
 -2.350000;-0.750000;0.000000;,
 -3.400000;1.200000;0.000000;,
 -3.400000;0.750000;0.000000;,
 -3.250000;0.750000;0.000000;,
 -3.550000;-0.750000;0.000000;;
 28;
 3;0,1,5;,
 3;0,5,4;,
 3;1,2,6;,
 3;1,6,5;,
 3;2,3,7;,
 3;2,7,6;,
 3;8,9,12;,
 3;8,12,11;,
 3;9,10,13;,
 3;9,13,12;,
 3;14,15,19;,
 3;14,19,18;,
 3;15,16,20;,
 3;15,20,19;,
 3;16,17,21;,
 3;16,21,20;,
 3;23,22,25;,
 3;23,25,26;,
 3;24,23,26;,
 3;24,26,27;,
 3;28,29,32;,
 3;28,32,31;,
 3;29,30,33;,
 3;29,33,32;,
 3;39,38,34;,
 3;39,34,35;,
 3;41,40,36;,
 3;41,36,37;;

 MeshMaterialList  {
  6;
  28;
  0,
  0,
  0,
  0,
  0,
  0,
  1,
  1,
  1,
  1,
  2,
  2,
  2,
  2,
  2,
  2,
  3,
  3,
  3,
  3,
  4,
  4,
  4,
  4,
  5,
  5,
  5,
  5;

  Material  {
   1.000000;1.000000;1.000000;1.000000;;
   0.000000;
   0.000000;0.000000;0.000000;;
   0.000000;0.000000;0.000000;;

   TextureFilename  {
    "Bottom.png";
   }
  }

  Material  {
   1.000000;1.000000;1.000000;1.000000;;
   0.000000;
   0.000000;0.000000;0.000000;;
   0.000000;0.000000;0.000000;;

   TextureFilename  {
    "Slab2.png";
   }
  }

  Material  {
   1.000000;1.000000;1.000000;1.000000;;
   0.000000;
   0.000000;0.000000;0.000000;;
   0.000000;0.000000;0.000000;;

   TextureFilename  {
    "Wall.png";
   }
  }

  Material  {
   1.000000;1.000000;1.000000;1.000000;;
   0.000000;
   0.000000;0.000000;0.000000;;
   0.000000;0.000000;0.000000;;

   TextureFilename  {
    "Pier.png";
   }
  }

  Material  {
   1.000000;1.000000;1.000000;1.000000;;
   0.000000;
   0.000000;0.000000;0.000000;;
   0.000000;0.000000;0.000000;;

   TextureFilename  {
    "Pier.png";
   }
  }

  Material  {
   1.000000;1.000000;1.000000;1.000000;;
   0.000000;
   0.000000;0.000000;0.000000;;
   0.000000;0.000000;0.000000;;

   TextureFilename  {
    "Wall.png";
   }
  }
 }

 MeshTextureCoords  {
  42;
  6.000000;0.000000;,
  6.000000;0.250000;,
  6.000000;0.500000;,
  6.000000;1.000000;,
  0.000000;0.000000;,
  0.000000;0.250000;,
  0.000000;0.500000;,
  0.000000;1.000000;,
  0.000000;1.000000;,
  0.750000;1.000000;,
  1.000000;1.000000;,
  0.000000;0.000000;,
  0.750000;0.000000;,
  1.000000;0.000000;,
  0.000000;1.000000;,
  0.000000;0.000000;,
  0.000000;0.010000;,
  0.000000;1.000000;,
  5.000000;1.000000;,
  5.000000;0.000000;,
  5.000000;0.010000;,
  5.000000;1.000000;,
  0.000000;0.000000;,
  0.000000;0.010000;,
  0.000000;1.000000;,
  5.000000;0.000000;,
  5.000000;0.010000;,
  5.000000;1.000000;,
  0.000000;0.000000;,
  0.000000;0.010000;,
  0.000000;1.000000;,
  5.000000;0.000000;,
  5.000000;0.010000;,
  5.000000;1.000000;,
  0.875000;0.000000;,
  0.875000;0.231000;,
  0.750000;0.231000;,
  1.000000;1.000000;,
  0.125000;0.000000;,
  0.125000;0.231000;,
  0.250000;0.231000;,
  0.000000;1.000000;;
 }

 MeshNormals  {
  28;
  0.000000;-1.000000;0.000000;,
  0.000000;-1.000000;0.000000;,
  -1.000000;0.000000;0.000000;,
  -1.000000;0.000000;0.000000;,
  0.000000;-1.000000;0.000000;,
  0.000000;-1.000000;0.000000;,
  1.000000;0.000000;0.000000;,
  1.000000;0.000000;0.000000;,
  0.000000;1.000000;0.000000;,
  0.000000;1.000000;0.000000;,
  1.000000;0.000000;0.000000;,
  1.000000;0.000000;0.000000;,
  0.000000;1.000000;0.000000;,
  0.000000;1.000000;0.000000;,
  -1.000000;0.000000;0.000000;,
  -1.000000;0.000000;0.000000;,
  0.000000;-1.000000;0.000000;,
  0.000000;-1.000000;0.000000;,
  0.980581;0.196116;0.000000;,
  0.980581;0.196116;0.000000;,
  0.000000;-1.000000;0.000000;,
  0.000000;-1.000000;0.000000;,
  -0.980581;0.196116;0.000000;,
  -0.980581;0.196116;0.000000;,
  0.000000;0.000000;-1.000000;,
  0.000000;0.000000;-1.000000;,
  0.000000;0.000000;-1.000000;,
  0.000000;0.000000;-1.000000;;
  28;
  3;0,0,0;,
  3;1,1,1;,
  3;2,2,2;,
  3;3,3,3;,
  3;4,4,4;,
  3;5,5,5;,
  3;6,6,6;,
  3;7,7,7;,
  3;8,8,8;,
  3;9,9,9;,
  3;10,10,10;,
  3;11,11,11;,
  3;12,12,12;,
  3;13,13,13;,
  3;14,14,14;,
  3;15,15,15;,
  3;16,16,16;,
  3;17,17,17;,
  3;18,18,18;,
  3;19,19,19;,
  3;20,20,20;,
  3;21,21,21;,
  3;22,22,22;,
  3;23,23,23;,
  3;24,24,24;,
  3;25,25,25;,
  3;26,26,26;,
  3;27,27,27;;
 }
}