xof 0303txt 0032
template Vector {
 <3d82ab5e-62da-11cf-ab39-0020af71e433>
 FLOAT x;
 FLOAT y;
 FLOAT z;
}

template MeshFace {
 <3d82ab5f-62da-11cf-ab39-0020af71e433>
 DWORD nFaceVertexIndices;
 array DWORD faceVertexIndices[nFaceVertexIndices];
}

template Mesh {
 <3d82ab44-62da-11cf-ab39-0020af71e433>
 DWORD nVertices;
 array Vector vertices[nVertices];
 DWORD nFaces;
 array MeshFace faces[nFaces];
 [...]
}

template ColorRGBA {
 <35ff44e0-6c7c-11cf-8f52-0040333594a3>
 FLOAT red;
 FLOAT green;
 FLOAT blue;
 FLOAT alpha;
}

template ColorRGB {
 <d3e16e81-7835-11cf-8f52-0040333594a3>
 FLOAT red;
 FLOAT green;
 FLOAT blue;
}

template Material {
 <3d82ab4d-62da-11cf-ab39-0020af71e433>
 ColorRGBA faceColor;
 FLOAT power;
 ColorRGB specularColor;
 ColorRGB emissiveColor;
 [...]
}

template MeshMaterialList {
 <f6f23f42-7686-11cf-8f52-0040333594a3>
 DWORD nMaterials;
 DWORD nFaceIndexes;
 array DWORD faceIndexes[nFaceIndexes];
 [Material <3d82ab4d-62da-11cf-ab39-0020af71e433>]
}

template TextureFilename {
 <a42790e1-7810-11cf-8f52-0040333594a3>
 STRING filename;
}

template Coords2d {
 <f6f23f44-7686-11cf-8f52-0040333594a3>
 FLOAT u;
 FLOAT v;
}

template MeshTextureCoords {
 <f6f23f40-7686-11cf-8f52-0040333594a3>
 DWORD nTextureCoords;
 array Coords2d textureCoords[nTextureCoords];
}

template MeshNormals {
 <f6f23f43-7686-11cf-8f52-0040333594a3>
 DWORD nNormals;
 array Vector normals[nNormals];
 DWORD nFaceNormals;
 array MeshFace faceNormals[nFaceNormals];
}


Mesh  {
 32;
 -4.200000;1.100000;2.525000;,
 -4.200000;2.900000;2.525000;,
 -3.000000;2.900000;3.725000;,
 -3.000000;1.100000;3.725000;,
 -5.400000;1.100000;2.525000;,
 -5.400000;2.900000;2.525000;,
 -4.200000;2.900000;3.725000;,
 -4.200000;1.100000;3.725000;,
 -4.200000;1.100000;8.775000;,
 -4.200000;2.900000;8.775000;,
 -3.000000;2.900000;9.975000;,
 -3.000000;1.100000;9.975000;,
 -5.400000;1.100000;8.775000;,
 -5.400000;2.900000;8.775000;,
 -4.200000;2.900000;9.975000;,
 -4.200000;1.100000;9.975000;,
 -4.200000;1.100000;15.025000;,
 -4.200000;2.900000;15.025000;,
 -3.000000;2.900000;16.225000;,
 -3.000000;1.100000;16.225000;,
 -5.400000;1.100000;15.025000;,
 -5.400000;2.900000;15.025000;,
 -4.200000;2.900000;16.225000;,
 -4.200000;1.100000;16.225000;,
 -4.200000;1.100000;21.275000;,
 -4.200000;2.900000;21.275000;,
 -3.000000;2.900000;22.475000;,
 -3.000000;1.100000;22.475000;,
 -5.400000;1.100000;21.275000;,
 -5.400000;2.900000;21.275000;,
 -4.200000;2.900000;22.475000;,
 -4.200000;1.100000;22.475000;;
 16;
 3;0,1,2;,
 3;0,2,3;,
 3;4,5,6;,
 3;4,6,7;,
 3;8,9,10;,
 3;8,10,11;,
 3;12,13,14;,
 3;12,14,15;,
 3;16,17,18;,
 3;16,18,19;,
 3;20,21,22;,
 3;20,22,23;,
 3;24,25,26;,
 3;24,26,27;,
 3;28,29,30;,
 3;28,30,31;;

 MeshMaterialList  {
  8;
  16;
  0,
  0,
  1,
  1,
  2,
  2,
  3,
  3,
  4,
  4,
  5,
  5,
  6,
  6,
  7,
  7;

  Material  {
   1.000000;1.000000;1.000000;1.000000;;
   0.000000;
   0.000000;0.000000;0.000000;;
   0.000000;0.000000;0.000000;;

   TextureFilename  {
    "People20.png";
   }
  }

  Material  {
   1.000000;1.000000;1.000000;1.000000;;
   0.000000;
   0.000000;0.000000;0.000000;;
   0.000000;0.000000;0.000000;;

   TextureFilename  {
    "People21.png";
   }
  }

  Material  {
   1.000000;1.000000;1.000000;1.000000;;
   0.000000;
   0.000000;0.000000;0.000000;;
   0.000000;0.000000;0.000000;;

   TextureFilename  {
    "People22.png";
   }
  }

  Material  {
   1.000000;1.000000;1.000000;1.000000;;
   0.000000;
   0.000000;0.000000;0.000000;;
   0.000000;0.000000;0.000000;;

   TextureFilename  {
    "People20.png";
   }
  }

  Material  {
   1.000000;1.000000;1.000000;1.000000;;
   0.000000;
   0.000000;0.000000;0.000000;;
   0.000000;0.000000;0.000000;;

   TextureFilename  {
    "People21.png";
   }
  }

  Material  {
   1.000000;1.000000;1.000000;1.000000;;
   0.000000;
   0.000000;0.000000;0.000000;;
   0.000000;0.000000;0.000000;;

   TextureFilename  {
    "People22.png";
   }
  }

  Material  {
   1.000000;1.000000;1.000000;1.000000;;
   0.000000;
   0.000000;0.000000;0.000000;;
   0.000000;0.000000;0.000000;;

   TextureFilename  {
    "People22.png";
   }
  }

  Material  {
   1.000000;1.000000;1.000000;1.000000;;
   0.000000;
   0.000000;0.000000;0.000000;;
   0.000000;0.000000;0.000000;;

   TextureFilename  {
    "People21.png";
   }
  }
 }

 MeshTextureCoords  {
  32;
  0.000000;1.000000;,
  0.000000;0.000000;,
  1.000000;0.000000;,
  1.000000;1.000000;,
  0.000000;1.000000;,
  0.000000;0.000000;,
  1.000000;0.000000;,
  1.000000;1.000000;,
  0.000000;1.000000;,
  0.000000;0.000000;,
  1.000000;0.000000;,
  1.000000;1.000000;,
  0.000000;1.000000;,
  0.000000;0.000000;,
  1.000000;0.000000;,
  1.000000;1.000000;,
  0.000000;1.000000;,
  0.000000;0.000000;,
  1.000000;0.000000;,
  1.000000;1.000000;,
  0.000000;1.000000;,
  0.000000;0.000000;,
  1.000000;0.000000;,
  1.000000;1.000000;,
  0.000000;1.000000;,
  0.000000;0.000000;,
  1.000000;0.000000;,
  1.000000;1.000000;,
  0.000000;1.000000;,
  0.000000;0.000000;,
  1.000000;0.000000;,
  1.000000;1.000000;;
 }

 MeshNormals  {
  16;
  0.707107;0.000000;-0.707107;,
  0.707107;0.000000;-0.707107;,
  0.707107;0.000000;-0.707107;,
  0.707107;0.000000;-0.707107;,
  0.707107;0.000000;-0.707107;,
  0.707107;0.000000;-0.707107;,
  0.707107;0.000000;-0.707107;,
  0.707107;0.000000;-0.707107;,
  0.707107;0.000000;-0.707107;,
  0.707107;0.000000;-0.707107;,
  0.707107;0.000000;-0.707107;,
  0.707107;0.000000;-0.707107;,
  0.707107;0.000000;-0.707107;,
  0.707107;0.000000;-0.707107;,
  0.707107;0.000000;-0.707107;,
  0.707107;0.000000;-0.707107;;
  16;
  3;0,0,0;,
  3;1,1,1;,
  3;2,2,2;,
  3;3,3,3;,
  3;4,4,4;,
  3;5,5,5;,
  3;6,6,6;,
  3;7,7,7;,
  3;8,8,8;,
  3;9,9,9;,
  3;10,10,10;,
  3;11,11,11;,
  3;12,12,12;,
  3;13,13,13;,
  3;14,14,14;,
  3;15,15,15;;
 }
}