xof 0303txt 0032
template Vector {
 <3d82ab5e-62da-11cf-ab39-0020af71e433>
 FLOAT x;
 FLOAT y;
 FLOAT z;
}

template MeshFace {
 <3d82ab5f-62da-11cf-ab39-0020af71e433>
 DWORD nFaceVertexIndices;
 array DWORD faceVertexIndices[nFaceVertexIndices];
}

template Mesh {
 <3d82ab44-62da-11cf-ab39-0020af71e433>
 DWORD nVertices;
 array Vector vertices[nVertices];
 DWORD nFaces;
 array MeshFace faces[nFaces];
 [...]
}

template ColorRGBA {
 <35ff44e0-6c7c-11cf-8f52-0040333594a3>
 FLOAT red;
 FLOAT green;
 FLOAT blue;
 FLOAT alpha;
}

template ColorRGB {
 <d3e16e81-7835-11cf-8f52-0040333594a3>
 FLOAT red;
 FLOAT green;
 FLOAT blue;
}

template Material {
 <3d82ab4d-62da-11cf-ab39-0020af71e433>
 ColorRGBA faceColor;
 FLOAT power;
 ColorRGB specularColor;
 ColorRGB emissiveColor;
 [...]
}

template MeshMaterialList {
 <f6f23f42-7686-11cf-8f52-0040333594a3>
 DWORD nMaterials;
 DWORD nFaceIndexes;
 array DWORD faceIndexes[nFaceIndexes];
 [Material <3d82ab4d-62da-11cf-ab39-0020af71e433>]
}

template Coords2d {
 <f6f23f44-7686-11cf-8f52-0040333594a3>
 FLOAT u;
 FLOAT v;
}

template MeshTextureCoords {
 <f6f23f40-7686-11cf-8f52-0040333594a3>
 DWORD nTextureCoords;
 array Coords2d textureCoords[nTextureCoords];
}

template MeshNormals {
 <f6f23f43-7686-11cf-8f52-0040333594a3>
 DWORD nNormals;
 array Vector normals[nNormals];
 DWORD nFaceNormals;
 array MeshFace faceNormals[nFaceNormals];
}


Mesh  {
 100;
 -3.350000;9.299998;0.000000;,
 -3.350000;-0.600000;0.000000;,
 -3.425000;9.299998;0.129904;,
 -3.425000;-0.600000;0.129904;,
 -3.575000;9.299998;0.129904;,
 -3.575000;-0.600000;0.129904;,
 -3.650000;9.299998;0.000000;,
 -3.650000;-0.600000;0.000000;,
 -3.575000;9.299998;-0.129904;,
 -3.575000;-0.600000;-0.129904;,
 -3.425000;9.299998;-0.129904;,
 -3.425000;-0.600000;-0.129904;,
 7.450000;9.299998;0.000000;,
 7.450000;-0.600000;0.000000;,
 7.375000;9.299998;0.129904;,
 7.375000;-0.600000;0.129904;,
 7.225000;9.299998;0.129904;,
 7.225000;-0.600000;0.129904;,
 7.150000;9.299998;0.000000;,
 7.150000;-0.600000;0.000000;,
 7.225000;9.299998;-0.129904;,
 7.225000;-0.600000;-0.129904;,
 7.375000;9.299998;-0.129904;,
 7.375000;-0.600000;-0.129904;,
 -3.200000;-0.600000;-0.300000;,
 -3.200000;-1.500000;-0.300000;,
 -3.800000;-1.500000;-0.300000;,
 -3.800000;-0.600000;-0.300000;,
 -3.200000;-0.600000;0.300000;,
 -3.200000;-1.500000;0.300000;,
 -3.800000;-1.500000;0.300000;,
 -3.800000;-0.600000;0.300000;,
 7.600000;-0.600000;-0.300000;,
 7.600000;-1.500000;-0.300000;,
 7.000000;-1.500000;-0.300000;,
 7.000000;-0.600000;-0.300000;,
 7.600000;-0.600000;0.300000;,
 7.600000;-1.500000;0.300000;,
 7.000000;-1.500000;0.300000;,
 7.000000;-0.600000;0.300000;,
 -3.650000;7.340000;-0.150000;,
 7.449998;7.339999;-0.150000;,
 7.449998;7.259999;-0.150000;,
 -3.650000;7.260000;-0.150000;,
 -1.750000;6.340000;-0.150000;,
 5.549999;6.339999;-0.150000;,
 5.549999;6.259999;-0.150000;,
 -1.750000;6.260000;-0.150000;,
 -1.586583;6.273167;-0.150000;,
 -3.636611;5.248155;-0.150000;,
 -3.663444;5.301821;-0.150000;,
 -1.613416;6.326833;-0.150000;,
 5.413416;6.326833;-0.150000;,
 7.463443;5.301821;-0.150000;,
 7.436611;5.248155;-0.150000;,
 5.386583;6.273167;-0.150000;,
 -1.630000;6.300000;-0.150000;,
 -1.630000;7.300000;-0.150000;,
 -1.570000;7.300000;-0.150000;,
 -1.570000;6.300000;-0.150000;,
 0.120000;6.300000;-0.150000;,
 0.120000;7.300000;-0.150000;,
 0.180000;7.300000;-0.150000;,
 0.180000;6.300000;-0.150000;,
 1.870000;6.300000;-0.150000;,
 1.870000;7.300000;-0.150000;,
 1.930000;7.300000;-0.150000;,
 1.930000;6.300000;-0.150000;,
 3.620000;6.300000;-0.150000;,
 3.620000;7.300000;-0.150000;,
 3.680000;7.300000;-0.150000;,
 3.680000;6.300000;-0.150000;,
 5.369999;6.300000;-0.150000;,
 5.369999;7.300000;-0.150000;,
 5.430000;7.300000;-0.150000;,
 5.430000;6.300000;-0.150000;,
 -3.335000;7.325981;-0.150000;,
 -1.602949;6.325981;-0.150000;,
 -1.632949;6.274019;-0.150000;,
 -3.365000;7.274019;-0.150000;,
 -1.585000;7.325981;-0.150000;,
 0.147050;6.325981;-0.150000;,
 0.117051;6.274019;-0.150000;,
 -1.615000;7.274019;-0.150000;,
 0.165000;7.325981;-0.150000;,
 1.897050;6.325981;-0.150000;,
 1.867050;6.274019;-0.150000;,
 0.135000;7.274019;-0.150000;,
 7.164999;7.274019;-0.150000;,
 5.432949;6.274019;-0.150000;,
 5.402949;6.325981;-0.150000;,
 7.135000;7.325981;-0.150000;,
 5.414999;7.274019;-0.150000;,
 3.682949;6.274019;-0.150000;,
 3.652949;6.325981;-0.150000;,
 5.385000;7.325981;-0.150000;,
 3.665000;7.274019;-0.150000;,
 1.932949;6.274019;-0.150000;,
 1.902949;6.325981;-0.150000;,
 3.635000;7.325981;-0.150000;;
 94;
 3;1,0,2;,
 3;1,2,3;,
 3;3,2,4;,
 3;3,4,5;,
 3;5,4,6;,
 3;5,6,7;,
 3;7,6,8;,
 3;7,8,9;,
 3;9,8,10;,
 3;9,10,11;,
 3;11,10,0;,
 3;11,0,1;,
 3;10,8,6;,
 3;10,6,4;,
 3;10,4,2;,
 3;10,2,0;,
 3;1,3,5;,
 3;1,5,7;,
 3;1,7,9;,
 3;1,9,11;,
 3;13,12,14;,
 3;13,14,15;,
 3;15,14,16;,
 3;15,16,17;,
 3;17,16,18;,
 3;17,18,19;,
 3;19,18,20;,
 3;19,20,21;,
 3;21,20,22;,
 3;21,22,23;,
 3;23,22,12;,
 3;23,12,13;,
 3;22,20,18;,
 3;22,18,16;,
 3;22,16,14;,
 3;22,14,12;,
 3;13,15,17;,
 3;13,17,19;,
 3;13,19,21;,
 3;13,21,23;,
 3;24,25,26;,
 3;24,26,27;,
 3;27,26,30;,
 3;27,30,31;,
 3;31,30,29;,
 3;31,29,28;,
 3;28,29,25;,
 3;28,25,24;,
 3;24,27,31;,
 3;24,31,28;,
 3;25,29,30;,
 3;25,30,26;,
 3;32,33,34;,
 3;32,34,35;,
 3;35,34,38;,
 3;35,38,39;,
 3;39,38,37;,
 3;39,37,36;,
 3;36,37,33;,
 3;36,33,32;,
 3;32,35,39;,
 3;32,39,36;,
 3;33,37,38;,
 3;33,38,34;,
 3;40,41,42;,
 3;40,42,43;,
 3;44,45,46;,
 3;44,46,47;,
 3;48,49,50;,
 3;48,50,51;,
 3;52,53,54;,
 3;52,54,55;,
 3;56,57,58;,
 3;56,58,59;,
 3;60,61,62;,
 3;60,62,63;,
 3;64,65,66;,
 3;64,66,67;,
 3;68,69,70;,
 3;68,70,71;,
 3;72,73,74;,
 3;72,74,75;,
 3;76,77,78;,
 3;76,78,79;,
 3;80,81,82;,
 3;80,82,83;,
 3;84,85,86;,
 3;84,86,87;,
 3;88,89,90;,
 3;88,90,91;,
 3;92,93,94;,
 3;92,94,95;,
 3;96,97,98;,
 3;96,98,99;;

 MeshMaterialList  {
  19;
  94;
  0,
  0,
  0,
  0,
  0,
  0,
  0,
  0,
  0,
  0,
  0,
  0,
  0,
  0,
  0,
  0,
  0,
  0,
  0,
  0,
  1,
  1,
  1,
  1,
  1,
  1,
  1,
  1,
  1,
  1,
  1,
  1,
  1,
  1,
  1,
  1,
  1,
  1,
  1,
  1,
  2,
  2,
  2,
  2,
  2,
  2,
  2,
  2,
  2,
  2,
  2,
  2,
  3,
  3,
  3,
  3,
  3,
  3,
  3,
  3,
  3,
  3,
  3,
  3,
  4,
  4,
  5,
  5,
  6,
  6,
  7,
  7,
  8,
  8,
  9,
  9,
  10,
  10,
  11,
  11,
  12,
  12,
  13,
  13,
  14,
  14,
  15,
  15,
  16,
  16,
  17,
  17,
  18,
  18;

  Material  {
   0.690196;0.690196;0.690196;1.000000;;
   0.000000;
   0.000000;0.000000;0.000000;;
   0.000000;0.000000;0.000000;;
  }

  Material  {
   0.690196;0.690196;0.690196;1.000000;;
   0.000000;
   0.000000;0.000000;0.000000;;
   0.000000;0.000000;0.000000;;
  }

  Material  {
   0.690196;0.690196;0.690196;1.000000;;
   0.000000;
   0.000000;0.000000;0.000000;;
   0.000000;0.000000;0.000000;;
  }

  Material  {
   0.690196;0.690196;0.690196;1.000000;;
   0.000000;
   0.000000;0.000000;0.000000;;
   0.000000;0.000000;0.000000;;
  }

  Material  {
   0.627451;0.627451;0.690196;1.000000;;
   0.000000;
   0.000000;0.000000;0.000000;;
   0.000000;0.000000;0.000000;;
  }

  Material  {
   0.690196;0.690196;0.752941;1.000000;;
   0.000000;
   0.000000;0.000000;0.000000;;
   0.000000;0.000000;0.000000;;
  }

  Material  {
   0.627451;0.627451;0.690196;1.000000;;
   0.000000;
   0.000000;0.000000;0.000000;;
   0.000000;0.000000;0.000000;;
  }

  Material  {
   0.627451;0.627451;0.690196;1.000000;;
   0.000000;
   0.000000;0.000000;0.000000;;
   0.000000;0.000000;0.000000;;
  }

  Material  {
   0.690196;0.690196;0.752941;1.000000;;
   0.000000;
   0.000000;0.000000;0.000000;;
   0.000000;0.000000;0.000000;;
  }

  Material  {
   0.690196;0.690196;0.752941;1.000000;;
   0.000000;
   0.000000;0.000000;0.000000;;
   0.000000;0.000000;0.000000;;
  }

  Material  {
   0.690196;0.690196;0.752941;1.000000;;
   0.000000;
   0.000000;0.000000;0.000000;;
   0.000000;0.000000;0.000000;;
  }

  Material  {
   0.690196;0.690196;0.752941;1.000000;;
   0.000000;
   0.000000;0.000000;0.000000;;
   0.000000;0.000000;0.000000;;
  }

  Material  {
   0.690196;0.690196;0.752941;1.000000;;
   0.000000;
   0.000000;0.000000;0.000000;;
   0.000000;0.000000;0.000000;;
  }

  Material  {
   0.627451;0.627451;0.690196;1.000000;;
   0.000000;
   0.000000;0.000000;0.000000;;
   0.000000;0.000000;0.000000;;
  }

  Material  {
   0.627451;0.627451;0.690196;1.000000;;
   0.000000;
   0.000000;0.000000;0.000000;;
   0.000000;0.000000;0.000000;;
  }

  Material  {
   0.627451;0.627451;0.690196;1.000000;;
   0.000000;
   0.000000;0.000000;0.000000;;
   0.000000;0.000000;0.000000;;
  }

  Material  {
   0.627451;0.627451;0.690196;1.000000;;
   0.000000;
   0.000000;0.000000;0.000000;;
   0.000000;0.000000;0.000000;;
  }

  Material  {
   0.627451;0.627451;0.690196;1.000000;;
   0.000000;
   0.000000;0.000000;0.000000;;
   0.000000;0.000000;0.000000;;
  }

  Material  {
   0.627451;0.627451;0.690196;1.000000;;
   0.000000;
   0.000000;0.000000;0.000000;;
   0.000000;0.000000;0.000000;;
  }
 }

 MeshTextureCoords  {
  100;
  0.000000;0.000000;,
  0.000000;0.000000;,
  0.000000;0.000000;,
  0.000000;0.000000;,
  0.000000;0.000000;,
  0.000000;0.000000;,
  0.000000;0.000000;,
  0.000000;0.000000;,
  0.000000;0.000000;,
  0.000000;0.000000;,
  0.000000;0.000000;,
  0.000000;0.000000;,
  0.000000;0.000000;,
  0.000000;0.000000;,
  0.000000;0.000000;,
  0.000000;0.000000;,
  0.000000;0.000000;,
  0.000000;0.000000;,
  0.000000;0.000000;,
  0.000000;0.000000;,
  0.000000;0.000000;,
  0.000000;0.000000;,
  0.000000;0.000000;,
  0.000000;0.000000;,
  0.000000;0.000000;,
  0.000000;0.000000;,
  0.000000;0.000000;,
  0.000000;0.000000;,
  0.000000;0.000000;,
  0.000000;0.000000;,
  0.000000;0.000000;,
  0.000000;0.000000;,
  0.000000;0.000000;,
  0.000000;0.000000;,
  0.000000;0.000000;,
  0.000000;0.000000;,
  0.000000;0.000000;,
  0.000000;0.000000;,
  0.000000;0.000000;,
  0.000000;0.000000;,
  0.000000;0.000000;,
  0.000000;0.000000;,
  0.000000;0.000000;,
  0.000000;0.000000;,
  0.000000;0.000000;,
  0.000000;0.000000;,
  0.000000;0.000000;,
  0.000000;0.000000;,
  0.000000;0.000000;,
  0.000000;0.000000;,
  0.000000;0.000000;,
  0.000000;0.000000;,
  0.000000;0.000000;,
  0.000000;0.000000;,
  0.000000;0.000000;,
  0.000000;0.000000;,
  0.000000;0.000000;,
  0.000000;0.000000;,
  0.000000;0.000000;,
  0.000000;0.000000;,
  0.000000;0.000000;,
  0.000000;0.000000;,
  0.000000;0.000000;,
  0.000000;0.000000;,
  0.000000;0.000000;,
  0.000000;0.000000;,
  0.000000;0.000000;,
  0.000000;0.000000;,
  0.000000;0.000000;,
  0.000000;0.000000;,
  0.000000;0.000000;,
  0.000000;0.000000;,
  0.000000;0.000000;,
  0.000000;0.000000;,
  0.000000;0.000000;,
  0.000000;0.000000;,
  0.000000;0.000000;,
  0.000000;0.000000;,
  0.000000;0.000000;,
  0.000000;0.000000;,
  0.000000;0.000000;,
  0.000000;0.000000;,
  0.000000;0.000000;,
  0.000000;0.000000;,
  0.000000;0.000000;,
  0.000000;0.000000;,
  0.000000;0.000000;,
  0.000000;0.000000;,
  0.000000;0.000000;,
  0.000000;0.000000;,
  0.000000;0.000000;,
  0.000000;0.000000;,
  0.000000;0.000000;,
  0.000000;0.000000;,
  0.000000;0.000000;,
  0.000000;0.000000;,
  0.000000;0.000000;,
  0.000000;0.000000;,
  0.000000;0.000000;,
  0.000000;0.000000;;
 }

 MeshNormals  {
  78;
  0.965926;0.000000;-0.258819;,
  1.000000;0.000000;0.000000;,
  0.500000;0.000000;0.866025;,
  0.258819;0.000000;0.965926;,
  -0.500000;0.000000;0.866025;,
  -0.707107;0.000000;0.707107;,
  -1.000000;0.000000;0.000000;,
  -0.965926;0.000000;-0.258819;,
  -0.500000;0.000000;-0.866025;,
  -0.258819;0.000000;-0.965926;,
  0.500000;0.000000;-0.866025;,
  0.707107;0.000000;-0.707107;,
  0.965926;0.000000;-0.258819;,
  1.000000;0.000000;0.000000;,
  0.500000;0.000000;0.866025;,
  0.258819;0.000000;0.965926;,
  -0.500000;0.000000;0.866025;,
  -0.707107;0.000000;0.707107;,
  -1.000000;0.000000;0.000000;,
  -0.965926;0.000000;-0.258819;,
  -0.500000;0.000000;-0.866025;,
  -0.258819;0.000000;-0.965926;,
  0.500000;0.000000;-0.866025;,
  0.707107;0.000000;-0.707107;,
  0.000000;0.000000;-1.000000;,
  0.000000;0.000000;-1.000000;,
  -1.000000;0.000000;0.000000;,
  -1.000000;0.000000;0.000000;,
  0.000000;0.000000;1.000000;,
  0.000000;0.000000;1.000000;,
  1.000000;0.000000;0.000000;,
  1.000000;0.000000;0.000000;,
  0.000000;1.000000;0.000000;,
  0.000000;1.000000;0.000000;,
  0.000000;-1.000000;0.000000;,
  0.000000;-1.000000;0.000000;,
  0.000000;0.000000;-1.000000;,
  0.000000;0.000000;-1.000000;,
  -1.000000;0.000000;0.000000;,
  -1.000000;0.000000;0.000000;,
  0.000000;0.000000;1.000000;,
  0.000000;0.000000;1.000000;,
  1.000000;0.000000;0.000000;,
  1.000000;0.000000;0.000000;,
  0.000000;1.000000;0.000000;,
  0.000000;1.000000;0.000000;,
  0.000000;-1.000000;0.000000;,
  0.000000;-1.000000;0.000000;,
  0.000000;0.000000;-1.000000;,
  0.000000;0.000000;-1.000000;,
  0.000000;0.000000;-1.000000;,
  0.000000;0.000000;-1.000000;,
  0.000000;0.000000;-1.000000;,
  0.000000;0.000000;-1.000000;,
  0.000000;0.000000;-1.000000;,
  0.000000;0.000000;-1.000000;,
  0.000000;0.000000;-1.000000;,
  0.000000;0.000000;-1.000000;,
  0.000000;0.000000;-1.000000;,
  0.000000;0.000000;-1.000000;,
  0.000000;0.000000;-1.000000;,
  0.000000;0.000000;-1.000000;,
  0.000000;0.000000;-1.000000;,
  0.000000;0.000000;-1.000000;,
  0.000000;0.000000;-1.000000;,
  0.000000;0.000000;-1.000000;,
  0.000000;0.000000;-1.000000;,
  0.000000;0.000000;-1.000000;,
  0.000000;0.000000;-1.000000;,
  0.000000;0.000000;-1.000000;,
  0.000000;0.000000;-1.000000;,
  0.000000;0.000000;-1.000000;,
  0.000000;0.000000;-1.000000;,
  0.000000;0.000000;-1.000000;,
  0.000000;0.000000;-1.000000;,
  0.000000;0.000000;-1.000000;,
  0.000000;0.000000;-1.000000;,
  0.000000;0.000000;-1.000000;;
  94;
  3;1,0,2;,
  3;1,2,3;,
  3;3,2,4;,
  3;3,4,5;,
  3;5,4,6;,
  3;5,6,7;,
  3;7,6,8;,
  3;7,8,9;,
  3;9,8,10;,
  3;9,10,11;,
  3;11,10,0;,
  3;11,0,1;,
  3;10,8,6;,
  3;10,6,4;,
  3;10,4,2;,
  3;10,2,0;,
  3;1,3,5;,
  3;1,5,7;,
  3;1,7,9;,
  3;1,9,11;,
  3;13,12,14;,
  3;13,14,15;,
  3;15,14,16;,
  3;15,16,17;,
  3;17,16,18;,
  3;17,18,19;,
  3;19,18,20;,
  3;19,20,21;,
  3;21,20,22;,
  3;21,22,23;,
  3;23,22,12;,
  3;23,12,13;,
  3;22,20,18;,
  3;22,18,16;,
  3;22,16,14;,
  3;22,14,12;,
  3;13,15,17;,
  3;13,17,19;,
  3;13,19,21;,
  3;13,21,23;,
  3;24,24,24;,
  3;25,25,25;,
  3;26,26,26;,
  3;27,27,27;,
  3;28,28,28;,
  3;29,29,29;,
  3;30,30,30;,
  3;31,31,31;,
  3;32,32,32;,
  3;33,33,33;,
  3;34,34,34;,
  3;35,35,35;,
  3;36,36,36;,
  3;37,37,37;,
  3;38,38,38;,
  3;39,39,39;,
  3;40,40,40;,
  3;41,41,41;,
  3;42,42,42;,
  3;43,43,43;,
  3;44,44,44;,
  3;45,45,45;,
  3;46,46,46;,
  3;47,47,47;,
  3;48,48,48;,
  3;49,49,49;,
  3;50,50,50;,
  3;51,51,51;,
  3;52,52,52;,
  3;53,53,53;,
  3;54,54,54;,
  3;55,55,55;,
  3;56,56,56;,
  3;57,57,57;,
  3;58,58,58;,
  3;59,59,59;,
  3;60,60,60;,
  3;61,61,61;,
  3;62,62,62;,
  3;63,63,63;,
  3;64,64,64;,
  3;65,65,65;,
  3;66,66,66;,
  3;67,67,67;,
  3;68,68,68;,
  3;69,69,69;,
  3;70,70,70;,
  3;71,71,71;,
  3;72,72,72;,
  3;73,73,73;,
  3;74,74,74;,
  3;75,75,75;,
  3;76,76,76;,
  3;77,77,77;;
 }
}