xof 0303txt 0032
template Vector {
 <3d82ab5e-62da-11cf-ab39-0020af71e433>
 FLOAT x;
 FLOAT y;
 FLOAT z;
}

template MeshFace {
 <3d82ab5f-62da-11cf-ab39-0020af71e433>
 DWORD nFaceVertexIndices;
 array DWORD faceVertexIndices[nFaceVertexIndices];
}

template Mesh {
 <3d82ab44-62da-11cf-ab39-0020af71e433>
 DWORD nVertices;
 array Vector vertices[nVertices];
 DWORD nFaces;
 array MeshFace faces[nFaces];
 [...]
}

template ColorRGBA {
 <35ff44e0-6c7c-11cf-8f52-0040333594a3>
 FLOAT red;
 FLOAT green;
 FLOAT blue;
 FLOAT alpha;
}

template ColorRGB {
 <d3e16e81-7835-11cf-8f52-0040333594a3>
 FLOAT red;
 FLOAT green;
 FLOAT blue;
}

template Material {
 <3d82ab4d-62da-11cf-ab39-0020af71e433>
 ColorRGBA faceColor;
 FLOAT power;
 ColorRGB specularColor;
 ColorRGB emissiveColor;
 [...]
}

template MeshMaterialList {
 <f6f23f42-7686-11cf-8f52-0040333594a3>
 DWORD nMaterials;
 DWORD nFaceIndexes;
 array DWORD faceIndexes[nFaceIndexes];
 [Material <3d82ab4d-62da-11cf-ab39-0020af71e433>]
}

template Coords2d {
 <f6f23f44-7686-11cf-8f52-0040333594a3>
 FLOAT u;
 FLOAT v;
}

template MeshTextureCoords {
 <f6f23f40-7686-11cf-8f52-0040333594a3>
 DWORD nTextureCoords;
 array Coords2d textureCoords[nTextureCoords];
}

template MeshNormals {
 <f6f23f43-7686-11cf-8f52-0040333594a3>
 DWORD nNormals;
 array Vector normals[nNormals];
 DWORD nFaceNormals;
 array MeshFace faceNormals[nFaceNormals];
}


Mesh  {
 132;
 -3.050000;9.299998;0.000000;,
 -3.050000;-0.600000;0.000000;,
 -3.125000;9.299998;0.129904;,
 -3.125000;-0.600000;0.129904;,
 -3.275000;9.299998;0.129904;,
 -3.275000;-0.600000;0.129904;,
 -3.350000;9.299998;0.000000;,
 -3.350000;-0.600000;0.000000;,
 -3.275000;9.299998;-0.129904;,
 -3.275000;-0.600000;-0.129904;,
 -3.125000;9.299998;-0.129904;,
 -3.125000;-0.600000;-0.129904;,
 14.749999;9.299998;0.000000;,
 14.749999;-0.600000;0.000000;,
 14.674999;9.299998;0.129904;,
 14.674999;-0.600000;0.129904;,
 14.525000;9.299998;0.129904;,
 14.525000;-0.600000;0.129904;,
 14.450000;9.299998;0.000000;,
 14.450000;-0.600000;0.000000;,
 14.525000;9.299998;-0.129904;,
 14.525000;-0.600000;-0.129904;,
 14.674999;9.299998;-0.129904;,
 14.674999;-0.600000;-0.129904;,
 -2.900000;-0.600000;-0.300000;,
 -2.900000;-1.500000;-0.300000;,
 -3.500000;-1.500000;-0.300000;,
 -3.500000;-0.600000;-0.300000;,
 -2.900000;-0.600000;0.300000;,
 -2.900000;-1.500000;0.300000;,
 -3.500000;-1.500000;0.300000;,
 -3.500000;-0.600000;0.300000;,
 14.900000;-0.600000;-0.300000;,
 14.900000;-1.500000;-0.300000;,
 14.299999;-1.500000;-0.300000;,
 14.299999;-0.600000;-0.300000;,
 14.900000;-0.600000;0.300000;,
 14.900000;-1.500000;0.300000;,
 14.299999;-1.500000;0.300000;,
 14.299999;-0.600000;0.300000;,
 -3.350000;7.340000;-0.150000;,
 14.749995;7.339999;-0.150000;,
 14.749995;7.259999;-0.150000;,
 -3.350000;7.260000;-0.150000;,
 -1.450000;6.340000;-0.150000;,
 12.849998;6.339999;-0.150000;,
 12.849998;6.259999;-0.150000;,
 -1.450000;6.260000;-0.150000;,
 -1.286583;6.273167;-0.150000;,
 -3.336611;5.248155;-0.150000;,
 -3.363444;5.301821;-0.150000;,
 -1.313416;6.326833;-0.150000;,
 12.713415;6.326833;-0.150000;,
 14.763443;5.301821;-0.150000;,
 14.736610;5.248155;-0.150000;,
 12.686583;6.273167;-0.150000;,
 -1.330000;6.300000;-0.150000;,
 -1.330000;7.300000;-0.150000;,
 -1.270000;7.300000;-0.150000;,
 -1.270000;6.300000;-0.150000;,
 0.420000;6.300000;-0.150000;,
 0.420000;7.300000;-0.150000;,
 0.480000;7.300000;-0.150000;,
 0.480000;6.300000;-0.150000;,
 2.170000;6.300000;-0.150000;,
 2.170000;7.300000;-0.150000;,
 2.230000;7.300000;-0.150000;,
 2.230000;6.300000;-0.150000;,
 3.920000;6.300000;-0.150000;,
 3.920000;7.300000;-0.150000;,
 3.980000;7.300000;-0.150000;,
 3.980000;6.300000;-0.150000;,
 5.669999;6.300000;-0.150000;,
 5.669999;7.300000;-0.150000;,
 5.730000;7.300000;-0.150000;,
 5.730000;6.300000;-0.150000;,
 7.419999;6.300000;-0.150000;,
 7.419999;7.300000;-0.150000;,
 7.480000;7.300000;-0.150000;,
 7.480000;6.300000;-0.150000;,
 9.169999;6.300000;-0.150000;,
 9.169999;7.300000;-0.150000;,
 9.229999;7.300000;-0.150000;,
 9.229999;6.300000;-0.150000;,
 10.919999;6.300000;-0.150000;,
 10.919999;7.300000;-0.150000;,
 10.979999;7.300000;-0.150000;,
 10.979999;6.300000;-0.150000;,
 12.669999;6.300000;-0.150000;,
 12.669999;7.300000;-0.150000;,
 12.729999;7.300000;-0.150000;,
 12.729999;6.300000;-0.150000;,
 -3.035000;7.325981;-0.150000;,
 -1.302949;6.325981;-0.150000;,
 -1.332949;6.274019;-0.150000;,
 -3.065000;7.274019;-0.150000;,
 -1.285000;7.325981;-0.150000;,
 0.447051;6.325981;-0.150000;,
 0.417051;6.274019;-0.150000;,
 -1.315000;7.274019;-0.150000;,
 0.465000;7.325981;-0.150000;,
 2.197050;6.325981;-0.150000;,
 2.167050;6.274019;-0.150000;,
 0.435000;7.274019;-0.150000;,
 2.215000;7.325981;-0.150000;,
 3.947050;6.325981;-0.150000;,
 3.917050;6.274019;-0.150000;,
 2.185000;7.274019;-0.150000;,
 3.965000;7.325981;-0.150000;,
 5.697050;6.325981;-0.150000;,
 5.667050;6.274019;-0.150000;,
 3.935000;7.274019;-0.150000;,
 14.464999;7.274019;-0.150000;,
 12.732948;6.274019;-0.150000;,
 12.702949;6.325981;-0.150000;,
 14.434999;7.325981;-0.150000;,
 12.714999;7.274019;-0.150000;,
 10.982948;6.274019;-0.150000;,
 10.952949;6.325981;-0.150000;,
 12.684999;7.325981;-0.150000;,
 10.964999;7.274019;-0.150000;,
 9.232948;6.274019;-0.150000;,
 9.202949;6.325981;-0.150000;,
 10.934999;7.325981;-0.150000;,
 9.214999;7.274019;-0.150000;,
 7.482949;6.274019;-0.150000;,
 7.452949;6.325981;-0.150000;,
 9.184999;7.325981;-0.150000;,
 7.464999;7.274019;-0.150000;,
 5.732949;6.274019;-0.150000;,
 5.702949;6.325981;-0.150000;,
 7.434999;7.325981;-0.150000;;
 110;
 3;1,0,2;,
 3;1,2,3;,
 3;3,2,4;,
 3;3,4,5;,
 3;5,4,6;,
 3;5,6,7;,
 3;7,6,8;,
 3;7,8,9;,
 3;9,8,10;,
 3;9,10,11;,
 3;11,10,0;,
 3;11,0,1;,
 3;10,8,6;,
 3;10,6,4;,
 3;10,4,2;,
 3;10,2,0;,
 3;1,3,5;,
 3;1,5,7;,
 3;1,7,9;,
 3;1,9,11;,
 3;13,12,14;,
 3;13,14,15;,
 3;15,14,16;,
 3;15,16,17;,
 3;17,16,18;,
 3;17,18,19;,
 3;19,18,20;,
 3;19,20,21;,
 3;21,20,22;,
 3;21,22,23;,
 3;23,22,12;,
 3;23,12,13;,
 3;22,20,18;,
 3;22,18,16;,
 3;22,16,14;,
 3;22,14,12;,
 3;13,15,17;,
 3;13,17,19;,
 3;13,19,21;,
 3;13,21,23;,
 3;24,25,26;,
 3;24,26,27;,
 3;27,26,30;,
 3;27,30,31;,
 3;31,30,29;,
 3;31,29,28;,
 3;28,29,25;,
 3;28,25,24;,
 3;24,27,31;,
 3;24,31,28;,
 3;25,29,30;,
 3;25,30,26;,
 3;32,33,34;,
 3;32,34,35;,
 3;35,34,38;,
 3;35,38,39;,
 3;39,38,37;,
 3;39,37,36;,
 3;36,37,33;,
 3;36,33,32;,
 3;32,35,39;,
 3;32,39,36;,
 3;33,37,38;,
 3;33,38,34;,
 3;40,41,42;,
 3;40,42,43;,
 3;44,45,46;,
 3;44,46,47;,
 3;48,49,50;,
 3;48,50,51;,
 3;52,53,54;,
 3;52,54,55;,
 3;56,57,58;,
 3;56,58,59;,
 3;60,61,62;,
 3;60,62,63;,
 3;64,65,66;,
 3;64,66,67;,
 3;68,69,70;,
 3;68,70,71;,
 3;72,73,74;,
 3;72,74,75;,
 3;76,77,78;,
 3;76,78,79;,
 3;80,81,82;,
 3;80,82,83;,
 3;84,85,86;,
 3;84,86,87;,
 3;88,89,90;,
 3;88,90,91;,
 3;92,93,94;,
 3;92,94,95;,
 3;96,97,98;,
 3;96,98,99;,
 3;100,101,102;,
 3;100,102,103;,
 3;104,105,106;,
 3;104,106,107;,
 3;108,109,110;,
 3;108,110,111;,
 3;112,113,114;,
 3;112,114,115;,
 3;116,117,118;,
 3;116,118,119;,
 3;120,121,122;,
 3;120,122,123;,
 3;124,125,126;,
 3;124,126,127;,
 3;128,129,130;,
 3;128,130,131;;

 MeshMaterialList  {
  27;
  110;
  0,
  0,
  0,
  0,
  0,
  0,
  0,
  0,
  0,
  0,
  0,
  0,
  0,
  0,
  0,
  0,
  0,
  0,
  0,
  0,
  1,
  1,
  1,
  1,
  1,
  1,
  1,
  1,
  1,
  1,
  1,
  1,
  1,
  1,
  1,
  1,
  1,
  1,
  1,
  1,
  2,
  2,
  2,
  2,
  2,
  2,
  2,
  2,
  2,
  2,
  2,
  2,
  3,
  3,
  3,
  3,
  3,
  3,
  3,
  3,
  3,
  3,
  3,
  3,
  4,
  4,
  5,
  5,
  6,
  6,
  7,
  7,
  8,
  8,
  9,
  9,
  10,
  10,
  11,
  11,
  12,
  12,
  13,
  13,
  14,
  14,
  15,
  15,
  16,
  16,
  17,
  17,
  18,
  18,
  19,
  19,
  20,
  20,
  21,
  21,
  22,
  22,
  23,
  23,
  24,
  24,
  25,
  25,
  26,
  26;

  Material  {
   0.690196;0.690196;0.690196;1.000000;;
   0.000000;
   0.000000;0.000000;0.000000;;
   0.000000;0.000000;0.000000;;
  }

  Material  {
   0.690196;0.690196;0.690196;1.000000;;
   0.000000;
   0.000000;0.000000;0.000000;;
   0.000000;0.000000;0.000000;;
  }

  Material  {
   0.690196;0.690196;0.690196;1.000000;;
   0.000000;
   0.000000;0.000000;0.000000;;
   0.000000;0.000000;0.000000;;
  }

  Material  {
   0.690196;0.690196;0.690196;1.000000;;
   0.000000;
   0.000000;0.000000;0.000000;;
   0.000000;0.000000;0.000000;;
  }

  Material  {
   0.627451;0.627451;0.690196;1.000000;;
   0.000000;
   0.000000;0.000000;0.000000;;
   0.000000;0.000000;0.000000;;
  }

  Material  {
   0.690196;0.690196;0.752941;1.000000;;
   0.000000;
   0.000000;0.000000;0.000000;;
   0.000000;0.000000;0.000000;;
  }

  Material  {
   0.627451;0.627451;0.690196;1.000000;;
   0.000000;
   0.000000;0.000000;0.000000;;
   0.000000;0.000000;0.000000;;
  }

  Material  {
   0.627451;0.627451;0.690196;1.000000;;
   0.000000;
   0.000000;0.000000;0.000000;;
   0.000000;0.000000;0.000000;;
  }

  Material  {
   0.690196;0.690196;0.752941;1.000000;;
   0.000000;
   0.000000;0.000000;0.000000;;
   0.000000;0.000000;0.000000;;
  }

  Material  {
   0.690196;0.690196;0.752941;1.000000;;
   0.000000;
   0.000000;0.000000;0.000000;;
   0.000000;0.000000;0.000000;;
  }

  Material  {
   0.690196;0.690196;0.752941;1.000000;;
   0.000000;
   0.000000;0.000000;0.000000;;
   0.000000;0.000000;0.000000;;
  }

  Material  {
   0.690196;0.690196;0.752941;1.000000;;
   0.000000;
   0.000000;0.000000;0.000000;;
   0.000000;0.000000;0.000000;;
  }

  Material  {
   0.690196;0.690196;0.752941;1.000000;;
   0.000000;
   0.000000;0.000000;0.000000;;
   0.000000;0.000000;0.000000;;
  }

  Material  {
   0.690196;0.690196;0.752941;1.000000;;
   0.000000;
   0.000000;0.000000;0.000000;;
   0.000000;0.000000;0.000000;;
  }

  Material  {
   0.690196;0.690196;0.752941;1.000000;;
   0.000000;
   0.000000;0.000000;0.000000;;
   0.000000;0.000000;0.000000;;
  }

  Material  {
   0.690196;0.690196;0.752941;1.000000;;
   0.000000;
   0.000000;0.000000;0.000000;;
   0.000000;0.000000;0.000000;;
  }

  Material  {
   0.690196;0.690196;0.752941;1.000000;;
   0.000000;
   0.000000;0.000000;0.000000;;
   0.000000;0.000000;0.000000;;
  }

  Material  {
   0.627451;0.627451;0.690196;1.000000;;
   0.000000;
   0.000000;0.000000;0.000000;;
   0.000000;0.000000;0.000000;;
  }

  Material  {
   0.627451;0.627451;0.690196;1.000000;;
   0.000000;
   0.000000;0.000000;0.000000;;
   0.000000;0.000000;0.000000;;
  }

  Material  {
   0.627451;0.627451;0.690196;1.000000;;
   0.000000;
   0.000000;0.000000;0.000000;;
   0.000000;0.000000;0.000000;;
  }

  Material  {
   0.627451;0.627451;0.690196;1.000000;;
   0.000000;
   0.000000;0.000000;0.000000;;
   0.000000;0.000000;0.000000;;
  }

  Material  {
   0.627451;0.627451;0.690196;1.000000;;
   0.000000;
   0.000000;0.000000;0.000000;;
   0.000000;0.000000;0.000000;;
  }

  Material  {
   0.627451;0.627451;0.690196;1.000000;;
   0.000000;
   0.000000;0.000000;0.000000;;
   0.000000;0.000000;0.000000;;
  }

  Material  {
   0.627451;0.627451;0.690196;1.000000;;
   0.000000;
   0.000000;0.000000;0.000000;;
   0.000000;0.000000;0.000000;;
  }

  Material  {
   0.627451;0.627451;0.690196;1.000000;;
   0.000000;
   0.000000;0.000000;0.000000;;
   0.000000;0.000000;0.000000;;
  }

  Material  {
   0.627451;0.627451;0.690196;1.000000;;
   0.000000;
   0.000000;0.000000;0.000000;;
   0.000000;0.000000;0.000000;;
  }

  Material  {
   0.627451;0.627451;0.690196;1.000000;;
   0.000000;
   0.000000;0.000000;0.000000;;
   0.000000;0.000000;0.000000;;
  }
 }

 MeshTextureCoords  {
  132;
  0.000000;0.000000;,
  0.000000;0.000000;,
  0.000000;0.000000;,
  0.000000;0.000000;,
  0.000000;0.000000;,
  0.000000;0.000000;,
  0.000000;0.000000;,
  0.000000;0.000000;,
  0.000000;0.000000;,
  0.000000;0.000000;,
  0.000000;0.000000;,
  0.000000;0.000000;,
  0.000000;0.000000;,
  0.000000;0.000000;,
  0.000000;0.000000;,
  0.000000;0.000000;,
  0.000000;0.000000;,
  0.000000;0.000000;,
  0.000000;0.000000;,
  0.000000;0.000000;,
  0.000000;0.000000;,
  0.000000;0.000000;,
  0.000000;0.000000;,
  0.000000;0.000000;,
  0.000000;0.000000;,
  0.000000;0.000000;,
  0.000000;0.000000;,
  0.000000;0.000000;,
  0.000000;0.000000;,
  0.000000;0.000000;,
  0.000000;0.000000;,
  0.000000;0.000000;,
  0.000000;0.000000;,
  0.000000;0.000000;,
  0.000000;0.000000;,
  0.000000;0.000000;,
  0.000000;0.000000;,
  0.000000;0.000000;,
  0.000000;0.000000;,
  0.000000;0.000000;,
  0.000000;0.000000;,
  0.000000;0.000000;,
  0.000000;0.000000;,
  0.000000;0.000000;,
  0.000000;0.000000;,
  0.000000;0.000000;,
  0.000000;0.000000;,
  0.000000;0.000000;,
  0.000000;0.000000;,
  0.000000;0.000000;,
  0.000000;0.000000;,
  0.000000;0.000000;,
  0.000000;0.000000;,
  0.000000;0.000000;,
  0.000000;0.000000;,
  0.000000;0.000000;,
  0.000000;0.000000;,
  0.000000;0.000000;,
  0.000000;0.000000;,
  0.000000;0.000000;,
  0.000000;0.000000;,
  0.000000;0.000000;,
  0.000000;0.000000;,
  0.000000;0.000000;,
  0.000000;0.000000;,
  0.000000;0.000000;,
  0.000000;0.000000;,
  0.000000;0.000000;,
  0.000000;0.000000;,
  0.000000;0.000000;,
  0.000000;0.000000;,
  0.000000;0.000000;,
  0.000000;0.000000;,
  0.000000;0.000000;,
  0.000000;0.000000;,
  0.000000;0.000000;,
  0.000000;0.000000;,
  0.000000;0.000000;,
  0.000000;0.000000;,
  0.000000;0.000000;,
  0.000000;0.000000;,
  0.000000;0.000000;,
  0.000000;0.000000;,
  0.000000;0.000000;,
  0.000000;0.000000;,
  0.000000;0.000000;,
  0.000000;0.000000;,
  0.000000;0.000000;,
  0.000000;0.000000;,
  0.000000;0.000000;,
  0.000000;0.000000;,
  0.000000;0.000000;,
  0.000000;0.000000;,
  0.000000;0.000000;,
  0.000000;0.000000;,
  0.000000;0.000000;,
  0.000000;0.000000;,
  0.000000;0.000000;,
  0.000000;0.000000;,
  0.000000;0.000000;,
  0.000000;0.000000;,
  0.000000;0.000000;,
  0.000000;0.000000;,
  0.000000;0.000000;,
  0.000000;0.000000;,
  0.000000;0.000000;,
  0.000000;0.000000;,
  0.000000;0.000000;,
  0.000000;0.000000;,
  0.000000;0.000000;,
  0.000000;0.000000;,
  0.000000;0.000000;,
  0.000000;0.000000;,
  0.000000;0.000000;,
  0.000000;0.000000;,
  0.000000;0.000000;,
  0.000000;0.000000;,
  0.000000;0.000000;,
  0.000000;0.000000;,
  0.000000;0.000000;,
  0.000000;0.000000;,
  0.000000;0.000000;,
  0.000000;0.000000;,
  0.000000;0.000000;,
  0.000000;0.000000;,
  0.000000;0.000000;,
  0.000000;0.000000;,
  0.000000;0.000000;,
  0.000000;0.000000;,
  0.000000;0.000000;,
  0.000000;0.000000;,
  0.000000;0.000000;;
 }

 MeshNormals  {
  94;
  0.965926;0.000000;-0.258819;,
  1.000000;0.000000;0.000000;,
  0.500000;0.000000;0.866025;,
  0.258819;0.000000;0.965926;,
  -0.500000;0.000000;0.866025;,
  -0.707107;0.000000;0.707107;,
  -1.000000;0.000000;0.000000;,
  -0.965926;0.000000;-0.258819;,
  -0.500000;0.000000;-0.866025;,
  -0.258819;0.000000;-0.965926;,
  0.500000;0.000000;-0.866025;,
  0.707107;0.000000;-0.707107;,
  0.965926;0.000000;-0.258819;,
  1.000000;0.000000;0.000000;,
  0.500000;0.000000;0.866025;,
  0.258819;0.000000;0.965926;,
  -0.500000;0.000000;0.866025;,
  -0.707107;0.000000;0.707107;,
  -1.000000;0.000000;0.000000;,
  -0.965926;0.000000;-0.258819;,
  -0.500000;0.000000;-0.866025;,
  -0.258819;0.000000;-0.965926;,
  0.500000;0.000000;-0.866025;,
  0.707107;0.000000;-0.707107;,
  0.000000;0.000000;-1.000000;,
  0.000000;0.000000;-1.000000;,
  -1.000000;0.000000;0.000000;,
  -1.000000;0.000000;0.000000;,
  0.000000;0.000000;1.000000;,
  0.000000;0.000000;1.000000;,
  1.000000;0.000000;0.000000;,
  1.000000;0.000000;0.000000;,
  0.000000;1.000000;0.000000;,
  0.000000;1.000000;0.000000;,
  0.000000;-1.000000;0.000000;,
  0.000000;-1.000000;0.000000;,
  0.000000;0.000000;-1.000000;,
  0.000000;0.000000;-1.000000;,
  -1.000000;0.000000;0.000000;,
  -1.000000;0.000000;0.000000;,
  0.000000;0.000000;1.000000;,
  0.000000;0.000000;1.000000;,
  1.000000;0.000000;0.000000;,
  1.000000;0.000000;0.000000;,
  0.000000;1.000000;0.000000;,
  0.000000;1.000000;0.000000;,
  0.000000;-1.000000;0.000000;,
  0.000000;-1.000000;0.000000;,
  0.000000;0.000000;-1.000000;,
  0.000000;0.000000;-1.000000;,
  0.000000;0.000000;-1.000000;,
  0.000000;0.000000;-1.000000;,
  0.000000;0.000000;-1.000000;,
  0.000000;0.000000;-1.000000;,
  0.000000;0.000000;-1.000000;,
  0.000000;0.000000;-1.000000;,
  0.000000;0.000000;-1.000000;,
  0.000000;0.000000;-1.000000;,
  0.000000;0.000000;-1.000000;,
  0.000000;0.000000;-1.000000;,
  0.000000;0.000000;-1.000000;,
  0.000000;0.000000;-1.000000;,
  0.000000;0.000000;-1.000000;,
  0.000000;0.000000;-1.000000;,
  0.000000;0.000000;-1.000000;,
  0.000000;0.000000;-1.000000;,
  0.000000;0.000000;-1.000000;,
  0.000000;0.000000;-1.000000;,
  0.000000;0.000000;-1.000000;,
  0.000000;0.000000;-1.000000;,
  0.000000;0.000000;-1.000000;,
  0.000000;0.000000;-1.000000;,
  0.000000;0.000000;-1.000000;,
  0.000000;0.000000;-1.000000;,
  0.000000;0.000000;-1.000000;,
  0.000000;0.000000;-1.000000;,
  0.000000;0.000000;-1.000000;,
  0.000000;0.000000;-1.000000;,
  0.000000;0.000000;-1.000000;,
  0.000000;0.000000;-1.000000;,
  0.000000;0.000000;-1.000000;,
  0.000000;0.000000;-1.000000;,
  0.000000;0.000000;-1.000000;,
  0.000000;0.000000;-1.000000;,
  0.000000;0.000000;-1.000000;,
  0.000000;0.000000;-1.000000;,
  0.000000;0.000000;-1.000000;,
  0.000000;0.000000;-1.000000;,
  0.000000;0.000000;-1.000000;,
  0.000000;0.000000;-1.000000;,
  0.000000;0.000000;-1.000000;,
  0.000000;0.000000;-1.000000;,
  0.000000;0.000000;-1.000000;,
  0.000000;0.000000;-1.000000;;
  110;
  3;1,0,2;,
  3;1,2,3;,
  3;3,2,4;,
  3;3,4,5;,
  3;5,4,6;,
  3;5,6,7;,
  3;7,6,8;,
  3;7,8,9;,
  3;9,8,10;,
  3;9,10,11;,
  3;11,10,0;,
  3;11,0,1;,
  3;10,8,6;,
  3;10,6,4;,
  3;10,4,2;,
  3;10,2,0;,
  3;1,3,5;,
  3;1,5,7;,
  3;1,7,9;,
  3;1,9,11;,
  3;13,12,14;,
  3;13,14,15;,
  3;15,14,16;,
  3;15,16,17;,
  3;17,16,18;,
  3;17,18,19;,
  3;19,18,20;,
  3;19,20,21;,
  3;21,20,22;,
  3;21,22,23;,
  3;23,22,12;,
  3;23,12,13;,
  3;22,20,18;,
  3;22,18,16;,
  3;22,16,14;,
  3;22,14,12;,
  3;13,15,17;,
  3;13,17,19;,
  3;13,19,21;,
  3;13,21,23;,
  3;24,24,24;,
  3;25,25,25;,
  3;26,26,26;,
  3;27,27,27;,
  3;28,28,28;,
  3;29,29,29;,
  3;30,30,30;,
  3;31,31,31;,
  3;32,32,32;,
  3;33,33,33;,
  3;34,34,34;,
  3;35,35,35;,
  3;36,36,36;,
  3;37,37,37;,
  3;38,38,38;,
  3;39,39,39;,
  3;40,40,40;,
  3;41,41,41;,
  3;42,42,42;,
  3;43,43,43;,
  3;44,44,44;,
  3;45,45,45;,
  3;46,46,46;,
  3;47,47,47;,
  3;48,48,48;,
  3;49,49,49;,
  3;50,50,50;,
  3;51,51,51;,
  3;52,52,52;,
  3;53,53,53;,
  3;54,54,54;,
  3;55,55,55;,
  3;56,56,56;,
  3;57,57,57;,
  3;58,58,58;,
  3;59,59,59;,
  3;60,60,60;,
  3;61,61,61;,
  3;62,62,62;,
  3;63,63,63;,
  3;64,64,64;,
  3;65,65,65;,
  3;66,66,66;,
  3;67,67,67;,
  3;68,68,68;,
  3;69,69,69;,
  3;70,70,70;,
  3;71,71,71;,
  3;72,72,72;,
  3;73,73,73;,
  3;74,74,74;,
  3;75,75,75;,
  3;76,76,76;,
  3;77,77,77;,
  3;78,78,78;,
  3;79,79,79;,
  3;80,80,80;,
  3;81,81,81;,
  3;82,82,82;,
  3;83,83,83;,
  3;84,84,84;,
  3;85,85,85;,
  3;86,86,86;,
  3;87,87,87;,
  3;88,88,88;,
  3;89,89,89;,
  3;90,90,90;,
  3;91,91,91;,
  3;92,92,92;,
  3;93,93,93;;
 }
}