xof 0303txt 0032
template Vector {
 <3d82ab5e-62da-11cf-ab39-0020af71e433>
 FLOAT x;
 FLOAT y;
 FLOAT z;
}

template MeshFace {
 <3d82ab5f-62da-11cf-ab39-0020af71e433>
 DWORD nFaceVertexIndices;
 array DWORD faceVertexIndices[nFaceVertexIndices];
}

template Mesh {
 <3d82ab44-62da-11cf-ab39-0020af71e433>
 DWORD nVertices;
 array Vector vertices[nVertices];
 DWORD nFaces;
 array MeshFace faces[nFaces];
 [...]
}

template ColorRGBA {
 <35ff44e0-6c7c-11cf-8f52-0040333594a3>
 FLOAT red;
 FLOAT green;
 FLOAT blue;
 FLOAT alpha;
}

template ColorRGB {
 <d3e16e81-7835-11cf-8f52-0040333594a3>
 FLOAT red;
 FLOAT green;
 FLOAT blue;
}

template Material {
 <3d82ab4d-62da-11cf-ab39-0020af71e433>
 ColorRGBA faceColor;
 FLOAT power;
 ColorRGB specularColor;
 ColorRGB emissiveColor;
 [...]
}

template MeshMaterialList {
 <f6f23f42-7686-11cf-8f52-0040333594a3>
 DWORD nMaterials;
 DWORD nFaceIndexes;
 array DWORD faceIndexes[nFaceIndexes];
 [Material <3d82ab4d-62da-11cf-ab39-0020af71e433>]
}

template TextureFilename {
 <a42790e1-7810-11cf-8f52-0040333594a3>
 STRING filename;
}

template Coords2d {
 <f6f23f44-7686-11cf-8f52-0040333594a3>
 FLOAT u;
 FLOAT v;
}

template MeshTextureCoords {
 <f6f23f40-7686-11cf-8f52-0040333594a3>
 DWORD nTextureCoords;
 array Coords2d textureCoords[nTextureCoords];
}

template MeshNormals {
 <f6f23f43-7686-11cf-8f52-0040333594a3>
 DWORD nNormals;
 array Vector normals[nNormals];
 DWORD nFaceNormals;
 array MeshFace faceNormals[nFaceNormals];
}


Mesh  {
 36;
 -1.500000;4.700000;25.299999;,
 -1.500000;4.700000;0.000000;,
 -2.700000;4.700000;0.000000;,
 -2.700000;4.700000;25.299999;,
 -1.500000;4.700000;25.299999;,
 -1.500000;4.700000;0.000000;,
 -1.500000;4.400000;0.000000;,
 -1.500000;4.400000;25.299999;,
 -3.050000;4.500000;25.100000;,
 -3.050000;4.700000;25.100000;,
 -3.050000;4.700000;0.000000;,
 -3.050000;4.500000;0.000000;,
 -3.050000;1.100000;0.000000;,
 -3.050000;1.100000;0.100000;,
 -3.050000;4.500000;0.100000;,
 -3.050000;4.500000;12.400000;,
 -3.050000;1.100000;12.400000;,
 -3.050000;1.100000;12.600000;,
 -3.050000;4.500000;12.600000;,
 -3.050000;4.500000;24.900000;,
 -3.050000;1.100000;24.900000;,
 -3.050000;1.100000;25.100000;,
 -3.250000;4.500000;25.100000;,
 -3.250000;4.700000;25.100000;,
 -3.250000;4.700000;0.000000;,
 -3.250000;4.500000;0.000000;,
 -3.250000;1.100000;0.000000;,
 -3.250000;1.100000;0.100000;,
 -3.250000;4.500000;0.100000;,
 -3.250000;4.500000;12.400000;,
 -3.250000;1.100000;12.400000;,
 -3.250000;1.100000;12.600000;,
 -3.250000;4.500000;12.600000;,
 -3.250000;4.500000;24.900000;,
 -3.250000;1.100000;24.900000;,
 -3.250000;1.100000;25.100000;;
 30;
 3;3,2,1;,
 3;3,1,0;,
 3;7,6,5;,
 3;7,5,4;,
 3;4,5,6;,
 3;4,6,7;,
 3;11,10,9;,
 3;11,9,8;,
 3;14,13,12;,
 3;14,12,11;,
 3;18,17,16;,
 3;18,16,15;,
 3;8,21,20;,
 3;8,20,19;,
 3;22,23,24;,
 3;22,24,25;,
 3;25,26,27;,
 3;25,27,28;,
 3;29,30,31;,
 3;29,31,32;,
 3;33,34,35;,
 3;33,35,22;,
 3;22,25,11;,
 3;22,11,8;,
 3;26,24,10;,
 3;26,10,12;,
 3;30,29,15;,
 3;30,15,16;,
 3;34,33,19;,
 3;34,19,20;;

 MeshMaterialList  {
  3;
  30;
  0,
  0,
  1,
  1,
  1,
  1,
  2,
  2,
  2,
  2,
  2,
  2,
  2,
  2,
  2,
  2,
  2,
  2,
  2,
  2,
  2,
  2,
  2,
  2,
  2,
  2,
  2,
  2,
  2,
  2;

  Material  {
   0.501961;0.501961;0.501961;1.000000;;
   0.000000;
   0.000000;0.000000;0.000000;;
   0.000000;0.000000;0.000000;;

   TextureFilename  {
    "Roof.png";
   }
  }

  Material  {
   1.000000;1.000000;1.000000;1.000000;;
   0.000000;
   0.000000;0.000000;0.000000;;
   0.000000;0.000000;0.000000;;

   TextureFilename  {
    "Roof.png";
   }
  }

  Material  {
   0.752941;0.752941;0.690196;1.000000;;
   0.000000;
   0.000000;0.000000;0.000000;;
   0.000000;0.000000;0.000000;;
  }
 }

 MeshTextureCoords  {
  36;
  0.000000;4.000000;,
  0.000000;0.000000;,
  1.000000;0.000000;,
  1.000000;4.000000;,
  0.000000;4.000000;,
  0.000000;0.000000;,
  1.000000;0.000000;,
  1.000000;4.000000;,
  0.000000;0.000000;,
  0.000000;0.000000;,
  0.000000;0.000000;,
  0.000000;0.000000;,
  0.000000;0.000000;,
  0.000000;0.000000;,
  0.000000;0.000000;,
  0.000000;0.000000;,
  0.000000;0.000000;,
  0.000000;0.000000;,
  0.000000;0.000000;,
  0.000000;0.000000;,
  0.000000;0.000000;,
  0.000000;0.000000;,
  0.000000;0.000000;,
  0.000000;0.000000;,
  0.000000;0.000000;,
  0.000000;0.000000;,
  0.000000;0.000000;,
  0.000000;0.000000;,
  0.000000;0.000000;,
  0.000000;0.000000;,
  0.000000;0.000000;,
  0.000000;0.000000;,
  0.000000;0.000000;,
  0.000000;0.000000;,
  0.000000;0.000000;,
  0.000000;0.000000;;
 }

 MeshNormals  {
  30;
  0.000000;-1.000000;0.000000;,
  0.000000;-1.000000;0.000000;,
  1.000000;0.000000;0.000000;,
  1.000000;0.000000;0.000000;,
  -1.000000;0.000000;0.000000;,
  -1.000000;0.000000;0.000000;,
  1.000000;0.000000;0.000000;,
  1.000000;0.000000;0.000000;,
  1.000000;0.000000;0.000000;,
  1.000000;0.000000;0.000000;,
  1.000000;0.000000;0.000000;,
  1.000000;0.000000;0.000000;,
  1.000000;0.000000;0.000000;,
  1.000000;0.000000;0.000000;,
  -1.000000;0.000000;0.000000;,
  -1.000000;0.000000;0.000000;,
  -1.000000;0.000000;0.000000;,
  -1.000000;0.000000;0.000000;,
  -1.000000;0.000000;0.000000;,
  -1.000000;0.000000;0.000000;,
  -1.000000;0.000000;0.000000;,
  -1.000000;0.000000;0.000000;,
  0.000000;-1.000000;0.000000;,
  0.000000;-1.000000;0.000000;,
  0.000000;0.000000;-1.000000;,
  0.000000;0.000000;-1.000000;,
  0.000000;0.000000;-1.000000;,
  0.000000;0.000000;-1.000000;,
  0.000000;0.000000;-1.000000;,
  0.000000;0.000000;-1.000000;;
  30;
  3;0,0,0;,
  3;1,1,1;,
  3;2,2,2;,
  3;3,3,3;,
  3;4,4,4;,
  3;5,5,5;,
  3;6,6,6;,
  3;7,7,7;,
  3;8,8,8;,
  3;9,9,9;,
  3;10,10,10;,
  3;11,11,11;,
  3;12,12,12;,
  3;13,13,13;,
  3;14,14,14;,
  3;15,15,15;,
  3;16,16,16;,
  3;17,17,17;,
  3;18,18,18;,
  3;19,19,19;,
  3;20,20,20;,
  3;21,21,21;,
  3;22,22,22;,
  3;23,23,23;,
  3;24,24,24;,
  3;25,25,25;,
  3;26,26,26;,
  3;27,27,27;,
  3;28,28,28;,
  3;29,29,29;;
 }
}