xof 0303txt 0032
template Vector {
 <3d82ab5e-62da-11cf-ab39-0020af71e433>
 FLOAT x;
 FLOAT y;
 FLOAT z;
}

template MeshFace {
 <3d82ab5f-62da-11cf-ab39-0020af71e433>
 DWORD nFaceVertexIndices;
 array DWORD faceVertexIndices[nFaceVertexIndices];
}

template Mesh {
 <3d82ab44-62da-11cf-ab39-0020af71e433>
 DWORD nVertices;
 array Vector vertices[nVertices];
 DWORD nFaces;
 array MeshFace faces[nFaces];
 [...]
}

template ColorRGBA {
 <35ff44e0-6c7c-11cf-8f52-0040333594a3>
 FLOAT red;
 FLOAT green;
 FLOAT blue;
 FLOAT alpha;
}

template ColorRGB {
 <d3e16e81-7835-11cf-8f52-0040333594a3>
 FLOAT red;
 FLOAT green;
 FLOAT blue;
}

template Material {
 <3d82ab4d-62da-11cf-ab39-0020af71e433>
 ColorRGBA faceColor;
 FLOAT power;
 ColorRGB specularColor;
 ColorRGB emissiveColor;
 [...]
}

template MeshMaterialList {
 <f6f23f42-7686-11cf-8f52-0040333594a3>
 DWORD nMaterials;
 DWORD nFaceIndexes;
 array DWORD faceIndexes[nFaceIndexes];
 [Material <3d82ab4d-62da-11cf-ab39-0020af71e433>]
}

template TextureFilename {
 <a42790e1-7810-11cf-8f52-0040333594a3>
 STRING filename;
}

template Coords2d {
 <f6f23f44-7686-11cf-8f52-0040333594a3>
 FLOAT u;
 FLOAT v;
}

template MeshTextureCoords {
 <f6f23f40-7686-11cf-8f52-0040333594a3>
 DWORD nTextureCoords;
 array Coords2d textureCoords[nTextureCoords];
}

template MeshNormals {
 <f6f23f43-7686-11cf-8f52-0040333594a3>
 DWORD nNormals;
 array Vector normals[nNormals];
 DWORD nFaceNormals;
 array MeshFace faceNormals[nFaceNormals];
}


Mesh  {
 28;
 2.600000;-0.600000;0.000000;,
 1.900000;-0.600000;0.000000;,
 1.900000;-1.500000;0.000000;,
 -1.900000;-1.500000;0.000000;,
 2.600000;-0.600000;28.000000;,
 1.900000;-0.600000;28.000000;,
 1.900000;-1.500000;28.000000;,
 -1.900000;-1.500000;28.000000;,
 1.900000;-0.450000;0.000000;,
 1.900000;-0.144000;0.000000;,
 2.500000;-0.144000;0.000000;,
 1.900000;-0.450000;25.299999;,
 1.900000;-0.144000;25.299999;,
 2.500000;-0.144000;25.299999;,
 2.500000;-0.144000;0.000000;,
 2.500000;1.200000;0.000000;,
 2.600000;1.200000;0.000000;,
 2.600000;-0.600000;0.000000;,
 2.500000;-0.144000;25.299999;,
 2.500000;1.200000;25.299999;,
 2.600000;1.200000;25.299999;,
 2.600000;-0.600000;25.299999;,
 1.900000;-0.450000;0.000000;,
 1.900000;-0.144000;0.000000;,
 2.500000;-0.144000;0.000000;,
 2.500000;1.200000;0.000000;,
 2.600000;1.200000;0.000000;,
 2.600000;-0.450000;0.000000;;
 20;
 3;4,5,1;,
 3;4,1,0;,
 3;5,6,2;,
 3;5,2,1;,
 3;6,7,3;,
 3;6,3,2;,
 3;11,12,9;,
 3;11,9,8;,
 3;12,13,10;,
 3;12,10,9;,
 3;18,19,15;,
 3;18,15,14;,
 3;19,20,16;,
 3;19,16,15;,
 3;20,21,17;,
 3;20,17,16;,
 3;27,24,23;,
 3;27,23,22;,
 3;27,26,25;,
 3;27,25,24;;

 MeshMaterialList  {
  4;
  20;
  0,
  0,
  0,
  0,
  0,
  0,
  1,
  1,
  1,
  1,
  2,
  2,
  2,
  2,
  2,
  2,
  3,
  3,
  3,
  3;

  Material  {
   1.000000;1.000000;1.000000;1.000000;;
   0.000000;
   0.000000;0.000000;0.000000;;
   0.000000;0.000000;0.000000;;

   TextureFilename  {
    "Bottom.png";
   }
  }

  Material  {
   1.000000;1.000000;1.000000;1.000000;;
   0.000000;
   0.000000;0.000000;0.000000;;
   0.000000;0.000000;0.000000;;

   TextureFilename  {
    "Slab2.png";
   }
  }

  Material  {
   1.000000;1.000000;1.000000;1.000000;;
   0.000000;
   0.000000;0.000000;0.000000;;
   0.000000;0.000000;0.000000;;

   TextureFilename  {
    "Wall.png";
   }
  }

  Material  {
   0.627451;0.619608;0.596078;1.000000;;
   0.000000;
   0.000000;0.000000;0.000000;;
   0.000000;0.000000;0.000000;;
  }
 }

 MeshTextureCoords  {
  28;
  6.000000;0.000000;,
  6.000000;0.250000;,
  6.000000;0.500000;,
  6.000000;1.000000;,
  0.000000;0.000000;,
  0.000000;0.250000;,
  0.000000;0.500000;,
  0.000000;1.000000;,
  0.000000;1.000000;,
  0.750000;1.000000;,
  1.000000;1.000000;,
  0.000000;0.000000;,
  0.750000;0.000000;,
  1.000000;0.000000;,
  0.000000;1.000000;,
  0.000000;0.000000;,
  0.000000;0.010000;,
  0.000000;1.000000;,
  5.000000;1.000000;,
  5.000000;0.000000;,
  5.000000;0.010000;,
  5.000000;1.000000;,
  0.000000;0.000000;,
  0.000000;0.000000;,
  0.000000;0.000000;,
  0.000000;0.000000;,
  0.000000;0.000000;,
  0.000000;0.000000;;
 }

 MeshNormals  {
  20;
  0.000000;-1.000000;0.000000;,
  0.000000;-1.000000;0.000000;,
  1.000000;0.000000;0.000000;,
  1.000000;0.000000;0.000000;,
  0.000000;-1.000000;0.000000;,
  0.000000;-1.000000;0.000000;,
  -1.000000;0.000000;0.000000;,
  -1.000000;0.000000;0.000000;,
  0.000000;1.000000;0.000000;,
  0.000000;1.000000;0.000000;,
  -1.000000;0.000000;0.000000;,
  -1.000000;0.000000;0.000000;,
  0.000000;1.000000;0.000000;,
  0.000000;1.000000;0.000000;,
  1.000000;0.000000;0.000000;,
  1.000000;0.000000;0.000000;,
  0.000000;0.000000;1.000000;,
  0.000000;0.000000;1.000000;,
  0.000000;0.000000;1.000000;,
  0.000000;0.000000;1.000000;;
  20;
  3;0,0,0;,
  3;1,1,1;,
  3;2,2,2;,
  3;3,3,3;,
  3;4,4,4;,
  3;5,5,5;,
  3;6,6,6;,
  3;7,7,7;,
  3;8,8,8;,
  3;9,9,9;,
  3;10,10,10;,
  3;11,11,11;,
  3;12,12,12;,
  3;13,13,13;,
  3;14,14,14;,
  3;15,15,15;,
  3;16,16,16;,
  3;17,17,17;,
  3;18,18,18;,
  3;19,19,19;;
 }
}