xof 0303txt 0032
template Vector {
 <3d82ab5e-62da-11cf-ab39-0020af71e433>
 FLOAT x;
 FLOAT y;
 FLOAT z;
}

template MeshFace {
 <3d82ab5f-62da-11cf-ab39-0020af71e433>
 DWORD nFaceVertexIndices;
 array DWORD faceVertexIndices[nFaceVertexIndices];
}

template Mesh {
 <3d82ab44-62da-11cf-ab39-0020af71e433>
 DWORD nVertices;
 array Vector vertices[nVertices];
 DWORD nFaces;
 array MeshFace faces[nFaces];
 [...]
}

template MeshNormals {
 <f6f23f43-7686-11cf-8f52-0040333594a3>
 DWORD nNormals;
 array Vector normals[nNormals];
 DWORD nFaceNormals;
 array MeshFace faceNormals[nFaceNormals];
}

template Coords2d {
 <f6f23f44-7686-11cf-8f52-0040333594a3>
 FLOAT u;
 FLOAT v;
}

template MeshTextureCoords {
 <f6f23f40-7686-11cf-8f52-0040333594a3>
 DWORD nTextureCoords;
 array Coords2d textureCoords[nTextureCoords];
}

template ColorRGBA {
 <35ff44e0-6c7c-11cf-8f52-0040333594a3>
 FLOAT red;
 FLOAT green;
 FLOAT blue;
 FLOAT alpha;
}

template ColorRGB {
 <d3e16e81-7835-11cf-8f52-0040333594a3>
 FLOAT red;
 FLOAT green;
 FLOAT blue;
}

template Material {
 <3d82ab4d-62da-11cf-ab39-0020af71e433>
 ColorRGBA faceColor;
 FLOAT power;
 ColorRGB specularColor;
 ColorRGB emissiveColor;
 [...]
}

template MeshMaterialList {
 <f6f23f42-7686-11cf-8f52-0040333594a3>
 DWORD nMaterials;
 DWORD nFaceIndexes;
 array DWORD faceIndexes[nFaceIndexes];
 [Material <3d82ab4d-62da-11cf-ab39-0020af71e433>]
}

template TextureFilename {
 <a42790e1-7810-11cf-8f52-0040333594a3>
 STRING filename;
}


Mesh {
 12;
 -1.000000;-0.153000;0.000000;,
 1.000000;-0.153000;0.000000;,
 2.500000;-0.300000;0.000000;,
 3.000000;-0.500000;0.000000;,
 -1.000000;-10.499999;-5.000000;,
 1.000000;-10.499999;-5.000000;,
 3.000000;-10.499999;-5.000000;,
 12.999999;-10.499999;0.000000;,
 1.000000;-0.153000;0.000000;,
 1.000000;-10.499999;-5.000000;,
 3.000000;-0.500000;0.000000;,
 3.000000;-10.499999;-5.000000;;
 6;
 3;0,1,5;,
 3;0,5,4;,
 3;8,2,3;,
 3;8,3,6;,
 3;8,6,9;,
 3;10,7,11;;

 MeshNormals {
  12;
  0.000000;0.435095;-0.900385;,
  0.000000;0.435095;-0.900385;,
  0.000000;0.447214;-0.894427;,
  0.000000;0.447214;-0.894427;,
  0.000000;0.435095;-0.900385;,
  0.000000;0.435095;-0.900385;,
  0.000000;0.447214;-0.894427;,
  0.408248;0.408248;-0.816497;,
  0.000000;0.447214;-0.894427;,
  0.000000;0.447214;-0.894427;,
  0.408248;0.408248;-0.816497;,
  0.408248;0.408248;-0.816497;;
  6;
  3;0,1,5;,
  3;0,5,4;,
  3;8,2,3;,
  3;8,3,6;,
  3;8,6,9;,
  3;10,7,11;;
 }

 MeshTextureCoords {
  12;
  2.400000;0.000000;,
  2.800000;0.000000;,
  3.100000;0.000000;,
  3.200000;0.000000;,
  2.400000;2.000000;,
  2.800000;2.000000;,
  3.200000;2.000000;,
  5.200000;2.000000;,
  2.800000;0.000000;,
  2.800000;2.000000;,
  3.200000;0.000000;,
  3.200000;2.000000;;
 }

 MeshMaterialList {
  1;
  6;
  0,
  0,
  0,
  0,
  0,
  0;

  Material {
   1.000000;1.000000;1.000000;1.000000;;
   0.000000;
   0.000000;0.000000;0.000000;;
   0.000000;0.000000;0.000000;;

   TextureFilename {
    "ConcreteTileWall.dds";
   }
  }
 }
}