xof 0303txt 0032
template Vector {
 <3d82ab5e-62da-11cf-ab39-0020af71e433>
 FLOAT x;
 FLOAT y;
 FLOAT z;
}

template MeshFace {
 <3d82ab5f-62da-11cf-ab39-0020af71e433>
 DWORD nFaceVertexIndices;
 array DWORD faceVertexIndices[nFaceVertexIndices];
}

template Mesh {
 <3d82ab44-62da-11cf-ab39-0020af71e433>
 DWORD nVertices;
 array Vector vertices[nVertices];
 DWORD nFaces;
 array MeshFace faces[nFaces];
 [...]
}

template MeshNormals {
 <f6f23f43-7686-11cf-8f52-0040333594a3>
 DWORD nNormals;
 array Vector normals[nNormals];
 DWORD nFaceNormals;
 array MeshFace faceNormals[nFaceNormals];
}

template Coords2d {
 <f6f23f44-7686-11cf-8f52-0040333594a3>
 FLOAT u;
 FLOAT v;
}

template MeshTextureCoords {
 <f6f23f40-7686-11cf-8f52-0040333594a3>
 DWORD nTextureCoords;
 array Coords2d textureCoords[nTextureCoords];
}

template ColorRGBA {
 <35ff44e0-6c7c-11cf-8f52-0040333594a3>
 FLOAT red;
 FLOAT green;
 FLOAT blue;
 FLOAT alpha;
}

template ColorRGB {
 <d3e16e81-7835-11cf-8f52-0040333594a3>
 FLOAT red;
 FLOAT green;
 FLOAT blue;
}

template Material {
 <3d82ab4d-62da-11cf-ab39-0020af71e433>
 ColorRGBA faceColor;
 FLOAT power;
 ColorRGB specularColor;
 ColorRGB emissiveColor;
 [...]
}

template MeshMaterialList {
 <f6f23f42-7686-11cf-8f52-0040333594a3>
 DWORD nMaterials;
 DWORD nFaceIndexes;
 array DWORD faceIndexes[nFaceIndexes];
 [Material <3d82ab4d-62da-11cf-ab39-0020af71e433>]
}

template TextureFilename {
 <a42790e1-7810-11cf-8f52-0040333594a3>
 STRING filename;
}


Mesh {
 30;
 -3.000000;-0.500000;0.000000;,
 -2.500000;-0.300000;0.000000;,
 -1.000000;-0.296276;0.000000;,
 1.000000;-0.296276;0.000000;,
 2.500000;-0.300000;0.000000;,
 3.000000;-0.500000;0.000000;,
 -5.023260;-10.499996;0.000000;,
 -3.000000;-10.499996;-2.191054;,
 -1.000000;-10.499996;-2.191054;,
 1.000000;-10.499996;-2.191054;,
 3.000000;-10.499996;-2.191054;,
 5.023260;-10.499996;0.000000;,
 -3.000000;-0.500000;0.000000;,
 -3.000000;-10.499996;-2.191054;,
 1.000000;-0.296276;0.000000;,
 1.000000;-10.499996;-2.191054;,
 3.000000;-0.500000;0.000000;,
 3.000000;-10.499996;-2.191054;,
 -3.367612;-0.786176;0.000000;,
 -3.000000;-0.786176;-0.934435;,
 -1.000000;-0.786176;-1.015607;,
 -2.626226;-0.786176;-0.934435;,
 -3.000000;-0.786176;-0.934435;,
 1.000000;-0.786176;-1.015607;,
 -0.593757;-0.786176;-1.015606;,
 3.000000;-0.786176;-0.934435;,
 1.406243;-0.786176;-1.015606;,
 1.000000;-0.786176;-1.015606;,
 3.367610;-0.786176;0.000000;,
 3.000000;-0.786176;-0.934435;;
 26;
 3;7,6,18;,
 3;12,1,2;,
 3;12,2,20;,
 3;8,13,22;,
 3;2,3,23;,
 3;9,8,20;,
 3;14,4,5;,
 3;14,5,25;,
 3;10,15,27;,
 3;11,17,29;,
 3;18,19,7;,
 3;18,0,19;,
 3;20,21,12;,
 3;20,8,21;,
 3;22,21,8;,
 3;22,12,21;,
 3;23,24,2;,
 3;23,9,24;,
 3;20,24,9;,
 3;20,2,24;,
 3;25,26,14;,
 3;25,10,26;,
 3;27,26,10;,
 3;27,14,26;,
 3;29,28,11;,
 3;29,16,28;;

 MeshNormals {
  30;
  -0.408248;0.408248;-0.816497;,
  0.000000;0.435095;-0.900385;,
  0.000000;0.435095;-0.900385;,
  0.000000;0.435095;-0.900385;,
  0.000000;0.447214;-0.894427;,
  0.000000;0.447214;-0.894427;,
  -0.408248;0.408248;-0.816497;,
  -0.408248;0.408248;-0.816497;,
  0.000000;0.435095;-0.900385;,
  0.000000;0.435095;-0.900385;,
  0.000000;0.447214;-0.894427;,
  0.408248;0.408248;-0.816497;,
  0.000000;0.435095;-0.900385;,
  0.000000;0.435095;-0.900385;,
  0.000000;0.447214;-0.894427;,
  0.000000;0.447214;-0.894427;,
  0.408248;0.408248;-0.816497;,
  0.408248;0.408248;-0.816497;,
  -0.408248;0.408248;-0.816497;,
  -0.408248;0.408248;-0.816497;,
  0.000000;0.435095;-0.900385;,
  0.000000;0.435095;-0.900385;,
  0.000000;0.435095;-0.900385;,
  0.000000;0.435095;-0.900385;,
  0.000000;0.435095;-0.900385;,
  0.000000;0.447214;-0.894427;,
  0.000000;0.447214;-0.894427;,
  0.000000;0.447214;-0.894427;,
  0.408248;0.408248;-0.816497;,
  0.408248;0.408248;-0.816497;;
  26;
  3;7,6,18;,
  3;12,1,2;,
  3;12,2,20;,
  3;8,13,22;,
  3;2,3,23;,
  3;9,8,20;,
  3;14,4,5;,
  3;14,5,25;,
  3;10,15,27;,
  3;11,17,29;,
  3;18,19,7;,
  3;18,0,19;,
  3;20,21,12;,
  3;20,8,21;,
  3;22,21,8;,
  3;22,12,21;,
  3;23,24,2;,
  3;23,9,24;,
  3;20,24,9;,
  3;20,2,24;,
  3;25,26,14;,
  3;25,10,26;,
  3;27,26,10;,
  3;27,14,26;,
  3;29,28,11;,
  3;29,16,28;;
 }

 MeshTextureCoords {
  30;
  0.275438;0.018779;,
  0.313322;0.000000;,
  0.426577;0.000175;,
  0.577337;0.000877;,
  0.690226;0.001755;,
  0.727900;0.020834;,
  0.000000;0.986317;,
  0.257592;1.000000;,
  0.421417;0.999762;,
  0.584915;0.999525;,
  0.748086;0.999288;,
  1.000000;0.984951;,
  0.275438;0.018779;,
  0.257592;1.000000;,
  0.577337;0.000877;,
  0.584915;0.999525;,
  0.727900;0.020834;,
  0.748086;0.999288;,
  0.113369;0.216224;,
  0.269313;0.202872;,
  0.424787;0.202166;,
  0.298412;0.202972;,
  0.269313;0.202872;,
  0.580419;0.202699;,
  0.456423;0.202275;,
  0.735180;0.204464;,
  0.611995;0.202807;,
  0.580419;0.202699;,
  0.888573;0.218807;,
  0.735180;0.204464;;
 }

 MeshMaterialList {
  1;
  26;
  0,
  0,
  0,
  0,
  0,
  0,
  0,
  0,
  0,
  0,
  0,
  0,
  0,
  0,
  0,
  0,
  0,
  0,
  0,
  0,
  0,
  0,
  0,
  0,
  0,
  0;

  Material {
   1.000000;1.000000;1.000000;1.000000;;
   0.000000;
   0.000000;0.000000;0.000000;;
   0.000000;0.000000;0.000000;;

   TextureFilename {
    "Dike1.dds";
   }
  }
 }
}