xof 0303txt 0032
template Vector {
 <3d82ab5e-62da-11cf-ab39-0020af71e433>
 FLOAT x;
 FLOAT y;
 FLOAT z;
}

template MeshFace {
 <3d82ab5f-62da-11cf-ab39-0020af71e433>
 DWORD nFaceVertexIndices;
 array DWORD faceVertexIndices[nFaceVertexIndices];
}

template Mesh {
 <3d82ab44-62da-11cf-ab39-0020af71e433>
 DWORD nVertices;
 array Vector vertices[nVertices];
 DWORD nFaces;
 array MeshFace faces[nFaces];
 [...]
}

template ColorRGBA {
 <35ff44e0-6c7c-11cf-8f52-0040333594a3>
 FLOAT red;
 FLOAT green;
 FLOAT blue;
 FLOAT alpha;
}

template ColorRGB {
 <d3e16e81-7835-11cf-8f52-0040333594a3>
 FLOAT red;
 FLOAT green;
 FLOAT blue;
}

template Material {
 <3d82ab4d-62da-11cf-ab39-0020af71e433>
 ColorRGBA faceColor;
 FLOAT power;
 ColorRGB specularColor;
 ColorRGB emissiveColor;
 [...]
}

template MeshMaterialList {
 <f6f23f42-7686-11cf-8f52-0040333594a3>
 DWORD nMaterials;
 DWORD nFaceIndexes;
 array DWORD faceIndexes[nFaceIndexes];
 [Material <3d82ab4d-62da-11cf-ab39-0020af71e433>]
}

template TextureFilename {
 <a42790e1-7810-11cf-8f52-0040333594a3>
 STRING filename;
}

template Coords2d {
 <f6f23f44-7686-11cf-8f52-0040333594a3>
 FLOAT u;
 FLOAT v;
}

template MeshTextureCoords {
 <f6f23f40-7686-11cf-8f52-0040333594a3>
 DWORD nTextureCoords;
 array Coords2d textureCoords[nTextureCoords];
}

template MeshNormals {
 <f6f23f43-7686-11cf-8f52-0040333594a3>
 DWORD nNormals;
 array Vector normals[nNormals];
 DWORD nFaceNormals;
 array MeshFace faceNormals[nFaceNormals];
}


Mesh  {
 111;
 0.000000;3.800000;20.000000;,
 -1.000000;3.700000;20.000000;,
 -1.475000;3.600000;20.000000;,
 -1.475000;1.650000;20.000000;,
 -1.350000;0.900000;20.000000;,
 0.000000;3.800000;0.150000;,
 -1.000000;3.700000;0.150000;,
 -1.475000;3.600000;0.150000;,
 -1.475000;1.650000;0.150000;,
 -1.350000;0.900000;0.150000;,
 0.000000;3.800000;20.000000;,
 1.000000;3.700000;20.000000;,
 1.475000;3.600000;20.000000;,
 1.475000;1.650000;20.000000;,
 1.350000;0.900000;20.000000;,
 0.000000;3.800000;0.150000;,
 1.000000;3.700000;0.150000;,
 1.475000;3.600000;0.150000;,
 1.475000;1.650000;0.150000;,
 1.350000;0.900000;0.150000;,
 1.475000;3.800000;19.549999;,
 1.475000;1.650000;19.900000;,
 1.475000;1.160000;19.750000;,
 1.475000;1.160000;19.940001;,
 1.475000;0.900000;19.920000;,
 1.475000;0.400000;19.750000;,
 -1.475000;3.800000;19.549999;,
 -1.475000;1.650000;19.900000;,
 -1.475000;1.160000;19.750000;,
 -1.475000;1.160000;19.940001;,
 -1.475000;0.900000;19.920000;,
 -1.475000;0.400000;19.750000;,
 0.000000;3.800000;0.150000;,
 -1.000000;3.700000;0.150000;,
 -1.475000;3.600000;0.150000;,
 -1.475000;1.650000;0.150000;,
 -1.375000;0.900000;0.150000;,
 0.000000;3.800000;0.150000;,
 1.000000;3.700000;0.150000;,
 1.475000;3.600000;0.150000;,
 1.475000;1.650000;0.150000;,
 1.375000;0.900000;0.150000;,
 0.400000;3.300000;0.000000;,
 0.400000;1.100000;0.000000;,
 -0.400000;1.100000;0.000000;,
 -0.400000;3.300000;0.000000;,
 0.400000;3.300000;0.150000;,
 0.400000;1.100000;0.150000;,
 -0.400000;1.100000;0.150000;,
 -0.400000;3.300000;0.150000;,
 -1.200000;0.900000;19.900000;,
 -1.200000;0.150000;19.900000;,
 -1.200000;0.900000;15.600000;,
 -1.200000;0.150000;15.600000;,
 -1.200000;0.900000;2.400000;,
 -1.200000;0.150000;2.400000;,
 -1.200000;0.900000;0.200000;,
 -1.200000;0.150000;0.200000;,
 1.200000;0.900000;19.900000;,
 1.200000;0.150000;19.900000;,
 1.200000;0.900000;15.600000;,
 1.200000;0.150000;15.600000;,
 1.200000;0.900000;2.400000;,
 1.200000;0.150000;2.400000;,
 1.200000;0.900000;0.200000;,
 1.200000;0.150000;0.200000;,
 0.900000;3.700000;11.800000;,
 0.900000;3.900000;11.800000;,
 0.700000;4.050000;11.800000;,
 0.000000;4.200000;11.800000;,
 -0.700000;4.050000;11.800000;,
 -0.900000;3.900000;11.800000;,
 -0.900000;3.700000;11.800000;,
 0.900000;3.700000;8.200000;,
 0.900000;3.900000;8.200000;,
 0.700000;4.050000;8.200000;,
 0.000000;4.200000;8.200000;,
 -0.700000;4.050000;8.200000;,
 -0.900000;3.900000;8.200000;,
 -0.900000;3.700000;8.200000;,
 0.900000;3.700000;8.200000;,
 0.900000;3.900000;8.200000;,
 0.700000;4.050000;8.200000;,
 0.000000;4.200000;8.200000;,
 -0.700000;4.050000;8.200000;,
 -0.900000;3.900000;8.200000;,
 -0.900000;3.700000;8.200000;,
 0.200000;4.000000;6.800000;,
 0.200000;3.600000;6.800000;,
 -0.200000;3.600000;6.800000;,
 -0.200000;4.000000;6.800000;,
 0.200000;4.000000;7.199999;,
 0.200000;3.600000;7.199999;,
 -0.200000;3.600000;7.199999;,
 -0.200000;4.000000;7.199999;,
 0.200000;4.000000;12.799999;,
 0.200000;3.600000;12.799999;,
 -0.200000;3.600000;12.799999;,
 -0.200000;4.000000;12.799999;,
 0.200000;4.000000;13.199999;,
 0.200000;3.600000;13.199999;,
 -0.200000;3.600000;13.199999;,
 -0.200000;4.000000;13.199999;,
 1.199000;1.200000;0.200000;,
 1.199000;-0.400000;0.200000;,
 -1.199000;-0.400000;0.200000;,
 -1.199000;1.200000;0.200000;,
 1.199000;1.200000;19.400000;,
 1.199000;-0.400000;19.400000;,
 -1.199000;-0.400000;19.400000;,
 -1.199000;1.200000;19.400000;;
 111;
 3;0,5,6;,
 3;0,6,1;,
 3;1,6,7;,
 3;1,7,2;,
 3;2,7,8;,
 3;2,8,3;,
 3;3,8,9;,
 3;3,9,4;,
 3;10,11,16;,
 3;10,16,15;,
 3;11,12,17;,
 3;11,17,16;,
 3;12,13,18;,
 3;12,18,17;,
 3;13,14,19;,
 3;13,19,18;,
 3;20,26,27;,
 3;20,27,21;,
 3;21,27,28;,
 3;21,28,22;,
 3;22,28,29;,
 3;22,29,23;,
 3;23,29,30;,
 3;23,30,24;,
 3;24,30,31;,
 3;24,31,25;,
 3;32,37,38;,
 3;32,38,33;,
 3;33,38,39;,
 3;33,39,34;,
 3;34,39,40;,
 3;34,40,35;,
 3;35,40,41;,
 3;35,41,36;,
 3;42,43,44;,
 3;42,44,45;,
 3;45,44,48;,
 3;45,48,49;,
 3;49,48,47;,
 3;49,47,46;,
 3;46,47,43;,
 3;46,43,42;,
 3;42,45,49;,
 3;42,49,46;,
 3;43,47,48;,
 3;43,48,44;,
 3;50,52,53;,
 3;50,53,51;,
 3;52,54,55;,
 3;52,55,53;,
 3;54,56,57;,
 3;54,57,55;,
 3;58,59,61;,
 3;58,61,60;,
 3;60,61,63;,
 3;60,63,62;,
 3;62,63,65;,
 3;62,65,64;,
 3;66,73,74;,
 3;66,74,67;,
 3;67,74,75;,
 3;67,75,68;,
 3;68,75,76;,
 3;68,76,69;,
 3;69,76,77;,
 3;69,77,70;,
 3;70,77,78;,
 3;70,78,71;,
 3;71,78,79;,
 3;71,79,72;,
 3;85,81,80;,
 3;85,80,86;,
 3;84,82,81;,
 3;84,81,85;,
 3;84,83,82;,
 3;87,88,89;,
 3;87,89,90;,
 3;90,89,93;,
 3;90,93,94;,
 3;94,93,92;,
 3;94,92,91;,
 3;91,92,88;,
 3;91,88,87;,
 3;87,90,94;,
 3;87,94,91;,
 3;88,92,93;,
 3;88,93,89;,
 3;95,96,97;,
 3;95,97,98;,
 3;98,97,101;,
 3;98,101,102;,
 3;102,101,100;,
 3;102,100,99;,
 3;99,100,96;,
 3;99,96,95;,
 3;95,98,102;,
 3;95,102,99;,
 3;96,100,101;,
 3;96,101,97;,
 3;103,104,105;,
 3;103,105,106;,
 3;106,105,109;,
 3;106,109,110;,
 3;110,109,108;,
 3;110,108,107;,
 3;107,108,104;,
 3;107,104,103;,
 3;103,106,110;,
 3;103,110,107;,
 3;104,108,109;,
 3;104,109,105;;

 MeshMaterialList  {
  12;
  111;
  0,
  0,
  0,
  0,
  0,
  0,
  0,
  0,
  1,
  1,
  1,
  1,
  1,
  1,
  1,
  1,
  2,
  2,
  2,
  2,
  2,
  2,
  2,
  2,
  2,
  2,
  3,
  3,
  3,
  3,
  3,
  3,
  3,
  3,
  4,
  4,
  4,
  4,
  4,
  4,
  4,
  4,
  4,
  4,
  4,
  4,
  5,
  5,
  5,
  5,
  5,
  5,
  6,
  6,
  6,
  6,
  6,
  6,
  7,
  7,
  7,
  7,
  7,
  7,
  7,
  7,
  7,
  7,
  7,
  7,
  8,
  8,
  8,
  8,
  8,
  9,
  9,
  9,
  9,
  9,
  9,
  9,
  9,
  9,
  9,
  9,
  9,
  10,
  10,
  10,
  10,
  10,
  10,
  10,
  10,
  10,
  10,
  10,
  10,
  11,
  11,
  11,
  11,
  11,
  11,
  11,
  11,
  11,
  11,
  11,
  11;

  Material  {
   1.000000;1.000000;1.000000;1.000000;;
   0.000000;
   0.000000;0.000000;0.000000;;
   0.000000;0.000000;0.000000;;

   TextureFilename  {
    "03L.dds";
   }
  }

  Material  {
   1.000000;1.000000;1.000000;1.000000;;
   0.000000;
   0.000000;0.000000;0.000000;;
   0.000000;0.000000;0.000000;;

   TextureFilename  {
    "03R.dds";
   }
  }

  Material  {
   1.000000;1.000000;1.000000;1.000000;;
   0.000000;
   0.000000;0.000000;0.000000;;
   0.000000;0.000000;0.000000;;

   TextureFilename  {
    "00.dds";
   }
  }

  Material  {
   0.752941;0.752941;0.752941;1.000000;;
   0.000000;
   0.000000;0.000000;0.000000;;
   0.000000;0.000000;0.000000;;
  }

  Material  {
   0.501961;0.501961;0.501961;1.000000;;
   0.000000;
   0.000000;0.000000;0.000000;;
   0.000000;0.000000;0.000000;;
  }

  Material  {
   1.000000;1.000000;1.000000;1.000000;;
   0.000000;
   0.000000;0.000000;0.000000;;
   0.000000;0.000000;0.000000;;

   TextureFilename  {
    "03u.dds";
   }
  }

  Material  {
   1.000000;1.000000;1.000000;1.000000;;
   0.000000;
   0.000000;0.000000;0.000000;;
   0.000000;0.000000;0.000000;;

   TextureFilename  {
    "03u.dds";
   }
  }

  Material  {
   1.000000;1.000000;1.000000;1.000000;;
   0.000000;
   0.000000;0.000000;0.000000;;
   0.000000;0.000000;0.000000;;

   TextureFilename  {
    "02t.dds";
   }
  }

  Material  {
   0.752941;0.752941;0.752941;1.000000;;
   0.000000;
   0.000000;0.000000;0.000000;;
   0.000000;0.000000;0.000000;;
  }

  Material  {
   0.627451;0.627451;0.666667;1.000000;;
   0.000000;
   0.000000;0.000000;0.000000;;
   0.000000;0.000000;0.000000;;
  }

  Material  {
   0.627451;0.627451;0.666667;1.000000;;
   0.000000;
   0.000000;0.000000;0.000000;;
   0.000000;0.000000;0.000000;;
  }

  Material  {
   0.000000;0.000000;0.000000;0.862745;;
   0.000000;
   0.000000;0.000000;0.000000;;
   0.000000;0.000000;0.000000;;
  }
 }

 MeshTextureCoords  {
  111;
  0.000000;0.000000;,
  0.000000;0.020000;,
  0.000000;0.040000;,
  0.000000;0.800000;,
  0.000000;1.000000;,
  1.000000;0.000000;,
  1.000000;0.020000;,
  1.000000;0.040000;,
  1.000000;0.800000;,
  1.000000;1.000000;,
  1.000000;0.000000;,
  1.000000;0.020000;,
  1.000000;0.040000;,
  1.000000;0.800000;,
  1.000000;1.000000;,
  0.000000;0.000000;,
  0.000000;0.020000;,
  0.000000;0.040000;,
  0.000000;0.800000;,
  0.000000;1.000000;,
  0.000000;0.000000;,
  0.000000;0.700000;,
  0.000000;0.800000;,
  0.000000;0.800000;,
  0.000000;0.850000;,
  0.000000;1.000000;,
  1.000000;0.000000;,
  1.000000;0.700000;,
  1.000000;0.800000;,
  1.000000;0.800000;,
  1.000000;0.850000;,
  1.000000;1.000000;,
  0.000000;0.000000;,
  0.000000;0.000000;,
  0.000000;0.000000;,
  0.000000;0.000000;,
  0.000000;0.000000;,
  0.000000;0.000000;,
  0.000000;0.000000;,
  0.000000;0.000000;,
  0.000000;0.000000;,
  0.000000;0.000000;,
  0.000000;0.000000;,
  0.000000;0.000000;,
  0.000000;0.000000;,
  0.000000;0.000000;,
  0.000000;0.000000;,
  0.000000;0.000000;,
  0.000000;0.000000;,
  0.000000;0.000000;,
  0.000000;0.000000;,
  0.000000;1.000000;,
  0.700000;0.000000;,
  0.700000;1.000000;,
  0.800000;0.000000;,
  0.800000;1.000000;,
  1.000000;0.000000;,
  1.000000;1.000000;,
  0.000000;0.000000;,
  0.000000;1.000000;,
  0.700000;0.000000;,
  0.700000;1.000000;,
  0.800000;0.000000;,
  0.800000;1.000000;,
  1.000000;0.000000;,
  1.000000;1.000000;,
  0.000000;1.000000;,
  0.000000;0.550000;,
  0.000000;0.300000;,
  0.000000;0.000000;,
  0.000000;0.300000;,
  0.000000;0.550000;,
  0.000000;1.000000;,
  1.000000;1.000000;,
  1.000000;0.550000;,
  1.000000;0.300000;,
  1.000000;0.000000;,
  1.000000;0.300000;,
  1.000000;0.550000;,
  1.000000;1.000000;,
  0.000000;0.000000;,
  0.000000;0.000000;,
  0.000000;0.000000;,
  0.000000;0.000000;,
  0.000000;0.000000;,
  0.000000;0.000000;,
  0.000000;0.000000;,
  0.000000;0.000000;,
  0.000000;0.000000;,
  0.000000;0.000000;,
  0.000000;0.000000;,
  0.000000;0.000000;,
  0.000000;0.000000;,
  0.000000;0.000000;,
  0.000000;0.000000;,
  0.000000;0.000000;,
  0.000000;0.000000;,
  0.000000;0.000000;,
  0.000000;0.000000;,
  0.000000;0.000000;,
  0.000000;0.000000;,
  0.000000;0.000000;,
  0.000000;0.000000;,
  0.000000;0.000000;,
  0.000000;0.000000;,
  0.000000;0.000000;,
  0.000000;0.000000;,
  0.000000;0.000000;,
  0.000000;0.000000;,
  0.000000;0.000000;,
  0.000000;0.000000;;
 }

 MeshNormals  {
  111;
  -0.099504;0.995037;0.000000;,
  -0.099504;0.995037;0.000000;,
  -0.206011;0.978550;0.000000;,
  -0.206011;0.978550;0.000000;,
  -1.000000;0.000000;0.000000;,
  -1.000000;0.000000;0.000000;,
  -0.986394;-0.164399;0.000000;,
  -0.986394;-0.164399;0.000000;,
  0.099504;0.995037;0.000000;,
  0.099504;0.995037;0.000000;,
  0.206011;0.978550;0.000000;,
  0.206011;0.978550;0.000000;,
  1.000000;0.000000;0.000000;,
  1.000000;0.000000;0.000000;,
  0.986394;-0.164399;0.000000;,
  0.986394;-0.164399;0.000000;,
  0.000000;0.160676;0.987007;,
  0.000000;0.160676;0.987007;,
  0.000000;-0.292714;0.956200;,
  0.000000;-0.292714;0.956200;,
  0.000000;1.000000;0.000000;,
  0.000000;1.000000;0.000000;,
  0.000000;-0.076698;0.997054;,
  0.000000;-0.076698;0.997054;,
  0.000000;-0.321903;0.946773;,
  0.000000;-0.321903;0.946773;,
  0.000000;0.000000;0.000000;,
  0.000000;0.000000;-1.000000;,
  0.000000;0.000000;-1.000000;,
  0.000000;0.000000;-1.000000;,
  0.000000;0.000000;-1.000000;,
  0.000000;0.000000;-1.000000;,
  0.000000;0.000000;-1.000000;,
  0.000000;0.000000;-1.000000;,
  0.000000;0.000000;-1.000000;,
  0.000000;0.000000;-1.000000;,
  -1.000000;0.000000;0.000000;,
  -1.000000;0.000000;0.000000;,
  0.000000;0.000000;1.000000;,
  0.000000;0.000000;1.000000;,
  1.000000;0.000000;0.000000;,
  1.000000;0.000000;0.000000;,
  0.000000;1.000000;0.000000;,
  0.000000;1.000000;0.000000;,
  0.000000;-1.000000;0.000000;,
  0.000000;-1.000000;0.000000;,
  -1.000000;0.000000;0.000000;,
  -1.000000;0.000000;0.000000;,
  -1.000000;0.000000;0.000000;,
  -1.000000;0.000000;0.000000;,
  -1.000000;0.000000;0.000000;,
  -1.000000;0.000000;0.000000;,
  1.000000;0.000000;0.000000;,
  1.000000;0.000000;0.000000;,
  1.000000;0.000000;0.000000;,
  1.000000;0.000000;0.000000;,
  1.000000;0.000000;0.000000;,
  1.000000;0.000000;0.000000;,
  1.000000;0.000000;0.000000;,
  1.000000;0.000000;0.000000;,
  0.600000;0.800000;0.000000;,
  0.600000;0.800000;0.000000;,
  0.209529;0.977803;0.000000;,
  0.209529;0.977803;0.000000;,
  -0.209529;0.977803;0.000000;,
  -0.209529;0.977803;0.000000;,
  -0.600000;0.800000;0.000000;,
  -0.600000;0.800000;0.000000;,
  -1.000000;0.000000;0.000000;,
  -1.000000;0.000000;0.000000;,
  0.000000;0.000000;-1.000000;,
  0.000000;0.000000;-1.000000;,
  0.000000;0.000000;-1.000000;,
  0.000000;0.000000;-1.000000;,
  0.000000;0.000000;-1.000000;,
  0.000000;0.000000;-1.000000;,
  0.000000;0.000000;-1.000000;,
  -1.000000;0.000000;0.000000;,
  -1.000000;0.000000;0.000000;,
  0.000000;0.000000;1.000000;,
  0.000000;0.000000;1.000000;,
  1.000000;0.000000;0.000000;,
  1.000000;0.000000;0.000000;,
  0.000000;1.000000;0.000000;,
  0.000000;1.000000;0.000000;,
  0.000000;-1.000000;0.000000;,
  0.000000;-1.000000;0.000000;,
  0.000000;0.000000;-1.000000;,
  0.000000;0.000000;-1.000000;,
  -1.000000;0.000000;0.000000;,
  -1.000000;0.000000;0.000000;,
  0.000000;0.000000;1.000000;,
  0.000000;0.000000;1.000000;,
  1.000000;0.000000;0.000000;,
  1.000000;0.000000;0.000000;,
  0.000000;1.000000;0.000000;,
  0.000000;1.000000;0.000000;,
  0.000000;-1.000000;0.000000;,
  0.000000;-1.000000;0.000000;,
  0.000000;0.000000;-1.000000;,
  0.000000;0.000000;-1.000000;,
  -1.000000;0.000000;0.000000;,
  -1.000000;0.000000;0.000000;,
  0.000000;0.000000;1.000000;,
  0.000000;0.000000;1.000000;,
  1.000000;0.000000;0.000000;,
  1.000000;0.000000;0.000000;,
  0.000000;1.000000;0.000000;,
  0.000000;1.000000;0.000000;,
  0.000000;-1.000000;0.000000;,
  0.000000;-1.000000;0.000000;;
  111;
  3;0,0,0;,
  3;1,1,1;,
  3;2,2,2;,
  3;3,3,3;,
  3;4,4,4;,
  3;5,5,5;,
  3;6,6,6;,
  3;7,7,7;,
  3;8,8,8;,
  3;9,9,9;,
  3;10,10,10;,
  3;11,11,11;,
  3;12,12,12;,
  3;13,13,13;,
  3;14,14,14;,
  3;15,15,15;,
  3;16,16,16;,
  3;17,17,17;,
  3;18,18,18;,
  3;19,19,19;,
  3;20,20,20;,
  3;21,21,21;,
  3;22,22,22;,
  3;23,23,23;,
  3;24,24,24;,
  3;25,25,25;,
  3;26,26,26;,
  3;27,27,27;,
  3;28,28,28;,
  3;29,29,29;,
  3;30,30,30;,
  3;31,31,31;,
  3;32,32,32;,
  3;33,33,33;,
  3;34,34,34;,
  3;35,35,35;,
  3;36,36,36;,
  3;37,37,37;,
  3;38,38,38;,
  3;39,39,39;,
  3;40,40,40;,
  3;41,41,41;,
  3;42,42,42;,
  3;43,43,43;,
  3;44,44,44;,
  3;45,45,45;,
  3;46,46,46;,
  3;47,47,47;,
  3;48,48,48;,
  3;49,49,49;,
  3;50,50,50;,
  3;51,51,51;,
  3;52,52,52;,
  3;53,53,53;,
  3;54,54,54;,
  3;55,55,55;,
  3;56,56,56;,
  3;57,57,57;,
  3;58,58,58;,
  3;59,59,59;,
  3;60,60,60;,
  3;61,61,61;,
  3;62,62,62;,
  3;63,63,63;,
  3;64,64,64;,
  3;65,65,65;,
  3;66,66,66;,
  3;67,67,67;,
  3;68,68,68;,
  3;69,69,69;,
  3;70,70,70;,
  3;71,71,71;,
  3;72,72,72;,
  3;73,73,73;,
  3;74,74,74;,
  3;75,75,75;,
  3;76,76,76;,
  3;77,77,77;,
  3;78,78,78;,
  3;79,79,79;,
  3;80,80,80;,
  3;81,81,81;,
  3;82,82,82;,
  3;83,83,83;,
  3;84,84,84;,
  3;85,85,85;,
  3;86,86,86;,
  3;87,87,87;,
  3;88,88,88;,
  3;89,89,89;,
  3;90,90,90;,
  3;91,91,91;,
  3;92,92,92;,
  3;93,93,93;,
  3;94,94,94;,
  3;95,95,95;,
  3;96,96,96;,
  3;97,97,97;,
  3;98,98,98;,
  3;99,99,99;,
  3;100,100,100;,
  3;101,101,101;,
  3;102,102,102;,
  3;103,103,103;,
  3;104,104,104;,
  3;105,105,105;,
  3;106,106,106;,
  3;107,107,107;,
  3;108,108,108;,
  3;109,109,109;,
  3;110,110,110;;
 }
}