BveTs Train 1.00

[Structure]
Key=E353-01
Distance=3.925
Span=14.15
Z=-3.925

[Structure]
Key=E353-02
Distance=23.925
Span=14.15
Z=-2.925

[Structure]
Key=E353-03
Distance=43.925
Span=14.15
Z=-2.925

[Structure]
Key=E353-01
Distance=65.925
Span=14.15
Z=-3.925

[Structure]
Key=E353-05
Distance=85.925
Span=14.15
Z=-2.925

[Structure]
Key=E353-06
Distance=105.925
Span=14.15
Z=-2.925

[Structure]
Key=E353-05
Distance=125.925
Span=14.15
Z=-2.925

[Structure]
Key=E353-06
Distance=145.925
Span=14.15
Z=-2.925

[Structure]
Key=E353-09
Distance=165.925
Span=14.15
Z=-2.925

[Structure]
Key=E353-05
Distance=185.925
Span=14.15
Z=-2.925

[Structure]
Key=E353-06
Distance=205.925
Span=14.15
Z=-2.925

[Structure]
Key=E353-03
Distance=225.925
Span=14.15
Z=-2.925

