xof 0303txt 0032
template Vector {
 <3d82ab5e-62da-11cf-ab39-0020af71e433>
 FLOAT x;
 FLOAT y;
 FLOAT z;
}

template MeshFace {
 <3d82ab5f-62da-11cf-ab39-0020af71e433>
 DWORD nFaceVertexIndices;
 array DWORD faceVertexIndices[nFaceVertexIndices];
}

template Mesh {
 <3d82ab44-62da-11cf-ab39-0020af71e433>
 DWORD nVertices;
 array Vector vertices[nVertices];
 DWORD nFaces;
 array MeshFace faces[nFaces];
 [...]
}

template ColorRGBA {
 <35ff44e0-6c7c-11cf-8f52-0040333594a3>
 FLOAT red;
 FLOAT green;
 FLOAT blue;
 FLOAT alpha;
}

template ColorRGB {
 <d3e16e81-7835-11cf-8f52-0040333594a3>
 FLOAT red;
 FLOAT green;
 FLOAT blue;
}

template Material {
 <3d82ab4d-62da-11cf-ab39-0020af71e433>
 ColorRGBA faceColor;
 FLOAT power;
 ColorRGB specularColor;
 ColorRGB emissiveColor;
 [...]
}

template MeshMaterialList {
 <f6f23f42-7686-11cf-8f52-0040333594a3>
 DWORD nMaterials;
 DWORD nFaceIndexes;
 array DWORD faceIndexes[nFaceIndexes];
 [Material <3d82ab4d-62da-11cf-ab39-0020af71e433>]
}

template Coords2d {
 <f6f23f44-7686-11cf-8f52-0040333594a3>
 FLOAT u;
 FLOAT v;
}

template MeshTextureCoords {
 <f6f23f40-7686-11cf-8f52-0040333594a3>
 DWORD nTextureCoords;
 array Coords2d textureCoords[nTextureCoords];
}

template MeshNormals {
 <f6f23f43-7686-11cf-8f52-0040333594a3>
 DWORD nNormals;
 array Vector normals[nNormals];
 DWORD nFaceNormals;
 array MeshFace faceNormals[nFaceNormals];
}


Mesh  {
 94;
 -2.000000;3.000000;0.000000;,
 -2.000000;-2.000000;0.000000;,
 0.000000;3.000000;-14.999999;,
 0.000000;-2.000000;-14.999999;,
 0.000000;3.000000;-34.999996;,
 0.000000;-2.000000;-34.999996;,
 -6.000000;4.000000;-34.999996;,
 -6.000000;-2.000000;-34.999996;,
 -6.000000;4.000000;-24.999998;,
 -6.000000;-2.000000;-24.999998;,
 -6.000000;4.000000;-34.999996;,
 -6.000000;-2.000000;-34.999996;,
 -9.999999;5.000000;-34.999996;,
 -9.999999;-2.000000;-34.999996;,
 -16.999998;4.000000;-34.999996;,
 -16.999998;-2.000000;-34.999996;,
 0.000000;3.000000;-34.999996;,
 0.000000;-2.000000;-34.999996;,
 0.000000;3.000000;-44.999996;,
 0.000000;-2.000000;-44.999996;,
 -1.000000;3.000000;-44.999996;,
 -1.000000;-2.000000;-44.999996;,
 -1.000000;3.000000;-59.999996;,
 -1.000000;-2.000000;-59.999996;,
 -3.000000;3.000000;-59.999996;,
 -3.000000;-2.000000;-59.999996;,
 -3.000000;3.000000;-79.999992;,
 -3.000000;-2.000000;-79.999992;,
 -16.999998;3.000000;-79.999992;,
 -16.999998;-2.000000;-79.999992;,
 -6.000000;4.000000;-37.999996;,
 -6.000000;-2.000000;-37.999996;,
 -6.000000;5.000000;-41.999996;,
 -6.000000;-2.000000;-41.999996;,
 -6.000000;7.000000;-45.999996;,
 -6.000000;-2.000000;-45.999996;,
 -6.000000;9.999999;-49.999996;,
 -6.000000;-2.000000;-49.999996;,
 -6.000000;7.000000;-53.999996;,
 -6.000000;-2.000000;-53.999996;,
 -6.000000;5.000000;-57.999996;,
 -6.000000;-2.000000;-57.999996;,
 -6.000000;4.000000;-61.999996;,
 -6.000000;-2.000000;-61.999996;,
 -16.999998;4.000000;-61.999996;,
 -16.999998;-2.000000;-61.999996;,
 -8.999999;4.500000;-67.999992;,
 -8.999999;-2.000000;-67.999992;,
 -8.999999;4.500000;-79.999992;,
 -8.999999;3.000000;-79.999992;,
 -9.999999;5.000000;-79.999992;,
 -16.999998;3.000000;-79.999992;,
 -6.000000;3.500000;-34.999996;,
 -6.000000;3.500000;-14.999999;,
 0.000000;3.000000;-34.999996;,
 0.000000;3.000000;-14.999999;,
 -6.000000;4.000000;-34.999996;,
 -6.000000;4.000000;-24.999998;,
 -9.999999;5.000000;-34.999996;,
 -9.999999;5.000000;-24.999998;,
 -6.000000;4.000000;-37.999996;,
 -16.999998;4.000000;-37.999996;,
 -6.000000;5.000000;-41.999996;,
 -16.999998;5.000000;-41.999996;,
 -6.000000;7.000000;-45.999996;,
 -16.999998;7.000000;-45.999996;,
 -6.000000;9.999999;-49.999996;,
 -16.999998;9.999999;-49.999996;,
 -6.000000;7.000000;-53.999996;,
 -16.999998;7.000000;-53.999996;,
 -6.000000;5.000000;-57.999996;,
 -16.999998;5.000000;-57.999996;,
 -6.000000;4.000000;-61.999996;,
 -16.999998;4.000000;-61.999996;,
 -8.999999;4.500000;-79.999992;,
 -8.999999;4.500000;-67.999992;,
 -9.999999;5.000000;-79.999992;,
 -9.999999;5.000000;-67.999992;,
 -16.999998;3.000000;-79.999992;,
 -16.999998;3.000000;-67.999992;,
 -2.000000;3.000000;0.000000;,
 -2.000000;3.000000;5.000000;,
 -2.000000;-2.000000;0.000000;,
 -2.000000;-2.000000;5.000000;,
 -16.999998;5.000000;-19.999998;,
 -16.999998;3.000000;-19.999998;,
 -6.000000;5.000000;-19.999998;,
 -6.000000;3.000000;-19.999998;,
 -6.000000;5.000000;-14.999999;,
 -6.000000;3.000000;-14.999999;,
 0.000000;5.000000;-14.999999;,
 0.000000;3.000000;-14.999999;,
 -2.000000;5.000000;0.000000;,
 -2.000000;3.000000;0.000000;;
 144;
 3;0,1,3;,
 3;0,3,2;,
 3;2,3,1;,
 3;2,1,0;,
 3;2,3,5;,
 3;2,5,4;,
 3;4,5,3;,
 3;4,3,2;,
 3;4,5,7;,
 3;4,7,6;,
 3;6,7,5;,
 3;6,5,4;,
 3;8,9,11;,
 3;8,11,10;,
 3;10,11,9;,
 3;10,9,8;,
 3;10,11,13;,
 3;10,13,12;,
 3;12,13,11;,
 3;12,11,10;,
 3;12,13,15;,
 3;12,15,14;,
 3;14,15,13;,
 3;14,13,12;,
 3;16,17,19;,
 3;16,19,18;,
 3;18,19,17;,
 3;18,17,16;,
 3;18,19,21;,
 3;18,21,20;,
 3;20,21,19;,
 3;20,19,18;,
 3;20,21,23;,
 3;20,23,22;,
 3;22,23,21;,
 3;22,21,20;,
 3;22,23,25;,
 3;22,25,24;,
 3;24,25,23;,
 3;24,23,22;,
 3;24,25,27;,
 3;24,27,26;,
 3;26,27,25;,
 3;26,25,24;,
 3;26,27,29;,
 3;26,29,28;,
 3;28,29,27;,
 3;28,27,26;,
 3;30,31,33;,
 3;30,33,32;,
 3;32,33,31;,
 3;32,31,30;,
 3;32,33,35;,
 3;32,35,34;,
 3;34,35,33;,
 3;34,33,32;,
 3;34,35,37;,
 3;34,37,36;,
 3;36,37,35;,
 3;36,35,34;,
 3;36,37,39;,
 3;36,39,38;,
 3;38,39,37;,
 3;38,37,36;,
 3;38,39,41;,
 3;38,41,40;,
 3;40,41,39;,
 3;40,39,38;,
 3;40,41,43;,
 3;40,43,42;,
 3;42,43,41;,
 3;42,41,40;,
 3;42,43,45;,
 3;42,45,44;,
 3;44,45,43;,
 3;44,43,42;,
 3;46,47,49;,
 3;46,49,48;,
 3;48,49,47;,
 3;48,47,46;,
 3;48,49,51;,
 3;48,51,50;,
 3;50,51,49;,
 3;50,49,48;,
 3;52,53,55;,
 3;52,55,54;,
 3;54,55,53;,
 3;54,53,52;,
 3;56,57,59;,
 3;56,59,58;,
 3;58,59,57;,
 3;58,57,56;,
 3;60,61,63;,
 3;60,63,62;,
 3;62,63,61;,
 3;62,61,60;,
 3;62,63,65;,
 3;62,65,64;,
 3;64,65,63;,
 3;64,63,62;,
 3;64,65,67;,
 3;64,67,66;,
 3;66,67,65;,
 3;66,65,64;,
 3;66,67,69;,
 3;66,69,68;,
 3;68,69,67;,
 3;68,67,66;,
 3;68,69,71;,
 3;68,71,70;,
 3;70,71,69;,
 3;70,69,68;,
 3;70,71,73;,
 3;70,73,72;,
 3;72,73,71;,
 3;72,71,70;,
 3;74,75,77;,
 3;74,77,76;,
 3;76,77,75;,
 3;76,75,74;,
 3;76,77,79;,
 3;76,79,78;,
 3;78,79,77;,
 3;78,77,76;,
 3;80,81,83;,
 3;80,83,82;,
 3;82,83,81;,
 3;82,81,80;,
 3;84,85,87;,
 3;84,87,86;,
 3;86,87,85;,
 3;86,85,84;,
 3;86,87,89;,
 3;86,89,88;,
 3;88,89,87;,
 3;88,87,86;,
 3;88,89,91;,
 3;88,91,90;,
 3;90,91,89;,
 3;90,89,88;,
 3;90,91,93;,
 3;90,93,92;,
 3;92,93,91;,
 3;92,91,90;;

 MeshMaterialList  {
  4;
  144;
  0,
  0,
  0,
  0,
  0,
  0,
  0,
  0,
  0,
  0,
  0,
  0,
  0,
  0,
  0,
  0,
  0,
  0,
  0,
  0,
  0,
  0,
  0,
  0,
  0,
  0,
  0,
  0,
  0,
  0,
  0,
  0,
  0,
  0,
  0,
  0,
  0,
  0,
  0,
  0,
  0,
  0,
  0,
  0,
  0,
  0,
  0,
  0,
  0,
  0,
  0,
  0,
  0,
  0,
  0,
  0,
  0,
  0,
  0,
  0,
  0,
  0,
  0,
  0,
  0,
  0,
  0,
  0,
  0,
  0,
  0,
  0,
  0,
  0,
  0,
  0,
  0,
  0,
  0,
  0,
  0,
  0,
  0,
  0,
  1,
  1,
  1,
  1,
  1,
  1,
  1,
  1,
  1,
  1,
  1,
  1,
  1,
  1,
  1,
  1,
  1,
  1,
  1,
  1,
  1,
  1,
  1,
  1,
  1,
  1,
  1,
  1,
  1,
  1,
  1,
  1,
  1,
  1,
  1,
  1,
  1,
  1,
  1,
  1,
  2,
  2,
  2,
  2,
  3,
  3,
  3,
  3,
  3,
  3,
  3,
  3,
  3,
  3,
  3,
  3,
  3,
  3,
  3,
  3;

  Material  {
   0.901961;0.901961;0.901961;1.000000;;
   0.000000;
   0.000000;0.000000;0.000000;;
   0.000000;0.000000;0.000000;;
  }

  Material  {
   0.392157;0.784314;0.784314;1.000000;;
   0.000000;
   0.000000;0.000000;0.000000;;
   0.000000;0.000000;0.000000;;
  }

  Material  {
   0.784314;0.784314;0.784314;1.000000;;
   0.000000;
   0.000000;0.000000;0.000000;;
   0.000000;0.000000;0.000000;;
  }

  Material  {
   0.501961;0.392157;0.392157;1.000000;;
   0.000000;
   0.000000;0.000000;0.000000;;
   0.000000;0.000000;0.000000;;
  }
 }

 MeshTextureCoords  {
  94;
  0.000000;0.000000;,
  0.000000;0.000000;,
  0.000000;0.000000;,
  0.000000;0.000000;,
  0.000000;0.000000;,
  0.000000;0.000000;,
  0.000000;0.000000;,
  0.000000;0.000000;,
  0.000000;0.000000;,
  0.000000;0.000000;,
  0.000000;0.000000;,
  0.000000;0.000000;,
  0.000000;0.000000;,
  0.000000;0.000000;,
  0.000000;0.000000;,
  0.000000;0.000000;,
  0.000000;0.000000;,
  0.000000;0.000000;,
  0.000000;0.000000;,
  0.000000;0.000000;,
  0.000000;0.000000;,
  0.000000;0.000000;,
  0.000000;0.000000;,
  0.000000;0.000000;,
  0.000000;0.000000;,
  0.000000;0.000000;,
  0.000000;0.000000;,
  0.000000;0.000000;,
  0.000000;0.000000;,
  0.000000;0.000000;,
  0.000000;0.000000;,
  0.000000;0.000000;,
  0.000000;0.000000;,
  0.000000;0.000000;,
  0.000000;0.000000;,
  0.000000;0.000000;,
  0.000000;0.000000;,
  0.000000;0.000000;,
  0.000000;0.000000;,
  0.000000;0.000000;,
  0.000000;0.000000;,
  0.000000;0.000000;,
  0.000000;0.000000;,
  0.000000;0.000000;,
  0.000000;0.000000;,
  0.000000;0.000000;,
  0.000000;0.000000;,
  0.000000;0.000000;,
  0.000000;0.000000;,
  0.000000;0.000000;,
  0.000000;0.000000;,
  0.000000;0.000000;,
  0.000000;0.000000;,
  0.000000;0.000000;,
  0.000000;0.000000;,
  0.000000;0.000000;,
  0.000000;0.000000;,
  0.000000;0.000000;,
  0.000000;0.000000;,
  0.000000;0.000000;,
  0.000000;0.000000;,
  0.000000;0.000000;,
  0.000000;0.000000;,
  0.000000;0.000000;,
  0.000000;0.000000;,
  0.000000;0.000000;,
  0.000000;0.000000;,
  0.000000;0.000000;,
  0.000000;0.000000;,
  0.000000;0.000000;,
  0.000000;0.000000;,
  0.000000;0.000000;,
  0.000000;0.000000;,
  0.000000;0.000000;,
  0.000000;0.000000;,
  0.000000;0.000000;,
  0.000000;0.000000;,
  0.000000;0.000000;,
  0.000000;0.000000;,
  0.000000;0.000000;,
  0.000000;0.000000;,
  0.000000;0.000000;,
  0.000000;0.000000;,
  0.000000;0.000000;,
  0.000000;0.000000;,
  0.000000;0.000000;,
  0.000000;0.000000;,
  0.000000;0.000000;,
  0.000000;0.000000;,
  0.000000;0.000000;,
  0.000000;0.000000;,
  0.000000;0.000000;,
  0.000000;0.000000;,
  0.000000;0.000000;;
 }

 MeshNormals  {
  144;
  0.991228;0.000000;0.132164;,
  0.991228;0.000000;0.132164;,
  -0.991228;0.000000;-0.132164;,
  -0.991228;0.000000;-0.132164;,
  1.000000;0.000000;0.000000;,
  1.000000;0.000000;0.000000;,
  -1.000000;0.000000;0.000000;,
  -1.000000;0.000000;0.000000;,
  0.000000;0.000000;-1.000000;,
  0.000000;0.000000;-1.000000;,
  0.000000;0.000000;1.000000;,
  0.000000;0.000000;1.000000;,
  1.000000;0.000000;0.000000;,
  1.000000;0.000000;0.000000;,
  -1.000000;0.000000;0.000000;,
  -1.000000;0.000000;0.000000;,
  0.000000;0.000000;-1.000000;,
  0.000000;0.000000;-1.000000;,
  0.000000;0.000000;1.000000;,
  0.000000;0.000000;1.000000;,
  0.000000;0.000000;-1.000000;,
  0.000000;0.000000;-1.000000;,
  0.000000;0.000000;1.000000;,
  0.000000;0.000000;1.000000;,
  1.000000;0.000000;0.000000;,
  1.000000;0.000000;0.000000;,
  -1.000000;0.000000;0.000000;,
  -1.000000;0.000000;0.000000;,
  0.000000;0.000000;-1.000000;,
  0.000000;0.000000;-1.000000;,
  0.000000;0.000000;1.000000;,
  0.000000;0.000000;1.000000;,
  1.000000;0.000000;0.000000;,
  1.000000;0.000000;0.000000;,
  -1.000000;0.000000;0.000000;,
  -1.000000;0.000000;0.000000;,
  0.000000;0.000000;-1.000000;,
  0.000000;0.000000;-1.000000;,
  0.000000;0.000000;1.000000;,
  0.000000;0.000000;1.000000;,
  1.000000;0.000000;0.000000;,
  1.000000;0.000000;0.000000;,
  -1.000000;0.000000;0.000000;,
  -1.000000;0.000000;0.000000;,
  0.000000;0.000000;-1.000000;,
  0.000000;0.000000;-1.000000;,
  0.000000;0.000000;1.000000;,
  0.000000;0.000000;1.000000;,
  1.000000;0.000000;0.000000;,
  1.000000;0.000000;0.000000;,
  -1.000000;0.000000;0.000000;,
  -1.000000;0.000000;0.000000;,
  1.000000;0.000000;0.000000;,
  1.000000;0.000000;0.000000;,
  -1.000000;0.000000;0.000000;,
  -1.000000;0.000000;0.000000;,
  1.000000;0.000000;0.000000;,
  1.000000;0.000000;0.000000;,
  -1.000000;0.000000;0.000000;,
  -1.000000;0.000000;0.000000;,
  1.000000;0.000000;0.000000;,
  1.000000;0.000000;0.000000;,
  -1.000000;0.000000;0.000000;,
  -1.000000;0.000000;0.000000;,
  1.000000;0.000000;0.000000;,
  1.000000;0.000000;0.000000;,
  -1.000000;0.000000;0.000000;,
  -1.000000;0.000000;0.000000;,
  1.000000;0.000000;0.000000;,
  1.000000;0.000000;0.000000;,
  -1.000000;0.000000;0.000000;,
  -1.000000;0.000000;0.000000;,
  0.000000;0.000000;-1.000000;,
  0.000000;0.000000;-1.000000;,
  0.000000;0.000000;1.000000;,
  0.000000;0.000000;1.000000;,
  1.000000;0.000000;0.000000;,
  1.000000;0.000000;0.000000;,
  -1.000000;0.000000;0.000000;,
  -1.000000;0.000000;0.000000;,
  0.000000;0.000000;-1.000000;,
  0.000000;0.000000;-1.000000;,
  0.000000;0.000000;1.000000;,
  0.000000;0.000000;1.000000;,
  0.083045;0.996546;0.000000;,
  0.083045;0.996546;0.000000;,
  -0.083045;-0.996546;0.000000;,
  -0.083045;-0.996546;0.000000;,
  -0.242536;-0.970143;0.000000;,
  -0.242536;-0.970143;0.000000;,
  0.242536;0.970143;0.000000;,
  0.242536;0.970143;0.000000;,
  0.000000;-0.970142;-0.242536;,
  0.000000;-0.970142;-0.242536;,
  0.000000;0.970142;0.242536;,
  0.000000;0.970142;0.242536;,
  0.000000;-0.894427;-0.447214;,
  0.000000;-0.894427;-0.447214;,
  0.000000;0.894427;0.447214;,
  0.000000;0.894427;0.447214;,
  0.000000;-0.800000;-0.600000;,
  0.000000;-0.800000;-0.600000;,
  0.000000;0.800000;0.600000;,
  0.000000;0.800000;0.600000;,
  0.000000;-0.800000;0.600000;,
  0.000000;-0.800000;0.600000;,
  0.000000;0.800000;-0.600000;,
  0.000000;0.800000;-0.600000;,
  0.000000;-0.894427;0.447214;,
  0.000000;-0.894427;0.447214;,
  0.000000;0.894427;-0.447214;,
  0.000000;0.894427;-0.447214;,
  0.000000;-0.970142;0.242536;,
  0.000000;-0.970142;0.242536;,
  0.000000;0.970142;-0.242536;,
  0.000000;0.970142;-0.242536;,
  -0.447214;-0.894427;0.000000;,
  -0.447214;-0.894427;0.000000;,
  0.447214;0.894427;0.000000;,
  0.447214;0.894427;0.000000;,
  0.274721;-0.961524;0.000000;,
  0.274721;-0.961524;0.000000;,
  -0.274721;0.961524;0.000000;,
  -0.274721;0.961524;0.000000;,
  1.000000;0.000000;0.000000;,
  1.000000;0.000000;0.000000;,
  -1.000000;0.000000;0.000000;,
  -1.000000;0.000000;0.000000;,
  0.000000;0.000000;1.000000;,
  0.000000;0.000000;1.000000;,
  0.000000;0.000000;-1.000000;,
  0.000000;0.000000;-1.000000;,
  -1.000000;0.000000;0.000000;,
  -1.000000;0.000000;0.000000;,
  1.000000;0.000000;0.000000;,
  1.000000;0.000000;0.000000;,
  0.000000;0.000000;1.000000;,
  0.000000;0.000000;1.000000;,
  0.000000;0.000000;-1.000000;,
  0.000000;0.000000;-1.000000;,
  -0.991228;0.000000;-0.132164;,
  -0.991228;0.000000;-0.132164;,
  0.991228;0.000000;0.132164;,
  0.991228;0.000000;0.132164;;
  144;
  3;0,0,0;,
  3;1,1,1;,
  3;2,2,2;,
  3;3,3,3;,
  3;4,4,4;,
  3;5,5,5;,
  3;6,6,6;,
  3;7,7,7;,
  3;8,8,8;,
  3;9,9,9;,
  3;10,10,10;,
  3;11,11,11;,
  3;12,12,12;,
  3;13,13,13;,
  3;14,14,14;,
  3;15,15,15;,
  3;16,16,16;,
  3;17,17,17;,
  3;18,18,18;,
  3;19,19,19;,
  3;20,20,20;,
  3;21,21,21;,
  3;22,22,22;,
  3;23,23,23;,
  3;24,24,24;,
  3;25,25,25;,
  3;26,26,26;,
  3;27,27,27;,
  3;28,28,28;,
  3;29,29,29;,
  3;30,30,30;,
  3;31,31,31;,
  3;32,32,32;,
  3;33,33,33;,
  3;34,34,34;,
  3;35,35,35;,
  3;36,36,36;,
  3;37,37,37;,
  3;38,38,38;,
  3;39,39,39;,
  3;40,40,40;,
  3;41,41,41;,
  3;42,42,42;,
  3;43,43,43;,
  3;44,44,44;,
  3;45,45,45;,
  3;46,46,46;,
  3;47,47,47;,
  3;48,48,48;,
  3;49,49,49;,
  3;50,50,50;,
  3;51,51,51;,
  3;52,52,52;,
  3;53,53,53;,
  3;54,54,54;,
  3;55,55,55;,
  3;56,56,56;,
  3;57,57,57;,
  3;58,58,58;,
  3;59,59,59;,
  3;60,60,60;,
  3;61,61,61;,
  3;62,62,62;,
  3;63,63,63;,
  3;64,64,64;,
  3;65,65,65;,
  3;66,66,66;,
  3;67,67,67;,
  3;68,68,68;,
  3;69,69,69;,
  3;70,70,70;,
  3;71,71,71;,
  3;72,72,72;,
  3;73,73,73;,
  3;74,74,74;,
  3;75,75,75;,
  3;76,76,76;,
  3;77,77,77;,
  3;78,78,78;,
  3;79,79,79;,
  3;80,80,80;,
  3;81,81,81;,
  3;82,82,82;,
  3;83,83,83;,
  3;84,84,84;,
  3;85,85,85;,
  3;86,86,86;,
  3;87,87,87;,
  3;88,88,88;,
  3;89,89,89;,
  3;90,90,90;,
  3;91,91,91;,
  3;92,92,92;,
  3;93,93,93;,
  3;94,94,94;,
  3;95,95,95;,
  3;96,96,96;,
  3;97,97,97;,
  3;98,98,98;,
  3;99,99,99;,
  3;100,100,100;,
  3;101,101,101;,
  3;102,102,102;,
  3;103,103,103;,
  3;104,104,104;,
  3;105,105,105;,
  3;106,106,106;,
  3;107,107,107;,
  3;108,108,108;,
  3;109,109,109;,
  3;110,110,110;,
  3;111,111,111;,
  3;112,112,112;,
  3;113,113,113;,
  3;114,114,114;,
  3;115,115,115;,
  3;116,116,116;,
  3;117,117,117;,
  3;118,118,118;,
  3;119,119,119;,
  3;120,120,120;,
  3;121,121,121;,
  3;122,122,122;,
  3;123,123,123;,
  3;124,124,124;,
  3;125,125,125;,
  3;126,126,126;,
  3;127,127,127;,
  3;128,128,128;,
  3;129,129,129;,
  3;130,130,130;,
  3;131,131,131;,
  3;132,132,132;,
  3;133,133,133;,
  3;134,134,134;,
  3;135,135,135;,
  3;136,136,136;,
  3;137,137,137;,
  3;138,138,138;,
  3;139,139,139;,
  3;140,140,140;,
  3;141,141,141;,
  3;142,142,142;,
  3;143,143,143;;
 }
}