xof 0303txt 0032
template Vector {
 <3d82ab5e-62da-11cf-ab39-0020af71e433>
 FLOAT x;
 FLOAT y;
 FLOAT z;
}

template MeshFace {
 <3d82ab5f-62da-11cf-ab39-0020af71e433>
 DWORD nFaceVertexIndices;
 array DWORD faceVertexIndices[nFaceVertexIndices];
}

template Mesh {
 <3d82ab44-62da-11cf-ab39-0020af71e433>
 DWORD nVertices;
 array Vector vertices[nVertices];
 DWORD nFaces;
 array MeshFace faces[nFaces];
 [...]
}

template ColorRGBA {
 <35ff44e0-6c7c-11cf-8f52-0040333594a3>
 FLOAT red;
 FLOAT green;
 FLOAT blue;
 FLOAT alpha;
}

template ColorRGB {
 <d3e16e81-7835-11cf-8f52-0040333594a3>
 FLOAT red;
 FLOAT green;
 FLOAT blue;
}

template Material {
 <3d82ab4d-62da-11cf-ab39-0020af71e433>
 ColorRGBA faceColor;
 FLOAT power;
 ColorRGB specularColor;
 ColorRGB emissiveColor;
 [...]
}

template MeshMaterialList {
 <f6f23f42-7686-11cf-8f52-0040333594a3>
 DWORD nMaterials;
 DWORD nFaceIndexes;
 array DWORD faceIndexes[nFaceIndexes];
 [Material <3d82ab4d-62da-11cf-ab39-0020af71e433>]
}

template TextureFilename {
 <a42790e1-7810-11cf-8f52-0040333594a3>
 STRING filename;
}

template Coords2d {
 <f6f23f44-7686-11cf-8f52-0040333594a3>
 FLOAT u;
 FLOAT v;
}

template MeshTextureCoords {
 <f6f23f40-7686-11cf-8f52-0040333594a3>
 DWORD nTextureCoords;
 array Coords2d textureCoords[nTextureCoords];
}

template MeshNormals {
 <f6f23f43-7686-11cf-8f52-0040333594a3>
 DWORD nNormals;
 array Vector normals[nNormals];
 DWORD nFaceNormals;
 array MeshFace faceNormals[nFaceNormals];
}


Mesh  {
 382;
 -11.500000;4.700000;5.000000;,
 -7.500000;4.700000;5.000000;,
 -11.500000;5.900000;8.000000;,
 -7.500000;5.900000;8.000000;,
 -11.500000;6.900000;11.000000;,
 -7.500000;6.900000;11.000000;,
 -11.500000;7.700000;14.000000;,
 -7.500000;7.700000;14.000000;,
 -11.500000;8.400000;17.000000;,
 -7.500000;8.400000;17.000000;,
 -11.500000;9.000000;20.000000;,
 -7.500000;9.000000;20.000000;,
 -11.500000;9.000000;20.000000;,
 15.300000;9.000000;20.000000;,
 -11.500000;9.500000;23.000000;,
 15.300000;9.500000;23.000000;,
 -11.500000;9.900000;26.000000;,
 15.300000;9.900000;26.000000;,
 -11.500000;10.200000;29.000000;,
 15.300000;10.200000;29.000000;,
 -11.500000;10.400000;32.000000;,
 15.300000;10.400000;32.000000;,
 -11.500000;10.400000;50.000000;,
 15.300000;10.400000;50.000000;,
 -7.500000;9.000000;5.000000;,
 -7.500000;9.000000;20.000000;,
 -7.500000;4.700000;5.000000;,
 -7.500000;4.700000;20.000000;,
 -7.500000;4.700000;5.000000;,
 -7.500000;4.700000;20.000000;,
 -7.500000;4.400000;5.000000;,
 -7.500000;4.400000;20.000000;,
 -11.500000;4.700000;16.000000;,
 -7.500000;4.700000;16.000000;,
 -11.500000;1.100000;6.000000;,
 -7.500000;1.100000;6.000000;,
 -11.500000;4.700000;5.000000;,
 -7.500000;4.700000;5.000000;,
 -11.500000;4.400000;5.000000;,
 -7.500000;4.400000;5.000000;,
 -7.500000;6.000000;20.000000;,
 -1.800000;6.000000;20.000000;,
 -7.500000;4.400000;20.000000;,
 -1.800000;4.400000;20.000000;,
 5.600000;6.000000;20.000000;,
 11.300000;6.000000;20.000000;,
 5.600000;4.400000;20.000000;,
 11.300000;4.400000;20.000000;,
 -7.500000;6.000000;55.000000;,
 -1.800000;6.000000;55.000000;,
 -7.500000;4.400000;55.000000;,
 -1.800000;4.400000;55.000000;,
 5.600000;6.000000;55.000000;,
 11.300000;6.000000;55.000000;,
 5.600000;4.400000;55.000000;,
 11.300000;4.400000;55.000000;,
 -7.500000;4.400000;4.000000;,
 -7.500000;4.400000;14.000000;,
 -7.500000;1.100000;4.000000;,
 -7.500000;1.100000;14.000000;,
 11.300000;4.400000;50.000000;,
 11.300000;4.400000;40.000000;,
 11.300000;1.100000;50.000000;,
 11.300000;1.100000;40.000000;,
 -11.500000;4.400000;4.000000;,
 -11.500000;4.400000;19.000000;,
 -11.500000;1.100000;4.000000;,
 -11.500000;1.100000;19.000000;,
 15.300000;6.000000;50.000000;,
 15.300000;6.000000;40.000000;,
 15.300000;1.100000;50.000000;,
 15.300000;1.100000;40.000000;,
 -7.300000;4.400000;9.999999;,
 -7.300000;0.000000;9.999999;,
 -7.500000;0.000000;9.999999;,
 -7.500000;4.400000;9.999999;,
 -7.300000;4.400000;14.999999;,
 -7.300000;0.000000;14.999999;,
 -7.500000;0.000000;14.999999;,
 -7.500000;4.400000;14.999999;,
 -7.501000;4.400000;14.999999;,
 -7.501000;3.800000;14.999999;,
 -11.500999;3.800000;14.999999;,
 -11.500999;4.400000;14.999999;,
 -7.501000;4.400000;20.199999;,
 -7.501000;3.800000;20.199999;,
 -11.500999;3.800000;20.199999;,
 -11.500999;4.400000;20.199999;,
 15.299999;6.000000;39.599995;,
 15.299999;0.000000;39.599995;,
 11.299999;0.000000;39.599995;,
 11.299999;6.000000;39.599995;,
 15.299999;6.000000;40.599995;,
 15.299999;0.000000;40.599995;,
 11.299999;0.000000;40.599995;,
 11.299999;6.000000;40.599995;,
 15.300999;6.000000;35.399998;,
 15.300999;4.399999;35.399998;,
 11.300999;4.399999;35.399998;,
 11.300999;6.000000;35.399998;,
 15.300999;6.000000;39.599995;,
 15.300999;4.399999;39.599995;,
 11.300999;4.399999;39.599995;,
 11.300999;6.000000;39.599995;,
 -7.500000;9.000000;20.000000;,
 15.300000;9.000000;20.000000;,
 -7.500000;5.800000;20.000000;,
 15.300000;5.800000;20.000000;,
 29.500000;9.500000;50.000000;,
 60.000000;9.500000;50.000000;,
 29.500000;7.000000;50.000000;,
 60.000000;7.000000;50.000000;,
 15.300000;9.000000;47.000000;,
 26.500000;9.000000;47.000000;,
 15.300000;5.800000;47.000000;,
 26.500000;5.800000;47.000000;,
 -11.500000;6.000000;26.000000;,
 -11.500000;1.100000;26.000000;,
 -8.500000;6.000000;26.000000;,
 -8.500000;1.100000;26.000000;,
 -8.500000;6.000000;29.000000;,
 -8.500000;1.100000;29.000000;,
 15.300000;6.000000;26.000000;,
 15.300000;1.100000;26.000000;,
 11.300000;6.000000;26.000000;,
 11.300000;1.100000;26.000000;,
 11.300000;6.000000;29.000000;,
 11.300000;1.100000;29.000000;,
 29.500000;9.500000;47.000000;,
 29.500000;0.000000;47.000000;,
 26.500000;9.500000;47.000000;,
 26.500000;0.000000;47.000000;,
 26.500000;9.500000;50.000000;,
 26.500000;0.000000;50.000000;,
 -11.099999;6.000000;20.049997;,
 -11.099999;0.000000;20.049997;,
 -11.499999;0.000000;20.049997;,
 -11.499999;6.000000;20.049997;,
 -11.099999;6.000000;20.449999;,
 -11.099999;0.000000;20.449999;,
 -11.499999;0.000000;20.449999;,
 -11.499999;6.000000;20.449999;,
 -7.100000;6.000000;20.049997;,
 -7.100000;0.000000;20.049997;,
 -7.500000;0.000000;20.049997;,
 -7.500000;6.000000;20.049997;,
 -7.100000;6.000000;20.449999;,
 -7.100000;0.000000;20.449999;,
 -7.500000;0.000000;20.449999;,
 -7.500000;6.000000;20.449999;,
 11.299999;6.000000;20.049997;,
 11.299999;0.000000;20.049997;,
 10.900000;0.000000;20.049997;,
 10.900000;6.000000;20.049997;,
 11.299999;6.000000;20.449999;,
 11.299999;0.000000;20.449999;,
 10.900000;0.000000;20.449999;,
 10.900000;6.000000;20.449999;,
 15.299999;6.000000;20.049997;,
 15.299999;0.000000;20.049997;,
 14.900000;0.000000;20.049997;,
 14.900000;6.000000;20.049997;,
 15.299999;6.000000;20.449999;,
 15.299999;0.000000;20.449999;,
 14.900000;0.000000;20.449999;,
 14.900000;6.000000;20.449999;,
 -11.099999;6.000000;35.299995;,
 -11.099999;0.000000;35.299995;,
 -11.499999;0.000000;35.299995;,
 -11.499999;6.000000;35.299995;,
 -11.099999;6.000000;35.699997;,
 -11.099999;0.000000;35.699997;,
 -11.499999;0.000000;35.699997;,
 -11.499999;6.000000;35.699997;,
 -7.100000;6.000000;35.299995;,
 -7.100000;0.000000;35.299995;,
 -7.500000;0.000000;35.299995;,
 -7.500000;6.000000;35.299995;,
 -7.100000;6.000000;35.699997;,
 -7.100000;0.000000;35.699997;,
 -7.500000;0.000000;35.699997;,
 -7.500000;6.000000;35.699997;,
 11.299999;6.000000;35.299995;,
 11.299999;0.000000;35.299995;,
 10.900000;0.000000;35.299995;,
 10.900000;6.000000;35.299995;,
 11.299999;6.000000;35.699997;,
 11.299999;0.000000;35.699997;,
 10.900000;0.000000;35.699997;,
 10.900000;6.000000;35.699997;,
 15.299999;6.000000;35.299995;,
 15.299999;0.000000;35.299995;,
 14.900000;0.000000;35.299995;,
 14.900000;6.000000;35.299995;,
 15.299999;6.000000;35.699997;,
 15.299999;0.000000;35.699997;,
 14.900000;0.000000;35.699997;,
 14.900000;6.000000;35.699997;,
 -11.099999;6.000000;42.299995;,
 -11.099999;0.000000;42.299995;,
 -11.499999;0.000000;42.299995;,
 -11.499999;6.000000;42.299995;,
 -11.099999;6.000000;42.699997;,
 -11.099999;0.000000;42.699997;,
 -11.499999;0.000000;42.699997;,
 -11.499999;6.000000;42.699997;,
 -7.100000;6.000000;42.299995;,
 -7.100000;0.000000;42.299995;,
 -7.500000;0.000000;42.299995;,
 -7.500000;6.000000;42.299995;,
 -7.100000;6.000000;42.699997;,
 -7.100000;0.000000;42.699997;,
 -7.500000;0.000000;42.699997;,
 -7.500000;6.000000;42.699997;,
 11.299999;6.000000;42.299995;,
 11.299999;0.000000;42.299995;,
 10.900000;0.000000;42.299995;,
 10.900000;6.000000;42.299995;,
 11.299999;6.000000;42.699997;,
 11.299999;0.000000;42.699997;,
 10.900000;0.000000;42.699997;,
 10.900000;6.000000;42.699997;,
 -7.100000;6.000000;49.299995;,
 -7.100000;0.000000;49.299995;,
 -7.500000;0.000000;49.299995;,
 -7.500000;6.000000;49.299995;,
 -7.100000;6.000000;49.699997;,
 -7.100000;0.000000;49.699997;,
 -7.500000;0.000000;49.699997;,
 -7.500000;6.000000;49.699997;,
 -11.099999;6.000000;49.299995;,
 -11.099999;0.000000;49.299995;,
 -11.499999;0.000000;49.299995;,
 -11.499999;6.000000;49.299995;,
 -11.099999;6.000000;49.699997;,
 -11.099999;0.000000;49.699997;,
 -11.499999;0.000000;49.699997;,
 -11.499999;6.000000;49.699997;,
 11.299999;6.000000;49.299995;,
 11.299999;0.000000;49.299995;,
 10.900000;0.000000;49.299995;,
 10.900000;6.000000;49.299995;,
 11.299999;6.000000;49.699997;,
 11.299999;0.000000;49.699997;,
 10.900000;0.000000;49.699997;,
 10.900000;6.000000;49.699997;,
 -11.099999;6.000000;54.649994;,
 -11.099999;0.000000;54.649994;,
 -11.499999;0.000000;54.649994;,
 -11.499999;6.000000;54.649994;,
 -11.099999;6.000000;55.049995;,
 -11.099999;0.000000;55.049995;,
 -11.499999;0.000000;55.049995;,
 -11.499999;6.000000;55.049995;,
 -7.100000;6.000000;54.649994;,
 -7.100000;0.000000;54.649994;,
 -7.500000;0.000000;54.649994;,
 -7.500000;6.000000;54.649994;,
 -7.100000;6.000000;55.049995;,
 -7.100000;0.000000;55.049995;,
 -7.500000;0.000000;55.049995;,
 -7.500000;6.000000;55.049995;,
 11.299999;6.000000;54.649994;,
 11.299999;0.000000;54.649994;,
 10.900000;0.000000;54.649994;,
 10.900000;6.000000;54.649994;,
 11.299999;6.000000;55.049995;,
 11.299999;0.000000;55.049995;,
 10.900000;0.000000;55.049995;,
 10.900000;6.000000;55.049995;,
 15.299999;6.000000;54.649994;,
 15.299999;0.000000;54.649994;,
 14.900000;0.000000;54.649994;,
 14.900000;6.000000;54.649994;,
 15.299999;6.000000;55.049995;,
 15.299999;0.000000;55.049995;,
 14.900000;0.000000;55.049995;,
 14.900000;6.000000;55.049995;,
 -11.500000;6.400000;22.500000;,
 15.300000;6.400000;22.500000;,
 -11.500000;6.000000;22.500000;,
 15.300000;6.000000;22.500000;,
 -11.500000;6.000000;22.400000;,
 15.300000;6.000000;22.400000;,
 -11.500000;6.000000;22.600000;,
 15.300000;6.000000;22.600000;,
 -11.500000;6.400000;25.000000;,
 15.300000;6.400000;25.000000;,
 -11.500000;6.000000;25.000000;,
 15.300000;6.000000;25.000000;,
 -11.500000;6.400000;24.900000;,
 15.300000;6.400000;24.900000;,
 -11.500000;6.000000;25.100000;,
 15.300000;6.000000;25.100000;,
 -11.500000;6.400000;27.500000;,
 15.300000;6.400000;27.500000;,
 -11.500000;6.000000;27.500000;,
 15.300000;6.000000;27.500000;,
 -11.500000;6.000000;27.400000;,
 15.300000;6.000000;27.400000;,
 -11.500000;6.000000;27.600000;,
 15.300000;6.000000;27.600000;,
 -11.500000;6.400000;30.000000;,
 15.300000;6.400000;30.000000;,
 -11.500000;6.000000;30.000000;,
 15.300000;6.000000;30.000000;,
 -11.500000;6.400000;29.900000;,
 15.300000;6.400000;29.900000;,
 -11.500000;6.000000;30.100000;,
 15.300000;6.000000;30.100000;,
 -11.500000;6.400000;32.500000;,
 15.300000;6.400000;32.500000;,
 -11.500000;6.000000;32.500000;,
 15.300000;6.000000;32.500000;,
 -11.500000;6.000000;32.400002;,
 15.300000;6.000000;32.400002;,
 -11.500000;6.000000;32.599998;,
 15.300000;6.000000;32.599998;,
 -11.500000;6.400000;35.500000;,
 15.300000;6.400000;35.500000;,
 -11.500000;6.000000;35.500000;,
 15.300000;6.000000;35.500000;,
 -11.500000;6.000000;35.400002;,
 15.300000;6.000000;35.400002;,
 -11.500000;6.000000;35.599998;,
 15.300000;6.000000;35.599998;,
 -11.500000;6.400000;38.000000;,
 15.300000;6.400000;38.000000;,
 -11.500000;6.000000;38.000000;,
 15.300000;6.000000;38.000000;,
 -11.500000;6.400000;37.900002;,
 15.300000;6.400000;37.900002;,
 -11.500000;6.000000;38.099998;,
 15.300000;6.000000;38.099998;,
 -11.500000;6.400000;40.000000;,
 15.300000;6.400000;40.000000;,
 -11.500000;6.000000;40.000000;,
 15.300000;6.000000;40.000000;,
 -11.500000;6.400000;39.900002;,
 15.300000;6.400000;39.900002;,
 -11.500000;6.000000;40.099998;,
 15.300000;6.000000;40.099998;,
 -11.500000;6.400000;42.500000;,
 15.300000;6.400000;42.500000;,
 -11.500000;6.000000;42.500000;,
 15.300000;6.000000;42.500000;,
 -11.500000;6.000000;42.400002;,
 15.300000;6.000000;42.400002;,
 -11.500000;6.000000;42.599998;,
 15.300000;6.000000;42.599998;,
 -11.500000;6.400000;45.000000;,
 15.300000;6.400000;45.000000;,
 -11.500000;6.000000;45.000000;,
 15.300000;6.000000;45.000000;,
 -11.500000;6.400000;44.900002;,
 15.300000;6.400000;44.900002;,
 -11.500000;6.000000;45.099998;,
 15.300000;6.000000;45.099998;,
 -11.500000;6.400000;47.000000;,
 15.300000;6.400000;47.000000;,
 -11.500000;6.000000;47.000000;,
 15.300000;6.000000;47.000000;,
 -11.500000;6.400000;46.900002;,
 15.300000;6.400000;46.900002;,
 -11.500000;6.000000;47.099998;,
 15.300000;6.000000;47.099998;,
 -11.500000;6.400000;49.500000;,
 15.300000;6.400000;49.500000;,
 -11.500000;6.000000;49.500000;,
 15.300000;6.000000;49.500000;,
 -11.500000;6.000000;49.400002;,
 15.300000;6.000000;49.400002;,
 -11.500000;6.000000;49.599998;,
 15.300000;6.000000;49.599998;,
 -11.500000;6.400000;52.500000;,
 15.300000;6.400000;52.500000;,
 -11.500000;6.000000;52.500000;,
 15.300000;6.000000;52.500000;,
 -11.500000;6.000000;52.400002;,
 15.300000;6.000000;52.400002;,
 -11.500000;6.000000;52.599998;,
 15.300000;6.000000;52.599998;;
 414;
 3;0,1,3;,
 3;0,3,2;,
 3;2,3,1;,
 3;2,1,0;,
 3;2,3,5;,
 3;2,5,4;,
 3;4,5,3;,
 3;4,3,2;,
 3;4,5,7;,
 3;4,7,6;,
 3;6,7,5;,
 3;6,5,4;,
 3;6,7,9;,
 3;6,9,8;,
 3;8,9,7;,
 3;8,7,6;,
 3;8,9,11;,
 3;8,11,10;,
 3;10,11,9;,
 3;10,9,8;,
 3;12,13,15;,
 3;12,15,14;,
 3;14,15,13;,
 3;14,13,12;,
 3;14,15,17;,
 3;14,17,16;,
 3;16,17,15;,
 3;16,15,14;,
 3;16,17,19;,
 3;16,19,18;,
 3;18,19,17;,
 3;18,17,16;,
 3;18,19,21;,
 3;18,21,20;,
 3;20,21,19;,
 3;20,19,18;,
 3;20,21,23;,
 3;20,23,22;,
 3;22,23,21;,
 3;22,21,20;,
 3;24,25,27;,
 3;24,27,26;,
 3;26,27,25;,
 3;26,25,24;,
 3;28,29,31;,
 3;28,31,30;,
 3;32,33,35;,
 3;32,35,34;,
 3;34,35,33;,
 3;34,33,32;,
 3;36,37,39;,
 3;36,39,38;,
 3;40,41,43;,
 3;40,43,42;,
 3;44,45,47;,
 3;44,47,46;,
 3;48,49,51;,
 3;48,51,50;,
 3;52,53,55;,
 3;52,55,54;,
 3;56,57,59;,
 3;56,59,58;,
 3;60,61,63;,
 3;60,63,62;,
 3;64,65,67;,
 3;64,67,66;,
 3;68,69,71;,
 3;68,71,70;,
 3;72,73,74;,
 3;72,74,75;,
 3;75,74,78;,
 3;75,78,79;,
 3;79,78,77;,
 3;79,77,76;,
 3;76,77,73;,
 3;76,73,72;,
 3;72,75,79;,
 3;72,79,76;,
 3;73,77,78;,
 3;73,78,74;,
 3;80,81,82;,
 3;80,82,83;,
 3;83,82,86;,
 3;83,86,87;,
 3;87,86,85;,
 3;87,85,84;,
 3;84,85,81;,
 3;84,81,80;,
 3;80,83,87;,
 3;80,87,84;,
 3;81,85,86;,
 3;81,86,82;,
 3;88,89,90;,
 3;88,90,91;,
 3;91,90,94;,
 3;91,94,95;,
 3;95,94,93;,
 3;95,93,92;,
 3;92,93,89;,
 3;92,89,88;,
 3;88,91,95;,
 3;88,95,92;,
 3;89,93,94;,
 3;89,94,90;,
 3;96,97,98;,
 3;96,98,99;,
 3;99,98,102;,
 3;99,102,103;,
 3;103,102,101;,
 3;103,101,100;,
 3;100,101,97;,
 3;100,97,96;,
 3;96,99,103;,
 3;96,103,100;,
 3;97,101,102;,
 3;97,102,98;,
 3;104,105,107;,
 3;104,107,106;,
 3;108,109,111;,
 3;108,111,110;,
 3;112,113,115;,
 3;112,115,114;,
 3;116,117,119;,
 3;116,119,118;,
 3;118,119,117;,
 3;118,117,116;,
 3;118,119,121;,
 3;118,121,120;,
 3;120,121,119;,
 3;120,119,118;,
 3;122,123,125;,
 3;122,125,124;,
 3;124,125,123;,
 3;124,123,122;,
 3;124,125,127;,
 3;124,127,126;,
 3;126,127,125;,
 3;126,125,124;,
 3;128,129,131;,
 3;128,131,130;,
 3;130,131,129;,
 3;130,129,128;,
 3;130,131,133;,
 3;130,133,132;,
 3;132,133,131;,
 3;132,131,130;,
 3;134,135,136;,
 3;134,136,137;,
 3;137,136,140;,
 3;137,140,141;,
 3;141,140,139;,
 3;141,139,138;,
 3;138,139,135;,
 3;138,135,134;,
 3;134,137,141;,
 3;134,141,138;,
 3;135,139,140;,
 3;135,140,136;,
 3;142,143,144;,
 3;142,144,145;,
 3;145,144,148;,
 3;145,148,149;,
 3;149,148,147;,
 3;149,147,146;,
 3;146,147,143;,
 3;146,143,142;,
 3;142,145,149;,
 3;142,149,146;,
 3;143,147,148;,
 3;143,148,144;,
 3;150,151,152;,
 3;150,152,153;,
 3;153,152,156;,
 3;153,156,157;,
 3;157,156,155;,
 3;157,155,154;,
 3;154,155,151;,
 3;154,151,150;,
 3;150,153,157;,
 3;150,157,154;,
 3;151,155,156;,
 3;151,156,152;,
 3;158,159,160;,
 3;158,160,161;,
 3;161,160,164;,
 3;161,164,165;,
 3;165,164,163;,
 3;165,163,162;,
 3;162,163,159;,
 3;162,159,158;,
 3;158,161,165;,
 3;158,165,162;,
 3;159,163,164;,
 3;159,164,160;,
 3;166,167,168;,
 3;166,168,169;,
 3;169,168,172;,
 3;169,172,173;,
 3;173,172,171;,
 3;173,171,170;,
 3;170,171,167;,
 3;170,167,166;,
 3;166,169,173;,
 3;166,173,170;,
 3;167,171,172;,
 3;167,172,168;,
 3;174,175,176;,
 3;174,176,177;,
 3;177,176,180;,
 3;177,180,181;,
 3;181,180,179;,
 3;181,179,178;,
 3;178,179,175;,
 3;178,175,174;,
 3;174,177,181;,
 3;174,181,178;,
 3;175,179,180;,
 3;175,180,176;,
 3;182,183,184;,
 3;182,184,185;,
 3;185,184,188;,
 3;185,188,189;,
 3;189,188,187;,
 3;189,187,186;,
 3;186,187,183;,
 3;186,183,182;,
 3;182,185,189;,
 3;182,189,186;,
 3;183,187,188;,
 3;183,188,184;,
 3;190,191,192;,
 3;190,192,193;,
 3;193,192,196;,
 3;193,196,197;,
 3;197,196,195;,
 3;197,195,194;,
 3;194,195,191;,
 3;194,191,190;,
 3;190,193,197;,
 3;190,197,194;,
 3;191,195,196;,
 3;191,196,192;,
 3;198,199,200;,
 3;198,200,201;,
 3;201,200,204;,
 3;201,204,205;,
 3;205,204,203;,
 3;205,203,202;,
 3;202,203,199;,
 3;202,199,198;,
 3;198,201,205;,
 3;198,205,202;,
 3;199,203,204;,
 3;199,204,200;,
 3;206,207,208;,
 3;206,208,209;,
 3;209,208,212;,
 3;209,212,213;,
 3;213,212,211;,
 3;213,211,210;,
 3;210,211,207;,
 3;210,207,206;,
 3;206,209,213;,
 3;206,213,210;,
 3;207,211,212;,
 3;207,212,208;,
 3;214,215,216;,
 3;214,216,217;,
 3;217,216,220;,
 3;217,220,221;,
 3;221,220,219;,
 3;221,219,218;,
 3;218,219,215;,
 3;218,215,214;,
 3;214,217,221;,
 3;214,221,218;,
 3;215,219,220;,
 3;215,220,216;,
 3;222,223,224;,
 3;222,224,225;,
 3;225,224,228;,
 3;225,228,229;,
 3;229,228,227;,
 3;229,227,226;,
 3;226,227,223;,
 3;226,223,222;,
 3;222,225,229;,
 3;222,229,226;,
 3;223,227,228;,
 3;223,228,224;,
 3;230,231,232;,
 3;230,232,233;,
 3;233,232,236;,
 3;233,236,237;,
 3;237,236,235;,
 3;237,235,234;,
 3;234,235,231;,
 3;234,231,230;,
 3;230,233,237;,
 3;230,237,234;,
 3;231,235,236;,
 3;231,236,232;,
 3;238,239,240;,
 3;238,240,241;,
 3;241,240,244;,
 3;241,244,245;,
 3;245,244,243;,
 3;245,243,242;,
 3;242,243,239;,
 3;242,239,238;,
 3;238,241,245;,
 3;238,245,242;,
 3;239,243,244;,
 3;239,244,240;,
 3;246,247,248;,
 3;246,248,249;,
 3;249,248,252;,
 3;249,252,253;,
 3;253,252,251;,
 3;253,251,250;,
 3;250,251,247;,
 3;250,247,246;,
 3;246,249,253;,
 3;246,253,250;,
 3;247,251,252;,
 3;247,252,248;,
 3;254,255,256;,
 3;254,256,257;,
 3;257,256,260;,
 3;257,260,261;,
 3;261,260,259;,
 3;261,259,258;,
 3;258,259,255;,
 3;258,255,254;,
 3;254,257,261;,
 3;254,261,258;,
 3;255,259,260;,
 3;255,260,256;,
 3;262,263,264;,
 3;262,264,265;,
 3;265,264,268;,
 3;265,268,269;,
 3;269,268,267;,
 3;269,267,266;,
 3;266,267,263;,
 3;266,263,262;,
 3;262,265,269;,
 3;262,269,266;,
 3;263,267,268;,
 3;263,268,264;,
 3;270,271,272;,
 3;270,272,273;,
 3;273,272,276;,
 3;273,276,277;,
 3;277,276,275;,
 3;277,275,274;,
 3;274,275,271;,
 3;274,271,270;,
 3;270,273,277;,
 3;270,277,274;,
 3;271,275,276;,
 3;271,276,272;,
 3;278,279,281;,
 3;278,281,280;,
 3;282,283,285;,
 3;282,285,284;,
 3;286,287,289;,
 3;286,289,288;,
 3;290,291,293;,
 3;290,293,292;,
 3;294,295,297;,
 3;294,297,296;,
 3;298,299,301;,
 3;298,301,300;,
 3;302,303,305;,
 3;302,305,304;,
 3;306,307,309;,
 3;306,309,308;,
 3;310,311,313;,
 3;310,313,312;,
 3;314,315,317;,
 3;314,317,316;,
 3;318,319,321;,
 3;318,321,320;,
 3;322,323,325;,
 3;322,325,324;,
 3;326,327,329;,
 3;326,329,328;,
 3;330,331,333;,
 3;330,333,332;,
 3;334,335,337;,
 3;334,337,336;,
 3;338,339,341;,
 3;338,341,340;,
 3;342,343,345;,
 3;342,345,344;,
 3;346,347,349;,
 3;346,349,348;,
 3;350,351,353;,
 3;350,353,352;,
 3;354,355,357;,
 3;354,357,356;,
 3;358,359,361;,
 3;358,361,360;,
 3;362,363,365;,
 3;362,365,364;,
 3;366,367,369;,
 3;366,369,368;,
 3;370,371,373;,
 3;370,373,372;,
 3;374,375,377;,
 3;374,377,376;,
 3;378,379,381;,
 3;378,381,380;;

 MeshMaterialList  {
  33;
  414;
  0,
  0,
  0,
  0,
  0,
  0,
  0,
  0,
  0,
  0,
  0,
  0,
  0,
  0,
  0,
  0,
  0,
  0,
  0,
  0,
  0,
  0,
  0,
  0,
  0,
  0,
  0,
  0,
  0,
  0,
  0,
  0,
  0,
  0,
  0,
  0,
  0,
  0,
  0,
  0,
  1,
  1,
  1,
  1,
  2,
  2,
  3,
  3,
  3,
  3,
  4,
  4,
  4,
  4,
  4,
  4,
  4,
  4,
  4,
  4,
  5,
  5,
  5,
  5,
  6,
  6,
  6,
  6,
  7,
  7,
  7,
  7,
  7,
  7,
  7,
  7,
  7,
  7,
  7,
  7,
  8,
  8,
  8,
  8,
  8,
  8,
  8,
  8,
  8,
  8,
  8,
  8,
  9,
  9,
  9,
  9,
  9,
  9,
  9,
  9,
  9,
  9,
  9,
  9,
  10,
  10,
  10,
  10,
  10,
  10,
  10,
  10,
  10,
  10,
  10,
  10,
  11,
  11,
  12,
  12,
  12,
  12,
  13,
  13,
  13,
  13,
  13,
  13,
  13,
  13,
  13,
  13,
  13,
  13,
  13,
  13,
  13,
  13,
  13,
  13,
  13,
  13,
  13,
  13,
  13,
  13,
  14,
  14,
  14,
  14,
  14,
  14,
  14,
  14,
  14,
  14,
  14,
  14,
  15,
  15,
  15,
  15,
  15,
  15,
  15,
  15,
  15,
  15,
  15,
  15,
  16,
  16,
  16,
  16,
  16,
  16,
  16,
  16,
  16,
  16,
  16,
  16,
  17,
  17,
  17,
  17,
  17,
  17,
  17,
  17,
  17,
  17,
  17,
  17,
  18,
  18,
  18,
  18,
  18,
  18,
  18,
  18,
  18,
  18,
  18,
  18,
  19,
  19,
  19,
  19,
  19,
  19,
  19,
  19,
  19,
  19,
  19,
  19,
  20,
  20,
  20,
  20,
  20,
  20,
  20,
  20,
  20,
  20,
  20,
  20,
  21,
  21,
  21,
  21,
  21,
  21,
  21,
  21,
  21,
  21,
  21,
  21,
  22,
  22,
  22,
  22,
  22,
  22,
  22,
  22,
  22,
  22,
  22,
  22,
  23,
  23,
  23,
  23,
  23,
  23,
  23,
  23,
  23,
  23,
  23,
  23,
  24,
  24,
  24,
  24,
  24,
  24,
  24,
  24,
  24,
  24,
  24,
  24,
  25,
  25,
  25,
  25,
  25,
  25,
  25,
  25,
  25,
  25,
  25,
  25,
  26,
  26,
  26,
  26,
  26,
  26,
  26,
  26,
  26,
  26,
  26,
  26,
  27,
  27,
  27,
  27,
  27,
  27,
  27,
  27,
  27,
  27,
  27,
  27,
  28,
  28,
  28,
  28,
  28,
  28,
  28,
  28,
  28,
  28,
  28,
  28,
  29,
  29,
  29,
  29,
  29,
  29,
  29,
  29,
  29,
  29,
  29,
  29,
  30,
  30,
  30,
  30,
  30,
  30,
  30,
  30,
  30,
  30,
  30,
  30,
  31,
  31,
  31,
  31,
  31,
  31,
  31,
  31,
  31,
  31,
  31,
  31,
  32,
  32,
  32,
  32,
  32,
  32,
  32,
  32,
  32,
  32,
  32,
  32,
  32,
  32,
  32,
  32,
  32,
  32,
  32,
  32,
  32,
  32,
  32,
  32,
  32,
  32,
  32,
  32,
  32,
  32,
  32,
  32,
  32,
  32,
  32,
  32,
  32,
  32,
  32,
  32,
  32,
  32,
  32,
  32,
  32,
  32,
  32,
  32,
  32,
  32,
  32,
  32;

  Material  {
   0.250980;0.250980;0.376471;1.000000;;
   0.000000;
   0.000000;0.000000;0.000000;;
   0.000000;0.000000;0.000000;;
  }

  Material  {
   1.000000;1.000000;1.000000;1.000000;;
   0.000000;
   0.000000;0.000000;0.000000;;
   0.000000;0.000000;0.000000;;

   TextureFilename  {
    "sta30a.dds";
   }
  }

  Material  {
   0.250980;0.250980;0.282353;1.000000;;
   0.000000;
   0.000000;0.000000;0.000000;;
   0.000000;0.000000;0.000000;;
  }

  Material  {
   1.000000;1.000000;1.000000;1.000000;;
   0.000000;
   0.000000;0.000000;0.000000;;
   0.000000;0.000000;0.000000;;

   TextureFilename  {
    "kaidan2.dds";
   }
  }

  Material  {
   0.878431;0.878431;0.878431;1.000000;;
   0.000000;
   0.000000;0.000000;0.000000;;
   0.000000;0.000000;0.000000;;
  }

  Material  {
   1.000000;1.000000;1.000000;1.000000;;
   0.000000;
   0.000000;0.000000;0.000000;;
   0.000000;0.000000;0.000000;;

   TextureFilename  {
    "sta30z.dds";
   }
  }

  Material  {
   0.501961;0.501961;0.517647;1.000000;;
   0.000000;
   0.000000;0.000000;0.000000;;
   0.000000;0.000000;0.000000;;
  }

  Material  {
   0.501961;0.501961;0.517647;1.000000;;
   0.000000;
   0.000000;0.000000;0.000000;;
   0.000000;0.000000;0.000000;;
  }

  Material  {
   0.501961;0.501961;0.517647;1.000000;;
   0.000000;
   0.000000;0.000000;0.000000;;
   0.000000;0.000000;0.000000;;
  }

  Material  {
   0.501961;0.501961;0.517647;1.000000;;
   0.000000;
   0.000000;0.000000;0.000000;;
   0.000000;0.000000;0.000000;;
  }

  Material  {
   0.501961;0.501961;0.517647;1.000000;;
   0.000000;
   0.000000;0.000000;0.000000;;
   0.000000;0.000000;0.000000;;
  }

  Material  {
   1.000000;1.000000;1.000000;1.000000;;
   0.000000;
   0.000000;0.000000;0.000000;;
   0.000000;0.000000;0.000000;;

   TextureFilename  {
    "sta30b.dds";
   }
  }

  Material  {
   1.000000;1.000000;1.000000;1.000000;;
   0.000000;
   0.000000;0.000000;0.000000;;
   0.000000;0.000000;0.000000;;

   TextureFilename  {
    "sta30c.dds";
   }
  }

  Material  {
   1.000000;1.000000;1.000000;1.000000;;
   0.000000;
   0.000000;0.000000;0.000000;;
   0.000000;0.000000;0.000000;;

   TextureFilename  {
    "ev0.dds";
   }
  }

  Material  {
   0.501961;0.501961;0.517647;1.000000;;
   0.000000;
   0.000000;0.000000;0.000000;;
   0.000000;0.000000;0.000000;;
  }

  Material  {
   0.501961;0.501961;0.517647;1.000000;;
   0.000000;
   0.000000;0.000000;0.000000;;
   0.000000;0.000000;0.000000;;
  }

  Material  {
   0.501961;0.501961;0.517647;1.000000;;
   0.000000;
   0.000000;0.000000;0.000000;;
   0.000000;0.000000;0.000000;;
  }

  Material  {
   0.501961;0.501961;0.517647;1.000000;;
   0.000000;
   0.000000;0.000000;0.000000;;
   0.000000;0.000000;0.000000;;
  }

  Material  {
   0.501961;0.501961;0.517647;1.000000;;
   0.000000;
   0.000000;0.000000;0.000000;;
   0.000000;0.000000;0.000000;;
  }

  Material  {
   0.501961;0.501961;0.517647;1.000000;;
   0.000000;
   0.000000;0.000000;0.000000;;
   0.000000;0.000000;0.000000;;
  }

  Material  {
   0.501961;0.501961;0.517647;1.000000;;
   0.000000;
   0.000000;0.000000;0.000000;;
   0.000000;0.000000;0.000000;;
  }

  Material  {
   0.501961;0.501961;0.517647;1.000000;;
   0.000000;
   0.000000;0.000000;0.000000;;
   0.000000;0.000000;0.000000;;
  }

  Material  {
   0.501961;0.501961;0.517647;1.000000;;
   0.000000;
   0.000000;0.000000;0.000000;;
   0.000000;0.000000;0.000000;;
  }

  Material  {
   0.501961;0.501961;0.517647;1.000000;;
   0.000000;
   0.000000;0.000000;0.000000;;
   0.000000;0.000000;0.000000;;
  }

  Material  {
   0.501961;0.501961;0.517647;1.000000;;
   0.000000;
   0.000000;0.000000;0.000000;;
   0.000000;0.000000;0.000000;;
  }

  Material  {
   0.501961;0.501961;0.517647;1.000000;;
   0.000000;
   0.000000;0.000000;0.000000;;
   0.000000;0.000000;0.000000;;
  }

  Material  {
   0.501961;0.501961;0.517647;1.000000;;
   0.000000;
   0.000000;0.000000;0.000000;;
   0.000000;0.000000;0.000000;;
  }

  Material  {
   0.501961;0.501961;0.517647;1.000000;;
   0.000000;
   0.000000;0.000000;0.000000;;
   0.000000;0.000000;0.000000;;
  }

  Material  {
   0.501961;0.501961;0.517647;1.000000;;
   0.000000;
   0.000000;0.000000;0.000000;;
   0.000000;0.000000;0.000000;;
  }

  Material  {
   0.501961;0.501961;0.517647;1.000000;;
   0.000000;
   0.000000;0.000000;0.000000;;
   0.000000;0.000000;0.000000;;
  }

  Material  {
   0.501961;0.501961;0.517647;1.000000;;
   0.000000;
   0.000000;0.000000;0.000000;;
   0.000000;0.000000;0.000000;;
  }

  Material  {
   0.501961;0.501961;0.517647;1.000000;;
   0.000000;
   0.000000;0.000000;0.000000;;
   0.000000;0.000000;0.000000;;
  }

  Material  {
   0.392157;0.392157;0.431373;1.000000;;
   0.000000;
   0.000000;0.000000;0.000000;;
   0.000000;0.000000;0.000000;;
  }
 }

 MeshTextureCoords  {
  382;
  0.000000;0.000000;,
  0.000000;0.000000;,
  0.000000;0.000000;,
  0.000000;0.000000;,
  0.000000;0.000000;,
  0.000000;0.000000;,
  0.000000;0.000000;,
  0.000000;0.000000;,
  0.000000;0.000000;,
  0.000000;0.000000;,
  0.000000;0.000000;,
  0.000000;0.000000;,
  0.000000;0.000000;,
  0.000000;0.000000;,
  0.000000;0.000000;,
  0.000000;0.000000;,
  0.000000;0.000000;,
  0.000000;0.000000;,
  0.000000;0.000000;,
  0.000000;0.000000;,
  0.000000;0.000000;,
  0.000000;0.000000;,
  0.000000;0.000000;,
  0.000000;0.000000;,
  0.000000;0.000000;,
  1.000000;0.000000;,
  0.000000;1.000000;,
  1.000000;1.000000;,
  0.000000;0.000000;,
  0.000000;0.000000;,
  0.000000;0.000000;,
  0.000000;0.000000;,
  0.000000;0.000000;,
  1.000000;0.000000;,
  0.000000;1.000000;,
  1.000000;1.000000;,
  0.000000;0.000000;,
  0.000000;0.000000;,
  0.000000;0.000000;,
  0.000000;0.000000;,
  0.000000;0.000000;,
  0.000000;0.000000;,
  0.000000;0.000000;,
  0.000000;0.000000;,
  0.000000;0.000000;,
  0.000000;0.000000;,
  0.000000;0.000000;,
  0.000000;0.000000;,
  0.000000;0.000000;,
  0.000000;0.000000;,
  0.000000;0.000000;,
  0.000000;0.000000;,
  0.000000;0.000000;,
  0.000000;0.000000;,
  0.000000;0.000000;,
  0.000000;0.000000;,
  0.000000;0.000000;,
  1.000000;0.000000;,
  0.000000;1.000000;,
  1.000000;1.000000;,
  0.000000;0.000000;,
  1.000000;0.000000;,
  0.000000;1.000000;,
  1.000000;1.000000;,
  0.000000;0.000000;,
  0.000000;0.000000;,
  0.000000;0.000000;,
  0.000000;0.000000;,
  0.000000;0.000000;,
  0.000000;0.000000;,
  0.000000;0.000000;,
  0.000000;0.000000;,
  0.000000;0.000000;,
  0.000000;0.000000;,
  0.000000;0.000000;,
  0.000000;0.000000;,
  0.000000;0.000000;,
  0.000000;0.000000;,
  0.000000;0.000000;,
  0.000000;0.000000;,
  0.000000;0.000000;,
  0.000000;0.000000;,
  0.000000;0.000000;,
  0.000000;0.000000;,
  0.000000;0.000000;,
  0.000000;0.000000;,
  0.000000;0.000000;,
  0.000000;0.000000;,
  0.000000;0.000000;,
  0.000000;0.000000;,
  0.000000;0.000000;,
  0.000000;0.000000;,
  0.000000;0.000000;,
  0.000000;0.000000;,
  0.000000;0.000000;,
  0.000000;0.000000;,
  0.000000;0.000000;,
  0.000000;0.000000;,
  0.000000;0.000000;,
  0.000000;0.000000;,
  0.000000;0.000000;,
  0.000000;0.000000;,
  0.000000;0.000000;,
  0.000000;0.000000;,
  0.000000;0.000000;,
  1.000000;0.000000;,
  0.000000;1.000000;,
  1.000000;1.000000;,
  0.000000;0.000000;,
  1.000000;0.000000;,
  0.000000;1.000000;,
  1.000000;1.000000;,
  1.000000;0.000000;,
  0.900000;0.000000;,
  1.000000;1.000000;,
  0.900000;1.000000;,
  0.000000;0.000000;,
  0.000000;1.000000;,
  0.500000;0.000000;,
  0.500000;1.000000;,
  1.000000;0.000000;,
  1.000000;1.000000;,
  1.000000;0.000000;,
  1.000000;1.000000;,
  0.500000;0.000000;,
  0.500000;1.000000;,
  1.000000;0.000000;,
  1.000000;1.000000;,
  1.000000;0.000000;,
  1.000000;1.000000;,
  0.500000;0.000000;,
  0.500000;1.000000;,
  1.000000;0.000000;,
  1.000000;1.000000;,
  0.000000;0.000000;,
  0.000000;0.000000;,
  0.000000;0.000000;,
  0.000000;0.000000;,
  0.000000;0.000000;,
  0.000000;0.000000;,
  0.000000;0.000000;,
  0.000000;0.000000;,
  0.000000;0.000000;,
  0.000000;0.000000;,
  0.000000;0.000000;,
  0.000000;0.000000;,
  0.000000;0.000000;,
  0.000000;0.000000;,
  0.000000;0.000000;,
  0.000000;0.000000;,
  0.000000;0.000000;,
  0.000000;0.000000;,
  0.000000;0.000000;,
  0.000000;0.000000;,
  0.000000;0.000000;,
  0.000000;0.000000;,
  0.000000;0.000000;,
  0.000000;0.000000;,
  0.000000;0.000000;,
  0.000000;0.000000;,
  0.000000;0.000000;,
  0.000000;0.000000;,
  0.000000;0.000000;,
  0.000000;0.000000;,
  0.000000;0.000000;,
  0.000000;0.000000;,
  0.000000;0.000000;,
  0.000000;0.000000;,
  0.000000;0.000000;,
  0.000000;0.000000;,
  0.000000;0.000000;,
  0.000000;0.000000;,
  0.000000;0.000000;,
  0.000000;0.000000;,
  0.000000;0.000000;,
  0.000000;0.000000;,
  0.000000;0.000000;,
  0.000000;0.000000;,
  0.000000;0.000000;,
  0.000000;0.000000;,
  0.000000;0.000000;,
  0.000000;0.000000;,
  0.000000;0.000000;,
  0.000000;0.000000;,
  0.000000;0.000000;,
  0.000000;0.000000;,
  0.000000;0.000000;,
  0.000000;0.000000;,
  0.000000;0.000000;,
  0.000000;0.000000;,
  0.000000;0.000000;,
  0.000000;0.000000;,
  0.000000;0.000000;,
  0.000000;0.000000;,
  0.000000;0.000000;,
  0.000000;0.000000;,
  0.000000;0.000000;,
  0.000000;0.000000;,
  0.000000;0.000000;,
  0.000000;0.000000;,
  0.000000;0.000000;,
  0.000000;0.000000;,
  0.000000;0.000000;,
  0.000000;0.000000;,
  0.000000;0.000000;,
  0.000000;0.000000;,
  0.000000;0.000000;,
  0.000000;0.000000;,
  0.000000;0.000000;,
  0.000000;0.000000;,
  0.000000;0.000000;,
  0.000000;0.000000;,
  0.000000;0.000000;,
  0.000000;0.000000;,
  0.000000;0.000000;,
  0.000000;0.000000;,
  0.000000;0.000000;,
  0.000000;0.000000;,
  0.000000;0.000000;,
  0.000000;0.000000;,
  0.000000;0.000000;,
  0.000000;0.000000;,
  0.000000;0.000000;,
  0.000000;0.000000;,
  0.000000;0.000000;,
  0.000000;0.000000;,
  0.000000;0.000000;,
  0.000000;0.000000;,
  0.000000;0.000000;,
  0.000000;0.000000;,
  0.000000;0.000000;,
  0.000000;0.000000;,
  0.000000;0.000000;,
  0.000000;0.000000;,
  0.000000;0.000000;,
  0.000000;0.000000;,
  0.000000;0.000000;,
  0.000000;0.000000;,
  0.000000;0.000000;,
  0.000000;0.000000;,
  0.000000;0.000000;,
  0.000000;0.000000;,
  0.000000;0.000000;,
  0.000000;0.000000;,
  0.000000;0.000000;,
  0.000000;0.000000;,
  0.000000;0.000000;,
  0.000000;0.000000;,
  0.000000;0.000000;,
  0.000000;0.000000;,
  0.000000;0.000000;,
  0.000000;0.000000;,
  0.000000;0.000000;,
  0.000000;0.000000;,
  0.000000;0.000000;,
  0.000000;0.000000;,
  0.000000;0.000000;,
  0.000000;0.000000;,
  0.000000;0.000000;,
  0.000000;0.000000;,
  0.000000;0.000000;,
  0.000000;0.000000;,
  0.000000;0.000000;,
  0.000000;0.000000;,
  0.000000;0.000000;,
  0.000000;0.000000;,
  0.000000;0.000000;,
  0.000000;0.000000;,
  0.000000;0.000000;,
  0.000000;0.000000;,
  0.000000;0.000000;,
  0.000000;0.000000;,
  0.000000;0.000000;,
  0.000000;0.000000;,
  0.000000;0.000000;,
  0.000000;0.000000;,
  0.000000;0.000000;,
  0.000000;0.000000;,
  0.000000;0.000000;,
  0.000000;0.000000;,
  0.000000;0.000000;,
  0.000000;0.000000;,
  0.000000;0.000000;,
  0.000000;0.000000;,
  0.000000;0.000000;,
  0.000000;0.000000;,
  0.000000;0.000000;,
  0.000000;0.000000;,
  0.000000;0.000000;,
  0.000000;0.000000;,
  0.000000;0.000000;,
  0.000000;0.000000;,
  0.000000;0.000000;,
  0.000000;0.000000;,
  0.000000;0.000000;,
  0.000000;0.000000;,
  0.000000;0.000000;,
  0.000000;0.000000;,
  0.000000;0.000000;,
  0.000000;0.000000;,
  0.000000;0.000000;,
  0.000000;0.000000;,
  0.000000;0.000000;,
  0.000000;0.000000;,
  0.000000;0.000000;,
  0.000000;0.000000;,
  0.000000;0.000000;,
  0.000000;0.000000;,
  0.000000;0.000000;,
  0.000000;0.000000;,
  0.000000;0.000000;,
  0.000000;0.000000;,
  0.000000;0.000000;,
  0.000000;0.000000;,
  0.000000;0.000000;,
  0.000000;0.000000;,
  0.000000;0.000000;,
  0.000000;0.000000;,
  0.000000;0.000000;,
  0.000000;0.000000;,
  0.000000;0.000000;,
  0.000000;0.000000;,
  0.000000;0.000000;,
  0.000000;0.000000;,
  0.000000;0.000000;,
  0.000000;0.000000;,
  0.000000;0.000000;,
  0.000000;0.000000;,
  0.000000;0.000000;,
  0.000000;0.000000;,
  0.000000;0.000000;,
  0.000000;0.000000;,
  0.000000;0.000000;,
  0.000000;0.000000;,
  0.000000;0.000000;,
  0.000000;0.000000;,
  0.000000;0.000000;,
  0.000000;0.000000;,
  0.000000;0.000000;,
  0.000000;0.000000;,
  0.000000;0.000000;,
  0.000000;0.000000;,
  0.000000;0.000000;,
  0.000000;0.000000;,
  0.000000;0.000000;,
  0.000000;0.000000;,
  0.000000;0.000000;,
  0.000000;0.000000;,
  0.000000;0.000000;,
  0.000000;0.000000;,
  0.000000;0.000000;,
  0.000000;0.000000;,
  0.000000;0.000000;,
  0.000000;0.000000;,
  0.000000;0.000000;,
  0.000000;0.000000;,
  0.000000;0.000000;,
  0.000000;0.000000;,
  0.000000;0.000000;,
  0.000000;0.000000;,
  0.000000;0.000000;,
  0.000000;0.000000;,
  0.000000;0.000000;,
  0.000000;0.000000;,
  0.000000;0.000000;,
  0.000000;0.000000;,
  0.000000;0.000000;,
  0.000000;0.000000;,
  0.000000;0.000000;,
  0.000000;0.000000;,
  0.000000;0.000000;,
  0.000000;0.000000;,
  0.000000;0.000000;,
  0.000000;0.000000;,
  0.000000;0.000000;,
  0.000000;0.000000;,
  0.000000;0.000000;,
  0.000000;0.000000;,
  0.000000;0.000000;,
  0.000000;0.000000;,
  0.000000;0.000000;,
  0.000000;0.000000;;
 }

 MeshNormals  {
  414;
  0.000000;-0.928477;0.371391;,
  0.000000;-0.928477;0.371391;,
  0.000000;0.928477;-0.371391;,
  0.000000;0.928477;-0.371391;,
  0.000000;-0.948683;0.316228;,
  0.000000;-0.948683;0.316228;,
  0.000000;0.948683;-0.316228;,
  0.000000;0.948683;-0.316228;,
  0.000000;-0.966235;0.257663;,
  0.000000;-0.966235;0.257663;,
  0.000000;0.966235;-0.257663;,
  0.000000;0.966235;-0.257663;,
  0.000000;-0.973841;0.227230;,
  0.000000;-0.973841;0.227230;,
  0.000000;0.973841;-0.227230;,
  0.000000;0.973841;-0.227230;,
  0.000000;-0.980581;0.196116;,
  0.000000;-0.980581;0.196116;,
  0.000000;0.980581;-0.196116;,
  0.000000;0.980581;-0.196116;,
  0.000000;-0.986394;0.164399;,
  0.000000;-0.986394;0.164399;,
  0.000000;0.986394;-0.164399;,
  0.000000;0.986394;-0.164399;,
  0.000000;-0.991228;0.132164;,
  0.000000;-0.991228;0.132164;,
  0.000000;0.991228;-0.132164;,
  0.000000;0.991228;-0.132164;,
  0.000000;-0.995037;0.099504;,
  0.000000;-0.995037;0.099504;,
  0.000000;0.995037;-0.099504;,
  0.000000;0.995037;-0.099504;,
  0.000000;-0.997785;0.066519;,
  0.000000;-0.997785;0.066519;,
  0.000000;0.997785;-0.066519;,
  0.000000;0.997785;-0.066519;,
  0.000000;-1.000000;0.000000;,
  0.000000;-1.000000;0.000000;,
  0.000000;1.000000;0.000000;,
  0.000000;1.000000;0.000000;,
  1.000000;0.000000;0.000000;,
  1.000000;0.000000;0.000000;,
  -1.000000;0.000000;0.000000;,
  -1.000000;0.000000;0.000000;,
  1.000000;0.000000;0.000000;,
  1.000000;0.000000;0.000000;,
  0.000000;0.940887;-0.338719;,
  0.000000;0.940887;-0.338719;,
  0.000000;-0.940887;0.338719;,
  0.000000;-0.940887;0.338719;,
  0.000000;0.000000;-1.000000;,
  0.000000;0.000000;-1.000000;,
  0.000000;0.000000;-1.000000;,
  0.000000;0.000000;-1.000000;,
  0.000000;0.000000;-1.000000;,
  0.000000;0.000000;-1.000000;,
  0.000000;0.000000;-1.000000;,
  0.000000;0.000000;-1.000000;,
  0.000000;0.000000;-1.000000;,
  0.000000;0.000000;-1.000000;,
  1.000000;0.000000;0.000000;,
  1.000000;0.000000;0.000000;,
  -1.000000;0.000000;0.000000;,
  -1.000000;0.000000;0.000000;,
  1.000000;0.000000;0.000000;,
  1.000000;0.000000;0.000000;,
  -1.000000;0.000000;0.000000;,
  -1.000000;0.000000;0.000000;,
  0.000000;0.000000;-1.000000;,
  0.000000;0.000000;-1.000000;,
  -1.000000;0.000000;0.000000;,
  -1.000000;0.000000;0.000000;,
  0.000000;0.000000;1.000000;,
  0.000000;0.000000;1.000000;,
  1.000000;0.000000;0.000000;,
  1.000000;0.000000;0.000000;,
  0.000000;1.000000;0.000000;,
  0.000000;1.000000;0.000000;,
  0.000000;-1.000000;0.000000;,
  0.000000;-1.000000;0.000000;,
  0.000000;0.000000;-1.000000;,
  0.000000;0.000000;-1.000000;,
  -1.000000;0.000000;0.000000;,
  -1.000000;0.000000;0.000000;,
  0.000000;0.000000;1.000000;,
  0.000000;0.000000;1.000000;,
  1.000000;0.000000;0.000000;,
  1.000000;0.000000;0.000000;,
  0.000000;1.000000;0.000000;,
  0.000000;1.000000;0.000000;,
  0.000000;-1.000000;0.000000;,
  0.000000;-1.000000;0.000000;,
  0.000000;0.000000;-1.000000;,
  0.000000;0.000000;-1.000000;,
  -1.000000;0.000000;0.000000;,
  -1.000000;0.000000;0.000000;,
  0.000000;0.000000;1.000000;,
  0.000000;0.000000;1.000000;,
  1.000000;0.000000;0.000000;,
  1.000000;0.000000;0.000000;,
  0.000000;1.000000;0.000000;,
  0.000000;1.000000;0.000000;,
  0.000000;-1.000000;0.000000;,
  0.000000;-1.000000;0.000000;,
  0.000000;0.000000;-1.000000;,
  0.000000;0.000000;-1.000000;,
  -1.000000;0.000000;0.000000;,
  -1.000000;0.000000;0.000000;,
  0.000000;0.000000;1.000000;,
  0.000000;0.000000;1.000000;,
  1.000000;0.000000;0.000000;,
  1.000000;0.000000;0.000000;,
  0.000000;1.000000;0.000000;,
  0.000000;1.000000;0.000000;,
  0.000000;-1.000000;0.000000;,
  0.000000;-1.000000;0.000000;,
  0.000000;0.000000;-1.000000;,
  0.000000;0.000000;-1.000000;,
  0.000000;0.000000;-1.000000;,
  0.000000;0.000000;-1.000000;,
  0.000000;0.000000;-1.000000;,
  0.000000;0.000000;-1.000000;,
  0.000000;0.000000;1.000000;,
  0.000000;0.000000;1.000000;,
  0.000000;0.000000;-1.000000;,
  0.000000;0.000000;-1.000000;,
  -1.000000;0.000000;0.000000;,
  -1.000000;0.000000;0.000000;,
  1.000000;0.000000;0.000000;,
  1.000000;0.000000;0.000000;,
  0.000000;0.000000;-1.000000;,
  0.000000;0.000000;-1.000000;,
  0.000000;0.000000;1.000000;,
  0.000000;0.000000;1.000000;,
  -1.000000;0.000000;0.000000;,
  -1.000000;0.000000;0.000000;,
  1.000000;0.000000;0.000000;,
  1.000000;0.000000;0.000000;,
  0.000000;0.000000;-1.000000;,
  0.000000;0.000000;-1.000000;,
  0.000000;0.000000;1.000000;,
  0.000000;0.000000;1.000000;,
  -1.000000;0.000000;0.000000;,
  -1.000000;0.000000;0.000000;,
  1.000000;0.000000;0.000000;,
  1.000000;0.000000;0.000000;,
  0.000000;0.000000;-1.000000;,
  0.000000;0.000000;-1.000000;,
  -1.000000;0.000000;0.000000;,
  -1.000000;0.000000;0.000000;,
  0.000000;0.000000;1.000000;,
  0.000000;0.000000;1.000000;,
  1.000000;0.000000;0.000000;,
  1.000000;0.000000;0.000000;,
  0.000000;1.000000;0.000000;,
  0.000000;1.000000;0.000000;,
  0.000000;-1.000000;0.000000;,
  0.000000;-1.000000;0.000000;,
  0.000000;0.000000;-1.000000;,
  0.000000;0.000000;-1.000000;,
  -1.000000;0.000000;0.000000;,
  -1.000000;0.000000;0.000000;,
  0.000000;0.000000;1.000000;,
  0.000000;0.000000;1.000000;,
  1.000000;0.000000;0.000000;,
  1.000000;0.000000;0.000000;,
  0.000000;1.000000;0.000000;,
  0.000000;1.000000;0.000000;,
  0.000000;-1.000000;0.000000;,
  0.000000;-1.000000;0.000000;,
  0.000000;0.000000;-1.000000;,
  0.000000;0.000000;-1.000000;,
  -1.000000;0.000000;0.000000;,
  -1.000000;0.000000;0.000000;,
  0.000000;0.000000;1.000000;,
  0.000000;0.000000;1.000000;,
  1.000000;0.000000;0.000000;,
  1.000000;0.000000;0.000000;,
  0.000000;1.000000;0.000000;,
  0.000000;1.000000;0.000000;,
  0.000000;-1.000000;0.000000;,
  0.000000;-1.000000;0.000000;,
  0.000000;0.000000;-1.000000;,
  0.000000;0.000000;-1.000000;,
  -1.000000;0.000000;0.000000;,
  -1.000000;0.000000;0.000000;,
  0.000000;0.000000;1.000000;,
  0.000000;0.000000;1.000000;,
  1.000000;0.000000;0.000000;,
  1.000000;0.000000;0.000000;,
  0.000000;1.000000;0.000000;,
  0.000000;1.000000;0.000000;,
  0.000000;-1.000000;0.000000;,
  0.000000;-1.000000;0.000000;,
  0.000000;0.000000;-1.000000;,
  0.000000;0.000000;-1.000000;,
  -1.000000;0.000000;0.000000;,
  -1.000000;0.000000;0.000000;,
  0.000000;0.000000;1.000000;,
  0.000000;0.000000;1.000000;,
  1.000000;0.000000;0.000000;,
  1.000000;0.000000;0.000000;,
  0.000000;1.000000;0.000000;,
  0.000000;1.000000;0.000000;,
  0.000000;-1.000000;0.000000;,
  0.000000;-1.000000;0.000000;,
  0.000000;0.000000;-1.000000;,
  0.000000;0.000000;-1.000000;,
  -1.000000;0.000000;0.000000;,
  -1.000000;0.000000;0.000000;,
  0.000000;0.000000;1.000000;,
  0.000000;0.000000;1.000000;,
  1.000000;0.000000;0.000000;,
  1.000000;0.000000;0.000000;,
  0.000000;1.000000;0.000000;,
  0.000000;1.000000;0.000000;,
  0.000000;-1.000000;0.000000;,
  0.000000;-1.000000;0.000000;,
  0.000000;0.000000;-1.000000;,
  0.000000;0.000000;-1.000000;,
  -1.000000;0.000000;0.000000;,
  -1.000000;0.000000;0.000000;,
  0.000000;0.000000;1.000000;,
  0.000000;0.000000;1.000000;,
  1.000000;0.000000;0.000000;,
  1.000000;0.000000;0.000000;,
  0.000000;1.000000;0.000000;,
  0.000000;1.000000;0.000000;,
  0.000000;-1.000000;0.000000;,
  0.000000;-1.000000;0.000000;,
  0.000000;0.000000;-1.000000;,
  0.000000;0.000000;-1.000000;,
  -1.000000;0.000000;0.000000;,
  -1.000000;0.000000;0.000000;,
  0.000000;0.000000;1.000000;,
  0.000000;0.000000;1.000000;,
  1.000000;0.000000;0.000000;,
  1.000000;0.000000;0.000000;,
  0.000000;1.000000;0.000000;,
  0.000000;1.000000;0.000000;,
  0.000000;-1.000000;0.000000;,
  0.000000;-1.000000;0.000000;,
  0.000000;0.000000;-1.000000;,
  0.000000;0.000000;-1.000000;,
  -1.000000;0.000000;0.000000;,
  -1.000000;0.000000;0.000000;,
  0.000000;0.000000;1.000000;,
  0.000000;0.000000;1.000000;,
  1.000000;0.000000;0.000000;,
  1.000000;0.000000;0.000000;,
  0.000000;1.000000;0.000000;,
  0.000000;1.000000;0.000000;,
  0.000000;-1.000000;0.000000;,
  0.000000;-1.000000;0.000000;,
  0.000000;0.000000;-1.000000;,
  0.000000;0.000000;-1.000000;,
  -1.000000;0.000000;0.000000;,
  -1.000000;0.000000;0.000000;,
  0.000000;0.000000;1.000000;,
  0.000000;0.000000;1.000000;,
  1.000000;0.000000;0.000000;,
  1.000000;0.000000;0.000000;,
  0.000000;1.000000;0.000000;,
  0.000000;1.000000;0.000000;,
  0.000000;-1.000000;0.000000;,
  0.000000;-1.000000;0.000000;,
  0.000000;0.000000;-1.000000;,
  0.000000;0.000000;-1.000000;,
  -1.000000;0.000000;0.000000;,
  -1.000000;0.000000;0.000000;,
  0.000000;0.000000;1.000000;,
  0.000000;0.000000;1.000000;,
  1.000000;0.000000;0.000000;,
  1.000000;0.000000;0.000000;,
  0.000000;1.000000;0.000000;,
  0.000000;1.000000;0.000000;,
  0.000000;-1.000000;0.000000;,
  0.000000;-1.000000;0.000000;,
  0.000000;0.000000;-1.000000;,
  0.000000;0.000000;-1.000000;,
  -1.000000;0.000000;0.000000;,
  -1.000000;0.000000;0.000000;,
  0.000000;0.000000;1.000000;,
  0.000000;0.000000;1.000000;,
  1.000000;0.000000;0.000000;,
  1.000000;0.000000;0.000000;,
  0.000000;1.000000;0.000000;,
  0.000000;1.000000;0.000000;,
  0.000000;-1.000000;0.000000;,
  0.000000;-1.000000;0.000000;,
  0.000000;0.000000;-1.000000;,
  0.000000;0.000000;-1.000000;,
  -1.000000;0.000000;0.000000;,
  -1.000000;0.000000;0.000000;,
  0.000000;0.000000;1.000000;,
  0.000000;0.000000;1.000000;,
  1.000000;0.000000;0.000000;,
  1.000000;0.000000;0.000000;,
  0.000000;1.000000;0.000000;,
  0.000000;1.000000;0.000000;,
  0.000000;-1.000000;0.000000;,
  0.000000;-1.000000;0.000000;,
  0.000000;0.000000;-1.000000;,
  0.000000;0.000000;-1.000000;,
  -1.000000;0.000000;0.000000;,
  -1.000000;0.000000;0.000000;,
  0.000000;0.000000;1.000000;,
  0.000000;0.000000;1.000000;,
  1.000000;0.000000;0.000000;,
  1.000000;0.000000;0.000000;,
  0.000000;1.000000;0.000000;,
  0.000000;1.000000;0.000000;,
  0.000000;-1.000000;0.000000;,
  0.000000;-1.000000;0.000000;,
  0.000000;0.000000;-1.000000;,
  0.000000;0.000000;-1.000000;,
  -1.000000;0.000000;0.000000;,
  -1.000000;0.000000;0.000000;,
  0.000000;0.000000;1.000000;,
  0.000000;0.000000;1.000000;,
  1.000000;0.000000;0.000000;,
  1.000000;0.000000;0.000000;,
  0.000000;1.000000;0.000000;,
  0.000000;1.000000;0.000000;,
  0.000000;-1.000000;0.000000;,
  0.000000;-1.000000;0.000000;,
  0.000000;0.000000;-1.000000;,
  0.000000;0.000000;-1.000000;,
  -1.000000;0.000000;0.000000;,
  -1.000000;0.000000;0.000000;,
  0.000000;0.000000;1.000000;,
  0.000000;0.000000;1.000000;,
  1.000000;0.000000;0.000000;,
  1.000000;0.000000;0.000000;,
  0.000000;1.000000;0.000000;,
  0.000000;1.000000;0.000000;,
  0.000000;-1.000000;0.000000;,
  0.000000;-1.000000;0.000000;,
  0.000000;0.000000;-1.000000;,
  0.000000;0.000000;-1.000000;,
  -1.000000;0.000000;0.000000;,
  -1.000000;0.000000;0.000000;,
  0.000000;0.000000;1.000000;,
  0.000000;0.000000;1.000000;,
  1.000000;0.000000;0.000000;,
  1.000000;0.000000;0.000000;,
  0.000000;1.000000;0.000000;,
  0.000000;1.000000;0.000000;,
  0.000000;-1.000000;0.000000;,
  0.000000;-1.000000;0.000000;,
  0.000000;0.000000;-1.000000;,
  0.000000;0.000000;-1.000000;,
  -1.000000;0.000000;0.000000;,
  -1.000000;0.000000;0.000000;,
  0.000000;0.000000;1.000000;,
  0.000000;0.000000;1.000000;,
  1.000000;0.000000;0.000000;,
  1.000000;0.000000;0.000000;,
  0.000000;1.000000;0.000000;,
  0.000000;1.000000;0.000000;,
  0.000000;-1.000000;0.000000;,
  0.000000;-1.000000;0.000000;,
  0.000000;0.000000;-1.000000;,
  0.000000;0.000000;-1.000000;,
  0.000000;-1.000000;0.000000;,
  0.000000;-1.000000;0.000000;,
  0.000000;0.000000;-1.000000;,
  0.000000;0.000000;-1.000000;,
  0.000000;-0.447215;-0.894426;,
  0.000000;-0.447215;-0.894426;,
  0.000000;0.000000;-1.000000;,
  0.000000;0.000000;-1.000000;,
  0.000000;-1.000000;0.000000;,
  0.000000;-1.000000;0.000000;,
  0.000000;0.000000;-1.000000;,
  0.000000;0.000000;-1.000000;,
  0.000000;-0.447215;-0.894426;,
  0.000000;-0.447215;-0.894426;,
  0.000000;0.000000;-1.000000;,
  0.000000;0.000000;-1.000000;,
  0.000000;-1.000000;0.000000;,
  0.000000;-1.000000;0.000000;,
  0.000000;0.000000;-1.000000;,
  0.000000;0.000000;-1.000000;,
  0.000000;-1.000000;0.000000;,
  0.000000;-1.000000;0.000000;,
  0.000000;0.000000;-1.000000;,
  0.000000;0.000000;-1.000000;,
  0.000000;-0.447208;-0.894430;,
  0.000000;-0.447208;-0.894430;,
  0.000000;0.000000;-1.000000;,
  0.000000;0.000000;-1.000000;,
  0.000000;-0.447208;-0.894430;,
  0.000000;-0.447208;-0.894430;,
  0.000000;0.000000;-1.000000;,
  0.000000;0.000000;-1.000000;,
  0.000000;-1.000000;0.000000;,
  0.000000;-1.000000;0.000000;,
  0.000000;0.000000;-1.000000;,
  0.000000;0.000000;-1.000000;,
  0.000000;-0.447208;-0.894430;,
  0.000000;-0.447208;-0.894430;,
  0.000000;0.000000;-1.000000;,
  0.000000;0.000000;-1.000000;,
  0.000000;-0.447208;-0.894430;,
  0.000000;-0.447208;-0.894430;,
  0.000000;0.000000;-1.000000;,
  0.000000;0.000000;-1.000000;,
  0.000000;-1.000000;0.000000;,
  0.000000;-1.000000;0.000000;,
  0.000000;0.000000;-1.000000;,
  0.000000;0.000000;-1.000000;,
  0.000000;-1.000000;0.000000;,
  0.000000;-1.000000;0.000000;;
  414;
  3;0,0,0;,
  3;1,1,1;,
  3;2,2,2;,
  3;3,3,3;,
  3;4,4,4;,
  3;5,5,5;,
  3;6,6,6;,
  3;7,7,7;,
  3;8,8,8;,
  3;9,9,9;,
  3;10,10,10;,
  3;11,11,11;,
  3;12,12,12;,
  3;13,13,13;,
  3;14,14,14;,
  3;15,15,15;,
  3;16,16,16;,
  3;17,17,17;,
  3;18,18,18;,
  3;19,19,19;,
  3;20,20,20;,
  3;21,21,21;,
  3;22,22,22;,
  3;23,23,23;,
  3;24,24,24;,
  3;25,25,25;,
  3;26,26,26;,
  3;27,27,27;,
  3;28,28,28;,
  3;29,29,29;,
  3;30,30,30;,
  3;31,31,31;,
  3;32,32,32;,
  3;33,33,33;,
  3;34,34,34;,
  3;35,35,35;,
  3;36,36,36;,
  3;37,37,37;,
  3;38,38,38;,
  3;39,39,39;,
  3;40,40,40;,
  3;41,41,41;,
  3;42,42,42;,
  3;43,43,43;,
  3;44,44,44;,
  3;45,45,45;,
  3;46,46,46;,
  3;47,47,47;,
  3;48,48,48;,
  3;49,49,49;,
  3;50,50,50;,
  3;51,51,51;,
  3;52,52,52;,
  3;53,53,53;,
  3;54,54,54;,
  3;55,55,55;,
  3;56,56,56;,
  3;57,57,57;,
  3;58,58,58;,
  3;59,59,59;,
  3;60,60,60;,
  3;61,61,61;,
  3;62,62,62;,
  3;63,63,63;,
  3;64,64,64;,
  3;65,65,65;,
  3;66,66,66;,
  3;67,67,67;,
  3;68,68,68;,
  3;69,69,69;,
  3;70,70,70;,
  3;71,71,71;,
  3;72,72,72;,
  3;73,73,73;,
  3;74,74,74;,
  3;75,75,75;,
  3;76,76,76;,
  3;77,77,77;,
  3;78,78,78;,
  3;79,79,79;,
  3;80,80,80;,
  3;81,81,81;,
  3;82,82,82;,
  3;83,83,83;,
  3;84,84,84;,
  3;85,85,85;,
  3;86,86,86;,
  3;87,87,87;,
  3;88,88,88;,
  3;89,89,89;,
  3;90,90,90;,
  3;91,91,91;,
  3;92,92,92;,
  3;93,93,93;,
  3;94,94,94;,
  3;95,95,95;,
  3;96,96,96;,
  3;97,97,97;,
  3;98,98,98;,
  3;99,99,99;,
  3;100,100,100;,
  3;101,101,101;,
  3;102,102,102;,
  3;103,103,103;,
  3;104,104,104;,
  3;105,105,105;,
  3;106,106,106;,
  3;107,107,107;,
  3;108,108,108;,
  3;109,109,109;,
  3;110,110,110;,
  3;111,111,111;,
  3;112,112,112;,
  3;113,113,113;,
  3;114,114,114;,
  3;115,115,115;,
  3;116,116,116;,
  3;117,117,117;,
  3;118,118,118;,
  3;119,119,119;,
  3;120,120,120;,
  3;121,121,121;,
  3;122,122,122;,
  3;123,123,123;,
  3;124,124,124;,
  3;125,125,125;,
  3;126,126,126;,
  3;127,127,127;,
  3;128,128,128;,
  3;129,129,129;,
  3;130,130,130;,
  3;131,131,131;,
  3;132,132,132;,
  3;133,133,133;,
  3;134,134,134;,
  3;135,135,135;,
  3;136,136,136;,
  3;137,137,137;,
  3;138,138,138;,
  3;139,139,139;,
  3;140,140,140;,
  3;141,141,141;,
  3;142,142,142;,
  3;143,143,143;,
  3;144,144,144;,
  3;145,145,145;,
  3;146,146,146;,
  3;147,147,147;,
  3;148,148,148;,
  3;149,149,149;,
  3;150,150,150;,
  3;151,151,151;,
  3;152,152,152;,
  3;153,153,153;,
  3;154,154,154;,
  3;155,155,155;,
  3;156,156,156;,
  3;157,157,157;,
  3;158,158,158;,
  3;159,159,159;,
  3;160,160,160;,
  3;161,161,161;,
  3;162,162,162;,
  3;163,163,163;,
  3;164,164,164;,
  3;165,165,165;,
  3;166,166,166;,
  3;167,167,167;,
  3;168,168,168;,
  3;169,169,169;,
  3;170,170,170;,
  3;171,171,171;,
  3;172,172,172;,
  3;173,173,173;,
  3;174,174,174;,
  3;175,175,175;,
  3;176,176,176;,
  3;177,177,177;,
  3;178,178,178;,
  3;179,179,179;,
  3;180,180,180;,
  3;181,181,181;,
  3;182,182,182;,
  3;183,183,183;,
  3;184,184,184;,
  3;185,185,185;,
  3;186,186,186;,
  3;187,187,187;,
  3;188,188,188;,
  3;189,189,189;,
  3;190,190,190;,
  3;191,191,191;,
  3;192,192,192;,
  3;193,193,193;,
  3;194,194,194;,
  3;195,195,195;,
  3;196,196,196;,
  3;197,197,197;,
  3;198,198,198;,
  3;199,199,199;,
  3;200,200,200;,
  3;201,201,201;,
  3;202,202,202;,
  3;203,203,203;,
  3;204,204,204;,
  3;205,205,205;,
  3;206,206,206;,
  3;207,207,207;,
  3;208,208,208;,
  3;209,209,209;,
  3;210,210,210;,
  3;211,211,211;,
  3;212,212,212;,
  3;213,213,213;,
  3;214,214,214;,
  3;215,215,215;,
  3;216,216,216;,
  3;217,217,217;,
  3;218,218,218;,
  3;219,219,219;,
  3;220,220,220;,
  3;221,221,221;,
  3;222,222,222;,
  3;223,223,223;,
  3;224,224,224;,
  3;225,225,225;,
  3;226,226,226;,
  3;227,227,227;,
  3;228,228,228;,
  3;229,229,229;,
  3;230,230,230;,
  3;231,231,231;,
  3;232,232,232;,
  3;233,233,233;,
  3;234,234,234;,
  3;235,235,235;,
  3;236,236,236;,
  3;237,237,237;,
  3;238,238,238;,
  3;239,239,239;,
  3;240,240,240;,
  3;241,241,241;,
  3;242,242,242;,
  3;243,243,243;,
  3;244,244,244;,
  3;245,245,245;,
  3;246,246,246;,
  3;247,247,247;,
  3;248,248,248;,
  3;249,249,249;,
  3;250,250,250;,
  3;251,251,251;,
  3;252,252,252;,
  3;253,253,253;,
  3;254,254,254;,
  3;255,255,255;,
  3;256,256,256;,
  3;257,257,257;,
  3;258,258,258;,
  3;259,259,259;,
  3;260,260,260;,
  3;261,261,261;,
  3;262,262,262;,
  3;263,263,263;,
  3;264,264,264;,
  3;265,265,265;,
  3;266,266,266;,
  3;267,267,267;,
  3;268,268,268;,
  3;269,269,269;,
  3;270,270,270;,
  3;271,271,271;,
  3;272,272,272;,
  3;273,273,273;,
  3;274,274,274;,
  3;275,275,275;,
  3;276,276,276;,
  3;277,277,277;,
  3;278,278,278;,
  3;279,279,279;,
  3;280,280,280;,
  3;281,281,281;,
  3;282,282,282;,
  3;283,283,283;,
  3;284,284,284;,
  3;285,285,285;,
  3;286,286,286;,
  3;287,287,287;,
  3;288,288,288;,
  3;289,289,289;,
  3;290,290,290;,
  3;291,291,291;,
  3;292,292,292;,
  3;293,293,293;,
  3;294,294,294;,
  3;295,295,295;,
  3;296,296,296;,
  3;297,297,297;,
  3;298,298,298;,
  3;299,299,299;,
  3;300,300,300;,
  3;301,301,301;,
  3;302,302,302;,
  3;303,303,303;,
  3;304,304,304;,
  3;305,305,305;,
  3;306,306,306;,
  3;307,307,307;,
  3;308,308,308;,
  3;309,309,309;,
  3;310,310,310;,
  3;311,311,311;,
  3;312,312,312;,
  3;313,313,313;,
  3;314,314,314;,
  3;315,315,315;,
  3;316,316,316;,
  3;317,317,317;,
  3;318,318,318;,
  3;319,319,319;,
  3;320,320,320;,
  3;321,321,321;,
  3;322,322,322;,
  3;323,323,323;,
  3;324,324,324;,
  3;325,325,325;,
  3;326,326,326;,
  3;327,327,327;,
  3;328,328,328;,
  3;329,329,329;,
  3;330,330,330;,
  3;331,331,331;,
  3;332,332,332;,
  3;333,333,333;,
  3;334,334,334;,
  3;335,335,335;,
  3;336,336,336;,
  3;337,337,337;,
  3;338,338,338;,
  3;339,339,339;,
  3;340,340,340;,
  3;341,341,341;,
  3;342,342,342;,
  3;343,343,343;,
  3;344,344,344;,
  3;345,345,345;,
  3;346,346,346;,
  3;347,347,347;,
  3;348,348,348;,
  3;349,349,349;,
  3;350,350,350;,
  3;351,351,351;,
  3;352,352,352;,
  3;353,353,353;,
  3;354,354,354;,
  3;355,355,355;,
  3;356,356,356;,
  3;357,357,357;,
  3;358,358,358;,
  3;359,359,359;,
  3;360,360,360;,
  3;361,361,361;,
  3;362,362,362;,
  3;363,363,363;,
  3;364,364,364;,
  3;365,365,365;,
  3;366,366,366;,
  3;367,367,367;,
  3;368,368,368;,
  3;369,369,369;,
  3;370,370,370;,
  3;371,371,371;,
  3;372,372,372;,
  3;373,373,373;,
  3;374,374,374;,
  3;375,375,375;,
  3;376,376,376;,
  3;377,377,377;,
  3;378,378,378;,
  3;379,379,379;,
  3;380,380,380;,
  3;381,381,381;,
  3;382,382,382;,
  3;383,383,383;,
  3;384,384,384;,
  3;385,385,385;,
  3;386,386,386;,
  3;387,387,387;,
  3;388,388,388;,
  3;389,389,389;,
  3;390,390,390;,
  3;391,391,391;,
  3;392,392,392;,
  3;393,393,393;,
  3;394,394,394;,
  3;395,395,395;,
  3;396,396,396;,
  3;397,397,397;,
  3;398,398,398;,
  3;399,399,399;,
  3;400,400,400;,
  3;401,401,401;,
  3;402,402,402;,
  3;403,403,403;,
  3;404,404,404;,
  3;405,405,405;,
  3;406,406,406;,
  3;407,407,407;,
  3;408,408,408;,
  3;409,409,409;,
  3;410,410,410;,
  3;411,411,411;,
  3;412,412,412;,
  3;413,413,413;;
 }
}