xof 0303txt 0032
template Vector {
 <3d82ab5e-62da-11cf-ab39-0020af71e433>
 FLOAT x;
 FLOAT y;
 FLOAT z;
}

template MeshFace {
 <3d82ab5f-62da-11cf-ab39-0020af71e433>
 DWORD nFaceVertexIndices;
 array DWORD faceVertexIndices[nFaceVertexIndices];
}

template Mesh {
 <3d82ab44-62da-11cf-ab39-0020af71e433>
 DWORD nVertices;
 array Vector vertices[nVertices];
 DWORD nFaces;
 array MeshFace faces[nFaces];
 [...]
}

template ColorRGBA {
 <35ff44e0-6c7c-11cf-8f52-0040333594a3>
 FLOAT red;
 FLOAT green;
 FLOAT blue;
 FLOAT alpha;
}

template ColorRGB {
 <d3e16e81-7835-11cf-8f52-0040333594a3>
 FLOAT red;
 FLOAT green;
 FLOAT blue;
}

template Material {
 <3d82ab4d-62da-11cf-ab39-0020af71e433>
 ColorRGBA faceColor;
 FLOAT power;
 ColorRGB specularColor;
 ColorRGB emissiveColor;
 [...]
}

template MeshMaterialList {
 <f6f23f42-7686-11cf-8f52-0040333594a3>
 DWORD nMaterials;
 DWORD nFaceIndexes;
 array DWORD faceIndexes[nFaceIndexes];
 [Material <3d82ab4d-62da-11cf-ab39-0020af71e433>]
}

template TextureFilename {
 <a42790e1-7810-11cf-8f52-0040333594a3>
 STRING filename;
}

template Coords2d {
 <f6f23f44-7686-11cf-8f52-0040333594a3>
 FLOAT u;
 FLOAT v;
}

template MeshTextureCoords {
 <f6f23f40-7686-11cf-8f52-0040333594a3>
 DWORD nTextureCoords;
 array Coords2d textureCoords[nTextureCoords];
}

template MeshNormals {
 <f6f23f43-7686-11cf-8f52-0040333594a3>
 DWORD nNormals;
 array Vector normals[nNormals];
 DWORD nFaceNormals;
 array MeshFace faceNormals[nFaceNormals];
}


Mesh  {
 52;
 -0.225000;1.525000;-0.070000;,
 0.225000;1.525000;-0.070000;,
 -0.225000;1.075000;-0.070000;,
 0.225000;1.075000;-0.070000;,
 0.030000;1.300000;0.000000;,
 0.030000;-1.700000;0.000000;,
 0.028978;1.300000;0.007765;,
 0.028978;-1.700000;0.007765;,
 0.025981;1.300000;0.015000;,
 0.025981;-1.700000;0.015000;,
 0.021213;1.300000;0.021213;,
 0.021213;-1.700000;0.021213;,
 0.015000;1.300000;0.025981;,
 0.015000;-1.700000;0.025981;,
 0.007765;1.300000;0.028978;,
 0.007765;-1.700000;0.028978;,
 0.000000;1.300000;0.030000;,
 0.000000;-1.700000;0.030000;,
 -0.007765;1.300000;0.028978;,
 -0.007765;-1.700000;0.028978;,
 -0.015000;1.300000;0.025981;,
 -0.015000;-1.700000;0.025981;,
 -0.021213;1.300000;0.021213;,
 -0.021213;-1.700000;0.021213;,
 -0.025981;1.300000;0.015000;,
 -0.025981;-1.700000;0.015000;,
 -0.028978;1.300000;0.007765;,
 -0.028978;-1.700000;0.007765;,
 -0.030000;1.300000;0.000000;,
 -0.030000;-1.700000;0.000000;,
 -0.028978;1.300000;-0.007765;,
 -0.028978;-1.700000;-0.007765;,
 -0.025981;1.300000;-0.015000;,
 -0.025981;-1.700000;-0.015000;,
 -0.021213;1.300000;-0.021213;,
 -0.021213;-1.700000;-0.021213;,
 -0.015000;1.300000;-0.025981;,
 -0.015000;-1.700000;-0.025981;,
 -0.007765;1.300000;-0.028978;,
 -0.007765;-1.700000;-0.028978;,
 -0.000000;1.300000;-0.030000;,
 -0.000000;-1.700000;-0.030000;,
 0.007765;1.300000;-0.028978;,
 0.007765;-1.700000;-0.028978;,
 0.015000;1.300000;-0.025981;,
 0.015000;-1.700000;-0.025981;,
 0.021213;1.300000;-0.021213;,
 0.021213;-1.700000;-0.021213;,
 0.025981;1.300000;-0.015000;,
 0.025981;-1.700000;-0.015000;,
 0.028978;1.300000;-0.007765;,
 0.028978;-1.700000;-0.007765;;
 96;
 3;0,1,3;,
 3;0,3,2;,
 3;2,3,1;,
 3;2,1,0;,
 3;5,4,6;,
 3;5,6,7;,
 3;7,6,8;,
 3;7,8,9;,
 3;9,8,10;,
 3;9,10,11;,
 3;11,10,12;,
 3;11,12,13;,
 3;13,12,14;,
 3;13,14,15;,
 3;15,14,16;,
 3;15,16,17;,
 3;17,16,18;,
 3;17,18,19;,
 3;19,18,20;,
 3;19,20,21;,
 3;21,20,22;,
 3;21,22,23;,
 3;23,22,24;,
 3;23,24,25;,
 3;25,24,26;,
 3;25,26,27;,
 3;27,26,28;,
 3;27,28,29;,
 3;29,28,30;,
 3;29,30,31;,
 3;31,30,32;,
 3;31,32,33;,
 3;33,32,34;,
 3;33,34,35;,
 3;35,34,36;,
 3;35,36,37;,
 3;37,36,38;,
 3;37,38,39;,
 3;39,38,40;,
 3;39,40,41;,
 3;41,40,42;,
 3;41,42,43;,
 3;43,42,44;,
 3;43,44,45;,
 3;45,44,46;,
 3;45,46,47;,
 3;47,46,48;,
 3;47,48,49;,
 3;49,48,50;,
 3;49,50,51;,
 3;51,50,4;,
 3;51,4,5;,
 3;50,48,46;,
 3;50,46,44;,
 3;50,44,42;,
 3;50,42,40;,
 3;50,40,38;,
 3;50,38,36;,
 3;50,36,34;,
 3;50,34,32;,
 3;50,32,30;,
 3;50,30,28;,
 3;50,28,26;,
 3;50,26,24;,
 3;50,24,22;,
 3;50,22,20;,
 3;50,20,18;,
 3;50,18,16;,
 3;50,16,14;,
 3;50,14,12;,
 3;50,12,10;,
 3;50,10,8;,
 3;50,8,6;,
 3;50,6,4;,
 3;5,7,9;,
 3;5,9,11;,
 3;5,11,13;,
 3;5,13,15;,
 3;5,15,17;,
 3;5,17,19;,
 3;5,19,21;,
 3;5,21,23;,
 3;5,23,25;,
 3;5,25,27;,
 3;5,27,29;,
 3;5,29,31;,
 3;5,31,33;,
 3;5,33,35;,
 3;5,35,37;,
 3;5,37,39;,
 3;5,39,41;,
 3;5,41,43;,
 3;5,43,45;,
 3;5,45,47;,
 3;5,47,49;,
 3;5,49,51;;

 MeshMaterialList  {
  2;
  96;
  0,
  0,
  0,
  0,
  1,
  1,
  1,
  1,
  1,
  1,
  1,
  1,
  1,
  1,
  1,
  1,
  1,
  1,
  1,
  1,
  1,
  1,
  1,
  1,
  1,
  1,
  1,
  1,
  1,
  1,
  1,
  1,
  1,
  1,
  1,
  1,
  1,
  1,
  1,
  1,
  1,
  1,
  1,
  1,
  1,
  1,
  1,
  1,
  1,
  1,
  1,
  1,
  1,
  1,
  1,
  1,
  1,
  1,
  1,
  1,
  1,
  1,
  1,
  1,
  1,
  1,
  1,
  1,
  1,
  1,
  1,
  1,
  1,
  1,
  1,
  1,
  1,
  1,
  1,
  1,
  1,
  1,
  1,
  1,
  1,
  1,
  1,
  1,
  1,
  1,
  1,
  1,
  1,
  1,
  1,
  1;

  Material  {
   1.000000;1.000000;1.000000;1.000000;;
   0.000000;
   0.000000;0.000000;0.000000;;
   0.000000;0.000000;0.000000;;

   TextureFilename  {
    "LimpSignal0.dds";
   }
  }

  Material  {
   0.125490;0.125490;0.125490;1.000000;;
   0.000000;
   0.000000;0.000000;0.000000;;
   0.000000;0.000000;0.000000;;
  }
 }

 MeshTextureCoords  {
  52;
  0.000000;0.000000;,
  1.000000;0.000000;,
  0.000000;1.000000;,
  1.000000;1.000000;,
  0.000000;0.000000;,
  0.000000;0.000000;,
  0.000000;0.000000;,
  0.000000;0.000000;,
  0.000000;0.000000;,
  0.000000;0.000000;,
  0.000000;0.000000;,
  0.000000;0.000000;,
  0.000000;0.000000;,
  0.000000;0.000000;,
  0.000000;0.000000;,
  0.000000;0.000000;,
  0.000000;0.000000;,
  0.000000;0.000000;,
  0.000000;0.000000;,
  0.000000;0.000000;,
  0.000000;0.000000;,
  0.000000;0.000000;,
  0.000000;0.000000;,
  0.000000;0.000000;,
  0.000000;0.000000;,
  0.000000;0.000000;,
  0.000000;0.000000;,
  0.000000;0.000000;,
  0.000000;0.000000;,
  0.000000;0.000000;,
  0.000000;0.000000;,
  0.000000;0.000000;,
  0.000000;0.000000;,
  0.000000;0.000000;,
  0.000000;0.000000;,
  0.000000;0.000000;,
  0.000000;0.000000;,
  0.000000;0.000000;,
  0.000000;0.000000;,
  0.000000;0.000000;,
  0.000000;0.000000;,
  0.000000;0.000000;,
  0.000000;0.000000;,
  0.000000;0.000000;,
  0.000000;0.000000;,
  0.000000;0.000000;,
  0.000000;0.000000;,
  0.000000;0.000000;,
  0.000000;0.000000;,
  0.000000;0.000000;,
  0.000000;0.000000;,
  0.000000;0.000000;;
 }

 MeshNormals  {
  52;
  0.000000;0.000000;-1.000000;,
  0.000000;0.000000;-1.000000;,
  0.000000;0.000000;1.000000;,
  0.000000;0.000000;1.000000;,
  0.705593;0.707107;-0.046247;,
  0.000000;-1.000000;-0.000000;,
  0.369644;0.923880;0.099046;,
  0.669581;-0.707107;0.227292;,
  0.331414;0.923880;0.191342;,
  0.318190;-0.923880;0.212608;,
  0.270598;0.923880;0.270598;,
  0.252321;-0.923880;0.287717;,
  0.191342;0.923879;0.331414;,
  0.169257;-0.923880;0.343218;,
  0.099046;0.923880;0.369644;,
  0.074658;-0.923880;0.375330;,
  -0.000000;0.923879;0.382683;,
  -0.025029;-0.923880;0.381864;,
  -0.099046;0.923880;0.369644;,
  -0.123010;-0.923880;0.362375;,
  -0.191342;0.923880;0.331414;,
  -0.212608;-0.923880;0.318190;,
  -0.270598;0.923880;0.270598;,
  -0.287717;-0.923880;0.252321;,
  -0.331414;0.923880;0.191342;,
  -0.343218;-0.923880;0.169257;,
  -0.369644;0.923880;0.099046;,
  -0.375330;-0.923880;0.074658;,
  -0.382683;0.923880;-0.000000;,
  -0.381864;-0.923880;-0.025029;,
  -0.369644;0.923880;-0.099046;,
  -0.362375;-0.923880;-0.123010;,
  -0.331414;0.923880;-0.191342;,
  -0.318190;-0.923880;-0.212608;,
  -0.270598;0.923880;-0.270598;,
  -0.252321;-0.923880;-0.287717;,
  -0.191342;0.923879;-0.331414;,
  -0.169257;-0.923880;-0.343218;,
  -0.099046;0.923880;-0.369644;,
  -0.074658;-0.923880;-0.375330;,
  0.000000;0.923879;-0.382683;,
  0.025029;-0.923880;-0.381864;,
  0.099046;0.923880;-0.369644;,
  0.123010;-0.923880;-0.362375;,
  0.191342;0.923880;-0.331414;,
  0.212608;-0.923880;-0.318190;,
  0.270598;0.923880;-0.270598;,
  0.287717;-0.923880;-0.252321;,
  0.612372;0.707107;-0.353553;,
  0.343218;-0.923880;-0.169257;,
  0.000000;1.000000;-0.000000;,
  0.693520;-0.707107;-0.137950;;
  96;
  3;0,0,0;,
  3;1,1,1;,
  3;2,2,2;,
  3;3,3,3;,
  3;5,4,6;,
  3;5,6,7;,
  3;7,6,8;,
  3;7,8,9;,
  3;9,8,10;,
  3;9,10,11;,
  3;11,10,12;,
  3;11,12,13;,
  3;13,12,14;,
  3;13,14,15;,
  3;15,14,16;,
  3;15,16,17;,
  3;17,16,18;,
  3;17,18,19;,
  3;19,18,20;,
  3;19,20,21;,
  3;21,20,22;,
  3;21,22,23;,
  3;23,22,24;,
  3;23,24,25;,
  3;25,24,26;,
  3;25,26,27;,
  3;27,26,28;,
  3;27,28,29;,
  3;29,28,30;,
  3;29,30,31;,
  3;31,30,32;,
  3;31,32,33;,
  3;33,32,34;,
  3;33,34,35;,
  3;35,34,36;,
  3;35,36,37;,
  3;37,36,38;,
  3;37,38,39;,
  3;39,38,40;,
  3;39,40,41;,
  3;41,40,42;,
  3;41,42,43;,
  3;43,42,44;,
  3;43,44,45;,
  3;45,44,46;,
  3;45,46,47;,
  3;47,46,48;,
  3;47,48,49;,
  3;49,48,50;,
  3;49,50,51;,
  3;51,50,4;,
  3;51,4,5;,
  3;50,48,46;,
  3;50,46,44;,
  3;50,44,42;,
  3;50,42,40;,
  3;50,40,38;,
  3;50,38,36;,
  3;50,36,34;,
  3;50,34,32;,
  3;50,32,30;,
  3;50,30,28;,
  3;50,28,26;,
  3;50,26,24;,
  3;50,24,22;,
  3;50,22,20;,
  3;50,20,18;,
  3;50,18,16;,
  3;50,16,14;,
  3;50,14,12;,
  3;50,12,10;,
  3;50,10,8;,
  3;50,8,6;,
  3;50,6,4;,
  3;5,7,9;,
  3;5,9,11;,
  3;5,11,13;,
  3;5,13,15;,
  3;5,15,17;,
  3;5,17,19;,
  3;5,19,21;,
  3;5,21,23;,
  3;5,23,25;,
  3;5,25,27;,
  3;5,27,29;,
  3;5,29,31;,
  3;5,31,33;,
  3;5,33,35;,
  3;5,35,37;,
  3;5,37,39;,
  3;5,39,41;,
  3;5,41,43;,
  3;5,43,45;,
  3;5,45,47;,
  3;5,47,49;,
  3;5,49,51;;
 }
}