xof 0303txt 0032
template Vector {
 <3d82ab5e-62da-11cf-ab39-0020af71e433>
 FLOAT x;
 FLOAT y;
 FLOAT z;
}

template MeshFace {
 <3d82ab5f-62da-11cf-ab39-0020af71e433>
 DWORD nFaceVertexIndices;
 array DWORD faceVertexIndices[nFaceVertexIndices];
}

template Mesh {
 <3d82ab44-62da-11cf-ab39-0020af71e433>
 DWORD nVertices;
 array Vector vertices[nVertices];
 DWORD nFaces;
 array MeshFace faces[nFaces];
 [...]
}

template ColorRGBA {
 <35ff44e0-6c7c-11cf-8f52-0040333594a3>
 FLOAT red;
 FLOAT green;
 FLOAT blue;
 FLOAT alpha;
}

template ColorRGB {
 <d3e16e81-7835-11cf-8f52-0040333594a3>
 FLOAT red;
 FLOAT green;
 FLOAT blue;
}

template Material {
 <3d82ab4d-62da-11cf-ab39-0020af71e433>
 ColorRGBA faceColor;
 FLOAT power;
 ColorRGB specularColor;
 ColorRGB emissiveColor;
 [...]
}

template MeshMaterialList {
 <f6f23f42-7686-11cf-8f52-0040333594a3>
 DWORD nMaterials;
 DWORD nFaceIndexes;
 array DWORD faceIndexes[nFaceIndexes];
 [Material <3d82ab4d-62da-11cf-ab39-0020af71e433>]
}

template Coords2d {
 <f6f23f44-7686-11cf-8f52-0040333594a3>
 FLOAT u;
 FLOAT v;
}

template MeshTextureCoords {
 <f6f23f40-7686-11cf-8f52-0040333594a3>
 DWORD nTextureCoords;
 array Coords2d textureCoords[nTextureCoords];
}

template MeshNormals {
 <f6f23f43-7686-11cf-8f52-0040333594a3>
 DWORD nNormals;
 array Vector normals[nNormals];
 DWORD nFaceNormals;
 array MeshFace faceNormals[nFaceNormals];
}


Mesh  {
 98;
 0.006000;0.600000;0.000000;,
 0.006000;0.485736;-4.600000;,
 0.006000;0.396864;-9.200000;,
 0.006000;0.333384;-13.800000;,
 0.006000;0.295296;-18.400000;,
 0.006000;0.282600;-23.000000;,
 0.006000;0.295296;-27.600000;,
 0.006000;0.333384;-32.200001;,
 0.006000;0.396864;-36.799999;,
 0.006000;0.485736;-41.400002;,
 0.006000;0.600000;-46.000000;,
 -0.006000;0.600000;0.000000;,
 -0.006000;0.485736;-4.600000;,
 -0.006000;0.396864;-9.200000;,
 -0.006000;0.333384;-13.800000;,
 -0.006000;0.295296;-18.400000;,
 -0.006000;0.282600;-23.000000;,
 -0.006000;0.295296;-27.600000;,
 -0.006000;0.333384;-32.200001;,
 -0.006000;0.396864;-36.799999;,
 -0.006000;0.485736;-41.400002;,
 -0.006000;0.600000;-46.000000;,
 0.000000;0.020000;0.000000;,
 0.000000;0.020000;-46.000000;,
 0.000000;0.000000;-46.000000;,
 0.000000;0.000000;0.000000;,
 -0.040000;0.485736;-4.600000;,
 0.000000;0.525736;-4.600000;,
 0.040000;0.485736;-4.600000;,
 0.000000;0.445736;-4.600000;,
 -0.005000;0.010000;-4.600000;,
 -0.005000;0.455736;-4.600000;,
 0.005000;0.455736;-4.600000;,
 0.005000;0.010000;-4.600000;,
 -0.040000;0.396864;-9.200000;,
 0.000000;0.436864;-9.200000;,
 0.040000;0.396864;-9.200000;,
 0.000000;0.356864;-9.200000;,
 -0.005000;0.010000;-9.200000;,
 -0.005000;0.366864;-9.200000;,
 0.005000;0.366864;-9.200000;,
 0.005000;0.010000;-9.200000;,
 -0.040000;0.333384;-13.800000;,
 0.000000;0.373384;-13.800000;,
 0.040000;0.333384;-13.800000;,
 0.000000;0.293384;-13.800000;,
 -0.005000;0.010000;-13.800000;,
 -0.005000;0.303384;-13.800000;,
 0.005000;0.303384;-13.800000;,
 0.005000;0.010000;-13.800000;,
 -0.040000;0.295296;-18.400000;,
 0.000000;0.335296;-18.400000;,
 0.040000;0.295296;-18.400000;,
 0.000000;0.255296;-18.400000;,
 -0.005000;0.010000;-18.400000;,
 -0.005000;0.265296;-18.400000;,
 0.005000;0.265296;-18.400000;,
 0.005000;0.010000;-18.400000;,
 -0.040000;0.282600;-23.000000;,
 0.000000;0.322600;-23.000000;,
 0.040000;0.282600;-23.000000;,
 0.000000;0.242600;-23.000000;,
 -0.005000;0.010000;-23.000000;,
 -0.005000;0.252600;-23.000000;,
 0.005000;0.252600;-23.000000;,
 0.005000;0.010000;-23.000000;,
 -0.040000;0.295296;-27.600000;,
 0.000000;0.335296;-27.600000;,
 0.040000;0.295296;-27.600000;,
 0.000000;0.255296;-27.600000;,
 -0.005000;0.010000;-27.600000;,
 -0.005000;0.265296;-27.600000;,
 0.005000;0.265296;-27.600000;,
 0.005000;0.010000;-27.600000;,
 -0.040000;0.333384;-32.200001;,
 0.000000;0.373384;-32.200001;,
 0.040000;0.333384;-32.200001;,
 0.000000;0.293384;-32.200001;,
 -0.005000;0.010000;-32.200001;,
 -0.005000;0.303384;-32.200001;,
 0.005000;0.303384;-32.200001;,
 0.005000;0.010000;-32.200001;,
 -0.040000;0.396864;-36.799999;,
 0.000000;0.436864;-36.799999;,
 0.040000;0.396864;-36.799999;,
 0.000000;0.356864;-36.799999;,
 -0.005000;0.010000;-36.799999;,
 -0.005000;0.366864;-36.799999;,
 0.005000;0.366864;-36.799999;,
 0.005000;0.010000;-36.799999;,
 -0.040000;0.485736;-41.400002;,
 0.000000;0.525736;-41.400002;,
 0.040000;0.485736;-41.400002;,
 0.000000;0.445736;-41.400002;,
 -0.005000;0.010000;-41.400002;,
 -0.005000;0.455736;-41.400002;,
 0.005000;0.455736;-41.400002;,
 0.005000;0.010000;-41.400002;;
 80;
 3;0,1,12;,
 3;0,12,11;,
 3;11,12,1;,
 3;11,1,0;,
 3;1,2,13;,
 3;1,13,12;,
 3;12,13,2;,
 3;12,2,1;,
 3;2,3,14;,
 3;2,14,13;,
 3;13,14,3;,
 3;13,3,2;,
 3;3,4,15;,
 3;3,15,14;,
 3;14,15,4;,
 3;14,4,3;,
 3;4,5,16;,
 3;4,16,15;,
 3;15,16,5;,
 3;15,5,4;,
 3;5,6,17;,
 3;5,17,16;,
 3;16,17,6;,
 3;16,6,5;,
 3;6,7,18;,
 3;6,18,17;,
 3;17,18,7;,
 3;17,7,6;,
 3;7,8,19;,
 3;7,19,18;,
 3;18,19,8;,
 3;18,8,7;,
 3;8,9,20;,
 3;8,20,19;,
 3;19,20,9;,
 3;19,9,8;,
 3;9,10,21;,
 3;9,21,20;,
 3;20,21,10;,
 3;20,10,9;,
 3;22,23,24;,
 3;22,24,25;,
 3;25,24,23;,
 3;25,23,22;,
 3;26,27,28;,
 3;26,28,29;,
 3;30,31,32;,
 3;30,32,33;,
 3;34,35,36;,
 3;34,36,37;,
 3;38,39,40;,
 3;38,40,41;,
 3;42,43,44;,
 3;42,44,45;,
 3;46,47,48;,
 3;46,48,49;,
 3;50,51,52;,
 3;50,52,53;,
 3;54,55,56;,
 3;54,56,57;,
 3;58,59,60;,
 3;58,60,61;,
 3;62,63,64;,
 3;62,64,65;,
 3;66,67,68;,
 3;66,68,69;,
 3;70,71,72;,
 3;70,72,73;,
 3;74,75,76;,
 3;74,76,77;,
 3;78,79,80;,
 3;78,80,81;,
 3;82,83,84;,
 3;82,84,85;,
 3;86,87,88;,
 3;86,88,89;,
 3;90,91,92;,
 3;90,92,93;,
 3;94,95,96;,
 3;94,96,97;;

 MeshMaterialList  {
  20;
  80;
  0,
  0,
  0,
  0,
  0,
  0,
  0,
  0,
  0,
  0,
  0,
  0,
  0,
  0,
  0,
  0,
  0,
  0,
  0,
  0,
  0,
  0,
  0,
  0,
  0,
  0,
  0,
  0,
  0,
  0,
  0,
  0,
  0,
  0,
  0,
  0,
  0,
  0,
  0,
  0,
  1,
  1,
  1,
  1,
  2,
  2,
  3,
  3,
  4,
  4,
  5,
  5,
  6,
  6,
  7,
  7,
  8,
  8,
  9,
  9,
  10,
  10,
  11,
  11,
  12,
  12,
  13,
  13,
  14,
  14,
  15,
  15,
  16,
  16,
  17,
  17,
  18,
  18,
  19,
  19;

  Material  {
   0.250980;0.250980;0.250980;1.000000;;
   0.000000;
   0.000000;0.000000;0.000000;;
   0.000000;0.000000;0.000000;;
  }

  Material  {
   0.392157;0.294118;0.078431;1.000000;;
   0.000000;
   0.000000;0.000000;0.000000;;
   0.000000;0.000000;0.000000;;
  }

  Material  {
   0.250980;0.250980;0.250980;1.000000;;
   0.000000;
   0.000000;0.000000;0.000000;;
   0.000000;0.000000;0.000000;;
  }

  Material  {
   0.250980;0.250980;0.250980;1.000000;;
   0.000000;
   0.000000;0.000000;0.000000;;
   0.000000;0.000000;0.000000;;
  }

  Material  {
   0.250980;0.250980;0.250980;1.000000;;
   0.000000;
   0.000000;0.000000;0.000000;;
   0.000000;0.000000;0.000000;;
  }

  Material  {
   0.250980;0.250980;0.250980;1.000000;;
   0.000000;
   0.000000;0.000000;0.000000;;
   0.000000;0.000000;0.000000;;
  }

  Material  {
   0.250980;0.250980;0.250980;1.000000;;
   0.000000;
   0.000000;0.000000;0.000000;;
   0.000000;0.000000;0.000000;;
  }

  Material  {
   0.250980;0.250980;0.250980;1.000000;;
   0.000000;
   0.000000;0.000000;0.000000;;
   0.000000;0.000000;0.000000;;
  }

  Material  {
   0.250980;0.250980;0.250980;1.000000;;
   0.000000;
   0.000000;0.000000;0.000000;;
   0.000000;0.000000;0.000000;;
  }

  Material  {
   0.250980;0.250980;0.250980;1.000000;;
   0.000000;
   0.000000;0.000000;0.000000;;
   0.000000;0.000000;0.000000;;
  }

  Material  {
   0.250980;0.250980;0.250980;1.000000;;
   0.000000;
   0.000000;0.000000;0.000000;;
   0.000000;0.000000;0.000000;;
  }

  Material  {
   0.250980;0.250980;0.250980;1.000000;;
   0.000000;
   0.000000;0.000000;0.000000;;
   0.000000;0.000000;0.000000;;
  }

  Material  {
   0.250980;0.250980;0.250980;1.000000;;
   0.000000;
   0.000000;0.000000;0.000000;;
   0.000000;0.000000;0.000000;;
  }

  Material  {
   0.250980;0.250980;0.250980;1.000000;;
   0.000000;
   0.000000;0.000000;0.000000;;
   0.000000;0.000000;0.000000;;
  }

  Material  {
   0.250980;0.250980;0.250980;1.000000;;
   0.000000;
   0.000000;0.000000;0.000000;;
   0.000000;0.000000;0.000000;;
  }

  Material  {
   0.250980;0.250980;0.250980;1.000000;;
   0.000000;
   0.000000;0.000000;0.000000;;
   0.000000;0.000000;0.000000;;
  }

  Material  {
   0.250980;0.250980;0.250980;1.000000;;
   0.000000;
   0.000000;0.000000;0.000000;;
   0.000000;0.000000;0.000000;;
  }

  Material  {
   0.250980;0.250980;0.250980;1.000000;;
   0.000000;
   0.000000;0.000000;0.000000;;
   0.000000;0.000000;0.000000;;
  }

  Material  {
   0.250980;0.250980;0.250980;1.000000;;
   0.000000;
   0.000000;0.000000;0.000000;;
   0.000000;0.000000;0.000000;;
  }

  Material  {
   0.250980;0.250980;0.250980;1.000000;;
   0.000000;
   0.000000;0.000000;0.000000;;
   0.000000;0.000000;0.000000;;
  }
 }

 MeshTextureCoords  {
  98;
  0.000000;0.000000;,
  0.000000;0.000000;,
  0.000000;0.000000;,
  0.000000;0.000000;,
  0.000000;0.000000;,
  0.000000;0.000000;,
  0.000000;0.000000;,
  0.000000;0.000000;,
  0.000000;0.000000;,
  0.000000;0.000000;,
  0.000000;0.000000;,
  0.000000;0.000000;,
  0.000000;0.000000;,
  0.000000;0.000000;,
  0.000000;0.000000;,
  0.000000;0.000000;,
  0.000000;0.000000;,
  0.000000;0.000000;,
  0.000000;0.000000;,
  0.000000;0.000000;,
  0.000000;0.000000;,
  0.000000;0.000000;,
  0.000000;0.000000;,
  0.000000;0.000000;,
  0.000000;0.000000;,
  0.000000;0.000000;,
  0.000000;0.000000;,
  0.000000;0.000000;,
  0.000000;0.000000;,
  0.000000;0.000000;,
  0.000000;0.000000;,
  0.000000;0.000000;,
  0.000000;0.000000;,
  0.000000;0.000000;,
  0.000000;0.000000;,
  0.000000;0.000000;,
  0.000000;0.000000;,
  0.000000;0.000000;,
  0.000000;0.000000;,
  0.000000;0.000000;,
  0.000000;0.000000;,
  0.000000;0.000000;,
  0.000000;0.000000;,
  0.000000;0.000000;,
  0.000000;0.000000;,
  0.000000;0.000000;,
  0.000000;0.000000;,
  0.000000;0.000000;,
  0.000000;0.000000;,
  0.000000;0.000000;,
  0.000000;0.000000;,
  0.000000;0.000000;,
  0.000000;0.000000;,
  0.000000;0.000000;,
  0.000000;0.000000;,
  0.000000;0.000000;,
  0.000000;0.000000;,
  0.000000;0.000000;,
  0.000000;0.000000;,
  0.000000;0.000000;,
  0.000000;0.000000;,
  0.000000;0.000000;,
  0.000000;0.000000;,
  0.000000;0.000000;,
  0.000000;0.000000;,
  0.000000;0.000000;,
  0.000000;0.000000;,
  0.000000;0.000000;,
  0.000000;0.000000;,
  0.000000;0.000000;,
  0.000000;0.000000;,
  0.000000;0.000000;,
  0.000000;0.000000;,
  0.000000;0.000000;,
  0.000000;0.000000;,
  0.000000;0.000000;,
  0.000000;0.000000;,
  0.000000;0.000000;,
  0.000000;0.000000;,
  0.000000;0.000000;,
  0.000000;0.000000;,
  0.000000;0.000000;,
  0.000000;0.000000;,
  0.000000;0.000000;,
  0.000000;0.000000;,
  0.000000;0.000000;,
  0.000000;0.000000;,
  0.000000;0.000000;,
  0.000000;0.000000;,
  0.000000;0.000000;,
  0.000000;0.000000;,
  0.000000;0.000000;,
  0.000000;0.000000;,
  0.000000;0.000000;,
  0.000000;0.000000;,
  0.000000;0.000000;,
  0.000000;0.000000;,
  0.000000;0.000000;;
 }

 MeshNormals  {
  80;
  0.000000;0.999692;-0.024832;,
  0.000000;0.999692;-0.024832;,
  0.000000;-0.999692;0.024832;,
  0.000000;-0.999692;0.024832;,
  0.000000;0.999813;-0.019316;,
  0.000000;0.999813;-0.019316;,
  0.000000;-0.999813;0.019316;,
  0.000000;-0.999813;0.019316;,
  0.000000;0.999905;-0.013799;,
  0.000000;0.999905;-0.013799;,
  0.000000;-0.999905;0.013799;,
  0.000000;-0.999905;0.013799;,
  0.000000;0.999966;-0.008280;,
  0.000000;0.999966;-0.008280;,
  0.000000;-0.999966;0.008280;,
  0.000000;-0.999966;0.008280;,
  0.000000;0.999996;-0.002760;,
  0.000000;0.999996;-0.002760;,
  0.000000;-0.999996;0.002760;,
  0.000000;-0.999996;0.002760;,
  0.000000;0.999996;0.002760;,
  0.000000;0.999996;0.002760;,
  0.000000;-0.999996;-0.002760;,
  0.000000;-0.999996;-0.002760;,
  0.000000;0.999966;0.008280;,
  0.000000;0.999966;0.008280;,
  0.000000;-0.999966;-0.008280;,
  0.000000;-0.999966;-0.008280;,
  0.000000;0.999905;0.013799;,
  0.000000;0.999905;0.013799;,
  0.000000;-0.999905;-0.013799;,
  0.000000;-0.999905;-0.013799;,
  0.000000;0.999813;0.019316;,
  0.000000;0.999813;0.019316;,
  0.000000;-0.999813;-0.019316;,
  0.000000;-0.999813;-0.019316;,
  0.000000;0.999692;0.024832;,
  0.000000;0.999692;0.024832;,
  0.000000;-0.999692;-0.024832;,
  0.000000;-0.999692;-0.024832;,
  -1.000000;0.000000;0.000000;,
  -1.000000;0.000000;0.000000;,
  1.000000;0.000000;0.000000;,
  1.000000;0.000000;0.000000;,
  0.000000;0.000000;-1.000000;,
  0.000000;0.000000;-1.000000;,
  0.000000;0.000000;-1.000000;,
  0.000000;0.000000;-1.000000;,
  0.000000;0.000000;-1.000000;,
  0.000000;0.000000;-1.000000;,
  0.000000;0.000000;-1.000000;,
  0.000000;0.000000;-1.000000;,
  0.000000;0.000000;-1.000000;,
  0.000000;0.000000;-1.000000;,
  0.000000;0.000000;-1.000000;,
  0.000000;0.000000;-1.000000;,
  0.000000;0.000000;-1.000000;,
  0.000000;0.000000;-1.000000;,
  0.000000;0.000000;-1.000000;,
  0.000000;0.000000;-1.000000;,
  0.000000;0.000000;-1.000000;,
  0.000000;0.000000;-1.000000;,
  0.000000;0.000000;-1.000000;,
  0.000000;0.000000;-1.000000;,
  0.000000;0.000000;-1.000000;,
  0.000000;0.000000;-1.000000;,
  0.000000;0.000000;-1.000000;,
  0.000000;0.000000;-1.000000;,
  0.000000;0.000000;-1.000000;,
  0.000000;0.000000;-1.000000;,
  0.000000;0.000000;-1.000000;,
  0.000000;0.000000;-1.000000;,
  0.000000;0.000000;-1.000000;,
  0.000000;0.000000;-1.000000;,
  0.000000;0.000000;-1.000000;,
  0.000000;0.000000;-1.000000;,
  0.000000;0.000000;-1.000000;,
  0.000000;0.000000;-1.000000;,
  0.000000;0.000000;-1.000000;,
  0.000000;0.000000;-1.000000;;
  80;
  3;0,0,0;,
  3;1,1,1;,
  3;2,2,2;,
  3;3,3,3;,
  3;4,4,4;,
  3;5,5,5;,
  3;6,6,6;,
  3;7,7,7;,
  3;8,8,8;,
  3;9,9,9;,
  3;10,10,10;,
  3;11,11,11;,
  3;12,12,12;,
  3;13,13,13;,
  3;14,14,14;,
  3;15,15,15;,
  3;16,16,16;,
  3;17,17,17;,
  3;18,18,18;,
  3;19,19,19;,
  3;20,20,20;,
  3;21,21,21;,
  3;22,22,22;,
  3;23,23,23;,
  3;24,24,24;,
  3;25,25,25;,
  3;26,26,26;,
  3;27,27,27;,
  3;28,28,28;,
  3;29,29,29;,
  3;30,30,30;,
  3;31,31,31;,
  3;32,32,32;,
  3;33,33,33;,
  3;34,34,34;,
  3;35,35,35;,
  3;36,36,36;,
  3;37,37,37;,
  3;38,38,38;,
  3;39,39,39;,
  3;40,40,40;,
  3;41,41,41;,
  3;42,42,42;,
  3;43,43,43;,
  3;44,44,44;,
  3;45,45,45;,
  3;46,46,46;,
  3;47,47,47;,
  3;48,48,48;,
  3;49,49,49;,
  3;50,50,50;,
  3;51,51,51;,
  3;52,52,52;,
  3;53,53,53;,
  3;54,54,54;,
  3;55,55,55;,
  3;56,56,56;,
  3;57,57,57;,
  3;58,58,58;,
  3;59,59,59;,
  3;60,60,60;,
  3;61,61,61;,
  3;62,62,62;,
  3;63,63,63;,
  3;64,64,64;,
  3;65,65,65;,
  3;66,66,66;,
  3;67,67,67;,
  3;68,68,68;,
  3;69,69,69;,
  3;70,70,70;,
  3;71,71,71;,
  3;72,72,72;,
  3;73,73,73;,
  3;74,74,74;,
  3;75,75,75;,
  3;76,76,76;,
  3;77,77,77;,
  3;78,78,78;,
  3;79,79,79;;
 }
}