xof 0303txt 0032
template Vector {
 <3d82ab5e-62da-11cf-ab39-0020af71e433>
 FLOAT x;
 FLOAT y;
 FLOAT z;
}

template MeshFace {
 <3d82ab5f-62da-11cf-ab39-0020af71e433>
 DWORD nFaceVertexIndices;
 array DWORD faceVertexIndices[nFaceVertexIndices];
}

template Mesh {
 <3d82ab44-62da-11cf-ab39-0020af71e433>
 DWORD nVertices;
 array Vector vertices[nVertices];
 DWORD nFaces;
 array MeshFace faces[nFaces];
 [...]
}

template ColorRGBA {
 <35ff44e0-6c7c-11cf-8f52-0040333594a3>
 FLOAT red;
 FLOAT green;
 FLOAT blue;
 FLOAT alpha;
}

template ColorRGB {
 <d3e16e81-7835-11cf-8f52-0040333594a3>
 FLOAT red;
 FLOAT green;
 FLOAT blue;
}

template Material {
 <3d82ab4d-62da-11cf-ab39-0020af71e433>
 ColorRGBA faceColor;
 FLOAT power;
 ColorRGB specularColor;
 ColorRGB emissiveColor;
 [...]
}

template MeshMaterialList {
 <f6f23f42-7686-11cf-8f52-0040333594a3>
 DWORD nMaterials;
 DWORD nFaceIndexes;
 array DWORD faceIndexes[nFaceIndexes];
 [Material <3d82ab4d-62da-11cf-ab39-0020af71e433>]
}

template Coords2d {
 <f6f23f44-7686-11cf-8f52-0040333594a3>
 FLOAT u;
 FLOAT v;
}

template MeshTextureCoords {
 <f6f23f40-7686-11cf-8f52-0040333594a3>
 DWORD nTextureCoords;
 array Coords2d textureCoords[nTextureCoords];
}

template MeshNormals {
 <f6f23f43-7686-11cf-8f52-0040333594a3>
 DWORD nNormals;
 array Vector normals[nNormals];
 DWORD nFaceNormals;
 array MeshFace faceNormals[nFaceNormals];
}


Mesh  {
 86;
 0.006000;0.599999;0.000000;,
 0.006000;0.502672;-4.625000;,
 0.006000;0.433153;-9.250000;,
 0.006000;0.391441;-13.875000;,
 0.006000;0.377537;-18.500000;,
 0.006000;0.391441;-23.125000;,
 0.006000;0.433153;-27.750000;,
 0.006000;0.502672;-32.375000;,
 0.006000;0.599999;-37.000000;,
 -0.006000;0.599999;0.000000;,
 -0.006000;0.502672;-4.625000;,
 -0.006000;0.433153;-9.250000;,
 -0.006000;0.391441;-13.875000;,
 -0.006000;0.377537;-18.500000;,
 -0.006000;0.391441;-23.125000;,
 -0.006000;0.433153;-27.750000;,
 -0.006000;0.502672;-32.375000;,
 -0.006000;0.599999;-37.000000;,
 0.000000;0.020000;0.000000;,
 0.000000;0.020000;-37.000000;,
 0.000000;0.000000;-37.000000;,
 0.000000;0.000000;0.000000;,
 -0.040000;0.502672;-4.625000;,
 0.000000;0.542672;-4.625000;,
 0.040000;0.502672;-4.625000;,
 0.000000;0.462672;-4.625000;,
 -0.005000;0.010000;-4.625000;,
 -0.005000;0.472672;-4.625000;,
 0.005000;0.472672;-4.625000;,
 0.005000;0.010000;-4.625000;,
 -0.040000;0.433153;-9.250000;,
 0.000000;0.473153;-9.250000;,
 0.040000;0.433153;-9.250000;,
 0.000000;0.393153;-9.250000;,
 -0.005000;0.010000;-9.250000;,
 -0.005000;0.403153;-9.250000;,
 0.005000;0.403153;-9.250000;,
 0.005000;0.010000;-9.250000;,
 -0.040000;0.391441;-13.875000;,
 0.000000;0.431441;-13.875000;,
 0.040000;0.391441;-13.875000;,
 0.000000;0.351441;-13.875000;,
 -0.005000;0.010000;-13.875000;,
 -0.005000;0.361441;-13.875000;,
 0.005000;0.361441;-13.875000;,
 0.005000;0.010000;-13.875000;,
 -0.040000;0.377537;-18.500000;,
 0.000000;0.417537;-18.500000;,
 0.040000;0.377537;-18.500000;,
 0.000000;0.337537;-18.500000;,
 -0.005000;0.010000;-18.500000;,
 -0.005000;0.347537;-18.500000;,
 0.005000;0.347537;-18.500000;,
 0.005000;0.010000;-18.500000;,
 -0.040000;0.391441;-23.125000;,
 0.000000;0.431441;-23.125000;,
 0.040000;0.391441;-23.125000;,
 0.000000;0.351441;-23.125000;,
 -0.005000;0.010000;-23.125000;,
 -0.005000;0.361441;-23.125000;,
 0.005000;0.361441;-23.125000;,
 0.005000;0.010000;-23.125000;,
 -0.040000;0.433153;-27.750000;,
 0.000000;0.473153;-27.750000;,
 0.040000;0.433153;-27.750000;,
 0.000000;0.393153;-27.750000;,
 -0.005000;0.010000;-27.750000;,
 -0.005000;0.403153;-27.750000;,
 0.005000;0.403153;-27.750000;,
 0.005000;0.010000;-27.750000;,
 -0.040000;0.433153;-27.750000;,
 0.000000;0.473153;-27.750000;,
 0.040000;0.433153;-27.750000;,
 0.000000;0.393153;-27.750000;,
 -0.005000;0.010000;-27.750000;,
 -0.005000;0.403153;-27.750000;,
 0.005000;0.403153;-27.750000;,
 0.005000;0.010000;-27.750000;,
 -0.040000;0.502672;-32.375000;,
 0.000000;0.542672;-32.375000;,
 0.040000;0.502672;-32.375000;,
 0.000000;0.462672;-32.375000;,
 -0.005000;0.010000;-32.375000;,
 -0.005000;0.472672;-32.375000;,
 0.005000;0.472672;-32.375000;,
 0.005000;0.010000;-32.375000;;
 68;
 3;0,1,10;,
 3;0,10,9;,
 3;9,10,1;,
 3;9,1,0;,
 3;1,2,11;,
 3;1,11,10;,
 3;10,11,2;,
 3;10,2,1;,
 3;2,3,12;,
 3;2,12,11;,
 3;11,12,3;,
 3;11,3,2;,
 3;3,4,13;,
 3;3,13,12;,
 3;12,13,4;,
 3;12,4,3;,
 3;4,5,14;,
 3;4,14,13;,
 3;13,14,5;,
 3;13,5,4;,
 3;5,6,15;,
 3;5,15,14;,
 3;14,15,6;,
 3;14,6,5;,
 3;6,7,16;,
 3;6,16,15;,
 3;15,16,7;,
 3;15,7,6;,
 3;7,8,17;,
 3;7,17,16;,
 3;16,17,8;,
 3;16,8,7;,
 3;18,19,20;,
 3;18,20,21;,
 3;21,20,19;,
 3;21,19,18;,
 3;22,23,24;,
 3;22,24,25;,
 3;26,27,28;,
 3;26,28,29;,
 3;30,31,32;,
 3;30,32,33;,
 3;34,35,36;,
 3;34,36,37;,
 3;38,39,40;,
 3;38,40,41;,
 3;42,43,44;,
 3;42,44,45;,
 3;46,47,48;,
 3;46,48,49;,
 3;50,51,52;,
 3;50,52,53;,
 3;54,55,56;,
 3;54,56,57;,
 3;58,59,60;,
 3;58,60,61;,
 3;62,63,64;,
 3;62,64,65;,
 3;66,67,68;,
 3;66,68,69;,
 3;70,71,72;,
 3;70,72,73;,
 3;74,75,76;,
 3;74,76,77;,
 3;78,79,80;,
 3;78,80,81;,
 3;82,83,84;,
 3;82,84,85;;

 MeshMaterialList  {
  18;
  68;
  0,
  0,
  0,
  0,
  0,
  0,
  0,
  0,
  0,
  0,
  0,
  0,
  0,
  0,
  0,
  0,
  0,
  0,
  0,
  0,
  0,
  0,
  0,
  0,
  0,
  0,
  0,
  0,
  0,
  0,
  0,
  0,
  1,
  1,
  1,
  1,
  2,
  2,
  3,
  3,
  4,
  4,
  5,
  5,
  6,
  6,
  7,
  7,
  8,
  8,
  9,
  9,
  10,
  10,
  11,
  11,
  12,
  12,
  13,
  13,
  14,
  14,
  15,
  15,
  16,
  16,
  17,
  17;

  Material  {
   0.250980;0.250980;0.250980;1.000000;;
   0.000000;
   0.000000;0.000000;0.000000;;
   0.000000;0.000000;0.000000;;
  }

  Material  {
   0.392157;0.294118;0.078431;1.000000;;
   0.000000;
   0.000000;0.000000;0.000000;;
   0.000000;0.000000;0.000000;;
  }

  Material  {
   0.250980;0.250980;0.250980;1.000000;;
   0.000000;
   0.000000;0.000000;0.000000;;
   0.000000;0.000000;0.000000;;
  }

  Material  {
   0.250980;0.250980;0.250980;1.000000;;
   0.000000;
   0.000000;0.000000;0.000000;;
   0.000000;0.000000;0.000000;;
  }

  Material  {
   0.250980;0.250980;0.250980;1.000000;;
   0.000000;
   0.000000;0.000000;0.000000;;
   0.000000;0.000000;0.000000;;
  }

  Material  {
   0.250980;0.250980;0.250980;1.000000;;
   0.000000;
   0.000000;0.000000;0.000000;;
   0.000000;0.000000;0.000000;;
  }

  Material  {
   0.250980;0.250980;0.250980;1.000000;;
   0.000000;
   0.000000;0.000000;0.000000;;
   0.000000;0.000000;0.000000;;
  }

  Material  {
   0.250980;0.250980;0.250980;1.000000;;
   0.000000;
   0.000000;0.000000;0.000000;;
   0.000000;0.000000;0.000000;;
  }

  Material  {
   0.250980;0.250980;0.250980;1.000000;;
   0.000000;
   0.000000;0.000000;0.000000;;
   0.000000;0.000000;0.000000;;
  }

  Material  {
   0.250980;0.250980;0.250980;1.000000;;
   0.000000;
   0.000000;0.000000;0.000000;;
   0.000000;0.000000;0.000000;;
  }

  Material  {
   0.250980;0.250980;0.250980;1.000000;;
   0.000000;
   0.000000;0.000000;0.000000;;
   0.000000;0.000000;0.000000;;
  }

  Material  {
   0.250980;0.250980;0.250980;1.000000;;
   0.000000;
   0.000000;0.000000;0.000000;;
   0.000000;0.000000;0.000000;;
  }

  Material  {
   0.250980;0.250980;0.250980;1.000000;;
   0.000000;
   0.000000;0.000000;0.000000;;
   0.000000;0.000000;0.000000;;
  }

  Material  {
   0.250980;0.250980;0.250980;1.000000;;
   0.000000;
   0.000000;0.000000;0.000000;;
   0.000000;0.000000;0.000000;;
  }

  Material  {
   0.250980;0.250980;0.250980;1.000000;;
   0.000000;
   0.000000;0.000000;0.000000;;
   0.000000;0.000000;0.000000;;
  }

  Material  {
   0.250980;0.250980;0.250980;1.000000;;
   0.000000;
   0.000000;0.000000;0.000000;;
   0.000000;0.000000;0.000000;;
  }

  Material  {
   0.250980;0.250980;0.250980;1.000000;;
   0.000000;
   0.000000;0.000000;0.000000;;
   0.000000;0.000000;0.000000;;
  }

  Material  {
   0.250980;0.250980;0.250980;1.000000;;
   0.000000;
   0.000000;0.000000;0.000000;;
   0.000000;0.000000;0.000000;;
  }
 }

 MeshTextureCoords  {
  86;
  0.000000;0.000000;,
  0.000000;0.000000;,
  0.000000;0.000000;,
  0.000000;0.000000;,
  0.000000;0.000000;,
  0.000000;0.000000;,
  0.000000;0.000000;,
  0.000000;0.000000;,
  0.000000;0.000000;,
  0.000000;0.000000;,
  0.000000;0.000000;,
  0.000000;0.000000;,
  0.000000;0.000000;,
  0.000000;0.000000;,
  0.000000;0.000000;,
  0.000000;0.000000;,
  0.000000;0.000000;,
  0.000000;0.000000;,
  0.000000;0.000000;,
  0.000000;0.000000;,
  0.000000;0.000000;,
  0.000000;0.000000;,
  0.000000;0.000000;,
  0.000000;0.000000;,
  0.000000;0.000000;,
  0.000000;0.000000;,
  0.000000;0.000000;,
  0.000000;0.000000;,
  0.000000;0.000000;,
  0.000000;0.000000;,
  0.000000;0.000000;,
  0.000000;0.000000;,
  0.000000;0.000000;,
  0.000000;0.000000;,
  0.000000;0.000000;,
  0.000000;0.000000;,
  0.000000;0.000000;,
  0.000000;0.000000;,
  0.000000;0.000000;,
  0.000000;0.000000;,
  0.000000;0.000000;,
  0.000000;0.000000;,
  0.000000;0.000000;,
  0.000000;0.000000;,
  0.000000;0.000000;,
  0.000000;0.000000;,
  0.000000;0.000000;,
  0.000000;0.000000;,
  0.000000;0.000000;,
  0.000000;0.000000;,
  0.000000;0.000000;,
  0.000000;0.000000;,
  0.000000;0.000000;,
  0.000000;0.000000;,
  0.000000;0.000000;,
  0.000000;0.000000;,
  0.000000;0.000000;,
  0.000000;0.000000;,
  0.000000;0.000000;,
  0.000000;0.000000;,
  0.000000;0.000000;,
  0.000000;0.000000;,
  0.000000;0.000000;,
  0.000000;0.000000;,
  0.000000;0.000000;,
  0.000000;0.000000;,
  0.000000;0.000000;,
  0.000000;0.000000;,
  0.000000;0.000000;,
  0.000000;0.000000;,
  0.000000;0.000000;,
  0.000000;0.000000;,
  0.000000;0.000000;,
  0.000000;0.000000;,
  0.000000;0.000000;,
  0.000000;0.000000;,
  0.000000;0.000000;,
  0.000000;0.000000;,
  0.000000;0.000000;,
  0.000000;0.000000;,
  0.000000;0.000000;,
  0.000000;0.000000;,
  0.000000;0.000000;,
  0.000000;0.000000;,
  0.000000;0.000000;,
  0.000000;0.000000;;
 }

 MeshNormals  {
  68;
  0.000000;0.999779;-0.021039;,
  0.000000;0.999779;-0.021039;,
  0.000000;-0.999779;0.021039;,
  0.000000;-0.999779;0.021039;,
  0.000000;0.999887;-0.015030;,
  0.000000;0.999887;-0.015030;,
  0.000000;-0.999887;0.015030;,
  0.000000;-0.999887;0.015030;,
  0.000000;0.999959;-0.009018;,
  0.000000;0.999959;-0.009018;,
  0.000000;-0.999959;0.009018;,
  0.000000;-0.999959;0.009018;,
  0.000000;0.999996;-0.003006;,
  0.000000;0.999996;-0.003006;,
  0.000000;-0.999996;0.003006;,
  0.000000;-0.999996;0.003006;,
  0.000000;0.999996;0.003006;,
  0.000000;0.999996;0.003006;,
  0.000000;-0.999996;-0.003006;,
  0.000000;-0.999996;-0.003006;,
  0.000000;0.999959;0.009018;,
  0.000000;0.999959;0.009018;,
  0.000000;-0.999959;-0.009018;,
  0.000000;-0.999959;-0.009018;,
  0.000000;0.999887;0.015030;,
  0.000000;0.999887;0.015030;,
  0.000000;-0.999887;-0.015030;,
  0.000000;-0.999887;-0.015030;,
  0.000000;0.999779;0.021039;,
  0.000000;0.999779;0.021039;,
  0.000000;-0.999779;-0.021039;,
  0.000000;-0.999779;-0.021039;,
  -1.000000;0.000000;0.000000;,
  -1.000000;0.000000;0.000000;,
  1.000000;0.000000;0.000000;,
  1.000000;0.000000;0.000000;,
  0.000000;0.000000;-1.000000;,
  0.000000;0.000000;-1.000000;,
  0.000000;0.000000;-1.000000;,
  0.000000;0.000000;-1.000000;,
  0.000000;0.000000;-1.000000;,
  0.000000;0.000000;-1.000000;,
  0.000000;0.000000;-1.000000;,
  0.000000;0.000000;-1.000000;,
  0.000000;0.000000;-1.000000;,
  0.000000;0.000000;-1.000000;,
  0.000000;0.000000;-1.000000;,
  0.000000;0.000000;-1.000000;,
  0.000000;0.000000;-1.000000;,
  0.000000;0.000000;-1.000000;,
  0.000000;0.000000;-1.000000;,
  0.000000;0.000000;-1.000000;,
  0.000000;0.000000;-1.000000;,
  0.000000;0.000000;-1.000000;,
  0.000000;0.000000;-1.000000;,
  0.000000;0.000000;-1.000000;,
  0.000000;0.000000;-1.000000;,
  0.000000;0.000000;-1.000000;,
  0.000000;0.000000;-1.000000;,
  0.000000;0.000000;-1.000000;,
  0.000000;0.000000;-1.000000;,
  0.000000;0.000000;-1.000000;,
  0.000000;0.000000;-1.000000;,
  0.000000;0.000000;-1.000000;,
  0.000000;0.000000;-1.000000;,
  0.000000;0.000000;-1.000000;,
  0.000000;0.000000;-1.000000;,
  0.000000;0.000000;-1.000000;;
  68;
  3;0,0,0;,
  3;1,1,1;,
  3;2,2,2;,
  3;3,3,3;,
  3;4,4,4;,
  3;5,5,5;,
  3;6,6,6;,
  3;7,7,7;,
  3;8,8,8;,
  3;9,9,9;,
  3;10,10,10;,
  3;11,11,11;,
  3;12,12,12;,
  3;13,13,13;,
  3;14,14,14;,
  3;15,15,15;,
  3;16,16,16;,
  3;17,17,17;,
  3;18,18,18;,
  3;19,19,19;,
  3;20,20,20;,
  3;21,21,21;,
  3;22,22,22;,
  3;23,23,23;,
  3;24,24,24;,
  3;25,25,25;,
  3;26,26,26;,
  3;27,27,27;,
  3;28,28,28;,
  3;29,29,29;,
  3;30,30,30;,
  3;31,31,31;,
  3;32,32,32;,
  3;33,33,33;,
  3;34,34,34;,
  3;35,35,35;,
  3;36,36,36;,
  3;37,37,37;,
  3;38,38,38;,
  3;39,39,39;,
  3;40,40,40;,
  3;41,41,41;,
  3;42,42,42;,
  3;43,43,43;,
  3;44,44,44;,
  3;45,45,45;,
  3;46,46,46;,
  3;47,47,47;,
  3;48,48,48;,
  3;49,49,49;,
  3;50,50,50;,
  3;51,51,51;,
  3;52,52,52;,
  3;53,53,53;,
  3;54,54,54;,
  3;55,55,55;,
  3;56,56,56;,
  3;57,57,57;,
  3;58,58,58;,
  3;59,59,59;,
  3;60,60,60;,
  3;61,61,61;,
  3;62,62,62;,
  3;63,63,63;,
  3;64,64,64;,
  3;65,65,65;,
  3;66,66,66;,
  3;67,67,67;;
 }
}