xof 0303txt 0032
template Vector {
 <3d82ab5e-62da-11cf-ab39-0020af71e433>
 FLOAT x;
 FLOAT y;
 FLOAT z;
}

template MeshFace {
 <3d82ab5f-62da-11cf-ab39-0020af71e433>
 DWORD nFaceVertexIndices;
 array DWORD faceVertexIndices[nFaceVertexIndices];
}

template Mesh {
 <3d82ab44-62da-11cf-ab39-0020af71e433>
 DWORD nVertices;
 array Vector vertices[nVertices];
 DWORD nFaces;
 array MeshFace faces[nFaces];
 [...]
}

template ColorRGBA {
 <35ff44e0-6c7c-11cf-8f52-0040333594a3>
 FLOAT red;
 FLOAT green;
 FLOAT blue;
 FLOAT alpha;
}

template ColorRGB {
 <d3e16e81-7835-11cf-8f52-0040333594a3>
 FLOAT red;
 FLOAT green;
 FLOAT blue;
}

template Material {
 <3d82ab4d-62da-11cf-ab39-0020af71e433>
 ColorRGBA faceColor;
 FLOAT power;
 ColorRGB specularColor;
 ColorRGB emissiveColor;
 [...]
}

template MeshMaterialList {
 <f6f23f42-7686-11cf-8f52-0040333594a3>
 DWORD nMaterials;
 DWORD nFaceIndexes;
 array DWORD faceIndexes[nFaceIndexes];
 [Material <3d82ab4d-62da-11cf-ab39-0020af71e433>]
}

template TextureFilename {
 <a42790e1-7810-11cf-8f52-0040333594a3>
 STRING filename;
}

template Coords2d {
 <f6f23f44-7686-11cf-8f52-0040333594a3>
 FLOAT u;
 FLOAT v;
}

template MeshTextureCoords {
 <f6f23f40-7686-11cf-8f52-0040333594a3>
 DWORD nTextureCoords;
 array Coords2d textureCoords[nTextureCoords];
}

template MeshNormals {
 <f6f23f43-7686-11cf-8f52-0040333594a3>
 DWORD nNormals;
 array Vector normals[nNormals];
 DWORD nFaceNormals;
 array MeshFace faceNormals[nFaceNormals];
}


Mesh  {
 38;
 -7.843400;-0.450000;0.000000;,
 -7.843400;1.100000;0.000000;,
 -6.643400;1.100000;0.000000;,
 -7.613600;-0.450000;6.000000;,
 -7.613600;1.100000;6.000000;,
 -6.413600;1.100000;6.000000;,
 -7.230600;-0.450000;16.000000;,
 -7.230600;0.920000;16.000000;,
 -6.030600;0.920000;16.000000;,
 -7.230600;-0.450000;16.000000;,
 -7.230600;0.920000;16.000000;,
 -6.030600;0.920000;16.000000;,
 -6.885800;-0.450000;25.000000;,
 -6.885800;0.920000;25.000000;,
 -5.685800;0.920000;25.000000;,
 -1.500000;1.100000;0.000000;,
 -2.700000;1.100000;0.000000;,
 -1.424400;1.100000;6.000000;,
 -2.624400;1.100000;6.000000;,
 -1.342500;0.983000;12.500000;,
 -2.542500;0.983000;12.500000;,
 -1.386600;0.920000;16.000000;,
 -2.586600;0.920000;16.000000;,
 -1.386600;0.920000;16.000000;,
 -2.586600;0.920000;16.000000;,
 -1.500000;0.920000;25.000000;,
 -2.700000;0.920000;25.000000;,
 -6.649300;1.100000;0.000000;,
 -6.423200;1.100000;6.000000;,
 -6.046400;0.920000;16.000000;,
 -2.700000;1.100000;0.000000;,
 -2.624400;1.100000;6.000000;,
 -2.542500;0.983000;12.500000;,
 -2.586600;0.920000;16.000000;,
 -6.046400;0.920000;16.000000;,
 -5.707300;0.920000;25.000000;,
 -2.586600;0.920000;16.000000;,
 -2.700000;0.920000;25.000000;;
 27;
 3;3,4,1;,
 3;3,1,0;,
 3;4,5,2;,
 3;4,2,1;,
 3;6,7,4;,
 3;6,4,3;,
 3;7,8,5;,
 3;7,5,4;,
 3;12,13,10;,
 3;12,10,9;,
 3;13,14,11;,
 3;13,11,10;,
 3;15,16,18;,
 3;15,18,17;,
 3;17,18,20;,
 3;17,20,19;,
 3;19,20,22;,
 3;19,22,21;,
 3;23,24,26;,
 3;23,26,25;,
 3;27,28,31;,
 3;27,31,30;,
 3;28,29,33;,
 3;28,33,32;,
 3;28,32,31;,
 3;34,35,37;,
 3;34,37,36;;

 MeshMaterialList  {
  6;
  27;
  0,
  0,
  0,
  0,
  0,
  0,
  0,
  0,
  1,
  1,
  1,
  1,
  2,
  2,
  2,
  2,
  2,
  2,
  3,
  3,
  4,
  4,
  4,
  4,
  4,
  5,
  5;

  Material  {
   1.000000;1.000000;1.000000;1.000000;;
   0.000000;
   0.000000;0.000000;0.000000;;
   0.000000;0.000000;0.000000;;

   TextureFilename  {
    "FormSide1.png";
   }
  }

  Material  {
   1.000000;1.000000;1.000000;1.000000;;
   0.000000;
   0.000000;0.000000;0.000000;;
   0.000000;0.000000;0.000000;;

   TextureFilename  {
    "FormSide4.png";
   }
  }

  Material  {
   1.000000;1.000000;1.000000;1.000000;;
   0.000000;
   0.000000;0.000000;0.000000;;
   0.000000;0.000000;0.000000;;

   TextureFilename  {
    "FormSide1.png";
   }
  }

  Material  {
   1.000000;1.000000;1.000000;1.000000;;
   0.000000;
   0.000000;0.000000;0.000000;;
   0.000000;0.000000;0.000000;;

   TextureFilename  {
    "FormSide4.png";
   }
  }

  Material  {
   1.000000;1.000000;1.000000;1.000000;;
   0.000000;
   0.000000;0.000000;0.000000;;
   0.000000;0.000000;0.000000;;

   TextureFilename  {
    "FormC.png";
   }
  }

  Material  {
   1.000000;1.000000;1.000000;1.000000;;
   0.000000;
   0.000000;0.000000;0.000000;;
   0.000000;0.000000;0.000000;;

   TextureFilename  {
    "FormC2.png";
   }
  }
 }

 MeshTextureCoords  {
  38;
  0.000000;1.000000;,
  0.000000;0.312500;,
  0.000000;0.100000;,
  0.600000;1.000000;,
  0.600000;0.312500;,
  0.600000;0.100000;,
  1.600000;1.000000;,
  1.600000;0.312500;,
  1.600000;0.100000;,
  1.600000;1.000000;,
  1.600000;0.312500;,
  1.600000;0.000000;,
  2.500000;1.000000;,
  2.500000;0.312500;,
  2.500000;0.000000;,
  0.000000;0.312500;,
  0.000000;0.100000;,
  0.600000;0.312500;,
  0.600000;0.100000;,
  1.250000;0.312500;,
  1.250000;0.100000;,
  1.600000;0.312500;,
  1.600000;0.100000;,
  0.000000;0.312500;,
  0.000000;0.000000;,
  0.600000;0.312500;,
  0.600000;0.000000;,
  0.000000;0.000000;,
  0.000000;0.240000;,
  0.000000;0.640000;,
  1.000000;0.000000;,
  1.000000;0.240000;,
  1.000000;0.500000;,
  1.000000;0.640000;,
  0.000000;0.640000;,
  0.000000;1.000000;,
  1.000000;0.640000;,
  1.000000;1.000000;;
 }

 MeshNormals  {
  27;
  -0.999267;0.000000;0.038272;,
  -0.999267;0.000000;0.038272;,
  0.000000;1.000000;0.000000;,
  0.000000;1.000000;0.000000;,
  -0.999267;0.000000;0.038272;,
  -0.999267;0.000000;0.038272;,
  0.000000;0.999838;0.017997;,
  0.000000;0.999838;0.017997;,
  -0.999267;0.000000;0.038283;,
  -0.999267;0.000000;0.038283;,
  0.000000;1.000000;0.000000;,
  0.000000;1.000000;0.000000;,
  0.000000;1.000000;0.000000;,
  0.000000;1.000000;0.000000;,
  0.000000;0.999838;0.017997;,
  0.000000;0.999838;0.017997;,
  0.000000;0.999838;0.017997;,
  0.000000;0.999838;0.017997;,
  0.000000;1.000000;0.000000;,
  0.000000;1.000000;0.000000;,
  0.000000;1.000000;0.000000;,
  0.000000;1.000000;0.000000;,
  0.000000;0.999838;0.017997;,
  0.000000;0.999838;0.017997;,
  0.000000;0.999838;0.017997;,
  0.000000;1.000000;0.000000;,
  0.000000;1.000000;0.000000;;
  27;
  3;0,0,0;,
  3;1,1,1;,
  3;2,2,2;,
  3;3,3,3;,
  3;4,4,4;,
  3;5,5,5;,
  3;6,6,6;,
  3;7,7,7;,
  3;8,8,8;,
  3;9,9,9;,
  3;10,10,10;,
  3;11,11,11;,
  3;12,12,12;,
  3;13,13,13;,
  3;14,14,14;,
  3;15,15,15;,
  3;16,16,16;,
  3;17,17,17;,
  3;18,18,18;,
  3;19,19,19;,
  3;20,20,20;,
  3;21,21,21;,
  3;22,22,22;,
  3;23,23,23;,
  3;24,24,24;,
  3;25,25,25;,
  3;26,26,26;;
 }
}