xof 0303txt 0032
template Vector {
 <3d82ab5e-62da-11cf-ab39-0020af71e433>
 FLOAT x;
 FLOAT y;
 FLOAT z;
}

template MeshFace {
 <3d82ab5f-62da-11cf-ab39-0020af71e433>
 DWORD nFaceVertexIndices;
 array DWORD faceVertexIndices[nFaceVertexIndices];
}

template Mesh {
 <3d82ab44-62da-11cf-ab39-0020af71e433>
 DWORD nVertices;
 array Vector vertices[nVertices];
 DWORD nFaces;
 array MeshFace faces[nFaces];
 [...]
}

template ColorRGBA {
 <35ff44e0-6c7c-11cf-8f52-0040333594a3>
 FLOAT red;
 FLOAT green;
 FLOAT blue;
 FLOAT alpha;
}

template ColorRGB {
 <d3e16e81-7835-11cf-8f52-0040333594a3>
 FLOAT red;
 FLOAT green;
 FLOAT blue;
}

template Material {
 <3d82ab4d-62da-11cf-ab39-0020af71e433>
 ColorRGBA faceColor;
 FLOAT power;
 ColorRGB specularColor;
 ColorRGB emissiveColor;
 [...]
}

template MeshMaterialList {
 <f6f23f42-7686-11cf-8f52-0040333594a3>
 DWORD nMaterials;
 DWORD nFaceIndexes;
 array DWORD faceIndexes[nFaceIndexes];
 [Material <3d82ab4d-62da-11cf-ab39-0020af71e433>]
}

template TextureFilename {
 <a42790e1-7810-11cf-8f52-0040333594a3>
 STRING filename;
}

template Coords2d {
 <f6f23f44-7686-11cf-8f52-0040333594a3>
 FLOAT u;
 FLOAT v;
}

template MeshTextureCoords {
 <f6f23f40-7686-11cf-8f52-0040333594a3>
 DWORD nTextureCoords;
 array Coords2d textureCoords[nTextureCoords];
}

template MeshNormals {
 <f6f23f43-7686-11cf-8f52-0040333594a3>
 DWORD nNormals;
 array Vector normals[nNormals];
 DWORD nFaceNormals;
 array MeshFace faceNormals[nFaceNormals];
}


Mesh  {
 95;
 -1.500000;-0.450000;12.000000;,
 -1.500000;0.000000;12.000000;,
 -2.700000;0.000000;12.000000;,
 -1.500000;-0.450000;15.000000;,
 -1.500000;0.000000;15.000000;,
 -2.700000;0.000000;15.000000;,
 -1.500000;-0.450000;25.000000;,
 -1.500000;1.100000;25.000000;,
 -2.700000;1.100000;25.000000;,
 -7.938000;-0.450000;12.000000;,
 -7.938000;0.000000;12.000000;,
 -6.738000;0.000000;12.000000;,
 -7.938000;-0.450000;15.000000;,
 -7.938000;0.000000;15.000000;,
 -6.738000;0.000000;15.000000;,
 -7.938000;-0.450000;25.000000;,
 -7.938000;1.100000;25.000000;,
 -6.738000;1.100000;25.000000;,
 -7.938000;-0.450000;12.000000;,
 -7.938000;0.000000;12.000000;,
 -1.500000;-0.450000;12.000000;,
 -1.500000;0.000000;12.000000;,
 -2.700000;0.000000;12.000000;,
 -6.738000;0.000000;12.000000;,
 -2.700000;0.000000;15.000000;,
 -6.738000;0.000000;15.000000;,
 -2.700000;1.100000;25.000000;,
 -6.738000;1.100000;25.000000;,
 5.925000;-0.450000;12.000000;,
 5.925000;0.000000;12.000000;,
 7.125000;0.000000;12.000000;,
 5.925000;-0.450000;15.000000;,
 5.925000;0.000000;15.000000;,
 7.125000;0.000000;15.000000;,
 5.925000;-0.450000;25.000000;,
 5.925000;1.100000;25.000000;,
 7.125000;1.100000;25.000000;,
 9.500000;-0.450000;15.000000;,
 9.500000;0.920000;15.000000;,
 10.700000;0.920000;15.000000;,
 9.500000;-0.450000;22.500000;,
 9.500000;0.920000;22.500000;,
 10.700000;0.920000;22.500000;,
 9.500000;-0.450000;25.000000;,
 9.500000;1.100000;25.000000;,
 10.700000;1.100000;25.000000;,
 12.424800;0.920000;15.000000;,
 11.224800;0.920000;15.000000;,
 12.424800;0.920000;22.500000;,
 11.224800;0.920000;22.500000;,
 12.424800;1.100000;25.000000;,
 11.224800;1.100000;25.000000;,
 5.925000;-0.450000;12.000000;,
 5.925000;0.000000;12.000000;,
 12.424800;-0.450000;12.000000;,
 12.424800;0.000000;12.000000;,
 9.500000;-0.450000;15.000000;,
 9.500000;0.920000;15.000000;,
 12.424800;-0.450000;15.000000;,
 12.424800;0.920000;15.000000;,
 7.125000;0.000000;12.000000;,
 12.424800;0.000000;12.000000;,
 7.125000;0.000000;15.000000;,
 9.500000;0.000000;15.000000;,
 12.424800;0.000000;15.000000;,
 7.125000;1.100000;25.000000;,
 9.500000;1.100000;25.000000;,
 10.700000;0.920000;15.000000;,
 11.224800;0.920000;15.000000;,
 10.700000;0.920000;22.500000;,
 11.224800;0.920000;22.500000;,
 10.700000;1.100000;25.000000;,
 11.224800;1.100000;25.000000;,
 -7.338000;1.100000;25.000000;,
 -7.338000;2.300000;25.000000;,
 -2.100000;1.100000;25.000000;,
 -2.100000;2.300000;25.000000;,
 6.525000;1.100000;25.000000;,
 6.525000;2.300000;25.000000;,
 9.700000;1.100000;25.000000;,
 9.700000;2.300000;25.000000;,
 9.700000;0.920000;22.500000;,
 9.700000;2.120000;22.500000;,
 9.700000;0.920000;15.200000;,
 9.700000;2.120000;15.200000;,
 11.824800;0.920000;15.200000;,
 11.824800;2.120000;15.200000;,
 -2.100000;0.000000;12.000000;,
 -2.100000;1.200000;12.000000;,
 -2.100000;0.000000;15.000000;,
 -2.100000;1.200000;15.000000;,
 6.525000;0.000000;12.000000;,
 6.525000;1.200000;12.000000;,
 6.525000;0.000000;15.000000;,
 6.525000;1.200000;15.000000;;
 82;
 3;0,1,4;,
 3;0,4,3;,
 3;1,2,5;,
 3;1,5,4;,
 3;3,4,7;,
 3;3,7,6;,
 3;4,5,8;,
 3;4,8,7;,
 3;12,13,10;,
 3;12,10,9;,
 3;13,14,11;,
 3;13,11,10;,
 3;15,16,13;,
 3;15,13,12;,
 3;16,17,14;,
 3;16,14,13;,
 3;18,19,21;,
 3;18,21,20;,
 3;25,24,22;,
 3;25,22,23;,
 3;27,26,24;,
 3;27,24,25;,
 3;31,32,29;,
 3;31,29,28;,
 3;32,33,30;,
 3;32,30,29;,
 3;34,35,32;,
 3;34,32,31;,
 3;35,36,33;,
 3;35,33,32;,
 3;40,41,38;,
 3;40,38,37;,
 3;41,42,39;,
 3;41,39,38;,
 3;43,44,41;,
 3;43,41,40;,
 3;44,45,42;,
 3;44,42,41;,
 3;49,48,46;,
 3;49,46,47;,
 3;51,50,48;,
 3;51,48,49;,
 3;52,53,55;,
 3;52,55,54;,
 3;56,57,59;,
 3;56,59,58;,
 3;61,60,62;,
 3;61,62,64;,
 3;63,62,65;,
 3;63,65,66;,
 3;68,67,69;,
 3;68,69,70;,
 3;70,69,71;,
 3;70,71,72;,
 3;73,74,76;,
 3;73,76,75;,
 3;75,76,74;,
 3;75,74,73;,
 3;77,78,80;,
 3;77,80,79;,
 3;79,80,78;,
 3;79,78,77;,
 3;79,80,82;,
 3;79,82,81;,
 3;81,82,80;,
 3;81,80,79;,
 3;81,82,84;,
 3;81,84,83;,
 3;83,84,82;,
 3;83,82,81;,
 3;83,84,86;,
 3;83,86,85;,
 3;85,86,84;,
 3;85,84,83;,
 3;89,90,88;,
 3;89,88,87;,
 3;87,88,90;,
 3;87,90,89;,
 3;91,92,94;,
 3;91,94,93;,
 3;93,94,92;,
 3;93,92,91;;

 MeshMaterialList  {
  15;
  82;
  0,
  0,
  0,
  0,
  0,
  0,
  0,
  0,
  1,
  1,
  1,
  1,
  1,
  1,
  1,
  1,
  2,
  2,
  3,
  3,
  3,
  3,
  4,
  4,
  4,
  4,
  4,
  4,
  4,
  4,
  5,
  5,
  5,
  5,
  5,
  5,
  5,
  5,
  6,
  6,
  6,
  6,
  7,
  7,
  8,
  8,
  9,
  9,
  9,
  9,
  10,
  10,
  10,
  10,
  11,
  11,
  11,
  11,
  12,
  12,
  12,
  12,
  12,
  12,
  12,
  12,
  12,
  12,
  12,
  12,
  12,
  12,
  12,
  12,
  13,
  13,
  13,
  13,
  14,
  14,
  14,
  14;

  Material  {
   1.000000;1.000000;1.000000;1.000000;;
   0.000000;
   0.000000;0.000000;0.000000;;
   0.000000;0.000000;0.000000;;

   TextureFilename  {
    "FormSide1.png";
   }
  }

  Material  {
   1.000000;1.000000;1.000000;1.000000;;
   0.000000;
   0.000000;0.000000;0.000000;;
   0.000000;0.000000;0.000000;;

   TextureFilename  {
    "FormSide1.png";
   }
  }

  Material  {
   1.000000;1.000000;1.000000;1.000000;;
   0.000000;
   0.000000;0.000000;0.000000;;
   0.000000;0.000000;0.000000;;

   TextureFilename  {
    "FormSide1.png";
   }
  }

  Material  {
   1.000000;1.000000;1.000000;1.000000;;
   0.000000;
   0.000000;0.000000;0.000000;;
   0.000000;0.000000;0.000000;;

   TextureFilename  {
    "FormC.png";
   }
  }

  Material  {
   1.000000;1.000000;1.000000;1.000000;;
   0.000000;
   0.000000;0.000000;0.000000;;
   0.000000;0.000000;0.000000;;

   TextureFilename  {
    "FormSide1.png";
   }
  }

  Material  {
   1.000000;1.000000;1.000000;1.000000;;
   0.000000;
   0.000000;0.000000;0.000000;;
   0.000000;0.000000;0.000000;;

   TextureFilename  {
    "FormSide1.png";
   }
  }

  Material  {
   1.000000;1.000000;1.000000;1.000000;;
   0.000000;
   0.000000;0.000000;0.000000;;
   0.000000;0.000000;0.000000;;

   TextureFilename  {
    "FormSide1.png";
   }
  }

  Material  {
   1.000000;1.000000;1.000000;1.000000;;
   0.000000;
   0.000000;0.000000;0.000000;;
   0.000000;0.000000;0.000000;;

   TextureFilename  {
    "FormSide1.png";
   }
  }

  Material  {
   1.000000;1.000000;1.000000;1.000000;;
   0.000000;
   0.000000;0.000000;0.000000;;
   0.000000;0.000000;0.000000;;

   TextureFilename  {
    "FormSide1.png";
   }
  }

  Material  {
   1.000000;1.000000;1.000000;1.000000;;
   0.000000;
   0.000000;0.000000;0.000000;;
   0.000000;0.000000;0.000000;;

   TextureFilename  {
    "FormC.png";
   }
  }

  Material  {
   1.000000;1.000000;1.000000;1.000000;;
   0.000000;
   0.000000;0.000000;0.000000;;
   0.000000;0.000000;0.000000;;

   TextureFilename  {
    "FormC.png";
   }
  }

  Material  {
   1.000000;1.000000;1.000000;1.000000;;
   0.000000;
   0.000000;0.000000;0.000000;;
   0.000000;0.000000;0.000000;;

   TextureFilename  {
    "Saku1.png";
   }
  }

  Material  {
   1.000000;1.000000;1.000000;1.000000;;
   0.000000;
   0.000000;0.000000;0.000000;;
   0.000000;0.000000;0.000000;;

   TextureFilename  {
    "Saku1.png";
   }
  }

  Material  {
   1.000000;1.000000;1.000000;1.000000;;
   0.000000;
   0.000000;0.000000;0.000000;;
   0.000000;0.000000;0.000000;;

   TextureFilename  {
    "Saku2.png";
   }
  }

  Material  {
   1.000000;1.000000;1.000000;1.000000;;
   0.000000;
   0.000000;0.000000;0.000000;;
   0.000000;0.000000;0.000000;;

   TextureFilename  {
    "Saku2.png";
   }
  }
 }

 MeshTextureCoords  {
  95;
  1.200000;0.500000;,
  1.200000;0.350000;,
  1.200000;0.060000;,
  1.500000;0.500000;,
  1.500000;0.350000;,
  1.500000;0.060000;,
  2.500000;1.000000;,
  2.500000;0.350000;,
  2.500000;0.060000;,
  1.200000;1.000000;,
  1.200000;0.350000;,
  1.200000;0.070000;,
  1.500000;1.000000;,
  1.500000;0.350000;,
  1.500000;0.070000;,
  2.500000;1.000000;,
  2.500000;0.350000;,
  2.500000;0.070000;,
  0.000000;0.500000;,
  0.000000;0.350000;,
  0.650000;0.500000;,
  0.650000;0.350000;,
  0.000000;1.200000;,
  1.000000;1.200000;,
  0.000000;1.500000;,
  1.000000;1.500000;,
  0.000000;2.500000;,
  1.000000;2.500000;,
  1.200000;0.500000;,
  1.200000;0.350000;,
  1.200000;0.060000;,
  1.500000;0.500000;,
  1.500000;0.350000;,
  1.500000;0.060000;,
  2.500000;1.000000;,
  2.500000;0.350000;,
  2.500000;0.060000;,
  1.500000;1.000000;,
  1.500000;0.350000;,
  1.500000;0.060000;,
  2.250000;1.000000;,
  2.250000;0.350000;,
  2.250000;0.060000;,
  2.500000;1.000000;,
  2.500000;0.350000;,
  2.500000;0.060000;,
  1.500000;0.350000;,
  1.500000;0.070000;,
  2.250000;0.350000;,
  2.250000;0.070000;,
  2.500000;0.350000;,
  2.500000;0.070000;,
  0.000000;0.500000;,
  0.000000;0.350000;,
  0.650000;0.500000;,
  0.650000;0.350000;,
  0.000000;1.000000;,
  0.000000;0.350000;,
  0.300000;1.000000;,
  0.300000;0.350000;,
  0.000000;1.200000;,
  1.000000;1.200000;,
  0.000000;1.500000;,
  0.448000;1.500000;,
  1.000000;1.500000;,
  0.000000;2.500000;,
  0.448000;2.500000;,
  0.000000;1.500000;,
  0.100000;1.500000;,
  0.000000;2.250000;,
  0.100000;2.250000;,
  0.000000;2.500000;,
  0.100000;2.500000;,
  -0.023000;1.500000;,
  -0.023000;0.025000;,
  1.242000;1.500000;,
  1.242000;0.025000;,
  -0.023000;1.500000;,
  -0.023000;0.025000;,
  0.735000;1.500000;,
  0.735000;0.025000;,
  1.235000;1.500000;,
  1.235000;0.025000;,
  2.735000;1.500000;,
  2.735000;0.025000;,
  3.493000;1.500000;,
  3.493000;0.025000;,
  0.000000;1.000000;,
  0.000000;0.030000;,
  1.000000;1.000000;,
  1.000000;0.030000;,
  0.000000;1.000000;,
  0.000000;0.030000;,
  1.000000;1.000000;,
  1.000000;0.030000;;
 }

 MeshNormals  {
  82;
  1.000000;0.000000;0.000000;,
  1.000000;0.000000;0.000000;,
  0.000000;1.000000;0.000000;,
  0.000000;1.000000;0.000000;,
  1.000000;0.000000;0.000000;,
  1.000000;0.000000;0.000000;,
  0.000000;0.994004;-0.109340;,
  0.000000;0.994004;-0.109340;,
  -1.000000;0.000000;0.000000;,
  -1.000000;0.000000;0.000000;,
  0.000000;1.000000;0.000000;,
  0.000000;1.000000;0.000000;,
  -1.000000;0.000000;0.000000;,
  -1.000000;0.000000;0.000000;,
  0.000000;0.994004;-0.109340;,
  0.000000;0.994004;-0.109340;,
  0.000000;0.000000;-1.000000;,
  0.000000;0.000000;-1.000000;,
  0.000000;1.000000;0.000000;,
  0.000000;1.000000;0.000000;,
  0.000000;0.994004;-0.109340;,
  0.000000;0.994004;-0.109340;,
  -1.000000;0.000000;0.000000;,
  -1.000000;0.000000;0.000000;,
  0.000000;1.000000;0.000000;,
  0.000000;1.000000;0.000000;,
  -1.000000;0.000000;0.000000;,
  -1.000000;0.000000;0.000000;,
  0.000000;0.994004;-0.109340;,
  0.000000;0.994004;-0.109340;,
  -1.000000;0.000000;0.000000;,
  -1.000000;0.000000;0.000000;,
  0.000000;1.000000;0.000000;,
  0.000000;1.000000;0.000000;,
  -1.000000;0.000000;0.000000;,
  -1.000000;0.000000;0.000000;,
  0.000000;0.997418;-0.071814;,
  0.000000;0.997418;-0.071814;,
  0.000000;1.000000;0.000000;,
  0.000000;1.000000;0.000000;,
  0.000000;0.997418;-0.071814;,
  0.000000;0.997418;-0.071814;,
  0.000000;0.000000;-1.000000;,
  0.000000;0.000000;-1.000000;,
  0.000000;0.000000;-1.000000;,
  0.000000;0.000000;-1.000000;,
  0.000000;1.000000;0.000000;,
  0.000000;1.000000;0.000000;,
  0.000000;0.994004;-0.109340;,
  0.000000;0.994004;-0.109340;,
  0.000000;1.000000;0.000000;,
  0.000000;1.000000;0.000000;,
  0.000000;0.997418;-0.071814;,
  0.000000;0.997418;-0.071814;,
  0.000000;0.000000;-1.000000;,
  0.000000;0.000000;-1.000000;,
  0.000000;0.000000;1.000000;,
  0.000000;0.000000;1.000000;,
  0.000000;0.000000;-1.000000;,
  0.000000;0.000000;-1.000000;,
  0.000000;0.000000;1.000000;,
  0.000000;0.000000;1.000000;,
  -1.000000;0.000000;0.000000;,
  -1.000000;0.000000;0.000000;,
  1.000000;0.000000;0.000000;,
  1.000000;0.000000;0.000000;,
  -1.000000;0.000000;0.000000;,
  -1.000000;0.000000;0.000000;,
  1.000000;0.000000;0.000000;,
  1.000000;0.000000;0.000000;,
  0.000000;0.000000;-1.000000;,
  0.000000;0.000000;-1.000000;,
  0.000000;0.000000;1.000000;,
  0.000000;0.000000;1.000000;,
  -1.000000;0.000000;0.000000;,
  -1.000000;0.000000;0.000000;,
  1.000000;0.000000;0.000000;,
  1.000000;0.000000;0.000000;,
  1.000000;0.000000;0.000000;,
  1.000000;0.000000;0.000000;,
  -1.000000;0.000000;0.000000;,
  -1.000000;0.000000;0.000000;;
  82;
  3;0,0,0;,
  3;1,1,1;,
  3;2,2,2;,
  3;3,3,3;,
  3;4,4,4;,
  3;5,5,5;,
  3;6,6,6;,
  3;7,7,7;,
  3;8,8,8;,
  3;9,9,9;,
  3;10,10,10;,
  3;11,11,11;,
  3;12,12,12;,
  3;13,13,13;,
  3;14,14,14;,
  3;15,15,15;,
  3;16,16,16;,
  3;17,17,17;,
  3;18,18,18;,
  3;19,19,19;,
  3;20,20,20;,
  3;21,21,21;,
  3;22,22,22;,
  3;23,23,23;,
  3;24,24,24;,
  3;25,25,25;,
  3;26,26,26;,
  3;27,27,27;,
  3;28,28,28;,
  3;29,29,29;,
  3;30,30,30;,
  3;31,31,31;,
  3;32,32,32;,
  3;33,33,33;,
  3;34,34,34;,
  3;35,35,35;,
  3;36,36,36;,
  3;37,37,37;,
  3;38,38,38;,
  3;39,39,39;,
  3;40,40,40;,
  3;41,41,41;,
  3;42,42,42;,
  3;43,43,43;,
  3;44,44,44;,
  3;45,45,45;,
  3;46,46,46;,
  3;47,47,47;,
  3;48,48,48;,
  3;49,49,49;,
  3;50,50,50;,
  3;51,51,51;,
  3;52,52,52;,
  3;53,53,53;,
  3;54,54,54;,
  3;55,55,55;,
  3;56,56,56;,
  3;57,57,57;,
  3;58,58,58;,
  3;59,59,59;,
  3;60,60,60;,
  3;61,61,61;,
  3;62,62,62;,
  3;63,63,63;,
  3;64,64,64;,
  3;65,65,65;,
  3;66,66,66;,
  3;67,67,67;,
  3;68,68,68;,
  3;69,69,69;,
  3;70,70,70;,
  3;71,71,71;,
  3;72,72,72;,
  3;73,73,73;,
  3;74,74,74;,
  3;75,75,75;,
  3;76,76,76;,
  3;77,77,77;,
  3;78,78,78;,
  3;79,79,79;,
  3;80,80,80;,
  3;81,81,81;;
 }
}