xof 0303txt 0032
template Vector {
 <3d82ab5e-62da-11cf-ab39-0020af71e433>
 FLOAT x;
 FLOAT y;
 FLOAT z;
}

template MeshFace {
 <3d82ab5f-62da-11cf-ab39-0020af71e433>
 DWORD nFaceVertexIndices;
 array DWORD faceVertexIndices[nFaceVertexIndices];
}

template Mesh {
 <3d82ab44-62da-11cf-ab39-0020af71e433>
 DWORD nVertices;
 array Vector vertices[nVertices];
 DWORD nFaces;
 array MeshFace faces[nFaces];
 [...]
}

template ColorRGBA {
 <35ff44e0-6c7c-11cf-8f52-0040333594a3>
 FLOAT red;
 FLOAT green;
 FLOAT blue;
 FLOAT alpha;
}

template ColorRGB {
 <d3e16e81-7835-11cf-8f52-0040333594a3>
 FLOAT red;
 FLOAT green;
 FLOAT blue;
}

template Material {
 <3d82ab4d-62da-11cf-ab39-0020af71e433>
 ColorRGBA faceColor;
 FLOAT power;
 ColorRGB specularColor;
 ColorRGB emissiveColor;
 [...]
}

template MeshMaterialList {
 <f6f23f42-7686-11cf-8f52-0040333594a3>
 DWORD nMaterials;
 DWORD nFaceIndexes;
 array DWORD faceIndexes[nFaceIndexes];
 [Material <3d82ab4d-62da-11cf-ab39-0020af71e433>]
}

template TextureFilename {
 <a42790e1-7810-11cf-8f52-0040333594a3>
 STRING filename;
}

template Coords2d {
 <f6f23f44-7686-11cf-8f52-0040333594a3>
 FLOAT u;
 FLOAT v;
}

template MeshTextureCoords {
 <f6f23f40-7686-11cf-8f52-0040333594a3>
 DWORD nTextureCoords;
 array Coords2d textureCoords[nTextureCoords];
}

template MeshNormals {
 <f6f23f43-7686-11cf-8f52-0040333594a3>
 DWORD nNormals;
 array Vector normals[nNormals];
 DWORD nFaceNormals;
 array MeshFace faceNormals[nFaceNormals];
}


Mesh  {
 35;
 -6.900900;-0.450000;0.000000;,
 -6.900900;0.920000;0.000000;,
 -5.700900;0.920000;0.000000;,
 -6.556200;-0.450000;5.000000;,
 -6.556200;0.920000;5.000000;,
 -5.356200;0.920000;5.000000;,
 -6.211300;-0.450000;10.000000;,
 -6.211300;0.000000;10.000000;,
 -5.011300;0.000000;10.000000;,
 -5.866600;-0.450000;15.000000;,
 -5.866600;0.000000;15.000000;,
 -4.666600;0.000000;15.000000;,
 -1.500000;0.920000;0.000000;,
 -2.700000;0.920000;0.000000;,
 -1.484200;0.920000;5.000000;,
 -2.684200;0.920000;5.000000;,
 -1.468500;0.000000;10.000000;,
 -2.668500;0.000000;10.000000;,
 -1.460600;0.000000;12.500000;,
 -2.660600;0.000000;12.500000;,
 -1.468500;0.000000;15.000000;,
 -2.668500;0.000000;15.000000;,
 -5.700900;0.920000;0.000000;,
 -5.356200;0.920000;5.000000;,
 -5.011300;0.000000;10.000000;,
 -4.666600;0.000000;15.000000;,
 -2.700000;0.920000;0.000000;,
 -2.684200;0.920000;5.000000;,
 -2.668500;0.000000;10.000000;,
 -2.660600;0.000000;12.500000;,
 -2.668500;0.000000;15.000000;,
 -5.956200;0.920000;4.900000;,
 -5.956200;2.120000;4.900000;,
 -2.084200;0.920000;4.900000;,
 -2.084200;2.120000;4.900000;;
 29;
 3;3,4,1;,
 3;3,1,0;,
 3;4,5,2;,
 3;4,2,1;,
 3;6,7,4;,
 3;6,4,3;,
 3;7,8,5;,
 3;7,5,4;,
 3;9,10,7;,
 3;9,7,6;,
 3;10,11,8;,
 3;10,8,7;,
 3;12,13,15;,
 3;12,15,14;,
 3;14,15,17;,
 3;14,17,16;,
 3;16,17,19;,
 3;16,19,18;,
 3;18,19,21;,
 3;18,21,20;,
 3;22,23,27;,
 3;22,27,26;,
 3;23,24,28;,
 3;23,28,27;,
 3;24,25,30;,
 3;24,30,29;,
 3;24,29,28;,
 3;31,32,34;,
 3;31,34,33;;

 MeshMaterialList  {
  4;
  29;
  0,
  0,
  0,
  0,
  0,
  0,
  0,
  0,
  0,
  0,
  0,
  0,
  1,
  1,
  1,
  1,
  1,
  1,
  1,
  1,
  2,
  2,
  2,
  2,
  2,
  2,
  2,
  3,
  3;

  Material  {
   1.000000;1.000000;1.000000;1.000000;;
   0.000000;
   0.000000;0.000000;0.000000;;
   0.000000;0.000000;0.000000;;

   TextureFilename  {
    "FormSide4.png";
   }
  }

  Material  {
   1.000000;1.000000;1.000000;1.000000;;
   0.000000;
   0.000000;0.000000;0.000000;;
   0.000000;0.000000;0.000000;;

   TextureFilename  {
    "FormSide4.png";
   }
  }

  Material  {
   1.000000;1.000000;1.000000;1.000000;;
   0.000000;
   0.000000;0.000000;0.000000;;
   0.000000;0.000000;0.000000;;

   TextureFilename  {
    "FormC2.png";
   }
  }

  Material  {
   0.784314;0.784314;0.784314;1.000000;;
   0.000000;
   0.000000;0.000000;0.000000;;
   0.000000;0.000000;0.000000;;

   TextureFilename  {
    "Saku1.png";
   }
  }
 }

 MeshTextureCoords  {
  35;
  0.000000;1.000000;,
  0.000000;0.312500;,
  0.000000;0.000000;,
  0.500000;1.000000;,
  0.500000;0.312500;,
  0.500000;0.000000;,
  1.000000;0.531300;,
  1.000000;0.312500;,
  1.000000;0.000000;,
  1.500000;0.531300;,
  1.500000;0.312500;,
  1.500000;0.000000;,
  0.000000;0.312500;,
  0.000000;0.000000;,
  0.500000;0.312500;,
  0.500000;0.000000;,
  1.000000;0.312500;,
  1.000000;0.000000;,
  1.250000;0.312500;,
  1.250000;0.000000;,
  15.000000;0.312500;,
  15.000000;0.000000;,
  0.000000;0.000000;,
  0.000000;0.200000;,
  0.000000;0.400000;,
  0.000000;0.600000;,
  1.000000;0.000000;,
  1.000000;0.200000;,
  1.000000;0.400000;,
  1.000000;0.500000;,
  1.000000;0.600000;,
  -0.024000;1.000000;,
  -0.024000;0.033000;,
  0.993000;1.000000;,
  0.993000;0.033000;;
 }

 MeshNormals  {
  29;
  -0.997632;0.000000;0.068777;,
  -0.997632;0.000000;0.068777;,
  0.000000;1.000000;0.000000;,
  0.000000;1.000000;0.000000;,
  -0.997629;0.000000;0.068816;,
  -0.997629;0.000000;0.068816;,
  0.000000;0.983490;0.180962;,
  0.000000;0.983490;0.180962;,
  -0.997632;0.000000;0.068777;,
  -0.997632;0.000000;0.068777;,
  0.000000;1.000000;0.000000;,
  0.000000;1.000000;0.000000;,
  0.000000;1.000000;0.000000;,
  0.000000;1.000000;0.000000;,
  0.000000;0.983490;0.180962;,
  0.000000;0.983490;0.180962;,
  0.000000;1.000000;0.000000;,
  0.000000;1.000000;0.000000;,
  0.000000;1.000000;0.000000;,
  0.000000;1.000000;0.000000;,
  0.000000;1.000000;0.000000;,
  0.000000;1.000000;0.000000;,
  0.000000;0.983490;0.180962;,
  0.000000;0.983490;0.180962;,
  0.000000;1.000000;0.000000;,
  0.000000;1.000000;0.000000;,
  0.000000;1.000000;0.000000;,
  0.000000;0.000000;-1.000000;,
  0.000000;0.000000;-1.000000;;
  29;
  3;0,0,0;,
  3;1,1,1;,
  3;2,2,2;,
  3;3,3,3;,
  3;4,4,4;,
  3;5,5,5;,
  3;6,6,6;,
  3;7,7,7;,
  3;8,8,8;,
  3;9,9,9;,
  3;10,10,10;,
  3;11,11,11;,
  3;12,12,12;,
  3;13,13,13;,
  3;14,14,14;,
  3;15,15,15;,
  3;16,16,16;,
  3;17,17,17;,
  3;18,18,18;,
  3;19,19,19;,
  3;20,20,20;,
  3;21,21,21;,
  3;22,22,22;,
  3;23,23,23;,
  3;24,24,24;,
  3;25,25,25;,
  3;26,26,26;,
  3;27,27,27;,
  3;28,28,28;;
 }
}