xof 0303txt 0032
template Vector {
 <3d82ab5e-62da-11cf-ab39-0020af71e433>
 FLOAT x;
 FLOAT y;
 FLOAT z;
}

template MeshFace {
 <3d82ab5f-62da-11cf-ab39-0020af71e433>
 DWORD nFaceVertexIndices;
 array DWORD faceVertexIndices[nFaceVertexIndices];
}

template Mesh {
 <3d82ab44-62da-11cf-ab39-0020af71e433>
 DWORD nVertices;
 array Vector vertices[nVertices];
 DWORD nFaces;
 array MeshFace faces[nFaces];
 [...]
}

template ColorRGBA {
 <35ff44e0-6c7c-11cf-8f52-0040333594a3>
 FLOAT red;
 FLOAT green;
 FLOAT blue;
 FLOAT alpha;
}

template ColorRGB {
 <d3e16e81-7835-11cf-8f52-0040333594a3>
 FLOAT red;
 FLOAT green;
 FLOAT blue;
}

template Material {
 <3d82ab4d-62da-11cf-ab39-0020af71e433>
 ColorRGBA faceColor;
 FLOAT power;
 ColorRGB specularColor;
 ColorRGB emissiveColor;
 [...]
}

template MeshMaterialList {
 <f6f23f42-7686-11cf-8f52-0040333594a3>
 DWORD nMaterials;
 DWORD nFaceIndexes;
 array DWORD faceIndexes[nFaceIndexes];
 [Material <3d82ab4d-62da-11cf-ab39-0020af71e433>]
}

template TextureFilename {
 <a42790e1-7810-11cf-8f52-0040333594a3>
 STRING filename;
}

template Coords2d {
 <f6f23f44-7686-11cf-8f52-0040333594a3>
 FLOAT u;
 FLOAT v;
}

template MeshTextureCoords {
 <f6f23f40-7686-11cf-8f52-0040333594a3>
 DWORD nTextureCoords;
 array Coords2d textureCoords[nTextureCoords];
}

template MeshNormals {
 <f6f23f43-7686-11cf-8f52-0040333594a3>
 DWORD nNormals;
 array Vector normals[nNormals];
 DWORD nFaceNormals;
 array MeshFace faceNormals[nFaceNormals];
}


Mesh  {
 485;
 -3.650000;1.100000;8.000000;,
 -3.650000;6.000000;8.000000;,
 -3.150000;1.100000;8.000000;,
 -3.150000;6.000000;8.000000;,
 -3.650000;1.100000;2.000000;,
 -3.650000;6.000000;2.000000;,
 -3.150000;1.100000;2.000000;,
 -3.150000;6.000000;2.000000;,
 -3.650000;1.100000;-9.000000;,
 -3.650000;6.000000;-9.000000;,
 -3.150000;1.100000;-9.000000;,
 -3.150000;6.000000;-9.000000;,
 -3.650000;1.100000;-13.000000;,
 -3.650000;6.000000;-13.000000;,
 -3.150000;1.100000;-13.000000;,
 -3.150000;6.000000;-13.000000;,
 10.550000;1.100000;8.000000;,
 10.550000;6.000000;8.000000;,
 11.050000;1.100000;8.000000;,
 11.050000;6.000000;8.000000;,
 10.550000;1.100000;2.000000;,
 10.550000;6.000000;2.000000;,
 11.050000;1.100000;2.000000;,
 11.050000;6.000000;2.000000;,
 10.550000;1.100000;-9.000000;,
 10.550000;6.000000;-9.000000;,
 11.050000;1.100000;-9.000000;,
 11.050000;6.000000;-9.000000;,
 10.550000;1.100000;-13.000000;,
 10.550000;6.000000;-13.000000;,
 11.050000;1.100000;-13.000000;,
 11.050000;6.000000;-13.000000;,
 20.850000;1.100000;8.000000;,
 20.850000;6.000000;8.000000;,
 21.350000;1.100000;8.000000;,
 21.350000;6.000000;8.000000;,
 20.850000;1.100000;2.000000;,
 20.850000;6.000000;2.000000;,
 21.350000;1.100000;2.000000;,
 21.350000;6.000000;2.000000;,
 20.850000;1.100000;-9.000000;,
 20.850000;6.000000;-9.000000;,
 21.350000;1.100000;-9.000000;,
 21.350000;6.000000;-9.000000;,
 20.850000;1.100000;-13.000000;,
 20.850000;6.000000;-13.000000;,
 21.350000;1.100000;-13.000000;,
 21.350000;6.000000;-13.000000;,
 -3.650000;6.000000;8.300000;,
 -3.650000;6.000000;8.000000;,
 -3.650000;6.500000;8.000000;,
 25.000000;6.000000;8.300000;,
 25.000000;6.000000;8.000000;,
 25.000000;6.500000;8.000000;,
 -3.650000;6.000000;2.300000;,
 -3.650000;6.000000;2.000000;,
 -3.650000;6.500000;2.000000;,
 25.000000;6.000000;2.300000;,
 25.000000;6.000000;2.000000;,
 25.000000;6.500000;2.000000;,
 -6.350000;6.000000;-8.700000;,
 -6.350000;6.000000;-9.000000;,
 -6.350000;6.500000;-9.000000;,
 25.000000;6.000000;-8.700000;,
 25.000000;6.000000;-9.000000;,
 25.000000;6.500000;-9.000000;,
 -6.350000;6.000000;-12.700000;,
 -6.350000;6.000000;-13.000000;,
 -6.350000;6.500000;-13.000000;,
 25.000000;6.000000;-12.700000;,
 25.000000;6.000000;-13.000000;,
 25.000000;6.500000;-13.000000;,
 -3.450000;6.000000;-13.000000;,
 -3.150000;6.000000;-13.000000;,
 -3.150000;6.500000;-13.000000;,
 -3.450000;6.000000;-13.400000;,
 -3.150000;6.000000;-13.400000;,
 -3.150000;6.500000;-13.534000;,
 -3.450000;3.550000;-18.299999;,
 -3.150000;3.550000;-18.299999;,
 -3.150000;4.050000;-18.434000;,
 -3.450000;3.550000;-19.299999;,
 -3.150000;3.550000;-19.299999;,
 -3.150000;4.050000;-19.434000;,
 -3.450000;1.100000;-24.200001;,
 -3.150000;1.100000;-24.200001;,
 -3.150000;1.100000;-25.368999;,
 -6.050000;6.000000;-13.000000;,
 -6.350000;6.000000;-13.000000;,
 -6.350000;6.500000;-13.000000;,
 -6.050000;6.000000;-13.400000;,
 -6.350000;6.000000;-13.400000;,
 -6.350000;6.500000;-13.534000;,
 -6.050000;3.550000;-18.299999;,
 -6.350000;3.550000;-18.299999;,
 -6.350000;4.050000;-18.434000;,
 -6.050000;3.550000;-19.299999;,
 -6.350000;3.550000;-19.299999;,
 -6.350000;4.050000;-19.434000;,
 -6.050000;1.100000;-24.200001;,
 -6.350000;1.100000;-24.200001;,
 -6.350000;1.100000;-25.368999;,
 -6.050000;6.000000;-9.000000;,
 -6.350000;6.000000;-9.000000;,
 -6.350000;6.500000;-9.000000;,
 -6.050000;6.000000;-8.600000;,
 -6.350000;6.000000;-8.600000;,
 -6.350000;6.500000;-8.466000;,
 -6.050000;3.550000;-3.700000;,
 -6.350000;3.550000;-3.700000;,
 -6.350000;4.050000;-3.566000;,
 -6.050000;3.550000;-2.700000;,
 -6.350000;3.550000;-2.700000;,
 -6.350000;4.050000;-2.566000;,
 -6.050000;1.100000;2.200000;,
 -6.350000;1.100000;2.200000;,
 -6.350000;1.100000;3.369000;,
 7.850000;6.000000;-13.000000;,
 7.550000;6.000000;-13.000000;,
 7.550000;6.500000;-13.000000;,
 7.850000;6.000000;-13.400000;,
 7.550000;6.000000;-13.400000;,
 7.550000;6.500000;-13.534000;,
 7.850000;3.550000;-18.299999;,
 7.550000;3.550000;-18.299999;,
 7.550000;4.050000;-18.434000;,
 7.850000;3.550000;-19.299999;,
 7.550000;3.550000;-19.299999;,
 7.550000;4.050000;-19.434000;,
 7.850000;1.100000;-24.200001;,
 7.550000;1.100000;-24.200001;,
 7.550000;1.100000;-25.368999;,
 -3.300000;10.562100;-12.850000;,
 -3.151000;10.562100;-12.850000;,
 -3.151000;10.362100;-12.850000;,
 -3.300000;9.142000;-18.850000;,
 -3.151000;9.142000;-18.850000;,
 -3.151000;8.942000;-18.674999;,
 -3.300000;5.101000;-25.850000;,
 -3.151000;5.101000;-25.850000;,
 -3.151000;4.901000;-25.674999;,
 -6.201000;5.101000;3.850000;,
 -6.350000;5.101000;3.850000;,
 -6.350000;4.901000;3.675000;,
 -6.201000;9.142000;-3.150000;,
 -6.350000;9.142000;-3.150000;,
 -6.350000;8.942000;-3.325000;,
 -6.201000;11.000000;-11.000000;,
 -6.350000;11.000000;-11.000000;,
 -6.350000;10.800000;-11.000000;,
 -6.201000;9.142000;-18.850000;,
 -6.350000;9.142000;-18.850000;,
 -6.350000;8.942000;-18.674999;,
 -6.201000;5.101000;-25.850000;,
 -6.350000;5.101000;-25.850000;,
 -6.350000;4.901000;-25.674999;,
 7.550000;10.362100;-12.850000;,
 7.550000;10.562100;-12.850000;,
 7.699000;10.562100;-12.850000;,
 7.550000;8.942000;-18.674999;,
 7.550000;9.142000;-18.850000;,
 7.699000;9.142000;-18.850000;,
 7.550000;4.901000;-25.674999;,
 7.550000;5.101000;-25.850000;,
 7.699000;5.101000;-25.850000;,
 11.099000;10.362100;-12.850000;,
 11.099000;10.562100;-12.850000;,
 10.950000;10.562100;-12.850000;,
 11.099000;8.942000;-18.674999;,
 11.099000;9.142000;-18.850000;,
 10.950000;9.142000;-18.850000;,
 11.099000;4.901000;-25.674999;,
 11.099000;5.101000;-25.850000;,
 10.950000;5.101000;-25.850000;,
 -3.651000;6.500000;10.300000;,
 -3.651000;6.500000;10.500000;,
 -3.651000;10.800000;10.300000;,
 -3.651000;11.000000;10.500000;,
 -3.651000;10.800000;-13.010000;,
 -3.651000;11.000000;-13.010000;,
 -3.450000;10.800000;-13.010000;,
 -3.450000;11.000000;-13.010000;,
 24.799999;10.800000;-13.010000;,
 25.000000;11.000000;-13.010000;,
 24.799999;6.500000;-13.010000;,
 25.000000;6.500000;-13.010000;,
 -3.450000;10.500000;-13.010000;,
 -3.650000;10.500000;-13.010000;,
 -3.450000;10.800000;-13.010000;,
 -3.650000;10.800000;-13.010000;,
 7.850000;10.500000;-13.010000;,
 7.650000;10.500000;-13.010000;,
 7.850000;10.800000;-13.010000;,
 7.650000;10.800000;-13.010000;,
 -6.350000;1.100000;8.000000;,
 -6.350000;1.100000;3.369000;,
 -6.350000;4.050000;-2.566000;,
 -6.350000;4.050000;-3.566000;,
 -6.350000;6.500000;-8.466000;,
 -6.350000;6.500000;-9.000000;,
 -6.350000;6.000000;-9.000000;,
 -6.350000;6.000000;-8.600000;,
 -6.350000;4.600000;-5.800000;,
 -6.350000;4.600000;-16.200001;,
 -6.350000;6.000000;-13.400000;,
 -6.350000;6.000000;-13.000000;,
 -6.350000;6.500000;-13.000000;,
 -6.350000;6.500000;-13.534000;,
 -6.350000;4.050000;-18.434000;,
 -6.350000;4.050000;-19.434000;,
 -6.350000;1.100000;-25.368999;,
 -6.350000;1.100000;-26.850000;,
 -6.350000;2.200000;-26.850000;,
 -6.350000;3.000000;-25.674999;,
 -6.350000;4.901000;-25.674999;,
 -6.350000;8.942000;-18.674999;,
 -6.350000;10.800000;-11.000000;,
 -6.350000;8.942000;-3.325000;,
 -6.350000;4.901000;3.675000;,
 -6.350000;2.700000;3.675000;,
 -6.350000;2.500000;4.175000;,
 -6.350000;2.500000;8.000000;,
 -6.250000;6.500000;-9.000000;,
 -6.250000;6.000000;-9.000000;,
 -6.250000;6.000000;-8.600000;,
 -6.250000;4.600000;-5.800000;,
 -6.250000;4.600000;-16.200001;,
 -6.250000;6.000000;-13.400000;,
 -6.250000;6.000000;-13.000000;,
 -6.250000;6.500000;-13.000000;,
 -3.150000;6.500000;-12.850000;,
 -3.150000;6.500000;-13.534000;,
 -3.150000;4.050000;-18.434000;,
 -3.150000;4.050000;-19.434000;,
 -3.150000;1.100000;-25.368999;,
 -3.150000;1.100000;-26.850000;,
 -3.150000;2.200000;-26.850000;,
 -3.150000;3.000000;-25.674999;,
 -3.150000;4.901000;-25.674999;,
 -3.150000;8.942000;-18.674999;,
 -3.150000;10.362100;-12.850000;,
 7.550000;6.500000;-12.850000;,
 7.550000;6.500000;-13.534000;,
 7.550000;4.050000;-18.434000;,
 7.550000;4.050000;-19.434000;,
 7.550000;1.100000;-25.368999;,
 7.550000;1.100000;-26.850000;,
 7.550000;2.200000;-26.850000;,
 7.550000;3.000000;-25.674999;,
 7.550000;4.901000;-25.674999;,
 7.550000;8.942000;-18.674999;,
 7.550000;10.362100;-12.850000;,
 -6.050000;6.500000;-12.850000;,
 -6.050000;6.500000;-13.534000;,
 -6.050000;4.050000;-18.434000;,
 -6.050000;4.050000;-19.434000;,
 -6.050000;1.100000;-25.368999;,
 -6.050000;1.100000;-26.850000;,
 -6.050000;2.200000;-26.850000;,
 -6.050000;3.000000;-25.674999;,
 -6.050000;4.901000;-25.674999;,
 -6.050000;8.942000;-18.674999;,
 -6.050000;10.362100;-12.850000;,
 -3.450000;6.500000;-12.850000;,
 -3.450000;6.500000;-13.534000;,
 -3.450000;4.050000;-18.434000;,
 -3.450000;4.050000;-19.434000;,
 -3.450000;1.100000;-25.368999;,
 -3.450000;1.100000;-26.850000;,
 -3.450000;2.200000;-26.850000;,
 -3.450000;3.000000;-25.674999;,
 -3.450000;4.901000;-25.674999;,
 -3.450000;8.942000;-18.674999;,
 -3.450000;10.362100;-12.850000;,
 10.750000;6.500000;-12.850000;,
 10.750000;6.500000;-13.534000;,
 10.750000;4.050000;-18.434000;,
 10.750000;4.050000;-19.434000;,
 10.750000;1.100000;-25.368999;,
 10.750000;1.100000;-26.850000;,
 10.750000;2.200000;-26.850000;,
 10.750000;3.000000;-25.674999;,
 10.750000;4.901000;-25.674999;,
 10.750000;8.942000;-18.674999;,
 10.750000;10.362100;-12.850000;,
 -3.650000;6.500000;10.500000;,
 -3.650000;10.800000;10.500000;,
 -3.650000;6.500000;-13.000000;,
 -3.650000;10.800000;-13.000000;,
 24.799999;6.500000;-13.000000;,
 24.799999;10.800000;-13.000000;,
 -2.800000;7.800000;-13.010000;,
 -2.800000;9.200000;-13.010000;,
 7.300000;9.200000;-13.010000;,
 7.300000;7.800000;-13.010000;,
 11.500000;7.800000;-13.010000;,
 11.500000;9.200000;-13.010000;,
 17.000000;9.200000;-13.010000;,
 17.000000;7.800000;-13.010000;,
 -6.350000;1.100000;-26.850000;,
 -6.050000;1.100000;-26.850000;,
 -6.350000;2.200000;-26.850000;,
 -6.050000;2.200000;-26.850000;,
 -6.350000;3.000000;-25.674999;,
 -6.050000;3.000000;-25.674999;,
 -6.350000;4.901000;-25.674999;,
 -6.050000;4.901000;-25.674999;,
 -6.350000;2.500000;8.000000;,
 -6.050000;2.500000;8.000000;,
 -6.350000;2.500000;4.175000;,
 -6.050000;2.500000;4.175000;,
 -3.450000;1.100000;-26.850000;,
 -3.150000;1.100000;-26.850000;,
 -3.450000;2.200000;-26.850000;,
 -3.150000;2.200000;-26.850000;,
 -3.450000;3.000000;-25.674999;,
 -3.150000;3.000000;-25.674999;,
 -3.450000;4.901000;-25.674999;,
 -3.150000;4.901000;-25.674999;,
 -3.950000;2.500000;8.000000;,
 -3.650000;2.500000;8.000000;,
 -3.950000;2.500000;4.175000;,
 -3.650000;2.500000;4.175000;,
 7.550000;1.100000;-26.850000;,
 7.850000;1.100000;-26.850000;,
 7.550000;2.200000;-26.850000;,
 7.850000;2.200000;-26.850000;,
 7.550000;3.000000;-25.674999;,
 7.850000;3.000000;-25.674999;,
 7.550000;4.901000;-25.674999;,
 7.850000;4.901000;-25.674999;,
 10.750000;1.100000;-26.850000;,
 11.050000;1.100000;-26.850000;,
 10.750000;2.200000;-26.850000;,
 11.050000;2.200000;-26.850000;,
 10.750000;3.000000;-25.674999;,
 11.050000;3.000000;-25.674999;,
 10.750000;4.901000;-25.674999;,
 11.050000;4.901000;-25.674999;,
 -6.050000;1.100000;-25.368999;,
 -3.450000;1.100000;-25.368999;,
 -6.050000;4.050000;-19.434000;,
 -3.450000;4.050000;-19.434000;,
 -6.050000;4.050000;-18.434000;,
 -3.450000;4.050000;-18.434000;,
 -6.050000;6.500000;-13.534000;,
 -3.450000;6.500000;-13.534000;,
 7.950000;1.100000;-25.368999;,
 10.750000;1.100000;-25.368999;,
 7.950000;4.050000;-19.434000;,
 10.750000;4.050000;-19.434000;,
 7.950000;4.050000;-18.434000;,
 10.750000;4.050000;-18.434000;,
 7.950000;6.500000;-13.534000;,
 10.750000;6.500000;-13.534000;,
 -3.650000;6.500000;3.675000;,
 -3.650000;2.700000;3.675000;,
 -3.650000;2.500000;4.175000;,
 -3.650000;2.500000;8.000000;,
 -3.650000;1.100000;8.000000;,
 -3.650000;1.100000;2.200000;,
 -3.650000;1.684500;2.200000;,
 -3.650000;4.050000;-2.566000;,
 -3.650000;4.050000;-3.566000;,
 -3.650000;6.500000;-8.466000;,
 -3.650000;6.500000;-9.000000;,
 -6.350000;1.100000;2.200000;,
 -6.350000;1.684500;2.200000;,
 -6.350000;4.050000;-2.566000;,
 -6.350000;4.050000;-3.566000;,
 -6.350000;6.500000;-8.466000;,
 -6.350000;6.500000;-9.000000;,
 8.050000;6.500000;-1.060000;,
 8.050000;2.700000;4.000000;,
 8.050000;2.500000;4.500000;,
 8.050000;2.500000;8.000000;,
 8.050000;1.100000;8.000000;,
 8.050000;1.100000;2.000000;,
 8.050000;1.500000;2.000000;,
 8.050000;6.500000;-4.500000;,
 10.350000;1.100000;2.000000;,
 10.350000;1.500000;2.000000;,
 10.350000;6.500000;-4.500000;,
 21.350000;6.500000;0.000000;,
 21.350000;5.526316;0.000000;,
 21.350000;2.500000;5.000000;,
 21.350000;1.100000;5.000000;,
 21.350000;1.100000;2.000000;,
 21.350000;1.500000;2.000000;,
 21.350000;3.800000;-1.800000;,
 21.350000;3.800000;-2.800000;,
 21.350000;6.500000;-8.000000;,
 23.700001;1.100000;2.000000;,
 23.700001;1.500000;2.000000;,
 23.700001;3.800000;-1.800000;,
 23.700001;3.800000;-2.800000;,
 23.700001;6.500000;-8.000000;,
 -6.350000;6.500000;-9.000000;,
 -6.350000;6.500000;-13.000000;,
 -3.650000;6.500000;10.500000;,
 -3.650000;6.500000;-9.000000;,
 25.000000;6.500000;10.500000;,
 25.000000;6.500000;-13.000000;,
 -3.300000;11.000000;-11.000000;,
 -6.200000;11.000000;-11.000000;,
 -3.300000;9.142000;-18.850000;,
 -6.200000;9.142000;-18.850000;,
 -3.300000;5.101000;-25.850000;,
 -6.200000;5.101000;-25.850000;,
 -4.100000;8.999999;-18.751923;,
 -4.100000;6.000000;-23.948074;,
 -4.334314;8.510100;-18.469080;,
 -4.334314;5.510102;-23.665232;,
 -4.900000;8.307178;-18.351923;,
 -4.900000;5.307180;-23.548075;,
 -5.465685;8.510100;-18.469080;,
 -5.465685;5.510102;-23.665232;,
 -5.699999;8.999999;-18.751923;,
 -5.699999;6.000000;-23.948074;,
 -5.465685;9.489897;-19.034765;,
 -5.465685;6.489898;-24.230917;,
 -4.900000;9.692819;-19.151922;,
 -4.900000;6.692820;-24.348074;,
 -4.334314;9.489897;-19.034765;,
 -4.334314;6.489898;-24.230917;,
 10.950000;10.562100;-12.850000;,
 7.699000;10.562100;-12.850000;,
 10.950000;9.142000;-18.850000;,
 7.699000;9.142000;-18.850000;,
 10.950000;5.101000;-25.850000;,
 7.699000;5.101000;-25.850000;,
 10.074999;8.999999;-18.751923;,
 10.074999;6.000000;-23.948074;,
 9.840684;8.510100;-18.469080;,
 9.840684;5.510102;-23.665232;,
 9.274999;8.307178;-18.351923;,
 9.274999;5.307180;-23.548075;,
 8.709313;8.510100;-18.469080;,
 8.709313;5.510102;-23.665232;,
 8.474998;8.999999;-18.751923;,
 8.474998;6.000000;-23.948074;,
 8.709313;9.489897;-19.034765;,
 8.709313;6.489898;-24.230917;,
 9.274999;9.692819;-19.151922;,
 9.274999;6.692820;-24.348074;,
 9.840684;9.489897;-19.034765;,
 9.840684;6.489898;-24.230917;,
 -2.000000;11.000000;-12.000000;,
 -2.000000;12.000000;-11.000000;,
 9.000000;11.000000;-12.000000;,
 9.000000;12.000000;-11.000000;,
 -3.150000;6.500000;-13.000000;,
 -3.150000;6.500000;-14.000000;,
 -3.150000;7.700000;-14.000000;,
 7.550000;6.500000;-13.000000;,
 7.550000;6.500000;-14.000000;,
 7.550000;7.700000;-14.000000;,
 -6.250000;2.500000;4.175000;,
 -6.250000;4.600000;4.175000;,
 -6.200000;2.500000;4.175000;,
 -6.200000;4.600000;4.175000;,
 -6.250000;2.500000;5.175000;,
 -6.250000;4.600000;5.175000;,
 -6.200000;2.500000;5.175000;,
 -6.200000;4.600000;5.175000;,
 -6.250000;2.500000;6.175000;,
 -6.250000;4.600000;6.175000;,
 -6.200000;2.500000;6.175000;,
 -6.200000;4.600000;6.175000;,
 -6.250000;2.500000;7.175000;,
 -6.250000;4.600000;7.175000;,
 -6.200000;2.500000;7.175000;,
 -6.200000;4.600000;7.175000;,
 -6.250000;2.500000;8.000000;,
 -6.250000;4.600000;8.000000;,
 -6.200000;2.500000;8.000000;,
 -6.200000;4.600000;8.000000;,
 -6.220000;2.500000;8.000000;,
 -6.220000;4.600000;8.000000;,
 -6.220000;2.500000;3.675000;,
 -6.220000;4.600000;3.675000;,
 -3.650000;4.866000;10.500000;,
 -3.650000;6.500000;10.500000;,
 -3.650000;4.866000;3.675000;,
 -3.650000;6.500000;3.675000;;
 423;
 3;0,1,3;,
 3;0,3,2;,
 3;4,5,7;,
 3;4,7,6;,
 3;8,9,11;,
 3;8,11,10;,
 3;12,13,15;,
 3;12,15,14;,
 3;16,17,19;,
 3;16,19,18;,
 3;20,21,23;,
 3;20,23,22;,
 3;24,25,27;,
 3;24,27,26;,
 3;28,29,31;,
 3;28,31,30;,
 3;32,33,35;,
 3;32,35,34;,
 3;36,37,39;,
 3;36,39,38;,
 3;40,41,43;,
 3;40,43,42;,
 3;44,45,47;,
 3;44,47,46;,
 3;48,49,52;,
 3;48,52,51;,
 3;49,50,53;,
 3;49,53,52;,
 3;54,55,58;,
 3;54,58,57;,
 3;55,56,59;,
 3;55,59,58;,
 3;60,61,64;,
 3;60,64,63;,
 3;61,62,65;,
 3;61,65,64;,
 3;66,67,70;,
 3;66,70,69;,
 3;67,68,71;,
 3;67,71,70;,
 3;75,76,73;,
 3;75,73,72;,
 3;76,77,74;,
 3;76,74,73;,
 3;78,79,76;,
 3;78,76,75;,
 3;79,80,77;,
 3;79,77,76;,
 3;81,82,79;,
 3;81,79,78;,
 3;82,83,80;,
 3;82,80,79;,
 3;84,85,82;,
 3;84,82,81;,
 3;85,86,83;,
 3;85,83,82;,
 3;87,88,91;,
 3;87,91,90;,
 3;88,89,92;,
 3;88,92,91;,
 3;90,91,94;,
 3;90,94,93;,
 3;91,92,95;,
 3;91,95,94;,
 3;93,94,97;,
 3;93,97,96;,
 3;94,95,98;,
 3;94,98,97;,
 3;96,97,100;,
 3;96,100,99;,
 3;97,98,101;,
 3;97,101,100;,
 3;105,106,103;,
 3;105,103,102;,
 3;106,107,104;,
 3;106,104,103;,
 3;103,104,107;,
 3;103,107,106;,
 3;108,109,106;,
 3;108,106,105;,
 3;109,110,107;,
 3;109,107,106;,
 3;106,107,110;,
 3;106,110,109;,
 3;111,112,109;,
 3;111,109,108;,
 3;112,113,110;,
 3;112,110,109;,
 3;109,110,113;,
 3;109,113,112;,
 3;114,115,112;,
 3;114,112,111;,
 3;115,116,113;,
 3;115,113,112;,
 3;112,113,116;,
 3;112,116,115;,
 3;117,118,121;,
 3;117,121,120;,
 3;118,119,122;,
 3;118,122,121;,
 3;120,121,124;,
 3;120,124,123;,
 3;121,122,125;,
 3;121,125,124;,
 3;123,124,127;,
 3;123,127,126;,
 3;124,125,128;,
 3;124,128,127;,
 3;126,127,130;,
 3;126,130,129;,
 3;127,128,131;,
 3;127,131,130;,
 3;132,133,136;,
 3;132,136,135;,
 3;133,134,137;,
 3;133,137,136;,
 3;135,136,139;,
 3;135,139,138;,
 3;136,137,140;,
 3;136,140,139;,
 3;144,145,142;,
 3;144,142,141;,
 3;145,146,143;,
 3;145,143,142;,
 3;147,148,145;,
 3;147,145,144;,
 3;148,149,146;,
 3;148,146,145;,
 3;150,151,148;,
 3;150,148,147;,
 3;151,152,149;,
 3;151,149,148;,
 3;153,154,151;,
 3;153,151,150;,
 3;154,155,152;,
 3;154,152,151;,
 3;156,157,160;,
 3;156,160,159;,
 3;157,158,161;,
 3;157,161,160;,
 3;159,160,163;,
 3;159,163,162;,
 3;160,161,164;,
 3;160,164,163;,
 3;168,169,166;,
 3;168,166,165;,
 3;169,170,167;,
 3;169,167,166;,
 3;171,172,169;,
 3;171,169,168;,
 3;172,173,170;,
 3;172,170,169;,
 3;174,175,177;,
 3;174,177,176;,
 3;176,177,179;,
 3;176,179,178;,
 3;178,179,181;,
 3;178,181,180;,
 3;180,181,183;,
 3;180,183,182;,
 3;182,183,185;,
 3;182,185,184;,
 3;186,187,189;,
 3;186,189,188;,
 3;190,191,193;,
 3;190,193,192;,
 3;200,199,206;,
 3;200,206,205;,
 3;205,204,203;,
 3;205,203,202;,
 3;205,202,201;,
 3;205,201,200;,
 3;195,194,221;,
 3;195,221,220;,
 3;195,220,219;,
 3;196,195,219;,
 3;196,219,218;,
 3;196,218,217;,
 3;197,196,217;,
 3;198,197,217;,
 3;198,217,216;,
 3;207,206,199;,
 3;207,199,198;,
 3;207,198,216;,
 3;208,207,216;,
 3;208,216,215;,
 3;209,208,215;,
 3;210,209,215;,
 3;210,215,214;,
 3;210,214,213;,
 3;213,212,211;,
 3;213,211,210;,
 3;228,229,222;,
 3;228,222,223;,
 3;223,224,225;,
 3;223,225,226;,
 3;223,226,227;,
 3;223,227,228;,
 3;230,231,239;,
 3;230,239,240;,
 3;231,232,233;,
 3;231,233,239;,
 3;233,238,239;,
 3;233,234,235;,
 3;233,235,236;,
 3;233,236,237;,
 3;233,237,238;,
 3;251,250,242;,
 3;251,242,241;,
 3;250,244,243;,
 3;250,243,242;,
 3;250,249,244;,
 3;248,247,246;,
 3;248,246,245;,
 3;248,245,244;,
 3;249,248,244;,
 3;252,253,261;,
 3;252,261,262;,
 3;253,254,255;,
 3;253,255,261;,
 3;255,260,261;,
 3;255,256,257;,
 3;255,257,258;,
 3;255,258,259;,
 3;255,259,260;,
 3;273,272,264;,
 3;273,264,263;,
 3;272,266,265;,
 3;272,265,264;,
 3;272,271,266;,
 3;270,269,268;,
 3;270,268,267;,
 3;270,267,266;,
 3;271,270,266;,
 3;284,283,275;,
 3;284,275,274;,
 3;283,277,276;,
 3;283,276,275;,
 3;283,282,277;,
 3;281,280,279;,
 3;281,279,278;,
 3;281,278,277;,
 3;282,281,277;,
 3;285,286,288;,
 3;285,288,287;,
 3;287,288,290;,
 3;287,290,289;,
 3;291,292,293;,
 3;291,293,294;,
 3;295,296,297;,
 3;295,297,298;,
 3;299,301,302;,
 3;299,302,300;,
 3;301,303,304;,
 3;301,304,302;,
 3;303,305,306;,
 3;303,306,304;,
 3;307,308,310;,
 3;307,310,309;,
 3;311,313,314;,
 3;311,314,312;,
 3;313,315,316;,
 3;313,316,314;,
 3;315,317,318;,
 3;315,318,316;,
 3;319,320,322;,
 3;319,322,321;,
 3;323,325,326;,
 3;323,326,324;,
 3;325,327,328;,
 3;325,328,326;,
 3;327,329,330;,
 3;327,330,328;,
 3;331,333,334;,
 3;331,334,332;,
 3;333,335,336;,
 3;333,336,334;,
 3;335,337,338;,
 3;335,338,336;,
 3;339,341,342;,
 3;339,342,340;,
 3;341,343,344;,
 3;341,344,342;,
 3;343,345,346;,
 3;343,346,344;,
 3;347,349,350;,
 3;347,350,348;,
 3;349,351,352;,
 3;349,352,350;,
 3;351,353,354;,
 3;351,354,352;,
 3;357,358,359;,
 3;357,359,360;,
 3;357,360,361;,
 3;356,357,361;,
 3;355,356,361;,
 3;355,361,362;,
 3;355,362,363;,
 3;355,363,364;,
 3;355,355,355;,
 3;366,367,361;,
 3;366,361,360;,
 3;367,368,362;,
 3;367,362,361;,
 3;368,369,363;,
 3;368,363,362;,
 3;369,370,364;,
 3;369,364,363;,
 3;370,371,365;,
 3;370,365,364;,
 3;379,378,373;,
 3;379,373,372;,
 3;378,377,374;,
 3;378,374,373;,
 3;377,376,375;,
 3;377,375,374;,
 3;377,378,381;,
 3;377,381,380;,
 3;378,379,382;,
 3;378,382,381;,
 3;384,383,391;,
 3;384,391,390;,
 3;384,390,389;,
 3;385,384,389;,
 3;385,389,388;,
 3;386,385,388;,
 3;386,388,387;,
 3;387,388,393;,
 3;387,393,392;,
 3;388,389,394;,
 3;388,394,393;,
 3;389,390,395;,
 3;389,395,394;,
 3;390,391,396;,
 3;390,396,395;,
 3;397,398,402;,
 3;397,402,400;,
 3;399,400,402;,
 3;399,402,401;,
 3;403,405,406;,
 3;403,406,404;,
 3;405,407,408;,
 3;405,408,406;,
 3;410,409,411;,
 3;410,411,412;,
 3;412,411,413;,
 3;412,413,414;,
 3;414,413,415;,
 3;414,415,416;,
 3;416,415,417;,
 3;416,417,418;,
 3;418,417,419;,
 3;418,419,420;,
 3;420,419,421;,
 3;420,421,422;,
 3;422,421,423;,
 3;422,423,424;,
 3;424,423,409;,
 3;424,409,410;,
 3;423,421,419;,
 3;423,419,417;,
 3;423,417,415;,
 3;423,415,413;,
 3;423,413,411;,
 3;423,411,409;,
 3;410,412,414;,
 3;410,414,416;,
 3;410,416,418;,
 3;410,418,420;,
 3;410,420,422;,
 3;410,422,424;,
 3;425,427,428;,
 3;425,428,426;,
 3;427,429,430;,
 3;427,430,428;,
 3;432,431,433;,
 3;432,433,434;,
 3;434,433,435;,
 3;434,435,436;,
 3;436,435,437;,
 3;436,437,438;,
 3;438,437,439;,
 3;438,439,440;,
 3;440,439,441;,
 3;440,441,442;,
 3;442,441,443;,
 3;442,443,444;,
 3;444,443,445;,
 3;444,445,446;,
 3;446,445,431;,
 3;446,431,432;,
 3;445,443,441;,
 3;445,441,439;,
 3;445,439,437;,
 3;445,437,435;,
 3;445,435,433;,
 3;445,433,431;,
 3;432,434,436;,
 3;432,436,438;,
 3;432,438,440;,
 3;432,440,442;,
 3;432,442,444;,
 3;432,444,446;,
 3;447,448,450;,
 3;447,450,449;,
 3;451,452,455;,
 3;451,455,454;,
 3;452,453,456;,
 3;452,456,455;,
 3;457,458,460;,
 3;457,460,459;,
 3;461,462,464;,
 3;461,464,463;,
 3;465,466,468;,
 3;465,468,467;,
 3;469,470,472;,
 3;469,472,471;,
 3;473,474,476;,
 3;473,476,475;,
 3;477,478,480;,
 3;477,480,479;,
 3;483,484,482;,
 3;483,482,481;;

 MeshMaterialList  {
  62;
  423;
  0,
  0,
  1,
  1,
  2,
  2,
  3,
  3,
  4,
  4,
  5,
  5,
  6,
  6,
  7,
  7,
  8,
  8,
  9,
  9,
  10,
  10,
  11,
  11,
  12,
  12,
  12,
  12,
  13,
  13,
  13,
  13,
  14,
  14,
  14,
  14,
  15,
  15,
  15,
  15,
  16,
  16,
  16,
  16,
  16,
  16,
  16,
  16,
  16,
  16,
  16,
  16,
  16,
  16,
  16,
  16,
  17,
  17,
  17,
  17,
  17,
  17,
  17,
  17,
  17,
  17,
  17,
  17,
  17,
  17,
  17,
  17,
  18,
  18,
  18,
  18,
  18,
  18,
  18,
  18,
  18,
  18,
  18,
  18,
  18,
  18,
  18,
  18,
  18,
  18,
  18,
  18,
  18,
  18,
  18,
  18,
  19,
  19,
  19,
  19,
  19,
  19,
  19,
  19,
  19,
  19,
  19,
  19,
  19,
  19,
  19,
  19,
  20,
  20,
  20,
  20,
  20,
  20,
  20,
  20,
  21,
  21,
  21,
  21,
  21,
  21,
  21,
  21,
  21,
  21,
  21,
  21,
  21,
  21,
  21,
  21,
  22,
  22,
  22,
  22,
  22,
  22,
  22,
  22,
  23,
  23,
  23,
  23,
  23,
  23,
  23,
  23,
  24,
  24,
  24,
  24,
  24,
  24,
  24,
  24,
  24,
  24,
  25,
  25,
  26,
  26,
  27,
  27,
  27,
  27,
  27,
  27,
  27,
  27,
  27,
  27,
  27,
  27,
  27,
  27,
  27,
  27,
  27,
  27,
  27,
  27,
  27,
  27,
  27,
  27,
  27,
  27,
  28,
  28,
  28,
  28,
  28,
  28,
  29,
  29,
  29,
  29,
  29,
  29,
  29,
  29,
  29,
  30,
  30,
  30,
  30,
  30,
  30,
  30,
  30,
  30,
  31,
  31,
  31,
  31,
  31,
  31,
  31,
  31,
  31,
  32,
  32,
  32,
  32,
  32,
  32,
  32,
  32,
  32,
  33,
  33,
  33,
  33,
  33,
  33,
  33,
  33,
  33,
  34,
  34,
  34,
  34,
  35,
  35,
  36,
  36,
  37,
  37,
  37,
  37,
  37,
  37,
  38,
  38,
  39,
  39,
  39,
  39,
  39,
  39,
  40,
  40,
  41,
  41,
  41,
  41,
  41,
  41,
  42,
  42,
  42,
  42,
  42,
  42,
  43,
  43,
  43,
  43,
  43,
  43,
  44,
  44,
  44,
  44,
  44,
  44,
  45,
  45,
  45,
  45,
  45,
  45,
  45,
  45,
  45,
  45,
  45,
  45,
  45,
  45,
  45,
  45,
  45,
  45,
  45,
  46,
  46,
  46,
  46,
  46,
  46,
  46,
  46,
  46,
  46,
  47,
  47,
  47,
  47,
  47,
  47,
  47,
  47,
  47,
  47,
  47,
  47,
  47,
  47,
  47,
  48,
  48,
  48,
  48,
  49,
  49,
  49,
  49,
  50,
  50,
  50,
  50,
  50,
  50,
  50,
  50,
  50,
  50,
  50,
  50,
  50,
  50,
  50,
  50,
  50,
  50,
  50,
  50,
  50,
  50,
  50,
  50,
  50,
  50,
  50,
  50,
  51,
  51,
  51,
  51,
  52,
  52,
  52,
  52,
  52,
  52,
  52,
  52,
  52,
  52,
  52,
  52,
  52,
  52,
  52,
  52,
  52,
  52,
  52,
  52,
  52,
  52,
  52,
  52,
  52,
  52,
  52,
  52,
  53,
  53,
  54,
  54,
  54,
  54,
  55,
  55,
  56,
  56,
  57,
  57,
  58,
  58,
  59,
  59,
  60,
  60,
  61,
  61;

  Material  {
   1.000000;1.000000;1.000000;1.000000;;
   0.000000;
   0.000000;0.000000;0.000000;;
   0.000000;0.000000;0.000000;;

   TextureFilename  {
    "KosenPiar1.png";
   }
  }

  Material  {
   1.000000;1.000000;1.000000;1.000000;;
   0.000000;
   0.000000;0.000000;0.000000;;
   0.000000;0.000000;0.000000;;

   TextureFilename  {
    "KosenPiar1.png";
   }
  }

  Material  {
   1.000000;1.000000;1.000000;1.000000;;
   0.000000;
   0.000000;0.000000;0.000000;;
   0.000000;0.000000;0.000000;;

   TextureFilename  {
    "KosenPiar1.png";
   }
  }

  Material  {
   1.000000;1.000000;1.000000;1.000000;;
   0.000000;
   0.000000;0.000000;0.000000;;
   0.000000;0.000000;0.000000;;

   TextureFilename  {
    "KosenPiar1.png";
   }
  }

  Material  {
   1.000000;1.000000;1.000000;1.000000;;
   0.000000;
   0.000000;0.000000;0.000000;;
   0.000000;0.000000;0.000000;;

   TextureFilename  {
    "KosenPiar1.png";
   }
  }

  Material  {
   1.000000;1.000000;1.000000;1.000000;;
   0.000000;
   0.000000;0.000000;0.000000;;
   0.000000;0.000000;0.000000;;

   TextureFilename  {
    "KosenPiar1.png";
   }
  }

  Material  {
   1.000000;1.000000;1.000000;1.000000;;
   0.000000;
   0.000000;0.000000;0.000000;;
   0.000000;0.000000;0.000000;;

   TextureFilename  {
    "KosenPiar1.png";
   }
  }

  Material  {
   1.000000;1.000000;1.000000;1.000000;;
   0.000000;
   0.000000;0.000000;0.000000;;
   0.000000;0.000000;0.000000;;

   TextureFilename  {
    "KosenPiar1.png";
   }
  }

  Material  {
   1.000000;1.000000;1.000000;1.000000;;
   0.000000;
   0.000000;0.000000;0.000000;;
   0.000000;0.000000;0.000000;;

   TextureFilename  {
    "KosenPiar1.png";
   }
  }

  Material  {
   1.000000;1.000000;1.000000;1.000000;;
   0.000000;
   0.000000;0.000000;0.000000;;
   0.000000;0.000000;0.000000;;

   TextureFilename  {
    "KosenPiar1.png";
   }
  }

  Material  {
   1.000000;1.000000;1.000000;1.000000;;
   0.000000;
   0.000000;0.000000;0.000000;;
   0.000000;0.000000;0.000000;;

   TextureFilename  {
    "KosenPiar1.png";
   }
  }

  Material  {
   1.000000;1.000000;1.000000;1.000000;;
   0.000000;
   0.000000;0.000000;0.000000;;
   0.000000;0.000000;0.000000;;

   TextureFilename  {
    "KosenPiar1.png";
   }
  }

  Material  {
   1.000000;1.000000;1.000000;1.000000;;
   0.000000;
   0.000000;0.000000;0.000000;;
   0.000000;0.000000;0.000000;;

   TextureFilename  {
    "Iron1.png";
   }
  }

  Material  {
   1.000000;1.000000;1.000000;1.000000;;
   0.000000;
   0.000000;0.000000;0.000000;;
   0.000000;0.000000;0.000000;;

   TextureFilename  {
    "Iron1.png";
   }
  }

  Material  {
   1.000000;1.000000;1.000000;1.000000;;
   0.000000;
   0.000000;0.000000;0.000000;;
   0.000000;0.000000;0.000000;;

   TextureFilename  {
    "Iron1.png";
   }
  }

  Material  {
   1.000000;1.000000;1.000000;1.000000;;
   0.000000;
   0.000000;0.000000;0.000000;;
   0.000000;0.000000;0.000000;;

   TextureFilename  {
    "Iron1.png";
   }
  }

  Material  {
   1.000000;1.000000;1.000000;1.000000;;
   0.000000;
   0.000000;0.000000;0.000000;;
   0.000000;0.000000;0.000000;;

   TextureFilename  {
    "Iron1.png";
   }
  }

  Material  {
   1.000000;1.000000;1.000000;1.000000;;
   0.000000;
   0.000000;0.000000;0.000000;;
   0.000000;0.000000;0.000000;;

   TextureFilename  {
    "Iron1.png";
   }
  }

  Material  {
   1.000000;1.000000;1.000000;1.000000;;
   0.000000;
   0.000000;0.000000;0.000000;;
   0.000000;0.000000;0.000000;;

   TextureFilename  {
    "Iron1.png";
   }
  }

  Material  {
   1.000000;1.000000;1.000000;1.000000;;
   0.000000;
   0.000000;0.000000;0.000000;;
   0.000000;0.000000;0.000000;;

   TextureFilename  {
    "Iron1.png";
   }
  }

  Material  {
   1.000000;1.000000;1.000000;1.000000;;
   0.000000;
   0.000000;0.000000;0.000000;;
   0.000000;0.000000;0.000000;;

   TextureFilename  {
    "Iron1.png";
   }
  }

  Material  {
   1.000000;1.000000;1.000000;1.000000;;
   0.000000;
   0.000000;0.000000;0.000000;;
   0.000000;0.000000;0.000000;;

   TextureFilename  {
    "Iron1.png";
   }
  }

  Material  {
   1.000000;1.000000;1.000000;1.000000;;
   0.000000;
   0.000000;0.000000;0.000000;;
   0.000000;0.000000;0.000000;;

   TextureFilename  {
    "Iron1.png";
   }
  }

  Material  {
   1.000000;1.000000;1.000000;1.000000;;
   0.000000;
   0.000000;0.000000;0.000000;;
   0.000000;0.000000;0.000000;;

   TextureFilename  {
    "Iron1.png";
   }
  }

  Material  {
   1.000000;1.000000;1.000000;1.000000;;
   0.000000;
   0.000000;0.000000;0.000000;;
   0.000000;0.000000;0.000000;;

   TextureFilename  {
    "Iron1.png";
   }
  }

  Material  {
   1.000000;1.000000;1.000000;1.000000;;
   0.000000;
   0.000000;0.000000;0.000000;;
   0.000000;0.000000;0.000000;;

   TextureFilename  {
    "Iron1.png";
   }
  }

  Material  {
   1.000000;1.000000;1.000000;1.000000;;
   0.000000;
   0.000000;0.000000;0.000000;;
   0.000000;0.000000;0.000000;;

   TextureFilename  {
    "Iron1.png";
   }
  }

  Material  {
   1.000000;1.000000;1.000000;1.000000;;
   0.000000;
   0.000000;0.000000;0.000000;;
   0.000000;0.000000;0.000000;;

   TextureFilename  {
    "Kosen_Wall1.png";
   }
  }

  Material  {
   1.000000;1.000000;1.000000;1.000000;;
   0.000000;
   0.000000;0.000000;0.000000;;
   0.000000;0.000000;0.000000;;

   TextureFilename  {
    "Kosen_Wall3.png";
   }
  }

  Material  {
   1.000000;1.000000;1.000000;1.000000;;
   0.000000;
   0.000000;0.000000;0.000000;;
   0.000000;0.000000;0.000000;;

   TextureFilename  {
    "Kosen_Wall1.png";
   }
  }

  Material  {
   1.000000;1.000000;1.000000;1.000000;;
   0.000000;
   0.000000;0.000000;0.000000;;
   0.000000;0.000000;0.000000;;

   TextureFilename  {
    "Kosen_Wall1.png";
   }
  }

  Material  {
   1.000000;1.000000;1.000000;1.000000;;
   0.000000;
   0.000000;0.000000;0.000000;;
   0.000000;0.000000;0.000000;;

   TextureFilename  {
    "Kosen_Wall2.png";
   }
  }

  Material  {
   1.000000;1.000000;1.000000;1.000000;;
   0.000000;
   0.000000;0.000000;0.000000;;
   0.000000;0.000000;0.000000;;

   TextureFilename  {
    "Kosen_Wall2.png";
   }
  }

  Material  {
   1.000000;1.000000;1.000000;1.000000;;
   0.000000;
   0.000000;0.000000;0.000000;;
   0.000000;0.000000;0.000000;;

   TextureFilename  {
    "Kosen_Wall2.png";
   }
  }

  Material  {
   1.000000;1.000000;1.000000;1.000000;;
   0.000000;
   0.000000;0.000000;0.000000;;
   0.000000;0.000000;0.000000;;

   TextureFilename  {
    "Kosen_Wall1.png";
   }
  }

  Material  {
   1.000000;1.000000;1.000000;1.000000;;
   0.000000;
   0.000000;0.000000;0.000000;;
   0.000000;0.000000;0.000000;;

   TextureFilename  {
    "Window.png";
   }
  }

  Material  {
   1.000000;1.000000;1.000000;1.000000;;
   0.000000;
   0.000000;0.000000;0.000000;;
   0.000000;0.000000;0.000000;;

   TextureFilename  {
    "Window.png";
   }
  }

  Material  {
   1.000000;1.000000;1.000000;1.000000;;
   0.000000;
   0.000000;0.000000;0.000000;;
   0.000000;0.000000;0.000000;;

   TextureFilename  {
    "Plate1.png";
   }
  }

  Material  {
   1.000000;1.000000;1.000000;1.000000;;
   0.000000;
   0.000000;0.000000;0.000000;;
   0.000000;0.000000;0.000000;;

   TextureFilename  {
    "Plate1.png";
   }
  }

  Material  {
   1.000000;1.000000;1.000000;1.000000;;
   0.000000;
   0.000000;0.000000;0.000000;;
   0.000000;0.000000;0.000000;;

   TextureFilename  {
    "Plate1.png";
   }
  }

  Material  {
   1.000000;1.000000;1.000000;1.000000;;
   0.000000;
   0.000000;0.000000;0.000000;;
   0.000000;0.000000;0.000000;;

   TextureFilename  {
    "Plate1.png";
   }
  }

  Material  {
   1.000000;1.000000;1.000000;1.000000;;
   0.000000;
   0.000000;0.000000;0.000000;;
   0.000000;0.000000;0.000000;;

   TextureFilename  {
    "Plate1.png";
   }
  }

  Material  {
   1.000000;1.000000;1.000000;1.000000;;
   0.000000;
   0.000000;0.000000;0.000000;;
   0.000000;0.000000;0.000000;;

   TextureFilename  {
    "Plate1.png";
   }
  }

  Material  {
   1.000000;1.000000;1.000000;1.000000;;
   0.000000;
   0.000000;0.000000;0.000000;;
   0.000000;0.000000;0.000000;;

   TextureFilename  {
    "Kosen_Stair.png";
   }
  }

  Material  {
   1.000000;1.000000;1.000000;1.000000;;
   0.000000;
   0.000000;0.000000;0.000000;;
   0.000000;0.000000;0.000000;;

   TextureFilename  {
    "Kosen_Stair.png";
   }
  }

  Material  {
   1.000000;1.000000;1.000000;1.000000;;
   0.000000;
   0.000000;0.000000;0.000000;;
   0.000000;0.000000;0.000000;;

   TextureFilename  {
    "Kosen_Wall3.png";
   }
  }

  Material  {
   1.000000;1.000000;1.000000;1.000000;;
   0.000000;
   0.000000;0.000000;0.000000;;
   0.000000;0.000000;0.000000;;

   TextureFilename  {
    "Kosen_Wall3.png";
   }
  }

  Material  {
   1.000000;1.000000;1.000000;1.000000;;
   0.000000;
   0.000000;0.000000;0.000000;;
   0.000000;0.000000;0.000000;;

   TextureFilename  {
    "Kosen_Wall3.png";
   }
  }

  Material  {
   1.000000;1.000000;1.000000;1.000000;;
   0.000000;
   0.000000;0.000000;0.000000;;
   0.000000;0.000000;0.000000;;

   TextureFilename  {
    "Kosen_Floor.png";
   }
  }

  Material  {
   1.000000;1.000000;1.000000;1.000000;;
   0.000000;
   0.000000;0.000000;0.000000;;
   0.000000;0.000000;0.000000;;

   TextureFilename  {
    "Kosen_Roof.png";
   }
  }

  Material  {
   0.156863;0.117647;0.078431;0.784314;;
   0.000000;
   0.000000;0.000000;0.000000;;
   0.000000;0.000000;0.000000;;
  }

  Material  {
   1.000000;1.000000;1.000000;1.000000;;
   0.000000;
   0.000000;0.000000;0.000000;;
   0.000000;0.000000;0.000000;;

   TextureFilename  {
    "Kosen_Roof.png";
   }
  }

  Material  {
   0.156863;0.117647;0.078431;0.784314;;
   0.000000;
   0.000000;0.000000;0.000000;;
   0.000000;0.000000;0.000000;;
  }

  Material  {
   1.000000;1.000000;1.000000;1.000000;;
   0.000000;
   0.000000;0.000000;0.000000;;
   0.000000;0.000000;0.000000;;

   TextureFilename  {
    "Window2.png";
   }
  }

  Material  {
   1.000000;1.000000;1.000000;1.000000;;
   0.000000;
   0.000000;0.000000;0.000000;;
   0.000000;0.000000;0.000000;;

   TextureFilename  {
    "Kosen_Step1.png";
   }
  }

  Material  {
   1.000000;1.000000;1.000000;1.000000;;
   0.000000;
   0.000000;0.000000;0.000000;;
   0.000000;0.000000;0.000000;;

   TextureFilename  {
    "AlSash.png";
   }
  }

  Material  {
   1.000000;1.000000;1.000000;1.000000;;
   0.000000;
   0.000000;0.000000;0.000000;;
   0.000000;0.000000;0.000000;;

   TextureFilename  {
    "AlSash.png";
   }
  }

  Material  {
   1.000000;1.000000;1.000000;1.000000;;
   0.000000;
   0.000000;0.000000;0.000000;;
   0.000000;0.000000;0.000000;;

   TextureFilename  {
    "AlSash.png";
   }
  }

  Material  {
   1.000000;1.000000;1.000000;1.000000;;
   0.000000;
   0.000000;0.000000;0.000000;;
   0.000000;0.000000;0.000000;;

   TextureFilename  {
    "AlSash.png";
   }
  }

  Material  {
   1.000000;1.000000;1.000000;1.000000;;
   0.000000;
   0.000000;0.000000;0.000000;;
   0.000000;0.000000;0.000000;;

   TextureFilename  {
    "AlSash.png";
   }
  }

  Material  {
   0.250980;0.250980;0.250980;0.392157;;
   0.000000;
   0.000000;0.000000;0.000000;;
   0.000000;0.000000;0.000000;;
  }

  Material  {
   1.000000;1.000000;1.000000;1.000000;;
   0.000000;
   0.000000;0.000000;0.000000;;
   0.000000;0.000000;0.000000;;

   TextureFilename  {
    "Plate2.png";
   }
  }
 }

 MeshTextureCoords  {
  485;
  0.000000;0.500000;,
  0.000000;0.000000;,
  1.000000;0.500000;,
  1.000000;0.000000;,
  0.000000;0.500000;,
  0.000000;0.000000;,
  1.000000;0.500000;,
  1.000000;0.000000;,
  0.000000;1.000000;,
  0.000000;0.250000;,
  1.000000;1.000000;,
  1.000000;0.250000;,
  0.000000;1.000000;,
  0.000000;0.500000;,
  1.000000;1.000000;,
  1.000000;0.500000;,
  1.000000;0.500000;,
  1.000000;0.000000;,
  0.000000;0.500000;,
  0.000000;0.000000;,
  1.000000;0.500000;,
  1.000000;0.000000;,
  0.000000;0.500000;,
  0.000000;0.000000;,
  1.000000;1.000000;,
  1.000000;0.250000;,
  0.000000;1.000000;,
  0.000000;0.250000;,
  1.000000;1.000000;,
  1.000000;0.500000;,
  0.000000;1.000000;,
  0.000000;0.500000;,
  1.000000;0.500000;,
  1.000000;0.000000;,
  0.000000;0.500000;,
  0.000000;0.000000;,
  1.000000;0.500000;,
  1.000000;0.000000;,
  0.000000;0.500000;,
  0.000000;0.000000;,
  1.000000;1.000000;,
  1.000000;0.250000;,
  0.000000;1.000000;,
  0.000000;0.250000;,
  1.000000;1.000000;,
  1.000000;0.500000;,
  0.000000;1.000000;,
  0.000000;0.500000;,
  0.000000;1.000000;,
  0.000000;0.800000;,
  0.000000;0.000000;,
  1.000000;1.000000;,
  1.000000;0.800000;,
  1.000000;0.000000;,
  0.000000;1.000000;,
  0.000000;0.800000;,
  0.000000;0.000000;,
  1.000000;1.000000;,
  1.000000;0.800000;,
  1.000000;0.000000;,
  0.000000;1.000000;,
  0.000000;0.800000;,
  0.000000;0.000000;,
  1.000000;1.000000;,
  1.000000;0.800000;,
  1.000000;0.000000;,
  0.000000;1.000000;,
  0.000000;0.800000;,
  0.000000;0.000000;,
  1.000000;1.000000;,
  1.000000;0.800000;,
  1.000000;0.000000;,
  0.000000;1.000000;,
  0.000000;0.800000;,
  0.000000;0.000000;,
  0.010000;1.000000;,
  0.010000;0.800000;,
  0.010000;0.000000;,
  0.470000;1.000000;,
  0.470000;0.800000;,
  0.470000;0.000000;,
  0.570000;1.000000;,
  0.570000;0.800000;,
  0.570000;0.000000;,
  1.030000;1.000000;,
  1.030000;0.800000;,
  1.030000;0.000000;,
  0.000000;1.000000;,
  0.000000;0.800000;,
  0.000000;0.000000;,
  0.010000;1.000000;,
  0.010000;0.800000;,
  0.010000;0.000000;,
  0.470000;1.000000;,
  0.470000;0.800000;,
  0.470000;0.000000;,
  0.570000;1.000000;,
  0.570000;0.800000;,
  0.570000;0.000000;,
  1.030000;1.000000;,
  1.030000;0.800000;,
  1.030000;0.000000;,
  0.000000;1.000000;,
  0.000000;0.800000;,
  0.000000;0.000000;,
  0.010000;1.000000;,
  0.010000;0.800000;,
  0.010000;0.000000;,
  0.470000;1.000000;,
  0.470000;0.800000;,
  0.470000;0.000000;,
  0.570000;1.000000;,
  0.570000;0.800000;,
  0.570000;0.000000;,
  1.030000;1.000000;,
  1.030000;0.800000;,
  1.030000;0.000000;,
  0.000000;1.000000;,
  0.000000;0.800000;,
  0.000000;0.000000;,
  0.010000;1.000000;,
  0.010000;0.800000;,
  0.010000;0.000000;,
  0.470000;1.000000;,
  0.470000;0.800000;,
  0.470000;0.000000;,
  0.570000;1.000000;,
  0.570000;0.800000;,
  0.570000;0.000000;,
  1.030000;1.000000;,
  1.030000;0.800000;,
  1.030000;0.000000;,
  0.000000;1.000000;,
  0.000000;0.800000;,
  0.000000;0.000000;,
  0.010000;1.000000;,
  0.010000;0.800000;,
  0.010000;0.000000;,
  0.470000;1.000000;,
  0.470000;0.800000;,
  0.470000;0.000000;,
  0.000000;1.000000;,
  0.000000;0.800000;,
  0.000000;0.000000;,
  0.250000;1.000000;,
  0.250000;0.800000;,
  0.250000;0.000000;,
  0.500000;1.000000;,
  0.500000;0.800000;,
  0.500000;0.000000;,
  0.750000;1.000000;,
  0.750000;0.800000;,
  0.750000;0.000000;,
  1.000000;1.000000;,
  1.000000;0.800000;,
  1.000000;0.000000;,
  0.000000;0.000000;,
  0.000000;0.800000;,
  0.000000;1.000000;,
  0.010000;0.000000;,
  0.010000;0.800000;,
  0.010000;1.000000;,
  0.470000;0.000000;,
  0.470000;0.800000;,
  0.470000;1.000000;,
  0.000000;0.000000;,
  0.000000;0.800000;,
  0.000000;1.000000;,
  0.010000;0.000000;,
  0.010000;0.800000;,
  0.010000;1.000000;,
  0.470000;0.000000;,
  0.470000;0.800000;,
  0.470000;1.000000;,
  0.000000;0.800000;,
  0.000000;0.000000;,
  0.200000;0.800000;,
  0.200000;0.000000;,
  0.400000;0.800000;,
  0.400000;0.000000;,
  0.600000;0.800000;,
  0.600000;0.000000;,
  0.800000;0.800000;,
  0.800000;0.000000;,
  1.000000;0.800000;,
  1.000000;0.000000;,
  0.000000;0.000000;,
  0.000000;0.800000;,
  0.100000;0.000000;,
  0.100000;0.800000;,
  0.000000;0.000000;,
  0.000000;0.800000;,
  0.100000;0.000000;,
  0.100000;0.800000;,
  1.000000;1.000000;,
  0.867116;1.000000;,
  0.696815;0.702020;,
  0.668121;0.702020;,
  0.527518;0.454545;,
  0.512195;0.454545;,
  0.512195;0.505050;,
  0.523673;0.505050;,
  0.604017;0.646465;,
  0.305595;0.646465;,
  0.385940;0.505050;,
  0.397418;0.505050;,
  0.397418;0.454545;,
  0.382095;0.454545;,
  0.241492;0.702020;,
  0.212798;0.702020;,
  0.042496;1.000000;,
  0.000000;1.000000;,
  0.000000;0.888889;,
  0.033716;0.808081;,
  0.033716;0.616061;,
  0.234577;0.207879;,
  0.454806;0.020202;,
  0.675036;0.207879;,
  0.875897;0.616061;,
  0.875897;0.838384;,
  0.890244;0.858586;,
  1.000000;0.858586;,
  0.512195;0.454545;,
  0.512195;0.505050;,
  0.523673;0.505050;,
  0.604017;0.646465;,
  0.305595;0.646465;,
  0.385940;0.505050;,
  0.397418;0.505050;,
  0.397418;0.454545;,
  0.401722;0.454545;,
  0.382095;0.454545;,
  0.241492;0.702020;,
  0.212798;0.702020;,
  0.042496;1.000000;,
  0.000000;1.000000;,
  0.000000;0.888889;,
  0.033716;0.808081;,
  0.033716;0.616061;,
  0.234577;0.207879;,
  0.401722;0.064434;,
  0.401722;0.454545;,
  0.382095;0.454545;,
  0.241492;0.702020;,
  0.212798;0.702020;,
  0.042496;1.000000;,
  0.000000;1.000000;,
  0.000000;0.888889;,
  0.033716;0.808081;,
  0.033716;0.616061;,
  0.234577;0.207879;,
  0.401722;0.064434;,
  0.401722;0.416979;,
  0.382095;0.416979;,
  0.241492;0.681498;,
  0.212798;0.681498;,
  0.042496;1.000000;,
  0.000000;1.000000;,
  0.000000;0.881236;,
  0.033716;0.794863;,
  0.033716;0.589618;,
  0.234577;0.153324;,
  0.401722;0.000000;,
  0.401722;0.416979;,
  0.382095;0.416979;,
  0.241492;0.681498;,
  0.212798;0.681498;,
  0.042496;1.000000;,
  0.000000;1.000000;,
  0.000000;0.881236;,
  0.033716;0.794863;,
  0.033716;0.589618;,
  0.234577;0.153324;,
  0.401722;0.000000;,
  0.401722;0.416979;,
  0.382095;0.416979;,
  0.241492;0.681498;,
  0.212798;0.681498;,
  0.042496;1.000000;,
  0.000000;1.000000;,
  0.000000;0.881236;,
  0.033716;0.794863;,
  0.033716;0.589618;,
  0.234577;0.153324;,
  0.401722;0.000000;,
  0.000000;0.454545;,
  0.000000;0.020202;,
  0.500000;0.454545;,
  0.500000;0.020202;,
  1.000000;0.454545;,
  1.000000;0.020202;,
  0.000000;1.000000;,
  0.000000;0.000000;,
  5.000000;0.000000;,
  5.000000;1.000000;,
  0.000000;1.000000;,
  0.000000;0.000000;,
  3.000000;0.000000;,
  3.000000;1.000000;,
  0.000000;1.000000;,
  1.000000;1.000000;,
  0.000000;0.750000;,
  1.000000;0.750000;,
  0.000000;0.500000;,
  1.000000;0.500000;,
  0.000000;0.000000;,
  1.000000;0.000000;,
  0.000000;1.000000;,
  1.000000;1.000000;,
  0.000000;0.750000;,
  1.000000;0.750000;,
  0.000000;1.000000;,
  1.000000;1.000000;,
  0.000000;0.750000;,
  1.000000;0.750000;,
  0.000000;0.500000;,
  1.000000;0.500000;,
  0.000000;0.000000;,
  1.000000;0.000000;,
  0.000000;1.000000;,
  1.000000;1.000000;,
  0.000000;0.750000;,
  1.000000;0.750000;,
  0.000000;1.000000;,
  1.000000;1.000000;,
  0.000000;0.750000;,
  1.000000;0.750000;,
  0.000000;0.500000;,
  1.000000;0.500000;,
  0.000000;0.000000;,
  1.000000;0.000000;,
  0.000000;1.000000;,
  1.000000;1.000000;,
  0.000000;0.750000;,
  1.000000;0.750000;,
  0.000000;0.500000;,
  1.000000;0.500000;,
  0.000000;0.000000;,
  1.000000;0.000000;,
  0.000000;1.000000;,
  1.000000;1.000000;,
  0.000000;0.000000;,
  1.000000;0.000000;,
  0.000000;0.000000;,
  1.000000;0.000000;,
  0.000000;0.500000;,
  1.000000;0.500000;,
  0.000000;1.000000;,
  1.000000;1.000000;,
  0.000000;0.000000;,
  1.000000;0.000000;,
  0.000000;0.000000;,
  1.000000;0.000000;,
  0.000000;0.500000;,
  1.000000;0.500000;,
  0.745588;0.000000;,
  0.745588;0.703704;,
  0.775000;0.740741;,
  1.000000;0.740741;,
  1.000000;1.000000;,
  0.658824;1.000000;,
  0.658824;0.891759;,
  0.378471;0.453704;,
  0.319647;0.453704;,
  0.031412;0.000000;,
  0.000000;0.000000;,
  0.658824;1.000000;,
  0.658824;0.891759;,
  0.378471;0.453704;,
  0.319647;0.453704;,
  0.031412;0.000000;,
  0.000000;0.000000;,
  1.500000;0.000000;,
  0.600000;0.703704;,
  0.500000;0.740741;,
  0.000000;0.740741;,
  0.000000;1.000000;,
  1.000000;1.000000;,
  1.000000;0.925926;,
  2.200000;0.000000;,
  1.000000;1.000000;,
  1.000000;0.925926;,
  2.200000;0.000000;,
  0.846154;0.000000;,
  0.846154;0.180312;,
  0.000000;0.740741;,
  0.000000;1.000000;,
  0.507692;1.000000;,
  0.507692;0.925926;,
  1.150769;0.500000;,
  1.320000;0.500000;,
  2.200000;0.000000;,
  0.507692;1.000000;,
  0.507692;0.925926;,
  1.150769;0.500000;,
  1.320000;0.500000;,
  2.200000;0.000000;,
  0.425532;0.000000;,
  0.000000;0.000000;,
  2.500000;0.008612;,
  0.425532;0.008612;,
  2.500000;0.100000;,
  0.000000;0.100000;,
  2.000000;0.000000;,
  0.000000;0.000000;,
  2.000000;0.250000;,
  0.000000;0.250000;,
  2.000000;0.500000;,
  0.000000;0.500000;,
  0.000000;0.000000;,
  0.000000;0.000000;,
  0.000000;0.000000;,
  0.000000;0.000000;,
  0.000000;0.000000;,
  0.000000;0.000000;,
  0.000000;0.000000;,
  0.000000;0.000000;,
  0.000000;0.000000;,
  0.000000;0.000000;,
  0.000000;0.000000;,
  0.000000;0.000000;,
  0.000000;0.000000;,
  0.000000;0.000000;,
  0.000000;0.000000;,
  0.000000;0.000000;,
  2.000000;0.000000;,
  0.000000;0.000000;,
  2.000000;0.250000;,
  0.000000;0.250000;,
  2.000000;0.500000;,
  0.000000;0.500000;,
  0.000000;0.000000;,
  0.000000;0.000000;,
  0.000000;0.000000;,
  0.000000;0.000000;,
  0.000000;0.000000;,
  0.000000;0.000000;,
  0.000000;0.000000;,
  0.000000;0.000000;,
  0.000000;0.000000;,
  0.000000;0.000000;,
  0.000000;0.000000;,
  0.000000;0.000000;,
  0.000000;0.000000;,
  0.000000;0.000000;,
  0.000000;0.000000;,
  0.000000;0.000000;,
  0.000000;1.000000;,
  0.000000;0.000000;,
  11.000000;1.000000;,
  11.000000;0.000000;,
  -0.100000;1.000000;,
  -0.100000;0.950000;,
  -0.100000;0.000000;,
  4.000000;1.000000;,
  4.000000;0.950000;,
  4.000000;0.000000;,
  0.000000;1.000000;,
  0.000000;0.000000;,
  1.000000;1.000000;,
  1.000000;0.000000;,
  0.000000;1.000000;,
  0.000000;0.000000;,
  1.000000;1.000000;,
  1.000000;0.000000;,
  0.000000;1.000000;,
  0.000000;0.000000;,
  1.000000;1.000000;,
  1.000000;0.000000;,
  0.000000;1.000000;,
  0.000000;0.000000;,
  1.000000;1.000000;,
  1.000000;0.000000;,
  0.000000;1.000000;,
  0.000000;0.000000;,
  1.000000;1.000000;,
  1.000000;0.000000;,
  0.000000;0.000000;,
  0.000000;0.000000;,
  0.000000;0.000000;,
  0.000000;0.000000;,
  0.000000;0.100000;,
  0.000000;0.000000;,
  5.000000;0.100000;,
  5.000000;0.000000;;
 }

 MeshNormals  {
  399;
  0.000000;0.000000;-1.000000;,
  0.000000;0.000000;-1.000000;,
  0.000000;0.000000;-1.000000;,
  0.000000;0.000000;-1.000000;,
  0.000000;0.000000;-1.000000;,
  0.000000;0.000000;-1.000000;,
  0.000000;0.000000;-1.000000;,
  0.000000;0.000000;-1.000000;,
  0.000000;0.000000;-1.000000;,
  0.000000;0.000000;-1.000000;,
  0.000000;0.000000;-1.000000;,
  0.000000;0.000000;-1.000000;,
  0.000000;0.000000;-1.000000;,
  0.000000;0.000000;-1.000000;,
  0.000000;0.000000;-1.000000;,
  0.000000;0.000000;-1.000000;,
  0.000000;0.000000;-1.000000;,
  0.000000;0.000000;-1.000000;,
  0.000000;0.000000;-1.000000;,
  0.000000;0.000000;-1.000000;,
  0.000000;0.000000;-1.000000;,
  0.000000;0.000000;-1.000000;,
  0.000000;0.000000;-1.000000;,
  0.000000;0.000000;-1.000000;,
  0.000000;-1.000000;0.000000;,
  0.000000;-1.000000;0.000000;,
  0.000000;0.000000;-1.000000;,
  0.000000;0.000000;-1.000000;,
  0.000000;-1.000000;0.000000;,
  0.000000;-1.000000;0.000000;,
  0.000000;0.000000;-1.000000;,
  0.000000;0.000000;-1.000000;,
  0.000000;-1.000000;0.000000;,
  0.000000;-1.000000;0.000000;,
  0.000000;0.000000;-1.000000;,
  0.000000;0.000000;-1.000000;,
  0.000000;-1.000000;0.000000;,
  0.000000;-1.000000;0.000000;,
  0.000000;0.000000;-1.000000;,
  0.000000;0.000000;-1.000000;,
  0.000000;-1.000000;0.000000;,
  0.000000;-1.000000;0.000000;,
  1.000000;0.000000;0.000000;,
  1.000000;0.000000;0.000000;,
  0.000000;-0.894427;0.447214;,
  0.000000;-0.894427;0.447214;,
  1.000000;0.000000;0.000000;,
  1.000000;0.000000;0.000000;,
  0.000000;-1.000000;0.000000;,
  0.000000;-1.000000;0.000000;,
  1.000000;0.000000;0.000000;,
  1.000000;0.000000;0.000000;,
  0.000000;-0.894427;0.447213;,
  0.000000;-0.894427;0.447213;,
  1.000000;0.000000;0.000000;,
  1.000000;0.000000;0.000000;,
  0.000000;-1.000000;0.000000;,
  0.000000;-1.000000;0.000000;,
  -1.000000;0.000000;0.000000;,
  -1.000000;0.000000;0.000000;,
  0.000000;-0.894427;0.447214;,
  0.000000;-0.894427;0.447214;,
  -1.000000;0.000000;0.000000;,
  -1.000000;0.000000;0.000000;,
  0.000000;-1.000000;0.000000;,
  0.000000;-1.000000;0.000000;,
  -1.000000;0.000000;0.000000;,
  -1.000000;0.000000;0.000000;,
  0.000000;-0.894427;0.447213;,
  0.000000;-0.894427;0.447213;,
  -1.000000;0.000000;0.000000;,
  -1.000000;0.000000;0.000000;,
  0.000000;-1.000000;0.000000;,
  0.000000;-1.000000;0.000000;,
  -1.000000;0.000000;0.000000;,
  -1.000000;0.000000;0.000000;,
  1.000000;0.000000;0.000000;,
  1.000000;0.000000;0.000000;,
  0.000000;-0.894427;-0.447214;,
  0.000000;-0.894427;-0.447214;,
  -1.000000;0.000000;0.000000;,
  -1.000000;0.000000;0.000000;,
  1.000000;0.000000;0.000000;,
  1.000000;0.000000;0.000000;,
  0.000000;-1.000000;0.000000;,
  0.000000;-1.000000;0.000000;,
  -1.000000;0.000000;0.000000;,
  -1.000000;0.000000;0.000000;,
  1.000000;0.000000;0.000000;,
  1.000000;0.000000;0.000000;,
  0.000000;-0.894427;-0.447214;,
  0.000000;-0.894427;-0.447214;,
  -1.000000;0.000000;0.000000;,
  -1.000000;0.000000;0.000000;,
  1.000000;0.000000;0.000000;,
  1.000000;0.000000;0.000000;,
  0.000000;-1.000000;0.000000;,
  0.000000;-1.000000;0.000000;,
  -1.000000;0.000000;0.000000;,
  -1.000000;0.000000;0.000000;,
  0.000000;-0.894427;0.447214;,
  0.000000;-0.894427;0.447214;,
  -1.000000;0.000000;0.000000;,
  -1.000000;0.000000;0.000000;,
  0.000000;-1.000000;0.000000;,
  0.000000;-1.000000;0.000000;,
  -1.000000;0.000000;0.000000;,
  -1.000000;0.000000;0.000000;,
  0.000000;-0.894427;0.447213;,
  0.000000;-0.894427;0.447213;,
  -1.000000;0.000000;0.000000;,
  -1.000000;0.000000;0.000000;,
  0.000000;0.973115;-0.230320;,
  0.000000;0.973115;-0.230320;,
  1.000000;0.000000;0.000000;,
  1.000000;0.000000;0.000000;,
  0.000000;0.866050;-0.499958;,
  0.000000;0.866050;-0.499958;,
  1.000000;0.000000;0.000000;,
  1.000000;0.000000;0.000000;,
  0.000000;0.866050;0.499958;,
  0.000000;0.866050;0.499958;,
  -1.000000;0.000000;0.000000;,
  -1.000000;0.000000;0.000000;,
  0.000000;0.973114;0.230324;,
  0.000000;0.973114;0.230324;,
  -1.000000;0.000000;0.000000;,
  -1.000000;0.000000;0.000000;,
  0.000000;0.973114;-0.230324;,
  0.000000;0.973114;-0.230324;,
  -1.000000;0.000000;0.000000;,
  -1.000000;0.000000;0.000000;,
  0.000000;0.866050;-0.499958;,
  0.000000;0.866050;-0.499958;,
  -1.000000;0.000000;0.000000;,
  -1.000000;0.000000;0.000000;,
  -1.000000;0.000000;0.000000;,
  -1.000000;0.000000;0.000000;,
  0.000000;0.973115;-0.230320;,
  0.000000;0.973115;-0.230320;,
  -1.000000;0.000000;0.000000;,
  -1.000000;0.000000;0.000000;,
  0.000000;0.866050;-0.499958;,
  0.000000;0.866050;-0.499958;,
  1.000000;0.000000;0.000000;,
  1.000000;0.000000;0.000000;,
  0.000000;0.973115;-0.230320;,
  0.000000;0.973115;-0.230320;,
  1.000000;0.000000;0.000000;,
  1.000000;0.000000;0.000000;,
  0.000000;0.866050;-0.499958;,
  0.000000;0.866050;-0.499958;,
  -1.000000;0.000000;0.000000;,
  -1.000000;0.000000;0.000000;,
  -1.000000;0.000000;0.000000;,
  -1.000000;0.000000;0.000000;,
  0.000000;0.000000;-1.000000;,
  0.000000;0.000000;-1.000000;,
  0.000000;0.000000;-1.000000;,
  0.000000;0.000000;-1.000000;,
  0.000000;0.000000;-1.000000;,
  0.000000;0.000000;-1.000000;,
  0.000000;0.000000;-1.000000;,
  0.000000;0.000000;-1.000000;,
  0.000000;0.000000;-1.000000;,
  0.000000;0.000000;-1.000000;,
  -1.000000;0.000000;0.000000;,
  -1.000000;0.000000;0.000000;,
  -1.000000;0.000000;0.000000;,
  -1.000000;0.000000;0.000000;,
  -1.000000;0.000000;0.000000;,
  0.000000;0.000000;0.000000;,
  -1.000000;0.000000;0.000000;,
  -1.000000;0.000000;0.000000;,
  -1.000000;0.000000;0.000000;,
  -1.000000;0.000000;0.000000;,
  -1.000000;0.000000;0.000000;,
  -1.000000;0.000000;0.000000;,
  -1.000000;0.000000;0.000000;,
  -1.000000;0.000000;0.000000;,
  -1.000000;0.000000;0.000000;,
  0.000000;0.000000;0.000000;,
  0.000000;0.000000;0.000000;,
  -1.000000;0.000000;0.000000;,
  -1.000000;0.000000;0.000000;,
  -1.000000;0.000000;0.000000;,
  -1.000000;0.000000;0.000000;,
  -1.000000;0.000000;0.000000;,
  -1.000000;0.000000;0.000000;,
  -1.000000;0.000000;0.000000;,
  -1.000000;0.000000;0.000000;,
  -1.000000;0.000000;0.000000;,
  1.000000;0.000000;0.000000;,
  1.000000;0.000000;0.000000;,
  1.000000;0.000000;0.000000;,
  1.000000;0.000000;0.000000;,
  1.000000;0.000000;0.000000;,
  0.000000;0.000000;0.000000;,
  1.000000;0.000000;0.000000;,
  1.000000;0.000000;0.000000;,
  1.000000;0.000000;0.000000;,
  1.000000;0.000000;0.000000;,
  1.000000;0.000000;0.000000;,
  1.000000;0.000000;0.000000;,
  1.000000;0.000000;0.000000;,
  1.000000;0.000000;0.000000;,
  1.000000;0.000000;0.000000;,
  -1.000000;0.000000;0.000000;,
  -1.000000;0.000000;0.000000;,
  -1.000000;0.000000;0.000000;,
  -1.000000;0.000000;0.000000;,
  -1.000000;0.000000;0.000000;,
  -1.000000;0.000000;0.000000;,
  -1.000000;0.000000;0.000000;,
  -1.000000;0.000000;0.000000;,
  -1.000000;0.000000;0.000000;,
  1.000000;0.000000;0.000000;,
  1.000000;0.000000;0.000000;,
  1.000000;0.000000;0.000000;,
  1.000000;0.000000;0.000000;,
  1.000000;0.000000;0.000000;,
  1.000000;0.000000;0.000000;,
  1.000000;0.000000;0.000000;,
  1.000000;0.000000;0.000000;,
  1.000000;0.000000;0.000000;,
  -1.000000;0.000000;0.000000;,
  -1.000000;0.000000;0.000000;,
  -1.000000;0.000000;0.000000;,
  -1.000000;0.000000;0.000000;,
  -1.000000;0.000000;0.000000;,
  -1.000000;0.000000;0.000000;,
  -1.000000;0.000000;0.000000;,
  -1.000000;0.000000;0.000000;,
  -1.000000;0.000000;0.000000;,
  -1.000000;0.000000;0.000000;,
  -1.000000;0.000000;0.000000;,
  -1.000000;0.000000;0.000000;,
  -1.000000;0.000000;0.000000;,
  -1.000000;0.000000;0.000000;,
  -1.000000;0.000000;0.000000;,
  -1.000000;0.000000;0.000000;,
  -1.000000;0.000000;0.000000;,
  -1.000000;0.000000;0.000000;,
  -1.000000;0.000000;0.000000;,
  -1.000000;0.000000;0.000000;,
  0.000000;0.000000;-1.000000;,
  0.000000;0.000000;-1.000000;,
  0.000000;0.000000;-1.000000;,
  0.000000;0.000000;-1.000000;,
  0.000000;0.000000;-1.000000;,
  0.000000;0.000000;-1.000000;,
  0.000000;0.000000;-1.000000;,
  0.000000;0.000000;-1.000000;,
  0.000000;0.826599;-0.562791;,
  0.000000;0.826599;-0.562791;,
  0.000000;0.000000;-1.000000;,
  0.000000;0.000000;-1.000000;,
  0.000000;1.000000;0.000000;,
  0.000000;1.000000;0.000000;,
  0.000000;0.000000;-1.000000;,
  0.000000;0.000000;-1.000000;,
  0.000000;0.826599;-0.562791;,
  0.000000;0.826599;-0.562791;,
  0.000000;0.000000;-1.000000;,
  0.000000;0.000000;-1.000000;,
  0.000000;1.000000;0.000000;,
  0.000000;1.000000;0.000000;,
  0.000000;0.000000;-1.000000;,
  0.000000;0.000000;-1.000000;,
  0.000000;0.826599;-0.562791;,
  0.000000;0.826599;-0.562791;,
  0.000000;0.000000;-1.000000;,
  0.000000;0.000000;-1.000000;,
  0.000000;0.000000;-1.000000;,
  0.000000;0.000000;-1.000000;,
  0.000000;0.826600;-0.562791;,
  0.000000;0.826600;-0.562791;,
  0.000000;0.000000;-1.000000;,
  0.000000;0.000000;-1.000000;,
  0.000000;0.895481;-0.445100;,
  0.000000;0.895481;-0.445100;,
  0.000000;1.000000;0.000000;,
  0.000000;1.000000;0.000000;,
  0.000000;0.894427;-0.447214;,
  0.000000;0.894427;-0.447214;,
  0.000000;0.895481;-0.445100;,
  0.000000;0.895481;-0.445100;,
  0.000000;1.000000;0.000000;,
  0.000000;1.000000;0.000000;,
  0.000000;0.894427;-0.447214;,
  0.000000;0.894427;-0.447214;,
  1.000000;0.000000;0.000000;,
  1.000000;0.000000;0.000000;,
  1.000000;0.000000;0.000000;,
  1.000000;0.000000;0.000000;,
  1.000000;0.000000;0.000000;,
  1.000000;0.000000;0.000000;,
  1.000000;0.000000;0.000000;,
  1.000000;0.000000;0.000000;,
  0.000000;0.000000;0.000000;,
  0.000000;0.000000;-1.000000;,
  0.000000;0.000000;-1.000000;,
  0.000000;-0.895739;-0.444581;,
  0.000000;-0.895739;-0.444581;,
  0.000000;-1.000000;0.000000;,
  0.000000;-1.000000;0.000000;,
  0.000000;-0.894427;-0.447214;,
  0.000000;-0.894427;-0.447214;,
  0.000000;-1.000000;0.000000;,
  0.000000;-1.000000;0.000000;,
  -1.000000;0.000000;0.000000;,
  -1.000000;0.000000;0.000000;,
  -1.000000;0.000000;0.000000;,
  -1.000000;0.000000;0.000000;,
  -1.000000;0.000000;0.000000;,
  -1.000000;0.000000;0.000000;,
  0.000000;0.000000;-1.000000;,
  0.000000;0.000000;-1.000000;,
  0.000000;-0.792624;-0.609711;,
  0.000000;-0.792624;-0.609711;,
  -1.000000;0.000000;0.000000;,
  -1.000000;0.000000;0.000000;,
  -1.000000;0.000000;0.000000;,
  -1.000000;0.000000;0.000000;,
  -1.000000;0.000000;0.000000;,
  -1.000000;0.000000;0.000000;,
  -1.000000;0.000000;0.000000;,
  0.000000;0.000000;-1.000000;,
  0.000000;0.000000;-1.000000;,
  0.000000;-0.855500;-0.517803;,
  0.000000;-0.855500;-0.517803;,
  0.000000;-1.000000;0.000000;,
  0.000000;-1.000000;0.000000;,
  0.000000;-0.887496;-0.460815;,
  0.000000;-0.887496;-0.460815;,
  0.000000;-1.000000;0.000000;,
  0.000000;-1.000000;0.000000;,
  0.000000;-1.000000;0.000000;,
  0.000000;-1.000000;0.000000;,
  0.000000;0.973114;-0.230324;,
  0.000000;0.973114;-0.230324;,
  0.000000;0.866050;-0.499958;,
  0.000000;0.866050;-0.499958;,
  0.980785;0.000000;-0.195090;,
  1.000000;0.000000;0.000000;,
  0.707107;0.000000;0.707107;,
  0.555570;0.000000;0.831470;,
  0.000000;0.000000;1.000000;,
  -0.195090;0.000000;0.980785;,
  -0.707107;0.000000;0.707107;,
  -0.831470;0.000000;0.555570;,
  -1.000000;0.000000;0.000000;,
  -0.980785;0.000000;-0.195090;,
  -0.707107;0.000000;-0.707107;,
  -0.555570;0.000000;-0.831470;,
  0.000000;0.000000;-1.000000;,
  0.195090;0.000000;-0.980785;,
  0.707107;0.000000;-0.707107;,
  0.831470;0.000000;-0.555570;,
  0.000000;0.973115;-0.230320;,
  0.000000;0.973115;-0.230320;,
  0.000000;0.866050;-0.499958;,
  0.000000;0.866050;-0.499958;,
  0.980785;0.000000;-0.195090;,
  1.000000;0.000000;0.000000;,
  0.707107;0.000000;0.707107;,
  0.555570;0.000000;0.831470;,
  0.000000;0.000000;1.000000;,
  -0.195090;0.000000;0.980785;,
  -0.707107;0.000000;0.707107;,
  -0.831470;0.000000;0.555570;,
  -1.000000;0.000000;0.000000;,
  -0.980785;0.000000;-0.195090;,
  -0.707107;0.000000;-0.707107;,
  -0.555570;0.000000;-0.831470;,
  0.000000;0.000000;-1.000000;,
  0.195090;0.000000;-0.980785;,
  0.707107;0.000000;-0.707107;,
  0.831470;0.000000;-0.555570;,
  0.000000;0.707107;-0.707107;,
  0.000000;0.707107;-0.707107;,
  0.000000;-1.000000;0.000000;,
  0.000000;-1.000000;0.000000;,
  0.000000;0.000000;-1.000000;,
  0.000000;0.000000;-1.000000;,
  0.000000;0.000000;-1.000000;,
  0.000000;0.000000;-1.000000;,
  0.000000;0.000000;-1.000000;,
  0.000000;0.000000;-1.000000;,
  0.000000;0.000000;-1.000000;,
  0.000000;0.000000;-1.000000;,
  0.000000;0.000000;-1.000000;,
  0.000000;0.000000;-1.000000;,
  0.000000;0.000000;-1.000000;,
  0.000000;0.000000;-1.000000;,
  -1.000000;0.000000;0.000000;,
  -1.000000;0.000000;0.000000;,
  1.000000;0.000000;0.000000;,
  1.000000;0.000000;0.000000;;
  423;
  3;0,0,0;,
  3;1,1,1;,
  3;2,2,2;,
  3;3,3,3;,
  3;4,4,4;,
  3;5,5,5;,
  3;6,6,6;,
  3;7,7,7;,
  3;8,8,8;,
  3;9,9,9;,
  3;10,10,10;,
  3;11,11,11;,
  3;12,12,12;,
  3;13,13,13;,
  3;14,14,14;,
  3;15,15,15;,
  3;16,16,16;,
  3;17,17,17;,
  3;18,18,18;,
  3;19,19,19;,
  3;20,20,20;,
  3;21,21,21;,
  3;22,22,22;,
  3;23,23,23;,
  3;24,24,24;,
  3;25,25,25;,
  3;26,26,26;,
  3;27,27,27;,
  3;28,28,28;,
  3;29,29,29;,
  3;30,30,30;,
  3;31,31,31;,
  3;32,32,32;,
  3;33,33,33;,
  3;34,34,34;,
  3;35,35,35;,
  3;36,36,36;,
  3;37,37,37;,
  3;38,38,38;,
  3;39,39,39;,
  3;40,40,40;,
  3;41,41,41;,
  3;42,42,42;,
  3;43,43,43;,
  3;44,44,44;,
  3;45,45,45;,
  3;46,46,46;,
  3;47,47,47;,
  3;48,48,48;,
  3;49,49,49;,
  3;50,50,50;,
  3;51,51,51;,
  3;52,52,52;,
  3;53,53,53;,
  3;54,54,54;,
  3;55,55,55;,
  3;56,56,56;,
  3;57,57,57;,
  3;58,58,58;,
  3;59,59,59;,
  3;60,60,60;,
  3;61,61,61;,
  3;62,62,62;,
  3;63,63,63;,
  3;64,64,64;,
  3;65,65,65;,
  3;66,66,66;,
  3;67,67,67;,
  3;68,68,68;,
  3;69,69,69;,
  3;70,70,70;,
  3;71,71,71;,
  3;72,72,72;,
  3;73,73,73;,
  3;74,74,74;,
  3;75,75,75;,
  3;76,76,76;,
  3;77,77,77;,
  3;78,78,78;,
  3;79,79,79;,
  3;80,80,80;,
  3;81,81,81;,
  3;82,82,82;,
  3;83,83,83;,
  3;84,84,84;,
  3;85,85,85;,
  3;86,86,86;,
  3;87,87,87;,
  3;88,88,88;,
  3;89,89,89;,
  3;90,90,90;,
  3;91,91,91;,
  3;92,92,92;,
  3;93,93,93;,
  3;94,94,94;,
  3;95,95,95;,
  3;96,96,96;,
  3;97,97,97;,
  3;98,98,98;,
  3;99,99,99;,
  3;100,100,100;,
  3;101,101,101;,
  3;102,102,102;,
  3;103,103,103;,
  3;104,104,104;,
  3;105,105,105;,
  3;106,106,106;,
  3;107,107,107;,
  3;108,108,108;,
  3;109,109,109;,
  3;110,110,110;,
  3;111,111,111;,
  3;112,112,112;,
  3;113,113,113;,
  3;114,114,114;,
  3;115,115,115;,
  3;116,116,116;,
  3;117,117,117;,
  3;118,118,118;,
  3;119,119,119;,
  3;120,120,120;,
  3;121,121,121;,
  3;122,122,122;,
  3;123,123,123;,
  3;124,124,124;,
  3;125,125,125;,
  3;126,126,126;,
  3;127,127,127;,
  3;128,128,128;,
  3;129,129,129;,
  3;130,130,130;,
  3;131,131,131;,
  3;132,132,132;,
  3;133,133,133;,
  3;134,134,134;,
  3;135,135,135;,
  3;136,136,136;,
  3;137,137,137;,
  3;138,138,138;,
  3;139,139,139;,
  3;140,140,140;,
  3;141,141,141;,
  3;142,142,142;,
  3;143,143,143;,
  3;144,144,144;,
  3;145,145,145;,
  3;146,146,146;,
  3;147,147,147;,
  3;148,148,148;,
  3;149,149,149;,
  3;150,150,150;,
  3;151,151,151;,
  3;152,152,152;,
  3;153,153,153;,
  3;154,154,154;,
  3;155,155,155;,
  3;156,156,156;,
  3;157,157,157;,
  3;158,158,158;,
  3;159,159,159;,
  3;160,160,160;,
  3;161,161,161;,
  3;162,162,162;,
  3;163,163,163;,
  3;164,164,164;,
  3;165,165,165;,
  3;166,166,166;,
  3;167,167,167;,
  3;168,168,168;,
  3;169,169,169;,
  3;170,170,170;,
  3;171,171,171;,
  3;172,172,172;,
  3;173,173,173;,
  3;174,174,174;,
  3;175,175,175;,
  3;176,176,176;,
  3;177,177,177;,
  3;178,178,178;,
  3;179,179,179;,
  3;180,180,180;,
  3;181,181,181;,
  3;182,182,182;,
  3;183,183,183;,
  3;184,184,184;,
  3;185,185,185;,
  3;186,186,186;,
  3;187,187,187;,
  3;188,188,188;,
  3;189,189,189;,
  3;190,190,190;,
  3;191,191,191;,
  3;192,192,192;,
  3;193,193,193;,
  3;194,194,194;,
  3;195,195,195;,
  3;196,196,196;,
  3;197,197,197;,
  3;198,198,198;,
  3;199,199,199;,
  3;200,200,200;,
  3;201,201,201;,
  3;202,202,202;,
  3;203,203,203;,
  3;204,204,204;,
  3;205,205,205;,
  3;206,206,206;,
  3;207,207,207;,
  3;208,208,208;,
  3;209,209,209;,
  3;210,210,210;,
  3;211,211,211;,
  3;212,212,212;,
  3;213,213,213;,
  3;214,214,214;,
  3;215,215,215;,
  3;216,216,216;,
  3;217,217,217;,
  3;218,218,218;,
  3;219,219,219;,
  3;220,220,220;,
  3;221,221,221;,
  3;222,222,222;,
  3;223,223,223;,
  3;224,224,224;,
  3;225,225,225;,
  3;226,226,226;,
  3;227,227,227;,
  3;228,228,228;,
  3;229,229,229;,
  3;230,230,230;,
  3;231,231,231;,
  3;232,232,232;,
  3;233,233,233;,
  3;234,234,234;,
  3;235,235,235;,
  3;236,236,236;,
  3;237,237,237;,
  3;238,238,238;,
  3;239,239,239;,
  3;240,240,240;,
  3;241,241,241;,
  3;242,242,242;,
  3;243,243,243;,
  3;244,244,244;,
  3;245,245,245;,
  3;246,246,246;,
  3;247,247,247;,
  3;248,248,248;,
  3;249,249,249;,
  3;250,250,250;,
  3;251,251,251;,
  3;252,252,252;,
  3;253,253,253;,
  3;254,254,254;,
  3;255,255,255;,
  3;256,256,256;,
  3;257,257,257;,
  3;258,258,258;,
  3;259,259,259;,
  3;260,260,260;,
  3;261,261,261;,
  3;262,262,262;,
  3;263,263,263;,
  3;264,264,264;,
  3;265,265,265;,
  3;266,266,266;,
  3;267,267,267;,
  3;268,268,268;,
  3;269,269,269;,
  3;270,270,270;,
  3;271,271,271;,
  3;272,272,272;,
  3;273,273,273;,
  3;274,274,274;,
  3;275,275,275;,
  3;276,276,276;,
  3;277,277,277;,
  3;278,278,278;,
  3;279,279,279;,
  3;280,280,280;,
  3;281,281,281;,
  3;282,282,282;,
  3;283,283,283;,
  3;284,284,284;,
  3;285,285,285;,
  3;286,286,286;,
  3;287,287,287;,
  3;288,288,288;,
  3;289,289,289;,
  3;290,290,290;,
  3;291,291,291;,
  3;292,292,292;,
  3;293,293,293;,
  3;294,294,294;,
  3;295,295,295;,
  3;296,296,296;,
  3;297,297,297;,
  3;298,298,298;,
  3;299,299,299;,
  3;300,300,300;,
  3;301,301,301;,
  3;302,302,302;,
  3;303,303,303;,
  3;304,304,304;,
  3;305,305,305;,
  3;306,306,306;,
  3;307,307,307;,
  3;308,308,308;,
  3;309,309,309;,
  3;310,310,310;,
  3;311,311,311;,
  3;312,312,312;,
  3;313,313,313;,
  3;314,314,314;,
  3;315,315,315;,
  3;316,316,316;,
  3;317,317,317;,
  3;318,318,318;,
  3;319,319,319;,
  3;320,320,320;,
  3;321,321,321;,
  3;322,322,322;,
  3;323,323,323;,
  3;324,324,324;,
  3;325,325,325;,
  3;326,326,326;,
  3;327,327,327;,
  3;328,328,328;,
  3;329,329,329;,
  3;330,330,330;,
  3;331,331,331;,
  3;332,332,332;,
  3;333,333,333;,
  3;334,334,334;,
  3;335,335,335;,
  3;336,336,336;,
  3;337,337,337;,
  3;338,338,338;,
  3;339,339,339;,
  3;340,340,340;,
  3;341,341,341;,
  3;342,342,342;,
  3;344,343,345;,
  3;344,345,346;,
  3;346,345,347;,
  3;346,347,348;,
  3;348,347,349;,
  3;348,349,350;,
  3;350,349,351;,
  3;350,351,352;,
  3;352,351,353;,
  3;352,353,354;,
  3;354,353,355;,
  3;354,355,356;,
  3;356,355,357;,
  3;356,357,358;,
  3;358,357,343;,
  3;358,343,344;,
  3;357,355,353;,
  3;357,353,351;,
  3;357,351,349;,
  3;357,349,347;,
  3;357,347,345;,
  3;357,345,343;,
  3;344,346,348;,
  3;344,348,350;,
  3;344,350,352;,
  3;344,352,354;,
  3;344,354,356;,
  3;344,356,358;,
  3;359,359,359;,
  3;360,360,360;,
  3;361,361,361;,
  3;362,362,362;,
  3;364,363,365;,
  3;364,365,366;,
  3;366,365,367;,
  3;366,367,368;,
  3;368,367,369;,
  3;368,369,370;,
  3;370,369,371;,
  3;370,371,372;,
  3;372,371,373;,
  3;372,373,374;,
  3;374,373,375;,
  3;374,375,376;,
  3;376,375,377;,
  3;376,377,378;,
  3;378,377,363;,
  3;378,363,364;,
  3;377,375,373;,
  3;377,373,371;,
  3;377,371,369;,
  3;377,369,367;,
  3;377,367,365;,
  3;377,365,363;,
  3;364,366,368;,
  3;364,368,370;,
  3;364,370,372;,
  3;364,372,374;,
  3;364,374,376;,
  3;364,376,378;,
  3;379,379,379;,
  3;380,380,380;,
  3;381,381,381;,
  3;382,382,382;,
  3;383,383,383;,
  3;384,384,384;,
  3;385,385,385;,
  3;386,386,386;,
  3;387,387,387;,
  3;388,388,388;,
  3;389,389,389;,
  3;390,390,390;,
  3;391,391,391;,
  3;392,392,392;,
  3;393,393,393;,
  3;394,394,394;,
  3;395,395,395;,
  3;396,396,396;,
  3;397,397,397;,
  3;398,398,398;;
 }
}