xof 0303txt 0032
template Vector {
 <3d82ab5e-62da-11cf-ab39-0020af71e433>
 FLOAT x;
 FLOAT y;
 FLOAT z;
}

template MeshFace {
 <3d82ab5f-62da-11cf-ab39-0020af71e433>
 DWORD nFaceVertexIndices;
 array DWORD faceVertexIndices[nFaceVertexIndices];
}

template Mesh {
 <3d82ab44-62da-11cf-ab39-0020af71e433>
 DWORD nVertices;
 array Vector vertices[nVertices];
 DWORD nFaces;
 array MeshFace faces[nFaces];
 [...]
}

template ColorRGBA {
 <35ff44e0-6c7c-11cf-8f52-0040333594a3>
 FLOAT red;
 FLOAT green;
 FLOAT blue;
 FLOAT alpha;
}

template ColorRGB {
 <d3e16e81-7835-11cf-8f52-0040333594a3>
 FLOAT red;
 FLOAT green;
 FLOAT blue;
}

template Material {
 <3d82ab4d-62da-11cf-ab39-0020af71e433>
 ColorRGBA faceColor;
 FLOAT power;
 ColorRGB specularColor;
 ColorRGB emissiveColor;
 [...]
}

template MeshMaterialList {
 <f6f23f42-7686-11cf-8f52-0040333594a3>
 DWORD nMaterials;
 DWORD nFaceIndexes;
 array DWORD faceIndexes[nFaceIndexes];
 [Material <3d82ab4d-62da-11cf-ab39-0020af71e433>]
}

template TextureFilename {
 <a42790e1-7810-11cf-8f52-0040333594a3>
 STRING filename;
}

template Coords2d {
 <f6f23f44-7686-11cf-8f52-0040333594a3>
 FLOAT u;
 FLOAT v;
}

template MeshTextureCoords {
 <f6f23f40-7686-11cf-8f52-0040333594a3>
 DWORD nTextureCoords;
 array Coords2d textureCoords[nTextureCoords];
}

template MeshNormals {
 <f6f23f43-7686-11cf-8f52-0040333594a3>
 DWORD nNormals;
 array Vector normals[nNormals];
 DWORD nFaceNormals;
 array MeshFace faceNormals[nFaceNormals];
}


Mesh  {
 474;
 -7.000000;6.000000;-17.200001;,
 -7.000000;10.500000;-17.200001;,
 -7.000000;6.000000;-17.200001;,
 -7.000000;6.000000;-20.799999;,
 -7.000000;10.500000;-20.799999;,
 20.299999;6.000000;-17.200001;,
 20.299999;6.000000;-20.799999;,
 20.299999;10.500000;-20.799999;,
 20.299999;6.000000;-17.200001;,
 17.299999;6.000000;-17.200001;,
 17.299999;10.500000;-17.200001;,
 20.299999;6.000000;12.000000;,
 17.299999;6.000000;12.000000;,
 17.299999;10.500000;12.000000;,
 -7.010000;7.100000;-20.200001;,
 -7.010000;9.500000;-20.200001;,
 -7.010000;7.100000;-17.799999;,
 -7.010000;9.500000;-17.799999;,
 -6.700000;7.100000;-20.809999;,
 -6.700000;9.500000;-20.809999;,
 -4.300000;7.100000;-20.809999;,
 -4.300000;9.500000;-20.809999;,
 -3.800000;7.100000;-20.809999;,
 -3.800000;9.500000;-20.809999;,
 -1.400000;7.100000;-20.809999;,
 -1.400000;9.500000;-20.809999;,
 -0.900000;7.100000;-20.809999;,
 -0.900000;9.500000;-20.809999;,
 1.500000;7.100000;-20.809999;,
 1.500000;9.500000;-20.809999;,
 2.000000;7.100000;-20.809999;,
 2.000000;9.500000;-20.809999;,
 4.400000;7.100000;-20.809999;,
 4.400000;9.500000;-20.809999;,
 4.900000;7.100000;-20.809999;,
 4.900000;9.500000;-20.809999;,
 7.300000;7.100000;-20.809999;,
 7.300000;9.500000;-20.809999;,
 7.800000;7.100000;-20.809999;,
 7.800000;9.500000;-20.809999;,
 10.200000;7.100000;-20.809999;,
 10.200000;9.500000;-20.809999;,
 10.700000;7.100000;-20.809999;,
 10.700000;9.500000;-20.809999;,
 13.100000;7.100000;-20.809999;,
 13.100000;9.500000;-20.809999;,
 13.600000;7.100000;-20.809999;,
 13.600000;9.500000;-20.809999;,
 16.000000;7.100000;-20.809999;,
 16.000000;9.500000;-20.809999;,
 17.400000;7.100000;-20.809999;,
 17.400000;9.500000;-20.809999;,
 19.799999;7.100000;-20.809999;,
 19.799999;9.500000;-20.809999;,
 17.290001;7.100000;-14.700000;,
 17.290001;9.500000;-14.700000;,
 17.290001;7.100000;-12.300000;,
 17.290001;9.500000;-12.300000;,
 17.290001;7.100000;-11.800000;,
 17.290001;9.500000;-11.800000;,
 17.290001;7.100000;-9.400000;,
 17.290001;9.500000;-9.400000;,
 17.290001;7.100000;-8.900000;,
 17.290001;9.500000;-8.900000;,
 17.290001;7.100000;-6.500000;,
 17.290001;9.500000;-6.500000;,
 17.290001;7.100000;-6.000000;,
 17.290001;9.500000;-6.000000;,
 17.290001;7.100000;-3.600000;,
 17.290001;9.500000;-3.600000;,
 17.290001;7.100000;-3.100000;,
 17.290001;9.500000;-3.100000;,
 17.290001;7.100000;-0.700000;,
 17.290001;9.500000;-0.700000;,
 17.290001;7.100000;-0.200000;,
 17.290001;9.500000;-0.200000;,
 17.290001;7.100000;2.200000;,
 17.290001;9.500000;2.200000;,
 17.290001;7.100000;2.700000;,
 17.290001;9.500000;2.700000;,
 17.290001;7.100000;5.100000;,
 17.290001;9.500000;5.100000;,
 17.290001;7.100000;5.600000;,
 17.290001;9.500000;5.600000;,
 17.290001;7.100000;8.000000;,
 17.290001;9.500000;8.000000;,
 17.290001;7.100000;8.500000;,
 17.290001;9.500000;8.500000;,
 17.290001;7.100000;10.900000;,
 17.290001;9.500000;10.900000;,
 -7.000000;6.900000;-20.799999;,
 20.299999;6.900000;-20.799999;,
 -7.000000;6.900000;-20.799999;,
 -7.000000;6.900000;-21.799999;,
 20.299999;6.900000;-21.799999;,
 20.299999;6.900000;-20.799999;,
 -7.000000;8.100000;-20.799999;,
 -7.000000;8.100000;-21.799999;,
 20.299999;8.100000;-21.799999;,
 20.299999;8.100000;-20.799999;,
 -4.218999;6.099999;-18.999998;,
 -4.218999;1.100000;-18.999998;,
 -4.243471;6.099999;-18.845490;,
 -4.243471;1.100000;-18.845490;,
 -4.314491;6.099999;-18.706106;,
 -4.314491;1.100000;-18.706106;,
 -4.425107;6.099999;-18.595490;,
 -4.425107;1.100000;-18.595490;,
 -4.564491;6.099999;-18.524469;,
 -4.564491;1.100000;-18.524469;,
 -4.718999;6.099999;-18.499998;,
 -4.718999;1.100000;-18.499998;,
 -4.873508;6.099999;-18.524469;,
 -4.873508;1.100000;-18.524469;,
 -5.012892;6.099999;-18.595490;,
 -5.012892;1.100000;-18.595490;,
 -5.123508;6.099999;-18.706106;,
 -5.123508;1.100000;-18.706106;,
 -5.194528;6.099999;-18.845490;,
 -5.194528;1.100000;-18.845490;,
 -5.218999;6.099999;-18.999998;,
 -5.218999;1.100000;-18.999998;,
 -5.194528;6.099999;-19.154507;,
 -5.194528;1.100000;-19.154507;,
 -5.123508;6.099999;-19.293890;,
 -5.123508;1.100000;-19.293890;,
 -5.012892;6.099999;-19.404507;,
 -5.012892;1.100000;-19.404507;,
 -4.873508;6.099999;-19.475527;,
 -4.873508;1.100000;-19.475527;,
 -4.718999;6.099999;-19.499998;,
 -4.718999;1.100000;-19.499998;,
 -4.564491;6.099999;-19.475527;,
 -4.564491;1.100000;-19.475527;,
 -4.425107;6.099999;-19.404507;,
 -4.425107;1.100000;-19.404507;,
 -4.314491;6.099999;-19.293890;,
 -4.314491;1.100000;-19.293890;,
 -4.243471;6.099999;-19.154507;,
 -4.243471;1.100000;-19.154507;,
 -4.218999;2.750000;-18.999998;,
 -3.919000;1.250000;-18.999998;,
 -4.243471;2.750000;-18.845490;,
 -3.958154;1.250000;-18.752785;,
 -4.314491;2.750000;-18.706106;,
 -4.071786;1.250000;-18.529770;,
 -4.425107;2.750000;-18.595490;,
 -4.248771;1.250000;-18.352785;,
 -4.564491;2.750000;-18.524469;,
 -4.471786;1.250000;-18.239153;,
 -4.718999;2.750000;-18.499998;,
 -4.718999;1.250000;-18.199999;,
 -4.873508;2.750000;-18.524469;,
 -4.966213;1.250000;-18.239153;,
 -5.012892;2.750000;-18.595490;,
 -5.189228;1.250000;-18.352785;,
 -5.123508;2.750000;-18.706106;,
 -5.366213;1.250000;-18.529770;,
 -5.194528;2.750000;-18.845490;,
 -5.479845;1.250000;-18.752785;,
 -5.218999;2.750000;-18.999998;,
 -5.519000;1.250000;-18.999998;,
 -5.194528;2.750000;-19.154507;,
 -5.479845;1.250000;-19.247211;,
 -5.123508;2.750000;-19.293890;,
 -5.366213;1.250000;-19.470226;,
 -5.012892;2.750000;-19.404507;,
 -5.189228;1.250000;-19.647211;,
 -4.873508;2.750000;-19.475527;,
 -4.966213;1.250000;-19.760843;,
 -4.718999;2.750000;-19.499998;,
 -4.718999;1.250000;-19.799997;,
 -4.564491;2.750000;-19.475527;,
 -4.471786;1.250000;-19.760843;,
 -4.425107;2.750000;-19.404507;,
 -4.248771;1.250000;-19.647211;,
 -4.314491;2.750000;-19.293890;,
 -4.071786;1.250000;-19.470226;,
 -4.243471;2.750000;-19.154507;,
 -3.958154;1.250000;-19.247211;,
 -3.869000;1.350000;-18.999998;,
 -3.869000;1.050000;-18.999998;,
 -3.910602;1.350000;-18.737333;,
 -3.910602;1.050000;-18.737333;,
 -4.031335;1.350000;-18.500381;,
 -4.031335;1.050000;-18.500381;,
 -4.219382;1.350000;-18.312334;,
 -4.219382;1.050000;-18.312334;,
 -4.456335;1.350000;-18.191601;,
 -4.456335;1.050000;-18.191601;,
 -4.718999;1.350000;-18.149998;,
 -4.718999;1.050000;-18.149998;,
 -4.981664;1.350000;-18.191601;,
 -4.981664;1.050000;-18.191601;,
 -5.218617;1.350000;-18.312334;,
 -5.218617;1.050000;-18.312334;,
 -5.406664;1.350000;-18.500381;,
 -5.406664;1.050000;-18.500381;,
 -5.527398;1.350000;-18.737333;,
 -5.527398;1.050000;-18.737333;,
 -5.568999;1.350000;-18.999998;,
 -5.568999;1.050000;-18.999998;,
 -5.527398;1.350000;-19.262663;,
 -5.527398;1.050000;-19.262663;,
 -5.406664;1.350000;-19.499615;,
 -5.406664;1.050000;-19.499615;,
 -5.218617;1.350000;-19.687662;,
 -5.218617;1.050000;-19.687662;,
 -4.981664;1.350000;-19.808395;,
 -4.981664;1.050000;-19.808395;,
 -4.718999;1.350000;-19.849998;,
 -4.718999;1.050000;-19.849998;,
 -4.456335;1.350000;-19.808395;,
 -4.456335;1.050000;-19.808395;,
 -4.219382;1.350000;-19.687662;,
 -4.219382;1.050000;-19.687662;,
 -4.031335;1.350000;-19.499615;,
 -4.031335;1.050000;-19.499615;,
 -3.910602;1.350000;-19.262663;,
 -3.910602;1.050000;-19.262663;,
 9.674899;6.099999;-18.999998;,
 9.674899;1.100000;-18.999998;,
 9.650428;6.099999;-18.845490;,
 9.650428;1.100000;-18.845490;,
 9.579408;6.099999;-18.706106;,
 9.579408;1.100000;-18.706106;,
 9.468792;6.099999;-18.595490;,
 9.468792;1.100000;-18.595490;,
 9.329408;6.099999;-18.524469;,
 9.329408;1.100000;-18.524469;,
 9.174899;6.099999;-18.499998;,
 9.174899;1.100000;-18.499998;,
 9.020391;6.099999;-18.524469;,
 9.020391;1.100000;-18.524469;,
 8.881006;6.099999;-18.595490;,
 8.881006;1.100000;-18.595490;,
 8.770391;6.099999;-18.706106;,
 8.770391;1.100000;-18.706106;,
 8.699370;6.099999;-18.845490;,
 8.699370;1.100000;-18.845490;,
 8.674899;6.099999;-18.999998;,
 8.674899;1.100000;-18.999998;,
 8.699370;6.099999;-19.154507;,
 8.699370;1.100000;-19.154507;,
 8.770391;6.099999;-19.293890;,
 8.770391;1.100000;-19.293890;,
 8.881006;6.099999;-19.404507;,
 8.881006;1.100000;-19.404507;,
 9.020391;6.099999;-19.475527;,
 9.020391;1.100000;-19.475527;,
 9.174899;6.099999;-19.499998;,
 9.174899;1.100000;-19.499998;,
 9.329408;6.099999;-19.475527;,
 9.329408;1.100000;-19.475527;,
 9.468792;6.099999;-19.404507;,
 9.468792;1.100000;-19.404507;,
 9.579408;6.099999;-19.293890;,
 9.579408;1.100000;-19.293890;,
 9.650428;6.099999;-19.154507;,
 9.650428;1.100000;-19.154507;,
 9.674899;2.750000;-18.999998;,
 9.974899;1.250000;-18.999998;,
 9.650428;2.750000;-18.845490;,
 9.935744;1.250000;-18.752785;,
 9.579408;2.750000;-18.706106;,
 9.822113;1.250000;-18.529770;,
 9.468792;2.750000;-18.595490;,
 9.645127;1.250000;-18.352785;,
 9.329408;2.750000;-18.524469;,
 9.422112;1.250000;-18.239153;,
 9.174899;2.750000;-18.499998;,
 9.174899;1.250000;-18.199999;,
 9.020391;2.750000;-18.524469;,
 8.927686;1.250000;-18.239153;,
 8.881006;2.750000;-18.595490;,
 8.704671;1.250000;-18.352785;,
 8.770391;2.750000;-18.706106;,
 8.527685;1.250000;-18.529770;,
 8.699370;2.750000;-18.845490;,
 8.414054;1.250000;-18.752785;,
 8.674899;2.750000;-18.999998;,
 8.374899;1.250000;-18.999998;,
 8.699370;2.750000;-19.154507;,
 8.414054;1.250000;-19.247211;,
 8.770391;2.750000;-19.293890;,
 8.527685;1.250000;-19.470226;,
 8.881006;2.750000;-19.404507;,
 8.704671;1.250000;-19.647211;,
 9.020391;2.750000;-19.475527;,
 8.927686;1.250000;-19.760843;,
 9.174899;2.750000;-19.499998;,
 9.174899;1.250000;-19.799997;,
 9.329408;2.750000;-19.475527;,
 9.422112;1.250000;-19.760843;,
 9.468792;2.750000;-19.404507;,
 9.645127;1.250000;-19.647211;,
 9.579408;2.750000;-19.293890;,
 9.822113;1.250000;-19.470226;,
 9.650428;2.750000;-19.154507;,
 9.935744;1.250000;-19.247211;,
 10.024899;1.350000;-18.999998;,
 10.024899;1.050000;-18.999998;,
 9.983297;1.350000;-18.737333;,
 9.983297;1.050000;-18.737333;,
 9.862563;1.350000;-18.500381;,
 9.862563;1.050000;-18.500381;,
 9.674517;1.350000;-18.312334;,
 9.674517;1.050000;-18.312334;,
 9.437564;1.350000;-18.191601;,
 9.437564;1.050000;-18.191601;,
 9.174899;1.350000;-18.149998;,
 9.174899;1.050000;-18.149998;,
 8.912234;1.350000;-18.191601;,
 8.912234;1.050000;-18.191601;,
 8.675282;1.350000;-18.312334;,
 8.675282;1.050000;-18.312334;,
 8.487235;1.350000;-18.500381;,
 8.487235;1.050000;-18.500381;,
 8.366501;1.350000;-18.737333;,
 8.366501;1.050000;-18.737333;,
 8.324899;1.350000;-18.999998;,
 8.324899;1.050000;-18.999998;,
 8.366501;1.350000;-19.262663;,
 8.366501;1.050000;-19.262663;,
 8.487235;1.350000;-19.499615;,
 8.487235;1.050000;-19.499615;,
 8.675282;1.350000;-19.687662;,
 8.675282;1.050000;-19.687662;,
 8.912234;1.350000;-19.808395;,
 8.912234;1.050000;-19.808395;,
 9.174899;1.350000;-19.849998;,
 9.174899;1.050000;-19.849998;,
 9.437564;1.350000;-19.808395;,
 9.437564;1.050000;-19.808395;,
 9.674517;1.350000;-19.687662;,
 9.674517;1.050000;-19.687662;,
 9.862563;1.350000;-19.499615;,
 9.862563;1.050000;-19.499615;,
 9.983297;1.350000;-19.262663;,
 9.983297;1.050000;-19.262663;,
 19.299997;6.000000;-18.999998;,
 19.299997;-0.500000;-18.999998;,
 19.275526;6.000000;-18.845490;,
 19.275526;-0.500000;-18.845490;,
 19.204506;6.000000;-18.706106;,
 19.204506;-0.500000;-18.706106;,
 19.093889;6.000000;-18.595490;,
 19.093889;-0.500000;-18.595490;,
 18.954506;6.000000;-18.524469;,
 18.954506;-0.500000;-18.524469;,
 18.799997;6.000000;-18.499998;,
 18.799997;-0.500000;-18.499998;,
 18.645489;6.000000;-18.524469;,
 18.645489;-0.500000;-18.524469;,
 18.506105;6.000000;-18.595490;,
 18.506105;-0.500000;-18.595490;,
 18.395489;6.000000;-18.706106;,
 18.395489;-0.500000;-18.706106;,
 18.324469;6.000000;-18.845490;,
 18.324469;-0.500000;-18.845490;,
 18.299997;6.000000;-18.999998;,
 18.299997;-0.500000;-18.999998;,
 18.324469;6.000000;-19.154507;,
 18.324469;-0.500000;-19.154507;,
 18.395489;6.000000;-19.293890;,
 18.395489;-0.500000;-19.293890;,
 18.506105;6.000000;-19.404507;,
 18.506105;-0.500000;-19.404507;,
 18.645489;6.000000;-19.475527;,
 18.645489;-0.500000;-19.475527;,
 18.799997;6.000000;-19.499998;,
 18.799997;-0.500000;-19.499998;,
 18.954506;6.000000;-19.475527;,
 18.954506;-0.500000;-19.475527;,
 19.093889;6.000000;-19.404507;,
 19.093889;-0.500000;-19.404507;,
 19.204506;6.000000;-19.293890;,
 19.204506;-0.500000;-19.293890;,
 19.275526;6.000000;-19.154507;,
 19.275526;-0.500000;-19.154507;,
 19.299997;6.000000;4.000000;,
 19.299997;-0.500000;4.000000;,
 19.275526;6.000000;4.154508;,
 19.275526;-0.500000;4.154508;,
 19.204506;6.000000;4.293892;,
 19.204506;-0.500000;4.293892;,
 19.093889;6.000000;4.404508;,
 19.093889;-0.500000;4.404508;,
 18.954506;6.000000;4.475528;,
 18.954506;-0.500000;4.475528;,
 18.799997;6.000000;4.500000;,
 18.799997;-0.500000;4.500000;,
 18.645489;6.000000;4.475528;,
 18.645489;-0.500000;4.475528;,
 18.506105;6.000000;4.404508;,
 18.506105;-0.500000;4.404508;,
 18.395489;6.000000;4.293892;,
 18.395489;-0.500000;4.293892;,
 18.324469;6.000000;4.154508;,
 18.324469;-0.500000;4.154508;,
 18.299997;6.000000;4.000000;,
 18.299997;-0.500000;4.000000;,
 18.324469;6.000000;3.845491;,
 18.324469;-0.500000;3.845491;,
 18.395489;6.000000;3.706107;,
 18.395489;-0.500000;3.706107;,
 18.506105;6.000000;3.595491;,
 18.506105;-0.500000;3.595491;,
 18.645489;6.000000;3.524472;,
 18.645489;-0.500000;3.524472;,
 18.799997;6.000000;3.500000;,
 18.799997;-0.500000;3.500000;,
 18.954506;6.000000;3.524472;,
 18.954506;-0.500000;3.524472;,
 19.093889;6.000000;3.595491;,
 19.093889;-0.500000;3.595491;,
 19.204506;6.000000;3.706107;,
 19.204506;-0.500000;3.706107;,
 19.275526;6.000000;3.845491;,
 19.275526;-0.500000;3.845491;,
 19.299997;6.000000;19.999998;,
 19.299997;-0.500000;19.999998;,
 19.275526;6.000000;20.154507;,
 19.275526;-0.500000;20.154507;,
 19.204506;6.000000;20.293890;,
 19.204506;-0.500000;20.293890;,
 19.093889;6.000000;20.404507;,
 19.093889;-0.500000;20.404507;,
 18.954506;6.000000;20.475527;,
 18.954506;-0.500000;20.475527;,
 18.799997;6.000000;20.499998;,
 18.799997;-0.500000;20.499998;,
 18.645489;6.000000;20.475527;,
 18.645489;-0.500000;20.475527;,
 18.506105;6.000000;20.404507;,
 18.506105;-0.500000;20.404507;,
 18.395489;6.000000;20.293890;,
 18.395489;-0.500000;20.293890;,
 18.324469;6.000000;20.154507;,
 18.324469;-0.500000;20.154507;,
 18.299997;6.000000;19.999998;,
 18.299997;-0.500000;19.999998;,
 18.324469;6.000000;19.845490;,
 18.324469;-0.500000;19.845490;,
 18.395489;6.000000;19.706106;,
 18.395489;-0.500000;19.706106;,
 18.506105;6.000000;19.595490;,
 18.506105;-0.500000;19.595490;,
 18.645489;6.000000;19.524469;,
 18.645489;-0.500000;19.524469;,
 18.799997;6.000000;19.499998;,
 18.799997;-0.500000;19.499998;,
 18.954506;6.000000;19.524469;,
 18.954506;-0.500000;19.524469;,
 19.093889;6.000000;19.595490;,
 19.093889;-0.500000;19.595490;,
 19.204506;6.000000;19.706106;,
 19.204506;-0.500000;19.706106;,
 19.275526;6.000000;19.845490;,
 19.275526;-0.500000;19.845490;,
 -6.219000;1.100000;-14.200000;,
 -6.219000;10.500000;-14.200000;,
 -6.219000;1.100000;-17.200001;,
 -6.219000;10.500000;-17.200001;,
 -3.219000;1.100000;-17.200001;,
 -3.219000;10.500000;-17.200001;,
 -3.219000;1.100000;-14.200000;,
 -3.219000;10.500000;-14.200000;,
 7.674900;1.100000;-14.200000;,
 7.674900;10.000000;-14.200000;,
 7.674900;1.100000;-17.200001;,
 7.674900;10.000000;-17.200001;,
 10.674900;1.100000;-17.200001;,
 10.674900;10.000000;-17.200001;;
 754;
 3;0,1,4;,
 3;0,4,3;,
 3;2,3,6;,
 3;2,6,5;,
 3;3,4,7;,
 3;3,7,6;,
 3;11,12,9;,
 3;11,9,8;,
 3;12,13,10;,
 3;12,10,9;,
 3;16,17,15;,
 3;16,15,14;,
 3;18,19,21;,
 3;18,21,20;,
 3;22,23,25;,
 3;22,25,24;,
 3;26,27,29;,
 3;26,29,28;,
 3;30,31,33;,
 3;30,33,32;,
 3;34,35,37;,
 3;34,37,36;,
 3;38,39,41;,
 3;38,41,40;,
 3;42,43,45;,
 3;42,45,44;,
 3;46,47,49;,
 3;46,49,48;,
 3;50,51,53;,
 3;50,53,52;,
 3;56,57,55;,
 3;56,55,54;,
 3;60,61,59;,
 3;60,59,58;,
 3;64,65,63;,
 3;64,63,62;,
 3;68,69,67;,
 3;68,67,66;,
 3;72,73,71;,
 3;72,71,70;,
 3;76,77,75;,
 3;76,75,74;,
 3;80,81,79;,
 3;80,79,78;,
 3;84,85,83;,
 3;84,83,82;,
 3;88,89,87;,
 3;88,87,86;,
 3;93,94,91;,
 3;93,91,90;,
 3;96,97,93;,
 3;96,93,92;,
 3;92,93,97;,
 3;92,97,96;,
 3;97,98,94;,
 3;97,94,93;,
 3;98,99,95;,
 3;98,95,94;,
 3;94,95,99;,
 3;94,99,98;,
 3;101,100,102;,
 3;101,102,103;,
 3;103,102,104;,
 3;103,104,105;,
 3;105,104,106;,
 3;105,106,107;,
 3;107,106,108;,
 3;107,108,109;,
 3;109,108,110;,
 3;109,110,111;,
 3;111,110,112;,
 3;111,112,113;,
 3;113,112,114;,
 3;113,114,115;,
 3;115,114,116;,
 3;115,116,117;,
 3;117,116,118;,
 3;117,118,119;,
 3;119,118,120;,
 3;119,120,121;,
 3;121,120,122;,
 3;121,122,123;,
 3;123,122,124;,
 3;123,124,125;,
 3;125,124,126;,
 3;125,126,127;,
 3;127,126,128;,
 3;127,128,129;,
 3;129,128,130;,
 3;129,130,131;,
 3;131,130,132;,
 3;131,132,133;,
 3;133,132,134;,
 3;133,134,135;,
 3;135,134,136;,
 3;135,136,137;,
 3;137,136,138;,
 3;137,138,139;,
 3;139,138,100;,
 3;139,100,101;,
 3;138,136,134;,
 3;138,134,132;,
 3;138,132,130;,
 3;138,130,128;,
 3;138,128,126;,
 3;138,126,124;,
 3;138,124,122;,
 3;138,122,120;,
 3;138,120,118;,
 3;138,118,116;,
 3;138,116,114;,
 3;138,114,112;,
 3;138,112,110;,
 3;138,110,108;,
 3;138,108,106;,
 3;138,106,104;,
 3;138,104,102;,
 3;138,102,100;,
 3;101,103,105;,
 3;101,105,107;,
 3;101,107,109;,
 3;101,109,111;,
 3;101,111,113;,
 3;101,113,115;,
 3;101,115,117;,
 3;101,117,119;,
 3;101,119,121;,
 3;101,121,123;,
 3;101,123,125;,
 3;101,125,127;,
 3;101,127,129;,
 3;101,129,131;,
 3;101,131,133;,
 3;101,133,135;,
 3;101,135,137;,
 3;101,137,139;,
 3;141,140,142;,
 3;141,142,143;,
 3;143,142,144;,
 3;143,144,145;,
 3;145,144,146;,
 3;145,146,147;,
 3;147,146,148;,
 3;147,148,149;,
 3;149,148,150;,
 3;149,150,151;,
 3;151,150,152;,
 3;151,152,153;,
 3;153,152,154;,
 3;153,154,155;,
 3;155,154,156;,
 3;155,156,157;,
 3;157,156,158;,
 3;157,158,159;,
 3;159,158,160;,
 3;159,160,161;,
 3;161,160,162;,
 3;161,162,163;,
 3;163,162,164;,
 3;163,164,165;,
 3;165,164,166;,
 3;165,166,167;,
 3;167,166,168;,
 3;167,168,169;,
 3;169,168,170;,
 3;169,170,171;,
 3;171,170,172;,
 3;171,172,173;,
 3;173,172,174;,
 3;173,174,175;,
 3;175,174,176;,
 3;175,176,177;,
 3;177,176,178;,
 3;177,178,179;,
 3;179,178,140;,
 3;179,140,141;,
 3;178,176,174;,
 3;178,174,172;,
 3;178,172,170;,
 3;178,170,168;,
 3;178,168,166;,
 3;178,166,164;,
 3;178,164,162;,
 3;178,162,160;,
 3;178,160,158;,
 3;178,158,156;,
 3;178,156,154;,
 3;178,154,152;,
 3;178,152,150;,
 3;178,150,148;,
 3;178,148,146;,
 3;178,146,144;,
 3;178,144,142;,
 3;178,142,140;,
 3;141,143,145;,
 3;141,145,147;,
 3;141,147,149;,
 3;141,149,151;,
 3;141,151,153;,
 3;141,153,155;,
 3;141,155,157;,
 3;141,157,159;,
 3;141,159,161;,
 3;141,161,163;,
 3;141,163,165;,
 3;141,165,167;,
 3;141,167,169;,
 3;141,169,171;,
 3;141,171,173;,
 3;141,173,175;,
 3;141,175,177;,
 3;141,177,179;,
 3;181,180,182;,
 3;181,182,183;,
 3;183,182,184;,
 3;183,184,185;,
 3;185,184,186;,
 3;185,186,187;,
 3;187,186,188;,
 3;187,188,189;,
 3;189,188,190;,
 3;189,190,191;,
 3;191,190,192;,
 3;191,192,193;,
 3;193,192,194;,
 3;193,194,195;,
 3;195,194,196;,
 3;195,196,197;,
 3;197,196,198;,
 3;197,198,199;,
 3;199,198,200;,
 3;199,200,201;,
 3;201,200,202;,
 3;201,202,203;,
 3;203,202,204;,
 3;203,204,205;,
 3;205,204,206;,
 3;205,206,207;,
 3;207,206,208;,
 3;207,208,209;,
 3;209,208,210;,
 3;209,210,211;,
 3;211,210,212;,
 3;211,212,213;,
 3;213,212,214;,
 3;213,214,215;,
 3;215,214,216;,
 3;215,216,217;,
 3;217,216,218;,
 3;217,218,219;,
 3;219,218,180;,
 3;219,180,181;,
 3;218,216,214;,
 3;218,214,212;,
 3;218,212,210;,
 3;218,210,208;,
 3;218,208,206;,
 3;218,206,204;,
 3;218,204,202;,
 3;218,202,200;,
 3;218,200,198;,
 3;218,198,196;,
 3;218,196,194;,
 3;218,194,192;,
 3;218,192,190;,
 3;218,190,188;,
 3;218,188,186;,
 3;218,186,184;,
 3;218,184,182;,
 3;218,182,180;,
 3;181,183,185;,
 3;181,185,187;,
 3;181,187,189;,
 3;181,189,191;,
 3;181,191,193;,
 3;181,193,195;,
 3;181,195,197;,
 3;181,197,199;,
 3;181,199,201;,
 3;181,201,203;,
 3;181,203,205;,
 3;181,205,207;,
 3;181,207,209;,
 3;181,209,211;,
 3;181,211,213;,
 3;181,213,215;,
 3;181,215,217;,
 3;181,217,219;,
 3;221,220,222;,
 3;221,222,223;,
 3;223,222,224;,
 3;223,224,225;,
 3;225,224,226;,
 3;225,226,227;,
 3;227,226,228;,
 3;227,228,229;,
 3;229,228,230;,
 3;229,230,231;,
 3;231,230,232;,
 3;231,232,233;,
 3;233,232,234;,
 3;233,234,235;,
 3;235,234,236;,
 3;235,236,237;,
 3;237,236,238;,
 3;237,238,239;,
 3;239,238,240;,
 3;239,240,241;,
 3;241,240,242;,
 3;241,242,243;,
 3;243,242,244;,
 3;243,244,245;,
 3;245,244,246;,
 3;245,246,247;,
 3;247,246,248;,
 3;247,248,249;,
 3;249,248,250;,
 3;249,250,251;,
 3;251,250,252;,
 3;251,252,253;,
 3;253,252,254;,
 3;253,254,255;,
 3;255,254,256;,
 3;255,256,257;,
 3;257,256,258;,
 3;257,258,259;,
 3;259,258,220;,
 3;259,220,221;,
 3;258,256,254;,
 3;258,254,252;,
 3;258,252,250;,
 3;258,250,248;,
 3;258,248,246;,
 3;258,246,244;,
 3;258,244,242;,
 3;258,242,240;,
 3;258,240,238;,
 3;258,238,236;,
 3;258,236,234;,
 3;258,234,232;,
 3;258,232,230;,
 3;258,230,228;,
 3;258,228,226;,
 3;258,226,224;,
 3;258,224,222;,
 3;258,222,220;,
 3;221,223,225;,
 3;221,225,227;,
 3;221,227,229;,
 3;221,229,231;,
 3;221,231,233;,
 3;221,233,235;,
 3;221,235,237;,
 3;221,237,239;,
 3;221,239,241;,
 3;221,241,243;,
 3;221,243,245;,
 3;221,245,247;,
 3;221,247,249;,
 3;221,249,251;,
 3;221,251,253;,
 3;221,253,255;,
 3;221,255,257;,
 3;221,257,259;,
 3;261,260,262;,
 3;261,262,263;,
 3;263,262,264;,
 3;263,264,265;,
 3;265,264,266;,
 3;265,266,267;,
 3;267,266,268;,
 3;267,268,269;,
 3;269,268,270;,
 3;269,270,271;,
 3;271,270,272;,
 3;271,272,273;,
 3;273,272,274;,
 3;273,274,275;,
 3;275,274,276;,
 3;275,276,277;,
 3;277,276,278;,
 3;277,278,279;,
 3;279,278,280;,
 3;279,280,281;,
 3;281,280,282;,
 3;281,282,283;,
 3;283,282,284;,
 3;283,284,285;,
 3;285,284,286;,
 3;285,286,287;,
 3;287,286,288;,
 3;287,288,289;,
 3;289,288,290;,
 3;289,290,291;,
 3;291,290,292;,
 3;291,292,293;,
 3;293,292,294;,
 3;293,294,295;,
 3;295,294,296;,
 3;295,296,297;,
 3;297,296,298;,
 3;297,298,299;,
 3;299,298,260;,
 3;299,260,261;,
 3;298,296,294;,
 3;298,294,292;,
 3;298,292,290;,
 3;298,290,288;,
 3;298,288,286;,
 3;298,286,284;,
 3;298,284,282;,
 3;298,282,280;,
 3;298,280,278;,
 3;298,278,276;,
 3;298,276,274;,
 3;298,274,272;,
 3;298,272,270;,
 3;298,270,268;,
 3;298,268,266;,
 3;298,266,264;,
 3;298,264,262;,
 3;298,262,260;,
 3;261,263,265;,
 3;261,265,267;,
 3;261,267,269;,
 3;261,269,271;,
 3;261,271,273;,
 3;261,273,275;,
 3;261,275,277;,
 3;261,277,279;,
 3;261,279,281;,
 3;261,281,283;,
 3;261,283,285;,
 3;261,285,287;,
 3;261,287,289;,
 3;261,289,291;,
 3;261,291,293;,
 3;261,293,295;,
 3;261,295,297;,
 3;261,297,299;,
 3;301,300,302;,
 3;301,302,303;,
 3;303,302,304;,
 3;303,304,305;,
 3;305,304,306;,
 3;305,306,307;,
 3;307,306,308;,
 3;307,308,309;,
 3;309,308,310;,
 3;309,310,311;,
 3;311,310,312;,
 3;311,312,313;,
 3;313,312,314;,
 3;313,314,315;,
 3;315,314,316;,
 3;315,316,317;,
 3;317,316,318;,
 3;317,318,319;,
 3;319,318,320;,
 3;319,320,321;,
 3;321,320,322;,
 3;321,322,323;,
 3;323,322,324;,
 3;323,324,325;,
 3;325,324,326;,
 3;325,326,327;,
 3;327,326,328;,
 3;327,328,329;,
 3;329,328,330;,
 3;329,330,331;,
 3;331,330,332;,
 3;331,332,333;,
 3;333,332,334;,
 3;333,334,335;,
 3;335,334,336;,
 3;335,336,337;,
 3;337,336,338;,
 3;337,338,339;,
 3;339,338,300;,
 3;339,300,301;,
 3;338,336,334;,
 3;338,334,332;,
 3;338,332,330;,
 3;338,330,328;,
 3;338,328,326;,
 3;338,326,324;,
 3;338,324,322;,
 3;338,322,320;,
 3;338,320,318;,
 3;338,318,316;,
 3;338,316,314;,
 3;338,314,312;,
 3;338,312,310;,
 3;338,310,308;,
 3;338,308,306;,
 3;338,306,304;,
 3;338,304,302;,
 3;338,302,300;,
 3;301,303,305;,
 3;301,305,307;,
 3;301,307,309;,
 3;301,309,311;,
 3;301,311,313;,
 3;301,313,315;,
 3;301,315,317;,
 3;301,317,319;,
 3;301,319,321;,
 3;301,321,323;,
 3;301,323,325;,
 3;301,325,327;,
 3;301,327,329;,
 3;301,329,331;,
 3;301,331,333;,
 3;301,333,335;,
 3;301,335,337;,
 3;301,337,339;,
 3;341,340,342;,
 3;341,342,343;,
 3;343,342,344;,
 3;343,344,345;,
 3;345,344,346;,
 3;345,346,347;,
 3;347,346,348;,
 3;347,348,349;,
 3;349,348,350;,
 3;349,350,351;,
 3;351,350,352;,
 3;351,352,353;,
 3;353,352,354;,
 3;353,354,355;,
 3;355,354,356;,
 3;355,356,357;,
 3;357,356,358;,
 3;357,358,359;,
 3;359,358,360;,
 3;359,360,361;,
 3;361,360,362;,
 3;361,362,363;,
 3;363,362,364;,
 3;363,364,365;,
 3;365,364,366;,
 3;365,366,367;,
 3;367,366,368;,
 3;367,368,369;,
 3;369,368,370;,
 3;369,370,371;,
 3;371,370,372;,
 3;371,372,373;,
 3;373,372,374;,
 3;373,374,375;,
 3;375,374,376;,
 3;375,376,377;,
 3;377,376,378;,
 3;377,378,379;,
 3;379,378,340;,
 3;379,340,341;,
 3;378,376,374;,
 3;378,374,372;,
 3;378,372,370;,
 3;378,370,368;,
 3;378,368,366;,
 3;378,366,364;,
 3;378,364,362;,
 3;378,362,360;,
 3;378,360,358;,
 3;378,358,356;,
 3;378,356,354;,
 3;378,354,352;,
 3;378,352,350;,
 3;378,350,348;,
 3;378,348,346;,
 3;378,346,344;,
 3;378,344,342;,
 3;378,342,340;,
 3;341,343,345;,
 3;341,345,347;,
 3;341,347,349;,
 3;341,349,351;,
 3;341,351,353;,
 3;341,353,355;,
 3;341,355,357;,
 3;341,357,359;,
 3;341,359,361;,
 3;341,361,363;,
 3;341,363,365;,
 3;341,365,367;,
 3;341,367,369;,
 3;341,369,371;,
 3;341,371,373;,
 3;341,373,375;,
 3;341,375,377;,
 3;341,377,379;,
 3;381,380,382;,
 3;381,382,383;,
 3;383,382,384;,
 3;383,384,385;,
 3;385,384,386;,
 3;385,386,387;,
 3;387,386,388;,
 3;387,388,389;,
 3;389,388,390;,
 3;389,390,391;,
 3;391,390,392;,
 3;391,392,393;,
 3;393,392,394;,
 3;393,394,395;,
 3;395,394,396;,
 3;395,396,397;,
 3;397,396,398;,
 3;397,398,399;,
 3;399,398,400;,
 3;399,400,401;,
 3;401,400,402;,
 3;401,402,403;,
 3;403,402,404;,
 3;403,404,405;,
 3;405,404,406;,
 3;405,406,407;,
 3;407,406,408;,
 3;407,408,409;,
 3;409,408,410;,
 3;409,410,411;,
 3;411,410,412;,
 3;411,412,413;,
 3;413,412,414;,
 3;413,414,415;,
 3;415,414,416;,
 3;415,416,417;,
 3;417,416,418;,
 3;417,418,419;,
 3;419,418,380;,
 3;419,380,381;,
 3;418,416,414;,
 3;418,414,412;,
 3;418,412,410;,
 3;418,410,408;,
 3;418,408,406;,
 3;418,406,404;,
 3;418,404,402;,
 3;418,402,400;,
 3;418,400,398;,
 3;418,398,396;,
 3;418,396,394;,
 3;418,394,392;,
 3;418,392,390;,
 3;418,390,388;,
 3;418,388,386;,
 3;418,386,384;,
 3;418,384,382;,
 3;418,382,380;,
 3;381,383,385;,
 3;381,385,387;,
 3;381,387,389;,
 3;381,389,391;,
 3;381,391,393;,
 3;381,393,395;,
 3;381,395,397;,
 3;381,397,399;,
 3;381,399,401;,
 3;381,401,403;,
 3;381,403,405;,
 3;381,405,407;,
 3;381,407,409;,
 3;381,409,411;,
 3;381,411,413;,
 3;381,413,415;,
 3;381,415,417;,
 3;381,417,419;,
 3;421,420,422;,
 3;421,422,423;,
 3;423,422,424;,
 3;423,424,425;,
 3;425,424,426;,
 3;425,426,427;,
 3;427,426,428;,
 3;427,428,429;,
 3;429,428,430;,
 3;429,430,431;,
 3;431,430,432;,
 3;431,432,433;,
 3;433,432,434;,
 3;433,434,435;,
 3;435,434,436;,
 3;435,436,437;,
 3;437,436,438;,
 3;437,438,439;,
 3;439,438,440;,
 3;439,440,441;,
 3;441,440,442;,
 3;441,442,443;,
 3;443,442,444;,
 3;443,444,445;,
 3;445,444,446;,
 3;445,446,447;,
 3;447,446,448;,
 3;447,448,449;,
 3;449,448,450;,
 3;449,450,451;,
 3;451,450,452;,
 3;451,452,453;,
 3;453,452,454;,
 3;453,454,455;,
 3;455,454,456;,
 3;455,456,457;,
 3;457,456,458;,
 3;457,458,459;,
 3;459,458,420;,
 3;459,420,421;,
 3;458,456,454;,
 3;458,454,452;,
 3;458,452,450;,
 3;458,450,448;,
 3;458,448,446;,
 3;458,446,444;,
 3;458,444,442;,
 3;458,442,440;,
 3;458,440,438;,
 3;458,438,436;,
 3;458,436,434;,
 3;458,434,432;,
 3;458,432,430;,
 3;458,430,428;,
 3;458,428,426;,
 3;458,426,424;,
 3;458,424,422;,
 3;458,422,420;,
 3;421,423,425;,
 3;421,425,427;,
 3;421,427,429;,
 3;421,429,431;,
 3;421,431,433;,
 3;421,433,435;,
 3;421,435,437;,
 3;421,437,439;,
 3;421,439,441;,
 3;421,441,443;,
 3;421,443,445;,
 3;421,445,447;,
 3;421,447,449;,
 3;421,449,451;,
 3;421,451,453;,
 3;421,453,455;,
 3;421,455,457;,
 3;421,457,459;,
 3;460,461,463;,
 3;460,463,462;,
 3;462,463,465;,
 3;462,465,464;,
 3;464,465,467;,
 3;464,467,466;,
 3;468,469,471;,
 3;468,471,470;,
 3;470,471,473;,
 3;470,473,472;;

 MeshMaterialList  {
  33;
  754;
  0,
  0,
  0,
  0,
  0,
  0,
  1,
  1,
  1,
  1,
  2,
  2,
  3,
  3,
  4,
  4,
  5,
  5,
  6,
  6,
  7,
  7,
  8,
  8,
  9,
  9,
  10,
  10,
  11,
  11,
  12,
  12,
  13,
  13,
  14,
  14,
  15,
  15,
  16,
  16,
  17,
  17,
  18,
  18,
  19,
  19,
  20,
  20,
  21,
  21,
  21,
  21,
  21,
  21,
  21,
  21,
  21,
  21,
  21,
  21,
  22,
  22,
  22,
  22,
  22,
  22,
  22,
  22,
  22,
  22,
  22,
  22,
  22,
  22,
  22,
  22,
  22,
  22,
  22,
  22,
  22,
  22,
  22,
  22,
  22,
  22,
  22,
  22,
  22,
  22,
  22,
  22,
  22,
  22,
  22,
  22,
  22,
  22,
  22,
  22,
  22,
  22,
  22,
  22,
  22,
  22,
  22,
  22,
  22,
  22,
  22,
  22,
  22,
  22,
  22,
  22,
  22,
  22,
  22,
  22,
  22,
  22,
  22,
  22,
  22,
  22,
  22,
  22,
  22,
  22,
  22,
  22,
  22,
  22,
  22,
  22,
  23,
  23,
  23,
  23,
  23,
  23,
  23,
  23,
  23,
  23,
  23,
  23,
  23,
  23,
  23,
  23,
  23,
  23,
  23,
  23,
  23,
  23,
  23,
  23,
  23,
  23,
  23,
  23,
  23,
  23,
  23,
  23,
  23,
  23,
  23,
  23,
  23,
  23,
  23,
  23,
  23,
  23,
  23,
  23,
  23,
  23,
  23,
  23,
  23,
  23,
  23,
  23,
  23,
  23,
  23,
  23,
  23,
  23,
  23,
  23,
  23,
  23,
  23,
  23,
  23,
  23,
  23,
  23,
  23,
  23,
  23,
  23,
  23,
  23,
  23,
  23,
  24,
  24,
  24,
  24,
  24,
  24,
  24,
  24,
  24,
  24,
  24,
  24,
  24,
  24,
  24,
  24,
  24,
  24,
  24,
  24,
  24,
  24,
  24,
  24,
  24,
  24,
  24,
  24,
  24,
  24,
  24,
  24,
  24,
  24,
  24,
  24,
  24,
  24,
  24,
  24,
  24,
  24,
  24,
  24,
  24,
  24,
  24,
  24,
  24,
  24,
  24,
  24,
  24,
  24,
  24,
  24,
  24,
  24,
  24,
  24,
  24,
  24,
  24,
  24,
  24,
  24,
  24,
  24,
  24,
  24,
  24,
  24,
  24,
  24,
  24,
  24,
  25,
  25,
  25,
  25,
  25,
  25,
  25,
  25,
  25,
  25,
  25,
  25,
  25,
  25,
  25,
  25,
  25,
  25,
  25,
  25,
  25,
  25,
  25,
  25,
  25,
  25,
  25,
  25,
  25,
  25,
  25,
  25,
  25,
  25,
  25,
  25,
  25,
  25,
  25,
  25,
  25,
  25,
  25,
  25,
  25,
  25,
  25,
  25,
  25,
  25,
  25,
  25,
  25,
  25,
  25,
  25,
  25,
  25,
  25,
  25,
  25,
  25,
  25,
  25,
  25,
  25,
  25,
  25,
  25,
  25,
  25,
  25,
  25,
  25,
  25,
  25,
  26,
  26,
  26,
  26,
  26,
  26,
  26,
  26,
  26,
  26,
  26,
  26,
  26,
  26,
  26,
  26,
  26,
  26,
  26,
  26,
  26,
  26,
  26,
  26,
  26,
  26,
  26,
  26,
  26,
  26,
  26,
  26,
  26,
  26,
  26,
  26,
  26,
  26,
  26,
  26,
  26,
  26,
  26,
  26,
  26,
  26,
  26,
  26,
  26,
  26,
  26,
  26,
  26,
  26,
  26,
  26,
  26,
  26,
  26,
  26,
  26,
  26,
  26,
  26,
  26,
  26,
  26,
  26,
  26,
  26,
  26,
  26,
  26,
  26,
  26,
  26,
  27,
  27,
  27,
  27,
  27,
  27,
  27,
  27,
  27,
  27,
  27,
  27,
  27,
  27,
  27,
  27,
  27,
  27,
  27,
  27,
  27,
  27,
  27,
  27,
  27,
  27,
  27,
  27,
  27,
  27,
  27,
  27,
  27,
  27,
  27,
  27,
  27,
  27,
  27,
  27,
  27,
  27,
  27,
  27,
  27,
  27,
  27,
  27,
  27,
  27,
  27,
  27,
  27,
  27,
  27,
  27,
  27,
  27,
  27,
  27,
  27,
  27,
  27,
  27,
  27,
  27,
  27,
  27,
  27,
  27,
  27,
  27,
  27,
  27,
  27,
  27,
  28,
  28,
  28,
  28,
  28,
  28,
  28,
  28,
  28,
  28,
  28,
  28,
  28,
  28,
  28,
  28,
  28,
  28,
  28,
  28,
  28,
  28,
  28,
  28,
  28,
  28,
  28,
  28,
  28,
  28,
  28,
  28,
  28,
  28,
  28,
  28,
  28,
  28,
  28,
  28,
  28,
  28,
  28,
  28,
  28,
  28,
  28,
  28,
  28,
  28,
  28,
  28,
  28,
  28,
  28,
  28,
  28,
  28,
  28,
  28,
  28,
  28,
  28,
  28,
  28,
  28,
  28,
  28,
  28,
  28,
  28,
  28,
  28,
  28,
  28,
  28,
  29,
  29,
  29,
  29,
  29,
  29,
  29,
  29,
  29,
  29,
  29,
  29,
  29,
  29,
  29,
  29,
  29,
  29,
  29,
  29,
  29,
  29,
  29,
  29,
  29,
  29,
  29,
  29,
  29,
  29,
  29,
  29,
  29,
  29,
  29,
  29,
  29,
  29,
  29,
  29,
  29,
  29,
  29,
  29,
  29,
  29,
  29,
  29,
  29,
  29,
  29,
  29,
  29,
  29,
  29,
  29,
  29,
  29,
  29,
  29,
  29,
  29,
  29,
  29,
  29,
  29,
  29,
  29,
  29,
  29,
  29,
  29,
  29,
  29,
  29,
  29,
  30,
  30,
  30,
  30,
  30,
  30,
  30,
  30,
  30,
  30,
  30,
  30,
  30,
  30,
  30,
  30,
  30,
  30,
  30,
  30,
  30,
  30,
  30,
  30,
  30,
  30,
  30,
  30,
  30,
  30,
  30,
  30,
  30,
  30,
  30,
  30,
  30,
  30,
  30,
  30,
  30,
  30,
  30,
  30,
  30,
  30,
  30,
  30,
  30,
  30,
  30,
  30,
  30,
  30,
  30,
  30,
  30,
  30,
  30,
  30,
  30,
  30,
  30,
  30,
  30,
  30,
  30,
  30,
  30,
  30,
  30,
  30,
  30,
  30,
  30,
  30,
  31,
  31,
  31,
  31,
  31,
  31,
  32,
  32,
  32,
  32;

  Material  {
   1.000000;1.000000;1.000000;1.000000;;
   0.000000;
   0.000000;0.000000;0.000000;;
   0.000000;0.000000;0.000000;;

   TextureFilename  {
    "EV_Wall1.png";
   }
  }

  Material  {
   1.000000;1.000000;1.000000;1.000000;;
   0.000000;
   0.000000;0.000000;0.000000;;
   0.000000;0.000000;0.000000;;

   TextureFilename  {
    "EV_Wall1.png";
   }
  }

  Material  {
   1.000000;1.000000;1.000000;1.000000;;
   0.000000;
   0.000000;0.000000;0.000000;;
   0.000000;0.000000;0.000000;;

   TextureFilename  {
    "EV_Window1.png";
   }
  }

  Material  {
   1.000000;1.000000;1.000000;1.000000;;
   0.000000;
   0.000000;0.000000;0.000000;;
   0.000000;0.000000;0.000000;;

   TextureFilename  {
    "EV_Window1.png";
   }
  }

  Material  {
   1.000000;1.000000;1.000000;1.000000;;
   0.000000;
   0.000000;0.000000;0.000000;;
   0.000000;0.000000;0.000000;;

   TextureFilename  {
    "EV_Window2.png";
   }
  }

  Material  {
   1.000000;1.000000;1.000000;1.000000;;
   0.000000;
   0.000000;0.000000;0.000000;;
   0.000000;0.000000;0.000000;;

   TextureFilename  {
    "EV_Window1.png";
   }
  }

  Material  {
   1.000000;1.000000;1.000000;1.000000;;
   0.000000;
   0.000000;0.000000;0.000000;;
   0.000000;0.000000;0.000000;;

   TextureFilename  {
    "EV_Window1.png";
   }
  }

  Material  {
   1.000000;1.000000;1.000000;1.000000;;
   0.000000;
   0.000000;0.000000;0.000000;;
   0.000000;0.000000;0.000000;;

   TextureFilename  {
    "EV_Window2.png";
   }
  }

  Material  {
   1.000000;1.000000;1.000000;1.000000;;
   0.000000;
   0.000000;0.000000;0.000000;;
   0.000000;0.000000;0.000000;;

   TextureFilename  {
    "EV_Window1.png";
   }
  }

  Material  {
   1.000000;1.000000;1.000000;1.000000;;
   0.000000;
   0.000000;0.000000;0.000000;;
   0.000000;0.000000;0.000000;;

   TextureFilename  {
    "EV_Window2.png";
   }
  }

  Material  {
   1.000000;1.000000;1.000000;1.000000;;
   0.000000;
   0.000000;0.000000;0.000000;;
   0.000000;0.000000;0.000000;;

   TextureFilename  {
    "EV_Window1.png";
   }
  }

  Material  {
   1.000000;1.000000;1.000000;1.000000;;
   0.000000;
   0.000000;0.000000;0.000000;;
   0.000000;0.000000;0.000000;;

   TextureFilename  {
    "EV_Window2.png";
   }
  }

  Material  {
   1.000000;1.000000;1.000000;1.000000;;
   0.000000;
   0.000000;0.000000;0.000000;;
   0.000000;0.000000;0.000000;;

   TextureFilename  {
    "EV_Window3.png";
   }
  }

  Material  {
   1.000000;1.000000;1.000000;1.000000;;
   0.000000;
   0.000000;0.000000;0.000000;;
   0.000000;0.000000;0.000000;;

   TextureFilename  {
    "EV_Window1.png";
   }
  }

  Material  {
   1.000000;1.000000;1.000000;1.000000;;
   0.000000;
   0.000000;0.000000;0.000000;;
   0.000000;0.000000;0.000000;;

   TextureFilename  {
    "EV_Window3.png";
   }
  }

  Material  {
   1.000000;1.000000;1.000000;1.000000;;
   0.000000;
   0.000000;0.000000;0.000000;;
   0.000000;0.000000;0.000000;;

   TextureFilename  {
    "EV_Window1.png";
   }
  }

  Material  {
   1.000000;1.000000;1.000000;1.000000;;
   0.000000;
   0.000000;0.000000;0.000000;;
   0.000000;0.000000;0.000000;;

   TextureFilename  {
    "EV_Window3.png";
   }
  }

  Material  {
   1.000000;1.000000;1.000000;1.000000;;
   0.000000;
   0.000000;0.000000;0.000000;;
   0.000000;0.000000;0.000000;;

   TextureFilename  {
    "EV_Window1.png";
   }
  }

  Material  {
   1.000000;1.000000;1.000000;1.000000;;
   0.000000;
   0.000000;0.000000;0.000000;;
   0.000000;0.000000;0.000000;;

   TextureFilename  {
    "EV_Window3.png";
   }
  }

  Material  {
   1.000000;1.000000;1.000000;1.000000;;
   0.000000;
   0.000000;0.000000;0.000000;;
   0.000000;0.000000;0.000000;;

   TextureFilename  {
    "EV_Window1.png";
   }
  }

  Material  {
   1.000000;1.000000;1.000000;1.000000;;
   0.000000;
   0.000000;0.000000;0.000000;;
   0.000000;0.000000;0.000000;;

   TextureFilename  {
    "EV_Window3.png";
   }
  }

  Material  {
   1.000000;1.000000;1.000000;1.000000;;
   0.000000;
   0.000000;0.000000;0.000000;;
   0.000000;0.000000;0.000000;;

   TextureFilename  {
    "EV_Step1.png";
   }
  }

  Material  {
   0.549020;0.607843;0.666667;1.000000;;
   0.000000;
   0.000000;0.000000;0.000000;;
   0.000000;0.000000;0.000000;;
  }

  Material  {
   0.549020;0.607843;0.666667;1.000000;;
   0.000000;
   0.000000;0.000000;0.000000;;
   0.000000;0.000000;0.000000;;
  }

  Material  {
   0.470588;0.470588;0.470588;1.000000;;
   0.000000;
   0.000000;0.000000;0.000000;;
   0.000000;0.000000;0.000000;;
  }

  Material  {
   0.549020;0.607843;0.666667;1.000000;;
   0.000000;
   0.000000;0.000000;0.000000;;
   0.000000;0.000000;0.000000;;
  }

  Material  {
   0.549020;0.607843;0.666667;1.000000;;
   0.000000;
   0.000000;0.000000;0.000000;;
   0.000000;0.000000;0.000000;;
  }

  Material  {
   0.470588;0.470588;0.470588;1.000000;;
   0.000000;
   0.000000;0.000000;0.000000;;
   0.000000;0.000000;0.000000;;
  }

  Material  {
   0.549020;0.607843;0.666667;1.000000;;
   0.000000;
   0.000000;0.000000;0.000000;;
   0.000000;0.000000;0.000000;;
  }

  Material  {
   0.549020;0.607843;0.666667;1.000000;;
   0.000000;
   0.000000;0.000000;0.000000;;
   0.000000;0.000000;0.000000;;
  }

  Material  {
   0.549020;0.607843;0.666667;1.000000;;
   0.000000;
   0.000000;0.000000;0.000000;;
   0.000000;0.000000;0.000000;;
  }

  Material  {
   1.000000;1.000000;1.000000;1.000000;;
   0.000000;
   0.000000;0.000000;0.000000;;
   0.000000;0.000000;0.000000;;

   TextureFilename  {
    "EV_Wall2.png";
   }
  }

  Material  {
   1.000000;1.000000;1.000000;1.000000;;
   0.000000;
   0.000000;0.000000;0.000000;;
   0.000000;0.000000;0.000000;;

   TextureFilename  {
    "EV_Wall2.png";
   }
  }
 }

 MeshTextureCoords  {
  474;
  0.000000;0.875000;,
  0.000000;0.000000;,
  0.200000;1.000000;,
  0.200000;0.875000;,
  0.200000;0.000000;,
  1.000000;1.000000;,
  1.000000;0.875000;,
  1.000000;0.000000;,
  0.000000;1.000000;,
  0.000000;0.875000;,
  0.000000;0.000000;,
  0.200000;1.000000;,
  0.200000;0.875000;,
  0.200000;0.000000;,
  0.000000;1.000000;,
  0.000000;0.000000;,
  1.000000;1.000000;,
  1.000000;0.000000;,
  0.000000;1.000000;,
  0.000000;0.000000;,
  1.000000;1.000000;,
  1.000000;0.000000;,
  0.000000;1.000000;,
  0.000000;0.000000;,
  1.000000;1.000000;,
  1.000000;0.000000;,
  0.000000;1.000000;,
  0.000000;0.000000;,
  1.000000;1.000000;,
  1.000000;0.000000;,
  0.000000;1.000000;,
  0.000000;0.000000;,
  1.000000;1.000000;,
  1.000000;0.000000;,
  0.000000;1.000000;,
  0.000000;0.000000;,
  1.000000;1.000000;,
  1.000000;0.000000;,
  0.000000;1.000000;,
  0.000000;0.000000;,
  1.000000;1.000000;,
  1.000000;0.000000;,
  0.000000;1.000000;,
  0.000000;0.000000;,
  1.000000;1.000000;,
  1.000000;0.000000;,
  0.000000;1.000000;,
  0.000000;0.000000;,
  1.000000;1.000000;,
  1.000000;0.000000;,
  0.000000;1.000000;,
  0.000000;0.000000;,
  1.000000;1.000000;,
  1.000000;0.000000;,
  0.000000;1.000000;,
  0.000000;0.000000;,
  1.000000;1.000000;,
  1.000000;0.000000;,
  0.000000;1.000000;,
  0.000000;0.000000;,
  1.000000;1.000000;,
  1.000000;0.000000;,
  0.000000;1.000000;,
  0.000000;0.000000;,
  1.000000;1.000000;,
  1.000000;0.000000;,
  0.000000;1.000000;,
  0.000000;0.000000;,
  1.000000;1.000000;,
  1.000000;0.000000;,
  0.000000;1.000000;,
  0.000000;0.000000;,
  1.000000;1.000000;,
  1.000000;0.000000;,
  0.000000;1.000000;,
  0.000000;0.000000;,
  1.000000;1.000000;,
  1.000000;0.000000;,
  0.000000;1.000000;,
  0.000000;0.000000;,
  1.000000;1.000000;,
  1.000000;0.000000;,
  0.000000;1.000000;,
  0.000000;0.000000;,
  1.000000;1.000000;,
  1.000000;0.000000;,
  0.000000;1.000000;,
  0.000000;0.000000;,
  1.000000;1.000000;,
  1.000000;0.000000;,
  0.500000;1.000000;,
  10.000000;1.000000;,
  0.000000;0.750000;,
  0.500000;0.750000;,
  10.000000;0.750000;,
  10.500000;0.750000;,
  0.000000;0.000000;,
  0.500000;0.000000;,
  10.000000;0.000000;,
  10.500000;0.000000;,
  0.000000;0.000000;,
  0.000000;0.000000;,
  0.000000;0.000000;,
  0.000000;0.000000;,
  0.000000;0.000000;,
  0.000000;0.000000;,
  0.000000;0.000000;,
  0.000000;0.000000;,
  0.000000;0.000000;,
  0.000000;0.000000;,
  0.000000;0.000000;,
  0.000000;0.000000;,
  0.000000;0.000000;,
  0.000000;0.000000;,
  0.000000;0.000000;,
  0.000000;0.000000;,
  0.000000;0.000000;,
  0.000000;0.000000;,
  0.000000;0.000000;,
  0.000000;0.000000;,
  0.000000;0.000000;,
  0.000000;0.000000;,
  0.000000;0.000000;,
  0.000000;0.000000;,
  0.000000;0.000000;,
  0.000000;0.000000;,
  0.000000;0.000000;,
  0.000000;0.000000;,
  0.000000;0.000000;,
  0.000000;0.000000;,
  0.000000;0.000000;,
  0.000000;0.000000;,
  0.000000;0.000000;,
  0.000000;0.000000;,
  0.000000;0.000000;,
  0.000000;0.000000;,
  0.000000;0.000000;,
  0.000000;0.000000;,
  0.000000;0.000000;,
  0.000000;0.000000;,
  0.000000;0.000000;,
  0.000000;0.000000;,
  0.000000;0.000000;,
  0.000000;0.000000;,
  0.000000;0.000000;,
  0.000000;0.000000;,
  0.000000;0.000000;,
  0.000000;0.000000;,
  0.000000;0.000000;,
  0.000000;0.000000;,
  0.000000;0.000000;,
  0.000000;0.000000;,
  0.000000;0.000000;,
  0.000000;0.000000;,
  0.000000;0.000000;,
  0.000000;0.000000;,
  0.000000;0.000000;,
  0.000000;0.000000;,
  0.000000;0.000000;,
  0.000000;0.000000;,
  0.000000;0.000000;,
  0.000000;0.000000;,
  0.000000;0.000000;,
  0.000000;0.000000;,
  0.000000;0.000000;,
  0.000000;0.000000;,
  0.000000;0.000000;,
  0.000000;0.000000;,
  0.000000;0.000000;,
  0.000000;0.000000;,
  0.000000;0.000000;,
  0.000000;0.000000;,
  0.000000;0.000000;,
  0.000000;0.000000;,
  0.000000;0.000000;,
  0.000000;0.000000;,
  0.000000;0.000000;,
  0.000000;0.000000;,
  0.000000;0.000000;,
  0.000000;0.000000;,
  0.000000;0.000000;,
  0.000000;0.000000;,
  0.000000;0.000000;,
  0.000000;0.000000;,
  0.000000;0.000000;,
  0.000000;0.000000;,
  0.000000;0.000000;,
  0.000000;0.000000;,
  0.000000;0.000000;,
  0.000000;0.000000;,
  0.000000;0.000000;,
  0.000000;0.000000;,
  0.000000;0.000000;,
  0.000000;0.000000;,
  0.000000;0.000000;,
  0.000000;0.000000;,
  0.000000;0.000000;,
  0.000000;0.000000;,
  0.000000;0.000000;,
  0.000000;0.000000;,
  0.000000;0.000000;,
  0.000000;0.000000;,
  0.000000;0.000000;,
  0.000000;0.000000;,
  0.000000;0.000000;,
  0.000000;0.000000;,
  0.000000;0.000000;,
  0.000000;0.000000;,
  0.000000;0.000000;,
  0.000000;0.000000;,
  0.000000;0.000000;,
  0.000000;0.000000;,
  0.000000;0.000000;,
  0.000000;0.000000;,
  0.000000;0.000000;,
  0.000000;0.000000;,
  0.000000;0.000000;,
  0.000000;0.000000;,
  0.000000;0.000000;,
  0.000000;0.000000;,
  0.000000;0.000000;,
  0.000000;0.000000;,
  0.000000;0.000000;,
  0.000000;0.000000;,
  0.000000;0.000000;,
  0.000000;0.000000;,
  0.000000;0.000000;,
  0.000000;0.000000;,
  0.000000;0.000000;,
  0.000000;0.000000;,
  0.000000;0.000000;,
  0.000000;0.000000;,
  0.000000;0.000000;,
  0.000000;0.000000;,
  0.000000;0.000000;,
  0.000000;0.000000;,
  0.000000;0.000000;,
  0.000000;0.000000;,
  0.000000;0.000000;,
  0.000000;0.000000;,
  0.000000;0.000000;,
  0.000000;0.000000;,
  0.000000;0.000000;,
  0.000000;0.000000;,
  0.000000;0.000000;,
  0.000000;0.000000;,
  0.000000;0.000000;,
  0.000000;0.000000;,
  0.000000;0.000000;,
  0.000000;0.000000;,
  0.000000;0.000000;,
  0.000000;0.000000;,
  0.000000;0.000000;,
  0.000000;0.000000;,
  0.000000;0.000000;,
  0.000000;0.000000;,
  0.000000;0.000000;,
  0.000000;0.000000;,
  0.000000;0.000000;,
  0.000000;0.000000;,
  0.000000;0.000000;,
  0.000000;0.000000;,
  0.000000;0.000000;,
  0.000000;0.000000;,
  0.000000;0.000000;,
  0.000000;0.000000;,
  0.000000;0.000000;,
  0.000000;0.000000;,
  0.000000;0.000000;,
  0.000000;0.000000;,
  0.000000;0.000000;,
  0.000000;0.000000;,
  0.000000;0.000000;,
  0.000000;0.000000;,
  0.000000;0.000000;,
  0.000000;0.000000;,
  0.000000;0.000000;,
  0.000000;0.000000;,
  0.000000;0.000000;,
  0.000000;0.000000;,
  0.000000;0.000000;,
  0.000000;0.000000;,
  0.000000;0.000000;,
  0.000000;0.000000;,
  0.000000;0.000000;,
  0.000000;0.000000;,
  0.000000;0.000000;,
  0.000000;0.000000;,
  0.000000;0.000000;,
  0.000000;0.000000;,
  0.000000;0.000000;,
  0.000000;0.000000;,
  0.000000;0.000000;,
  0.000000;0.000000;,
  0.000000;0.000000;,
  0.000000;0.000000;,
  0.000000;0.000000;,
  0.000000;0.000000;,
  0.000000;0.000000;,
  0.000000;0.000000;,
  0.000000;0.000000;,
  0.000000;0.000000;,
  0.000000;0.000000;,
  0.000000;0.000000;,
  0.000000;0.000000;,
  0.000000;0.000000;,
  0.000000;0.000000;,
  0.000000;0.000000;,
  0.000000;0.000000;,
  0.000000;0.000000;,
  0.000000;0.000000;,
  0.000000;0.000000;,
  0.000000;0.000000;,
  0.000000;0.000000;,
  0.000000;0.000000;,
  0.000000;0.000000;,
  0.000000;0.000000;,
  0.000000;0.000000;,
  0.000000;0.000000;,
  0.000000;0.000000;,
  0.000000;0.000000;,
  0.000000;0.000000;,
  0.000000;0.000000;,
  0.000000;0.000000;,
  0.000000;0.000000;,
  0.000000;0.000000;,
  0.000000;0.000000;,
  0.000000;0.000000;,
  0.000000;0.000000;,
  0.000000;0.000000;,
  0.000000;0.000000;,
  0.000000;0.000000;,
  0.000000;0.000000;,
  0.000000;0.000000;,
  0.000000;0.000000;,
  0.000000;0.000000;,
  0.000000;0.000000;,
  0.000000;0.000000;,
  0.000000;0.000000;,
  0.000000;0.000000;,
  0.000000;0.000000;,
  0.000000;0.000000;,
  0.000000;0.000000;,
  0.000000;0.000000;,
  0.000000;0.000000;,
  0.000000;0.000000;,
  0.000000;0.000000;,
  0.000000;0.000000;,
  0.000000;0.000000;,
  0.000000;0.000000;,
  0.000000;0.000000;,
  0.000000;0.000000;,
  0.000000;0.000000;,
  0.000000;0.000000;,
  0.000000;0.000000;,
  0.000000;0.000000;,
  0.000000;0.000000;,
  0.000000;0.000000;,
  0.000000;0.000000;,
  0.000000;0.000000;,
  0.000000;0.000000;,
  0.000000;0.000000;,
  0.000000;0.000000;,
  0.000000;0.000000;,
  0.000000;0.000000;,
  0.000000;0.000000;,
  0.000000;0.000000;,
  0.000000;0.000000;,
  0.000000;0.000000;,
  0.000000;0.000000;,
  0.000000;0.000000;,
  0.000000;0.000000;,
  0.000000;0.000000;,
  0.000000;0.000000;,
  0.000000;0.000000;,
  0.000000;0.000000;,
  0.000000;0.000000;,
  0.000000;0.000000;,
  0.000000;0.000000;,
  0.000000;0.000000;,
  0.000000;0.000000;,
  0.000000;0.000000;,
  0.000000;0.000000;,
  0.000000;0.000000;,
  0.000000;0.000000;,
  0.000000;0.000000;,
  0.000000;0.000000;,
  0.000000;0.000000;,
  0.000000;0.000000;,
  0.000000;0.000000;,
  0.000000;0.000000;,
  0.000000;0.000000;,
  0.000000;0.000000;,
  0.000000;0.000000;,
  0.000000;0.000000;,
  0.000000;0.000000;,
  0.000000;0.000000;,
  0.000000;0.000000;,
  0.000000;0.000000;,
  0.000000;0.000000;,
  0.000000;0.000000;,
  0.000000;0.000000;,
  0.000000;0.000000;,
  0.000000;0.000000;,
  0.000000;0.000000;,
  0.000000;0.000000;,
  0.000000;0.000000;,
  0.000000;0.000000;,
  0.000000;0.000000;,
  0.000000;0.000000;,
  0.000000;0.000000;,
  0.000000;0.000000;,
  0.000000;0.000000;,
  0.000000;0.000000;,
  0.000000;0.000000;,
  0.000000;0.000000;,
  0.000000;0.000000;,
  0.000000;0.000000;,
  0.000000;0.000000;,
  0.000000;0.000000;,
  0.000000;0.000000;,
  0.000000;0.000000;,
  0.000000;0.000000;,
  0.000000;0.000000;,
  0.000000;0.000000;,
  0.000000;0.000000;,
  0.000000;0.000000;,
  0.000000;0.000000;,
  0.000000;0.000000;,
  0.000000;0.000000;,
  0.000000;0.000000;,
  0.000000;0.000000;,
  0.000000;0.000000;,
  0.000000;0.000000;,
  0.000000;0.000000;,
  0.000000;0.000000;,
  0.000000;0.000000;,
  0.000000;0.000000;,
  0.000000;0.000000;,
  0.000000;0.000000;,
  0.000000;0.000000;,
  0.000000;0.000000;,
  0.000000;0.000000;,
  0.000000;0.000000;,
  0.000000;0.000000;,
  0.000000;0.000000;,
  0.000000;0.000000;,
  0.000000;0.000000;,
  0.000000;0.000000;,
  0.000000;0.000000;,
  0.000000;0.000000;,
  0.000000;0.000000;,
  0.000000;0.000000;,
  0.000000;0.000000;,
  0.000000;0.000000;,
  0.000000;0.000000;,
  0.000000;0.000000;,
  0.000000;0.000000;,
  0.000000;0.000000;,
  0.000000;0.000000;,
  0.000000;1.000000;,
  0.000000;0.000000;,
  0.100000;1.000000;,
  0.100000;0.000000;,
  0.200000;1.000000;,
  0.200000;0.000000;,
  0.300000;1.000000;,
  0.300000;0.000000;,
  0.000000;1.000000;,
  0.000000;0.000000;,
  0.100000;1.000000;,
  0.100000;0.000000;,
  0.200000;1.000000;,
  0.200000;0.000000;;
 }

 MeshNormals  {
  430;
  -1.000000;0.000000;0.000000;,
  -1.000000;0.000000;0.000000;,
  0.000000;-1.000000;0.000000;,
  0.000000;-1.000000;0.000000;,
  0.000000;0.000000;-1.000000;,
  0.000000;0.000000;-1.000000;,
  0.000000;-1.000000;0.000000;,
  0.000000;-1.000000;0.000000;,
  -1.000000;0.000000;0.000000;,
  -1.000000;0.000000;0.000000;,
  -1.000000;0.000000;0.000000;,
  -1.000000;0.000000;0.000000;,
  0.000000;0.000000;-1.000000;,
  0.000000;0.000000;-1.000000;,
  0.000000;0.000000;-1.000000;,
  0.000000;0.000000;-1.000000;,
  0.000000;0.000000;-1.000000;,
  0.000000;0.000000;-1.000000;,
  0.000000;0.000000;-1.000000;,
  0.000000;0.000000;-1.000000;,
  0.000000;0.000000;-1.000000;,
  0.000000;0.000000;-1.000000;,
  0.000000;0.000000;-1.000000;,
  0.000000;0.000000;-1.000000;,
  0.000000;0.000000;-1.000000;,
  0.000000;0.000000;-1.000000;,
  0.000000;0.000000;-1.000000;,
  0.000000;0.000000;-1.000000;,
  0.000000;0.000000;-1.000000;,
  0.000000;0.000000;-1.000000;,
  -1.000000;0.000000;0.000000;,
  -1.000000;0.000000;0.000000;,
  -1.000000;0.000000;0.000000;,
  -1.000000;0.000000;0.000000;,
  -1.000000;0.000000;0.000000;,
  -1.000000;0.000000;0.000000;,
  -1.000000;0.000000;0.000000;,
  -1.000000;0.000000;0.000000;,
  -1.000000;0.000000;0.000000;,
  -1.000000;0.000000;0.000000;,
  -1.000000;0.000000;0.000000;,
  -1.000000;0.000000;0.000000;,
  -1.000000;0.000000;0.000000;,
  -1.000000;0.000000;0.000000;,
  -1.000000;0.000000;0.000000;,
  -1.000000;0.000000;0.000000;,
  -1.000000;0.000000;0.000000;,
  -1.000000;0.000000;0.000000;,
  0.000000;-1.000000;0.000000;,
  0.000000;-1.000000;0.000000;,
  -1.000000;0.000000;0.000000;,
  -1.000000;0.000000;0.000000;,
  1.000000;0.000000;0.000000;,
  1.000000;0.000000;0.000000;,
  0.000000;0.000000;-1.000000;,
  0.000000;0.000000;-1.000000;,
  1.000000;0.000000;0.000000;,
  1.000000;0.000000;0.000000;,
  -1.000000;0.000000;0.000000;,
  -1.000000;0.000000;0.000000;,
  0.996917;0.000000;-0.078459;,
  1.000000;0.000000;0.000000;,
  0.951056;0.000000;0.309017;,
  0.923880;0.000000;0.382683;,
  0.809017;0.000000;0.587785;,
  0.760406;0.000000;0.649448;,
  0.587785;0.000000;0.809017;,
  0.522499;0.000000;0.852640;,
  0.309017;0.000000;0.951056;,
  0.233445;0.000000;0.972370;,
  0.000000;0.000000;1.000000;,
  -0.078459;0.000000;0.996917;,
  -0.309017;0.000000;0.951056;,
  -0.382683;0.000000;0.923880;,
  -0.587785;0.000000;0.809017;,
  -0.649448;0.000000;0.760406;,
  -0.809017;0.000000;0.587785;,
  -0.852640;0.000000;0.522499;,
  -0.951056;0.000000;0.309017;,
  -0.972370;0.000000;0.233445;,
  -1.000000;0.000000;0.000000;,
  -0.996917;0.000000;-0.078459;,
  -0.951056;0.000000;-0.309017;,
  -0.923880;0.000000;-0.382683;,
  -0.809017;0.000000;-0.587785;,
  -0.760406;0.000000;-0.649448;,
  -0.587785;0.000000;-0.809017;,
  -0.522499;0.000000;-0.852640;,
  -0.309017;0.000000;-0.951056;,
  -0.233445;0.000000;-0.972370;,
  -0.000000;0.000000;-1.000000;,
  0.078459;0.000000;-0.996917;,
  0.309017;0.000000;-0.951056;,
  0.382683;0.000000;-0.923880;,
  0.587785;0.000000;-0.809017;,
  0.649448;0.000000;-0.760406;,
  0.809017;0.000000;-0.587785;,
  0.852640;0.000000;-0.522499;,
  0.951056;0.000000;-0.309017;,
  0.972370;0.000000;-0.233445;,
  0.977672;0.195534;-0.076963;,
  0.980581;0.196116;-0.000000;,
  0.932588;0.196116;0.303016;,
  0.906039;0.195534;0.375313;,
  0.793306;0.196116;0.576371;,
  0.745716;0.195534;0.636925;,
  0.576371;0.196116;0.793306;,
  0.512397;0.195534;0.836191;,
  0.303016;0.196116;0.932588;,
  0.228921;0.195534;0.953604;,
  -0.000000;0.196116;0.980581;,
  -0.076963;0.195534;0.977672;,
  -0.303016;0.196116;0.932588;,
  -0.375313;0.195534;0.906039;,
  -0.576371;0.196116;0.793306;,
  -0.636925;0.195534;0.745716;,
  -0.793306;0.196116;0.576371;,
  -0.836191;0.195534;0.512397;,
  -0.932588;0.196116;0.303016;,
  -0.953604;0.195534;0.228921;,
  -0.980581;0.196116;-0.000000;,
  -0.977672;0.195534;-0.076963;,
  -0.932588;0.196116;-0.303016;,
  -0.906039;0.195534;-0.375313;,
  -0.793306;0.196116;-0.576371;,
  -0.745716;0.195534;-0.636925;,
  -0.576371;0.196116;-0.793306;,
  -0.512397;0.195534;-0.836191;,
  -0.303016;0.196116;-0.932588;,
  -0.228921;0.195534;-0.953604;,
  0.000000;0.196116;-0.980581;,
  0.076963;0.195534;-0.977672;,
  0.303016;0.196116;-0.932588;,
  0.375313;0.195534;-0.906039;,
  0.576371;0.196116;-0.793306;,
  0.636925;0.195534;-0.745716;,
  0.793306;0.196116;-0.576371;,
  0.836191;0.195534;-0.512397;,
  0.932588;0.196116;-0.303016;,
  0.953604;0.195534;-0.228921;,
  0.996917;0.000000;-0.078459;,
  1.000000;0.000000;0.000000;,
  0.951056;0.000000;0.309017;,
  0.923879;0.000000;0.382683;,
  0.809017;0.000000;0.587785;,
  0.760406;0.000000;0.649448;,
  0.587785;0.000000;0.809017;,
  0.522499;0.000000;0.852640;,
  0.309017;0.000000;0.951056;,
  0.233445;0.000000;0.972370;,
  0.000000;0.000000;1.000000;,
  -0.078459;0.000000;0.996917;,
  -0.309017;0.000000;0.951056;,
  -0.382683;0.000000;0.923879;,
  -0.587785;0.000000;0.809017;,
  -0.649448;0.000000;0.760406;,
  -0.809017;0.000000;0.587785;,
  -0.852640;0.000000;0.522499;,
  -0.951056;0.000000;0.309017;,
  -0.972370;0.000000;0.233445;,
  -1.000000;0.000000;0.000000;,
  -0.996917;0.000000;-0.078459;,
  -0.951056;0.000000;-0.309017;,
  -0.923879;0.000000;-0.382683;,
  -0.809017;0.000000;-0.587785;,
  -0.760406;0.000000;-0.649448;,
  -0.587785;0.000000;-0.809017;,
  -0.522499;0.000000;-0.852640;,
  -0.309017;0.000000;-0.951056;,
  -0.233445;0.000000;-0.972370;,
  0.000000;0.000000;-1.000000;,
  0.078459;0.000000;-0.996917;,
  0.309017;0.000000;-0.951056;,
  0.382683;0.000000;-0.923879;,
  0.587785;0.000000;-0.809017;,
  0.649448;0.000000;-0.760406;,
  0.809017;0.000000;-0.587785;,
  0.852640;0.000000;-0.522499;,
  0.951056;0.000000;-0.309017;,
  0.972370;0.000000;-0.233445;,
  0.996917;0.000000;-0.078459;,
  1.000000;0.000000;0.000000;,
  0.951056;0.000000;0.309017;,
  0.923880;0.000000;0.382683;,
  0.809017;0.000000;0.587785;,
  0.760406;0.000000;0.649448;,
  0.587785;0.000000;0.809017;,
  0.522499;0.000000;0.852640;,
  0.309017;0.000000;0.951056;,
  0.233445;0.000000;0.972370;,
  0.000000;0.000000;1.000000;,
  -0.078459;0.000000;0.996917;,
  -0.309017;0.000000;0.951056;,
  -0.382683;0.000000;0.923880;,
  -0.587785;0.000000;0.809017;,
  -0.649448;0.000000;0.760406;,
  -0.809017;0.000000;0.587785;,
  -0.852640;0.000000;0.522499;,
  -0.951056;0.000000;0.309017;,
  -0.972370;0.000000;0.233445;,
  -1.000000;0.000000;0.000000;,
  -0.996917;0.000000;-0.078459;,
  -0.951056;0.000000;-0.309017;,
  -0.923880;0.000000;-0.382683;,
  -0.809017;0.000000;-0.587785;,
  -0.760406;0.000000;-0.649448;,
  -0.587785;0.000000;-0.809017;,
  -0.522499;0.000000;-0.852640;,
  -0.309017;0.000000;-0.951056;,
  -0.233445;0.000000;-0.972370;,
  -0.000000;0.000000;-1.000000;,
  0.078459;0.000000;-0.996917;,
  0.309017;0.000000;-0.951056;,
  0.382683;0.000000;-0.923880;,
  0.587785;0.000000;-0.809017;,
  0.649448;0.000000;-0.760406;,
  0.809017;0.000000;-0.587785;,
  0.852640;0.000000;-0.522499;,
  0.951056;0.000000;-0.309017;,
  0.972370;0.000000;-0.233445;,
  0.977672;0.195534;-0.076963;,
  0.980581;0.196116;-0.000000;,
  0.932588;0.196116;0.303016;,
  0.906039;0.195534;0.375313;,
  0.793306;0.196116;0.576371;,
  0.745716;0.195534;0.636925;,
  0.576371;0.196116;0.793306;,
  0.512397;0.195534;0.836191;,
  0.303016;0.196116;0.932588;,
  0.228921;0.195534;0.953604;,
  -0.000000;0.196116;0.980581;,
  -0.076963;0.195534;0.977672;,
  -0.303016;0.196116;0.932588;,
  -0.375313;0.195534;0.906039;,
  -0.576371;0.196116;0.793306;,
  -0.636925;0.195534;0.745716;,
  -0.793306;0.196116;0.576371;,
  -0.836191;0.195534;0.512397;,
  -0.932588;0.196116;0.303016;,
  -0.953604;0.195534;0.228921;,
  -0.980581;0.196116;-0.000000;,
  -0.977672;0.195534;-0.076963;,
  -0.932588;0.196116;-0.303016;,
  -0.906039;0.195534;-0.375313;,
  -0.793306;0.196116;-0.576371;,
  -0.745716;0.195534;-0.636925;,
  -0.576371;0.196116;-0.793306;,
  -0.512397;0.195534;-0.836191;,
  -0.303016;0.196116;-0.932588;,
  -0.228921;0.195534;-0.953604;,
  0.000000;0.196116;-0.980581;,
  0.076963;0.195534;-0.977672;,
  0.303016;0.196116;-0.932588;,
  0.375313;0.195534;-0.906039;,
  0.576371;0.196116;-0.793306;,
  0.636925;0.195534;-0.745716;,
  0.793306;0.196116;-0.576371;,
  0.836191;0.195534;-0.512397;,
  0.932588;0.196116;-0.303016;,
  0.953604;0.195534;-0.228921;,
  0.996917;0.000000;-0.078459;,
  1.000000;0.000000;0.000000;,
  0.951056;0.000000;0.309017;,
  0.923879;0.000000;0.382683;,
  0.809017;0.000000;0.587785;,
  0.760406;0.000000;0.649448;,
  0.587785;0.000000;0.809017;,
  0.522499;0.000000;0.852640;,
  0.309017;0.000000;0.951056;,
  0.233445;0.000000;0.972370;,
  0.000000;0.000000;1.000000;,
  -0.078459;0.000000;0.996917;,
  -0.309017;0.000000;0.951056;,
  -0.382683;0.000000;0.923879;,
  -0.587785;0.000000;0.809017;,
  -0.649448;0.000000;0.760406;,
  -0.809017;0.000000;0.587785;,
  -0.852640;0.000000;0.522499;,
  -0.951056;0.000000;0.309017;,
  -0.972370;0.000000;0.233445;,
  -1.000000;0.000000;0.000000;,
  -0.996917;0.000000;-0.078459;,
  -0.951056;0.000000;-0.309017;,
  -0.923879;0.000000;-0.382683;,
  -0.809017;0.000000;-0.587785;,
  -0.760406;0.000000;-0.649448;,
  -0.587785;0.000000;-0.809017;,
  -0.522499;0.000000;-0.852640;,
  -0.309017;0.000000;-0.951056;,
  -0.233445;0.000000;-0.972370;,
  0.000000;0.000000;-1.000000;,
  0.078459;0.000000;-0.996917;,
  0.309017;0.000000;-0.951056;,
  0.382683;0.000000;-0.923879;,
  0.587785;0.000000;-0.809017;,
  0.649448;0.000000;-0.760406;,
  0.809017;0.000000;-0.587785;,
  0.852640;0.000000;-0.522499;,
  0.951056;0.000000;-0.309017;,
  0.972370;0.000000;-0.233445;,
  0.996917;0.000000;-0.078459;,
  1.000000;0.000000;-0.000000;,
  0.951056;0.000000;0.309017;,
  0.923879;0.000000;0.382683;,
  0.809017;0.000000;0.587785;,
  0.760406;0.000000;0.649448;,
  0.587785;0.000000;0.809017;,
  0.522499;0.000000;0.852640;,
  0.309017;0.000000;0.951057;,
  0.233445;0.000000;0.972370;,
  -0.000000;0.000000;1.000000;,
  -0.078459;0.000000;0.996917;,
  -0.309017;0.000000;0.951056;,
  -0.382683;0.000000;0.923879;,
  -0.587785;0.000000;0.809017;,
  -0.649448;0.000000;0.760406;,
  -0.809017;0.000000;0.587785;,
  -0.852640;0.000000;0.522499;,
  -0.951057;0.000000;0.309017;,
  -0.972370;0.000000;0.233445;,
  -1.000000;0.000000;-0.000000;,
  -0.996917;0.000000;-0.078459;,
  -0.951056;0.000000;-0.309017;,
  -0.923879;0.000000;-0.382683;,
  -0.809017;0.000000;-0.587785;,
  -0.760406;0.000000;-0.649448;,
  -0.587785;0.000000;-0.809017;,
  -0.522499;0.000000;-0.852640;,
  -0.309017;0.000000;-0.951057;,
  -0.233445;0.000000;-0.972370;,
  0.000000;0.000000;-1.000000;,
  0.078459;0.000000;-0.996917;,
  0.309017;0.000000;-0.951056;,
  0.382683;0.000000;-0.923879;,
  0.587785;0.000000;-0.809017;,
  0.649448;0.000000;-0.760406;,
  0.809017;0.000000;-0.587785;,
  0.852640;0.000000;-0.522499;,
  0.951057;0.000000;-0.309017;,
  0.972370;0.000000;-0.233445;,
  0.996917;0.000000;-0.078459;,
  1.000000;0.000000;-0.000000;,
  0.951056;0.000000;0.309017;,
  0.923879;0.000000;0.382683;,
  0.809017;0.000000;0.587785;,
  0.760406;0.000000;0.649448;,
  0.587785;0.000000;0.809017;,
  0.522499;0.000000;0.852640;,
  0.309017;0.000000;0.951057;,
  0.233445;0.000000;0.972370;,
  -0.000000;0.000000;1.000000;,
  -0.078459;0.000000;0.996917;,
  -0.309017;0.000000;0.951056;,
  -0.382683;0.000000;0.923879;,
  -0.587785;0.000000;0.809017;,
  -0.649448;0.000000;0.760406;,
  -0.809017;0.000000;0.587785;,
  -0.852640;0.000000;0.522499;,
  -0.951057;0.000000;0.309017;,
  -0.972370;0.000000;0.233445;,
  -1.000000;0.000000;-0.000000;,
  -0.996917;0.000000;-0.078459;,
  -0.951056;0.000000;-0.309017;,
  -0.923879;0.000000;-0.382683;,
  -0.809017;0.000000;-0.587785;,
  -0.760406;0.000000;-0.649448;,
  -0.587785;0.000000;-0.809017;,
  -0.522499;0.000000;-0.852640;,
  -0.309017;0.000000;-0.951057;,
  -0.233445;0.000000;-0.972370;,
  0.000000;0.000000;-1.000000;,
  0.078459;0.000000;-0.996917;,
  0.309017;0.000000;-0.951056;,
  0.382683;0.000000;-0.923879;,
  0.587785;0.000000;-0.809017;,
  0.649448;0.000000;-0.760406;,
  0.809017;0.000000;-0.587785;,
  0.852640;0.000000;-0.522499;,
  0.951057;0.000000;-0.309017;,
  0.972370;0.000000;-0.233445;,
  0.996917;0.000000;-0.078459;,
  1.000000;0.000000;-0.000000;,
  0.951056;0.000000;0.309017;,
  0.923879;0.000000;0.382683;,
  0.809017;0.000000;0.587785;,
  0.760406;0.000000;0.649448;,
  0.587785;0.000000;0.809017;,
  0.522499;0.000000;0.852640;,
  0.309017;0.000000;0.951057;,
  0.233445;0.000000;0.972370;,
  -0.000000;0.000000;1.000000;,
  -0.078459;0.000000;0.996917;,
  -0.309017;0.000000;0.951056;,
  -0.382683;0.000000;0.923879;,
  -0.587785;0.000000;0.809017;,
  -0.649448;0.000000;0.760406;,
  -0.809017;0.000000;0.587785;,
  -0.852640;0.000000;0.522499;,
  -0.951057;0.000000;0.309017;,
  -0.972370;0.000000;0.233445;,
  -1.000000;0.000000;-0.000000;,
  -0.996917;0.000000;-0.078459;,
  -0.951056;0.000000;-0.309017;,
  -0.923879;0.000000;-0.382683;,
  -0.809017;0.000000;-0.587785;,
  -0.760406;0.000000;-0.649448;,
  -0.587785;0.000000;-0.809017;,
  -0.522499;0.000000;-0.852640;,
  -0.309017;0.000000;-0.951057;,
  -0.233445;0.000000;-0.972370;,
  0.000000;0.000000;-1.000000;,
  0.078459;0.000000;-0.996917;,
  0.309017;0.000000;-0.951056;,
  0.382683;0.000000;-0.923879;,
  0.587785;0.000000;-0.809017;,
  0.649448;0.000000;-0.760406;,
  0.809017;0.000000;-0.587785;,
  0.852640;0.000000;-0.522499;,
  0.951057;0.000000;-0.309017;,
  0.972370;0.000000;-0.233445;,
  -1.000000;0.000000;0.000000;,
  -1.000000;0.000000;0.000000;,
  0.000000;0.000000;-1.000000;,
  0.000000;0.000000;-1.000000;,
  1.000000;0.000000;0.000000;,
  1.000000;0.000000;0.000000;,
  -1.000000;0.000000;0.000000;,
  -1.000000;0.000000;0.000000;,
  0.000000;0.000000;-1.000000;,
  0.000000;0.000000;-1.000000;;
  754;
  3;0,0,0;,
  3;1,1,1;,
  3;2,2,2;,
  3;3,3,3;,
  3;4,4,4;,
  3;5,5,5;,
  3;6,6,6;,
  3;7,7,7;,
  3;8,8,8;,
  3;9,9,9;,
  3;10,10,10;,
  3;11,11,11;,
  3;12,12,12;,
  3;13,13,13;,
  3;14,14,14;,
  3;15,15,15;,
  3;16,16,16;,
  3;17,17,17;,
  3;18,18,18;,
  3;19,19,19;,
  3;20,20,20;,
  3;21,21,21;,
  3;22,22,22;,
  3;23,23,23;,
  3;24,24,24;,
  3;25,25,25;,
  3;26,26,26;,
  3;27,27,27;,
  3;28,28,28;,
  3;29,29,29;,
  3;30,30,30;,
  3;31,31,31;,
  3;32,32,32;,
  3;33,33,33;,
  3;34,34,34;,
  3;35,35,35;,
  3;36,36,36;,
  3;37,37,37;,
  3;38,38,38;,
  3;39,39,39;,
  3;40,40,40;,
  3;41,41,41;,
  3;42,42,42;,
  3;43,43,43;,
  3;44,44,44;,
  3;45,45,45;,
  3;46,46,46;,
  3;47,47,47;,
  3;48,48,48;,
  3;49,49,49;,
  3;50,50,50;,
  3;51,51,51;,
  3;52,52,52;,
  3;53,53,53;,
  3;54,54,54;,
  3;55,55,55;,
  3;56,56,56;,
  3;57,57,57;,
  3;58,58,58;,
  3;59,59,59;,
  3;61,60,62;,
  3;61,62,63;,
  3;63,62,64;,
  3;63,64,65;,
  3;65,64,66;,
  3;65,66,67;,
  3;67,66,68;,
  3;67,68,69;,
  3;69,68,70;,
  3;69,70,71;,
  3;71,70,72;,
  3;71,72,73;,
  3;73,72,74;,
  3;73,74,75;,
  3;75,74,76;,
  3;75,76,77;,
  3;77,76,78;,
  3;77,78,79;,
  3;79,78,80;,
  3;79,80,81;,
  3;81,80,82;,
  3;81,82,83;,
  3;83,82,84;,
  3;83,84,85;,
  3;85,84,86;,
  3;85,86,87;,
  3;87,86,88;,
  3;87,88,89;,
  3;89,88,90;,
  3;89,90,91;,
  3;91,90,92;,
  3;91,92,93;,
  3;93,92,94;,
  3;93,94,95;,
  3;95,94,96;,
  3;95,96,97;,
  3;97,96,98;,
  3;97,98,99;,
  3;99,98,60;,
  3;99,60,61;,
  3;98,96,94;,
  3;98,94,92;,
  3;98,92,90;,
  3;98,90,88;,
  3;98,88,86;,
  3;98,86,84;,
  3;98,84,82;,
  3;98,82,80;,
  3;98,80,78;,
  3;98,78,76;,
  3;98,76,74;,
  3;98,74,72;,
  3;98,72,70;,
  3;98,70,68;,
  3;98,68,66;,
  3;98,66,64;,
  3;98,64,62;,
  3;98,62,60;,
  3;61,63,65;,
  3;61,65,67;,
  3;61,67,69;,
  3;61,69,71;,
  3;61,71,73;,
  3;61,73,75;,
  3;61,75,77;,
  3;61,77,79;,
  3;61,79,81;,
  3;61,81,83;,
  3;61,83,85;,
  3;61,85,87;,
  3;61,87,89;,
  3;61,89,91;,
  3;61,91,93;,
  3;61,93,95;,
  3;61,95,97;,
  3;61,97,99;,
  3;101,100,102;,
  3;101,102,103;,
  3;103,102,104;,
  3;103,104,105;,
  3;105,104,106;,
  3;105,106,107;,
  3;107,106,108;,
  3;107,108,109;,
  3;109,108,110;,
  3;109,110,111;,
  3;111,110,112;,
  3;111,112,113;,
  3;113,112,114;,
  3;113,114,115;,
  3;115,114,116;,
  3;115,116,117;,
  3;117,116,118;,
  3;117,118,119;,
  3;119,118,120;,
  3;119,120,121;,
  3;121,120,122;,
  3;121,122,123;,
  3;123,122,124;,
  3;123,124,125;,
  3;125,124,126;,
  3;125,126,127;,
  3;127,126,128;,
  3;127,128,129;,
  3;129,128,130;,
  3;129,130,131;,
  3;131,130,132;,
  3;131,132,133;,
  3;133,132,134;,
  3;133,134,135;,
  3;135,134,136;,
  3;135,136,137;,
  3;137,136,138;,
  3;137,138,139;,
  3;139,138,100;,
  3;139,100,101;,
  3;138,136,134;,
  3;138,134,132;,
  3;138,132,130;,
  3;138,130,128;,
  3;138,128,126;,
  3;138,126,124;,
  3;138,124,122;,
  3;138,122,120;,
  3;138,120,118;,
  3;138,118,116;,
  3;138,116,114;,
  3;138,114,112;,
  3;138,112,110;,
  3;138,110,108;,
  3;138,108,106;,
  3;138,106,104;,
  3;138,104,102;,
  3;138,102,100;,
  3;101,103,105;,
  3;101,105,107;,
  3;101,107,109;,
  3;101,109,111;,
  3;101,111,113;,
  3;101,113,115;,
  3;101,115,117;,
  3;101,117,119;,
  3;101,119,121;,
  3;101,121,123;,
  3;101,123,125;,
  3;101,125,127;,
  3;101,127,129;,
  3;101,129,131;,
  3;101,131,133;,
  3;101,133,135;,
  3;101,135,137;,
  3;101,137,139;,
  3;141,140,142;,
  3;141,142,143;,
  3;143,142,144;,
  3;143,144,145;,
  3;145,144,146;,
  3;145,146,147;,
  3;147,146,148;,
  3;147,148,149;,
  3;149,148,150;,
  3;149,150,151;,
  3;151,150,152;,
  3;151,152,153;,
  3;153,152,154;,
  3;153,154,155;,
  3;155,154,156;,
  3;155,156,157;,
  3;157,156,158;,
  3;157,158,159;,
  3;159,158,160;,
  3;159,160,161;,
  3;161,160,162;,
  3;161,162,163;,
  3;163,162,164;,
  3;163,164,165;,
  3;165,164,166;,
  3;165,166,167;,
  3;167,166,168;,
  3;167,168,169;,
  3;169,168,170;,
  3;169,170,171;,
  3;171,170,172;,
  3;171,172,173;,
  3;173,172,174;,
  3;173,174,175;,
  3;175,174,176;,
  3;175,176,177;,
  3;177,176,178;,
  3;177,178,179;,
  3;179,178,140;,
  3;179,140,141;,
  3;178,176,174;,
  3;178,174,172;,
  3;178,172,170;,
  3;178,170,168;,
  3;178,168,166;,
  3;178,166,164;,
  3;178,164,162;,
  3;178,162,160;,
  3;178,160,158;,
  3;178,158,156;,
  3;178,156,154;,
  3;178,154,152;,
  3;178,152,150;,
  3;178,150,148;,
  3;178,148,146;,
  3;178,146,144;,
  3;178,144,142;,
  3;178,142,140;,
  3;141,143,145;,
  3;141,145,147;,
  3;141,147,149;,
  3;141,149,151;,
  3;141,151,153;,
  3;141,153,155;,
  3;141,155,157;,
  3;141,157,159;,
  3;141,159,161;,
  3;141,161,163;,
  3;141,163,165;,
  3;141,165,167;,
  3;141,167,169;,
  3;141,169,171;,
  3;141,171,173;,
  3;141,173,175;,
  3;141,175,177;,
  3;141,177,179;,
  3;181,180,182;,
  3;181,182,183;,
  3;183,182,184;,
  3;183,184,185;,
  3;185,184,186;,
  3;185,186,187;,
  3;187,186,188;,
  3;187,188,189;,
  3;189,188,190;,
  3;189,190,191;,
  3;191,190,192;,
  3;191,192,193;,
  3;193,192,194;,
  3;193,194,195;,
  3;195,194,196;,
  3;195,196,197;,
  3;197,196,198;,
  3;197,198,199;,
  3;199,198,200;,
  3;199,200,201;,
  3;201,200,202;,
  3;201,202,203;,
  3;203,202,204;,
  3;203,204,205;,
  3;205,204,206;,
  3;205,206,207;,
  3;207,206,208;,
  3;207,208,209;,
  3;209,208,210;,
  3;209,210,211;,
  3;211,210,212;,
  3;211,212,213;,
  3;213,212,214;,
  3;213,214,215;,
  3;215,214,216;,
  3;215,216,217;,
  3;217,216,218;,
  3;217,218,219;,
  3;219,218,180;,
  3;219,180,181;,
  3;218,216,214;,
  3;218,214,212;,
  3;218,212,210;,
  3;218,210,208;,
  3;218,208,206;,
  3;218,206,204;,
  3;218,204,202;,
  3;218,202,200;,
  3;218,200,198;,
  3;218,198,196;,
  3;218,196,194;,
  3;218,194,192;,
  3;218,192,190;,
  3;218,190,188;,
  3;218,188,186;,
  3;218,186,184;,
  3;218,184,182;,
  3;218,182,180;,
  3;181,183,185;,
  3;181,185,187;,
  3;181,187,189;,
  3;181,189,191;,
  3;181,191,193;,
  3;181,193,195;,
  3;181,195,197;,
  3;181,197,199;,
  3;181,199,201;,
  3;181,201,203;,
  3;181,203,205;,
  3;181,205,207;,
  3;181,207,209;,
  3;181,209,211;,
  3;181,211,213;,
  3;181,213,215;,
  3;181,215,217;,
  3;181,217,219;,
  3;221,220,222;,
  3;221,222,223;,
  3;223,222,224;,
  3;223,224,225;,
  3;225,224,226;,
  3;225,226,227;,
  3;227,226,228;,
  3;227,228,229;,
  3;229,228,230;,
  3;229,230,231;,
  3;231,230,232;,
  3;231,232,233;,
  3;233,232,234;,
  3;233,234,235;,
  3;235,234,236;,
  3;235,236,237;,
  3;237,236,238;,
  3;237,238,239;,
  3;239,238,240;,
  3;239,240,241;,
  3;241,240,242;,
  3;241,242,243;,
  3;243,242,244;,
  3;243,244,245;,
  3;245,244,246;,
  3;245,246,247;,
  3;247,246,248;,
  3;247,248,249;,
  3;249,248,250;,
  3;249,250,251;,
  3;251,250,252;,
  3;251,252,253;,
  3;253,252,254;,
  3;253,254,255;,
  3;255,254,256;,
  3;255,256,257;,
  3;257,256,258;,
  3;257,258,259;,
  3;259,258,220;,
  3;259,220,221;,
  3;258,256,254;,
  3;258,254,252;,
  3;258,252,250;,
  3;258,250,248;,
  3;258,248,246;,
  3;258,246,244;,
  3;258,244,242;,
  3;258,242,240;,
  3;258,240,238;,
  3;258,238,236;,
  3;258,236,234;,
  3;258,234,232;,
  3;258,232,230;,
  3;258,230,228;,
  3;258,228,226;,
  3;258,226,224;,
  3;258,224,222;,
  3;258,222,220;,
  3;221,223,225;,
  3;221,225,227;,
  3;221,227,229;,
  3;221,229,231;,
  3;221,231,233;,
  3;221,233,235;,
  3;221,235,237;,
  3;221,237,239;,
  3;221,239,241;,
  3;221,241,243;,
  3;221,243,245;,
  3;221,245,247;,
  3;221,247,249;,
  3;221,249,251;,
  3;221,251,253;,
  3;221,253,255;,
  3;221,255,257;,
  3;221,257,259;,
  3;261,260,262;,
  3;261,262,263;,
  3;263,262,264;,
  3;263,264,265;,
  3;265,264,266;,
  3;265,266,267;,
  3;267,266,268;,
  3;267,268,269;,
  3;269,268,270;,
  3;269,270,271;,
  3;271,270,272;,
  3;271,272,273;,
  3;273,272,274;,
  3;273,274,275;,
  3;275,274,276;,
  3;275,276,277;,
  3;277,276,278;,
  3;277,278,279;,
  3;279,278,280;,
  3;279,280,281;,
  3;281,280,282;,
  3;281,282,283;,
  3;283,282,284;,
  3;283,284,285;,
  3;285,284,286;,
  3;285,286,287;,
  3;287,286,288;,
  3;287,288,289;,
  3;289,288,290;,
  3;289,290,291;,
  3;291,290,292;,
  3;291,292,293;,
  3;293,292,294;,
  3;293,294,295;,
  3;295,294,296;,
  3;295,296,297;,
  3;297,296,298;,
  3;297,298,299;,
  3;299,298,260;,
  3;299,260,261;,
  3;298,296,294;,
  3;298,294,292;,
  3;298,292,290;,
  3;298,290,288;,
  3;298,288,286;,
  3;298,286,284;,
  3;298,284,282;,
  3;298,282,280;,
  3;298,280,278;,
  3;298,278,276;,
  3;298,276,274;,
  3;298,274,272;,
  3;298,272,270;,
  3;298,270,268;,
  3;298,268,266;,
  3;298,266,264;,
  3;298,264,262;,
  3;298,262,260;,
  3;261,263,265;,
  3;261,265,267;,
  3;261,267,269;,
  3;261,269,271;,
  3;261,271,273;,
  3;261,273,275;,
  3;261,275,277;,
  3;261,277,279;,
  3;261,279,281;,
  3;261,281,283;,
  3;261,283,285;,
  3;261,285,287;,
  3;261,287,289;,
  3;261,289,291;,
  3;261,291,293;,
  3;261,293,295;,
  3;261,295,297;,
  3;261,297,299;,
  3;301,300,302;,
  3;301,302,303;,
  3;303,302,304;,
  3;303,304,305;,
  3;305,304,306;,
  3;305,306,307;,
  3;307,306,308;,
  3;307,308,309;,
  3;309,308,310;,
  3;309,310,311;,
  3;311,310,312;,
  3;311,312,313;,
  3;313,312,314;,
  3;313,314,315;,
  3;315,314,316;,
  3;315,316,317;,
  3;317,316,318;,
  3;317,318,319;,
  3;319,318,320;,
  3;319,320,321;,
  3;321,320,322;,
  3;321,322,323;,
  3;323,322,324;,
  3;323,324,325;,
  3;325,324,326;,
  3;325,326,327;,
  3;327,326,328;,
  3;327,328,329;,
  3;329,328,330;,
  3;329,330,331;,
  3;331,330,332;,
  3;331,332,333;,
  3;333,332,334;,
  3;333,334,335;,
  3;335,334,336;,
  3;335,336,337;,
  3;337,336,338;,
  3;337,338,339;,
  3;339,338,300;,
  3;339,300,301;,
  3;338,336,334;,
  3;338,334,332;,
  3;338,332,330;,
  3;338,330,328;,
  3;338,328,326;,
  3;338,326,324;,
  3;338,324,322;,
  3;338,322,320;,
  3;338,320,318;,
  3;338,318,316;,
  3;338,316,314;,
  3;338,314,312;,
  3;338,312,310;,
  3;338,310,308;,
  3;338,308,306;,
  3;338,306,304;,
  3;338,304,302;,
  3;338,302,300;,
  3;301,303,305;,
  3;301,305,307;,
  3;301,307,309;,
  3;301,309,311;,
  3;301,311,313;,
  3;301,313,315;,
  3;301,315,317;,
  3;301,317,319;,
  3;301,319,321;,
  3;301,321,323;,
  3;301,323,325;,
  3;301,325,327;,
  3;301,327,329;,
  3;301,329,331;,
  3;301,331,333;,
  3;301,333,335;,
  3;301,335,337;,
  3;301,337,339;,
  3;341,340,342;,
  3;341,342,343;,
  3;343,342,344;,
  3;343,344,345;,
  3;345,344,346;,
  3;345,346,347;,
  3;347,346,348;,
  3;347,348,349;,
  3;349,348,350;,
  3;349,350,351;,
  3;351,350,352;,
  3;351,352,353;,
  3;353,352,354;,
  3;353,354,355;,
  3;355,354,356;,
  3;355,356,357;,
  3;357,356,358;,
  3;357,358,359;,
  3;359,358,360;,
  3;359,360,361;,
  3;361,360,362;,
  3;361,362,363;,
  3;363,362,364;,
  3;363,364,365;,
  3;365,364,366;,
  3;365,366,367;,
  3;367,366,368;,
  3;367,368,369;,
  3;369,368,370;,
  3;369,370,371;,
  3;371,370,372;,
  3;371,372,373;,
  3;373,372,374;,
  3;373,374,375;,
  3;375,374,376;,
  3;375,376,377;,
  3;377,376,378;,
  3;377,378,379;,
  3;379,378,340;,
  3;379,340,341;,
  3;378,376,374;,
  3;378,374,372;,
  3;378,372,370;,
  3;378,370,368;,
  3;378,368,366;,
  3;378,366,364;,
  3;378,364,362;,
  3;378,362,360;,
  3;378,360,358;,
  3;378,358,356;,
  3;378,356,354;,
  3;378,354,352;,
  3;378,352,350;,
  3;378,350,348;,
  3;378,348,346;,
  3;378,346,344;,
  3;378,344,342;,
  3;378,342,340;,
  3;341,343,345;,
  3;341,345,347;,
  3;341,347,349;,
  3;341,349,351;,
  3;341,351,353;,
  3;341,353,355;,
  3;341,355,357;,
  3;341,357,359;,
  3;341,359,361;,
  3;341,361,363;,
  3;341,363,365;,
  3;341,365,367;,
  3;341,367,369;,
  3;341,369,371;,
  3;341,371,373;,
  3;341,373,375;,
  3;341,375,377;,
  3;341,377,379;,
  3;381,380,382;,
  3;381,382,383;,
  3;383,382,384;,
  3;383,384,385;,
  3;385,384,386;,
  3;385,386,387;,
  3;387,386,388;,
  3;387,388,389;,
  3;389,388,390;,
  3;389,390,391;,
  3;391,390,392;,
  3;391,392,393;,
  3;393,392,394;,
  3;393,394,395;,
  3;395,394,396;,
  3;395,396,397;,
  3;397,396,398;,
  3;397,398,399;,
  3;399,398,400;,
  3;399,400,401;,
  3;401,400,402;,
  3;401,402,403;,
  3;403,402,404;,
  3;403,404,405;,
  3;405,404,406;,
  3;405,406,407;,
  3;407,406,408;,
  3;407,408,409;,
  3;409,408,410;,
  3;409,410,411;,
  3;411,410,412;,
  3;411,412,413;,
  3;413,412,414;,
  3;413,414,415;,
  3;415,414,416;,
  3;415,416,417;,
  3;417,416,418;,
  3;417,418,419;,
  3;419,418,380;,
  3;419,380,381;,
  3;418,416,414;,
  3;418,414,412;,
  3;418,412,410;,
  3;418,410,408;,
  3;418,408,406;,
  3;418,406,404;,
  3;418,404,402;,
  3;418,402,400;,
  3;418,400,398;,
  3;418,398,396;,
  3;418,396,394;,
  3;418,394,392;,
  3;418,392,390;,
  3;418,390,388;,
  3;418,388,386;,
  3;418,386,384;,
  3;418,384,382;,
  3;418,382,380;,
  3;381,383,385;,
  3;381,385,387;,
  3;381,387,389;,
  3;381,389,391;,
  3;381,391,393;,
  3;381,393,395;,
  3;381,395,397;,
  3;381,397,399;,
  3;381,399,401;,
  3;381,401,403;,
  3;381,403,405;,
  3;381,405,407;,
  3;381,407,409;,
  3;381,409,411;,
  3;381,411,413;,
  3;381,413,415;,
  3;381,415,417;,
  3;381,417,419;,
  3;420,420,420;,
  3;421,421,421;,
  3;422,422,422;,
  3;423,423,423;,
  3;424,424,424;,
  3;425,425,425;,
  3;426,426,426;,
  3;427,427,427;,
  3;428,428,428;,
  3;429,429,429;;
 }
}