xof 0303txt 0032
template Vector {
 <3d82ab5e-62da-11cf-ab39-0020af71e433>
 FLOAT x;
 FLOAT y;
 FLOAT z;
}

template MeshFace {
 <3d82ab5f-62da-11cf-ab39-0020af71e433>
 DWORD nFaceVertexIndices;
 array DWORD faceVertexIndices[nFaceVertexIndices];
}

template Mesh {
 <3d82ab44-62da-11cf-ab39-0020af71e433>
 DWORD nVertices;
 array Vector vertices[nVertices];
 DWORD nFaces;
 array MeshFace faces[nFaces];
 [...]
}

template ColorRGBA {
 <35ff44e0-6c7c-11cf-8f52-0040333594a3>
 FLOAT red;
 FLOAT green;
 FLOAT blue;
 FLOAT alpha;
}

template ColorRGB {
 <d3e16e81-7835-11cf-8f52-0040333594a3>
 FLOAT red;
 FLOAT green;
 FLOAT blue;
}

template Material {
 <3d82ab4d-62da-11cf-ab39-0020af71e433>
 ColorRGBA faceColor;
 FLOAT power;
 ColorRGB specularColor;
 ColorRGB emissiveColor;
 [...]
}

template MeshMaterialList {
 <f6f23f42-7686-11cf-8f52-0040333594a3>
 DWORD nMaterials;
 DWORD nFaceIndexes;
 array DWORD faceIndexes[nFaceIndexes];
 [Material <3d82ab4d-62da-11cf-ab39-0020af71e433>]
}

template TextureFilename {
 <a42790e1-7810-11cf-8f52-0040333594a3>
 STRING filename;
}

template Coords2d {
 <f6f23f44-7686-11cf-8f52-0040333594a3>
 FLOAT u;
 FLOAT v;
}

template MeshTextureCoords {
 <f6f23f40-7686-11cf-8f52-0040333594a3>
 DWORD nTextureCoords;
 array Coords2d textureCoords[nTextureCoords];
}

template MeshNormals {
 <f6f23f43-7686-11cf-8f52-0040333594a3>
 DWORD nNormals;
 array Vector normals[nNormals];
 DWORD nFaceNormals;
 array MeshFace faceNormals[nFaceNormals];
}


Mesh  {
 222;
 -4.100000;1.250000;-12.500000;,
 -4.100000;4.500000;-12.500000;,
 -4.100000;4.800000;-13.500000;,
 -4.100000;6.000000;-13.500000;,
 -4.100000;6.000000;-4.000000;,
 -4.100000;4.800000;-4.000000;,
 -4.100000;4.500000;-5.000000;,
 -4.100000;1.250000;-5.000000;,
 -4.100000;1.250000;-6.500000;,
 -4.100000;4.500000;-6.500000;,
 -4.100000;4.500000;-11.000000;,
 -4.100000;1.250000;-11.000000;,
 -5.600000;1.250000;-12.500000;,
 -5.600000;4.500000;-12.500000;,
 -5.600000;4.800000;-13.500000;,
 -5.600000;6.000000;-13.500000;,
 -5.600000;6.000000;-4.000000;,
 -5.600000;4.800000;-4.000000;,
 -5.600000;4.500000;-5.000000;,
 -5.600000;1.250000;-5.000000;,
 -5.600000;1.250000;-6.500000;,
 -5.600000;4.500000;-6.500000;,
 -5.600000;4.500000;-11.000000;,
 -5.600000;1.250000;-11.000000;,
 -4.000000;1.250000;-12.599999;,
 -4.000000;1.050000;-12.599999;,
 -5.699999;1.050000;-12.599999;,
 -5.699999;1.250000;-12.599999;,
 -4.000000;1.250000;-10.899999;,
 -4.000000;1.050000;-10.899999;,
 -5.699999;1.050000;-10.899999;,
 -5.699999;1.250000;-10.899999;,
 -4.000000;1.250000;-6.599999;,
 -4.000000;1.050000;-6.599999;,
 -5.699999;1.050000;-6.599999;,
 -5.699999;1.250000;-6.599999;,
 -4.000000;1.250000;-4.900000;,
 -4.000000;1.050000;-4.900000;,
 -5.699999;1.050000;-4.900000;,
 -5.699999;1.250000;-4.900000;,
 8.800000;1.250000;-12.500000;,
 8.800000;4.500000;-12.500000;,
 8.800000;4.800000;-13.500000;,
 8.800000;6.000000;-13.500000;,
 8.800000;6.000000;-4.000000;,
 8.800000;4.800000;-4.000000;,
 8.800000;4.500000;-5.000000;,
 8.800000;1.250000;-5.000000;,
 8.800000;1.250000;-6.500000;,
 8.800000;4.500000;-6.500000;,
 8.800000;4.500000;-11.000000;,
 8.800000;1.250000;-11.000000;,
 10.000000;1.250000;-12.500000;,
 10.000000;4.500000;-12.500000;,
 10.000000;4.800000;-13.500000;,
 10.000000;6.000000;-13.500000;,
 10.000000;4.800000;-4.000000;,
 10.000000;4.500000;-5.000000;,
 10.000000;1.250000;-6.500000;,
 10.000000;4.500000;-6.500000;,
 10.000000;4.500000;-11.000000;,
 10.249999;1.250000;-12.599999;,
 10.249999;1.050000;-12.599999;,
 8.549998;1.050000;-12.599999;,
 8.549998;1.250000;-12.599999;,
 10.249999;1.250000;-10.899999;,
 10.249999;1.050000;-10.899999;,
 8.549998;1.050000;-10.899999;,
 8.549998;1.250000;-10.899999;,
 10.249999;1.250000;-6.599999;,
 10.249999;1.050000;-6.599999;,
 8.549998;1.050000;-6.599999;,
 8.549998;1.250000;-6.599999;,
 10.249999;1.250000;-4.900000;,
 10.249999;1.050000;-4.900000;,
 8.549998;1.050000;-4.900000;,
 8.549998;1.250000;-4.900000;,
 22.400000;1.250000;-12.500000;,
 22.400000;4.500000;-12.500000;,
 22.400000;4.800000;-13.500000;,
 22.400000;6.000000;-13.500000;,
 22.400000;6.000000;-4.000000;,
 22.400000;4.800000;-4.000000;,
 22.400000;4.500000;-5.000000;,
 22.400000;1.250000;-5.000000;,
 22.400000;1.250000;-6.500000;,
 22.400000;4.500000;-6.500000;,
 22.400000;4.500000;-11.000000;,
 22.400000;1.250000;-11.000000;,
 23.600000;1.250000;-12.500000;,
 23.600000;4.500000;-12.500000;,
 23.600000;4.800000;-13.500000;,
 23.600000;6.000000;-13.500000;,
 23.600000;4.800000;-4.000000;,
 23.600000;4.500000;-5.000000;,
 23.600000;1.250000;-6.500000;,
 23.600000;4.500000;-6.500000;,
 23.600000;4.500000;-11.000000;,
 23.849998;1.250000;-12.599999;,
 23.849998;1.050000;-12.599999;,
 22.149998;1.050000;-12.599999;,
 22.149998;1.250000;-12.599999;,
 23.849998;1.250000;-10.899999;,
 23.849998;1.050000;-10.899999;,
 22.149998;1.050000;-10.899999;,
 22.149998;1.250000;-10.899999;,
 23.849998;1.250000;-6.599999;,
 23.849998;1.050000;-6.599999;,
 22.149998;1.050000;-6.599999;,
 22.149998;1.250000;-6.599999;,
 23.849998;1.250000;-4.900000;,
 23.849998;1.050000;-4.900000;,
 22.149998;1.050000;-4.900000;,
 22.149998;1.250000;-4.900000;,
 34.400002;-0.500000;-12.500000;,
 34.400002;4.500000;-12.500000;,
 34.400002;4.800000;-13.500000;,
 34.400002;6.000000;-13.500000;,
 34.400002;6.000000;-4.000000;,
 34.400002;4.800000;-4.000000;,
 34.400002;4.500000;-5.000000;,
 34.400002;-0.500000;-5.000000;,
 34.400002;-0.500000;-6.500000;,
 34.400002;4.500000;-6.500000;,
 34.400002;4.500000;-11.000000;,
 34.400002;-0.500000;-11.000000;,
 35.599998;-0.500000;-12.500000;,
 35.599998;4.500000;-12.500000;,
 35.599998;4.800000;-13.500000;,
 35.599998;6.000000;-13.500000;,
 35.599998;4.800000;-4.000000;,
 35.599998;4.500000;-5.000000;,
 35.599998;-0.500000;-6.500000;,
 35.599998;4.500000;-6.500000;,
 35.599998;4.500000;-11.000000;,
 35.849995;-0.400000;-12.599999;,
 35.849995;-0.600000;-12.599999;,
 34.149998;-0.600000;-12.599999;,
 34.149998;-0.400000;-12.599999;,
 35.849995;-0.400000;-10.899999;,
 35.849995;-0.600000;-10.899999;,
 34.149998;-0.600000;-10.899999;,
 34.149998;-0.400000;-10.899999;,
 35.849995;-0.400000;-6.599999;,
 35.849995;-0.600000;-6.599999;,
 34.149998;-0.600000;-6.599999;,
 34.149998;-0.400000;-6.599999;,
 35.849995;-0.400000;-4.900000;,
 35.849995;-0.600000;-4.900000;,
 34.149998;-0.600000;-4.900000;,
 34.149998;-0.400000;-4.900000;,
 46.400002;-0.500000;-12.500000;,
 46.400002;4.500000;-12.500000;,
 46.400002;4.800000;-13.500000;,
 46.400002;6.000000;-13.500000;,
 46.400002;6.000000;-4.000000;,
 46.400002;4.800000;-4.000000;,
 46.400002;4.500000;-5.000000;,
 46.400002;-0.500000;-5.000000;,
 46.400002;-0.500000;-6.500000;,
 46.400002;4.500000;-6.500000;,
 46.400002;4.500000;-11.000000;,
 46.400002;-0.500000;-11.000000;,
 47.599998;-0.500000;-12.500000;,
 47.599998;4.500000;-12.500000;,
 47.599998;4.800000;-13.500000;,
 47.599998;6.000000;-13.500000;,
 47.599998;4.800000;-4.000000;,
 47.599998;4.500000;-5.000000;,
 47.599998;-0.500000;-6.500000;,
 47.599998;4.500000;-6.500000;,
 47.599998;4.500000;-11.000000;,
 47.849995;-0.400000;-12.599999;,
 47.849995;-0.600000;-12.599999;,
 46.149998;-0.600000;-12.599999;,
 46.149998;-0.400000;-12.599999;,
 47.849995;-0.400000;-10.899999;,
 47.849995;-0.600000;-10.899999;,
 46.149998;-0.600000;-10.899999;,
 46.149998;-0.400000;-10.899999;,
 47.849995;-0.400000;-6.599999;,
 47.849995;-0.600000;-6.599999;,
 46.149998;-0.600000;-6.599999;,
 46.149998;-0.400000;-6.599999;,
 47.849995;-0.400000;-4.900000;,
 47.849995;-0.600000;-4.900000;,
 46.149998;-0.600000;-4.900000;,
 46.149998;-0.400000;-4.900000;,
 -20.000000;6.500000;-14.500000;,
 -20.000000;6.200000;-14.500000;,
 -20.000000;5.950000;-13.900000;,
 -20.000000;5.950000;-13.500000;,
 50.000000;6.500000;-14.500000;,
 50.000000;6.200000;-14.500000;,
 50.000000;5.950000;-13.900000;,
 50.000000;5.950000;-13.500000;,
 -20.000000;6.000000;-4.000000;,
 -20.000000;5.950000;-4.000000;,
 -20.000000;5.950000;-3.600000;,
 50.000000;6.000000;-4.000000;,
 50.000000;5.950000;-4.000000;,
 50.000000;5.950000;-3.600000;,
 -20.000000;6.000000;-13.500000;,
 -20.000000;6.000000;-4.000000;,
 50.000000;6.000000;-13.500000;,
 50.000000;6.000000;-4.000000;,
 25.000000;6.500000;-14.500000;,
 25.000000;10.500000;-14.500000;,
 50.000000;10.500000;-14.500000;,
 50.000000;6.500000;-14.500000;,
 -20.000000;6.500000;-14.500000;,
 -20.000000;10.500000;-14.500000;,
 -3.650000;10.500000;-14.500000;,
 -3.650000;6.500000;-14.500000;,
 25.000000;10.500000;-14.500000;,
 25.000000;12.500000;-8.750000;,
 50.000000;12.500000;-8.750000;,
 50.000000;10.500000;-14.500000;,
 -20.000000;10.500000;-14.500000;,
 -20.000000;12.500000;-8.750000;,
 -3.650000;12.500000;-8.750000;,
 -3.650000;10.500000;-14.500000;;
 248;
 3;0,1,10;,
 3;0,10,11;,
 3;1,2,3;,
 3;1,3,4;,
 3;1,4,5;,
 3;1,5,6;,
 3;6,7,8;,
 3;6,8,9;,
 3;23,22,13;,
 3;23,13,12;,
 3;18,17,16;,
 3;18,16,15;,
 3;18,15,14;,
 3;18,14,13;,
 3;21,20,19;,
 3;21,19,18;,
 3;12,13,1;,
 3;12,1,0;,
 3;13,14,2;,
 3;13,2,1;,
 3;14,15,3;,
 3;14,3,2;,
 3;6,5,17;,
 3;6,17,18;,
 3;20,21,9;,
 3;20,9,8;,
 3;21,22,10;,
 3;21,10,9;,
 3;24,25,26;,
 3;24,26,27;,
 3;27,26,30;,
 3;27,30,31;,
 3;31,30,29;,
 3;31,29,28;,
 3;28,29,25;,
 3;28,25,24;,
 3;24,27,31;,
 3;24,31,28;,
 3;25,29,30;,
 3;25,30,26;,
 3;32,33,34;,
 3;32,34,35;,
 3;35,34,38;,
 3;35,38,39;,
 3;39,38,37;,
 3;39,37,36;,
 3;36,37,33;,
 3;36,33,32;,
 3;32,35,39;,
 3;32,39,36;,
 3;33,37,38;,
 3;33,38,34;,
 3;51,50,41;,
 3;51,41,40;,
 3;46,45,44;,
 3;46,44,43;,
 3;46,43,42;,
 3;46,42,41;,
 3;49,48,47;,
 3;49,47,46;,
 3;40,41,53;,
 3;40,53,52;,
 3;41,42,54;,
 3;41,54,53;,
 3;42,43,55;,
 3;42,55,54;,
 3;45,46,57;,
 3;45,57,56;,
 3;48,49,59;,
 3;48,59,58;,
 3;49,50,60;,
 3;49,60,59;,
 3;61,62,63;,
 3;61,63,64;,
 3;64,63,67;,
 3;64,67,68;,
 3;68,67,66;,
 3;68,66,65;,
 3;65,66,62;,
 3;65,62,61;,
 3;61,64,68;,
 3;61,68,65;,
 3;62,66,67;,
 3;62,67,63;,
 3;69,70,71;,
 3;69,71,72;,
 3;72,71,75;,
 3;72,75,76;,
 3;76,75,74;,
 3;76,74,73;,
 3;73,74,70;,
 3;73,70,69;,
 3;69,72,76;,
 3;69,76,73;,
 3;70,74,75;,
 3;70,75,71;,
 3;88,87,78;,
 3;88,78,77;,
 3;83,82,81;,
 3;83,81,80;,
 3;83,80,79;,
 3;83,79,78;,
 3;86,85,84;,
 3;86,84,83;,
 3;77,78,90;,
 3;77,90,89;,
 3;78,79,91;,
 3;78,91,90;,
 3;79,80,92;,
 3;79,92,91;,
 3;82,83,94;,
 3;82,94,93;,
 3;85,86,96;,
 3;85,96,95;,
 3;86,87,97;,
 3;86,97,96;,
 3;98,99,100;,
 3;98,100,101;,
 3;101,100,104;,
 3;101,104,105;,
 3;105,104,103;,
 3;105,103,102;,
 3;102,103,99;,
 3;102,99,98;,
 3;98,101,105;,
 3;98,105,102;,
 3;99,103,104;,
 3;99,104,100;,
 3;106,107,108;,
 3;106,108,109;,
 3;109,108,112;,
 3;109,112,113;,
 3;113,112,111;,
 3;113,111,110;,
 3;110,111,107;,
 3;110,107,106;,
 3;106,109,113;,
 3;106,113,110;,
 3;107,111,112;,
 3;107,112,108;,
 3;125,124,115;,
 3;125,115,114;,
 3;120,119,118;,
 3;120,118,117;,
 3;120,117,116;,
 3;120,116,115;,
 3;123,122,121;,
 3;123,121,120;,
 3;114,115,127;,
 3;114,127,126;,
 3;115,116,128;,
 3;115,128,127;,
 3;116,117,129;,
 3;116,129,128;,
 3;119,120,131;,
 3;119,131,130;,
 3;122,123,133;,
 3;122,133,132;,
 3;123,124,134;,
 3;123,134,133;,
 3;135,136,137;,
 3;135,137,138;,
 3;138,137,141;,
 3;138,141,142;,
 3;142,141,140;,
 3;142,140,139;,
 3;139,140,136;,
 3;139,136,135;,
 3;135,138,142;,
 3;135,142,139;,
 3;136,140,141;,
 3;136,141,137;,
 3;143,144,145;,
 3;143,145,146;,
 3;146,145,149;,
 3;146,149,150;,
 3;150,149,148;,
 3;150,148,147;,
 3;147,148,144;,
 3;147,144,143;,
 3;143,146,150;,
 3;143,150,147;,
 3;144,148,149;,
 3;144,149,145;,
 3;162,161,152;,
 3;162,152,151;,
 3;157,156,155;,
 3;157,155,154;,
 3;157,154,153;,
 3;157,153,152;,
 3;160,159,158;,
 3;160,158,157;,
 3;151,152,164;,
 3;151,164,163;,
 3;152,153,165;,
 3;152,165,164;,
 3;153,154,166;,
 3;153,166,165;,
 3;156,157,168;,
 3;156,168,167;,
 3;159,160,170;,
 3;159,170,169;,
 3;160,161,171;,
 3;160,171,170;,
 3;172,173,174;,
 3;172,174,175;,
 3;175,174,178;,
 3;175,178,179;,
 3;179,178,177;,
 3;179,177,176;,
 3;176,177,173;,
 3;176,173,172;,
 3;172,175,179;,
 3;172,179,176;,
 3;173,177,178;,
 3;173,178,174;,
 3;180,181,182;,
 3;180,182,183;,
 3;183,182,186;,
 3;183,186,187;,
 3;187,186,185;,
 3;187,185,184;,
 3;184,185,181;,
 3;184,181,180;,
 3;180,183,187;,
 3;180,187,184;,
 3;181,185,186;,
 3;181,186,182;,
 3;191,190,194;,
 3;191,194,195;,
 3;190,189,193;,
 3;190,193,194;,
 3;189,188,192;,
 3;189,192,193;,
 3;198,197,200;,
 3;198,200,201;,
 3;197,196,199;,
 3;197,199,200;,
 3;204,205,203;,
 3;204,203,202;,
 3;206,207,208;,
 3;206,208,209;,
 3;210,211,212;,
 3;210,212,213;,
 3;214,215,216;,
 3;214,216,217;,
 3;218,219,220;,
 3;218,220,221;;

 MeshMaterialList  {
  22;
  248;
  0,
  0,
  0,
  0,
  0,
  0,
  0,
  0,
  0,
  0,
  0,
  0,
  0,
  0,
  0,
  0,
  0,
  0,
  0,
  0,
  0,
  0,
  0,
  0,
  0,
  0,
  0,
  0,
  1,
  1,
  1,
  1,
  1,
  1,
  1,
  1,
  1,
  1,
  1,
  1,
  2,
  2,
  2,
  2,
  2,
  2,
  2,
  2,
  2,
  2,
  2,
  2,
  3,
  3,
  3,
  3,
  3,
  3,
  3,
  3,
  3,
  3,
  3,
  3,
  3,
  3,
  3,
  3,
  3,
  3,
  3,
  3,
  4,
  4,
  4,
  4,
  4,
  4,
  4,
  4,
  4,
  4,
  4,
  4,
  5,
  5,
  5,
  5,
  5,
  5,
  5,
  5,
  5,
  5,
  5,
  5,
  6,
  6,
  6,
  6,
  6,
  6,
  6,
  6,
  6,
  6,
  6,
  6,
  6,
  6,
  6,
  6,
  6,
  6,
  6,
  6,
  7,
  7,
  7,
  7,
  7,
  7,
  7,
  7,
  7,
  7,
  7,
  7,
  8,
  8,
  8,
  8,
  8,
  8,
  8,
  8,
  8,
  8,
  8,
  8,
  9,
  9,
  9,
  9,
  9,
  9,
  9,
  9,
  9,
  9,
  9,
  9,
  9,
  9,
  9,
  9,
  9,
  9,
  9,
  9,
  10,
  10,
  10,
  10,
  10,
  10,
  10,
  10,
  10,
  10,
  10,
  10,
  11,
  11,
  11,
  11,
  11,
  11,
  11,
  11,
  11,
  11,
  11,
  11,
  12,
  12,
  12,
  12,
  12,
  12,
  12,
  12,
  12,
  12,
  12,
  12,
  12,
  12,
  12,
  12,
  12,
  12,
  12,
  12,
  13,
  13,
  13,
  13,
  13,
  13,
  13,
  13,
  13,
  13,
  13,
  13,
  14,
  14,
  14,
  14,
  14,
  14,
  14,
  14,
  14,
  14,
  14,
  14,
  15,
  15,
  15,
  15,
  15,
  15,
  16,
  16,
  16,
  16,
  17,
  17,
  18,
  18,
  19,
  19,
  20,
  20,
  21,
  21;

  Material  {
   1.000000;1.000000;1.000000;1.000000;;
   0.000000;
   0.000000;0.000000;0.000000;;
   0.000000;0.000000;0.000000;;

   TextureFilename  {
    "City_Wall.png";
   }
  }

  Material  {
   0.470588;0.470588;0.470588;1.000000;;
   0.000000;
   0.000000;0.000000;0.000000;;
   0.000000;0.000000;0.000000;;
  }

  Material  {
   0.470588;0.470588;0.470588;1.000000;;
   0.000000;
   0.000000;0.000000;0.000000;;
   0.000000;0.000000;0.000000;;
  }

  Material  {
   1.000000;1.000000;1.000000;1.000000;;
   0.000000;
   0.000000;0.000000;0.000000;;
   0.000000;0.000000;0.000000;;

   TextureFilename  {
    "City_Wall.png";
   }
  }

  Material  {
   0.470588;0.470588;0.470588;1.000000;;
   0.000000;
   0.000000;0.000000;0.000000;;
   0.000000;0.000000;0.000000;;
  }

  Material  {
   0.470588;0.470588;0.470588;1.000000;;
   0.000000;
   0.000000;0.000000;0.000000;;
   0.000000;0.000000;0.000000;;
  }

  Material  {
   1.000000;1.000000;1.000000;1.000000;;
   0.000000;
   0.000000;0.000000;0.000000;;
   0.000000;0.000000;0.000000;;

   TextureFilename  {
    "City_Wall.png";
   }
  }

  Material  {
   0.470588;0.470588;0.470588;1.000000;;
   0.000000;
   0.000000;0.000000;0.000000;;
   0.000000;0.000000;0.000000;;
  }

  Material  {
   0.470588;0.470588;0.470588;1.000000;;
   0.000000;
   0.000000;0.000000;0.000000;;
   0.000000;0.000000;0.000000;;
  }

  Material  {
   1.000000;1.000000;1.000000;1.000000;;
   0.000000;
   0.000000;0.000000;0.000000;;
   0.000000;0.000000;0.000000;;

   TextureFilename  {
    "City_Wall.png";
   }
  }

  Material  {
   0.470588;0.470588;0.470588;1.000000;;
   0.000000;
   0.000000;0.000000;0.000000;;
   0.000000;0.000000;0.000000;;
  }

  Material  {
   0.470588;0.470588;0.470588;1.000000;;
   0.000000;
   0.000000;0.000000;0.000000;;
   0.000000;0.000000;0.000000;;
  }

  Material  {
   1.000000;1.000000;1.000000;1.000000;;
   0.000000;
   0.000000;0.000000;0.000000;;
   0.000000;0.000000;0.000000;;

   TextureFilename  {
    "City_Wall.png";
   }
  }

  Material  {
   0.470588;0.470588;0.470588;1.000000;;
   0.000000;
   0.000000;0.000000;0.000000;;
   0.000000;0.000000;0.000000;;
  }

  Material  {
   0.470588;0.470588;0.470588;1.000000;;
   0.000000;
   0.000000;0.000000;0.000000;;
   0.000000;0.000000;0.000000;;
  }

  Material  {
   1.000000;1.000000;1.000000;1.000000;;
   0.000000;
   0.000000;0.000000;0.000000;;
   0.000000;0.000000;0.000000;;

   TextureFilename  {
    "City_Wall.png";
   }
  }

  Material  {
   1.000000;1.000000;1.000000;1.000000;;
   0.000000;
   0.000000;0.000000;0.000000;;
   0.000000;0.000000;0.000000;;

   TextureFilename  {
    "City_Wall.png";
   }
  }

  Material  {
   1.000000;1.000000;1.000000;1.000000;;
   0.000000;
   0.000000;0.000000;0.000000;;
   0.000000;0.000000;0.000000;;

   TextureFilename  {
    "City_Floor.png";
   }
  }

  Material  {
   1.000000;1.000000;1.000000;1.000000;;
   0.000000;
   0.000000;0.000000;0.000000;;
   0.000000;0.000000;0.000000;;

   TextureFilename  {
    "City_Kosen_Wall.png";
   }
  }

  Material  {
   1.000000;1.000000;1.000000;1.000000;;
   0.000000;
   0.000000;0.000000;0.000000;;
   0.000000;0.000000;0.000000;;

   TextureFilename  {
    "City_Kosen_Wall.png";
   }
  }

  Material  {
   1.000000;1.000000;1.000000;1.000000;;
   0.000000;
   0.000000;0.000000;0.000000;;
   0.000000;0.000000;0.000000;;

   TextureFilename  {
    "City_Roof.png";
   }
  }

  Material  {
   1.000000;1.000000;1.000000;1.000000;;
   0.000000;
   0.000000;0.000000;0.000000;;
   0.000000;0.000000;0.000000;;

   TextureFilename  {
    "City_Roof.png";
   }
  }
 }

 MeshTextureCoords  {
  222;
  0.157895;1.000000;,
  0.157895;0.315789;,
  1.000000;0.252632;,
  1.000000;0.000000;,
  -7.000000;0.000000;,
  -7.000000;0.252632;,
  -6.157895;0.315789;,
  -6.157895;1.000000;,
  -4.894737;1.000000;,
  -4.894737;0.315789;,
  -1.105263;0.315789;,
  -1.105263;1.000000;,
  1.157895;1.000000;,
  1.157895;0.315789;,
  2.000000;0.252632;,
  2.000000;0.000000;,
  -6.000000;0.000000;,
  -6.000000;0.252632;,
  -5.157895;0.315789;,
  -5.157895;1.000000;,
  -3.894737;1.000000;,
  -3.894737;0.315789;,
  -0.105263;0.315789;,
  -0.105263;1.000000;,
  0.000000;0.000000;,
  0.000000;0.000000;,
  0.000000;0.000000;,
  0.000000;0.000000;,
  0.000000;0.000000;,
  0.000000;0.000000;,
  0.000000;0.000000;,
  0.000000;0.000000;,
  0.000000;0.000000;,
  0.000000;0.000000;,
  0.000000;0.000000;,
  0.000000;0.000000;,
  0.000000;0.000000;,
  0.000000;0.000000;,
  0.000000;0.000000;,
  0.000000;0.000000;,
  0.157895;1.000000;,
  0.157895;0.315789;,
  1.000000;0.252632;,
  1.000000;0.000000;,
  -7.000000;0.000000;,
  -7.000000;0.252632;,
  -6.157895;0.315789;,
  -6.157895;1.000000;,
  -4.894737;1.000000;,
  -4.894737;0.315789;,
  -1.105263;0.315789;,
  -1.105263;1.000000;,
  1.157895;1.000000;,
  1.157895;0.315789;,
  2.000000;0.252632;,
  2.000000;0.000000;,
  -6.000000;0.252632;,
  -5.157895;0.315789;,
  -3.894737;1.000000;,
  -3.894737;0.315789;,
  -0.105263;0.315789;,
  0.000000;0.000000;,
  0.000000;0.000000;,
  0.000000;0.000000;,
  0.000000;0.000000;,
  0.000000;0.000000;,
  0.000000;0.000000;,
  0.000000;0.000000;,
  0.000000;0.000000;,
  0.000000;0.000000;,
  0.000000;0.000000;,
  0.000000;0.000000;,
  0.000000;0.000000;,
  0.000000;0.000000;,
  0.000000;0.000000;,
  0.000000;0.000000;,
  0.000000;0.000000;,
  0.157895;1.000000;,
  0.157895;0.315789;,
  1.000000;0.252632;,
  1.000000;0.000000;,
  -7.000000;0.000000;,
  -7.000000;0.252632;,
  -6.157895;0.315789;,
  -6.157895;1.000000;,
  -4.894737;1.000000;,
  -4.894737;0.315789;,
  -1.105263;0.315789;,
  -1.105263;1.000000;,
  1.157895;1.000000;,
  1.157895;0.315789;,
  2.000000;0.252632;,
  2.000000;0.000000;,
  -6.000000;0.252632;,
  -5.157895;0.315789;,
  -3.894737;1.000000;,
  -3.894737;0.315789;,
  -0.105263;0.315789;,
  0.000000;0.000000;,
  0.000000;0.000000;,
  0.000000;0.000000;,
  0.000000;0.000000;,
  0.000000;0.000000;,
  0.000000;0.000000;,
  0.000000;0.000000;,
  0.000000;0.000000;,
  0.000000;0.000000;,
  0.000000;0.000000;,
  0.000000;0.000000;,
  0.000000;0.000000;,
  0.000000;0.000000;,
  0.000000;0.000000;,
  0.000000;0.000000;,
  0.000000;0.000000;,
  0.157895;1.000000;,
  0.157895;0.230769;,
  1.000000;0.184615;,
  1.000000;0.000000;,
  -7.000000;0.000000;,
  -7.000000;0.184615;,
  -6.157895;0.230769;,
  -6.157895;1.000000;,
  -4.894737;1.000000;,
  -4.894737;0.230769;,
  -1.105263;0.230769;,
  -1.105263;1.000000;,
  1.157895;1.000000;,
  1.157895;0.230769;,
  2.000000;0.184615;,
  2.000000;0.000000;,
  -6.000000;0.184615;,
  -5.157895;0.230769;,
  -3.894737;1.000000;,
  -3.894737;0.230769;,
  -0.105263;0.230769;,
  0.000000;0.000000;,
  0.000000;0.000000;,
  0.000000;0.000000;,
  0.000000;0.000000;,
  0.000000;0.000000;,
  0.000000;0.000000;,
  0.000000;0.000000;,
  0.000000;0.000000;,
  0.000000;0.000000;,
  0.000000;0.000000;,
  0.000000;0.000000;,
  0.000000;0.000000;,
  0.000000;0.000000;,
  0.000000;0.000000;,
  0.000000;0.000000;,
  0.000000;0.000000;,
  0.157895;1.000000;,
  0.157895;0.230769;,
  1.000000;0.184615;,
  1.000000;0.000000;,
  -7.000000;0.000000;,
  -7.000000;0.184615;,
  -6.157895;0.230769;,
  -6.157895;1.000000;,
  -4.894737;1.000000;,
  -4.894737;0.230769;,
  -1.105263;0.230769;,
  -1.105263;1.000000;,
  1.157895;1.000000;,
  1.157895;0.230769;,
  2.000000;0.184615;,
  2.000000;0.000000;,
  -6.000000;0.184615;,
  -5.157895;0.230769;,
  -3.894737;1.000000;,
  -3.894737;0.230769;,
  -0.105263;0.230769;,
  0.000000;0.000000;,
  0.000000;0.000000;,
  0.000000;0.000000;,
  0.000000;0.000000;,
  0.000000;0.000000;,
  0.000000;0.000000;,
  0.000000;0.000000;,
  0.000000;0.000000;,
  0.000000;0.000000;,
  0.000000;0.000000;,
  0.000000;0.000000;,
  0.000000;0.000000;,
  0.000000;0.000000;,
  0.000000;0.000000;,
  0.000000;0.000000;,
  0.000000;0.000000;,
  0.000000;0.300000;,
  0.300000;0.300000;,
  0.700000;0.300000;,
  1.000000;0.300000;,
  0.000000;0.310000;,
  0.300000;0.310000;,
  0.700000;0.310000;,
  1.000000;0.310000;,
  0.000000;0.300000;,
  0.010000;0.300000;,
  0.200000;0.300000;,
  0.000000;0.310000;,
  0.010000;0.310000;,
  0.200000;0.310000;,
  0.000000;0.000000;,
  4.000000;0.000000;,
  0.000000;0.100000;,
  4.000000;0.100000;,
  0.000000;1.000000;,
  0.000000;0.000000;,
  1.000000;0.000000;,
  1.000000;1.000000;,
  0.000000;1.000000;,
  0.000000;0.000000;,
  0.500000;0.000000;,
  0.500000;1.000000;,
  0.000000;1.000000;,
  0.000000;0.000000;,
  4.000000;0.000000;,
  4.000000;1.000000;,
  0.000000;1.000000;,
  0.000000;0.000000;,
  2.500000;0.000000;,
  2.500000;1.000000;;
 }

 MeshNormals  {
  248;
  1.000000;0.000000;0.000000;,
  1.000000;0.000000;0.000000;,
  1.000000;0.000000;0.000000;,
  1.000000;0.000000;0.000000;,
  1.000000;0.000000;0.000000;,
  1.000000;0.000000;0.000000;,
  1.000000;0.000000;0.000000;,
  1.000000;0.000000;0.000000;,
  -1.000000;0.000000;0.000000;,
  -1.000000;0.000000;0.000000;,
  -1.000000;0.000000;0.000000;,
  -1.000000;0.000000;0.000000;,
  -1.000000;0.000000;0.000000;,
  -1.000000;0.000000;0.000000;,
  -1.000000;0.000000;0.000000;,
  -1.000000;0.000000;0.000000;,
  0.000000;0.000000;-1.000000;,
  0.000000;0.000000;-1.000000;,
  0.000000;-0.957826;-0.287348;,
  0.000000;-0.957826;-0.287348;,
  0.000000;0.000000;-1.000000;,
  0.000000;0.000000;-1.000000;,
  0.000000;-0.957826;0.287348;,
  0.000000;-0.957826;0.287348;,
  0.000000;0.000000;-1.000000;,
  0.000000;0.000000;-1.000000;,
  0.000000;-1.000000;0.000000;,
  0.000000;-1.000000;0.000000;,
  0.000000;0.000000;-1.000000;,
  0.000000;0.000000;-1.000000;,
  -1.000000;0.000000;0.000000;,
  -1.000000;0.000000;0.000000;,
  0.000000;0.000000;1.000000;,
  0.000000;0.000000;1.000000;,
  1.000000;0.000000;0.000000;,
  1.000000;0.000000;0.000000;,
  0.000000;1.000000;0.000000;,
  0.000000;1.000000;0.000000;,
  0.000000;-1.000000;0.000000;,
  0.000000;-1.000000;0.000000;,
  0.000000;0.000000;-1.000000;,
  0.000000;0.000000;-1.000000;,
  -1.000000;0.000000;0.000000;,
  -1.000000;0.000000;0.000000;,
  0.000000;0.000000;1.000000;,
  0.000000;0.000000;1.000000;,
  1.000000;0.000000;0.000000;,
  1.000000;0.000000;0.000000;,
  0.000000;1.000000;0.000000;,
  0.000000;1.000000;0.000000;,
  0.000000;-1.000000;0.000000;,
  0.000000;-1.000000;0.000000;,
  -1.000000;0.000000;0.000000;,
  -1.000000;0.000000;0.000000;,
  -1.000000;0.000000;0.000000;,
  -1.000000;0.000000;0.000000;,
  -1.000000;0.000000;0.000000;,
  -1.000000;0.000000;0.000000;,
  -1.000000;0.000000;0.000000;,
  -1.000000;0.000000;0.000000;,
  0.000000;0.000000;-1.000000;,
  0.000000;0.000000;-1.000000;,
  0.000000;-0.957826;-0.287348;,
  0.000000;-0.957826;-0.287348;,
  0.000000;0.000000;-1.000000;,
  0.000000;0.000000;-1.000000;,
  0.000000;-0.957826;0.287348;,
  0.000000;-0.957826;0.287348;,
  0.000000;0.000000;-1.000000;,
  0.000000;0.000000;-1.000000;,
  0.000000;-1.000000;0.000000;,
  0.000000;-1.000000;0.000000;,
  0.000000;0.000000;-1.000000;,
  0.000000;0.000000;-1.000000;,
  -1.000000;0.000000;0.000000;,
  -1.000000;0.000000;0.000000;,
  0.000000;0.000000;1.000000;,
  0.000000;0.000000;1.000000;,
  1.000000;0.000000;0.000000;,
  1.000000;0.000000;0.000000;,
  0.000000;1.000000;0.000000;,
  0.000000;1.000000;0.000000;,
  0.000000;-1.000000;0.000000;,
  0.000000;-1.000000;0.000000;,
  0.000000;0.000000;-1.000000;,
  0.000000;0.000000;-1.000000;,
  -1.000000;0.000000;0.000000;,
  -1.000000;0.000000;0.000000;,
  0.000000;0.000000;1.000000;,
  0.000000;0.000000;1.000000;,
  1.000000;0.000000;0.000000;,
  1.000000;0.000000;0.000000;,
  0.000000;1.000000;0.000000;,
  0.000000;1.000000;0.000000;,
  0.000000;-1.000000;0.000000;,
  0.000000;-1.000000;0.000000;,
  -1.000000;0.000000;0.000000;,
  -1.000000;0.000000;0.000000;,
  -1.000000;0.000000;0.000000;,
  -1.000000;0.000000;0.000000;,
  -1.000000;0.000000;0.000000;,
  -1.000000;0.000000;0.000000;,
  -1.000000;0.000000;0.000000;,
  -1.000000;0.000000;0.000000;,
  0.000000;0.000000;-1.000000;,
  0.000000;0.000000;-1.000000;,
  0.000000;-0.957826;-0.287348;,
  0.000000;-0.957826;-0.287348;,
  0.000000;0.000000;-1.000000;,
  0.000000;0.000000;-1.000000;,
  0.000000;-0.957826;0.287348;,
  0.000000;-0.957826;0.287348;,
  0.000000;0.000000;-1.000000;,
  0.000000;0.000000;-1.000000;,
  0.000000;-1.000000;0.000000;,
  0.000000;-1.000000;0.000000;,
  0.000000;0.000000;-1.000000;,
  0.000000;0.000000;-1.000000;,
  -1.000000;0.000000;0.000000;,
  -1.000000;0.000000;0.000000;,
  0.000000;0.000000;1.000000;,
  0.000000;0.000000;1.000000;,
  1.000000;0.000000;0.000000;,
  1.000000;0.000000;0.000000;,
  0.000000;1.000000;0.000000;,
  0.000000;1.000000;0.000000;,
  0.000000;-1.000000;0.000000;,
  0.000000;-1.000000;0.000000;,
  0.000000;0.000000;-1.000000;,
  0.000000;0.000000;-1.000000;,
  -1.000000;0.000000;0.000000;,
  -1.000000;0.000000;0.000000;,
  0.000000;0.000000;1.000000;,
  0.000000;0.000000;1.000000;,
  1.000000;0.000000;0.000000;,
  1.000000;0.000000;0.000000;,
  0.000000;1.000000;0.000000;,
  0.000000;1.000000;0.000000;,
  0.000000;-1.000000;0.000000;,
  0.000000;-1.000000;0.000000;,
  -1.000000;0.000000;0.000000;,
  -1.000000;0.000000;0.000000;,
  -1.000000;0.000000;0.000000;,
  -1.000000;0.000000;0.000000;,
  -1.000000;0.000000;0.000000;,
  -1.000000;0.000000;0.000000;,
  -1.000000;0.000000;0.000000;,
  -1.000000;0.000000;0.000000;,
  0.000000;0.000000;-1.000000;,
  0.000000;0.000000;-1.000000;,
  0.000000;-0.957826;-0.287348;,
  0.000000;-0.957826;-0.287348;,
  0.000000;0.000000;-1.000000;,
  0.000000;0.000000;-1.000000;,
  0.000000;-0.957826;0.287348;,
  0.000000;-0.957826;0.287348;,
  0.000000;0.000000;-1.000000;,
  0.000000;0.000000;-1.000000;,
  0.000000;-1.000000;0.000000;,
  0.000000;-1.000000;0.000000;,
  0.000000;0.000000;-1.000000;,
  0.000000;0.000000;-1.000000;,
  -1.000000;0.000000;0.000000;,
  -1.000000;0.000000;0.000000;,
  0.000000;0.000000;1.000000;,
  0.000000;0.000000;1.000000;,
  1.000000;0.000000;0.000000;,
  1.000000;0.000000;0.000000;,
  0.000000;1.000000;0.000000;,
  0.000000;1.000000;0.000000;,
  0.000000;-1.000000;0.000000;,
  0.000000;-1.000000;0.000000;,
  0.000000;0.000000;-1.000000;,
  0.000000;0.000000;-1.000000;,
  -1.000000;0.000000;0.000000;,
  -1.000000;0.000000;0.000000;,
  0.000000;0.000000;1.000000;,
  0.000000;0.000000;1.000000;,
  1.000000;0.000000;0.000000;,
  1.000000;0.000000;0.000000;,
  0.000000;1.000000;0.000000;,
  0.000000;1.000000;0.000000;,
  0.000000;-1.000000;0.000000;,
  0.000000;-1.000000;0.000000;,
  -1.000000;0.000000;0.000000;,
  -1.000000;0.000000;0.000000;,
  -1.000000;0.000000;0.000000;,
  -1.000000;0.000000;0.000000;,
  -1.000000;0.000000;0.000000;,
  -1.000000;0.000000;0.000000;,
  -1.000000;0.000000;0.000000;,
  -1.000000;0.000000;0.000000;,
  0.000000;0.000000;-1.000000;,
  0.000000;0.000000;-1.000000;,
  0.000000;-0.957826;-0.287348;,
  0.000000;-0.957826;-0.287348;,
  0.000000;0.000000;-1.000000;,
  0.000000;0.000000;-1.000000;,
  0.000000;-0.957826;0.287348;,
  0.000000;-0.957826;0.287348;,
  0.000000;0.000000;-1.000000;,
  0.000000;0.000000;-1.000000;,
  0.000000;-1.000000;0.000000;,
  0.000000;-1.000000;0.000000;,
  0.000000;0.000000;-1.000000;,
  0.000000;0.000000;-1.000000;,
  -1.000000;0.000000;0.000000;,
  -1.000000;0.000000;0.000000;,
  0.000000;0.000000;1.000000;,
  0.000000;0.000000;1.000000;,
  1.000000;0.000000;0.000000;,
  1.000000;0.000000;0.000000;,
  0.000000;1.000000;0.000000;,
  0.000000;1.000000;0.000000;,
  0.000000;-1.000000;0.000000;,
  0.000000;-1.000000;0.000000;,
  0.000000;0.000000;-1.000000;,
  0.000000;0.000000;-1.000000;,
  -1.000000;0.000000;0.000000;,
  -1.000000;0.000000;0.000000;,
  0.000000;0.000000;1.000000;,
  0.000000;0.000000;1.000000;,
  1.000000;0.000000;0.000000;,
  1.000000;0.000000;0.000000;,
  0.000000;1.000000;0.000000;,
  0.000000;1.000000;0.000000;,
  0.000000;-1.000000;0.000000;,
  0.000000;-1.000000;0.000000;,
  0.000000;-1.000000;0.000000;,
  0.000000;-1.000000;0.000000;,
  0.000000;-0.923077;-0.384615;,
  0.000000;-0.923077;-0.384615;,
  0.000000;0.000000;-1.000000;,
  0.000000;0.000000;-1.000000;,
  0.000000;-1.000000;0.000000;,
  0.000000;-1.000000;0.000000;,
  0.000000;0.000000;-1.000000;,
  0.000000;0.000000;-1.000000;,
  0.000000;-1.000000;0.000000;,
  0.000000;-1.000000;0.000000;,
  0.000000;0.000000;-1.000000;,
  0.000000;0.000000;-1.000000;,
  0.000000;0.000000;-1.000000;,
  0.000000;0.000000;-1.000000;,
  0.000000;0.944497;-0.328521;,
  0.000000;0.944497;-0.328521;,
  0.000000;0.944497;-0.328521;,
  0.000000;0.944497;-0.328521;;
  248;
  3;0,0,0;,
  3;1,1,1;,
  3;2,2,2;,
  3;3,3,3;,
  3;4,4,4;,
  3;5,5,5;,
  3;6,6,6;,
  3;7,7,7;,
  3;8,8,8;,
  3;9,9,9;,
  3;10,10,10;,
  3;11,11,11;,
  3;12,12,12;,
  3;13,13,13;,
  3;14,14,14;,
  3;15,15,15;,
  3;16,16,16;,
  3;17,17,17;,
  3;18,18,18;,
  3;19,19,19;,
  3;20,20,20;,
  3;21,21,21;,
  3;22,22,22;,
  3;23,23,23;,
  3;24,24,24;,
  3;25,25,25;,
  3;26,26,26;,
  3;27,27,27;,
  3;28,28,28;,
  3;29,29,29;,
  3;30,30,30;,
  3;31,31,31;,
  3;32,32,32;,
  3;33,33,33;,
  3;34,34,34;,
  3;35,35,35;,
  3;36,36,36;,
  3;37,37,37;,
  3;38,38,38;,
  3;39,39,39;,
  3;40,40,40;,
  3;41,41,41;,
  3;42,42,42;,
  3;43,43,43;,
  3;44,44,44;,
  3;45,45,45;,
  3;46,46,46;,
  3;47,47,47;,
  3;48,48,48;,
  3;49,49,49;,
  3;50,50,50;,
  3;51,51,51;,
  3;52,52,52;,
  3;53,53,53;,
  3;54,54,54;,
  3;55,55,55;,
  3;56,56,56;,
  3;57,57,57;,
  3;58,58,58;,
  3;59,59,59;,
  3;60,60,60;,
  3;61,61,61;,
  3;62,62,62;,
  3;63,63,63;,
  3;64,64,64;,
  3;65,65,65;,
  3;66,66,66;,
  3;67,67,67;,
  3;68,68,68;,
  3;69,69,69;,
  3;70,70,70;,
  3;71,71,71;,
  3;72,72,72;,
  3;73,73,73;,
  3;74,74,74;,
  3;75,75,75;,
  3;76,76,76;,
  3;77,77,77;,
  3;78,78,78;,
  3;79,79,79;,
  3;80,80,80;,
  3;81,81,81;,
  3;82,82,82;,
  3;83,83,83;,
  3;84,84,84;,
  3;85,85,85;,
  3;86,86,86;,
  3;87,87,87;,
  3;88,88,88;,
  3;89,89,89;,
  3;90,90,90;,
  3;91,91,91;,
  3;92,92,92;,
  3;93,93,93;,
  3;94,94,94;,
  3;95,95,95;,
  3;96,96,96;,
  3;97,97,97;,
  3;98,98,98;,
  3;99,99,99;,
  3;100,100,100;,
  3;101,101,101;,
  3;102,102,102;,
  3;103,103,103;,
  3;104,104,104;,
  3;105,105,105;,
  3;106,106,106;,
  3;107,107,107;,
  3;108,108,108;,
  3;109,109,109;,
  3;110,110,110;,
  3;111,111,111;,
  3;112,112,112;,
  3;113,113,113;,
  3;114,114,114;,
  3;115,115,115;,
  3;116,116,116;,
  3;117,117,117;,
  3;118,118,118;,
  3;119,119,119;,
  3;120,120,120;,
  3;121,121,121;,
  3;122,122,122;,
  3;123,123,123;,
  3;124,124,124;,
  3;125,125,125;,
  3;126,126,126;,
  3;127,127,127;,
  3;128,128,128;,
  3;129,129,129;,
  3;130,130,130;,
  3;131,131,131;,
  3;132,132,132;,
  3;133,133,133;,
  3;134,134,134;,
  3;135,135,135;,
  3;136,136,136;,
  3;137,137,137;,
  3;138,138,138;,
  3;139,139,139;,
  3;140,140,140;,
  3;141,141,141;,
  3;142,142,142;,
  3;143,143,143;,
  3;144,144,144;,
  3;145,145,145;,
  3;146,146,146;,
  3;147,147,147;,
  3;148,148,148;,
  3;149,149,149;,
  3;150,150,150;,
  3;151,151,151;,
  3;152,152,152;,
  3;153,153,153;,
  3;154,154,154;,
  3;155,155,155;,
  3;156,156,156;,
  3;157,157,157;,
  3;158,158,158;,
  3;159,159,159;,
  3;160,160,160;,
  3;161,161,161;,
  3;162,162,162;,
  3;163,163,163;,
  3;164,164,164;,
  3;165,165,165;,
  3;166,166,166;,
  3;167,167,167;,
  3;168,168,168;,
  3;169,169,169;,
  3;170,170,170;,
  3;171,171,171;,
  3;172,172,172;,
  3;173,173,173;,
  3;174,174,174;,
  3;175,175,175;,
  3;176,176,176;,
  3;177,177,177;,
  3;178,178,178;,
  3;179,179,179;,
  3;180,180,180;,
  3;181,181,181;,
  3;182,182,182;,
  3;183,183,183;,
  3;184,184,184;,
  3;185,185,185;,
  3;186,186,186;,
  3;187,187,187;,
  3;188,188,188;,
  3;189,189,189;,
  3;190,190,190;,
  3;191,191,191;,
  3;192,192,192;,
  3;193,193,193;,
  3;194,194,194;,
  3;195,195,195;,
  3;196,196,196;,
  3;197,197,197;,
  3;198,198,198;,
  3;199,199,199;,
  3;200,200,200;,
  3;201,201,201;,
  3;202,202,202;,
  3;203,203,203;,
  3;204,204,204;,
  3;205,205,205;,
  3;206,206,206;,
  3;207,207,207;,
  3;208,208,208;,
  3;209,209,209;,
  3;210,210,210;,
  3;211,211,211;,
  3;212,212,212;,
  3;213,213,213;,
  3;214,214,214;,
  3;215,215,215;,
  3;216,216,216;,
  3;217,217,217;,
  3;218,218,218;,
  3;219,219,219;,
  3;220,220,220;,
  3;221,221,221;,
  3;222,222,222;,
  3;223,223,223;,
  3;224,224,224;,
  3;225,225,225;,
  3;226,226,226;,
  3;227,227,227;,
  3;228,228,228;,
  3;229,229,229;,
  3;230,230,230;,
  3;231,231,231;,
  3;232,232,232;,
  3;233,233,233;,
  3;234,234,234;,
  3;235,235,235;,
  3;236,236,236;,
  3;237,237,237;,
  3;238,238,238;,
  3;239,239,239;,
  3;240,240,240;,
  3;241,241,241;,
  3;242,242,242;,
  3;243,243,243;,
  3;244,244,244;,
  3;245,245,245;,
  3;246,246,246;,
  3;247,247,247;;
 }
}