xof 0303txt 0032
template Vector {
 <3d82ab5e-62da-11cf-ab39-0020af71e433>
 FLOAT x;
 FLOAT y;
 FLOAT z;
}

template MeshFace {
 <3d82ab5f-62da-11cf-ab39-0020af71e433>
 DWORD nFaceVertexIndices;
 array DWORD faceVertexIndices[nFaceVertexIndices];
}

template Mesh {
 <3d82ab44-62da-11cf-ab39-0020af71e433>
 DWORD nVertices;
 array Vector vertices[nVertices];
 DWORD nFaces;
 array MeshFace faces[nFaces];
 [...]
}

template ColorRGBA {
 <35ff44e0-6c7c-11cf-8f52-0040333594a3>
 FLOAT red;
 FLOAT green;
 FLOAT blue;
 FLOAT alpha;
}

template ColorRGB {
 <d3e16e81-7835-11cf-8f52-0040333594a3>
 FLOAT red;
 FLOAT green;
 FLOAT blue;
}

template Material {
 <3d82ab4d-62da-11cf-ab39-0020af71e433>
 ColorRGBA faceColor;
 FLOAT power;
 ColorRGB specularColor;
 ColorRGB emissiveColor;
 [...]
}

template MeshMaterialList {
 <f6f23f42-7686-11cf-8f52-0040333594a3>
 DWORD nMaterials;
 DWORD nFaceIndexes;
 array DWORD faceIndexes[nFaceIndexes];
 [Material <3d82ab4d-62da-11cf-ab39-0020af71e433>]
}

template TextureFilename {
 <a42790e1-7810-11cf-8f52-0040333594a3>
 STRING filename;
}

template Coords2d {
 <f6f23f44-7686-11cf-8f52-0040333594a3>
 FLOAT u;
 FLOAT v;
}

template MeshTextureCoords {
 <f6f23f40-7686-11cf-8f52-0040333594a3>
 DWORD nTextureCoords;
 array Coords2d textureCoords[nTextureCoords];
}

template MeshNormals {
 <f6f23f43-7686-11cf-8f52-0040333594a3>
 DWORD nNormals;
 array Vector normals[nNormals];
 DWORD nFaceNormals;
 array MeshFace faceNormals[nFaceNormals];
}


Mesh  {
 120;
 -3.300000;1.100000;10.000000;,
 -3.300000;4.500000;10.000000;,
 -3.100000;1.100000;10.000000;,
 -3.100000;4.500000;10.000000;,
 -3.300000;1.100000;20.000000;,
 -3.300000;4.500000;20.000000;,
 -3.100000;1.100000;20.000000;,
 -3.100000;4.500000;20.000000;,
 -6.338000;1.100000;10.000000;,
 -6.338000;4.500000;10.000000;,
 -6.138000;1.100000;10.000000;,
 -6.138000;4.500000;10.000000;,
 -6.338000;1.100000;20.000000;,
 -6.338000;4.500000;20.000000;,
 -6.138000;1.100000;20.000000;,
 -6.138000;4.500000;20.000000;,
 -6.138000;4.100000;10.000000;,
 -6.138000;4.400000;10.000000;,
 -3.300000;4.100000;10.000000;,
 -3.300000;4.400000;10.000000;,
 -6.138000;4.100000;20.000000;,
 -6.138000;4.400000;20.000000;,
 -3.300000;4.100000;20.000000;,
 -3.300000;4.400000;20.000000;,
 -3.200000;4.200000;0.000000;,
 -3.200000;4.500000;0.000000;,
 -3.200000;4.200000;25.000000;,
 -3.200000;4.500000;25.000000;,
 -6.238000;4.200000;0.000000;,
 -6.238000;4.500000;0.000000;,
 -6.238000;4.200000;25.000000;,
 -6.238000;4.500000;25.000000;,
 -7.938000;4.700000;0.000000;,
 -7.938000;4.700000;25.000000;,
 -4.719000;4.500000;0.000000;,
 -4.719000;4.500000;25.000000;,
 -1.500000;4.700000;0.000000;,
 -1.500000;4.700000;25.000000;,
 -1.500000;4.700000;0.000000;,
 -1.500000;5.000000;0.000000;,
 -1.500000;4.700000;25.000000;,
 -1.500000;5.000000;25.000000;,
 -7.938000;4.700000;0.000000;,
 -7.938000;5.000000;0.000000;,
 -7.938000;4.700000;25.000000;,
 -7.938000;5.000000;25.000000;,
 -7.938000;1.110000;-2.780000;,
 -7.938000;1.110000;25.000000;,
 -5.790000;1.110000;-2.780000;,
 -5.790000;1.110000;25.000000;,
 -7.938000;0.010000;-0.420000;,
 -7.938000;0.010000;25.000000;,
 -13.539000;0.010000;-0.420000;,
 -13.539000;0.010000;25.000000;,
 -3.100000;3.600000;20.000000;,
 -3.100000;4.000000;20.000000;,
 -2.700000;3.600000;20.000000;,
 -2.700000;4.000000;20.000000;,
 -6.338000;3.600000;20.000000;,
 -6.338000;4.000000;20.000000;,
 -6.738000;3.600000;20.000000;,
 -6.738000;4.000000;20.000000;,
 7.525000;1.100000;10.000000;,
 7.525000;4.500000;10.000000;,
 7.725000;1.100000;10.000000;,
 7.725000;4.500000;10.000000;,
 7.525000;1.100000;20.000000;,
 7.525000;4.500000;20.000000;,
 7.725000;1.100000;20.000000;,
 7.725000;4.500000;20.000000;,
 10.624800;1.100000;10.000000;,
 10.624800;4.500000;10.000000;,
 10.824800;1.100000;10.000000;,
 10.824800;4.500000;10.000000;,
 10.624800;1.100000;20.000000;,
 10.624800;4.500000;20.000000;,
 10.824800;1.100000;20.000000;,
 10.824800;4.500000;20.000000;,
 10.824800;4.100000;10.000000;,
 10.824800;4.400000;10.000000;,
 7.525000;4.100000;10.000000;,
 7.525000;4.400000;10.000000;,
 10.824800;4.100000;20.000000;,
 10.824800;4.400000;20.000000;,
 7.525000;4.100000;20.000000;,
 7.525000;4.400000;20.000000;,
 7.625000;4.200000;0.000000;,
 7.625000;4.500000;0.000000;,
 7.625000;4.200000;25.000000;,
 7.625000;4.500000;25.000000;,
 10.724800;4.200000;0.000000;,
 10.724800;4.500000;0.000000;,
 10.724800;4.200000;25.000000;,
 10.724800;4.500000;25.000000;,
 5.925000;4.700000;0.000000;,
 5.925000;4.700000;25.000000;,
 9.174900;4.500000;0.000000;,
 9.174900;4.500000;25.000000;,
 12.424800;4.700000;0.000000;,
 12.424800;4.700000;25.000000;,
 5.925000;4.700000;0.000000;,
 5.925000;5.000000;0.000000;,
 5.925000;4.700000;25.000000;,
 5.925000;5.000000;25.000000;,
 5.925000;1.110000;-2.780000;,
 5.925000;1.110000;25.000000;,
 8.134800;1.110000;-2.780000;,
 8.134800;1.110000;25.000000;,
 5.925000;0.010000;-0.420000;,
 5.925000;0.010000;25.000000;,
 0.324000;0.010000;-0.420000;,
 0.324000;0.010000;25.000000;,
 10.824800;3.600000;20.000000;,
 10.824800;4.000000;20.000000;,
 11.224800;3.600000;20.000000;,
 11.224800;4.000000;20.000000;,
 7.525000;3.600000;20.000000;,
 7.525000;4.000000;20.000000;,
 7.125000;3.600000;20.000000;,
 7.125000;4.000000;20.000000;;
 66;
 3;0,1,3;,
 3;0,3,2;,
 3;4,5,7;,
 3;4,7,6;,
 3;8,9,11;,
 3;8,11,10;,
 3;12,13,15;,
 3;12,15,14;,
 3;16,17,19;,
 3;16,19,18;,
 3;20,21,23;,
 3;20,23,22;,
 3;24,25,27;,
 3;24,27,26;,
 3;26,27,25;,
 3;26,25,24;,
 3;28,29,31;,
 3;28,31,30;,
 3;30,31,29;,
 3;30,29,28;,
 3;34,35,33;,
 3;34,33,32;,
 3;36,37,35;,
 3;36,35,34;,
 3;38,39,41;,
 3;38,41,40;,
 3;44,45,43;,
 3;44,43,42;,
 3;46,47,49;,
 3;46,49,48;,
 3;52,53,51;,
 3;52,51,50;,
 3;54,55,57;,
 3;54,57,56;,
 3;60,61,59;,
 3;60,59,58;,
 3;62,63,65;,
 3;62,65,64;,
 3;66,67,69;,
 3;66,69,68;,
 3;70,71,73;,
 3;70,73,72;,
 3;74,75,77;,
 3;74,77,76;,
 3;80,81,79;,
 3;80,79,78;,
 3;84,85,83;,
 3;84,83,82;,
 3;88,89,87;,
 3;88,87,86;,
 3;92,93,91;,
 3;92,91,90;,
 3;96,97,95;,
 3;96,95,94;,
 3;98,99,97;,
 3;98,97,96;,
 3;102,103,101;,
 3;102,101,100;,
 3;104,105,107;,
 3;104,107,106;,
 3;110,111,109;,
 3;110,109,108;,
 3;112,113,115;,
 3;112,115,114;,
 3;118,119,117;,
 3;118,117,116;;

 MeshMaterialList  {
  29;
  66;
  0,
  0,
  1,
  1,
  2,
  2,
  3,
  3,
  4,
  4,
  5,
  5,
  6,
  6,
  6,
  6,
  7,
  7,
  7,
  7,
  8,
  8,
  8,
  8,
  9,
  9,
  10,
  10,
  11,
  11,
  12,
  12,
  13,
  13,
  14,
  14,
  15,
  15,
  16,
  16,
  17,
  17,
  18,
  18,
  19,
  19,
  20,
  20,
  21,
  21,
  22,
  22,
  23,
  23,
  23,
  23,
  24,
  24,
  25,
  25,
  26,
  26,
  27,
  27,
  28,
  28;

  Material  {
   1.000000;1.000000;1.000000;1.000000;;
   0.000000;
   0.000000;0.000000;0.000000;;
   0.000000;0.000000;0.000000;;

   TextureFilename  {
    "RoofIron1.png";
   }
  }

  Material  {
   1.000000;1.000000;1.000000;1.000000;;
   0.000000;
   0.000000;0.000000;0.000000;;
   0.000000;0.000000;0.000000;;

   TextureFilename  {
    "RoofIron1.png";
   }
  }

  Material  {
   1.000000;1.000000;1.000000;1.000000;;
   0.000000;
   0.000000;0.000000;0.000000;;
   0.000000;0.000000;0.000000;;

   TextureFilename  {
    "RoofIron1.png";
   }
  }

  Material  {
   1.000000;1.000000;1.000000;1.000000;;
   0.000000;
   0.000000;0.000000;0.000000;;
   0.000000;0.000000;0.000000;;

   TextureFilename  {
    "RoofIron1.png";
   }
  }

  Material  {
   1.000000;1.000000;1.000000;1.000000;;
   0.000000;
   0.000000;0.000000;0.000000;;
   0.000000;0.000000;0.000000;;

   TextureFilename  {
    "RoofIron2.png";
   }
  }

  Material  {
   1.000000;1.000000;1.000000;1.000000;;
   0.000000;
   0.000000;0.000000;0.000000;;
   0.000000;0.000000;0.000000;;

   TextureFilename  {
    "RoofIron2.png";
   }
  }

  Material  {
   1.000000;1.000000;1.000000;1.000000;;
   0.000000;
   0.000000;0.000000;0.000000;;
   0.000000;0.000000;0.000000;;

   TextureFilename  {
    "RoofIron2.png";
   }
  }

  Material  {
   1.000000;1.000000;1.000000;1.000000;;
   0.000000;
   0.000000;0.000000;0.000000;;
   0.000000;0.000000;0.000000;;

   TextureFilename  {
    "RoofIron2.png";
   }
  }

  Material  {
   1.000000;1.000000;1.000000;1.000000;;
   0.000000;
   0.000000;0.000000;0.000000;;
   0.000000;0.000000;0.000000;;

   TextureFilename  {
    "Roof1.png";
   }
  }

  Material  {
   1.000000;1.000000;1.000000;1.000000;;
   0.000000;
   0.000000;0.000000;0.000000;;
   0.000000;0.000000;0.000000;;

   TextureFilename  {
    "Roof2.png";
   }
  }

  Material  {
   1.000000;1.000000;1.000000;1.000000;;
   0.000000;
   0.000000;0.000000;0.000000;;
   0.000000;0.000000;0.000000;;

   TextureFilename  {
    "Roof2.png";
   }
  }

  Material  {
   0.125490;0.125490;0.125490;0.250980;;
   0.000000;
   0.000000;0.000000;0.000000;;
   0.000000;0.000000;0.000000;;
  }

  Material  {
   0.125490;0.125490;0.125490;0.250980;;
   0.000000;
   0.000000;0.000000;0.000000;;
   0.000000;0.000000;0.000000;;
  }

  Material  {
   1.000000;1.000000;1.000000;1.000000;;
   0.000000;
   0.000000;0.000000;0.000000;;
   0.000000;0.000000;0.000000;;

   TextureFilename  {
    "No3.png";
   }
  }

  Material  {
   1.000000;1.000000;1.000000;1.000000;;
   0.000000;
   0.000000;0.000000;0.000000;;
   0.000000;0.000000;0.000000;;

   TextureFilename  {
    "No4.png";
   }
  }

  Material  {
   1.000000;1.000000;1.000000;1.000000;;
   0.000000;
   0.000000;0.000000;0.000000;;
   0.000000;0.000000;0.000000;;

   TextureFilename  {
    "RoofIron1.png";
   }
  }

  Material  {
   1.000000;1.000000;1.000000;1.000000;;
   0.000000;
   0.000000;0.000000;0.000000;;
   0.000000;0.000000;0.000000;;

   TextureFilename  {
    "RoofIron1.png";
   }
  }

  Material  {
   1.000000;1.000000;1.000000;1.000000;;
   0.000000;
   0.000000;0.000000;0.000000;;
   0.000000;0.000000;0.000000;;

   TextureFilename  {
    "RoofIron1.png";
   }
  }

  Material  {
   1.000000;1.000000;1.000000;1.000000;;
   0.000000;
   0.000000;0.000000;0.000000;;
   0.000000;0.000000;0.000000;;

   TextureFilename  {
    "RoofIron1.png";
   }
  }

  Material  {
   1.000000;1.000000;1.000000;1.000000;;
   0.000000;
   0.000000;0.000000;0.000000;;
   0.000000;0.000000;0.000000;;

   TextureFilename  {
    "RoofIron2.png";
   }
  }

  Material  {
   1.000000;1.000000;1.000000;1.000000;;
   0.000000;
   0.000000;0.000000;0.000000;;
   0.000000;0.000000;0.000000;;

   TextureFilename  {
    "RoofIron2.png";
   }
  }

  Material  {
   1.000000;1.000000;1.000000;1.000000;;
   0.000000;
   0.000000;0.000000;0.000000;;
   0.000000;0.000000;0.000000;;

   TextureFilename  {
    "RoofIron2.png";
   }
  }

  Material  {
   1.000000;1.000000;1.000000;1.000000;;
   0.000000;
   0.000000;0.000000;0.000000;;
   0.000000;0.000000;0.000000;;

   TextureFilename  {
    "RoofIron2.png";
   }
  }

  Material  {
   1.000000;1.000000;1.000000;1.000000;;
   0.000000;
   0.000000;0.000000;0.000000;;
   0.000000;0.000000;0.000000;;

   TextureFilename  {
    "Roof1.png";
   }
  }

  Material  {
   1.000000;1.000000;1.000000;1.000000;;
   0.000000;
   0.000000;0.000000;0.000000;;
   0.000000;0.000000;0.000000;;

   TextureFilename  {
    "Roof2.png";
   }
  }

  Material  {
   0.125490;0.125490;0.125490;0.250980;;
   0.000000;
   0.000000;0.000000;0.000000;;
   0.000000;0.000000;0.000000;;
  }

  Material  {
   0.125490;0.125490;0.125490;0.250980;;
   0.000000;
   0.000000;0.000000;0.000000;;
   0.000000;0.000000;0.000000;;
  }

  Material  {
   1.000000;1.000000;1.000000;1.000000;;
   0.000000;
   0.000000;0.000000;0.000000;;
   0.000000;0.000000;0.000000;;

   TextureFilename  {
    "No1.png";
   }
  }

  Material  {
   1.000000;1.000000;1.000000;1.000000;;
   0.000000;
   0.000000;0.000000;0.000000;;
   0.000000;0.000000;0.000000;;

   TextureFilename  {
    "No2.png";
   }
  }
 }

 MeshTextureCoords  {
  120;
  0.000000;0.750000;,
  0.000000;0.000000;,
  1.000000;0.750000;,
  1.000000;0.000000;,
  0.000000;0.750000;,
  0.000000;0.000000;,
  1.000000;0.750000;,
  1.000000;0.000000;,
  0.000000;0.450000;,
  0.000000;0.100000;,
  1.000000;0.450000;,
  1.000000;0.100000;,
  0.000000;0.450000;,
  0.000000;0.100000;,
  1.000000;0.450000;,
  1.000000;0.100000;,
  0.000000;1.000000;,
  0.000000;0.000000;,
  1.000000;1.000000;,
  1.000000;0.000000;,
  0.000000;1.000000;,
  0.000000;0.000000;,
  1.000000;1.000000;,
  1.000000;0.000000;,
  0.000000;1.000000;,
  0.000000;0.000000;,
  1.000000;1.000000;,
  1.000000;0.000000;,
  0.000000;1.000000;,
  0.000000;0.000000;,
  1.000000;1.000000;,
  1.000000;0.000000;,
  12.500000;0.000000;,
  0.000000;0.000000;,
  12.500000;0.500000;,
  0.000000;0.500000;,
  12.500000;1.000000;,
  0.000000;1.000000;,
  6.250000;1.000000;,
  6.250000;0.000000;,
  0.000000;1.000000;,
  0.000000;0.000000;,
  6.250000;1.000000;,
  6.250000;0.000000;,
  0.000000;1.000000;,
  0.000000;0.000000;,
  0.000000;0.000000;,
  0.000000;0.000000;,
  0.000000;0.000000;,
  0.000000;0.000000;,
  0.000000;0.000000;,
  0.000000;0.000000;,
  0.000000;0.000000;,
  0.000000;0.000000;,
  0.000000;1.000000;,
  0.000000;0.000000;,
  1.000000;1.000000;,
  1.000000;0.000000;,
  1.000000;1.000000;,
  1.000000;0.000000;,
  0.000000;1.000000;,
  0.000000;0.000000;,
  0.000000;0.450000;,
  0.000000;0.100000;,
  1.000000;0.450000;,
  1.000000;0.100000;,
  0.000000;0.450000;,
  0.000000;0.100000;,
  1.000000;0.450000;,
  1.000000;0.100000;,
  0.000000;0.750000;,
  0.000000;0.000000;,
  1.000000;0.750000;,
  1.000000;0.000000;,
  0.000000;0.750000;,
  0.000000;0.000000;,
  1.000000;0.750000;,
  1.000000;0.000000;,
  0.000000;1.000000;,
  0.000000;0.000000;,
  1.000000;1.000000;,
  1.000000;0.000000;,
  0.000000;1.000000;,
  0.000000;0.000000;,
  1.000000;1.000000;,
  1.000000;0.000000;,
  0.000000;1.000000;,
  0.000000;0.000000;,
  1.000000;1.000000;,
  1.000000;0.000000;,
  0.000000;1.000000;,
  0.000000;0.000000;,
  1.000000;1.000000;,
  1.000000;0.000000;,
  12.500000;0.000000;,
  0.000000;0.000000;,
  12.500000;0.500000;,
  0.000000;0.500000;,
  12.500000;1.000000;,
  0.000000;1.000000;,
  6.250000;1.000000;,
  6.250000;0.000000;,
  0.000000;1.000000;,
  0.000000;0.000000;,
  0.000000;0.000000;,
  0.000000;0.000000;,
  0.000000;0.000000;,
  0.000000;0.000000;,
  0.000000;0.000000;,
  0.000000;0.000000;,
  0.000000;0.000000;,
  0.000000;0.000000;,
  0.000000;1.000000;,
  0.000000;0.000000;,
  1.000000;1.000000;,
  1.000000;0.000000;,
  1.000000;1.000000;,
  1.000000;0.000000;,
  0.000000;1.000000;,
  0.000000;0.000000;;
 }

 MeshNormals  {
  66;
  0.000000;0.000000;-1.000000;,
  0.000000;0.000000;-1.000000;,
  0.000000;0.000000;-1.000000;,
  0.000000;0.000000;-1.000000;,
  0.000000;0.000000;-1.000000;,
  0.000000;0.000000;-1.000000;,
  0.000000;0.000000;-1.000000;,
  0.000000;0.000000;-1.000000;,
  0.000000;0.000000;-1.000000;,
  0.000000;0.000000;-1.000000;,
  0.000000;0.000000;-1.000000;,
  0.000000;0.000000;-1.000000;,
  1.000000;0.000000;0.000000;,
  1.000000;0.000000;0.000000;,
  -1.000000;0.000000;0.000000;,
  -1.000000;0.000000;0.000000;,
  1.000000;0.000000;0.000000;,
  1.000000;0.000000;0.000000;,
  -1.000000;0.000000;0.000000;,
  -1.000000;0.000000;0.000000;,
  -0.062011;-0.998075;0.000000;,
  -0.062011;-0.998075;0.000000;,
  0.062011;-0.998075;0.000000;,
  0.062011;-0.998075;0.000000;,
  1.000000;0.000000;0.000000;,
  1.000000;0.000000;0.000000;,
  -1.000000;0.000000;0.000000;,
  -1.000000;0.000000;0.000000;,
  0.000000;1.000000;0.000000;,
  0.000000;1.000000;0.000000;,
  0.000000;1.000000;0.000000;,
  0.000000;1.000000;0.000000;,
  0.000000;0.000000;-1.000000;,
  0.000000;0.000000;-1.000000;,
  0.000000;0.000000;-1.000000;,
  0.000000;0.000000;-1.000000;,
  0.000000;0.000000;-1.000000;,
  0.000000;0.000000;-1.000000;,
  0.000000;0.000000;-1.000000;,
  0.000000;0.000000;-1.000000;,
  0.000000;0.000000;-1.000000;,
  0.000000;0.000000;-1.000000;,
  0.000000;0.000000;-1.000000;,
  0.000000;0.000000;-1.000000;,
  0.000000;0.000000;-1.000000;,
  0.000000;0.000000;-1.000000;,
  0.000000;0.000000;-1.000000;,
  0.000000;0.000000;-1.000000;,
  -1.000000;0.000000;0.000000;,
  -1.000000;0.000000;0.000000;,
  -1.000000;0.000000;0.000000;,
  -1.000000;0.000000;0.000000;,
  -0.061424;-0.998112;0.000000;,
  -0.061424;-0.998112;0.000000;,
  0.061424;-0.998112;0.000000;,
  0.061424;-0.998112;0.000000;,
  -1.000000;0.000000;0.000000;,
  -1.000000;0.000000;0.000000;,
  0.000000;1.000000;0.000000;,
  0.000000;1.000000;0.000000;,
  0.000000;1.000000;0.000000;,
  0.000000;1.000000;0.000000;,
  0.000000;0.000000;-1.000000;,
  0.000000;0.000000;-1.000000;,
  0.000000;0.000000;-1.000000;,
  0.000000;0.000000;-1.000000;;
  66;
  3;0,0,0;,
  3;1,1,1;,
  3;2,2,2;,
  3;3,3,3;,
  3;4,4,4;,
  3;5,5,5;,
  3;6,6,6;,
  3;7,7,7;,
  3;8,8,8;,
  3;9,9,9;,
  3;10,10,10;,
  3;11,11,11;,
  3;12,12,12;,
  3;13,13,13;,
  3;14,14,14;,
  3;15,15,15;,
  3;16,16,16;,
  3;17,17,17;,
  3;18,18,18;,
  3;19,19,19;,
  3;20,20,20;,
  3;21,21,21;,
  3;22,22,22;,
  3;23,23,23;,
  3;24,24,24;,
  3;25,25,25;,
  3;26,26,26;,
  3;27,27,27;,
  3;28,28,28;,
  3;29,29,29;,
  3;30,30,30;,
  3;31,31,31;,
  3;32,32,32;,
  3;33,33,33;,
  3;34,34,34;,
  3;35,35,35;,
  3;36,36,36;,
  3;37,37,37;,
  3;38,38,38;,
  3;39,39,39;,
  3;40,40,40;,
  3;41,41,41;,
  3;42,42,42;,
  3;43,43,43;,
  3;44,44,44;,
  3;45,45,45;,
  3;46,46,46;,
  3;47,47,47;,
  3;48,48,48;,
  3;49,49,49;,
  3;50,50,50;,
  3;51,51,51;,
  3;52,52,52;,
  3;53,53,53;,
  3;54,54,54;,
  3;55,55,55;,
  3;56,56,56;,
  3;57,57,57;,
  3;58,58,58;,
  3;59,59,59;,
  3;60,60,60;,
  3;61,61,61;,
  3;62,62,62;,
  3;63,63,63;,
  3;64,64,64;,
  3;65,65,65;;
 }
}