xof 0303txt 0032
template Vector {
 <3d82ab5e-62da-11cf-ab39-0020af71e433>
 FLOAT x;
 FLOAT y;
 FLOAT z;
}

template MeshFace {
 <3d82ab5f-62da-11cf-ab39-0020af71e433>
 DWORD nFaceVertexIndices;
 array DWORD faceVertexIndices[nFaceVertexIndices];
}

template Mesh {
 <3d82ab44-62da-11cf-ab39-0020af71e433>
 DWORD nVertices;
 array Vector vertices[nVertices];
 DWORD nFaces;
 array MeshFace faces[nFaces];
 [...]
}

template ColorRGBA {
 <35ff44e0-6c7c-11cf-8f52-0040333594a3>
 FLOAT red;
 FLOAT green;
 FLOAT blue;
 FLOAT alpha;
}

template ColorRGB {
 <d3e16e81-7835-11cf-8f52-0040333594a3>
 FLOAT red;
 FLOAT green;
 FLOAT blue;
}

template Material {
 <3d82ab4d-62da-11cf-ab39-0020af71e433>
 ColorRGBA faceColor;
 FLOAT power;
 ColorRGB specularColor;
 ColorRGB emissiveColor;
 [...]
}

template MeshMaterialList {
 <f6f23f42-7686-11cf-8f52-0040333594a3>
 DWORD nMaterials;
 DWORD nFaceIndexes;
 array DWORD faceIndexes[nFaceIndexes];
 [Material <3d82ab4d-62da-11cf-ab39-0020af71e433>]
}

template TextureFilename {
 <a42790e1-7810-11cf-8f52-0040333594a3>
 STRING filename;
}

template Coords2d {
 <f6f23f44-7686-11cf-8f52-0040333594a3>
 FLOAT u;
 FLOAT v;
}

template MeshTextureCoords {
 <f6f23f40-7686-11cf-8f52-0040333594a3>
 DWORD nTextureCoords;
 array Coords2d textureCoords[nTextureCoords];
}

template MeshNormals {
 <f6f23f43-7686-11cf-8f52-0040333594a3>
 DWORD nNormals;
 array Vector normals[nNormals];
 DWORD nFaceNormals;
 array MeshFace faceNormals[nFaceNormals];
}


Mesh  {
 22;
 1.500000;1.100000;5.000000;,
 -1.500000;1.100000;5.000000;,
 -1.500000;1.100000;30.000000;,
 1.500000;3.600000;5.000000;,
 -1.500000;3.600000;5.000000;,
 -1.500000;3.600000;30.000000;,
 2.500000;3.600000;4.300000;,
 2.500000;3.600000;30.700001;,
 -2.500000;3.600000;4.300000;,
 -2.500000;3.600000;30.700001;,
 2.500000;3.590000;4.300000;,
 -2.500000;3.590000;4.300000;,
 -2.500000;3.590000;30.700001;,
 2.500000;3.900000;4.300000;,
 -2.500000;3.900000;4.300000;,
 -2.500000;3.900000;30.700001;,
 -0.700000;1.200000;4.700000;,
 -1.500000;1.200000;4.700000;,
 -1.500000;1.200000;4.950000;,
 -0.700000;2.200000;4.700000;,
 -1.500000;2.200000;4.700000;,
 -1.500000;2.200000;4.950000;;
 14;
 3;0,1,4;,
 3;0,4,3;,
 3;1,2,5;,
 3;1,5,4;,
 3;6,7,9;,
 3;6,9,8;,
 3;10,11,14;,
 3;10,14,13;,
 3;11,12,15;,
 3;11,15,14;,
 3;16,17,20;,
 3;16,20,19;,
 3;17,18,21;,
 3;17,21,20;;

 MeshMaterialList  {
  4;
  14;
  0,
  0,
  0,
  0,
  1,
  1,
  2,
  2,
  2,
  2,
  3,
  3,
  3,
  3;

  Material  {
   1.000000;1.000000;1.000000;1.000000;;
   0.000000;
   0.000000;0.000000;0.000000;;
   0.000000;0.000000;0.000000;;

   TextureFilename  {
    "WaitingRoom_Wall.png";
   }
  }

  Material  {
   1.000000;1.000000;1.000000;1.000000;;
   0.000000;
   0.000000;0.000000;0.000000;;
   0.000000;0.000000;0.000000;;

   TextureFilename  {
    "WaitingRoom_Roof.png";
   }
  }

  Material  {
   1.000000;1.000000;1.000000;1.000000;;
   0.000000;
   0.000000;0.000000;0.000000;;
   0.000000;0.000000;0.000000;;

   TextureFilename  {
    "WaitingRoom_Roof2.png";
   }
  }

  Material  {
   1.000000;1.000000;1.000000;1.000000;;
   0.000000;
   0.000000;0.000000;0.000000;;
   0.000000;0.000000;0.000000;;

   TextureFilename  {
    "Conp.png";
   }
  }
 }

 MeshTextureCoords  {
  22;
  1.000000;1.000000;,
  0.867200;1.000000;,
  0.000000;1.000000;,
  1.000000;0.000000;,
  0.867200;0.000000;,
  0.000000;0.000000;,
  1.000000;2.000000;,
  1.000000;0.000000;,
  0.000000;2.000000;,
  0.000000;0.000000;,
  1.000000;1.000000;,
  0.936000;1.000000;,
  0.000000;1.000000;,
  1.000000;0.000000;,
  0.936000;0.000000;,
  0.000000;0.000000;,
  1.000000;1.000000;,
  0.240000;1.000000;,
  0.000000;1.000000;,
  1.000000;0.000000;,
  0.240000;0.000000;,
  0.000000;0.000000;;
 }

 MeshNormals  {
  14;
  0.000000;0.000000;-1.000000;,
  0.000000;0.000000;-1.000000;,
  -1.000000;0.000000;0.000000;,
  -1.000000;0.000000;0.000000;,
  0.000000;-1.000000;0.000000;,
  0.000000;-1.000000;0.000000;,
  0.000000;0.000000;-1.000000;,
  0.000000;0.000000;-1.000000;,
  -1.000000;0.000000;0.000000;,
  -1.000000;0.000000;0.000000;,
  0.000000;0.000000;-1.000000;,
  0.000000;0.000000;-1.000000;,
  -1.000000;0.000000;0.000000;,
  -1.000000;0.000000;0.000000;;
  14;
  3;0,0,0;,
  3;1,1,1;,
  3;2,2,2;,
  3;3,3,3;,
  3;4,4,4;,
  3;5,5,5;,
  3;6,6,6;,
  3;7,7,7;,
  3;8,8,8;,
  3;9,9,9;,
  3;10,10,10;,
  3;11,11,11;,
  3;12,12,12;,
  3;13,13,13;;
 }
}