xof 0303txt 0032

Header {
 1;
 0;
 1;
}

Mesh {
 50;
 -600.000000;235.619454;0.000000;,
 -600.000000;-78.539820;0.000000;,
 -579.555496;235.619454;155.291427;,
 -579.555496;-78.539820;155.291427;,
 -519.615242;235.619454;300.000000;,
 -519.615242;-78.539820;300.000000;,
 -424.264069;235.619454;424.264069;,
 -424.264069;-78.539820;424.264069;,
 -300.000000;235.619454;519.615242;,
 -300.000000;-78.539820;519.615242;,
 -155.291427;235.619454;579.555496;,
 -155.291427;-78.539820;579.555496;,
 0.000000;235.619454;600.000000;,
 0.000000;-78.539820;600.000000;,
 155.291427;235.619454;579.555496;,
 155.291427;-78.539820;579.555496;,
 300.000000;235.619454;519.615242;,
 300.000000;-78.539820;519.615242;,
 424.264069;235.619454;424.264069;,
 424.264069;-78.539820;424.264069;,
 519.615242;235.619454;300.000000;,
 519.615242;-78.539820;300.000000;,
 579.555496;235.619454;155.291427;,
 579.555496;-78.539820;155.291427;,
 600.000000;235.619454;0.000000;,
 600.000000;-78.539820;0.000000;,
 579.555496;235.619454;-155.291427;,
 579.555496;-78.539820;-155.291427;,
 519.615242;235.619454;-300.000000;,
 519.615242;-78.539820;-300.000000;,
 424.264069;235.619454;-424.264069;,
 424.264069;-78.539820;-424.264069;,
 300.000000;235.619454;-519.615242;,
 300.000000;-78.539820;-519.615242;,
 155.291427;235.619454;-579.555496;,
 155.291427;-78.539820;-579.555496;,
 0.000000;235.619454;-600.000000;,
 0.000000;-78.539820;-600.000000;,
 -155.291427;235.619454;-579.555496;,
 -155.291427;-78.539820;-579.555496;,
 -300.000000;235.619454;-519.615242;,
 -300.000000;-78.539820;-519.615242;,
 -424.264069;235.619454;-424.264069;,
 -424.264069;-78.539820;-424.264069;,
 -519.615242;235.619454;-300.000000;,
 -519.615242;-78.539820;-300.000000;,
 -579.555496;235.619454;-155.291427;,
 -579.555496;-78.539820;-155.291427;,
 -600.000000;235.619454;0.000000;,
 -600.000000;-78.539820;0.000000;;
 24;
 4;1,0,2,3;,
 4;3,2,4,5;,
 4;5,4,6,7;,
 4;7,6,8,9;,
 4;9,8,10,11;,
 4;11,10,12,13;,
 4;13,12,14,15;,
 4;15,14,16,17;,
 4;17,16,18,19;,
 4;19,18,20,21;,
 4;21,20,22,23;,
 4;23,22,24,25;,
 4;25,24,26,27;,
 4;27,26,28,29;,
 4;29,28,30,31;,
 4;31,30,32,33;,
 4;33,32,34,35;,
 4;35,34,36,37;,
 4;37,36,38,39;,
 4;39,38,40,41;,
 4;41,40,42,43;,
 4;43,42,44,45;,
 4;45,44,46,47;,
 4;47,46,48,49;;

 MeshMaterialList {
  1;
  1;
  0;

  Material {
   1.000000;1.000000;1.000000;1.000000;;
   0.000000;
   1.000000;1.000000;1.000000;;
   1.000000;1.000000;1.000000;;

   TextureFilename {
    "Bg5.bmp";
   }
  }
 }

 MeshNormals {
  25;
  0.991445;0.000000;-0.130526;,
  0.965926;0.000000;-0.258819;,
  0.866025;0.000000;-0.500000;,
  0.707107;0.000000;-0.707107;,
  0.500000;0.000000;-0.866025;,
  0.258819;0.000000;-0.965926;,
  0.000000;0.000000;-1.000000;,
  -0.258819;0.000000;-0.965926;,
  -0.500000;0.000000;-0.866025;,
  -0.707107;0.000000;-0.707107;,
  -0.866025;0.000000;-0.500000;,
  -0.965926;0.000000;-0.258819;,
  -1.000000;0.000000;0.000000;,
  -0.965926;0.000000;0.258819;,
  -0.866025;0.000000;0.500000;,
  -0.707107;0.000000;0.707107;,
  -0.500000;0.000000;0.866025;,
  -0.258819;0.000000;0.965926;,
  0.000000;0.000000;1.000000;,
  0.258819;0.000000;0.965926;,
  0.500000;0.000000;0.866025;,
  0.707107;0.000000;0.707107;,
  0.866025;0.000000;0.500000;,
  0.965926;0.000000;0.258819;,
  0.991445;0.000000;0.130526;;
  24;
  4;0,0,1,1;,
  4;1,1,2,2;,
  4;2,2,3,3;,
  4;3,3,4,4;,
  4;4,4,5,5;,
  4;5,5,6,6;,
  4;6,6,7,7;,
  4;7,7,8,8;,
  4;8,8,9,9;,
  4;9,9,10,10;,
  4;10,10,11,11;,
  4;11,11,12,12;,
  4;12,12,13,13;,
  4;13,13,14,14;,
  4;14,14,15,15;,
  4;15,15,16,16;,
  4;16,16,17,17;,
  4;17,17,18,18;,
  4;18,18,19,19;,
  4;19,19,20,20;,
  4;20,20,21,21;,
  4;21,21,22,22;,
  4;22,22,23,23;,
  4;23,23,24,24;;
 }

 MeshTextureCoords {
  50;
  0.000000;0.000000;,
  0.000000;1.000000;,
  0.250000;0.000000;,
  0.250000;1.000000;,
  0.500000;0.000000;,
  0.500000;1.000000;,
  0.750000;0.000000;,
  0.750000;1.000000;,
  1.000000;0.000000;,
  1.000000;1.000000;,
  1.250000;0.000000;,
  1.250000;1.000000;,
  1.500000;0.000000;,
  1.500000;1.000000;,
  1.750000;0.000000;,
  1.750000;1.000000;,
  2.000000;0.000000;,
  2.000000;1.000000;,
  2.250000;0.000000;,
  2.250000;1.000000;,
  2.500000;0.000000;,
  2.500000;1.000000;,
  2.750000;0.000000;,
  2.750000;1.000000;,
  3.000000;0.000000;,
  3.000000;1.000000;,
  3.250000;0.000000;,
  3.250000;1.000000;,
  3.500000;0.000000;,
  3.500000;1.000000;,
  3.750000;0.000000;,
  3.750000;1.000000;,
  4.000000;0.000000;,
  4.000000;1.000000;,
  4.250000;0.000000;,
  4.250000;1.000000;,
  4.500000;0.000000;,
  4.500000;1.000000;,
  4.750000;0.000000;,
  4.750000;1.000000;,
  5.000000;0.000000;,
  5.000000;1.000000;,
  5.250000;0.000000;,
  5.250000;1.000000;,
  5.500000;0.000000;,
  5.500000;1.000000;,
  5.750000;0.000000;,
  5.750000;1.000000;,
  6.000000;0.000000;,
  6.000000;1.000000;;
 }
}
