xof 0303txt 0032
Material __Color_008_ {
0.1176;0.1176;0.1176;1.0000;;
5.0000;
0.0118;0.0118;0.0118;;	
0.0235;0.0235;0.0235;;	
}
Material __Color_002_ {
0.7765;0.7765;0.7765;1.0000;;
5.0000;
0.0776;0.0776;0.0776;;	
0.1553;0.1553;0.1553;;	
}
Material _8_8_png {
1.0000;1.0000;1.0000;  1.0000;;
5.0000;
0.1000;0.1000;0.1000;;	
0.2000;0.2000;0.2000;;	
   TextureFilename { "3.dds"; }
}
Material _888_888_png {
1.0000;1.0000;1.0000;  1.0000;;
5.0000;
0.1000;0.1000;0.1000;;	
0.2000;0.2000;0.2000;;	
   TextureFilename { "888.dds"; }
}
Mesh mesh_0{
30;
-0.0700;0.3900;0.0000;,
-0.0700;0.0500;-0.1000;,
-0.0700;0.2400;-0.1000;,
-0.0700;0.0500;0.1000;,
-0.0700;0.2400;0.1000;,
0.0700;0.0500;0.1000;,
0.0700;0.2400;-0.1000;,
0.0700;0.0500;-0.1000;,
0.0700;0.3900;0.0000;,
0.0700;0.2400;0.1000;,
0.0700;0.2400;-0.1000;,
-0.0700;0.0500;-0.1000;,
0.0700;0.0500;-0.1000;,
-0.0700;0.2400;-0.1000;,
0.0700;0.3900;0.0000;,
-0.0700;0.2400;-0.1000;,
0.0700;0.2400;-0.1000;,
-0.0700;0.3900;0.0000;,
-0.0700;0.3900;0.0000;,
0.0700;0.2400;0.1000;,
-0.0700;0.2400;0.1000;,
0.0700;0.3900;0.0000;,
-0.0700;0.2400;0.1000;,
0.0700;0.0500;0.1000;,
-0.0700;0.0500;0.1000;,
0.0700;0.2400;0.1000;,
-0.0700;-0.6000;-0.1000;,
-0.0700;-0.6000;0.1000;,
0.0700;-0.6000;-0.1000;,
0.0700;-0.6000;0.1000;;
22;
3;2,1,0,
3;3,0,1,
3;4,0,3,
3;7,6,5,
3;8,5,6,
3;9,5,8,
3;12,11,10,
3;13,10,11,
3;16,15,14,
3;17,14,15,
3;20,19,18,
3;21,18,19,
3;24,23,22,
3;25,22,23,
3;1,26,3,
3;27,3,26,
3;28,26,7,
3;1,7,26,
3;28,7,29,
3;5,29,7,
3;27,29,3,
3;5,3,29;;
  MeshMaterialList {
4;
22;
1,
1,
1,
1,
1,
1,
3,
3,
2,
2,
2,
2,
3,
3,
0,
0,
0,
0,
0,
0,
0,
0;
{ __Color_008_ }
{ __Color_002_ }
{ _8_8_png }
{ _888_888_png }
  }
  MeshTextureCoords {
30;
0.0000,0.0000;
0.0000,0.0000;
0.0000,0.0000;
0.0000,0.0000;
0.0000,0.0000;
0.0000,0.0000;
0.0000,0.0000;
0.0000,0.0000;
0.0000,0.0000;
0.0000,0.0000;
0.9378,-0.1811;
0.0895,0.9702;
0.9378,0.9702;
0.0895,-0.1811;
0.6979,-0.4994;
0.2938,0.0209;
0.6979,0.0209;
0.2938,-0.4994;
0.7021,0.4871;
0.2851,1.0241;
0.7021,1.0241;
0.2851,0.4871;
0.9219,-0.1692;
0.0740,0.9815;
0.9219,0.9815;
0.0740,-0.1692;
0.0000,0.0000;
0.0000,0.0000;
0.0000,0.0000;
0.0000,0.0000;
  }
  MeshNormals {
7;
-1.0000;0.0000;0.0000;,
1.0000;0.0000;0.0000;,
0.0000;0.0000;-1.0000;,
0.0000;0.5547;-0.8321;,
0.0000;0.5547;0.8321;,
0.0000;0.0000;1.0000;,
1.0000;-0.0000;0.0000;;
22;
3;0,0,0;
3;0,0,0;
3;0,0,0;
3;1,1,1;
3;1,1,1;
3;1,1,1;
3;2,2,2;
3;2,2,2;
3;3,3,3;
3;3,3,3;
3;4,4,4;
3;4,4,4;
3;5,5,5;
3;5,5,5;
3;0,0,0;
3;0,0,0;
3;2,2,2;
3;2,2,2;
3;6,6,6;
3;6,6,6;
3;5,5,5;
3;5,5,5;;
  }
}
