xof 0303txt 0032
Material __Color_008_ {
0.1176;0.1176;0.1176;1.0000;;
5.0000;
0.0118;0.0118;0.0118;;	
0.0235;0.0235;0.0235;;	
}
Material __Color_002_ {
0.7765;0.7765;0.7765;1.0000;;
5.0000;
0.0776;0.0776;0.0776;;	
0.1553;0.1553;0.1553;;	
}
Mesh mesh_0{
14;
-0.0700;0.3900;0.0000;,
-0.0700;0.0500;-0.1000;,
-0.0700;0.2400;-0.1000;,
-0.0700;0.0500;0.1000;,
-0.0700;0.2400;0.1000;,
0.0700;0.0500;0.1000;,
0.0700;0.2400;-0.1000;,
0.0700;0.0500;-0.1000;,
0.0700;0.3900;0.0000;,
0.0700;0.2400;0.1000;,
-0.0700;-0.6000;-0.1000;,
-0.0700;-0.6000;0.1000;,
0.0700;-0.6000;-0.1000;,
0.0700;-0.6000;0.1000;;
22;
3;2,1,0,
3;3,0,1,
3;4,0,3,
3;7,6,5,
3;8,5,6,
3;9,5,8,
3;7,1,6,
3;2,6,1,
3;6,2,8,
3;0,8,2,
3;4,9,0,
3;8,0,9,
3;3,5,4,
3;9,4,5,
3;1,10,3,
3;11,3,10,
3;12,10,7,
3;1,7,10,
3;12,7,13,
3;5,13,7,
3;11,13,3,
3;5,3,13;;
  MeshMaterialList {
2;
22;
1,
1,
1,
1,
1,
1,
1,
1,
1,
1,
1,
1,
1,
1,
0,
0,
0,
0,
0,
0,
0,
0;
{ __Color_008_ }
{ __Color_002_ }
  }
  MeshTextureCoords {
14;
0.0000,0.0000;
0.0000,0.0000;
0.0000,0.0000;
0.0000,0.0000;
0.0000,0.0000;
0.0000,0.0000;
0.0000,0.0000;
0.0000,0.0000;
0.0000,0.0000;
0.0000,0.0000;
0.0000,0.0000;
0.0000,0.0000;
0.0000,0.0000;
0.0000,0.0000;
  }
  MeshNormals {
7;
-1.0000;0.0000;0.0000;,
1.0000;0.0000;0.0000;,
0.0000;0.0000;-1.0000;,
0.0000;0.5547;-0.8321;,
0.0000;0.5547;0.8321;,
0.0000;0.0000;1.0000;,
1.0000;-0.0000;0.0000;;
22;
3;0,0,0;
3;0,0,0;
3;0,0,0;
3;1,1,1;
3;1,1,1;
3;1,1,1;
3;2,2,2;
3;2,2,2;
3;3,3,3;
3;3,3,3;
3;4,4,4;
3;4,4,4;
3;5,5,5;
3;5,5,5;
3;0,0,0;
3;0,0,0;
3;2,2,2;
3;2,2,2;
3;6,6,6;
3;6,6,6;
3;5,5,5;
3;5,5,5;;
  }
}
