xof 0303txt 0032
template Vector {
 <3d82ab5e-62da-11cf-ab39-0020af71e433>
 FLOAT x;
 FLOAT y;
 FLOAT z;
}

template MeshFace {
 <3d82ab5f-62da-11cf-ab39-0020af71e433>
 DWORD nFaceVertexIndices;
 array DWORD faceVertexIndices[nFaceVertexIndices];
}

template Mesh {
 <3d82ab44-62da-11cf-ab39-0020af71e433>
 DWORD nVertices;
 array Vector vertices[nVertices];
 DWORD nFaces;
 array MeshFace faces[nFaces];
 [...]
}

template ColorRGBA {
 <35ff44e0-6c7c-11cf-8f52-0040333594a3>
 FLOAT red;
 FLOAT green;
 FLOAT blue;
 FLOAT alpha;
}

template ColorRGB {
 <d3e16e81-7835-11cf-8f52-0040333594a3>
 FLOAT red;
 FLOAT green;
 FLOAT blue;
}

template Material {
 <3d82ab4d-62da-11cf-ab39-0020af71e433>
 ColorRGBA faceColor;
 FLOAT power;
 ColorRGB specularColor;
 ColorRGB emissiveColor;
 [...]
}

template MeshMaterialList {
 <f6f23f42-7686-11cf-8f52-0040333594a3>
 DWORD nMaterials;
 DWORD nFaceIndexes;
 array DWORD faceIndexes[nFaceIndexes];
 [Material <3d82ab4d-62da-11cf-ab39-0020af71e433>]
}

template TextureFilename {
 <a42790e1-7810-11cf-8f52-0040333594a3>
 STRING filename;
}

template Coords2d {
 <f6f23f44-7686-11cf-8f52-0040333594a3>
 FLOAT u;
 FLOAT v;
}

template MeshTextureCoords {
 <f6f23f40-7686-11cf-8f52-0040333594a3>
 DWORD nTextureCoords;
 array Coords2d textureCoords[nTextureCoords];
}

template MeshNormals {
 <f6f23f43-7686-11cf-8f52-0040333594a3>
 DWORD nNormals;
 array Vector normals[nNormals];
 DWORD nFaceNormals;
 array MeshFace faceNormals[nFaceNormals];
}


Mesh  {
 380;
 -1.350000;1.000000;-20.600000;,
 -1.460000;1.650000;-20.600000;,
 -1.460000;1.850000;-20.600000;,
 -1.350000;3.300000;-20.600000;,
 -1.320000;3.360000;-20.600000;,
 -1.140000;3.550000;-20.600000;,
 -1.350000;1.000000;-3.800000;,
 -1.460000;1.650000;-3.800000;,
 -1.460000;1.850000;-3.800000;,
 -1.350000;3.300000;-3.800000;,
 -1.320000;3.360000;-3.800000;,
 -1.140000;3.550000;-3.800000;,
 -1.350000;1.150000;-0.230000;,
 -1.460000;1.650000;-0.230000;,
 -1.460000;1.850000;-0.180000;,
 -1.350000;3.290000;-0.280000;,
 -1.320000;3.360000;-0.330000;,
 -1.300000;1.000000;-0.130000;,
 1.350000;1.000000;-20.600000;,
 1.460000;1.650000;-20.600000;,
 1.460000;1.850000;-20.600000;,
 1.350000;3.300000;-20.600000;,
 1.320000;3.360000;-20.600000;,
 1.140000;3.550000;-20.600000;,
 1.350000;1.000000;-3.800000;,
 1.460000;1.650000;-3.800000;,
 1.460000;1.850000;-3.800000;,
 1.350000;3.300000;-3.800000;,
 1.320000;3.360000;-3.800000;,
 1.140000;3.550000;-3.800000;,
 1.350000;1.150000;-0.230000;,
 1.460000;1.650000;-0.230000;,
 1.460000;1.850000;-0.180000;,
 1.350000;3.290000;-0.280000;,
 1.320000;3.360000;-0.330000;,
 1.300000;1.000000;-0.130000;,
 -1.350000;1.000000;-20.600000;,
 -1.460000;1.650000;-20.600000;,
 -1.460000;1.850000;-20.600000;,
 -1.350000;3.300000;-20.600000;,
 -1.320000;3.360000;-20.600000;,
 -1.140000;3.550000;-20.600000;,
 -0.400000;3.600000;-20.600000;,
 0.400000;3.600000;-20.600000;,
 1.140000;3.550000;-20.600000;,
 1.320000;3.360000;-20.600000;,
 1.350000;3.300000;-20.600000;,
 1.460000;1.850000;-20.600000;,
 1.460000;1.650000;-20.600000;,
 1.350000;1.000000;-20.600000;,
 -1.300000;1.000000;-0.130000;,
 -1.350000;1.150000;-0.230000;,
 -1.460000;1.650000;-0.230000;,
 -1.460000;1.850000;-0.180000;,
 -1.350000;3.290000;-0.280000;,
 -1.320000;3.360000;-0.330000;,
 -1.200000;1.000000;0.020000;,
 -1.250000;1.150000;-0.080000;,
 -1.350000;1.650000;-0.080000;,
 -1.360000;1.850000;-0.030000;,
 -1.250000;3.280000;-0.130000;,
 -1.220000;3.360000;-0.180000;,
 -0.600000;1.000000;0.120000;,
 -0.650000;1.150000;0.020000;,
 -0.750000;1.650000;0.020000;,
 -0.760000;1.850000;0.070000;,
 -0.650000;3.250000;-0.030000;,
 -0.620000;3.360000;-0.080000;,
 0.600000;1.000000;0.120000;,
 0.650000;1.150000;0.020000;,
 0.750000;1.650000;0.020000;,
 0.760000;1.850000;0.070000;,
 0.650000;3.250000;-0.030000;,
 0.620000;3.360000;-0.080000;,
 1.200000;1.000000;0.020000;,
 1.250000;1.150000;-0.080000;,
 1.350000;1.650000;-0.080000;,
 1.360000;1.850000;-0.030000;,
 1.250000;3.280000;-0.130000;,
 1.220000;3.360000;-0.180000;,
 1.300000;1.000000;-0.130000;,
 1.350000;1.150000;-0.230000;,
 1.460000;1.650000;-0.230000;,
 1.460000;1.850000;-0.180000;,
 1.350000;3.290000;-0.280000;,
 1.320000;3.360000;-0.330000;,
 -1.320000;3.360000;-2.000000;,
 -0.940000;3.850000;-1.800000;,
 -1.320000;3.360000;-0.330000;,
 -0.940000;3.850000;-0.830000;,
 -1.220000;3.360000;-0.180000;,
 -0.840000;3.850000;-0.680000;,
 -0.620000;3.360000;-0.080000;,
 -0.240000;3.850000;-0.580000;,
 0.620000;3.360000;-0.080000;,
 0.240000;3.850000;-0.580000;,
 1.220000;3.360000;-0.180000;,
 0.840000;3.850000;-0.680000;,
 1.320000;3.360000;-0.330000;,
 0.940000;3.850000;-0.830000;,
 1.320000;3.360000;-2.000000;,
 0.940000;3.850000;-1.800000;,
 -1.320000;3.360000;-3.800000;,
 -1.140000;3.550000;-3.800000;,
 -1.320000;3.360000;-2.600000;,
 -0.980000;3.800000;-2.600000;,
 -1.320000;3.360000;-2.000000;,
 -0.940000;3.850000;-1.800000;,
 1.320000;3.360000;-3.800000;,
 1.140000;3.550000;-3.800000;,
 1.320000;3.360000;-2.600000;,
 0.980000;3.800000;-2.600000;,
 1.320000;3.360000;-2.000000;,
 0.940000;3.850000;-1.800000;,
 -0.940000;3.850000;-0.830000;,
 -0.840000;3.850000;-0.680000;,
 -0.240000;3.850000;-0.580000;,
 -0.350000;4.000000;-0.780000;,
 0.240000;3.850000;-0.580000;,
 0.350000;4.000000;-0.780000;,
 0.840000;3.850000;-0.680000;,
 0.940000;3.850000;-0.830000;,
 -0.940000;3.850000;-1.400000;,
 -0.350000;4.100000;-1.250000;,
 0.350000;4.100000;-1.250000;,
 0.940000;3.850000;-1.400000;,
 -0.940000;3.850000;-1.800000;,
 -0.350000;4.100000;-1.650000;,
 0.350000;4.100000;-1.650000;,
 0.940000;3.850000;-1.800000;,
 -0.980000;3.800000;-2.600000;,
 -0.350000;3.950000;-2.450000;,
 0.350000;3.950000;-2.450000;,
 0.980000;3.800000;-2.600000;,
 -1.140000;3.550000;-20.600000;,
 -0.400000;3.600000;-20.600000;,
 0.400000;3.600000;-20.600000;,
 1.140000;3.550000;-20.600000;,
 -1.140000;3.550000;-3.800000;,
 -0.400000;3.600000;-3.800000;,
 0.400000;3.600000;-3.800000;,
 1.140000;3.550000;-3.800000;,
 -0.980000;3.550000;-2.800000;,
 -0.400000;3.600000;-2.800000;,
 0.400000;3.600000;-2.800000;,
 0.980000;3.550000;-2.800000;,
 -0.980000;3.800000;-2.600000;,
 -0.350000;3.950000;-2.450000;,
 0.350000;3.950000;-2.450000;,
 0.980000;3.800000;-2.600000;,
 -1.150000;0.500000;-1.300000;,
 -1.300000;1.000000;-1.600000;,
 -1.150000;0.370000;-0.340000;,
 -1.300000;1.000000;-0.140000;,
 -1.100000;0.270000;-0.440000;,
 1.150000;0.500000;-1.300000;,
 1.300000;1.000000;-1.600000;,
 1.150000;0.370000;-0.340000;,
 1.300000;1.000000;-0.140000;,
 1.100000;0.270000;-0.440000;,
 -1.100000;0.270000;-0.440000;,
 -1.150000;0.370000;-0.340000;,
 -1.300000;1.000000;-0.140000;,
 -1.000000;0.250000;-0.290000;,
 -1.050000;0.350000;-0.190000;,
 -1.200000;1.000000;0.010000;,
 -0.600000;0.200000;-0.190000;,
 -0.600000;0.300000;-0.090000;,
 -0.600000;1.000000;0.110000;,
 1.100000;0.270000;-0.440000;,
 1.150000;0.370000;-0.340000;,
 1.300000;1.000000;-0.140000;,
 1.000000;0.250000;-0.290000;,
 1.050000;0.350000;-0.190000;,
 1.200000;1.000000;0.010000;,
 0.600000;0.200000;-0.190000;,
 0.600000;0.300000;-0.090000;,
 0.600000;1.000000;0.110000;,
 -0.800000;0.000000;-0.300000;,
 -0.800000;1.200000;-0.300000;,
 -1.200000;1.200000;-1.400000;,
 -1.200000;0.000000;-1.400000;,
 -1.200000;0.000000;-20.500000;,
 -1.200000;1.200000;-20.500000;,
 1.200000;1.200000;-20.500000;,
 1.200000;0.000000;-20.500000;,
 1.200000;0.000000;-1.400000;,
 1.200000;1.200000;-1.400000;,
 0.800000;1.200000;-0.300000;,
 0.800000;0.000000;-0.300000;,
 -0.900000;3.550000;-13.200000;,
 -0.900000;3.825000;-13.000000;,
 -0.800000;3.900000;-13.000000;,
 -0.300000;3.950000;-13.000000;,
 0.300000;3.950000;-13.000000;,
 0.800000;3.900000;-13.000000;,
 0.900000;3.825000;-13.000000;,
 0.900000;3.550000;-13.200000;,
 -0.900000;3.550000;-7.400000;,
 -0.900000;3.825000;-7.600000;,
 -0.800000;3.900000;-7.600000;,
 -0.300000;3.950000;-7.600000;,
 0.300000;3.950000;-7.600000;,
 0.800000;3.900000;-7.600000;,
 0.900000;3.825000;-7.600000;,
 0.900000;3.550000;-7.400000;,
 -0.900000;3.550000;-13.200000;,
 -0.900000;3.825000;-13.000000;,
 -0.800000;3.550000;-13.254545;,
 -0.800000;3.900000;-13.000000;,
 -0.300000;3.550000;-13.290909;,
 -0.300000;3.950000;-13.000000;,
 0.300000;3.550000;-13.290909;,
 0.300000;3.950000;-13.000000;,
 0.800000;3.550000;-13.254545;,
 0.800000;3.900000;-13.000000;,
 0.900000;3.550000;-13.200000;,
 0.900000;3.825000;-13.000000;,
 -0.900000;3.550000;-7.400000;,
 -0.900000;3.825000;-7.600000;,
 -0.800000;3.550000;-7.345455;,
 -0.800000;3.900000;-7.600000;,
 -0.300000;3.550000;-7.309091;,
 -0.300000;3.950000;-7.600000;,
 0.300000;3.550000;-7.309091;,
 0.300000;3.950000;-7.600000;,
 0.800000;3.550000;-7.345455;,
 0.800000;3.900000;-7.600000;,
 0.900000;3.550000;-7.400000;,
 0.900000;3.825000;-7.600000;,
 0.160000;3.635000;-16.499998;,
 0.180000;3.605000;-16.499998;,
 0.113137;3.635000;-16.386862;,
 0.127279;3.605000;-16.372719;,
 0.000000;3.635000;-16.339998;,
 0.000000;3.605000;-16.319998;,
 -0.113137;3.635000;-16.386862;,
 -0.127279;3.605000;-16.372719;,
 -0.160000;3.635000;-16.499998;,
 -0.180000;3.605000;-16.499998;,
 -0.113137;3.635000;-16.613134;,
 -0.127279;3.605000;-16.627277;,
 -0.000000;3.635000;-16.659998;,
 -0.000000;3.605000;-16.679998;,
 0.113137;3.635000;-16.613134;,
 0.127279;3.605000;-16.627277;,
 0.130000;3.670000;-16.499998;,
 0.130000;3.590000;-16.499998;,
 0.091924;3.670000;-16.408073;,
 0.091924;3.590000;-16.408073;,
 0.000000;3.670000;-16.369999;,
 0.000000;3.590000;-16.369999;,
 -0.091924;3.670000;-16.408073;,
 -0.091924;3.590000;-16.408073;,
 -0.130000;3.670000;-16.499998;,
 -0.130000;3.590000;-16.499998;,
 -0.091924;3.670000;-16.591923;,
 -0.091924;3.590000;-16.591923;,
 -0.000000;3.670000;-16.629997;,
 -0.000000;3.590000;-16.629997;,
 0.091924;3.670000;-16.591923;,
 0.091924;3.590000;-16.591923;,
 0.120000;3.645000;-5.800000;,
 0.120000;3.595000;-5.800000;,
 0.037082;3.645000;-5.685873;,
 0.037082;3.595000;-5.685873;,
 -0.097082;3.645000;-5.729465;,
 -0.097082;3.595000;-5.729465;,
 -0.097082;3.645000;-5.870534;,
 -0.097082;3.595000;-5.870534;,
 0.037082;3.645000;-5.914126;,
 0.037082;3.595000;-5.914126;,
 0.070000;3.900000;-5.800000;,
 0.090000;3.600000;-5.800000;,
 0.021631;3.900000;-5.733426;,
 0.027812;3.600000;-5.714405;,
 -0.056631;3.900000;-5.758855;,
 -0.072812;3.600000;-5.747099;,
 -0.056631;3.900000;-5.841145;,
 -0.072812;3.600000;-5.852901;,
 0.021631;3.900000;-5.866574;,
 0.027812;3.600000;-5.885595;,
 -0.060000;3.550000;-3.300000;,
 -0.060000;3.550000;-3.000000;,
 -0.060000;3.750000;-3.400000;,
 -0.060000;3.750000;-2.900000;,
 0.000000;3.800000;-3.400000;,
 0.000000;3.800000;-2.900000;,
 0.060000;3.750000;-3.400000;,
 0.060000;3.750000;-2.900000;,
 0.060000;3.550000;-3.300000;,
 0.060000;3.550000;-3.000000;,
 0.030000;3.680000;-2.950000;,
 0.030000;3.680000;-3.350000;,
 0.021213;3.658787;-2.950000;,
 0.021213;3.658787;-3.350000;,
 0.000000;3.650000;-2.950000;,
 0.000000;3.650000;-3.350000;,
 -0.021213;3.658787;-2.950000;,
 -0.021213;3.658787;-3.350000;,
 -0.030000;3.680000;-2.950000;,
 -0.030000;3.680000;-3.350000;,
 -0.021213;3.701213;-2.950000;,
 -0.021213;3.701213;-3.350000;,
 -0.000000;3.710000;-2.950000;,
 -0.000000;3.710000;-3.350000;,
 0.021213;3.701213;-2.950000;,
 0.021213;3.701213;-3.350000;,
 -0.330000;3.645000;-3.100000;,
 -0.330000;3.595000;-3.100000;,
 -0.378369;3.645000;-3.033426;,
 -0.378369;3.595000;-3.033426;,
 -0.456631;3.645000;-3.058855;,
 -0.456631;3.595000;-3.058855;,
 -0.456631;3.645000;-3.141145;,
 -0.456631;3.595000;-3.141145;,
 -0.378369;3.645000;-3.166574;,
 -0.378369;3.595000;-3.166574;,
 -0.370000;3.670000;-3.100000;,
 -0.370000;3.570000;-3.100000;,
 -0.390729;3.670000;-3.071468;,
 -0.390729;3.570000;-3.071468;,
 -0.424270;3.670000;-3.082366;,
 -0.424270;3.570000;-3.082366;,
 -0.424270;3.670000;-3.117633;,
 -0.424270;3.570000;-3.117633;,
 -0.390729;3.670000;-3.128531;,
 -0.390729;3.570000;-3.128531;,
 -0.385000;3.695000;-3.100000;,
 -0.385000;3.645000;-3.100000;,
 -0.395365;3.695000;-3.085734;,
 -0.395365;3.645000;-3.085734;,
 -0.412135;3.695000;-3.091183;,
 -0.412135;3.645000;-3.091183;,
 -0.412135;3.695000;-3.108816;,
 -0.412135;3.645000;-3.108816;,
 -0.395365;3.695000;-3.114265;,
 -0.395365;3.645000;-3.114265;,
 -0.350000;3.670000;-3.100000;,
 -0.350000;3.630000;-3.100000;,
 -0.384549;3.670000;-3.052447;,
 -0.384549;3.630000;-3.052447;,
 -0.440451;3.670000;-3.070610;,
 -0.440451;3.630000;-3.070610;,
 -0.440451;3.670000;-3.129389;,
 -0.440451;3.630000;-3.129389;,
 -0.384549;3.670000;-3.147552;,
 -0.384549;3.630000;-3.147552;,
 -0.950000;3.580000;-4.700000;,
 -0.950000;3.580000;-3.900000;,
 -0.950000;3.680000;-4.700000;,
 -0.950000;3.680000;-3.900000;,
 -0.850000;3.780000;-4.700000;,
 -0.850000;3.780000;-3.900000;,
 -0.250000;3.780000;-4.700000;,
 -0.250000;3.780000;-3.900000;,
 -0.150000;3.680000;-4.700000;,
 -0.150000;3.680000;-3.900000;,
 -0.150000;3.580000;-4.700000;,
 -0.150000;3.580000;-3.900000;,
 0.150000;3.580000;-4.700000;,
 0.150000;3.580000;-3.900000;,
 0.150000;3.680000;-4.700000;,
 0.150000;3.680000;-3.900000;,
 0.250000;3.780000;-4.700000;,
 0.250000;3.780000;-3.900000;,
 0.850000;3.780000;-4.700000;,
 0.850000;3.780000;-3.900000;,
 0.950000;3.680000;-4.700000;,
 0.950000;3.680000;-3.900000;,
 0.950000;3.580000;-4.700000;,
 0.950000;3.580000;-3.900000;,
 -0.050000;3.500000;-18.449999;,
 -0.050000;3.900000;-18.499998;,
 -0.050000;3.900000;-18.699999;,
 -0.050000;3.500000;-18.749998;,
 0.050000;3.500000;-18.749998;,
 0.050000;3.900000;-18.699999;,
 0.050000;3.900000;-18.499998;,
 0.050000;3.500000;-18.449999;;
 434;
 3;6,7,1;,
 3;6,1,0;,
 3;7,8,2;,
 3;7,2,1;,
 3;8,9,3;,
 3;8,3,2;,
 3;9,10,4;,
 3;9,4,3;,
 3;10,11,5;,
 3;10,5,4;,
 3;12,13,7;,
 3;12,7,6;,
 3;13,14,8;,
 3;13,8,7;,
 3;14,15,9;,
 3;14,9,8;,
 3;15,16,10;,
 3;15,10,9;,
 3;6,17,12;,
 3;18,19,25;,
 3;18,25,24;,
 3;19,20,26;,
 3;19,26,25;,
 3;20,21,27;,
 3;20,27,26;,
 3;21,22,28;,
 3;21,28,27;,
 3;22,23,29;,
 3;22,29,28;,
 3;24,25,31;,
 3;24,31,30;,
 3;25,26,32;,
 3;25,32,31;,
 3;26,27,33;,
 3;26,33,32;,
 3;27,28,34;,
 3;27,34,33;,
 3;30,35,24;,
 3;36,37,38;,
 3;36,38,39;,
 3;36,39,40;,
 3;36,40,41;,
 3;36,41,42;,
 3;36,42,43;,
 3;36,43,44;,
 3;36,44,45;,
 3;36,45,46;,
 3;36,46,47;,
 3;36,47,48;,
 3;36,48,49;,
 3;56,57,51;,
 3;56,51,50;,
 3;57,58,52;,
 3;57,52,51;,
 3;58,59,53;,
 3;58,53,52;,
 3;59,60,54;,
 3;59,54,53;,
 3;60,61,55;,
 3;60,55,54;,
 3;62,63,57;,
 3;62,57,56;,
 3;63,64,58;,
 3;63,58,57;,
 3;64,65,59;,
 3;64,59,58;,
 3;65,66,60;,
 3;65,60,59;,
 3;66,67,61;,
 3;66,61,60;,
 3;68,69,63;,
 3;68,63,62;,
 3;69,70,64;,
 3;69,64,63;,
 3;70,71,65;,
 3;70,65,64;,
 3;71,72,66;,
 3;71,66,65;,
 3;72,73,67;,
 3;72,67,66;,
 3;74,75,69;,
 3;74,69,68;,
 3;75,76,70;,
 3;75,70,69;,
 3;76,77,71;,
 3;76,71,70;,
 3;77,78,72;,
 3;77,72,71;,
 3;78,79,73;,
 3;78,73,72;,
 3;80,81,75;,
 3;80,75,74;,
 3;81,82,76;,
 3;81,76,75;,
 3;82,83,77;,
 3;82,77,76;,
 3;83,84,78;,
 3;83,78,77;,
 3;84,85,79;,
 3;84,79,78;,
 3;88,89,87;,
 3;88,87,86;,
 3;90,91,89;,
 3;90,89,88;,
 3;92,93,91;,
 3;92,91,90;,
 3;94,95,93;,
 3;94,93,92;,
 3;96,97,95;,
 3;96,95,94;,
 3;98,99,97;,
 3;98,97,96;,
 3;100,101,99;,
 3;100,99,98;,
 3;104,105,103;,
 3;104,103,102;,
 3;106,107,105;,
 3;106,105,104;,
 3;108,109,111;,
 3;108,111,110;,
 3;110,111,113;,
 3;110,113,112;,
 3;114,115,117;,
 3;115,116,117;,
 3;118,119,117;,
 3;118,117,116;,
 3;120,119,118;,
 3;119,120,121;,
 3;114,123,122;,
 3;114,117,123;,
 3;117,119,124;,
 3;117,124,123;,
 3;119,121,124;,
 3;121,125,124;,
 3;122,123,127;,
 3;122,127,126;,
 3;123,124,128;,
 3;123,128,127;,
 3;124,125,129;,
 3;124,129,128;,
 3;126,127,131;,
 3;126,131,130;,
 3;127,128,132;,
 3;127,132,131;,
 3;128,129,133;,
 3;128,133,132;,
 3;138,139,135;,
 3;138,135,134;,
 3;139,140,136;,
 3;139,136,135;,
 3;140,141,137;,
 3;140,137,136;,
 3;142,143,139;,
 3;142,139,138;,
 3;143,144,140;,
 3;143,140,139;,
 3;144,145,141;,
 3;144,141,140;,
 3;146,143,142;,
 3;143,146,147;,
 3;147,148,144;,
 3;147,144,143;,
 3;149,145,144;,
 3;144,148,149;,
 3;141,145,149;,
 3;146,142,138;,
 3;152,153,151;,
 3;152,151,150;,
 3;154,152,150;,
 3;155,156,158;,
 3;155,158,157;,
 3;155,157,159;,
 3;160,161,164;,
 3;160,164,163;,
 3;161,162,165;,
 3;161,165,164;,
 3;163,164,167;,
 3;163,167,166;,
 3;164,165,168;,
 3;164,168,167;,
 3;172,173,170;,
 3;172,170,169;,
 3;173,174,171;,
 3;173,171,170;,
 3;175,176,173;,
 3;175,173,172;,
 3;176,177,174;,
 3;176,174,173;,
 3;178,179,180;,
 3;178,180,181;,
 3;183,182,181;,
 3;183,181,180;,
 3;182,183,184;,
 3;182,184,185;,
 3;187,186,185;,
 3;187,185,184;,
 3;186,187,188;,
 3;186,188,189;,
 3;198,199,191;,
 3;198,191,190;,
 3;199,200,192;,
 3;199,192,191;,
 3;200,201,193;,
 3;200,193,192;,
 3;201,202,194;,
 3;201,194,193;,
 3;202,203,195;,
 3;202,195,194;,
 3;203,204,196;,
 3;203,196,195;,
 3;204,205,197;,
 3;204,197,196;,
 3;206,207,209;,
 3;206,209,208;,
 3;208,209,211;,
 3;208,211,210;,
 3;210,211,213;,
 3;210,213,212;,
 3;212,213,215;,
 3;212,215,214;,
 3;214,215,217;,
 3;214,217,216;,
 3;220,221,219;,
 3;220,219,218;,
 3;222,223,221;,
 3;222,221,220;,
 3;224,225,223;,
 3;224,223,222;,
 3;226,227,225;,
 3;226,225,224;,
 3;228,229,227;,
 3;228,227,226;,
 3;231,230,232;,
 3;231,232,233;,
 3;233,232,234;,
 3;233,234,235;,
 3;235,234,236;,
 3;235,236,237;,
 3;237,236,238;,
 3;237,238,239;,
 3;239,238,240;,
 3;239,240,241;,
 3;241,240,242;,
 3;241,242,243;,
 3;243,242,244;,
 3;243,244,245;,
 3;245,244,230;,
 3;245,230,231;,
 3;244,242,240;,
 3;244,240,238;,
 3;244,238,236;,
 3;244,236,234;,
 3;244,234,232;,
 3;244,232,230;,
 3;247,246,248;,
 3;247,248,249;,
 3;249,248,250;,
 3;249,250,251;,
 3;251,250,252;,
 3;251,252,253;,
 3;253,252,254;,
 3;253,254,255;,
 3;255,254,256;,
 3;255,256,257;,
 3;257,256,258;,
 3;257,258,259;,
 3;259,258,260;,
 3;259,260,261;,
 3;261,260,246;,
 3;261,246,247;,
 3;260,258,256;,
 3;260,256,254;,
 3;260,254,252;,
 3;260,252,250;,
 3;260,250,248;,
 3;260,248,246;,
 3;263,262,264;,
 3;263,264,265;,
 3;265,264,266;,
 3;265,266,267;,
 3;267,266,268;,
 3;267,268,269;,
 3;269,268,270;,
 3;269,270,271;,
 3;271,270,262;,
 3;271,262,263;,
 3;270,268,266;,
 3;270,266,264;,
 3;270,264,262;,
 3;273,272,274;,
 3;273,274,275;,
 3;275,274,276;,
 3;275,276,277;,
 3;277,276,278;,
 3;277,278,279;,
 3;279,278,280;,
 3;279,280,281;,
 3;281,280,272;,
 3;281,272,273;,
 3;280,278,276;,
 3;280,276,274;,
 3;280,274,272;,
 3;282,283,285;,
 3;282,285,284;,
 3;284,285,283;,
 3;284,283,282;,
 3;284,285,287;,
 3;284,287,286;,
 3;286,287,285;,
 3;286,285,284;,
 3;286,287,289;,
 3;286,289,288;,
 3;288,289,287;,
 3;288,287,286;,
 3;288,289,291;,
 3;288,291,290;,
 3;290,291,289;,
 3;290,289,288;,
 3;293,292,294;,
 3;293,294,295;,
 3;295,294,296;,
 3;295,296,297;,
 3;297,296,298;,
 3;297,298,299;,
 3;299,298,300;,
 3;299,300,301;,
 3;301,300,302;,
 3;301,302,303;,
 3;303,302,304;,
 3;303,304,305;,
 3;305,304,306;,
 3;305,306,307;,
 3;307,306,292;,
 3;307,292,293;,
 3;293,295,297;,
 3;293,297,299;,
 3;293,299,301;,
 3;293,301,303;,
 3;293,303,305;,
 3;293,305,307;,
 3;309,308,310;,
 3;309,310,311;,
 3;311,310,312;,
 3;311,312,313;,
 3;313,312,314;,
 3;313,314,315;,
 3;315,314,316;,
 3;315,316,317;,
 3;317,316,308;,
 3;317,308,309;,
 3;316,314,312;,
 3;316,312,310;,
 3;316,310,308;,
 3;309,311,313;,
 3;309,313,315;,
 3;309,315,317;,
 3;319,318,320;,
 3;319,320,321;,
 3;321,320,322;,
 3;321,322,323;,
 3;323,322,324;,
 3;323,324,325;,
 3;325,324,326;,
 3;325,326,327;,
 3;327,326,318;,
 3;327,318,319;,
 3;329,328,330;,
 3;329,330,331;,
 3;331,330,332;,
 3;331,332,333;,
 3;333,332,334;,
 3;333,334,335;,
 3;335,334,336;,
 3;335,336,337;,
 3;337,336,328;,
 3;337,328,329;,
 3;336,334,332;,
 3;336,332,330;,
 3;336,330,328;,
 3;339,338,340;,
 3;339,340,341;,
 3;341,340,342;,
 3;341,342,343;,
 3;343,342,344;,
 3;343,344,345;,
 3;345,344,346;,
 3;345,346,347;,
 3;347,346,338;,
 3;347,338,339;,
 3;346,344,342;,
 3;346,342,340;,
 3;346,340,338;,
 3;348,349,351;,
 3;348,351,350;,
 3;350,351,353;,
 3;350,353,352;,
 3;352,353,355;,
 3;352,355,354;,
 3;354,355,357;,
 3;354,357,356;,
 3;356,357,359;,
 3;356,359,358;,
 3;358,359,349;,
 3;358,349,348;,
 3;348,350,352;,
 3;348,352,354;,
 3;348,354,356;,
 3;348,356,358;,
 3;360,361,363;,
 3;360,363,362;,
 3;362,363,365;,
 3;362,365,364;,
 3;364,365,367;,
 3;364,367,366;,
 3;366,367,369;,
 3;366,369,368;,
 3;368,369,371;,
 3;368,371,370;,
 3;370,371,361;,
 3;370,361,360;,
 3;360,362,364;,
 3;360,364,366;,
 3;360,366,368;,
 3;360,368,370;,
 3;372,373,374;,
 3;372,374,375;,
 3;377,376,375;,
 3;377,375,374;,
 3;376,377,378;,
 3;376,378,379;,
 3;379,378,373;,
 3;379,373,372;,
 3;378,377,374;,
 3;378,374,373;;

 MeshMaterialList  {
  26;
  434;
  0,
  0,
  0,
  0,
  0,
  0,
  0,
  0,
  0,
  0,
  0,
  0,
  0,
  0,
  0,
  0,
  0,
  0,
  0,
  1,
  1,
  1,
  1,
  1,
  1,
  1,
  1,
  1,
  1,
  1,
  1,
  1,
  1,
  1,
  1,
  1,
  1,
  1,
  2,
  2,
  2,
  2,
  2,
  2,
  2,
  2,
  2,
  2,
  2,
  2,
  3,
  3,
  3,
  3,
  3,
  3,
  3,
  3,
  3,
  3,
  3,
  3,
  3,
  3,
  3,
  3,
  3,
  3,
  3,
  3,
  3,
  3,
  3,
  3,
  3,
  3,
  3,
  3,
  3,
  3,
  3,
  3,
  3,
  3,
  3,
  3,
  3,
  3,
  3,
  3,
  3,
  3,
  3,
  3,
  3,
  3,
  3,
  3,
  3,
  3,
  4,
  4,
  4,
  4,
  4,
  4,
  4,
  4,
  4,
  4,
  4,
  4,
  4,
  4,
  5,
  5,
  5,
  5,
  5,
  5,
  5,
  5,
  6,
  6,
  6,
  6,
  6,
  6,
  6,
  6,
  6,
  6,
  6,
  6,
  6,
  6,
  6,
  6,
  6,
  6,
  6,
  6,
  6,
  6,
  6,
  6,
  7,
  7,
  7,
  7,
  7,
  7,
  7,
  7,
  7,
  7,
  7,
  7,
  7,
  7,
  7,
  7,
  7,
  7,
  7,
  7,
  8,
  8,
  8,
  8,
  8,
  8,
  9,
  9,
  9,
  9,
  9,
  9,
  9,
  9,
  9,
  9,
  9,
  9,
  9,
  9,
  9,
  9,
  10,
  10,
  10,
  10,
  10,
  10,
  10,
  10,
  10,
  10,
  11,
  11,
  11,
  11,
  11,
  11,
  11,
  11,
  11,
  11,
  11,
  11,
  11,
  11,
  12,
  12,
  12,
  12,
  12,
  12,
  12,
  12,
  12,
  12,
  12,
  12,
  12,
  12,
  12,
  12,
  12,
  12,
  12,
  12,
  13,
  13,
  13,
  13,
  13,
  13,
  13,
  13,
  13,
  13,
  13,
  13,
  13,
  13,
  13,
  13,
  13,
  13,
  13,
  13,
  13,
  13,
  14,
  14,
  14,
  14,
  14,
  14,
  14,
  14,
  14,
  14,
  14,
  14,
  14,
  14,
  14,
  14,
  14,
  14,
  14,
  14,
  14,
  14,
  15,
  15,
  15,
  15,
  15,
  15,
  15,
  15,
  15,
  15,
  15,
  15,
  15,
  16,
  16,
  16,
  16,
  16,
  16,
  16,
  16,
  16,
  16,
  16,
  16,
  16,
  17,
  17,
  17,
  17,
  17,
  17,
  17,
  17,
  17,
  17,
  17,
  17,
  17,
  17,
  17,
  17,
  18,
  18,
  18,
  18,
  18,
  18,
  18,
  18,
  18,
  18,
  18,
  18,
  18,
  18,
  18,
  18,
  18,
  18,
  18,
  18,
  18,
  18,
  19,
  19,
  19,
  19,
  19,
  19,
  19,
  19,
  19,
  19,
  19,
  19,
  19,
  19,
  19,
  19,
  20,
  20,
  20,
  20,
  20,
  20,
  20,
  20,
  20,
  20,
  21,
  21,
  21,
  21,
  21,
  21,
  21,
  21,
  21,
  21,
  21,
  21,
  21,
  22,
  22,
  22,
  22,
  22,
  22,
  22,
  22,
  22,
  22,
  22,
  22,
  22,
  23,
  23,
  23,
  23,
  23,
  23,
  23,
  23,
  23,
  23,
  23,
  23,
  23,
  23,
  23,
  23,
  24,
  24,
  24,
  24,
  24,
  24,
  24,
  24,
  24,
  24,
  24,
  24,
  24,
  24,
  24,
  24,
  25,
  25,
  25,
  25,
  25,
  25,
  25,
  25,
  25,
  25;

  Material  {
   1.000000;1.000000;1.000000;1.000000;;
   0.000000;
   0.000000;0.000000;0.000000;;
   0.000000;0.000000;0.000000;;

   TextureFilename  {
    "mc681-500s2.png";
   }
  }

  Material  {
   1.000000;1.000000;1.000000;1.000000;;
   0.000000;
   0.000000;0.000000;0.000000;;
   0.000000;0.000000;0.000000;;

   TextureFilename  {
    "mc681-500s1.png";
   }
  }

  Material  {
   1.000000;1.000000;1.000000;1.000000;;
   0.000000;
   0.000000;0.000000;0.000000;;
   0.000000;0.000000;0.000000;;

   TextureFilename  {
    "681r.png";
   }
  }

  Material  {
   1.000000;1.000000;1.000000;1.000000;;
   0.000000;
   0.000000;0.000000;0.000000;;
   0.000000;0.000000;0.000000;;

   TextureFilename  {
    "tc_f.png";
   }
  }

  Material  {
   1.000000;1.000000;1.000000;1.000000;;
   0.000000;
   0.000000;0.000000;0.000000;;
   0.000000;0.000000;0.000000;;

   TextureFilename  {
    "tc_f2.png";
   }
  }

  Material  {
   1.000000;1.000000;1.000000;1.000000;;
   0.000000;
   0.000000;0.000000;0.000000;;
   0.000000;0.000000;0.000000;;

   TextureFilename  {
    "681r.png";
   }
  }

  Material  {
   1.000000;1.000000;1.000000;1.000000;;
   0.000000;
   0.000000;0.000000;0.000000;;
   0.000000;0.000000;0.000000;;

   TextureFilename  {
    "681r2.png";
   }
  }

  Material  {
   1.000000;1.000000;1.000000;1.000000;;
   0.000000;
   0.000000;0.000000;0.000000;;
   0.000000;0.000000;0.000000;;

   TextureFilename  {
    "mc681-500r.png";
   }
  }

  Material  {
   1.000000;1.000000;1.000000;1.000000;;
   0.000000;
   0.000000;0.000000;0.000000;;
   0.000000;0.000000;0.000000;;

   TextureFilename  {
    "tc_sk.png";
   }
  }

  Material  {
   0.117647;0.117647;0.117647;1.000000;;
   0.000000;
   0.000000;0.000000;0.000000;;
   0.000000;0.000000;0.000000;;
  }

  Material  {
   0.078431;0.078431;0.078431;1.000000;;
   0.000000;
   0.000000;0.000000;0.000000;;
   0.000000;0.000000;0.000000;;
  }

  Material  {
   1.000000;1.000000;1.000000;1.000000;;
   0.000000;
   0.000000;0.000000;0.000000;;
   0.000000;0.000000;0.000000;;

   TextureFilename  {
    "cooler2.png";
   }
  }

  Material  {
   1.000000;1.000000;1.000000;1.000000;;
   0.000000;
   0.000000;0.000000;0.000000;;
   0.000000;0.000000;0.000000;;

   TextureFilename  {
    "cooler3.png";
   }
  }

  Material  {
   0.470588;0.482353;0.498039;1.000000;;
   0.000000;
   0.000000;0.000000;0.000000;;
   0.000000;0.000000;0.000000;;
  }

  Material  {
   0.470588;0.482353;0.498039;1.000000;;
   0.000000;
   0.000000;0.000000;0.000000;;
   0.000000;0.000000;0.000000;;
  }

  Material  {
   0.588235;0.588235;0.588235;1.000000;;
   0.000000;
   0.000000;0.000000;0.000000;;
   0.000000;0.000000;0.000000;;
  }

  Material  {
   0.588235;0.588235;0.588235;1.000000;;
   0.000000;
   0.000000;0.000000;0.000000;;
   0.000000;0.000000;0.000000;;
  }

  Material  {
   0.470588;0.474510;0.482353;1.000000;;
   0.000000;
   0.000000;0.000000;0.000000;;
   0.000000;0.000000;0.000000;;
  }

  Material  {
   0.333333;0.294118;0.058824;1.000000;;
   0.000000;
   0.000000;0.000000;0.000000;;
   0.000000;0.000000;0.000000;;
  }

  Material  {
   0.588235;0.588235;0.588235;1.000000;;
   0.000000;
   0.000000;0.000000;0.000000;;
   0.000000;0.000000;0.000000;;
  }

  Material  {
   0.588235;0.588235;0.588235;1.000000;;
   0.000000;
   0.000000;0.000000;0.000000;;
   0.000000;0.000000;0.000000;;
  }

  Material  {
   0.588235;0.588235;0.588235;1.000000;;
   0.000000;
   0.000000;0.000000;0.000000;;
   0.000000;0.000000;0.000000;;
  }

  Material  {
   0.588235;0.588235;0.588235;1.000000;;
   0.000000;
   0.000000;0.000000;0.000000;;
   0.000000;0.000000;0.000000;;
  }

  Material  {
   1.000000;1.000000;1.000000;1.000000;;
   0.000000;
   0.000000;0.000000;0.000000;;
   0.000000;0.000000;0.000000;;

   TextureFilename  {
    "681r3.png";
   }
  }

  Material  {
   1.000000;1.000000;1.000000;1.000000;;
   0.000000;
   0.000000;0.000000;0.000000;;
   0.000000;0.000000;0.000000;;

   TextureFilename  {
    "681r3.png";
   }
  }

  Material  {
   0.470588;0.482353;0.498039;1.000000;;
   0.000000;
   0.000000;0.000000;0.000000;;
   0.000000;0.000000;0.000000;;
  }
 }

 MeshTextureCoords  {
  380;
  0.995000;0.993000;,
  0.995000;0.741667;,
  0.995000;0.664333;,
  0.995000;0.103667;,
  0.995000;0.080467;,
  0.995000;0.007000;,
  0.187621;0.993000;,
  0.187621;0.741667;,
  0.187621;0.664333;,
  0.187621;0.103667;,
  0.187621;0.080467;,
  0.187621;0.007000;,
  0.016053;0.935000;,
  0.016053;0.741667;,
  0.013650;0.664333;,
  0.018456;0.107533;,
  0.020859;0.080467;,
  0.011248;0.993000;,
  0.995000;0.993000;,
  0.995000;0.741667;,
  0.995000;0.664333;,
  0.995000;0.103667;,
  0.995000;0.080467;,
  0.995000;0.007000;,
  0.187621;0.993000;,
  0.187621;0.741667;,
  0.187621;0.664333;,
  0.187621;0.103667;,
  0.187621;0.080467;,
  0.187621;0.007000;,
  0.016053;0.935000;,
  0.016053;0.741667;,
  0.013650;0.664333;,
  0.018456;0.107533;,
  0.020859;0.080467;,
  0.011248;0.993000;,
  0.000000;1.000000;,
  0.000000;0.000000;,
  1.000000;0.000000;,
  1.000000;1.000000;,
  0.000000;0.000000;,
  0.000000;0.000000;,
  0.000000;0.000000;,
  0.000000;0.000000;,
  0.000000;0.000000;,
  0.000000;0.000000;,
  0.000000;0.000000;,
  0.000000;0.000000;,
  0.000000;0.000000;,
  0.000000;0.000000;,
  0.150000;0.993000;,
  0.150000;0.920000;,
  0.123000;0.740000;,
  0.120000;0.650000;,
  0.150000;0.060000;,
  0.120000;0.050000;,
  0.180000;0.993000;,
  0.180000;0.920000;,
  0.153000;0.740000;,
  0.150000;0.650000;,
  0.180000;0.060000;,
  0.150000;0.050000;,
  0.341000;0.993000;,
  0.330000;0.920000;,
  0.303000;0.740000;,
  0.300000;0.650000;,
  0.330000;0.060000;,
  0.340000;0.050000;,
  0.659000;0.993000;,
  0.670000;0.920000;,
  0.697000;0.740000;,
  0.700000;0.650000;,
  0.670000;0.060000;,
  0.662000;0.050000;,
  0.820000;0.993000;,
  0.820000;0.920000;,
  0.847000;0.740000;,
  0.850000;0.650000;,
  0.820000;0.060000;,
  0.850000;0.050000;,
  0.850000;0.993000;,
  0.850000;0.920000;,
  0.877000;0.740000;,
  0.880000;0.650000;,
  0.850000;0.060000;,
  0.880000;0.050000;,
  0.000000;0.985000;,
  0.120000;0.015000;,
  0.130000;0.985000;,
  0.235000;0.015000;,
  0.180000;0.985000;,
  0.285000;0.015000;,
  0.330000;0.985000;,
  0.435000;0.015000;,
  0.670000;0.985000;,
  0.565000;0.015000;,
  0.820000;0.985000;,
  0.715000;0.015000;,
  0.870000;0.985000;,
  0.765000;0.015000;,
  1.000000;0.985000;,
  0.880000;0.015000;,
  0.000000;1.000000;,
  0.000000;0.000000;,
  1.000000;0.000000;,
  1.000000;1.000000;,
  0.000000;0.000000;,
  0.000000;0.000000;,
  0.000000;0.000000;,
  0.000000;0.000000;,
  0.000000;0.000000;,
  0.000000;0.000000;,
  0.000000;0.000000;,
  0.000000;0.000000;,
  1.000000;0.850000;,
  0.900000;0.950000;,
  0.602000;1.000000;,
  0.650000;0.900000;,
  0.398000;1.000000;,
  0.350000;0.900000;,
  0.100000;0.950000;,
  0.000000;0.850000;,
  1.000000;0.500000;,
  0.650000;0.500000;,
  0.350000;0.500000;,
  0.000000;0.500000;,
  1.000000;0.250000;,
  0.650000;0.250000;,
  0.350000;0.250000;,
  0.000000;0.250000;,
  1.000000;0.000000;,
  0.650000;0.000000;,
  0.350000;0.000000;,
  0.000000;0.000000;,
  0.000000;0.900000;,
  0.000000;0.640000;,
  0.000000;0.360000;,
  0.000000;0.100000;,
  0.815500;0.900000;,
  0.815500;0.640000;,
  0.815500;0.360000;,
  0.815500;0.100000;,
  0.864080;0.840000;,
  0.864080;0.640000;,
  0.864080;0.360000;,
  0.864080;0.160000;,
  0.873800;0.840000;,
  0.881070;0.640000;,
  0.881070;0.360000;,
  0.873800;0.160000;,
  0.220000;0.740000;,
  0.000000;0.015000;,
  0.300000;0.910000;,
  0.300000;0.015000;,
  0.400000;0.980000;,
  0.220000;0.740000;,
  0.000000;0.015000;,
  0.300000;0.910000;,
  0.300000;0.015000;,
  0.400000;0.980000;,
  0.000000;0.000000;,
  0.000000;0.000000;,
  0.000000;0.000000;,
  0.000000;0.000000;,
  0.000000;0.000000;,
  0.000000;0.000000;,
  0.000000;0.000000;,
  0.000000;0.000000;,
  0.000000;0.000000;,
  0.000000;0.000000;,
  0.000000;0.000000;,
  0.000000;0.000000;,
  0.000000;0.000000;,
  0.000000;0.000000;,
  0.000000;0.000000;,
  0.000000;0.000000;,
  0.000000;0.000000;,
  0.000000;0.000000;,
  0.000000;0.000000;,
  0.000000;0.000000;,
  0.000000;0.000000;,
  0.000000;0.000000;,
  0.000000;0.000000;,
  0.000000;0.000000;,
  0.000000;0.000000;,
  0.000000;0.000000;,
  0.000000;0.000000;,
  0.000000;0.000000;,
  0.000000;0.000000;,
  0.000000;0.000000;,
  0.000000;0.000000;,
  0.034483;0.130000;,
  0.034483;0.190000;,
  0.034483;0.400000;,
  0.034483;0.600000;,
  0.034483;0.810000;,
  0.034483;0.870000;,
  0.000000;1.000000;,
  1.000000;0.000000;,
  0.965517;0.130000;,
  0.965517;0.190000;,
  0.965517;0.400000;,
  0.965517;0.600000;,
  0.965517;0.810000;,
  0.965517;0.870000;,
  1.000000;1.000000;,
  1.000000;0.000000;,
  0.312500;0.000000;,
  1.000000;0.055556;,
  0.125000;0.055556;,
  1.000000;0.333333;,
  0.000000;0.333333;,
  1.000000;0.666667;,
  0.000000;0.666667;,
  1.000000;0.944444;,
  0.125000;0.944444;,
  1.000000;1.000000;,
  0.312500;1.000000;,
  1.000000;1.000000;,
  0.312500;1.000000;,
  1.000000;0.944444;,
  0.125000;0.944444;,
  1.000000;0.666667;,
  0.000000;0.666667;,
  1.000000;0.333333;,
  0.000000;0.333333;,
  1.000000;0.055556;,
  0.125000;0.055556;,
  1.000000;0.000000;,
  0.312500;0.000000;,
  0.000000;0.000000;,
  0.000000;0.000000;,
  0.000000;0.000000;,
  0.000000;0.000000;,
  0.000000;0.000000;,
  0.000000;0.000000;,
  0.000000;0.000000;,
  0.000000;0.000000;,
  0.000000;0.000000;,
  0.000000;0.000000;,
  0.000000;0.000000;,
  0.000000;0.000000;,
  0.000000;0.000000;,
  0.000000;0.000000;,
  0.000000;0.000000;,
  0.000000;0.000000;,
  0.000000;0.000000;,
  0.000000;0.000000;,
  0.000000;0.000000;,
  0.000000;0.000000;,
  0.000000;0.000000;,
  0.000000;0.000000;,
  0.000000;0.000000;,
  0.000000;0.000000;,
  0.000000;0.000000;,
  0.000000;0.000000;,
  0.000000;0.000000;,
  0.000000;0.000000;,
  0.000000;0.000000;,
  0.000000;0.000000;,
  0.000000;0.000000;,
  0.000000;0.000000;,
  0.000000;0.000000;,
  0.000000;0.000000;,
  0.000000;0.000000;,
  0.000000;0.000000;,
  0.000000;0.000000;,
  0.000000;0.000000;,
  0.000000;0.000000;,
  0.000000;0.000000;,
  0.000000;0.000000;,
  0.000000;0.000000;,
  0.000000;0.000000;,
  0.000000;0.000000;,
  0.000000;0.000000;,
  0.000000;0.000000;,
  0.000000;0.000000;,
  0.000000;0.000000;,
  0.000000;0.000000;,
  0.000000;0.000000;,
  0.000000;0.000000;,
  0.000000;0.000000;,
  0.000000;0.000000;,
  0.000000;0.000000;,
  0.000000;0.000000;,
  0.000000;0.000000;,
  0.000000;0.000000;,
  0.000000;0.000000;,
  0.000000;0.000000;,
  0.000000;0.000000;,
  0.000000;0.000000;,
  0.000000;0.000000;,
  0.000000;0.000000;,
  0.000000;0.000000;,
  0.000000;0.000000;,
  0.000000;0.000000;,
  0.000000;0.000000;,
  0.000000;0.000000;,
  0.000000;0.000000;,
  0.000000;0.000000;,
  0.000000;0.000000;,
  0.000000;0.000000;,
  0.000000;0.000000;,
  0.000000;0.000000;,
  0.000000;0.000000;,
  0.000000;0.000000;,
  0.000000;0.000000;,
  0.000000;0.000000;,
  0.000000;0.000000;,
  0.000000;0.000000;,
  0.000000;0.000000;,
  0.000000;0.000000;,
  0.000000;0.000000;,
  0.000000;0.000000;,
  0.000000;0.000000;,
  0.000000;0.000000;,
  0.000000;0.000000;,
  0.000000;0.000000;,
  0.000000;0.000000;,
  0.000000;0.000000;,
  0.000000;0.000000;,
  0.000000;0.000000;,
  0.000000;0.000000;,
  0.000000;0.000000;,
  0.000000;0.000000;,
  0.000000;0.000000;,
  0.000000;0.000000;,
  0.000000;0.000000;,
  0.000000;0.000000;,
  0.000000;0.000000;,
  0.000000;0.000000;,
  0.000000;0.000000;,
  0.000000;0.000000;,
  0.000000;0.000000;,
  0.000000;0.000000;,
  0.000000;0.000000;,
  0.000000;0.000000;,
  0.000000;0.000000;,
  0.000000;0.000000;,
  0.000000;0.000000;,
  0.000000;0.000000;,
  0.000000;0.000000;,
  0.000000;0.000000;,
  0.000000;0.000000;,
  0.000000;0.000000;,
  0.000000;0.000000;,
  0.000000;0.000000;,
  0.000000;0.000000;,
  0.000000;0.000000;,
  0.000000;1.000000;,
  0.000000;0.000000;,
  0.000000;1.000000;,
  0.125000;0.000000;,
  0.125000;1.000000;,
  0.875000;0.000000;,
  0.875000;1.000000;,
  1.000000;0.000000;,
  1.000000;1.000000;,
  1.000000;0.000000;,
  1.000000;1.000000;,
  0.000000;0.000000;,
  0.000000;1.000000;,
  0.000000;0.000000;,
  0.000000;1.000000;,
  0.125000;0.000000;,
  0.125000;1.000000;,
  0.875000;0.000000;,
  0.875000;1.000000;,
  1.000000;0.000000;,
  1.000000;1.000000;,
  1.000000;0.000000;,
  1.000000;1.000000;,
  0.000000;0.000000;,
  0.000000;0.000000;,
  0.000000;0.000000;,
  0.000000;0.000000;,
  0.000000;0.000000;,
  0.000000;0.000000;,
  0.000000;0.000000;,
  0.000000;0.000000;;
 }

 MeshNormals  {
  398;
  -0.985981;-0.166858;0.000000;,
  -0.985981;-0.166858;0.000000;,
  -1.000000;0.000000;0.000000;,
  -1.000000;0.000000;0.000000;,
  -0.997135;0.075645;0.000000;,
  -0.997135;0.075645;0.000000;,
  -0.894427;0.447214;0.000000;,
  -0.894427;0.447214;0.000000;,
  -0.725953;0.687745;0.000000;,
  -0.725953;0.687745;0.000000;,
  -0.976644;-0.214862;0.000000;,
  -0.985957;-0.166854;0.007011;,
  -1.000000;0.000000;0.000000;,
  -1.000000;0.000000;0.000000;,
  -0.997094;0.076182;0.000216;,
  -0.997135;0.075645;0.000000;,
  -0.919145;0.393919;0.000000;,
  -0.894426;0.447213;0.001270;,
  -0.951163;-0.308416;0.012959;,
  0.985981;-0.166858;0.000000;,
  0.985981;-0.166858;0.000000;,
  1.000000;0.000000;0.000000;,
  1.000000;0.000000;0.000000;,
  0.997135;0.075645;0.000000;,
  0.997135;0.075645;0.000000;,
  0.894427;0.447214;0.000000;,
  0.894427;0.447214;0.000000;,
  0.725953;0.687745;0.000000;,
  0.725953;0.687745;0.000000;,
  0.985981;-0.166858;0.000000;,
  0.976605;-0.214853;0.009027;,
  1.000000;0.000000;0.000000;,
  1.000000;0.000000;0.000000;,
  0.997135;0.075645;0.000215;,
  0.997095;0.076167;0.000000;,
  0.894427;0.447214;0.000000;,
  0.918854;0.394595;0.001121;,
  0.951163;-0.308416;0.012959;,
  0.000000;0.000000;-1.000000;,
  0.000000;0.000000;-1.000000;,
  0.000000;0.000000;-1.000000;,
  0.000000;0.000000;-1.000000;,
  0.000000;0.000000;-1.000000;,
  0.000000;0.000000;-1.000000;,
  0.000000;0.000000;-1.000000;,
  0.000000;0.000000;-1.000000;,
  0.000000;0.000000;-1.000000;,
  0.000000;0.000000;-1.000000;,
  0.000000;0.000000;-1.000000;,
  0.000000;0.000000;-1.000000;,
  -0.828517;0.092058;0.552345;,
  -0.828517;0.092057;0.552344;,
  -0.796117;-0.159223;0.583819;,
  -0.818451;-0.180059;0.545634;,
  -0.818850;-0.177418;0.545900;,
  -0.797734;-0.146251;0.585005;,
  -0.824519;0.102341;0.556502;,
  -0.827749;0.101553;0.551833;,
  -0.694850;0.550090;0.463233;,
  -0.640788;0.608749;0.467776;,
  -0.140797;0.516256;0.844782;,
  -0.140797;0.516256;0.844782;,
  -0.164310;-0.032862;0.985861;,
  -0.164310;-0.032862;0.985861;,
  -0.159308;-0.246928;0.955849;,
  -0.159308;-0.246928;0.955849;,
  -0.159804;0.082818;0.983668;,
  -0.163854;0.081354;0.983124;,
  -0.147442;0.442326;0.884651;,
  -0.109519;0.556021;0.823921;,
  0.000000;0.554700;0.832050;,
  0.000000;0.554700;0.832050;,
  0.000000;0.000000;1.000000;,
  0.000000;0.000000;1.000000;,
  0.000000;-0.242536;0.970142;,
  0.000000;-0.242536;0.970143;,
  0.000000;0.071247;0.997459;,
  0.000000;0.071247;0.997459;,
  0.000000;0.413803;0.910366;,
  0.000000;0.413803;0.910366;,
  0.140797;0.516256;0.844782;,
  0.140797;0.516256;0.844782;,
  0.164310;-0.032862;0.985861;,
  0.164310;-0.032862;0.985861;,
  0.159308;-0.246928;0.955849;,
  0.159308;-0.246928;0.955849;,
  0.159911;0.081098;0.983795;,
  0.163831;0.083085;0.982983;,
  0.136063;0.561261;0.816378;,
  0.126332;0.438837;0.889642;,
  0.828517;0.092057;0.552345;,
  0.828517;0.092057;0.552344;,
  0.794007;-0.174681;0.582271;,
  0.820763;-0.164153;0.547176;,
  0.824163;-0.137361;0.549442;,
  0.792498;-0.184916;0.581165;,
  0.824601;0.101637;0.556510;,
  0.827689;0.102255;0.551793;,
  0.664743;0.601435;0.443162;,
  0.673690;0.556527;0.486229;,
  -0.790220;0.612824;0.000000;,
  -0.790220;0.612823;0.000000;,
  -0.529720;0.771157;0.353147;,
  -0.529720;0.771157;0.353147;,
  -0.108733;0.750036;0.652398;,
  -0.108733;0.750036;0.652398;,
  0.000000;0.714213;0.699929;,
  0.000000;0.714213;0.699929;,
  0.108733;0.750036;0.652398;,
  0.108733;0.750036;0.652398;,
  0.529720;0.771157;0.353147;,
  0.529720;0.771157;0.353147;,
  0.790220;0.612824;0.000000;,
  0.790220;0.612823;0.000000;,
  -0.791096;0.611301;-0.021875;,
  -0.725953;0.687745;0.000000;,
  -0.790464;0.612507;0.001242;,
  -0.791285;0.611447;0.000000;,
  0.725170;0.687003;-0.046436;,
  0.791285;0.611447;0.000000;,
  0.791284;0.611447;0.001349;,
  0.790220;0.612823;0.000000;,
  -0.256353;0.951354;0.170902;,
  -0.105524;0.766807;0.633144;,
  0.000000;0.800000;0.600000;,
  0.000000;0.800000;0.600000;,
  0.105524;0.766807;0.633144;,
  0.256353;0.951354;0.170902;,
  -0.390149;0.920752;0.000000;,
  -0.257339;0.945165;0.201099;,
  0.000000;0.978106;0.208107;,
  0.000000;0.978106;0.208107;,
  0.257339;0.945165;0.201099;,
  0.390149;0.920752;0.000000;,
  -0.390149;0.920752;0.000000;,
  -0.390149;0.920752;0.000000;,
  0.000000;1.000000;0.000000;,
  0.000000;1.000000;0.000000;,
  0.390149;0.920752;0.000000;,
  0.390149;0.920752;0.000000;,
  -0.346694;0.921913;-0.172858;,
  -0.220077;0.974206;-0.049884;,
  0.000000;0.982872;-0.184288;,
  0.000000;0.982872;-0.184288;,
  0.381512;0.923556;-0.038647;,
  0.186793;0.965573;-0.181045;,
  -0.067414;0.997725;0.000000;,
  -0.067414;0.997725;0.000000;,
  0.000000;1.000000;0.000000;,
  0.000000;1.000000;0.000000;,
  0.067414;0.997725;0.000000;,
  0.067414;0.997725;0.000000;,
  -0.085888;0.996305;0.000000;,
  -0.067410;0.997667;0.010786;,
  0.000000;1.000000;0.000000;,
  0.000000;1.000000;0.000000;,
  0.085880;0.996211;0.013741;,
  0.067414;0.997725;0.000000;,
  -0.053775;0.623791;-0.779739;,
  -0.000000;0.707107;-0.707107;,
  0.000000;0.707107;-0.707107;,
  0.000000;0.707107;-0.707107;,
  0.053775;0.623791;-0.779739;,
  0.000000;0.707107;-0.707107;,
  -0.979647;0.125395;-0.156743;,
  0.979647;0.125395;-0.156743;,
  -0.972806;-0.231620;0.000000;,
  -0.949767;-0.310128;-0.041996;,
  -0.913831;-0.402421;-0.054494;,
  0.957826;-0.287348;0.000000;,
  0.974477;-0.222455;-0.030124;,
  0.913831;-0.402421;-0.054494;,
  0.653725;0.672952;-0.346090;,
  0.653725;0.672952;-0.346090;,
  0.779277;0.350468;-0.519518;,
  0.803622;0.336492;-0.490882;,
  0.222834;0.742781;-0.631364;,
  0.256307;0.683486;-0.683486;,
  0.155580;0.323127;-0.933479;,
  0.237226;0.266879;-0.934077;,
  -0.653725;0.672952;-0.346090;,
  -0.653725;0.672952;-0.346090;,
  -0.782193;0.340956;-0.521462;,
  -0.801356;0.345763;-0.488136;,
  -0.229416;0.688247;-0.688247;,
  -0.248069;0.744208;-0.620174;,
  -0.158235;0.271260;-0.949410;,
  -0.239732;0.335624;-0.910980;,
  -0.939793;0.000000;0.341743;,
  -0.939793;0.000000;0.341743;,
  -1.000000;0.000000;0.000000;,
  -1.000000;0.000000;0.000000;,
  0.000000;0.000000;-1.000000;,
  0.000000;0.000000;-1.000000;,
  1.000000;0.000000;0.000000;,
  1.000000;0.000000;0.000000;,
  0.939793;0.000000;0.341743;,
  0.939793;0.000000;0.341743;,
  -1.000000;0.000000;0.000000;,
  -1.000000;0.000000;0.000000;,
  -0.600000;0.800000;0.000000;,
  -0.600000;0.800000;0.000000;,
  -0.099504;0.995037;0.000000;,
  -0.099504;0.995037;0.000000;,
  0.000000;1.000000;0.000000;,
  0.000000;1.000000;0.000000;,
  0.099504;0.995037;0.000000;,
  0.099504;0.995037;0.000000;,
  0.600000;0.800000;0.000000;,
  0.600000;0.800000;0.000000;,
  1.000000;0.000000;0.000000;,
  1.000000;0.000000;0.000000;,
  -0.403604;0.538138;-0.739940;,
  -0.403604;0.538138;-0.739940;,
  -0.058716;0.587156;-0.807341;,
  -0.058716;0.587156;-0.807341;,
  0.000000;0.588171;-0.808736;,
  0.000000;0.588171;-0.808736;,
  0.058716;0.587157;-0.807341;,
  0.058716;0.587156;-0.807341;,
  0.403604;0.538138;-0.739940;,
  0.403604;0.538138;-0.739940;,
  -0.403604;0.538138;0.739940;,
  -0.403604;0.538138;0.739940;,
  -0.058716;0.587157;0.807341;,
  -0.058716;0.587156;0.807341;,
  0.000000;0.588171;0.808736;,
  0.000000;0.588171;0.808736;,
  0.058716;0.587156;0.807341;,
  0.058716;0.587156;0.807341;,
  0.403604;0.538138;0.739940;,
  0.403604;0.538138;0.739940;,
  0.466520;0.879511;-0.093909;,
  0.832050;0.554700;-0.000000;,
  0.171992;0.969968;0.171992;,
  0.463460;0.547080;0.697071;,
  0.000000;0.969968;0.243234;,
  -0.165188;0.547080;0.820620;,
  -0.171992;0.969968;0.171992;,
  -0.697071;0.547080;0.463460;,
  -0.243234;0.969968;0.000000;,
  -0.820620;0.547080;-0.165188;,
  -0.171992;0.969968;-0.171992;,
  -0.463460;0.547080;-0.697071;,
  0.000000;0.881675;-0.471858;,
  0.165188;0.547080;-0.820620;,
  0.010858;0.999882;-0.010858;,
  0.697071;0.547080;-0.463460;,
  0.693520;0.707107;-0.137950;,
  1.000000;0.000000;0.000000;,
  0.270598;0.923880;0.270598;,
  0.555570;0.000000;0.831470;,
  0.000000;0.923880;0.382683;,
  -0.195090;0.000000;0.980785;,
  -0.270598;0.923880;0.270598;,
  -0.831470;0.000000;0.555570;,
  -0.382683;0.923880;0.000000;,
  -0.980785;0.000000;-0.195090;,
  -0.270598;0.923880;-0.270598;,
  -0.555570;0.000000;-0.831470;,
  0.000000;0.707107;-0.707107;,
  0.195090;0.000000;-0.980785;,
  0.017353;0.999699;-0.017353;,
  0.831470;0.000000;-0.555570;,
  0.672498;0.707107;-0.218508;,
  1.000000;0.000000;0.000000;,
  0.118256;0.923880;0.363954;,
  0.000000;0.000000;1.000000;,
  -0.309597;0.923880;0.224936;,
  -0.951057;0.000000;0.309017;,
  -0.572061;0.707107;-0.415627;,
  -0.587785;0.000000;-0.809017;,
  0.060286;0.980785;-0.185542;,
  0.587785;0.000000;-0.809017;,
  0.650849;0.729135;-0.211563;,
  0.997785;0.066519;-0.000000;,
  0.113488;0.930120;0.349281;,
  -0.000124;0.063274;0.997996;,
  -0.297116;0.930120;0.215868;,
  -0.949189;0.063274;0.308280;,
  -0.552708;0.730246;-0.401566;,
  -0.586507;0.063274;-0.807469;,
  0.057762;0.982375;-0.177774;,
  0.586708;0.063274;-0.807323;,
  -1.000000;0.000000;0.000000;,
  -1.000000;0.000000;0.000000;,
  1.000000;0.000000;0.000000;,
  1.000000;0.000000;0.000000;,
  -0.640184;0.768222;0.000000;,
  -0.640184;0.768222;0.000000;,
  0.640184;-0.768222;0.000000;,
  0.640184;-0.768222;0.000000;,
  0.640184;0.768222;0.000000;,
  0.640184;0.768222;0.000000;,
  -0.640184;-0.768222;0.000000;,
  -0.640184;-0.768222;0.000000;,
  1.000000;0.000000;0.000000;,
  1.000000;0.000000;0.000000;,
  -1.000000;0.000000;0.000000;,
  -1.000000;0.000000;0.000000;,
  0.980785;0.000000;-0.195090;,
  0.024541;-0.999699;0.000000;,
  0.707107;0.000000;0.707107;,
  0.392847;-0.707107;0.587938;,
  0.000000;0.000000;1.000000;,
  -0.074658;-0.923880;0.375330;,
  -0.707107;0.000000;0.707107;,
  -0.318190;-0.923880;0.212608;,
  -1.000000;0.000000;0.000000;,
  -0.375330;-0.923880;-0.074658;,
  -0.707107;0.000000;-0.707107;,
  -0.212608;-0.923880;-0.318190;,
  0.000000;0.000000;-1.000000;,
  0.074658;-0.923880;-0.375330;,
  0.707107;0.000000;-0.707107;,
  0.587938;-0.707107;-0.392847;,
  0.672498;0.707107;-0.218508;,
  0.195090;-0.980785;0.000000;,
  0.118256;0.923880;0.363954;,
  0.000000;-0.707107;0.707107;,
  -0.309597;0.923880;0.224936;,
  -0.363954;-0.923880;0.118256;,
  -0.572061;0.707107;-0.415627;,
  -0.224936;-0.923880;-0.309597;,
  0.060286;0.980785;-0.185542;,
  0.415627;-0.707107;-0.572061;,
  0.951056;0.000000;-0.309017;,
  1.000000;0.000000;0.000000;,
  0.309017;0.000000;0.951057;,
  0.000000;0.000000;1.000000;,
  -0.809017;0.000000;0.587785;,
  -0.951057;0.000000;0.309017;,
  -0.809017;0.000000;-0.587785;,
  -0.587785;0.000000;-0.809017;,
  0.309017;0.000000;-0.951057;,
  0.587785;0.000000;-0.809017;,
  0.672498;0.707107;-0.218508;,
  1.000000;0.000000;0.000000;,
  0.118256;0.923880;0.363954;,
  0.000000;0.000000;1.000000;,
  -0.309597;0.923880;0.224936;,
  -0.951057;0.000000;0.309017;,
  -0.572061;0.707107;-0.415627;,
  -0.587785;0.000000;-0.809017;,
  0.060286;0.980785;-0.185542;,
  0.587785;0.000000;-0.809017;,
  0.672498;0.707107;-0.218508;,
  1.000000;0.000000;0.000000;,
  0.118256;0.923880;0.363954;,
  0.000000;0.000000;1.000000;,
  -0.309597;0.923880;0.224936;,
  -0.951057;0.000000;0.309017;,
  -0.572061;0.707107;-0.415627;,
  -0.587785;0.000000;-0.809017;,
  0.060286;0.980785;-0.185542;,
  0.587785;0.000000;-0.809017;,
  -1.000000;0.000000;0.000000;,
  -1.000000;0.000000;0.000000;,
  -0.707107;0.707107;0.000000;,
  -0.707107;0.707107;0.000000;,
  0.000000;1.000000;0.000000;,
  0.000000;1.000000;0.000000;,
  0.707107;0.707107;0.000000;,
  0.707107;0.707107;0.000000;,
  1.000000;0.000000;0.000000;,
  1.000000;0.000000;0.000000;,
  0.000000;-1.000000;0.000000;,
  0.000000;-1.000000;0.000000;,
  0.000000;0.000000;-1.000000;,
  0.000000;0.000000;-1.000000;,
  0.000000;0.000000;-1.000000;,
  0.000000;0.000000;-1.000000;,
  -1.000000;0.000000;0.000000;,
  -1.000000;0.000000;0.000000;,
  -0.707107;0.707107;0.000000;,
  -0.707107;0.707107;0.000000;,
  0.000000;1.000000;0.000000;,
  0.000000;1.000000;0.000000;,
  0.707107;0.707107;0.000000;,
  0.707107;0.707107;0.000000;,
  1.000000;0.000000;0.000000;,
  1.000000;0.000000;0.000000;,
  0.000000;-1.000000;0.000000;,
  0.000000;-1.000000;0.000000;,
  0.000000;0.000000;-1.000000;,
  0.000000;0.000000;-1.000000;,
  0.000000;0.000000;-1.000000;,
  0.000000;0.000000;-1.000000;,
  -1.000000;0.000000;0.000000;,
  -1.000000;0.000000;0.000000;,
  0.000000;0.124035;-0.992278;,
  0.000000;0.124035;-0.992278;,
  1.000000;0.000000;0.000000;,
  1.000000;0.000000;0.000000;,
  0.000000;0.124035;0.992278;,
  0.000000;0.124035;0.992278;,
  0.000000;1.000000;0.000000;,
  0.000000;1.000000;0.000000;;
  434;
  3;0,0,0;,
  3;1,1,1;,
  3;2,2,2;,
  3;3,3,3;,
  3;4,4,4;,
  3;5,5,5;,
  3;6,6,6;,
  3;7,7,7;,
  3;8,8,8;,
  3;9,9,9;,
  3;10,10,10;,
  3;11,11,11;,
  3;12,12,12;,
  3;13,13,13;,
  3;14,14,14;,
  3;15,15,15;,
  3;16,16,16;,
  3;17,17,17;,
  3;18,18,18;,
  3;19,19,19;,
  3;20,20,20;,
  3;21,21,21;,
  3;22,22,22;,
  3;23,23,23;,
  3;24,24,24;,
  3;25,25,25;,
  3;26,26,26;,
  3;27,27,27;,
  3;28,28,28;,
  3;29,29,29;,
  3;30,30,30;,
  3;31,31,31;,
  3;32,32,32;,
  3;33,33,33;,
  3;34,34,34;,
  3;35,35,35;,
  3;36,36,36;,
  3;37,37,37;,
  3;38,38,38;,
  3;39,39,39;,
  3;40,40,40;,
  3;41,41,41;,
  3;42,42,42;,
  3;43,43,43;,
  3;44,44,44;,
  3;45,45,45;,
  3;46,46,46;,
  3;47,47,47;,
  3;48,48,48;,
  3;49,49,49;,
  3;50,50,50;,
  3;51,51,51;,
  3;52,52,52;,
  3;53,53,53;,
  3;54,54,54;,
  3;55,55,55;,
  3;56,56,56;,
  3;57,57,57;,
  3;58,58,58;,
  3;59,59,59;,
  3;60,60,60;,
  3;61,61,61;,
  3;62,62,62;,
  3;63,63,63;,
  3;64,64,64;,
  3;65,65,65;,
  3;66,66,66;,
  3;67,67,67;,
  3;68,68,68;,
  3;69,69,69;,
  3;70,70,70;,
  3;71,71,71;,
  3;72,72,72;,
  3;73,73,73;,
  3;74,74,74;,
  3;75,75,75;,
  3;76,76,76;,
  3;77,77,77;,
  3;78,78,78;,
  3;79,79,79;,
  3;80,80,80;,
  3;81,81,81;,
  3;82,82,82;,
  3;83,83,83;,
  3;84,84,84;,
  3;85,85,85;,
  3;86,86,86;,
  3;87,87,87;,
  3;88,88,88;,
  3;89,89,89;,
  3;90,90,90;,
  3;91,91,91;,
  3;92,92,92;,
  3;93,93,93;,
  3;94,94,94;,
  3;95,95,95;,
  3;96,96,96;,
  3;97,97,97;,
  3;98,98,98;,
  3;99,99,99;,
  3;100,100,100;,
  3;101,101,101;,
  3;102,102,102;,
  3;103,103,103;,
  3;104,104,104;,
  3;105,105,105;,
  3;106,106,106;,
  3;107,107,107;,
  3;108,108,108;,
  3;109,109,109;,
  3;110,110,110;,
  3;111,111,111;,
  3;112,112,112;,
  3;113,113,113;,
  3;114,114,114;,
  3;115,115,115;,
  3;116,116,116;,
  3;117,117,117;,
  3;118,118,118;,
  3;119,119,119;,
  3;120,120,120;,
  3;121,121,121;,
  3;122,122,122;,
  3;123,123,123;,
  3;124,124,124;,
  3;125,125,125;,
  3;126,126,126;,
  3;127,127,127;,
  3;128,128,128;,
  3;129,129,129;,
  3;130,130,130;,
  3;131,131,131;,
  3;132,132,132;,
  3;133,133,133;,
  3;134,134,134;,
  3;135,135,135;,
  3;136,136,136;,
  3;137,137,137;,
  3;138,138,138;,
  3;139,139,139;,
  3;140,140,140;,
  3;141,141,141;,
  3;142,142,142;,
  3;143,143,143;,
  3;144,144,144;,
  3;145,145,145;,
  3;146,146,146;,
  3;147,147,147;,
  3;148,148,148;,
  3;149,149,149;,
  3;150,150,150;,
  3;151,151,151;,
  3;152,152,152;,
  3;153,153,153;,
  3;154,154,154;,
  3;155,155,155;,
  3;156,156,156;,
  3;157,157,157;,
  3;158,158,158;,
  3;159,159,159;,
  3;160,160,160;,
  3;161,161,161;,
  3;162,162,162;,
  3;163,163,163;,
  3;164,164,164;,
  3;165,165,165;,
  3;166,166,166;,
  3;167,167,167;,
  3;168,168,168;,
  3;169,169,169;,
  3;170,170,170;,
  3;171,171,171;,
  3;172,172,172;,
  3;173,173,173;,
  3;174,174,174;,
  3;175,175,175;,
  3;176,176,176;,
  3;177,177,177;,
  3;178,178,178;,
  3;179,179,179;,
  3;180,180,180;,
  3;181,181,181;,
  3;182,182,182;,
  3;183,183,183;,
  3;184,184,184;,
  3;185,185,185;,
  3;186,186,186;,
  3;187,187,187;,
  3;188,188,188;,
  3;189,189,189;,
  3;190,190,190;,
  3;191,191,191;,
  3;192,192,192;,
  3;193,193,193;,
  3;194,194,194;,
  3;195,195,195;,
  3;196,196,196;,
  3;197,197,197;,
  3;198,198,198;,
  3;199,199,199;,
  3;200,200,200;,
  3;201,201,201;,
  3;202,202,202;,
  3;203,203,203;,
  3;204,204,204;,
  3;205,205,205;,
  3;206,206,206;,
  3;207,207,207;,
  3;208,208,208;,
  3;209,209,209;,
  3;210,210,210;,
  3;211,211,211;,
  3;212,212,212;,
  3;213,213,213;,
  3;214,214,214;,
  3;215,215,215;,
  3;216,216,216;,
  3;217,217,217;,
  3;218,218,218;,
  3;219,219,219;,
  3;220,220,220;,
  3;221,221,221;,
  3;222,222,222;,
  3;223,223,223;,
  3;224,224,224;,
  3;225,225,225;,
  3;226,226,226;,
  3;227,227,227;,
  3;228,228,228;,
  3;229,229,229;,
  3;230,230,230;,
  3;231,231,231;,
  3;233,232,234;,
  3;233,234,235;,
  3;235,234,236;,
  3;235,236,237;,
  3;237,236,238;,
  3;237,238,239;,
  3;239,238,240;,
  3;239,240,241;,
  3;241,240,242;,
  3;241,242,243;,
  3;243,242,244;,
  3;243,244,245;,
  3;245,244,246;,
  3;245,246,247;,
  3;247,246,232;,
  3;247,232,233;,
  3;246,244,242;,
  3;246,242,240;,
  3;246,240,238;,
  3;246,238,236;,
  3;246,236,234;,
  3;246,234,232;,
  3;249,248,250;,
  3;249,250,251;,
  3;251,250,252;,
  3;251,252,253;,
  3;253,252,254;,
  3;253,254,255;,
  3;255,254,256;,
  3;255,256,257;,
  3;257,256,258;,
  3;257,258,259;,
  3;259,258,260;,
  3;259,260,261;,
  3;261,260,262;,
  3;261,262,263;,
  3;263,262,248;,
  3;263,248,249;,
  3;262,260,258;,
  3;262,258,256;,
  3;262,256,254;,
  3;262,254,252;,
  3;262,252,250;,
  3;262,250,248;,
  3;265,264,266;,
  3;265,266,267;,
  3;267,266,268;,
  3;267,268,269;,
  3;269,268,270;,
  3;269,270,271;,
  3;271,270,272;,
  3;271,272,273;,
  3;273,272,264;,
  3;273,264,265;,
  3;272,270,268;,
  3;272,268,266;,
  3;272,266,264;,
  3;275,274,276;,
  3;275,276,277;,
  3;277,276,278;,
  3;277,278,279;,
  3;279,278,280;,
  3;279,280,281;,
  3;281,280,282;,
  3;281,282,283;,
  3;283,282,274;,
  3;283,274,275;,
  3;282,280,278;,
  3;282,278,276;,
  3;282,276,274;,
  3;284,284,284;,
  3;285,285,285;,
  3;286,286,286;,
  3;287,287,287;,
  3;288,288,288;,
  3;289,289,289;,
  3;290,290,290;,
  3;291,291,291;,
  3;292,292,292;,
  3;293,293,293;,
  3;294,294,294;,
  3;295,295,295;,
  3;296,296,296;,
  3;297,297,297;,
  3;298,298,298;,
  3;299,299,299;,
  3;301,300,302;,
  3;301,302,303;,
  3;303,302,304;,
  3;303,304,305;,
  3;305,304,306;,
  3;305,306,307;,
  3;307,306,308;,
  3;307,308,309;,
  3;309,308,310;,
  3;309,310,311;,
  3;311,310,312;,
  3;311,312,313;,
  3;313,312,314;,
  3;313,314,315;,
  3;315,314,300;,
  3;315,300,301;,
  3;301,303,305;,
  3;301,305,307;,
  3;301,307,309;,
  3;301,309,311;,
  3;301,311,313;,
  3;301,313,315;,
  3;317,316,318;,
  3;317,318,319;,
  3;319,318,320;,
  3;319,320,321;,
  3;321,320,322;,
  3;321,322,323;,
  3;323,322,324;,
  3;323,324,325;,
  3;325,324,316;,
  3;325,316,317;,
  3;324,322,320;,
  3;324,320,318;,
  3;324,318,316;,
  3;317,319,321;,
  3;317,321,323;,
  3;317,323,325;,
  3;327,326,328;,
  3;327,328,329;,
  3;329,328,330;,
  3;329,330,331;,
  3;331,330,332;,
  3;331,332,333;,
  3;333,332,334;,
  3;333,334,335;,
  3;335,334,326;,
  3;335,326,327;,
  3;337,336,338;,
  3;337,338,339;,
  3;339,338,340;,
  3;339,340,341;,
  3;341,340,342;,
  3;341,342,343;,
  3;343,342,344;,
  3;343,344,345;,
  3;345,344,336;,
  3;345,336,337;,
  3;344,342,340;,
  3;344,340,338;,
  3;344,338,336;,
  3;347,346,348;,
  3;347,348,349;,
  3;349,348,350;,
  3;349,350,351;,
  3;351,350,352;,
  3;351,352,353;,
  3;353,352,354;,
  3;353,354,355;,
  3;355,354,346;,
  3;355,346,347;,
  3;354,352,350;,
  3;354,350,348;,
  3;354,348,346;,
  3;356,356,356;,
  3;357,357,357;,
  3;358,358,358;,
  3;359,359,359;,
  3;360,360,360;,
  3;361,361,361;,
  3;362,362,362;,
  3;363,363,363;,
  3;364,364,364;,
  3;365,365,365;,
  3;366,366,366;,
  3;367,367,367;,
  3;368,368,368;,
  3;369,369,369;,
  3;370,370,370;,
  3;371,371,371;,
  3;372,372,372;,
  3;373,373,373;,
  3;374,374,374;,
  3;375,375,375;,
  3;376,376,376;,
  3;377,377,377;,
  3;378,378,378;,
  3;379,379,379;,
  3;380,380,380;,
  3;381,381,381;,
  3;382,382,382;,
  3;383,383,383;,
  3;384,384,384;,
  3;385,385,385;,
  3;386,386,386;,
  3;387,387,387;,
  3;388,388,388;,
  3;389,389,389;,
  3;390,390,390;,
  3;391,391,391;,
  3;392,392,392;,
  3;393,393,393;,
  3;394,394,394;,
  3;395,395,395;,
  3;396,396,396;,
  3;397,397,397;;
 }
}