xof 0303txt 0032
template Vector {
 <3d82ab5e-62da-11cf-ab39-0020af71e433>
 FLOAT x;
 FLOAT y;
 FLOAT z;
}

template MeshFace {
 <3d82ab5f-62da-11cf-ab39-0020af71e433>
 DWORD nFaceVertexIndices;
 array DWORD faceVertexIndices[nFaceVertexIndices];
}

template Mesh {
 <3d82ab44-62da-11cf-ab39-0020af71e433>
 DWORD nVertices;
 array Vector vertices[nVertices];
 DWORD nFaces;
 array MeshFace faces[nFaces];
 [...]
}

template ColorRGBA {
 <35ff44e0-6c7c-11cf-8f52-0040333594a3>
 FLOAT red;
 FLOAT green;
 FLOAT blue;
 FLOAT alpha;
}

template ColorRGB {
 <d3e16e81-7835-11cf-8f52-0040333594a3>
 FLOAT red;
 FLOAT green;
 FLOAT blue;
}

template Material {
 <3d82ab4d-62da-11cf-ab39-0020af71e433>
 ColorRGBA faceColor;
 FLOAT power;
 ColorRGB specularColor;
 ColorRGB emissiveColor;
 [...]
}

template MeshMaterialList {
 <f6f23f42-7686-11cf-8f52-0040333594a3>
 DWORD nMaterials;
 DWORD nFaceIndexes;
 array DWORD faceIndexes[nFaceIndexes];
 [Material <3d82ab4d-62da-11cf-ab39-0020af71e433>]
}

template TextureFilename {
 <a42790e1-7810-11cf-8f52-0040333594a3>
 STRING filename;
}

template Coords2d {
 <f6f23f44-7686-11cf-8f52-0040333594a3>
 FLOAT u;
 FLOAT v;
}

template MeshTextureCoords {
 <f6f23f40-7686-11cf-8f52-0040333594a3>
 DWORD nTextureCoords;
 array Coords2d textureCoords[nTextureCoords];
}

template MeshNormals {
 <f6f23f43-7686-11cf-8f52-0040333594a3>
 DWORD nNormals;
 array Vector normals[nNormals];
 DWORD nFaceNormals;
 array MeshFace faceNormals[nFaceNormals];
}


Mesh  {
 134;
 -1.350000;1.000000;0.000000;,
 -1.460000;1.650000;0.000000;,
 -1.460000;1.850000;0.000000;,
 -1.350000;3.300000;0.000000;,
 -1.320000;3.360000;0.000000;,
 -1.140000;3.550000;0.000000;,
 -1.350000;1.000000;-20.600000;,
 -1.460000;1.650000;-20.600000;,
 -1.460000;1.850000;-20.600000;,
 -1.350000;3.300000;-20.600000;,
 -1.320000;3.360000;-20.600000;,
 -1.140000;3.550000;-20.600000;,
 1.350000;1.000000;0.000000;,
 1.460000;1.650000;0.000000;,
 1.460000;1.850000;0.000000;,
 1.350000;3.300000;0.000000;,
 1.320000;3.360000;0.000000;,
 1.140000;3.550000;0.000000;,
 1.350000;1.000000;-20.600000;,
 1.460000;1.650000;-20.600000;,
 1.460000;1.850000;-20.600000;,
 1.350000;3.300000;-20.600000;,
 1.320000;3.360000;-20.600000;,
 1.140000;3.550000;-20.600000;,
 -1.350000;1.000000;-20.600000;,
 -1.460000;1.650000;-20.600000;,
 -1.460000;1.850000;-20.600000;,
 -1.350000;3.300000;-20.600000;,
 -1.320000;3.360000;-20.600000;,
 -1.140000;3.550000;-20.600000;,
 -0.400000;3.600000;-20.600000;,
 0.400000;3.600000;-20.600000;,
 1.140000;3.550000;-20.600000;,
 1.320000;3.360000;-20.600000;,
 1.350000;3.300000;-20.600000;,
 1.460000;1.850000;-20.600000;,
 1.460000;1.650000;-20.600000;,
 1.350000;1.000000;-20.600000;,
 -1.150000;3.550000;0.000000;,
 -1.150000;3.550000;-20.600000;,
 -0.400000;3.600000;-20.600000;,
 -0.400000;3.600000;0.000000;,
 0.400000;3.600000;0.000000;,
 0.400000;3.600000;-20.600000;,
 1.150000;3.550000;-20.600000;,
 1.150000;3.550000;0.000000;,
 -1.200000;0.000000;-0.100000;,
 -1.200000;1.200000;-0.100000;,
 -1.200000;1.200000;-20.500000;,
 -1.200000;0.000000;-20.500000;,
 1.200000;0.000000;-20.500000;,
 1.200000;1.200000;-20.500000;,
 1.200000;1.200000;-0.100000;,
 1.200000;0.000000;-0.100000;,
 -0.900000;3.550000;-9.400000;,
 -0.900000;3.825000;-9.200000;,
 -0.800000;3.900000;-9.200000;,
 -0.300000;3.950000;-9.200000;,
 0.300000;3.950000;-9.200000;,
 0.800000;3.900000;-9.200000;,
 0.900000;3.825000;-9.200000;,
 0.900000;3.550000;-9.400000;,
 -0.900000;3.550000;-7.400000;,
 -0.900000;3.825000;-7.600000;,
 -0.800000;3.900000;-7.600000;,
 -0.300000;3.950000;-7.600000;,
 0.300000;3.950000;-7.600000;,
 0.800000;3.900000;-7.600000;,
 0.900000;3.825000;-7.600000;,
 0.900000;3.550000;-7.400000;,
 -0.900000;3.550000;-9.400000;,
 -0.900000;3.825000;-9.200000;,
 -0.800000;3.550000;-9.454545;,
 -0.800000;3.900000;-9.200000;,
 -0.300000;3.550000;-9.490909;,
 -0.300000;3.950000;-9.200000;,
 0.300000;3.550000;-9.490909;,
 0.300000;3.950000;-9.200000;,
 0.800000;3.550000;-9.454545;,
 0.800000;3.900000;-9.200000;,
 0.900000;3.550000;-9.400000;,
 0.900000;3.825000;-9.200000;,
 -0.900000;3.550000;-7.400000;,
 -0.900000;3.825000;-7.600000;,
 -0.800000;3.550000;-7.345455;,
 -0.800000;3.900000;-7.600000;,
 -0.300000;3.550000;-7.309091;,
 -0.300000;3.950000;-7.600000;,
 0.300000;3.550000;-7.309091;,
 0.300000;3.950000;-7.600000;,
 0.800000;3.550000;-7.345455;,
 0.800000;3.900000;-7.600000;,
 0.900000;3.550000;-7.400000;,
 0.900000;3.825000;-7.600000;,
 -0.900000;3.550000;-11.200000;,
 -0.900000;3.825000;-11.400000;,
 -0.800000;3.900000;-11.400000;,
 -0.300000;3.950000;-11.400000;,
 0.300000;3.950000;-11.400000;,
 0.800000;3.900000;-11.400000;,
 0.900000;3.825000;-11.400000;,
 0.900000;3.550000;-11.200000;,
 -0.900000;3.550000;-13.200000;,
 -0.900000;3.825000;-13.000000;,
 -0.800000;3.900000;-13.000000;,
 -0.300000;3.950000;-13.000000;,
 0.300000;3.950000;-13.000000;,
 0.800000;3.900000;-13.000000;,
 0.900000;3.825000;-13.000000;,
 0.900000;3.550000;-13.200000;,
 -0.900000;3.550000;-11.200000;,
 -0.900000;3.825000;-11.400000;,
 -0.800000;3.550000;-11.145454;,
 -0.800000;3.900000;-11.400000;,
 -0.300000;3.550000;-11.109091;,
 -0.300000;3.950000;-11.400000;,
 0.300000;3.550000;-11.109091;,
 0.300000;3.950000;-11.400000;,
 0.800000;3.550000;-11.145454;,
 0.800000;3.900000;-11.400000;,
 0.900000;3.550000;-11.200000;,
 0.900000;3.825000;-11.400000;,
 -0.900000;3.550000;-13.200000;,
 -0.900000;3.825000;-13.000000;,
 -0.800000;3.550000;-13.254545;,
 -0.800000;3.900000;-13.000000;,
 -0.300000;3.550000;-13.290909;,
 -0.300000;3.950000;-13.000000;,
 0.300000;3.550000;-13.290909;,
 0.300000;3.950000;-13.000000;,
 0.800000;3.550000;-13.254545;,
 0.800000;3.900000;-13.000000;,
 0.900000;3.550000;-13.200000;,
 0.900000;3.825000;-13.000000;;
 112;
 3;0,1,7;,
 3;0,7,6;,
 3;1,2,8;,
 3;1,8,7;,
 3;2,3,9;,
 3;2,9,8;,
 3;3,4,10;,
 3;3,10,9;,
 3;4,5,11;,
 3;4,11,10;,
 3;18,19,13;,
 3;18,13,12;,
 3;19,20,14;,
 3;19,14,13;,
 3;20,21,15;,
 3;20,15,14;,
 3;21,22,16;,
 3;21,16,15;,
 3;22,23,17;,
 3;22,17,16;,
 3;24,25,26;,
 3;24,26,27;,
 3;24,27,28;,
 3;24,28,29;,
 3;24,29,30;,
 3;24,30,31;,
 3;24,31,32;,
 3;24,32,33;,
 3;24,33,34;,
 3;24,34,35;,
 3;24,35,36;,
 3;24,36,37;,
 3;41,40,39;,
 3;41,39,38;,
 3;40,41,42;,
 3;40,42,43;,
 3;45,44,43;,
 3;45,43,42;,
 3;46,47,48;,
 3;46,48,49;,
 3;51,50,49;,
 3;51,49,48;,
 3;50,51,52;,
 3;50,52,53;,
 3;62,63,55;,
 3;62,55,54;,
 3;63,64,56;,
 3;63,56,55;,
 3;64,65,57;,
 3;64,57,56;,
 3;65,66,58;,
 3;65,58,57;,
 3;66,67,59;,
 3;66,59,58;,
 3;67,68,60;,
 3;67,60,59;,
 3;68,69,61;,
 3;68,61,60;,
 3;70,71,73;,
 3;70,73,72;,
 3;72,73,75;,
 3;72,75,74;,
 3;74,75,77;,
 3;74,77,76;,
 3;76,77,79;,
 3;76,79,78;,
 3;78,79,81;,
 3;78,81,80;,
 3;84,85,83;,
 3;84,83,82;,
 3;86,87,85;,
 3;86,85,84;,
 3;88,89,87;,
 3;88,87,86;,
 3;90,91,89;,
 3;90,89,88;,
 3;92,93,91;,
 3;92,91,90;,
 3;94,95,103;,
 3;94,103,102;,
 3;95,96,104;,
 3;95,104,103;,
 3;96,97,105;,
 3;96,105,104;,
 3;97,98,106;,
 3;97,106,105;,
 3;98,99,107;,
 3;98,107,106;,
 3;99,100,108;,
 3;99,108,107;,
 3;100,101,109;,
 3;100,109,108;,
 3;112,113,111;,
 3;112,111,110;,
 3;114,115,113;,
 3;114,113,112;,
 3;116,117,115;,
 3;116,115,114;,
 3;118,119,117;,
 3;118,117,116;,
 3;120,121,119;,
 3;120,119,118;,
 3;122,123,125;,
 3;122,125,124;,
 3;124,125,127;,
 3;124,127,126;,
 3;126,127,129;,
 3;126,129,128;,
 3;128,129,131;,
 3;128,131,130;,
 3;130,131,133;,
 3;130,133,132;;

 MeshMaterialList  {
  9;
  112;
  0,
  0,
  0,
  0,
  0,
  0,
  0,
  0,
  0,
  0,
  1,
  1,
  1,
  1,
  1,
  1,
  1,
  1,
  1,
  1,
  2,
  2,
  2,
  2,
  2,
  2,
  2,
  2,
  2,
  2,
  2,
  2,
  3,
  3,
  3,
  3,
  3,
  3,
  4,
  4,
  4,
  4,
  4,
  4,
  5,
  5,
  5,
  5,
  5,
  5,
  5,
  5,
  5,
  5,
  5,
  5,
  5,
  5,
  6,
  6,
  6,
  6,
  6,
  6,
  6,
  6,
  6,
  6,
  6,
  6,
  6,
  6,
  6,
  6,
  6,
  6,
  6,
  6,
  7,
  7,
  7,
  7,
  7,
  7,
  7,
  7,
  7,
  7,
  7,
  7,
  7,
  7,
  8,
  8,
  8,
  8,
  8,
  8,
  8,
  8,
  8,
  8,
  8,
  8,
  8,
  8,
  8,
  8,
  8,
  8,
  8,
  8;

  Material  {
   1.000000;1.000000;1.000000;1.000000;;
   0.000000;
   0.000000;0.000000;0.000000;;
   0.000000;0.000000;0.000000;;

   TextureFilename  {
    "t681-300s2.png";
   }
  }

  Material  {
   1.000000;1.000000;1.000000;1.000000;;
   0.000000;
   0.000000;0.000000;0.000000;;
   0.000000;0.000000;0.000000;;

   TextureFilename  {
    "t681-300s1.png";
   }
  }

  Material  {
   1.000000;1.000000;1.000000;1.000000;;
   0.000000;
   0.000000;0.000000;0.000000;;
   0.000000;0.000000;0.000000;;

   TextureFilename  {
    "681r.png";
   }
  }

  Material  {
   1.000000;1.000000;1.000000;1.000000;;
   0.000000;
   0.000000;0.000000;0.000000;;
   0.000000;0.000000;0.000000;;

   TextureFilename  {
    "roof2.png";
   }
  }

  Material  {
   0.078431;0.078431;0.078431;1.000000;;
   0.000000;
   0.000000;0.000000;0.000000;;
   0.000000;0.000000;0.000000;;
  }

  Material  {
   1.000000;1.000000;1.000000;1.000000;;
   0.000000;
   0.000000;0.000000;0.000000;;
   0.000000;0.000000;0.000000;;

   TextureFilename  {
    "cooler4.png";
   }
  }

  Material  {
   1.000000;1.000000;1.000000;1.000000;;
   0.000000;
   0.000000;0.000000;0.000000;;
   0.000000;0.000000;0.000000;;

   TextureFilename  {
    "cooler3.png";
   }
  }

  Material  {
   1.000000;1.000000;1.000000;1.000000;;
   0.000000;
   0.000000;0.000000;0.000000;;
   0.000000;0.000000;0.000000;;

   TextureFilename  {
    "cooler4.png";
   }
  }

  Material  {
   1.000000;1.000000;1.000000;1.000000;;
   0.000000;
   0.000000;0.000000;0.000000;;
   0.000000;0.000000;0.000000;;

   TextureFilename  {
    "cooler3.png";
   }
  }
 }

 MeshTextureCoords  {
  134;
  0.995000;0.993000;,
  0.995000;0.741667;,
  0.995000;0.664333;,
  0.995000;0.103667;,
  0.995000;0.080467;,
  0.995000;0.007000;,
  0.005000;0.993000;,
  0.005000;0.741667;,
  0.005000;0.664333;,
  0.005000;0.103667;,
  0.005000;0.080467;,
  0.005000;0.007000;,
  0.995000;0.993000;,
  0.995000;0.741667;,
  0.995000;0.664333;,
  0.995000;0.103667;,
  0.995000;0.080467;,
  0.995000;0.007000;,
  0.005000;0.993000;,
  0.005000;0.741667;,
  0.005000;0.664333;,
  0.005000;0.103667;,
  0.005000;0.080467;,
  0.005000;0.007000;,
  0.000000;1.000000;,
  0.000000;0.000000;,
  1.000000;0.000000;,
  1.000000;1.000000;,
  0.000000;0.000000;,
  0.000000;0.000000;,
  0.000000;0.000000;,
  0.000000;0.000000;,
  0.000000;0.000000;,
  0.000000;0.000000;,
  0.000000;0.000000;,
  0.000000;0.000000;,
  0.000000;0.000000;,
  0.000000;0.000000;,
  0.000000;0.900000;,
  1.000000;0.900000;,
  1.000000;0.640000;,
  0.000000;0.640000;,
  0.000000;0.360000;,
  1.000000;0.360000;,
  1.000000;0.100000;,
  0.000000;0.100000;,
  0.000000;0.000000;,
  0.000000;0.000000;,
  0.000000;0.000000;,
  0.000000;0.000000;,
  0.000000;0.000000;,
  0.000000;0.000000;,
  0.000000;0.000000;,
  0.000000;0.000000;,
  0.000000;0.000000;,
  0.100000;0.130000;,
  0.100000;0.190000;,
  0.100000;0.400000;,
  0.100000;0.600000;,
  0.100000;0.810000;,
  0.100000;0.870000;,
  0.000000;1.000000;,
  1.000000;0.000000;,
  0.900000;0.130000;,
  0.900000;0.190000;,
  0.900000;0.400000;,
  0.900000;0.600000;,
  0.900000;0.810000;,
  0.900000;0.870000;,
  1.000000;1.000000;,
  1.000000;0.000000;,
  0.312500;0.000000;,
  1.000000;0.055556;,
  0.125000;0.055556;,
  1.000000;0.333333;,
  0.000000;0.333333;,
  1.000000;0.666667;,
  0.000000;0.666667;,
  1.000000;0.944444;,
  0.125000;0.944444;,
  1.000000;1.000000;,
  0.312500;1.000000;,
  1.000000;1.000000;,
  0.312500;1.000000;,
  1.000000;0.944444;,
  0.125000;0.944444;,
  1.000000;0.666667;,
  0.000000;0.666667;,
  1.000000;0.333333;,
  0.000000;0.333333;,
  1.000000;0.055556;,
  0.125000;0.055556;,
  1.000000;0.000000;,
  0.312500;0.000000;,
  0.000000;0.000000;,
  0.100000;0.130000;,
  0.100000;0.190000;,
  0.100000;0.400000;,
  0.100000;0.600000;,
  0.100000;0.810000;,
  0.100000;0.870000;,
  0.000000;1.000000;,
  1.000000;0.000000;,
  0.900000;0.130000;,
  0.900000;0.190000;,
  0.900000;0.400000;,
  0.900000;0.600000;,
  0.900000;0.810000;,
  0.900000;0.870000;,
  1.000000;1.000000;,
  1.000000;0.000000;,
  0.312500;0.000000;,
  1.000000;0.055556;,
  0.125000;0.055556;,
  1.000000;0.333333;,
  0.000000;0.333333;,
  1.000000;0.666667;,
  0.000000;0.666667;,
  1.000000;0.944444;,
  0.125000;0.944444;,
  1.000000;1.000000;,
  0.312500;1.000000;,
  1.000000;1.000000;,
  0.312500;1.000000;,
  1.000000;0.944444;,
  0.125000;0.944444;,
  1.000000;0.666667;,
  0.000000;0.666667;,
  1.000000;0.333333;,
  0.000000;0.333333;,
  1.000000;0.055556;,
  0.125000;0.055556;,
  1.000000;0.000000;,
  0.312500;0.000000;;
 }

 MeshNormals  {
  112;
  -0.985981;-0.166858;0.000000;,
  -0.985981;-0.166858;0.000000;,
  -1.000000;0.000000;0.000000;,
  -1.000000;0.000000;0.000000;,
  -0.997135;0.075645;0.000000;,
  -0.997135;0.075645;0.000000;,
  -0.894427;0.447214;0.000000;,
  -0.894427;0.447214;0.000000;,
  -0.725953;0.687745;0.000000;,
  -0.725953;0.687745;0.000000;,
  0.985981;-0.166858;0.000000;,
  0.985981;-0.166858;0.000000;,
  1.000000;0.000000;0.000000;,
  1.000000;0.000000;0.000000;,
  0.997135;0.075645;0.000000;,
  0.997135;0.075645;0.000000;,
  0.894427;0.447214;0.000000;,
  0.894427;0.447214;0.000000;,
  0.725953;0.687745;0.000000;,
  0.725953;0.687745;0.000000;,
  0.000000;0.000000;-1.000000;,
  0.000000;0.000000;-1.000000;,
  0.000000;0.000000;-1.000000;,
  0.000000;0.000000;-1.000000;,
  0.000000;0.000000;-1.000000;,
  0.000000;0.000000;-1.000000;,
  0.000000;0.000000;-1.000000;,
  0.000000;0.000000;-1.000000;,
  0.000000;0.000000;-1.000000;,
  0.000000;0.000000;-1.000000;,
  0.000000;0.000000;-1.000000;,
  0.000000;0.000000;-1.000000;,
  -0.066519;0.997785;0.000000;,
  -0.066519;0.997785;0.000000;,
  0.000000;1.000000;0.000000;,
  0.000000;1.000000;0.000000;,
  0.066519;0.997785;0.000000;,
  0.066519;0.997785;0.000000;,
  -1.000000;0.000000;0.000000;,
  -1.000000;0.000000;0.000000;,
  0.000000;0.000000;-1.000000;,
  0.000000;0.000000;-1.000000;,
  1.000000;0.000000;0.000000;,
  1.000000;0.000000;0.000000;,
  -1.000000;0.000000;0.000000;,
  -1.000000;0.000000;0.000000;,
  -0.600000;0.800000;0.000000;,
  -0.600000;0.800000;0.000000;,
  -0.099504;0.995037;0.000000;,
  -0.099504;0.995037;0.000000;,
  0.000000;1.000000;0.000000;,
  0.000000;1.000000;0.000000;,
  0.099504;0.995037;0.000000;,
  0.099504;0.995037;0.000000;,
  0.600000;0.800000;0.000000;,
  0.600000;0.800000;0.000000;,
  1.000000;0.000000;0.000000;,
  1.000000;0.000000;0.000000;,
  -0.403604;0.538138;-0.739940;,
  -0.403604;0.538138;-0.739940;,
  -0.058716;0.587156;-0.807341;,
  -0.058716;0.587156;-0.807341;,
  0.000000;0.588171;-0.808736;,
  0.000000;0.588171;-0.808736;,
  0.058716;0.587157;-0.807341;,
  0.058716;0.587156;-0.807341;,
  0.403604;0.538138;-0.739940;,
  0.403604;0.538138;-0.739940;,
  -0.403604;0.538138;0.739940;,
  -0.403604;0.538138;0.739940;,
  -0.058716;0.587157;0.807341;,
  -0.058716;0.587156;0.807341;,
  0.000000;0.588171;0.808736;,
  0.000000;0.588171;0.808736;,
  0.058716;0.587156;0.807341;,
  0.058716;0.587156;0.807341;,
  0.403604;0.538138;0.739940;,
  0.403604;0.538138;0.739940;,
  -1.000000;0.000000;0.000000;,
  -1.000000;0.000000;0.000000;,
  -0.600000;0.800000;0.000000;,
  -0.600000;0.800000;0.000000;,
  -0.099504;0.995037;0.000000;,
  -0.099504;0.995037;0.000000;,
  0.000000;1.000000;0.000000;,
  0.000000;1.000000;0.000000;,
  0.099504;0.995037;0.000000;,
  0.099504;0.995037;0.000000;,
  0.600000;0.800000;0.000000;,
  0.600000;0.800000;0.000000;,
  1.000000;0.000000;0.000000;,
  1.000000;0.000000;0.000000;,
  -0.403604;0.538138;0.739940;,
  -0.403604;0.538138;0.739940;,
  -0.058716;0.587157;0.807341;,
  -0.058716;0.587156;0.807341;,
  0.000000;0.588171;0.808736;,
  0.000000;0.588171;0.808736;,
  0.058716;0.587156;0.807341;,
  0.058716;0.587156;0.807341;,
  0.403604;0.538138;0.739940;,
  0.403604;0.538138;0.739940;,
  -0.403604;0.538138;-0.739940;,
  -0.403604;0.538138;-0.739940;,
  -0.058716;0.587156;-0.807341;,
  -0.058716;0.587156;-0.807341;,
  0.000000;0.588171;-0.808736;,
  0.000000;0.588171;-0.808736;,
  0.058716;0.587157;-0.807341;,
  0.058716;0.587156;-0.807341;,
  0.403604;0.538138;-0.739940;,
  0.403604;0.538138;-0.739940;;
  112;
  3;0,0,0;,
  3;1,1,1;,
  3;2,2,2;,
  3;3,3,3;,
  3;4,4,4;,
  3;5,5,5;,
  3;6,6,6;,
  3;7,7,7;,
  3;8,8,8;,
  3;9,9,9;,
  3;10,10,10;,
  3;11,11,11;,
  3;12,12,12;,
  3;13,13,13;,
  3;14,14,14;,
  3;15,15,15;,
  3;16,16,16;,
  3;17,17,17;,
  3;18,18,18;,
  3;19,19,19;,
  3;20,20,20;,
  3;21,21,21;,
  3;22,22,22;,
  3;23,23,23;,
  3;24,24,24;,
  3;25,25,25;,
  3;26,26,26;,
  3;27,27,27;,
  3;28,28,28;,
  3;29,29,29;,
  3;30,30,30;,
  3;31,31,31;,
  3;32,32,32;,
  3;33,33,33;,
  3;34,34,34;,
  3;35,35,35;,
  3;36,36,36;,
  3;37,37,37;,
  3;38,38,38;,
  3;39,39,39;,
  3;40,40,40;,
  3;41,41,41;,
  3;42,42,42;,
  3;43,43,43;,
  3;44,44,44;,
  3;45,45,45;,
  3;46,46,46;,
  3;47,47,47;,
  3;48,48,48;,
  3;49,49,49;,
  3;50,50,50;,
  3;51,51,51;,
  3;52,52,52;,
  3;53,53,53;,
  3;54,54,54;,
  3;55,55,55;,
  3;56,56,56;,
  3;57,57,57;,
  3;58,58,58;,
  3;59,59,59;,
  3;60,60,60;,
  3;61,61,61;,
  3;62,62,62;,
  3;63,63,63;,
  3;64,64,64;,
  3;65,65,65;,
  3;66,66,66;,
  3;67,67,67;,
  3;68,68,68;,
  3;69,69,69;,
  3;70,70,70;,
  3;71,71,71;,
  3;72,72,72;,
  3;73,73,73;,
  3;74,74,74;,
  3;75,75,75;,
  3;76,76,76;,
  3;77,77,77;,
  3;78,78,78;,
  3;79,79,79;,
  3;80,80,80;,
  3;81,81,81;,
  3;82,82,82;,
  3;83,83,83;,
  3;84,84,84;,
  3;85,85,85;,
  3;86,86,86;,
  3;87,87,87;,
  3;88,88,88;,
  3;89,89,89;,
  3;90,90,90;,
  3;91,91,91;,
  3;92,92,92;,
  3;93,93,93;,
  3;94,94,94;,
  3;95,95,95;,
  3;96,96,96;,
  3;97,97,97;,
  3;98,98,98;,
  3;99,99,99;,
  3;100,100,100;,
  3;101,101,101;,
  3;102,102,102;,
  3;103,103,103;,
  3;104,104,104;,
  3;105,105,105;,
  3;106,106,106;,
  3;107,107,107;,
  3;108,108,108;,
  3;109,109,109;,
  3;110,110,110;,
  3;111,111,111;;
 }
}