xof 0303txt 0032
template Vector {
 <3d82ab5e-62da-11cf-ab39-0020af71e433>
 FLOAT x;
 FLOAT y;
 FLOAT z;
}

template MeshFace {
 <3d82ab5f-62da-11cf-ab39-0020af71e433>
 DWORD nFaceVertexIndices;
 array DWORD faceVertexIndices[nFaceVertexIndices];
}

template Mesh {
 <3d82ab44-62da-11cf-ab39-0020af71e433>
 DWORD nVertices;
 array Vector vertices[nVertices];
 DWORD nFaces;
 array MeshFace faces[nFaces];
 [...]
}

template ColorRGBA {
 <35ff44e0-6c7c-11cf-8f52-0040333594a3>
 FLOAT red;
 FLOAT green;
 FLOAT blue;
 FLOAT alpha;
}

template ColorRGB {
 <d3e16e81-7835-11cf-8f52-0040333594a3>
 FLOAT red;
 FLOAT green;
 FLOAT blue;
}

template Material {
 <3d82ab4d-62da-11cf-ab39-0020af71e433>
 ColorRGBA faceColor;
 FLOAT power;
 ColorRGB specularColor;
 ColorRGB emissiveColor;
 [...]
}

template MeshMaterialList {
 <f6f23f42-7686-11cf-8f52-0040333594a3>
 DWORD nMaterials;
 DWORD nFaceIndexes;
 array DWORD faceIndexes[nFaceIndexes];
 [Material <3d82ab4d-62da-11cf-ab39-0020af71e433>]
}

template TextureFilename {
 <a42790e1-7810-11cf-8f52-0040333594a3>
 STRING filename;
}

template Coords2d {
 <f6f23f44-7686-11cf-8f52-0040333594a3>
 FLOAT u;
 FLOAT v;
}

template MeshTextureCoords {
 <f6f23f40-7686-11cf-8f52-0040333594a3>
 DWORD nTextureCoords;
 array Coords2d textureCoords[nTextureCoords];
}

template MeshNormals {
 <f6f23f43-7686-11cf-8f52-0040333594a3>
 DWORD nNormals;
 array Vector normals[nNormals];
 DWORD nFaceNormals;
 array MeshFace faceNormals[nFaceNormals];
}


Mesh  {
 417;
 -1.350000;1.000000;-20.600000;,
 -1.460000;1.650000;-20.600000;,
 -1.460000;1.850000;-20.600000;,
 -1.350000;3.300000;-20.600000;,
 -1.320000;3.360000;-20.600000;,
 -1.140000;3.550000;-20.600000;,
 -1.350000;1.000000;-2.600000;,
 -1.460000;1.650000;-2.600000;,
 -1.460000;1.850000;-2.600000;,
 -1.350000;3.300000;-2.600000;,
 -1.320000;3.360000;-2.600000;,
 -1.140000;3.550000;-2.600000;,
 -1.330000;1.000000;-1.830000;,
 -1.440000;1.640000;-1.800000;,
 -1.440000;1.840000;-1.800000;,
 -1.330000;3.170000;-1.800000;,
 -1.120000;3.400000;-1.800000;,
 -1.320000;1.000000;-1.250000;,
 -1.415000;1.600000;-1.100000;,
 -1.415000;1.810000;-1.100000;,
 -1.305000;2.880000;-1.100000;,
 -1.105000;3.100000;-1.100000;,
 1.350000;1.000000;-20.600000;,
 1.460000;1.650000;-20.600000;,
 1.460000;1.850000;-20.600000;,
 1.350000;3.300000;-20.600000;,
 1.320000;3.360000;-20.600000;,
 1.140000;3.550000;-20.600000;,
 1.350000;1.000000;-2.600000;,
 1.460000;1.650000;-2.600000;,
 1.460000;1.850000;-2.600000;,
 1.350000;3.300000;-2.600000;,
 1.320000;3.360000;-2.600000;,
 1.140000;3.550000;-2.600000;,
 1.330000;1.000000;-1.830000;,
 1.440000;1.640000;-1.800000;,
 1.440000;1.840000;-1.800000;,
 1.330000;3.170000;-1.800000;,
 1.120000;3.400000;-1.800000;,
 1.320000;1.000000;-1.250000;,
 1.415000;1.600000;-1.100000;,
 1.415000;1.810000;-1.100000;,
 1.305000;2.880000;-1.100000;,
 1.105000;3.100000;-1.100000;,
 -1.350000;1.000000;-20.600000;,
 -1.460000;1.650000;-20.600000;,
 -1.460000;1.850000;-20.600000;,
 -1.350000;3.300000;-20.600000;,
 -1.320000;3.360000;-20.600000;,
 -1.140000;3.550000;-20.600000;,
 -0.400000;3.600000;-20.600000;,
 0.400000;3.600000;-20.600000;,
 1.140000;3.550000;-20.600000;,
 1.320000;3.360000;-20.600000;,
 1.350000;3.300000;-20.600000;,
 1.460000;1.850000;-20.600000;,
 1.460000;1.650000;-20.600000;,
 1.350000;1.000000;-20.600000;,
 -1.320000;1.000000;-1.250000;,
 -1.415000;1.600000;-1.100000;,
 -1.415000;1.810000;-1.100000;,
 -1.305000;2.880000;-1.100000;,
 -1.105000;3.100000;-1.100000;,
 -1.250000;1.000000;-0.780000;,
 -1.320000;1.550000;-0.610000;,
 -1.320000;1.760000;-0.600000;,
 -1.250000;2.620000;-0.670000;,
 -1.060000;2.850000;-0.700000;,
 -1.090000;1.000000;-0.260000;,
 -1.160000;1.450000;-0.120000;,
 -1.160000;1.650000;-0.100000;,
 -1.120000;2.200000;-0.150000;,
 -0.940000;2.450000;-0.240000;,
 -0.780000;1.000000;0.160000;,
 -0.840000;1.320000;0.250000;,
 -0.840000;1.500000;0.280000;,
 -0.820000;1.820000;0.250000;,
 -0.700000;2.000000;0.180000;,
 0.780000;1.000000;0.160000;,
 0.840000;1.320000;0.250000;,
 0.840000;1.500000;0.280000;,
 0.820000;1.820000;0.250000;,
 0.700000;2.000000;0.180000;,
 1.090000;1.000000;-0.260000;,
 1.160000;1.450000;-0.120000;,
 1.160000;1.650000;-0.100000;,
 1.120000;2.200000;-0.150000;,
 0.940000;2.450000;-0.240000;,
 1.250000;1.000000;-0.780000;,
 1.320000;1.550000;-0.610000;,
 1.320000;1.760000;-0.600000;,
 1.250000;2.620000;-0.670000;,
 1.060000;2.850000;-0.700000;,
 1.320000;1.000000;-1.250000;,
 1.415000;1.600000;-1.100000;,
 1.415000;1.810000;-1.100000;,
 1.305000;2.880000;-1.100000;,
 1.105000;3.100000;-1.100000;,
 -1.305000;1.000000;-1.500000;,
 -1.305000;1.000000;-1.100000;,
 -1.080000;0.520000;-1.350000;,
 -1.250000;1.000000;-0.780000;,
 -0.920000;0.450000;-0.780000;,
 -1.090000;1.000000;-0.260000;,
 -0.610000;0.350000;-0.390000;,
 -0.780000;1.000000;0.160000;,
 0.610000;0.350000;-0.390000;,
 0.780000;1.000000;0.160000;,
 0.920000;0.450000;-0.780000;,
 1.090000;1.000000;-0.260000;,
 1.080000;0.520000;-1.350000;,
 1.250000;1.000000;-0.780000;,
 1.305000;1.000000;-1.500000;,
 1.305000;1.000000;-1.500000;,
 -1.305000;1.000000;-1.500000;,
 -1.305000;1.000000;-1.500000;,
 -1.080000;0.520000;-1.350000;,
 -1.250000;1.000000;-0.780000;,
 -0.920000;0.450000;-0.780000;,
 -1.090000;1.000000;-0.260000;,
 -0.610000;0.350000;-0.390000;,
 -0.780000;1.000000;0.160000;,
 -0.330000;0.350000;-0.190000;,
 -0.520000;1.000000;0.360000;,
 -0.130000;0.350000;-0.120000;,
 -0.300000;1.000000;0.430000;,
 -0.010000;0.350000;-0.080000;,
 -0.110000;1.000000;0.470000;,
 0.010000;0.350000;-0.080000;,
 0.110000;1.000000;0.470000;,
 0.130000;0.350000;-0.120000;,
 0.300000;1.000000;0.430000;,
 0.330000;0.350000;-0.190000;,
 0.520000;1.000000;0.360000;,
 0.610000;0.350000;-0.390000;,
 0.780000;1.000000;0.160000;,
 0.920000;0.450000;-0.780000;,
 1.090000;1.000000;-0.260000;,
 1.080000;0.520000;-1.350000;,
 1.250000;1.000000;-0.780000;,
 1.305000;1.000000;-1.500000;,
 1.305000;1.000000;-1.500000;,
 -0.250000;0.000000;-0.800000;,
 -0.250000;1.200000;-0.800000;,
 -0.850000;0.000000;-1.100000;,
 -0.850000;1.200000;-1.100000;,
 -1.200000;0.000000;-2.100000;,
 -1.200000;1.200000;-2.100000;,
 -1.200000;0.000000;-20.500000;,
 -1.200000;1.200000;-20.500000;,
 1.200000;0.000000;-20.500000;,
 1.200000;1.200000;-20.500000;,
 1.200000;0.000000;-2.100000;,
 1.200000;1.200000;-2.100000;,
 0.850000;0.000000;-1.100000;,
 0.850000;1.200000;-1.100000;,
 0.250000;0.000000;-0.800000;,
 0.250000;1.200000;-0.800000;,
 -1.140000;3.550000;-20.600000;,
 -1.140000;3.550000;-3.000000;,
 -0.400000;3.600000;-3.000000;,
 -0.400000;3.600000;-20.600000;,
 0.400000;3.600000;-20.600000;,
 0.400000;3.600000;-3.000000;,
 1.140000;3.550000;-3.000000;,
 1.140000;3.550000;-20.600000;,
 0.120000;3.645000;-4.500000;,
 0.120000;3.595000;-4.500000;,
 0.037082;3.645000;-4.385873;,
 0.037082;3.595000;-4.385873;,
 -0.097082;3.645000;-4.429465;,
 -0.097082;3.595000;-4.429465;,
 -0.097082;3.645000;-4.570534;,
 -0.097082;3.595000;-4.570534;,
 0.037082;3.645000;-4.614126;,
 0.037082;3.595000;-4.614126;,
 0.070000;3.900000;-4.500000;,
 0.090000;3.600000;-4.500000;,
 0.021631;3.900000;-4.433425;,
 0.027812;3.600000;-4.414404;,
 -0.056631;3.900000;-4.458855;,
 -0.072812;3.600000;-4.447099;,
 -0.056631;3.900000;-4.541144;,
 -0.072812;3.600000;-4.552900;,
 0.021631;3.900000;-4.566574;,
 0.027812;3.600000;-4.585595;,
 -0.900000;3.550000;-9.400000;,
 -0.900000;3.825000;-9.200000;,
 -0.800000;3.900000;-9.200000;,
 -0.300000;3.950000;-9.200000;,
 0.300000;3.950000;-9.200000;,
 0.800000;3.900000;-9.200000;,
 0.900000;3.825000;-9.200000;,
 0.900000;3.550000;-9.400000;,
 -0.900000;3.550000;-7.400000;,
 -0.900000;3.825000;-7.600000;,
 -0.800000;3.900000;-7.600000;,
 -0.300000;3.950000;-7.600000;,
 0.300000;3.950000;-7.600000;,
 0.800000;3.900000;-7.600000;,
 0.900000;3.825000;-7.600000;,
 0.900000;3.550000;-7.400000;,
 -0.900000;3.550000;-9.400000;,
 -0.900000;3.825000;-9.200000;,
 -0.800000;3.550000;-9.454545;,
 -0.800000;3.900000;-9.200000;,
 -0.300000;3.550000;-9.490909;,
 -0.300000;3.950000;-9.200000;,
 0.300000;3.550000;-9.490909;,
 0.300000;3.950000;-9.200000;,
 0.800000;3.550000;-9.454545;,
 0.800000;3.900000;-9.200000;,
 0.900000;3.550000;-9.400000;,
 0.900000;3.825000;-9.200000;,
 -0.900000;3.550000;-7.400000;,
 -0.900000;3.825000;-7.600000;,
 -0.800000;3.550000;-7.345455;,
 -0.800000;3.900000;-7.600000;,
 -0.300000;3.550000;-7.309091;,
 -0.300000;3.950000;-7.600000;,
 0.300000;3.550000;-7.309091;,
 0.300000;3.950000;-7.600000;,
 0.800000;3.550000;-7.345455;,
 0.800000;3.900000;-7.600000;,
 0.900000;3.550000;-7.400000;,
 0.900000;3.825000;-7.600000;,
 -0.900000;3.550000;-11.200000;,
 -0.900000;3.825000;-11.400000;,
 -0.800000;3.900000;-11.400000;,
 -0.300000;3.950000;-11.400000;,
 0.300000;3.950000;-11.400000;,
 0.800000;3.900000;-11.400000;,
 0.900000;3.825000;-11.400000;,
 0.900000;3.550000;-11.200000;,
 -0.900000;3.550000;-13.200000;,
 -0.900000;3.825000;-13.000000;,
 -0.800000;3.900000;-13.000000;,
 -0.300000;3.950000;-13.000000;,
 0.300000;3.950000;-13.000000;,
 0.800000;3.900000;-13.000000;,
 0.900000;3.825000;-13.000000;,
 0.900000;3.550000;-13.200000;,
 -0.900000;3.550000;-11.200000;,
 -0.900000;3.825000;-11.400000;,
 -0.800000;3.550000;-11.145454;,
 -0.800000;3.900000;-11.400000;,
 -0.300000;3.550000;-11.109091;,
 -0.300000;3.950000;-11.400000;,
 0.300000;3.550000;-11.109091;,
 0.300000;3.950000;-11.400000;,
 0.800000;3.550000;-11.145454;,
 0.800000;3.900000;-11.400000;,
 0.900000;3.550000;-11.200000;,
 0.900000;3.825000;-11.400000;,
 -0.900000;3.550000;-13.200000;,
 -0.900000;3.825000;-13.000000;,
 -0.800000;3.550000;-13.254545;,
 -0.800000;3.900000;-13.000000;,
 -0.300000;3.550000;-13.290909;,
 -0.300000;3.950000;-13.000000;,
 0.300000;3.550000;-13.290909;,
 0.300000;3.950000;-13.000000;,
 0.800000;3.550000;-13.254545;,
 0.800000;3.900000;-13.000000;,
 0.900000;3.550000;-13.200000;,
 0.900000;3.825000;-13.000000;,
 0.160000;3.635000;-15.899999;,
 0.180000;3.605000;-15.899999;,
 0.113137;3.635000;-15.786861;,
 0.127279;3.605000;-15.772719;,
 0.000000;3.635000;-15.739999;,
 0.000000;3.605000;-15.719998;,
 -0.113137;3.635000;-15.786861;,
 -0.127279;3.605000;-15.772719;,
 -0.160000;3.635000;-15.899999;,
 -0.180000;3.605000;-15.899999;,
 -0.113137;3.635000;-16.013134;,
 -0.127279;3.605000;-16.027277;,
 -0.000000;3.635000;-16.059998;,
 -0.000000;3.605000;-16.079998;,
 0.113137;3.635000;-16.013134;,
 0.127279;3.605000;-16.027277;,
 0.130000;3.670000;-15.899999;,
 0.130000;3.590000;-15.899999;,
 0.091924;3.670000;-15.808075;,
 0.091924;3.590000;-15.808075;,
 0.000000;3.670000;-15.769999;,
 0.000000;3.590000;-15.769999;,
 -0.091924;3.670000;-15.808075;,
 -0.091924;3.590000;-15.808075;,
 -0.130000;3.670000;-15.899999;,
 -0.130000;3.590000;-15.899999;,
 -0.091924;3.670000;-15.991922;,
 -0.091924;3.590000;-15.991922;,
 -0.000000;3.670000;-16.029997;,
 -0.000000;3.590000;-16.029997;,
 0.091924;3.670000;-15.991922;,
 0.091924;3.590000;-15.991922;,
 0.300000;3.725000;-14.199999;,
 0.300000;3.575000;-14.199999;,
 0.212132;3.725000;-13.987866;,
 0.212132;3.575000;-13.987866;,
 0.000000;3.725000;-13.899999;,
 0.000000;3.575000;-13.899999;,
 -0.212132;3.725000;-13.987866;,
 -0.212132;3.575000;-13.987866;,
 -0.300000;3.725000;-14.199999;,
 -0.300000;3.575000;-14.199999;,
 -0.212132;3.725000;-14.412131;,
 -0.212132;3.575000;-14.412131;,
 -0.000000;3.725000;-14.499999;,
 -0.000000;3.575000;-14.499999;,
 0.212132;3.725000;-14.412131;,
 0.212132;3.575000;-14.412131;,
 -0.060000;3.550000;-3.500000;,
 -0.060000;3.550000;-3.200000;,
 -0.060000;3.750000;-3.600000;,
 -0.060000;3.750000;-3.100000;,
 0.000000;3.800000;-3.600000;,
 0.000000;3.800000;-3.100000;,
 0.060000;3.750000;-3.600000;,
 0.060000;3.750000;-3.100000;,
 0.060000;3.550000;-3.500000;,
 0.060000;3.550000;-3.200000;,
 0.030000;3.680000;-3.150000;,
 0.030000;3.680000;-3.550000;,
 0.021213;3.658787;-3.150000;,
 0.021213;3.658787;-3.550000;,
 0.000000;3.650000;-3.150000;,
 0.000000;3.650000;-3.550000;,
 -0.021213;3.658787;-3.150000;,
 -0.021213;3.658787;-3.550000;,
 -0.030000;3.680000;-3.150000;,
 -0.030000;3.680000;-3.550000;,
 -0.021213;3.701213;-3.150000;,
 -0.021213;3.701213;-3.550000;,
 -0.000000;3.710000;-3.150000;,
 -0.000000;3.710000;-3.550000;,
 0.021213;3.701213;-3.150000;,
 0.021213;3.701213;-3.550000;,
 -0.780000;3.645000;-3.300000;,
 -0.780000;3.595000;-3.300000;,
 -0.828369;3.645000;-3.233426;,
 -0.828369;3.595000;-3.233426;,
 -0.906631;3.645000;-3.258855;,
 -0.906631;3.595000;-3.258855;,
 -0.906631;3.645000;-3.341145;,
 -0.906631;3.595000;-3.341145;,
 -0.828369;3.645000;-3.366574;,
 -0.828369;3.595000;-3.366574;,
 -0.820000;3.670000;-3.300000;,
 -0.820000;3.570000;-3.300000;,
 -0.840729;3.670000;-3.271468;,
 -0.840729;3.570000;-3.271468;,
 -0.874270;3.670000;-3.282366;,
 -0.874270;3.570000;-3.282366;,
 -0.874270;3.670000;-3.317633;,
 -0.874270;3.570000;-3.317633;,
 -0.840729;3.670000;-3.328532;,
 -0.840729;3.570000;-3.328532;,
 -0.835000;3.695000;-3.300000;,
 -0.835000;3.645000;-3.300000;,
 -0.845365;3.695000;-3.285734;,
 -0.845365;3.645000;-3.285734;,
 -0.862135;3.695000;-3.291183;,
 -0.862135;3.645000;-3.291183;,
 -0.862135;3.695000;-3.308816;,
 -0.862135;3.645000;-3.308816;,
 -0.845365;3.695000;-3.314265;,
 -0.845365;3.645000;-3.314265;,
 -0.800000;3.670000;-3.300000;,
 -0.800000;3.630000;-3.300000;,
 -0.834549;3.670000;-3.252447;,
 -0.834549;3.630000;-3.252447;,
 -0.890451;3.670000;-3.270611;,
 -0.890451;3.630000;-3.270611;,
 -0.890451;3.670000;-3.329389;,
 -0.890451;3.630000;-3.329389;,
 -0.834549;3.670000;-3.347553;,
 -0.834549;3.630000;-3.347553;,
 -1.000000;0.400000;-0.750000;,
 0.000000;0.400000;-0.300000;,
 1.000000;0.400000;-0.750000;,
 -1.000000;0.400000;-1.000000;,
 0.000000;0.400000;-0.550000;,
 1.000000;0.400000;-1.000000;,
 -1.000000;0.300000;-0.950000;,
 0.000000;0.300000;-0.500000;,
 1.000000;0.300000;-0.950000;,
 -0.800000;0.150000;-0.750000;,
 -0.100000;0.150000;-0.300000;,
 0.100000;0.150000;-0.300000;,
 0.800000;0.150000;-0.750000;,
 0.040000;3.980000;-19.699999;,
 0.050000;3.580000;-19.699999;,
 0.000000;3.980000;-19.659998;,
 0.000000;3.580000;-19.650000;,
 -0.040000;3.980000;-19.699999;,
 -0.050000;3.580000;-19.699999;,
 -0.000000;3.980000;-19.740000;,
 -0.000000;3.580000;-19.749998;,
 0.010000;3.897706;-18.802280;,
 0.010000;4.002293;-19.997715;,
 0.000000;3.887744;-18.803152;,
 0.000000;3.992331;-19.998587;,
 -0.010000;3.897706;-18.802280;,
 -0.010000;4.002293;-19.997715;,
 -0.000000;3.907668;-18.801409;,
 -0.000000;4.012255;-19.996843;,
 -0.050000;3.500000;-18.649998;,
 -0.050000;3.900000;-18.699997;,
 -0.050000;3.900000;-18.899998;,
 -0.050000;3.500000;-18.949997;,
 0.050000;3.500000;-18.949997;,
 0.050000;3.900000;-18.899998;,
 0.050000;3.900000;-18.699997;,
 0.050000;3.500000;-18.649998;;
 476;
 3;6,7,1;,
 3;6,1,0;,
 3;7,8,2;,
 3;7,2,1;,
 3;8,9,3;,
 3;8,3,2;,
 3;9,10,4;,
 3;9,4,3;,
 3;10,11,5;,
 3;10,5,4;,
 3;12,13,7;,
 3;12,7,6;,
 3;13,14,8;,
 3;13,8,7;,
 3;14,15,9;,
 3;14,9,8;,
 3;15,10,9;,
 3;15,16,11;,
 3;15,11,10;,
 3;17,18,13;,
 3;17,13,12;,
 3;18,19,14;,
 3;18,14,13;,
 3;19,20,15;,
 3;19,15,14;,
 3;20,21,16;,
 3;20,16,15;,
 3;22,23,29;,
 3;22,29,28;,
 3;23,24,30;,
 3;23,30,29;,
 3;24,25,31;,
 3;24,31,30;,
 3;25,26,32;,
 3;25,32,31;,
 3;26,27,33;,
 3;26,33,32;,
 3;28,29,35;,
 3;28,35,34;,
 3;29,30,36;,
 3;29,36,35;,
 3;30,31,37;,
 3;30,37,36;,
 3;31,32,37;,
 3;32,33,38;,
 3;32,38,37;,
 3;34,35,40;,
 3;34,40,39;,
 3;35,36,41;,
 3;35,41,40;,
 3;36,37,42;,
 3;36,42,41;,
 3;37,38,43;,
 3;37,43,42;,
 3;44,45,46;,
 3;44,46,47;,
 3;44,47,48;,
 3;44,48,49;,
 3;44,49,50;,
 3;44,50,51;,
 3;44,51,52;,
 3;44,52,53;,
 3;44,53,54;,
 3;44,54,55;,
 3;44,55,56;,
 3;44,56,57;,
 3;63,64,59;,
 3;63,59,58;,
 3;64,65,60;,
 3;64,60,59;,
 3;65,66,61;,
 3;65,61,60;,
 3;66,67,62;,
 3;66,62,61;,
 3;68,69,64;,
 3;68,64,63;,
 3;69,70,65;,
 3;69,65,64;,
 3;70,71,66;,
 3;70,66,65;,
 3;71,72,67;,
 3;71,67,66;,
 3;73,74,69;,
 3;73,69,68;,
 3;74,75,70;,
 3;74,70,69;,
 3;75,76,71;,
 3;75,71,70;,
 3;76,77,72;,
 3;76,72,71;,
 3;83,84,79;,
 3;83,79,78;,
 3;84,85,80;,
 3;84,80,79;,
 3;85,86,81;,
 3;85,81,80;,
 3;86,87,82;,
 3;86,82,81;,
 3;88,89,84;,
 3;88,84,83;,
 3;89,90,85;,
 3;89,85,84;,
 3;90,91,86;,
 3;90,86,85;,
 3;91,92,87;,
 3;91,87,86;,
 3;93,94,89;,
 3;93,89,88;,
 3;94,95,90;,
 3;94,90,89;,
 3;95,96,91;,
 3;95,91,90;,
 3;96,97,92;,
 3;96,92,91;,
 3;100,101,98;,
 3;102,103,101;,
 3;102,101,100;,
 3;104,105,103;,
 3;104,103,102;,
 3;108,109,107;,
 3;108,107,106;,
 3;110,111,109;,
 3;110,109,108;,
 3;112,111,110;,
 3;113,116,115;,
 3;115,116,118;,
 3;115,118,117;,
 3;117,118,120;,
 3;117,120,119;,
 3;119,120,122;,
 3;119,122,121;,
 3;121,122,124;,
 3;121,124,123;,
 3;123,124,126;,
 3;123,126,125;,
 3;125,126,128;,
 3;125,128,127;,
 3;127,128,130;,
 3;127,130,129;,
 3;129,130,132;,
 3;129,132,131;,
 3;131,132,134;,
 3;131,134,133;,
 3;133,134,136;,
 3;133,136,135;,
 3;135,136,138;,
 3;135,138,137;,
 3;137,138,140;,
 3;141,142,144;,
 3;141,144,143;,
 3;143,144,146;,
 3;143,146,145;,
 3;145,146,148;,
 3;145,148,147;,
 3;147,148,150;,
 3;147,150,149;,
 3;149,150,152;,
 3;149,152,151;,
 3;151,152,154;,
 3;151,154,153;,
 3;153,154,156;,
 3;153,156,155;,
 3;157,158,159;,
 3;157,159,160;,
 3;162,161,160;,
 3;162,160,159;,
 3;161,162,163;,
 3;161,163,164;,
 3;166,165,167;,
 3;166,167,168;,
 3;168,167,169;,
 3;168,169,170;,
 3;170,169,171;,
 3;170,171,172;,
 3;172,171,173;,
 3;172,173,174;,
 3;174,173,165;,
 3;174,165,166;,
 3;173,171,169;,
 3;173,169,167;,
 3;173,167,165;,
 3;176,175,177;,
 3;176,177,178;,
 3;178,177,179;,
 3;178,179,180;,
 3;180,179,181;,
 3;180,181,182;,
 3;182,181,183;,
 3;182,183,184;,
 3;184,183,175;,
 3;184,175,176;,
 3;183,181,179;,
 3;183,179,177;,
 3;183,177,175;,
 3;193,194,186;,
 3;193,186,185;,
 3;194,195,187;,
 3;194,187,186;,
 3;195,196,188;,
 3;195,188,187;,
 3;196,197,189;,
 3;196,189,188;,
 3;197,198,190;,
 3;197,190,189;,
 3;198,199,191;,
 3;198,191,190;,
 3;199,200,192;,
 3;199,192,191;,
 3;201,202,204;,
 3;201,204,203;,
 3;203,204,206;,
 3;203,206,205;,
 3;205,206,208;,
 3;205,208,207;,
 3;207,208,210;,
 3;207,210,209;,
 3;209,210,212;,
 3;209,212,211;,
 3;215,216,214;,
 3;215,214,213;,
 3;217,218,216;,
 3;217,216,215;,
 3;219,220,218;,
 3;219,218,217;,
 3;221,222,220;,
 3;221,220,219;,
 3;223,224,222;,
 3;223,222,221;,
 3;225,226,234;,
 3;225,234,233;,
 3;226,227,235;,
 3;226,235,234;,
 3;227,228,236;,
 3;227,236,235;,
 3;228,229,237;,
 3;228,237,236;,
 3;229,230,238;,
 3;229,238,237;,
 3;230,231,239;,
 3;230,239,238;,
 3;231,232,240;,
 3;231,240,239;,
 3;243,244,242;,
 3;243,242,241;,
 3;245,246,244;,
 3;245,244,243;,
 3;247,248,246;,
 3;247,246,245;,
 3;249,250,248;,
 3;249,248,247;,
 3;251,252,250;,
 3;251,250,249;,
 3;253,254,256;,
 3;253,256,255;,
 3;255,256,258;,
 3;255,258,257;,
 3;257,258,260;,
 3;257,260,259;,
 3;259,260,262;,
 3;259,262,261;,
 3;261,262,264;,
 3;261,264,263;,
 3;266,265,267;,
 3;266,267,268;,
 3;268,267,269;,
 3;268,269,270;,
 3;270,269,271;,
 3;270,271,272;,
 3;272,271,273;,
 3;272,273,274;,
 3;274,273,275;,
 3;274,275,276;,
 3;276,275,277;,
 3;276,277,278;,
 3;278,277,279;,
 3;278,279,280;,
 3;280,279,265;,
 3;280,265,266;,
 3;279,277,275;,
 3;279,275,273;,
 3;279,273,271;,
 3;279,271,269;,
 3;279,269,267;,
 3;279,267,265;,
 3;282,281,283;,
 3;282,283,284;,
 3;284,283,285;,
 3;284,285,286;,
 3;286,285,287;,
 3;286,287,288;,
 3;288,287,289;,
 3;288,289,290;,
 3;290,289,291;,
 3;290,291,292;,
 3;292,291,293;,
 3;292,293,294;,
 3;294,293,295;,
 3;294,295,296;,
 3;296,295,281;,
 3;296,281,282;,
 3;295,293,291;,
 3;295,291,289;,
 3;295,289,287;,
 3;295,287,285;,
 3;295,285,283;,
 3;295,283,281;,
 3;298,297,299;,
 3;298,299,300;,
 3;300,299,301;,
 3;300,301,302;,
 3;302,301,303;,
 3;302,303,304;,
 3;304,303,305;,
 3;304,305,306;,
 3;306,305,307;,
 3;306,307,308;,
 3;308,307,309;,
 3;308,309,310;,
 3;310,309,311;,
 3;310,311,312;,
 3;312,311,297;,
 3;312,297,298;,
 3;311,309,307;,
 3;311,307,305;,
 3;311,305,303;,
 3;311,303,301;,
 3;311,301,299;,
 3;311,299,297;,
 3;313,314,316;,
 3;313,316,315;,
 3;315,316,314;,
 3;315,314,313;,
 3;315,316,318;,
 3;315,318,317;,
 3;317,318,316;,
 3;317,316,315;,
 3;317,318,320;,
 3;317,320,319;,
 3;319,320,318;,
 3;319,318,317;,
 3;319,320,322;,
 3;319,322,321;,
 3;321,322,320;,
 3;321,320,319;,
 3;324,323,325;,
 3;324,325,326;,
 3;326,325,327;,
 3;326,327,328;,
 3;328,327,329;,
 3;328,329,330;,
 3;330,329,331;,
 3;330,331,332;,
 3;332,331,333;,
 3;332,333,334;,
 3;334,333,335;,
 3;334,335,336;,
 3;336,335,337;,
 3;336,337,338;,
 3;338,337,323;,
 3;338,323,324;,
 3;324,326,328;,
 3;324,328,330;,
 3;324,330,332;,
 3;324,332,334;,
 3;324,334,336;,
 3;324,336,338;,
 3;340,339,341;,
 3;340,341,342;,
 3;342,341,343;,
 3;342,343,344;,
 3;344,343,345;,
 3;344,345,346;,
 3;346,345,347;,
 3;346,347,348;,
 3;348,347,339;,
 3;348,339,340;,
 3;347,345,343;,
 3;347,343,341;,
 3;347,341,339;,
 3;340,342,344;,
 3;340,344,346;,
 3;340,346,348;,
 3;350,349,351;,
 3;350,351,352;,
 3;352,351,353;,
 3;352,353,354;,
 3;354,353,355;,
 3;354,355,356;,
 3;356,355,357;,
 3;356,357,358;,
 3;358,357,349;,
 3;358,349,350;,
 3;360,359,361;,
 3;360,361,362;,
 3;362,361,363;,
 3;362,363,364;,
 3;364,363,365;,
 3;364,365,366;,
 3;366,365,367;,
 3;366,367,368;,
 3;368,367,359;,
 3;368,359,360;,
 3;367,365,363;,
 3;367,363,361;,
 3;367,361,359;,
 3;370,369,371;,
 3;370,371,372;,
 3;372,371,373;,
 3;372,373,374;,
 3;374,373,375;,
 3;374,375,376;,
 3;376,375,377;,
 3;376,377,378;,
 3;378,377,369;,
 3;378,369,370;,
 3;377,375,373;,
 3;377,373,371;,
 3;377,371,369;,
 3;379,380,383;,
 3;379,383,382;,
 3;382,383,380;,
 3;382,380,379;,
 3;380,381,384;,
 3;380,384,383;,
 3;383,384,381;,
 3;383,381,380;,
 3;382,383,386;,
 3;382,386,385;,
 3;385,386,383;,
 3;385,383,382;,
 3;383,384,387;,
 3;383,387,386;,
 3;386,387,384;,
 3;386,384,383;,
 3;385,386,389;,
 3;385,389,388;,
 3;388,389,386;,
 3;388,386,385;,
 3;386,389,390;,
 3;390,389,386;,
 3;386,387,391;,
 3;386,391,390;,
 3;390,391,387;,
 3;390,387,386;,
 3;393,392,394;,
 3;393,394,395;,
 3;395,394,396;,
 3;395,396,397;,
 3;397,396,398;,
 3;397,398,399;,
 3;399,398,392;,
 3;399,392,393;,
 3;398,396,394;,
 3;398,394,392;,
 3;401,400,402;,
 3;401,402,403;,
 3;403,402,404;,
 3;403,404,405;,
 3;405,404,406;,
 3;405,406,407;,
 3;407,406,400;,
 3;407,400,401;,
 3;406,404,402;,
 3;406,402,400;,
 3;401,403,405;,
 3;401,405,407;,
 3;408,409,410;,
 3;408,410,411;,
 3;413,412,411;,
 3;413,411,410;,
 3;412,413,414;,
 3;412,414,415;,
 3;415,414,409;,
 3;415,409,408;,
 3;414,413,410;,
 3;414,410,409;;

 MeshMaterialList  {
  27;
  476;
  0,
  0,
  0,
  0,
  0,
  0,
  0,
  0,
  0,
  0,
  0,
  0,
  0,
  0,
  0,
  0,
  0,
  0,
  0,
  0,
  0,
  0,
  0,
  0,
  0,
  0,
  0,
  1,
  1,
  1,
  1,
  1,
  1,
  1,
  1,
  1,
  1,
  1,
  1,
  1,
  1,
  1,
  1,
  1,
  1,
  1,
  1,
  1,
  1,
  1,
  1,
  1,
  1,
  1,
  2,
  2,
  2,
  2,
  2,
  2,
  2,
  2,
  2,
  2,
  2,
  2,
  3,
  3,
  3,
  3,
  3,
  3,
  3,
  3,
  3,
  3,
  3,
  3,
  3,
  3,
  3,
  3,
  3,
  3,
  3,
  3,
  3,
  3,
  3,
  3,
  3,
  3,
  3,
  3,
  3,
  3,
  3,
  3,
  3,
  3,
  3,
  3,
  3,
  3,
  3,
  3,
  3,
  3,
  3,
  3,
  3,
  3,
  3,
  3,
  4,
  4,
  4,
  4,
  4,
  4,
  4,
  4,
  4,
  4,
  5,
  5,
  5,
  5,
  5,
  5,
  5,
  5,
  5,
  5,
  5,
  5,
  5,
  5,
  5,
  5,
  5,
  5,
  5,
  5,
  5,
  5,
  5,
  5,
  6,
  6,
  6,
  6,
  6,
  6,
  6,
  6,
  6,
  6,
  6,
  6,
  6,
  6,
  7,
  7,
  7,
  7,
  7,
  7,
  8,
  8,
  8,
  8,
  8,
  8,
  8,
  8,
  8,
  8,
  8,
  8,
  8,
  9,
  9,
  9,
  9,
  9,
  9,
  9,
  9,
  9,
  9,
  9,
  9,
  9,
  10,
  10,
  10,
  10,
  10,
  10,
  10,
  10,
  10,
  10,
  10,
  10,
  10,
  10,
  11,
  11,
  11,
  11,
  11,
  11,
  11,
  11,
  11,
  11,
  11,
  11,
  11,
  11,
  11,
  11,
  11,
  11,
  11,
  11,
  12,
  12,
  12,
  12,
  12,
  12,
  12,
  12,
  12,
  12,
  12,
  12,
  12,
  12,
  13,
  13,
  13,
  13,
  13,
  13,
  13,
  13,
  13,
  13,
  13,
  13,
  13,
  13,
  13,
  13,
  13,
  13,
  13,
  13,
  14,
  14,
  14,
  14,
  14,
  14,
  14,
  14,
  14,
  14,
  14,
  14,
  14,
  14,
  14,
  14,
  14,
  14,
  14,
  14,
  14,
  14,
  15,
  15,
  15,
  15,
  15,
  15,
  15,
  15,
  15,
  15,
  15,
  15,
  15,
  15,
  15,
  15,
  15,
  15,
  15,
  15,
  15,
  15,
  16,
  16,
  16,
  16,
  16,
  16,
  16,
  16,
  16,
  16,
  16,
  16,
  16,
  16,
  16,
  16,
  16,
  16,
  16,
  16,
  16,
  16,
  17,
  17,
  17,
  17,
  17,
  17,
  17,
  17,
  17,
  17,
  17,
  17,
  17,
  17,
  17,
  17,
  18,
  18,
  18,
  18,
  18,
  18,
  18,
  18,
  18,
  18,
  18,
  18,
  18,
  18,
  18,
  18,
  18,
  18,
  18,
  18,
  18,
  18,
  19,
  19,
  19,
  19,
  19,
  19,
  19,
  19,
  19,
  19,
  19,
  19,
  19,
  19,
  19,
  19,
  20,
  20,
  20,
  20,
  20,
  20,
  20,
  20,
  20,
  20,
  21,
  21,
  21,
  21,
  21,
  21,
  21,
  21,
  21,
  21,
  21,
  21,
  21,
  22,
  22,
  22,
  22,
  22,
  22,
  22,
  22,
  22,
  22,
  22,
  22,
  22,
  23,
  23,
  23,
  23,
  23,
  23,
  23,
  23,
  23,
  23,
  23,
  23,
  23,
  23,
  23,
  23,
  23,
  23,
  23,
  23,
  23,
  23,
  23,
  23,
  23,
  23,
  24,
  24,
  24,
  24,
  24,
  24,
  24,
  24,
  24,
  24,
  25,
  25,
  25,
  25,
  25,
  25,
  25,
  25,
  25,
  25,
  25,
  25,
  26,
  26,
  26,
  26,
  26,
  26,
  26,
  26,
  26,
  26;

  Material  {
   1.000000;1.000000;1.000000;1.000000;;
   0.000000;
   0.000000;0.000000;0.000000;;
   0.000000;0.000000;0.000000;;

   TextureFilename  {
    "tc681s2.png";
   }
  }

  Material  {
   1.000000;1.000000;1.000000;1.000000;;
   0.000000;
   0.000000;0.000000;0.000000;;
   0.000000;0.000000;0.000000;;

   TextureFilename  {
    "tc681s1.png";
   }
  }

  Material  {
   1.000000;1.000000;1.000000;1.000000;;
   0.000000;
   0.000000;0.000000;0.000000;;
   0.000000;0.000000;0.000000;;

   TextureFilename  {
    "681r.png";
   }
  }

  Material  {
   1.000000;1.000000;1.000000;1.000000;;
   0.000000;
   0.000000;0.000000;0.000000;;
   0.000000;0.000000;0.000000;;

   TextureFilename  {
    "tsc_f2.png";
   }
  }

  Material  {
   1.000000;1.000000;1.000000;1.000000;;
   0.000000;
   0.000000;0.000000;0.000000;;
   0.000000;0.000000;0.000000;;

   TextureFilename  {
    "tsc_sk.png";
   }
  }

  Material  {
   0.117647;0.117647;0.117647;1.000000;;
   0.000000;
   0.000000;0.000000;0.000000;;
   0.000000;0.000000;0.000000;;
  }

  Material  {
   0.078431;0.078431;0.078431;1.000000;;
   0.000000;
   0.000000;0.000000;0.000000;;
   0.000000;0.000000;0.000000;;
  }

  Material  {
   1.000000;1.000000;1.000000;1.000000;;
   0.000000;
   0.000000;0.000000;0.000000;;
   0.000000;0.000000;0.000000;;

   TextureFilename  {
    "roof2.png";
   }
  }

  Material  {
   0.588235;0.588235;0.588235;1.000000;;
   0.000000;
   0.000000;0.000000;0.000000;;
   0.000000;0.000000;0.000000;;
  }

  Material  {
   0.588235;0.588235;0.588235;1.000000;;
   0.000000;
   0.000000;0.000000;0.000000;;
   0.000000;0.000000;0.000000;;
  }

  Material  {
   1.000000;1.000000;1.000000;1.000000;;
   0.000000;
   0.000000;0.000000;0.000000;;
   0.000000;0.000000;0.000000;;

   TextureFilename  {
    "cooler4.png";
   }
  }

  Material  {
   1.000000;1.000000;1.000000;1.000000;;
   0.000000;
   0.000000;0.000000;0.000000;;
   0.000000;0.000000;0.000000;;

   TextureFilename  {
    "cooler3.png";
   }
  }

  Material  {
   1.000000;1.000000;1.000000;1.000000;;
   0.000000;
   0.000000;0.000000;0.000000;;
   0.000000;0.000000;0.000000;;

   TextureFilename  {
    "cooler4.png";
   }
  }

  Material  {
   1.000000;1.000000;1.000000;1.000000;;
   0.000000;
   0.000000;0.000000;0.000000;;
   0.000000;0.000000;0.000000;;

   TextureFilename  {
    "cooler3.png";
   }
  }

  Material  {
   0.470588;0.482353;0.498039;1.000000;;
   0.000000;
   0.000000;0.000000;0.000000;;
   0.000000;0.000000;0.000000;;
  }

  Material  {
   0.470588;0.482353;0.498039;1.000000;;
   0.000000;
   0.000000;0.000000;0.000000;;
   0.000000;0.000000;0.000000;;
  }

  Material  {
   0.470588;0.482353;0.498039;1.000000;;
   0.000000;
   0.000000;0.000000;0.000000;;
   0.000000;0.000000;0.000000;;
  }

  Material  {
   0.470588;0.474510;0.482353;1.000000;;
   0.000000;
   0.000000;0.000000;0.000000;;
   0.000000;0.000000;0.000000;;
  }

  Material  {
   0.333333;0.294118;0.058824;1.000000;;
   0.000000;
   0.000000;0.000000;0.000000;;
   0.000000;0.000000;0.000000;;
  }

  Material  {
   0.588235;0.588235;0.588235;1.000000;;
   0.000000;
   0.000000;0.000000;0.000000;;
   0.000000;0.000000;0.000000;;
  }

  Material  {
   0.588235;0.588235;0.588235;1.000000;;
   0.000000;
   0.000000;0.000000;0.000000;;
   0.000000;0.000000;0.000000;;
  }

  Material  {
   0.588235;0.588235;0.588235;1.000000;;
   0.000000;
   0.000000;0.000000;0.000000;;
   0.000000;0.000000;0.000000;;
  }

  Material  {
   0.588235;0.588235;0.588235;1.000000;;
   0.000000;
   0.000000;0.000000;0.000000;;
   0.000000;0.000000;0.000000;;
  }

  Material  {
   1.000000;1.000000;1.000000;1.000000;;
   0.000000;
   0.000000;0.000000;0.000000;;
   0.000000;0.000000;0.000000;;

   TextureFilename  {
    "snowplow.png";
   }
  }

  Material  {
   0.470588;0.482353;0.498039;1.000000;;
   0.000000;
   0.000000;0.000000;0.000000;;
   0.000000;0.000000;0.000000;;
  }

  Material  {
   0.470588;0.482353;0.498039;1.000000;;
   0.000000;
   0.000000;0.000000;0.000000;;
   0.000000;0.000000;0.000000;;
  }

  Material  {
   0.470588;0.482353;0.498039;1.000000;;
   0.000000;
   0.000000;0.000000;0.000000;;
   0.000000;0.000000;0.000000;;
  }
 }

 MeshTextureCoords  {
  417;
  0.995000;0.993000;,
  0.995000;0.741667;,
  0.995000;0.664333;,
  0.995000;0.103667;,
  0.995000;0.080467;,
  0.995000;0.007000;,
  0.129951;0.993000;,
  0.129951;0.741667;,
  0.129951;0.664333;,
  0.129951;0.103667;,
  0.129951;0.080467;,
  0.129951;0.007000;,
  0.092947;0.993000;,
  0.091505;0.745533;,
  0.091505;0.668200;,
  0.091505;0.153933;,
  0.091505;0.065000;,
  0.065073;0.993000;,
  0.057864;0.761000;,
  0.057864;0.679800;,
  0.057864;0.266067;,
  0.057864;0.181000;,
  0.995000;0.993000;,
  0.995000;0.741667;,
  0.995000;0.664333;,
  0.995000;0.103667;,
  0.995000;0.080467;,
  0.995000;0.007000;,
  0.129951;0.993000;,
  0.129951;0.741667;,
  0.129951;0.664333;,
  0.129951;0.103667;,
  0.129951;0.080467;,
  0.129951;0.007000;,
  0.092947;0.993000;,
  0.091505;0.745533;,
  0.091505;0.668200;,
  0.091505;0.153933;,
  0.091505;0.065000;,
  0.065073;0.993000;,
  0.057864;0.761000;,
  0.057864;0.679800;,
  0.057864;0.266067;,
  0.057864;0.181000;,
  0.000000;1.000000;,
  0.000000;0.000000;,
  1.000000;0.000000;,
  1.000000;1.000000;,
  0.000000;0.000000;,
  0.000000;0.000000;,
  0.000000;0.000000;,
  0.000000;0.000000;,
  0.000000;0.000000;,
  0.000000;0.000000;,
  0.000000;0.000000;,
  0.000000;0.000000;,
  0.000000;0.000000;,
  0.000000;0.000000;,
  0.033569;0.993000;,
  0.000000;0.711286;,
  0.000000;0.612686;,
  0.038869;0.110295;,
  0.109541;0.007000;,
  0.058304;0.993000;,
  0.033569;0.734762;,
  0.033569;0.636162;,
  0.058304;0.232371;,
  0.125442;0.124381;,
  0.114841;0.993000;,
  0.090106;0.781714;,
  0.090106;0.687810;,
  0.104240;0.429571;,
  0.167845;0.312190;,
  0.224382;0.993000;,
  0.203180;0.842752;,
  0.203180;0.758238;,
  0.210247;0.607991;,
  0.252650;0.523476;,
  0.775618;0.993000;,
  0.796820;0.842752;,
  0.796820;0.758238;,
  0.789753;0.607991;,
  0.747350;0.523476;,
  0.885159;0.993000;,
  0.909894;0.781714;,
  0.909894;0.687810;,
  0.895760;0.429571;,
  0.832155;0.312190;,
  0.941696;0.993000;,
  0.966431;0.734762;,
  0.966431;0.636162;,
  0.941696;0.232371;,
  0.874558;0.124381;,
  0.966431;0.993000;,
  1.000000;0.711286;,
  1.000000;0.612686;,
  0.961131;0.110295;,
  0.890459;0.007000;,
  0.000000;0.000000;,
  0.000000;0.000000;,
  0.086207;0.738462;,
  0.021073;0.000000;,
  0.147510;0.846154;,
  0.082375;0.000000;,
  0.266284;1.000000;,
  0.201149;0.000000;,
  0.733716;1.000000;,
  0.798851;0.000000;,
  0.852490;0.846154;,
  0.917625;0.000000;,
  0.913793;0.738462;,
  0.978927;0.000000;,
  1.000000;0.000000;,
  1.000000;0.000000;,
  0.000000;0.000000;,
  0.000000;0.000000;,
  0.000000;0.000000;,
  0.000000;0.000000;,
  0.000000;0.000000;,
  0.000000;0.000000;,
  0.000000;0.000000;,
  0.000000;0.000000;,
  0.000000;0.000000;,
  0.000000;0.000000;,
  0.000000;0.000000;,
  0.000000;0.000000;,
  0.000000;0.000000;,
  0.000000;0.000000;,
  0.000000;0.000000;,
  0.000000;0.000000;,
  0.000000;0.000000;,
  0.000000;0.000000;,
  0.000000;0.000000;,
  0.000000;0.000000;,
  0.000000;0.000000;,
  0.000000;0.000000;,
  0.000000;0.000000;,
  0.000000;0.000000;,
  0.000000;0.000000;,
  0.000000;0.000000;,
  0.000000;0.000000;,
  0.000000;0.000000;,
  0.000000;0.000000;,
  0.000000;0.000000;,
  0.000000;0.000000;,
  0.000000;0.000000;,
  0.000000;0.000000;,
  0.000000;0.000000;,
  0.000000;0.000000;,
  0.000000;0.000000;,
  0.000000;0.000000;,
  0.000000;0.000000;,
  0.000000;0.000000;,
  0.000000;0.000000;,
  0.000000;0.000000;,
  0.000000;0.000000;,
  0.000000;0.000000;,
  0.000000;0.000000;,
  0.000000;0.900000;,
  0.854000;0.900000;,
  0.854000;0.640000;,
  0.000000;0.640000;,
  0.000000;0.360000;,
  0.854000;0.360000;,
  0.854000;0.100000;,
  0.000000;0.100000;,
  0.000000;0.000000;,
  0.000000;0.000000;,
  0.000000;0.000000;,
  0.000000;0.000000;,
  0.000000;0.000000;,
  0.000000;0.000000;,
  0.000000;0.000000;,
  0.000000;0.000000;,
  0.000000;0.000000;,
  0.000000;0.000000;,
  0.000000;0.000000;,
  0.000000;0.000000;,
  0.000000;0.000000;,
  0.000000;0.000000;,
  0.000000;0.000000;,
  0.000000;0.000000;,
  0.000000;0.000000;,
  0.000000;0.000000;,
  0.000000;0.000000;,
  0.000000;0.000000;,
  0.000000;0.000000;,
  0.100000;0.130000;,
  0.100000;0.190000;,
  0.100000;0.400000;,
  0.100000;0.600000;,
  0.100000;0.810000;,
  0.100000;0.870000;,
  0.000000;1.000000;,
  1.000000;0.000000;,
  0.900000;0.130000;,
  0.900000;0.190000;,
  0.900000;0.400000;,
  0.900000;0.600000;,
  0.900000;0.810000;,
  0.900000;0.870000;,
  1.000000;1.000000;,
  1.000000;0.000000;,
  0.312500;0.000000;,
  1.000000;0.055556;,
  0.125000;0.055556;,
  1.000000;0.333333;,
  0.000000;0.333333;,
  1.000000;0.666667;,
  0.000000;0.666667;,
  1.000000;0.944444;,
  0.125000;0.944444;,
  1.000000;1.000000;,
  0.312500;1.000000;,
  1.000000;1.000000;,
  0.312500;1.000000;,
  1.000000;0.944444;,
  0.125000;0.944444;,
  1.000000;0.666667;,
  0.000000;0.666667;,
  1.000000;0.333333;,
  0.000000;0.333333;,
  1.000000;0.055556;,
  0.125000;0.055556;,
  1.000000;0.000000;,
  0.312500;0.000000;,
  0.000000;0.000000;,
  0.100000;0.130000;,
  0.100000;0.190000;,
  0.100000;0.400000;,
  0.100000;0.600000;,
  0.100000;0.810000;,
  0.100000;0.870000;,
  0.000000;1.000000;,
  1.000000;0.000000;,
  0.900000;0.130000;,
  0.900000;0.190000;,
  0.900000;0.400000;,
  0.900000;0.600000;,
  0.900000;0.810000;,
  0.900000;0.870000;,
  1.000000;1.000000;,
  1.000000;0.000000;,
  0.312500;0.000000;,
  1.000000;0.055556;,
  0.125000;0.055556;,
  1.000000;0.333333;,
  0.000000;0.333333;,
  1.000000;0.666667;,
  0.000000;0.666667;,
  1.000000;0.944444;,
  0.125000;0.944444;,
  1.000000;1.000000;,
  0.312500;1.000000;,
  1.000000;1.000000;,
  0.312500;1.000000;,
  1.000000;0.944444;,
  0.125000;0.944444;,
  1.000000;0.666667;,
  0.000000;0.666667;,
  1.000000;0.333333;,
  0.000000;0.333333;,
  1.000000;0.055556;,
  0.125000;0.055556;,
  1.000000;0.000000;,
  0.312500;0.000000;,
  0.000000;0.000000;,
  0.000000;0.000000;,
  0.000000;0.000000;,
  0.000000;0.000000;,
  0.000000;0.000000;,
  0.000000;0.000000;,
  0.000000;0.000000;,
  0.000000;0.000000;,
  0.000000;0.000000;,
  0.000000;0.000000;,
  0.000000;0.000000;,
  0.000000;0.000000;,
  0.000000;0.000000;,
  0.000000;0.000000;,
  0.000000;0.000000;,
  0.000000;0.000000;,
  0.000000;0.000000;,
  0.000000;0.000000;,
  0.000000;0.000000;,
  0.000000;0.000000;,
  0.000000;0.000000;,
  0.000000;0.000000;,
  0.000000;0.000000;,
  0.000000;0.000000;,
  0.000000;0.000000;,
  0.000000;0.000000;,
  0.000000;0.000000;,
  0.000000;0.000000;,
  0.000000;0.000000;,
  0.000000;0.000000;,
  0.000000;0.000000;,
  0.000000;0.000000;,
  0.000000;0.000000;,
  0.000000;0.000000;,
  0.000000;0.000000;,
  0.000000;0.000000;,
  0.000000;0.000000;,
  0.000000;0.000000;,
  0.000000;0.000000;,
  0.000000;0.000000;,
  0.000000;0.000000;,
  0.000000;0.000000;,
  0.000000;0.000000;,
  0.000000;0.000000;,
  0.000000;0.000000;,
  0.000000;0.000000;,
  0.000000;0.000000;,
  0.000000;0.000000;,
  0.000000;0.000000;,
  0.000000;0.000000;,
  0.000000;0.000000;,
  0.000000;0.000000;,
  0.000000;0.000000;,
  0.000000;0.000000;,
  0.000000;0.000000;,
  0.000000;0.000000;,
  0.000000;0.000000;,
  0.000000;0.000000;,
  0.000000;0.000000;,
  0.000000;0.000000;,
  0.000000;0.000000;,
  0.000000;0.000000;,
  0.000000;0.000000;,
  0.000000;0.000000;,
  0.000000;0.000000;,
  0.000000;0.000000;,
  0.000000;0.000000;,
  0.000000;0.000000;,
  0.000000;0.000000;,
  0.000000;0.000000;,
  0.000000;0.000000;,
  0.000000;0.000000;,
  0.000000;0.000000;,
  0.000000;0.000000;,
  0.000000;0.000000;,
  0.000000;0.000000;,
  0.000000;0.000000;,
  0.000000;0.000000;,
  0.000000;0.000000;,
  0.000000;0.000000;,
  0.000000;0.000000;,
  0.000000;0.000000;,
  0.000000;0.000000;,
  0.000000;0.000000;,
  0.000000;0.000000;,
  0.000000;0.000000;,
  0.000000;0.000000;,
  0.000000;0.000000;,
  0.000000;0.000000;,
  0.000000;0.000000;,
  0.000000;0.000000;,
  0.000000;0.000000;,
  0.000000;0.000000;,
  0.000000;0.000000;,
  0.000000;0.000000;,
  0.000000;0.000000;,
  0.000000;0.000000;,
  0.000000;0.000000;,
  0.000000;0.000000;,
  0.000000;0.000000;,
  0.000000;0.000000;,
  0.000000;0.000000;,
  0.000000;0.000000;,
  0.000000;0.000000;,
  0.000000;0.000000;,
  0.000000;0.000000;,
  0.000000;0.000000;,
  0.000000;0.000000;,
  0.000000;0.000000;,
  0.000000;0.000000;,
  0.000000;0.000000;,
  0.000000;0.000000;,
  0.000000;0.000000;,
  0.000000;0.000000;,
  0.000000;0.050000;,
  0.500000;0.050000;,
  1.000000;0.050000;,
  0.000000;0.200000;,
  0.500000;0.200000;,
  1.000000;0.200000;,
  0.000000;0.300000;,
  0.500000;0.300000;,
  1.000000;0.300000;,
  0.000000;0.950000;,
  0.400000;0.950000;,
  0.600000;0.950000;,
  1.000000;0.950000;,
  0.000000;0.000000;,
  0.000000;0.000000;,
  0.000000;0.000000;,
  0.000000;0.000000;,
  0.000000;0.000000;,
  0.000000;0.000000;,
  0.000000;0.000000;,
  0.000000;0.000000;,
  0.000000;0.000000;,
  0.000000;0.000000;,
  0.000000;0.000000;,
  0.000000;0.000000;,
  0.000000;0.000000;,
  0.000000;0.000000;,
  0.000000;0.000000;,
  0.000000;0.000000;,
  0.000000;0.000000;,
  0.000000;0.000000;,
  0.000000;0.000000;,
  0.000000;0.000000;,
  0.000000;0.000000;,
  0.000000;0.000000;,
  0.000000;0.000000;,
  0.000000;0.000000;;
 }

 MeshNormals  {
  428;
  -0.985981;-0.166858;0.000000;,
  -0.985981;-0.166858;0.000000;,
  -1.000000;0.000000;0.000000;,
  -1.000000;0.000000;0.000000;,
  -0.997135;0.075645;0.000000;,
  -0.997135;0.075645;0.000000;,
  -0.894427;0.447214;0.000000;,
  -0.894427;0.447214;0.000000;,
  -0.725953;0.687745;0.000000;,
  -0.725953;0.687745;0.000000;,
  -0.985123;-0.170373;0.022498;,
  -0.985658;-0.166804;0.025601;,
  -0.999688;0.000000;0.024992;,
  -0.999688;0.000000;0.024992;,
  -0.995867;0.082365;0.038281;,
  -0.996801;0.075619;0.025865;,
  -0.890415;0.445208;0.094607;,
  -0.730854;0.667302;0.143390;,
  -0.717466;0.679705;0.152461;,
  -0.986342;-0.162654;0.025932;,
  -0.985273;-0.170140;0.016987;,
  -0.999363;0.000000;0.035692;,
  -0.999363;0.000000;0.035692;,
  -0.991753;0.101956;0.077659;,
  -0.995835;0.082362;0.039096;,
  -0.707921;0.643565;0.290984;,
  -0.706220;0.644810;0.292358;,
  0.985981;-0.166858;0.000000;,
  0.985981;-0.166858;0.000000;,
  1.000000;0.000000;0.000000;,
  1.000000;0.000000;0.000000;,
  0.997135;0.075645;0.000000;,
  0.997135;0.075645;0.000000;,
  0.894427;0.447214;0.000000;,
  0.894427;0.447214;0.000000;,
  0.725953;0.687745;0.000000;,
  0.725953;0.687745;0.000000;,
  0.985730;-0.166816;0.022558;,
  0.985025;-0.170501;0.025585;,
  0.999688;0.000000;0.024992;,
  0.999688;0.000000;0.024992;,
  0.996445;0.075592;0.037195;,
  0.996262;0.082398;0.025936;,
  0.890415;0.445208;0.094607;,
  0.718224;0.680422;0.145535;,
  0.730218;0.666721;0.149218;,
  0.985030;-0.170494;0.025437;,
  0.986887;-0.160511;0.017015;,
  0.999363;0.000000;0.035692;,
  0.999363;0.000000;0.035692;,
  0.994182;0.082226;0.069572;,
  0.993966;0.102183;0.039878;,
  0.706401;0.644975;0.291555;,
  0.707732;0.643393;0.291825;,
  0.000000;0.000000;-1.000000;,
  0.000000;0.000000;-1.000000;,
  0.000000;0.000000;-1.000000;,
  0.000000;0.000000;-1.000000;,
  0.000000;0.000000;-1.000000;,
  0.000000;0.000000;-1.000000;,
  0.000000;0.000000;-1.000000;,
  0.000000;0.000000;-1.000000;,
  0.000000;0.000000;-1.000000;,
  0.000000;0.000000;-1.000000;,
  0.000000;0.000000;-1.000000;,
  0.000000;0.000000;-1.000000;,
  -0.969602;-0.175958;0.170029;,
  -0.971090;-0.189913;0.144630;,
  -0.982548;-0.008848;0.185799;,
  -0.981719;0.000000;0.190333;,
  -0.978687;0.094501;0.182321;,
  -0.975584;0.100294;0.195390;,
  -0.658432;0.602719;0.450773;,
  -0.661458;0.601326;0.448198;,
  -0.938525;-0.226927;0.260146;,
  -0.934895;-0.207900;0.287660;,
  -0.953888;-0.029867;0.298673;,
  -0.951382;-0.014651;0.307666;,
  -0.944220;0.097272;0.314621;,
  -0.940574;0.102900;0.323622;,
  -0.495632;0.587230;0.639930;,
  -0.580030;0.556720;0.594666;,
  -0.770968;-0.302224;0.560596;,
  -0.768514;-0.296020;0.567237;,
  -0.780479;-0.102779;0.616675;,
  -0.765827;-0.063986;0.639855;,
  -0.743150;0.108349;0.660294;,
  -0.737251;0.114155;0.665904;,
  -0.349642;0.532789;0.770640;,
  -0.353262;0.531504;0.769876;,
  0.771524;-0.295326;0.563501;,
  0.766766;-0.302941;0.565947;,
  0.775481;-0.062824;0.628238;,
  0.770128;-0.104868;0.629211;,
  0.739721;0.114086;0.663172;,
  0.738872;0.108528;0.665048;,
  0.352459;0.531147;0.770491;,
  0.350871;0.533263;0.769753;,
  0.942386;-0.202292;0.266434;,
  0.929352;-0.233529;0.285954;,
  0.953239;-0.014375;0.301874;,
  0.951982;-0.030463;0.304634;,
  0.942358;0.102626;0.318480;,
  0.941410;0.097809;0.322769;,
  0.562450;0.545660;0.621213;,
  0.521357;0.595433;0.611266;,
  0.966421;-0.194887;0.167481;,
  0.974871;-0.168953;0.145194;,
  0.982425;0.000000;0.186660;,
  0.981851;-0.009021;0.189438;,
  0.977440;0.100484;0.185779;,
  0.976159;0.095327;0.195003;,
  0.660851;0.600774;0.449830;,
  0.659234;0.603153;0.449018;,
  -0.911447;-0.405483;0.069624;,
  -0.829119;-0.497472;0.255114;,
  -0.844294;-0.506576;0.174784;,
  -0.655132;-0.580500;0.483550;,
  -0.696650;-0.594701;0.401260;,
  0.625160;-0.629491;0.461428;,
  0.716693;-0.550123;0.428622;,
  0.787517;-0.566659;0.242313;,
  0.872959;-0.449328;0.189860;,
  0.911447;-0.405483;0.069624;,
  0.911447;0.405483;-0.069624;,
  0.787517;0.566659;-0.242313;,
  0.872959;0.449328;-0.189860;,
  0.625160;0.629491;-0.461428;,
  0.716693;0.550123;-0.428622;,
  0.469128;0.638735;-0.609866;,
  0.441025;0.651360;-0.617435;,
  0.225936;0.666883;-0.710084;,
  0.247378;0.662756;-0.706795;,
  0.154510;0.661424;-0.733925;,
  0.240782;0.648259;-0.722346;,
  0.000000;0.645942;-0.763386;,
  0.000000;0.645942;-0.763386;,
  -0.156217;0.651908;-0.742033;,
  -0.236757;0.662919;-0.710270;,
  -0.226985;0.662996;-0.713382;,
  -0.246132;0.666992;-0.703236;,
  -0.464814;0.647164;-0.604258;,
  -0.444934;0.643443;-0.622908;,
  -0.655132;0.580500;-0.483550;,
  -0.696650;0.594701;-0.401260;,
  -0.829119;0.497472;-0.255114;,
  -0.844294;0.506576;-0.174784;,
  -0.911447;0.405483;-0.069624;,
  -0.447214;0.000000;0.894427;,
  -0.447214;0.000000;0.894427;,
  -0.943858;0.000000;0.330350;,
  -0.943858;0.000000;0.330350;,
  -1.000000;0.000000;0.000000;,
  -1.000000;0.000000;0.000000;,
  0.000000;0.000000;-1.000000;,
  0.000000;0.000000;-1.000000;,
  1.000000;0.000000;0.000000;,
  1.000000;0.000000;0.000000;,
  0.943858;0.000000;0.330350;,
  0.943858;0.000000;0.330350;,
  0.447214;0.000000;0.894427;,
  0.447214;0.000000;0.894427;,
  -0.067414;0.997725;0.000000;,
  -0.067414;0.997725;0.000000;,
  0.000000;1.000000;0.000000;,
  0.000000;1.000000;0.000000;,
  0.067414;0.997725;0.000000;,
  0.067414;0.997725;0.000000;,
  0.672498;0.707107;-0.218508;,
  1.000000;0.000000;0.000000;,
  0.118256;0.923880;0.363954;,
  0.000000;0.000000;1.000000;,
  -0.309597;0.923880;0.224936;,
  -0.951057;0.000000;0.309017;,
  -0.572061;0.707107;-0.415627;,
  -0.587785;0.000000;-0.809017;,
  0.060286;0.980785;-0.185542;,
  0.587785;0.000000;-0.809017;,
  0.650849;0.729135;-0.211563;,
  0.997785;0.066519;-0.000000;,
  0.113488;0.930120;0.349281;,
  -0.000124;0.063274;0.997996;,
  -0.297116;0.930120;0.215868;,
  -0.949189;0.063274;0.308280;,
  -0.552708;0.730246;-0.401566;,
  -0.586507;0.063274;-0.807469;,
  0.057762;0.982375;-0.177774;,
  0.586708;0.063274;-0.807323;,
  -1.000000;0.000000;0.000000;,
  -1.000000;0.000000;0.000000;,
  -0.600000;0.800000;0.000000;,
  -0.600000;0.800000;0.000000;,
  -0.099504;0.995037;0.000000;,
  -0.099504;0.995037;0.000000;,
  0.000000;1.000000;0.000000;,
  0.000000;1.000000;0.000000;,
  0.099504;0.995037;0.000000;,
  0.099504;0.995037;0.000000;,
  0.600000;0.800000;0.000000;,
  0.600000;0.800000;0.000000;,
  1.000000;0.000000;0.000000;,
  1.000000;0.000000;0.000000;,
  -0.403604;0.538138;-0.739940;,
  -0.403604;0.538138;-0.739940;,
  -0.058716;0.587156;-0.807341;,
  -0.058716;0.587156;-0.807341;,
  0.000000;0.588171;-0.808736;,
  0.000000;0.588171;-0.808736;,
  0.058716;0.587157;-0.807341;,
  0.058716;0.587156;-0.807341;,
  0.403604;0.538138;-0.739940;,
  0.403604;0.538138;-0.739940;,
  -0.403604;0.538138;0.739940;,
  -0.403604;0.538138;0.739940;,
  -0.058716;0.587157;0.807341;,
  -0.058716;0.587156;0.807341;,
  0.000000;0.588171;0.808736;,
  0.000000;0.588171;0.808736;,
  0.058716;0.587156;0.807341;,
  0.058716;0.587156;0.807341;,
  0.403604;0.538138;0.739940;,
  0.403604;0.538138;0.739940;,
  -1.000000;0.000000;0.000000;,
  -1.000000;0.000000;0.000000;,
  -0.600000;0.800000;0.000000;,
  -0.600000;0.800000;0.000000;,
  -0.099504;0.995037;0.000000;,
  -0.099504;0.995037;0.000000;,
  0.000000;1.000000;0.000000;,
  0.000000;1.000000;0.000000;,
  0.099504;0.995037;0.000000;,
  0.099504;0.995037;0.000000;,
  0.600000;0.800000;0.000000;,
  0.600000;0.800000;0.000000;,
  1.000000;0.000000;0.000000;,
  1.000000;0.000000;0.000000;,
  -0.403604;0.538138;0.739940;,
  -0.403604;0.538138;0.739940;,
  -0.058716;0.587157;0.807341;,
  -0.058716;0.587156;0.807341;,
  0.000000;0.588171;0.808736;,
  0.000000;0.588171;0.808736;,
  0.058716;0.587156;0.807341;,
  0.058716;0.587156;0.807341;,
  0.403604;0.538138;0.739940;,
  0.403604;0.538138;0.739940;,
  -0.403604;0.538138;-0.739940;,
  -0.403604;0.538138;-0.739940;,
  -0.058716;0.587156;-0.807341;,
  -0.058716;0.587156;-0.807341;,
  0.000000;0.588171;-0.808736;,
  0.000000;0.588171;-0.808736;,
  0.058716;0.587157;-0.807341;,
  0.058716;0.587156;-0.807341;,
  0.403604;0.538138;-0.739940;,
  0.403604;0.538138;-0.739940;,
  0.466520;0.879511;-0.093909;,
  0.832050;0.554700;-0.000000;,
  0.171992;0.969968;0.171992;,
  0.463460;0.547080;0.697071;,
  0.000000;0.969968;0.243234;,
  -0.165188;0.547080;0.820620;,
  -0.171992;0.969968;0.171992;,
  -0.697071;0.547080;0.463460;,
  -0.243234;0.969968;0.000000;,
  -0.820620;0.547080;-0.165188;,
  -0.171992;0.969968;-0.171992;,
  -0.463460;0.547080;-0.697071;,
  0.000000;0.881675;-0.471858;,
  0.165188;0.547080;-0.820620;,
  0.010858;0.999882;-0.010858;,
  0.697071;0.547080;-0.463460;,
  0.693520;0.707107;-0.137950;,
  1.000000;0.000000;0.000000;,
  0.270598;0.923880;0.270598;,
  0.555570;0.000000;0.831470;,
  0.000000;0.923880;0.382683;,
  -0.195090;0.000000;0.980785;,
  -0.270598;0.923880;0.270598;,
  -0.831470;0.000000;0.555570;,
  -0.382683;0.923880;0.000000;,
  -0.980785;0.000000;-0.195090;,
  -0.270598;0.923880;-0.270598;,
  -0.555570;0.000000;-0.831470;,
  0.000000;0.707107;-0.707107;,
  0.195090;0.000000;-0.980785;,
  0.017353;0.999699;-0.017353;,
  0.831470;0.000000;-0.555570;,
  0.693520;0.707107;-0.137950;,
  1.000000;0.000000;-0.000000;,
  0.270598;0.923880;0.270598;,
  0.555570;0.000000;0.831470;,
  -0.000000;0.923880;0.382683;,
  -0.195090;0.000000;0.980785;,
  -0.270598;0.923880;0.270598;,
  -0.831470;0.000000;0.555570;,
  -0.382683;0.923880;-0.000000;,
  -0.980785;0.000000;-0.195090;,
  -0.270598;0.923880;-0.270598;,
  -0.555570;0.000000;-0.831470;,
  0.000000;0.707107;-0.707107;,
  0.195090;0.000000;-0.980785;,
  0.017353;0.999699;-0.017353;,
  0.831470;0.000000;-0.555570;,
  -1.000000;0.000000;0.000000;,
  -1.000000;0.000000;0.000000;,
  1.000000;0.000000;0.000000;,
  1.000000;0.000000;0.000000;,
  -0.640184;0.768222;0.000000;,
  -0.640184;0.768222;0.000000;,
  0.640184;-0.768222;0.000000;,
  0.640184;-0.768222;0.000000;,
  0.640184;0.768222;0.000000;,
  0.640184;0.768222;0.000000;,
  -0.640184;-0.768222;0.000000;,
  -0.640184;-0.768222;0.000000;,
  1.000000;0.000000;0.000000;,
  1.000000;0.000000;0.000000;,
  -1.000000;0.000000;0.000000;,
  -1.000000;0.000000;0.000000;,
  0.980785;0.000000;-0.195090;,
  0.024541;-0.999699;0.000000;,
  0.707107;0.000000;0.707107;,
  0.392847;-0.707107;0.587938;,
  0.000000;0.000000;1.000000;,
  -0.074658;-0.923880;0.375330;,
  -0.707107;0.000000;0.707107;,
  -0.318190;-0.923880;0.212608;,
  -1.000000;0.000000;0.000000;,
  -0.375330;-0.923880;-0.074658;,
  -0.707107;0.000000;-0.707107;,
  -0.212608;-0.923880;-0.318190;,
  0.000000;0.000000;-1.000000;,
  0.074658;-0.923880;-0.375330;,
  0.707107;0.000000;-0.707107;,
  0.587938;-0.707107;-0.392847;,
  0.672498;0.707107;-0.218508;,
  0.195090;-0.980785;0.000000;,
  0.118256;0.923880;0.363954;,
  0.000000;-0.707107;0.707107;,
  -0.309597;0.923880;0.224936;,
  -0.363954;-0.923880;0.118256;,
  -0.572061;0.707107;-0.415627;,
  -0.224936;-0.923880;-0.309597;,
  0.060286;0.980785;-0.185542;,
  0.415627;-0.707107;-0.572061;,
  0.951056;0.000000;-0.309017;,
  1.000000;0.000000;0.000000;,
  0.309017;0.000000;0.951057;,
  0.000000;0.000000;1.000000;,
  -0.809017;0.000000;0.587785;,
  -0.951057;0.000000;0.309017;,
  -0.809017;0.000000;-0.587785;,
  -0.587785;0.000000;-0.809017;,
  0.309017;0.000000;-0.951057;,
  0.587785;0.000000;-0.809017;,
  0.672498;0.707107;-0.218508;,
  1.000000;0.000000;0.000000;,
  0.118256;0.923880;0.363954;,
  0.000000;0.000000;1.000000;,
  -0.309597;0.923880;0.224936;,
  -0.951057;0.000000;0.309017;,
  -0.572061;0.707107;-0.415627;,
  -0.587785;0.000000;-0.809017;,
  0.060286;0.980785;-0.185542;,
  0.587785;0.000000;-0.809017;,
  0.672498;0.707107;-0.218508;,
  1.000000;0.000000;0.000000;,
  0.118256;0.923880;0.363954;,
  0.000000;0.000000;1.000000;,
  -0.309597;0.923880;0.224936;,
  -0.951057;0.000000;0.309017;,
  -0.572061;0.707107;-0.415627;,
  -0.587785;0.000000;-0.809017;,
  0.060286;0.980785;-0.185542;,
  0.587785;0.000000;-0.809017;,
  0.000000;1.000000;0.000000;,
  0.000000;1.000000;0.000000;,
  0.000000;-1.000000;0.000000;,
  0.000000;-1.000000;0.000000;,
  0.000000;1.000000;0.000000;,
  0.000000;1.000000;0.000000;,
  0.000000;-1.000000;0.000000;,
  0.000000;-1.000000;0.000000;,
  0.373383;-0.414870;-0.829740;,
  0.373383;-0.414870;-0.829740;,
  -0.373383;0.414870;0.829740;,
  -0.373383;0.414870;0.829740;,
  -0.373383;-0.414870;-0.829740;,
  -0.373383;-0.414870;-0.829740;,
  0.373383;0.414870;0.829740;,
  0.373383;0.414870;0.829740;,
  0.228740;-0.830240;-0.508310;,
  0.501984;-0.371840;-0.780863;,
  -0.302456;0.828953;0.470487;,
  -0.341117;0.555894;0.758038;,
  0.000000;0.800000;0.600000;,
  0.000000;-0.800000;-0.600000;,
  -0.341117;-0.555894;-0.758038;,
  -0.302456;-0.828953;-0.470487;,
  0.501984;0.371840;0.780863;,
  0.228740;0.830240;0.508310;,
  0.645686;0.715224;-0.267477;,
  0.999688;0.024992;0.000000;,
  0.000000;0.926253;0.376903;,
  -0.382611;0.023091;0.923621;,
  -0.698215;0.715888;0.000000;,
  -0.923621;0.023091;-0.382611;,
  0.000000;0.926253;-0.376903;,
  0.382611;0.023091;-0.923621;,
  0.653281;0.707107;-0.270598;,
  0.382683;-0.923879;0.000000;,
  0.000000;0.923879;0.382683;,
  -0.270598;-0.707107;0.653281;,
  -0.707107;0.707107;0.000000;,
  -0.353553;-0.923880;-0.146447;,
  -0.000000;0.923879;-0.382683;,
  0.270598;-0.707107;-0.653281;,
  -1.000000;0.000000;0.000000;,
  -1.000000;0.000000;0.000000;,
  0.000000;0.124035;-0.992278;,
  0.000000;0.124035;-0.992278;,
  1.000000;0.000000;0.000000;,
  1.000000;0.000000;0.000000;,
  0.000000;0.124035;0.992278;,
  0.000000;0.124035;0.992278;,
  0.000000;1.000000;0.000000;,
  0.000000;1.000000;0.000000;;
  476;
  3;0,0,0;,
  3;1,1,1;,
  3;2,2,2;,
  3;3,3,3;,
  3;4,4,4;,
  3;5,5,5;,
  3;6,6,6;,
  3;7,7,7;,
  3;8,8,8;,
  3;9,9,9;,
  3;10,10,10;,
  3;11,11,11;,
  3;12,12,12;,
  3;13,13,13;,
  3;14,14,14;,
  3;15,15,15;,
  3;16,16,16;,
  3;17,17,17;,
  3;18,18,18;,
  3;19,19,19;,
  3;20,20,20;,
  3;21,21,21;,
  3;22,22,22;,
  3;23,23,23;,
  3;24,24,24;,
  3;25,25,25;,
  3;26,26,26;,
  3;27,27,27;,
  3;28,28,28;,
  3;29,29,29;,
  3;30,30,30;,
  3;31,31,31;,
  3;32,32,32;,
  3;33,33,33;,
  3;34,34,34;,
  3;35,35,35;,
  3;36,36,36;,
  3;37,37,37;,
  3;38,38,38;,
  3;39,39,39;,
  3;40,40,40;,
  3;41,41,41;,
  3;42,42,42;,
  3;43,43,43;,
  3;44,44,44;,
  3;45,45,45;,
  3;46,46,46;,
  3;47,47,47;,
  3;48,48,48;,
  3;49,49,49;,
  3;50,50,50;,
  3;51,51,51;,
  3;52,52,52;,
  3;53,53,53;,
  3;54,54,54;,
  3;55,55,55;,
  3;56,56,56;,
  3;57,57,57;,
  3;58,58,58;,
  3;59,59,59;,
  3;60,60,60;,
  3;61,61,61;,
  3;62,62,62;,
  3;63,63,63;,
  3;64,64,64;,
  3;65,65,65;,
  3;66,66,66;,
  3;67,67,67;,
  3;68,68,68;,
  3;69,69,69;,
  3;70,70,70;,
  3;71,71,71;,
  3;72,72,72;,
  3;73,73,73;,
  3;74,74,74;,
  3;75,75,75;,
  3;76,76,76;,
  3;77,77,77;,
  3;78,78,78;,
  3;79,79,79;,
  3;80,80,80;,
  3;81,81,81;,
  3;82,82,82;,
  3;83,83,83;,
  3;84,84,84;,
  3;85,85,85;,
  3;86,86,86;,
  3;87,87,87;,
  3;88,88,88;,
  3;89,89,89;,
  3;90,90,90;,
  3;91,91,91;,
  3;92,92,92;,
  3;93,93,93;,
  3;94,94,94;,
  3;95,95,95;,
  3;96,96,96;,
  3;97,97,97;,
  3;98,98,98;,
  3;99,99,99;,
  3;100,100,100;,
  3;101,101,101;,
  3;102,102,102;,
  3;103,103,103;,
  3;104,104,104;,
  3;105,105,105;,
  3;106,106,106;,
  3;107,107,107;,
  3;108,108,108;,
  3;109,109,109;,
  3;110,110,110;,
  3;111,111,111;,
  3;112,112,112;,
  3;113,113,113;,
  3;114,114,114;,
  3;115,115,115;,
  3;116,116,116;,
  3;117,117,117;,
  3;118,118,118;,
  3;119,119,119;,
  3;120,120,120;,
  3;121,121,121;,
  3;122,122,122;,
  3;123,123,123;,
  3;124,124,124;,
  3;125,125,125;,
  3;126,126,126;,
  3;127,127,127;,
  3;128,128,128;,
  3;129,129,129;,
  3;130,130,130;,
  3;131,131,131;,
  3;132,132,132;,
  3;133,133,133;,
  3;134,134,134;,
  3;135,135,135;,
  3;136,136,136;,
  3;137,137,137;,
  3;138,138,138;,
  3;139,139,139;,
  3;140,140,140;,
  3;141,141,141;,
  3;142,142,142;,
  3;143,143,143;,
  3;144,144,144;,
  3;145,145,145;,
  3;146,146,146;,
  3;147,147,147;,
  3;148,148,148;,
  3;149,149,149;,
  3;150,150,150;,
  3;151,151,151;,
  3;152,152,152;,
  3;153,153,153;,
  3;154,154,154;,
  3;155,155,155;,
  3;156,156,156;,
  3;157,157,157;,
  3;158,158,158;,
  3;159,159,159;,
  3;160,160,160;,
  3;161,161,161;,
  3;162,162,162;,
  3;163,163,163;,
  3;164,164,164;,
  3;165,165,165;,
  3;166,166,166;,
  3;167,167,167;,
  3;169,168,170;,
  3;169,170,171;,
  3;171,170,172;,
  3;171,172,173;,
  3;173,172,174;,
  3;173,174,175;,
  3;175,174,176;,
  3;175,176,177;,
  3;177,176,168;,
  3;177,168,169;,
  3;176,174,172;,
  3;176,172,170;,
  3;176,170,168;,
  3;179,178,180;,
  3;179,180,181;,
  3;181,180,182;,
  3;181,182,183;,
  3;183,182,184;,
  3;183,184,185;,
  3;185,184,186;,
  3;185,186,187;,
  3;187,186,178;,
  3;187,178,179;,
  3;186,184,182;,
  3;186,182,180;,
  3;186,180,178;,
  3;188,188,188;,
  3;189,189,189;,
  3;190,190,190;,
  3;191,191,191;,
  3;192,192,192;,
  3;193,193,193;,
  3;194,194,194;,
  3;195,195,195;,
  3;196,196,196;,
  3;197,197,197;,
  3;198,198,198;,
  3;199,199,199;,
  3;200,200,200;,
  3;201,201,201;,
  3;202,202,202;,
  3;203,203,203;,
  3;204,204,204;,
  3;205,205,205;,
  3;206,206,206;,
  3;207,207,207;,
  3;208,208,208;,
  3;209,209,209;,
  3;210,210,210;,
  3;211,211,211;,
  3;212,212,212;,
  3;213,213,213;,
  3;214,214,214;,
  3;215,215,215;,
  3;216,216,216;,
  3;217,217,217;,
  3;218,218,218;,
  3;219,219,219;,
  3;220,220,220;,
  3;221,221,221;,
  3;222,222,222;,
  3;223,223,223;,
  3;224,224,224;,
  3;225,225,225;,
  3;226,226,226;,
  3;227,227,227;,
  3;228,228,228;,
  3;229,229,229;,
  3;230,230,230;,
  3;231,231,231;,
  3;232,232,232;,
  3;233,233,233;,
  3;234,234,234;,
  3;235,235,235;,
  3;236,236,236;,
  3;237,237,237;,
  3;238,238,238;,
  3;239,239,239;,
  3;240,240,240;,
  3;241,241,241;,
  3;242,242,242;,
  3;243,243,243;,
  3;244,244,244;,
  3;245,245,245;,
  3;246,246,246;,
  3;247,247,247;,
  3;248,248,248;,
  3;249,249,249;,
  3;250,250,250;,
  3;251,251,251;,
  3;252,252,252;,
  3;253,253,253;,
  3;254,254,254;,
  3;255,255,255;,
  3;257,256,258;,
  3;257,258,259;,
  3;259,258,260;,
  3;259,260,261;,
  3;261,260,262;,
  3;261,262,263;,
  3;263,262,264;,
  3;263,264,265;,
  3;265,264,266;,
  3;265,266,267;,
  3;267,266,268;,
  3;267,268,269;,
  3;269,268,270;,
  3;269,270,271;,
  3;271,270,256;,
  3;271,256,257;,
  3;270,268,266;,
  3;270,266,264;,
  3;270,264,262;,
  3;270,262,260;,
  3;270,260,258;,
  3;270,258,256;,
  3;273,272,274;,
  3;273,274,275;,
  3;275,274,276;,
  3;275,276,277;,
  3;277,276,278;,
  3;277,278,279;,
  3;279,278,280;,
  3;279,280,281;,
  3;281,280,282;,
  3;281,282,283;,
  3;283,282,284;,
  3;283,284,285;,
  3;285,284,286;,
  3;285,286,287;,
  3;287,286,272;,
  3;287,272,273;,
  3;286,284,282;,
  3;286,282,280;,
  3;286,280,278;,
  3;286,278,276;,
  3;286,276,274;,
  3;286,274,272;,
  3;289,288,290;,
  3;289,290,291;,
  3;291,290,292;,
  3;291,292,293;,
  3;293,292,294;,
  3;293,294,295;,
  3;295,294,296;,
  3;295,296,297;,
  3;297,296,298;,
  3;297,298,299;,
  3;299,298,300;,
  3;299,300,301;,
  3;301,300,302;,
  3;301,302,303;,
  3;303,302,288;,
  3;303,288,289;,
  3;302,300,298;,
  3;302,298,296;,
  3;302,296,294;,
  3;302,294,292;,
  3;302,292,290;,
  3;302,290,288;,
  3;304,304,304;,
  3;305,305,305;,
  3;306,306,306;,
  3;307,307,307;,
  3;308,308,308;,
  3;309,309,309;,
  3;310,310,310;,
  3;311,311,311;,
  3;312,312,312;,
  3;313,313,313;,
  3;314,314,314;,
  3;315,315,315;,
  3;316,316,316;,
  3;317,317,317;,
  3;318,318,318;,
  3;319,319,319;,
  3;321,320,322;,
  3;321,322,323;,
  3;323,322,324;,
  3;323,324,325;,
  3;325,324,326;,
  3;325,326,327;,
  3;327,326,328;,
  3;327,328,329;,
  3;329,328,330;,
  3;329,330,331;,
  3;331,330,332;,
  3;331,332,333;,
  3;333,332,334;,
  3;333,334,335;,
  3;335,334,320;,
  3;335,320,321;,
  3;321,323,325;,
  3;321,325,327;,
  3;321,327,329;,
  3;321,329,331;,
  3;321,331,333;,
  3;321,333,335;,
  3;337,336,338;,
  3;337,338,339;,
  3;339,338,340;,
  3;339,340,341;,
  3;341,340,342;,
  3;341,342,343;,
  3;343,342,344;,
  3;343,344,345;,
  3;345,344,336;,
  3;345,336,337;,
  3;344,342,340;,
  3;344,340,338;,
  3;344,338,336;,
  3;337,339,341;,
  3;337,341,343;,
  3;337,343,345;,
  3;347,346,348;,
  3;347,348,349;,
  3;349,348,350;,
  3;349,350,351;,
  3;351,350,352;,
  3;351,352,353;,
  3;353,352,354;,
  3;353,354,355;,
  3;355,354,346;,
  3;355,346,347;,
  3;357,356,358;,
  3;357,358,359;,
  3;359,358,360;,
  3;359,360,361;,
  3;361,360,362;,
  3;361,362,363;,
  3;363,362,364;,
  3;363,364,365;,
  3;365,364,356;,
  3;365,356,357;,
  3;364,362,360;,
  3;364,360,358;,
  3;364,358,356;,
  3;367,366,368;,
  3;367,368,369;,
  3;369,368,370;,
  3;369,370,371;,
  3;371,370,372;,
  3;371,372,373;,
  3;373,372,374;,
  3;373,374,375;,
  3;375,374,366;,
  3;375,366,367;,
  3;374,372,370;,
  3;374,370,368;,
  3;374,368,366;,
  3;376,376,376;,
  3;377,377,377;,
  3;378,378,378;,
  3;379,379,379;,
  3;380,380,380;,
  3;381,381,381;,
  3;382,382,382;,
  3;383,383,383;,
  3;384,384,384;,
  3;385,385,385;,
  3;386,386,386;,
  3;387,387,387;,
  3;388,388,388;,
  3;389,389,389;,
  3;390,390,390;,
  3;391,391,391;,
  3;392,392,392;,
  3;393,393,393;,
  3;394,394,394;,
  3;395,395,395;,
  3;396,396,396;,
  3;397,397,397;,
  3;398,398,398;,
  3;399,399,399;,
  3;400,400,400;,
  3;401,401,401;,
  3;403,402,404;,
  3;403,404,405;,
  3;405,404,406;,
  3;405,406,407;,
  3;407,406,408;,
  3;407,408,409;,
  3;409,408,402;,
  3;409,402,403;,
  3;408,406,404;,
  3;408,404,402;,
  3;411,410,412;,
  3;411,412,413;,
  3;413,412,414;,
  3;413,414,415;,
  3;415,414,416;,
  3;415,416,417;,
  3;417,416,410;,
  3;417,410,411;,
  3;416,414,412;,
  3;416,412,410;,
  3;411,413,415;,
  3;411,415,417;,
  3;418,418,418;,
  3;419,419,419;,
  3;420,420,420;,
  3;421,421,421;,
  3;422,422,422;,
  3;423,423,423;,
  3;424,424,424;,
  3;425,425,425;,
  3;426,426,426;,
  3;427,427,427;;
 }
}