xof 0303txt 0032
Material __Color_008_ {
0.1176;0.1176;0.1176;1.0000;;
5.0000;
0.0118;0.0118;0.0118;;	
0.0235;0.0235;0.0235;;	
}
Material _000_000_png {
1.0000;1.0000;1.0000;  1.0000;;
5.0000;
0.1000;0.1000;0.1000;;	
0.2000;0.2000;0.2000;;	
   TextureFilename { "000.dds"; }
}
Material __Color_002_ {
0.7765;0.7765;0.7765;1.0000;;
5.0000;
0.0776;0.0776;0.0776;;	
0.1553;0.1553;0.1553;;	
}
Material _cvp_ura1_cvp_ura_png {
1.0000;1.0000;1.0000;  1.0000;;
5.0000;
0.1000;0.1000;0.1000;;	
0.2000;0.2000;0.2000;;	
   TextureFilename { "cvp_ura.dds"; }
}
Mesh mesh_0{
23;
-0.0000;0.4200;0.0600;,
-0.0600;0.1000;-0.0000;,
-0.0600;0.4200;-0.0000;,
-0.0000;0.1000;0.0600;,
0.0600;0.1000;0.0000;,
-0.0600;-0.3500;-0.0000;,
0.0600;-0.3500;0.0000;,
-0.0600;0.1000;-0.0000;,
-0.0000;0.1000;0.0600;,
-0.0000;-0.3500;0.0600;,
-0.0000;0.4200;0.0600;,
0.0600;0.1000;0.0000;,
-0.0000;0.1000;0.0600;,
0.0600;0.4200;0.0000;,
0.0600;0.4200;0.0000;,
-0.0000;0.4200;0.0600;,
0.0000;0.4500;0.0000;,
-0.0600;0.4200;-0.0000;,
0.0600;0.4200;0.0000;,
-0.0600;0.1000;-0.0000;,
0.0600;0.1000;0.0000;,
-0.0600;0.4200;-0.0000;,
0.0000;0.4500;0.0000;;
15;
3;2,1,0,
3;3,0,1,
3;6,5,4,
3;7,4,5,
3;9,8,5,
3;7,5,8,
3;6,4,9,
3;8,9,4,
3;12,11,10,
3;13,10,11,
3;16,15,14,
3;17,15,16,
3;20,19,18,
3;21,18,19,
3;22,18,21;;
  MeshMaterialList {
4;
15;
3,
3,
0,
0,
0,
0,
0,
0,
3,
3,
2,
2,
1,
1,
1;
{ __Color_008_ }
{ _000_000_png }
{ __Color_002_ }
{ _cvp_ura1_cvp_ura_png }
  }
  MeshTextureCoords {
23;
0.0157,-1.0095;
1.0146,-0.0118;
1.0157,-1.0095;
0.0146,-0.0118;
0.0000,0.0000;
0.0000,0.0000;
0.0000,0.0000;
0.0000,0.0000;
0.0000,0.0000;
0.0000,0.0000;
1.0000,-1.0065;
0.0142,-0.0094;
1.0142,-0.0094;
-0.0000,-1.0065;
0.0000,0.0000;
0.0000,0.0000;
0.0000,0.0000;
0.0000,0.0000;
0.9206,-1.0020;
0.0608,0.1445;
0.9206,0.1445;
0.0608,-1.0020;
0.4907,-1.1094;
  }
  MeshNormals {
8;
-0.7071;-0.0000;0.7071;,
-0.0000;0.0000;-1.0000;,
-0.7071;0.0000;0.7071;,
0.7071;0.0000;0.7071;,
0.7071;-0.0000;0.7071;,
0.4082;0.8165;0.4082;,
-0.4082;0.8165;0.4082;,
0.0000;0.0000;-1.0000;;
15;
3;0,0,0;
3;0,0,0;
3;1,1,1;
3;1,1,1;
3;2,2,2;
3;2,2,2;
3;3,3,3;
3;3,3,3;
3;4,4,4;
3;4,4,4;
3;5,5,5;
3;6,6,6;
3;7,7,7;
3;7,7,7;
3;7,7,7;;
  }
}
