xof 0303txt 0032
Material __Color_008_ {
0.1176;0.1176;0.1176;1.0000;;
5.0000;
0.0118;0.0118;0.0118;;	
0.0235;0.0235;0.0235;;	
}
Material __Color_002_ {
0.7765;0.7765;0.7765;1.0000;;
5.0000;
0.0776;0.0776;0.0776;;	
0.1553;0.1553;0.1553;;	
}
Mesh mesh_0{
10;
-0.0000;0.4200;0.0600;,
-0.0600;0.1000;-0.0000;,
-0.0600;0.4200;-0.0000;,
-0.0000;0.1000;0.0600;,
0.0600;0.1000;0.0000;,
-0.0600;-0.3500;-0.0000;,
0.0600;-0.3500;0.0000;,
-0.0000;-0.3500;0.0600;,
0.0600;0.4200;0.0000;,
0.0000;0.4500;0.0000;;
15;
3;2,1,0,
3;3,0,1,
3;6,5,4,
3;1,4,5,
3;7,3,5,
3;1,5,3,
3;6,4,7,
3;3,7,4,
3;4,1,8,
3;2,8,1,
3;9,8,2,
3;3,4,0,
3;8,0,4,
3;9,0,8,
3;2,0,9;;
  MeshMaterialList {
2;
15;
1,
1,
0,
0,
0,
0,
0,
0,
1,
1,
1,
1,
1,
1,
1;
{ __Color_008_ }
{ __Color_002_ }
  }
  MeshTextureCoords {
10;
0.0000,0.0000;
0.0000,0.0000;
0.0000,0.0000;
0.0000,0.0000;
0.0000,0.0000;
0.0000,0.0000;
0.0000,0.0000;
0.0000,0.0000;
0.0000,0.0000;
0.0000,0.0000;
  }
  MeshNormals {
8;
-0.7071;-0.0000;0.7071;,
-0.0000;0.0000;-1.0000;,
-0.7071;0.0000;0.7071;,
0.7071;0.0000;0.7071;,
0.0000;0.0000;-1.0000;,
0.7071;-0.0000;0.7071;,
0.4082;0.8165;0.4082;,
-0.4082;0.8165;0.4082;;
15;
3;0,0,0;
3;0,0,0;
3;1,1,1;
3;1,1,1;
3;2,2,2;
3;2,2,2;
3;3,3,3;
3;3,3,3;
3;4,4,4;
3;4,4,4;
3;4,4,4;
3;5,5,5;
3;5,5,5;
3;6,6,6;
3;7,7,7;;
  }
}
