xof 0303txt 0032
template Vector {
 <3d82ab5e-62da-11cf-ab39-0020af71e433>
 FLOAT x;
 FLOAT y;
 FLOAT z;
}

template MeshFace {
 <3d82ab5f-62da-11cf-ab39-0020af71e433>
 DWORD nFaceVertexIndices;
 array DWORD faceVertexIndices[nFaceVertexIndices];
}

template Mesh {
 <3d82ab44-62da-11cf-ab39-0020af71e433>
 DWORD nVertices;
 array Vector vertices[nVertices];
 DWORD nFaces;
 array MeshFace faces[nFaces];
 [...]
}

template ColorRGBA {
 <35ff44e0-6c7c-11cf-8f52-0040333594a3>
 FLOAT red;
 FLOAT green;
 FLOAT blue;
 FLOAT alpha;
}

template ColorRGB {
 <d3e16e81-7835-11cf-8f52-0040333594a3>
 FLOAT red;
 FLOAT green;
 FLOAT blue;
}

template Material {
 <3d82ab4d-62da-11cf-ab39-0020af71e433>
 ColorRGBA faceColor;
 FLOAT power;
 ColorRGB specularColor;
 ColorRGB emissiveColor;
 [...]
}

template MeshMaterialList {
 <f6f23f42-7686-11cf-8f52-0040333594a3>
 DWORD nMaterials;
 DWORD nFaceIndexes;
 array DWORD faceIndexes[nFaceIndexes];
 [Material <3d82ab4d-62da-11cf-ab39-0020af71e433>]
}

template TextureFilename {
 <a42790e1-7810-11cf-8f52-0040333594a3>
 STRING filename;
}

template Coords2d {
 <f6f23f44-7686-11cf-8f52-0040333594a3>
 FLOAT u;
 FLOAT v;
}

template MeshTextureCoords {
 <f6f23f40-7686-11cf-8f52-0040333594a3>
 DWORD nTextureCoords;
 array Coords2d textureCoords[nTextureCoords];
}

template MeshNormals {
 <f6f23f43-7686-11cf-8f52-0040333594a3>
 DWORD nNormals;
 array Vector normals[nNormals];
 DWORD nFaceNormals;
 array MeshFace faceNormals[nFaceNormals];
}


Mesh  {
 42;
 1.500000;-0.250000;9.000000;,
 1.500000;-0.005000;9.000000;,
 1.500000;-0.005000;10.500000;,
 0.602000;-0.250000;9.000000;,
 0.602000;-0.005000;9.000000;,
 0.602000;-0.005000;10.500000;,
 0.470000;-0.005000;9.000000;,
 0.470000;-0.005000;10.500000;,
 -0.470000;-0.005000;9.000000;,
 -0.470000;-0.005000;10.500000;,
 0.470000;-0.250000;10.500000;,
 0.470000;-0.005000;10.500000;,
 0.470000;-0.250000;9.000000;,
 0.470000;-0.005000;9.000000;,
 -0.470000;-0.250000;9.000000;,
 -0.470000;-0.005000;9.000000;,
 -0.470000;-0.250000;10.500000;,
 -0.470000;-0.005000;10.500000;,
 -0.602000;-0.250000;9.000000;,
 -0.602000;-0.005000;9.000000;,
 -0.602000;-0.005000;10.500000;,
 -3.242000;-0.250000;9.000000;,
 -3.242000;-0.005000;9.000000;,
 -3.242000;-0.005000;10.500000;,
 -3.374000;-0.005000;9.000000;,
 -3.374000;-0.005000;10.500000;,
 -4.314000;-0.005000;9.000000;,
 -4.314000;-0.005000;10.500000;,
 -3.374000;-0.250000;10.500000;,
 -3.374000;-0.005000;10.500000;,
 -3.374000;-0.250000;9.000000;,
 -3.374000;-0.005000;9.000000;,
 -4.314000;-0.250000;9.000000;,
 -4.314000;-0.005000;9.000000;,
 -4.314000;-0.250000;10.500000;,
 -4.314000;-0.005000;10.500000;,
 -4.446000;-0.250000;9.000000;,
 -4.446000;-0.005000;9.000000;,
 -4.446000;-0.005000;10.500000;,
 -5.300000;-0.250000;9.000000;,
 -5.300000;-0.005000;9.000000;,
 -5.300000;-0.005000;10.500000;;
 28;
 3;3,4,1;,
 3;3,1,0;,
 3;4,5,2;,
 3;4,2,1;,
 3;8,9,7;,
 3;8,7,6;,
 3;12,13,11;,
 3;12,11,10;,
 3;14,15,13;,
 3;14,13,12;,
 3;16,17,15;,
 3;16,15,14;,
 3;21,22,19;,
 3;21,19,18;,
 3;22,23,20;,
 3;22,20,19;,
 3;26,27,25;,
 3;26,25,24;,
 3;30,31,29;,
 3;30,29,28;,
 3;32,33,31;,
 3;32,31,30;,
 3;34,35,33;,
 3;34,33,32;,
 3;39,40,37;,
 3;39,37,36;,
 3;40,41,38;,
 3;40,38,37;;

 MeshMaterialList  {
  7;
  28;
  0,
  0,
  0,
  0,
  1,
  1,
  2,
  2,
  2,
  2,
  2,
  2,
  3,
  3,
  3,
  3,
  4,
  4,
  5,
  5,
  5,
  5,
  5,
  5,
  6,
  6,
  6,
  6;

  Material  {
   1.000000;1.000000;1.000000;1.000000;;
   0.000000;
   0.000000;0.000000;0.000000;;
   0.000000;0.000000;0.000000;;

   TextureFilename  {
    "Crossing.png";
   }
  }

  Material  {
   1.000000;1.000000;1.000000;1.000000;;
   0.000000;
   0.000000;0.000000;0.000000;;
   0.000000;0.000000;0.000000;;

   TextureFilename  {
    "Crossing.png";
   }
  }

  Material  {
   1.000000;1.000000;1.000000;1.000000;;
   0.000000;
   0.000000;0.000000;0.000000;;
   0.000000;0.000000;0.000000;;

   TextureFilename  {
    "Crossing.png";
   }
  }

  Material  {
   1.000000;1.000000;1.000000;1.000000;;
   0.000000;
   0.000000;0.000000;0.000000;;
   0.000000;0.000000;0.000000;;

   TextureFilename  {
    "Crossing.png";
   }
  }

  Material  {
   1.000000;1.000000;1.000000;1.000000;;
   0.000000;
   0.000000;0.000000;0.000000;;
   0.000000;0.000000;0.000000;;

   TextureFilename  {
    "Crossing.png";
   }
  }

  Material  {
   1.000000;1.000000;1.000000;1.000000;;
   0.000000;
   0.000000;0.000000;0.000000;;
   0.000000;0.000000;0.000000;;

   TextureFilename  {
    "Crossing.png";
   }
  }

  Material  {
   1.000000;1.000000;1.000000;1.000000;;
   0.000000;
   0.000000;0.000000;0.000000;;
   0.000000;0.000000;0.000000;;

   TextureFilename  {
    "Crossing.png";
   }
  }
 }

 MeshTextureCoords  {
  42;
  0.000000;1.000000;,
  0.000000;0.718750;,
  0.000000;0.000000;,
  1.000000;1.000000;,
  1.000000;0.718750;,
  1.000000;0.000000;,
  0.000000;0.000000;,
  0.000000;0.718750;,
  1.000000;0.000000;,
  1.000000;0.718750;,
  0.000000;1.000000;,
  0.000000;0.718750;,
  0.300000;1.000000;,
  0.300000;0.718750;,
  0.600000;1.000000;,
  0.600000;0.718750;,
  0.900000;1.000000;,
  0.900000;0.718750;,
  0.000000;1.000000;,
  0.000000;0.718750;,
  0.000000;0.000000;,
  2.700000;1.000000;,
  2.700000;0.718750;,
  2.700000;0.000000;,
  0.000000;0.000000;,
  0.000000;0.718750;,
  1.000000;0.000000;,
  1.000000;0.718750;,
  0.000000;1.000000;,
  0.000000;0.718750;,
  0.300000;1.000000;,
  0.300000;0.718750;,
  0.600000;1.000000;,
  0.600000;0.718750;,
  0.900000;1.000000;,
  0.900000;0.718750;,
  0.000000;1.000000;,
  0.000000;0.718750;,
  0.000000;0.000000;,
  1.000000;1.000000;,
  1.000000;0.718750;,
  1.000000;0.000000;;
 }

 MeshNormals  {
  28;
  0.000000;0.000000;-1.000000;,
  0.000000;0.000000;-1.000000;,
  0.000000;1.000000;0.000000;,
  0.000000;1.000000;0.000000;,
  0.000000;1.000000;0.000000;,
  0.000000;1.000000;0.000000;,
  1.000000;0.000000;0.000000;,
  1.000000;0.000000;0.000000;,
  0.000000;0.000000;-1.000000;,
  0.000000;0.000000;-1.000000;,
  -1.000000;0.000000;0.000000;,
  -1.000000;0.000000;0.000000;,
  0.000000;0.000000;-1.000000;,
  0.000000;0.000000;-1.000000;,
  0.000000;1.000000;0.000000;,
  0.000000;1.000000;0.000000;,
  0.000000;1.000000;0.000000;,
  0.000000;1.000000;0.000000;,
  1.000000;0.000000;0.000000;,
  1.000000;0.000000;0.000000;,
  0.000000;0.000000;-1.000000;,
  0.000000;0.000000;-1.000000;,
  -1.000000;0.000000;0.000000;,
  -1.000000;0.000000;0.000000;,
  0.000000;0.000000;-1.000000;,
  0.000000;0.000000;-1.000000;,
  0.000000;1.000000;0.000000;,
  0.000000;1.000000;0.000000;;
  28;
  3;0,0,0;,
  3;1,1,1;,
  3;2,2,2;,
  3;3,3,3;,
  3;4,4,4;,
  3;5,5,5;,
  3;6,6,6;,
  3;7,7,7;,
  3;8,8,8;,
  3;9,9,9;,
  3;10,10,10;,
  3;11,11,11;,
  3;12,12,12;,
  3;13,13,13;,
  3;14,14,14;,
  3;15,15,15;,
  3;16,16,16;,
  3;17,17,17;,
  3;18,18,18;,
  3;19,19,19;,
  3;20,20,20;,
  3;21,21,21;,
  3;22,22,22;,
  3;23,23,23;,
  3;24,24,24;,
  3;25,25,25;,
  3;26,26,26;,
  3;27,27,27;;
 }
}