xof 0303txt 0032
template Vector {
 <3d82ab5e-62da-11cf-ab39-0020af71e433>
 FLOAT x;
 FLOAT y;
 FLOAT z;
}

template MeshFace {
 <3d82ab5f-62da-11cf-ab39-0020af71e433>
 DWORD nFaceVertexIndices;
 array DWORD faceVertexIndices[nFaceVertexIndices];
}

template Mesh {
 <3d82ab44-62da-11cf-ab39-0020af71e433>
 DWORD nVertices;
 array Vector vertices[nVertices];
 DWORD nFaces;
 array MeshFace faces[nFaces];
 [...]
}

template ColorRGBA {
 <35ff44e0-6c7c-11cf-8f52-0040333594a3>
 FLOAT red;
 FLOAT green;
 FLOAT blue;
 FLOAT alpha;
}

template ColorRGB {
 <d3e16e81-7835-11cf-8f52-0040333594a3>
 FLOAT red;
 FLOAT green;
 FLOAT blue;
}

template Material {
 <3d82ab4d-62da-11cf-ab39-0020af71e433>
 ColorRGBA faceColor;
 FLOAT power;
 ColorRGB specularColor;
 ColorRGB emissiveColor;
 [...]
}

template MeshMaterialList {
 <f6f23f42-7686-11cf-8f52-0040333594a3>
 DWORD nMaterials;
 DWORD nFaceIndexes;
 array DWORD faceIndexes[nFaceIndexes];
 [Material <3d82ab4d-62da-11cf-ab39-0020af71e433>]
}

template TextureFilename {
 <a42790e1-7810-11cf-8f52-0040333594a3>
 STRING filename;
}

template Coords2d {
 <f6f23f44-7686-11cf-8f52-0040333594a3>
 FLOAT u;
 FLOAT v;
}

template MeshTextureCoords {
 <f6f23f40-7686-11cf-8f52-0040333594a3>
 DWORD nTextureCoords;
 array Coords2d textureCoords[nTextureCoords];
}

template MeshNormals {
 <f6f23f43-7686-11cf-8f52-0040333594a3>
 DWORD nNormals;
 array Vector normals[nNormals];
 DWORD nFaceNormals;
 array MeshFace faceNormals[nFaceNormals];
}


Mesh  {
 38;
 1.500000;-0.450000;-8.000000;,
 1.500000;0.920000;-8.000000;,
 2.700000;0.920000;-8.000000;,
 1.500000;-0.450000;25.049999;,
 1.500000;0.920000;25.049999;,
 2.700000;0.920000;25.049999;,
 5.637800;-0.450000;-8.000000;,
 5.637800;0.920000;-8.000000;,
 4.437800;0.920000;-8.000000;,
 7.291500;-0.450000;25.049999;,
 7.291500;0.920000;25.049999;,
 6.091500;0.920000;25.049999;,
 1.500000;-0.450000;-8.000000;,
 1.500000;0.920000;-8.000000;,
 5.637800;0.920000;-8.000000;,
 5.637800;-0.450000;-8.000000;,
 2.700000;0.920000;-8.000000;,
 2.700000;0.920000;25.049999;,
 4.437800;0.920000;-8.000000;,
 6.091500;0.920000;25.049999;,
 2.100000;0.920000;-7.800000;,
 2.100000;2.120000;-7.800000;,
 5.030200;2.120000;-7.800000;,
 5.030200;0.920000;-7.800000;,
 2.100000;0.920000;-7.800000;,
 2.100000;2.120000;-7.800000;,
 5.030200;2.120000;-7.800000;,
 5.030200;0.920000;-7.800000;,
 0.403600;0.010000;-7.536600;,
 0.403600;0.010000;25.463400;,
 1.495000;0.010000;-8.000000;,
 1.495000;0.010000;25.000000;,
 1.495000;0.920000;-8.000000;,
 1.495000;0.920000;25.000000;,
 4.206900;0.920000;16.900000;,
 4.206900;5.420000;16.900000;,
 4.206900;0.920000;18.100000;,
 4.206900;5.420000;18.100000;;
 24;
 3;3,4,1;,
 3;3,1,0;,
 3;4,5,2;,
 3;4,2,1;,
 3;6,7,10;,
 3;6,10,9;,
 3;7,8,11;,
 3;7,11,10;,
 3;12,13,14;,
 3;12,14,15;,
 3;16,17,19;,
 3;16,19,18;,
 3;20,21,22;,
 3;20,22,23;,
 3;24,25,26;,
 3;24,26,27;,
 3;28,29,31;,
 3;28,31,30;,
 3;30,31,33;,
 3;30,33,32;,
 3;34,35,37;,
 3;34,37,36;,
 3;36,37,35;,
 3;36,35,34;;

 MeshMaterialList  {
  8;
  24;
  0,
  0,
  0,
  0,
  1,
  1,
  1,
  1,
  2,
  2,
  3,
  3,
  4,
  4,
  5,
  5,
  6,
  6,
  6,
  6,
  7,
  7,
  7,
  7;

  Material  {
   1.000000;1.000000;1.000000;1.000000;;
   0.000000;
   0.000000;0.000000;0.000000;;
   0.000000;0.000000;0.000000;;

   TextureFilename  {
    "FormSide1.png";
   }
  }

  Material  {
   1.000000;1.000000;1.000000;1.000000;;
   0.000000;
   0.000000;0.000000;0.000000;;
   0.000000;0.000000;0.000000;;

   TextureFilename  {
    "FormSide1.png";
   }
  }

  Material  {
   1.000000;1.000000;1.000000;1.000000;;
   0.000000;
   0.000000;0.000000;0.000000;;
   0.000000;0.000000;0.000000;;

   TextureFilename  {
    "FormSide1.png";
   }
  }

  Material  {
   1.000000;1.000000;1.000000;1.000000;;
   0.000000;
   0.000000;0.000000;0.000000;;
   0.000000;0.000000;0.000000;;

   TextureFilename  {
    "FormC1.png";
   }
  }

  Material  {
   1.000000;1.000000;1.000000;1.000000;;
   0.000000;
   0.000000;0.000000;0.000000;;
   0.000000;0.000000;0.000000;;

   TextureFilename  {
    "Saku1.png";
   }
  }

  Material  {
   0.250980;0.250980;0.250980;0.250980;;
   0.000000;
   0.000000;0.000000;0.000000;;
   0.000000;0.000000;0.000000;;
  }

  Material  {
   0.125490;0.125490;0.125490;0.250980;;
   0.000000;
   0.000000;0.000000;0.000000;;
   0.000000;0.000000;0.000000;;
  }

  Material  {
   1.000000;1.000000;1.000000;1.000000;;
   0.000000;
   0.000000;0.000000;0.000000;;
   0.000000;0.000000;0.000000;;

   TextureFilename  {
    "Light1.png";
   }
  }
 }

 MeshTextureCoords  {
  38;
  0.000000;1.000000;,
  0.000000;0.250000;,
  0.000000;0.020000;,
  4.125000;1.000000;,
  4.125000;0.250000;,
  4.125000;0.020000;,
  0.000000;1.000000;,
  0.000000;0.250000;,
  0.000000;0.020000;,
  4.125000;1.000000;,
  4.125000;0.250000;,
  4.125000;0.020000;,
  0.250000;1.000000;,
  0.250000;0.250000;,
  0.750000;0.250000;,
  0.750000;1.000000;,
  0.000000;0.000000;,
  1.000000;0.000000;,
  0.000000;1.000000;,
  1.000000;1.000000;,
  0.250000;1.000000;,
  0.250000;0.000000;,
  1.000000;0.000000;,
  1.000000;1.000000;,
  0.000000;0.000000;,
  0.000000;0.000000;,
  0.000000;0.000000;,
  0.000000;0.000000;,
  0.000000;0.000000;,
  0.000000;0.000000;,
  0.000000;0.000000;,
  0.000000;0.000000;,
  0.000000;0.000000;,
  0.000000;0.000000;,
  0.000000;1.000000;,
  0.000000;0.000000;,
  1.000000;1.000000;,
  1.000000;0.000000;;
 }

 MeshNormals  {
  24;
  -1.000000;0.000000;0.000000;,
  -1.000000;0.000000;0.000000;,
  0.000000;1.000000;0.000000;,
  0.000000;1.000000;0.000000;,
  0.998751;0.000000;-0.049974;,
  0.998751;0.000000;-0.049974;,
  0.000000;1.000000;0.000000;,
  0.000000;1.000000;0.000000;,
  0.000000;0.000000;-1.000000;,
  0.000000;0.000000;-1.000000;,
  0.000000;1.000000;0.000000;,
  0.000000;1.000000;0.000000;,
  0.000000;0.000000;-1.000000;,
  0.000000;0.000000;-1.000000;,
  0.000000;0.000000;-1.000000;,
  0.000000;0.000000;-1.000000;,
  0.000000;1.000000;0.000000;,
  0.000000;1.000000;0.000000;,
  -1.000000;0.000000;0.000000;,
  -1.000000;0.000000;0.000000;,
  1.000000;0.000000;0.000000;,
  1.000000;0.000000;0.000000;,
  -1.000000;0.000000;0.000000;,
  -1.000000;0.000000;0.000000;;
  24;
  3;0,0,0;,
  3;1,1,1;,
  3;2,2,2;,
  3;3,3,3;,
  3;4,4,4;,
  3;5,5,5;,
  3;6,6,6;,
  3;7,7,7;,
  3;8,8,8;,
  3;9,9,9;,
  3;10,10,10;,
  3;11,11,11;,
  3;12,12,12;,
  3;13,13,13;,
  3;14,14,14;,
  3;15,15,15;,
  3;16,16,16;,
  3;17,17,17;,
  3;18,18,18;,
  3;19,19,19;,
  3;20,20,20;,
  3;21,21,21;,
  3;22,22,22;,
  3;23,23,23;;
 }
}