xof 0303txt 0032
template Vector {
 <3d82ab5e-62da-11cf-ab39-0020af71e433>
 FLOAT x;
 FLOAT y;
 FLOAT z;
}

template MeshFace {
 <3d82ab5f-62da-11cf-ab39-0020af71e433>
 DWORD nFaceVertexIndices;
 array DWORD faceVertexIndices[nFaceVertexIndices];
}

template Mesh {
 <3d82ab44-62da-11cf-ab39-0020af71e433>
 DWORD nVertices;
 array Vector vertices[nVertices];
 DWORD nFaces;
 array MeshFace faces[nFaces];
 [...]
}

template ColorRGBA {
 <35ff44e0-6c7c-11cf-8f52-0040333594a3>
 FLOAT red;
 FLOAT green;
 FLOAT blue;
 FLOAT alpha;
}

template ColorRGB {
 <d3e16e81-7835-11cf-8f52-0040333594a3>
 FLOAT red;
 FLOAT green;
 FLOAT blue;
}

template Material {
 <3d82ab4d-62da-11cf-ab39-0020af71e433>
 ColorRGBA faceColor;
 FLOAT power;
 ColorRGB specularColor;
 ColorRGB emissiveColor;
 [...]
}

template MeshMaterialList {
 <f6f23f42-7686-11cf-8f52-0040333594a3>
 DWORD nMaterials;
 DWORD nFaceIndexes;
 array DWORD faceIndexes[nFaceIndexes];
 [Material <3d82ab4d-62da-11cf-ab39-0020af71e433>]
}

template TextureFilename {
 <a42790e1-7810-11cf-8f52-0040333594a3>
 STRING filename;
}

template Coords2d {
 <f6f23f44-7686-11cf-8f52-0040333594a3>
 FLOAT u;
 FLOAT v;
}

template MeshTextureCoords {
 <f6f23f40-7686-11cf-8f52-0040333594a3>
 DWORD nTextureCoords;
 array Coords2d textureCoords[nTextureCoords];
}

template MeshNormals {
 <f6f23f43-7686-11cf-8f52-0040333594a3>
 DWORD nNormals;
 array Vector normals[nNormals];
 DWORD nFaceNormals;
 array MeshFace faceNormals[nFaceNormals];
}


Mesh  {
 56;
 1.500000;-0.450000;0.000000;,
 1.500000;0.920000;0.000000;,
 2.700000;0.920000;0.000000;,
 1.500000;-0.450000;3.000000;,
 1.500000;0.920000;3.000000;,
 2.700000;0.920000;3.000000;,
 1.500000;-0.450000;3.000000;,
 1.500000;0.920000;3.000000;,
 2.700000;0.920000;3.000000;,
 1.500000;-0.450000;13.000000;,
 1.500000;1.100000;13.000000;,
 2.700000;1.100000;13.000000;,
 1.500000;-0.450000;13.000000;,
 1.500000;1.100000;13.000000;,
 2.700000;1.100000;13.000000;,
 1.500000;-0.450000;25.000000;,
 1.500000;1.100000;25.000000;,
 2.700000;1.100000;25.000000;,
 7.290700;-0.450000;0.000000;,
 7.290700;0.920000;0.000000;,
 6.090700;0.920000;0.000000;,
 7.440800;-0.450000;3.000000;,
 7.440800;0.920000;3.000000;,
 6.240800;0.920000;3.000000;,
 7.440800;-0.450000;3.000000;,
 7.440800;0.920000;3.000000;,
 6.240800;0.920000;3.000000;,
 7.941200;-0.450000;13.000000;,
 7.941200;1.100000;13.000000;,
 6.741200;1.100000;13.000000;,
 7.941200;-0.450000;13.000000;,
 7.941200;1.100000;13.000000;,
 6.741200;1.100000;13.000000;,
 8.541700;-0.450000;25.000000;,
 8.541700;1.100000;25.000000;,
 7.341700;1.100000;25.000000;,
 2.700000;0.920000;0.000000;,
 2.700000;0.920000;3.000000;,
 6.090700;0.920000;0.000000;,
 6.240800;0.920000;3.000000;,
 2.700000;0.920000;3.000000;,
 2.700000;1.100000;13.000000;,
 2.700000;1.100000;25.000000;,
 6.240800;0.920000;3.000000;,
 6.741200;1.100000;13.000000;,
 7.341700;1.100000;25.000000;,
 0.403600;0.010000;0.463400;,
 0.403600;0.010000;3.463400;,
 0.189100;0.010000;13.554000;,
 0.189100;0.010000;25.554001;,
 1.495000;0.010000;0.000000;,
 1.495000;0.010000;25.000000;,
 1.495000;0.920000;0.000000;,
 1.495000;0.920000;3.000000;,
 1.495000;1.100000;13.000000;,
 1.495000;1.100000;25.000000;;
 38;
 3;3,4,1;,
 3;3,1,0;,
 3;4,5,2;,
 3;4,2,1;,
 3;9,10,7;,
 3;9,7,6;,
 3;10,11,8;,
 3;10,8,7;,
 3;15,16,13;,
 3;15,13,12;,
 3;16,17,14;,
 3;16,14,13;,
 3;18,19,22;,
 3;18,22,21;,
 3;19,20,23;,
 3;19,23,22;,
 3;24,25,28;,
 3;24,28,27;,
 3;25,26,29;,
 3;25,29,28;,
 3;30,31,34;,
 3;30,34,33;,
 3;31,32,35;,
 3;31,35,34;,
 3;36,37,39;,
 3;36,39,38;,
 3;40,41,44;,
 3;40,44,43;,
 3;41,42,45;,
 3;41,45,44;,
 3;47,48,49;,
 3;47,49,51;,
 3;46,47,51;,
 3;46,51,50;,
 3;50,51,53;,
 3;50,53,52;,
 3;51,55,54;,
 3;51,54,53;;

 MeshMaterialList  {
  9;
  38;
  0,
  0,
  0,
  0,
  1,
  1,
  1,
  1,
  2,
  2,
  2,
  2,
  3,
  3,
  3,
  3,
  4,
  4,
  4,
  4,
  5,
  5,
  5,
  5,
  6,
  6,
  7,
  7,
  7,
  7,
  8,
  8,
  8,
  8,
  8,
  8,
  8,
  8;

  Material  {
   1.000000;1.000000;1.000000;1.000000;;
   0.000000;
   0.000000;0.000000;0.000000;;
   0.000000;0.000000;0.000000;;

   TextureFilename  {
    "FormSide1.png";
   }
  }

  Material  {
   1.000000;1.000000;1.000000;1.000000;;
   0.000000;
   0.000000;0.000000;0.000000;;
   0.000000;0.000000;0.000000;;

   TextureFilename  {
    "FormSide2.png";
   }
  }

  Material  {
   1.000000;1.000000;1.000000;1.000000;;
   0.000000;
   0.000000;0.000000;0.000000;;
   0.000000;0.000000;0.000000;;

   TextureFilename  {
    "FormSide3.png";
   }
  }

  Material  {
   1.000000;1.000000;1.000000;1.000000;;
   0.000000;
   0.000000;0.000000;0.000000;;
   0.000000;0.000000;0.000000;;

   TextureFilename  {
    "FormSide1.png";
   }
  }

  Material  {
   1.000000;1.000000;1.000000;1.000000;;
   0.000000;
   0.000000;0.000000;0.000000;;
   0.000000;0.000000;0.000000;;

   TextureFilename  {
    "FormSide2.png";
   }
  }

  Material  {
   1.000000;1.000000;1.000000;1.000000;;
   0.000000;
   0.000000;0.000000;0.000000;;
   0.000000;0.000000;0.000000;;

   TextureFilename  {
    "FormSide3.png";
   }
  }

  Material  {
   1.000000;1.000000;1.000000;1.000000;;
   0.000000;
   0.000000;0.000000;0.000000;;
   0.000000;0.000000;0.000000;;

   TextureFilename  {
    "FormC1.png";
   }
  }

  Material  {
   1.000000;1.000000;1.000000;1.000000;;
   0.000000;
   0.000000;0.000000;0.000000;;
   0.000000;0.000000;0.000000;;

   TextureFilename  {
    "FormC2.png";
   }
  }

  Material  {
   0.125490;0.125490;0.125490;0.250980;;
   0.000000;
   0.000000;0.000000;0.000000;;
   0.000000;0.000000;0.000000;;
  }
 }

 MeshTextureCoords  {
  56;
  0.000000;1.000000;,
  0.000000;0.250000;,
  0.000000;0.020000;,
  0.375000;1.000000;,
  0.375000;0.250000;,
  0.375000;0.020000;,
  0.000000;1.000000;,
  0.000000;0.250000;,
  0.000000;0.020000;,
  1.250000;1.000000;,
  1.250000;0.250000;,
  1.250000;0.020000;,
  0.000000;1.000000;,
  0.000000;0.250000;,
  0.000000;0.020000;,
  1.500000;1.000000;,
  1.500000;0.250000;,
  1.500000;0.020000;,
  0.000000;1.000000;,
  0.000000;0.250000;,
  0.000000;0.020000;,
  0.375000;1.000000;,
  0.375000;0.250000;,
  0.375000;0.020000;,
  0.000000;1.000000;,
  0.000000;0.250000;,
  0.000000;0.020000;,
  1.250000;1.000000;,
  1.250000;0.250000;,
  1.250000;0.020000;,
  0.000000;1.000000;,
  0.000000;0.250000;,
  0.000000;0.020000;,
  1.500000;1.000000;,
  1.500000;0.250000;,
  1.500000;0.020000;,
  0.000000;0.000000;,
  0.120000;0.000000;,
  0.000000;1.000000;,
  0.120000;1.000000;,
  0.120000;0.000000;,
  0.520000;0.000000;,
  1.000000;0.000000;,
  0.120000;1.000000;,
  0.520000;1.000000;,
  1.000000;1.000000;,
  0.000000;0.000000;,
  0.000000;0.000000;,
  0.000000;0.000000;,
  0.000000;0.000000;,
  0.000000;0.000000;,
  0.000000;0.000000;,
  0.000000;0.000000;,
  0.000000;0.000000;,
  0.000000;0.000000;,
  0.000000;0.000000;;
 }

 MeshNormals  {
  38;
  -1.000000;0.000000;0.000000;,
  -1.000000;0.000000;0.000000;,
  0.000000;1.000000;0.000000;,
  0.000000;1.000000;0.000000;,
  -1.000000;0.000000;0.000000;,
  -1.000000;0.000000;0.000000;,
  0.000000;0.999838;-0.017997;,
  0.000000;0.999838;-0.017997;,
  -1.000000;0.000000;0.000000;,
  -1.000000;0.000000;0.000000;,
  0.000000;1.000000;0.000000;,
  0.000000;1.000000;0.000000;,
  0.998751;0.000000;-0.049971;,
  0.998751;0.000000;-0.049971;,
  0.000000;1.000000;0.000000;,
  0.000000;1.000000;0.000000;,
  0.998750;0.000000;-0.049977;,
  0.998750;0.000000;-0.049977;,
  0.000000;0.999838;-0.017997;,
  0.000000;0.999838;-0.017997;,
  0.998750;0.000000;-0.049979;,
  0.998750;0.000000;-0.049979;,
  0.000000;1.000000;0.000000;,
  0.000000;1.000000;0.000000;,
  0.000000;1.000000;0.000000;,
  0.000000;1.000000;0.000000;,
  0.000000;0.999838;-0.017997;,
  0.000000;0.999838;-0.017997;,
  0.000000;1.000000;0.000000;,
  0.000000;1.000000;0.000000;,
  0.000000;1.000000;0.000000;,
  0.000000;1.000000;0.000000;,
  0.000000;1.000000;0.000000;,
  0.000000;1.000000;0.000000;,
  -1.000000;0.000000;0.000000;,
  -1.000000;0.000000;0.000000;,
  -1.000000;0.000000;0.000000;,
  -1.000000;0.000000;0.000000;;
  38;
  3;0,0,0;,
  3;1,1,1;,
  3;2,2,2;,
  3;3,3,3;,
  3;4,4,4;,
  3;5,5,5;,
  3;6,6,6;,
  3;7,7,7;,
  3;8,8,8;,
  3;9,9,9;,
  3;10,10,10;,
  3;11,11,11;,
  3;12,12,12;,
  3;13,13,13;,
  3;14,14,14;,
  3;15,15,15;,
  3;16,16,16;,
  3;17,17,17;,
  3;18,18,18;,
  3;19,19,19;,
  3;20,20,20;,
  3;21,21,21;,
  3;22,22,22;,
  3;23,23,23;,
  3;24,24,24;,
  3;25,25,25;,
  3;26,26,26;,
  3;27,27,27;,
  3;28,28,28;,
  3;29,29,29;,
  3;30,30,30;,
  3;31,31,31;,
  3;32,32,32;,
  3;33,33,33;,
  3;34,34,34;,
  3;35,35,35;,
  3;36,36,36;,
  3;37,37,37;;
 }
}