xof 0303txt 0032
template Vector {
 <3d82ab5e-62da-11cf-ab39-0020af71e433>
 FLOAT x;
 FLOAT y;
 FLOAT z;
}

template MeshFace {
 <3d82ab5f-62da-11cf-ab39-0020af71e433>
 DWORD nFaceVertexIndices;
 array DWORD faceVertexIndices[nFaceVertexIndices];
}

template Mesh {
 <3d82ab44-62da-11cf-ab39-0020af71e433>
 DWORD nVertices;
 array Vector vertices[nVertices];
 DWORD nFaces;
 array MeshFace faces[nFaces];
 [...]
}

template ColorRGBA {
 <35ff44e0-6c7c-11cf-8f52-0040333594a3>
 FLOAT red;
 FLOAT green;
 FLOAT blue;
 FLOAT alpha;
}

template ColorRGB {
 <d3e16e81-7835-11cf-8f52-0040333594a3>
 FLOAT red;
 FLOAT green;
 FLOAT blue;
}

template Material {
 <3d82ab4d-62da-11cf-ab39-0020af71e433>
 ColorRGBA faceColor;
 FLOAT power;
 ColorRGB specularColor;
 ColorRGB emissiveColor;
 [...]
}

template MeshMaterialList {
 <f6f23f42-7686-11cf-8f52-0040333594a3>
 DWORD nMaterials;
 DWORD nFaceIndexes;
 array DWORD faceIndexes[nFaceIndexes];
 [Material <3d82ab4d-62da-11cf-ab39-0020af71e433>]
}

template TextureFilename {
 <a42790e1-7810-11cf-8f52-0040333594a3>
 STRING filename;
}

template Coords2d {
 <f6f23f44-7686-11cf-8f52-0040333594a3>
 FLOAT u;
 FLOAT v;
}

template MeshTextureCoords {
 <f6f23f40-7686-11cf-8f52-0040333594a3>
 DWORD nTextureCoords;
 array Coords2d textureCoords[nTextureCoords];
}

template MeshNormals {
 <f6f23f43-7686-11cf-8f52-0040333594a3>
 DWORD nNormals;
 array Vector normals[nNormals];
 DWORD nFaceNormals;
 array MeshFace faceNormals[nFaceNormals];
}


Mesh  {
 54;
 1.500000;-0.450000;-0.048700;,
 1.500000;1.100000;-0.048700;,
 2.700000;1.100000;-0.048700;,
 1.399200;-0.450000;4.970300;,
 1.399200;1.100000;4.970300;,
 2.599200;1.100000;4.970300;,
 1.348800;-0.450000;9.990000;,
 1.348800;1.100000;9.990000;,
 2.548800;1.100000;9.990000;,
 1.348800;-0.450000;15.010000;,
 1.348800;1.100000;15.010000;,
 2.548800;1.100000;15.010000;,
 1.399200;-0.450000;20.029699;,
 1.399200;1.100000;20.029699;,
 2.599200;1.100000;20.029699;,
 1.500000;-0.450000;25.048700;,
 1.500000;1.100000;25.048700;,
 2.700000;1.100000;25.048700;,
 8.535300;-0.450000;0.000000;,
 8.535300;1.100000;0.000000;,
 7.335300;1.100000;0.000000;,
 9.147500;-0.450000;25.000000;,
 9.147500;1.100000;25.000000;,
 7.947500;1.100000;25.000000;,
 2.700000;1.100000;-0.048700;,
 2.599200;1.100000;4.970300;,
 2.548800;1.100000;9.990000;,
 2.548800;1.100000;15.010000;,
 2.599200;1.100000;20.029699;,
 2.700000;1.100000;25.048700;,
 7.335300;1.100000;0.000000;,
 7.947500;1.100000;25.000000;,
 0.189100;0.010000;0.505300;,
 0.088300;0.010000;5.524300;,
 0.037900;0.010000;10.544000;,
 0.037900;0.010000;15.564000;,
 0.088300;0.010000;20.583700;,
 0.189100;0.010000;25.602699;,
 1.495000;0.010000;-0.048700;,
 1.394200;0.010000;4.970300;,
 1.343800;0.010000;9.990000;,
 1.343800;0.010000;15.010000;,
 1.394200;0.010000;20.029699;,
 1.495000;0.010000;25.048700;,
 1.495000;1.100000;-0.048700;,
 1.394200;1.100000;4.970300;,
 1.343800;1.100000;9.990000;,
 1.343800;1.100000;15.010000;,
 1.394200;1.100000;20.029699;,
 1.495000;1.100000;25.048700;,
 4.613400;1.100000;16.000000;,
 4.613400;5.600000;16.000000;,
 5.813400;1.100000;16.000000;,
 5.813400;5.600000;16.000000;;
 52;
 3;3,4,1;,
 3;3,1,0;,
 3;4,5,2;,
 3;4,2,1;,
 3;6,7,4;,
 3;6,4,3;,
 3;7,8,5;,
 3;7,5,4;,
 3;9,10,7;,
 3;9,7,6;,
 3;10,11,8;,
 3;10,8,7;,
 3;12,13,10;,
 3;12,10,9;,
 3;13,14,11;,
 3;13,11,10;,
 3;15,16,13;,
 3;15,13,12;,
 3;16,17,14;,
 3;16,14,13;,
 3;18,19,22;,
 3;18,22,21;,
 3;19,20,23;,
 3;19,23,22;,
 3;24,25,26;,
 3;24,26,27;,
 3;24,27,28;,
 3;24,28,29;,
 3;24,29,31;,
 3;24,31,30;,
 3;32,33,39;,
 3;32,39,38;,
 3;33,34,40;,
 3;33,40,39;,
 3;34,35,41;,
 3;34,41,40;,
 3;35,36,42;,
 3;35,42,41;,
 3;36,37,43;,
 3;36,43,42;,
 3;38,39,45;,
 3;38,45,44;,
 3;39,40,46;,
 3;39,46,45;,
 3;40,41,47;,
 3;40,47,46;,
 3;41,42,48;,
 3;41,48,47;,
 3;42,43,49;,
 3;42,49,48;,
 3;50,51,53;,
 3;50,53,52;;

 MeshMaterialList  {
  5;
  52;
  0,
  0,
  0,
  0,
  0,
  0,
  0,
  0,
  0,
  0,
  0,
  0,
  0,
  0,
  0,
  0,
  0,
  0,
  0,
  0,
  1,
  1,
  1,
  1,
  2,
  2,
  2,
  2,
  2,
  2,
  3,
  3,
  3,
  3,
  3,
  3,
  3,
  3,
  3,
  3,
  3,
  3,
  3,
  3,
  3,
  3,
  3,
  3,
  3,
  3,
  4,
  4;

  Material  {
   1.000000;1.000000;1.000000;1.000000;;
   0.000000;
   0.000000;0.000000;0.000000;;
   0.000000;0.000000;0.000000;;

   TextureFilename  {
    "FormSide3.png";
   }
  }

  Material  {
   1.000000;1.000000;1.000000;1.000000;;
   0.000000;
   0.000000;0.000000;0.000000;;
   0.000000;0.000000;0.000000;;

   TextureFilename  {
    "FormSide3.png";
   }
  }

  Material  {
   1.000000;1.000000;1.000000;1.000000;;
   0.000000;
   0.000000;0.000000;0.000000;;
   0.000000;0.000000;0.000000;;

   TextureFilename  {
    "FormC2.png";
   }
  }

  Material  {
   0.125490;0.125490;0.125490;0.250980;;
   0.000000;
   0.000000;0.000000;0.000000;;
   0.000000;0.000000;0.000000;;
  }

  Material  {
   1.000000;1.000000;1.000000;1.000000;;
   0.000000;
   0.000000;0.000000;0.000000;;
   0.000000;0.000000;0.000000;;

   TextureFilename  {
    "Light1.png";
   }
  }
 }

 MeshTextureCoords  {
  54;
  0.000000;1.000000;,
  0.000000;0.250000;,
  0.000000;0.020000;,
  0.625000;1.000000;,
  0.625000;0.250000;,
  0.625000;0.020000;,
  1.250000;1.000000;,
  1.250000;0.250000;,
  1.250000;0.020000;,
  1.875000;1.000000;,
  1.875000;0.250000;,
  1.875000;0.020000;,
  2.500000;1.000000;,
  2.500000;0.250000;,
  2.500000;0.020000;,
  3.125000;1.000000;,
  3.125000;0.250000;,
  3.125000;0.020000;,
  0.000000;1.000000;,
  0.000000;0.250000;,
  0.000000;0.020000;,
  3.125000;1.000000;,
  3.125000;0.250000;,
  3.125000;0.020000;,
  0.000000;0.000000;,
  0.200000;0.000000;,
  0.400000;0.000000;,
  0.600000;0.000000;,
  0.800000;0.000000;,
  1.000000;0.000000;,
  0.000000;1.000000;,
  1.000000;1.000000;,
  0.000000;0.000000;,
  0.000000;0.000000;,
  0.000000;0.000000;,
  0.000000;0.000000;,
  0.000000;0.000000;,
  0.000000;0.000000;,
  0.000000;0.000000;,
  0.000000;0.000000;,
  0.000000;0.000000;,
  0.000000;0.000000;,
  0.000000;0.000000;,
  0.000000;0.000000;,
  0.000000;0.000000;,
  0.000000;0.000000;,
  0.000000;0.000000;,
  0.000000;0.000000;,
  0.000000;0.000000;,
  0.000000;0.000000;,
  0.000000;1.000000;,
  0.000000;0.000000;,
  1.000000;1.000000;,
  1.000000;0.000000;;
 }

 MeshNormals  {
  52;
  -0.999798;0.000000;-0.020080;,
  -0.999798;0.000000;-0.020080;,
  0.000000;1.000000;0.000000;,
  0.000000;1.000000;0.000000;,
  -0.999950;0.000000;-0.010040;,
  -0.999950;0.000000;-0.010040;,
  0.000000;1.000000;0.000000;,
  0.000000;1.000000;0.000000;,
  -1.000000;0.000000;0.000000;,
  -1.000000;0.000000;0.000000;,
  0.000000;1.000000;0.000000;,
  0.000000;1.000000;0.000000;,
  -0.999950;0.000000;0.010040;,
  -0.999950;0.000000;0.010040;,
  0.000000;1.000000;0.000000;,
  0.000000;1.000000;0.000000;,
  -0.999798;0.000000;0.020080;,
  -0.999798;0.000000;0.020080;,
  0.000000;1.000000;0.000000;,
  0.000000;1.000000;0.000000;,
  0.999700;0.000000;-0.024481;,
  0.999700;0.000000;-0.024481;,
  0.000000;1.000000;0.000000;,
  0.000000;1.000000;0.000000;,
  0.000000;1.000000;0.000000;,
  0.000000;1.000000;0.000000;,
  0.000000;1.000000;0.000000;,
  0.000000;1.000000;0.000000;,
  0.000000;1.000000;0.000000;,
  0.000000;1.000000;0.000000;,
  0.000000;1.000000;0.000000;,
  0.000000;1.000000;0.000000;,
  0.000000;1.000000;0.000000;,
  0.000000;1.000000;0.000000;,
  0.000000;1.000000;0.000000;,
  0.000000;1.000000;0.000000;,
  0.000000;1.000000;0.000000;,
  0.000000;1.000000;0.000000;,
  0.000000;1.000000;0.000000;,
  0.000000;1.000000;0.000000;,
  -0.999798;0.000000;-0.020080;,
  -0.999798;0.000000;-0.020080;,
  -0.999950;0.000000;-0.010040;,
  -0.999950;0.000000;-0.010040;,
  -1.000000;0.000000;0.000000;,
  -1.000000;0.000000;0.000000;,
  -0.999950;0.000000;0.010040;,
  -0.999950;0.000000;0.010040;,
  -0.999798;0.000000;0.020080;,
  -0.999798;0.000000;0.020080;,
  0.000000;0.000000;-1.000000;,
  0.000000;0.000000;-1.000000;;
  52;
  3;0,0,0;,
  3;1,1,1;,
  3;2,2,2;,
  3;3,3,3;,
  3;4,4,4;,
  3;5,5,5;,
  3;6,6,6;,
  3;7,7,7;,
  3;8,8,8;,
  3;9,9,9;,
  3;10,10,10;,
  3;11,11,11;,
  3;12,12,12;,
  3;13,13,13;,
  3;14,14,14;,
  3;15,15,15;,
  3;16,16,16;,
  3;17,17,17;,
  3;18,18,18;,
  3;19,19,19;,
  3;20,20,20;,
  3;21,21,21;,
  3;22,22,22;,
  3;23,23,23;,
  3;24,24,24;,
  3;25,25,25;,
  3;26,26,26;,
  3;27,27,27;,
  3;28,28,28;,
  3;29,29,29;,
  3;30,30,30;,
  3;31,31,31;,
  3;32,32,32;,
  3;33,33,33;,
  3;34,34,34;,
  3;35,35,35;,
  3;36,36,36;,
  3;37,37,37;,
  3;38,38,38;,
  3;39,39,39;,
  3;40,40,40;,
  3;41,41,41;,
  3;42,42,42;,
  3;43,43,43;,
  3;44,44,44;,
  3;45,45,45;,
  3;46,46,46;,
  3;47,47,47;,
  3;48,48,48;,
  3;49,49,49;,
  3;50,50,50;,
  3;51,51,51;;
 }
}