xof 0303txt 0032
template Vector {
 <3d82ab5e-62da-11cf-ab39-0020af71e433>
 FLOAT x;
 FLOAT y;
 FLOAT z;
}

template MeshFace {
 <3d82ab5f-62da-11cf-ab39-0020af71e433>
 DWORD nFaceVertexIndices;
 array DWORD faceVertexIndices[nFaceVertexIndices];
}

template Mesh {
 <3d82ab44-62da-11cf-ab39-0020af71e433>
 DWORD nVertices;
 array Vector vertices[nVertices];
 DWORD nFaces;
 array MeshFace faces[nFaces];
 [...]
}

template ColorRGBA {
 <35ff44e0-6c7c-11cf-8f52-0040333594a3>
 FLOAT red;
 FLOAT green;
 FLOAT blue;
 FLOAT alpha;
}

template ColorRGB {
 <d3e16e81-7835-11cf-8f52-0040333594a3>
 FLOAT red;
 FLOAT green;
 FLOAT blue;
}

template Material {
 <3d82ab4d-62da-11cf-ab39-0020af71e433>
 ColorRGBA faceColor;
 FLOAT power;
 ColorRGB specularColor;
 ColorRGB emissiveColor;
 [...]
}

template MeshMaterialList {
 <f6f23f42-7686-11cf-8f52-0040333594a3>
 DWORD nMaterials;
 DWORD nFaceIndexes;
 array DWORD faceIndexes[nFaceIndexes];
 [Material <3d82ab4d-62da-11cf-ab39-0020af71e433>]
}

template TextureFilename {
 <a42790e1-7810-11cf-8f52-0040333594a3>
 STRING filename;
}

template Coords2d {
 <f6f23f44-7686-11cf-8f52-0040333594a3>
 FLOAT u;
 FLOAT v;
}

template MeshTextureCoords {
 <f6f23f40-7686-11cf-8f52-0040333594a3>
 DWORD nTextureCoords;
 array Coords2d textureCoords[nTextureCoords];
}

template MeshNormals {
 <f6f23f43-7686-11cf-8f52-0040333594a3>
 DWORD nNormals;
 array Vector normals[nNormals];
 DWORD nFaceNormals;
 array MeshFace faceNormals[nFaceNormals];
}


Mesh  {
 42;
 1.500000;-0.450000;0.000000;,
 1.500000;1.100000;0.000000;,
 2.700000;1.100000;0.000000;,
 1.500000;-0.450000;23.000000;,
 1.500000;1.100000;23.000000;,
 2.700000;1.100000;23.000000;,
 1.500000;-0.450000;23.000000;,
 1.500000;1.100000;23.000000;,
 2.700000;1.100000;23.000000;,
 1.500000;-0.450000;26.500000;,
 1.500000;1.100000;26.500000;,
 2.700000;1.100000;26.500000;,
 9.145000;-0.450000;0.000000;,
 9.145000;1.100000;0.000000;,
 7.945000;1.100000;0.000000;,
 9.145000;-0.450000;23.000000;,
 9.145000;1.100000;23.000000;,
 7.945000;1.100000;23.000000;,
 9.145000;-0.450000;23.000000;,
 9.145000;1.100000;23.000000;,
 7.945000;1.100000;23.000000;,
 9.145000;-0.450000;26.500000;,
 9.145000;1.100000;26.500000;,
 7.945000;1.100000;26.500000;,
 2.700000;1.100000;0.000000;,
 2.700000;1.100000;26.500000;,
 7.945000;1.100000;0.000000;,
 7.945000;1.100000;26.500000;,
 0.189100;0.010000;0.554000;,
 0.189100;0.010000;27.054001;,
 1.495000;0.010000;0.000000;,
 1.495000;0.010000;26.500000;,
 1.495000;1.100000;0.000000;,
 1.495000;1.100000;26.500000;,
 2.100000;0.920000;26.299999;,
 2.100000;2.120000;26.299999;,
 9.145000;2.120000;26.299999;,
 9.145000;0.920000;26.299999;,
 2.100000;0.920000;26.299999;,
 2.100000;2.120000;26.299999;,
 9.145000;2.120000;26.299999;,
 9.145000;0.920000;26.299999;;
 26;
 3;3,4,1;,
 3;3,1,0;,
 3;4,5,2;,
 3;4,2,1;,
 3;9,10,7;,
 3;9,7,6;,
 3;10,11,8;,
 3;10,8,7;,
 3;12,13,16;,
 3;12,16,15;,
 3;13,14,17;,
 3;13,17,16;,
 3;18,19,22;,
 3;18,22,21;,
 3;19,20,23;,
 3;19,23,22;,
 3;24,25,27;,
 3;24,27,26;,
 3;28,29,31;,
 3;28,31,30;,
 3;30,31,33;,
 3;30,33,32;,
 3;34,35,36;,
 3;34,36,37;,
 3;38,39,40;,
 3;38,40,41;;

 MeshMaterialList  {
  8;
  26;
  0,
  0,
  0,
  0,
  1,
  1,
  1,
  1,
  2,
  2,
  2,
  2,
  3,
  3,
  3,
  3,
  4,
  4,
  5,
  5,
  5,
  5,
  6,
  6,
  7,
  7;

  Material  {
   1.000000;1.000000;1.000000;1.000000;;
   0.000000;
   0.000000;0.000000;0.000000;;
   0.000000;0.000000;0.000000;;

   TextureFilename  {
    "FormSide3.png";
   }
  }

  Material  {
   1.000000;1.000000;1.000000;1.000000;;
   0.000000;
   0.000000;0.000000;0.000000;;
   0.000000;0.000000;0.000000;;

   TextureFilename  {
    "FormSide2.png";
   }
  }

  Material  {
   1.000000;1.000000;1.000000;1.000000;;
   0.000000;
   0.000000;0.000000;0.000000;;
   0.000000;0.000000;0.000000;;

   TextureFilename  {
    "FormSide3.png";
   }
  }

  Material  {
   1.000000;1.000000;1.000000;1.000000;;
   0.000000;
   0.000000;0.000000;0.000000;;
   0.000000;0.000000;0.000000;;

   TextureFilename  {
    "FormSide2.png";
   }
  }

  Material  {
   1.000000;1.000000;1.000000;1.000000;;
   0.000000;
   0.000000;0.000000;0.000000;;
   0.000000;0.000000;0.000000;;

   TextureFilename  {
    "FormC2.png";
   }
  }

  Material  {
   0.125490;0.125490;0.125490;0.250980;;
   0.000000;
   0.000000;0.000000;0.000000;;
   0.000000;0.000000;0.000000;;
  }

  Material  {
   1.000000;1.000000;1.000000;1.000000;;
   0.000000;
   0.000000;0.000000;0.000000;;
   0.000000;0.000000;0.000000;;

   TextureFilename  {
    "Saku1.png";
   }
  }

  Material  {
   0.250980;0.250980;0.250980;0.250980;;
   0.000000;
   0.000000;0.000000;0.000000;;
   0.000000;0.000000;0.000000;;
  }
 }

 MeshTextureCoords  {
  42;
  0.000000;1.000000;,
  0.000000;0.250000;,
  0.000000;0.020000;,
  2.875000;1.000000;,
  2.875000;0.250000;,
  2.875000;0.020000;,
  0.000000;1.000000;,
  0.000000;0.250000;,
  0.000000;0.020000;,
  0.437500;1.000000;,
  0.437500;0.250000;,
  0.437500;0.020000;,
  0.000000;1.000000;,
  0.000000;0.250000;,
  0.000000;0.020000;,
  2.875000;1.000000;,
  2.875000;0.250000;,
  2.875000;0.020000;,
  0.000000;1.000000;,
  0.000000;0.250000;,
  0.000000;0.020000;,
  0.437500;1.000000;,
  0.437500;0.250000;,
  0.437500;0.020000;,
  0.000000;0.000000;,
  1.000000;0.000000;,
  0.000000;1.000000;,
  1.000000;1.000000;,
  0.000000;0.000000;,
  0.000000;0.000000;,
  0.000000;0.000000;,
  0.000000;0.000000;,
  0.000000;0.000000;,
  0.000000;0.000000;,
  0.000000;1.000000;,
  0.000000;0.000000;,
  1.000000;0.000000;,
  1.000000;1.000000;,
  0.000000;0.000000;,
  0.000000;0.000000;,
  0.000000;0.000000;,
  0.000000;0.000000;;
 }

 MeshNormals  {
  26;
  -1.000000;0.000000;0.000000;,
  -1.000000;0.000000;0.000000;,
  0.000000;1.000000;0.000000;,
  0.000000;1.000000;0.000000;,
  -1.000000;0.000000;0.000000;,
  -1.000000;0.000000;0.000000;,
  0.000000;1.000000;0.000000;,
  0.000000;1.000000;0.000000;,
  1.000000;0.000000;0.000000;,
  1.000000;0.000000;0.000000;,
  0.000000;1.000000;0.000000;,
  0.000000;1.000000;0.000000;,
  1.000000;0.000000;0.000000;,
  1.000000;0.000000;0.000000;,
  0.000000;1.000000;0.000000;,
  0.000000;1.000000;0.000000;,
  0.000000;1.000000;0.000000;,
  0.000000;1.000000;0.000000;,
  0.000000;1.000000;0.000000;,
  0.000000;1.000000;0.000000;,
  -1.000000;0.000000;0.000000;,
  -1.000000;0.000000;0.000000;,
  0.000000;0.000000;-1.000000;,
  0.000000;0.000000;-1.000000;,
  0.000000;0.000000;-1.000000;,
  0.000000;0.000000;-1.000000;;
  26;
  3;0,0,0;,
  3;1,1,1;,
  3;2,2,2;,
  3;3,3,3;,
  3;4,4,4;,
  3;5,5,5;,
  3;6,6,6;,
  3;7,7,7;,
  3;8,8,8;,
  3;9,9,9;,
  3;10,10,10;,
  3;11,11,11;,
  3;12,12,12;,
  3;13,13,13;,
  3;14,14,14;,
  3;15,15,15;,
  3;16,16,16;,
  3;17,17,17;,
  3;18,18,18;,
  3;19,19,19;,
  3;20,20,20;,
  3;21,21,21;,
  3;22,22,22;,
  3;23,23,23;,
  3;24,24,24;,
  3;25,25,25;;
 }
}