xof 0303txt 0032
template Vector {
 <3d82ab5e-62da-11cf-ab39-0020af71e433>
 FLOAT x;
 FLOAT y;
 FLOAT z;
}

template MeshFace {
 <3d82ab5f-62da-11cf-ab39-0020af71e433>
 DWORD nFaceVertexIndices;
 array DWORD faceVertexIndices[nFaceVertexIndices];
}

template Mesh {
 <3d82ab44-62da-11cf-ab39-0020af71e433>
 DWORD nVertices;
 array Vector vertices[nVertices];
 DWORD nFaces;
 array MeshFace faces[nFaces];
 [...]
}

template ColorRGBA {
 <35ff44e0-6c7c-11cf-8f52-0040333594a3>
 FLOAT red;
 FLOAT green;
 FLOAT blue;
 FLOAT alpha;
}

template ColorRGB {
 <d3e16e81-7835-11cf-8f52-0040333594a3>
 FLOAT red;
 FLOAT green;
 FLOAT blue;
}

template Material {
 <3d82ab4d-62da-11cf-ab39-0020af71e433>
 ColorRGBA faceColor;
 FLOAT power;
 ColorRGB specularColor;
 ColorRGB emissiveColor;
 [...]
}

template MeshMaterialList {
 <f6f23f42-7686-11cf-8f52-0040333594a3>
 DWORD nMaterials;
 DWORD nFaceIndexes;
 array DWORD faceIndexes[nFaceIndexes];
 [Material <3d82ab4d-62da-11cf-ab39-0020af71e433>]
}

template TextureFilename {
 <a42790e1-7810-11cf-8f52-0040333594a3>
 STRING filename;
}

template Coords2d {
 <f6f23f44-7686-11cf-8f52-0040333594a3>
 FLOAT u;
 FLOAT v;
}

template MeshTextureCoords {
 <f6f23f40-7686-11cf-8f52-0040333594a3>
 DWORD nTextureCoords;
 array Coords2d textureCoords[nTextureCoords];
}

template MeshNormals {
 <f6f23f43-7686-11cf-8f52-0040333594a3>
 DWORD nNormals;
 array Vector normals[nNormals];
 DWORD nFaceNormals;
 array MeshFace faceNormals[nFaceNormals];
}


Mesh  {
 178;
 -3.200000;6.000000;-10.000000;,
 -3.200000;9.500000;-10.000000;,
 7.200000;6.000000;-10.000000;,
 7.200000;9.500000;-10.000000;,
 10.800000;6.000000;-10.000000;,
 10.800000;9.500000;-10.000000;,
 30.000000;6.000000;-10.000000;,
 30.000000;9.500000;-10.000000;,
 -7.050000;9.400000;-10.100000;,
 -7.050000;9.700000;-10.100000;,
 -7.050000;10.200000;-8.500000;,
 30.000000;9.400000;-10.100000;,
 30.000000;9.700000;-10.100000;,
 30.000000;10.200000;-8.500000;,
 -7.050000;9.400000;-6.900000;,
 -7.050000;9.700000;-6.900000;,
 -7.050000;10.200000;-8.500000;,
 30.000000;9.400000;-6.900000;,
 30.000000;9.700000;-6.900000;,
 30.000000;10.200000;-8.500000;,
 -7.050000;9.400000;-10.100000;,
 -7.050000;9.700000;-10.100000;,
 -7.050000;9.900000;-8.500000;,
 -7.050000;10.200000;-8.500000;,
 -7.050000;9.400000;-6.900000;,
 -7.050000;9.700000;-6.900000;,
 -7.050000;6.000000;-5.800000;,
 -7.050000;6.000000;-10.000000;,
 25.799999;6.000000;-5.800000;,
 25.799999;6.000000;-10.000000;,
 -6.800000;1.100000;-10.000000;,
 -6.800000;6.000000;-10.000000;,
 -6.600000;6.000000;-10.000000;,
 -6.600000;1.100000;-10.000000;,
 -3.200000;1.100000;-10.000000;,
 -3.200000;6.000000;-10.000000;,
 -3.000000;6.000000;-10.000000;,
 -3.000000;1.100000;-10.000000;,
 -6.800000;1.100000;-7.000000;,
 -6.800000;6.000000;-7.000000;,
 -6.600000;6.000000;-7.000000;,
 -6.600000;1.100000;-7.000000;,
 -3.200000;1.100000;-7.000000;,
 -3.200000;6.000000;-7.000000;,
 -3.000000;6.000000;-7.000000;,
 -3.000000;1.100000;-7.000000;,
 -6.600000;3.450000;-10.000000;,
 -6.600000;3.650000;-10.000000;,
 -3.000000;3.450000;-10.000000;,
 -3.000000;3.650000;-10.000000;,
 -3.000000;3.450000;-7.000000;,
 -3.000000;3.650000;-7.000000;,
 -6.600000;3.450000;-7.000000;,
 -6.600000;3.650000;-7.000000;,
 -6.600000;1.100000;-10.000000;,
 -6.600000;1.300000;-10.000000;,
 -4.900000;3.250000;-10.000000;,
 -4.900000;3.450000;-10.000000;,
 -3.200000;1.100000;-10.000000;,
 -3.200000;1.300000;-10.000000;,
 -6.600000;3.650000;-10.000000;,
 -6.600000;3.850000;-10.000000;,
 -4.900000;5.800000;-10.000000;,
 -4.900000;6.000000;-10.000000;,
 -3.200000;3.650000;-10.000000;,
 -3.200000;3.850000;-10.000000;,
 -6.600000;1.100000;-7.000000;,
 -6.600000;1.300000;-7.000000;,
 -4.900000;3.250000;-7.000000;,
 -4.900000;3.450000;-7.000000;,
 -3.200000;1.100000;-7.000000;,
 -3.200000;1.300000;-7.000000;,
 -6.600000;3.650000;-7.000000;,
 -6.600000;3.850000;-7.000000;,
 -4.900000;5.800000;-7.000000;,
 -4.900000;6.000000;-7.000000;,
 -3.200000;3.650000;-7.000000;,
 -3.200000;3.850000;-7.000000;,
 -8.105000;3.520000;-6.990000;,
 -8.105000;3.580000;-6.990000;,
 -2.540000;3.520000;-6.990000;,
 -2.540000;3.580000;-6.990000;,
 7.200000;1.100000;-10.000000;,
 7.200000;6.000000;-10.000000;,
 7.400000;6.000000;-10.000000;,
 7.400000;1.100000;-10.000000;,
 10.800000;1.100000;-10.000000;,
 10.800000;6.000000;-10.000000;,
 11.000000;6.000000;-10.000000;,
 11.000000;1.100000;-10.000000;,
 7.200000;1.100000;-7.000000;,
 7.200000;6.000000;-7.000000;,
 7.400000;6.000000;-7.000000;,
 7.400000;1.100000;-7.000000;,
 10.800000;1.100000;-7.000000;,
 10.800000;6.000000;-7.000000;,
 11.000000;6.000000;-7.000000;,
 11.000000;1.100000;-7.000000;,
 10.800000;3.450000;-10.000000;,
 10.800000;3.650000;-10.000000;,
 7.200000;3.450000;-10.000000;,
 7.200000;3.650000;-10.000000;,
 7.200000;3.450000;-7.000000;,
 7.200000;3.650000;-7.000000;,
 10.800000;3.450000;-7.000000;,
 10.800000;3.650000;-7.000000;,
 7.400000;1.100000;-10.000000;,
 7.400000;1.300000;-10.000000;,
 9.100000;3.250000;-10.000000;,
 9.100000;3.450000;-10.000000;,
 10.800000;1.100000;-10.000000;,
 10.800000;1.300000;-10.000000;,
 7.400000;3.650000;-10.000000;,
 7.400000;3.850000;-10.000000;,
 9.100000;5.800000;-10.000000;,
 9.100000;6.000000;-10.000000;,
 10.800000;3.650000;-10.000000;,
 10.800000;3.850000;-10.000000;,
 7.400000;1.100000;-7.000000;,
 7.400000;1.300000;-7.000000;,
 9.100000;3.250000;-7.000000;,
 9.100000;3.450000;-7.000000;,
 10.800000;1.100000;-7.000000;,
 10.800000;1.300000;-7.000000;,
 7.400000;3.650000;-7.000000;,
 7.400000;3.850000;-7.000000;,
 9.100000;5.800000;-7.000000;,
 9.100000;6.000000;-7.000000;,
 10.800000;3.650000;-7.000000;,
 10.800000;3.850000;-7.000000;,
 30.000000;-0.500000;-10.000000;,
 30.000000;6.000000;-10.000000;,
 25.799999;-0.500000;-10.000000;,
 25.799999;6.000000;-10.000000;,
 25.799999;-0.500000;-7.000000;,
 25.799999;6.000000;-7.000000;,
 25.799999;-0.500000;-1.000000;,
 25.799999;2.470000;-1.000000;,
 25.790001;2.850000;-7.000000;,
 25.790001;3.050000;-7.000000;,
 25.790001;2.850000;-10.010000;,
 25.790001;3.050000;-10.010000;,
 30.000000;2.850000;-10.010000;,
 30.000000;3.050000;-10.010000;,
 25.799999;-0.100000;-10.010000;,
 25.799999;0.100000;-10.010000;,
 27.900000;2.650000;-10.010000;,
 27.900000;2.850000;-10.010000;,
 30.000000;-0.100000;-10.010000;,
 30.000000;0.100000;-10.010000;,
 25.799999;3.050000;-10.010000;,
 25.799999;3.250000;-10.010000;,
 27.900000;5.800000;-10.010000;,
 27.900000;6.000000;-10.010000;,
 30.000000;3.050000;-10.010000;,
 30.000000;3.250000;-10.010000;,
 26.700001;3.100000;-10.010000;,
 26.700001;3.900000;-10.010000;,
 29.100000;3.100000;-10.010000;,
 29.100000;3.900000;-10.010000;,
 25.790001;3.100000;-3.400000;,
 25.790001;3.900000;-3.400000;,
 25.790001;3.100000;-5.800000;,
 25.790001;3.900000;-5.800000;,
 30.000000;0.500000;2.350000;,
 25.799999;0.500000;2.350000;,
 25.799999;4.000000;2.350000;,
 30.000000;6.000000;-7.000000;,
 25.799999;6.000000;-7.000000;,
 25.799999;9.500000;-7.000000;,
 25.799999;-0.500000;2.350000;,
 25.799999;0.500000;2.350000;,
 30.000000;0.500000;2.350000;,
 30.000000;-0.500000;2.350000;,
 25.799999;-0.500000;16.900000;,
 25.799999;4.000000;16.900000;,
 25.799999;4.000000;2.320000;,
 25.799999;-0.500000;2.320000;;
 118;
 3;0,1,3;,
 3;0,3,2;,
 3;4,5,7;,
 3;4,7,6;,
 3;8,9,12;,
 3;8,12,11;,
 3;9,10,13;,
 3;9,13,12;,
 3;14,15,18;,
 3;14,18,17;,
 3;15,16,19;,
 3;15,19,18;,
 3;24,25,23;,
 3;24,23,22;,
 3;22,23,21;,
 3;22,21,20;,
 3;26,27,29;,
 3;26,29,28;,
 3;30,31,32;,
 3;30,32,33;,
 3;34,35,36;,
 3;34,36,37;,
 3;38,39,40;,
 3;38,40,41;,
 3;42,43,44;,
 3;42,44,45;,
 3;46,47,49;,
 3;46,49,48;,
 3;48,49,51;,
 3;48,51,50;,
 3;50,51,49;,
 3;50,49,48;,
 3;52,53,51;,
 3;52,51,50;,
 3;46,47,53;,
 3;46,53,52;,
 3;52,53,47;,
 3;52,47,46;,
 3;54,55,57;,
 3;54,57,56;,
 3;56,57,59;,
 3;56,59,58;,
 3;60,61,63;,
 3;60,63,62;,
 3;62,63,65;,
 3;62,65,64;,
 3;66,67,69;,
 3;66,69,68;,
 3;68,69,71;,
 3;68,71,70;,
 3;72,73,75;,
 3;72,75,74;,
 3;74,75,77;,
 3;74,77,76;,
 3;78,79,81;,
 3;78,81,80;,
 3;82,83,84;,
 3;82,84,85;,
 3;86,87,88;,
 3;86,88,89;,
 3;90,91,92;,
 3;90,92,93;,
 3;94,95,96;,
 3;94,96,97;,
 3;100,101,99;,
 3;100,99,98;,
 3;102,103,101;,
 3;102,101,100;,
 3;102,103,105;,
 3;102,105,104;,
 3;104,105,99;,
 3;104,99,98;,
 3;106,107,109;,
 3;106,109,108;,
 3;108,109,111;,
 3;108,111,110;,
 3;112,113,115;,
 3;112,115,114;,
 3;114,115,117;,
 3;114,117,116;,
 3;118,119,121;,
 3;118,121,120;,
 3;120,121,123;,
 3;120,123,122;,
 3;124,125,127;,
 3;124,127,126;,
 3;126,127,129;,
 3;126,129,128;,
 3;132,133,131;,
 3;132,131,130;,
 3;134,135,133;,
 3;134,133,132;,
 3;136,137,135;,
 3;136,135,134;,
 3;138,139,141;,
 3;138,141,140;,
 3;140,141,143;,
 3;140,143,142;,
 3;144,145,147;,
 3;144,147,146;,
 3;146,147,149;,
 3;146,149,148;,
 3;150,151,153;,
 3;150,153,152;,
 3;152,153,155;,
 3;152,155,154;,
 3;156,157,159;,
 3;156,159,158;,
 3;160,161,163;,
 3;160,163,162;,
 3;164,165,168;,
 3;164,168,167;,
 3;165,166,169;,
 3;165,169,168;,
 3;170,171,172;,
 3;170,172,173;,
 3;174,175,176;,
 3;174,176,177;;

 MeshMaterialList  {
  34;
  118;
  0,
  0,
  1,
  1,
  2,
  2,
  2,
  2,
  3,
  3,
  3,
  3,
  4,
  4,
  4,
  4,
  5,
  5,
  6,
  6,
  7,
  7,
  8,
  8,
  9,
  9,
  10,
  10,
  10,
  10,
  10,
  10,
  10,
  10,
  10,
  10,
  10,
  10,
  11,
  11,
  11,
  11,
  12,
  12,
  12,
  12,
  13,
  13,
  13,
  13,
  14,
  14,
  14,
  14,
  15,
  15,
  16,
  16,
  17,
  17,
  18,
  18,
  19,
  19,
  20,
  20,
  20,
  20,
  20,
  20,
  20,
  20,
  21,
  21,
  21,
  21,
  22,
  22,
  22,
  22,
  23,
  23,
  23,
  23,
  24,
  24,
  24,
  24,
  25,
  25,
  25,
  25,
  25,
  25,
  26,
  26,
  26,
  26,
  27,
  27,
  27,
  27,
  28,
  28,
  28,
  28,
  29,
  29,
  30,
  30,
  31,
  31,
  31,
  31,
  32,
  32,
  33,
  33;

  Material  {
   1.000000;1.000000;1.000000;1.000000;;
   0.000000;
   0.000000;0.000000;0.000000;;
   0.000000;0.000000;0.000000;;

   TextureFilename  {
    "KosenWall1.png";
   }
  }

  Material  {
   1.000000;1.000000;1.000000;1.000000;;
   0.000000;
   0.000000;0.000000;0.000000;;
   0.000000;0.000000;0.000000;;

   TextureFilename  {
    "KosenWall1.png";
   }
  }

  Material  {
   1.000000;1.000000;1.000000;1.000000;;
   0.000000;
   0.000000;0.000000;0.000000;;
   0.000000;0.000000;0.000000;;

   TextureFilename  {
    "KaidanRoof1.png";
   }
  }

  Material  {
   1.000000;1.000000;1.000000;1.000000;;
   0.000000;
   0.000000;0.000000;0.000000;;
   0.000000;0.000000;0.000000;;

   TextureFilename  {
    "KaidanRoof2.png";
   }
  }

  Material  {
   1.000000;1.000000;1.000000;1.000000;;
   0.000000;
   0.000000;0.000000;0.000000;;
   0.000000;0.000000;0.000000;;

   TextureFilename  {
    "KaidanRoofSide1.png";
   }
  }

  Material  {
   1.000000;1.000000;1.000000;1.000000;;
   0.000000;
   0.000000;0.000000;0.000000;;
   0.000000;0.000000;0.000000;;

   TextureFilename  {
    "KosenWall4.png";
   }
  }

  Material  {
   1.000000;1.000000;1.000000;1.000000;;
   0.000000;
   0.000000;0.000000;0.000000;;
   0.000000;0.000000;0.000000;;

   TextureFilename  {
    "Iron1.png";
   }
  }

  Material  {
   1.000000;1.000000;1.000000;1.000000;;
   0.000000;
   0.000000;0.000000;0.000000;;
   0.000000;0.000000;0.000000;;

   TextureFilename  {
    "Iron1.png";
   }
  }

  Material  {
   1.000000;1.000000;1.000000;1.000000;;
   0.000000;
   0.000000;0.000000;0.000000;;
   0.000000;0.000000;0.000000;;

   TextureFilename  {
    "Iron1.png";
   }
  }

  Material  {
   1.000000;1.000000;1.000000;1.000000;;
   0.000000;
   0.000000;0.000000;0.000000;;
   0.000000;0.000000;0.000000;;

   TextureFilename  {
    "Iron1.png";
   }
  }

  Material  {
   1.000000;1.000000;1.000000;1.000000;;
   0.000000;
   0.000000;0.000000;0.000000;;
   0.000000;0.000000;0.000000;;

   TextureFilename  {
    "Iron1.png";
   }
  }

  Material  {
   1.000000;1.000000;1.000000;1.000000;;
   0.000000;
   0.000000;0.000000;0.000000;;
   0.000000;0.000000;0.000000;;

   TextureFilename  {
    "Iron1.png";
   }
  }

  Material  {
   1.000000;1.000000;1.000000;1.000000;;
   0.000000;
   0.000000;0.000000;0.000000;;
   0.000000;0.000000;0.000000;;

   TextureFilename  {
    "Iron1.png";
   }
  }

  Material  {
   1.000000;1.000000;1.000000;1.000000;;
   0.000000;
   0.000000;0.000000;0.000000;;
   0.000000;0.000000;0.000000;;

   TextureFilename  {
    "Iron1.png";
   }
  }

  Material  {
   1.000000;1.000000;1.000000;1.000000;;
   0.000000;
   0.000000;0.000000;0.000000;;
   0.000000;0.000000;0.000000;;

   TextureFilename  {
    "Iron1.png";
   }
  }

  Material  {
   1.000000;1.000000;1.000000;1.000000;;
   0.000000;
   0.000000;0.000000;0.000000;;
   0.000000;0.000000;0.000000;;

   TextureFilename  {
    "Iron1.png";
   }
  }

  Material  {
   1.000000;1.000000;1.000000;1.000000;;
   0.000000;
   0.000000;0.000000;0.000000;;
   0.000000;0.000000;0.000000;;

   TextureFilename  {
    "Iron1.png";
   }
  }

  Material  {
   1.000000;1.000000;1.000000;1.000000;;
   0.000000;
   0.000000;0.000000;0.000000;;
   0.000000;0.000000;0.000000;;

   TextureFilename  {
    "Iron1.png";
   }
  }

  Material  {
   1.000000;1.000000;1.000000;1.000000;;
   0.000000;
   0.000000;0.000000;0.000000;;
   0.000000;0.000000;0.000000;;

   TextureFilename  {
    "Iron1.png";
   }
  }

  Material  {
   1.000000;1.000000;1.000000;1.000000;;
   0.000000;
   0.000000;0.000000;0.000000;;
   0.000000;0.000000;0.000000;;

   TextureFilename  {
    "Iron1.png";
   }
  }

  Material  {
   1.000000;1.000000;1.000000;1.000000;;
   0.000000;
   0.000000;0.000000;0.000000;;
   0.000000;0.000000;0.000000;;

   TextureFilename  {
    "Iron1.png";
   }
  }

  Material  {
   1.000000;1.000000;1.000000;1.000000;;
   0.000000;
   0.000000;0.000000;0.000000;;
   0.000000;0.000000;0.000000;;

   TextureFilename  {
    "Iron1.png";
   }
  }

  Material  {
   1.000000;1.000000;1.000000;1.000000;;
   0.000000;
   0.000000;0.000000;0.000000;;
   0.000000;0.000000;0.000000;;

   TextureFilename  {
    "Iron1.png";
   }
  }

  Material  {
   1.000000;1.000000;1.000000;1.000000;;
   0.000000;
   0.000000;0.000000;0.000000;;
   0.000000;0.000000;0.000000;;

   TextureFilename  {
    "Iron1.png";
   }
  }

  Material  {
   1.000000;1.000000;1.000000;1.000000;;
   0.000000;
   0.000000;0.000000;0.000000;;
   0.000000;0.000000;0.000000;;

   TextureFilename  {
    "Iron1.png";
   }
  }

  Material  {
   1.000000;1.000000;1.000000;1.000000;;
   0.000000;
   0.000000;0.000000;0.000000;;
   0.000000;0.000000;0.000000;;

   TextureFilename  {
    "KosenWall2.png";
   }
  }

  Material  {
   1.000000;1.000000;1.000000;1.000000;;
   0.000000;
   0.000000;0.000000;0.000000;;
   0.000000;0.000000;0.000000;;

   TextureFilename  {
    "Iron1.png";
   }
  }

  Material  {
   1.000000;1.000000;1.000000;1.000000;;
   0.000000;
   0.000000;0.000000;0.000000;;
   0.000000;0.000000;0.000000;;

   TextureFilename  {
    "Iron1.png";
   }
  }

  Material  {
   1.000000;1.000000;1.000000;1.000000;;
   0.000000;
   0.000000;0.000000;0.000000;;
   0.000000;0.000000;0.000000;;

   TextureFilename  {
    "Iron1.png";
   }
  }

  Material  {
   1.000000;1.000000;1.000000;1.000000;;
   0.000000;
   0.000000;0.000000;0.000000;;
   0.000000;0.000000;0.000000;;

   TextureFilename  {
    "Window1.png";
   }
  }

  Material  {
   1.000000;1.000000;1.000000;1.000000;;
   0.000000;
   0.000000;0.000000;0.000000;;
   0.000000;0.000000;0.000000;;

   TextureFilename  {
    "Window1.png";
   }
  }

  Material  {
   1.000000;1.000000;1.000000;1.000000;;
   0.000000;
   0.000000;0.000000;0.000000;;
   0.000000;0.000000;0.000000;;

   TextureFilename  {
    "KaidanWall1.png";
   }
  }

  Material  {
   0.062745;0.062745;0.062745;1.000000;;
   0.000000;
   0.000000;0.000000;0.000000;;
   0.000000;0.000000;0.000000;;
  }

  Material  {
   1.000000;1.000000;1.000000;1.000000;;
   0.000000;
   0.000000;0.000000;0.000000;;
   0.000000;0.000000;0.000000;;

   TextureFilename  {
    "Ekisya.png";
   }
  }
 }

 MeshTextureCoords  {
  178;
  0.000000;1.000000;,
  0.000000;0.000000;,
  2.000000;1.000000;,
  2.000000;0.000000;,
  0.000000;1.000000;,
  0.000000;0.000000;,
  4.500000;1.000000;,
  4.500000;0.000000;,
  0.000000;0.200000;,
  0.000000;0.100000;,
  0.000000;0.000000;,
  9.500000;0.200000;,
  9.500000;0.100000;,
  9.500000;0.000000;,
  0.000000;0.200000;,
  0.000000;0.100000;,
  0.000000;0.000000;,
  9.500000;0.200000;,
  9.500000;0.100000;,
  9.500000;0.000000;,
  0.000000;1.000000;,
  0.000000;0.000000;,
  0.100000;1.000000;,
  0.100000;0.000000;,
  0.200000;1.000000;,
  0.200000;0.000000;,
  0.000000;1.000000;,
  0.000000;0.000000;,
  5.000000;1.000000;,
  5.000000;0.000000;,
  0.000000;1.000000;,
  0.000000;0.000000;,
  1.000000;0.000000;,
  1.000000;1.000000;,
  0.000000;1.000000;,
  0.000000;0.250000;,
  1.000000;0.250000;,
  1.000000;1.000000;,
  0.000000;1.000000;,
  0.000000;0.000000;,
  1.000000;0.000000;,
  1.000000;1.000000;,
  0.000000;1.000000;,
  0.000000;0.250000;,
  1.000000;0.250000;,
  1.000000;1.000000;,
  1.000000;0.500000;,
  0.000000;0.500000;,
  1.000000;1.000000;,
  0.000000;1.000000;,
  1.000000;0.500000;,
  0.000000;0.500000;,
  1.000000;0.250000;,
  0.000000;0.250000;,
  1.000000;0.500000;,
  0.000000;0.500000;,
  1.000000;0.750000;,
  0.000000;0.750000;,
  1.000000;1.000000;,
  0.000000;1.000000;,
  1.000000;0.250000;,
  0.000000;0.250000;,
  1.000000;0.500000;,
  0.000000;0.500000;,
  1.000000;0.750000;,
  0.000000;0.750000;,
  1.000000;0.250000;,
  0.000000;0.250000;,
  1.000000;0.500000;,
  0.000000;0.500000;,
  1.000000;0.750000;,
  0.000000;0.750000;,
  1.000000;0.000000;,
  0.000000;0.000000;,
  1.000000;0.250000;,
  0.000000;0.250000;,
  1.000000;0.500000;,
  0.000000;0.500000;,
  0.000000;0.400000;,
  0.000000;1.000000;,
  0.200000;0.400000;,
  0.200000;1.000000;,
  0.000000;1.000000;,
  0.000000;0.000000;,
  1.000000;0.000000;,
  1.000000;1.000000;,
  0.000000;1.000000;,
  0.000000;0.250000;,
  1.000000;0.250000;,
  1.000000;1.000000;,
  0.000000;1.000000;,
  0.000000;0.000000;,
  1.000000;0.000000;,
  1.000000;1.000000;,
  0.000000;1.000000;,
  0.000000;0.250000;,
  1.000000;0.250000;,
  1.000000;1.000000;,
  1.000000;0.500000;,
  0.000000;0.500000;,
  1.000000;0.250000;,
  0.000000;0.250000;,
  1.000000;0.500000;,
  0.000000;0.500000;,
  1.000000;0.750000;,
  0.000000;0.750000;,
  1.000000;0.250000;,
  0.000000;0.250000;,
  1.000000;0.500000;,
  0.000000;0.500000;,
  1.000000;0.750000;,
  0.000000;0.750000;,
  1.000000;0.000000;,
  0.000000;0.000000;,
  1.000000;0.250000;,
  0.000000;0.250000;,
  1.000000;0.500000;,
  0.000000;0.500000;,
  1.000000;0.500000;,
  0.000000;0.500000;,
  1.000000;0.750000;,
  0.000000;0.750000;,
  1.000000;1.000000;,
  0.000000;1.000000;,
  1.000000;0.250000;,
  0.000000;0.250000;,
  1.000000;0.500000;,
  0.000000;0.500000;,
  1.000000;0.750000;,
  0.000000;0.750000;,
  0.000000;1.000000;,
  0.000000;0.000000;,
  1.000000;1.000000;,
  1.000000;0.000000;,
  2.000000;1.000000;,
  2.000000;0.000000;,
  3.600000;1.000000;,
  3.600000;0.640000;,
  1.000000;0.000000;,
  0.000000;0.000000;,
  1.000000;0.500000;,
  0.000000;0.500000;,
  1.000000;1.000000;,
  0.000000;1.000000;,
  1.000000;0.500000;,
  0.000000;0.500000;,
  1.000000;0.750000;,
  0.000000;0.750000;,
  1.000000;1.000000;,
  0.000000;1.000000;,
  1.000000;0.500000;,
  0.000000;0.500000;,
  1.000000;0.750000;,
  0.000000;0.750000;,
  1.000000;1.000000;,
  0.000000;1.000000;,
  0.000000;1.000000;,
  0.000000;0.000000;,
  1.000000;1.000000;,
  1.000000;0.000000;,
  0.000000;1.000000;,
  0.000000;0.000000;,
  1.000000;1.000000;,
  1.000000;0.000000;,
  0.500000;1.000000;,
  0.500000;0.800000;,
  0.500000;0.000000;,
  5.000000;1.000000;,
  5.000000;0.800000;,
  5.000000;0.000000;,
  0.000000;0.000000;,
  0.000000;0.000000;,
  0.000000;0.000000;,
  0.000000;0.000000;,
  0.000000;1.000000;,
  0.000000;0.000000;,
  1.000000;0.000000;,
  1.000000;1.000000;;
 }

 MeshNormals  {
  118;
  0.000000;0.000000;-1.000000;,
  0.000000;0.000000;-1.000000;,
  0.000000;0.000000;-1.000000;,
  0.000000;0.000000;-1.000000;,
  0.000000;0.000000;-1.000000;,
  0.000000;0.000000;-1.000000;,
  0.000000;0.954480;-0.298275;,
  0.000000;0.954480;-0.298275;,
  0.000000;0.000000;-1.000000;,
  0.000000;0.000000;-1.000000;,
  0.000000;-0.954480;-0.298275;,
  0.000000;-0.954480;-0.298275;,
  -1.000000;0.000000;0.000000;,
  -1.000000;0.000000;0.000000;,
  -1.000000;0.000000;0.000000;,
  -1.000000;0.000000;0.000000;,
  0.000000;-1.000000;0.000000;,
  0.000000;-1.000000;0.000000;,
  0.000000;0.000000;-1.000000;,
  0.000000;0.000000;-1.000000;,
  0.000000;0.000000;-1.000000;,
  0.000000;0.000000;-1.000000;,
  0.000000;0.000000;-1.000000;,
  0.000000;0.000000;-1.000000;,
  0.000000;0.000000;-1.000000;,
  0.000000;0.000000;-1.000000;,
  0.000000;0.000000;-1.000000;,
  0.000000;0.000000;-1.000000;,
  1.000000;0.000000;0.000000;,
  1.000000;0.000000;0.000000;,
  -1.000000;0.000000;0.000000;,
  -1.000000;0.000000;0.000000;,
  0.000000;0.000000;-1.000000;,
  0.000000;0.000000;-1.000000;,
  1.000000;0.000000;0.000000;,
  1.000000;0.000000;0.000000;,
  -1.000000;0.000000;0.000000;,
  -1.000000;0.000000;0.000000;,
  0.000000;0.000000;-1.000000;,
  0.000000;0.000000;-1.000000;,
  0.000000;0.000000;-1.000000;,
  0.000000;0.000000;-1.000000;,
  0.000000;0.000000;-1.000000;,
  0.000000;0.000000;-1.000000;,
  0.000000;0.000000;-1.000000;,
  0.000000;0.000000;-1.000000;,
  0.000000;0.000000;-1.000000;,
  0.000000;0.000000;-1.000000;,
  0.000000;0.000000;-1.000000;,
  0.000000;0.000000;-1.000000;,
  0.000000;0.000000;-1.000000;,
  0.000000;0.000000;-1.000000;,
  0.000000;0.000000;-1.000000;,
  0.000000;0.000000;-1.000000;,
  0.000000;0.000000;-1.000000;,
  0.000000;0.000000;-1.000000;,
  0.000000;0.000000;-1.000000;,
  0.000000;0.000000;-1.000000;,
  0.000000;0.000000;-1.000000;,
  0.000000;0.000000;-1.000000;,
  0.000000;0.000000;-1.000000;,
  0.000000;0.000000;-1.000000;,
  0.000000;0.000000;-1.000000;,
  0.000000;0.000000;-1.000000;,
  0.000000;0.000000;-1.000000;,
  0.000000;0.000000;-1.000000;,
  -1.000000;0.000000;0.000000;,
  -1.000000;0.000000;0.000000;,
  0.000000;0.000000;-1.000000;,
  0.000000;0.000000;-1.000000;,
  -1.000000;0.000000;0.000000;,
  -1.000000;0.000000;0.000000;,
  0.000000;0.000000;-1.000000;,
  0.000000;0.000000;-1.000000;,
  0.000000;0.000000;-1.000000;,
  0.000000;0.000000;-1.000000;,
  0.000000;0.000000;-1.000000;,
  0.000000;0.000000;-1.000000;,
  0.000000;0.000000;-1.000000;,
  0.000000;0.000000;-1.000000;,
  0.000000;0.000000;-1.000000;,
  0.000000;0.000000;-1.000000;,
  0.000000;0.000000;-1.000000;,
  0.000000;0.000000;-1.000000;,
  0.000000;0.000000;-1.000000;,
  0.000000;0.000000;-1.000000;,
  0.000000;0.000000;-1.000000;,
  0.000000;0.000000;-1.000000;,
  0.000000;0.000000;-1.000000;,
  0.000000;0.000000;-1.000000;,
  -1.000000;0.000000;0.000000;,
  -1.000000;0.000000;0.000000;,
  -1.000000;0.000000;0.000000;,
  -1.000000;0.000000;0.000000;,
  -1.000000;0.000000;0.000000;,
  -1.000000;0.000000;0.000000;,
  0.000000;0.000000;-1.000000;,
  0.000000;0.000000;-1.000000;,
  0.000000;0.000000;-1.000000;,
  0.000000;0.000000;-1.000000;,
  0.000000;0.000000;-1.000000;,
  0.000000;0.000000;-1.000000;,
  0.000000;0.000000;-1.000000;,
  0.000000;0.000000;-1.000000;,
  0.000000;0.000000;-1.000000;,
  0.000000;0.000000;-1.000000;,
  0.000000;0.000000;-1.000000;,
  0.000000;0.000000;-1.000000;,
  -1.000000;0.000000;0.000000;,
  -1.000000;0.000000;0.000000;,
  0.000000;-0.861934;-0.507020;,
  0.000000;-0.861934;-0.507020;,
  -1.000000;0.000000;0.000000;,
  -1.000000;0.000000;0.000000;,
  0.000000;0.000000;-1.000000;,
  0.000000;0.000000;-1.000000;,
  -1.000000;0.000000;0.000000;,
  -1.000000;0.000000;0.000000;;
  118;
  3;0,0,0;,
  3;1,1,1;,
  3;2,2,2;,
  3;3,3,3;,
  3;4,4,4;,
  3;5,5,5;,
  3;6,6,6;,
  3;7,7,7;,
  3;8,8,8;,
  3;9,9,9;,
  3;10,10,10;,
  3;11,11,11;,
  3;12,12,12;,
  3;13,13,13;,
  3;14,14,14;,
  3;15,15,15;,
  3;16,16,16;,
  3;17,17,17;,
  3;18,18,18;,
  3;19,19,19;,
  3;20,20,20;,
  3;21,21,21;,
  3;22,22,22;,
  3;23,23,23;,
  3;24,24,24;,
  3;25,25,25;,
  3;26,26,26;,
  3;27,27,27;,
  3;28,28,28;,
  3;29,29,29;,
  3;30,30,30;,
  3;31,31,31;,
  3;32,32,32;,
  3;33,33,33;,
  3;34,34,34;,
  3;35,35,35;,
  3;36,36,36;,
  3;37,37,37;,
  3;38,38,38;,
  3;39,39,39;,
  3;40,40,40;,
  3;41,41,41;,
  3;42,42,42;,
  3;43,43,43;,
  3;44,44,44;,
  3;45,45,45;,
  3;46,46,46;,
  3;47,47,47;,
  3;48,48,48;,
  3;49,49,49;,
  3;50,50,50;,
  3;51,51,51;,
  3;52,52,52;,
  3;53,53,53;,
  3;54,54,54;,
  3;55,55,55;,
  3;56,56,56;,
  3;57,57,57;,
  3;58,58,58;,
  3;59,59,59;,
  3;60,60,60;,
  3;61,61,61;,
  3;62,62,62;,
  3;63,63,63;,
  3;64,64,64;,
  3;65,65,65;,
  3;66,66,66;,
  3;67,67,67;,
  3;68,68,68;,
  3;69,69,69;,
  3;70,70,70;,
  3;71,71,71;,
  3;72,72,72;,
  3;73,73,73;,
  3;74,74,74;,
  3;75,75,75;,
  3;76,76,76;,
  3;77,77,77;,
  3;78,78,78;,
  3;79,79,79;,
  3;80,80,80;,
  3;81,81,81;,
  3;82,82,82;,
  3;83,83,83;,
  3;84,84,84;,
  3;85,85,85;,
  3;86,86,86;,
  3;87,87,87;,
  3;88,88,88;,
  3;89,89,89;,
  3;90,90,90;,
  3;91,91,91;,
  3;92,92,92;,
  3;93,93,93;,
  3;94,94,94;,
  3;95,95,95;,
  3;96,96,96;,
  3;97,97,97;,
  3;98,98,98;,
  3;99,99,99;,
  3;100,100,100;,
  3;101,101,101;,
  3;102,102,102;,
  3;103,103,103;,
  3;104,104,104;,
  3;105,105,105;,
  3;106,106,106;,
  3;107,107,107;,
  3;108,108,108;,
  3;109,109,109;,
  3;110,110,110;,
  3;111,111,111;,
  3;112,112,112;,
  3;113,113,113;,
  3;114,114,114;,
  3;115,115,115;,
  3;116,116,116;,
  3;117,117,117;;
 }
}