xof 0303txt 0032
template Vector {
 <3d82ab5e-62da-11cf-ab39-0020af71e433>
 FLOAT x;
 FLOAT y;
 FLOAT z;
}

template MeshFace {
 <3d82ab5f-62da-11cf-ab39-0020af71e433>
 DWORD nFaceVertexIndices;
 array DWORD faceVertexIndices[nFaceVertexIndices];
}

template Mesh {
 <3d82ab44-62da-11cf-ab39-0020af71e433>
 DWORD nVertices;
 array Vector vertices[nVertices];
 DWORD nFaces;
 array MeshFace faces[nFaces];
 [...]
}

template ColorRGBA {
 <35ff44e0-6c7c-11cf-8f52-0040333594a3>
 FLOAT red;
 FLOAT green;
 FLOAT blue;
 FLOAT alpha;
}

template ColorRGB {
 <d3e16e81-7835-11cf-8f52-0040333594a3>
 FLOAT red;
 FLOAT green;
 FLOAT blue;
}

template Material {
 <3d82ab4d-62da-11cf-ab39-0020af71e433>
 ColorRGBA faceColor;
 FLOAT power;
 ColorRGB specularColor;
 ColorRGB emissiveColor;
 [...]
}

template MeshMaterialList {
 <f6f23f42-7686-11cf-8f52-0040333594a3>
 DWORD nMaterials;
 DWORD nFaceIndexes;
 array DWORD faceIndexes[nFaceIndexes];
 [Material <3d82ab4d-62da-11cf-ab39-0020af71e433>]
}

template TextureFilename {
 <a42790e1-7810-11cf-8f52-0040333594a3>
 STRING filename;
}

template Coords2d {
 <f6f23f44-7686-11cf-8f52-0040333594a3>
 FLOAT u;
 FLOAT v;
}

template MeshTextureCoords {
 <f6f23f40-7686-11cf-8f52-0040333594a3>
 DWORD nTextureCoords;
 array Coords2d textureCoords[nTextureCoords];
}

template MeshNormals {
 <f6f23f43-7686-11cf-8f52-0040333594a3>
 DWORD nNormals;
 array Vector normals[nNormals];
 DWORD nFaceNormals;
 array MeshFace faceNormals[nFaceNormals];
}


Mesh  {
 139;
 3.600000;1.100000;-15.000000;,
 3.600000;4.600000;-15.000000;,
 3.850000;1.100000;-15.000000;,
 3.850000;4.600000;-15.000000;,
 3.600000;1.100000;-5.000000;,
 3.600000;4.600000;-5.000000;,
 3.850000;1.100000;-5.000000;,
 3.850000;4.600000;-5.000000;,
 3.600000;1.100000;5.000000;,
 3.600000;4.600000;5.000000;,
 3.850000;1.100000;5.000000;,
 3.850000;4.600000;5.000000;,
 7.445000;1.100000;-15.000000;,
 7.445000;4.600000;-15.000000;,
 7.195000;1.100000;-15.000000;,
 7.195000;4.600000;-15.000000;,
 7.445000;1.100000;-5.000000;,
 7.445000;4.600000;-5.000000;,
 7.195000;1.100000;-5.000000;,
 7.195000;4.600000;-5.000000;,
 7.445000;1.100000;5.000000;,
 7.445000;4.600000;5.000000;,
 7.195000;1.100000;5.000000;,
 7.195000;4.600000;5.000000;,
 3.800000;4.200000;-16.000000;,
 3.800000;4.600000;-16.000000;,
 3.800000;4.200000;7.000000;,
 3.800000;4.600000;7.000000;,
 7.245000;4.200000;-16.000000;,
 7.245000;4.600000;-16.000000;,
 7.245000;4.200000;7.000000;,
 7.245000;4.600000;7.000000;,
 1.900000;4.300000;-16.000000;,
 1.900000;4.300000;7.000000;,
 5.522500;4.800000;-16.000000;,
 5.522500;4.800000;7.000000;,
 9.145000;4.300000;-16.000000;,
 9.145000;4.300000;7.000000;,
 1.900000;4.300000;7.000000;,
 1.900000;4.500000;7.000000;,
 1.900000;4.300000;-16.000000;,
 1.900000;4.500000;-16.000000;,
 5.522500;4.800000;-16.000000;,
 5.522500;5.000000;-16.000000;,
 9.145000;4.300000;-16.000000;,
 9.145000;4.500000;-16.000000;,
 9.145000;4.300000;7.000000;,
 9.145000;4.500000;7.000000;,
 6.745000;3.700000;-15.000000;,
 6.745000;4.050000;-15.000000;,
 7.095000;3.700000;-15.000000;,
 7.095000;4.050000;-15.000000;,
 3.950000;3.700000;-15.000000;,
 3.950000;4.050000;-15.000000;,
 4.300000;3.700000;-15.000000;,
 4.300000;4.050000;-15.000000;,
 4.500000;1.100000;-14.000000;,
 4.500000;3.300000;-14.000000;,
 5.500000;3.300000;-14.000000;,
 5.500000;1.100000;-14.000000;,
 4.500000;1.100000;-10.000000;,
 4.500000;3.300000;-10.000000;,
 5.500000;3.300000;-10.000000;,
 5.500000;1.100000;-10.000000;,
 4.500000;1.100000;-14.000000;,
 4.500000;3.300000;-14.000000;,
 4.500000;3.300000;-10.000000;,
 4.500000;1.100000;-10.000000;,
 4.600000;1.900000;-13.800000;,
 4.650000;1.500000;-13.800000;,
 5.050000;1.500000;-13.800000;,
 5.050000;1.450000;-13.800000;,
 4.600000;1.900000;-12.100000;,
 4.650000;1.500000;-12.100000;,
 5.050000;1.500000;-12.100000;,
 5.050000;1.450000;-12.100000;,
 4.550000;1.100000;-12.100000;,
 4.550000;1.900000;-12.100000;,
 5.070000;1.100000;-12.100000;,
 5.070000;1.900000;-12.100000;,
 4.600000;1.900000;-11.900000;,
 4.650000;1.500000;-11.900000;,
 5.050000;1.500000;-11.900000;,
 5.050000;1.450000;-11.900000;,
 4.600000;1.900000;-10.200000;,
 4.650000;1.500000;-10.200000;,
 5.050000;1.500000;-10.200000;,
 5.050000;1.450000;-10.200000;,
 4.550000;1.100000;-11.900000;,
 4.550000;1.900000;-11.900000;,
 5.070000;1.100000;-11.900000;,
 5.070000;1.900000;-11.900000;,
 4.550000;1.100000;-10.200000;,
 4.550000;1.900000;-10.200000;,
 5.070000;1.100000;-10.200000;,
 5.070000;1.900000;-10.200000;,
 5.522500;1.100000;-8.000000;,
 5.522500;4.800000;-8.000000;,
 5.522500;4.800000;-6.500000;,
 5.522500;1.100000;-6.500000;,
 5.700000;1.100000;-5.000000;,
 5.700000;2.200000;-5.000000;,
 5.250000;2.300000;-5.000000;,
 5.700000;1.100000;-4.500000;,
 5.700000;2.200000;-4.500000;,
 5.250000;2.300000;-4.500000;,
 5.250000;1.100000;-5.000000;,
 5.250000;2.300000;-5.000000;,
 5.250000;1.100000;-4.500000;,
 5.250000;2.300000;-4.500000;,
 4.622500;3.600000;-5.000000;,
 4.622500;5.000000;-5.000000;,
 6.022500;5.000000;-5.000000;,
 6.022500;3.600000;-5.000000;,
 3.822500;3.600000;1.000000;,
 3.822500;5.000000;1.000000;,
 6.822500;5.000000;1.000000;,
 6.822500;3.600000;1.000000;,
 1.495000;1.105000;-14.388300;,
 1.495000;1.105000;22.230700;,
 9.150000;1.105000;22.230700;,
 9.150000;0.010000;22.784700;,
 14.848500;0.010000;22.784700;,
 5.331400;1.105000;-14.388300;,
 5.331400;1.105000;7.000000;,
 7.445000;1.105000;7.000000;,
 1.605400;1.105000;17.467899;,
 9.150000;1.105000;17.467899;,
 9.150000;0.010000;18.021900;,
 14.817300;0.010000;18.021900;,
 14.848500;0.010000;19.463400;,
 -3.462900;0.010000;-13.834300;,
 -3.462900;0.010000;9.266500;,
 -1.837100;0.010000;9.266500;,
 -7.676700;0.010000;19.784700;,
 -8.510900;0.010000;21.637300;,
 -7.676700;0.010000;22.784700;,
 0.189100;0.010000;-13.834300;,
 0.189100;0.010000;22.784700;;
 95;
 3;0,1,3;,
 3;0,3,2;,
 3;4,5,7;,
 3;4,7,6;,
 3;8,9,11;,
 3;8,11,10;,
 3;14,15,13;,
 3;14,13,12;,
 3;18,19,17;,
 3;18,17,16;,
 3;22,23,21;,
 3;22,21,20;,
 3;24,25,27;,
 3;24,27,26;,
 3;26,27,25;,
 3;26,25,24;,
 3;28,29,31;,
 3;28,31,30;,
 3;30,31,29;,
 3;30,29,28;,
 3;34,35,33;,
 3;34,33,32;,
 3;36,37,35;,
 3;36,35,34;,
 3;38,39,41;,
 3;38,41,40;,
 3;40,41,43;,
 3;40,43,42;,
 3;42,43,45;,
 3;42,45,44;,
 3;44,45,47;,
 3;44,47,46;,
 3;48,49,51;,
 3;48,51,50;,
 3;52,53,55;,
 3;52,55,54;,
 3;56,57,58;,
 3;56,58,59;,
 3;60,61,62;,
 3;60,62,63;,
 3;64,65,66;,
 3;64,66,67;,
 3;67,66,65;,
 3;67,65,64;,
 3;72,73,69;,
 3;72,69,68;,
 3;73,74,70;,
 3;73,70,69;,
 3;74,75,71;,
 3;74,71,70;,
 3;76,77,79;,
 3;76,79,78;,
 3;84,85,81;,
 3;84,81,80;,
 3;85,86,82;,
 3;85,82,81;,
 3;86,87,83;,
 3;86,83,82;,
 3;88,89,91;,
 3;88,91,90;,
 3;92,93,95;,
 3;92,95,94;,
 3;96,97,98;,
 3;96,98,99;,
 3;99,98,97;,
 3;99,97,96;,
 3;100,101,104;,
 3;100,104,103;,
 3;101,102,105;,
 3;101,105,104;,
 3;106,107,101;,
 3;106,101,100;,
 3;108,109,107;,
 3;108,107,106;,
 3;110,111,112;,
 3;110,112,113;,
 3;114,115,116;,
 3;114,116,117;,
 3;118,126,124;,
 3;118,124,123;,
 3;126,125,124;,
 3;118,119,126;,
 3;119,120,127;,
 3;119,127,126;,
 3;120,121,128;,
 3;120,128,127;,
 3;121,122,129;,
 3;121,129,128;,
 3;129,122,130;,
 3;131,132,133;,
 3;131,133,137;,
 3;133,134,135;,
 3;133,135,136;,
 3;133,136,138;,
 3;137,133,138;;

 MeshMaterialList  {
  26;
  95;
  0,
  0,
  1,
  1,
  2,
  2,
  3,
  3,
  4,
  4,
  5,
  5,
  6,
  6,
  6,
  6,
  7,
  7,
  7,
  7,
  8,
  8,
  8,
  8,
  9,
  9,
  9,
  9,
  9,
  9,
  9,
  9,
  10,
  10,
  11,
  11,
  12,
  12,
  13,
  13,
  14,
  14,
  14,
  14,
  15,
  15,
  15,
  15,
  15,
  15,
  16,
  16,
  17,
  17,
  17,
  17,
  17,
  17,
  18,
  18,
  19,
  19,
  20,
  20,
  20,
  20,
  21,
  21,
  21,
  21,
  21,
  21,
  21,
  21,
  22,
  22,
  23,
  23,
  24,
  24,
  24,
  24,
  24,
  24,
  24,
  24,
  24,
  24,
  24,
  25,
  25,
  25,
  25,
  25,
  25;

  Material  {
   1.000000;1.000000;1.000000;1.000000;;
   0.000000;
   0.000000;0.000000;0.000000;;
   0.000000;0.000000;0.000000;;

   TextureFilename  {
    "Iron2.png";
   }
  }

  Material  {
   1.000000;1.000000;1.000000;1.000000;;
   0.000000;
   0.000000;0.000000;0.000000;;
   0.000000;0.000000;0.000000;;

   TextureFilename  {
    "Iron2.png";
   }
  }

  Material  {
   1.000000;1.000000;1.000000;1.000000;;
   0.000000;
   0.000000;0.000000;0.000000;;
   0.000000;0.000000;0.000000;;

   TextureFilename  {
    "Iron2.png";
   }
  }

  Material  {
   1.000000;1.000000;1.000000;1.000000;;
   0.000000;
   0.000000;0.000000;0.000000;;
   0.000000;0.000000;0.000000;;

   TextureFilename  {
    "Iron2.png";
   }
  }

  Material  {
   1.000000;1.000000;1.000000;1.000000;;
   0.000000;
   0.000000;0.000000;0.000000;;
   0.000000;0.000000;0.000000;;

   TextureFilename  {
    "Iron2.png";
   }
  }

  Material  {
   1.000000;1.000000;1.000000;1.000000;;
   0.000000;
   0.000000;0.000000;0.000000;;
   0.000000;0.000000;0.000000;;

   TextureFilename  {
    "Iron2.png";
   }
  }

  Material  {
   1.000000;1.000000;1.000000;1.000000;;
   0.000000;
   0.000000;0.000000;0.000000;;
   0.000000;0.000000;0.000000;;

   TextureFilename  {
    "Iron2.png";
   }
  }

  Material  {
   1.000000;1.000000;1.000000;1.000000;;
   0.000000;
   0.000000;0.000000;0.000000;;
   0.000000;0.000000;0.000000;;

   TextureFilename  {
    "Iron2.png";
   }
  }

  Material  {
   1.000000;1.000000;1.000000;1.000000;;
   0.000000;
   0.000000;0.000000;0.000000;;
   0.000000;0.000000;0.000000;;

   TextureFilename  {
    "Roof3.png";
   }
  }

  Material  {
   1.000000;1.000000;1.000000;1.000000;;
   0.000000;
   0.000000;0.000000;0.000000;;
   0.000000;0.000000;0.000000;;

   TextureFilename  {
    "Roof4.png";
   }
  }

  Material  {
   1.000000;1.000000;1.000000;1.000000;;
   0.000000;
   0.000000;0.000000;0.000000;;
   0.000000;0.000000;0.000000;;

   TextureFilename  {
    "NO3.png";
   }
  }

  Material  {
   1.000000;1.000000;1.000000;1.000000;;
   0.000000;
   0.000000;0.000000;0.000000;;
   0.000000;0.000000;0.000000;;

   TextureFilename  {
    "NO4.png";
   }
  }

  Material  {
   1.000000;1.000000;1.000000;1.000000;;
   0.000000;
   0.000000;0.000000;0.000000;;
   0.000000;0.000000;0.000000;;

   TextureFilename  {
    "BenchPlate1.png";
   }
  }

  Material  {
   1.000000;1.000000;1.000000;1.000000;;
   0.000000;
   0.000000;0.000000;0.000000;;
   0.000000;0.000000;0.000000;;

   TextureFilename  {
    "BenchPlate1.png";
   }
  }

  Material  {
   1.000000;1.000000;1.000000;1.000000;;
   0.000000;
   0.000000;0.000000;0.000000;;
   0.000000;0.000000;0.000000;;

   TextureFilename  {
    "BenchPlate2.png";
   }
  }

  Material  {
   1.000000;1.000000;1.000000;1.000000;;
   0.000000;
   0.000000;0.000000;0.000000;;
   0.000000;0.000000;0.000000;;

   TextureFilename  {
    "Bench1.png";
   }
  }

  Material  {
   1.000000;1.000000;1.000000;1.000000;;
   0.000000;
   0.000000;0.000000;0.000000;;
   0.000000;0.000000;0.000000;;

   TextureFilename  {
    "Bench2.png";
   }
  }

  Material  {
   1.000000;1.000000;1.000000;1.000000;;
   0.000000;
   0.000000;0.000000;0.000000;;
   0.000000;0.000000;0.000000;;

   TextureFilename  {
    "Bench1.png";
   }
  }

  Material  {
   1.000000;1.000000;1.000000;1.000000;;
   0.000000;
   0.000000;0.000000;0.000000;;
   0.000000;0.000000;0.000000;;

   TextureFilename  {
    "Bench2.png";
   }
  }

  Material  {
   1.000000;1.000000;1.000000;1.000000;;
   0.000000;
   0.000000;0.000000;0.000000;;
   0.000000;0.000000;0.000000;;

   TextureFilename  {
    "Bench2.png";
   }
  }

  Material  {
   1.000000;1.000000;1.000000;1.000000;;
   0.000000;
   0.000000;0.000000;0.000000;;
   0.000000;0.000000;0.000000;;

   TextureFilename  {
    "Ekimei2.png";
   }
  }

  Material  {
   1.000000;1.000000;1.000000;1.000000;;
   0.000000;
   0.000000;0.000000;0.000000;;
   0.000000;0.000000;0.000000;;

   TextureFilename  {
    "TrashCan1.png";
   }
  }

  Material  {
   1.000000;1.000000;1.000000;1.000000;;
   0.000000;
   0.000000;0.000000;0.000000;;
   0.000000;0.000000;0.000000;;

   TextureFilename  {
    "SmokingArea.png";
   }
  }

  Material  {
   1.000000;1.000000;1.000000;1.000000;;
   0.000000;
   0.000000;0.000000;0.000000;;
   0.000000;0.000000;0.000000;;

   TextureFilename  {
    "Annai34.png";
   }
  }

  Material  {
   0.125490;0.125490;0.125490;0.250980;;
   0.000000;
   0.000000;0.000000;0.000000;;
   0.000000;0.000000;0.000000;;
  }

  Material  {
   0.125490;0.125490;0.125490;0.250980;;
   0.000000;
   0.000000;0.000000;0.000000;;
   0.000000;0.000000;0.000000;;
  }
 }

 MeshTextureCoords  {
  139;
  0.000000;0.900000;,
  0.000000;0.100000;,
  1.000000;0.900000;,
  1.000000;0.100000;,
  0.000000;0.550000;,
  0.000000;0.050000;,
  1.000000;0.550000;,
  1.000000;0.050000;,
  0.000000;0.550000;,
  0.000000;0.050000;,
  1.000000;0.550000;,
  1.000000;0.050000;,
  0.000000;0.900000;,
  0.000000;0.100000;,
  1.000000;0.900000;,
  1.000000;0.100000;,
  0.000000;0.900000;,
  0.000000;0.100000;,
  1.000000;0.900000;,
  1.000000;0.100000;,
  0.000000;0.900000;,
  0.000000;0.100000;,
  1.000000;0.900000;,
  1.000000;0.100000;,
  0.000000;0.100000;,
  1.000000;0.100000;,
  0.000000;0.200000;,
  1.000000;0.200000;,
  0.000000;0.100000;,
  1.000000;0.100000;,
  0.000000;0.200000;,
  1.000000;0.200000;,
  0.000000;4.100000;,
  0.000000;0.400000;,
  2.000000;4.100000;,
  2.000000;0.400000;,
  4.000000;4.100000;,
  4.000000;0.400000;,
  0.000000;1.000000;,
  0.000000;0.000000;,
  4.000000;1.000000;,
  4.000000;0.000000;,
  4.000000;1.000000;,
  4.000000;0.000000;,
  4.000000;1.000000;,
  4.000000;0.000000;,
  8.000000;1.000000;,
  8.000000;0.000000;,
  0.000000;1.000000;,
  0.000000;0.000000;,
  1.000000;1.000000;,
  1.000000;0.000000;,
  0.000000;1.000000;,
  0.000000;0.000000;,
  1.000000;1.000000;,
  1.000000;0.000000;,
  0.970000;0.980000;,
  0.970000;0.000000;,
  0.000000;0.000000;,
  0.000000;0.980000;,
  0.970000;0.980000;,
  0.970000;0.000000;,
  0.000000;0.000000;,
  0.000000;0.980000;,
  2.000000;0.980000;,
  2.000000;0.000000;,
  0.000000;0.000000;,
  0.000000;0.980000;,
  0.000000;0.000000;,
  0.000000;0.680000;,
  0.000000;0.900000;,
  0.000000;1.000000;,
  1.000000;0.000000;,
  1.000000;0.680000;,
  1.000000;0.900000;,
  1.000000;1.000000;,
  1.000000;1.000000;,
  1.000000;0.000000;,
  0.000000;1.000000;,
  0.000000;0.000000;,
  0.000000;0.000000;,
  0.000000;0.680000;,
  0.000000;0.900000;,
  0.000000;1.000000;,
  1.000000;0.000000;,
  1.000000;0.680000;,
  1.000000;0.900000;,
  1.000000;1.000000;,
  1.000000;1.000000;,
  1.000000;0.000000;,
  0.000000;1.000000;,
  0.000000;0.000000;,
  1.000000;1.000000;,
  1.000000;0.000000;,
  0.000000;1.000000;,
  0.000000;0.000000;,
  0.000000;1.000000;,
  0.000000;0.000000;,
  1.000000;0.000000;,
  1.000000;1.000000;,
  0.000000;1.000000;,
  0.000000;0.156000;,
  0.000000;0.000000;,
  1.000000;1.000000;,
  1.000000;0.156000;,
  1.000000;0.000000;,
  0.000000;1.000000;,
  0.000000;0.156000;,
  0.000000;1.000000;,
  0.000000;0.156000;,
  0.000000;1.000000;,
  0.000000;0.000000;,
  1.000000;0.000000;,
  1.000000;1.000000;,
  0.000000;1.000000;,
  0.000000;0.000000;,
  1.000000;0.000000;,
  1.000000;1.000000;,
  0.000000;0.000000;,
  0.000000;0.000000;,
  0.000000;0.000000;,
  0.000000;0.000000;,
  0.000000;0.000000;,
  0.000000;0.000000;,
  0.000000;0.000000;,
  0.000000;0.000000;,
  0.000000;0.000000;,
  0.000000;0.000000;,
  0.000000;0.000000;,
  0.000000;0.000000;,
  0.000000;0.000000;,
  0.000000;0.000000;,
  0.000000;0.000000;,
  0.000000;0.000000;,
  0.000000;0.000000;,
  0.000000;0.000000;,
  0.000000;0.000000;,
  0.000000;0.000000;,
  0.000000;0.000000;;
 }

 MeshNormals  {
  95;
  0.000000;0.000000;-1.000000;,
  0.000000;0.000000;-1.000000;,
  0.000000;0.000000;-1.000000;,
  0.000000;0.000000;-1.000000;,
  0.000000;0.000000;-1.000000;,
  0.000000;0.000000;-1.000000;,
  0.000000;0.000000;-1.000000;,
  0.000000;0.000000;-1.000000;,
  0.000000;0.000000;-1.000000;,
  0.000000;0.000000;-1.000000;,
  0.000000;0.000000;-1.000000;,
  0.000000;0.000000;-1.000000;,
  1.000000;0.000000;0.000000;,
  1.000000;0.000000;0.000000;,
  -1.000000;0.000000;0.000000;,
  -1.000000;0.000000;0.000000;,
  1.000000;0.000000;0.000000;,
  1.000000;0.000000;0.000000;,
  -1.000000;0.000000;0.000000;,
  -1.000000;0.000000;0.000000;,
  0.136730;-0.990608;0.000000;,
  0.136730;-0.990608;0.000000;,
  -0.136730;-0.990608;0.000000;,
  -0.136730;-0.990608;0.000000;,
  -1.000000;0.000000;0.000000;,
  -1.000000;0.000000;0.000000;,
  0.000000;0.000000;-1.000000;,
  0.000000;0.000000;-1.000000;,
  0.000000;0.000000;-1.000000;,
  0.000000;0.000000;-1.000000;,
  1.000000;0.000000;0.000000;,
  1.000000;0.000000;0.000000;,
  0.000000;0.000000;-1.000000;,
  0.000000;0.000000;-1.000000;,
  0.000000;0.000000;-1.000000;,
  0.000000;0.000000;-1.000000;,
  0.000000;0.000000;-1.000000;,
  0.000000;0.000000;-1.000000;,
  0.000000;0.000000;-1.000000;,
  0.000000;0.000000;-1.000000;,
  1.000000;0.000000;0.000000;,
  1.000000;0.000000;0.000000;,
  -1.000000;0.000000;0.000000;,
  -1.000000;0.000000;0.000000;,
  0.992278;0.124035;0.000000;,
  0.992278;0.124035;0.000000;,
  0.000000;1.000000;0.000000;,
  0.000000;1.000000;0.000000;,
  1.000000;0.000000;0.000000;,
  1.000000;0.000000;0.000000;,
  0.000000;0.000000;-1.000000;,
  0.000000;0.000000;-1.000000;,
  0.992278;0.124035;0.000000;,
  0.992278;0.124035;0.000000;,
  0.000000;1.000000;0.000000;,
  0.000000;1.000000;0.000000;,
  1.000000;0.000000;0.000000;,
  1.000000;0.000000;0.000000;,
  0.000000;0.000000;-1.000000;,
  0.000000;0.000000;-1.000000;,
  0.000000;0.000000;-1.000000;,
  0.000000;0.000000;-1.000000;,
  1.000000;0.000000;0.000000;,
  1.000000;0.000000;0.000000;,
  -1.000000;0.000000;0.000000;,
  -1.000000;0.000000;0.000000;,
  1.000000;0.000000;0.000000;,
  1.000000;0.000000;0.000000;,
  0.216930;0.976187;0.000000;,
  0.216930;0.976187;0.000000;,
  0.000000;0.000000;-1.000000;,
  0.000000;0.000000;-1.000000;,
  -1.000000;0.000000;0.000000;,
  -1.000000;0.000000;0.000000;,
  0.000000;0.000000;-1.000000;,
  0.000000;0.000000;-1.000000;,
  0.000000;0.000000;-1.000000;,
  0.000000;0.000000;-1.000000;,
  0.000000;1.000000;0.000000;,
  0.000000;1.000000;0.000000;,
  0.000000;1.000000;0.000000;,
  0.000000;1.000000;0.000000;,
  0.000000;1.000000;0.000000;,
  0.000000;1.000000;0.000000;,
  1.000000;0.000000;0.000000;,
  1.000000;0.000000;0.000000;,
  0.000000;1.000000;0.000000;,
  0.000000;1.000000;0.000000;,
  0.000000;1.000000;0.000000;,
  0.000000;1.000000;0.000000;,
  0.000000;1.000000;0.000000;,
  0.000000;1.000000;0.000000;,
  0.000000;1.000000;0.000000;,
  0.000000;1.000000;0.000000;,
  0.000000;1.000000;0.000000;;
  95;
  3;0,0,0;,
  3;1,1,1;,
  3;2,2,2;,
  3;3,3,3;,
  3;4,4,4;,
  3;5,5,5;,
  3;6,6,6;,
  3;7,7,7;,
  3;8,8,8;,
  3;9,9,9;,
  3;10,10,10;,
  3;11,11,11;,
  3;12,12,12;,
  3;13,13,13;,
  3;14,14,14;,
  3;15,15,15;,
  3;16,16,16;,
  3;17,17,17;,
  3;18,18,18;,
  3;19,19,19;,
  3;20,20,20;,
  3;21,21,21;,
  3;22,22,22;,
  3;23,23,23;,
  3;24,24,24;,
  3;25,25,25;,
  3;26,26,26;,
  3;27,27,27;,
  3;28,28,28;,
  3;29,29,29;,
  3;30,30,30;,
  3;31,31,31;,
  3;32,32,32;,
  3;33,33,33;,
  3;34,34,34;,
  3;35,35,35;,
  3;36,36,36;,
  3;37,37,37;,
  3;38,38,38;,
  3;39,39,39;,
  3;40,40,40;,
  3;41,41,41;,
  3;42,42,42;,
  3;43,43,43;,
  3;44,44,44;,
  3;45,45,45;,
  3;46,46,46;,
  3;47,47,47;,
  3;48,48,48;,
  3;49,49,49;,
  3;50,50,50;,
  3;51,51,51;,
  3;52,52,52;,
  3;53,53,53;,
  3;54,54,54;,
  3;55,55,55;,
  3;56,56,56;,
  3;57,57,57;,
  3;58,58,58;,
  3;59,59,59;,
  3;60,60,60;,
  3;61,61,61;,
  3;62,62,62;,
  3;63,63,63;,
  3;64,64,64;,
  3;65,65,65;,
  3;66,66,66;,
  3;67,67,67;,
  3;68,68,68;,
  3;69,69,69;,
  3;70,70,70;,
  3;71,71,71;,
  3;72,72,72;,
  3;73,73,73;,
  3;74,74,74;,
  3;75,75,75;,
  3;76,76,76;,
  3;77,77,77;,
  3;78,78,78;,
  3;79,79,79;,
  3;80,80,80;,
  3;81,81,81;,
  3;82,82,82;,
  3;83,83,83;,
  3;84,84,84;,
  3;85,85,85;,
  3;86,86,86;,
  3;87,87,87;,
  3;88,88,88;,
  3;89,89,89;,
  3;90,90,90;,
  3;91,91,91;,
  3;92,92,92;,
  3;93,93,93;,
  3;94,94,94;;
 }
}