xof 0303txt 0032
template Vector {
 <3d82ab5e-62da-11cf-ab39-0020af71e433>
 FLOAT x;
 FLOAT y;
 FLOAT z;
}

template MeshFace {
 <3d82ab5f-62da-11cf-ab39-0020af71e433>
 DWORD nFaceVertexIndices;
 array DWORD faceVertexIndices[nFaceVertexIndices];
}

template Mesh {
 <3d82ab44-62da-11cf-ab39-0020af71e433>
 DWORD nVertices;
 array Vector vertices[nVertices];
 DWORD nFaces;
 array MeshFace faces[nFaces];
 [...]
}

template ColorRGBA {
 <35ff44e0-6c7c-11cf-8f52-0040333594a3>
 FLOAT red;
 FLOAT green;
 FLOAT blue;
 FLOAT alpha;
}

template ColorRGB {
 <d3e16e81-7835-11cf-8f52-0040333594a3>
 FLOAT red;
 FLOAT green;
 FLOAT blue;
}

template Material {
 <3d82ab4d-62da-11cf-ab39-0020af71e433>
 ColorRGBA faceColor;
 FLOAT power;
 ColorRGB specularColor;
 ColorRGB emissiveColor;
 [...]
}

template MeshMaterialList {
 <f6f23f42-7686-11cf-8f52-0040333594a3>
 DWORD nMaterials;
 DWORD nFaceIndexes;
 array DWORD faceIndexes[nFaceIndexes];
 [Material <3d82ab4d-62da-11cf-ab39-0020af71e433>]
}

template TextureFilename {
 <a42790e1-7810-11cf-8f52-0040333594a3>
 STRING filename;
}

template Coords2d {
 <f6f23f44-7686-11cf-8f52-0040333594a3>
 FLOAT u;
 FLOAT v;
}

template MeshTextureCoords {
 <f6f23f40-7686-11cf-8f52-0040333594a3>
 DWORD nTextureCoords;
 array Coords2d textureCoords[nTextureCoords];
}

template MeshNormals {
 <f6f23f43-7686-11cf-8f52-0040333594a3>
 DWORD nNormals;
 array Vector normals[nNormals];
 DWORD nFaceNormals;
 array MeshFace faceNormals[nFaceNormals];
}


Mesh  {
 138;
 6.750000;1.100000;-15.000000;,
 6.750000;4.400000;-15.000000;,
 7.000000;1.100000;-15.000000;,
 7.000000;4.400000;-15.000000;,
 6.750000;1.100000;-5.000000;,
 6.750000;4.400000;-5.000000;,
 7.000000;1.100000;-5.000000;,
 7.000000;4.400000;-5.000000;,
 6.750000;1.100000;5.000000;,
 6.750000;4.400000;5.000000;,
 7.000000;1.100000;5.000000;,
 7.000000;4.400000;5.000000;,
 3.100000;1.100000;-15.000000;,
 3.100000;5.100000;-15.000000;,
 3.350000;1.100000;-15.000000;,
 3.350000;5.100000;-15.000000;,
 3.100000;1.100000;-5.000000;,
 3.100000;5.100000;-5.000000;,
 3.350000;1.100000;-5.000000;,
 3.350000;5.100000;-5.000000;,
 3.100000;1.100000;5.000000;,
 3.100000;5.100000;5.000000;,
 3.350000;1.100000;5.000000;,
 3.350000;5.100000;5.000000;,
 7.000000;4.000000;-16.000000;,
 7.000000;4.400000;-16.000000;,
 7.000000;4.000000;7.000000;,
 7.000000;4.400000;7.000000;,
 3.100000;4.900000;-16.000000;,
 3.100000;5.100000;-16.000000;,
 3.100000;4.900000;7.000000;,
 3.100000;5.100000;7.000000;,
 1.500000;5.500000;-16.000000;,
 1.500000;5.500000;7.000000;,
 7.200000;4.400000;-16.000000;,
 7.200000;4.400000;7.000000;,
 7.200000;4.100000;-16.000000;,
 7.200000;4.400000;-16.000000;,
 1.500000;5.200000;-16.000000;,
 1.500000;5.500000;-16.000000;,
 1.500000;5.200000;7.000000;,
 1.500000;5.500000;7.000000;,
 3.200000;4.400000;7.000000;,
 1.500000;5.500000;7.000000;,
 7.200000;4.400000;7.000000;,
 2.750000;3.700000;-15.000000;,
 2.750000;4.050000;-15.000000;,
 3.100000;3.700000;-15.000000;,
 3.100000;4.050000;-15.000000;,
 5.500000;1.100000;-14.000000;,
 5.500000;3.300000;-14.000000;,
 6.500000;3.300000;-14.000000;,
 6.500000;1.100000;-14.000000;,
 5.500000;1.100000;-8.500000;,
 5.500000;3.300000;-8.500000;,
 6.500000;3.300000;-8.500000;,
 6.500000;1.100000;-8.500000;,
 6.500000;1.100000;-14.000000;,
 6.500000;3.300000;-14.000000;,
 6.500000;3.300000;-8.500000;,
 6.500000;1.100000;-8.500000;,
 6.400000;1.900000;-13.300000;,
 6.350000;1.500000;-13.300000;,
 5.950000;1.500000;-13.300000;,
 5.950000;1.450000;-13.300000;,
 6.400000;1.900000;-11.600000;,
 6.350000;1.500000;-11.600000;,
 5.950000;1.500000;-11.600000;,
 5.950000;1.450000;-11.600000;,
 5.930000;1.100000;-13.300000;,
 5.930000;1.900000;-13.300000;,
 6.450000;1.100000;-13.300000;,
 6.450000;1.900000;-13.300000;,
 5.930000;1.100000;-11.600000;,
 5.930000;1.900000;-11.600000;,
 6.450000;1.100000;-11.600000;,
 6.450000;1.900000;-11.600000;,
 6.400000;1.900000;-10.900000;,
 6.350000;1.500000;-10.900000;,
 5.950000;1.500000;-10.900000;,
 5.950000;1.450000;-10.900000;,
 6.400000;1.900000;-9.200000;,
 6.350000;1.500000;-9.200000;,
 5.950000;1.500000;-9.200000;,
 5.950000;1.450000;-9.200000;,
 5.930000;1.100000;-10.900000;,
 5.930000;1.900000;-10.900000;,
 6.450000;1.100000;-10.900000;,
 6.450000;1.900000;-10.900000;,
 5.930000;1.100000;-9.200000;,
 5.930000;1.900000;-9.200000;,
 6.450000;1.100000;-9.200000;,
 6.450000;1.900000;-9.200000;,
 5.800000;1.100000;-8.000000;,
 5.800000;4.800000;-8.000000;,
 5.800000;4.800000;-6.500000;,
 5.800000;1.100000;-6.500000;,
 5.700000;1.100000;-6.000000;,
 5.700000;2.200000;-6.000000;,
 6.150000;2.300000;-6.000000;,
 5.700000;1.100000;-4.000000;,
 5.700000;2.200000;-4.000000;,
 6.150000;2.300000;-4.000000;,
 6.150000;1.100000;-6.000000;,
 6.150000;2.300000;-6.000000;,
 3.822500;3.600000;-5.000000;,
 3.822500;5.000000;-5.000000;,
 5.222500;5.000000;-5.000000;,
 5.222500;3.600000;-5.000000;,
 5.500000;3.600000;1.000000;,
 5.500000;5.000000;1.000000;,
 4.000000;5.000000;1.000000;,
 4.000000;3.600000;1.000000;,
 3.267200;1.105000;-14.337900;,
 3.267200;1.105000;7.000000;,
 7.000100;1.105000;7.000000;,
 5.884400;1.105000;9.000000;,
 1.495000;0.959800;16.868299;,
 1.495000;1.105000;9.000000;,
 1.495000;1.105000;-14.337900;,
 1.495000;0.948800;17.467899;,
 1.495000;0.925000;19.000000;,
 1.495000;0.925000;22.230700;,
 7.200000;0.948800;17.467899;,
 7.200000;0.925000;19.000000;,
 7.200000;0.925000;22.230700;,
 -5.054600;0.010000;-13.229900;,
 -5.054600;0.010000;9.770100;,
 -2.334900;0.010000;9.770100;,
 -5.294900;0.010000;15.076150;,
 -5.294900;1.105000;16.872200;,
 -5.627200;1.105000;17.467899;,
 -5.294900;1.105000;17.467899;,
 -5.294900;0.010000;18.021900;,
 0.189100;0.010000;-13.229900;,
 0.189100;0.010000;9.554000;,
 0.352900;0.010000;17.119499;,
 -0.150400;0.010000;18.021900;;
 82;
 3;0,1,3;,
 3;0,3,2;,
 3;4,5,7;,
 3;4,7,6;,
 3;8,9,11;,
 3;8,11,10;,
 3;12,13,15;,
 3;12,15,14;,
 3;16,17,19;,
 3;16,19,18;,
 3;20,21,23;,
 3;20,23,22;,
 3;26,27,25;,
 3;26,25,24;,
 3;30,31,29;,
 3;30,29,28;,
 3;34,35,33;,
 3;34,33,32;,
 3;38,39,37;,
 3;38,37,36;,
 3;40,41,39;,
 3;40,39,38;,
 3;42,43,44;,
 3;45,46,48;,
 3;45,48,47;,
 3;49,50,51;,
 3;49,51,52;,
 3;53,54,55;,
 3;53,55,56;,
 3;60,59,58;,
 3;60,58,57;,
 3;61,62,66;,
 3;61,66,65;,
 3;62,63,67;,
 3;62,67,66;,
 3;63,64,68;,
 3;63,68,67;,
 3;69,70,72;,
 3;69,72,71;,
 3;73,74,76;,
 3;73,76,75;,
 3;77,78,82;,
 3;77,82,81;,
 3;78,79,83;,
 3;78,83,82;,
 3;79,80,84;,
 3;79,84,83;,
 3;85,86,88;,
 3;85,88,87;,
 3;89,90,92;,
 3;89,92,91;,
 3;96,95,94;,
 3;96,94,93;,
 3;100,101,98;,
 3;100,98,97;,
 3;101,102,99;,
 3;101,99,98;,
 3;97,98,104;,
 3;97,104,103;,
 3;105,106,107;,
 3;105,107,108;,
 3;112,111,110;,
 3;112,110,109;,
 3;119,118,114;,
 3;119,114,113;,
 3;118,116,115;,
 3;118,115,114;,
 3;118,117,116;,
 3;120,121,124;,
 3;120,124,123;,
 3;121,122,125;,
 3;121,125,124;,
 3;126,127,128;,
 3;126,128,135;,
 3;126,135,134;,
 3;128,129,133;,
 3;128,133,137;,
 3;128,137,136;,
 3;128,136,135;,
 3;129,130,132;,
 3;129,132,133;,
 3;130,131,132;;

 MeshMaterialList  {
  28;
  82;
  0,
  0,
  1,
  1,
  2,
  2,
  3,
  3,
  4,
  4,
  5,
  5,
  6,
  6,
  7,
  7,
  8,
  8,
  9,
  9,
  9,
  9,
  10,
  11,
  11,
  12,
  12,
  13,
  13,
  14,
  14,
  15,
  15,
  15,
  15,
  15,
  15,
  16,
  16,
  17,
  17,
  18,
  18,
  18,
  18,
  18,
  18,
  19,
  19,
  20,
  20,
  21,
  21,
  22,
  22,
  22,
  22,
  22,
  22,
  23,
  23,
  24,
  24,
  25,
  25,
  25,
  25,
  25,
  26,
  26,
  26,
  26,
  27,
  27,
  27,
  27,
  27,
  27,
  27,
  27,
  27,
  27;

  Material  {
   1.000000;1.000000;1.000000;1.000000;;
   0.000000;
   0.000000;0.000000;0.000000;;
   0.000000;0.000000;0.000000;;

   TextureFilename  {
    "Iron3.png";
   }
  }

  Material  {
   1.000000;1.000000;1.000000;1.000000;;
   0.000000;
   0.000000;0.000000;0.000000;;
   0.000000;0.000000;0.000000;;

   TextureFilename  {
    "Iron3.png";
   }
  }

  Material  {
   1.000000;1.000000;1.000000;1.000000;;
   0.000000;
   0.000000;0.000000;0.000000;;
   0.000000;0.000000;0.000000;;

   TextureFilename  {
    "Iron3.png";
   }
  }

  Material  {
   1.000000;1.000000;1.000000;1.000000;;
   0.000000;
   0.000000;0.000000;0.000000;;
   0.000000;0.000000;0.000000;;

   TextureFilename  {
    "Iron3.png";
   }
  }

  Material  {
   1.000000;1.000000;1.000000;1.000000;;
   0.000000;
   0.000000;0.000000;0.000000;;
   0.000000;0.000000;0.000000;;

   TextureFilename  {
    "Iron3.png";
   }
  }

  Material  {
   1.000000;1.000000;1.000000;1.000000;;
   0.000000;
   0.000000;0.000000;0.000000;;
   0.000000;0.000000;0.000000;;

   TextureFilename  {
    "Iron3.png";
   }
  }

  Material  {
   1.000000;1.000000;1.000000;1.000000;;
   0.000000;
   0.000000;0.000000;0.000000;;
   0.000000;0.000000;0.000000;;

   TextureFilename  {
    "Iron3.png";
   }
  }

  Material  {
   1.000000;1.000000;1.000000;1.000000;;
   0.000000;
   0.000000;0.000000;0.000000;;
   0.000000;0.000000;0.000000;;

   TextureFilename  {
    "Iron3.png";
   }
  }

  Material  {
   1.000000;1.000000;1.000000;1.000000;;
   0.000000;
   0.000000;0.000000;0.000000;;
   0.000000;0.000000;0.000000;;

   TextureFilename  {
    "Roof3.png";
   }
  }

  Material  {
   1.000000;1.000000;1.000000;1.000000;;
   0.000000;
   0.000000;0.000000;0.000000;;
   0.000000;0.000000;0.000000;;

   TextureFilename  {
    "Roof4.png";
   }
  }

  Material  {
   0.250980;0.250980;0.250980;1.000000;;
   0.000000;
   0.000000;0.000000;0.000000;;
   0.000000;0.000000;0.000000;;

   TextureFilename  {
    "KaidanWall3.png";
   }
  }

  Material  {
   1.000000;1.000000;1.000000;1.000000;;
   0.000000;
   0.000000;0.000000;0.000000;;
   0.000000;0.000000;0.000000;;

   TextureFilename  {
    "NO2.png";
   }
  }

  Material  {
   1.000000;1.000000;1.000000;1.000000;;
   0.000000;
   0.000000;0.000000;0.000000;;
   0.000000;0.000000;0.000000;;

   TextureFilename  {
    "BenchPlate1.png";
   }
  }

  Material  {
   1.000000;1.000000;1.000000;1.000000;;
   0.000000;
   0.000000;0.000000;0.000000;;
   0.000000;0.000000;0.000000;;

   TextureFilename  {
    "BenchPlate1.png";
   }
  }

  Material  {
   1.000000;1.000000;1.000000;1.000000;;
   0.000000;
   0.000000;0.000000;0.000000;;
   0.000000;0.000000;0.000000;;

   TextureFilename  {
    "BenchPlate2.png";
   }
  }

  Material  {
   1.000000;1.000000;1.000000;1.000000;;
   0.000000;
   0.000000;0.000000;0.000000;;
   0.000000;0.000000;0.000000;;

   TextureFilename  {
    "Bench1.png";
   }
  }

  Material  {
   1.000000;1.000000;1.000000;1.000000;;
   0.000000;
   0.000000;0.000000;0.000000;;
   0.000000;0.000000;0.000000;;

   TextureFilename  {
    "Bench2.png";
   }
  }

  Material  {
   1.000000;1.000000;1.000000;1.000000;;
   0.000000;
   0.000000;0.000000;0.000000;;
   0.000000;0.000000;0.000000;;

   TextureFilename  {
    "Bench2.png";
   }
  }

  Material  {
   1.000000;1.000000;1.000000;1.000000;;
   0.000000;
   0.000000;0.000000;0.000000;;
   0.000000;0.000000;0.000000;;

   TextureFilename  {
    "Bench1.png";
   }
  }

  Material  {
   1.000000;1.000000;1.000000;1.000000;;
   0.000000;
   0.000000;0.000000;0.000000;;
   0.000000;0.000000;0.000000;;

   TextureFilename  {
    "Bench2.png";
   }
  }

  Material  {
   1.000000;1.000000;1.000000;1.000000;;
   0.000000;
   0.000000;0.000000;0.000000;;
   0.000000;0.000000;0.000000;;

   TextureFilename  {
    "Bench2.png";
   }
  }

  Material  {
   1.000000;1.000000;1.000000;1.000000;;
   0.000000;
   0.000000;0.000000;0.000000;;
   0.000000;0.000000;0.000000;;

   TextureFilename  {
    "Ekimei2.png";
   }
  }

  Material  {
   1.000000;1.000000;1.000000;1.000000;;
   0.000000;
   0.000000;0.000000;0.000000;;
   0.000000;0.000000;0.000000;;

   TextureFilename  {
    "TrashCan1.png";
   }
  }

  Material  {
   1.000000;1.000000;1.000000;1.000000;;
   0.000000;
   0.000000;0.000000;0.000000;;
   0.000000;0.000000;0.000000;;

   TextureFilename  {
    "SmokingArea.png";
   }
  }

  Material  {
   1.000000;1.000000;1.000000;1.000000;;
   0.000000;
   0.000000;0.000000;0.000000;;
   0.000000;0.000000;0.000000;;

   TextureFilename  {
    "Annai2.png";
   }
  }

  Material  {
   0.125490;0.125490;0.125490;0.250980;;
   0.000000;
   0.000000;0.000000;0.000000;;
   0.000000;0.000000;0.000000;;
  }

  Material  {
   0.125490;0.125490;0.125490;0.250980;;
   0.000000;
   0.000000;0.000000;0.000000;;
   0.000000;0.000000;0.000000;;
  }

  Material  {
   0.125490;0.125490;0.125490;0.250980;;
   0.000000;
   0.000000;0.000000;0.000000;;
   0.000000;0.000000;0.000000;;
  }
 }

 MeshTextureCoords  {
  138;
  0.000000;0.900000;,
  0.000000;0.100000;,
  1.000000;0.900000;,
  1.000000;0.100000;,
  0.000000;0.900000;,
  0.000000;0.100000;,
  1.000000;0.900000;,
  1.000000;0.100000;,
  0.000000;0.900000;,
  0.000000;0.100000;,
  1.000000;0.900000;,
  1.000000;0.100000;,
  0.000000;0.900000;,
  0.000000;0.100000;,
  1.000000;0.900000;,
  1.000000;0.100000;,
  0.000000;0.600000;,
  0.000000;0.100000;,
  1.000000;0.600000;,
  1.000000;0.100000;,
  0.000000;0.600000;,
  0.000000;0.100000;,
  1.000000;0.600000;,
  1.000000;0.100000;,
  0.000000;0.200000;,
  1.000000;0.200000;,
  0.000000;0.100000;,
  1.000000;0.100000;,
  0.000000;0.200000;,
  1.000000;0.200000;,
  0.000000;0.100000;,
  1.000000;0.100000;,
  0.000000;4.100000;,
  0.000000;0.400000;,
  2.000000;4.100000;,
  2.000000;0.400000;,
  1.000000;1.000000;,
  1.000000;0.000000;,
  0.993000;1.000000;,
  0.993000;0.000000;,
  -2.000000;1.000000;,
  -2.000000;0.000000;,
  0.300000;0.790000;,
  0.000000;0.440000;,
  1.000000;0.790000;,
  0.000000;1.000000;,
  0.000000;0.000000;,
  1.000000;1.000000;,
  1.000000;0.000000;,
  0.000000;0.980000;,
  0.000000;0.000000;,
  0.970000;0.000000;,
  0.970000;0.980000;,
  0.000000;0.980000;,
  0.000000;0.000000;,
  0.970000;0.000000;,
  0.970000;0.980000;,
  3.000000;0.980000;,
  3.000000;0.000000;,
  0.000000;0.000000;,
  0.000000;0.980000;,
  0.000000;0.000000;,
  0.000000;0.680000;,
  0.000000;0.900000;,
  0.000000;1.000000;,
  1.000000;0.000000;,
  1.000000;0.680000;,
  1.000000;0.900000;,
  1.000000;1.000000;,
  0.000000;1.000000;,
  0.000000;0.000000;,
  1.000000;1.000000;,
  1.000000;0.000000;,
  0.000000;1.000000;,
  0.000000;0.000000;,
  1.000000;1.000000;,
  1.000000;0.000000;,
  0.000000;0.000000;,
  0.000000;0.680000;,
  0.000000;0.900000;,
  0.000000;1.000000;,
  1.000000;0.000000;,
  1.000000;0.680000;,
  1.000000;0.900000;,
  1.000000;1.000000;,
  0.000000;1.000000;,
  0.000000;0.000000;,
  1.000000;1.000000;,
  1.000000;0.000000;,
  0.000000;1.000000;,
  0.000000;0.000000;,
  1.000000;1.000000;,
  1.000000;0.000000;,
  0.000000;1.000000;,
  0.000000;0.000000;,
  1.000000;0.000000;,
  1.000000;1.000000;,
  0.000000;1.000000;,
  0.000000;0.156000;,
  0.000000;0.000000;,
  4.000000;1.000000;,
  4.000000;0.156000;,
  4.000000;0.000000;,
  0.000000;1.000000;,
  0.000000;0.156000;,
  0.000000;1.000000;,
  0.000000;0.000000;,
  1.000000;0.000000;,
  1.000000;1.000000;,
  1.000000;1.000000;,
  1.000000;0.000000;,
  0.000000;0.000000;,
  0.000000;1.000000;,
  0.000000;0.000000;,
  0.000000;0.000000;,
  0.000000;0.000000;,
  0.000000;0.000000;,
  0.000000;0.000000;,
  0.000000;0.000000;,
  0.000000;0.000000;,
  0.000000;0.000000;,
  0.000000;0.000000;,
  0.000000;0.000000;,
  0.000000;0.000000;,
  0.000000;0.000000;,
  0.000000;0.000000;,
  0.000000;0.000000;,
  0.000000;0.000000;,
  0.000000;0.000000;,
  0.000000;0.000000;,
  0.000000;0.000000;,
  0.000000;0.000000;,
  0.000000;0.000000;,
  0.000000;0.000000;,
  0.000000;0.000000;,
  0.000000;0.000000;,
  0.000000;0.000000;,
  0.000000;0.000000;;
 }

 MeshNormals  {
  82;
  0.000000;0.000000;-1.000000;,
  0.000000;0.000000;-1.000000;,
  0.000000;0.000000;-1.000000;,
  0.000000;0.000000;-1.000000;,
  0.000000;0.000000;-1.000000;,
  0.000000;0.000000;-1.000000;,
  0.000000;0.000000;-1.000000;,
  0.000000;0.000000;-1.000000;,
  0.000000;0.000000;-1.000000;,
  0.000000;0.000000;-1.000000;,
  0.000000;0.000000;-1.000000;,
  0.000000;0.000000;-1.000000;,
  -1.000000;0.000000;0.000000;,
  -1.000000;0.000000;0.000000;,
  -1.000000;0.000000;0.000000;,
  -1.000000;0.000000;0.000000;,
  -0.189486;-0.981883;0.000000;,
  -0.189486;-0.981883;0.000000;,
  0.000000;0.000000;-1.000000;,
  0.000000;0.000000;-1.000000;,
  -1.000000;0.000000;0.000000;,
  -1.000000;0.000000;0.000000;,
  0.000000;0.000000;-1.000000;,
  0.000000;0.000000;-1.000000;,
  0.000000;0.000000;-1.000000;,
  0.000000;0.000000;-1.000000;,
  0.000000;0.000000;-1.000000;,
  0.000000;0.000000;-1.000000;,
  0.000000;0.000000;-1.000000;,
  -1.000000;0.000000;0.000000;,
  -1.000000;0.000000;0.000000;,
  -0.992278;0.124035;0.000000;,
  -0.992278;0.124035;0.000000;,
  0.000000;1.000000;0.000000;,
  0.000000;1.000000;0.000000;,
  -1.000000;0.000000;0.000000;,
  -1.000000;0.000000;0.000000;,
  0.000000;0.000000;-1.000000;,
  0.000000;0.000000;-1.000000;,
  0.000000;0.000000;-1.000000;,
  0.000000;0.000000;-1.000000;,
  -0.992278;0.124035;0.000000;,
  -0.992278;0.124035;0.000000;,
  0.000000;1.000000;0.000000;,
  0.000000;1.000000;0.000000;,
  -1.000000;0.000000;0.000000;,
  -1.000000;0.000000;0.000000;,
  0.000000;0.000000;-1.000000;,
  0.000000;0.000000;-1.000000;,
  0.000000;0.000000;-1.000000;,
  0.000000;0.000000;-1.000000;,
  -1.000000;0.000000;0.000000;,
  -1.000000;0.000000;0.000000;,
  -1.000000;0.000000;0.000000;,
  -1.000000;0.000000;0.000000;,
  -0.216930;0.976187;0.000000;,
  -0.216930;0.976187;0.000000;,
  0.000000;0.000000;-1.000000;,
  0.000000;0.000000;-1.000000;,
  0.000000;0.000000;-1.000000;,
  0.000000;0.000000;-1.000000;,
  0.000000;0.000000;-1.000000;,
  0.000000;0.000000;-1.000000;,
  0.000000;1.000000;0.000000;,
  0.000000;1.000000;0.000000;,
  0.000000;1.000000;0.000000;,
  0.000000;1.000000;0.000000;,
  0.000000;0.999830;0.018451;,
  0.000000;0.999879;0.015532;,
  0.000000;0.999879;0.015532;,
  0.000000;1.000000;0.000000;,
  0.000000;1.000000;0.000000;,
  0.000000;1.000000;0.000000;,
  0.000000;1.000000;0.000000;,
  0.000000;1.000000;0.000000;,
  0.000000;1.000000;0.000000;,
  0.000000;1.000000;0.000000;,
  0.000000;1.000000;0.000000;,
  0.000000;1.000000;0.000000;,
  1.000000;0.000000;0.000000;,
  1.000000;0.000000;0.000000;,
  0.000000;1.000000;0.000000;;
  82;
  3;0,0,0;,
  3;1,1,1;,
  3;2,2,2;,
  3;3,3,3;,
  3;4,4,4;,
  3;5,5,5;,
  3;6,6,6;,
  3;7,7,7;,
  3;8,8,8;,
  3;9,9,9;,
  3;10,10,10;,
  3;11,11,11;,
  3;12,12,12;,
  3;13,13,13;,
  3;14,14,14;,
  3;15,15,15;,
  3;16,16,16;,
  3;17,17,17;,
  3;18,18,18;,
  3;19,19,19;,
  3;20,20,20;,
  3;21,21,21;,
  3;22,22,22;,
  3;23,23,23;,
  3;24,24,24;,
  3;25,25,25;,
  3;26,26,26;,
  3;27,27,27;,
  3;28,28,28;,
  3;29,29,29;,
  3;30,30,30;,
  3;31,31,31;,
  3;32,32,32;,
  3;33,33,33;,
  3;34,34,34;,
  3;35,35,35;,
  3;36,36,36;,
  3;37,37,37;,
  3;38,38,38;,
  3;39,39,39;,
  3;40,40,40;,
  3;41,41,41;,
  3;42,42,42;,
  3;43,43,43;,
  3;44,44,44;,
  3;45,45,45;,
  3;46,46,46;,
  3;47,47,47;,
  3;48,48,48;,
  3;49,49,49;,
  3;50,50,50;,
  3;51,51,51;,
  3;52,52,52;,
  3;53,53,53;,
  3;54,54,54;,
  3;55,55,55;,
  3;56,56,56;,
  3;57,57,57;,
  3;58,58,58;,
  3;59,59,59;,
  3;60,60,60;,
  3;61,61,61;,
  3;62,62,62;,
  3;63,63,63;,
  3;64,64,64;,
  3;65,65,65;,
  3;66,66,66;,
  3;67,67,67;,
  3;68,68,68;,
  3;69,69,69;,
  3;70,70,70;,
  3;71,71,71;,
  3;72,72,72;,
  3;73,73,73;,
  3;74,74,74;,
  3;75,75,75;,
  3;76,76,76;,
  3;77,77,77;,
  3;78,78,78;,
  3;79,79,79;,
  3;80,80,80;,
  3;81,81,81;;
 }
}