xof 0303txt 0032
template Vector {
 <3d82ab5e-62da-11cf-ab39-0020af71e433>
 FLOAT x;
 FLOAT y;
 FLOAT z;
}

template MeshFace {
 <3d82ab5f-62da-11cf-ab39-0020af71e433>
 DWORD nFaceVertexIndices;
 array DWORD faceVertexIndices[nFaceVertexIndices];
}

template Mesh {
 <3d82ab44-62da-11cf-ab39-0020af71e433>
 DWORD nVertices;
 array Vector vertices[nVertices];
 DWORD nFaces;
 array MeshFace faces[nFaces];
 [...]
}

template ColorRGBA {
 <35ff44e0-6c7c-11cf-8f52-0040333594a3>
 FLOAT red;
 FLOAT green;
 FLOAT blue;
 FLOAT alpha;
}

template ColorRGB {
 <d3e16e81-7835-11cf-8f52-0040333594a3>
 FLOAT red;
 FLOAT green;
 FLOAT blue;
}

template Material {
 <3d82ab4d-62da-11cf-ab39-0020af71e433>
 ColorRGBA faceColor;
 FLOAT power;
 ColorRGB specularColor;
 ColorRGB emissiveColor;
 [...]
}

template MeshMaterialList {
 <f6f23f42-7686-11cf-8f52-0040333594a3>
 DWORD nMaterials;
 DWORD nFaceIndexes;
 array DWORD faceIndexes[nFaceIndexes];
 [Material <3d82ab4d-62da-11cf-ab39-0020af71e433>]
}

template TextureFilename {
 <a42790e1-7810-11cf-8f52-0040333594a3>
 STRING filename;
}

template Coords2d {
 <f6f23f44-7686-11cf-8f52-0040333594a3>
 FLOAT u;
 FLOAT v;
}

template MeshTextureCoords {
 <f6f23f40-7686-11cf-8f52-0040333594a3>
 DWORD nTextureCoords;
 array Coords2d textureCoords[nTextureCoords];
}

template MeshNormals {
 <f6f23f43-7686-11cf-8f52-0040333594a3>
 DWORD nNormals;
 array Vector normals[nNormals];
 DWORD nFaceNormals;
 array MeshFace faceNormals[nFaceNormals];
}


Mesh  {
 51;
 3.600000;0.920000;-6.500000;,
 3.600000;4.020000;-6.500000;,
 3.600000;0.920000;3.500000;,
 3.600000;4.020000;3.500000;,
 7.200000;0.920000;-6.500000;,
 7.200000;4.020000;-6.500000;,
 3.600000;0.500000;3.500000;,
 3.600000;0.920000;3.500000;,
 3.600000;0.920000;-6.500000;,
 3.300000;4.020000;3.800000;,
 3.300000;3.720000;3.800000;,
 5.400000;4.020000;3.800000;,
 3.300000;4.020000;-6.800000;,
 3.300000;3.720000;-6.800000;,
 5.400000;4.020000;-6.800000;,
 3.300000;4.020000;-6.800000;,
 3.300000;3.720000;-6.800000;,
 3.300000;3.720000;-6.200000;,
 5.400000;4.320000;-6.800000;,
 5.400000;4.020000;-6.800000;,
 5.400000;4.020000;-6.200000;,
 7.500000;4.020000;-6.800000;,
 7.500000;3.720000;-6.800000;,
 7.500000;3.720000;-6.200000;,
 3.590000;1.920000;2.600000;,
 3.590000;3.720000;2.600000;,
 3.590000;3.720000;-1.000000;,
 3.590000;1.920000;-1.000000;,
 3.590000;0.920000;-2.000000;,
 3.590000;3.120000;-2.000000;,
 3.590000;3.120000;-3.800000;,
 3.590000;0.920000;-3.800000;,
 3.590000;3.120000;-2.000000;,
 3.590000;3.720000;-2.000000;,
 3.590000;3.720000;-3.800000;,
 3.590000;3.120000;-3.800000;,
 3.590000;1.920000;-4.100000;,
 3.590000;3.720000;-4.100000;,
 3.590000;3.720000;-5.900000;,
 3.590000;1.920000;-5.900000;,
 3.600000;0.925000;-2.769300;,
 3.600000;0.925000;1.500000;,
 3.600000;0.618300;3.500000;,
 1.495000;0.925000;-2.769300;,
 1.495000;0.925000;1.500000;,
 1.495000;0.481900;4.389600;,
 -1.190800;0.000000;-2.215300;,
 -1.190800;0.000000;5.524700;,
 0.403600;0.000000;-2.215300;,
 0.403600;0.000000;1.963400;,
 0.929000;0.000000;4.628800;;
 32;
 3;2,3,1;,
 3;2,1,0;,
 3;0,1,5;,
 3;0,5,4;,
 3;6,7,8;,
 3;10,9,12;,
 3;10,12,13;,
 3;13,14,11;,
 3;13,11,10;,
 3;17,16,19;,
 3;17,19,20;,
 3;16,15,18;,
 3;16,18,19;,
 3;20,19,22;,
 3;20,22,23;,
 3;19,18,21;,
 3;19,21,22;,
 3;24,25,26;,
 3;24,26,27;,
 3;28,29,30;,
 3;28,30,31;,
 3;32,33,34;,
 3;32,34,35;,
 3;36,37,38;,
 3;36,38,39;,
 3;43,44,41;,
 3;43,41,40;,
 3;44,45,42;,
 3;44,42,41;,
 3;46,47,49;,
 3;46,49,48;,
 3;47,50,49;;

 MeshMaterialList  {
  10;
  32;
  0,
  0,
  0,
  0,
  1,
  2,
  2,
  2,
  2,
  3,
  3,
  3,
  3,
  3,
  3,
  3,
  3,
  4,
  4,
  5,
  5,
  6,
  6,
  7,
  7,
  8,
  8,
  8,
  8,
  9,
  9,
  9;

  Material  {
   1.000000;1.000000;1.000000;1.000000;;
   0.000000;
   0.000000;0.000000;0.000000;;
   0.000000;0.000000;0.000000;;

   TextureFilename  {
    "WaitingRoom.png";
   }
  }

  Material  {
   0.784314;0.784314;0.784314;1.000000;;
   0.000000;
   0.000000;0.000000;0.000000;;
   0.000000;0.000000;0.000000;;

   TextureFilename  {
    "FormC3.png";
   }
  }

  Material  {
   1.000000;1.000000;1.000000;1.000000;;
   0.000000;
   0.000000;0.000000;0.000000;;
   0.000000;0.000000;0.000000;;

   TextureFilename  {
    "Roof1.png";
   }
  }

  Material  {
   1.000000;1.000000;1.000000;1.000000;;
   0.000000;
   0.000000;0.000000;0.000000;;
   0.000000;0.000000;0.000000;;

   TextureFilename  {
    "Roof2.png";
   }
  }

  Material  {
   1.000000;1.000000;1.000000;1.000000;;
   0.000000;
   0.000000;0.000000;0.000000;;
   0.000000;0.000000;0.000000;;

   TextureFilename  {
    "Window2.png";
   }
  }

  Material  {
   1.000000;1.000000;1.000000;1.000000;;
   0.000000;
   0.000000;0.000000;0.000000;;
   0.000000;0.000000;0.000000;;

   TextureFilename  {
    "Door1.png";
   }
  }

  Material  {
   1.000000;1.000000;1.000000;1.000000;;
   0.000000;
   0.000000;0.000000;0.000000;;
   0.000000;0.000000;0.000000;;

   TextureFilename  {
    "Window2.png";
   }
  }

  Material  {
   1.000000;1.000000;1.000000;1.000000;;
   0.000000;
   0.000000;0.000000;0.000000;;
   0.000000;0.000000;0.000000;;

   TextureFilename  {
    "Window2.png";
   }
  }

  Material  {
   0.125490;0.125490;0.125490;0.250980;;
   0.000000;
   0.000000;0.000000;0.000000;;
   0.000000;0.000000;0.000000;;
  }

  Material  {
   0.125490;0.125490;0.125490;0.250980;;
   0.000000;
   0.000000;0.000000;0.000000;;
   0.000000;0.000000;0.000000;;
  }
 }

 MeshTextureCoords  {
  51;
  0.700000;1.000000;,
  0.700000;0.000000;,
  0.000000;1.000000;,
  0.000000;0.000000;,
  1.000000;1.000000;,
  1.000000;0.000000;,
  0.000000;1.000000;,
  0.000000;0.000000;,
  1.000000;0.000000;,
  0.000000;0.000000;,
  0.000000;0.900000;,
  0.000000;1.000000;,
  1.000000;0.000000;,
  1.000000;0.900000;,
  1.000000;1.000000;,
  0.000000;0.000000;,
  0.000000;0.900000;,
  0.000000;1.000000;,
  0.500000;0.000000;,
  0.500000;0.900000;,
  0.500000;1.000000;,
  1.000000;0.000000;,
  1.000000;0.900000;,
  1.000000;1.000000;,
  0.000000;1.000000;,
  0.000000;0.000000;,
  2.000000;0.000000;,
  2.000000;1.000000;,
  0.000000;1.000000;,
  0.000000;0.000000;,
  1.000000;0.000000;,
  1.000000;1.000000;,
  0.000000;1.000000;,
  0.000000;0.000000;,
  1.000000;0.000000;,
  1.000000;1.000000;,
  0.000000;1.000000;,
  0.000000;0.000000;,
  1.000000;0.000000;,
  1.000000;1.000000;,
  0.000000;0.000000;,
  0.000000;0.000000;,
  0.000000;0.000000;,
  0.000000;0.000000;,
  0.000000;0.000000;,
  0.000000;0.000000;,
  0.000000;0.000000;,
  0.000000;0.000000;,
  0.000000;0.000000;,
  0.000000;0.000000;,
  0.000000;0.000000;;
 }

 MeshNormals  {
  32;
  -1.000000;0.000000;0.000000;,
  -1.000000;0.000000;0.000000;,
  0.000000;0.000000;-1.000000;,
  0.000000;0.000000;-1.000000;,
  -1.000000;0.000000;0.000000;,
  -1.000000;0.000000;0.000000;,
  -1.000000;0.000000;0.000000;,
  0.141421;-0.989950;0.000000;,
  0.141421;-0.989950;0.000000;,
  0.141421;-0.989950;0.000000;,
  0.141421;-0.989950;0.000000;,
  0.000000;0.000000;-1.000000;,
  0.000000;0.000000;-1.000000;,
  -0.141421;-0.989950;0.000000;,
  -0.141421;-0.989950;0.000000;,
  0.000000;0.000000;-1.000000;,
  0.000000;0.000000;-1.000000;,
  -1.000000;0.000000;0.000000;,
  -1.000000;0.000000;0.000000;,
  -1.000000;0.000000;0.000000;,
  -1.000000;0.000000;0.000000;,
  -1.000000;0.000000;0.000000;,
  -1.000000;0.000000;0.000000;,
  -1.000000;0.000000;0.000000;,
  -1.000000;0.000000;0.000000;,
  0.000000;1.000000;0.000000;,
  0.000000;1.000000;0.000000;,
  0.000007;0.988446;0.151571;,
  0.000000;0.988445;0.151578;,
  0.000000;1.000000;0.000000;,
  0.000000;1.000000;0.000000;,
  0.000000;1.000000;0.000000;;
  32;
  3;0,0,0;,
  3;1,1,1;,
  3;2,2,2;,
  3;3,3,3;,
  3;4,4,4;,
  3;5,5,5;,
  3;6,6,6;,
  3;7,7,7;,
  3;8,8,8;,
  3;9,9,9;,
  3;10,10,10;,
  3;11,11,11;,
  3;12,12,12;,
  3;13,13,13;,
  3;14,14,14;,
  3;15,15,15;,
  3;16,16,16;,
  3;17,17,17;,
  3;18,18,18;,
  3;19,19,19;,
  3;20,20,20;,
  3;21,21,21;,
  3;22,22,22;,
  3;23,23,23;,
  3;24,24,24;,
  3;25,25,25;,
  3;26,26,26;,
  3;27,27,27;,
  3;28,28,28;,
  3;29,29,29;,
  3;30,30,30;,
  3;31,31,31;;
 }
}