xof 0303txt 0032
template Vector {
 <3d82ab5e-62da-11cf-ab39-0020af71e433>
 FLOAT x;
 FLOAT y;
 FLOAT z;
}

template MeshFace {
 <3d82ab5f-62da-11cf-ab39-0020af71e433>
 DWORD nFaceVertexIndices;
 array DWORD faceVertexIndices[nFaceVertexIndices];
}

template Mesh {
 <3d82ab44-62da-11cf-ab39-0020af71e433>
 DWORD nVertices;
 array Vector vertices[nVertices];
 DWORD nFaces;
 array MeshFace faces[nFaces];
 [...]
}

template ColorRGBA {
 <35ff44e0-6c7c-11cf-8f52-0040333594a3>
 FLOAT red;
 FLOAT green;
 FLOAT blue;
 FLOAT alpha;
}

template ColorRGB {
 <d3e16e81-7835-11cf-8f52-0040333594a3>
 FLOAT red;
 FLOAT green;
 FLOAT blue;
}

template Material {
 <3d82ab4d-62da-11cf-ab39-0020af71e433>
 ColorRGBA faceColor;
 FLOAT power;
 ColorRGB specularColor;
 ColorRGB emissiveColor;
 [...]
}

template MeshMaterialList {
 <f6f23f42-7686-11cf-8f52-0040333594a3>
 DWORD nMaterials;
 DWORD nFaceIndexes;
 array DWORD faceIndexes[nFaceIndexes];
 [Material <3d82ab4d-62da-11cf-ab39-0020af71e433>]
}

template TextureFilename {
 <a42790e1-7810-11cf-8f52-0040333594a3>
 STRING filename;
}

template Coords2d {
 <f6f23f44-7686-11cf-8f52-0040333594a3>
 FLOAT u;
 FLOAT v;
}

template MeshTextureCoords {
 <f6f23f40-7686-11cf-8f52-0040333594a3>
 DWORD nTextureCoords;
 array Coords2d textureCoords[nTextureCoords];
}

template MeshNormals {
 <f6f23f43-7686-11cf-8f52-0040333594a3>
 DWORD nNormals;
 array Vector normals[nNormals];
 DWORD nFaceNormals;
 array MeshFace faceNormals[nFaceNormals];
}


Mesh  {
 26;
 2.700000;-0.050000;0.000000;,
 2.700000;1.100000;5.100000;,
 1.550000;-0.050000;0.000000;,
 1.550000;1.100000;5.100000;,
 1.550000;-0.050000;0.000000;,
 1.550000;1.100000;5.100000;,
 1.500000;-0.100000;0.000000;,
 1.500000;1.050000;5.100000;,
 1.500000;-0.100000;0.000000;,
 1.500000;-0.100000;5.100000;,
 1.500000;-0.500000;0.000000;,
 1.500000;-0.500000;5.100000;,
 2.700000;-0.500000;0.000000;,
 2.700000;-0.500000;5.100000;,
 1.750000;-0.049000;0.000000;,
 1.750000;1.101000;5.100000;,
 1.550000;-0.049000;0.000000;,
 1.550000;1.101000;5.100000;,
 1.550000;-0.050000;0.000000;,
 1.550000;1.100000;5.100000;,
 1.500000;-0.100000;0.000000;,
 1.500000;1.050000;5.100000;,
 1.500000;-0.100000;0.000000;,
 1.500000;-0.100000;5.100000;,
 1.500000;-0.500000;0.000000;,
 1.500000;-0.500000;5.100000;;
 17;
 3;0,2,3;,
 3;0,3,1;,
 3;1,13,12;,
 3;1,12,0;,
 3;0,12,2;,
 3;2,12,4;,
 3;4,12,6;,
 3;6,12,8;,
 3;8,12,10;,
 3;14,16,17;,
 3;14,17,15;,
 3;18,20,21;,
 3;18,21,19;,
 3;20,22,23;,
 3;20,23,21;,
 3;22,24,25;,
 3;22,25,23;;

 MeshMaterialList  {
  3;
  17;
  0,
  0,
  0,
  0,
  0,
  0,
  0,
  0,
  0,
  1,
  1,
  2,
  2,
  2,
  2,
  2,
  2;

  Material  {
   0.549020;0.568627;0.549020;1.000000;;
   0.000000;
   0.000000;0.000000;0.000000;;
   0.000000;0.000000;0.000000;;
  }

  Material  {
   1.000000;0.313726;0.000000;1.000000;;
   0.000000;
   0.000000;0.000000;0.000000;;
   0.000000;0.000000;0.000000;;
  }

  Material  {
   1.000000;1.000000;1.000000;1.000000;;
   0.000000;
   0.000000;0.000000;0.000000;;
   0.000000;0.000000;0.000000;;

   TextureFilename  {
    "oldform.dds";
   }
  }
 }

 MeshTextureCoords  {
  26;
  0.000000;0.000000;,
  0.000000;0.000000;,
  0.000000;0.000000;,
  0.000000;0.000000;,
  0.000000;0.000000;,
  0.000000;0.000000;,
  0.000000;0.000000;,
  0.000000;0.000000;,
  0.000000;0.000000;,
  0.000000;0.000000;,
  0.000000;0.000000;,
  0.000000;0.000000;,
  0.000000;0.000000;,
  0.000000;0.000000;,
  0.000000;0.000000;,
  0.000000;0.000000;,
  0.000000;0.000000;,
  0.000000;0.000000;,
  0.000000;0.000000;,
  2.000000;0.000000;,
  0.000000;0.023000;,
  2.000000;0.030000;,
  0.000000;0.900000;,
  2.000000;0.900000;,
  0.000000;1.000000;,
  2.000000;1.000000;;
 }

 MeshNormals  {
  17;
  0.000000;0.975507;-0.219967;,
  0.000000;0.975507;-0.219967;,
  1.000000;0.000000;0.000000;,
  1.000000;0.000000;0.000000;,
  0.000000;0.000000;-1.000000;,
  0.000000;0.000000;0.000000;,
  0.000000;0.000000;-1.000000;,
  0.000000;0.000000;0.000000;,
  0.000000;0.000000;-1.000000;,
  0.000000;0.975507;-0.219967;,
  0.000000;0.975507;-0.219967;,
  -0.698287;0.698286;-0.157457;,
  -0.698287;0.698285;-0.157457;,
  0.000000;0.000000;0.000000;,
  -1.000000;0.000000;0.000000;,
  -1.000000;0.000000;0.000000;,
  -1.000000;0.000000;0.000000;;
  17;
  3;0,0,0;,
  3;1,1,1;,
  3;2,2,2;,
  3;3,3,3;,
  3;4,4,4;,
  3;5,5,5;,
  3;6,6,6;,
  3;7,7,7;,
  3;8,8,8;,
  3;9,9,9;,
  3;10,10,10;,
  3;11,11,11;,
  3;12,12,12;,
  3;13,13,13;,
  3;14,14,14;,
  3;15,15,15;,
  3;16,16,16;;
 }
}