xof 0303txt 0032
template Vector {
 <3d82ab5e-62da-11cf-ab39-0020af71e433>
 FLOAT x;
 FLOAT y;
 FLOAT z;
}

template MeshFace {
 <3d82ab5f-62da-11cf-ab39-0020af71e433>
 DWORD nFaceVertexIndices;
 array DWORD faceVertexIndices[nFaceVertexIndices];
}

template Mesh {
 <3d82ab44-62da-11cf-ab39-0020af71e433>
 DWORD nVertices;
 array Vector vertices[nVertices];
 DWORD nFaces;
 array MeshFace faces[nFaces];
 [...]
}

template ColorRGBA {
 <35ff44e0-6c7c-11cf-8f52-0040333594a3>
 FLOAT red;
 FLOAT green;
 FLOAT blue;
 FLOAT alpha;
}

template ColorRGB {
 <d3e16e81-7835-11cf-8f52-0040333594a3>
 FLOAT red;
 FLOAT green;
 FLOAT blue;
}

template Material {
 <3d82ab4d-62da-11cf-ab39-0020af71e433>
 ColorRGBA faceColor;
 FLOAT power;
 ColorRGB specularColor;
 ColorRGB emissiveColor;
 [...]
}

template MeshMaterialList {
 <f6f23f42-7686-11cf-8f52-0040333594a3>
 DWORD nMaterials;
 DWORD nFaceIndexes;
 array DWORD faceIndexes[nFaceIndexes];
 [Material <3d82ab4d-62da-11cf-ab39-0020af71e433>]
}

template TextureFilename {
 <a42790e1-7810-11cf-8f52-0040333594a3>
 STRING filename;
}

template Coords2d {
 <f6f23f44-7686-11cf-8f52-0040333594a3>
 FLOAT u;
 FLOAT v;
}

template MeshTextureCoords {
 <f6f23f40-7686-11cf-8f52-0040333594a3>
 DWORD nTextureCoords;
 array Coords2d textureCoords[nTextureCoords];
}

template MeshNormals {
 <f6f23f43-7686-11cf-8f52-0040333594a3>
 DWORD nNormals;
 array Vector normals[nNormals];
 DWORD nFaceNormals;
 array MeshFace faceNormals[nFaceNormals];
}


Mesh  {
 22;
 -2.700000;0.760000;0.000000;,
 -2.700000;0.760000;5.100000;,
 -1.550000;0.760000;0.000000;,
 -1.550000;0.760000;5.100000;,
 -1.550000;0.760000;0.000000;,
 -1.550000;0.760000;5.100000;,
 -1.500000;0.710000;0.000000;,
 -1.500000;0.710000;5.100000;,
 -1.500000;-0.100000;0.000000;,
 -1.500000;-0.100000;5.100000;,
 -1.500000;-0.500000;0.000000;,
 -1.500000;-0.500000;5.100000;,
 -2.700000;-0.500000;0.000000;,
 -2.700000;-0.500000;5.100000;,
 -1.550000;0.760000;0.000000;,
 -1.550000;0.760000;5.100000;,
 -1.500000;0.710000;0.000000;,
 -1.500000;0.710000;5.100000;,
 -1.500000;-0.100000;0.000000;,
 -1.500000;-0.100000;5.100000;,
 -1.500000;-0.500000;0.000000;,
 -1.500000;-0.500000;5.100000;;
 15;
 3;0,1,3;,
 3;0,3,2;,
 3;1,0,12;,
 3;1,12,13;,
 3;0,2,12;,
 3;2,4,12;,
 3;4,6,12;,
 3;6,8,12;,
 3;8,10,12;,
 3;14,15,17;,
 3;14,17,16;,
 3;16,17,19;,
 3;16,19,18;,
 3;18,19,21;,
 3;18,21,20;;

 MeshMaterialList  {
  2;
  15;
  0,
  0,
  0,
  0,
  0,
  0,
  0,
  0,
  0,
  1,
  1,
  1,
  1,
  1,
  1;

  Material  {
   0.549020;0.568627;0.549020;1.000000;;
   0.000000;
   0.000000;0.000000;0.000000;;
   0.000000;0.000000;0.000000;;
  }

  Material  {
   1.000000;1.000000;1.000000;1.000000;;
   0.000000;
   0.000000;0.000000;0.000000;;
   0.000000;0.000000;0.000000;;

   TextureFilename  {
    "oldform.dds";
   }
  }
 }

 MeshTextureCoords  {
  22;
  0.000000;0.000000;,
  0.000000;0.000000;,
  0.000000;0.000000;,
  0.000000;0.000000;,
  0.000000;0.000000;,
  0.000000;0.000000;,
  0.000000;0.000000;,
  0.000000;0.000000;,
  0.000000;0.000000;,
  0.000000;0.000000;,
  0.000000;0.000000;,
  0.000000;0.000000;,
  0.000000;0.000000;,
  0.000000;0.000000;,
  0.000000;0.000000;,
  2.000000;0.000000;,
  0.000000;0.023000;,
  2.000000;0.030000;,
  0.000000;0.900000;,
  2.000000;0.900000;,
  0.000000;1.000000;,
  2.000000;1.000000;;
 }

 MeshNormals  {
  15;
  0.000000;1.000000;0.000000;,
  0.000000;1.000000;0.000000;,
  -1.000000;0.000000;0.000000;,
  -1.000000;0.000000;0.000000;,
  0.000000;0.000000;-1.000000;,
  0.000000;0.000000;0.000000;,
  0.000000;0.000000;-1.000000;,
  0.000000;0.000000;-1.000000;,
  0.000000;0.000000;-1.000000;,
  0.707107;0.707106;0.000000;,
  0.707107;0.707106;0.000000;,
  1.000000;0.000000;0.000000;,
  1.000000;0.000000;0.000000;,
  1.000000;0.000000;0.000000;,
  1.000000;0.000000;0.000000;;
  15;
  3;0,0,0;,
  3;1,1,1;,
  3;2,2,2;,
  3;3,3,3;,
  3;4,4,4;,
  3;5,5,5;,
  3;6,6,6;,
  3;7,7,7;,
  3;8,8,8;,
  3;9,9,9;,
  3;10,10,10;,
  3;11,11,11;,
  3;12,12,12;,
  3;13,13,13;,
  3;14,14,14;;
 }
}