xof 0303txt 0032
template Vector {
 <3d82ab5e-62da-11cf-ab39-0020af71e433>
 FLOAT x;
 FLOAT y;
 FLOAT z;
}

template MeshFace {
 <3d82ab5f-62da-11cf-ab39-0020af71e433>
 DWORD nFaceVertexIndices;
 array DWORD faceVertexIndices[nFaceVertexIndices];
}

template Mesh {
 <3d82ab44-62da-11cf-ab39-0020af71e433>
 DWORD nVertices;
 array Vector vertices[nVertices];
 DWORD nFaces;
 array MeshFace faces[nFaces];
 [...]
}

template ColorRGBA {
 <35ff44e0-6c7c-11cf-8f52-0040333594a3>
 FLOAT red;
 FLOAT green;
 FLOAT blue;
 FLOAT alpha;
}

template ColorRGB {
 <d3e16e81-7835-11cf-8f52-0040333594a3>
 FLOAT red;
 FLOAT green;
 FLOAT blue;
}

template Material {
 <3d82ab4d-62da-11cf-ab39-0020af71e433>
 ColorRGBA faceColor;
 FLOAT power;
 ColorRGB specularColor;
 ColorRGB emissiveColor;
 [...]
}

template MeshMaterialList {
 <f6f23f42-7686-11cf-8f52-0040333594a3>
 DWORD nMaterials;
 DWORD nFaceIndexes;
 array DWORD faceIndexes[nFaceIndexes];
 [Material <3d82ab4d-62da-11cf-ab39-0020af71e433>]
}

template Coords2d {
 <f6f23f44-7686-11cf-8f52-0040333594a3>
 FLOAT u;
 FLOAT v;
}

template MeshTextureCoords {
 <f6f23f40-7686-11cf-8f52-0040333594a3>
 DWORD nTextureCoords;
 array Coords2d textureCoords[nTextureCoords];
}

template MeshNormals {
 <f6f23f43-7686-11cf-8f52-0040333594a3>
 DWORD nNormals;
 array Vector normals[nNormals];
 DWORD nFaceNormals;
 array MeshFace faceNormals[nFaceNormals];
}


Mesh  {
 64;
 -0.050000;1.100000;-20.000000;,
 -0.050000;1.100000;-19.000000;,
 0.050000;1.100000;-20.000000;,
 0.050000;1.100000;-19.000000;,
 -0.050000;2.300000;-20.000000;,
 -0.050000;2.300000;-19.000000;,
 0.050000;2.300000;-20.000000;,
 0.050000;2.300000;-19.000000;,
 -0.050000;1.100000;-15.200000;,
 -0.050000;1.100000;-11.800000;,
 0.050000;1.100000;-15.200000;,
 0.050000;1.100000;-11.800000;,
 -0.050000;2.300000;-15.200000;,
 -0.050000;2.300000;-11.800000;,
 0.050000;2.300000;-15.200000;,
 0.050000;2.300000;-11.800000;,
 -0.050000;1.100000;-8.200000;,
 -0.050000;1.100000;-4.600000;,
 0.050000;1.100000;-8.200000;,
 0.050000;1.100000;-4.600000;,
 -0.050000;2.300000;-8.200000;,
 -0.050000;2.300000;-4.600000;,
 0.050000;2.300000;-8.200000;,
 0.050000;2.300000;-4.600000;,
 -0.050000;1.100000;-1.000000;,
 -0.050000;1.100000;0.000000;,
 0.050000;1.100000;-1.000000;,
 0.050000;1.100000;0.000000;,
 -0.050000;2.300000;-1.000000;,
 -0.050000;2.300000;0.000000;,
 0.050000;2.300000;-1.000000;,
 0.050000;2.300000;0.000000;,
 -0.051000;1.900000;-20.010000;,
 -0.051000;1.900000;-18.990000;,
 0.051000;1.900000;-20.010000;,
 0.051000;1.900000;-19.000000;,
 -0.051000;2.100000;-20.010000;,
 -0.051000;2.100000;-19.000000;,
 0.051000;2.100000;-20.010000;,
 0.051000;2.100000;-19.000000;,
 -0.051000;1.900000;-15.210000;,
 -0.051000;1.900000;-11.800000;,
 0.051000;1.900000;-15.210000;,
 0.051000;1.900000;-11.800000;,
 -0.051000;2.100000;-15.210000;,
 -0.051000;2.100000;-11.800000;,
 0.051000;2.100000;-15.210000;,
 0.051000;2.100000;-11.800000;,
 -0.051000;1.900000;-8.210000;,
 -0.051000;1.900000;-4.600000;,
 0.051000;1.900000;-8.210000;,
 0.051000;1.900000;-4.600000;,
 -0.051000;2.100000;-8.210000;,
 -0.051000;2.100000;-4.600000;,
 0.051000;2.100000;-8.210000;,
 0.051000;2.100000;-4.600000;,
 -0.051000;1.900000;-1.010000;,
 -0.051000;1.900000;0.000000;,
 0.051000;1.900000;-1.010000;,
 0.051000;1.900000;0.000000;,
 -0.051000;2.100000;-1.010000;,
 -0.051000;2.100000;0.000000;,
 0.051000;2.100000;-1.010000;,
 0.051000;2.100000;0.000000;;
 64;
 3;0,4,6;,
 3;0,6,2;,
 3;0,1,5;,
 3;0,5,4;,
 3;2,6,7;,
 3;2,7,3;,
 3;4,5,7;,
 3;4,7,6;,
 3;8,12,14;,
 3;8,14,10;,
 3;8,9,13;,
 3;8,13,12;,
 3;10,14,15;,
 3;10,15,11;,
 3;12,13,15;,
 3;12,15,14;,
 3;16,20,22;,
 3;16,22,18;,
 3;16,17,21;,
 3;16,21,20;,
 3;18,22,23;,
 3;18,23,19;,
 3;20,21,23;,
 3;20,23,22;,
 3;24,28,30;,
 3;24,30,26;,
 3;24,25,29;,
 3;24,29,28;,
 3;26,30,31;,
 3;26,31,27;,
 3;28,29,31;,
 3;28,31,30;,
 3;32,36,38;,
 3;32,38,34;,
 3;32,33,37;,
 3;32,37,36;,
 3;34,38,39;,
 3;34,39,35;,
 3;36,37,39;,
 3;36,39,38;,
 3;40,44,46;,
 3;40,46,42;,
 3;40,41,45;,
 3;40,45,44;,
 3;42,46,47;,
 3;42,47,43;,
 3;44,45,47;,
 3;44,47,46;,
 3;48,52,54;,
 3;48,54,50;,
 3;48,49,53;,
 3;48,53,52;,
 3;50,54,55;,
 3;50,55,51;,
 3;52,53,55;,
 3;52,55,54;,
 3;56,60,62;,
 3;56,62,58;,
 3;56,57,61;,
 3;56,61,60;,
 3;58,62,63;,
 3;58,63,59;,
 3;60,61,63;,
 3;60,63,62;;

 MeshMaterialList  {
  2;
  64;
  0,
  0,
  0,
  0,
  0,
  0,
  0,
  0,
  0,
  0,
  0,
  0,
  0,
  0,
  0,
  0,
  0,
  0,
  0,
  0,
  0,
  0,
  0,
  0,
  0,
  0,
  0,
  0,
  0,
  0,
  0,
  0,
  1,
  1,
  1,
  1,
  1,
  1,
  1,
  1,
  1,
  1,
  1,
  1,
  1,
  1,
  1,
  1,
  1,
  1,
  1,
  1,
  1,
  1,
  1,
  1,
  1,
  1,
  1,
  1,
  1,
  1,
  1,
  1;

  Material  {
   0.764706;0.764706;0.764706;1.000000;;
   0.000000;
   0.000000;0.000000;0.000000;;
   0.000000;0.000000;0.000000;;
  }

  Material  {
   0.039216;1.000000;0.039216;1.000000;;
   0.000000;
   0.000000;0.000000;0.000000;;
   0.000000;0.000000;0.000000;;
  }
 }

 MeshTextureCoords  {
  64;
  0.000000;0.000000;,
  0.000000;0.000000;,
  0.000000;0.000000;,
  0.000000;0.000000;,
  0.000000;0.000000;,
  0.000000;0.000000;,
  0.000000;0.000000;,
  0.000000;0.000000;,
  0.000000;0.000000;,
  0.000000;0.000000;,
  0.000000;0.000000;,
  0.000000;0.000000;,
  0.000000;0.000000;,
  0.000000;0.000000;,
  0.000000;0.000000;,
  0.000000;0.000000;,
  0.000000;0.000000;,
  0.000000;0.000000;,
  0.000000;0.000000;,
  0.000000;0.000000;,
  0.000000;0.000000;,
  0.000000;0.000000;,
  0.000000;0.000000;,
  0.000000;0.000000;,
  0.000000;0.000000;,
  0.000000;0.000000;,
  0.000000;0.000000;,
  0.000000;0.000000;,
  0.000000;0.000000;,
  0.000000;0.000000;,
  0.000000;0.000000;,
  0.000000;0.000000;,
  0.000000;0.000000;,
  0.000000;0.000000;,
  0.000000;0.000000;,
  0.000000;0.000000;,
  0.000000;0.000000;,
  0.000000;0.000000;,
  0.000000;0.000000;,
  0.000000;0.000000;,
  0.000000;0.000000;,
  0.000000;0.000000;,
  0.000000;0.000000;,
  0.000000;0.000000;,
  0.000000;0.000000;,
  0.000000;0.000000;,
  0.000000;0.000000;,
  0.000000;0.000000;,
  0.000000;0.000000;,
  0.000000;0.000000;,
  0.000000;0.000000;,
  0.000000;0.000000;,
  0.000000;0.000000;,
  0.000000;0.000000;,
  0.000000;0.000000;,
  0.000000;0.000000;,
  0.000000;0.000000;,
  0.000000;0.000000;,
  0.000000;0.000000;,
  0.000000;0.000000;,
  0.000000;0.000000;,
  0.000000;0.000000;,
  0.000000;0.000000;,
  0.000000;0.000000;;
 }

 MeshNormals  {
  64;
  0.000000;0.000000;-1.000000;,
  0.000000;0.000000;-1.000000;,
  -1.000000;0.000000;0.000000;,
  -1.000000;0.000000;0.000000;,
  1.000000;0.000000;0.000000;,
  1.000000;0.000000;0.000000;,
  0.000000;1.000000;0.000000;,
  0.000000;1.000000;0.000000;,
  0.000000;0.000000;-1.000000;,
  0.000000;0.000000;-1.000000;,
  -1.000000;0.000000;0.000000;,
  -1.000000;0.000000;0.000000;,
  1.000000;0.000000;0.000000;,
  1.000000;0.000000;0.000000;,
  0.000000;1.000000;0.000000;,
  0.000000;1.000000;0.000000;,
  0.000000;0.000000;-1.000000;,
  0.000000;0.000000;-1.000000;,
  -1.000000;0.000000;0.000000;,
  -1.000000;0.000000;0.000000;,
  1.000000;0.000000;0.000000;,
  1.000000;0.000000;0.000000;,
  0.000000;1.000000;0.000000;,
  0.000000;1.000000;0.000000;,
  0.000000;0.000000;-1.000000;,
  0.000000;0.000000;-1.000000;,
  -1.000000;0.000000;0.000000;,
  -1.000000;0.000000;0.000000;,
  1.000000;0.000000;0.000000;,
  1.000000;0.000000;0.000000;,
  0.000000;1.000000;0.000000;,
  0.000000;1.000000;0.000000;,
  0.000000;0.000000;-1.000000;,
  0.000000;0.000000;-1.000000;,
  -1.000000;0.000000;0.000000;,
  -1.000000;0.000000;0.000000;,
  1.000000;0.000000;0.000000;,
  1.000000;0.000000;0.000000;,
  0.000000;1.000000;0.000000;,
  0.000000;1.000000;0.000000;,
  0.000000;0.000000;-1.000000;,
  0.000000;0.000000;-1.000000;,
  -1.000000;0.000000;0.000000;,
  -1.000000;0.000000;0.000000;,
  1.000000;0.000000;0.000000;,
  1.000000;0.000000;0.000000;,
  0.000000;1.000000;0.000000;,
  0.000000;1.000000;0.000000;,
  0.000000;0.000000;-1.000000;,
  0.000000;0.000000;-1.000000;,
  -1.000000;0.000000;0.000000;,
  -1.000000;0.000000;0.000000;,
  1.000000;0.000000;0.000000;,
  1.000000;0.000000;0.000000;,
  0.000000;1.000000;0.000000;,
  0.000000;1.000000;0.000000;,
  0.000000;0.000000;-1.000000;,
  0.000000;0.000000;-1.000000;,
  -1.000000;0.000000;0.000000;,
  -1.000000;0.000000;0.000000;,
  1.000000;0.000000;0.000000;,
  1.000000;0.000000;0.000000;,
  0.000000;1.000000;0.000000;,
  0.000000;1.000000;0.000000;;
  64;
  3;0,0,0;,
  3;1,1,1;,
  3;2,2,2;,
  3;3,3,3;,
  3;4,4,4;,
  3;5,5,5;,
  3;6,6,6;,
  3;7,7,7;,
  3;8,8,8;,
  3;9,9,9;,
  3;10,10,10;,
  3;11,11,11;,
  3;12,12,12;,
  3;13,13,13;,
  3;14,14,14;,
  3;15,15,15;,
  3;16,16,16;,
  3;17,17,17;,
  3;18,18,18;,
  3;19,19,19;,
  3;20,20,20;,
  3;21,21,21;,
  3;22,22,22;,
  3;23,23,23;,
  3;24,24,24;,
  3;25,25,25;,
  3;26,26,26;,
  3;27,27,27;,
  3;28,28,28;,
  3;29,29,29;,
  3;30,30,30;,
  3;31,31,31;,
  3;32,32,32;,
  3;33,33,33;,
  3;34,34,34;,
  3;35,35,35;,
  3;36,36,36;,
  3;37,37,37;,
  3;38,38,38;,
  3;39,39,39;,
  3;40,40,40;,
  3;41,41,41;,
  3;42,42,42;,
  3;43,43,43;,
  3;44,44,44;,
  3;45,45,45;,
  3;46,46,46;,
  3;47,47,47;,
  3;48,48,48;,
  3;49,49,49;,
  3;50,50,50;,
  3;51,51,51;,
  3;52,52,52;,
  3;53,53,53;,
  3;54,54,54;,
  3;55,55,55;,
  3;56,56,56;,
  3;57,57,57;,
  3;58,58,58;,
  3;59,59,59;,
  3;60,60,60;,
  3;61,61,61;,
  3;62,62,62;,
  3;63,63,63;;
 }
}