xof 0303txt 0032
template Vector {
 <3d82ab5e-62da-11cf-ab39-0020af71e433>
 FLOAT x;
 FLOAT y;
 FLOAT z;
}

template MeshFace {
 <3d82ab5f-62da-11cf-ab39-0020af71e433>
 DWORD nFaceVertexIndices;
 array DWORD faceVertexIndices[nFaceVertexIndices];
}

template Mesh {
 <3d82ab44-62da-11cf-ab39-0020af71e433>
 DWORD nVertices;
 array Vector vertices[nVertices];
 DWORD nFaces;
 array MeshFace faces[nFaces];
 [...]
}

template ColorRGBA {
 <35ff44e0-6c7c-11cf-8f52-0040333594a3>
 FLOAT red;
 FLOAT green;
 FLOAT blue;
 FLOAT alpha;
}

template ColorRGB {
 <d3e16e81-7835-11cf-8f52-0040333594a3>
 FLOAT red;
 FLOAT green;
 FLOAT blue;
}

template Material {
 <3d82ab4d-62da-11cf-ab39-0020af71e433>
 ColorRGBA faceColor;
 FLOAT power;
 ColorRGB specularColor;
 ColorRGB emissiveColor;
 [...]
}

template MeshMaterialList {
 <f6f23f42-7686-11cf-8f52-0040333594a3>
 DWORD nMaterials;
 DWORD nFaceIndexes;
 array DWORD faceIndexes[nFaceIndexes];
 [Material <3d82ab4d-62da-11cf-ab39-0020af71e433>]
}

template TextureFilename {
 <a42790e1-7810-11cf-8f52-0040333594a3>
 STRING filename;
}

template Coords2d {
 <f6f23f44-7686-11cf-8f52-0040333594a3>
 FLOAT u;
 FLOAT v;
}

template MeshTextureCoords {
 <f6f23f40-7686-11cf-8f52-0040333594a3>
 DWORD nTextureCoords;
 array Coords2d textureCoords[nTextureCoords];
}

template MeshNormals {
 <f6f23f43-7686-11cf-8f52-0040333594a3>
 DWORD nNormals;
 array Vector normals[nNormals];
 DWORD nFaceNormals;
 array MeshFace faceNormals[nFaceNormals];
}


Mesh  {
 84;
 -5.570000;5.000000;-30.000000;,
 1.700000;5.000000;-30.000000;,
 8.970000;5.000000;-30.000000;,
 -5.570000;-1.300000;-30.000000;,
 1.700000;-1.300000;-30.000000;,
 8.970000;-1.300000;-30.000000;,
 -5.570000;5.000000;0.000000;,
 1.700000;5.000000;0.000000;,
 8.970000;5.000000;0.000000;,
 -5.570000;-1.300000;0.000000;,
 1.700000;-1.300000;0.000000;,
 8.970000;-1.300000;0.000000;,
 -5.570000;5.000000;-25.000000;,
 1.700000;5.000000;-25.000000;,
 8.970000;5.000000;-25.000000;,
 -5.570000;-1.300000;-25.000000;,
 1.700000;-1.300000;-25.000000;,
 8.970000;-1.300000;-25.000000;,
 -5.570000;5.000000;-20.000000;,
 1.700000;5.000000;-20.000000;,
 8.970000;5.000000;-20.000000;,
 -5.570000;-1.300000;-20.000000;,
 1.700000;-1.300000;-20.000000;,
 8.970000;-1.300000;-20.000000;,
 -5.570000;5.000000;-15.000000;,
 1.700000;5.000000;-15.000000;,
 8.970000;5.000000;-15.000000;,
 -5.570000;-1.300000;-15.000000;,
 1.700000;-1.300000;-15.000000;,
 8.970000;-1.300000;-15.000000;,
 -5.570000;5.000000;-10.000000;,
 1.700000;5.000000;-10.000000;,
 8.970000;5.000000;-10.000000;,
 -5.570000;-1.300000;-10.000000;,
 1.700000;-1.300000;-10.000000;,
 8.970000;-1.300000;-10.000000;,
 -5.570000;5.000000;-5.000000;,
 1.700000;5.000000;-5.000000;,
 8.970000;5.000000;-5.000000;,
 -5.570000;-1.300000;-5.000000;,
 1.700000;-1.300000;-5.000000;,
 8.970000;-1.300000;-5.000000;,
 -1.400000;0.000000;-29.998999;,
 -1.400000;-0.400000;-29.998999;,
 -4.520000;-0.400000;-29.998999;,
 -4.520000;0.000000;-29.998999;,
 -1.400000;0.000000;-0.001000;,
 -1.400000;-0.400000;-0.001000;,
 -4.520000;-0.400000;-0.001000;,
 -4.520000;0.000000;-0.001000;,
 7.920000;0.000000;-29.998999;,
 7.920000;-0.400000;-29.998999;,
 4.800000;-0.400000;-29.998999;,
 4.800000;0.000000;-29.998999;,
 7.920000;0.000000;-0.001000;,
 7.920000;-0.400000;-0.001000;,
 4.800000;-0.400000;-0.001000;,
 4.800000;0.000000;-0.001000;,
 -5.570000;-1.000000;-30.000000;,
 -5.570000;-1.000000;0.000000;,
 -5.570000;0.700000;-30.000000;,
 -5.570000;0.700000;0.000000;,
 -5.270000;2.000000;-30.000000;,
 -5.270000;2.000000;0.000000;,
 -4.470000;3.500000;-30.000000;,
 -4.470000;3.500000;0.000000;,
 -3.270000;4.300000;-30.000000;,
 -3.270000;4.300000;0.000000;,
 -2.270000;4.700000;-30.000000;,
 -2.270000;4.700000;0.000000;,
 1.700000;5.000000;-30.000000;,
 1.700000;5.000000;0.000000;,
 5.670000;4.700000;-30.000000;,
 5.670000;4.700000;0.000000;,
 6.670000;4.300000;-30.000000;,
 6.670000;4.300000;0.000000;,
 7.870000;3.500000;-30.000000;,
 7.870000;3.500000;0.000000;,
 8.600000;2.000000;-30.000000;,
 8.600000;2.000000;0.000000;,
 8.970000;0.700000;-30.000000;,
 8.970000;0.700000;0.000000;,
 8.970000;-1.000000;-30.000000;,
 8.970000;-1.000000;0.000000;;
 128;
 3;0,1,4;,
 3;0,4,3;,
 3;3,4,1;,
 3;3,1,0;,
 3;1,2,5;,
 3;1,5,4;,
 3;4,5,2;,
 3;4,2,1;,
 3;6,7,10;,
 3;6,10,9;,
 3;9,10,7;,
 3;9,7,6;,
 3;7,8,11;,
 3;7,11,10;,
 3;10,11,8;,
 3;10,8,7;,
 3;12,13,16;,
 3;12,16,15;,
 3;15,16,13;,
 3;15,13,12;,
 3;13,14,17;,
 3;13,17,16;,
 3;16,17,14;,
 3;16,14,13;,
 3;18,19,22;,
 3;18,22,21;,
 3;21,22,19;,
 3;21,19,18;,
 3;19,20,23;,
 3;19,23,22;,
 3;22,23,20;,
 3;22,20,19;,
 3;24,25,28;,
 3;24,28,27;,
 3;27,28,25;,
 3;27,25,24;,
 3;25,26,29;,
 3;25,29,28;,
 3;28,29,26;,
 3;28,26,25;,
 3;30,31,34;,
 3;30,34,33;,
 3;33,34,31;,
 3;33,31,30;,
 3;31,32,35;,
 3;31,35,34;,
 3;34,35,32;,
 3;34,32,31;,
 3;36,37,40;,
 3;36,40,39;,
 3;39,40,37;,
 3;39,37,36;,
 3;37,38,41;,
 3;37,41,40;,
 3;40,41,38;,
 3;40,38,37;,
 3;42,43,44;,
 3;42,44,45;,
 3;45,44,48;,
 3;45,48,49;,
 3;49,48,47;,
 3;49,47,46;,
 3;46,47,43;,
 3;46,43,42;,
 3;42,45,49;,
 3;42,49,46;,
 3;43,47,48;,
 3;43,48,44;,
 3;50,51,52;,
 3;50,52,53;,
 3;53,52,56;,
 3;53,56,57;,
 3;57,56,55;,
 3;57,55,54;,
 3;54,55,51;,
 3;54,51,50;,
 3;50,53,57;,
 3;50,57,54;,
 3;51,55,56;,
 3;51,56,52;,
 3;58,59,61;,
 3;58,61,60;,
 3;60,61,59;,
 3;60,59,58;,
 3;60,61,63;,
 3;60,63,62;,
 3;62,63,61;,
 3;62,61,60;,
 3;62,63,65;,
 3;62,65,64;,
 3;64,65,63;,
 3;64,63,62;,
 3;64,65,67;,
 3;64,67,66;,
 3;66,67,65;,
 3;66,65,64;,
 3;66,67,69;,
 3;66,69,68;,
 3;68,69,67;,
 3;68,67,66;,
 3;68,69,71;,
 3;68,71,70;,
 3;70,71,69;,
 3;70,69,68;,
 3;70,71,73;,
 3;70,73,72;,
 3;72,73,71;,
 3;72,71,70;,
 3;72,73,75;,
 3;72,75,74;,
 3;74,75,73;,
 3;74,73,72;,
 3;74,75,77;,
 3;74,77,76;,
 3;76,77,75;,
 3;76,75,74;,
 3;76,77,79;,
 3;76,79,78;,
 3;78,79,77;,
 3;78,77,76;,
 3;78,79,81;,
 3;78,81,80;,
 3;80,81,79;,
 3;80,79,78;,
 3;80,81,83;,
 3;80,83,82;,
 3;82,83,81;,
 3;82,81,80;;

 MeshMaterialList  {
  5;
  128;
  0,
  0,
  0,
  0,
  0,
  0,
  0,
  0,
  0,
  0,
  0,
  0,
  0,
  0,
  0,
  0,
  1,
  1,
  1,
  1,
  1,
  1,
  1,
  1,
  1,
  1,
  1,
  1,
  1,
  1,
  1,
  1,
  1,
  1,
  1,
  1,
  1,
  1,
  1,
  1,
  1,
  1,
  1,
  1,
  1,
  1,
  1,
  1,
  1,
  1,
  1,
  1,
  1,
  1,
  1,
  1,
  2,
  2,
  2,
  2,
  2,
  2,
  2,
  2,
  2,
  2,
  2,
  2,
  3,
  3,
  3,
  3,
  3,
  3,
  3,
  3,
  3,
  3,
  3,
  3,
  4,
  4,
  4,
  4,
  4,
  4,
  4,
  4,
  4,
  4,
  4,
  4,
  4,
  4,
  4,
  4,
  4,
  4,
  4,
  4,
  4,
  4,
  4,
  4,
  4,
  4,
  4,
  4,
  4,
  4,
  4,
  4,
  4,
  4,
  4,
  4,
  4,
  4,
  4,
  4,
  4,
  4,
  4,
  4,
  4,
  4,
  4,
  4;

  Material  {
   1.000000;1.000000;1.000000;1.000000;;
   0.000000;
   0.000000;0.000000;0.000000;;
   0.000000;0.000000;0.000000;;

   TextureFilename  {
    "yutorista0200.dds";
   }
  }

  Material  {
   1.000000;1.000000;1.000000;1.000000;;
   0.000000;
   0.000000;0.000000;0.000000;;
   0.000000;0.000000;0.000000;;

   TextureFilename  {
    "yutorista0201.dds";
   }
  }

  Material  {
   0.627451;0.627451;0.627451;1.000000;;
   0.000000;
   0.000000;0.000000;0.000000;;
   0.000000;0.000000;0.000000;;
  }

  Material  {
   0.627451;0.627451;0.627451;1.000000;;
   0.000000;
   0.000000;0.000000;0.000000;;
   0.000000;0.000000;0.000000;;
  }

  Material  {
   0.588235;0.588235;0.588235;1.000000;;
   0.000000;
   0.000000;0.000000;0.000000;;
   0.000000;0.000000;0.000000;;
  }
 }

 MeshTextureCoords  {
  84;
  0.000000;0.000000;,
  1.000000;0.000000;,
  0.000000;0.000000;,
  0.000000;1.000000;,
  1.000000;1.000000;,
  0.000000;1.000000;,
  0.000000;0.000000;,
  1.000000;0.000000;,
  0.000000;0.000000;,
  0.000000;1.000000;,
  1.000000;1.000000;,
  0.000000;1.000000;,
  0.000000;0.000000;,
  1.000000;0.000000;,
  0.000000;0.000000;,
  0.000000;1.000000;,
  1.000000;1.000000;,
  0.000000;1.000000;,
  0.000000;0.000000;,
  1.000000;0.000000;,
  0.000000;0.000000;,
  0.000000;1.000000;,
  1.000000;1.000000;,
  0.000000;1.000000;,
  0.000000;0.000000;,
  1.000000;0.000000;,
  0.000000;0.000000;,
  0.000000;1.000000;,
  1.000000;1.000000;,
  0.000000;1.000000;,
  0.000000;0.000000;,
  1.000000;0.000000;,
  0.000000;0.000000;,
  0.000000;1.000000;,
  1.000000;1.000000;,
  0.000000;1.000000;,
  0.000000;0.000000;,
  1.000000;0.000000;,
  0.000000;0.000000;,
  0.000000;1.000000;,
  1.000000;1.000000;,
  0.000000;1.000000;,
  0.000000;0.000000;,
  0.000000;0.000000;,
  0.000000;0.000000;,
  0.000000;0.000000;,
  0.000000;0.000000;,
  0.000000;0.000000;,
  0.000000;0.000000;,
  0.000000;0.000000;,
  0.000000;0.000000;,
  0.000000;0.000000;,
  0.000000;0.000000;,
  0.000000;0.000000;,
  0.000000;0.000000;,
  0.000000;0.000000;,
  0.000000;0.000000;,
  0.000000;0.000000;,
  0.000000;0.000000;,
  0.000000;0.000000;,
  0.000000;0.000000;,
  0.000000;0.000000;,
  0.000000;0.000000;,
  0.000000;0.000000;,
  0.000000;0.000000;,
  0.000000;0.000000;,
  0.000000;0.000000;,
  0.000000;0.000000;,
  0.000000;0.000000;,
  0.000000;0.000000;,
  0.000000;0.000000;,
  0.000000;0.000000;,
  0.000000;0.000000;,
  0.000000;0.000000;,
  0.000000;0.000000;,
  0.000000;0.000000;,
  0.000000;0.000000;,
  0.000000;0.000000;,
  0.000000;0.000000;,
  0.000000;0.000000;,
  0.000000;0.000000;,
  0.000000;0.000000;,
  0.000000;0.000000;,
  0.000000;0.000000;;
 }

 MeshNormals  {
  128;
  0.000000;0.000000;-1.000000;,
  0.000000;0.000000;-1.000000;,
  0.000000;0.000000;1.000000;,
  0.000000;0.000000;1.000000;,
  0.000000;0.000000;-1.000000;,
  0.000000;0.000000;-1.000000;,
  0.000000;0.000000;1.000000;,
  0.000000;0.000000;1.000000;,
  0.000000;0.000000;-1.000000;,
  0.000000;0.000000;-1.000000;,
  0.000000;0.000000;1.000000;,
  0.000000;0.000000;1.000000;,
  0.000000;0.000000;-1.000000;,
  0.000000;0.000000;-1.000000;,
  0.000000;0.000000;1.000000;,
  0.000000;0.000000;1.000000;,
  0.000000;0.000000;-1.000000;,
  0.000000;0.000000;-1.000000;,
  0.000000;0.000000;1.000000;,
  0.000000;0.000000;1.000000;,
  0.000000;0.000000;-1.000000;,
  0.000000;0.000000;-1.000000;,
  0.000000;0.000000;1.000000;,
  0.000000;0.000000;1.000000;,
  0.000000;0.000000;-1.000000;,
  0.000000;0.000000;-1.000000;,
  0.000000;0.000000;1.000000;,
  0.000000;0.000000;1.000000;,
  0.000000;0.000000;-1.000000;,
  0.000000;0.000000;-1.000000;,
  0.000000;0.000000;1.000000;,
  0.000000;0.000000;1.000000;,
  0.000000;0.000000;-1.000000;,
  0.000000;0.000000;-1.000000;,
  0.000000;0.000000;1.000000;,
  0.000000;0.000000;1.000000;,
  0.000000;0.000000;-1.000000;,
  0.000000;0.000000;-1.000000;,
  0.000000;0.000000;1.000000;,
  0.000000;0.000000;1.000000;,
  0.000000;0.000000;-1.000000;,
  0.000000;0.000000;-1.000000;,
  0.000000;0.000000;1.000000;,
  0.000000;0.000000;1.000000;,
  0.000000;0.000000;-1.000000;,
  0.000000;0.000000;-1.000000;,
  0.000000;0.000000;1.000000;,
  0.000000;0.000000;1.000000;,
  0.000000;0.000000;-1.000000;,
  0.000000;0.000000;-1.000000;,
  0.000000;0.000000;1.000000;,
  0.000000;0.000000;1.000000;,
  0.000000;0.000000;-1.000000;,
  0.000000;0.000000;-1.000000;,
  0.000000;0.000000;1.000000;,
  0.000000;0.000000;1.000000;,
  0.000000;0.000000;-1.000000;,
  0.000000;0.000000;-1.000000;,
  -1.000000;0.000000;0.000000;,
  -1.000000;0.000000;0.000000;,
  0.000000;0.000000;1.000000;,
  0.000000;0.000000;1.000000;,
  1.000000;0.000000;0.000000;,
  1.000000;0.000000;0.000000;,
  0.000000;1.000000;0.000000;,
  0.000000;1.000000;0.000000;,
  0.000000;-1.000000;0.000000;,
  0.000000;-1.000000;0.000000;,
  0.000000;0.000000;-1.000000;,
  0.000000;0.000000;-1.000000;,
  -1.000000;0.000000;0.000000;,
  -1.000000;0.000000;0.000000;,
  0.000000;0.000000;1.000000;,
  0.000000;0.000000;1.000000;,
  1.000000;0.000000;0.000000;,
  1.000000;0.000000;0.000000;,
  0.000000;1.000000;0.000000;,
  0.000000;1.000000;0.000000;,
  0.000000;-1.000000;0.000000;,
  0.000000;-1.000000;0.000000;,
  -1.000000;0.000000;0.000000;,
  -1.000000;0.000000;0.000000;,
  1.000000;0.000000;0.000000;,
  1.000000;0.000000;0.000000;,
  -0.974391;0.224860;0.000000;,
  -0.974391;0.224860;0.000000;,
  0.974391;-0.224860;0.000000;,
  0.974391;-0.224860;0.000000;,
  -0.882353;0.470588;0.000000;,
  -0.882353;0.470588;0.000000;,
  0.882353;-0.470588;0.000000;,
  0.882353;-0.470588;0.000000;,
  -0.554700;0.832050;0.000000;,
  -0.554700;0.832050;0.000000;,
  0.554700;-0.832050;0.000000;,
  0.554700;-0.832050;0.000000;,
  -0.371390;0.928477;0.000000;,
  -0.371390;0.928477;0.000000;,
  0.371390;-0.928477;0.000000;,
  0.371390;-0.928477;0.000000;,
  -0.075352;0.997157;0.000000;,
  -0.075352;0.997157;0.000000;,
  0.075352;-0.997157;0.000000;,
  0.075352;-0.997157;0.000000;,
  0.075352;0.997157;0.000000;,
  0.075352;0.997157;0.000000;,
  -0.075352;-0.997157;0.000000;,
  -0.075352;-0.997157;0.000000;,
  0.371390;0.928477;0.000000;,
  0.371390;0.928477;0.000000;,
  -0.371390;-0.928477;0.000000;,
  -0.371390;-0.928477;0.000000;,
  0.554700;0.832050;0.000000;,
  0.554700;0.832050;0.000000;,
  -0.554700;-0.832050;0.000000;,
  -0.554700;-0.832050;0.000000;,
  0.899171;0.437597;0.000000;,
  0.899171;0.437597;0.000000;,
  -0.899171;-0.437597;0.000000;,
  -0.899171;-0.437597;0.000000;,
  0.961803;0.273744;0.000000;,
  0.961803;0.273744;0.000000;,
  -0.961803;-0.273744;0.000000;,
  -0.961803;-0.273744;0.000000;,
  1.000000;0.000000;0.000000;,
  1.000000;0.000000;0.000000;,
  -1.000000;0.000000;0.000000;,
  -1.000000;0.000000;0.000000;;
  128;
  3;0,0,0;,
  3;1,1,1;,
  3;2,2,2;,
  3;3,3,3;,
  3;4,4,4;,
  3;5,5,5;,
  3;6,6,6;,
  3;7,7,7;,
  3;8,8,8;,
  3;9,9,9;,
  3;10,10,10;,
  3;11,11,11;,
  3;12,12,12;,
  3;13,13,13;,
  3;14,14,14;,
  3;15,15,15;,
  3;16,16,16;,
  3;17,17,17;,
  3;18,18,18;,
  3;19,19,19;,
  3;20,20,20;,
  3;21,21,21;,
  3;22,22,22;,
  3;23,23,23;,
  3;24,24,24;,
  3;25,25,25;,
  3;26,26,26;,
  3;27,27,27;,
  3;28,28,28;,
  3;29,29,29;,
  3;30,30,30;,
  3;31,31,31;,
  3;32,32,32;,
  3;33,33,33;,
  3;34,34,34;,
  3;35,35,35;,
  3;36,36,36;,
  3;37,37,37;,
  3;38,38,38;,
  3;39,39,39;,
  3;40,40,40;,
  3;41,41,41;,
  3;42,42,42;,
  3;43,43,43;,
  3;44,44,44;,
  3;45,45,45;,
  3;46,46,46;,
  3;47,47,47;,
  3;48,48,48;,
  3;49,49,49;,
  3;50,50,50;,
  3;51,51,51;,
  3;52,52,52;,
  3;53,53,53;,
  3;54,54,54;,
  3;55,55,55;,
  3;56,56,56;,
  3;57,57,57;,
  3;58,58,58;,
  3;59,59,59;,
  3;60,60,60;,
  3;61,61,61;,
  3;62,62,62;,
  3;63,63,63;,
  3;64,64,64;,
  3;65,65,65;,
  3;66,66,66;,
  3;67,67,67;,
  3;68,68,68;,
  3;69,69,69;,
  3;70,70,70;,
  3;71,71,71;,
  3;72,72,72;,
  3;73,73,73;,
  3;74,74,74;,
  3;75,75,75;,
  3;76,76,76;,
  3;77,77,77;,
  3;78,78,78;,
  3;79,79,79;,
  3;80,80,80;,
  3;81,81,81;,
  3;82,82,82;,
  3;83,83,83;,
  3;84,84,84;,
  3;85,85,85;,
  3;86,86,86;,
  3;87,87,87;,
  3;88,88,88;,
  3;89,89,89;,
  3;90,90,90;,
  3;91,91,91;,
  3;92,92,92;,
  3;93,93,93;,
  3;94,94,94;,
  3;95,95,95;,
  3;96,96,96;,
  3;97,97,97;,
  3;98,98,98;,
  3;99,99,99;,
  3;100,100,100;,
  3;101,101,101;,
  3;102,102,102;,
  3;103,103,103;,
  3;104,104,104;,
  3;105,105,105;,
  3;106,106,106;,
  3;107,107,107;,
  3;108,108,108;,
  3;109,109,109;,
  3;110,110,110;,
  3;111,111,111;,
  3;112,112,112;,
  3;113,113,113;,
  3;114,114,114;,
  3;115,115,115;,
  3;116,116,116;,
  3;117,117,117;,
  3;118,118,118;,
  3;119,119,119;,
  3;120,120,120;,
  3;121,121,121;,
  3;122,122,122;,
  3;123,123,123;,
  3;124,124,124;,
  3;125,125,125;,
  3;126,126,126;,
  3;127,127,127;;
 }
}