xof 0303txt 0032
template Vector {
 <3d82ab5e-62da-11cf-ab39-0020af71e433>
 FLOAT x;
 FLOAT y;
 FLOAT z;
}

template MeshFace {
 <3d82ab5f-62da-11cf-ab39-0020af71e433>
 DWORD nFaceVertexIndices;
 array DWORD faceVertexIndices[nFaceVertexIndices];
}

template Mesh {
 <3d82ab44-62da-11cf-ab39-0020af71e433>
 DWORD nVertices;
 array Vector vertices[nVertices];
 DWORD nFaces;
 array MeshFace faces[nFaces];
 [...]
}

template ColorRGBA {
 <35ff44e0-6c7c-11cf-8f52-0040333594a3>
 FLOAT red;
 FLOAT green;
 FLOAT blue;
 FLOAT alpha;
}

template ColorRGB {
 <d3e16e81-7835-11cf-8f52-0040333594a3>
 FLOAT red;
 FLOAT green;
 FLOAT blue;
}

template Material {
 <3d82ab4d-62da-11cf-ab39-0020af71e433>
 ColorRGBA faceColor;
 FLOAT power;
 ColorRGB specularColor;
 ColorRGB emissiveColor;
 [...]
}

template MeshMaterialList {
 <f6f23f42-7686-11cf-8f52-0040333594a3>
 DWORD nMaterials;
 DWORD nFaceIndexes;
 array DWORD faceIndexes[nFaceIndexes];
 [Material <3d82ab4d-62da-11cf-ab39-0020af71e433>]
}

template TextureFilename {
 <a42790e1-7810-11cf-8f52-0040333594a3>
 STRING filename;
}

template Coords2d {
 <f6f23f44-7686-11cf-8f52-0040333594a3>
 FLOAT u;
 FLOAT v;
}

template MeshTextureCoords {
 <f6f23f40-7686-11cf-8f52-0040333594a3>
 DWORD nTextureCoords;
 array Coords2d textureCoords[nTextureCoords];
}

template MeshNormals {
 <f6f23f43-7686-11cf-8f52-0040333594a3>
 DWORD nNormals;
 array Vector normals[nNormals];
 DWORD nFaceNormals;
 array MeshFace faceNormals[nFaceNormals];
}


Mesh  {
 96;
 -1.500000;-0.450000;0.000000;,
 -1.500000;1.100000;0.000000;,
 -2.700000;1.100000;0.000000;,
 -1.458300;-0.450000;5.000000;,
 -1.458300;1.100000;5.000000;,
 -2.658300;1.100000;5.000000;,
 -1.437500;-0.450000;10.000000;,
 -1.437500;1.100000;10.000000;,
 -2.637500;1.100000;10.000000;,
 -1.437500;-0.450000;15.000000;,
 -1.437500;1.100000;15.000000;,
 -2.637500;1.100000;15.000000;,
 -1.458300;-0.450000;20.000000;,
 -1.458300;1.100000;20.000000;,
 -2.658300;1.100000;20.000000;,
 -1.500000;-0.450000;25.000000;,
 -1.500000;1.100000;25.000000;,
 -2.700000;1.100000;25.000000;,
 -2.700000;1.100000;0.000000;,
 -2.658300;1.100000;5.000000;,
 -2.637500;1.100000;10.000000;,
 -2.637500;1.100000;15.000000;,
 -2.658300;1.100000;20.000000;,
 -2.700000;1.100000;25.000000;,
 -5.400000;1.100000;0.000000;,
 -8.400000;1.100000;25.000000;,
 -5.400000;1.100000;-0.100000;,
 -5.400000;2.300000;-0.100000;,
 -8.400000;1.100000;25.100000;,
 -8.400000;2.300000;25.100000;,
 -5.400000;1.300000;0.000000;,
 -5.400000;2.280000;0.000000;,
 -8.400000;1.300000;25.000000;,
 -8.400000;2.280000;25.000000;,
 -5.000000;1.100000;0.000000;,
 -5.000000;3.040000;0.000000;,
 -5.000000;1.100000;1.500000;,
 -5.000000;3.040000;1.500000;,
 5.300000;-0.450000;-0.100000;,
 5.300000;1.100000;-0.100000;,
 6.500000;1.100000;-0.100000;,
 5.342000;-0.450000;5.000000;,
 5.342000;1.100000;5.000000;,
 6.542000;1.100000;5.000000;,
 5.363000;-0.450000;10.000000;,
 5.363000;1.100000;10.000000;,
 6.563000;1.100000;10.000000;,
 5.363000;-0.450000;15.000000;,
 5.363000;1.100000;15.000000;,
 6.563000;1.100000;15.000000;,
 5.342000;-0.450000;20.000000;,
 5.342000;1.100000;20.000000;,
 6.542000;1.100000;20.000000;,
 5.300000;-0.450000;25.100000;,
 5.300000;1.100000;25.100000;,
 6.500000;1.100000;25.100000;,
 6.500000;1.100000;-0.100000;,
 9.200000;1.100000;-0.100000;,
 6.542000;1.100000;5.000000;,
 9.242000;1.100000;5.000000;,
 6.563000;1.100000;10.000000;,
 9.263000;1.100000;10.000000;,
 6.563000;1.100000;15.000000;,
 9.263000;1.100000;15.000000;,
 6.542000;1.100000;20.000000;,
 9.242000;1.100000;20.000000;,
 6.500000;1.100000;25.100000;,
 9.200000;1.100000;25.100000;,
 9.200000;1.100000;-0.100000;,
 9.200000;2.300000;-0.100000;,
 9.242000;1.100000;5.000000;,
 9.242000;2.300000;5.000000;,
 9.263000;1.100000;10.000000;,
 9.263000;2.300000;10.000000;,
 9.263000;1.100000;15.000000;,
 9.263000;2.300000;15.000000;,
 9.242000;1.100000;20.000000;,
 9.242000;2.300000;20.000000;,
 9.200000;1.100000;25.100000;,
 9.200000;2.300000;25.100000;,
 9.200000;1.300000;-0.100000;,
 9.200000;2.280000;-0.100000;,
 9.242000;1.300000;5.000000;,
 9.242000;2.280000;5.000000;,
 9.263000;1.300000;10.000000;,
 9.263000;2.280000;10.000000;,
 9.263000;1.300000;15.000000;,
 9.263000;2.280000;15.000000;,
 9.242000;1.300000;20.000000;,
 9.242000;2.280000;20.000000;,
 9.200000;1.300000;25.100000;,
 9.200000;2.280000;25.100000;,
 8.800000;1.100000;0.000000;,
 8.800000;3.040000;0.000000;,
 8.800000;1.100000;1.500000;,
 8.800000;3.040000;1.500000;;
 88;
 3;0,1,4;,
 3;0,4,3;,
 3;1,2,5;,
 3;1,5,4;,
 3;3,4,7;,
 3;3,7,6;,
 3;4,5,8;,
 3;4,8,7;,
 3;6,7,10;,
 3;6,10,9;,
 3;7,8,11;,
 3;7,11,10;,
 3;9,10,13;,
 3;9,13,12;,
 3;10,11,14;,
 3;10,14,13;,
 3;12,13,16;,
 3;12,16,15;,
 3;13,14,17;,
 3;13,17,16;,
 3;18,24,25;,
 3;18,25,23;,
 3;18,23,22;,
 3;18,22,21;,
 3;18,21,20;,
 3;18,20,19;,
 3;26,27,29;,
 3;26,29,28;,
 3;28,29,27;,
 3;28,27,26;,
 3;30,31,33;,
 3;30,33,32;,
 3;32,33,31;,
 3;32,31,30;,
 3;34,35,37;,
 3;34,37,36;,
 3;41,42,39;,
 3;41,39,38;,
 3;42,43,40;,
 3;42,40,39;,
 3;44,45,42;,
 3;44,42,41;,
 3;45,46,43;,
 3;45,43,42;,
 3;47,48,45;,
 3;47,45,44;,
 3;48,49,46;,
 3;48,46,45;,
 3;50,51,48;,
 3;50,48,47;,
 3;51,52,49;,
 3;51,49,48;,
 3;53,54,51;,
 3;53,51,50;,
 3;54,55,52;,
 3;54,52,51;,
 3;58,59,57;,
 3;58,57,56;,
 3;60,61,59;,
 3;60,59,58;,
 3;62,63,61;,
 3;62,61,60;,
 3;64,65,63;,
 3;64,63,62;,
 3;66,67,65;,
 3;66,65,64;,
 3;70,71,69;,
 3;70,69,68;,
 3;72,73,71;,
 3;72,71,70;,
 3;74,75,73;,
 3;74,73,72;,
 3;76,77,75;,
 3;76,75,74;,
 3;78,79,77;,
 3;78,77,76;,
 3;82,83,81;,
 3;82,81,80;,
 3;84,85,83;,
 3;84,83,82;,
 3;86,87,85;,
 3;86,85,84;,
 3;88,89,87;,
 3;88,87,86;,
 3;90,91,89;,
 3;90,89,88;,
 3;94,95,93;,
 3;94,93,92;;

 MeshMaterialList  {
  10;
  88;
  0,
  0,
  0,
  0,
  0,
  0,
  0,
  0,
  0,
  0,
  0,
  0,
  0,
  0,
  0,
  0,
  0,
  0,
  0,
  0,
  1,
  1,
  1,
  1,
  1,
  1,
  2,
  2,
  2,
  2,
  3,
  3,
  3,
  3,
  4,
  4,
  5,
  5,
  5,
  5,
  5,
  5,
  5,
  5,
  5,
  5,
  5,
  5,
  5,
  5,
  5,
  5,
  5,
  5,
  5,
  5,
  6,
  6,
  6,
  6,
  6,
  6,
  6,
  6,
  6,
  6,
  7,
  7,
  7,
  7,
  7,
  7,
  7,
  7,
  7,
  7,
  8,
  8,
  8,
  8,
  8,
  8,
  8,
  8,
  8,
  8,
  9,
  9;

  Material  {
   1.000000;1.000000;1.000000;1.000000;;
   0.000000;
   0.000000;0.000000;0.000000;;
   0.000000;0.000000;0.000000;;

   TextureFilename  {
    "FormSide.png";
   }
  }

  Material  {
   1.000000;1.000000;1.000000;1.000000;;
   0.000000;
   0.000000;0.000000;0.000000;;
   0.000000;0.000000;0.000000;;

   TextureFilename  {
    "FormC.png";
   }
  }

  Material  {
   1.000000;1.000000;1.000000;1.000000;;
   0.000000;
   0.000000;0.000000;0.000000;;
   0.000000;0.000000;0.000000;;

   TextureFilename  {
    "Saku1.png";
   }
  }

  Material  {
   0.125490;0.125490;0.125490;0.501961;;
   0.000000;
   0.000000;0.000000;0.000000;;
   0.000000;0.000000;0.000000;;
  }

  Material  {
   1.000000;1.000000;1.000000;1.000000;;
   0.000000;
   0.000000;0.000000;0.000000;;
   0.000000;0.000000;0.000000;;

   TextureFilename  {
    "Ekimei2.png";
   }
  }

  Material  {
   1.000000;1.000000;1.000000;1.000000;;
   0.000000;
   0.000000;0.000000;0.000000;;
   0.000000;0.000000;0.000000;;

   TextureFilename  {
    "FormSide.png";
   }
  }

  Material  {
   1.000000;1.000000;1.000000;1.000000;;
   0.000000;
   0.000000;0.000000;0.000000;;
   0.000000;0.000000;0.000000;;

   TextureFilename  {
    "FormC.png";
   }
  }

  Material  {
   1.000000;1.000000;1.000000;1.000000;;
   0.000000;
   0.000000;0.000000;0.000000;;
   0.000000;0.000000;0.000000;;

   TextureFilename  {
    "Saku1.png";
   }
  }

  Material  {
   0.125490;0.125490;0.125490;0.501961;;
   0.000000;
   0.000000;0.000000;0.000000;;
   0.000000;0.000000;0.000000;;
  }

  Material  {
   1.000000;1.000000;1.000000;1.000000;;
   0.000000;
   0.000000;0.000000;0.000000;;
   0.000000;0.000000;0.000000;;

   TextureFilename  {
    "Ekimei2.png";
   }
  }
 }

 MeshTextureCoords  {
  96;
  0.000000;1.000000;,
  0.000000;0.320000;,
  0.000000;0.000000;,
  1.600000;1.000000;,
  1.600000;0.320000;,
  1.600000;0.000000;,
  3.200000;1.000000;,
  3.200000;0.320000;,
  3.200000;0.000000;,
  4.800000;1.000000;,
  4.800000;0.320000;,
  4.800000;0.000000;,
  6.400000;1.000000;,
  6.400000;0.320000;,
  6.400000;0.000000;,
  8.000000;1.000000;,
  8.000000;0.320000;,
  8.000000;0.000000;,
  0.000000;0.000000;,
  0.200000;0.000000;,
  0.400000;0.000000;,
  0.600000;0.000000;,
  0.800000;0.000000;,
  1.000000;0.000000;,
  0.000000;0.386000;,
  1.000000;0.814000;,
  0.000000;1.000000;,
  0.000000;0.000000;,
  5.000000;1.000000;,
  5.000000;0.000000;,
  0.000000;0.000000;,
  0.000000;0.000000;,
  0.000000;0.000000;,
  0.000000;0.000000;,
  0.000000;1.000000;,
  0.000000;0.000000;,
  1.000000;1.000000;,
  1.000000;0.000000;,
  0.000000;1.000000;,
  0.000000;0.320000;,
  0.000000;0.000000;,
  1.600000;1.000000;,
  1.600000;0.320000;,
  1.600000;0.000000;,
  3.200000;1.000000;,
  3.200000;0.320000;,
  3.200000;0.000000;,
  4.800000;1.000000;,
  4.800000;0.320000;,
  4.800000;0.000000;,
  6.400000;1.000000;,
  6.400000;0.320000;,
  6.400000;0.000000;,
  8.000000;1.000000;,
  8.000000;0.320000;,
  8.000000;0.000000;,
  0.000000;0.000000;,
  0.000000;0.386000;,
  0.200000;0.000000;,
  0.200000;0.386000;,
  0.400000;0.000000;,
  0.400000;0.386000;,
  0.600000;0.000000;,
  0.600000;0.386000;,
  0.800000;0.000000;,
  0.800000;0.386000;,
  1.000000;0.000000;,
  1.000000;0.386000;,
  0.000000;1.000000;,
  0.000000;0.000000;,
  1.000000;1.000000;,
  1.000000;0.000000;,
  2.000000;1.000000;,
  2.000000;0.000000;,
  3.000000;1.000000;,
  3.000000;0.000000;,
  4.000000;1.000000;,
  4.000000;0.000000;,
  5.000000;1.000000;,
  5.000000;0.000000;,
  0.000000;0.000000;,
  0.000000;0.000000;,
  0.000000;0.000000;,
  0.000000;0.000000;,
  0.000000;0.000000;,
  0.000000;0.000000;,
  0.000000;0.000000;,
  0.000000;0.000000;,
  0.000000;0.000000;,
  0.000000;0.000000;,
  0.000000;0.000000;,
  0.000000;0.000000;,
  0.000000;1.000000;,
  0.000000;0.000000;,
  1.000000;1.000000;,
  1.000000;0.000000;;
 }

 MeshNormals  {
  88;
  0.999965;0.000000;-0.008340;,
  0.999965;0.000000;-0.008340;,
  0.000000;1.000000;0.000000;,
  0.000000;1.000000;0.000000;,
  0.999991;0.000000;-0.004160;,
  0.999991;0.000000;-0.004160;,
  0.000000;1.000000;0.000000;,
  0.000000;1.000000;0.000000;,
  1.000000;0.000000;0.000000;,
  1.000000;0.000000;0.000000;,
  0.000000;1.000000;0.000000;,
  0.000000;1.000000;0.000000;,
  0.999991;0.000000;0.004160;,
  0.999991;0.000000;0.004160;,
  0.000000;1.000000;0.000000;,
  0.000000;1.000000;0.000000;,
  0.999965;0.000000;0.008340;,
  0.999965;0.000000;0.008340;,
  0.000000;1.000000;0.000000;,
  0.000000;1.000000;0.000000;,
  0.000000;1.000000;0.000000;,
  0.000000;1.000000;0.000000;,
  0.000000;1.000000;0.000000;,
  0.000000;1.000000;0.000000;,
  0.000000;1.000000;0.000000;,
  0.000000;1.000000;0.000000;,
  0.992988;0.000000;0.118213;,
  0.992988;0.000000;0.118213;,
  -0.992988;0.000000;-0.118213;,
  -0.992988;0.000000;-0.118213;,
  0.992877;0.000000;0.119145;,
  0.992877;0.000000;0.119145;,
  -0.992877;0.000000;-0.119145;,
  -0.992877;0.000000;-0.119145;,
  1.000000;0.000000;0.000000;,
  1.000000;0.000000;0.000000;,
  -0.999966;0.000000;0.008235;,
  -0.999966;0.000000;0.008235;,
  0.000000;1.000000;0.000000;,
  0.000000;1.000000;0.000000;,
  -0.999991;0.000000;0.004200;,
  -0.999991;0.000000;0.004200;,
  0.000000;1.000000;0.000000;,
  0.000000;1.000000;0.000000;,
  -1.000000;0.000000;0.000000;,
  -1.000000;0.000000;0.000000;,
  0.000000;1.000000;0.000000;,
  0.000000;1.000000;0.000000;,
  -0.999991;0.000000;-0.004200;,
  -0.999991;0.000000;-0.004200;,
  0.000000;1.000000;0.000000;,
  0.000000;1.000000;0.000000;,
  -0.999966;0.000000;-0.008235;,
  -0.999966;0.000000;-0.008235;,
  0.000000;1.000000;0.000000;,
  0.000000;1.000000;0.000000;,
  0.000000;1.000000;0.000000;,
  0.000000;1.000000;0.000000;,
  0.000000;1.000000;0.000000;,
  0.000000;1.000000;0.000000;,
  0.000000;1.000000;0.000000;,
  0.000000;1.000000;0.000000;,
  0.000000;1.000000;0.000000;,
  0.000000;1.000000;0.000000;,
  0.000000;1.000000;0.000000;,
  0.000000;1.000000;0.000000;,
  -0.999966;0.000000;0.008235;,
  -0.999966;0.000000;0.008235;,
  -0.999991;0.000000;0.004200;,
  -0.999991;0.000000;0.004200;,
  -1.000000;0.000000;0.000000;,
  -1.000000;0.000000;0.000000;,
  -0.999991;0.000000;-0.004200;,
  -0.999991;0.000000;-0.004200;,
  -0.999966;0.000000;-0.008235;,
  -0.999966;0.000000;-0.008235;,
  -0.999966;0.000000;0.008235;,
  -0.999966;0.000000;0.008235;,
  -0.999991;0.000000;0.004200;,
  -0.999991;0.000000;0.004200;,
  -1.000000;0.000000;0.000000;,
  -1.000000;0.000000;0.000000;,
  -0.999991;0.000000;-0.004200;,
  -0.999991;0.000000;-0.004200;,
  -0.999966;0.000000;-0.008235;,
  -0.999966;0.000000;-0.008235;,
  -1.000000;0.000000;0.000000;,
  -1.000000;0.000000;0.000000;;
  88;
  3;0,0,0;,
  3;1,1,1;,
  3;2,2,2;,
  3;3,3,3;,
  3;4,4,4;,
  3;5,5,5;,
  3;6,6,6;,
  3;7,7,7;,
  3;8,8,8;,
  3;9,9,9;,
  3;10,10,10;,
  3;11,11,11;,
  3;12,12,12;,
  3;13,13,13;,
  3;14,14,14;,
  3;15,15,15;,
  3;16,16,16;,
  3;17,17,17;,
  3;18,18,18;,
  3;19,19,19;,
  3;20,20,20;,
  3;21,21,21;,
  3;22,22,22;,
  3;23,23,23;,
  3;24,24,24;,
  3;25,25,25;,
  3;26,26,26;,
  3;27,27,27;,
  3;28,28,28;,
  3;29,29,29;,
  3;30,30,30;,
  3;31,31,31;,
  3;32,32,32;,
  3;33,33,33;,
  3;34,34,34;,
  3;35,35,35;,
  3;36,36,36;,
  3;37,37,37;,
  3;38,38,38;,
  3;39,39,39;,
  3;40,40,40;,
  3;41,41,41;,
  3;42,42,42;,
  3;43,43,43;,
  3;44,44,44;,
  3;45,45,45;,
  3;46,46,46;,
  3;47,47,47;,
  3;48,48,48;,
  3;49,49,49;,
  3;50,50,50;,
  3;51,51,51;,
  3;52,52,52;,
  3;53,53,53;,
  3;54,54,54;,
  3;55,55,55;,
  3;56,56,56;,
  3;57,57,57;,
  3;58,58,58;,
  3;59,59,59;,
  3;60,60,60;,
  3;61,61,61;,
  3;62,62,62;,
  3;63,63,63;,
  3;64,64,64;,
  3;65,65,65;,
  3;66,66,66;,
  3;67,67,67;,
  3;68,68,68;,
  3;69,69,69;,
  3;70,70,70;,
  3;71,71,71;,
  3;72,72,72;,
  3;73,73,73;,
  3;74,74,74;,
  3;75,75,75;,
  3;76,76,76;,
  3;77,77,77;,
  3;78,78,78;,
  3;79,79,79;,
  3;80,80,80;,
  3;81,81,81;,
  3;82,82,82;,
  3;83,83,83;,
  3;84,84,84;,
  3;85,85,85;,
  3;86,86,86;,
  3;87,87,87;;
 }
}