xof 0303txt 0032
template Vector {
 <3d82ab5e-62da-11cf-ab39-0020af71e433>
 FLOAT x;
 FLOAT y;
 FLOAT z;
}

template MeshFace {
 <3d82ab5f-62da-11cf-ab39-0020af71e433>
 DWORD nFaceVertexIndices;
 array DWORD faceVertexIndices[nFaceVertexIndices];
}

template Mesh {
 <3d82ab44-62da-11cf-ab39-0020af71e433>
 DWORD nVertices;
 array Vector vertices[nVertices];
 DWORD nFaces;
 array MeshFace faces[nFaces];
 [...]
}

template ColorRGBA {
 <35ff44e0-6c7c-11cf-8f52-0040333594a3>
 FLOAT red;
 FLOAT green;
 FLOAT blue;
 FLOAT alpha;
}

template ColorRGB {
 <d3e16e81-7835-11cf-8f52-0040333594a3>
 FLOAT red;
 FLOAT green;
 FLOAT blue;
}

template Material {
 <3d82ab4d-62da-11cf-ab39-0020af71e433>
 ColorRGBA faceColor;
 FLOAT power;
 ColorRGB specularColor;
 ColorRGB emissiveColor;
 [...]
}

template MeshMaterialList {
 <f6f23f42-7686-11cf-8f52-0040333594a3>
 DWORD nMaterials;
 DWORD nFaceIndexes;
 array DWORD faceIndexes[nFaceIndexes];
 [Material <3d82ab4d-62da-11cf-ab39-0020af71e433>]
}

template TextureFilename {
 <a42790e1-7810-11cf-8f52-0040333594a3>
 STRING filename;
}

template Coords2d {
 <f6f23f44-7686-11cf-8f52-0040333594a3>
 FLOAT u;
 FLOAT v;
}

template MeshTextureCoords {
 <f6f23f40-7686-11cf-8f52-0040333594a3>
 DWORD nTextureCoords;
 array Coords2d textureCoords[nTextureCoords];
}

template MeshNormals {
 <f6f23f43-7686-11cf-8f52-0040333594a3>
 DWORD nNormals;
 array Vector normals[nNormals];
 DWORD nFaceNormals;
 array MeshFace faceNormals[nFaceNormals];
}


Mesh  {
 279;
 -1.500000;-0.450000;0.000000;,
 -1.500000;1.100000;0.000000;,
 -2.700000;1.100000;0.000000;,
 -1.489400;-0.450000;5.000000;,
 -1.489400;1.100000;5.000000;,
 -2.689400;1.100000;5.000000;,
 -1.484100;-0.450000;10.000000;,
 -1.484100;1.100000;10.000000;,
 -2.684100;1.100000;10.000000;,
 -1.484100;-0.450000;15.000000;,
 -1.484100;1.100000;15.000000;,
 -2.684100;1.100000;15.000000;,
 -1.489400;-0.450000;20.000000;,
 -1.489400;1.100000;20.000000;,
 -2.689400;1.100000;20.000000;,
 -1.500000;-0.450000;25.000000;,
 -1.500000;1.100000;25.000000;,
 -2.700000;1.100000;25.000000;,
 -2.700000;1.100000;0.000000;,
 -2.689400;1.100000;5.000000;,
 -2.684100;1.100000;10.000000;,
 -2.684100;1.100000;15.000000;,
 -2.689400;1.100000;20.000000;,
 -2.700000;1.100000;25.000000;,
 -5.400000;1.100000;5.000000;,
 -5.400000;1.100000;25.000000;,
 -8.400000;1.100000;0.000000;,
 -9.700000;1.100000;3.000000;,
 -9.700000;1.100000;5.000000;,
 -8.400000;1.100000;0.000000;,
 -8.400000;2.300000;0.000000;,
 -9.700000;1.100000;3.000000;,
 -9.700000;2.300000;3.000000;,
 -9.700000;1.100000;5.000000;,
 -9.700000;2.300000;5.000000;,
 -8.410000;1.300000;0.000000;,
 -8.410000;2.280000;0.000000;,
 -9.710000;1.300000;3.000000;,
 -9.710000;2.280000;3.000000;,
 -9.710000;1.300000;5.000000;,
 -9.710000;2.280000;5.000000;,
 -9.400000;-0.500000;5.000000;,
 -9.400000;1.100000;5.000000;,
 -9.400000;-0.500000;20.000000;,
 -9.400000;1.100000;20.000000;,
 -5.700000;-0.500000;20.000000;,
 -5.700000;1.100000;20.000000;,
 -5.700000;1.100000;5.000000;,
 -5.700000;2.300000;5.000000;,
 -5.700000;2.300000;25.000000;,
 -5.400000;1.100000;5.000000;,
 -5.400000;2.300000;5.000000;,
 -5.400000;2.300000;25.000000;,
 -5.400000;1.100000;25.000000;,
 -9.700000;1.100000;3.000000;,
 -9.700000;4.370000;3.000000;,
 -9.400000;4.370000;3.000000;,
 -9.400000;1.100000;3.000000;,
 -9.700000;0.900000;7.500000;,
 -9.700000;4.370000;7.500000;,
 -9.400000;4.370000;7.500000;,
 -9.400000;0.900000;7.500000;,
 -9.700000;0.900000;12.000000;,
 -9.700000;4.370000;12.000000;,
 -9.400000;4.370000;12.000000;,
 -9.400000;0.900000;12.000000;,
 -9.700000;0.900000;16.500000;,
 -9.700000;4.370000;16.500000;,
 -9.400000;4.370000;16.500000;,
 -9.400000;0.900000;16.500000;,
 -9.700000;0.900000;21.000000;,
 -9.700000;4.370000;21.000000;,
 -9.400000;4.370000;21.000000;,
 -9.400000;0.900000;21.000000;,
 -5.300000;0.900000;3.000000;,
 -5.300000;4.710000;3.000000;,
 -5.000000;4.710000;3.000000;,
 -5.000000;0.900000;3.000000;,
 -5.300000;0.900000;12.000000;,
 -5.300000;4.710000;12.000000;,
 -5.000000;4.710000;12.000000;,
 -5.000000;0.900000;12.000000;,
 -5.300000;0.900000;21.000000;,
 -5.300000;4.710000;21.000000;,
 -5.000000;4.710000;21.000000;,
 -5.000000;0.900000;21.000000;,
 -9.390000;4.050000;3.000000;,
 -9.390000;4.350000;3.000000;,
 -9.390000;4.350000;21.000000;,
 -9.390000;4.050000;21.000000;,
 -4.990000;4.350000;3.000000;,
 -4.990000;4.650000;3.000000;,
 -4.990000;4.650000;21.000000;,
 -4.990000;4.350000;21.000000;,
 -10.500000;4.300000;2.600000;,
 -10.500000;4.300000;21.400000;,
 -1.500000;5.000000;2.600000;,
 -1.500000;5.000000;21.400000;,
 -10.500000;4.300000;2.600000;,
 -10.500000;4.500000;2.600000;,
 -1.500000;5.000000;2.600000;,
 -1.500000;5.200000;2.600000;,
 -1.500000;5.000000;21.400000;,
 -1.500000;5.200000;21.400000;,
 -9.700000;1.100000;5.000000;,
 -9.700000;2.000000;5.000000;,
 -9.400000;1.100000;5.000000;,
 -9.400000;2.000000;5.000000;,
 -9.400000;1.100000;20.000000;,
 -9.400000;2.000000;20.000000;,
 -9.400000;4.400000;20.000000;,
 -5.700000;1.100000;20.000000;,
 -5.700000;4.720000;20.000000;,
 -9.700000;1.100000;5.000000;,
 -9.700000;2.000000;5.000000;,
 -9.400000;1.100000;5.000000;,
 -9.400000;2.000000;5.000000;,
 -9.400000;1.100000;20.000000;,
 -9.400000;2.000000;20.000000;,
 -9.400000;4.400000;20.000000;,
 -5.700000;1.100000;20.000000;,
 -5.700000;4.720000;20.000000;,
 -9.400000;3.300000;5.000000;,
 -9.400000;4.400000;5.000000;,
 -9.400000;3.300000;6.500000;,
 -9.400000;4.400000;6.500000;,
 -5.200000;1.100000;6.000000;,
 -5.200000;3.040000;6.000000;,
 -5.200000;1.100000;7.500000;,
 -5.200000;3.040000;7.500000;,
 -2.900000;4.000000;12.000000;,
 -2.900000;4.400000;12.000000;,
 -2.500000;4.000000;12.000000;,
 -2.500000;4.400000;12.000000;,
 -7.500000;4.200000;12.000000;,
 -7.500000;4.800000;12.000000;,
 -6.000000;4.200000;12.000000;,
 -6.000000;4.800000;12.000000;,
 5.300000;-0.450000;-0.100000;,
 5.300000;1.100000;-0.100000;,
 6.500000;1.100000;-0.100000;,
 5.310600;-0.450000;5.000000;,
 5.310600;1.100000;5.000000;,
 6.510600;1.100000;5.000000;,
 5.315900;-0.450000;10.000000;,
 5.315900;1.100000;10.000000;,
 6.515900;1.100000;10.000000;,
 5.315900;-0.450000;15.000000;,
 5.315900;1.100000;15.000000;,
 6.515900;1.100000;15.000000;,
 5.310600;-0.450000;20.000000;,
 5.310600;1.100000;20.000000;,
 6.510600;1.100000;20.000000;,
 5.300000;-0.450000;25.100000;,
 5.300000;1.100000;25.100000;,
 6.500000;1.100000;25.100000;,
 6.500000;1.100000;-0.100000;,
 6.510600;1.100000;5.000000;,
 6.515900;1.100000;10.000000;,
 6.515900;1.100000;15.000000;,
 6.510600;1.100000;20.000000;,
 6.500000;1.100000;25.100000;,
 9.200000;1.100000;5.000000;,
 9.200000;1.100000;20.000000;,
 9.200000;1.100000;25.000000;,
 13.500000;1.100000;5.000000;,
 13.500000;1.100000;20.000000;,
 12.200000;1.100000;-0.100000;,
 15.000000;1.100000;2.800000;,
 15.000000;1.100000;22.400000;,
 12.200000;1.100000;-0.100000;,
 12.200000;2.300000;-0.100000;,
 15.000000;1.100000;2.800000;,
 15.000000;2.300000;2.800000;,
 15.000000;1.100000;22.400000;,
 15.000000;2.300000;22.400000;,
 9.200000;1.100000;25.100000;,
 9.200000;2.300000;25.100000;,
 12.200000;1.300000;-0.100000;,
 12.200000;2.280000;-0.100000;,
 15.000000;1.300000;2.800000;,
 15.000000;2.280000;2.800000;,
 15.000000;1.300000;22.400000;,
 15.000000;2.280000;22.400000;,
 9.200000;1.300000;25.100000;,
 9.200000;2.280000;25.100000;,
 9.500000;-0.500000;19.700001;,
 9.500000;2.300000;19.700001;,
 13.200000;-0.500000;5.000000;,
 13.200000;2.300000;5.000000;,
 13.200000;-0.500000;19.700001;,
 13.200000;2.300000;19.700001;,
 9.200000;1.100000;5.000000;,
 9.200000;2.300000;5.000000;,
 9.200000;1.100000;20.000000;,
 9.200000;2.300000;20.000000;,
 9.500000;1.100000;5.000000;,
 9.500000;2.300000;5.000000;,
 9.500000;2.300000;19.700001;,
 13.200000;1.100000;5.000000;,
 13.200000;2.300000;5.000000;,
 13.200000;2.300000;19.700001;,
 13.500000;1.100000;5.000000;,
 13.500000;2.300000;5.000000;,
 13.500000;2.300000;20.000000;,
 13.500000;1.100000;3.000000;,
 13.500000;4.370000;3.000000;,
 13.200000;4.370000;3.000000;,
 13.200000;1.100000;3.000000;,
 13.500000;0.900000;7.500000;,
 13.500000;4.370000;7.500000;,
 13.200000;4.370000;7.500000;,
 13.200000;0.900000;7.500000;,
 13.500000;0.900000;12.000000;,
 13.500000;4.370000;12.000000;,
 13.200000;4.370000;12.000000;,
 13.200000;0.900000;12.000000;,
 13.500000;0.900000;16.500000;,
 13.500000;4.370000;16.500000;,
 13.200000;4.370000;16.500000;,
 13.200000;0.900000;16.500000;,
 13.500000;0.900000;21.000000;,
 13.500000;4.370000;21.000000;,
 13.200000;4.370000;21.000000;,
 13.200000;0.900000;21.000000;,
 9.100000;0.900000;3.000000;,
 9.100000;4.710000;3.000000;,
 8.800000;4.710000;3.000000;,
 8.800000;0.900000;3.000000;,
 9.100000;0.900000;12.000000;,
 9.100000;4.710000;12.000000;,
 8.800000;4.710000;12.000000;,
 8.800000;0.900000;12.000000;,
 9.100000;0.900000;21.000000;,
 9.100000;4.710000;21.000000;,
 8.800000;4.710000;21.000000;,
 8.800000;0.900000;21.000000;,
 13.190000;4.050000;3.000000;,
 13.190000;4.350000;3.000000;,
 13.190000;4.350000;21.000000;,
 13.190000;4.050000;21.000000;,
 8.790000;4.350000;3.000000;,
 8.790000;4.650000;3.000000;,
 8.790000;4.650000;21.000000;,
 8.790000;4.350000;21.000000;,
 14.300000;4.300000;2.600000;,
 14.300000;4.300000;21.400000;,
 5.300000;5.000000;2.600000;,
 5.300000;5.000000;21.400000;,
 14.300000;4.300000;2.600000;,
 14.300000;4.500000;2.600000;,
 5.300000;5.000000;2.600000;,
 5.300000;5.200000;2.600000;,
 5.300000;5.000000;21.400000;,
 5.300000;5.200000;21.400000;,
 13.200000;1.100000;21.000000;,
 13.200000;4.400000;21.000000;,
 9.100000;1.100000;21.000000;,
 9.100000;4.720000;21.000000;,
 13.200000;1.100000;21.000000;,
 13.200000;4.400000;21.000000;,
 9.100000;1.100000;21.000000;,
 9.100000;4.720000;21.000000;,
 13.150000;1.100000;3.250000;,
 13.150000;3.040000;3.250000;,
 13.150000;1.100000;4.750000;,
 13.150000;3.040000;4.750000;,
 6.700000;4.000000;12.000000;,
 6.700000;4.400000;12.000000;,
 6.300000;4.000000;12.000000;,
 6.300000;4.400000;12.000000;,
 11.300000;4.200000;12.000000;,
 11.300000;4.800000;12.000000;,
 9.800000;4.200000;12.000000;,
 9.800000;4.800000;12.000000;,
 8.800000;1.100000;25.000000;,
 8.800000;3.040000;25.000000;,
 8.800000;1.100000;26.500000;,
 8.800000;3.040000;26.500000;;
 203;
 3;0,4,1;,
 3;0,3,4;,
 3;1,5,2;,
 3;1,4,5;,
 3;3,7,4;,
 3;3,6,7;,
 3;4,8,5;,
 3;4,7,8;,
 3;6,10,7;,
 3;6,9,10;,
 3;7,11,8;,
 3;7,10,11;,
 3;9,13,10;,
 3;9,12,13;,
 3;10,14,11;,
 3;10,13,14;,
 3;12,16,13;,
 3;12,15,16;,
 3;13,17,14;,
 3;13,16,17;,
 3;18,25,24;,
 3;18,23,25;,
 3;18,22,23;,
 3;18,21,22;,
 3;18,20,21;,
 3;18,19,20;,
 3;18,27,26;,
 3;18,28,27;,
 3;18,24,28;,
 3;29,32,30;,
 3;29,31,32;,
 3;31,30,32;,
 3;31,29,30;,
 3;31,34,32;,
 3;31,33,34;,
 3;35,38,36;,
 3;35,37,38;,
 3;37,36,38;,
 3;37,35,36;,
 3;37,40,38;,
 3;37,39,40;,
 3;41,44,42;,
 3;41,43,44;,
 3;43,46,44;,
 3;43,45,46;,
 3;47,51,48;,
 3;47,50,51;,
 3;48,52,49;,
 3;48,51,52;,
 3;50,52,51;,
 3;50,53,52;,
 3;54,56,55;,
 3;54,57,56;,
 3;58,60,59;,
 3;58,61,60;,
 3;62,64,63;,
 3;62,65,64;,
 3;66,68,67;,
 3;66,69,68;,
 3;70,72,71;,
 3;70,73,72;,
 3;74,76,75;,
 3;74,77,76;,
 3;78,80,79;,
 3;78,81,80;,
 3;82,84,83;,
 3;82,85,84;,
 3;86,88,87;,
 3;86,89,88;,
 3;90,92,91;,
 3;90,93,92;,
 3;96,95,97;,
 3;96,94,95;,
 3;98,101,99;,
 3;98,100,101;,
 3;100,103,101;,
 3;100,102,103;,
 3;104,107,105;,
 3;104,106,107;,
 3;106,109,107;,
 3;106,108,109;,
 3;108,112,110;,
 3;108,111,112;,
 3;113,116,114;,
 3;113,115,116;,
 3;115,118,116;,
 3;115,117,118;,
 3;117,121,119;,
 3;117,120,121;,
 3;122,125,123;,
 3;122,124,125;,
 3;126,129,127;,
 3;126,128,129;,
 3;130,133,131;,
 3;130,132,133;,
 3;134,137,135;,
 3;134,136,137;,
 3;141,139,142;,
 3;141,138,139;,
 3;142,140,143;,
 3;142,139,140;,
 3;144,142,145;,
 3;144,141,142;,
 3;145,143,146;,
 3;145,142,143;,
 3;147,145,148;,
 3;147,144,145;,
 3;148,146,149;,
 3;148,145,146;,
 3;150,148,151;,
 3;150,147,148;,
 3;151,149,152;,
 3;151,148,149;,
 3;153,151,154;,
 3;153,150,151;,
 3;154,152,155;,
 3;154,151,152;,
 3;156,158,157;,
 3;156,159,158;,
 3;156,160,159;,
 3;156,161,160;,
 3;156,163,161;,
 3;156,162,163;,
 3;156,165,162;,
 3;156,168,165;,
 3;156,167,168;,
 3;163,164,161;,
 3;163,169,164;,
 3;163,166,169;,
 3;165,169,166;,
 3;165,168,169;,
 3;172,171,173;,
 3;172,170,171;,
 3;170,173,171;,
 3;170,172,173;,
 3;174,173,175;,
 3;174,172,173;,
 3;176,175,177;,
 3;176,174,175;,
 3;180,179,181;,
 3;180,178,179;,
 3;178,181,179;,
 3;178,180,181;,
 3;182,181,183;,
 3;182,180,181;,
 3;184,183,185;,
 3;184,182,183;,
 3;186,191,187;,
 3;186,190,191;,
 3;190,189,191;,
 3;190,188,189;,
 3;192,197,193;,
 3;192,196,197;,
 3;194,193,195;,
 3;194,192,193;,
 3;193,198,195;,
 3;193,197,198;,
 3;198,204,195;,
 3;198,201,204;,
 3;199,203,200;,
 3;199,202,203;,
 3;200,204,201;,
 3;200,203,204;,
 3;208,206,207;,
 3;208,205,206;,
 3;212,210,211;,
 3;212,209,210;,
 3;216,214,215;,
 3;216,213,214;,
 3;220,218,219;,
 3;220,217,218;,
 3;224,222,223;,
 3;224,221,222;,
 3;228,226,227;,
 3;228,225,226;,
 3;232,230,231;,
 3;232,229,230;,
 3;236,234,235;,
 3;236,233,234;,
 3;240,238,239;,
 3;240,237,238;,
 3;244,242,243;,
 3;244,241,242;,
 3;245,248,246;,
 3;245,247,248;,
 3;251,250,252;,
 3;251,249,250;,
 3;253,252,254;,
 3;253,251,252;,
 3;257,258,256;,
 3;257,255,256;,
 3;261,260,262;,
 3;261,259,260;,
 3;265,264,266;,
 3;265,263,264;,
 3;269,268,270;,
 3;269,267,268;,
 3;273,272,274;,
 3;273,271,272;,
 3;277,276,278;,
 3;277,275,276;,
 3;275,278,276;,
 3;275,277,278;;

 MeshMaterialList  {
  48;
  203;
  0,
  0,
  0,
  0,
  0,
  0,
  0,
  0,
  0,
  0,
  0,
  0,
  0,
  0,
  0,
  0,
  0,
  0,
  0,
  0,
  1,
  1,
  1,
  1,
  1,
  1,
  1,
  1,
  1,
  2,
  2,
  2,
  2,
  2,
  2,
  3,
  3,
  3,
  3,
  3,
  3,
  4,
  4,
  4,
  4,
  5,
  5,
  5,
  5,
  5,
  5,
  6,
  6,
  7,
  7,
  8,
  8,
  9,
  9,
  10,
  10,
  11,
  11,
  12,
  12,
  13,
  13,
  14,
  14,
  15,
  15,
  16,
  16,
  17,
  17,
  17,
  17,
  18,
  18,
  18,
  18,
  18,
  18,
  19,
  19,
  19,
  19,
  19,
  19,
  20,
  20,
  21,
  21,
  22,
  22,
  23,
  23,
  24,
  24,
  24,
  24,
  24,
  24,
  24,
  24,
  24,
  24,
  24,
  24,
  24,
  24,
  24,
  24,
  24,
  24,
  24,
  24,
  25,
  25,
  25,
  25,
  25,
  25,
  25,
  25,
  25,
  25,
  25,
  25,
  25,
  25,
  26,
  26,
  26,
  26,
  26,
  26,
  26,
  26,
  27,
  27,
  27,
  27,
  27,
  27,
  27,
  27,
  28,
  28,
  28,
  28,
  29,
  29,
  29,
  29,
  29,
  29,
  29,
  29,
  29,
  29,
  29,
  29,
  30,
  30,
  31,
  31,
  32,
  32,
  33,
  33,
  34,
  34,
  35,
  35,
  36,
  36,
  37,
  37,
  38,
  38,
  39,
  39,
  40,
  40,
  41,
  41,
  41,
  41,
  42,
  42,
  43,
  43,
  44,
  44,
  45,
  45,
  46,
  46,
  47,
  47,
  47,
  47;

  Material  {
   1.000000;1.000000;1.000000;1.000000;;
   0.000000;
   0.000000;0.000000;0.000000;;
   0.000000;0.000000;0.000000;;

   TextureFilename  {
    "FormSide.png";
   }
  }

  Material  {
   1.000000;1.000000;1.000000;1.000000;;
   0.000000;
   0.000000;0.000000;0.000000;;
   0.000000;0.000000;0.000000;;

   TextureFilename  {
    "FormC.png";
   }
  }

  Material  {
   1.000000;1.000000;1.000000;1.000000;;
   0.000000;
   0.000000;0.000000;0.000000;;
   0.000000;0.000000;0.000000;;

   TextureFilename  {
    "Saku1.png";
   }
  }

  Material  {
   0.250980;0.250980;0.250980;1.000000;;
   0.000000;
   0.000000;0.000000;0.000000;;
   0.000000;0.000000;0.000000;;
  }

  Material  {
   1.000000;1.000000;1.000000;1.000000;;
   0.000000;
   0.000000;0.000000;0.000000;;
   0.000000;0.000000;0.000000;;

   TextureFilename  {
    "Wall1.png";
   }
  }

  Material  {
   1.000000;1.000000;1.000000;1.000000;;
   0.000000;
   0.000000;0.000000;0.000000;;
   0.000000;0.000000;0.000000;;

   TextureFilename  {
    "Wall2.png";
   }
  }

  Material  {
   1.000000;1.000000;1.000000;1.000000;;
   0.000000;
   0.000000;0.000000;0.000000;;
   0.000000;0.000000;0.000000;;

   TextureFilename  {
    "Iron1.png";
   }
  }

  Material  {
   1.000000;1.000000;1.000000;1.000000;;
   0.000000;
   0.000000;0.000000;0.000000;;
   0.000000;0.000000;0.000000;;

   TextureFilename  {
    "Iron1.png";
   }
  }

  Material  {
   1.000000;1.000000;1.000000;1.000000;;
   0.000000;
   0.000000;0.000000;0.000000;;
   0.000000;0.000000;0.000000;;

   TextureFilename  {
    "Iron1.png";
   }
  }

  Material  {
   1.000000;1.000000;1.000000;1.000000;;
   0.000000;
   0.000000;0.000000;0.000000;;
   0.000000;0.000000;0.000000;;

   TextureFilename  {
    "Iron1.png";
   }
  }

  Material  {
   1.000000;1.000000;1.000000;1.000000;;
   0.000000;
   0.000000;0.000000;0.000000;;
   0.000000;0.000000;0.000000;;

   TextureFilename  {
    "Iron1.png";
   }
  }

  Material  {
   1.000000;1.000000;1.000000;1.000000;;
   0.000000;
   0.000000;0.000000;0.000000;;
   0.000000;0.000000;0.000000;;

   TextureFilename  {
    "Iron1.png";
   }
  }

  Material  {
   1.000000;1.000000;1.000000;1.000000;;
   0.000000;
   0.000000;0.000000;0.000000;;
   0.000000;0.000000;0.000000;;

   TextureFilename  {
    "Iron1.png";
   }
  }

  Material  {
   1.000000;1.000000;1.000000;1.000000;;
   0.000000;
   0.000000;0.000000;0.000000;;
   0.000000;0.000000;0.000000;;

   TextureFilename  {
    "Iron1.png";
   }
  }

  Material  {
   1.000000;1.000000;1.000000;1.000000;;
   0.000000;
   0.000000;0.000000;0.000000;;
   0.000000;0.000000;0.000000;;

   TextureFilename  {
    "Iron1.png";
   }
  }

  Material  {
   1.000000;1.000000;1.000000;1.000000;;
   0.000000;
   0.000000;0.000000;0.000000;;
   0.000000;0.000000;0.000000;;

   TextureFilename  {
    "Iron1.png";
   }
  }

  Material  {
   1.000000;1.000000;1.000000;1.000000;;
   0.000000;
   0.000000;0.000000;0.000000;;
   0.000000;0.000000;0.000000;;

   TextureFilename  {
    "Roof1.png";
   }
  }

  Material  {
   1.000000;1.000000;1.000000;1.000000;;
   0.000000;
   0.000000;0.000000;0.000000;;
   0.000000;0.000000;0.000000;;

   TextureFilename  {
    "Roof2.png";
   }
  }

  Material  {
   1.000000;1.000000;1.000000;1.000000;;
   0.000000;
   0.000000;0.000000;0.000000;;
   0.000000;0.000000;0.000000;;

   TextureFilename  {
    "Iron2.png";
   }
  }

  Material  {
   0.313726;0.254902;0.254902;0.784314;;
   0.000000;
   0.000000;0.000000;0.000000;;
   0.000000;0.000000;0.000000;;
  }

  Material  {
   1.000000;1.000000;1.000000;1.000000;;
   0.000000;
   0.000000;0.000000;0.000000;;
   0.000000;0.000000;0.000000;;

   TextureFilename  {
    "Ekimei1.png";
   }
  }

  Material  {
   1.000000;1.000000;1.000000;1.000000;;
   0.000000;
   0.000000;0.000000;0.000000;;
   0.000000;0.000000;0.000000;;

   TextureFilename  {
    "Ekimei1.png";
   }
  }

  Material  {
   1.000000;1.000000;1.000000;1.000000;;
   0.000000;
   0.000000;0.000000;0.000000;;
   0.000000;0.000000;0.000000;;

   TextureFilename  {
    "NO1.png";
   }
  }

  Material  {
   1.000000;1.000000;1.000000;1.000000;;
   0.000000;
   0.000000;0.000000;0.000000;;
   0.000000;0.000000;0.000000;;

   TextureFilename  {
    "Annai.png";
   }
  }

  Material  {
   1.000000;1.000000;1.000000;1.000000;;
   0.000000;
   0.000000;0.000000;0.000000;;
   0.000000;0.000000;0.000000;;

   TextureFilename  {
    "FormSide.png";
   }
  }

  Material  {
   1.000000;1.000000;1.000000;1.000000;;
   0.000000;
   0.000000;0.000000;0.000000;;
   0.000000;0.000000;0.000000;;

   TextureFilename  {
    "FormC.png";
   }
  }

  Material  {
   1.000000;1.000000;1.000000;1.000000;;
   0.000000;
   0.000000;0.000000;0.000000;;
   0.000000;0.000000;0.000000;;

   TextureFilename  {
    "Saku1.png";
   }
  }

  Material  {
   0.125490;0.125490;0.125490;0.501961;;
   0.000000;
   0.000000;0.000000;0.000000;;
   0.000000;0.000000;0.000000;;
  }

  Material  {
   1.000000;1.000000;1.000000;1.000000;;
   0.000000;
   0.000000;0.000000;0.000000;;
   0.000000;0.000000;0.000000;;

   TextureFilename  {
    "Wall1.png";
   }
  }

  Material  {
   1.000000;1.000000;1.000000;1.000000;;
   0.000000;
   0.000000;0.000000;0.000000;;
   0.000000;0.000000;0.000000;;

   TextureFilename  {
    "Wall2.png";
   }
  }

  Material  {
   1.000000;1.000000;1.000000;1.000000;;
   0.000000;
   0.000000;0.000000;0.000000;;
   0.000000;0.000000;0.000000;;

   TextureFilename  {
    "Iron1.png";
   }
  }

  Material  {
   1.000000;1.000000;1.000000;1.000000;;
   0.000000;
   0.000000;0.000000;0.000000;;
   0.000000;0.000000;0.000000;;

   TextureFilename  {
    "Iron1.png";
   }
  }

  Material  {
   1.000000;1.000000;1.000000;1.000000;;
   0.000000;
   0.000000;0.000000;0.000000;;
   0.000000;0.000000;0.000000;;

   TextureFilename  {
    "Iron1.png";
   }
  }

  Material  {
   1.000000;1.000000;1.000000;1.000000;;
   0.000000;
   0.000000;0.000000;0.000000;;
   0.000000;0.000000;0.000000;;

   TextureFilename  {
    "Iron1.png";
   }
  }

  Material  {
   1.000000;1.000000;1.000000;1.000000;;
   0.000000;
   0.000000;0.000000;0.000000;;
   0.000000;0.000000;0.000000;;

   TextureFilename  {
    "Iron1.png";
   }
  }

  Material  {
   1.000000;1.000000;1.000000;1.000000;;
   0.000000;
   0.000000;0.000000;0.000000;;
   0.000000;0.000000;0.000000;;

   TextureFilename  {
    "Iron1.png";
   }
  }

  Material  {
   1.000000;1.000000;1.000000;1.000000;;
   0.000000;
   0.000000;0.000000;0.000000;;
   0.000000;0.000000;0.000000;;

   TextureFilename  {
    "Iron1.png";
   }
  }

  Material  {
   1.000000;1.000000;1.000000;1.000000;;
   0.000000;
   0.000000;0.000000;0.000000;;
   0.000000;0.000000;0.000000;;

   TextureFilename  {
    "Iron1.png";
   }
  }

  Material  {
   1.000000;1.000000;1.000000;1.000000;;
   0.000000;
   0.000000;0.000000;0.000000;;
   0.000000;0.000000;0.000000;;

   TextureFilename  {
    "Iron1.png";
   }
  }

  Material  {
   1.000000;1.000000;1.000000;1.000000;;
   0.000000;
   0.000000;0.000000;0.000000;;
   0.000000;0.000000;0.000000;;

   TextureFilename  {
    "Iron1.png";
   }
  }

  Material  {
   1.000000;1.000000;1.000000;1.000000;;
   0.000000;
   0.000000;0.000000;0.000000;;
   0.000000;0.000000;0.000000;;

   TextureFilename  {
    "Roof1.png";
   }
  }

  Material  {
   1.000000;1.000000;1.000000;1.000000;;
   0.000000;
   0.000000;0.000000;0.000000;;
   0.000000;0.000000;0.000000;;

   TextureFilename  {
    "Roof2.png";
   }
  }

  Material  {
   1.000000;1.000000;1.000000;1.000000;;
   0.000000;
   0.000000;0.000000;0.000000;;
   0.000000;0.000000;0.000000;;

   TextureFilename  {
    "Iron2.png";
   }
  }

  Material  {
   0.313726;0.254902;0.254902;0.784314;;
   0.000000;
   0.000000;0.000000;0.000000;;
   0.000000;0.000000;0.000000;;
  }

  Material  {
   1.000000;1.000000;1.000000;1.000000;;
   0.000000;
   0.000000;0.000000;0.000000;;
   0.000000;0.000000;0.000000;;

   TextureFilename  {
    "Ekimei1.png";
   }
  }

  Material  {
   1.000000;1.000000;1.000000;1.000000;;
   0.000000;
   0.000000;0.000000;0.000000;;
   0.000000;0.000000;0.000000;;

   TextureFilename  {
    "NO2.png";
   }
  }

  Material  {
   1.000000;1.000000;1.000000;1.000000;;
   0.000000;
   0.000000;0.000000;0.000000;;
   0.000000;0.000000;0.000000;;

   TextureFilename  {
    "Annai.png";
   }
  }

  Material  {
   1.000000;1.000000;1.000000;1.000000;;
   0.000000;
   0.000000;0.000000;0.000000;;
   0.000000;0.000000;0.000000;;

   TextureFilename  {
    "Ekimei2.png";
   }
  }
 }

 MeshTextureCoords  {
  279;
  0.000000;1.000000;,
  0.000000;0.320000;,
  0.000000;0.000000;,
  1.600000;1.000000;,
  1.600000;0.320000;,
  1.600000;0.000000;,
  3.200000;1.000000;,
  3.200000;0.320000;,
  3.200000;0.000000;,
  4.800000;1.000000;,
  4.800000;0.320000;,
  4.800000;0.000000;,
  6.400000;1.000000;,
  6.400000;0.320000;,
  6.400000;0.000000;,
  8.000000;1.000000;,
  8.000000;0.320000;,
  8.000000;0.000000;,
  0.000000;0.000000;,
  0.200000;0.000000;,
  0.400000;0.000000;,
  0.600000;0.000000;,
  0.800000;0.000000;,
  1.000000;0.000000;,
  0.200000;0.386000;,
  1.000000;0.386000;,
  0.000000;0.810000;,
  0.120000;1.000000;,
  0.200000;1.000000;,
  0.000000;1.000000;,
  0.000000;0.000000;,
  1.000000;1.000000;,
  1.000000;0.000000;,
  2.000000;1.000000;,
  2.000000;0.000000;,
  0.000000;0.000000;,
  0.000000;0.000000;,
  0.000000;0.000000;,
  0.000000;0.000000;,
  0.000000;0.000000;,
  0.000000;0.000000;,
  0.000000;1.000000;,
  0.000000;0.000000;,
  0.500000;1.000000;,
  0.500000;0.000000;,
  1.000000;1.000000;,
  1.000000;0.000000;,
  0.000000;0.000000;,
  0.000000;0.000000;,
  0.000000;0.000000;,
  0.000000;0.000000;,
  0.000000;0.000000;,
  0.000000;0.000000;,
  0.000000;0.000000;,
  1.000000;0.500000;,
  1.000000;0.000000;,
  0.000000;0.000000;,
  0.000000;0.500000;,
  1.000000;0.500000;,
  1.000000;0.000000;,
  0.000000;0.000000;,
  0.000000;0.500000;,
  1.000000;0.500000;,
  1.000000;0.000000;,
  0.000000;0.000000;,
  0.000000;0.500000;,
  1.000000;0.500000;,
  1.000000;0.000000;,
  0.000000;0.000000;,
  0.000000;0.500000;,
  1.000000;0.500000;,
  1.000000;0.000000;,
  0.000000;0.000000;,
  0.000000;0.500000;,
  1.000000;1.000000;,
  1.000000;0.000000;,
  0.000000;0.000000;,
  0.000000;1.000000;,
  1.000000;1.000000;,
  1.000000;0.000000;,
  0.000000;0.000000;,
  0.000000;1.000000;,
  1.000000;1.000000;,
  1.000000;0.000000;,
  0.000000;0.000000;,
  0.000000;1.000000;,
  0.000000;0.500000;,
  1.000000;0.500000;,
  1.000000;0.000000;,
  0.000000;0.000000;,
  0.000000;0.500000;,
  1.000000;0.500000;,
  1.000000;0.000000;,
  0.000000;0.000000;,
  0.000000;0.390000;,
  0.000000;2.500000;,
  2.500000;0.390000;,
  2.500000;2.500000;,
  0.000000;1.000000;,
  0.000000;0.000000;,
  1.000000;1.000000;,
  1.000000;0.000000;,
  2.000000;1.000000;,
  2.000000;0.000000;,
  0.000000;1.500000;,
  0.000000;1.000000;,
  0.500000;1.500000;,
  0.500000;1.000000;,
  5.500000;1.500000;,
  5.500000;1.000000;,
  5.500000;0.120000;,
  6.500000;1.500000;,
  6.500000;0.000000;,
  0.000000;0.000000;,
  0.000000;0.000000;,
  0.000000;0.000000;,
  0.000000;0.000000;,
  0.000000;0.000000;,
  0.000000;0.000000;,
  0.000000;0.000000;,
  0.000000;0.000000;,
  0.000000;0.000000;,
  0.000000;0.312500;,
  0.000000;0.000000;,
  1.000000;0.312500;,
  1.000000;0.000000;,
  0.000000;1.000000;,
  0.000000;0.453000;,
  1.000000;1.000000;,
  1.000000;0.453000;,
  0.000000;1.000000;,
  0.000000;0.000000;,
  1.000000;1.000000;,
  1.000000;0.000000;,
  0.000000;1.000000;,
  0.000000;0.350000;,
  1.000000;1.000000;,
  1.000000;0.350000;,
  0.000000;1.000000;,
  0.000000;0.320000;,
  0.000000;0.000000;,
  1.600000;1.000000;,
  1.600000;0.320000;,
  1.600000;0.000000;,
  3.200000;1.000000;,
  3.200000;0.320000;,
  3.200000;0.000000;,
  4.800000;1.000000;,
  4.800000;0.320000;,
  4.800000;0.000000;,
  6.400000;1.000000;,
  6.400000;0.320000;,
  6.400000;0.000000;,
  8.000000;1.000000;,
  8.000000;0.320000;,
  8.000000;0.000000;,
  0.000000;0.000000;,
  0.200000;0.000000;,
  0.400000;0.000000;,
  0.600000;0.000000;,
  0.800000;0.000000;,
  1.000000;0.000000;,
  0.400000;0.386000;,
  0.800000;0.386000;,
  1.000000;0.386000;,
  0.400000;1.000000;,
  0.800000;1.000000;,
  0.000000;0.810000;,
  0.112000;1.210000;,
  1.000000;1.210000;,
  0.000000;1.000000;,
  0.000000;0.000000;,
  1.000000;1.000000;,
  1.000000;0.000000;,
  4.500000;1.000000;,
  4.500000;0.000000;,
  5.500000;1.000000;,
  5.500000;0.000000;,
  0.000000;0.000000;,
  0.000000;0.000000;,
  0.000000;0.000000;,
  0.000000;0.000000;,
  0.000000;0.000000;,
  0.000000;0.000000;,
  0.000000;0.000000;,
  0.000000;0.000000;,
  0.000000;0.000000;,
  0.000000;0.000000;,
  0.000000;0.000000;,
  0.000000;0.000000;,
  0.000000;0.000000;,
  0.000000;0.000000;,
  0.000000;0.000000;,
  0.000000;0.000000;,
  0.000000;0.000000;,
  0.000000;0.000000;,
  0.000000;0.000000;,
  0.000000;0.000000;,
  0.000000;0.000000;,
  0.000000;0.000000;,
  0.000000;0.000000;,
  0.000000;0.000000;,
  0.000000;0.000000;,
  0.000000;0.000000;,
  0.000000;0.000000;,
  1.000000;1.000000;,
  1.000000;0.000000;,
  0.000000;0.000000;,
  0.000000;1.000000;,
  1.000000;0.500000;,
  1.000000;0.000000;,
  0.000000;0.000000;,
  0.000000;0.500000;,
  1.000000;0.500000;,
  1.000000;0.000000;,
  0.000000;0.000000;,
  0.000000;0.500000;,
  1.000000;0.500000;,
  1.000000;0.000000;,
  0.000000;0.000000;,
  0.000000;0.500000;,
  1.000000;0.500000;,
  1.000000;0.000000;,
  0.000000;0.000000;,
  0.000000;0.500000;,
  1.000000;1.000000;,
  1.000000;0.000000;,
  0.000000;0.000000;,
  0.000000;1.000000;,
  1.000000;1.000000;,
  1.000000;0.000000;,
  0.000000;0.000000;,
  0.000000;1.000000;,
  1.000000;1.000000;,
  1.000000;0.000000;,
  0.000000;0.000000;,
  0.000000;1.000000;,
  0.000000;0.500000;,
  1.000000;0.500000;,
  1.000000;0.000000;,
  0.000000;0.000000;,
  0.000000;0.500000;,
  1.000000;0.500000;,
  1.000000;0.000000;,
  0.000000;0.000000;,
  0.000000;0.390000;,
  0.000000;2.500000;,
  2.500000;0.390000;,
  2.500000;2.500000;,
  0.000000;1.000000;,
  0.000000;0.000000;,
  1.000000;1.000000;,
  1.000000;0.000000;,
  2.000000;1.000000;,
  2.000000;0.000000;,
  0.000000;2.500000;,
  0.000000;0.220000;,
  1.000000;2.500000;,
  1.000000;0.000000;,
  0.000000;0.000000;,
  0.000000;0.000000;,
  0.000000;0.000000;,
  0.000000;0.000000;,
  0.000000;1.000000;,
  0.000000;0.453000;,
  1.000000;1.000000;,
  1.000000;0.453000;,
  1.000000;1.000000;,
  1.000000;0.000000;,
  0.000000;1.000000;,
  0.000000;0.000000;,
  1.000000;1.000000;,
  1.000000;0.350000;,
  0.000000;1.000000;,
  0.000000;0.350000;,
  0.000000;1.000000;,
  0.000000;0.000000;,
  1.000000;1.000000;,
  1.000000;0.000000;;
 }

 MeshNormals  {
  203;
  0.999998;0.000000;-0.002120;,
  0.999998;0.000000;-0.002120;,
  0.000000;1.000000;0.000000;,
  0.000000;1.000000;0.000000;,
  0.999999;0.000000;-0.001060;,
  0.999999;0.000000;-0.001060;,
  0.000000;1.000000;0.000000;,
  0.000000;1.000000;0.000000;,
  1.000000;0.000000;0.000000;,
  1.000000;0.000000;0.000000;,
  0.000000;1.000000;0.000000;,
  0.000000;1.000000;0.000000;,
  0.999999;0.000000;0.001060;,
  0.999999;0.000000;0.001060;,
  0.000000;1.000000;0.000000;,
  0.000000;1.000000;0.000000;,
  0.999998;0.000000;0.002120;,
  0.999998;0.000000;0.002120;,
  0.000000;1.000000;0.000000;,
  0.000000;1.000000;0.000000;,
  0.000000;1.000000;0.000000;,
  0.000000;1.000000;0.000000;,
  0.000000;1.000000;0.000000;,
  0.000000;1.000000;0.000000;,
  0.000000;1.000000;0.000000;,
  0.000000;1.000000;0.000000;,
  0.000000;1.000000;0.000000;,
  0.000000;1.000000;0.000000;,
  0.000000;1.000000;0.000000;,
  0.917556;0.000000;0.397607;,
  0.917556;0.000000;0.397607;,
  -0.917556;0.000000;-0.397607;,
  -0.917556;0.000000;-0.397607;,
  1.000000;0.000000;0.000000;,
  1.000000;0.000000;0.000000;,
  0.917556;0.000000;0.397607;,
  0.917556;0.000000;0.397607;,
  -0.917556;0.000000;-0.397607;,
  -0.917556;0.000000;-0.397607;,
  1.000000;0.000000;0.000000;,
  1.000000;0.000000;0.000000;,
  1.000000;0.000000;0.000000;,
  1.000000;0.000000;0.000000;,
  0.000000;0.000000;-1.000000;,
  0.000000;0.000000;-1.000000;,
  0.000000;0.000000;-1.000000;,
  0.000000;0.000000;-1.000000;,
  0.000000;1.000000;0.000000;,
  0.000000;1.000000;0.000000;,
  1.000000;0.000000;0.000000;,
  1.000000;0.000000;0.000000;,
  0.000000;0.000000;-1.000000;,
  0.000000;0.000000;-1.000000;,
  0.000000;0.000000;-1.000000;,
  0.000000;0.000000;-1.000000;,
  0.000000;0.000000;-1.000000;,
  0.000000;0.000000;-1.000000;,
  0.000000;0.000000;-1.000000;,
  0.000000;0.000000;-1.000000;,
  0.000000;0.000000;-1.000000;,
  0.000000;0.000000;-1.000000;,
  0.000000;0.000000;-1.000000;,
  0.000000;0.000000;-1.000000;,
  0.000000;0.000000;-1.000000;,
  0.000000;0.000000;-1.000000;,
  0.000000;0.000000;-1.000000;,
  0.000000;0.000000;-1.000000;,
  1.000000;0.000000;0.000000;,
  1.000000;0.000000;0.000000;,
  1.000000;0.000000;0.000000;,
  1.000000;0.000000;0.000000;,
  0.077544;-0.996989;0.000000;,
  0.077544;-0.996989;0.000000;,
  0.000000;0.000000;-1.000000;,
  0.000000;0.000000;-1.000000;,
  1.000000;0.000000;0.000000;,
  1.000000;0.000000;0.000000;,
  0.000000;0.000000;-1.000000;,
  0.000000;0.000000;-1.000000;,
  1.000000;0.000000;0.000000;,
  1.000000;0.000000;0.000000;,
  0.000000;0.000000;-1.000000;,
  0.000000;0.000000;-1.000000;,
  0.000000;0.000000;-1.000000;,
  0.000000;0.000000;-1.000000;,
  1.000000;0.000000;0.000000;,
  1.000000;0.000000;0.000000;,
  0.000000;0.000000;-1.000000;,
  0.000000;0.000000;-1.000000;,
  1.000000;0.000000;0.000000;,
  1.000000;0.000000;0.000000;,
  1.000000;0.000000;0.000000;,
  1.000000;0.000000;0.000000;,
  0.000000;0.000000;-1.000000;,
  0.000000;0.000000;-1.000000;,
  0.000000;0.000000;-1.000000;,
  0.000000;0.000000;-1.000000;,
  -0.999998;0.000000;0.002078;,
  -0.999998;0.000000;0.002078;,
  0.000000;1.000000;0.000000;,
  0.000000;1.000000;0.000000;,
  -0.999999;0.000000;0.001060;,
  -0.999999;0.000000;0.001060;,
  0.000000;1.000000;0.000000;,
  0.000000;1.000000;0.000000;,
  -1.000000;0.000000;0.000000;,
  -1.000000;0.000000;0.000000;,
  0.000000;1.000000;0.000000;,
  0.000000;1.000000;0.000000;,
  -0.999999;0.000000;-0.001060;,
  -0.999999;0.000000;-0.001060;,
  0.000000;1.000000;0.000000;,
  0.000000;1.000000;0.000000;,
  -0.999998;0.000000;-0.002078;,
  -0.999998;0.000000;-0.002078;,
  0.000000;1.000000;0.000000;,
  0.000000;1.000000;0.000000;,
  0.000000;-1.000000;0.000000;,
  0.000000;-1.000000;0.000000;,
  0.000000;-1.000000;0.000000;,
  0.000000;-1.000000;0.000000;,
  0.000000;1.000000;0.000000;,
  0.000000;1.000000;0.000000;,
  0.000000;1.000000;0.000000;,
  0.000000;1.000000;0.000000;,
  0.000000;1.000000;0.000000;,
  0.000000;1.000000;0.000000;,
  0.000000;1.000000;0.000000;,
  0.000000;1.000000;0.000000;,
  0.000000;1.000000;0.000000;,
  0.000000;1.000000;0.000000;,
  -0.719401;0.000000;0.694595;,
  -0.719401;0.000000;0.694595;,
  0.719401;0.000000;-0.694595;,
  0.719401;0.000000;-0.694595;,
  -1.000000;0.000000;0.000000;,
  -1.000000;0.000000;0.000000;,
  -0.422030;0.000000;-0.906582;,
  -0.422030;0.000000;-0.906582;,
  -0.719401;0.000000;0.694595;,
  -0.719401;0.000000;0.694595;,
  0.719401;0.000000;-0.694595;,
  0.719401;0.000000;-0.694595;,
  -1.000000;0.000000;0.000000;,
  -1.000000;0.000000;0.000000;,
  -0.422030;0.000000;-0.906582;,
  -0.422030;0.000000;-0.906582;,
  0.000000;0.000000;-1.000000;,
  0.000000;0.000000;-1.000000;,
  -1.000000;0.000000;0.000000;,
  -1.000000;0.000000;0.000000;,
  0.000000;0.000000;-1.000000;,
  0.000000;0.000000;-1.000000;,
  -1.000000;0.000000;0.000000;,
  -1.000000;0.000000;0.000000;,
  0.000000;1.000000;0.000000;,
  0.000000;1.000000;0.000000;,
  0.000000;1.000000;0.000000;,
  0.000000;1.000000;0.000000;,
  0.000000;0.000000;-1.000000;,
  0.000000;0.000000;-1.000000;,
  0.000000;1.000000;0.000000;,
  0.000000;1.000000;0.000000;,
  0.000000;0.000000;-1.000000;,
  0.000000;0.000000;-1.000000;,
  0.000000;0.000000;-1.000000;,
  0.000000;0.000000;-1.000000;,
  0.000000;0.000000;-1.000000;,
  0.000000;0.000000;-1.000000;,
  0.000000;0.000000;-1.000000;,
  0.000000;0.000000;-1.000000;,
  0.000000;0.000000;-1.000000;,
  0.000000;0.000000;-1.000000;,
  0.000000;0.000000;-1.000000;,
  0.000000;0.000000;-1.000000;,
  0.000000;0.000000;-1.000000;,
  0.000000;0.000000;-1.000000;,
  0.000000;0.000000;-1.000000;,
  0.000000;0.000000;-1.000000;,
  -1.000000;0.000000;0.000000;,
  -1.000000;0.000000;0.000000;,
  -1.000000;0.000000;0.000000;,
  -1.000000;0.000000;0.000000;,
  -0.077544;-0.996989;0.000000;,
  -0.077544;-0.996989;0.000000;,
  0.000000;0.000000;-1.000000;,
  0.000000;0.000000;-1.000000;,
  -1.000000;0.000000;0.000000;,
  -1.000000;0.000000;0.000000;,
  0.000000;0.000000;-1.000000;,
  0.000000;0.000000;-1.000000;,
  0.000000;0.000000;-1.000000;,
  0.000000;0.000000;-1.000000;,
  -1.000000;0.000000;0.000000;,
  -1.000000;0.000000;0.000000;,
  0.000000;0.000000;-1.000000;,
  0.000000;0.000000;-1.000000;,
  0.000000;0.000000;-1.000000;,
  0.000000;0.000000;-1.000000;,
  -1.000000;0.000000;0.000000;,
  -1.000000;0.000000;0.000000;,
  1.000000;0.000000;0.000000;,
  1.000000;0.000000;0.000000;;
  203;
  3;0,0,0;,
  3;1,1,1;,
  3;2,2,2;,
  3;3,3,3;,
  3;4,4,4;,
  3;5,5,5;,
  3;6,6,6;,
  3;7,7,7;,
  3;8,8,8;,
  3;9,9,9;,
  3;10,10,10;,
  3;11,11,11;,
  3;12,12,12;,
  3;13,13,13;,
  3;14,14,14;,
  3;15,15,15;,
  3;16,16,16;,
  3;17,17,17;,
  3;18,18,18;,
  3;19,19,19;,
  3;20,20,20;,
  3;21,21,21;,
  3;22,22,22;,
  3;23,23,23;,
  3;24,24,24;,
  3;25,25,25;,
  3;26,26,26;,
  3;27,27,27;,
  3;28,28,28;,
  3;29,29,29;,
  3;30,30,30;,
  3;31,31,31;,
  3;32,32,32;,
  3;33,33,33;,
  3;34,34,34;,
  3;35,35,35;,
  3;36,36,36;,
  3;37,37,37;,
  3;38,38,38;,
  3;39,39,39;,
  3;40,40,40;,
  3;41,41,41;,
  3;42,42,42;,
  3;43,43,43;,
  3;44,44,44;,
  3;45,45,45;,
  3;46,46,46;,
  3;47,47,47;,
  3;48,48,48;,
  3;49,49,49;,
  3;50,50,50;,
  3;51,51,51;,
  3;52,52,52;,
  3;53,53,53;,
  3;54,54,54;,
  3;55,55,55;,
  3;56,56,56;,
  3;57,57,57;,
  3;58,58,58;,
  3;59,59,59;,
  3;60,60,60;,
  3;61,61,61;,
  3;62,62,62;,
  3;63,63,63;,
  3;64,64,64;,
  3;65,65,65;,
  3;66,66,66;,
  3;67,67,67;,
  3;68,68,68;,
  3;69,69,69;,
  3;70,70,70;,
  3;71,71,71;,
  3;72,72,72;,
  3;73,73,73;,
  3;74,74,74;,
  3;75,75,75;,
  3;76,76,76;,
  3;77,77,77;,
  3;78,78,78;,
  3;79,79,79;,
  3;80,80,80;,
  3;81,81,81;,
  3;82,82,82;,
  3;83,83,83;,
  3;84,84,84;,
  3;85,85,85;,
  3;86,86,86;,
  3;87,87,87;,
  3;88,88,88;,
  3;89,89,89;,
  3;90,90,90;,
  3;91,91,91;,
  3;92,92,92;,
  3;93,93,93;,
  3;94,94,94;,
  3;95,95,95;,
  3;96,96,96;,
  3;97,97,97;,
  3;98,98,98;,
  3;99,99,99;,
  3;100,100,100;,
  3;101,101,101;,
  3;102,102,102;,
  3;103,103,103;,
  3;104,104,104;,
  3;105,105,105;,
  3;106,106,106;,
  3;107,107,107;,
  3;108,108,108;,
  3;109,109,109;,
  3;110,110,110;,
  3;111,111,111;,
  3;112,112,112;,
  3;113,113,113;,
  3;114,114,114;,
  3;115,115,115;,
  3;116,116,116;,
  3;117,117,117;,
  3;118,118,118;,
  3;119,119,119;,
  3;120,120,120;,
  3;121,121,121;,
  3;122,122,122;,
  3;123,123,123;,
  3;124,124,124;,
  3;125,125,125;,
  3;126,126,126;,
  3;127,127,127;,
  3;128,128,128;,
  3;129,129,129;,
  3;130,130,130;,
  3;131,131,131;,
  3;132,132,132;,
  3;133,133,133;,
  3;134,134,134;,
  3;135,135,135;,
  3;136,136,136;,
  3;137,137,137;,
  3;138,138,138;,
  3;139,139,139;,
  3;140,140,140;,
  3;141,141,141;,
  3;142,142,142;,
  3;143,143,143;,
  3;144,144,144;,
  3;145,145,145;,
  3;146,146,146;,
  3;147,147,147;,
  3;148,148,148;,
  3;149,149,149;,
  3;150,150,150;,
  3;151,151,151;,
  3;152,152,152;,
  3;153,153,153;,
  3;154,154,154;,
  3;155,155,155;,
  3;156,156,156;,
  3;157,157,157;,
  3;158,158,158;,
  3;159,159,159;,
  3;160,160,160;,
  3;161,161,161;,
  3;162,162,162;,
  3;163,163,163;,
  3;164,164,164;,
  3;165,165,165;,
  3;166,166,166;,
  3;167,167,167;,
  3;168,168,168;,
  3;169,169,169;,
  3;170,170,170;,
  3;171,171,171;,
  3;172,172,172;,
  3;173,173,173;,
  3;174,174,174;,
  3;175,175,175;,
  3;176,176,176;,
  3;177,177,177;,
  3;178,178,178;,
  3;179,179,179;,
  3;180,180,180;,
  3;181,181,181;,
  3;182,182,182;,
  3;183,183,183;,
  3;184,184,184;,
  3;185,185,185;,
  3;186,186,186;,
  3;187,187,187;,
  3;188,188,188;,
  3;189,189,189;,
  3;190,190,190;,
  3;191,191,191;,
  3;192,192,192;,
  3;193,193,193;,
  3;194,194,194;,
  3;195,195,195;,
  3;196,196,196;,
  3;197,197,197;,
  3;198,198,198;,
  3;199,199,199;,
  3;200,200,200;,
  3;201,201,201;,
  3;202,202,202;;
 }
}