xof 0303txt 0032
template Vector {
 <3d82ab5e-62da-11cf-ab39-0020af71e433>
 FLOAT x;
 FLOAT y;
 FLOAT z;
}

template MeshFace {
 <3d82ab5f-62da-11cf-ab39-0020af71e433>
 DWORD nFaceVertexIndices;
 array DWORD faceVertexIndices[nFaceVertexIndices];
}

template Mesh {
 <3d82ab44-62da-11cf-ab39-0020af71e433>
 DWORD nVertices;
 array Vector vertices[nVertices];
 DWORD nFaces;
 array MeshFace faces[nFaces];
 [...]
}

template ColorRGBA {
 <35ff44e0-6c7c-11cf-8f52-0040333594a3>
 FLOAT red;
 FLOAT green;
 FLOAT blue;
 FLOAT alpha;
}

template ColorRGB {
 <d3e16e81-7835-11cf-8f52-0040333594a3>
 FLOAT red;
 FLOAT green;
 FLOAT blue;
}

template Material {
 <3d82ab4d-62da-11cf-ab39-0020af71e433>
 ColorRGBA faceColor;
 FLOAT power;
 ColorRGB specularColor;
 ColorRGB emissiveColor;
 [...]
}

template MeshMaterialList {
 <f6f23f42-7686-11cf-8f52-0040333594a3>
 DWORD nMaterials;
 DWORD nFaceIndexes;
 array DWORD faceIndexes[nFaceIndexes];
 [Material <3d82ab4d-62da-11cf-ab39-0020af71e433>]
}

template TextureFilename {
 <a42790e1-7810-11cf-8f52-0040333594a3>
 STRING filename;
}

template Coords2d {
 <f6f23f44-7686-11cf-8f52-0040333594a3>
 FLOAT u;
 FLOAT v;
}

template MeshTextureCoords {
 <f6f23f40-7686-11cf-8f52-0040333594a3>
 DWORD nTextureCoords;
 array Coords2d textureCoords[nTextureCoords];
}

template MeshNormals {
 <f6f23f43-7686-11cf-8f52-0040333594a3>
 DWORD nNormals;
 array Vector normals[nNormals];
 DWORD nFaceNormals;
 array MeshFace faceNormals[nFaceNormals];
}


Mesh  {
 276;
 -1.500000;-0.450000;0.000000;,
 -1.500000;1.100000;0.000000;,
 -2.700000;1.100000;0.000000;,
 -1.468800;-0.450000;5.000000;,
 -1.468800;1.100000;5.000000;,
 -2.668800;1.100000;5.000000;,
 -1.453100;-0.450000;10.000000;,
 -1.453100;1.100000;10.000000;,
 -2.653100;1.100000;10.000000;,
 -1.453100;-0.450000;15.000000;,
 -1.453100;1.100000;15.000000;,
 -2.653100;1.100000;15.000000;,
 -1.468800;-0.450000;20.000000;,
 -1.468800;1.100000;20.000000;,
 -2.668800;1.100000;20.000000;,
 -1.500000;-0.450000;25.000000;,
 -1.500000;1.100000;25.000000;,
 -2.700000;1.100000;25.000000;,
 -2.700000;1.100000;0.000000;,
 -2.668800;1.100000;5.000000;,
 -2.653100;1.100000;10.000000;,
 -2.653100;1.100000;15.000000;,
 -2.668800;1.100000;20.000000;,
 -2.700000;1.100000;25.000000;,
 -8.400000;1.100000;0.000000;,
 -8.400000;1.100000;25.000000;,
 -8.400000;1.100000;0.000000;,
 -8.400000;2.300000;0.000000;,
 -8.400000;1.100000;25.000000;,
 -8.400000;2.300000;25.000000;,
 -8.410000;1.300000;0.000000;,
 -8.410000;2.280000;0.000000;,
 -8.410000;1.300000;25.000000;,
 -8.410000;2.280000;25.000000;,
 -7.900000;1.100000;10.000000;,
 -7.900000;3.750000;10.000000;,
 -7.834000;3.920000;10.000000;,
 -7.672000;3.999000;10.000000;,
 -6.172000;4.130000;10.000000;,
 -6.021000;4.123000;10.000000;,
 -5.910000;4.072000;10.000000;,
 -5.825000;3.986000;10.000000;,
 -5.773000;3.876000;10.000000;,
 -7.990000;1.100000;10.000000;,
 -7.990000;3.750000;10.000000;,
 -7.901000;3.980000;10.000000;,
 -7.680000;4.090000;10.000000;,
 -6.180000;4.221000;10.000000;,
 -5.997000;4.210000;10.000000;,
 -5.859000;4.146000;10.000000;,
 -5.751000;4.038000;10.000000;,
 -5.686000;3.899000;10.000000;,
 -7.900000;1.100000;12.000000;,
 -7.900000;3.750000;12.000000;,
 -7.834000;3.920000;12.000000;,
 -7.672000;3.999000;12.000000;,
 -6.172000;4.130000;12.000000;,
 -6.021000;4.123000;12.000000;,
 -5.910000;4.072000;12.000000;,
 -5.825000;3.986000;12.000000;,
 -5.773000;3.876000;12.000000;,
 -7.990000;1.100000;12.000000;,
 -7.990000;3.750000;12.000000;,
 -7.901000;3.980000;12.000000;,
 -7.680000;4.090000;12.000000;,
 -6.180000;4.221000;12.000000;,
 -5.997000;4.210000;12.000000;,
 -5.859000;4.146000;12.000000;,
 -5.751000;4.038000;12.000000;,
 -5.686000;3.899000;12.000000;,
 -7.900000;1.100000;14.000000;,
 -7.900000;3.750000;14.000000;,
 -7.834000;3.920000;14.000000;,
 -7.672000;3.999000;14.000000;,
 -6.172000;4.130000;14.000000;,
 -6.021000;4.123000;14.000000;,
 -5.910000;4.072000;14.000000;,
 -5.825000;3.986000;14.000000;,
 -5.773000;3.876000;14.000000;,
 -7.990000;1.100000;14.000000;,
 -7.990000;3.750000;14.000000;,
 -7.901000;3.980000;14.000000;,
 -7.680000;4.090000;14.000000;,
 -6.180000;4.221000;14.000000;,
 -5.997000;4.210000;14.000000;,
 -5.859000;4.146000;14.000000;,
 -5.751000;4.038000;14.000000;,
 -5.686000;3.899000;14.000000;,
 -8.000000;1.500000;14.000000;,
 -8.000000;2.700000;14.000000;,
 -8.000000;1.500000;10.000000;,
 -8.000000;2.700000;10.000000;,
 -7.990000;3.750000;14.000000;,
 -7.901000;3.980000;14.000000;,
 -7.680000;4.090000;14.000000;,
 -6.180000;4.221000;14.000000;,
 -7.990000;3.750000;10.000000;,
 -7.901000;3.980000;10.000000;,
 -7.680000;4.090000;10.000000;,
 -6.180000;4.221000;10.000000;,
 -6.180000;4.221000;14.000000;,
 -5.997000;4.210000;14.000000;,
 -5.859000;4.146000;14.000000;,
 -5.751000;4.038000;14.000000;,
 -5.686000;3.899000;14.000000;,
 -6.180000;4.221000;10.000000;,
 -5.997000;4.210000;10.000000;,
 -5.859000;4.146000;10.000000;,
 -5.751000;4.038000;10.000000;,
 -5.686000;3.899000;10.000000;,
 -7.400000;1.600000;12.750000;,
 -7.800000;1.600000;12.750000;,
 -7.900000;2.000000;12.750000;,
 -7.400000;1.600000;10.750000;,
 -7.800000;1.600000;10.750000;,
 -7.900000;2.000000;10.750000;,
 -7.450000;1.100000;9.500000;,
 -7.450000;2.200000;9.500000;,
 -7.900000;2.300000;9.500000;,
 -7.450000;1.100000;10.500000;,
 -7.450000;2.200000;10.500000;,
 -7.900000;2.300000;10.500000;,
 -7.900000;1.100000;9.500000;,
 -7.900000;2.300000;9.500000;,
 -7.900000;1.100000;10.500000;,
 -7.900000;2.300000;10.500000;,
 -7.350000;1.100000;13.000000;,
 -7.350000;2.200000;13.000000;,
 -7.900000;2.300000;13.000000;,
 -7.350000;1.100000;14.000000;,
 -7.350000;2.200000;14.000000;,
 -7.900000;2.300000;14.000000;,
 -7.900000;1.100000;13.000000;,
 -7.900000;2.300000;13.000000;,
 -7.900000;1.100000;14.000000;,
 -7.900000;2.300000;14.000000;,
 -7.000000;1.100000;18.000000;,
 -7.000000;3.040000;18.000000;,
 -7.000000;1.100000;19.500000;,
 -7.000000;3.040000;19.500000;,
 5.300000;-0.450000;-0.100000;,
 5.300000;1.100000;-0.100000;,
 6.500000;1.100000;-0.100000;,
 5.331800;-0.450000;5.000000;,
 5.331800;1.100000;5.000000;,
 6.531800;1.100000;5.000000;,
 5.347600;-0.450000;10.000000;,
 5.347600;1.100000;10.000000;,
 6.547600;1.100000;10.000000;,
 5.347600;-0.450000;15.000000;,
 5.347600;1.100000;15.000000;,
 6.547600;1.100000;15.000000;,
 5.331800;-0.450000;20.000000;,
 5.331800;1.100000;20.000000;,
 6.531800;1.100000;20.000000;,
 5.300000;-0.450000;25.100000;,
 5.300000;1.100000;25.100000;,
 6.500000;1.100000;25.100000;,
 6.500000;1.100000;-0.100000;,
 6.531800;1.100000;5.000000;,
 6.547600;1.100000;10.000000;,
 6.547600;1.100000;15.000000;,
 6.531800;1.100000;20.000000;,
 6.500000;1.100000;25.100000;,
 9.200000;1.100000;-0.100000;,
 12.200000;1.100000;25.100000;,
 9.200000;1.100000;-0.100000;,
 9.200000;2.300000;-0.100000;,
 12.200000;1.100000;25.100000;,
 12.200000;2.300000;25.100000;,
 9.200000;1.300000;-0.100000;,
 9.200000;2.280000;-0.100000;,
 12.200000;1.300000;25.100000;,
 12.200000;2.280000;25.100000;,
 9.000000;1.100000;10.000000;,
 9.000000;3.750000;10.000000;,
 8.934000;3.920000;10.000000;,
 8.772000;3.999000;10.000000;,
 7.272000;4.130000;10.000000;,
 7.121000;4.123000;10.000000;,
 7.010000;4.072000;10.000000;,
 6.925000;3.986000;10.000000;,
 6.873000;3.876000;10.000000;,
 9.090000;1.100000;10.000000;,
 9.090000;3.750000;10.000000;,
 9.001000;3.980000;10.000000;,
 8.780000;4.090000;10.000000;,
 7.280000;4.221000;10.000000;,
 7.097000;4.210000;10.000000;,
 6.959000;4.146000;10.000000;,
 6.851000;4.038000;10.000000;,
 6.786000;3.899000;10.000000;,
 9.000000;1.100000;12.000000;,
 9.000000;3.750000;12.000000;,
 8.934000;3.920000;12.000000;,
 8.772000;3.999000;12.000000;,
 7.272000;4.130000;12.000000;,
 7.121000;4.123000;12.000000;,
 7.010000;4.072000;12.000000;,
 6.925000;3.986000;12.000000;,
 6.873000;3.876000;12.000000;,
 9.090000;1.100000;12.000000;,
 9.090000;3.750000;12.000000;,
 9.001000;3.980000;12.000000;,
 8.780000;4.090000;12.000000;,
 7.280000;4.221000;12.000000;,
 7.097000;4.210000;12.000000;,
 6.959000;4.146000;12.000000;,
 6.851000;4.038000;12.000000;,
 6.786000;3.899000;12.000000;,
 9.000000;1.100000;14.000000;,
 9.000000;3.750000;14.000000;,
 8.934000;3.920000;14.000000;,
 8.772000;3.999000;14.000000;,
 7.272000;4.130000;14.000000;,
 7.121000;4.123000;14.000000;,
 7.010000;4.072000;14.000000;,
 6.925000;3.986000;14.000000;,
 6.873000;3.876000;14.000000;,
 9.090000;1.100000;14.000000;,
 9.090000;3.750000;14.000000;,
 9.001000;3.980000;14.000000;,
 8.780000;4.090000;14.000000;,
 7.280000;4.221000;14.000000;,
 7.097000;4.210000;14.000000;,
 6.959000;4.146000;14.000000;,
 6.851000;4.038000;14.000000;,
 6.786000;3.899000;14.000000;,
 9.100000;1.500000;14.000000;,
 9.100000;2.700000;14.000000;,
 9.100000;1.500000;10.000000;,
 9.100000;2.700000;10.000000;,
 9.090000;3.750000;14.000000;,
 9.001000;3.980000;14.000000;,
 8.780000;4.090000;14.000000;,
 7.280000;4.221000;14.000000;,
 9.090000;3.750000;10.000000;,
 9.001000;3.980000;10.000000;,
 8.780000;4.090000;10.000000;,
 7.280000;4.221000;10.000000;,
 7.280000;4.221000;14.000000;,
 7.097000;4.210000;14.000000;,
 6.959000;4.146000;14.000000;,
 6.851000;4.038000;14.000000;,
 6.786000;3.899000;14.000000;,
 7.280000;4.221000;10.000000;,
 7.097000;4.210000;10.000000;,
 6.959000;4.146000;10.000000;,
 6.851000;4.038000;10.000000;,
 6.786000;3.899000;10.000000;,
 8.500000;1.600000;12.750000;,
 8.900000;1.600000;12.750000;,
 9.000000;2.000000;12.750000;,
 8.500000;1.600000;10.750000;,
 8.900000;1.600000;10.750000;,
 9.000000;2.000000;10.750000;,
 8.550000;1.100000;9.500000;,
 8.550000;2.200000;9.500000;,
 9.000000;2.300000;9.500000;,
 8.550000;1.100000;10.500000;,
 8.550000;2.200000;10.500000;,
 9.000000;2.300000;10.500000;,
 9.000000;1.100000;9.500000;,
 9.000000;2.300000;9.500000;,
 9.000000;1.100000;10.500000;,
 9.000000;2.300000;10.500000;,
 8.450000;1.100000;13.000000;,
 8.450000;2.200000;13.000000;,
 9.000000;2.300000;13.000000;,
 8.450000;1.100000;14.000000;,
 8.450000;2.200000;14.000000;,
 9.000000;2.300000;14.000000;,
 9.000000;1.100000;13.000000;,
 9.000000;2.300000;13.000000;,
 9.000000;1.100000;14.000000;,
 9.000000;2.300000;14.000000;;
 238;
 3;0,1,4;,
 3;0,4,3;,
 3;1,2,5;,
 3;1,5,4;,
 3;3,4,7;,
 3;3,7,6;,
 3;4,5,8;,
 3;4,8,7;,
 3;6,7,10;,
 3;6,10,9;,
 3;7,8,11;,
 3;7,11,10;,
 3;9,10,13;,
 3;9,13,12;,
 3;10,11,14;,
 3;10,14,13;,
 3;12,13,16;,
 3;12,16,15;,
 3;13,14,17;,
 3;13,17,16;,
 3;18,24,25;,
 3;18,25,23;,
 3;18,23,22;,
 3;18,22,21;,
 3;18,21,20;,
 3;18,20,19;,
 3;26,27,29;,
 3;26,29,28;,
 3;28,29,27;,
 3;28,27,26;,
 3;30,31,33;,
 3;30,33,32;,
 3;32,33,31;,
 3;32,31,30;,
 3;43,44,35;,
 3;43,35,34;,
 3;44,45,36;,
 3;44,36,35;,
 3;45,46,37;,
 3;45,37,36;,
 3;46,47,38;,
 3;46,38,37;,
 3;47,48,39;,
 3;47,39,38;,
 3;48,49,40;,
 3;48,40,39;,
 3;49,50,41;,
 3;49,41,40;,
 3;50,51,42;,
 3;50,42,41;,
 3;61,62,53;,
 3;61,53,52;,
 3;62,63,54;,
 3;62,54,53;,
 3;63,64,55;,
 3;63,55,54;,
 3;64,65,56;,
 3;64,56,55;,
 3;65,66,57;,
 3;65,57,56;,
 3;66,67,58;,
 3;66,58,57;,
 3;67,68,59;,
 3;67,59,58;,
 3;68,69,60;,
 3;68,60,59;,
 3;79,80,71;,
 3;79,71,70;,
 3;80,81,72;,
 3;80,72,71;,
 3;81,82,73;,
 3;81,73,72;,
 3;82,83,74;,
 3;82,74,73;,
 3;83,84,75;,
 3;83,75,74;,
 3;84,85,76;,
 3;84,76,75;,
 3;85,86,77;,
 3;85,77,76;,
 3;86,87,78;,
 3;86,78,77;,
 3;90,91,89;,
 3;90,89,88;,
 3;96,97,93;,
 3;96,93,92;,
 3;97,98,94;,
 3;97,94,93;,
 3;98,99,95;,
 3;98,95,94;,
 3;100,101,106;,
 3;100,106,105;,
 3;101,102,107;,
 3;101,107,106;,
 3;102,103,108;,
 3;102,108,107;,
 3;103,104,109;,
 3;103,109,108;,
 3;113,114,111;,
 3;113,111,110;,
 3;114,115,112;,
 3;114,112,111;,
 3;116,117,120;,
 3;116,120,119;,
 3;117,118,121;,
 3;117,121,120;,
 3;122,123,117;,
 3;122,117,116;,
 3;124,125,123;,
 3;124,123,122;,
 3;126,127,130;,
 3;126,130,129;,
 3;127,128,131;,
 3;127,131,130;,
 3;132,133,127;,
 3;132,127,126;,
 3;134,135,133;,
 3;134,133,132;,
 3;136,137,139;,
 3;136,139,138;,
 3;143,144,141;,
 3;143,141,140;,
 3;144,145,142;,
 3;144,142,141;,
 3;146,147,144;,
 3;146,144,143;,
 3;147,148,145;,
 3;147,145,144;,
 3;149,150,147;,
 3;149,147,146;,
 3;150,151,148;,
 3;150,148,147;,
 3;152,153,150;,
 3;152,150,149;,
 3;153,154,151;,
 3;153,151,150;,
 3;155,156,153;,
 3;155,153,152;,
 3;156,157,154;,
 3;156,154,153;,
 3;158,159,160;,
 3;158,160,161;,
 3;158,161,162;,
 3;158,162,163;,
 3;158,163,165;,
 3;158,165,164;,
 3;168,169,167;,
 3;168,167,166;,
 3;166,167,169;,
 3;166,169,168;,
 3;172,173,171;,
 3;172,171,170;,
 3;170,171,173;,
 3;170,173,172;,
 3;174,175,184;,
 3;174,184,183;,
 3;175,176,185;,
 3;175,185,184;,
 3;176,177,186;,
 3;176,186,185;,
 3;177,178,187;,
 3;177,187,186;,
 3;178,179,188;,
 3;178,188,187;,
 3;179,180,189;,
 3;179,189,188;,
 3;180,181,190;,
 3;180,190,189;,
 3;181,182,191;,
 3;181,191,190;,
 3;192,193,202;,
 3;192,202,201;,
 3;193,194,203;,
 3;193,203,202;,
 3;194,195,204;,
 3;194,204,203;,
 3;195,196,205;,
 3;195,205,204;,
 3;196,197,206;,
 3;196,206,205;,
 3;197,198,207;,
 3;197,207,206;,
 3;198,199,208;,
 3;198,208,207;,
 3;199,200,209;,
 3;199,209,208;,
 3;210,211,220;,
 3;210,220,219;,
 3;211,212,221;,
 3;211,221,220;,
 3;212,213,222;,
 3;212,222,221;,
 3;213,214,223;,
 3;213,223,222;,
 3;214,215,224;,
 3;214,224,223;,
 3;215,216,225;,
 3;215,225,224;,
 3;216,217,226;,
 3;216,226,225;,
 3;217,218,227;,
 3;217,227,226;,
 3;228,229,231;,
 3;228,231,230;,
 3;232,233,237;,
 3;232,237,236;,
 3;233,234,238;,
 3;233,238,237;,
 3;234,235,239;,
 3;234,239,238;,
 3;245,246,241;,
 3;245,241,240;,
 3;246,247,242;,
 3;246,242,241;,
 3;247,248,243;,
 3;247,243,242;,
 3;248,249,244;,
 3;248,244,243;,
 3;250,251,254;,
 3;250,254,253;,
 3;251,252,255;,
 3;251,255,254;,
 3;259,260,257;,
 3;259,257,256;,
 3;260,261,258;,
 3;260,258,257;,
 3;256,257,263;,
 3;256,263,262;,
 3;262,263,265;,
 3;262,265,264;,
 3;269,270,267;,
 3;269,267,266;,
 3;270,271,268;,
 3;270,268,267;,
 3;266,267,273;,
 3;266,273,272;,
 3;272,273,275;,
 3;272,275,274;;

 MeshMaterialList  {
  27;
  238;
  0,
  0,
  0,
  0,
  0,
  0,
  0,
  0,
  0,
  0,
  0,
  0,
  0,
  0,
  0,
  0,
  0,
  0,
  0,
  0,
  1,
  1,
  1,
  1,
  1,
  1,
  2,
  2,
  2,
  2,
  3,
  3,
  3,
  3,
  4,
  4,
  4,
  4,
  4,
  4,
  4,
  4,
  4,
  4,
  4,
  4,
  4,
  4,
  4,
  4,
  5,
  5,
  5,
  5,
  5,
  5,
  5,
  5,
  5,
  5,
  5,
  5,
  5,
  5,
  5,
  5,
  6,
  6,
  6,
  6,
  6,
  6,
  6,
  6,
  6,
  6,
  6,
  6,
  6,
  6,
  6,
  6,
  7,
  7,
  8,
  8,
  8,
  8,
  8,
  8,
  9,
  9,
  9,
  9,
  9,
  9,
  9,
  9,
  10,
  10,
  10,
  10,
  11,
  11,
  11,
  11,
  11,
  11,
  11,
  11,
  12,
  12,
  12,
  12,
  12,
  12,
  12,
  12,
  13,
  13,
  14,
  14,
  14,
  14,
  14,
  14,
  14,
  14,
  14,
  14,
  14,
  14,
  14,
  14,
  14,
  14,
  14,
  14,
  14,
  14,
  15,
  15,
  15,
  15,
  15,
  15,
  16,
  16,
  16,
  16,
  17,
  17,
  17,
  17,
  18,
  18,
  18,
  18,
  18,
  18,
  18,
  18,
  18,
  18,
  18,
  18,
  18,
  18,
  18,
  18,
  19,
  19,
  19,
  19,
  19,
  19,
  19,
  19,
  19,
  19,
  19,
  19,
  19,
  19,
  19,
  19,
  20,
  20,
  20,
  20,
  20,
  20,
  20,
  20,
  20,
  20,
  20,
  20,
  20,
  20,
  20,
  20,
  21,
  21,
  22,
  22,
  22,
  22,
  22,
  22,
  23,
  23,
  23,
  23,
  23,
  23,
  23,
  23,
  24,
  24,
  24,
  24,
  25,
  25,
  25,
  25,
  25,
  25,
  25,
  25,
  26,
  26,
  26,
  26,
  26,
  26,
  26,
  26;

  Material  {
   1.000000;1.000000;1.000000;1.000000;;
   0.000000;
   0.000000;0.000000;0.000000;;
   0.000000;0.000000;0.000000;;

   TextureFilename  {
    "FormSide.png";
   }
  }

  Material  {
   1.000000;1.000000;1.000000;1.000000;;
   0.000000;
   0.000000;0.000000;0.000000;;
   0.000000;0.000000;0.000000;;

   TextureFilename  {
    "FormC.png";
   }
  }

  Material  {
   1.000000;1.000000;1.000000;1.000000;;
   0.000000;
   0.000000;0.000000;0.000000;;
   0.000000;0.000000;0.000000;;

   TextureFilename  {
    "Saku1.png";
   }
  }

  Material  {
   0.250980;0.250980;0.250980;1.000000;;
   0.000000;
   0.000000;0.000000;0.000000;;
   0.000000;0.000000;0.000000;;
  }

  Material  {
   1.000000;1.000000;1.000000;1.000000;;
   0.000000;
   0.000000;0.000000;0.000000;;
   0.000000;0.000000;0.000000;;

   TextureFilename  {
    "Iron3.png";
   }
  }

  Material  {
   1.000000;1.000000;1.000000;1.000000;;
   0.000000;
   0.000000;0.000000;0.000000;;
   0.000000;0.000000;0.000000;;

   TextureFilename  {
    "Iron3.png";
   }
  }

  Material  {
   1.000000;1.000000;1.000000;1.000000;;
   0.000000;
   0.000000;0.000000;0.000000;;
   0.000000;0.000000;0.000000;;

   TextureFilename  {
    "Iron3.png";
   }
  }

  Material  {
   1.000000;1.000000;1.000000;1.000000;;
   0.000000;
   0.000000;0.000000;0.000000;;
   0.000000;0.000000;0.000000;;

   TextureFilename  {
    "Plate1.png";
   }
  }

  Material  {
   1.000000;1.000000;1.000000;1.000000;;
   0.000000;
   0.000000;0.000000;0.000000;;
   0.000000;0.000000;0.000000;;

   TextureFilename  {
    "Plate1.png";
   }
  }

  Material  {
   1.000000;1.000000;1.000000;1.000000;;
   0.000000;
   0.000000;0.000000;0.000000;;
   0.000000;0.000000;0.000000;;

   TextureFilename  {
    "Plate2.png";
   }
  }

  Material  {
   1.000000;1.000000;1.000000;1.000000;;
   0.000000;
   0.000000;0.000000;0.000000;;
   0.000000;0.000000;0.000000;;

   TextureFilename  {
    "Bench1.png";
   }
  }

  Material  {
   1.000000;1.000000;1.000000;1.000000;;
   0.000000;
   0.000000;0.000000;0.000000;;
   0.000000;0.000000;0.000000;;

   TextureFilename  {
    "TrashCan1.png";
   }
  }

  Material  {
   1.000000;1.000000;1.000000;1.000000;;
   0.000000;
   0.000000;0.000000;0.000000;;
   0.000000;0.000000;0.000000;;

   TextureFilename  {
    "TrashCan1.png";
   }
  }

  Material  {
   1.000000;1.000000;1.000000;1.000000;;
   0.000000;
   0.000000;0.000000;0.000000;;
   0.000000;0.000000;0.000000;;

   TextureFilename  {
    "Meisyo.png";
   }
  }

  Material  {
   1.000000;1.000000;1.000000;1.000000;;
   0.000000;
   0.000000;0.000000;0.000000;;
   0.000000;0.000000;0.000000;;

   TextureFilename  {
    "FormSide.png";
   }
  }

  Material  {
   1.000000;1.000000;1.000000;1.000000;;
   0.000000;
   0.000000;0.000000;0.000000;;
   0.000000;0.000000;0.000000;;

   TextureFilename  {
    "FormC.png";
   }
  }

  Material  {
   1.000000;1.000000;1.000000;1.000000;;
   0.000000;
   0.000000;0.000000;0.000000;;
   0.000000;0.000000;0.000000;;

   TextureFilename  {
    "Saku1.png";
   }
  }

  Material  {
   0.125490;0.125490;0.125490;0.501961;;
   0.000000;
   0.000000;0.000000;0.000000;;
   0.000000;0.000000;0.000000;;
  }

  Material  {
   1.000000;1.000000;1.000000;1.000000;;
   0.000000;
   0.000000;0.000000;0.000000;;
   0.000000;0.000000;0.000000;;

   TextureFilename  {
    "Iron3.png";
   }
  }

  Material  {
   1.000000;1.000000;1.000000;1.000000;;
   0.000000;
   0.000000;0.000000;0.000000;;
   0.000000;0.000000;0.000000;;

   TextureFilename  {
    "Iron3.png";
   }
  }

  Material  {
   1.000000;1.000000;1.000000;1.000000;;
   0.000000;
   0.000000;0.000000;0.000000;;
   0.000000;0.000000;0.000000;;

   TextureFilename  {
    "Iron3.png";
   }
  }

  Material  {
   1.000000;1.000000;1.000000;1.000000;;
   0.000000;
   0.000000;0.000000;0.000000;;
   0.000000;0.000000;0.000000;;

   TextureFilename  {
    "Plate1.png";
   }
  }

  Material  {
   1.000000;1.000000;1.000000;1.000000;;
   0.000000;
   0.000000;0.000000;0.000000;;
   0.000000;0.000000;0.000000;;

   TextureFilename  {
    "Plate1.png";
   }
  }

  Material  {
   1.000000;1.000000;1.000000;1.000000;;
   0.000000;
   0.000000;0.000000;0.000000;;
   0.000000;0.000000;0.000000;;

   TextureFilename  {
    "Plate2.png";
   }
  }

  Material  {
   1.000000;1.000000;1.000000;1.000000;;
   0.000000;
   0.000000;0.000000;0.000000;;
   0.000000;0.000000;0.000000;;

   TextureFilename  {
    "Bench1.png";
   }
  }

  Material  {
   1.000000;1.000000;1.000000;1.000000;;
   0.000000;
   0.000000;0.000000;0.000000;;
   0.000000;0.000000;0.000000;;

   TextureFilename  {
    "TrashCan1.png";
   }
  }

  Material  {
   1.000000;1.000000;1.000000;1.000000;;
   0.000000;
   0.000000;0.000000;0.000000;;
   0.000000;0.000000;0.000000;;

   TextureFilename  {
    "TrashCan1.png";
   }
  }
 }

 MeshTextureCoords  {
  276;
  0.000000;1.000000;,
  0.000000;0.320000;,
  0.000000;0.000000;,
  1.600000;1.000000;,
  1.600000;0.320000;,
  1.600000;0.000000;,
  3.200000;1.000000;,
  3.200000;0.320000;,
  3.200000;0.000000;,
  4.800000;1.000000;,
  4.800000;0.320000;,
  4.800000;0.000000;,
  6.400000;1.000000;,
  6.400000;0.320000;,
  6.400000;0.000000;,
  8.000000;1.000000;,
  8.000000;0.320000;,
  8.000000;0.000000;,
  0.000000;0.000000;,
  0.200000;0.000000;,
  0.400000;0.000000;,
  0.600000;0.000000;,
  0.800000;0.000000;,
  1.000000;0.000000;,
  0.000000;0.814000;,
  1.000000;0.814000;,
  0.000000;1.000000;,
  0.000000;0.000000;,
  5.000000;1.000000;,
  5.000000;0.000000;,
  0.000000;0.000000;,
  0.000000;0.000000;,
  0.000000;0.000000;,
  0.000000;0.000000;,
  0.000000;0.000000;,
  0.000000;0.100000;,
  0.000000;0.200000;,
  0.000000;0.300000;,
  0.000000;0.400000;,
  0.000000;0.500000;,
  0.000000;0.600000;,
  0.000000;0.700000;,
  0.000000;0.800000;,
  1.000000;0.000000;,
  1.000000;0.100000;,
  1.000000;0.200000;,
  1.000000;0.300000;,
  1.000000;0.400000;,
  1.000000;0.500000;,
  1.000000;0.600000;,
  1.000000;0.700000;,
  1.000000;0.800000;,
  0.000000;0.000000;,
  0.000000;0.100000;,
  0.000000;0.200000;,
  0.000000;0.300000;,
  0.000000;0.400000;,
  0.000000;0.500000;,
  0.000000;0.600000;,
  0.000000;0.700000;,
  0.000000;0.800000;,
  1.000000;0.000000;,
  1.000000;0.100000;,
  1.000000;0.200000;,
  1.000000;0.300000;,
  1.000000;0.400000;,
  1.000000;0.500000;,
  1.000000;0.600000;,
  1.000000;0.700000;,
  1.000000;0.800000;,
  0.000000;0.000000;,
  0.000000;0.100000;,
  0.000000;0.200000;,
  0.000000;0.300000;,
  0.000000;0.400000;,
  0.000000;0.500000;,
  0.000000;0.600000;,
  0.000000;0.700000;,
  0.000000;0.800000;,
  1.000000;0.000000;,
  1.000000;0.100000;,
  1.000000;0.200000;,
  1.000000;0.300000;,
  1.000000;0.400000;,
  1.000000;0.500000;,
  1.000000;0.600000;,
  1.000000;0.700000;,
  1.000000;0.800000;,
  0.000000;1.000000;,
  0.000000;0.000000;,
  3.000000;1.000000;,
  3.000000;0.000000;,
  0.000000;0.000000;,
  0.000000;0.100000;,
  0.000000;0.200000;,
  0.000000;1.000000;,
  3.000000;0.000000;,
  3.000000;0.100000;,
  3.000000;0.200000;,
  3.000000;1.000000;,
  0.000000;0.000000;,
  0.000000;0.100000;,
  0.000000;0.200000;,
  0.000000;0.300000;,
  0.000000;0.400000;,
  3.000000;0.000000;,
  3.000000;0.100000;,
  3.000000;0.200000;,
  3.000000;0.300000;,
  3.000000;0.400000;,
  0.000000;1.000000;,
  0.000000;0.500000;,
  0.000000;0.000000;,
  4.000000;1.000000;,
  4.000000;0.500000;,
  4.000000;0.000000;,
  0.000000;1.000000;,
  0.000000;0.156000;,
  0.000000;0.000000;,
  2.000000;1.000000;,
  2.000000;0.156000;,
  2.000000;0.000000;,
  0.000000;1.000000;,
  0.000000;0.156000;,
  0.000000;1.000000;,
  0.000000;0.156000;,
  0.000000;1.000000;,
  0.000000;0.156000;,
  0.000000;0.000000;,
  2.000000;1.000000;,
  2.000000;0.156000;,
  2.000000;0.000000;,
  0.000000;1.000000;,
  0.000000;0.156000;,
  0.000000;1.000000;,
  0.000000;0.156000;,
  0.000000;1.000000;,
  0.000000;0.000000;,
  1.000000;1.000000;,
  1.000000;0.000000;,
  0.000000;1.000000;,
  0.000000;0.320000;,
  0.000000;0.000000;,
  1.600000;1.000000;,
  1.600000;0.320000;,
  1.600000;0.000000;,
  3.200000;1.000000;,
  3.200000;0.320000;,
  3.200000;0.000000;,
  4.800000;1.000000;,
  4.800000;0.320000;,
  4.800000;0.000000;,
  6.400000;1.000000;,
  6.400000;0.320000;,
  6.400000;0.000000;,
  8.000000;1.000000;,
  8.000000;0.320000;,
  8.000000;0.000000;,
  0.000000;0.000000;,
  0.200000;0.000000;,
  0.400000;0.000000;,
  0.600000;0.000000;,
  0.800000;0.000000;,
  1.000000;0.000000;,
  0.000000;0.386000;,
  1.000000;0.814000;,
  0.000000;1.000000;,
  0.000000;0.000000;,
  5.000000;1.000000;,
  5.000000;0.000000;,
  0.000000;0.000000;,
  0.000000;0.000000;,
  0.000000;0.000000;,
  0.000000;0.000000;,
  0.000000;0.000000;,
  0.000000;0.100000;,
  0.000000;0.200000;,
  0.000000;0.300000;,
  0.000000;0.400000;,
  0.000000;0.500000;,
  0.000000;0.600000;,
  0.000000;0.700000;,
  0.000000;0.800000;,
  1.000000;0.000000;,
  1.000000;0.100000;,
  1.000000;0.200000;,
  1.000000;0.300000;,
  1.000000;0.400000;,
  1.000000;0.500000;,
  1.000000;0.600000;,
  1.000000;0.700000;,
  1.000000;0.800000;,
  0.000000;0.000000;,
  0.000000;0.100000;,
  0.000000;0.200000;,
  0.000000;0.300000;,
  0.000000;0.400000;,
  0.000000;0.500000;,
  0.000000;0.600000;,
  0.000000;0.700000;,
  0.000000;0.800000;,
  1.000000;0.000000;,
  1.000000;0.100000;,
  1.000000;0.200000;,
  1.000000;0.300000;,
  1.000000;0.400000;,
  1.000000;0.500000;,
  1.000000;0.600000;,
  1.000000;0.700000;,
  1.000000;0.800000;,
  0.000000;0.000000;,
  0.000000;0.100000;,
  0.000000;0.200000;,
  0.000000;0.300000;,
  0.000000;0.400000;,
  0.000000;0.500000;,
  0.000000;0.600000;,
  0.000000;0.700000;,
  0.000000;0.800000;,
  1.000000;0.000000;,
  1.000000;0.100000;,
  1.000000;0.200000;,
  1.000000;0.300000;,
  1.000000;0.400000;,
  1.000000;0.500000;,
  1.000000;0.600000;,
  1.000000;0.700000;,
  1.000000;0.800000;,
  0.000000;1.000000;,
  0.000000;0.000000;,
  3.000000;1.000000;,
  3.000000;0.000000;,
  0.000000;0.000000;,
  0.000000;0.100000;,
  0.000000;0.200000;,
  0.000000;1.000000;,
  3.000000;0.000000;,
  3.000000;0.100000;,
  3.000000;0.200000;,
  3.000000;1.000000;,
  0.000000;0.000000;,
  0.000000;0.100000;,
  0.000000;0.200000;,
  0.000000;0.300000;,
  0.000000;0.400000;,
  3.000000;0.000000;,
  3.000000;0.100000;,
  3.000000;0.200000;,
  3.000000;0.300000;,
  3.000000;0.400000;,
  0.000000;1.000000;,
  0.000000;0.500000;,
  0.000000;0.000000;,
  4.000000;1.000000;,
  4.000000;0.500000;,
  4.000000;0.000000;,
  0.000000;1.000000;,
  0.000000;0.156000;,
  0.000000;0.000000;,
  2.000000;1.000000;,
  2.000000;0.156000;,
  2.000000;0.000000;,
  0.000000;1.000000;,
  0.000000;0.156000;,
  0.000000;1.000000;,
  0.000000;0.156000;,
  0.000000;1.000000;,
  0.000000;0.156000;,
  0.000000;0.000000;,
  2.000000;1.000000;,
  2.000000;0.156000;,
  2.000000;0.000000;,
  0.000000;1.000000;,
  0.000000;0.156000;,
  0.000000;1.000000;,
  0.000000;0.156000;;
 }

 MeshNormals  {
  238;
  0.999981;0.000000;-0.006240;,
  0.999981;0.000000;-0.006240;,
  0.000000;1.000000;0.000000;,
  0.000000;1.000000;0.000000;,
  0.999995;0.000000;-0.003140;,
  0.999995;0.000000;-0.003140;,
  0.000000;1.000000;0.000000;,
  0.000000;1.000000;0.000000;,
  1.000000;0.000000;0.000000;,
  1.000000;0.000000;0.000000;,
  0.000000;1.000000;0.000000;,
  0.000000;1.000000;0.000000;,
  0.999995;0.000000;0.003140;,
  0.999995;0.000000;0.003140;,
  0.000000;1.000000;0.000000;,
  0.000000;1.000000;0.000000;,
  0.999981;0.000000;0.006240;,
  0.999981;0.000000;0.006240;,
  0.000000;1.000000;0.000000;,
  0.000000;1.000000;0.000000;,
  0.000000;1.000000;0.000000;,
  0.000000;1.000000;0.000000;,
  0.000000;1.000000;0.000000;,
  0.000000;1.000000;0.000000;,
  0.000000;1.000000;0.000000;,
  0.000000;1.000000;0.000000;,
  1.000000;0.000000;0.000000;,
  1.000000;0.000000;0.000000;,
  -1.000000;0.000000;0.000000;,
  -1.000000;0.000000;0.000000;,
  1.000000;0.000000;0.000000;,
  1.000000;0.000000;0.000000;,
  -1.000000;0.000000;0.000000;,
  -1.000000;0.000000;0.000000;,
  0.000000;0.000000;-1.000000;,
  0.000000;0.000000;-1.000000;,
  0.000000;0.000000;-1.000000;,
  0.000000;0.000000;-1.000000;,
  0.000000;0.000000;-1.000000;,
  0.000000;0.000000;-1.000000;,
  0.000000;0.000000;-1.000000;,
  0.000000;0.000000;-1.000000;,
  0.000000;0.000000;-1.000000;,
  0.000000;0.000000;-1.000000;,
  0.000000;0.000000;-1.000000;,
  0.000000;0.000000;-1.000000;,
  0.000000;0.000000;-1.000000;,
  0.000000;0.000000;-1.000000;,
  0.000000;0.000000;-1.000000;,
  0.000000;0.000000;-1.000000;,
  0.000000;0.000000;-1.000000;,
  0.000000;0.000000;-1.000000;,
  0.000000;0.000000;-1.000000;,
  0.000000;0.000000;-1.000000;,
  0.000000;0.000000;-1.000000;,
  0.000000;0.000000;-1.000000;,
  0.000000;0.000000;-1.000000;,
  0.000000;0.000000;-1.000000;,
  0.000000;0.000000;-1.000000;,
  0.000000;0.000000;-1.000000;,
  0.000000;0.000000;-1.000000;,
  0.000000;0.000000;-1.000000;,
  0.000000;0.000000;-1.000000;,
  0.000000;0.000000;-1.000000;,
  0.000000;0.000000;-1.000000;,
  0.000000;0.000000;-1.000000;,
  0.000000;0.000000;-1.000000;,
  0.000000;0.000000;-1.000000;,
  0.000000;0.000000;-1.000000;,
  0.000000;0.000000;-1.000000;,
  0.000000;0.000000;-1.000000;,
  0.000000;0.000000;-1.000000;,
  0.000000;0.000000;-1.000000;,
  0.000000;0.000000;-1.000000;,
  0.000000;0.000000;-1.000000;,
  0.000000;0.000000;-1.000000;,
  0.000000;0.000000;-1.000000;,
  0.000000;0.000000;-1.000000;,
  0.000000;0.000000;-1.000000;,
  0.000000;0.000000;-1.000000;,
  0.000000;0.000000;-1.000000;,
  0.000000;0.000000;-1.000000;,
  1.000000;0.000000;0.000000;,
  1.000000;0.000000;0.000000;,
  0.932612;-0.360879;0.000000;,
  0.932612;-0.360879;0.000000;,
  0.445593;-0.895236;0.000000;,
  0.445593;-0.895236;0.000000;,
  0.087002;-0.996208;0.000000;,
  0.087002;-0.996208;0.000000;,
  0.060002;0.998198;0.000000;,
  0.060002;0.998198;0.000000;,
  0.420726;0.907188;0.000000;,
  0.420726;0.907188;0.000000;,
  0.707105;0.707108;0.000000;,
  0.707105;0.707108;0.000000;,
  0.905850;0.423599;0.000000;,
  0.905850;0.423599;0.000000;,
  0.000000;1.000000;0.000000;,
  0.000000;1.000000;0.000000;,
  0.970143;0.242535;0.000000;,
  0.970143;0.242535;0.000000;,
  1.000000;0.000000;0.000000;,
  1.000000;0.000000;0.000000;,
  0.216930;0.976187;0.000000;,
  0.216930;0.976187;0.000000;,
  0.000000;0.000000;-1.000000;,
  0.000000;0.000000;-1.000000;,
  -1.000000;0.000000;0.000000;,
  -1.000000;0.000000;0.000000;,
  1.000000;0.000000;0.000000;,
  1.000000;0.000000;0.000000;,
  0.178885;0.983870;0.000000;,
  0.178885;0.983870;0.000000;,
  0.000000;0.000000;-1.000000;,
  0.000000;0.000000;-1.000000;,
  -1.000000;0.000000;0.000000;,
  -1.000000;0.000000;0.000000;,
  1.000000;0.000000;0.000000;,
  1.000000;0.000000;0.000000;,
  -0.999981;0.000000;0.006235;,
  -0.999981;0.000000;0.006235;,
  0.000000;1.000000;0.000000;,
  0.000000;1.000000;0.000000;,
  -0.999995;0.000000;0.003160;,
  -0.999995;0.000000;0.003160;,
  0.000000;1.000000;0.000000;,
  0.000000;1.000000;0.000000;,
  -1.000000;0.000000;0.000000;,
  -1.000000;0.000000;0.000000;,
  0.000000;1.000000;0.000000;,
  0.000000;1.000000;0.000000;,
  -0.999995;0.000000;-0.003160;,
  -0.999995;0.000000;-0.003160;,
  0.000000;1.000000;0.000000;,
  0.000000;1.000000;0.000000;,
  -0.999981;0.000000;-0.006235;,
  -0.999981;0.000000;-0.006235;,
  0.000000;1.000000;0.000000;,
  0.000000;1.000000;0.000000;,
  0.000000;-1.000000;0.000000;,
  0.000000;-1.000000;0.000000;,
  0.000000;-1.000000;0.000000;,
  0.000000;-1.000000;0.000000;,
  0.000000;1.000000;0.000000;,
  0.000000;1.000000;0.000000;,
  -0.992988;0.000000;0.118213;,
  -0.992988;0.000000;0.118213;,
  0.992988;0.000000;-0.118213;,
  0.992988;0.000000;-0.118213;,
  -0.992988;0.000000;0.118213;,
  -0.992988;0.000000;0.118213;,
  0.992988;0.000000;-0.118213;,
  0.992988;0.000000;-0.118213;,
  0.000000;0.000000;-1.000000;,
  0.000000;0.000000;-1.000000;,
  0.000000;0.000000;-1.000000;,
  0.000000;0.000000;-1.000000;,
  0.000000;0.000000;-1.000000;,
  0.000000;0.000000;-1.000000;,
  0.000000;0.000000;-1.000000;,
  0.000000;0.000000;-1.000000;,
  0.000000;0.000000;-1.000000;,
  0.000000;0.000000;-1.000000;,
  0.000000;0.000000;-1.000000;,
  0.000000;0.000000;-1.000000;,
  0.000000;0.000000;-1.000000;,
  0.000000;0.000000;-1.000000;,
  0.000000;0.000000;-1.000000;,
  0.000000;0.000000;-1.000000;,
  0.000000;0.000000;-1.000000;,
  0.000000;0.000000;-1.000000;,
  0.000000;0.000000;-1.000000;,
  0.000000;0.000000;-1.000000;,
  0.000000;0.000000;-1.000000;,
  0.000000;0.000000;-1.000000;,
  0.000000;0.000000;-1.000000;,
  0.000000;0.000000;-1.000000;,
  0.000000;0.000000;-1.000000;,
  0.000000;0.000000;-1.000000;,
  0.000000;0.000000;-1.000000;,
  0.000000;0.000000;-1.000000;,
  0.000000;0.000000;-1.000000;,
  0.000000;0.000000;-1.000000;,
  0.000000;0.000000;-1.000000;,
  0.000000;0.000000;-1.000000;,
  0.000000;0.000000;-1.000000;,
  0.000000;0.000000;-1.000000;,
  0.000000;0.000000;-1.000000;,
  0.000000;0.000000;-1.000000;,
  0.000000;0.000000;-1.000000;,
  0.000000;0.000000;-1.000000;,
  0.000000;0.000000;-1.000000;,
  0.000000;0.000000;-1.000000;,
  0.000000;0.000000;-1.000000;,
  0.000000;0.000000;-1.000000;,
  0.000000;0.000000;-1.000000;,
  0.000000;0.000000;-1.000000;,
  0.000000;0.000000;-1.000000;,
  0.000000;0.000000;-1.000000;,
  0.000000;0.000000;-1.000000;,
  0.000000;0.000000;-1.000000;,
  -1.000000;0.000000;0.000000;,
  -1.000000;0.000000;0.000000;,
  -0.932612;-0.360879;0.000000;,
  -0.932612;-0.360879;0.000000;,
  -0.445592;-0.895236;0.000000;,
  -0.445592;-0.895236;0.000000;,
  -0.087002;-0.996208;0.000000;,
  -0.087002;-0.996208;0.000000;,
  -0.060002;0.998198;0.000000;,
  -0.060002;0.998198;0.000000;,
  -0.420726;0.907188;0.000000;,
  -0.420726;0.907188;0.000000;,
  -0.707105;0.707108;0.000000;,
  -0.707105;0.707108;0.000000;,
  -0.905850;0.423599;0.000000;,
  -0.905850;0.423599;0.000000;,
  0.000000;1.000000;0.000000;,
  0.000000;1.000000;0.000000;,
  -0.970142;0.242536;0.000000;,
  -0.970142;0.242536;0.000000;,
  -1.000000;0.000000;0.000000;,
  -1.000000;0.000000;0.000000;,
  -0.216930;0.976187;0.000000;,
  -0.216930;0.976187;0.000000;,
  0.000000;0.000000;-1.000000;,
  0.000000;0.000000;-1.000000;,
  1.000000;0.000000;0.000000;,
  1.000000;0.000000;0.000000;,
  -1.000000;0.000000;0.000000;,
  -1.000000;0.000000;0.000000;,
  -0.178885;0.983870;0.000000;,
  -0.178885;0.983870;0.000000;,
  0.000000;0.000000;-1.000000;,
  0.000000;0.000000;-1.000000;,
  1.000000;0.000000;0.000000;,
  1.000000;0.000000;0.000000;;
  238;
  3;0,0,0;,
  3;1,1,1;,
  3;2,2,2;,
  3;3,3,3;,
  3;4,4,4;,
  3;5,5,5;,
  3;6,6,6;,
  3;7,7,7;,
  3;8,8,8;,
  3;9,9,9;,
  3;10,10,10;,
  3;11,11,11;,
  3;12,12,12;,
  3;13,13,13;,
  3;14,14,14;,
  3;15,15,15;,
  3;16,16,16;,
  3;17,17,17;,
  3;18,18,18;,
  3;19,19,19;,
  3;20,20,20;,
  3;21,21,21;,
  3;22,22,22;,
  3;23,23,23;,
  3;24,24,24;,
  3;25,25,25;,
  3;26,26,26;,
  3;27,27,27;,
  3;28,28,28;,
  3;29,29,29;,
  3;30,30,30;,
  3;31,31,31;,
  3;32,32,32;,
  3;33,33,33;,
  3;34,34,34;,
  3;35,35,35;,
  3;36,36,36;,
  3;37,37,37;,
  3;38,38,38;,
  3;39,39,39;,
  3;40,40,40;,
  3;41,41,41;,
  3;42,42,42;,
  3;43,43,43;,
  3;44,44,44;,
  3;45,45,45;,
  3;46,46,46;,
  3;47,47,47;,
  3;48,48,48;,
  3;49,49,49;,
  3;50,50,50;,
  3;51,51,51;,
  3;52,52,52;,
  3;53,53,53;,
  3;54,54,54;,
  3;55,55,55;,
  3;56,56,56;,
  3;57,57,57;,
  3;58,58,58;,
  3;59,59,59;,
  3;60,60,60;,
  3;61,61,61;,
  3;62,62,62;,
  3;63,63,63;,
  3;64,64,64;,
  3;65,65,65;,
  3;66,66,66;,
  3;67,67,67;,
  3;68,68,68;,
  3;69,69,69;,
  3;70,70,70;,
  3;71,71,71;,
  3;72,72,72;,
  3;73,73,73;,
  3;74,74,74;,
  3;75,75,75;,
  3;76,76,76;,
  3;77,77,77;,
  3;78,78,78;,
  3;79,79,79;,
  3;80,80,80;,
  3;81,81,81;,
  3;82,82,82;,
  3;83,83,83;,
  3;84,84,84;,
  3;85,85,85;,
  3;86,86,86;,
  3;87,87,87;,
  3;88,88,88;,
  3;89,89,89;,
  3;90,90,90;,
  3;91,91,91;,
  3;92,92,92;,
  3;93,93,93;,
  3;94,94,94;,
  3;95,95,95;,
  3;96,96,96;,
  3;97,97,97;,
  3;98,98,98;,
  3;99,99,99;,
  3;100,100,100;,
  3;101,101,101;,
  3;102,102,102;,
  3;103,103,103;,
  3;104,104,104;,
  3;105,105,105;,
  3;106,106,106;,
  3;107,107,107;,
  3;108,108,108;,
  3;109,109,109;,
  3;110,110,110;,
  3;111,111,111;,
  3;112,112,112;,
  3;113,113,113;,
  3;114,114,114;,
  3;115,115,115;,
  3;116,116,116;,
  3;117,117,117;,
  3;118,118,118;,
  3;119,119,119;,
  3;120,120,120;,
  3;121,121,121;,
  3;122,122,122;,
  3;123,123,123;,
  3;124,124,124;,
  3;125,125,125;,
  3;126,126,126;,
  3;127,127,127;,
  3;128,128,128;,
  3;129,129,129;,
  3;130,130,130;,
  3;131,131,131;,
  3;132,132,132;,
  3;133,133,133;,
  3;134,134,134;,
  3;135,135,135;,
  3;136,136,136;,
  3;137,137,137;,
  3;138,138,138;,
  3;139,139,139;,
  3;140,140,140;,
  3;141,141,141;,
  3;142,142,142;,
  3;143,143,143;,
  3;144,144,144;,
  3;145,145,145;,
  3;146,146,146;,
  3;147,147,147;,
  3;148,148,148;,
  3;149,149,149;,
  3;150,150,150;,
  3;151,151,151;,
  3;152,152,152;,
  3;153,153,153;,
  3;154,154,154;,
  3;155,155,155;,
  3;156,156,156;,
  3;157,157,157;,
  3;158,158,158;,
  3;159,159,159;,
  3;160,160,160;,
  3;161,161,161;,
  3;162,162,162;,
  3;163,163,163;,
  3;164,164,164;,
  3;165,165,165;,
  3;166,166,166;,
  3;167,167,167;,
  3;168,168,168;,
  3;169,169,169;,
  3;170,170,170;,
  3;171,171,171;,
  3;172,172,172;,
  3;173,173,173;,
  3;174,174,174;,
  3;175,175,175;,
  3;176,176,176;,
  3;177,177,177;,
  3;178,178,178;,
  3;179,179,179;,
  3;180,180,180;,
  3;181,181,181;,
  3;182,182,182;,
  3;183,183,183;,
  3;184,184,184;,
  3;185,185,185;,
  3;186,186,186;,
  3;187,187,187;,
  3;188,188,188;,
  3;189,189,189;,
  3;190,190,190;,
  3;191,191,191;,
  3;192,192,192;,
  3;193,193,193;,
  3;194,194,194;,
  3;195,195,195;,
  3;196,196,196;,
  3;197,197,197;,
  3;198,198,198;,
  3;199,199,199;,
  3;200,200,200;,
  3;201,201,201;,
  3;202,202,202;,
  3;203,203,203;,
  3;204,204,204;,
  3;205,205,205;,
  3;206,206,206;,
  3;207,207,207;,
  3;208,208,208;,
  3;209,209,209;,
  3;210,210,210;,
  3;211,211,211;,
  3;212,212,212;,
  3;213,213,213;,
  3;214,214,214;,
  3;215,215,215;,
  3;216,216,216;,
  3;217,217,217;,
  3;218,218,218;,
  3;219,219,219;,
  3;220,220,220;,
  3;221,221,221;,
  3;222,222,222;,
  3;223,223,223;,
  3;224,224,224;,
  3;225,225,225;,
  3;226,226,226;,
  3;227,227,227;,
  3;228,228,228;,
  3;229,229,229;,
  3;230,230,230;,
  3;231,231,231;,
  3;232,232,232;,
  3;233,233,233;,
  3;234,234,234;,
  3;235,235,235;,
  3;236,236,236;,
  3;237,237,237;;
 }
}