xof 0303txt 0032
template Vector {
 <3d82ab5e-62da-11cf-ab39-0020af71e433>
 FLOAT x;
 FLOAT y;
 FLOAT z;
}

template MeshFace {
 <3d82ab5f-62da-11cf-ab39-0020af71e433>
 DWORD nFaceVertexIndices;
 array DWORD faceVertexIndices[nFaceVertexIndices];
}

template Mesh {
 <3d82ab44-62da-11cf-ab39-0020af71e433>
 DWORD nVertices;
 array Vector vertices[nVertices];
 DWORD nFaces;
 array MeshFace faces[nFaces];
 [...]
}

template ColorRGBA {
 <35ff44e0-6c7c-11cf-8f52-0040333594a3>
 FLOAT red;
 FLOAT green;
 FLOAT blue;
 FLOAT alpha;
}

template ColorRGB {
 <d3e16e81-7835-11cf-8f52-0040333594a3>
 FLOAT red;
 FLOAT green;
 FLOAT blue;
}

template Material {
 <3d82ab4d-62da-11cf-ab39-0020af71e433>
 ColorRGBA faceColor;
 FLOAT power;
 ColorRGB specularColor;
 ColorRGB emissiveColor;
 [...]
}

template MeshMaterialList {
 <f6f23f42-7686-11cf-8f52-0040333594a3>
 DWORD nMaterials;
 DWORD nFaceIndexes;
 array DWORD faceIndexes[nFaceIndexes];
 [Material <3d82ab4d-62da-11cf-ab39-0020af71e433>]
}

template TextureFilename {
 <a42790e1-7810-11cf-8f52-0040333594a3>
 STRING filename;
}

template Coords2d {
 <f6f23f44-7686-11cf-8f52-0040333594a3>
 FLOAT u;
 FLOAT v;
}

template MeshTextureCoords {
 <f6f23f40-7686-11cf-8f52-0040333594a3>
 DWORD nTextureCoords;
 array Coords2d textureCoords[nTextureCoords];
}

template MeshNormals {
 <f6f23f43-7686-11cf-8f52-0040333594a3>
 DWORD nNormals;
 array Vector normals[nNormals];
 DWORD nFaceNormals;
 array MeshFace faceNormals[nFaceNormals];
}


Mesh  {
 160;
 2.300000;-6.000000;1.500000;,
 2.300000;-1.000000;1.500000;,
 1.500000;-6.000000;1.500000;,
 1.500000;-1.000000;1.500000;,
 -2.200000;-6.000000;1.500000;,
 -2.200000;-1.000000;1.500000;,
 -3.000000;-6.000000;1.500000;,
 -3.000000;-1.000000;1.500000;,
 -6.700000;-6.000000;1.500000;,
 -6.700000;-1.000000;1.500000;,
 -7.500000;-6.000000;1.500000;,
 -7.500000;-1.000000;1.500000;,
 -11.200000;-6.000000;1.500000;,
 -11.200000;-1.000000;1.500000;,
 -12.000000;-6.000000;1.500000;,
 -12.000000;-1.000000;1.500000;,
 -2.500000;-2.000000;1.490000;,
 -2.500000;-1.000000;1.490000;,
 -1.800000;-1.700000;1.490000;,
 -1.800000;-1.000000;1.490000;,
 0.800000;-1.700000;1.490000;,
 0.800000;-1.000000;1.490000;,
 1.500000;-2.000000;1.490000;,
 1.500000;-1.000000;1.490000;,
 -7.000000;-2.000000;1.490000;,
 -7.000000;-1.000000;1.490000;,
 -6.300000;-1.700000;1.490000;,
 -6.300000;-1.000000;1.490000;,
 -3.700000;-1.700000;1.490000;,
 -3.700000;-1.000000;1.490000;,
 -3.000000;-2.000000;1.490000;,
 -3.000000;-1.000000;1.490000;,
 -11.500000;-2.000000;1.490000;,
 -11.500000;-1.000000;1.490000;,
 -10.800000;-1.700000;1.490000;,
 -10.800000;-1.000000;1.490000;,
 -8.200000;-1.700000;1.490000;,
 -8.200000;-1.000000;1.490000;,
 -7.500000;-2.000000;1.490000;,
 -7.500000;-1.000000;1.490000;,
 2.300000;-6.000000;9.000000;,
 2.300000;-1.000000;9.000000;,
 1.500000;-6.000000;9.000000;,
 1.500000;-1.000000;9.000000;,
 -2.200000;-6.000000;9.000000;,
 -2.200000;-1.000000;9.000000;,
 -3.000000;-6.000000;9.000000;,
 -3.000000;-1.000000;9.000000;,
 -6.700000;-6.000000;9.000000;,
 -6.700000;-1.000000;9.000000;,
 -7.500000;-6.000000;9.000000;,
 -7.500000;-1.000000;9.000000;,
 -11.200000;-6.000000;9.000000;,
 -11.200000;-1.000000;9.000000;,
 -12.000000;-6.000000;9.000000;,
 -12.000000;-1.000000;9.000000;,
 -2.500000;-2.000000;8.990000;,
 -2.500000;-1.000000;8.990000;,
 -1.800000;-1.700000;8.990000;,
 -1.800000;-1.000000;8.990000;,
 0.800000;-1.700000;8.990000;,
 0.800000;-1.000000;8.990000;,
 1.500000;-2.000000;8.990000;,
 1.500000;-1.000000;8.990000;,
 -7.000000;-2.000000;8.990000;,
 -7.000000;-1.000000;8.990000;,
 -6.300000;-1.700000;8.990000;,
 -6.300000;-1.000000;8.990000;,
 -3.700000;-1.700000;8.990000;,
 -3.700000;-1.000000;8.990000;,
 -3.000000;-2.000000;8.990000;,
 -3.000000;-1.000000;8.990000;,
 -11.500000;-2.000000;8.990000;,
 -11.500000;-1.000000;8.990000;,
 -10.800000;-1.700000;8.990000;,
 -10.800000;-1.000000;8.990000;,
 -8.200000;-1.700000;8.990000;,
 -8.200000;-1.000000;8.990000;,
 -7.500000;-2.000000;8.990000;,
 -7.500000;-1.000000;8.990000;,
 2.300000;-6.000000;16.000000;,
 2.300000;-1.000000;16.000000;,
 1.500000;-6.000000;16.000000;,
 1.500000;-1.000000;16.000000;,
 -2.200000;-6.000000;16.000000;,
 -2.200000;-1.000000;16.000000;,
 -3.000000;-6.000000;16.000000;,
 -3.000000;-1.000000;16.000000;,
 -6.700000;-6.000000;16.000000;,
 -6.700000;-1.000000;16.000000;,
 -7.500000;-6.000000;16.000000;,
 -7.500000;-1.000000;16.000000;,
 -11.200000;-6.000000;16.000000;,
 -11.200000;-1.000000;16.000000;,
 -12.000000;-6.000000;16.000000;,
 -12.000000;-1.000000;16.000000;,
 -2.500000;-2.000000;15.900000;,
 -2.500000;-1.000000;15.900000;,
 -1.800000;-1.700000;15.900000;,
 -1.800000;-1.000000;15.900000;,
 0.800000;-1.700000;15.900000;,
 0.800000;-1.000000;15.900000;,
 1.500000;-2.000000;15.900000;,
 1.500000;-1.000000;15.900000;,
 -7.000000;-2.000000;15.900000;,
 -7.000000;-1.000000;15.900000;,
 -6.300000;-1.700000;15.900000;,
 -6.300000;-1.000000;15.900000;,
 -3.700000;-1.700000;15.900000;,
 -3.700000;-1.000000;15.900000;,
 -3.000000;-2.000000;15.900000;,
 -3.000000;-1.000000;15.900000;,
 -11.500000;-2.000000;15.900000;,
 -11.500000;-1.000000;15.900000;,
 -10.800000;-1.700000;15.900000;,
 -10.800000;-1.000000;15.900000;,
 -8.200000;-1.700000;15.900000;,
 -8.200000;-1.000000;15.900000;,
 -7.500000;-2.000000;15.900000;,
 -7.500000;-1.000000;15.900000;,
 2.300000;-6.000000;23.500000;,
 2.300000;-1.000000;23.500000;,
 1.500000;-6.000000;23.500000;,
 1.500000;-1.000000;23.500000;,
 -2.200000;-6.000000;23.500000;,
 -2.200000;-1.000000;23.500000;,
 -3.000000;-6.000000;23.500000;,
 -3.000000;-1.000000;23.500000;,
 -6.700000;-6.000000;23.500000;,
 -6.700000;-1.000000;23.500000;,
 -7.500000;-6.000000;23.500000;,
 -7.500000;-1.000000;23.500000;,
 -11.200000;-6.000000;23.500000;,
 -11.200000;-1.000000;23.500000;,
 -12.000000;-6.000000;23.500000;,
 -12.000000;-1.000000;23.500000;,
 -2.500000;-2.000000;23.400000;,
 -2.500000;-1.000000;23.400000;,
 -1.800000;-1.700000;23.400000;,
 -1.800000;-1.000000;23.400000;,
 0.800000;-1.700000;23.400000;,
 0.800000;-1.000000;23.400000;,
 1.500000;-2.000000;23.400000;,
 1.500000;-1.000000;23.400000;,
 -7.000000;-2.000000;23.400000;,
 -7.000000;-1.000000;23.400000;,
 -6.300000;-1.700000;23.400000;,
 -6.300000;-1.000000;23.400000;,
 -3.700000;-1.700000;23.400000;,
 -3.700000;-1.000000;23.400000;,
 -3.000000;-2.000000;23.400000;,
 -3.000000;-1.000000;23.400000;,
 -11.500000;-2.000000;23.400000;,
 -11.500000;-1.000000;23.400000;,
 -10.800000;-1.700000;23.400000;,
 -10.800000;-1.000000;23.400000;,
 -8.200000;-1.700000;23.400000;,
 -8.200000;-1.000000;23.400000;,
 -7.500000;-2.000000;23.400000;,
 -7.500000;-1.000000;23.400000;;
 104;
 3;2,3,1;,
 3;2,1,0;,
 3;6,7,5;,
 3;6,5,4;,
 3;10,11,9;,
 3;10,9,8;,
 3;14,15,13;,
 3;14,13,12;,
 3;16,17,19;,
 3;16,19,18;,
 3;18,19,21;,
 3;18,21,20;,
 3;20,21,23;,
 3;20,23,22;,
 3;24,25,27;,
 3;24,27,26;,
 3;26,27,29;,
 3;26,29,28;,
 3;28,29,31;,
 3;28,31,30;,
 3;32,33,35;,
 3;32,35,34;,
 3;34,35,37;,
 3;34,37,36;,
 3;36,37,39;,
 3;36,39,38;,
 3;42,43,41;,
 3;42,41,40;,
 3;46,47,45;,
 3;46,45,44;,
 3;50,51,49;,
 3;50,49,48;,
 3;54,55,53;,
 3;54,53,52;,
 3;56,57,59;,
 3;56,59,58;,
 3;58,59,61;,
 3;58,61,60;,
 3;60,61,63;,
 3;60,63,62;,
 3;64,65,67;,
 3;64,67,66;,
 3;66,67,69;,
 3;66,69,68;,
 3;68,69,71;,
 3;68,71,70;,
 3;72,73,75;,
 3;72,75,74;,
 3;74,75,77;,
 3;74,77,76;,
 3;76,77,79;,
 3;76,79,78;,
 3;82,83,81;,
 3;82,81,80;,
 3;86,87,85;,
 3;86,85,84;,
 3;90,91,89;,
 3;90,89,88;,
 3;94,95,93;,
 3;94,93,92;,
 3;96,97,99;,
 3;96,99,98;,
 3;98,99,101;,
 3;98,101,100;,
 3;100,101,103;,
 3;100,103,102;,
 3;104,105,107;,
 3;104,107,106;,
 3;106,107,109;,
 3;106,109,108;,
 3;108,109,111;,
 3;108,111,110;,
 3;112,113,115;,
 3;112,115,114;,
 3;114,115,117;,
 3;114,117,116;,
 3;116,117,119;,
 3;116,119,118;,
 3;122,123,121;,
 3;122,121,120;,
 3;126,127,125;,
 3;126,125,124;,
 3;130,131,129;,
 3;130,129,128;,
 3;134,135,133;,
 3;134,133,132;,
 3;136,137,139;,
 3;136,139,138;,
 3;138,139,141;,
 3;138,141,140;,
 3;140,141,143;,
 3;140,143,142;,
 3;144,145,147;,
 3;144,147,146;,
 3;146,147,149;,
 3;146,149,148;,
 3;148,149,151;,
 3;148,151,150;,
 3;152,153,155;,
 3;152,155,154;,
 3;154,155,157;,
 3;154,157,156;,
 3;156,157,159;,
 3;156,159,158;;

 MeshMaterialList  {
  28;
  104;
  0,
  0,
  1,
  1,
  2,
  2,
  3,
  3,
  4,
  4,
  4,
  4,
  4,
  4,
  5,
  5,
  5,
  5,
  5,
  5,
  6,
  6,
  6,
  6,
  6,
  6,
  7,
  7,
  8,
  8,
  9,
  9,
  10,
  10,
  11,
  11,
  11,
  11,
  11,
  11,
  12,
  12,
  12,
  12,
  12,
  12,
  13,
  13,
  13,
  13,
  13,
  13,
  14,
  14,
  15,
  15,
  16,
  16,
  17,
  17,
  18,
  18,
  18,
  18,
  18,
  18,
  19,
  19,
  19,
  19,
  19,
  19,
  20,
  20,
  20,
  20,
  20,
  20,
  21,
  21,
  22,
  22,
  23,
  23,
  24,
  24,
  25,
  25,
  25,
  25,
  25,
  25,
  26,
  26,
  26,
  26,
  26,
  26,
  27,
  27,
  27,
  27,
  27,
  27;

  Material  {
   1.000000;1.000000;1.000000;1.000000;;
   0.000000;
   0.000000;0.000000;0.000000;;
   0.000000;0.000000;0.000000;;

   TextureFilename  {
    "PierConc1.png";
   }
  }

  Material  {
   1.000000;1.000000;1.000000;1.000000;;
   0.000000;
   0.000000;0.000000;0.000000;;
   0.000000;0.000000;0.000000;;

   TextureFilename  {
    "PierConc1.png";
   }
  }

  Material  {
   1.000000;1.000000;1.000000;1.000000;;
   0.000000;
   0.000000;0.000000;0.000000;;
   0.000000;0.000000;0.000000;;

   TextureFilename  {
    "PierConc1.png";
   }
  }

  Material  {
   1.000000;1.000000;1.000000;1.000000;;
   0.000000;
   0.000000;0.000000;0.000000;;
   0.000000;0.000000;0.000000;;

   TextureFilename  {
    "PierConc1.png";
   }
  }

  Material  {
   1.000000;1.000000;1.000000;1.000000;;
   0.000000;
   0.000000;0.000000;0.000000;;
   0.000000;0.000000;0.000000;;

   TextureFilename  {
    "PierConc2.png";
   }
  }

  Material  {
   1.000000;1.000000;1.000000;1.000000;;
   0.000000;
   0.000000;0.000000;0.000000;;
   0.000000;0.000000;0.000000;;

   TextureFilename  {
    "PierConc2.png";
   }
  }

  Material  {
   1.000000;1.000000;1.000000;1.000000;;
   0.000000;
   0.000000;0.000000;0.000000;;
   0.000000;0.000000;0.000000;;

   TextureFilename  {
    "PierConc2.png";
   }
  }

  Material  {
   1.000000;1.000000;1.000000;1.000000;;
   0.000000;
   0.000000;0.000000;0.000000;;
   0.000000;0.000000;0.000000;;

   TextureFilename  {
    "PierConc1.png";
   }
  }

  Material  {
   1.000000;1.000000;1.000000;1.000000;;
   0.000000;
   0.000000;0.000000;0.000000;;
   0.000000;0.000000;0.000000;;

   TextureFilename  {
    "PierConc1.png";
   }
  }

  Material  {
   1.000000;1.000000;1.000000;1.000000;;
   0.000000;
   0.000000;0.000000;0.000000;;
   0.000000;0.000000;0.000000;;

   TextureFilename  {
    "PierConc1.png";
   }
  }

  Material  {
   1.000000;1.000000;1.000000;1.000000;;
   0.000000;
   0.000000;0.000000;0.000000;;
   0.000000;0.000000;0.000000;;

   TextureFilename  {
    "PierConc1.png";
   }
  }

  Material  {
   1.000000;1.000000;1.000000;1.000000;;
   0.000000;
   0.000000;0.000000;0.000000;;
   0.000000;0.000000;0.000000;;

   TextureFilename  {
    "PierConc2.png";
   }
  }

  Material  {
   1.000000;1.000000;1.000000;1.000000;;
   0.000000;
   0.000000;0.000000;0.000000;;
   0.000000;0.000000;0.000000;;

   TextureFilename  {
    "PierConc2.png";
   }
  }

  Material  {
   1.000000;1.000000;1.000000;1.000000;;
   0.000000;
   0.000000;0.000000;0.000000;;
   0.000000;0.000000;0.000000;;

   TextureFilename  {
    "PierConc2.png";
   }
  }

  Material  {
   1.000000;1.000000;1.000000;1.000000;;
   0.000000;
   0.000000;0.000000;0.000000;;
   0.000000;0.000000;0.000000;;

   TextureFilename  {
    "PierConc1.png";
   }
  }

  Material  {
   1.000000;1.000000;1.000000;1.000000;;
   0.000000;
   0.000000;0.000000;0.000000;;
   0.000000;0.000000;0.000000;;

   TextureFilename  {
    "PierConc1.png";
   }
  }

  Material  {
   1.000000;1.000000;1.000000;1.000000;;
   0.000000;
   0.000000;0.000000;0.000000;;
   0.000000;0.000000;0.000000;;

   TextureFilename  {
    "PierConc1.png";
   }
  }

  Material  {
   1.000000;1.000000;1.000000;1.000000;;
   0.000000;
   0.000000;0.000000;0.000000;;
   0.000000;0.000000;0.000000;;

   TextureFilename  {
    "PierConc1.png";
   }
  }

  Material  {
   1.000000;1.000000;1.000000;1.000000;;
   0.000000;
   0.000000;0.000000;0.000000;;
   0.000000;0.000000;0.000000;;

   TextureFilename  {
    "PierConc2.png";
   }
  }

  Material  {
   1.000000;1.000000;1.000000;1.000000;;
   0.000000;
   0.000000;0.000000;0.000000;;
   0.000000;0.000000;0.000000;;

   TextureFilename  {
    "PierConc2.png";
   }
  }

  Material  {
   1.000000;1.000000;1.000000;1.000000;;
   0.000000;
   0.000000;0.000000;0.000000;;
   0.000000;0.000000;0.000000;;

   TextureFilename  {
    "PierConc2.png";
   }
  }

  Material  {
   1.000000;1.000000;1.000000;1.000000;;
   0.000000;
   0.000000;0.000000;0.000000;;
   0.000000;0.000000;0.000000;;

   TextureFilename  {
    "PierConc1.png";
   }
  }

  Material  {
   1.000000;1.000000;1.000000;1.000000;;
   0.000000;
   0.000000;0.000000;0.000000;;
   0.000000;0.000000;0.000000;;

   TextureFilename  {
    "PierConc1.png";
   }
  }

  Material  {
   1.000000;1.000000;1.000000;1.000000;;
   0.000000;
   0.000000;0.000000;0.000000;;
   0.000000;0.000000;0.000000;;

   TextureFilename  {
    "PierConc1.png";
   }
  }

  Material  {
   1.000000;1.000000;1.000000;1.000000;;
   0.000000;
   0.000000;0.000000;0.000000;;
   0.000000;0.000000;0.000000;;

   TextureFilename  {
    "PierConc1.png";
   }
  }

  Material  {
   1.000000;1.000000;1.000000;1.000000;;
   0.000000;
   0.000000;0.000000;0.000000;;
   0.000000;0.000000;0.000000;;

   TextureFilename  {
    "PierConc2.png";
   }
  }

  Material  {
   1.000000;1.000000;1.000000;1.000000;;
   0.000000;
   0.000000;0.000000;0.000000;;
   0.000000;0.000000;0.000000;;

   TextureFilename  {
    "PierConc2.png";
   }
  }

  Material  {
   1.000000;1.000000;1.000000;1.000000;;
   0.000000;
   0.000000;0.000000;0.000000;;
   0.000000;0.000000;0.000000;;

   TextureFilename  {
    "PierConc2.png";
   }
  }
 }

 MeshTextureCoords  {
  160;
  0.000000;1.000000;,
  0.000000;0.000000;,
  1.000000;1.000000;,
  1.000000;0.000000;,
  0.000000;1.000000;,
  0.000000;0.000000;,
  1.000000;1.000000;,
  1.000000;0.000000;,
  0.000000;1.000000;,
  0.000000;0.000000;,
  1.000000;1.000000;,
  1.000000;0.000000;,
  0.000000;1.000000;,
  0.000000;0.000000;,
  1.000000;1.000000;,
  1.000000;0.000000;,
  0.000000;1.000000;,
  0.000000;0.000000;,
  0.300000;1.000000;,
  0.300000;0.000000;,
  0.700000;1.000000;,
  0.700000;0.000000;,
  1.000000;1.000000;,
  1.000000;0.000000;,
  0.000000;1.000000;,
  0.000000;0.000000;,
  0.300000;1.000000;,
  0.300000;0.000000;,
  0.700000;1.000000;,
  0.700000;0.000000;,
  1.000000;1.000000;,
  1.000000;0.000000;,
  0.000000;1.000000;,
  0.000000;0.000000;,
  0.300000;1.000000;,
  0.300000;0.000000;,
  0.700000;1.000000;,
  0.700000;0.000000;,
  1.000000;1.000000;,
  1.000000;0.000000;,
  0.000000;1.000000;,
  0.000000;0.000000;,
  1.000000;1.000000;,
  1.000000;0.000000;,
  0.000000;1.000000;,
  0.000000;0.000000;,
  1.000000;1.000000;,
  1.000000;0.000000;,
  0.000000;1.000000;,
  0.000000;0.000000;,
  1.000000;1.000000;,
  1.000000;0.000000;,
  0.000000;1.000000;,
  0.000000;0.000000;,
  1.000000;1.000000;,
  1.000000;0.000000;,
  0.000000;1.000000;,
  0.000000;0.000000;,
  0.300000;1.000000;,
  0.300000;0.000000;,
  0.700000;1.000000;,
  0.700000;0.000000;,
  1.000000;1.000000;,
  1.000000;0.000000;,
  0.000000;1.000000;,
  0.000000;0.000000;,
  0.300000;1.000000;,
  0.300000;0.000000;,
  0.700000;1.000000;,
  0.700000;0.000000;,
  1.000000;1.000000;,
  1.000000;0.000000;,
  0.000000;1.000000;,
  0.000000;0.000000;,
  0.300000;1.000000;,
  0.300000;0.000000;,
  0.700000;1.000000;,
  0.700000;0.000000;,
  1.000000;1.000000;,
  1.000000;0.000000;,
  0.000000;1.000000;,
  0.000000;0.000000;,
  1.000000;1.000000;,
  1.000000;0.000000;,
  0.000000;1.000000;,
  0.000000;0.000000;,
  1.000000;1.000000;,
  1.000000;0.000000;,
  0.000000;1.000000;,
  0.000000;0.000000;,
  1.000000;1.000000;,
  1.000000;0.000000;,
  0.000000;1.000000;,
  0.000000;0.000000;,
  1.000000;1.000000;,
  1.000000;0.000000;,
  0.000000;1.000000;,
  0.000000;0.000000;,
  0.300000;1.000000;,
  0.300000;0.000000;,
  0.700000;1.000000;,
  0.700000;0.000000;,
  1.000000;1.000000;,
  1.000000;0.000000;,
  0.000000;1.000000;,
  0.000000;0.000000;,
  0.300000;1.000000;,
  0.300000;0.000000;,
  0.700000;1.000000;,
  0.700000;0.000000;,
  1.000000;1.000000;,
  1.000000;0.000000;,
  0.000000;1.000000;,
  0.000000;0.000000;,
  0.300000;1.000000;,
  0.300000;0.000000;,
  0.700000;1.000000;,
  0.700000;0.000000;,
  1.000000;1.000000;,
  1.000000;0.000000;,
  0.000000;1.000000;,
  0.000000;0.000000;,
  1.000000;1.000000;,
  1.000000;0.000000;,
  0.000000;1.000000;,
  0.000000;0.000000;,
  1.000000;1.000000;,
  1.000000;0.000000;,
  0.000000;1.000000;,
  0.000000;0.000000;,
  1.000000;1.000000;,
  1.000000;0.000000;,
  0.000000;1.000000;,
  0.000000;0.000000;,
  1.000000;1.000000;,
  1.000000;0.000000;,
  0.000000;1.000000;,
  0.000000;0.000000;,
  0.300000;1.000000;,
  0.300000;0.000000;,
  0.700000;1.000000;,
  0.700000;0.000000;,
  1.000000;1.000000;,
  1.000000;0.000000;,
  0.000000;1.000000;,
  0.000000;0.000000;,
  0.300000;1.000000;,
  0.300000;0.000000;,
  0.700000;1.000000;,
  0.700000;0.000000;,
  1.000000;1.000000;,
  1.000000;0.000000;,
  0.000000;1.000000;,
  0.000000;0.000000;,
  0.300000;1.000000;,
  0.300000;0.000000;,
  0.700000;1.000000;,
  0.700000;0.000000;,
  1.000000;1.000000;,
  1.000000;0.000000;;
 }

 MeshNormals  {
  104;
  0.000000;0.000000;-1.000000;,
  0.000000;0.000000;-1.000000;,
  0.000000;0.000000;-1.000000;,
  0.000000;0.000000;-1.000000;,
  0.000000;0.000000;-1.000000;,
  0.000000;0.000000;-1.000000;,
  0.000000;0.000000;-1.000000;,
  0.000000;0.000000;-1.000000;,
  0.000000;0.000000;-1.000000;,
  0.000000;0.000000;-1.000000;,
  0.000000;0.000000;-1.000000;,
  0.000000;0.000000;-1.000000;,
  0.000000;0.000000;-1.000000;,
  0.000000;0.000000;-1.000000;,
  0.000000;0.000000;-1.000000;,
  0.000000;0.000000;-1.000000;,
  0.000000;0.000000;-1.000000;,
  0.000000;0.000000;-1.000000;,
  0.000000;0.000000;-1.000000;,
  0.000000;0.000000;-1.000000;,
  0.000000;0.000000;-1.000000;,
  0.000000;0.000000;-1.000000;,
  0.000000;0.000000;-1.000000;,
  0.000000;0.000000;-1.000000;,
  0.000000;0.000000;-1.000000;,
  0.000000;0.000000;-1.000000;,
  0.000000;0.000000;-1.000000;,
  0.000000;0.000000;-1.000000;,
  0.000000;0.000000;-1.000000;,
  0.000000;0.000000;-1.000000;,
  0.000000;0.000000;-1.000000;,
  0.000000;0.000000;-1.000000;,
  0.000000;0.000000;-1.000000;,
  0.000000;0.000000;-1.000000;,
  0.000000;0.000000;-1.000000;,
  0.000000;0.000000;-1.000000;,
  0.000000;0.000000;-1.000000;,
  0.000000;0.000000;-1.000000;,
  0.000000;0.000000;-1.000000;,
  0.000000;0.000000;-1.000000;,
  0.000000;0.000000;-1.000000;,
  0.000000;0.000000;-1.000000;,
  0.000000;0.000000;-1.000000;,
  0.000000;0.000000;-1.000000;,
  0.000000;0.000000;-1.000000;,
  0.000000;0.000000;-1.000000;,
  0.000000;0.000000;-1.000000;,
  0.000000;0.000000;-1.000000;,
  0.000000;0.000000;-1.000000;,
  0.000000;0.000000;-1.000000;,
  0.000000;0.000000;-1.000000;,
  0.000000;0.000000;-1.000000;,
  0.000000;0.000000;-1.000000;,
  0.000000;0.000000;-1.000000;,
  0.000000;0.000000;-1.000000;,
  0.000000;0.000000;-1.000000;,
  0.000000;0.000000;-1.000000;,
  0.000000;0.000000;-1.000000;,
  0.000000;0.000000;-1.000000;,
  0.000000;0.000000;-1.000000;,
  0.000000;0.000000;-1.000000;,
  0.000000;0.000000;-1.000000;,
  0.000000;0.000000;-1.000000;,
  0.000000;0.000000;-1.000000;,
  0.000000;0.000000;-1.000000;,
  0.000000;0.000000;-1.000000;,
  0.000000;0.000000;-1.000000;,
  0.000000;0.000000;-1.000000;,
  0.000000;0.000000;-1.000000;,
  0.000000;0.000000;-1.000000;,
  0.000000;0.000000;-1.000000;,
  0.000000;0.000000;-1.000000;,
  0.000000;0.000000;-1.000000;,
  0.000000;0.000000;-1.000000;,
  0.000000;0.000000;-1.000000;,
  0.000000;0.000000;-1.000000;,
  0.000000;0.000000;-1.000000;,
  0.000000;0.000000;-1.000000;,
  0.000000;0.000000;-1.000000;,
  0.000000;0.000000;-1.000000;,
  0.000000;0.000000;-1.000000;,
  0.000000;0.000000;-1.000000;,
  0.000000;0.000000;-1.000000;,
  0.000000;0.000000;-1.000000;,
  0.000000;0.000000;-1.000000;,
  0.000000;0.000000;-1.000000;,
  0.000000;0.000000;-1.000000;,
  0.000000;0.000000;-1.000000;,
  0.000000;0.000000;-1.000000;,
  0.000000;0.000000;-1.000000;,
  0.000000;0.000000;-1.000000;,
  0.000000;0.000000;-1.000000;,
  0.000000;0.000000;-1.000000;,
  0.000000;0.000000;-1.000000;,
  0.000000;0.000000;-1.000000;,
  0.000000;0.000000;-1.000000;,
  0.000000;0.000000;-1.000000;,
  0.000000;0.000000;-1.000000;,
  0.000000;0.000000;-1.000000;,
  0.000000;0.000000;-1.000000;,
  0.000000;0.000000;-1.000000;,
  0.000000;0.000000;-1.000000;,
  0.000000;0.000000;-1.000000;,
  0.000000;0.000000;-1.000000;;
  104;
  3;0,0,0;,
  3;1,1,1;,
  3;2,2,2;,
  3;3,3,3;,
  3;4,4,4;,
  3;5,5,5;,
  3;6,6,6;,
  3;7,7,7;,
  3;8,8,8;,
  3;9,9,9;,
  3;10,10,10;,
  3;11,11,11;,
  3;12,12,12;,
  3;13,13,13;,
  3;14,14,14;,
  3;15,15,15;,
  3;16,16,16;,
  3;17,17,17;,
  3;18,18,18;,
  3;19,19,19;,
  3;20,20,20;,
  3;21,21,21;,
  3;22,22,22;,
  3;23,23,23;,
  3;24,24,24;,
  3;25,25,25;,
  3;26,26,26;,
  3;27,27,27;,
  3;28,28,28;,
  3;29,29,29;,
  3;30,30,30;,
  3;31,31,31;,
  3;32,32,32;,
  3;33,33,33;,
  3;34,34,34;,
  3;35,35,35;,
  3;36,36,36;,
  3;37,37,37;,
  3;38,38,38;,
  3;39,39,39;,
  3;40,40,40;,
  3;41,41,41;,
  3;42,42,42;,
  3;43,43,43;,
  3;44,44,44;,
  3;45,45,45;,
  3;46,46,46;,
  3;47,47,47;,
  3;48,48,48;,
  3;49,49,49;,
  3;50,50,50;,
  3;51,51,51;,
  3;52,52,52;,
  3;53,53,53;,
  3;54,54,54;,
  3;55,55,55;,
  3;56,56,56;,
  3;57,57,57;,
  3;58,58,58;,
  3;59,59,59;,
  3;60,60,60;,
  3;61,61,61;,
  3;62,62,62;,
  3;63,63,63;,
  3;64,64,64;,
  3;65,65,65;,
  3;66,66,66;,
  3;67,67,67;,
  3;68,68,68;,
  3;69,69,69;,
  3;70,70,70;,
  3;71,71,71;,
  3;72,72,72;,
  3;73,73,73;,
  3;74,74,74;,
  3;75,75,75;,
  3;76,76,76;,
  3;77,77,77;,
  3;78,78,78;,
  3;79,79,79;,
  3;80,80,80;,
  3;81,81,81;,
  3;82,82,82;,
  3;83,83,83;,
  3;84,84,84;,
  3;85,85,85;,
  3;86,86,86;,
  3;87,87,87;,
  3;88,88,88;,
  3;89,89,89;,
  3;90,90,90;,
  3;91,91,91;,
  3;92,92,92;,
  3;93,93,93;,
  3;94,94,94;,
  3;95,95,95;,
  3;96,96,96;,
  3;97,97,97;,
  3;98,98,98;,
  3;99,99,99;,
  3;100,100,100;,
  3;101,101,101;,
  3;102,102,102;,
  3;103,103,103;;
 }
}