xof 0303txt 0032
template Vector {
 <3d82ab5e-62da-11cf-ab39-0020af71e433>
 FLOAT x;
 FLOAT y;
 FLOAT z;
}

template MeshFace {
 <3d82ab5f-62da-11cf-ab39-0020af71e433>
 DWORD nFaceVertexIndices;
 array DWORD faceVertexIndices[nFaceVertexIndices];
}

template Mesh {
 <3d82ab44-62da-11cf-ab39-0020af71e433>
 DWORD nVertices;
 array Vector vertices[nVertices];
 DWORD nFaces;
 array MeshFace faces[nFaces];
 [...]
}

template ColorRGBA {
 <35ff44e0-6c7c-11cf-8f52-0040333594a3>
 FLOAT red;
 FLOAT green;
 FLOAT blue;
 FLOAT alpha;
}

template ColorRGB {
 <d3e16e81-7835-11cf-8f52-0040333594a3>
 FLOAT red;
 FLOAT green;
 FLOAT blue;
}

template Material {
 <3d82ab4d-62da-11cf-ab39-0020af71e433>
 ColorRGBA faceColor;
 FLOAT power;
 ColorRGB specularColor;
 ColorRGB emissiveColor;
 [...]
}

template MeshMaterialList {
 <f6f23f42-7686-11cf-8f52-0040333594a3>
 DWORD nMaterials;
 DWORD nFaceIndexes;
 array DWORD faceIndexes[nFaceIndexes];
 [Material <3d82ab4d-62da-11cf-ab39-0020af71e433>]
}

template TextureFilename {
 <a42790e1-7810-11cf-8f52-0040333594a3>
 STRING filename;
}

template Coords2d {
 <f6f23f44-7686-11cf-8f52-0040333594a3>
 FLOAT u;
 FLOAT v;
}

template MeshTextureCoords {
 <f6f23f40-7686-11cf-8f52-0040333594a3>
 DWORD nTextureCoords;
 array Coords2d textureCoords[nTextureCoords];
}

template MeshNormals {
 <f6f23f43-7686-11cf-8f52-0040333594a3>
 DWORD nNormals;
 array Vector normals[nNormals];
 DWORD nFaceNormals;
 array MeshFace faceNormals[nFaceNormals];
}


Mesh  {
 286;
 -0.953000;3.550000;0.000000;,
 0.953000;3.550000;0.000000;,
 -1.465000;3.340000;0.000000;,
 1.465000;3.340000;0.000000;,
 -1.465000;1.740000;0.000000;,
 1.465000;1.740000;0.000000;,
 -1.460000;1.690000;0.000000;,
 1.460000;1.690000;0.000000;,
 -1.365000;0.920000;0.000000;,
 1.365000;0.920000;0.000000;,
 -0.953000;3.550000;20.000000;,
 0.953000;3.550000;20.000000;,
 -1.465000;3.340000;20.000000;,
 1.465000;3.340000;20.000000;,
 -1.465000;1.740000;20.000000;,
 1.465000;1.740000;20.000000;,
 -1.460000;1.690000;20.000000;,
 1.460000;1.690000;20.000000;,
 -1.365000;0.920000;20.000000;,
 1.365000;0.920000;20.000000;,
 0.000000;3.650000;0.000000;,
 0.000000;3.650000;20.000000;,
 -0.538000;0.990000;0.400000;,
 0.538000;0.990000;0.400000;,
 -0.538000;0.000000;0.400000;,
 0.538000;0.000000;0.400000;,
 -0.538000;0.990000;19.600000;,
 0.538000;0.990000;19.600000;,
 -0.538000;0.000000;19.600000;,
 0.538000;0.000000;19.600000;,
 1.000000;1.000000;0.500000;,
 1.000000;-0.200000;0.500000;,
 -1.000000;-0.200000;0.500000;,
 -1.000000;1.000000;0.500000;,
 1.000000;1.000000;19.499998;,
 1.000000;-0.200000;19.499998;,
 -1.000000;-0.200000;19.499998;,
 -1.000000;1.000000;19.499998;,
 -0.851000;3.821000;6.049999;,
 0.851000;3.821000;6.049999;,
 -0.851000;3.539999;6.049999;,
 0.851000;3.539999;6.049999;,
 -0.600000;3.921000;6.049999;,
 0.600000;3.921000;6.049999;,
 -0.851000;3.821000;8.749998;,
 0.851000;3.821000;8.749998;,
 -0.851000;3.539999;8.749998;,
 0.851000;3.539999;8.749998;,
 -0.600000;3.921000;8.749998;,
 0.600000;3.921000;8.749998;,
 0.000000;4.020999;6.049999;,
 0.000000;4.020999;8.749998;,
 -0.851000;3.821000;11.249998;,
 0.851000;3.821000;11.249998;,
 -0.851000;3.539999;11.249998;,
 0.851000;3.539999;11.249998;,
 -0.600000;3.921000;11.249998;,
 0.600000;3.921000;11.249998;,
 -0.851000;3.821000;13.949999;,
 0.851000;3.821000;13.949999;,
 -0.851000;3.539999;13.949999;,
 0.851000;3.539999;13.949999;,
 -0.600000;3.921000;13.949999;,
 0.600000;3.921000;13.949999;,
 0.000000;4.020999;11.249998;,
 0.000000;4.020999;13.949999;,
 0.000000;3.651000;0.250000;,
 -0.953000;3.550000;0.250000;,
 0.953000;3.550000;0.250000;,
 -1.465000;3.340000;0.250000;,
 1.465000;3.340000;0.250000;,
 -1.465000;1.740000;0.250000;,
 1.465000;1.740000;0.250000;,
 -1.460000;1.690000;0.250000;,
 1.460000;1.690000;0.250000;,
 -1.365000;0.920000;0.250000;,
 1.365000;0.920000;0.250000;,
 0.000000;3.651000;19.750000;,
 -0.953000;3.550000;19.750000;,
 0.953000;3.550000;19.750000;,
 -1.465000;3.340000;19.750000;,
 1.465000;3.340000;19.750000;,
 -1.465000;1.740000;19.750000;,
 1.465000;1.740000;19.750000;,
 -1.460000;1.690000;19.750000;,
 1.460000;1.690000;19.750000;,
 -1.365000;0.920000;19.750000;,
 1.365000;0.920000;19.750000;,
 -1.465000;3.330000;19.750000;,
 -0.953000;3.551000;19.750000;,
 0.000000;3.651000;19.750000;,
 0.953000;3.551000;19.750000;,
 1.465000;3.330000;19.750000;,
 -1.465000;3.330000;0.250000;,
 -0.953000;3.551000;0.250000;,
 0.000000;3.651000;0.250000;,
 0.953000;3.551000;0.250000;,
 1.465000;3.330000;0.250000;,
 -0.850000;3.820000;5.850000;,
 0.850000;3.820000;5.850000;,
 -0.850000;3.500000;5.850000;,
 0.850000;3.500000;5.850000;,
 -0.600000;3.920000;5.850000;,
 0.600000;3.920000;5.850000;,
 -0.850000;3.820000;8.949999;,
 0.850000;3.820000;8.949999;,
 -0.850000;3.500000;8.949999;,
 0.850000;3.500000;8.949999;,
 -0.600000;3.920000;8.949999;,
 0.600000;3.920000;8.949999;,
 0.000000;4.020000;5.850000;,
 0.000000;4.020000;8.949999;,
 -0.850000;3.820000;11.049999;,
 0.850000;3.820000;11.049999;,
 -0.850000;3.500000;11.049999;,
 0.850000;3.500000;11.049999;,
 -0.600000;3.920000;11.049999;,
 0.600000;3.920000;11.049999;,
 -0.850000;3.820000;14.150000;,
 0.850000;3.820000;14.150000;,
 -0.850000;3.500000;14.150000;,
 0.850000;3.500000;14.150000;,
 -0.600000;3.920000;14.150000;,
 0.600000;3.920000;14.150000;,
 0.000000;4.020000;11.049999;,
 0.000000;4.020000;14.150000;,
 -0.250000;3.620000;14.200000;,
 0.250000;3.620000;14.200000;,
 -0.250000;3.500000;14.200000;,
 0.250000;3.500000;14.200000;,
 -0.250000;3.770000;14.349999;,
 0.250000;3.770000;14.349999;,
 -0.250000;3.770000;14.849999;,
 0.250000;3.770000;14.849999;,
 -0.250000;3.620000;14.999999;,
 0.250000;3.620000;14.999999;,
 -0.250000;3.500000;14.999999;,
 0.250000;3.500000;14.999999;,
 -0.250000;3.620000;5.000000;,
 0.250000;3.620000;5.000000;,
 -0.250000;3.500000;5.000000;,
 0.250000;3.500000;5.000000;,
 -0.250000;3.770000;5.150000;,
 0.250000;3.770000;5.150000;,
 -0.250000;3.770000;5.650000;,
 0.250000;3.770000;5.650000;,
 -0.250000;3.620000;5.800000;,
 0.250000;3.620000;5.800000;,
 -0.250000;3.500000;5.800000;,
 0.250000;3.500000;5.800000;,
 -1.301000;0.920000;19.500000;,
 -1.301000;0.720000;19.500000;,
 -1.301000;0.920000;20.500000;,
 -1.301000;0.720000;20.500000;,
 1.301000;0.920000;19.500000;,
 1.301000;0.720000;19.500000;,
 1.301000;0.920000;20.500000;,
 1.301000;0.720000;20.500000;,
 -1.230000;0.800000;20.036999;,
 -1.230000;0.800000;19.706997;,
 -1.235328;0.773212;20.036999;,
 -1.235328;0.773212;19.706997;,
 -1.250502;0.750502;20.036999;,
 -1.250502;0.750502;19.706997;,
 -1.273212;0.735328;20.036999;,
 -1.273212;0.735328;19.706997;,
 -1.300000;0.730000;20.036999;,
 -1.300000;0.730000;19.706997;,
 -1.326788;0.735328;20.036999;,
 -1.326788;0.735328;19.706997;,
 -1.349497;0.750502;20.036999;,
 -1.349497;0.750502;19.706997;,
 -1.364671;0.773212;20.036999;,
 -1.364671;0.773212;19.706997;,
 -1.370000;0.800000;20.036999;,
 -1.370000;0.800000;19.706997;,
 -1.364671;0.826788;20.036999;,
 -1.364671;0.826788;19.706997;,
 -1.349497;0.849497;20.036999;,
 -1.349497;0.849497;19.706997;,
 -1.326788;0.864672;20.036999;,
 -1.326788;0.864672;19.706997;,
 -1.300000;0.870000;20.036999;,
 -1.300000;0.870000;19.706997;,
 -1.273212;0.864672;20.036999;,
 -1.273212;0.864672;19.706997;,
 -1.250502;0.849497;20.036999;,
 -1.250502;0.849497;19.706997;,
 -1.235328;0.826788;20.036999;,
 -1.235328;0.826788;19.706997;,
 1.370000;0.800000;20.036999;,
 1.370000;0.800000;19.706997;,
 1.364671;0.773212;20.036999;,
 1.364671;0.773212;19.706997;,
 1.349497;0.750502;20.036999;,
 1.349497;0.750502;19.706997;,
 1.326788;0.735328;20.036999;,
 1.326788;0.735328;19.706997;,
 1.300000;0.730000;20.036999;,
 1.300000;0.730000;19.706997;,
 1.273212;0.735328;20.036999;,
 1.273212;0.735328;19.706997;,
 1.250502;0.750502;20.036999;,
 1.250502;0.750502;19.706997;,
 1.235328;0.773212;20.036999;,
 1.235328;0.773212;19.706997;,
 1.230000;0.800000;20.036999;,
 1.230000;0.800000;19.706997;,
 1.235328;0.826788;20.036999;,
 1.235328;0.826788;19.706997;,
 1.250502;0.849497;20.036999;,
 1.250502;0.849497;19.706997;,
 1.273212;0.864672;20.036999;,
 1.273212;0.864672;19.706997;,
 1.300000;0.870000;20.036999;,
 1.300000;0.870000;19.706997;,
 1.326788;0.864672;20.036999;,
 1.326788;0.864672;19.706997;,
 1.349497;0.849497;20.036999;,
 1.349497;0.849497;19.706997;,
 1.364671;0.826788;20.036999;,
 1.364671;0.826788;19.706997;,
 -1.245000;0.800000;20.292999;,
 -1.245000;0.800000;19.962997;,
 -1.249187;0.778952;20.292999;,
 -1.249187;0.778952;19.962997;,
 -1.261109;0.761109;20.292999;,
 -1.261109;0.761109;19.962997;,
 -1.278952;0.749187;20.292999;,
 -1.278952;0.749187;19.962997;,
 -1.300000;0.745000;20.292999;,
 -1.300000;0.745000;19.962997;,
 -1.321047;0.749187;20.292999;,
 -1.321047;0.749187;19.962997;,
 -1.338891;0.761109;20.292999;,
 -1.338891;0.761109;19.962997;,
 -1.350813;0.778952;20.292999;,
 -1.350813;0.778952;19.962997;,
 -1.355000;0.800000;20.292999;,
 -1.355000;0.800000;19.962997;,
 -1.350813;0.821048;20.292999;,
 -1.350813;0.821048;19.962997;,
 -1.338891;0.838891;20.292999;,
 -1.338891;0.838891;19.962997;,
 -1.321047;0.850813;20.292999;,
 -1.321047;0.850813;19.962997;,
 -1.300000;0.855000;20.292999;,
 -1.300000;0.855000;19.962997;,
 -1.278952;0.850813;20.292999;,
 -1.278952;0.850813;19.962997;,
 -1.261109;0.838891;20.292999;,
 -1.261109;0.838891;19.962997;,
 -1.249187;0.821048;20.292999;,
 -1.249187;0.821048;19.962997;,
 1.355000;0.800000;20.292999;,
 1.355000;0.800000;19.962997;,
 1.350813;0.778952;20.292999;,
 1.350813;0.778952;19.962997;,
 1.338891;0.761109;20.292999;,
 1.338891;0.761109;19.962997;,
 1.321047;0.749187;20.292999;,
 1.321047;0.749187;19.962997;,
 1.300000;0.745000;20.292999;,
 1.300000;0.745000;19.962997;,
 1.278952;0.749187;20.292999;,
 1.278952;0.749187;19.962997;,
 1.261109;0.761109;20.292999;,
 1.261109;0.761109;19.962997;,
 1.249187;0.778952;20.292999;,
 1.249187;0.778952;19.962997;,
 1.245000;0.800000;20.292999;,
 1.245000;0.800000;19.962997;,
 1.249187;0.821048;20.292999;,
 1.249187;0.821048;19.962997;,
 1.261109;0.838891;20.292999;,
 1.261109;0.838891;19.962997;,
 1.278952;0.850813;20.292999;,
 1.278952;0.850813;19.962997;,
 1.300000;0.855000;20.292999;,
 1.300000;0.855000;19.962997;,
 1.321047;0.850813;20.292999;,
 1.321047;0.850813;19.962997;,
 1.338891;0.838891;20.292999;,
 1.338891;0.838891;19.962997;,
 1.350813;0.821048;20.292999;,
 1.350813;0.821048;19.962997;;
 568;
 3;0,10,12;,
 3;0,12,2;,
 3;2,12,10;,
 3;2,10,0;,
 3;1,3,13;,
 3;1,13,11;,
 3;11,13,3;,
 3;11,3,1;,
 3;2,12,14;,
 3;2,14,4;,
 3;4,14,12;,
 3;4,12,2;,
 3;3,5,15;,
 3;3,15,13;,
 3;13,15,5;,
 3;13,5,3;,
 3;4,14,16;,
 3;4,16,6;,
 3;6,16,14;,
 3;6,14,4;,
 3;5,7,17;,
 3;5,17,15;,
 3;15,17,7;,
 3;15,7,5;,
 3;6,16,18;,
 3;6,18,8;,
 3;8,18,16;,
 3;8,16,6;,
 3;7,9,19;,
 3;7,19,17;,
 3;17,19,9;,
 3;17,9,7;,
 3;0,10,11;,
 3;0,11,1;,
 3;1,11,10;,
 3;1,10,0;,
 3;10,20,21;,
 3;10,21,20;,
 3;20,21,20;,
 3;20,20,10;,
 3;22,24,28;,
 3;22,28,26;,
 3;26,28,24;,
 3;26,24,22;,
 3;23,25,29;,
 3;23,29,27;,
 3;27,29,25;,
 3;27,25,23;,
 3;30,31,32;,
 3;30,32,33;,
 3;33,32,36;,
 3;33,36,37;,
 3;37,36,35;,
 3;37,35,34;,
 3;34,35,31;,
 3;34,31,30;,
 3;30,33,37;,
 3;30,37,34;,
 3;31,35,36;,
 3;31,36,32;,
 3;38,40,46;,
 3;38,46,44;,
 3;44,46,40;,
 3;44,40,38;,
 3;39,45,47;,
 3;39,47,41;,
 3;41,47,45;,
 3;41,45,39;,
 3;38,44,48;,
 3;38,48,42;,
 3;42,48,44;,
 3;42,44,38;,
 3;42,48,51;,
 3;42,51,50;,
 3;50,51,48;,
 3;50,48,42;,
 3;50,51,49;,
 3;50,49,43;,
 3;43,49,51;,
 3;43,51,50;,
 3;43,49,45;,
 3;43,45,39;,
 3;39,45,49;,
 3;39,49,43;,
 3;52,54,60;,
 3;52,60,58;,
 3;58,60,54;,
 3;58,54,52;,
 3;53,59,61;,
 3;53,61,55;,
 3;55,61,59;,
 3;55,59,53;,
 3;52,58,62;,
 3;52,62,56;,
 3;56,62,58;,
 3;56,58,52;,
 3;56,62,65;,
 3;56,65,64;,
 3;64,65,62;,
 3;64,62,56;,
 3;64,65,63;,
 3;64,63,57;,
 3;57,63,65;,
 3;57,65,64;,
 3;57,63,59;,
 3;57,59,53;,
 3;53,59,63;,
 3;53,63,57;,
 3;66,68,70;,
 3;66,70,72;,
 3;66,72,74;,
 3;66,74,76;,
 3;66,76,75;,
 3;66,75,73;,
 3;66,73,71;,
 3;66,71,69;,
 3;66,69,67;,
 3;67,69,71;,
 3;67,71,73;,
 3;67,73,75;,
 3;67,75,76;,
 3;67,76,74;,
 3;67,74,72;,
 3;67,72,70;,
 3;67,70,68;,
 3;67,68,66;,
 3;77,79,81;,
 3;77,81,83;,
 3;77,83,85;,
 3;77,85,87;,
 3;77,87,86;,
 3;77,86,84;,
 3;77,84,82;,
 3;77,82,80;,
 3;77,80,78;,
 3;78,80,82;,
 3;78,82,84;,
 3;78,84,86;,
 3;78,86,87;,
 3;78,87,85;,
 3;78,85,83;,
 3;78,83,81;,
 3;78,81,79;,
 3;78,79,77;,
 3;88,93,94;,
 3;88,94,89;,
 3;89,94,93;,
 3;89,93,88;,
 3;89,94,95;,
 3;89,95,90;,
 3;90,95,94;,
 3;90,94,89;,
 3;90,95,96;,
 3;90,96,91;,
 3;91,96,95;,
 3;91,95,90;,
 3;91,96,97;,
 3;91,97,92;,
 3;92,97,96;,
 3;92,96,91;,
 3;100,98,102;,
 3;100,102,110;,
 3;100,110,103;,
 3;100,103,99;,
 3;100,99,101;,
 3;101,99,103;,
 3;101,103,110;,
 3;101,110,102;,
 3;101,102,98;,
 3;101,98,100;,
 3;106,107,105;,
 3;106,105,109;,
 3;106,109,111;,
 3;106,111,108;,
 3;106,108,104;,
 3;104,108,111;,
 3;104,111,109;,
 3;104,109,105;,
 3;104,105,107;,
 3;104,107,106;,
 3;98,100,106;,
 3;98,106,104;,
 3;104,106,100;,
 3;104,100,98;,
 3;99,105,107;,
 3;99,107,101;,
 3;101,107,105;,
 3;101,105,99;,
 3;98,104,108;,
 3;98,108,102;,
 3;102,108,104;,
 3;102,104,98;,
 3;102,108,111;,
 3;102,111,110;,
 3;110,111,108;,
 3;110,108,102;,
 3;110,111,109;,
 3;110,109,103;,
 3;103,109,111;,
 3;103,111,110;,
 3;103,109,105;,
 3;103,105,99;,
 3;99,105,109;,
 3;99,109,103;,
 3;114,112,116;,
 3;114,116,124;,
 3;114,124,117;,
 3;114,117,113;,
 3;114,113,115;,
 3;115,113,117;,
 3;115,117,124;,
 3;115,124,116;,
 3;115,116,112;,
 3;115,112,114;,
 3;120,121,119;,
 3;120,119,123;,
 3;120,123,125;,
 3;120,125,122;,
 3;120,122,118;,
 3;118,122,125;,
 3;118,125,123;,
 3;118,123,119;,
 3;118,119,121;,
 3;118,121,120;,
 3;112,114,120;,
 3;112,120,118;,
 3;118,120,114;,
 3;118,114,112;,
 3;113,119,121;,
 3;113,121,115;,
 3;115,121,119;,
 3;115,119,113;,
 3;112,118,122;,
 3;112,122,116;,
 3;116,122,118;,
 3;116,118,112;,
 3;116,122,125;,
 3;116,125,124;,
 3;124,125,122;,
 3;124,122,116;,
 3;124,125,123;,
 3;124,123,117;,
 3;117,123,125;,
 3;117,125,124;,
 3;117,123,119;,
 3;117,119,113;,
 3;113,119,123;,
 3;113,123,117;,
 3;126,127,129;,
 3;126,129,128;,
 3;128,129,127;,
 3;128,127,126;,
 3;134,136,137;,
 3;134,137,135;,
 3;135,137,136;,
 3;135,136,134;,
 3;126,128,136;,
 3;126,136,134;,
 3;126,134,132;,
 3;126,132,130;,
 3;130,132,134;,
 3;130,134,136;,
 3;130,136,128;,
 3;130,128,126;,
 3;127,131,133;,
 3;127,133,135;,
 3;127,135,137;,
 3;127,137,129;,
 3;129,137,135;,
 3;129,135,133;,
 3;129,133,131;,
 3;129,131,127;,
 3;126,130,131;,
 3;126,131,127;,
 3;127,131,130;,
 3;127,130,126;,
 3;130,132,133;,
 3;130,133,131;,
 3;131,133,132;,
 3;131,132,130;,
 3;132,134,135;,
 3;132,135,133;,
 3;133,135,134;,
 3;133,134,132;,
 3;138,139,141;,
 3;138,141,140;,
 3;140,141,139;,
 3;140,139,138;,
 3;146,148,149;,
 3;146,149,147;,
 3;147,149,148;,
 3;147,148,146;,
 3;138,140,148;,
 3;138,148,146;,
 3;138,146,144;,
 3;138,144,142;,
 3;142,144,146;,
 3;142,146,148;,
 3;142,148,140;,
 3;142,140,138;,
 3;139,143,145;,
 3;139,145,147;,
 3;139,147,149;,
 3;139,149,141;,
 3;141,149,147;,
 3;141,147,145;,
 3;141,145,143;,
 3;141,143,139;,
 3;138,142,143;,
 3;138,143,139;,
 3;139,143,142;,
 3;139,142,138;,
 3;142,144,145;,
 3;142,145,143;,
 3;143,145,144;,
 3;143,144,142;,
 3;144,146,147;,
 3;144,147,145;,
 3;145,147,146;,
 3;145,146,144;,
 3;150,152,153;,
 3;150,153,151;,
 3;151,153,152;,
 3;151,152,150;,
 3;154,156,157;,
 3;154,157,155;,
 3;155,157,156;,
 3;155,156,154;,
 3;159,158,160;,
 3;159,160,161;,
 3;161,160,162;,
 3;161,162,163;,
 3;163,162,164;,
 3;163,164,165;,
 3;165,164,166;,
 3;165,166,167;,
 3;167,166,168;,
 3;167,168,169;,
 3;169,168,170;,
 3;169,170,171;,
 3;171,170,172;,
 3;171,172,173;,
 3;173,172,174;,
 3;173,174,175;,
 3;175,174,176;,
 3;175,176,177;,
 3;177,176,178;,
 3;177,178,179;,
 3;179,178,180;,
 3;179,180,181;,
 3;181,180,182;,
 3;181,182,183;,
 3;183,182,184;,
 3;183,184,185;,
 3;185,184,186;,
 3;185,186,187;,
 3;187,186,188;,
 3;187,188,189;,
 3;189,188,158;,
 3;189,158,159;,
 3;188,186,184;,
 3;188,184,182;,
 3;188,182,180;,
 3;188,180,178;,
 3;188,178,176;,
 3;188,176,174;,
 3;188,174,172;,
 3;188,172,170;,
 3;188,170,168;,
 3;188,168,166;,
 3;188,166,164;,
 3;188,164,162;,
 3;188,162,160;,
 3;188,160,158;,
 3;159,161,163;,
 3;159,163,165;,
 3;159,165,167;,
 3;159,167,169;,
 3;159,169,171;,
 3;159,171,173;,
 3;159,173,175;,
 3;159,175,177;,
 3;159,177,179;,
 3;159,179,181;,
 3;159,181,183;,
 3;159,183,185;,
 3;159,185,187;,
 3;159,187,189;,
 3;191,190,192;,
 3;191,192,193;,
 3;193,192,194;,
 3;193,194,195;,
 3;195,194,196;,
 3;195,196,197;,
 3;197,196,198;,
 3;197,198,199;,
 3;199,198,200;,
 3;199,200,201;,
 3;201,200,202;,
 3;201,202,203;,
 3;203,202,204;,
 3;203,204,205;,
 3;205,204,206;,
 3;205,206,207;,
 3;207,206,208;,
 3;207,208,209;,
 3;209,208,210;,
 3;209,210,211;,
 3;211,210,212;,
 3;211,212,213;,
 3;213,212,214;,
 3;213,214,215;,
 3;215,214,216;,
 3;215,216,217;,
 3;217,216,218;,
 3;217,218,219;,
 3;219,218,220;,
 3;219,220,221;,
 3;221,220,190;,
 3;221,190,191;,
 3;220,218,216;,
 3;220,216,214;,
 3;220,214,212;,
 3;220,212,210;,
 3;220,210,208;,
 3;220,208,206;,
 3;220,206,204;,
 3;220,204,202;,
 3;220,202,200;,
 3;220,200,198;,
 3;220,198,196;,
 3;220,196,194;,
 3;220,194,192;,
 3;220,192,190;,
 3;191,193,195;,
 3;191,195,197;,
 3;191,197,199;,
 3;191,199,201;,
 3;191,201,203;,
 3;191,203,205;,
 3;191,205,207;,
 3;191,207,209;,
 3;191,209,211;,
 3;191,211,213;,
 3;191,213,215;,
 3;191,215,217;,
 3;191,217,219;,
 3;191,219,221;,
 3;223,222,224;,
 3;223,224,225;,
 3;225,224,226;,
 3;225,226,227;,
 3;227,226,228;,
 3;227,228,229;,
 3;229,228,230;,
 3;229,230,231;,
 3;231,230,232;,
 3;231,232,233;,
 3;233,232,234;,
 3;233,234,235;,
 3;235,234,236;,
 3;235,236,237;,
 3;237,236,238;,
 3;237,238,239;,
 3;239,238,240;,
 3;239,240,241;,
 3;241,240,242;,
 3;241,242,243;,
 3;243,242,244;,
 3;243,244,245;,
 3;245,244,246;,
 3;245,246,247;,
 3;247,246,248;,
 3;247,248,249;,
 3;249,248,250;,
 3;249,250,251;,
 3;251,250,252;,
 3;251,252,253;,
 3;253,252,222;,
 3;253,222,223;,
 3;252,250,248;,
 3;252,248,246;,
 3;252,246,244;,
 3;252,244,242;,
 3;252,242,240;,
 3;252,240,238;,
 3;252,238,236;,
 3;252,236,234;,
 3;252,234,232;,
 3;252,232,230;,
 3;252,230,228;,
 3;252,228,226;,
 3;252,226,224;,
 3;252,224,222;,
 3;223,225,227;,
 3;223,227,229;,
 3;223,229,231;,
 3;223,231,233;,
 3;223,233,235;,
 3;223,235,237;,
 3;223,237,239;,
 3;223,239,241;,
 3;223,241,243;,
 3;223,243,245;,
 3;223,245,247;,
 3;223,247,249;,
 3;223,249,251;,
 3;223,251,253;,
 3;255,254,256;,
 3;255,256,257;,
 3;257,256,258;,
 3;257,258,259;,
 3;259,258,260;,
 3;259,260,261;,
 3;261,260,262;,
 3;261,262,263;,
 3;263,262,264;,
 3;263,264,265;,
 3;265,264,266;,
 3;265,266,267;,
 3;267,266,268;,
 3;267,268,269;,
 3;269,268,270;,
 3;269,270,271;,
 3;271,270,272;,
 3;271,272,273;,
 3;273,272,274;,
 3;273,274,275;,
 3;275,274,276;,
 3;275,276,277;,
 3;277,276,278;,
 3;277,278,279;,
 3;279,278,280;,
 3;279,280,281;,
 3;281,280,282;,
 3;281,282,283;,
 3;283,282,284;,
 3;283,284,285;,
 3;285,284,254;,
 3;285,254,255;,
 3;284,282,280;,
 3;284,280,278;,
 3;284,278,276;,
 3;284,276,274;,
 3;284,274,272;,
 3;284,272,270;,
 3;284,270,268;,
 3;284,268,266;,
 3;284,266,264;,
 3;284,264,262;,
 3;284,262,260;,
 3;284,260,258;,
 3;284,258,256;,
 3;284,256,254;,
 3;255,257,259;,
 3;255,259,261;,
 3;255,261,263;,
 3;255,263,265;,
 3;255,265,267;,
 3;255,267,269;,
 3;255,269,271;,
 3;255,271,273;,
 3;255,273,275;,
 3;255,275,277;,
 3;255,277,279;,
 3;255,279,281;,
 3;255,281,283;,
 3;255,283,285;;

 MeshMaterialList  {
  16;
  568;
  0,
  0,
  0,
  0,
  0,
  0,
  0,
  0,
  0,
  0,
  0,
  0,
  0,
  0,
  0,
  0,
  0,
  0,
  0,
  0,
  0,
  0,
  0,
  0,
  0,
  0,
  0,
  0,
  0,
  0,
  0,
  0,
  0,
  0,
  0,
  0,
  0,
  0,
  0,
  0,
  1,
  1,
  1,
  1,
  1,
  1,
  1,
  1,
  2,
  2,
  2,
  2,
  2,
  2,
  2,
  2,
  2,
  2,
  2,
  2,
  3,
  3,
  3,
  3,
  3,
  3,
  3,
  3,
  3,
  3,
  3,
  3,
  3,
  3,
  3,
  3,
  3,
  3,
  3,
  3,
  3,
  3,
  3,
  3,
  4,
  4,
  4,
  4,
  4,
  4,
  4,
  4,
  4,
  4,
  4,
  4,
  4,
  4,
  4,
  4,
  4,
  4,
  4,
  4,
  4,
  4,
  4,
  4,
  5,
  5,
  5,
  5,
  5,
  5,
  5,
  5,
  5,
  5,
  5,
  5,
  5,
  5,
  5,
  5,
  5,
  5,
  5,
  5,
  5,
  5,
  5,
  5,
  5,
  5,
  5,
  5,
  5,
  5,
  5,
  5,
  5,
  5,
  5,
  5,
  6,
  6,
  6,
  6,
  6,
  6,
  6,
  6,
  6,
  6,
  6,
  6,
  6,
  6,
  6,
  6,
  7,
  7,
  7,
  7,
  7,
  7,
  7,
  7,
  7,
  7,
  7,
  7,
  7,
  7,
  7,
  7,
  7,
  7,
  7,
  7,
  7,
  7,
  7,
  7,
  7,
  7,
  7,
  7,
  7,
  7,
  7,
  7,
  7,
  7,
  7,
  7,
  7,
  7,
  7,
  7,
  7,
  7,
  7,
  7,
  8,
  8,
  8,
  8,
  8,
  8,
  8,
  8,
  8,
  8,
  8,
  8,
  8,
  8,
  8,
  8,
  8,
  8,
  8,
  8,
  8,
  8,
  8,
  8,
  8,
  8,
  8,
  8,
  8,
  8,
  8,
  8,
  8,
  8,
  8,
  8,
  8,
  8,
  8,
  8,
  8,
  8,
  8,
  8,
  9,
  9,
  9,
  9,
  9,
  9,
  9,
  9,
  9,
  9,
  9,
  9,
  9,
  9,
  9,
  9,
  9,
  9,
  9,
  9,
  9,
  9,
  9,
  9,
  9,
  9,
  9,
  9,
  9,
  9,
  9,
  9,
  9,
  9,
  9,
  9,
  10,
  10,
  10,
  10,
  10,
  10,
  10,
  10,
  10,
  10,
  10,
  10,
  10,
  10,
  10,
  10,
  10,
  10,
  10,
  10,
  10,
  10,
  10,
  10,
  10,
  10,
  10,
  10,
  10,
  10,
  10,
  10,
  10,
  10,
  10,
  10,
  11,
  11,
  11,
  11,
  11,
  11,
  11,
  11,
  12,
  12,
  12,
  12,
  12,
  12,
  12,
  12,
  12,
  12,
  12,
  12,
  12,
  12,
  12,
  12,
  12,
  12,
  12,
  12,
  12,
  12,
  12,
  12,
  12,
  12,
  12,
  12,
  12,
  12,
  12,
  12,
  12,
  12,
  12,
  12,
  12,
  12,
  12,
  12,
  12,
  12,
  12,
  12,
  12,
  12,
  12,
  12,
  12,
  12,
  12,
  12,
  12,
  12,
  12,
  12,
  12,
  12,
  12,
  12,
  13,
  13,
  13,
  13,
  13,
  13,
  13,
  13,
  13,
  13,
  13,
  13,
  13,
  13,
  13,
  13,
  13,
  13,
  13,
  13,
  13,
  13,
  13,
  13,
  13,
  13,
  13,
  13,
  13,
  13,
  13,
  13,
  13,
  13,
  13,
  13,
  13,
  13,
  13,
  13,
  13,
  13,
  13,
  13,
  13,
  13,
  13,
  13,
  13,
  13,
  13,
  13,
  13,
  13,
  13,
  13,
  13,
  13,
  13,
  13,
  14,
  14,
  14,
  14,
  14,
  14,
  14,
  14,
  14,
  14,
  14,
  14,
  14,
  14,
  14,
  14,
  14,
  14,
  14,
  14,
  14,
  14,
  14,
  14,
  14,
  14,
  14,
  14,
  14,
  14,
  14,
  14,
  14,
  14,
  14,
  14,
  14,
  14,
  14,
  14,
  14,
  14,
  14,
  14,
  14,
  14,
  14,
  14,
  14,
  14,
  14,
  14,
  14,
  14,
  14,
  14,
  14,
  14,
  14,
  14,
  15,
  15,
  15,
  15,
  15,
  15,
  15,
  15,
  15,
  15,
  15,
  15,
  15,
  15,
  15,
  15,
  15,
  15,
  15,
  15,
  15,
  15,
  15,
  15,
  15,
  15,
  15,
  15,
  15,
  15,
  15,
  15,
  15,
  15,
  15,
  15,
  15,
  15,
  15,
  15,
  15,
  15,
  15,
  15,
  15,
  15,
  15,
  15,
  15,
  15,
  15,
  15,
  15,
  15,
  15,
  15,
  15,
  15,
  15,
  15;

  Material  {
   1.000000;1.000000;1.000000;1.000000;;
   0.000000;
   0.000000;0.000000;0.000000;;
   0.000000;0.000000;0.000000;;

   TextureFilename  {
    "T313-1102side.dds";
   }
  }

  Material  {
   1.000000;1.000000;1.000000;1.000000;;
   0.000000;
   0.000000;0.000000;0.000000;;
   0.000000;0.000000;0.000000;;

   TextureFilename  {
    "P100_side2.dds";
   }
  }

  Material  {
   0.000000;0.000000;0.000000;0.250980;;
   0.000000;
   0.000000;0.000000;0.000000;;
   0.000000;0.000000;0.000000;;
  }

  Material  {
   1.000000;1.000000;1.000000;1.000000;;
   0.000000;
   0.000000;0.000000;0.000000;;
   0.000000;0.000000;0.000000;;

   TextureFilename  {
    "kool0.dds";
   }
  }

  Material  {
   1.000000;1.000000;1.000000;1.000000;;
   0.000000;
   0.000000;0.000000;0.000000;;
   0.000000;0.000000;0.000000;;

   TextureFilename  {
    "kool0.dds";
   }
  }

  Material  {
   0.705882;0.705882;0.705882;1.000000;;
   0.000000;
   0.000000;0.000000;0.000000;;
   0.000000;0.000000;0.000000;;
  }

  Material  {
   0.509804;0.509804;0.509804;1.000000;;
   0.000000;
   0.000000;0.000000;0.000000;;
   0.000000;0.000000;0.000000;;
  }

  Material  {
   0.862745;0.862745;0.862745;1.000000;;
   0.000000;
   0.000000;0.000000;0.000000;;
   0.000000;0.000000;0.000000;;
  }

  Material  {
   0.862745;0.862745;0.862745;1.000000;;
   0.000000;
   0.000000;0.000000;0.000000;;
   0.000000;0.000000;0.000000;;
  }

  Material  {
   0.941176;0.980392;0.980392;1.000000;;
   0.000000;
   0.000000;0.000000;0.000000;;
   0.000000;0.000000;0.000000;;
  }

  Material  {
   0.941176;0.980392;0.980392;1.000000;;
   0.000000;
   0.000000;0.000000;0.000000;;
   0.000000;0.000000;0.000000;;
  }

  Material  {
   1.000000;1.000000;1.000000;1.000000;;
   0.000000;
   0.000000;0.000000;0.000000;;
   0.000000;0.000000;0.000000;;

   TextureFilename  {
    "dump.dds";
   }
  }

  Material  {
   0.501961;0.501961;0.501961;1.000000;;
   0.000000;
   0.000000;0.000000;0.000000;;
   0.000000;0.000000;0.000000;;
  }

  Material  {
   0.501961;0.501961;0.501961;1.000000;;
   0.000000;
   0.000000;0.000000;0.000000;;
   0.000000;0.000000;0.000000;;
  }

  Material  {
   0.501961;0.501961;0.501961;1.000000;;
   0.000000;
   0.000000;0.000000;0.000000;;
   0.000000;0.000000;0.000000;;
  }

  Material  {
   0.501961;0.501961;0.501961;1.000000;;
   0.000000;
   0.000000;0.000000;0.000000;;
   0.000000;0.000000;0.000000;;
  }
 }

 MeshTextureCoords  {
  286;
  1.000000;0.000000;,
  1.000000;0.000000;,
  1.000000;0.010000;,
  1.000000;0.010000;,
  1.000000;0.660000;,
  1.000000;0.660000;,
  1.000000;0.680000;,
  1.000000;0.680000;,
  1.000000;1.000000;,
  1.000000;1.000000;,
  0.000000;0.000000;,
  0.000000;0.000000;,
  0.000000;0.010000;,
  0.000000;0.010000;,
  0.000000;0.660000;,
  0.000000;0.660000;,
  0.000000;0.680000;,
  0.000000;0.680000;,
  0.000000;1.000000;,
  0.000000;1.000000;,
  0.000000;0.000000;,
  0.000000;0.000000;,
  1.000000;0.000000;,
  1.000000;0.000000;,
  1.000000;1.000000;,
  1.000000;1.000000;,
  0.000000;0.000000;,
  0.000000;0.000000;,
  0.000000;1.000000;,
  0.000000;1.000000;,
  0.000000;0.000000;,
  0.000000;0.000000;,
  0.000000;0.000000;,
  0.000000;0.000000;,
  0.000000;0.000000;,
  0.000000;0.000000;,
  0.000000;0.000000;,
  0.000000;0.000000;,
  0.000000;0.060000;,
  0.000000;0.940000;,
  0.000000;0.000000;,
  0.000000;1.000000;,
  0.000000;0.200000;,
  0.000000;0.800000;,
  1.000000;0.060000;,
  1.000000;0.940000;,
  1.000000;0.000000;,
  1.000000;1.000000;,
  1.000000;0.200000;,
  1.000000;0.800000;,
  0.000000;0.500000;,
  1.000000;0.500000;,
  1.000000;0.060000;,
  1.000000;0.940000;,
  1.000000;0.000000;,
  1.000000;1.000000;,
  1.000000;0.200000;,
  1.000000;0.800000;,
  0.000000;0.060000;,
  0.000000;0.940000;,
  0.000000;0.000000;,
  0.000000;1.000000;,
  0.000000;0.200000;,
  0.000000;0.800000;,
  1.000000;0.500000;,
  0.000000;0.500000;,
  0.000000;0.000000;,
  0.000000;0.000000;,
  0.000000;0.000000;,
  0.000000;0.000000;,
  0.000000;0.000000;,
  0.000000;0.000000;,
  0.000000;0.000000;,
  0.000000;0.000000;,
  0.000000;0.000000;,
  0.000000;0.000000;,
  0.000000;0.000000;,
  0.000000;0.000000;,
  0.000000;0.000000;,
  0.000000;0.000000;,
  0.000000;0.000000;,
  0.000000;0.000000;,
  0.000000;0.000000;,
  0.000000;0.000000;,
  0.000000;0.000000;,
  0.000000;0.000000;,
  0.000000;0.000000;,
  0.000000;0.000000;,
  0.000000;0.000000;,
  0.000000;0.000000;,
  0.000000;0.000000;,
  0.000000;0.000000;,
  0.000000;0.000000;,
  0.000000;0.000000;,
  0.000000;0.000000;,
  0.000000;0.000000;,
  0.000000;0.000000;,
  0.000000;0.000000;,
  0.000000;0.000000;,
  0.000000;0.000000;,
  0.000000;0.000000;,
  0.000000;0.000000;,
  0.000000;0.000000;,
  0.000000;0.000000;,
  0.000000;0.000000;,
  0.000000;0.000000;,
  0.000000;0.000000;,
  0.000000;0.000000;,
  0.000000;0.000000;,
  0.000000;0.000000;,
  0.000000;0.000000;,
  0.000000;0.000000;,
  0.000000;0.000000;,
  0.000000;0.000000;,
  0.000000;0.000000;,
  0.000000;0.000000;,
  0.000000;0.000000;,
  0.000000;0.000000;,
  0.000000;0.000000;,
  0.000000;0.000000;,
  0.000000;0.000000;,
  0.000000;0.000000;,
  0.000000;0.000000;,
  0.000000;0.000000;,
  0.000000;0.000000;,
  0.000000;0.000000;,
  0.000000;0.000000;,
  0.000000;0.000000;,
  0.000000;0.000000;,
  0.000000;0.000000;,
  0.000000;0.000000;,
  0.000000;0.000000;,
  0.000000;0.000000;,
  0.000000;0.000000;,
  0.000000;0.000000;,
  0.000000;0.000000;,
  0.000000;0.000000;,
  0.000000;0.000000;,
  0.000000;0.000000;,
  0.000000;0.000000;,
  0.000000;0.000000;,
  0.000000;0.000000;,
  0.000000;0.000000;,
  0.000000;0.000000;,
  0.000000;0.000000;,
  0.000000;0.000000;,
  0.000000;0.000000;,
  0.000000;0.000000;,
  0.000000;0.000000;,
  0.000000;0.000000;,
  0.000000;0.000000;,
  0.000000;1.000000;,
  1.000000;0.000000;,
  1.000000;1.000000;,
  0.000000;0.000000;,
  0.000000;1.000000;,
  1.000000;0.000000;,
  1.000000;1.000000;,
  0.000000;0.000000;,
  0.000000;0.000000;,
  0.000000;0.000000;,
  0.000000;0.000000;,
  0.000000;0.000000;,
  0.000000;0.000000;,
  0.000000;0.000000;,
  0.000000;0.000000;,
  0.000000;0.000000;,
  0.000000;0.000000;,
  0.000000;0.000000;,
  0.000000;0.000000;,
  0.000000;0.000000;,
  0.000000;0.000000;,
  0.000000;0.000000;,
  0.000000;0.000000;,
  0.000000;0.000000;,
  0.000000;0.000000;,
  0.000000;0.000000;,
  0.000000;0.000000;,
  0.000000;0.000000;,
  0.000000;0.000000;,
  0.000000;0.000000;,
  0.000000;0.000000;,
  0.000000;0.000000;,
  0.000000;0.000000;,
  0.000000;0.000000;,
  0.000000;0.000000;,
  0.000000;0.000000;,
  0.000000;0.000000;,
  0.000000;0.000000;,
  0.000000;0.000000;,
  0.000000;0.000000;,
  0.000000;0.000000;,
  0.000000;0.000000;,
  0.000000;0.000000;,
  0.000000;0.000000;,
  0.000000;0.000000;,
  0.000000;0.000000;,
  0.000000;0.000000;,
  0.000000;0.000000;,
  0.000000;0.000000;,
  0.000000;0.000000;,
  0.000000;0.000000;,
  0.000000;0.000000;,
  0.000000;0.000000;,
  0.000000;0.000000;,
  0.000000;0.000000;,
  0.000000;0.000000;,
  0.000000;0.000000;,
  0.000000;0.000000;,
  0.000000;0.000000;,
  0.000000;0.000000;,
  0.000000;0.000000;,
  0.000000;0.000000;,
  0.000000;0.000000;,
  0.000000;0.000000;,
  0.000000;0.000000;,
  0.000000;0.000000;,
  0.000000;0.000000;,
  0.000000;0.000000;,
  0.000000;0.000000;,
  0.000000;0.000000;,
  0.000000;0.000000;,
  0.000000;0.000000;,
  0.000000;0.000000;,
  0.000000;0.000000;,
  0.000000;0.000000;,
  0.000000;0.000000;,
  0.000000;0.000000;,
  0.000000;0.000000;,
  0.000000;0.000000;,
  0.000000;0.000000;,
  0.000000;0.000000;,
  0.000000;0.000000;,
  0.000000;0.000000;,
  0.000000;0.000000;,
  0.000000;0.000000;,
  0.000000;0.000000;,
  0.000000;0.000000;,
  0.000000;0.000000;,
  0.000000;0.000000;,
  0.000000;0.000000;,
  0.000000;0.000000;,
  0.000000;0.000000;,
  0.000000;0.000000;,
  0.000000;0.000000;,
  0.000000;0.000000;,
  0.000000;0.000000;,
  0.000000;0.000000;,
  0.000000;0.000000;,
  0.000000;0.000000;,
  0.000000;0.000000;,
  0.000000;0.000000;,
  0.000000;0.000000;,
  0.000000;0.000000;,
  0.000000;0.000000;,
  0.000000;0.000000;,
  0.000000;0.000000;,
  0.000000;0.000000;,
  0.000000;0.000000;,
  0.000000;0.000000;,
  0.000000;0.000000;,
  0.000000;0.000000;,
  0.000000;0.000000;,
  0.000000;0.000000;,
  0.000000;0.000000;,
  0.000000;0.000000;,
  0.000000;0.000000;,
  0.000000;0.000000;,
  0.000000;0.000000;,
  0.000000;0.000000;,
  0.000000;0.000000;,
  0.000000;0.000000;,
  0.000000;0.000000;,
  0.000000;0.000000;,
  0.000000;0.000000;,
  0.000000;0.000000;,
  0.000000;0.000000;,
  0.000000;0.000000;,
  0.000000;0.000000;,
  0.000000;0.000000;,
  0.000000;0.000000;,
  0.000000;0.000000;,
  0.000000;0.000000;,
  0.000000;0.000000;,
  0.000000;0.000000;,
  0.000000;0.000000;;
 }

 MeshNormals  {
  456;
  0.379477;-0.925201;0.000000;,
  0.379477;-0.925201;0.000000;,
  -0.379477;0.925201;0.000000;,
  -0.379477;0.925201;0.000000;,
  -0.379477;-0.925201;0.000000;,
  -0.379477;-0.925201;0.000000;,
  0.379477;0.925201;0.000000;,
  0.379477;0.925201;0.000000;,
  1.000000;0.000000;0.000000;,
  1.000000;0.000000;0.000000;,
  -1.000000;0.000000;0.000000;,
  -1.000000;0.000000;0.000000;,
  -1.000000;0.000000;0.000000;,
  -1.000000;0.000000;0.000000;,
  1.000000;0.000000;0.000000;,
  1.000000;0.000000;0.000000;,
  0.995037;0.099504;0.000000;,
  0.995037;0.099504;0.000000;,
  -0.995037;-0.099504;0.000000;,
  -0.995037;-0.099504;0.000000;,
  -0.995037;0.099504;0.000000;,
  -0.995037;0.099504;0.000000;,
  0.995037;-0.099504;0.000000;,
  0.995037;-0.099504;0.000000;,
  0.992475;0.122448;0.000000;,
  0.992475;0.122448;0.000000;,
  -0.992475;-0.122448;0.000000;,
  -0.992475;-0.122448;0.000000;,
  -0.992475;0.122448;0.000000;,
  -0.992475;0.122448;0.000000;,
  0.992475;-0.122448;0.000000;,
  0.992475;-0.122448;0.000000;,
  0.000000;1.000000;0.000000;,
  0.000000;1.000000;0.000000;,
  0.000000;-1.000000;0.000000;,
  0.000000;-1.000000;0.000000;,
  0.104359;-0.994540;0.000000;,
  -0.104359;0.994540;0.000000;,
  0.000000;0.000000;0.000000;,
  0.000000;0.000000;0.000000;,
  -1.000000;0.000000;0.000000;,
  -1.000000;0.000000;0.000000;,
  1.000000;0.000000;0.000000;,
  1.000000;0.000000;0.000000;,
  -1.000000;0.000000;0.000000;,
  -1.000000;0.000000;0.000000;,
  1.000000;0.000000;0.000000;,
  1.000000;0.000000;0.000000;,
  0.000000;0.000000;-1.000000;,
  0.000000;0.000000;-1.000000;,
  -1.000000;0.000000;0.000000;,
  -1.000000;0.000000;0.000000;,
  0.000000;0.000000;1.000000;,
  0.000000;0.000000;1.000000;,
  1.000000;0.000000;0.000000;,
  1.000000;0.000000;0.000000;,
  0.000000;1.000000;0.000000;,
  0.000000;1.000000;0.000000;,
  0.000000;-1.000000;0.000000;,
  0.000000;-1.000000;0.000000;,
  -1.000000;0.000000;0.000000;,
  -1.000000;0.000000;0.000000;,
  1.000000;0.000000;0.000000;,
  1.000000;0.000000;0.000000;,
  1.000000;0.000000;0.000000;,
  1.000000;0.000000;0.000000;,
  -1.000000;0.000000;0.000000;,
  -1.000000;0.000000;0.000000;,
  -0.370114;0.928986;0.000000;,
  -0.370114;0.928986;0.000000;,
  0.370114;-0.928986;0.000000;,
  0.370114;-0.928986;0.000000;,
  -0.164399;0.986394;0.000000;,
  -0.164399;0.986394;0.000000;,
  0.164399;-0.986394;0.000000;,
  0.164399;-0.986394;0.000000;,
  0.164399;0.986394;0.000000;,
  0.164399;0.986394;0.000000;,
  -0.164399;-0.986394;0.000000;,
  -0.164399;-0.986394;0.000000;,
  0.370114;0.928986;0.000000;,
  0.370114;0.928986;0.000000;,
  -0.370114;-0.928986;0.000000;,
  -0.370114;-0.928986;0.000000;,
  -1.000000;0.000000;0.000000;,
  -1.000000;0.000000;0.000000;,
  1.000000;0.000000;0.000000;,
  1.000000;0.000000;0.000000;,
  1.000000;0.000000;0.000000;,
  1.000000;0.000000;0.000000;,
  -1.000000;0.000000;0.000000;,
  -1.000000;0.000000;0.000000;,
  -0.370114;0.928986;0.000000;,
  -0.370114;0.928986;0.000000;,
  0.370114;-0.928986;0.000000;,
  0.370114;-0.928986;0.000000;,
  -0.164399;0.986394;0.000000;,
  -0.164399;0.986394;0.000000;,
  0.164399;-0.986394;0.000000;,
  0.164399;-0.986394;0.000000;,
  0.164399;0.986394;0.000000;,
  0.164399;0.986394;0.000000;,
  -0.164399;-0.986394;0.000000;,
  -0.164399;-0.986394;0.000000;,
  0.370114;0.928986;0.000000;,
  0.370114;0.928986;0.000000;,
  -0.370114;-0.928986;0.000000;,
  -0.370114;-0.928986;0.000000;,
  0.000000;0.000000;-1.000000;,
  0.000000;0.000000;-1.000000;,
  0.000000;0.000000;-1.000000;,
  0.000000;0.000000;-1.000000;,
  0.000000;0.000000;-1.000000;,
  0.000000;0.000000;-1.000000;,
  0.000000;0.000000;-1.000000;,
  0.000000;0.000000;-1.000000;,
  0.000000;0.000000;-1.000000;,
  0.000000;0.000000;1.000000;,
  0.000000;0.000000;1.000000;,
  0.000000;0.000000;1.000000;,
  0.000000;0.000000;1.000000;,
  0.000000;0.000000;1.000000;,
  0.000000;0.000000;1.000000;,
  0.000000;0.000000;1.000000;,
  0.000000;0.000000;1.000000;,
  0.000000;0.000000;1.000000;,
  0.000000;0.000000;-1.000000;,
  0.000000;0.000000;-1.000000;,
  0.000000;0.000000;-1.000000;,
  0.000000;0.000000;-1.000000;,
  0.000000;0.000000;-1.000000;,
  0.000000;0.000000;-1.000000;,
  0.000000;0.000000;-1.000000;,
  0.000000;0.000000;-1.000000;,
  0.000000;0.000000;-1.000000;,
  0.000000;0.000000;1.000000;,
  0.000000;0.000000;1.000000;,
  0.000000;0.000000;1.000000;,
  0.000000;0.000000;1.000000;,
  0.000000;0.000000;1.000000;,
  0.000000;0.000000;1.000000;,
  0.000000;0.000000;1.000000;,
  0.000000;0.000000;1.000000;,
  0.000000;0.000000;1.000000;,
  0.396299;-0.918122;0.000000;,
  0.396299;-0.918122;0.000000;,
  -0.396299;0.918122;0.000000;,
  -0.396299;0.918122;0.000000;,
  0.104359;-0.994540;0.000000;,
  0.104359;-0.994540;0.000000;,
  -0.104359;0.994540;0.000000;,
  -0.104359;0.994540;0.000000;,
  -0.104359;-0.994540;0.000000;,
  -0.104359;-0.994540;0.000000;,
  0.104359;0.994540;0.000000;,
  0.104359;0.994540;0.000000;,
  -0.396299;-0.918122;0.000000;,
  -0.396299;-0.918122;0.000000;,
  0.396299;0.918122;0.000000;,
  0.396299;0.918122;0.000000;,
  0.000000;0.000000;-1.000000;,
  0.000000;0.000000;-1.000000;,
  0.000000;0.000000;-1.000000;,
  0.000000;0.000000;-1.000000;,
  0.000000;0.000000;-1.000000;,
  0.000000;0.000000;1.000000;,
  0.000000;0.000000;1.000000;,
  0.000000;0.000000;1.000000;,
  0.000000;0.000000;1.000000;,
  0.000000;0.000000;1.000000;,
  0.000000;0.000000;1.000000;,
  0.000000;0.000000;1.000000;,
  0.000000;0.000000;1.000000;,
  0.000000;0.000000;1.000000;,
  0.000000;0.000000;1.000000;,
  0.000000;0.000000;-1.000000;,
  0.000000;0.000000;-1.000000;,
  0.000000;0.000000;-1.000000;,
  0.000000;0.000000;-1.000000;,
  0.000000;0.000000;-1.000000;,
  -1.000000;0.000000;0.000000;,
  -1.000000;0.000000;0.000000;,
  1.000000;0.000000;0.000000;,
  1.000000;0.000000;0.000000;,
  1.000000;0.000000;0.000000;,
  1.000000;0.000000;0.000000;,
  -1.000000;0.000000;0.000000;,
  -1.000000;0.000000;0.000000;,
  -0.371391;0.928476;0.000000;,
  -0.371391;0.928476;0.000000;,
  0.371391;-0.928476;0.000000;,
  0.371391;-0.928476;0.000000;,
  -0.164399;0.986394;0.000000;,
  -0.164399;0.986394;0.000000;,
  0.164399;-0.986394;0.000000;,
  0.164399;-0.986394;0.000000;,
  0.164399;0.986394;0.000000;,
  0.164399;0.986394;0.000000;,
  -0.164399;-0.986394;0.000000;,
  -0.164399;-0.986394;0.000000;,
  0.371391;0.928476;0.000000;,
  0.371391;0.928476;0.000000;,
  -0.371391;-0.928476;0.000000;,
  -0.371391;-0.928476;0.000000;,
  0.000000;0.000000;-1.000000;,
  0.000000;0.000000;-1.000000;,
  0.000000;0.000000;-1.000000;,
  0.000000;0.000000;-1.000000;,
  0.000000;0.000000;-1.000000;,
  0.000000;0.000000;1.000000;,
  0.000000;0.000000;1.000000;,
  0.000000;0.000000;1.000000;,
  0.000000;0.000000;1.000000;,
  0.000000;0.000000;1.000000;,
  0.000000;0.000000;1.000000;,
  0.000000;0.000000;1.000000;,
  0.000000;0.000000;1.000000;,
  0.000000;0.000000;1.000000;,
  0.000000;0.000000;1.000000;,
  0.000000;0.000000;-1.000000;,
  0.000000;0.000000;-1.000000;,
  0.000000;0.000000;-1.000000;,
  0.000000;0.000000;-1.000000;,
  0.000000;0.000000;-1.000000;,
  -1.000000;0.000000;0.000000;,
  -1.000000;0.000000;0.000000;,
  1.000000;0.000000;0.000000;,
  1.000000;0.000000;0.000000;,
  1.000000;0.000000;0.000000;,
  1.000000;0.000000;0.000000;,
  -1.000000;0.000000;0.000000;,
  -1.000000;0.000000;0.000000;,
  -0.371391;0.928476;0.000000;,
  -0.371391;0.928476;0.000000;,
  0.371391;-0.928476;0.000000;,
  0.371391;-0.928476;0.000000;,
  -0.164399;0.986394;0.000000;,
  -0.164399;0.986394;0.000000;,
  0.164399;-0.986394;0.000000;,
  0.164399;-0.986394;0.000000;,
  0.164399;0.986394;0.000000;,
  0.164399;0.986394;0.000000;,
  -0.164399;-0.986394;0.000000;,
  -0.164399;-0.986394;0.000000;,
  0.371391;0.928476;0.000000;,
  0.371391;0.928476;0.000000;,
  -0.371391;-0.928476;0.000000;,
  -0.371391;-0.928476;0.000000;,
  0.000000;0.000000;-1.000000;,
  0.000000;0.000000;-1.000000;,
  0.000000;0.000000;1.000000;,
  0.000000;0.000000;1.000000;,
  0.000000;0.000000;1.000000;,
  0.000000;0.000000;1.000000;,
  0.000000;0.000000;-1.000000;,
  0.000000;0.000000;-1.000000;,
  -1.000000;0.000000;0.000000;,
  -1.000000;0.000000;0.000000;,
  -1.000000;0.000000;0.000000;,
  -1.000000;0.000000;0.000000;,
  1.000000;0.000000;0.000000;,
  1.000000;0.000000;0.000000;,
  1.000000;0.000000;0.000000;,
  1.000000;0.000000;0.000000;,
  1.000000;0.000000;0.000000;,
  1.000000;0.000000;0.000000;,
  1.000000;0.000000;0.000000;,
  1.000000;0.000000;0.000000;,
  -1.000000;0.000000;0.000000;,
  -1.000000;0.000000;0.000000;,
  -1.000000;0.000000;0.000000;,
  -1.000000;0.000000;0.000000;,
  0.000000;0.707106;-0.707108;,
  0.000000;0.707106;-0.707108;,
  0.000000;-0.707106;0.707108;,
  0.000000;-0.707106;0.707108;,
  0.000000;1.000000;0.000000;,
  0.000000;1.000000;0.000000;,
  0.000000;-1.000000;0.000000;,
  0.000000;-1.000000;0.000000;,
  0.000000;0.707106;0.707108;,
  0.000000;0.707106;0.707108;,
  0.000000;-0.707106;-0.707108;,
  0.000000;-0.707106;-0.707108;,
  0.000000;0.000000;-1.000000;,
  0.000000;0.000000;-1.000000;,
  0.000000;0.000000;1.000000;,
  0.000000;0.000000;1.000000;,
  0.000000;0.000000;1.000000;,
  0.000000;0.000000;1.000000;,
  0.000000;0.000000;-1.000000;,
  0.000000;0.000000;-1.000000;,
  -1.000000;0.000000;0.000000;,
  -1.000000;0.000000;0.000000;,
  -1.000000;0.000000;0.000000;,
  -1.000000;0.000000;0.000000;,
  1.000000;0.000000;0.000000;,
  1.000000;0.000000;0.000000;,
  1.000000;0.000000;0.000000;,
  1.000000;0.000000;0.000000;,
  1.000000;0.000000;0.000000;,
  1.000000;0.000000;0.000000;,
  1.000000;0.000000;0.000000;,
  1.000000;0.000000;0.000000;,
  -1.000000;0.000000;0.000000;,
  -1.000000;0.000000;0.000000;,
  -1.000000;0.000000;0.000000;,
  -1.000000;0.000000;0.000000;,
  0.000000;0.707107;-0.707107;,
  0.000000;0.707107;-0.707107;,
  0.000000;-0.707107;0.707107;,
  0.000000;-0.707107;0.707107;,
  0.000000;1.000000;0.000000;,
  0.000000;1.000000;0.000000;,
  0.000000;-1.000000;0.000000;,
  0.000000;-1.000000;0.000000;,
  0.000000;0.707107;0.707107;,
  0.000000;0.707107;0.707107;,
  0.000000;-0.707107;-0.707107;,
  0.000000;-0.707107;-0.707107;,
  1.000000;0.000000;0.000000;,
  1.000000;0.000000;0.000000;,
  -1.000000;0.000000;0.000000;,
  -1.000000;0.000000;0.000000;,
  1.000000;0.000000;0.000000;,
  1.000000;0.000000;0.000000;,
  -1.000000;0.000000;0.000000;,
  -1.000000;0.000000;0.000000;,
  0.703702;0.707107;-0.069309;,
  0.000096;-1.000000;0.000000;,
  0.353553;0.923879;0.146447;,
  0.623612;-0.707107;0.333328;,
  0.270598;0.923880;0.270598;,
  0.242772;-0.923880;0.295818;,
  0.146447;0.923880;0.353553;,
  0.111087;-0.923880;0.366205;,
  0.000000;0.923880;0.382683;,
  -0.037510;-0.923879;0.380841;,
  -0.146447;0.923880;0.353553;,
  -0.180396;-0.923880;0.337497;,
  -0.270598;0.923880;0.270598;,
  -0.295818;-0.923880;0.242772;,
  -0.353553;0.923880;0.146447;,
  -0.366205;-0.923880;0.111087;,
  -0.382683;0.923880;0.000000;,
  -0.380841;-0.923880;-0.037510;,
  -0.353553;0.923880;-0.146447;,
  -0.337497;-0.923880;-0.180396;,
  -0.270598;0.923880;-0.270598;,
  -0.242772;-0.923880;-0.295818;,
  -0.146447;0.923880;-0.353553;,
  -0.111087;-0.923880;-0.366205;,
  0.000000;0.923880;-0.382683;,
  0.037510;-0.923879;-0.380841;,
  0.146447;0.923880;-0.353553;,
  0.180396;-0.923880;-0.337497;,
  0.500000;0.707107;-0.500000;,
  0.295818;-0.923880;-0.242772;,
  0.000089;1.000000;-0.000037;,
  0.676659;-0.707107;-0.205262;,
  0.703702;0.707107;-0.069309;,
  0.000096;-1.000000;0.000000;,
  0.353553;0.923879;0.146447;,
  0.623612;-0.707107;0.333328;,
  0.270598;0.923880;0.270598;,
  0.242772;-0.923880;0.295818;,
  0.146447;0.923880;0.353553;,
  0.111087;-0.923880;0.366205;,
  0.000000;0.923880;0.382683;,
  -0.037510;-0.923879;0.380841;,
  -0.146447;0.923880;0.353553;,
  -0.180396;-0.923880;0.337497;,
  -0.270598;0.923880;0.270598;,
  -0.295818;-0.923880;0.242772;,
  -0.353553;0.923880;0.146447;,
  -0.366205;-0.923880;0.111087;,
  -0.382683;0.923880;0.000000;,
  -0.380841;-0.923880;-0.037510;,
  -0.353553;0.923880;-0.146447;,
  -0.337497;-0.923880;-0.180396;,
  -0.270598;0.923880;-0.270598;,
  -0.242772;-0.923880;-0.295818;,
  -0.146447;0.923880;-0.353553;,
  -0.111087;-0.923880;-0.366205;,
  0.000000;0.923880;-0.382683;,
  0.037510;-0.923879;-0.380841;,
  0.146447;0.923880;-0.353553;,
  0.180396;-0.923880;-0.337497;,
  0.500000;0.707107;-0.500000;,
  0.295818;-0.923880;-0.242772;,
  0.000089;1.000000;-0.000037;,
  0.676659;-0.707107;-0.205262;,
  0.703702;0.707107;-0.069309;,
  0.000096;-1.000000;0.000000;,
  0.353553;0.923880;0.146447;,
  0.623612;-0.707107;0.333328;,
  0.270598;0.923879;0.270598;,
  0.242772;-0.923879;0.295818;,
  0.146447;0.923880;0.353553;,
  0.111087;-0.923880;0.366205;,
  0.000000;0.923880;0.382683;,
  -0.037510;-0.923880;0.380841;,
  -0.146447;0.923880;0.353553;,
  -0.180396;-0.923880;0.337497;,
  -0.270598;0.923880;0.270598;,
  -0.295818;-0.923880;0.242772;,
  -0.353553;0.923880;0.146447;,
  -0.366205;-0.923880;0.111087;,
  -0.382683;0.923880;0.000000;,
  -0.380841;-0.923880;-0.037510;,
  -0.353553;0.923880;-0.146447;,
  -0.337497;-0.923880;-0.180396;,
  -0.270598;0.923880;-0.270598;,
  -0.242772;-0.923880;-0.295818;,
  -0.146447;0.923880;-0.353553;,
  -0.111087;-0.923880;-0.366205;,
  0.000000;0.923879;-0.382683;,
  0.037510;-0.923880;-0.380841;,
  0.146447;0.923879;-0.353553;,
  0.180396;-0.923880;-0.337497;,
  0.500000;0.707107;-0.500000;,
  0.295818;-0.923880;-0.242772;,
  0.000089;1.000000;-0.000037;,
  0.676659;-0.707107;-0.205262;,
  0.703702;0.707107;-0.069309;,
  0.000096;-1.000000;0.000000;,
  0.353553;0.923880;0.146447;,
  0.623612;-0.707107;0.333328;,
  0.270598;0.923879;0.270598;,
  0.242772;-0.923879;0.295818;,
  0.146447;0.923880;0.353553;,
  0.111087;-0.923880;0.366205;,
  0.000000;0.923880;0.382683;,
  -0.037510;-0.923880;0.380841;,
  -0.146447;0.923880;0.353553;,
  -0.180396;-0.923880;0.337497;,
  -0.270598;0.923880;0.270598;,
  -0.295818;-0.923880;0.242772;,
  -0.353553;0.923880;0.146447;,
  -0.366205;-0.923880;0.111087;,
  -0.382683;0.923880;0.000000;,
  -0.380841;-0.923880;-0.037510;,
  -0.353553;0.923880;-0.146447;,
  -0.337497;-0.923880;-0.180396;,
  -0.270598;0.923880;-0.270598;,
  -0.242772;-0.923880;-0.295818;,
  -0.146447;0.923880;-0.353553;,
  -0.111087;-0.923880;-0.366205;,
  0.000000;0.923879;-0.382683;,
  0.037510;-0.923880;-0.380841;,
  0.146447;0.923879;-0.353553;,
  0.180396;-0.923880;-0.337497;,
  0.500000;0.707107;-0.500000;,
  0.295818;-0.923880;-0.242772;,
  0.000089;1.000000;-0.000037;,
  0.676659;-0.707107;-0.205262;;
  568;
  3;0,0,0;,
  3;1,1,1;,
  3;2,2,2;,
  3;3,3,3;,
  3;4,4,4;,
  3;5,5,5;,
  3;6,6,6;,
  3;7,7,7;,
  3;8,8,8;,
  3;9,9,9;,
  3;10,10,10;,
  3;11,11,11;,
  3;12,12,12;,
  3;13,13,13;,
  3;14,14,14;,
  3;15,15,15;,
  3;16,16,16;,
  3;17,17,17;,
  3;18,18,18;,
  3;19,19,19;,
  3;20,20,20;,
  3;21,21,21;,
  3;22,22,22;,
  3;23,23,23;,
  3;24,24,24;,
  3;25,25,25;,
  3;26,26,26;,
  3;27,27,27;,
  3;28,28,28;,
  3;29,29,29;,
  3;30,30,30;,
  3;31,31,31;,
  3;32,32,32;,
  3;33,33,33;,
  3;34,34,34;,
  3;35,35,35;,
  3;36,36,36;,
  3;37,37,37;,
  3;38,38,38;,
  3;39,39,39;,
  3;40,40,40;,
  3;41,41,41;,
  3;42,42,42;,
  3;43,43,43;,
  3;44,44,44;,
  3;45,45,45;,
  3;46,46,46;,
  3;47,47,47;,
  3;48,48,48;,
  3;49,49,49;,
  3;50,50,50;,
  3;51,51,51;,
  3;52,52,52;,
  3;53,53,53;,
  3;54,54,54;,
  3;55,55,55;,
  3;56,56,56;,
  3;57,57,57;,
  3;58,58,58;,
  3;59,59,59;,
  3;60,60,60;,
  3;61,61,61;,
  3;62,62,62;,
  3;63,63,63;,
  3;64,64,64;,
  3;65,65,65;,
  3;66,66,66;,
  3;67,67,67;,
  3;68,68,68;,
  3;69,69,69;,
  3;70,70,70;,
  3;71,71,71;,
  3;72,72,72;,
  3;73,73,73;,
  3;74,74,74;,
  3;75,75,75;,
  3;76,76,76;,
  3;77,77,77;,
  3;78,78,78;,
  3;79,79,79;,
  3;80,80,80;,
  3;81,81,81;,
  3;82,82,82;,
  3;83,83,83;,
  3;84,84,84;,
  3;85,85,85;,
  3;86,86,86;,
  3;87,87,87;,
  3;88,88,88;,
  3;89,89,89;,
  3;90,90,90;,
  3;91,91,91;,
  3;92,92,92;,
  3;93,93,93;,
  3;94,94,94;,
  3;95,95,95;,
  3;96,96,96;,
  3;97,97,97;,
  3;98,98,98;,
  3;99,99,99;,
  3;100,100,100;,
  3;101,101,101;,
  3;102,102,102;,
  3;103,103,103;,
  3;104,104,104;,
  3;105,105,105;,
  3;106,106,106;,
  3;107,107,107;,
  3;108,108,108;,
  3;109,109,109;,
  3;110,110,110;,
  3;111,111,111;,
  3;112,112,112;,
  3;113,113,113;,
  3;114,114,114;,
  3;115,115,115;,
  3;116,116,116;,
  3;117,117,117;,
  3;118,118,118;,
  3;119,119,119;,
  3;120,120,120;,
  3;121,121,121;,
  3;122,122,122;,
  3;123,123,123;,
  3;124,124,124;,
  3;125,125,125;,
  3;126,126,126;,
  3;127,127,127;,
  3;128,128,128;,
  3;129,129,129;,
  3;130,130,130;,
  3;131,131,131;,
  3;132,132,132;,
  3;133,133,133;,
  3;134,134,134;,
  3;135,135,135;,
  3;136,136,136;,
  3;137,137,137;,
  3;138,138,138;,
  3;139,139,139;,
  3;140,140,140;,
  3;141,141,141;,
  3;142,142,142;,
  3;143,143,143;,
  3;144,144,144;,
  3;145,145,145;,
  3;146,146,146;,
  3;147,147,147;,
  3;148,148,148;,
  3;149,149,149;,
  3;150,150,150;,
  3;151,151,151;,
  3;152,152,152;,
  3;153,153,153;,
  3;154,154,154;,
  3;155,155,155;,
  3;156,156,156;,
  3;157,157,157;,
  3;158,158,158;,
  3;159,159,159;,
  3;160,160,160;,
  3;161,161,161;,
  3;162,162,162;,
  3;163,163,163;,
  3;164,164,164;,
  3;165,165,165;,
  3;166,166,166;,
  3;167,167,167;,
  3;168,168,168;,
  3;169,169,169;,
  3;170,170,170;,
  3;171,171,171;,
  3;172,172,172;,
  3;173,173,173;,
  3;174,174,174;,
  3;175,175,175;,
  3;176,176,176;,
  3;177,177,177;,
  3;178,178,178;,
  3;179,179,179;,
  3;180,180,180;,
  3;181,181,181;,
  3;182,182,182;,
  3;183,183,183;,
  3;184,184,184;,
  3;185,185,185;,
  3;186,186,186;,
  3;187,187,187;,
  3;188,188,188;,
  3;189,189,189;,
  3;190,190,190;,
  3;191,191,191;,
  3;192,192,192;,
  3;193,193,193;,
  3;194,194,194;,
  3;195,195,195;,
  3;196,196,196;,
  3;197,197,197;,
  3;198,198,198;,
  3;199,199,199;,
  3;200,200,200;,
  3;201,201,201;,
  3;202,202,202;,
  3;203,203,203;,
  3;204,204,204;,
  3;205,205,205;,
  3;206,206,206;,
  3;207,207,207;,
  3;208,208,208;,
  3;209,209,209;,
  3;210,210,210;,
  3;211,211,211;,
  3;212,212,212;,
  3;213,213,213;,
  3;214,214,214;,
  3;215,215,215;,
  3;216,216,216;,
  3;217,217,217;,
  3;218,218,218;,
  3;219,219,219;,
  3;220,220,220;,
  3;221,221,221;,
  3;222,222,222;,
  3;223,223,223;,
  3;224,224,224;,
  3;225,225,225;,
  3;226,226,226;,
  3;227,227,227;,
  3;228,228,228;,
  3;229,229,229;,
  3;230,230,230;,
  3;231,231,231;,
  3;232,232,232;,
  3;233,233,233;,
  3;234,234,234;,
  3;235,235,235;,
  3;236,236,236;,
  3;237,237,237;,
  3;238,238,238;,
  3;239,239,239;,
  3;240,240,240;,
  3;241,241,241;,
  3;242,242,242;,
  3;243,243,243;,
  3;244,244,244;,
  3;245,245,245;,
  3;246,246,246;,
  3;247,247,247;,
  3;248,248,248;,
  3;249,249,249;,
  3;250,250,250;,
  3;251,251,251;,
  3;252,252,252;,
  3;253,253,253;,
  3;254,254,254;,
  3;255,255,255;,
  3;256,256,256;,
  3;257,257,257;,
  3;258,258,258;,
  3;259,259,259;,
  3;260,260,260;,
  3;261,261,261;,
  3;262,262,262;,
  3;263,263,263;,
  3;264,264,264;,
  3;265,265,265;,
  3;266,266,266;,
  3;267,267,267;,
  3;268,268,268;,
  3;269,269,269;,
  3;270,270,270;,
  3;271,271,271;,
  3;272,272,272;,
  3;273,273,273;,
  3;274,274,274;,
  3;275,275,275;,
  3;276,276,276;,
  3;277,277,277;,
  3;278,278,278;,
  3;279,279,279;,
  3;280,280,280;,
  3;281,281,281;,
  3;282,282,282;,
  3;283,283,283;,
  3;284,284,284;,
  3;285,285,285;,
  3;286,286,286;,
  3;287,287,287;,
  3;288,288,288;,
  3;289,289,289;,
  3;290,290,290;,
  3;291,291,291;,
  3;292,292,292;,
  3;293,293,293;,
  3;294,294,294;,
  3;295,295,295;,
  3;296,296,296;,
  3;297,297,297;,
  3;298,298,298;,
  3;299,299,299;,
  3;300,300,300;,
  3;301,301,301;,
  3;302,302,302;,
  3;303,303,303;,
  3;304,304,304;,
  3;305,305,305;,
  3;306,306,306;,
  3;307,307,307;,
  3;308,308,308;,
  3;309,309,309;,
  3;310,310,310;,
  3;311,311,311;,
  3;312,312,312;,
  3;313,313,313;,
  3;314,314,314;,
  3;315,315,315;,
  3;316,316,316;,
  3;317,317,317;,
  3;318,318,318;,
  3;319,319,319;,
  3;320,320,320;,
  3;321,321,321;,
  3;322,322,322;,
  3;323,323,323;,
  3;324,324,324;,
  3;325,325,325;,
  3;326,326,326;,
  3;327,327,327;,
  3;329,328,330;,
  3;329,330,331;,
  3;331,330,332;,
  3;331,332,333;,
  3;333,332,334;,
  3;333,334,335;,
  3;335,334,336;,
  3;335,336,337;,
  3;337,336,338;,
  3;337,338,339;,
  3;339,338,340;,
  3;339,340,341;,
  3;341,340,342;,
  3;341,342,343;,
  3;343,342,344;,
  3;343,344,345;,
  3;345,344,346;,
  3;345,346,347;,
  3;347,346,348;,
  3;347,348,349;,
  3;349,348,350;,
  3;349,350,351;,
  3;351,350,352;,
  3;351,352,353;,
  3;353,352,354;,
  3;353,354,355;,
  3;355,354,356;,
  3;355,356,357;,
  3;357,356,358;,
  3;357,358,359;,
  3;359,358,328;,
  3;359,328,329;,
  3;358,356,354;,
  3;358,354,352;,
  3;358,352,350;,
  3;358,350,348;,
  3;358,348,346;,
  3;358,346,344;,
  3;358,344,342;,
  3;358,342,340;,
  3;358,340,338;,
  3;358,338,336;,
  3;358,336,334;,
  3;358,334,332;,
  3;358,332,330;,
  3;358,330,328;,
  3;329,331,333;,
  3;329,333,335;,
  3;329,335,337;,
  3;329,337,339;,
  3;329,339,341;,
  3;329,341,343;,
  3;329,343,345;,
  3;329,345,347;,
  3;329,347,349;,
  3;329,349,351;,
  3;329,351,353;,
  3;329,353,355;,
  3;329,355,357;,
  3;329,357,359;,
  3;361,360,362;,
  3;361,362,363;,
  3;363,362,364;,
  3;363,364,365;,
  3;365,364,366;,
  3;365,366,367;,
  3;367,366,368;,
  3;367,368,369;,
  3;369,368,370;,
  3;369,370,371;,
  3;371,370,372;,
  3;371,372,373;,
  3;373,372,374;,
  3;373,374,375;,
  3;375,374,376;,
  3;375,376,377;,
  3;377,376,378;,
  3;377,378,379;,
  3;379,378,380;,
  3;379,380,381;,
  3;381,380,382;,
  3;381,382,383;,
  3;383,382,384;,
  3;383,384,385;,
  3;385,384,386;,
  3;385,386,387;,
  3;387,386,388;,
  3;387,388,389;,
  3;389,388,390;,
  3;389,390,391;,
  3;391,390,360;,
  3;391,360,361;,
  3;390,388,386;,
  3;390,386,384;,
  3;390,384,382;,
  3;390,382,380;,
  3;390,380,378;,
  3;390,378,376;,
  3;390,376,374;,
  3;390,374,372;,
  3;390,372,370;,
  3;390,370,368;,
  3;390,368,366;,
  3;390,366,364;,
  3;390,364,362;,
  3;390,362,360;,
  3;361,363,365;,
  3;361,365,367;,
  3;361,367,369;,
  3;361,369,371;,
  3;361,371,373;,
  3;361,373,375;,
  3;361,375,377;,
  3;361,377,379;,
  3;361,379,381;,
  3;361,381,383;,
  3;361,383,385;,
  3;361,385,387;,
  3;361,387,389;,
  3;361,389,391;,
  3;393,392,394;,
  3;393,394,395;,
  3;395,394,396;,
  3;395,396,397;,
  3;397,396,398;,
  3;397,398,399;,
  3;399,398,400;,
  3;399,400,401;,
  3;401,400,402;,
  3;401,402,403;,
  3;403,402,404;,
  3;403,404,405;,
  3;405,404,406;,
  3;405,406,407;,
  3;407,406,408;,
  3;407,408,409;,
  3;409,408,410;,
  3;409,410,411;,
  3;411,410,412;,
  3;411,412,413;,
  3;413,412,414;,
  3;413,414,415;,
  3;415,414,416;,
  3;415,416,417;,
  3;417,416,418;,
  3;417,418,419;,
  3;419,418,420;,
  3;419,420,421;,
  3;421,420,422;,
  3;421,422,423;,
  3;423,422,392;,
  3;423,392,393;,
  3;422,420,418;,
  3;422,418,416;,
  3;422,416,414;,
  3;422,414,412;,
  3;422,412,410;,
  3;422,410,408;,
  3;422,408,406;,
  3;422,406,404;,
  3;422,404,402;,
  3;422,402,400;,
  3;422,400,398;,
  3;422,398,396;,
  3;422,396,394;,
  3;422,394,392;,
  3;393,395,397;,
  3;393,397,399;,
  3;393,399,401;,
  3;393,401,403;,
  3;393,403,405;,
  3;393,405,407;,
  3;393,407,409;,
  3;393,409,411;,
  3;393,411,413;,
  3;393,413,415;,
  3;393,415,417;,
  3;393,417,419;,
  3;393,419,421;,
  3;393,421,423;,
  3;425,424,426;,
  3;425,426,427;,
  3;427,426,428;,
  3;427,428,429;,
  3;429,428,430;,
  3;429,430,431;,
  3;431,430,432;,
  3;431,432,433;,
  3;433,432,434;,
  3;433,434,435;,
  3;435,434,436;,
  3;435,436,437;,
  3;437,436,438;,
  3;437,438,439;,
  3;439,438,440;,
  3;439,440,441;,
  3;441,440,442;,
  3;441,442,443;,
  3;443,442,444;,
  3;443,444,445;,
  3;445,444,446;,
  3;445,446,447;,
  3;447,446,448;,
  3;447,448,449;,
  3;449,448,450;,
  3;449,450,451;,
  3;451,450,452;,
  3;451,452,453;,
  3;453,452,454;,
  3;453,454,455;,
  3;455,454,424;,
  3;455,424,425;,
  3;454,452,450;,
  3;454,450,448;,
  3;454,448,446;,
  3;454,446,444;,
  3;454,444,442;,
  3;454,442,440;,
  3;454,440,438;,
  3;454,438,436;,
  3;454,436,434;,
  3;454,434,432;,
  3;454,432,430;,
  3;454,430,428;,
  3;454,428,426;,
  3;454,426,424;,
  3;425,427,429;,
  3;425,429,431;,
  3;425,431,433;,
  3;425,433,435;,
  3;425,435,437;,
  3;425,437,439;,
  3;425,439,441;,
  3;425,441,443;,
  3;425,443,445;,
  3;425,445,447;,
  3;425,447,449;,
  3;425,449,451;,
  3;425,451,453;,
  3;425,453,455;;
 }
}