xof 0303txt 0032
template Vector {
 <3d82ab5e-62da-11cf-ab39-0020af71e433>
 FLOAT x;
 FLOAT y;
 FLOAT z;
}

template MeshFace {
 <3d82ab5f-62da-11cf-ab39-0020af71e433>
 DWORD nFaceVertexIndices;
 array DWORD faceVertexIndices[nFaceVertexIndices];
}

template Mesh {
 <3d82ab44-62da-11cf-ab39-0020af71e433>
 DWORD nVertices;
 array Vector vertices[nVertices];
 DWORD nFaces;
 array MeshFace faces[nFaces];
 [...]
}

template ColorRGBA {
 <35ff44e0-6c7c-11cf-8f52-0040333594a3>
 FLOAT red;
 FLOAT green;
 FLOAT blue;
 FLOAT alpha;
}

template ColorRGB {
 <d3e16e81-7835-11cf-8f52-0040333594a3>
 FLOAT red;
 FLOAT green;
 FLOAT blue;
}

template Material {
 <3d82ab4d-62da-11cf-ab39-0020af71e433>
 ColorRGBA faceColor;
 FLOAT power;
 ColorRGB specularColor;
 ColorRGB emissiveColor;
 [...]
}

template MeshMaterialList {
 <f6f23f42-7686-11cf-8f52-0040333594a3>
 DWORD nMaterials;
 DWORD nFaceIndexes;
 array DWORD faceIndexes[nFaceIndexes];
 [Material <3d82ab4d-62da-11cf-ab39-0020af71e433>]
}

template TextureFilename {
 <a42790e1-7810-11cf-8f52-0040333594a3>
 STRING filename;
}

template Coords2d {
 <f6f23f44-7686-11cf-8f52-0040333594a3>
 FLOAT u;
 FLOAT v;
}

template MeshTextureCoords {
 <f6f23f40-7686-11cf-8f52-0040333594a3>
 DWORD nTextureCoords;
 array Coords2d textureCoords[nTextureCoords];
}

template MeshNormals {
 <f6f23f43-7686-11cf-8f52-0040333594a3>
 DWORD nNormals;
 array Vector normals[nNormals];
 DWORD nFaceNormals;
 array MeshFace faceNormals[nFaceNormals];
}


Mesh  {
 253;
 -0.442000;3.340000;0.080000;,
 0.442000;3.340000;0.080000;,
 -0.442000;2.900000;0.080000;,
 0.442000;2.900000;0.080000;,
 -0.442000;1.900000;0.080000;,
 0.442000;1.900000;0.080000;,
 -0.442000;0.920000;0.080000;,
 0.442000;0.920000;0.080000;,
 -0.442000;3.450000;0.270000;,
 0.442000;3.450000;0.270000;,
 -0.953000;3.340000;0.270000;,
 0.953000;3.340000;0.270000;,
 -0.953000;2.900000;0.270000;,
 0.953000;2.900000;0.270000;,
 -0.953000;1.900000;0.270000;,
 0.953000;1.900000;0.270000;,
 -0.953000;1.740000;0.270000;,
 0.953000;1.740000;0.270000;,
 -0.953000;1.690000;0.270000;,
 0.953000;1.690000;0.270000;,
 -0.953000;0.920000;0.270000;,
 0.953000;0.920000;0.270000;,
 -0.442000;3.550000;0.470000;,
 0.442000;3.550000;0.470000;,
 -0.953000;3.450000;0.470000;,
 0.953000;3.450000;0.470000;,
 -1.253000;3.340000;0.470000;,
 1.253000;3.340000;0.470000;,
 -1.253000;2.900000;0.470000;,
 1.253000;2.900000;0.470000;,
 -1.253000;1.900000;0.470000;,
 1.253000;1.900000;0.470000;,
 -1.253000;1.740000;0.470000;,
 1.253000;1.740000;0.470000;,
 -1.253000;1.690000;0.470000;,
 1.253000;1.690000;0.470000;,
 -1.223000;0.920000;0.470000;,
 1.223000;0.920000;0.470000;,
 -0.442000;3.650000;0.660000;,
 0.442000;3.650000;0.660000;,
 -0.953000;3.550000;0.660000;,
 0.953000;3.550000;0.660000;,
 -1.253000;3.450000;0.660000;,
 1.253000;3.450000;0.660000;,
 -1.465000;3.340000;0.660000;,
 1.465000;3.340000;0.660000;,
 -1.465000;2.900000;0.660000;,
 1.465000;2.900000;0.660000;,
 -1.465000;1.900000;0.660000;,
 1.465000;1.900000;0.660000;,
 -1.465000;1.740000;0.660000;,
 1.465000;1.740000;0.660000;,
 -1.460000;1.690000;0.660000;,
 1.460000;1.690000;0.660000;,
 -1.365000;0.920000;0.660000;,
 1.365000;0.920000;0.660000;,
 -0.442000;1.100000;0.150000;,
 0.442000;1.100000;0.150000;,
 -0.442000;0.300000;0.050000;,
 0.442000;0.300000;0.050000;,
 -0.442000;0.300000;0.050000;,
 0.442000;0.300000;0.050000;,
 -1.250000;1.100000;0.500000;,
 1.250000;1.100000;0.500000;,
 -1.100000;0.300000;0.400000;,
 1.100000;0.300000;0.400000;,
 -1.000000;0.300000;0.400000;,
 1.000000;0.300000;0.400000;,
 -1.250000;1.100000;0.850000;,
 1.250000;1.100000;0.850000;,
 -1.100000;0.300000;0.750000;,
 1.100000;0.300000;0.750000;,
 -0.953000;3.550000;0.660000;,
 0.953000;3.550000;0.660000;,
 -1.465000;3.340000;0.660000;,
 1.465000;3.340000;0.660000;,
 -1.465000;1.740000;0.680000;,
 1.465000;1.740000;0.660000;,
 -1.460000;1.690000;0.660000;,
 1.460000;1.690000;0.660000;,
 -1.365000;0.920000;0.660000;,
 1.365000;0.920000;0.660000;,
 -0.953000;3.550000;1.680000;,
 0.953000;3.550000;1.680000;,
 -1.465000;3.340000;1.680000;,
 1.465000;3.340000;1.680000;,
 -1.465000;1.740000;1.680000;,
 1.465000;1.740000;1.680000;,
 -1.460000;1.690000;1.680000;,
 1.460000;1.690000;1.680000;,
 -1.365000;0.920000;1.680000;,
 1.365000;0.920000;1.680000;,
 -0.953000;3.550000;20.000000;,
 0.953000;3.550000;20.000000;,
 -1.465000;3.340000;20.000000;,
 1.465000;3.340000;20.000000;,
 -1.465000;1.740000;20.000000;,
 1.465000;1.740000;20.000000;,
 -1.460000;1.690000;20.000000;,
 1.460000;1.690000;20.000000;,
 -1.365000;0.920000;20.000000;,
 1.365000;0.920000;20.000000;,
 0.000000;3.650000;1.680000;,
 0.000000;3.650000;20.000000;,
 -0.538000;0.990000;0.660000;,
 0.538000;0.990000;0.660000;,
 -0.538000;0.000000;0.660000;,
 0.538000;0.000000;0.660000;,
 -0.538000;0.990000;19.600000;,
 0.538000;0.990000;19.600000;,
 -0.538000;0.000000;19.600000;,
 0.538000;0.000000;19.600000;,
 1.000000;1.000000;0.500000;,
 1.000000;-0.200000;0.500000;,
 -1.000000;-0.200000;0.500000;,
 -1.000000;1.000000;0.500000;,
 1.000000;1.000000;19.499998;,
 1.000000;-0.200000;19.499998;,
 -1.000000;-0.200000;19.499998;,
 -1.000000;1.000000;19.499998;,
 -0.851000;3.821000;6.049999;,
 0.851000;3.821000;6.049999;,
 -0.851000;3.539999;6.049999;,
 0.851000;3.539999;6.049999;,
 -0.600000;3.921000;6.049999;,
 0.600000;3.921000;6.049999;,
 -0.851000;3.821000;8.749998;,
 0.851000;3.821000;8.749998;,
 -0.851000;3.539999;8.749998;,
 0.851000;3.539999;8.749998;,
 -0.600000;3.921000;8.749998;,
 0.600000;3.921000;8.749998;,
 0.000000;4.020999;6.049999;,
 0.000000;4.020999;8.749998;,
 -0.851000;3.821000;11.249998;,
 0.851000;3.821000;11.249998;,
 -0.851000;3.539999;11.249998;,
 0.851000;3.539999;11.249998;,
 -0.600000;3.921000;11.249998;,
 0.600000;3.921000;11.249998;,
 -0.851000;3.821000;13.949999;,
 0.851000;3.821000;13.949999;,
 -0.851000;3.539999;13.949999;,
 0.851000;3.539999;13.949999;,
 -0.600000;3.921000;13.949999;,
 0.600000;3.921000;13.949999;,
 0.000000;4.020999;11.249998;,
 0.000000;4.020999;13.949999;,
 0.000000;3.651000;19.750000;,
 -0.953000;3.550000;19.750000;,
 0.953000;3.550000;19.750000;,
 -1.465000;3.340000;19.750000;,
 1.465000;3.340000;19.750000;,
 -1.465000;1.740000;19.750000;,
 1.465000;1.740000;19.750000;,
 -1.460000;1.690000;19.750000;,
 1.460000;1.690000;19.750000;,
 -1.365000;0.920000;19.750000;,
 1.365000;0.920000;19.750000;,
 -1.465000;3.330000;19.750000;,
 -0.953000;3.551000;19.750000;,
 0.000000;3.651000;19.750000;,
 0.953000;3.551000;19.750000;,
 1.465000;3.330000;19.750000;,
 -1.465000;3.330000;0.660000;,
 -0.953000;3.551000;0.660000;,
 0.000000;3.651000;0.660000;,
 0.953000;3.551000;0.660000;,
 1.465000;3.330000;0.660000;,
 -0.850000;3.820000;5.850000;,
 0.850000;3.820000;5.850000;,
 -0.850000;3.500000;5.850000;,
 0.850000;3.500000;5.850000;,
 -0.600000;3.920000;5.850000;,
 0.600000;3.920000;5.850000;,
 -0.850000;3.820000;8.949999;,
 0.850000;3.820000;8.949999;,
 -0.850000;3.500000;8.949999;,
 0.850000;3.500000;8.949999;,
 -0.600000;3.920000;8.949999;,
 0.600000;3.920000;8.949999;,
 0.000000;4.020000;5.850000;,
 0.000000;4.020000;8.949999;,
 -0.850000;3.820000;11.049999;,
 0.850000;3.820000;11.049999;,
 -0.850000;3.500000;11.049999;,
 0.850000;3.500000;11.049999;,
 -0.600000;3.920000;11.049999;,
 0.600000;3.920000;11.049999;,
 -0.850000;3.820000;14.150000;,
 0.850000;3.820000;14.150000;,
 -0.850000;3.500000;14.150000;,
 0.850000;3.500000;14.150000;,
 -0.600000;3.920000;14.150000;,
 0.600000;3.920000;14.150000;,
 0.000000;4.020000;11.049999;,
 0.000000;4.020000;14.150000;,
 -0.250000;3.620000;14.200000;,
 0.250000;3.620000;14.200000;,
 -0.250000;3.500000;14.200000;,
 0.250000;3.500000;14.200000;,
 -0.250000;3.770000;14.349999;,
 0.250000;3.770000;14.349999;,
 -0.250000;3.770000;14.849999;,
 0.250000;3.770000;14.849999;,
 -0.250000;3.620000;14.999999;,
 0.250000;3.620000;14.999999;,
 -0.250000;3.500000;14.999999;,
 0.250000;3.500000;14.999999;,
 -0.250000;3.620000;5.000000;,
 0.250000;3.620000;5.000000;,
 -0.250000;3.500000;5.000000;,
 0.250000;3.500000;5.000000;,
 -0.250000;3.770000;5.150000;,
 0.250000;3.770000;5.150000;,
 -0.250000;3.770000;5.650000;,
 0.250000;3.770000;5.650000;,
 -0.250000;3.620000;5.800000;,
 0.250000;3.620000;5.800000;,
 -0.250000;3.500000;5.800000;,
 0.250000;3.500000;5.800000;,
 0.650000;3.800000;1.600000;,
 0.650000;2.800000;1.600000;,
 0.646194;3.800000;1.619134;,
 0.646194;2.800000;1.619134;,
 0.635355;3.800000;1.635355;,
 0.635355;2.800000;1.635355;,
 0.619134;3.800000;1.646194;,
 0.619134;2.800000;1.646194;,
 0.600000;3.800000;1.650000;,
 0.600000;2.800000;1.650000;,
 0.580866;3.800000;1.646194;,
 0.580866;2.800000;1.646194;,
 0.564645;3.800000;1.635355;,
 0.564645;2.800000;1.635355;,
 0.553806;3.800000;1.619134;,
 0.553806;2.800000;1.619134;,
 0.550000;3.800000;1.600000;,
 0.550000;2.800000;1.600000;,
 0.553806;3.800000;1.580866;,
 0.553806;2.800000;1.580866;,
 0.564645;3.800000;1.564645;,
 0.564645;2.800000;1.564645;,
 0.580866;3.800000;1.553806;,
 0.580866;2.800000;1.553806;,
 0.600000;3.800000;1.550000;,
 0.600000;2.800000;1.550000;,
 0.619134;3.800000;1.553806;,
 0.619134;2.800000;1.553806;,
 0.635355;3.800000;1.564645;,
 0.635355;2.800000;1.564645;,
 0.646194;3.800000;1.580866;,
 0.646194;2.800000;1.580866;;
 610;
 3;0,1,3;,
 3;0,3,2;,
 3;2,3,1;,
 3;2,1,0;,
 3;2,3,5;,
 3;2,5,4;,
 3;4,5,3;,
 3;4,3,2;,
 3;4,5,7;,
 3;4,7,6;,
 3;6,7,5;,
 3;6,5,4;,
 3;0,8,9;,
 3;0,9,1;,
 3;1,9,8;,
 3;1,8,0;,
 3;0,10,8;,
 3;8,10,0;,
 3;1,9,11;,
 3;11,9,1;,
 3;0,2,12;,
 3;0,12,10;,
 3;10,12,2;,
 3;10,2,0;,
 3;2,4,14;,
 3;2,14,12;,
 3;12,14,4;,
 3;12,4,2;,
 3;4,6,16;,
 3;4,16,14;,
 3;14,16,6;,
 3;14,6,4;,
 3;4,16,14;,
 3;14,16,4;,
 3;4,18,16;,
 3;16,18,4;,
 3;6,8,18;,
 3;18,8,6;,
 3;6,20,18;,
 3;18,20,6;,
 3;1,3,13;,
 3;1,13,11;,
 3;11,13,3;,
 3;11,3,1;,
 3;3,5,15;,
 3;3,15,13;,
 3;13,15,5;,
 3;13,5,3;,
 3;5,7,17;,
 3;5,17,15;,
 3;15,17,7;,
 3;15,7,5;,
 3;5,17,15;,
 3;15,17,5;,
 3;5,19,17;,
 3;17,19,5;,
 3;7,9,19;,
 3;19,9,7;,
 3;7,21,19;,
 3;19,21,7;,
 3;8,22,23;,
 3;8,23,9;,
 3;9,23,22;,
 3;9,22,8;,
 3;8,24,22;,
 3;22,24,8;,
 3;8,10,24;,
 3;24,10,8;,
 3;10,26,24;,
 3;24,26,10;,
 3;10,12,28;,
 3;10,28,26;,
 3;26,28,12;,
 3;26,12,10;,
 3;12,14,30;,
 3;12,30,28;,
 3;28,30,14;,
 3;28,14,12;,
 3;14,16,32;,
 3;14,32,30;,
 3;30,32,16;,
 3;30,16,14;,
 3;16,18,34;,
 3;16,34,32;,
 3;32,34,18;,
 3;32,18,16;,
 3;18,20,36;,
 3;18,36,34;,
 3;34,36,20;,
 3;34,20,18;,
 3;9,25,23;,
 3;23,25,9;,
 3;9,11,25;,
 3;25,11,9;,
 3;11,27,25;,
 3;25,27,11;,
 3;11,13,29;,
 3;11,29,27;,
 3;27,29,13;,
 3;27,13,11;,
 3;13,15,31;,
 3;13,31,29;,
 3;29,31,15;,
 3;29,15,13;,
 3;15,17,33;,
 3;15,33,31;,
 3;31,33,17;,
 3;31,17,15;,
 3;17,19,35;,
 3;17,35,33;,
 3;33,35,19;,
 3;33,19,17;,
 3;19,21,37;,
 3;19,37,35;,
 3;35,37,21;,
 3;35,21,19;,
 3;22,38,39;,
 3;22,39,23;,
 3;23,39,38;,
 3;23,38,22;,
 3;22,24,40;,
 3;22,40,38;,
 3;38,40,24;,
 3;38,24,22;,
 3;24,42,40;,
 3;40,42,24;,
 3;24,26,42;,
 3;42,26,24;,
 3;26,44,42;,
 3;42,44,26;,
 3;26,28,46;,
 3;26,46,44;,
 3;44,46,28;,
 3;44,28,26;,
 3;28,30,48;,
 3;28,48,46;,
 3;46,48,30;,
 3;46,30,28;,
 3;30,32,50;,
 3;30,50,48;,
 3;48,50,32;,
 3;48,32,30;,
 3;32,34,52;,
 3;32,52,50;,
 3;50,52,34;,
 3;50,34,32;,
 3;34,36,54;,
 3;34,54,52;,
 3;52,54,36;,
 3;52,36,34;,
 3;23,25,41;,
 3;23,41,39;,
 3;39,41,25;,
 3;39,25,23;,
 3;25,43,41;,
 3;41,43,25;,
 3;25,27,43;,
 3;43,27,25;,
 3;27,45,43;,
 3;43,45,27;,
 3;27,29,47;,
 3;27,47,45;,
 3;45,47,29;,
 3;45,29,27;,
 3;29,31,49;,
 3;29,49,47;,
 3;47,49,31;,
 3;47,31,29;,
 3;31,33,51;,
 3;31,51,49;,
 3;49,51,33;,
 3;49,33,31;,
 3;33,35,53;,
 3;33,53,51;,
 3;51,53,35;,
 3;51,35,33;,
 3;35,37,55;,
 3;35,55,53;,
 3;53,55,37;,
 3;53,37,35;,
 3;56,57,59;,
 3;56,59,58;,
 3;58,59,57;,
 3;58,57,56;,
 3;58,59,61;,
 3;58,61,60;,
 3;60,61,59;,
 3;60,59,58;,
 3;56,58,64;,
 3;56,64,62;,
 3;62,64,58;,
 3;62,58,56;,
 3;58,60,66;,
 3;58,66,64;,
 3;64,66,60;,
 3;64,60,58;,
 3;57,59,65;,
 3;57,65,63;,
 3;63,65,59;,
 3;63,59,57;,
 3;59,61,67;,
 3;59,67,65;,
 3;65,67,61;,
 3;65,61,59;,
 3;62,64,70;,
 3;62,70,68;,
 3;68,70,64;,
 3;68,64,62;,
 3;63,65,71;,
 3;63,71,69;,
 3;69,71,65;,
 3;69,65,63;,
 3;72,82,84;,
 3;72,84,74;,
 3;74,84,82;,
 3;74,82,72;,
 3;73,75,85;,
 3;73,85,83;,
 3;83,85,75;,
 3;83,75,73;,
 3;74,84,86;,
 3;74,86,76;,
 3;76,86,84;,
 3;76,84,74;,
 3;75,77,87;,
 3;75,87,85;,
 3;85,87,77;,
 3;85,77,75;,
 3;76,86,88;,
 3;76,88,78;,
 3;78,88,86;,
 3;78,86,76;,
 3;77,79,89;,
 3;77,89,87;,
 3;87,89,79;,
 3;87,79,77;,
 3;78,88,90;,
 3;78,90,80;,
 3;80,90,88;,
 3;80,88,78;,
 3;79,81,91;,
 3;79,91,89;,
 3;89,91,81;,
 3;89,81,79;,
 3;82,92,94;,
 3;82,94,84;,
 3;84,94,92;,
 3;84,92,82;,
 3;83,85,95;,
 3;83,95,93;,
 3;93,95,85;,
 3;93,85,83;,
 3;84,94,96;,
 3;84,96,86;,
 3;86,96,94;,
 3;86,94,84;,
 3;85,87,97;,
 3;85,97,95;,
 3;95,97,87;,
 3;95,87,85;,
 3;86,96,98;,
 3;86,98,88;,
 3;88,98,96;,
 3;88,96,86;,
 3;87,89,99;,
 3;87,99,97;,
 3;97,99,89;,
 3;97,89,87;,
 3;88,98,100;,
 3;88,100,90;,
 3;90,100,98;,
 3;90,98,88;,
 3;89,91,101;,
 3;89,101,99;,
 3;99,101,91;,
 3;99,91,89;,
 3;82,92,103;,
 3;82,103,102;,
 3;102,103,92;,
 3;102,92,82;,
 3;102,103,93;,
 3;102,93,83;,
 3;83,93,103;,
 3;83,103,102;,
 3;90,100,101;,
 3;90,101,91;,
 3;91,101,100;,
 3;91,100,90;,
 3;104,106,110;,
 3;104,110,108;,
 3;108,110,106;,
 3;108,106,104;,
 3;105,107,111;,
 3;105,111,109;,
 3;109,111,107;,
 3;109,107,105;,
 3;112,113,114;,
 3;112,114,115;,
 3;115,114,118;,
 3;115,118,119;,
 3;119,118,117;,
 3;119,117,116;,
 3;116,117,113;,
 3;116,113,112;,
 3;112,115,119;,
 3;112,119,116;,
 3;113,117,118;,
 3;113,118,114;,
 3;120,122,128;,
 3;120,128,126;,
 3;126,128,122;,
 3;126,122,120;,
 3;121,127,129;,
 3;121,129,123;,
 3;123,129,127;,
 3;123,127,121;,
 3;120,126,130;,
 3;120,130,124;,
 3;124,130,126;,
 3;124,126,120;,
 3;124,130,133;,
 3;124,133,132;,
 3;132,133,130;,
 3;132,130,124;,
 3;132,133,131;,
 3;132,131,125;,
 3;125,131,133;,
 3;125,133,132;,
 3;125,131,127;,
 3;125,127,121;,
 3;121,127,131;,
 3;121,131,125;,
 3;134,136,142;,
 3;134,142,140;,
 3;140,142,136;,
 3;140,136,134;,
 3;135,141,143;,
 3;135,143,137;,
 3;137,143,141;,
 3;137,141,135;,
 3;134,140,144;,
 3;134,144,138;,
 3;138,144,140;,
 3;138,140,134;,
 3;138,144,147;,
 3;138,147,146;,
 3;146,147,144;,
 3;146,144,138;,
 3;146,147,145;,
 3;146,145,139;,
 3;139,145,147;,
 3;139,147,146;,
 3;139,145,141;,
 3;139,141,135;,
 3;135,141,145;,
 3;135,145,139;,
 3;148,150,152;,
 3;148,152,154;,
 3;148,154,156;,
 3;148,156,158;,
 3;148,158,157;,
 3;148,157,155;,
 3;148,155,153;,
 3;148,153,151;,
 3;148,151,149;,
 3;149,151,153;,
 3;149,153,155;,
 3;149,155,157;,
 3;149,157,158;,
 3;149,158,156;,
 3;149,156,154;,
 3;149,154,152;,
 3;149,152,150;,
 3;149,150,148;,
 3;159,164,165;,
 3;159,165,160;,
 3;160,165,164;,
 3;160,164,159;,
 3;160,165,166;,
 3;160,166,161;,
 3;161,166,165;,
 3;161,165,160;,
 3;161,166,167;,
 3;161,167,162;,
 3;162,167,166;,
 3;162,166,161;,
 3;162,167,168;,
 3;162,168,163;,
 3;163,168,167;,
 3;163,167,162;,
 3;171,169,173;,
 3;171,173,181;,
 3;171,181,174;,
 3;171,174,170;,
 3;171,170,172;,
 3;172,170,174;,
 3;172,174,181;,
 3;172,181,173;,
 3;172,173,169;,
 3;172,169,171;,
 3;177,178,176;,
 3;177,176,180;,
 3;177,180,182;,
 3;177,182,179;,
 3;177,179,175;,
 3;175,179,182;,
 3;175,182,180;,
 3;175,180,176;,
 3;175,176,178;,
 3;175,178,177;,
 3;169,171,177;,
 3;169,177,175;,
 3;175,177,171;,
 3;175,171,169;,
 3;170,176,178;,
 3;170,178,172;,
 3;172,178,176;,
 3;172,176,170;,
 3;169,175,179;,
 3;169,179,173;,
 3;173,179,175;,
 3;173,175,169;,
 3;173,179,182;,
 3;173,182,181;,
 3;181,182,179;,
 3;181,179,173;,
 3;181,182,180;,
 3;181,180,174;,
 3;174,180,182;,
 3;174,182,181;,
 3;174,180,176;,
 3;174,176,170;,
 3;170,176,180;,
 3;170,180,174;,
 3;185,183,187;,
 3;185,187,195;,
 3;185,195,188;,
 3;185,188,184;,
 3;185,184,186;,
 3;186,184,188;,
 3;186,188,195;,
 3;186,195,187;,
 3;186,187,183;,
 3;186,183,185;,
 3;191,192,190;,
 3;191,190,194;,
 3;191,194,196;,
 3;191,196,193;,
 3;191,193,189;,
 3;189,193,196;,
 3;189,196,194;,
 3;189,194,190;,
 3;189,190,192;,
 3;189,192,191;,
 3;183,185,191;,
 3;183,191,189;,
 3;189,191,185;,
 3;189,185,183;,
 3;184,190,192;,
 3;184,192,186;,
 3;186,192,190;,
 3;186,190,184;,
 3;183,189,193;,
 3;183,193,187;,
 3;187,193,189;,
 3;187,189,183;,
 3;187,193,196;,
 3;187,196,195;,
 3;195,196,193;,
 3;195,193,187;,
 3;195,196,194;,
 3;195,194,188;,
 3;188,194,196;,
 3;188,196,195;,
 3;188,194,190;,
 3;188,190,184;,
 3;184,190,194;,
 3;184,194,188;,
 3;197,198,200;,
 3;197,200,199;,
 3;199,200,198;,
 3;199,198,197;,
 3;205,207,208;,
 3;205,208,206;,
 3;206,208,207;,
 3;206,207,205;,
 3;197,199,207;,
 3;197,207,205;,
 3;197,205,203;,
 3;197,203,201;,
 3;201,203,205;,
 3;201,205,207;,
 3;201,207,199;,
 3;201,199,197;,
 3;198,202,204;,
 3;198,204,206;,
 3;198,206,208;,
 3;198,208,200;,
 3;200,208,206;,
 3;200,206,204;,
 3;200,204,202;,
 3;200,202,198;,
 3;197,201,202;,
 3;197,202,198;,
 3;198,202,201;,
 3;198,201,197;,
 3;201,203,204;,
 3;201,204,202;,
 3;202,204,203;,
 3;202,203,201;,
 3;203,205,206;,
 3;203,206,204;,
 3;204,206,205;,
 3;204,205,203;,
 3;209,210,212;,
 3;209,212,211;,
 3;211,212,210;,
 3;211,210,209;,
 3;217,219,220;,
 3;217,220,218;,
 3;218,220,219;,
 3;218,219,217;,
 3;209,211,219;,
 3;209,219,217;,
 3;209,217,215;,
 3;209,215,213;,
 3;213,215,217;,
 3;213,217,219;,
 3;213,219,211;,
 3;213,211,209;,
 3;210,214,216;,
 3;210,216,218;,
 3;210,218,220;,
 3;210,220,212;,
 3;212,220,218;,
 3;212,218,216;,
 3;212,216,214;,
 3;212,214,210;,
 3;209,213,214;,
 3;209,214,210;,
 3;210,214,213;,
 3;210,213,209;,
 3;213,215,216;,
 3;213,216,214;,
 3;214,216,215;,
 3;214,215,213;,
 3;215,217,218;,
 3;215,218,216;,
 3;216,218,217;,
 3;216,217,215;,
 3;222,221,223;,
 3;222,223,224;,
 3;224,223,225;,
 3;224,225,226;,
 3;226,225,227;,
 3;226,227,228;,
 3;228,227,229;,
 3;228,229,230;,
 3;230,229,231;,
 3;230,231,232;,
 3;232,231,233;,
 3;232,233,234;,
 3;234,233,235;,
 3;234,235,236;,
 3;236,235,237;,
 3;236,237,238;,
 3;238,237,239;,
 3;238,239,240;,
 3;240,239,241;,
 3;240,241,242;,
 3;242,241,243;,
 3;242,243,244;,
 3;244,243,245;,
 3;244,245,246;,
 3;246,245,247;,
 3;246,247,248;,
 3;248,247,249;,
 3;248,249,250;,
 3;250,249,251;,
 3;250,251,252;,
 3;252,251,221;,
 3;252,221,222;,
 3;251,249,247;,
 3;251,247,245;,
 3;251,245,243;,
 3;251,243,241;,
 3;251,241,239;,
 3;251,239,237;,
 3;251,237,235;,
 3;251,235,233;,
 3;251,233,231;,
 3;251,231,229;,
 3;251,229,227;,
 3;251,227,225;,
 3;251,225,223;,
 3;251,223,221;,
 3;222,224,226;,
 3;222,226,228;,
 3;222,228,230;,
 3;222,230,232;,
 3;222,232,234;,
 3;222,234,236;,
 3;222,236,238;,
 3;222,238,240;,
 3;222,240,242;,
 3;222,242,244;,
 3;222,244,246;,
 3;222,246,248;,
 3;222,248,250;,
 3;222,250,252;;

 MeshMaterialList  {
  13;
  610;
  0,
  0,
  0,
  0,
  0,
  0,
  0,
  0,
  0,
  0,
  0,
  0,
  0,
  0,
  0,
  0,
  0,
  0,
  0,
  0,
  0,
  0,
  0,
  0,
  0,
  0,
  0,
  0,
  0,
  0,
  0,
  0,
  0,
  0,
  0,
  0,
  0,
  0,
  0,
  0,
  0,
  0,
  0,
  0,
  0,
  0,
  0,
  0,
  0,
  0,
  0,
  0,
  0,
  0,
  0,
  0,
  0,
  0,
  0,
  0,
  0,
  0,
  0,
  0,
  0,
  0,
  0,
  0,
  0,
  0,
  0,
  0,
  0,
  0,
  0,
  0,
  0,
  0,
  0,
  0,
  0,
  0,
  0,
  0,
  0,
  0,
  0,
  0,
  0,
  0,
  0,
  0,
  0,
  0,
  0,
  0,
  0,
  0,
  0,
  0,
  0,
  0,
  0,
  0,
  0,
  0,
  0,
  0,
  0,
  0,
  0,
  0,
  0,
  0,
  0,
  0,
  0,
  0,
  0,
  0,
  0,
  0,
  0,
  0,
  0,
  0,
  0,
  0,
  0,
  0,
  0,
  0,
  0,
  0,
  0,
  0,
  0,
  0,
  0,
  0,
  0,
  0,
  0,
  0,
  0,
  0,
  0,
  0,
  0,
  0,
  0,
  0,
  0,
  0,
  0,
  0,
  0,
  0,
  0,
  0,
  0,
  0,
  0,
  0,
  0,
  0,
  0,
  0,
  0,
  0,
  0,
  0,
  0,
  0,
  0,
  0,
  0,
  0,
  0,
  0,
  0,
  0,
  0,
  0,
  0,
  0,
  0,
  0,
  0,
  0,
  0,
  0,
  0,
  0,
  0,
  0,
  0,
  0,
  0,
  0,
  0,
  0,
  0,
  0,
  0,
  0,
  0,
  0,
  0,
  0,
  0,
  0,
  1,
  1,
  1,
  1,
  1,
  1,
  1,
  1,
  1,
  1,
  1,
  1,
  1,
  1,
  1,
  1,
  1,
  1,
  1,
  1,
  1,
  1,
  1,
  1,
  1,
  1,
  1,
  1,
  1,
  1,
  1,
  1,
  1,
  1,
  1,
  1,
  1,
  1,
  1,
  1,
  1,
  1,
  1,
  1,
  1,
  1,
  1,
  1,
  1,
  1,
  1,
  1,
  1,
  1,
  1,
  1,
  1,
  1,
  1,
  1,
  1,
  1,
  1,
  1,
  1,
  1,
  1,
  1,
  1,
  1,
  1,
  1,
  1,
  1,
  1,
  1,
  2,
  2,
  2,
  2,
  2,
  2,
  2,
  2,
  3,
  3,
  3,
  3,
  3,
  3,
  3,
  3,
  3,
  3,
  3,
  3,
  4,
  4,
  4,
  4,
  4,
  4,
  4,
  4,
  4,
  4,
  4,
  4,
  4,
  4,
  4,
  4,
  4,
  4,
  4,
  4,
  4,
  4,
  4,
  4,
  5,
  5,
  5,
  5,
  5,
  5,
  5,
  5,
  5,
  5,
  5,
  5,
  5,
  5,
  5,
  5,
  5,
  5,
  5,
  5,
  5,
  5,
  5,
  5,
  6,
  6,
  6,
  6,
  6,
  6,
  6,
  6,
  6,
  6,
  6,
  6,
  6,
  6,
  6,
  6,
  6,
  6,
  7,
  7,
  7,
  7,
  7,
  7,
  7,
  7,
  7,
  7,
  7,
  7,
  7,
  7,
  7,
  7,
  8,
  8,
  8,
  8,
  8,
  8,
  8,
  8,
  8,
  8,
  8,
  8,
  8,
  8,
  8,
  8,
  8,
  8,
  8,
  8,
  8,
  8,
  8,
  8,
  8,
  8,
  8,
  8,
  8,
  8,
  8,
  8,
  8,
  8,
  8,
  8,
  8,
  8,
  8,
  8,
  8,
  8,
  8,
  8,
  9,
  9,
  9,
  9,
  9,
  9,
  9,
  9,
  9,
  9,
  9,
  9,
  9,
  9,
  9,
  9,
  9,
  9,
  9,
  9,
  9,
  9,
  9,
  9,
  9,
  9,
  9,
  9,
  9,
  9,
  9,
  9,
  9,
  9,
  9,
  9,
  9,
  9,
  9,
  9,
  9,
  9,
  9,
  9,
  10,
  10,
  10,
  10,
  10,
  10,
  10,
  10,
  10,
  10,
  10,
  10,
  10,
  10,
  10,
  10,
  10,
  10,
  10,
  10,
  10,
  10,
  10,
  10,
  10,
  10,
  10,
  10,
  10,
  10,
  10,
  10,
  10,
  10,
  10,
  10,
  11,
  11,
  11,
  11,
  11,
  11,
  11,
  11,
  11,
  11,
  11,
  11,
  11,
  11,
  11,
  11,
  11,
  11,
  11,
  11,
  11,
  11,
  11,
  11,
  11,
  11,
  11,
  11,
  11,
  11,
  11,
  11,
  11,
  11,
  11,
  11,
  12,
  12,
  12,
  12,
  12,
  12,
  12,
  12,
  12,
  12,
  12,
  12,
  12,
  12,
  12,
  12,
  12,
  12,
  12,
  12,
  12,
  12,
  12,
  12,
  12,
  12,
  12,
  12,
  12,
  12,
  12,
  12,
  12,
  12,
  12,
  12,
  12,
  12,
  12,
  12,
  12,
  12,
  12,
  12,
  12,
  12,
  12,
  12,
  12,
  12,
  12,
  12,
  12,
  12,
  12,
  12,
  12,
  12,
  12,
  12;

  Material  {
   1.000000;1.000000;1.000000;1.000000;;
   0.000000;
   0.000000;0.000000;0.000000;;
   0.000000;0.000000;0.000000;;

   TextureFilename  {
    "B153.dds";
   }
  }

  Material  {
   1.000000;1.000000;1.000000;1.000000;;
   0.000000;
   0.000000;0.000000;0.000000;;
   0.000000;0.000000;0.000000;;

   TextureFilename  {
    "Tc312_side1.dds";
   }
  }

  Material  {
   1.000000;1.000000;1.000000;1.000000;;
   0.000000;
   0.000000;0.000000;0.000000;;
   0.000000;0.000000;0.000000;;

   TextureFilename  {
    "P100_side2.dds";
   }
  }

  Material  {
   0.000000;0.000000;0.000000;0.250980;;
   0.000000;
   0.000000;0.000000;0.000000;;
   0.000000;0.000000;0.000000;;
  }

  Material  {
   1.000000;1.000000;1.000000;1.000000;;
   0.000000;
   0.000000;0.000000;0.000000;;
   0.000000;0.000000;0.000000;;

   TextureFilename  {
    "kool0.dds";
   }
  }

  Material  {
   1.000000;1.000000;1.000000;1.000000;;
   0.000000;
   0.000000;0.000000;0.000000;;
   0.000000;0.000000;0.000000;;

   TextureFilename  {
    "kool0.dds";
   }
  }

  Material  {
   0.705882;0.705882;0.705882;1.000000;;
   0.000000;
   0.000000;0.000000;0.000000;;
   0.000000;0.000000;0.000000;;
  }

  Material  {
   0.509804;0.509804;0.509804;1.000000;;
   0.000000;
   0.000000;0.000000;0.000000;;
   0.000000;0.000000;0.000000;;
  }

  Material  {
   0.862745;0.862745;0.862745;1.000000;;
   0.000000;
   0.000000;0.000000;0.000000;;
   0.000000;0.000000;0.000000;;
  }

  Material  {
   0.862745;0.862745;0.862745;1.000000;;
   0.000000;
   0.000000;0.000000;0.000000;;
   0.000000;0.000000;0.000000;;
  }

  Material  {
   0.941176;0.980392;0.980392;1.000000;;
   0.000000;
   0.000000;0.000000;0.000000;;
   0.000000;0.000000;0.000000;;
  }

  Material  {
   0.941176;0.980392;0.980392;1.000000;;
   0.000000;
   0.000000;0.000000;0.000000;;
   0.000000;0.000000;0.000000;;
  }

  Material  {
   0.509804;0.509804;0.509804;1.000000;;
   0.000000;
   0.000000;0.000000;0.000000;;
   0.000000;0.000000;0.000000;;
  }
 }

 MeshTextureCoords  {
  253;
  0.344000;0.125000;,
  0.656000;0.125000;,
  0.344000;0.250000;,
  0.656000;0.250000;,
  0.344000;0.500000;,
  0.656000;0.500000;,
  0.344000;0.750000;,
  0.656000;0.750000;,
  0.344000;0.110000;,
  0.656000;0.110000;,
  0.172000;0.125000;,
  0.828000;0.125000;,
  0.172000;0.250000;,
  0.828000;0.250000;,
  0.172000;0.500000;,
  0.828000;0.500000;,
  0.172000;0.540000;,
  0.828000;0.540000;,
  0.172000;0.554000;,
  0.828000;0.554000;,
  0.172000;0.750000;,
  0.828000;0.750000;,
  0.344000;0.100000;,
  0.656000;0.100000;,
  0.172000;0.110000;,
  0.828000;0.110000;,
  0.071000;0.125000;,
  0.929000;0.125000;,
  0.071000;0.250000;,
  0.929000;0.250000;,
  0.071000;0.500000;,
  0.929000;0.500000;,
  0.071000;0.540000;,
  0.929000;0.540000;,
  0.071000;0.554000;,
  0.929000;0.554000;,
  0.071000;0.750000;,
  0.929000;0.750000;,
  0.344000;0.090000;,
  0.656000;0.090000;,
  0.172000;0.100000;,
  0.828000;0.100000;,
  0.071000;0.110000;,
  0.929000;0.110000;,
  0.000000;0.125000;,
  1.000000;0.125000;,
  0.000000;0.250000;,
  1.000000;0.250000;,
  0.000000;0.500000;,
  1.000000;0.500000;,
  0.000000;0.540000;,
  1.000000;0.540000;,
  0.000000;0.554000;,
  1.000000;0.554000;,
  0.000000;0.750000;,
  1.000000;0.750000;,
  0.310000;0.750000;,
  0.690000;0.750000;,
  0.310000;0.950000;,
  0.690000;0.950000;,
  0.310000;1.000000;,
  0.690000;1.000000;,
  0.100000;0.750000;,
  0.900000;0.750000;,
  0.100000;0.950000;,
  0.900000;0.950000;,
  0.100000;1.000000;,
  0.900000;1.000000;,
  0.000000;0.750000;,
  1.000000;0.750000;,
  0.000000;0.950000;,
  1.000000;0.950000;,
  1.000000;0.000000;,
  1.000000;0.000000;,
  1.000000;0.010000;,
  1.000000;0.010000;,
  1.000000;0.660000;,
  1.000000;0.660000;,
  1.000000;0.680000;,
  1.000000;0.680000;,
  1.000000;1.000000;,
  1.000000;1.000000;,
  0.939000;0.000000;,
  0.939000;0.000000;,
  0.939000;0.010000;,
  0.939000;0.010000;,
  0.939000;0.660000;,
  0.939000;0.660000;,
  0.939000;0.680000;,
  0.939000;0.680000;,
  0.939000;1.000000;,
  0.939000;1.000000;,
  0.000000;0.000000;,
  0.000000;0.000000;,
  0.000000;0.010000;,
  0.000000;0.010000;,
  0.000000;0.660000;,
  0.000000;0.660000;,
  0.000000;0.680000;,
  0.000000;0.680000;,
  0.000000;1.000000;,
  0.000000;1.000000;,
  0.000000;0.000000;,
  0.000000;0.000000;,
  1.000000;0.000000;,
  1.000000;0.000000;,
  1.000000;1.000000;,
  1.000000;1.000000;,
  0.000000;0.000000;,
  0.000000;0.000000;,
  0.000000;1.000000;,
  0.000000;1.000000;,
  0.000000;0.000000;,
  0.000000;0.000000;,
  0.000000;0.000000;,
  0.000000;0.000000;,
  0.000000;0.000000;,
  0.000000;0.000000;,
  0.000000;0.000000;,
  0.000000;0.000000;,
  0.000000;0.060000;,
  0.000000;0.940000;,
  0.000000;0.000000;,
  0.000000;1.000000;,
  0.000000;0.200000;,
  0.000000;0.800000;,
  1.000000;0.060000;,
  1.000000;0.940000;,
  1.000000;0.000000;,
  1.000000;1.000000;,
  1.000000;0.200000;,
  1.000000;0.800000;,
  0.000000;0.500000;,
  1.000000;0.500000;,
  1.000000;0.060000;,
  1.000000;0.940000;,
  1.000000;0.000000;,
  1.000000;1.000000;,
  1.000000;0.200000;,
  1.000000;0.800000;,
  0.000000;0.060000;,
  0.000000;0.940000;,
  0.000000;0.000000;,
  0.000000;1.000000;,
  0.000000;0.200000;,
  0.000000;0.800000;,
  1.000000;0.500000;,
  0.000000;0.500000;,
  0.000000;0.000000;,
  0.000000;0.000000;,
  0.000000;0.000000;,
  0.000000;0.000000;,
  0.000000;0.000000;,
  0.000000;0.000000;,
  0.000000;0.000000;,
  0.000000;0.000000;,
  0.000000;0.000000;,
  0.000000;0.000000;,
  0.000000;0.000000;,
  0.000000;0.000000;,
  0.000000;0.000000;,
  0.000000;0.000000;,
  0.000000;0.000000;,
  0.000000;0.000000;,
  0.000000;0.000000;,
  0.000000;0.000000;,
  0.000000;0.000000;,
  0.000000;0.000000;,
  0.000000;0.000000;,
  0.000000;0.000000;,
  0.000000;0.000000;,
  0.000000;0.000000;,
  0.000000;0.000000;,
  0.000000;0.000000;,
  0.000000;0.000000;,
  0.000000;0.000000;,
  0.000000;0.000000;,
  0.000000;0.000000;,
  0.000000;0.000000;,
  0.000000;0.000000;,
  0.000000;0.000000;,
  0.000000;0.000000;,
  0.000000;0.000000;,
  0.000000;0.000000;,
  0.000000;0.000000;,
  0.000000;0.000000;,
  0.000000;0.000000;,
  0.000000;0.000000;,
  0.000000;0.000000;,
  0.000000;0.000000;,
  0.000000;0.000000;,
  0.000000;0.000000;,
  0.000000;0.000000;,
  0.000000;0.000000;,
  0.000000;0.000000;,
  0.000000;0.000000;,
  0.000000;0.000000;,
  0.000000;0.000000;,
  0.000000;0.000000;,
  0.000000;0.000000;,
  0.000000;0.000000;,
  0.000000;0.000000;,
  0.000000;0.000000;,
  0.000000;0.000000;,
  0.000000;0.000000;,
  0.000000;0.000000;,
  0.000000;0.000000;,
  0.000000;0.000000;,
  0.000000;0.000000;,
  0.000000;0.000000;,
  0.000000;0.000000;,
  0.000000;0.000000;,
  0.000000;0.000000;,
  0.000000;0.000000;,
  0.000000;0.000000;,
  0.000000;0.000000;,
  0.000000;0.000000;,
  0.000000;0.000000;,
  0.000000;0.000000;,
  0.000000;0.000000;,
  0.000000;0.000000;,
  0.000000;0.000000;,
  0.000000;0.000000;,
  0.000000;0.000000;,
  0.000000;0.000000;,
  0.000000;0.000000;,
  0.000000;0.000000;,
  0.000000;0.000000;,
  0.000000;0.000000;,
  0.000000;0.000000;,
  0.000000;0.000000;,
  0.000000;0.000000;,
  0.000000;0.000000;,
  0.000000;0.000000;,
  0.000000;0.000000;,
  0.000000;0.000000;,
  0.000000;0.000000;,
  0.000000;0.000000;,
  0.000000;0.000000;,
  0.000000;0.000000;,
  0.000000;0.000000;,
  0.000000;0.000000;,
  0.000000;0.000000;,
  0.000000;0.000000;,
  0.000000;0.000000;,
  0.000000;0.000000;,
  0.000000;0.000000;,
  0.000000;0.000000;,
  0.000000;0.000000;,
  0.000000;0.000000;,
  0.000000;0.000000;,
  0.000000;0.000000;,
  0.000000;0.000000;;
 }

 MeshNormals  {
  582;
  0.000000;0.000000;-1.000000;,
  0.000000;0.000000;-1.000000;,
  0.000000;0.000000;1.000000;,
  0.000000;0.000000;1.000000;,
  0.000000;0.000000;-1.000000;,
  0.000000;0.000000;-1.000000;,
  0.000000;0.000000;1.000000;,
  0.000000;0.000000;1.000000;,
  0.000000;0.000000;-1.000000;,
  0.000000;0.000000;-1.000000;,
  0.000000;0.000000;1.000000;,
  0.000000;0.000000;1.000000;,
  0.000000;0.865426;-0.501037;,
  0.000000;0.865426;-0.501037;,
  0.000000;-0.865426;0.501037;,
  0.000000;-0.865426;0.501037;,
  -0.183144;0.850788;-0.492562;,
  0.183144;-0.850788;0.492562;,
  0.183144;0.850788;-0.492562;,
  -0.183144;-0.850788;0.492562;,
  -0.348509;0.000000;-0.937305;,
  -0.348509;0.000000;-0.937305;,
  0.348509;0.000000;0.937305;,
  0.348509;0.000000;0.937305;,
  -0.348509;0.000000;-0.937305;,
  -0.348509;0.000000;-0.937305;,
  0.348509;0.000000;0.937305;,
  0.348509;0.000000;0.937305;,
  -0.348509;0.000000;-0.937305;,
  -0.348509;0.000000;-0.937305;,
  0.348509;0.000000;0.937305;,
  0.348509;0.000000;0.937305;,
  -0.348509;0.000000;-0.937305;,
  0.348509;0.000000;0.937305;,
  -0.348509;0.000000;-0.937306;,
  0.348509;0.000000;0.937306;,
  0.249757;-0.072515;0.965590;,
  -0.249757;0.072515;-0.965590;,
  -0.348509;0.000000;-0.937306;,
  0.348509;0.000000;0.937306;,
  -0.348509;0.000000;0.937305;,
  -0.348509;0.000000;0.937305;,
  0.348509;0.000000;-0.937305;,
  0.348509;0.000000;-0.937305;,
  -0.348509;0.000000;0.937305;,
  -0.348509;0.000000;0.937305;,
  0.348509;0.000000;-0.937305;,
  0.348509;0.000000;-0.937305;,
  -0.348509;0.000000;0.937305;,
  -0.348509;0.000000;0.937305;,
  0.348509;0.000000;-0.937305;,
  0.348509;0.000000;-0.937305;,
  -0.348509;0.000000;0.937305;,
  0.348509;0.000000;-0.937305;,
  -0.348509;0.000000;0.937306;,
  0.348509;0.000000;-0.937306;,
  0.249757;0.072515;-0.965590;,
  -0.249757;-0.072515;0.965590;,
  -0.348509;0.000000;0.937306;,
  0.348509;0.000000;-0.937306;,
  0.000000;0.894427;-0.447213;,
  0.000000;0.894427;-0.447213;,
  0.000000;-0.894427;0.447213;,
  0.000000;-0.894427;0.447213;,
  -0.172413;0.881033;-0.440516;,
  0.172413;-0.881033;0.440516;,
  -0.185350;0.861033;-0.473569;,
  0.185350;-0.861033;0.473569;,
  -0.305880;0.834219;-0.458821;,
  0.305880;-0.834219;0.458821;,
  -0.554700;0.000000;-0.832050;,
  -0.554700;0.000000;-0.832050;,
  0.554700;0.000000;0.832050;,
  0.554700;0.000000;0.832050;,
  -0.554700;0.000000;-0.832050;,
  -0.554700;0.000000;-0.832050;,
  0.554700;0.000000;0.832050;,
  0.554700;0.000000;0.832050;,
  -0.554700;0.000000;-0.832050;,
  -0.554700;0.000000;-0.832050;,
  0.554700;0.000000;0.832050;,
  0.554700;0.000000;0.832050;,
  -0.554700;0.000000;-0.832050;,
  -0.554700;0.000000;-0.832050;,
  0.554700;0.000000;0.832050;,
  0.554700;0.000000;0.832050;,
  -0.595227;0.000000;-0.803557;,
  -0.554571;-0.021607;-0.831856;,
  0.595067;0.023184;0.803341;,
  0.554700;0.000000;0.832050;,
  -0.172413;-0.881033;0.440516;,
  0.172413;0.881033;-0.440516;,
  -0.185350;-0.861033;0.473569;,
  0.185350;0.861033;-0.473569;,
  -0.305880;-0.834219;0.458821;,
  0.305880;0.834219;-0.458821;,
  -0.554700;0.000000;0.832050;,
  -0.554700;0.000000;0.832050;,
  0.554700;0.000000;-0.832050;,
  0.554700;0.000000;-0.832050;,
  -0.554700;0.000000;0.832050;,
  -0.554700;0.000000;0.832050;,
  0.554700;0.000000;-0.832050;,
  0.554700;0.000000;-0.832050;,
  -0.554700;0.000000;0.832050;,
  -0.554700;0.000000;0.832050;,
  0.554700;0.000000;-0.832050;,
  0.554700;0.000000;-0.832050;,
  -0.554700;0.000000;0.832050;,
  -0.554700;0.000000;0.832050;,
  0.554700;0.000000;-0.832050;,
  0.554700;0.000000;-0.832050;,
  -0.595227;0.000000;0.803557;,
  -0.554571;0.021607;0.831856;,
  0.595067;-0.023184;-0.803341;,
  0.554700;0.000000;-0.832050;,
  0.000000;0.884918;-0.465747;,
  0.000000;0.884918;-0.465747;,
  0.000000;-0.884918;0.465747;,
  0.000000;-0.884918;0.465747;,
  -0.170634;0.871941;-0.458916;,
  -0.170634;0.871940;-0.458916;,
  0.170634;-0.871941;0.458916;,
  0.170634;-0.871940;0.458916;,
  -0.282921;0.848764;-0.446717;,
  0.282921;-0.848764;0.446717;,
  -0.302460;0.824891;-0.477569;,
  0.302460;-0.824891;0.477569;,
  -0.409638;0.789483;-0.457070;,
  0.409638;-0.789483;0.457070;,
  -0.667411;0.000000;-0.744690;,
  -0.667411;0.000000;-0.744690;,
  0.667411;0.000000;0.744690;,
  0.667411;0.000000;0.744690;,
  -0.667411;0.000000;-0.744690;,
  -0.667411;0.000000;-0.744690;,
  0.667411;0.000000;0.744690;,
  0.667411;0.000000;0.744690;,
  -0.667411;0.000000;-0.744690;,
  -0.667411;0.000000;-0.744690;,
  0.667411;0.000000;0.744690;,
  0.667411;0.000000;0.744690;,
  -0.676208;0.000000;-0.736711;,
  -0.665929;-0.066593;-0.743037;,
  0.674667;0.067467;0.735032;,
  0.667411;0.000000;0.744690;,
  -0.800621;-0.031193;-0.598359;,
  -0.673867;-0.083139;-0.734160;,
  0.797128;0.098347;0.595748;,
  0.675973;0.026337;0.736455;,
  -0.170634;-0.871941;0.458916;,
  -0.170634;-0.871940;0.458916;,
  0.170634;0.871941;-0.458916;,
  0.170634;0.871940;-0.458916;,
  -0.282921;-0.848764;0.446717;,
  0.282921;0.848764;-0.446717;,
  -0.302460;-0.824891;0.477569;,
  0.302460;0.824891;-0.477569;,
  -0.409638;-0.789483;0.457070;,
  0.409638;0.789483;-0.457070;,
  -0.667411;0.000000;0.744690;,
  -0.667411;0.000000;0.744690;,
  0.667411;0.000000;-0.744690;,
  0.667411;0.000000;-0.744690;,
  -0.667411;0.000000;0.744690;,
  -0.667411;0.000000;0.744690;,
  0.667411;0.000000;-0.744690;,
  0.667411;0.000000;-0.744690;,
  -0.667411;0.000000;0.744690;,
  -0.667411;0.000000;0.744690;,
  0.667411;0.000000;-0.744690;,
  0.667411;0.000000;-0.744690;,
  -0.676208;0.000000;0.736711;,
  -0.665929;0.066593;0.743037;,
  0.674667;-0.067467;-0.735032;,
  0.667411;0.000000;-0.744690;,
  -0.800621;0.031193;0.598359;,
  -0.673867;0.083139;0.734160;,
  0.797128;-0.098347;-0.595748;,
  0.675973;-0.026337;-0.736455;,
  0.000000;0.124035;-0.992278;,
  0.000000;0.124035;-0.992278;,
  0.000000;-0.124035;0.992278;,
  0.000000;-0.124035;0.992278;,
  0.000000;0.000000;0.000000;,
  0.000000;0.000000;0.000000;,
  0.000000;0.000000;0.000000;,
  0.000000;0.000000;0.000000;,
  -0.466779;0.109693;-0.877545;,
  -0.397160;0.040141;-0.916871;,
  0.469496;-0.022301;0.882653;,
  0.394891;-0.113954;0.911633;,
  0.000000;0.000000;0.000000;,
  0.000000;-1.000000;0.000000;,
  0.000000;1.000000;0.000000;,
  0.000000;0.000000;0.000000;,
  -0.466779;-0.109693;0.877545;,
  -0.397160;-0.040141;0.916871;,
  0.469496;0.022301;-0.882653;,
  0.394891;0.113954;-0.911633;,
  0.000000;0.000000;0.000000;,
  0.000000;1.000000;0.000000;,
  0.000000;-1.000000;0.000000;,
  0.000000;0.000000;0.000000;,
  -0.982872;-0.184289;0.000000;,
  -0.982872;-0.184288;0.000000;,
  0.982872;0.184289;0.000000;,
  0.982872;0.184288;0.000000;,
  -0.982872;0.184289;0.000000;,
  -0.982872;0.184288;0.000000;,
  0.982872;-0.184289;0.000000;,
  0.982872;-0.184288;0.000000;,
  0.379477;-0.925201;0.000000;,
  0.379477;-0.925201;0.000000;,
  -0.379477;0.925201;0.000000;,
  -0.379477;0.925201;0.000000;,
  -0.379477;-0.925201;0.000000;,
  -0.379477;-0.925201;0.000000;,
  0.379477;0.925201;0.000000;,
  0.379477;0.925201;0.000000;,
  1.000000;0.000000;0.000000;,
  1.000000;0.000000;0.000000;,
  -1.000000;0.000000;0.000000;,
  -1.000000;0.000000;0.000000;,
  -1.000000;0.000000;0.000000;,
  -1.000000;0.000000;0.000000;,
  1.000000;0.000000;0.000000;,
  1.000000;0.000000;0.000000;,
  0.995037;0.099504;0.000000;,
  0.995037;0.099504;0.000000;,
  -0.995037;-0.099504;0.000000;,
  -0.995037;-0.099504;0.000000;,
  -0.995037;0.099504;0.000000;,
  -0.995037;0.099504;0.000000;,
  0.995037;-0.099504;0.000000;,
  0.995037;-0.099504;0.000000;,
  0.992475;0.122448;0.000000;,
  0.992475;0.122448;0.000000;,
  -0.992475;-0.122448;0.000000;,
  -0.992475;-0.122448;0.000000;,
  -0.992475;0.122448;0.000000;,
  -0.992475;0.122448;0.000000;,
  0.992475;-0.122448;0.000000;,
  0.992475;-0.122448;0.000000;,
  0.379477;-0.925201;0.000000;,
  0.379477;-0.925201;0.000000;,
  -0.379477;0.925201;0.000000;,
  -0.379477;0.925201;0.000000;,
  -0.379477;-0.925201;0.000000;,
  -0.379477;-0.925201;0.000000;,
  0.379477;0.925201;0.000000;,
  0.379477;0.925201;0.000000;,
  1.000000;0.000000;0.000000;,
  1.000000;0.000000;0.000000;,
  -1.000000;0.000000;0.000000;,
  -1.000000;0.000000;0.000000;,
  -1.000000;0.000000;0.000000;,
  -1.000000;0.000000;0.000000;,
  1.000000;0.000000;0.000000;,
  1.000000;0.000000;0.000000;,
  0.995037;0.099504;0.000000;,
  0.995037;0.099504;0.000000;,
  -0.995037;-0.099504;0.000000;,
  -0.995037;-0.099504;0.000000;,
  -0.995037;0.099504;0.000000;,
  -0.995037;0.099504;0.000000;,
  0.995037;-0.099504;0.000000;,
  0.995037;-0.099504;0.000000;,
  0.992475;0.122448;0.000000;,
  0.992475;0.122448;0.000000;,
  -0.992475;-0.122448;0.000000;,
  -0.992475;-0.122448;0.000000;,
  -0.992475;0.122448;0.000000;,
  -0.992475;0.122448;0.000000;,
  0.992475;-0.122448;0.000000;,
  0.992475;-0.122448;0.000000;,
  -0.104359;0.994540;0.000000;,
  -0.104359;0.994540;0.000000;,
  0.104359;-0.994540;0.000000;,
  0.104359;-0.994540;0.000000;,
  0.104359;0.994540;0.000000;,
  0.104359;0.994540;0.000000;,
  -0.104359;-0.994540;0.000000;,
  -0.104359;-0.994540;0.000000;,
  0.000000;1.000000;0.000000;,
  0.000000;1.000000;0.000000;,
  0.000000;-1.000000;0.000000;,
  0.000000;-1.000000;0.000000;,
  -1.000000;0.000000;0.000000;,
  -1.000000;0.000000;0.000000;,
  1.000000;0.000000;0.000000;,
  1.000000;0.000000;0.000000;,
  -1.000000;0.000000;0.000000;,
  -1.000000;0.000000;0.000000;,
  1.000000;0.000000;0.000000;,
  1.000000;0.000000;0.000000;,
  0.000000;0.000000;-1.000000;,
  0.000000;0.000000;-1.000000;,
  -1.000000;0.000000;0.000000;,
  -1.000000;0.000000;0.000000;,
  0.000000;0.000000;1.000000;,
  0.000000;0.000000;1.000000;,
  1.000000;0.000000;0.000000;,
  1.000000;0.000000;0.000000;,
  0.000000;1.000000;0.000000;,
  0.000000;1.000000;0.000000;,
  0.000000;-1.000000;0.000000;,
  0.000000;-1.000000;0.000000;,
  -1.000000;0.000000;0.000000;,
  -1.000000;0.000000;0.000000;,
  1.000000;0.000000;0.000000;,
  1.000000;0.000000;0.000000;,
  1.000000;0.000000;0.000000;,
  1.000000;0.000000;0.000000;,
  -1.000000;0.000000;0.000000;,
  -1.000000;0.000000;0.000000;,
  -0.370114;0.928986;0.000000;,
  -0.370114;0.928986;0.000000;,
  0.370114;-0.928986;0.000000;,
  0.370114;-0.928986;0.000000;,
  -0.164399;0.986394;0.000000;,
  -0.164399;0.986394;0.000000;,
  0.164399;-0.986394;0.000000;,
  0.164399;-0.986394;0.000000;,
  0.164399;0.986394;0.000000;,
  0.164399;0.986394;0.000000;,
  -0.164399;-0.986394;0.000000;,
  -0.164399;-0.986394;0.000000;,
  0.370114;0.928986;0.000000;,
  0.370114;0.928986;0.000000;,
  -0.370114;-0.928986;0.000000;,
  -0.370114;-0.928986;0.000000;,
  -1.000000;0.000000;0.000000;,
  -1.000000;0.000000;0.000000;,
  1.000000;0.000000;0.000000;,
  1.000000;0.000000;0.000000;,
  1.000000;0.000000;0.000000;,
  1.000000;0.000000;0.000000;,
  -1.000000;0.000000;0.000000;,
  -1.000000;0.000000;0.000000;,
  -0.370114;0.928986;0.000000;,
  -0.370114;0.928986;0.000000;,
  0.370114;-0.928986;0.000000;,
  0.370114;-0.928986;0.000000;,
  -0.164399;0.986394;0.000000;,
  -0.164399;0.986394;0.000000;,
  0.164399;-0.986394;0.000000;,
  0.164399;-0.986394;0.000000;,
  0.164399;0.986394;0.000000;,
  0.164399;0.986394;0.000000;,
  -0.164399;-0.986394;0.000000;,
  -0.164399;-0.986394;0.000000;,
  0.370114;0.928986;0.000000;,
  0.370114;0.928986;0.000000;,
  -0.370114;-0.928986;0.000000;,
  -0.370114;-0.928986;0.000000;,
  0.000000;0.000000;-1.000000;,
  0.000000;0.000000;-1.000000;,
  0.000000;0.000000;-1.000000;,
  0.000000;0.000000;-1.000000;,
  0.000000;0.000000;-1.000000;,
  0.000000;0.000000;-1.000000;,
  0.000000;0.000000;-1.000000;,
  0.000000;0.000000;-1.000000;,
  0.000000;0.000000;-1.000000;,
  0.000000;0.000000;1.000000;,
  0.000000;0.000000;1.000000;,
  0.000000;0.000000;1.000000;,
  0.000000;0.000000;1.000000;,
  0.000000;0.000000;1.000000;,
  0.000000;0.000000;1.000000;,
  0.000000;0.000000;1.000000;,
  0.000000;0.000000;1.000000;,
  0.000000;0.000000;1.000000;,
  0.396299;-0.918122;0.000000;,
  0.396299;-0.918122;0.000000;,
  -0.396299;0.918122;0.000000;,
  -0.396299;0.918122;0.000000;,
  0.104359;-0.994540;0.000000;,
  0.104359;-0.994540;0.000000;,
  -0.104359;0.994540;0.000000;,
  -0.104359;0.994540;0.000000;,
  -0.104359;-0.994540;0.000000;,
  -0.104359;-0.994540;0.000000;,
  0.104359;0.994540;0.000000;,
  0.104359;0.994540;0.000000;,
  -0.396299;-0.918122;0.000000;,
  -0.396299;-0.918122;0.000000;,
  0.396299;0.918122;0.000000;,
  0.396299;0.918122;0.000000;,
  0.000000;0.000000;-1.000000;,
  0.000000;0.000000;-1.000000;,
  0.000000;0.000000;-1.000000;,
  0.000000;0.000000;-1.000000;,
  0.000000;0.000000;-1.000000;,
  0.000000;0.000000;1.000000;,
  0.000000;0.000000;1.000000;,
  0.000000;0.000000;1.000000;,
  0.000000;0.000000;1.000000;,
  0.000000;0.000000;1.000000;,
  0.000000;0.000000;1.000000;,
  0.000000;0.000000;1.000000;,
  0.000000;0.000000;1.000000;,
  0.000000;0.000000;1.000000;,
  0.000000;0.000000;1.000000;,
  0.000000;0.000000;-1.000000;,
  0.000000;0.000000;-1.000000;,
  0.000000;0.000000;-1.000000;,
  0.000000;0.000000;-1.000000;,
  0.000000;0.000000;-1.000000;,
  -1.000000;0.000000;0.000000;,
  -1.000000;0.000000;0.000000;,
  1.000000;0.000000;0.000000;,
  1.000000;0.000000;0.000000;,
  1.000000;0.000000;0.000000;,
  1.000000;0.000000;0.000000;,
  -1.000000;0.000000;0.000000;,
  -1.000000;0.000000;0.000000;,
  -0.371391;0.928476;0.000000;,
  -0.371391;0.928476;0.000000;,
  0.371391;-0.928476;0.000000;,
  0.371391;-0.928476;0.000000;,
  -0.164399;0.986394;0.000000;,
  -0.164399;0.986394;0.000000;,
  0.164399;-0.986394;0.000000;,
  0.164399;-0.986394;0.000000;,
  0.164399;0.986394;0.000000;,
  0.164399;0.986394;0.000000;,
  -0.164399;-0.986394;0.000000;,
  -0.164399;-0.986394;0.000000;,
  0.371391;0.928476;0.000000;,
  0.371391;0.928476;0.000000;,
  -0.371391;-0.928476;0.000000;,
  -0.371391;-0.928476;0.000000;,
  0.000000;0.000000;-1.000000;,
  0.000000;0.000000;-1.000000;,
  0.000000;0.000000;-1.000000;,
  0.000000;0.000000;-1.000000;,
  0.000000;0.000000;-1.000000;,
  0.000000;0.000000;1.000000;,
  0.000000;0.000000;1.000000;,
  0.000000;0.000000;1.000000;,
  0.000000;0.000000;1.000000;,
  0.000000;0.000000;1.000000;,
  0.000000;0.000000;1.000000;,
  0.000000;0.000000;1.000000;,
  0.000000;0.000000;1.000000;,
  0.000000;0.000000;1.000000;,
  0.000000;0.000000;1.000000;,
  0.000000;0.000000;-1.000000;,
  0.000000;0.000000;-1.000000;,
  0.000000;0.000000;-1.000000;,
  0.000000;0.000000;-1.000000;,
  0.000000;0.000000;-1.000000;,
  -1.000000;0.000000;0.000000;,
  -1.000000;0.000000;0.000000;,
  1.000000;0.000000;0.000000;,
  1.000000;0.000000;0.000000;,
  1.000000;0.000000;0.000000;,
  1.000000;0.000000;0.000000;,
  -1.000000;0.000000;0.000000;,
  -1.000000;0.000000;0.000000;,
  -0.371391;0.928476;0.000000;,
  -0.371391;0.928476;0.000000;,
  0.371391;-0.928476;0.000000;,
  0.371391;-0.928476;0.000000;,
  -0.164399;0.986394;0.000000;,
  -0.164399;0.986394;0.000000;,
  0.164399;-0.986394;0.000000;,
  0.164399;-0.986394;0.000000;,
  0.164399;0.986394;0.000000;,
  0.164399;0.986394;0.000000;,
  -0.164399;-0.986394;0.000000;,
  -0.164399;-0.986394;0.000000;,
  0.371391;0.928476;0.000000;,
  0.371391;0.928476;0.000000;,
  -0.371391;-0.928476;0.000000;,
  -0.371391;-0.928476;0.000000;,
  0.000000;0.000000;-1.000000;,
  0.000000;0.000000;-1.000000;,
  0.000000;0.000000;1.000000;,
  0.000000;0.000000;1.000000;,
  0.000000;0.000000;1.000000;,
  0.000000;0.000000;1.000000;,
  0.000000;0.000000;-1.000000;,
  0.000000;0.000000;-1.000000;,
  -1.000000;0.000000;0.000000;,
  -1.000000;0.000000;0.000000;,
  -1.000000;0.000000;0.000000;,
  -1.000000;0.000000;0.000000;,
  1.000000;0.000000;0.000000;,
  1.000000;0.000000;0.000000;,
  1.000000;0.000000;0.000000;,
  1.000000;0.000000;0.000000;,
  1.000000;0.000000;0.000000;,
  1.000000;0.000000;0.000000;,
  1.000000;0.000000;0.000000;,
  1.000000;0.000000;0.000000;,
  -1.000000;0.000000;0.000000;,
  -1.000000;0.000000;0.000000;,
  -1.000000;0.000000;0.000000;,
  -1.000000;0.000000;0.000000;,
  0.000000;0.707106;-0.707108;,
  0.000000;0.707106;-0.707108;,
  0.000000;-0.707106;0.707108;,
  0.000000;-0.707106;0.707108;,
  0.000000;1.000000;0.000000;,
  0.000000;1.000000;0.000000;,
  0.000000;-1.000000;0.000000;,
  0.000000;-1.000000;0.000000;,
  0.000000;0.707106;0.707108;,
  0.000000;0.707106;0.707108;,
  0.000000;-0.707106;-0.707108;,
  0.000000;-0.707106;-0.707108;,
  0.000000;0.000000;-1.000000;,
  0.000000;0.000000;-1.000000;,
  0.000000;0.000000;1.000000;,
  0.000000;0.000000;1.000000;,
  0.000000;0.000000;1.000000;,
  0.000000;0.000000;1.000000;,
  0.000000;0.000000;-1.000000;,
  0.000000;0.000000;-1.000000;,
  -1.000000;0.000000;0.000000;,
  -1.000000;0.000000;0.000000;,
  -1.000000;0.000000;0.000000;,
  -1.000000;0.000000;0.000000;,
  1.000000;0.000000;0.000000;,
  1.000000;0.000000;0.000000;,
  1.000000;0.000000;0.000000;,
  1.000000;0.000000;0.000000;,
  1.000000;0.000000;0.000000;,
  1.000000;0.000000;0.000000;,
  1.000000;0.000000;0.000000;,
  1.000000;0.000000;0.000000;,
  -1.000000;0.000000;0.000000;,
  -1.000000;0.000000;0.000000;,
  -1.000000;0.000000;0.000000;,
  -1.000000;0.000000;0.000000;,
  0.000000;0.707107;-0.707107;,
  0.000000;0.707107;-0.707107;,
  0.000000;-0.707107;0.707107;,
  0.000000;-0.707107;0.707107;,
  0.000000;1.000000;0.000000;,
  0.000000;1.000000;0.000000;,
  0.000000;-1.000000;0.000000;,
  0.000000;-1.000000;0.000000;,
  0.000000;0.707107;0.707107;,
  0.000000;0.707107;0.707107;,
  0.000000;-0.707107;-0.707107;,
  0.000000;-0.707107;-0.707107;,
  0.703702;0.707107;-0.069309;,
  0.000096;-1.000000;0.000000;,
  0.353553;0.923880;0.146447;,
  0.623613;-0.707107;0.333328;,
  0.270598;0.923880;0.270598;,
  0.242772;-0.923880;0.295818;,
  0.146447;0.923880;0.353553;,
  0.111087;-0.923880;0.366205;,
  0.000000;0.923880;0.382683;,
  -0.037510;-0.923880;0.380841;,
  -0.146447;0.923879;0.353553;,
  -0.180396;-0.923880;0.337497;,
  -0.270598;0.923879;0.270598;,
  -0.295818;-0.923880;0.242772;,
  -0.353553;0.923880;0.146447;,
  -0.366205;-0.923880;0.111087;,
  -0.382683;0.923879;0.000000;,
  -0.380841;-0.923880;-0.037510;,
  -0.353553;0.923879;-0.146447;,
  -0.337497;-0.923880;-0.180396;,
  -0.270598;0.923880;-0.270598;,
  -0.242772;-0.923880;-0.295818;,
  -0.146447;0.923879;-0.353553;,
  -0.111087;-0.923880;-0.366205;,
  0.000000;0.923879;-0.382683;,
  0.037510;-0.923880;-0.380841;,
  0.146447;0.923879;-0.353553;,
  0.180396;-0.923880;-0.337497;,
  0.500000;0.707107;-0.500000;,
  0.295818;-0.923880;-0.242772;,
  0.000089;1.000000;-0.000037;,
  0.676659;-0.707107;-0.205262;;
  610;
  3;0,0,0;,
  3;1,1,1;,
  3;2,2,2;,
  3;3,3,3;,
  3;4,4,4;,
  3;5,5,5;,
  3;6,6,6;,
  3;7,7,7;,
  3;8,8,8;,
  3;9,9,9;,
  3;10,10,10;,
  3;11,11,11;,
  3;12,12,12;,
  3;13,13,13;,
  3;14,14,14;,
  3;15,15,15;,
  3;16,16,16;,
  3;17,17,17;,
  3;18,18,18;,
  3;19,19,19;,
  3;20,20,20;,
  3;21,21,21;,
  3;22,22,22;,
  3;23,23,23;,
  3;24,24,24;,
  3;25,25,25;,
  3;26,26,26;,
  3;27,27,27;,
  3;28,28,28;,
  3;29,29,29;,
  3;30,30,30;,
  3;31,31,31;,
  3;32,32,32;,
  3;33,33,33;,
  3;34,34,34;,
  3;35,35,35;,
  3;36,36,36;,
  3;37,37,37;,
  3;38,38,38;,
  3;39,39,39;,
  3;40,40,40;,
  3;41,41,41;,
  3;42,42,42;,
  3;43,43,43;,
  3;44,44,44;,
  3;45,45,45;,
  3;46,46,46;,
  3;47,47,47;,
  3;48,48,48;,
  3;49,49,49;,
  3;50,50,50;,
  3;51,51,51;,
  3;52,52,52;,
  3;53,53,53;,
  3;54,54,54;,
  3;55,55,55;,
  3;56,56,56;,
  3;57,57,57;,
  3;58,58,58;,
  3;59,59,59;,
  3;60,60,60;,
  3;61,61,61;,
  3;62,62,62;,
  3;63,63,63;,
  3;64,64,64;,
  3;65,65,65;,
  3;66,66,66;,
  3;67,67,67;,
  3;68,68,68;,
  3;69,69,69;,
  3;70,70,70;,
  3;71,71,71;,
  3;72,72,72;,
  3;73,73,73;,
  3;74,74,74;,
  3;75,75,75;,
  3;76,76,76;,
  3;77,77,77;,
  3;78,78,78;,
  3;79,79,79;,
  3;80,80,80;,
  3;81,81,81;,
  3;82,82,82;,
  3;83,83,83;,
  3;84,84,84;,
  3;85,85,85;,
  3;86,86,86;,
  3;87,87,87;,
  3;88,88,88;,
  3;89,89,89;,
  3;90,90,90;,
  3;91,91,91;,
  3;92,92,92;,
  3;93,93,93;,
  3;94,94,94;,
  3;95,95,95;,
  3;96,96,96;,
  3;97,97,97;,
  3;98,98,98;,
  3;99,99,99;,
  3;100,100,100;,
  3;101,101,101;,
  3;102,102,102;,
  3;103,103,103;,
  3;104,104,104;,
  3;105,105,105;,
  3;106,106,106;,
  3;107,107,107;,
  3;108,108,108;,
  3;109,109,109;,
  3;110,110,110;,
  3;111,111,111;,
  3;112,112,112;,
  3;113,113,113;,
  3;114,114,114;,
  3;115,115,115;,
  3;116,116,116;,
  3;117,117,117;,
  3;118,118,118;,
  3;119,119,119;,
  3;120,120,120;,
  3;121,121,121;,
  3;122,122,122;,
  3;123,123,123;,
  3;124,124,124;,
  3;125,125,125;,
  3;126,126,126;,
  3;127,127,127;,
  3;128,128,128;,
  3;129,129,129;,
  3;130,130,130;,
  3;131,131,131;,
  3;132,132,132;,
  3;133,133,133;,
  3;134,134,134;,
  3;135,135,135;,
  3;136,136,136;,
  3;137,137,137;,
  3;138,138,138;,
  3;139,139,139;,
  3;140,140,140;,
  3;141,141,141;,
  3;142,142,142;,
  3;143,143,143;,
  3;144,144,144;,
  3;145,145,145;,
  3;146,146,146;,
  3;147,147,147;,
  3;148,148,148;,
  3;149,149,149;,
  3;150,150,150;,
  3;151,151,151;,
  3;152,152,152;,
  3;153,153,153;,
  3;154,154,154;,
  3;155,155,155;,
  3;156,156,156;,
  3;157,157,157;,
  3;158,158,158;,
  3;159,159,159;,
  3;160,160,160;,
  3;161,161,161;,
  3;162,162,162;,
  3;163,163,163;,
  3;164,164,164;,
  3;165,165,165;,
  3;166,166,166;,
  3;167,167,167;,
  3;168,168,168;,
  3;169,169,169;,
  3;170,170,170;,
  3;171,171,171;,
  3;172,172,172;,
  3;173,173,173;,
  3;174,174,174;,
  3;175,175,175;,
  3;176,176,176;,
  3;177,177,177;,
  3;178,178,178;,
  3;179,179,179;,
  3;180,180,180;,
  3;181,181,181;,
  3;182,182,182;,
  3;183,183,183;,
  3;184,184,184;,
  3;185,185,185;,
  3;186,186,186;,
  3;187,187,187;,
  3;188,188,188;,
  3;189,189,189;,
  3;190,190,190;,
  3;191,191,191;,
  3;192,192,192;,
  3;193,193,193;,
  3;194,194,194;,
  3;195,195,195;,
  3;196,196,196;,
  3;197,197,197;,
  3;198,198,198;,
  3;199,199,199;,
  3;200,200,200;,
  3;201,201,201;,
  3;202,202,202;,
  3;203,203,203;,
  3;204,204,204;,
  3;205,205,205;,
  3;206,206,206;,
  3;207,207,207;,
  3;208,208,208;,
  3;209,209,209;,
  3;210,210,210;,
  3;211,211,211;,
  3;212,212,212;,
  3;213,213,213;,
  3;214,214,214;,
  3;215,215,215;,
  3;216,216,216;,
  3;217,217,217;,
  3;218,218,218;,
  3;219,219,219;,
  3;220,220,220;,
  3;221,221,221;,
  3;222,222,222;,
  3;223,223,223;,
  3;224,224,224;,
  3;225,225,225;,
  3;226,226,226;,
  3;227,227,227;,
  3;228,228,228;,
  3;229,229,229;,
  3;230,230,230;,
  3;231,231,231;,
  3;232,232,232;,
  3;233,233,233;,
  3;234,234,234;,
  3;235,235,235;,
  3;236,236,236;,
  3;237,237,237;,
  3;238,238,238;,
  3;239,239,239;,
  3;240,240,240;,
  3;241,241,241;,
  3;242,242,242;,
  3;243,243,243;,
  3;244,244,244;,
  3;245,245,245;,
  3;246,246,246;,
  3;247,247,247;,
  3;248,248,248;,
  3;249,249,249;,
  3;250,250,250;,
  3;251,251,251;,
  3;252,252,252;,
  3;253,253,253;,
  3;254,254,254;,
  3;255,255,255;,
  3;256,256,256;,
  3;257,257,257;,
  3;258,258,258;,
  3;259,259,259;,
  3;260,260,260;,
  3;261,261,261;,
  3;262,262,262;,
  3;263,263,263;,
  3;264,264,264;,
  3;265,265,265;,
  3;266,266,266;,
  3;267,267,267;,
  3;268,268,268;,
  3;269,269,269;,
  3;270,270,270;,
  3;271,271,271;,
  3;272,272,272;,
  3;273,273,273;,
  3;274,274,274;,
  3;275,275,275;,
  3;276,276,276;,
  3;277,277,277;,
  3;278,278,278;,
  3;279,279,279;,
  3;280,280,280;,
  3;281,281,281;,
  3;282,282,282;,
  3;283,283,283;,
  3;284,284,284;,
  3;285,285,285;,
  3;286,286,286;,
  3;287,287,287;,
  3;288,288,288;,
  3;289,289,289;,
  3;290,290,290;,
  3;291,291,291;,
  3;292,292,292;,
  3;293,293,293;,
  3;294,294,294;,
  3;295,295,295;,
  3;296,296,296;,
  3;297,297,297;,
  3;298,298,298;,
  3;299,299,299;,
  3;300,300,300;,
  3;301,301,301;,
  3;302,302,302;,
  3;303,303,303;,
  3;304,304,304;,
  3;305,305,305;,
  3;306,306,306;,
  3;307,307,307;,
  3;308,308,308;,
  3;309,309,309;,
  3;310,310,310;,
  3;311,311,311;,
  3;312,312,312;,
  3;313,313,313;,
  3;314,314,314;,
  3;315,315,315;,
  3;316,316,316;,
  3;317,317,317;,
  3;318,318,318;,
  3;319,319,319;,
  3;320,320,320;,
  3;321,321,321;,
  3;322,322,322;,
  3;323,323,323;,
  3;324,324,324;,
  3;325,325,325;,
  3;326,326,326;,
  3;327,327,327;,
  3;328,328,328;,
  3;329,329,329;,
  3;330,330,330;,
  3;331,331,331;,
  3;332,332,332;,
  3;333,333,333;,
  3;334,334,334;,
  3;335,335,335;,
  3;336,336,336;,
  3;337,337,337;,
  3;338,338,338;,
  3;339,339,339;,
  3;340,340,340;,
  3;341,341,341;,
  3;342,342,342;,
  3;343,343,343;,
  3;344,344,344;,
  3;345,345,345;,
  3;346,346,346;,
  3;347,347,347;,
  3;348,348,348;,
  3;349,349,349;,
  3;350,350,350;,
  3;351,351,351;,
  3;352,352,352;,
  3;353,353,353;,
  3;354,354,354;,
  3;355,355,355;,
  3;356,356,356;,
  3;357,357,357;,
  3;358,358,358;,
  3;359,359,359;,
  3;360,360,360;,
  3;361,361,361;,
  3;362,362,362;,
  3;363,363,363;,
  3;364,364,364;,
  3;365,365,365;,
  3;366,366,366;,
  3;367,367,367;,
  3;368,368,368;,
  3;369,369,369;,
  3;370,370,370;,
  3;371,371,371;,
  3;372,372,372;,
  3;373,373,373;,
  3;374,374,374;,
  3;375,375,375;,
  3;376,376,376;,
  3;377,377,377;,
  3;378,378,378;,
  3;379,379,379;,
  3;380,380,380;,
  3;381,381,381;,
  3;382,382,382;,
  3;383,383,383;,
  3;384,384,384;,
  3;385,385,385;,
  3;386,386,386;,
  3;387,387,387;,
  3;388,388,388;,
  3;389,389,389;,
  3;390,390,390;,
  3;391,391,391;,
  3;392,392,392;,
  3;393,393,393;,
  3;394,394,394;,
  3;395,395,395;,
  3;396,396,396;,
  3;397,397,397;,
  3;398,398,398;,
  3;399,399,399;,
  3;400,400,400;,
  3;401,401,401;,
  3;402,402,402;,
  3;403,403,403;,
  3;404,404,404;,
  3;405,405,405;,
  3;406,406,406;,
  3;407,407,407;,
  3;408,408,408;,
  3;409,409,409;,
  3;410,410,410;,
  3;411,411,411;,
  3;412,412,412;,
  3;413,413,413;,
  3;414,414,414;,
  3;415,415,415;,
  3;416,416,416;,
  3;417,417,417;,
  3;418,418,418;,
  3;419,419,419;,
  3;420,420,420;,
  3;421,421,421;,
  3;422,422,422;,
  3;423,423,423;,
  3;424,424,424;,
  3;425,425,425;,
  3;426,426,426;,
  3;427,427,427;,
  3;428,428,428;,
  3;429,429,429;,
  3;430,430,430;,
  3;431,431,431;,
  3;432,432,432;,
  3;433,433,433;,
  3;434,434,434;,
  3;435,435,435;,
  3;436,436,436;,
  3;437,437,437;,
  3;438,438,438;,
  3;439,439,439;,
  3;440,440,440;,
  3;441,441,441;,
  3;442,442,442;,
  3;443,443,443;,
  3;444,444,444;,
  3;445,445,445;,
  3;446,446,446;,
  3;447,447,447;,
  3;448,448,448;,
  3;449,449,449;,
  3;450,450,450;,
  3;451,451,451;,
  3;452,452,452;,
  3;453,453,453;,
  3;454,454,454;,
  3;455,455,455;,
  3;456,456,456;,
  3;457,457,457;,
  3;458,458,458;,
  3;459,459,459;,
  3;460,460,460;,
  3;461,461,461;,
  3;462,462,462;,
  3;463,463,463;,
  3;464,464,464;,
  3;465,465,465;,
  3;466,466,466;,
  3;467,467,467;,
  3;468,468,468;,
  3;469,469,469;,
  3;470,470,470;,
  3;471,471,471;,
  3;472,472,472;,
  3;473,473,473;,
  3;474,474,474;,
  3;475,475,475;,
  3;476,476,476;,
  3;477,477,477;,
  3;478,478,478;,
  3;479,479,479;,
  3;480,480,480;,
  3;481,481,481;,
  3;482,482,482;,
  3;483,483,483;,
  3;484,484,484;,
  3;485,485,485;,
  3;486,486,486;,
  3;487,487,487;,
  3;488,488,488;,
  3;489,489,489;,
  3;490,490,490;,
  3;491,491,491;,
  3;492,492,492;,
  3;493,493,493;,
  3;494,494,494;,
  3;495,495,495;,
  3;496,496,496;,
  3;497,497,497;,
  3;498,498,498;,
  3;499,499,499;,
  3;500,500,500;,
  3;501,501,501;,
  3;502,502,502;,
  3;503,503,503;,
  3;504,504,504;,
  3;505,505,505;,
  3;506,506,506;,
  3;507,507,507;,
  3;508,508,508;,
  3;509,509,509;,
  3;510,510,510;,
  3;511,511,511;,
  3;512,512,512;,
  3;513,513,513;,
  3;514,514,514;,
  3;515,515,515;,
  3;516,516,516;,
  3;517,517,517;,
  3;518,518,518;,
  3;519,519,519;,
  3;520,520,520;,
  3;521,521,521;,
  3;522,522,522;,
  3;523,523,523;,
  3;524,524,524;,
  3;525,525,525;,
  3;526,526,526;,
  3;527,527,527;,
  3;528,528,528;,
  3;529,529,529;,
  3;530,530,530;,
  3;531,531,531;,
  3;532,532,532;,
  3;533,533,533;,
  3;534,534,534;,
  3;535,535,535;,
  3;536,536,536;,
  3;537,537,537;,
  3;538,538,538;,
  3;539,539,539;,
  3;540,540,540;,
  3;541,541,541;,
  3;542,542,542;,
  3;543,543,543;,
  3;544,544,544;,
  3;545,545,545;,
  3;546,546,546;,
  3;547,547,547;,
  3;548,548,548;,
  3;549,549,549;,
  3;551,550,552;,
  3;551,552,553;,
  3;553,552,554;,
  3;553,554,555;,
  3;555,554,556;,
  3;555,556,557;,
  3;557,556,558;,
  3;557,558,559;,
  3;559,558,560;,
  3;559,560,561;,
  3;561,560,562;,
  3;561,562,563;,
  3;563,562,564;,
  3;563,564,565;,
  3;565,564,566;,
  3;565,566,567;,
  3;567,566,568;,
  3;567,568,569;,
  3;569,568,570;,
  3;569,570,571;,
  3;571,570,572;,
  3;571,572,573;,
  3;573,572,574;,
  3;573,574,575;,
  3;575,574,576;,
  3;575,576,577;,
  3;577,576,578;,
  3;577,578,579;,
  3;579,578,580;,
  3;579,580,581;,
  3;581,580,550;,
  3;581,550,551;,
  3;580,578,576;,
  3;580,576,574;,
  3;580,574,572;,
  3;580,572,570;,
  3;580,570,568;,
  3;580,568,566;,
  3;580,566,564;,
  3;580,564,562;,
  3;580,562,560;,
  3;580,560,558;,
  3;580,558,556;,
  3;580,556,554;,
  3;580,554,552;,
  3;580,552,550;,
  3;551,553,555;,
  3;551,555,557;,
  3;551,557,559;,
  3;551,559,561;,
  3;551,561,563;,
  3;551,563,565;,
  3;551,565,567;,
  3;551,567,569;,
  3;551,569,571;,
  3;551,571,573;,
  3;551,573,575;,
  3;551,575,577;,
  3;551,577,579;,
  3;551,579,581;;
 }
}