xof 0303txt 0032
template Vector {
 <3d82ab5e-62da-11cf-ab39-0020af71e433>
 FLOAT x;
 FLOAT y;
 FLOAT z;
}

template MeshFace {
 <3d82ab5f-62da-11cf-ab39-0020af71e433>
 DWORD nFaceVertexIndices;
 array DWORD faceVertexIndices[nFaceVertexIndices];
}

template Mesh {
 <3d82ab44-62da-11cf-ab39-0020af71e433>
 DWORD nVertices;
 array Vector vertices[nVertices];
 DWORD nFaces;
 array MeshFace faces[nFaces];
 [...]
}

template ColorRGBA {
 <35ff44e0-6c7c-11cf-8f52-0040333594a3>
 FLOAT red;
 FLOAT green;
 FLOAT blue;
 FLOAT alpha;
}

template ColorRGB {
 <d3e16e81-7835-11cf-8f52-0040333594a3>
 FLOAT red;
 FLOAT green;
 FLOAT blue;
}

template Material {
 <3d82ab4d-62da-11cf-ab39-0020af71e433>
 ColorRGBA faceColor;
 FLOAT power;
 ColorRGB specularColor;
 ColorRGB emissiveColor;
 [...]
}

template MeshMaterialList {
 <f6f23f42-7686-11cf-8f52-0040333594a3>
 DWORD nMaterials;
 DWORD nFaceIndexes;
 array DWORD faceIndexes[nFaceIndexes];
 [Material <3d82ab4d-62da-11cf-ab39-0020af71e433>]
}

template TextureFilename {
 <a42790e1-7810-11cf-8f52-0040333594a3>
 STRING filename;
}

template Coords2d {
 <f6f23f44-7686-11cf-8f52-0040333594a3>
 FLOAT u;
 FLOAT v;
}

template MeshTextureCoords {
 <f6f23f40-7686-11cf-8f52-0040333594a3>
 DWORD nTextureCoords;
 array Coords2d textureCoords[nTextureCoords];
}

template MeshNormals {
 <f6f23f43-7686-11cf-8f52-0040333594a3>
 DWORD nNormals;
 array Vector normals[nNormals];
 DWORD nFaceNormals;
 array MeshFace faceNormals[nFaceNormals];
}


Mesh  {
 82;
 -1.460000;3.540000;0.250000;,
 1.460000;3.540000;0.250000;,
 -1.460000;1.000000;0.250000;,
 1.460000;1.000000;0.250000;,
 -1.460000;3.540000;19.750000;,
 1.460000;3.540000;19.750000;,
 -1.460000;1.000000;19.750000;,
 1.460000;1.000000;19.750000;,
 -0.500000;3.500000;6.950000;,
 0.500000;3.500000;6.950000;,
 -0.500000;3.750000;6.950000;,
 0.500000;3.750000;6.950000;,
 -0.500000;4.100000;7.850000;,
 0.500000;4.100000;7.850000;,
 -0.500000;4.100000;12.200000;,
 0.500000;4.100000;12.200000;,
 -0.500000;3.750000;13.050000;,
 0.500000;3.750000;13.050000;,
 -0.500000;3.500000;13.050000;,
 0.500000;3.500000;13.050000;,
 -1.160000;3.501000;0.250000;,
 -1.160000;3.501000;19.750000;,
 -0.500000;3.511000;0.250000;,
 -0.500000;3.511000;19.750000;,
 0.000000;3.520000;0.250000;,
 0.000000;3.520000;19.750000;,
 0.500000;3.511000;0.250000;,
 0.500000;3.511000;19.750000;,
 1.160000;3.501000;0.250000;,
 1.160000;3.501000;19.750000;,
 -0.500000;4.550000;0.250000;,
 -0.500000;4.550000;19.750000;,
 -0.500000;3.510000;0.250000;,
 -0.500000;3.510000;19.750000;,
 -1.160000;3.500000;0.250000;,
 -1.160000;3.500000;19.750000;,
 -1.390000;3.200000;0.250000;,
 -1.390000;3.200000;19.750000;,
 -1.460000;1.500000;0.250000;,
 -1.460000;1.500000;19.750000;,
 -1.360000;1.200000;0.250000;,
 -1.360000;1.200000;19.750000;,
 -1.360000;1.000000;0.250000;,
 -1.360000;1.000000;19.750000;,
 -1.360000;0.000000;0.250000;,
 -1.360000;0.000000;19.750000;,
 0.500000;4.550000;0.250000;,
 0.500000;4.550000;19.750000;,
 0.500000;3.510000;0.250000;,
 0.500000;3.510000;19.750000;,
 1.160000;3.500000;0.250000;,
 1.160000;3.500000;19.750000;,
 1.390000;3.200000;0.250000;,
 1.390000;3.200000;19.750000;,
 1.460000;1.500000;0.250000;,
 1.460000;1.500000;19.750000;,
 1.360000;1.200000;0.250000;,
 1.360000;1.200000;19.750000;,
 1.360000;1.000000;0.250000;,
 1.360000;1.000000;19.750000;,
 1.360000;0.000000;0.250000;,
 1.360000;0.000000;19.750000;,
 -0.533000;4.450000;0.250000;,
 -0.533000;4.450000;19.750000;,
 -0.533000;0.000000;0.250000;,
 -0.533000;0.000000;19.750000;,
 0.530000;4.450000;0.250000;,
 0.530000;4.450000;19.750000;,
 0.530000;0.000000;0.250000;,
 0.530000;0.000000;19.750000;,
 1.350000;1.200000;0.255000;,
 1.350000;-0.400000;0.255000;,
 -1.350000;-0.400000;0.255000;,
 -1.350000;1.200000;0.255000;,
 1.350000;1.200000;19.744997;,
 1.350000;-0.400000;19.744997;,
 -1.350000;-0.400000;19.744997;,
 -1.350000;1.200000;19.744997;,
 0.000000;4.450000;0.250000;,
 0.000000;4.450000;19.750000;,
 0.000000;0.000000;0.250000;,
 0.000000;0.000000;19.750000;;
 124;
 3;0,1,3;,
 3;0,3,2;,
 3;2,3,1;,
 3;2,1,0;,
 3;5,4,6;,
 3;5,6,7;,
 3;7,6,4;,
 3;7,4,5;,
 3;8,9,11;,
 3;8,11,10;,
 3;10,11,9;,
 3;10,9,8;,
 3;10,11,13;,
 3;10,13,12;,
 3;12,13,11;,
 3;12,11,10;,
 3;12,13,15;,
 3;12,15,14;,
 3;14,15,13;,
 3;14,13,12;,
 3;14,15,17;,
 3;14,17,16;,
 3;16,17,15;,
 3;16,15,14;,
 3;16,17,19;,
 3;16,19,18;,
 3;18,19,17;,
 3;18,17,16;,
 3;20,21,23;,
 3;20,23,22;,
 3;22,23,21;,
 3;22,21,20;,
 3;22,23,25;,
 3;22,25,24;,
 3;24,25,23;,
 3;24,23,22;,
 3;24,25,27;,
 3;24,27,26;,
 3;26,27,25;,
 3;26,25,24;,
 3;26,27,29;,
 3;26,29,28;,
 3;28,29,27;,
 3;28,27,26;,
 3;30,31,33;,
 3;30,33,32;,
 3;32,33,31;,
 3;32,31,30;,
 3;32,33,35;,
 3;32,35,34;,
 3;34,35,33;,
 3;34,33,32;,
 3;34,35,37;,
 3;34,37,36;,
 3;36,37,35;,
 3;36,35,34;,
 3;36,37,39;,
 3;36,39,38;,
 3;38,39,37;,
 3;38,37,36;,
 3;38,39,41;,
 3;38,41,40;,
 3;40,41,39;,
 3;40,39,38;,
 3;40,41,43;,
 3;40,43,42;,
 3;42,43,41;,
 3;42,41,40;,
 3;42,43,45;,
 3;42,45,44;,
 3;44,45,43;,
 3;44,43,42;,
 3;46,47,49;,
 3;46,49,48;,
 3;48,49,47;,
 3;48,47,46;,
 3;48,49,51;,
 3;48,51,50;,
 3;50,51,49;,
 3;50,49,48;,
 3;50,51,53;,
 3;50,53,52;,
 3;52,53,51;,
 3;52,51,50;,
 3;52,53,55;,
 3;52,55,54;,
 3;54,55,53;,
 3;54,53,52;,
 3;54,55,57;,
 3;54,57,56;,
 3;56,57,55;,
 3;56,55,54;,
 3;56,57,59;,
 3;56,59,58;,
 3;58,59,57;,
 3;58,57,56;,
 3;58,59,61;,
 3;58,61,60;,
 3;60,61,59;,
 3;60,59,58;,
 3;62,63,65;,
 3;62,65,64;,
 3;64,65,63;,
 3;64,63,62;,
 3;66,67,69;,
 3;66,69,68;,
 3;68,69,67;,
 3;68,67,66;,
 3;70,71,72;,
 3;70,72,73;,
 3;73,72,76;,
 3;73,76,77;,
 3;77,76,75;,
 3;77,75,74;,
 3;74,75,71;,
 3;74,71,70;,
 3;70,73,77;,
 3;70,77,74;,
 3;71,75,76;,
 3;71,76,72;,
 3;78,79,81;,
 3;78,81,80;,
 3;80,81,79;,
 3;80,79,78;;

 MeshMaterialList  {
  7;
  124;
  0,
  0,
  0,
  0,
  0,
  0,
  0,
  0,
  1,
  1,
  1,
  1,
  1,
  1,
  1,
  1,
  1,
  1,
  1,
  1,
  1,
  1,
  1,
  1,
  1,
  1,
  1,
  1,
  2,
  2,
  2,
  2,
  2,
  2,
  2,
  2,
  2,
  2,
  2,
  2,
  2,
  2,
  2,
  2,
  3,
  3,
  3,
  3,
  3,
  3,
  3,
  3,
  3,
  3,
  3,
  3,
  3,
  3,
  3,
  3,
  3,
  3,
  3,
  3,
  3,
  3,
  3,
  3,
  3,
  3,
  3,
  3,
  3,
  3,
  3,
  3,
  3,
  3,
  3,
  3,
  3,
  3,
  3,
  3,
  3,
  3,
  3,
  3,
  3,
  3,
  3,
  3,
  3,
  3,
  3,
  3,
  3,
  3,
  3,
  3,
  4,
  4,
  4,
  4,
  4,
  4,
  4,
  4,
  5,
  5,
  5,
  5,
  5,
  5,
  5,
  5,
  5,
  5,
  5,
  5,
  6,
  6,
  6,
  6;

  Material  {
   1.000000;1.000000;1.000000;1.000000;;
   0.000000;
   0.000000;0.000000;0.000000;;
   0.000000;0.000000;0.000000;;

   TextureFilename  {
    "E353-02F1.dds";
   }
  }

  Material  {
   0.431373;0.431373;0.450980;1.000000;;
   0.000000;
   0.000000;0.000000;0.000000;;
   0.000000;0.000000;0.000000;;
  }

  Material  {
   0.117647;0.098039;0.352941;1.000000;;
   0.000000;
   0.000000;0.000000;0.000000;;
   0.000000;0.000000;0.000000;;
  }

  Material  {
   1.000000;1.000000;1.000000;1.000000;;
   0.000000;
   0.000000;0.000000;0.000000;;
   0.000000;0.000000;0.000000;;

   TextureFilename  {
    "E353-05L.dds";
   }
  }

  Material  {
   1.000000;1.000000;1.000000;1.000000;;
   0.000000;
   0.000000;0.000000;0.000000;;
   0.000000;0.000000;0.000000;;

   TextureFilename  {
    "E353-05Lu.dds";
   }
  }

  Material  {
   0.000000;0.000000;0.000000;0.501961;;
   0.000000;
   0.000000;0.000000;0.000000;;
   0.000000;0.000000;0.000000;;
  }

  Material  {
   1.000000;1.000000;1.000000;1.000000;;
   0.000000;
   0.000000;0.000000;0.000000;;
   0.000000;0.000000;0.000000;;

   TextureFilename  {
    "E353-02Lp.dds";
   }
  }
 }

 MeshTextureCoords  {
  82;
  0.000000;0.000000;,
  1.000000;0.000000;,
  0.000000;1.000000;,
  1.000000;1.000000;,
  1.000000;0.000000;,
  0.000000;0.000000;,
  1.000000;1.000000;,
  0.000000;1.000000;,
  0.000000;0.000000;,
  0.000000;0.000000;,
  0.000000;0.000000;,
  0.000000;0.000000;,
  0.000000;0.000000;,
  0.000000;0.000000;,
  0.000000;0.000000;,
  0.000000;0.000000;,
  0.000000;0.000000;,
  0.000000;0.000000;,
  0.000000;0.000000;,
  0.000000;0.000000;,
  0.000000;0.000000;,
  0.000000;0.000000;,
  0.000000;0.000000;,
  0.000000;0.000000;,
  0.000000;0.000000;,
  0.000000;0.000000;,
  0.000000;0.000000;,
  0.000000;0.000000;,
  0.000000;0.000000;,
  0.000000;0.000000;,
  1.000000;0.000000;,
  0.000000;0.000000;,
  1.000000;0.229000;,
  0.000000;0.229000;,
  1.000000;0.231000;,
  0.000000;0.231000;,
  1.000000;0.297000;,
  0.000000;0.297000;,
  1.000000;0.670000;,
  0.000000;0.670000;,
  1.000000;0.736000;,
  0.000000;0.736000;,
  1.000000;0.780000;,
  0.000000;0.780000;,
  1.000000;1.000000;,
  0.000000;1.000000;,
  1.000000;0.000000;,
  0.000000;0.000000;,
  1.000000;0.229000;,
  0.000000;0.229000;,
  1.000000;0.231000;,
  0.000000;0.231000;,
  1.000000;0.297000;,
  0.000000;0.297000;,
  1.000000;0.670000;,
  0.000000;0.670000;,
  1.000000;0.736000;,
  0.000000;0.736000;,
  1.000000;0.780000;,
  0.000000;0.780000;,
  1.000000;1.000000;,
  0.000000;1.000000;,
  1.000000;0.000000;,
  0.000000;0.000000;,
  1.000000;1.000000;,
  0.000000;1.000000;,
  1.000000;0.000000;,
  0.000000;0.000000;,
  1.000000;1.000000;,
  0.000000;1.000000;,
  0.000000;0.000000;,
  0.000000;0.000000;,
  0.000000;0.000000;,
  0.000000;0.000000;,
  0.000000;0.000000;,
  0.000000;0.000000;,
  0.000000;0.000000;,
  0.000000;0.000000;,
  1.000000;0.000000;,
  0.000000;0.000000;,
  1.000000;1.000000;,
  0.000000;1.000000;;
 }

 MeshNormals  {
  124;
  0.000000;0.000000;-1.000000;,
  0.000000;0.000000;-1.000000;,
  0.000000;0.000000;1.000000;,
  0.000000;0.000000;1.000000;,
  0.000000;0.000000;1.000000;,
  0.000000;0.000000;1.000000;,
  0.000000;0.000000;-1.000000;,
  0.000000;0.000000;-1.000000;,
  0.000000;0.000000;1.000000;,
  0.000000;0.000000;1.000000;,
  0.000000;0.000000;-1.000000;,
  0.000000;0.000000;-1.000000;,
  0.000000;-0.932005;0.362446;,
  0.000000;-0.932005;0.362446;,
  0.000000;0.932005;-0.362446;,
  0.000000;0.932005;-0.362446;,
  0.000000;-1.000000;0.000000;,
  0.000000;-1.000000;0.000000;,
  0.000000;1.000000;0.000000;,
  0.000000;1.000000;0.000000;,
  0.000000;-0.924678;-0.380750;,
  0.000000;-0.924678;-0.380750;,
  0.000000;0.924678;0.380750;,
  0.000000;0.924678;0.380750;,
  0.000000;0.000000;-1.000000;,
  0.000000;0.000000;-1.000000;,
  0.000000;0.000000;1.000000;,
  0.000000;0.000000;1.000000;,
  -0.015150;0.999885;0.000000;,
  -0.015150;0.999885;0.000000;,
  0.015150;-0.999885;0.000000;,
  0.015150;-0.999885;0.000000;,
  -0.017997;0.999838;0.000000;,
  -0.017997;0.999838;0.000000;,
  0.017997;-0.999838;0.000000;,
  0.017997;-0.999838;0.000000;,
  0.017997;0.999838;0.000000;,
  0.017997;0.999838;0.000000;,
  -0.017997;-0.999838;0.000000;,
  -0.017997;-0.999838;0.000000;,
  0.015150;0.999885;0.000000;,
  0.015150;0.999885;0.000000;,
  -0.015150;-0.999885;0.000000;,
  -0.015150;-0.999885;0.000000;,
  1.000000;0.000000;0.000000;,
  1.000000;0.000000;0.000000;,
  -1.000000;0.000000;0.000000;,
  -1.000000;0.000000;0.000000;,
  0.015150;-0.999885;0.000000;,
  0.015150;-0.999885;0.000000;,
  -0.015150;0.999885;0.000000;,
  -0.015150;0.999885;0.000000;,
  0.793606;-0.608432;0.000000;,
  0.793606;-0.608432;0.000000;,
  -0.793606;0.608432;0.000000;,
  -0.793606;0.608432;0.000000;,
  0.999153;-0.041142;0.000000;,
  0.999153;-0.041142;0.000000;,
  -0.999153;0.041142;0.000000;,
  -0.999153;0.041142;0.000000;,
  0.948683;0.316228;0.000000;,
  0.948683;0.316228;0.000000;,
  -0.948683;-0.316228;0.000000;,
  -0.948683;-0.316228;0.000000;,
  1.000000;0.000000;0.000000;,
  1.000000;0.000000;0.000000;,
  -1.000000;0.000000;0.000000;,
  -1.000000;0.000000;0.000000;,
  1.000000;0.000000;0.000000;,
  1.000000;0.000000;0.000000;,
  -1.000000;0.000000;0.000000;,
  -1.000000;0.000000;0.000000;,
  1.000000;0.000000;0.000000;,
  1.000000;0.000000;0.000000;,
  -1.000000;0.000000;0.000000;,
  -1.000000;0.000000;0.000000;,
  0.015150;0.999885;0.000000;,
  0.015150;0.999885;0.000000;,
  -0.015150;-0.999885;0.000000;,
  -0.015150;-0.999885;0.000000;,
  0.793606;0.608432;0.000000;,
  0.793606;0.608432;0.000000;,
  -0.793606;-0.608432;0.000000;,
  -0.793606;-0.608432;0.000000;,
  0.999153;0.041142;0.000000;,
  0.999153;0.041142;0.000000;,
  -0.999153;-0.041142;0.000000;,
  -0.999153;-0.041142;0.000000;,
  0.948683;-0.316228;0.000000;,
  0.948683;-0.316228;0.000000;,
  -0.948683;0.316228;0.000000;,
  -0.948683;0.316228;0.000000;,
  1.000000;0.000000;0.000000;,
  1.000000;0.000000;0.000000;,
  -1.000000;0.000000;0.000000;,
  -1.000000;0.000000;0.000000;,
  1.000000;0.000000;0.000000;,
  1.000000;0.000000;0.000000;,
  -1.000000;0.000000;0.000000;,
  -1.000000;0.000000;0.000000;,
  1.000000;0.000000;0.000000;,
  1.000000;0.000000;0.000000;,
  -1.000000;0.000000;0.000000;,
  -1.000000;0.000000;0.000000;,
  1.000000;0.000000;0.000000;,
  1.000000;0.000000;0.000000;,
  -1.000000;0.000000;0.000000;,
  -1.000000;0.000000;0.000000;,
  0.000000;0.000000;-1.000000;,
  0.000000;0.000000;-1.000000;,
  -1.000000;0.000000;0.000000;,
  -1.000000;0.000000;0.000000;,
  0.000000;0.000000;1.000000;,
  0.000000;0.000000;1.000000;,
  1.000000;0.000000;0.000000;,
  1.000000;0.000000;0.000000;,
  0.000000;1.000000;0.000000;,
  0.000000;1.000000;0.000000;,
  0.000000;-1.000000;0.000000;,
  0.000000;-1.000000;0.000000;,
  1.000000;0.000000;0.000000;,
  1.000000;0.000000;0.000000;,
  -1.000000;0.000000;0.000000;,
  -1.000000;0.000000;0.000000;;
  124;
  3;0,0,0;,
  3;1,1,1;,
  3;2,2,2;,
  3;3,3,3;,
  3;4,4,4;,
  3;5,5,5;,
  3;6,6,6;,
  3;7,7,7;,
  3;8,8,8;,
  3;9,9,9;,
  3;10,10,10;,
  3;11,11,11;,
  3;12,12,12;,
  3;13,13,13;,
  3;14,14,14;,
  3;15,15,15;,
  3;16,16,16;,
  3;17,17,17;,
  3;18,18,18;,
  3;19,19,19;,
  3;20,20,20;,
  3;21,21,21;,
  3;22,22,22;,
  3;23,23,23;,
  3;24,24,24;,
  3;25,25,25;,
  3;26,26,26;,
  3;27,27,27;,
  3;28,28,28;,
  3;29,29,29;,
  3;30,30,30;,
  3;31,31,31;,
  3;32,32,32;,
  3;33,33,33;,
  3;34,34,34;,
  3;35,35,35;,
  3;36,36,36;,
  3;37,37,37;,
  3;38,38,38;,
  3;39,39,39;,
  3;40,40,40;,
  3;41,41,41;,
  3;42,42,42;,
  3;43,43,43;,
  3;44,44,44;,
  3;45,45,45;,
  3;46,46,46;,
  3;47,47,47;,
  3;48,48,48;,
  3;49,49,49;,
  3;50,50,50;,
  3;51,51,51;,
  3;52,52,52;,
  3;53,53,53;,
  3;54,54,54;,
  3;55,55,55;,
  3;56,56,56;,
  3;57,57,57;,
  3;58,58,58;,
  3;59,59,59;,
  3;60,60,60;,
  3;61,61,61;,
  3;62,62,62;,
  3;63,63,63;,
  3;64,64,64;,
  3;65,65,65;,
  3;66,66,66;,
  3;67,67,67;,
  3;68,68,68;,
  3;69,69,69;,
  3;70,70,70;,
  3;71,71,71;,
  3;72,72,72;,
  3;73,73,73;,
  3;74,74,74;,
  3;75,75,75;,
  3;76,76,76;,
  3;77,77,77;,
  3;78,78,78;,
  3;79,79,79;,
  3;80,80,80;,
  3;81,81,81;,
  3;82,82,82;,
  3;83,83,83;,
  3;84,84,84;,
  3;85,85,85;,
  3;86,86,86;,
  3;87,87,87;,
  3;88,88,88;,
  3;89,89,89;,
  3;90,90,90;,
  3;91,91,91;,
  3;92,92,92;,
  3;93,93,93;,
  3;94,94,94;,
  3;95,95,95;,
  3;96,96,96;,
  3;97,97,97;,
  3;98,98,98;,
  3;99,99,99;,
  3;100,100,100;,
  3;101,101,101;,
  3;102,102,102;,
  3;103,103,103;,
  3;104,104,104;,
  3;105,105,105;,
  3;106,106,106;,
  3;107,107,107;,
  3;108,108,108;,
  3;109,109,109;,
  3;110,110,110;,
  3;111,111,111;,
  3;112,112,112;,
  3;113,113,113;,
  3;114,114,114;,
  3;115,115,115;,
  3;116,116,116;,
  3;117,117,117;,
  3;118,118,118;,
  3;119,119,119;,
  3;120,120,120;,
  3;121,121,121;,
  3;122,122,122;,
  3;123,123,123;;
 }
}