xof 0303txt 0032
template Vector {
 <3d82ab5e-62da-11cf-ab39-0020af71e433>
 FLOAT x;
 FLOAT y;
 FLOAT z;
}

template MeshFace {
 <3d82ab5f-62da-11cf-ab39-0020af71e433>
 DWORD nFaceVertexIndices;
 array DWORD faceVertexIndices[nFaceVertexIndices];
}

template Mesh {
 <3d82ab44-62da-11cf-ab39-0020af71e433>
 DWORD nVertices;
 array Vector vertices[nVertices];
 DWORD nFaces;
 array MeshFace faces[nFaces];
 [...]
}

template ColorRGBA {
 <35ff44e0-6c7c-11cf-8f52-0040333594a3>
 FLOAT red;
 FLOAT green;
 FLOAT blue;
 FLOAT alpha;
}

template ColorRGB {
 <d3e16e81-7835-11cf-8f52-0040333594a3>
 FLOAT red;
 FLOAT green;
 FLOAT blue;
}

template Material {
 <3d82ab4d-62da-11cf-ab39-0020af71e433>
 ColorRGBA faceColor;
 FLOAT power;
 ColorRGB specularColor;
 ColorRGB emissiveColor;
 [...]
}

template MeshMaterialList {
 <f6f23f42-7686-11cf-8f52-0040333594a3>
 DWORD nMaterials;
 DWORD nFaceIndexes;
 array DWORD faceIndexes[nFaceIndexes];
 [Material <3d82ab4d-62da-11cf-ab39-0020af71e433>]
}

template TextureFilename {
 <a42790e1-7810-11cf-8f52-0040333594a3>
 STRING filename;
}

template Coords2d {
 <f6f23f44-7686-11cf-8f52-0040333594a3>
 FLOAT u;
 FLOAT v;
}

template MeshTextureCoords {
 <f6f23f40-7686-11cf-8f52-0040333594a3>
 DWORD nTextureCoords;
 array Coords2d textureCoords[nTextureCoords];
}

template MeshNormals {
 <f6f23f43-7686-11cf-8f52-0040333594a3>
 DWORD nNormals;
 array Vector normals[nNormals];
 DWORD nFaceNormals;
 array MeshFace faceNormals[nFaceNormals];
}


Mesh  {
 163;
 0.600000;3.520000;0.180000;,
 -0.600000;3.520000;0.180000;,
 0.600000;1.200000;0.180000;,
 -0.600000;1.200000;0.180000;,
 0.600000;0.200000;0.180000;,
 -0.600000;0.200000;0.180000;,
 0.600000;4.100000;0.700000;,
 -0.600000;4.100000;0.700000;,
 1.160000;3.500000;0.700000;,
 -1.160000;3.500000;0.700000;,
 1.160000;1.200000;0.700000;,
 -1.160000;1.200000;0.700000;,
 1.160000;0.200000;0.700000;,
 -1.160000;0.200000;0.700000;,
 0.600000;4.100000;1.200000;,
 -0.600000;4.100000;1.200000;,
 1.160000;3.500000;1.200000;,
 -1.160000;3.500000;1.200000;,
 1.390000;3.200000;1.200000;,
 -1.390000;3.200000;1.200000;,
 1.460000;1.500000;1.200000;,
 -1.460000;1.500000;1.200000;,
 1.360000;1.200000;1.200000;,
 -1.360000;1.200000;1.200000;,
 1.360000;0.200000;1.200000;,
 -1.360000;0.200000;1.200000;,
 -1.460000;3.520000;20.750000;,
 1.460000;3.520000;20.750000;,
 -1.460000;1.000000;20.750000;,
 1.460000;1.000000;20.750000;,
 -0.500000;3.500000;7.750000;,
 0.500000;3.500000;7.750000;,
 -0.500000;3.750000;7.750000;,
 0.500000;3.750000;7.750000;,
 -0.500000;4.100000;8.650000;,
 0.500000;4.100000;8.650000;,
 -0.500000;4.100000;13.000000;,
 0.500000;4.100000;13.000000;,
 -0.500000;3.750000;13.850000;,
 0.500000;3.750000;13.850000;,
 -0.500000;3.500000;13.850000;,
 0.500000;3.500000;13.850000;,
 -1.160000;3.501000;20.750000;,
 -1.160000;3.501000;1.800000;,
 -0.500000;3.511000;20.750000;,
 -0.500000;3.511000;1.800000;,
 0.000000;3.520000;20.750000;,
 0.000000;3.520000;1.800000;,
 0.500000;3.511000;20.750000;,
 0.500000;3.511000;1.800000;,
 1.160000;3.501000;20.750000;,
 1.160000;3.501000;1.800000;,
 -1.160000;3.500000;5.600000;,
 1.160000;3.500000;5.600000;,
 0.000000;3.520000;4.600000;,
 -0.600000;4.100000;3.500000;,
 0.600000;4.100000;3.500000;,
 -0.600000;4.099000;0.700000;,
 0.600000;4.099000;0.700000;,
 -0.600000;3.519000;0.200000;,
 0.600000;3.519000;0.200000;,
 -0.500000;4.100000;20.750000;,
 -0.500000;4.100000;2.800000;,
 -0.500000;3.510000;20.750000;,
 -0.500000;3.510000;2.800000;,
 -1.160000;3.500000;20.750000;,
 -1.160000;3.500000;2.800000;,
 -1.390000;3.200000;20.750000;,
 -1.390000;3.200000;2.800000;,
 -1.460000;1.500000;20.750000;,
 -1.460000;1.500000;2.800000;,
 -1.360000;1.200000;20.750000;,
 -1.360000;1.200000;2.800000;,
 -1.360000;1.000000;20.750000;,
 -1.360000;1.000000;2.800000;,
 -1.360000;0.000000;20.750000;,
 -1.360000;0.000000;2.800000;,
 0.500000;4.100000;20.750000;,
 0.500000;4.100000;2.800000;,
 0.500000;3.510000;20.750000;,
 0.500000;3.510000;2.800000;,
 1.160000;3.500000;20.750000;,
 1.160000;3.500000;2.800000;,
 1.390000;3.200000;20.750000;,
 1.390000;3.200000;2.800000;,
 1.460000;1.500000;20.750000;,
 1.460000;1.500000;2.800000;,
 1.360000;1.200000;20.750000;,
 1.360000;1.200000;2.800000;,
 1.360000;1.000000;20.750000;,
 1.360000;1.000000;2.800000;,
 1.360000;0.000000;20.750000;,
 1.360000;0.000000;2.800000;,
 -0.500000;4.100000;1.200000;,
 0.500000;4.100000;1.200000;,
 -0.500000;3.510000;1.200000;,
 0.500000;3.510000;1.200000;,
 -1.160000;3.500000;1.200000;,
 1.160000;3.500000;1.200000;,
 -1.390000;3.200000;1.200000;,
 1.390000;3.200000;1.200000;,
 -1.460000;1.500000;1.200000;,
 1.460000;1.500000;1.200000;,
 -1.360000;1.200000;1.200000;,
 1.360000;1.200000;1.200000;,
 -1.360000;1.000000;1.200000;,
 1.360000;1.000000;1.200000;,
 -1.360000;0.000000;1.200000;,
 1.360000;0.000000;1.200000;,
 -0.600000;4.100000;20.750000;,
 -0.600000;4.100000;2.800000;,
 -1.160000;3.500000;20.750000;,
 -1.160000;3.500000;2.800000;,
 -1.390000;3.200000;20.750000;,
 -1.390000;3.200000;2.800000;,
 -1.460000;1.500000;20.750000;,
 -1.460000;1.500000;2.800000;,
 -1.360000;1.200000;20.750000;,
 -1.360000;1.200000;2.800000;,
 -1.360000;1.000000;20.750000;,
 -1.360000;1.000000;2.800000;,
 -1.360000;0.000000;20.750000;,
 -1.360000;0.000000;2.800000;,
 0.600000;4.100000;20.750000;,
 0.600000;4.100000;2.800000;,
 1.160000;3.500000;20.750000;,
 1.160000;3.500000;2.800000;,
 1.390000;3.200000;20.750000;,
 1.390000;3.200000;2.800000;,
 1.460000;1.500000;20.750000;,
 1.460000;1.500000;2.800000;,
 1.360000;1.200000;20.750000;,
 1.360000;1.200000;2.800000;,
 1.360000;1.000000;20.750000;,
 1.360000;1.000000;2.800000;,
 1.360000;0.000000;20.750000;,
 1.360000;0.000000;2.800000;,
 -0.600000;4.100000;1.200000;,
 0.600000;4.100000;1.200000;,
 -1.160000;3.500000;1.200000;,
 1.160000;3.500000;1.200000;,
 -1.390000;3.200000;1.200000;,
 1.390000;3.200000;1.200000;,
 -0.601000;4.100000;0.180000;,
 0.601000;4.100000;0.180000;,
 -0.601000;3.500000;0.180000;,
 0.601000;3.500000;0.180000;,
 -0.533000;4.450000;20.750000;,
 -0.533000;4.450000;0.180000;,
 -0.533000;0.000000;20.750000;,
 -0.533000;0.000000;0.180000;,
 0.530000;4.450000;20.750000;,
 0.530000;4.450000;0.180000;,
 0.530000;0.000000;20.750000;,
 0.530000;0.000000;0.180000;,
 1.350000;1.200000;1.255000;,
 1.350000;-0.400000;1.255000;,
 -1.350000;-0.400000;1.255000;,
 -1.350000;1.200000;1.255000;,
 1.350000;1.200000;20.744997;,
 1.350000;-0.400000;20.744997;,
 -1.350000;-0.400000;20.744997;,
 -1.350000;1.200000;20.744997;;
 322;
 3;0,1,3;,
 3;0,3,2;,
 3;2,3,1;,
 3;2,1,0;,
 3;2,3,5;,
 3;2,5,4;,
 3;4,5,3;,
 3;4,3,2;,
 3;0,1,7;,
 3;0,7,6;,
 3;6,7,1;,
 3;6,1,0;,
 3;0,8,6;,
 3;6,8,0;,
 3;0,2,10;,
 3;0,10,8;,
 3;8,10,2;,
 3;8,2,0;,
 3;2,4,12;,
 3;2,12,10;,
 3;10,12,4;,
 3;10,4,2;,
 3;1,9,7;,
 3;7,9,1;,
 3;1,3,11;,
 3;1,11,9;,
 3;9,11,3;,
 3;9,3,1;,
 3;3,5,13;,
 3;3,13,11;,
 3;11,13,5;,
 3;11,5,3;,
 3;6,14,16;,
 3;16,14,6;,
 3;6,8,16;,
 3;16,8,6;,
 3;8,16,18;,
 3;18,16,8;,
 3;8,10,18;,
 3;18,10,8;,
 3;10,18,20;,
 3;20,18,10;,
 3;10,20,22;,
 3;22,20,10;,
 3;10,12,24;,
 3;10,24,22;,
 3;22,24,12;,
 3;22,12,10;,
 3;7,15,17;,
 3;17,15,7;,
 3;7,9,17;,
 3;17,9,7;,
 3;9,17,19;,
 3;19,17,9;,
 3;9,11,19;,
 3;19,11,9;,
 3;11,19,21;,
 3;21,19,11;,
 3;11,21,23;,
 3;23,21,11;,
 3;11,13,25;,
 3;11,25,23;,
 3;23,25,13;,
 3;23,13,11;,
 3;26,27,29;,
 3;26,29,28;,
 3;28,29,27;,
 3;28,27,26;,
 3;30,31,33;,
 3;30,33,32;,
 3;32,33,31;,
 3;32,31,30;,
 3;32,33,35;,
 3;32,35,34;,
 3;34,35,33;,
 3;34,33,32;,
 3;34,35,37;,
 3;34,37,36;,
 3;36,37,35;,
 3;36,35,34;,
 3;36,37,39;,
 3;36,39,38;,
 3;38,39,37;,
 3;38,37,36;,
 3;38,39,41;,
 3;38,41,40;,
 3;40,41,39;,
 3;40,39,38;,
 3;42,43,45;,
 3;42,45,44;,
 3;44,45,43;,
 3;44,43,42;,
 3;44,45,47;,
 3;44,47,46;,
 3;46,47,45;,
 3;46,45,44;,
 3;46,47,49;,
 3;46,49,48;,
 3;48,49,47;,
 3;48,47,46;,
 3;48,49,51;,
 3;48,51,50;,
 3;50,51,49;,
 3;50,49,48;,
 3;52,54,55;,
 3;55,54,52;,
 3;53,54,56;,
 3;56,54,53;,
 3;54,55,56;,
 3;56,55,54;,
 3;55,56,58;,
 3;55,58,57;,
 3;57,58,56;,
 3;57,56,55;,
 3;57,58,60;,
 3;57,60,59;,
 3;59,60,58;,
 3;59,58,57;,
 3;61,62,64;,
 3;61,64,63;,
 3;63,64,62;,
 3;63,62,61;,
 3;63,64,66;,
 3;63,66,65;,
 3;65,66,64;,
 3;65,64,63;,
 3;65,66,68;,
 3;65,68,67;,
 3;67,68,66;,
 3;67,66,65;,
 3;67,68,70;,
 3;67,70,69;,
 3;69,70,68;,
 3;69,68,67;,
 3;69,70,72;,
 3;69,72,71;,
 3;71,72,70;,
 3;71,70,69;,
 3;71,72,74;,
 3;71,74,73;,
 3;73,74,72;,
 3;73,72,71;,
 3;73,74,76;,
 3;73,76,75;,
 3;75,76,74;,
 3;75,74,73;,
 3;77,78,80;,
 3;77,80,79;,
 3;79,80,78;,
 3;79,78,77;,
 3;79,80,82;,
 3;79,82,81;,
 3;81,82,80;,
 3;81,80,79;,
 3;81,82,84;,
 3;81,84,83;,
 3;83,84,82;,
 3;83,82,81;,
 3;83,84,86;,
 3;83,86,85;,
 3;85,86,84;,
 3;85,84,83;,
 3;85,86,88;,
 3;85,88,87;,
 3;87,88,86;,
 3;87,86,85;,
 3;87,88,90;,
 3;87,90,89;,
 3;89,90,88;,
 3;89,88,87;,
 3;89,90,92;,
 3;89,92,91;,
 3;91,92,90;,
 3;91,90,89;,
 3;62,64,95;,
 3;62,95,93;,
 3;93,95,64;,
 3;93,64,62;,
 3;64,66,97;,
 3;64,97,95;,
 3;95,97,66;,
 3;95,66,64;,
 3;66,68,99;,
 3;66,99,97;,
 3;97,99,68;,
 3;97,68,66;,
 3;68,70,101;,
 3;68,101,99;,
 3;99,101,70;,
 3;99,70,68;,
 3;70,72,103;,
 3;70,103,101;,
 3;101,103,72;,
 3;101,72,70;,
 3;72,74,105;,
 3;72,105,103;,
 3;103,105,74;,
 3;103,74,72;,
 3;74,76,107;,
 3;74,107,105;,
 3;105,107,76;,
 3;105,76,74;,
 3;78,80,96;,
 3;78,96,94;,
 3;94,96,80;,
 3;94,80,78;,
 3;80,82,98;,
 3;80,98,96;,
 3;96,98,82;,
 3;96,82,80;,
 3;82,84,100;,
 3;82,100,98;,
 3;98,100,84;,
 3;98,84,82;,
 3;84,86,102;,
 3;84,102,100;,
 3;100,102,86;,
 3;100,86,84;,
 3;86,88,104;,
 3;86,104,102;,
 3;102,104,88;,
 3;102,88,86;,
 3;88,90,106;,
 3;88,106,104;,
 3;104,106,90;,
 3;104,90,88;,
 3;90,92,108;,
 3;90,108,106;,
 3;106,108,92;,
 3;106,92,90;,
 3;109,110,112;,
 3;109,112,111;,
 3;111,112,110;,
 3;111,110,109;,
 3;111,112,114;,
 3;111,114,113;,
 3;113,114,112;,
 3;113,112,111;,
 3;113,114,116;,
 3;113,116,115;,
 3;115,116,114;,
 3;115,114,113;,
 3;115,116,118;,
 3;115,118,117;,
 3;117,118,116;,
 3;117,116,115;,
 3;117,118,120;,
 3;117,120,119;,
 3;119,120,118;,
 3;119,118,117;,
 3;119,120,122;,
 3;119,122,121;,
 3;121,122,120;,
 3;121,120,119;,
 3;123,124,126;,
 3;123,126,125;,
 3;125,126,124;,
 3;125,124,123;,
 3;125,126,128;,
 3;125,128,127;,
 3;127,128,126;,
 3;127,126,125;,
 3;127,128,130;,
 3;127,130,129;,
 3;129,130,128;,
 3;129,128,127;,
 3;129,130,132;,
 3;129,132,131;,
 3;131,132,130;,
 3;131,130,129;,
 3;131,132,134;,
 3;131,134,133;,
 3;133,134,132;,
 3;133,132,131;,
 3;133,134,136;,
 3;133,136,135;,
 3;135,136,134;,
 3;135,134,133;,
 3;110,112,139;,
 3;110,139,137;,
 3;137,139,112;,
 3;137,112,110;,
 3;112,114,141;,
 3;112,141,139;,
 3;139,141,114;,
 3;139,114,112;,
 3;126,124,140;,
 3;126,140,138;,
 3;138,140,124;,
 3;138,124,126;,
 3;128,126,142;,
 3;128,142,140;,
 3;140,142,126;,
 3;140,126,128;,
 3;137,139,145;,
 3;137,145,143;,
 3;143,145,139;,
 3;143,139,137;,
 3;138,140,146;,
 3;138,146,144;,
 3;144,146,140;,
 3;144,140,138;,
 3;147,148,150;,
 3;147,150,149;,
 3;149,150,148;,
 3;149,148,147;,
 3;151,152,154;,
 3;151,154,153;,
 3;153,154,152;,
 3;153,152,151;,
 3;155,156,157;,
 3;155,157,158;,
 3;158,157,161;,
 3;158,161,162;,
 3;162,161,160;,
 3;162,160,159;,
 3;159,160,156;,
 3;159,156,155;,
 3;155,158,162;,
 3;155,162,159;,
 3;156,160,161;,
 3;156,161,157;;

 MeshMaterialList  {
  9;
  322;
  0,
  0,
  0,
  0,
  0,
  0,
  0,
  0,
  0,
  0,
  0,
  0,
  0,
  0,
  0,
  0,
  0,
  0,
  0,
  0,
  0,
  0,
  0,
  0,
  0,
  0,
  0,
  0,
  0,
  0,
  0,
  0,
  0,
  0,
  0,
  0,
  0,
  0,
  0,
  0,
  0,
  0,
  0,
  0,
  0,
  0,
  0,
  0,
  0,
  0,
  0,
  0,
  0,
  0,
  0,
  0,
  0,
  0,
  0,
  0,
  0,
  0,
  0,
  0,
  1,
  1,
  1,
  1,
  2,
  2,
  2,
  2,
  2,
  2,
  2,
  2,
  2,
  2,
  2,
  2,
  2,
  2,
  2,
  2,
  2,
  2,
  2,
  2,
  3,
  3,
  3,
  3,
  3,
  3,
  3,
  3,
  3,
  3,
  3,
  3,
  3,
  3,
  3,
  3,
  4,
  4,
  4,
  4,
  4,
  4,
  4,
  4,
  4,
  4,
  4,
  4,
  4,
  4,
  5,
  5,
  5,
  5,
  5,
  5,
  5,
  5,
  5,
  5,
  5,
  5,
  5,
  5,
  5,
  5,
  5,
  5,
  5,
  5,
  5,
  5,
  5,
  5,
  5,
  5,
  5,
  5,
  5,
  5,
  5,
  5,
  5,
  5,
  5,
  5,
  5,
  5,
  5,
  5,
  5,
  5,
  5,
  5,
  5,
  5,
  5,
  5,
  5,
  5,
  5,
  5,
  5,
  5,
  5,
  5,
  5,
  5,
  5,
  5,
  5,
  5,
  5,
  5,
  5,
  5,
  5,
  5,
  5,
  5,
  5,
  5,
  5,
  5,
  5,
  5,
  5,
  5,
  5,
  5,
  5,
  5,
  5,
  5,
  5,
  5,
  5,
  5,
  5,
  5,
  5,
  5,
  5,
  5,
  5,
  5,
  5,
  5,
  5,
  5,
  5,
  5,
  5,
  5,
  5,
  5,
  5,
  5,
  5,
  5,
  5,
  5,
  6,
  6,
  6,
  6,
  6,
  6,
  6,
  6,
  6,
  6,
  6,
  6,
  6,
  6,
  6,
  6,
  6,
  6,
  6,
  6,
  6,
  6,
  6,
  6,
  6,
  6,
  6,
  6,
  6,
  6,
  6,
  6,
  6,
  6,
  6,
  6,
  6,
  6,
  6,
  6,
  6,
  6,
  6,
  6,
  6,
  6,
  6,
  6,
  6,
  6,
  6,
  6,
  6,
  6,
  6,
  6,
  6,
  6,
  6,
  6,
  6,
  6,
  6,
  6,
  6,
  6,
  6,
  6,
  6,
  6,
  6,
  6,
  7,
  7,
  7,
  7,
  7,
  7,
  7,
  7,
  8,
  8,
  8,
  8,
  8,
  8,
  8,
  8,
  8,
  8,
  8,
  8;

  Material  {
   1.000000;1.000000;1.000000;1.000000;;
   0.000000;
   0.000000;0.000000;0.000000;;
   0.000000;0.000000;0.000000;;

   TextureFilename  {
    "E353-01F3.dds";
   }
  }

  Material  {
   1.000000;1.000000;1.000000;1.000000;;
   0.000000;
   0.000000;0.000000;0.000000;;
   0.000000;0.000000;0.000000;;

   TextureFilename  {
    "E353-02F1.dds";
   }
  }

  Material  {
   0.431373;0.431373;0.450980;1.000000;;
   0.000000;
   0.000000;0.000000;0.000000;;
   0.000000;0.000000;0.000000;;
  }

  Material  {
   0.117647;0.098039;0.352941;1.000000;;
   0.000000;
   0.000000;0.000000;0.000000;;
   0.000000;0.000000;0.000000;;
  }

  Material  {
   0.078431;0.078431;0.078431;1.000000;;
   0.000000;
   0.000000;0.000000;0.000000;;
   0.000000;0.000000;0.000000;;
  }

  Material  {
   1.000000;1.000000;1.000000;1.000000;;
   0.000000;
   0.000000;0.000000;0.000000;;
   0.000000;0.000000;0.000000;;

   TextureFilename  {
    "E353-01L2.dds";
   }
  }

  Material  {
   1.000000;1.000000;1.000000;1.000000;;
   0.000000;
   0.000000;0.000000;0.000000;;
   0.000000;0.000000;0.000000;;

   TextureFilename  {
    "E353-01L3.dds";
   }
  }

  Material  {
   1.000000;1.000000;1.000000;1.000000;;
   0.000000;
   0.000000;0.000000;0.000000;;
   0.000000;0.000000;0.000000;;

   TextureFilename  {
    "E353-01Lu.dds";
   }
  }

  Material  {
   0.000000;0.000000;0.000000;0.501961;;
   0.000000;
   0.000000;0.000000;0.000000;;
   0.000000;0.000000;0.000000;;
  }
 }

 MeshTextureCoords  {
  163;
  0.795000;0.137000;,
  0.205000;0.137000;,
  0.795000;0.744000;,
  0.205000;0.744000;,
  0.795000;1.000000;,
  0.205000;1.000000;,
  0.795000;0.050000;,
  0.205000;0.050000;,
  0.900000;0.231000;,
  0.100000;0.231000;,
  0.900000;0.744000;,
  0.100000;0.744000;,
  0.900000;1.000000;,
  0.100000;1.000000;,
  0.795000;0.000000;,
  0.205000;0.000000;,
  1.000000;0.154000;,
  0.000000;0.154000;,
  1.000000;0.231000;,
  0.000000;0.231000;,
  1.000000;0.667000;,
  0.000000;0.667000;,
  1.000000;0.707000;,
  0.000000;0.707000;,
  1.000000;1.000000;,
  0.000000;1.000000;,
  0.000000;0.000000;,
  1.000000;0.000000;,
  0.000000;1.000000;,
  1.000000;1.000000;,
  0.000000;0.000000;,
  0.000000;0.000000;,
  0.000000;0.000000;,
  0.000000;0.000000;,
  0.000000;0.000000;,
  0.000000;0.000000;,
  0.000000;0.000000;,
  0.000000;0.000000;,
  0.000000;0.000000;,
  0.000000;0.000000;,
  0.000000;0.000000;,
  0.000000;0.000000;,
  0.000000;0.000000;,
  0.000000;0.000000;,
  0.000000;0.000000;,
  0.000000;0.000000;,
  0.000000;0.000000;,
  0.000000;0.000000;,
  0.000000;0.000000;,
  0.000000;0.000000;,
  0.000000;0.000000;,
  0.000000;0.000000;,
  0.000000;0.000000;,
  0.000000;0.000000;,
  0.000000;0.000000;,
  0.000000;0.000000;,
  0.000000;0.000000;,
  0.000000;0.000000;,
  0.000000;0.000000;,
  0.000000;0.000000;,
  0.000000;0.000000;,
  1.000000;0.000000;,
  0.133000;0.000000;,
  1.000000;0.130000;,
  0.133000;0.130000;,
  1.000000;0.146000;,
  0.133000;0.146000;,
  1.000000;0.220000;,
  0.133000;0.220000;,
  1.000000;0.634000;,
  0.133000;0.634000;,
  1.000000;0.703000;,
  0.133000;0.703000;,
  1.000000;0.756000;,
  0.133000;0.756000;,
  1.000000;1.000000;,
  0.133000;1.000000;,
  1.000000;0.000000;,
  0.133000;0.000000;,
  1.000000;0.130000;,
  0.133000;0.130000;,
  1.000000;0.146000;,
  0.133000;0.146000;,
  1.000000;0.220000;,
  0.133000;0.220000;,
  1.000000;0.634000;,
  0.133000;0.634000;,
  1.000000;0.703000;,
  0.133000;0.703000;,
  1.000000;0.756000;,
  0.133000;0.756000;,
  1.000000;1.000000;,
  0.133000;1.000000;,
  0.080000;0.000000;,
  0.080000;0.000000;,
  0.080000;0.144000;,
  0.080000;0.144000;,
  0.080000;0.146000;,
  0.080000;0.146000;,
  0.065000;0.220000;,
  0.065000;0.220000;,
  0.065000;0.634000;,
  0.065000;0.634000;,
  0.065000;0.703000;,
  0.065000;0.703000;,
  0.065000;0.756000;,
  0.065000;0.756000;,
  0.065000;1.000000;,
  0.065000;1.000000;,
  1.000000;0.000000;,
  0.133000;0.000000;,
  1.000000;0.146000;,
  0.133000;0.146000;,
  1.000000;0.220000;,
  0.133000;0.220000;,
  1.000000;0.634000;,
  0.133000;0.634000;,
  1.000000;0.703000;,
  0.133000;0.703000;,
  1.000000;0.756000;,
  0.133000;0.756000;,
  1.000000;1.000000;,
  0.133000;1.000000;,
  1.000000;0.000000;,
  0.133000;0.000000;,
  1.000000;0.146000;,
  0.133000;0.146000;,
  1.000000;0.220000;,
  0.133000;0.220000;,
  1.000000;0.634000;,
  0.133000;0.634000;,
  1.000000;0.703000;,
  0.133000;0.703000;,
  1.000000;0.756000;,
  0.133000;0.756000;,
  1.000000;1.000000;,
  0.133000;1.000000;,
  0.080000;0.000000;,
  0.080000;0.000000;,
  0.080000;0.146000;,
  0.080000;0.146000;,
  0.080000;0.220000;,
  0.080000;0.220000;,
  0.000000;0.000000;,
  0.000000;0.000000;,
  0.000000;0.146000;,
  0.000000;0.146000;,
  1.000000;0.000000;,
  0.000000;0.000000;,
  1.000000;1.000000;,
  0.000000;1.000000;,
  1.000000;0.000000;,
  0.000000;0.000000;,
  1.000000;1.000000;,
  0.000000;1.000000;,
  0.000000;0.000000;,
  0.000000;0.000000;,
  0.000000;0.000000;,
  0.000000;0.000000;,
  0.000000;0.000000;,
  0.000000;0.000000;,
  0.000000;0.000000;,
  0.000000;0.000000;;
 }

 MeshNormals  {
  322;
  0.000000;0.000000;1.000000;,
  0.000000;0.000000;1.000000;,
  0.000000;0.000000;-1.000000;,
  0.000000;0.000000;-1.000000;,
  0.000000;0.000000;1.000000;,
  0.000000;0.000000;1.000000;,
  0.000000;0.000000;-1.000000;,
  0.000000;0.000000;-1.000000;,
  0.000000;0.667545;-0.744569;,
  0.000000;0.667545;-0.744569;,
  0.000000;-0.667545;0.744569;,
  0.000000;-0.667545;0.744569;,
  -0.581745;-0.542962;0.605611;,
  0.581745;0.542962;-0.605611;,
  -0.680451;0.000000;0.732793;,
  -0.680451;0.000000;0.732793;,
  0.680451;0.000000;-0.732793;,
  0.680451;0.000000;-0.732793;,
  -0.680451;0.000000;0.732793;,
  -0.680451;0.000000;0.732793;,
  0.680451;0.000000;-0.732793;,
  0.680451;0.000000;-0.732793;,
  -0.581745;0.542962;-0.605611;,
  0.581745;-0.542962;0.605611;,
  -0.680451;0.000000;-0.732793;,
  -0.680451;0.000000;-0.732793;,
  0.680451;0.000000;0.732793;,
  0.680451;0.000000;0.732793;,
  -0.680451;0.000000;-0.732793;,
  -0.680451;0.000000;-0.732793;,
  0.680451;0.000000;0.732793;,
  0.680451;0.000000;0.732793;,
  0.731055;0.682318;0.000000;,
  -0.731055;-0.682318;0.000000;,
  -0.731055;-0.682318;0.000000;,
  0.731055;0.682318;0.000000;,
  0.793606;0.608432;0.000000;,
  -0.793606;-0.608432;0.000000;,
  -0.908490;0.000000;0.417906;,
  0.908490;0.000000;-0.417906;,
  0.847594;0.034901;-0.529497;,
  -0.847594;-0.034901;0.529497;,
  0.886969;-0.295656;-0.354787;,
  -0.886969;0.295656;0.354787;,
  -0.928477;0.000000;0.371391;,
  -0.928477;0.000000;0.371391;,
  0.928477;0.000000;-0.371391;,
  0.928477;0.000000;-0.371391;,
  0.731055;-0.682318;0.000000;,
  -0.731055;0.682318;0.000000;,
  -0.731055;0.682318;0.000000;,
  0.731055;-0.682318;0.000000;,
  0.793606;-0.608432;0.000000;,
  -0.793606;0.608432;0.000000;,
  -0.908490;0.000000;-0.417906;,
  0.908490;0.000000;0.417906;,
  0.847594;-0.034901;0.529497;,
  -0.847594;0.034901;-0.529497;,
  0.886969;0.295656;0.354787;,
  -0.886969;-0.295656;-0.354787;,
  -0.928477;0.000000;-0.371391;,
  -0.928477;0.000000;-0.371391;,
  0.928477;0.000000;0.371391;,
  0.928477;0.000000;0.371391;,
  0.000000;0.000000;-1.000000;,
  0.000000;0.000000;-1.000000;,
  0.000000;0.000000;1.000000;,
  0.000000;0.000000;1.000000;,
  0.000000;0.000000;1.000000;,
  0.000000;0.000000;1.000000;,
  0.000000;0.000000;-1.000000;,
  0.000000;0.000000;-1.000000;,
  0.000000;-0.932005;0.362446;,
  0.000000;-0.932005;0.362446;,
  0.000000;0.932005;-0.362446;,
  0.000000;0.932005;-0.362446;,
  0.000000;-1.000000;0.000000;,
  0.000000;-1.000000;0.000000;,
  0.000000;1.000000;0.000000;,
  0.000000;1.000000;0.000000;,
  0.000000;-0.924678;-0.380750;,
  0.000000;-0.924678;-0.380750;,
  0.000000;0.924678;0.380750;,
  0.000000;0.924678;0.380750;,
  0.000000;0.000000;-1.000000;,
  0.000000;0.000000;-1.000000;,
  0.000000;0.000000;1.000000;,
  0.000000;0.000000;1.000000;,
  0.015150;-0.999885;0.000000;,
  0.015150;-0.999885;0.000000;,
  -0.015150;0.999885;0.000000;,
  -0.015150;0.999885;0.000000;,
  0.017997;-0.999838;0.000000;,
  0.017997;-0.999838;0.000000;,
  -0.017997;0.999838;0.000000;,
  -0.017997;0.999838;0.000000;,
  -0.017997;-0.999838;0.000000;,
  -0.017997;-0.999838;0.000000;,
  0.017997;0.999838;0.000000;,
  0.017997;0.999838;0.000000;,
  -0.015150;-0.999885;0.000000;,
  -0.015150;-0.999885;0.000000;,
  0.015150;0.999885;0.000000;,
  0.015150;0.999885;0.000000;,
  0.269101;0.904720;0.330252;,
  -0.269101;-0.904720;-0.330252;,
  0.269101;-0.904720;-0.330252;,
  -0.269101;0.904720;0.330252;,
  0.000000;-0.884569;-0.466409;,
  0.000000;0.884569;0.466409;,
  0.000000;1.000000;-0.000357;,
  0.000000;1.000000;-0.000357;,
  0.000000;-1.000000;0.000357;,
  0.000000;-1.000000;0.000357;,
  0.000000;0.652940;-0.757410;,
  0.000000;0.652940;-0.757410;,
  0.000000;-0.652940;0.757410;,
  0.000000;-0.652940;0.757410;,
  -1.000000;0.000000;0.000000;,
  -1.000000;0.000000;0.000000;,
  1.000000;0.000000;0.000000;,
  1.000000;0.000000;0.000000;,
  -0.015150;0.999885;0.000000;,
  -0.015150;0.999885;0.000000;,
  0.015150;-0.999885;0.000000;,
  0.015150;-0.999885;0.000000;,
  -0.793606;0.608432;0.000000;,
  -0.793606;0.608432;0.000000;,
  0.793606;-0.608432;0.000000;,
  0.793606;-0.608432;0.000000;,
  -0.999153;0.041142;0.000000;,
  -0.999153;0.041142;0.000000;,
  0.999153;-0.041142;0.000000;,
  0.999153;-0.041142;0.000000;,
  -0.948683;-0.316228;0.000000;,
  -0.948683;-0.316228;0.000000;,
  0.948683;0.316228;0.000000;,
  0.948683;0.316228;0.000000;,
  -1.000000;0.000000;0.000000;,
  -1.000000;0.000000;0.000000;,
  1.000000;0.000000;0.000000;,
  1.000000;0.000000;0.000000;,
  -1.000000;0.000000;0.000000;,
  -1.000000;0.000000;0.000000;,
  1.000000;0.000000;0.000000;,
  1.000000;0.000000;0.000000;,
  -1.000000;0.000000;0.000000;,
  -1.000000;0.000000;0.000000;,
  1.000000;0.000000;0.000000;,
  1.000000;0.000000;0.000000;,
  -0.015150;-0.999885;0.000000;,
  -0.015150;-0.999885;0.000000;,
  0.015150;0.999885;0.000000;,
  0.015150;0.999885;0.000000;,
  -0.793606;-0.608432;0.000000;,
  -0.793606;-0.608432;0.000000;,
  0.793606;0.608432;0.000000;,
  0.793606;0.608432;0.000000;,
  -0.999153;-0.041142;0.000000;,
  -0.999153;-0.041142;0.000000;,
  0.999153;0.041142;0.000000;,
  0.999153;0.041142;0.000000;,
  -0.948683;0.316228;0.000000;,
  -0.948683;0.316228;0.000000;,
  0.948683;-0.316228;0.000000;,
  0.948683;-0.316228;0.000000;,
  -1.000000;0.000000;0.000000;,
  -1.000000;0.000000;0.000000;,
  1.000000;0.000000;0.000000;,
  1.000000;0.000000;0.000000;,
  -1.000000;0.000000;0.000000;,
  -1.000000;0.000000;0.000000;,
  1.000000;0.000000;0.000000;,
  1.000000;0.000000;0.000000;,
  1.000000;0.000000;0.000000;,
  1.000000;0.000000;0.000000;,
  -1.000000;0.000000;0.000000;,
  -1.000000;0.000000;0.000000;,
  0.015150;-0.999885;0.000000;,
  0.015150;-0.999885;0.000000;,
  -0.015150;0.999885;0.000000;,
  -0.015150;0.999885;0.000000;,
  0.793606;-0.608432;0.000000;,
  0.793606;-0.608432;0.000000;,
  -0.793606;0.608432;0.000000;,
  -0.793606;0.608432;0.000000;,
  0.999153;-0.041142;0.000000;,
  0.999153;-0.041142;0.000000;,
  -0.999153;0.041142;0.000000;,
  -0.999153;0.041142;0.000000;,
  0.948683;0.316228;0.000000;,
  0.948683;0.316228;0.000000;,
  -0.948683;-0.316228;0.000000;,
  -0.948683;-0.316228;0.000000;,
  1.000000;0.000000;0.000000;,
  1.000000;0.000000;0.000000;,
  -1.000000;0.000000;0.000000;,
  -1.000000;0.000000;0.000000;,
  1.000000;0.000000;0.000000;,
  1.000000;0.000000;0.000000;,
  -1.000000;0.000000;0.000000;,
  -1.000000;0.000000;0.000000;,
  1.000000;0.000000;0.000000;,
  1.000000;0.000000;0.000000;,
  -1.000000;0.000000;0.000000;,
  -1.000000;0.000000;0.000000;,
  0.015150;0.999885;0.000000;,
  0.015150;0.999885;0.000000;,
  -0.015150;-0.999885;0.000000;,
  -0.015150;-0.999885;0.000000;,
  0.793606;0.608432;0.000000;,
  0.793606;0.608432;0.000000;,
  -0.793606;-0.608432;0.000000;,
  -0.793606;-0.608432;0.000000;,
  0.999153;0.041142;0.000000;,
  0.999153;0.041142;0.000000;,
  -0.999153;-0.041142;0.000000;,
  -0.999153;-0.041142;0.000000;,
  0.948683;-0.316228;0.000000;,
  0.948683;-0.316228;0.000000;,
  -0.948683;0.316228;0.000000;,
  -0.948683;0.316228;0.000000;,
  1.000000;0.000000;0.000000;,
  1.000000;0.000000;0.000000;,
  -1.000000;0.000000;0.000000;,
  -1.000000;0.000000;0.000000;,
  1.000000;0.000000;0.000000;,
  1.000000;0.000000;0.000000;,
  -1.000000;0.000000;0.000000;,
  -1.000000;0.000000;0.000000;,
  -0.731055;0.682318;0.000000;,
  -0.731055;0.682318;0.000000;,
  0.731055;-0.682318;0.000000;,
  0.731055;-0.682318;0.000000;,
  -0.793606;0.608432;0.000000;,
  -0.793606;0.608432;0.000000;,
  0.793606;-0.608432;0.000000;,
  0.793606;-0.608432;0.000000;,
  -0.999153;0.041142;0.000000;,
  -0.999153;0.041142;0.000000;,
  0.999153;-0.041142;0.000000;,
  0.999153;-0.041142;0.000000;,
  -0.948683;-0.316228;0.000000;,
  -0.948683;-0.316228;0.000000;,
  0.948683;0.316228;0.000000;,
  0.948683;0.316228;0.000000;,
  -1.000000;0.000000;0.000000;,
  -1.000000;0.000000;0.000000;,
  1.000000;0.000000;0.000000;,
  1.000000;0.000000;0.000000;,
  -1.000000;0.000000;0.000000;,
  -1.000000;0.000000;0.000000;,
  1.000000;0.000000;0.000000;,
  1.000000;0.000000;0.000000;,
  -0.731055;-0.682318;0.000000;,
  -0.731055;-0.682318;0.000000;,
  0.731055;0.682318;0.000000;,
  0.731055;0.682318;0.000000;,
  -0.793606;-0.608432;0.000000;,
  -0.793606;-0.608432;0.000000;,
  0.793606;0.608432;0.000000;,
  0.793606;0.608432;0.000000;,
  -0.999153;-0.041142;0.000000;,
  -0.999153;-0.041142;0.000000;,
  0.999153;0.041142;0.000000;,
  0.999153;0.041142;0.000000;,
  -0.948683;0.316228;0.000000;,
  -0.948683;0.316228;0.000000;,
  0.948683;-0.316228;0.000000;,
  0.948683;-0.316228;0.000000;,
  -1.000000;0.000000;0.000000;,
  -1.000000;0.000000;0.000000;,
  1.000000;0.000000;0.000000;,
  1.000000;0.000000;0.000000;,
  -1.000000;0.000000;0.000000;,
  -1.000000;0.000000;0.000000;,
  1.000000;0.000000;0.000000;,
  1.000000;0.000000;0.000000;,
  0.731055;-0.682318;0.000000;,
  0.731055;-0.682318;0.000000;,
  -0.731055;0.682318;0.000000;,
  -0.731055;0.682318;0.000000;,
  0.793606;-0.608432;0.000000;,
  0.793606;-0.608432;0.000000;,
  -0.793606;0.608432;0.000000;,
  -0.793606;0.608432;0.000000;,
  -0.731055;-0.682318;0.000000;,
  0.731055;0.682318;0.000000;,
  -0.731055;-0.682318;0.000000;,
  0.731055;0.682318;0.000000;,
  -0.793606;-0.608432;0.000000;,
  0.793606;0.608432;0.000000;,
  -0.793606;-0.608432;0.000000;,
  0.793606;0.608432;0.000000;,
  0.678616;-0.633375;0.371908;,
  1.000000;0.000000;-0.000980;,
  -0.876941;0.000000;-0.480598;,
  -0.731055;0.682318;0.000717;,
  0.678616;0.633375;-0.371908;,
  1.000000;0.000000;0.000980;,
  -0.876941;0.000000;0.480598;,
  -0.731055;-0.682318;-0.000717;,
  -1.000000;0.000000;0.000000;,
  -1.000000;0.000000;0.000000;,
  1.000000;0.000000;0.000000;,
  1.000000;0.000000;0.000000;,
  -1.000000;0.000000;0.000000;,
  -1.000000;0.000000;0.000000;,
  1.000000;0.000000;0.000000;,
  1.000000;0.000000;0.000000;,
  0.000000;0.000000;-1.000000;,
  0.000000;0.000000;-1.000000;,
  -1.000000;0.000000;0.000000;,
  -1.000000;0.000000;0.000000;,
  0.000000;0.000000;1.000000;,
  0.000000;0.000000;1.000000;,
  1.000000;0.000000;0.000000;,
  1.000000;0.000000;0.000000;,
  0.000000;1.000000;0.000000;,
  0.000000;1.000000;0.000000;,
  0.000000;-1.000000;0.000000;,
  0.000000;-1.000000;0.000000;;
  322;
  3;0,0,0;,
  3;1,1,1;,
  3;2,2,2;,
  3;3,3,3;,
  3;4,4,4;,
  3;5,5,5;,
  3;6,6,6;,
  3;7,7,7;,
  3;8,8,8;,
  3;9,9,9;,
  3;10,10,10;,
  3;11,11,11;,
  3;12,12,12;,
  3;13,13,13;,
  3;14,14,14;,
  3;15,15,15;,
  3;16,16,16;,
  3;17,17,17;,
  3;18,18,18;,
  3;19,19,19;,
  3;20,20,20;,
  3;21,21,21;,
  3;22,22,22;,
  3;23,23,23;,
  3;24,24,24;,
  3;25,25,25;,
  3;26,26,26;,
  3;27,27,27;,
  3;28,28,28;,
  3;29,29,29;,
  3;30,30,30;,
  3;31,31,31;,
  3;32,32,32;,
  3;33,33,33;,
  3;34,34,34;,
  3;35,35,35;,
  3;36,36,36;,
  3;37,37,37;,
  3;38,38,38;,
  3;39,39,39;,
  3;40,40,40;,
  3;41,41,41;,
  3;42,42,42;,
  3;43,43,43;,
  3;44,44,44;,
  3;45,45,45;,
  3;46,46,46;,
  3;47,47,47;,
  3;48,48,48;,
  3;49,49,49;,
  3;50,50,50;,
  3;51,51,51;,
  3;52,52,52;,
  3;53,53,53;,
  3;54,54,54;,
  3;55,55,55;,
  3;56,56,56;,
  3;57,57,57;,
  3;58,58,58;,
  3;59,59,59;,
  3;60,60,60;,
  3;61,61,61;,
  3;62,62,62;,
  3;63,63,63;,
  3;64,64,64;,
  3;65,65,65;,
  3;66,66,66;,
  3;67,67,67;,
  3;68,68,68;,
  3;69,69,69;,
  3;70,70,70;,
  3;71,71,71;,
  3;72,72,72;,
  3;73,73,73;,
  3;74,74,74;,
  3;75,75,75;,
  3;76,76,76;,
  3;77,77,77;,
  3;78,78,78;,
  3;79,79,79;,
  3;80,80,80;,
  3;81,81,81;,
  3;82,82,82;,
  3;83,83,83;,
  3;84,84,84;,
  3;85,85,85;,
  3;86,86,86;,
  3;87,87,87;,
  3;88,88,88;,
  3;89,89,89;,
  3;90,90,90;,
  3;91,91,91;,
  3;92,92,92;,
  3;93,93,93;,
  3;94,94,94;,
  3;95,95,95;,
  3;96,96,96;,
  3;97,97,97;,
  3;98,98,98;,
  3;99,99,99;,
  3;100,100,100;,
  3;101,101,101;,
  3;102,102,102;,
  3;103,103,103;,
  3;104,104,104;,
  3;105,105,105;,
  3;106,106,106;,
  3;107,107,107;,
  3;108,108,108;,
  3;109,109,109;,
  3;110,110,110;,
  3;111,111,111;,
  3;112,112,112;,
  3;113,113,113;,
  3;114,114,114;,
  3;115,115,115;,
  3;116,116,116;,
  3;117,117,117;,
  3;118,118,118;,
  3;119,119,119;,
  3;120,120,120;,
  3;121,121,121;,
  3;122,122,122;,
  3;123,123,123;,
  3;124,124,124;,
  3;125,125,125;,
  3;126,126,126;,
  3;127,127,127;,
  3;128,128,128;,
  3;129,129,129;,
  3;130,130,130;,
  3;131,131,131;,
  3;132,132,132;,
  3;133,133,133;,
  3;134,134,134;,
  3;135,135,135;,
  3;136,136,136;,
  3;137,137,137;,
  3;138,138,138;,
  3;139,139,139;,
  3;140,140,140;,
  3;141,141,141;,
  3;142,142,142;,
  3;143,143,143;,
  3;144,144,144;,
  3;145,145,145;,
  3;146,146,146;,
  3;147,147,147;,
  3;148,148,148;,
  3;149,149,149;,
  3;150,150,150;,
  3;151,151,151;,
  3;152,152,152;,
  3;153,153,153;,
  3;154,154,154;,
  3;155,155,155;,
  3;156,156,156;,
  3;157,157,157;,
  3;158,158,158;,
  3;159,159,159;,
  3;160,160,160;,
  3;161,161,161;,
  3;162,162,162;,
  3;163,163,163;,
  3;164,164,164;,
  3;165,165,165;,
  3;166,166,166;,
  3;167,167,167;,
  3;168,168,168;,
  3;169,169,169;,
  3;170,170,170;,
  3;171,171,171;,
  3;172,172,172;,
  3;173,173,173;,
  3;174,174,174;,
  3;175,175,175;,
  3;176,176,176;,
  3;177,177,177;,
  3;178,178,178;,
  3;179,179,179;,
  3;180,180,180;,
  3;181,181,181;,
  3;182,182,182;,
  3;183,183,183;,
  3;184,184,184;,
  3;185,185,185;,
  3;186,186,186;,
  3;187,187,187;,
  3;188,188,188;,
  3;189,189,189;,
  3;190,190,190;,
  3;191,191,191;,
  3;192,192,192;,
  3;193,193,193;,
  3;194,194,194;,
  3;195,195,195;,
  3;196,196,196;,
  3;197,197,197;,
  3;198,198,198;,
  3;199,199,199;,
  3;200,200,200;,
  3;201,201,201;,
  3;202,202,202;,
  3;203,203,203;,
  3;204,204,204;,
  3;205,205,205;,
  3;206,206,206;,
  3;207,207,207;,
  3;208,208,208;,
  3;209,209,209;,
  3;210,210,210;,
  3;211,211,211;,
  3;212,212,212;,
  3;213,213,213;,
  3;214,214,214;,
  3;215,215,215;,
  3;216,216,216;,
  3;217,217,217;,
  3;218,218,218;,
  3;219,219,219;,
  3;220,220,220;,
  3;221,221,221;,
  3;222,222,222;,
  3;223,223,223;,
  3;224,224,224;,
  3;225,225,225;,
  3;226,226,226;,
  3;227,227,227;,
  3;228,228,228;,
  3;229,229,229;,
  3;230,230,230;,
  3;231,231,231;,
  3;232,232,232;,
  3;233,233,233;,
  3;234,234,234;,
  3;235,235,235;,
  3;236,236,236;,
  3;237,237,237;,
  3;238,238,238;,
  3;239,239,239;,
  3;240,240,240;,
  3;241,241,241;,
  3;242,242,242;,
  3;243,243,243;,
  3;244,244,244;,
  3;245,245,245;,
  3;246,246,246;,
  3;247,247,247;,
  3;248,248,248;,
  3;249,249,249;,
  3;250,250,250;,
  3;251,251,251;,
  3;252,252,252;,
  3;253,253,253;,
  3;254,254,254;,
  3;255,255,255;,
  3;256,256,256;,
  3;257,257,257;,
  3;258,258,258;,
  3;259,259,259;,
  3;260,260,260;,
  3;261,261,261;,
  3;262,262,262;,
  3;263,263,263;,
  3;264,264,264;,
  3;265,265,265;,
  3;266,266,266;,
  3;267,267,267;,
  3;268,268,268;,
  3;269,269,269;,
  3;270,270,270;,
  3;271,271,271;,
  3;272,272,272;,
  3;273,273,273;,
  3;274,274,274;,
  3;275,275,275;,
  3;276,276,276;,
  3;277,277,277;,
  3;278,278,278;,
  3;279,279,279;,
  3;280,280,280;,
  3;281,281,281;,
  3;282,282,282;,
  3;283,283,283;,
  3;284,284,284;,
  3;285,285,285;,
  3;286,286,286;,
  3;287,287,287;,
  3;288,288,288;,
  3;289,289,289;,
  3;290,290,290;,
  3;291,291,291;,
  3;292,292,292;,
  3;293,293,293;,
  3;294,294,294;,
  3;295,295,295;,
  3;296,296,296;,
  3;297,297,297;,
  3;298,298,298;,
  3;299,299,299;,
  3;300,300,300;,
  3;301,301,301;,
  3;302,302,302;,
  3;303,303,303;,
  3;304,304,304;,
  3;305,305,305;,
  3;306,306,306;,
  3;307,307,307;,
  3;308,308,308;,
  3;309,309,309;,
  3;310,310,310;,
  3;311,311,311;,
  3;312,312,312;,
  3;313,313,313;,
  3;314,314,314;,
  3;315,315,315;,
  3;316,316,316;,
  3;317,317,317;,
  3;318,318,318;,
  3;319,319,319;,
  3;320,320,320;,
  3;321,321,321;;
 }
}