xof 0303txt 0032

Header {
 1;
 0;
 1;
}

Mesh {
 4;
 -0.300000;-0.850000;-0.400000;,
 -0.300000;0.000000;-0.400000;,
 0.300000;0.000000;-0.400000;,
 0.300000;-0.850000;-0.400000;;
 1;
 4;0,1,2,3;;

 MeshMaterialList {
  1;
  1;
  0;

  Material {
   1.000000;1.000000;1.000000;1.000000;;
   0.000000;
   1.000000;1.000000;1.000000;;
   1.000000;1.000000;1.000000;;

   TextureFilename {
    "signal22.bmp";
   }
  }
 }

 MeshNormals {
  1;
  0.000000;0.000000;-1.000000;;
  1;
  4;0,0,0,0;;
 }

 MeshTextureCoords {
  4;
  0.000000;1.000000;,
  0.000000;0.000000;,
  1.000000;0.000000;,
  1.000000;1.000000;;
 }
}
