xof 0303txt 0032
template Vector {
 <3d82ab5e-62da-11cf-ab39-0020af71e433>
 FLOAT x;
 FLOAT y;
 FLOAT z;
}

template MeshFace {
 <3d82ab5f-62da-11cf-ab39-0020af71e433>
 DWORD nFaceVertexIndices;
 array DWORD faceVertexIndices[nFaceVertexIndices];
}

template Mesh {
 <3d82ab44-62da-11cf-ab39-0020af71e433>
 DWORD nVertices;
 array Vector vertices[nVertices];
 DWORD nFaces;
 array MeshFace faces[nFaces];
 [...]
}

template MeshNormals {
 <f6f23f43-7686-11cf-8f52-0040333594a3>
 DWORD nNormals;
 array Vector normals[nNormals];
 DWORD nFaceNormals;
 array MeshFace faceNormals[nFaceNormals];
}

template Coords2d {
 <f6f23f44-7686-11cf-8f52-0040333594a3>
 FLOAT u;
 FLOAT v;
}

template MeshTextureCoords {
 <f6f23f40-7686-11cf-8f52-0040333594a3>
 DWORD nTextureCoords;
 array Coords2d textureCoords[nTextureCoords];
}

template ColorRGBA {
 <35ff44e0-6c7c-11cf-8f52-0040333594a3>
 FLOAT red;
 FLOAT green;
 FLOAT blue;
 FLOAT alpha;
}

template ColorRGB {
 <d3e16e81-7835-11cf-8f52-0040333594a3>
 FLOAT red;
 FLOAT green;
 FLOAT blue;
}

template Material {
 <3d82ab4d-62da-11cf-ab39-0020af71e433>
 ColorRGBA faceColor;
 FLOAT power;
 ColorRGB specularColor;
 ColorRGB emissiveColor;
 [...]
}

template MeshMaterialList {
 <f6f23f42-7686-11cf-8f52-0040333594a3>
 DWORD nMaterials;
 DWORD nFaceIndexes;
 array DWORD faceIndexes[nFaceIndexes];
 [Material <3d82ab4d-62da-11cf-ab39-0020af71e433>]
}

template TextureFilename {
 <a42790e1-7810-11cf-8f52-0040333594a3>
 STRING filename;
}


Mesh {
 503;
 -0.421730;3.635960;-9.749999;,
 -0.421730;3.635960;9.704999;,
 0.000000;3.645000;9.704999;,
 0.000000;3.645000;-9.749999;,
 -1.198480;3.508380;-9.749999;,
 -1.198480;3.508380;9.704999;,
 -1.358330;3.422010;9.704999;,
 -1.358330;3.422010;-9.749999;,
 -1.385000;3.365740;-9.749999;,
 -1.385000;3.365740;9.704999;,
 0.421730;3.635960;9.704999;,
 0.421730;3.635960;-9.749999;,
 1.198480;3.508380;9.704999;,
 1.198480;3.508380;-9.749999;,
 1.358330;3.422010;-9.749999;,
 1.358330;3.422010;9.704999;,
 1.385000;3.365740;9.704999;,
 1.385000;3.365740;-9.749999;,
 1.105730;3.523320;-9.749999;,
 1.304090;3.509310;-9.749999;,
 1.358330;3.422010;-9.749999;,
 1.105730;3.508380;-9.749999;,
 1.105730;3.523320;9.684999;,
 1.105730;3.508380;9.684999;,
 1.304090;3.509310;9.684999;,
 1.358330;3.422010;9.684999;,
 -1.105730;3.508380;-9.749999;,
 -1.358330;3.422010;-9.749999;,
 -1.304090;3.509310;-9.749999;,
 -1.105730;3.523320;-9.749999;,
 -1.105730;3.508380;9.684999;,
 -1.105730;3.523320;9.684999;,
 -1.358330;3.422010;9.684999;,
 -1.304090;3.509310;9.684999;,
 -1.385000;1.418880;9.704999;,
 -1.385000;3.365740;9.704999;,
 -1.385000;3.365740;-9.749999;,
 -1.385000;1.418880;-9.749999;,
 -1.315750;0.900000;-9.749999;,
 -1.315750;0.900000;9.704999;,
 1.105730;3.523320;-9.749999;,
 1.105730;3.508380;-9.749999;,
 1.105730;3.523320;9.684999;,
 1.105730;3.508380;9.684999;,
 1.304090;3.509310;-9.749999;,
 1.304090;3.509310;9.684999;,
 1.358330;3.422010;9.684999;,
 1.358330;3.422010;-9.749999;,
 1.105730;3.523320;-9.749999;,
 1.105730;3.523320;9.684999;,
 -1.105730;3.508380;-9.749999;,
 -1.105730;3.523320;-9.749999;,
 -1.105730;3.508380;9.684999;,
 -1.105730;3.523320;9.684999;,
 -1.358330;3.422010;-9.749999;,
 -1.358330;3.422010;9.684999;,
 -1.304090;3.509310;9.684999;,
 -1.304090;3.509310;-9.749999;,
 -1.105730;3.523320;9.684999;,
 -1.105730;3.523320;-9.749999;,
 1.385000;1.418880;9.704999;,
 1.315750;0.900000;9.704999;,
 1.315750;0.900000;-9.749999;,
 1.385000;1.418880;-9.749999;,
 1.385000;3.365740;-9.749999;,
 1.385000;3.365740;9.704999;,
 -1.385000;1.418880;-9.749999;,
 0.000000;3.645000;-9.749999;,
 0.000000;1.418880;-9.749999;,
 0.000000;0.900000;-9.749999;,
 -1.315750;0.900000;-9.749999;,
 -1.198480;3.508380;-9.749999;,
 -0.421730;3.635960;-9.749999;,
 1.385000;1.418880;-9.749999;,
 1.315750;0.900000;-9.749999;,
 1.198480;3.508380;-9.749999;,
 1.358330;3.422010;-9.749999;,
 -1.358330;3.422010;-9.749999;,
 -0.421730;3.635960;-9.749999;,
 -1.385000;3.365740;-9.749999;,
 -1.358330;3.422010;-9.749999;,
 0.421730;3.635960;-9.749999;,
 0.000000;3.645000;-9.749999;,
 0.421730;3.635960;-9.749999;,
 1.358330;3.422010;-9.749999;,
 1.385000;3.365740;-9.749999;,
 -0.400000;3.189800;-10.499999;,
 0.400000;3.189800;-10.499999;,
 0.400000;1.016100;-10.499999;,
 -0.400000;1.016100;-10.499999;,
 -0.400000;1.016100;-10.499999;,
 -0.400000;1.016100;-9.684279;,
 -0.400000;3.189800;-9.684269;,
 -0.400000;3.189800;-10.499999;,
 0.400000;1.016100;-10.499999;,
 0.400000;1.016100;-9.684279;,
 0.400000;3.189800;-9.684269;,
 0.400000;3.189800;-10.499999;,
 -0.400000;1.016100;-9.684279;,
 -0.400000;1.016100;-10.499999;,
 -0.400000;3.189800;-10.499999;,
 -0.400000;3.189800;-9.684269;,
 0.400000;1.016100;-9.684279;,
 0.400000;1.016100;-10.499999;,
 0.400000;3.189800;-10.499999;,
 0.400000;3.189800;-9.684269;,
 1.073240;1.019550;9.222410;,
 1.073240;0.000000;9.222410;,
 1.073230;0.000000;-9.033199;,
 1.073230;1.019550;-9.033199;,
 -1.073240;1.019550;-9.033199;,
 -1.073240;0.000000;-9.033199;,
 -1.073230;0.000000;9.222410;,
 -1.073230;1.019550;9.222410;,
 1.073230;1.019550;-9.033199;,
 1.073230;0.000000;-9.033199;,
 -1.073240;0.000000;-9.033199;,
 -1.073240;1.019550;-9.033199;,
 -1.073230;1.019550;9.222410;,
 -1.073230;0.000000;9.222410;,
 1.073240;0.000000;9.222410;,
 1.073240;1.019550;9.222410;,
 1.218390;0.261430;9.495429;,
 1.193770;0.262640;9.715779;,
 1.129670;0.268070;9.674770;,
 1.144430;0.268070;9.474749;,
 1.016510;0.265960;9.845450;,
 0.990910;0.268070;9.774789;,
 0.567320;0.268070;9.854789;,
 0.567320;0.268070;9.774789;,
 -0.704540;0.268070;9.854789;,
 -0.704540;0.268070;9.774789;,
 -1.193770;0.262640;9.715779;,
 -1.218390;0.261430;9.495429;,
 -1.144430;0.268070;9.474749;,
 -1.129670;0.268070;9.674770;,
 -1.016500;0.265960;9.845450;,
 -0.990900;0.268070;9.774789;,
 1.207480;1.064090;9.642399;,
 1.213740;1.064090;9.403239;,
 1.067540;1.064090;9.774779;,
 0.567320;1.064090;9.774779;,
 -0.704540;1.064090;9.774779;,
 -1.213740;1.064090;9.403239;,
 -1.207480;1.064090;9.642399;,
 -1.067560;1.064090;9.774789;,
 1.288350;1.064090;9.423258;,
 1.272170;1.064090;9.683159;,
 1.093370;1.064090;9.845450;,
 0.567320;1.064090;9.854779;,
 -0.704540;1.064090;9.854779;,
 -1.288350;1.064090;9.423258;,
 -1.272170;1.064090;9.683159;,
 -1.093390;1.064090;9.845450;,
 1.144430;0.268070;9.474749;,
 1.129670;0.268070;9.674770;,
 0.990910;0.268070;9.774789;,
 0.567320;0.268070;9.774789;,
 -0.704540;0.268070;9.774789;,
 -1.129670;0.268070;9.674770;,
 -1.144430;0.268070;9.474749;,
 -0.990900;0.268070;9.774789;,
 1.218390;0.261430;9.495429;,
 1.144430;0.268070;9.474749;,
 1.213740;1.064090;9.403239;,
 1.288350;1.064090;9.423258;,
 1.193770;0.262640;9.715779;,
 1.218390;0.261430;9.495429;,
 1.016510;0.265960;9.845450;,
 0.567320;0.268070;9.854789;,
 -0.704540;0.268070;9.854789;,
 -1.213740;1.064090;9.403239;,
 -1.144430;0.268070;9.474749;,
 -1.218390;0.261430;9.495429;,
 -1.288350;1.064090;9.423258;,
 -1.218390;0.261430;9.495429;,
 -1.193770;0.262640;9.715779;,
 -1.016500;0.265960;9.845450;,
 -1.093390;1.064090;9.845450;,
 -1.067560;1.064090;9.774789;,
 -0.990900;0.268070;9.774789;,
 -1.016500;0.265960;9.845450;,
 -0.911690;3.551740;9.336570;,
 -0.911690;3.802940;9.328479;,
 -0.734900;3.802940;9.336570;,
 -0.734900;3.551740;9.336570;,
 0.094510;3.599230;8.773179;,
 0.094510;3.850430;8.765079;,
 -0.094510;3.850430;8.756419;,
 -0.094510;3.599230;8.773179;,
 0.094510;3.599230;8.773179;,
 -0.094510;3.599230;8.773179;,
 -0.094510;3.850430;8.756419;,
 0.094510;3.850430;8.765079;,
 -0.911690;3.551740;9.336570;,
 -0.734900;3.551740;9.336570;,
 -0.734900;3.802940;9.336570;,
 -0.911690;3.802940;9.328479;,
 -1.083670;3.747280;2.605140;,
 -1.083670;3.533030;2.605140;,
 -0.707880;3.533030;2.605140;,
 -0.707880;4.007800;2.605140;,
 -0.373610;3.533030;2.605140;,
 -0.373610;4.080130;2.605140;,
 -1.083670;3.533030;-2.605140;,
 -1.083670;3.747280;-2.605140;,
 -0.707880;4.007800;2.605140;,
 -0.707880;4.007800;-2.605140;,
 -0.373610;4.080130;-2.605140;,
 -0.373610;4.080130;2.605140;,
 0.000000;4.101719;2.605140;,
 0.000000;3.533030;2.605140;,
 0.000000;4.101719;-2.605140;,
 0.000000;4.101719;2.605140;,
 0.707880;4.007800;2.605140;,
 0.707880;3.533030;2.605140;,
 1.083670;3.533030;2.605140;,
 1.083670;3.747280;2.605140;,
 0.373610;4.080130;2.605140;,
 0.373610;3.533030;2.605140;,
 1.083670;3.747280;-2.605140;,
 1.083670;3.533030;-2.605140;,
 0.707880;4.007800;-2.605140;,
 0.707880;4.007800;2.605140;,
 0.373610;4.080130;2.605140;,
 0.373610;4.080130;-2.605140;,
 -1.083670;3.747280;-2.605140;,
 -0.707880;4.007800;-2.605140;,
 -0.707880;3.533030;-2.605140;,
 -1.083670;3.533030;-2.605140;,
 -0.373610;4.080130;-2.605140;,
 -0.373610;3.533030;-2.605140;,
 0.000000;4.101719;-2.605140;,
 0.000000;3.533030;-2.605140;,
 0.707880;4.007800;-2.605140;,
 1.083670;3.747280;-2.605140;,
 1.083670;3.533030;-2.605140;,
 0.707880;3.533030;-2.605140;,
 0.373610;4.080130;-2.605140;,
 0.373610;3.533030;-2.605140;,
 -1.083670;3.533030;2.605140;,
 -1.083670;3.747280;2.605140;,
 1.083670;3.747280;2.605140;,
 1.083670;3.533030;2.605140;,
 0.552290;3.847790;7.110590;,
 0.552290;3.847790;7.939410;,
 0.552290;3.603410;7.939410;,
 0.552290;3.603410;7.110590;,
 0.537020;3.879120;7.110590;,
 0.537020;3.879120;7.939410;,
 0.300000;3.847790;7.939410;,
 0.300000;3.879120;7.939410;,
 0.300000;3.603410;7.939410;,
 0.047710;3.847790;7.939410;,
 0.047710;3.847790;7.110590;,
 0.047710;3.603410;7.110590;,
 0.047710;3.603410;7.939410;,
 0.062980;3.879120;7.110590;,
 0.062980;3.879120;7.939410;,
 0.300000;3.847790;7.110590;,
 0.300000;3.879120;7.110590;,
 0.537020;3.879120;7.110590;,
 0.552290;3.847790;7.110590;,
 0.552290;3.603410;7.110590;,
 0.300000;3.603410;7.110590;,
 0.047710;3.847790;7.110590;,
 0.062980;3.879120;7.110590;,
 0.047710;3.603410;7.110590;,
 -0.552290;3.847790;4.910590;,
 -0.552290;3.603410;4.910590;,
 -0.552290;3.603410;5.739410;,
 -0.552290;3.847790;5.739410;,
 -0.537020;3.879120;5.739410;,
 -0.537020;3.879120;4.910590;,
 -0.300000;3.847790;5.739410;,
 -0.300000;3.879120;5.739410;,
 -0.300000;3.603410;5.739410;,
 -0.047710;3.847790;5.739410;,
 -0.047710;3.603410;5.739410;,
 -0.047710;3.603410;4.910590;,
 -0.047710;3.847790;4.910590;,
 -0.062980;3.879120;4.910590;,
 -0.062980;3.879120;5.739410;,
 -0.300000;3.847790;4.910590;,
 -0.552290;3.847790;4.910590;,
 -0.537020;3.879120;4.910590;,
 -0.300000;3.879120;4.910590;,
 -0.300000;3.603410;4.910590;,
 -0.552290;3.603410;4.910590;,
 -0.047710;3.847790;4.910590;,
 -0.062980;3.879120;4.910590;,
 -0.047710;3.603410;4.910590;,
 -0.552290;3.847790;-3.589410;,
 -0.552290;3.603410;-3.589410;,
 -0.552290;3.603410;-2.760590;,
 -0.552290;3.847790;-2.760590;,
 -0.537020;3.879120;-2.760590;,
 -0.537020;3.879120;-3.589410;,
 -0.300000;3.847790;-2.760590;,
 -0.300000;3.879120;-2.760590;,
 -0.300000;3.603410;-2.760590;,
 -0.047710;3.847790;-2.760590;,
 -0.047710;3.603410;-2.760590;,
 -0.047710;3.603410;-3.589410;,
 -0.047710;3.847790;-3.589410;,
 -0.062980;3.879120;-3.589410;,
 -0.062980;3.879120;-2.760590;,
 -0.300000;3.847790;-3.589410;,
 -0.552290;3.847790;-3.589410;,
 -0.537020;3.879120;-3.589410;,
 -0.300000;3.879120;-3.589410;,
 -0.300000;3.603410;-3.589410;,
 -0.552290;3.603410;-3.589410;,
 -0.047710;3.847790;-3.589410;,
 -0.062980;3.879120;-3.589410;,
 -0.047710;3.603410;-3.589410;,
 0.047710;3.847790;2.710590;,
 0.047710;3.603410;2.710590;,
 0.047710;3.603410;3.539410;,
 0.047710;3.847790;3.539410;,
 0.062980;3.879120;3.539410;,
 0.062980;3.879120;2.710590;,
 0.300000;3.847790;3.539410;,
 0.300000;3.879120;3.539410;,
 0.300000;3.603410;3.539410;,
 0.552290;3.847790;3.539410;,
 0.552290;3.603410;3.539410;,
 0.552290;3.603410;2.710590;,
 0.552290;3.847790;2.710590;,
 0.537020;3.879120;2.710590;,
 0.537020;3.879120;3.539410;,
 0.300000;3.847790;2.710590;,
 0.047710;3.847790;2.710590;,
 0.062980;3.879120;2.710590;,
 0.300000;3.879120;2.710590;,
 0.300000;3.603410;2.710590;,
 0.047710;3.603410;2.710590;,
 0.552290;3.847790;2.710590;,
 0.537020;3.879120;2.710590;,
 0.552290;3.603410;2.710590;,
 0.047710;3.847790;-5.789410;,
 0.047710;3.603410;-5.789410;,
 0.047710;3.603410;-4.960590;,
 0.047710;3.847790;-4.960590;,
 0.062980;3.879120;-4.960590;,
 0.062980;3.879120;-5.789410;,
 0.300000;3.847790;-4.960590;,
 0.300000;3.879120;-4.960590;,
 0.300000;3.603410;-4.960590;,
 0.552290;3.847790;-4.960590;,
 0.552290;3.603410;-4.960590;,
 0.552290;3.603410;-5.789410;,
 0.552290;3.847790;-5.789410;,
 0.537020;3.879120;-5.789410;,
 0.537020;3.879120;-4.960590;,
 0.300000;3.847790;-5.789410;,
 0.047710;3.847790;-5.789410;,
 0.062980;3.879120;-5.789410;,
 0.300000;3.879120;-5.789410;,
 0.300000;3.603410;-5.789410;,
 0.047710;3.603410;-5.789410;,
 0.552290;3.847790;-5.789410;,
 0.537020;3.879120;-5.789410;,
 0.552290;3.603410;-5.789410;,
 -0.552290;3.847790;-7.939410;,
 -0.552290;3.603410;-7.939410;,
 -0.552290;3.603410;-7.110590;,
 -0.552290;3.847790;-7.110590;,
 -0.537020;3.879120;-7.110590;,
 -0.537020;3.879120;-7.939410;,
 -0.300000;3.847790;-7.110590;,
 -0.300000;3.879120;-7.110590;,
 -0.300000;3.603410;-7.110590;,
 -0.047710;3.847790;-7.110590;,
 -0.047710;3.603410;-7.110590;,
 -0.047710;3.603410;-7.939410;,
 -0.047710;3.847790;-7.939410;,
 -0.062980;3.879120;-7.939410;,
 -0.062980;3.879120;-7.110590;,
 -0.300000;3.847790;-7.939410;,
 -0.552290;3.847790;-7.939410;,
 -0.537020;3.879120;-7.939410;,
 -0.300000;3.879120;-7.939410;,
 -0.300000;3.603410;-7.939410;,
 -0.552290;3.603410;-7.939410;,
 -0.047710;3.847790;-7.939410;,
 -0.062980;3.879120;-7.939410;,
 -0.047710;3.603410;-7.939410;,
 0.552290;3.847790;7.939410;,
 0.537020;3.879120;7.939410;,
 0.552290;3.603410;7.939410;,
 0.047710;3.847790;7.939410;,
 0.062980;3.879120;7.939410;,
 0.047710;3.603410;7.939410;,
 -0.537020;3.879120;5.739410;,
 -0.552290;3.847790;5.739410;,
 -0.552290;3.603410;5.739410;,
 -0.047710;3.847790;5.739410;,
 -0.062980;3.879120;5.739410;,
 -0.047710;3.603410;5.739410;,
 -0.537020;3.879120;-2.760590;,
 -0.552290;3.847790;-2.760590;,
 -0.552290;3.603410;-2.760590;,
 -0.047710;3.847790;-2.760590;,
 -0.062980;3.879120;-2.760590;,
 -0.047710;3.603410;-2.760590;,
 0.062980;3.879120;3.539410;,
 0.047710;3.847790;3.539410;,
 0.047710;3.603410;3.539410;,
 0.552290;3.847790;3.539410;,
 0.537020;3.879120;3.539410;,
 0.552290;3.603410;3.539410;,
 0.062980;3.879120;-4.960590;,
 0.047710;3.847790;-4.960590;,
 0.047710;3.603410;-4.960590;,
 0.552290;3.847790;-4.960590;,
 0.537020;3.879120;-4.960590;,
 0.552290;3.603410;-4.960590;,
 -0.537020;3.879120;-7.110590;,
 -0.552290;3.847790;-7.110590;,
 -0.552290;3.603410;-7.110590;,
 -0.047710;3.847790;-7.110590;,
 -0.062980;3.879120;-7.110590;,
 -0.047710;3.603410;-7.110590;,
 1.303550;1.418880;9.904998;,
 1.303550;3.311740;9.904998;,
 1.278450;3.385020;9.904998;,
 1.198480;3.508380;9.761989;,
 1.198480;3.508380;9.704999;,
 0.421730;3.635960;9.704999;,
 0.421730;3.635960;9.761989;,
 0.419530;3.629150;9.817741;,
 1.192220;3.501570;9.817741;,
 1.315750;0.900000;9.761989;,
 1.315750;0.900000;9.704999;,
 1.385000;1.418880;9.704999;,
 1.385000;1.418880;9.761989;,
 1.377760;1.418880;9.817741;,
 1.308870;0.900000;9.797739;,
 0.000000;3.645000;9.704999;,
 0.000000;3.645000;9.761989;,
 0.000000;3.638190;9.817741;,
 1.358330;3.422010;9.761989;,
 1.358330;3.422010;9.704999;,
 1.351230;3.415200;9.817741;,
 1.385000;3.365740;9.704999;,
 1.385000;3.365740;9.761989;,
 1.377760;3.358940;9.817741;,
 0.405900;3.619100;9.889299;,
 0.396930;3.606420;9.904998;,
 1.128000;3.478840;9.904998;,
 1.153500;3.491520;9.889299;,
 1.333020;1.418880;9.889299;,
 1.238370;0.900000;9.864999;,
 1.283530;0.900000;9.829299;,
 0.000000;3.628140;9.889299;,
 0.000000;3.615450;9.904998;,
 1.314410;3.399840;9.889299;,
 1.343860;3.339810;9.889299;,
 0.396900;1.418880;9.904998;,
 0.396900;0.900000;9.864999;,
 0.000000;1.418880;9.904998;,
 0.000000;0.900000;9.904998;,
 0.396900;0.900000;9.904998;,
 -1.278450;3.385020;9.904998;,
 -1.303550;3.311740;9.904998;,
 -1.303550;1.418880;9.904998;,
 -0.421730;3.635960;9.761989;,
 -0.421730;3.635960;9.704999;,
 -1.198480;3.508380;9.704999;,
 -1.198480;3.508380;9.761989;,
 -1.192220;3.501570;9.817741;,
 -0.419530;3.629150;9.817741;,
 -1.385000;1.418880;9.761989;,
 -1.385000;1.418880;9.704999;,
 -1.315750;0.900000;9.704999;,
 -1.315750;0.900000;9.761989;,
 -1.308870;0.900000;9.797739;,
 -1.377760;1.418880;9.817741;,
 -1.358330;3.422010;9.704999;,
 -1.358330;3.422010;9.761989;,
 -1.351230;3.415200;9.817741;,
 -1.385000;3.365740;9.761989;,
 -1.385000;3.365740;9.704999;,
 -1.377760;3.358940;9.817741;,
 -1.153500;3.491520;9.889299;,
 -1.128000;3.478840;9.904998;,
 -0.396930;3.606420;9.904998;,
 -0.405900;3.619100;9.889299;,
 -1.283530;0.900000;9.829299;,
 -1.238370;0.900000;9.864999;,
 -1.333020;1.418880;9.889299;,
 -1.314410;3.399840;9.889299;,
 -1.343860;3.339810;9.889299;,
 -0.396900;0.900000;9.864999;,
 -0.396900;1.418880;9.904998;,
 -0.396900;0.900000;9.904998;,
 0.396900;1.418880;9.904998;,
 0.396900;0.900000;9.904998;,
 0.396900;0.900000;9.864999;,
 -0.396900;0.900000;9.864999;,
 -0.396900;0.900000;9.904998;,
 -0.396900;1.418880;9.904998;;
 438;
 3;0,1,2;,
 3;0,2,3;,
 3;4,5,1;,
 3;4,1,0;,
 3;6,5,4;,
 3;6,4,7;,
 3;6,7,8;,
 3;6,8,9;,
 3;3,2,10;,
 3;3,10,11;,
 3;11,10,12;,
 3;11,12,13;,
 3;14,13,12;,
 3;14,12,15;,
 3;16,17,14;,
 3;16,14,15;,
 3;18,19,20;,
 3;18,20,21;,
 3;22,40,41;,
 3;22,41,23;,
 3;24,42,43;,
 3;24,43,25;,
 3;44,45,46;,
 3;44,46,47;,
 3;44,48,49;,
 3;44,49,45;,
 3;26,27,28;,
 3;26,28,29;,
 3;30,50,51;,
 3;30,51,31;,
 3;32,52,53;,
 3;32,53,33;,
 3;54,55,56;,
 3;54,56,57;,
 3;56,58,59;,
 3;56,59,57;,
 3;34,35,36;,
 3;34,36,37;,
 3;34,37,38;,
 3;34,38,39;,
 3;60,61,62;,
 3;60,62,63;,
 3;60,63,64;,
 3;60,64,65;,
 3;66,67,68;,
 3;66,68,69;,
 3;66,69,70;,
 3;66,71,72;,
 3;68,67,73;,
 3;68,73,74;,
 3;68,74,69;,
 3;73,75,76;,
 3;66,77,71;,
 3;66,78,67;,
 3;66,79,80;,
 3;73,81,75;,
 3;73,82,83;,
 3;73,84,85;,
 3;86,87,88;,
 3;86,88,89;,
 3;90,91,92;,
 3;90,92,93;,
 3;98,99,94;,
 3;98,94,95;,
 3;96,97,100;,
 3;96,100,101;,
 3;102,103,104;,
 3;102,104,105;,
 3;106,107,108;,
 3;106,108,109;,
 3;110,111,112;,
 3;110,112,113;,
 3;114,115,116;,
 3;114,116,117;,
 3;118,119,120;,
 3;118,120,121;,
 3;122,123,124;,
 3;122,124,125;,
 3;123,126,127;,
 3;123,127,124;,
 3;126,128,129;,
 3;126,129,127;,
 3;128,130,131;,
 3;128,131,129;,
 3;132,133,134;,
 3;132,134,135;,
 3;136,132,135;,
 3;136,135,137;,
 3;130,136,137;,
 3;130,137,131;,
 3;138,139,154;,
 3;138,154,155;,
 3;140,138,155;,
 3;140,155,156;,
 3;140,156,157;,
 3;140,157,141;,
 3;141,157,158;,
 3;141,158,142;,
 3;143,144,159;,
 3;143,159,160;,
 3;144,145,161;,
 3;144,161,159;,
 3;142,158,161;,
 3;142,161,145;,
 3;146,162,163;,
 3;146,163,164;,
 3;165,147,166;,
 3;165,166,167;,
 3;147,148,168;,
 3;147,168,166;,
 3;149,169,168;,
 3;149,168,148;,
 3;150,170,169;,
 3;150,169,149;,
 3;151,171,172;,
 3;151,172,173;,
 3;152,174,175;,
 3;152,175,176;,
 3;153,152,176;,
 3;153,176,177;,
 3;178,179,180;,
 3;178,180,181;,
 3;153,177,170;,
 3;153,170,150;,
 3;182,183,184;,
 3;182,184,185;,
 3;194,195,196;,
 3;194,196,197;,
 3;186,187,188;,
 3;186,188,189;,
 3;190,191,192;,
 3;190,192,193;,
 3;198,199,200;,
 3;198,200,201;,
 3;201,200,202;,
 3;201,202,203;,
 3;204,240,241;,
 3;204,241,205;,
 3;205,241,206;,
 3;205,206,207;,
 3;208,207,206;,
 3;208,206,209;,
 3;210,203,202;,
 3;210,202,211;,
 3;212,208,209;,
 3;212,209,213;,
 3;214,215,216;,
 3;214,216,217;,
 3;218,219,215;,
 3;218,215,214;,
 3;220,242,243;,
 3;220,243,221;,
 3;222,223,242;,
 3;222,242,220;,
 3;224,223,222;,
 3;224,222,225;,
 3;211,219,218;,
 3;211,218,210;,
 3;213,224,225;,
 3;213,225,212;,
 3;226,227,228;,
 3;226,228,229;,
 3;227,230,231;,
 3;227,231,228;,
 3;232,233,231;,
 3;232,231,230;,
 3;234,235,236;,
 3;234,236,237;,
 3;238,234,237;,
 3;238,237,239;,
 3;233,232,238;,
 3;233,238,239;,
 3;244,245,246;,
 3;244,246,247;,
 3;244,248,249;,
 3;244,249,245;,
 3;250,388,389;,
 3;250,389,251;,
 3;250,252,390;,
 3;250,390,388;,
 3;253,254,255;,
 3;253,255,256;,
 3;257,254,253;,
 3;257,253,258;,
 3;391,250,251;,
 3;391,251,392;,
 3;252,250,391;,
 3;252,391,393;,
 3;259,260,261;,
 3;259,261,262;,
 3;259,262,263;,
 3;259,263,264;,
 3;265,266,260;,
 3;265,260,259;,
 3;264,267,265;,
 3;264,265,259;,
 3;268,269,270;,
 3;268,270,271;,
 3;268,271,272;,
 3;268,272,273;,
 3;274,275,394;,
 3;274,394,395;,
 3;274,395,396;,
 3;274,396,276;,
 3;277,278,279;,
 3;277,279,280;,
 3;281,282,277;,
 3;281,277,280;,
 3;397,398,275;,
 3;397,275,274;,
 3;276,399,397;,
 3;276,397,274;,
 3;283,284,285;,
 3;283,285,286;,
 3;283,287,288;,
 3;283,288,284;,
 3;289,283,286;,
 3;289,286,290;,
 3;287,283,289;,
 3;287,289,291;,
 3;292,293,294;,
 3;292,294,295;,
 3;292,295,296;,
 3;292,296,297;,
 3;298,299,400;,
 3;298,400,401;,
 3;298,401,402;,
 3;298,402,300;,
 3;301,302,303;,
 3;301,303,304;,
 3;305,306,301;,
 3;305,301,304;,
 3;403,404,299;,
 3;403,299,298;,
 3;300,405,403;,
 3;300,403,298;,
 3;307,308,309;,
 3;307,309,310;,
 3;307,311,312;,
 3;307,312,308;,
 3;313,307,310;,
 3;313,310,314;,
 3;311,307,313;,
 3;311,313,315;,
 3;316,317,318;,
 3;316,318,319;,
 3;316,319,320;,
 3;316,320,321;,
 3;322,323,406;,
 3;322,406,407;,
 3;322,407,408;,
 3;322,408,324;,
 3;325,326,327;,
 3;325,327,328;,
 3;329,330,325;,
 3;329,325,328;,
 3;409,410,323;,
 3;409,323,322;,
 3;324,411,409;,
 3;324,409,322;,
 3;331,332,333;,
 3;331,333,334;,
 3;331,335,336;,
 3;331,336,332;,
 3;337,331,334;,
 3;337,334,338;,
 3;335,331,337;,
 3;335,337,339;,
 3;340,341,342;,
 3;340,342,343;,
 3;340,343,344;,
 3;340,344,345;,
 3;346,347,412;,
 3;346,412,413;,
 3;346,413,414;,
 3;346,414,348;,
 3;349,350,351;,
 3;349,351,352;,
 3;353,354,349;,
 3;353,349,352;,
 3;415,416,347;,
 3;415,347,346;,
 3;348,417,415;,
 3;348,415,346;,
 3;355,356,357;,
 3;355,357,358;,
 3;355,359,360;,
 3;355,360,356;,
 3;361,355,358;,
 3;361,358,362;,
 3;359,355,361;,
 3;359,361,363;,
 3;364,365,366;,
 3;364,366,367;,
 3;364,367,368;,
 3;364,368,369;,
 3;370,371,418;,
 3;370,418,419;,
 3;370,419,420;,
 3;370,420,372;,
 3;373,374,375;,
 3;373,375,376;,
 3;377,378,373;,
 3;377,373,376;,
 3;421,422,371;,
 3;421,371,370;,
 3;372,423,421;,
 3;372,421,370;,
 3;379,380,381;,
 3;379,381,382;,
 3;379,383,384;,
 3;379,384,380;,
 3;385,379,382;,
 3;385,382,386;,
 3;383,379,385;,
 3;383,385,387;,
 3;424,425,426;,
 3;427,428,429;,
 3;427,429,430;,
 3;427,430,431;,
 3;427,431,432;,
 3;433,434,435;,
 3;433,435,436;,
 3;433,436,437;,
 3;433,437,438;,
 3;430,429,439;,
 3;430,439,440;,
 3;430,440,441;,
 3;430,441,431;,
 3;442,443,428;,
 3;442,428,427;,
 3;442,427,432;,
 3;442,432,444;,
 3;436,435,445;,
 3;436,445,446;,
 3;436,446,447;,
 3;436,447,437;,
 3;446,445,443;,
 3;446,443,442;,
 3;446,442,444;,
 3;446,444,447;,
 3;448,449,450;,
 3;448,450,451;,
 3;448,451,432;,
 3;448,432,431;,
 3;452,424,453;,
 3;452,453,454;,
 3;452,454,438;,
 3;452,438,437;,
 3;455,456,449;,
 3;455,449,448;,
 3;455,448,431;,
 3;455,431,441;,
 3;451,450,426;,
 3;451,426,457;,
 3;451,457,444;,
 3;451,444,432;,
 3;458,425,424;,
 3;458,424,452;,
 3;458,452,437;,
 3;458,437,447;,
 3;457,426,425;,
 3;457,425,458;,
 3;457,458,447;,
 3;457,447,444;,
 3;459,460,453;,
 3;459,453,424;,
 3;424,450,449;,
 3;424,426,450;,
 3;459,461,462;,
 3;459,462,463;,
 3;449,456,461;,
 3;449,461,459;,
 3;459,461,462;,
 3;459,462,463;,
 3;449,459,424;,
 3;497,498,499;,
 3;464,465,466;,
 3;467,468,469;,
 3;467,469,470;,
 3;471,472,467;,
 3;471,467,470;,
 3;473,474,475;,
 3;473,475,476;,
 3;477,478,473;,
 3;477,473,476;,
 3;440,439,468;,
 3;440,468,467;,
 3;472,441,440;,
 3;472,440,467;,
 3;470,469,479;,
 3;470,479,480;,
 3;481,471,470;,
 3;481,470,480;,
 3;482,483,474;,
 3;482,474,473;,
 3;478,484,482;,
 3;478,482,473;,
 3;480,479,483;,
 3;480,483,482;,
 3;484,481,480;,
 3;484,480,482;,
 3;485,486,487;,
 3;485,487,488;,
 3;472,471,485;,
 3;472,485,488;,
 3;489,490,466;,
 3;489,466,491;,
 3;478,477,489;,
 3;478,489,491;,
 3;488,487,456;,
 3;488,456,455;,
 3;441,472,488;,
 3;441,488,455;,
 3;492,464,486;,
 3;492,486,485;,
 3;471,481,492;,
 3;471,492,485;,
 3;491,466,465;,
 3;491,465,493;,
 3;484,478,491;,
 3;484,491,493;,
 3;493,465,464;,
 3;493,464,492;,
 3;481,484,493;,
 3;481,493,492;,
 3;466,490,494;,
 3;466,494,495;,
 3;487,486,466;,
 3;486,464,466;,
 3;496,462,461;,
 3;496,461,495;,
 3;495,461,456;,
 3;495,456,487;,
 3;496,462,461;,
 3;496,461,495;,
 3;466,495,487;,
 3;500,501,502;;

 MeshNormals {
  503;
  -0.091983;0.995761;0.000000;,
  -0.091983;0.995761;0.000000;,
  0.000000;1.000000;0.000000;,
  0.000000;1.000000;0.000000;,
  -0.323191;0.946334;0.000000;,
  -0.323191;0.946334;0.000000;,
  -0.725498;0.688225;0.000000;,
  -0.725498;0.688225;0.000000;,
  -0.903604;0.428369;0.000000;,
  -0.903604;0.428369;0.000000;,
  0.091983;0.995761;0.000000;,
  0.091983;0.995761;0.000000;,
  0.323191;0.946334;0.000000;,
  0.323191;0.946334;0.000000;,
  0.725498;0.688225;0.000000;,
  0.725498;0.688225;0.000000;,
  0.903604;0.428369;0.000000;,
  0.903604;0.428369;0.000000;,
  0.000000;0.000000;-1.000000;,
  0.000000;0.000000;-1.000000;,
  0.000000;0.000000;-1.000000;,
  0.000000;0.000000;-1.000000;,
  -1.000000;0.000000;0.000000;,
  -1.000000;0.000000;0.000000;,
  0.000000;0.000000;1.000000;,
  0.000000;0.000000;1.000000;,
  0.000000;0.000000;-1.000000;,
  0.000000;0.000000;-1.000000;,
  0.000000;0.000000;-1.000000;,
  0.000000;0.000000;-1.000000;,
  1.000000;0.000000;0.000000;,
  1.000000;0.000000;0.000000;,
  0.000000;0.000000;1.000000;,
  0.000000;0.000000;1.000000;,
  -0.997801;-0.066289;0.000000;,
  -1.000000;0.000000;0.000000;,
  -1.000000;0.000000;0.000000;,
  -0.997801;-0.066289;0.000000;,
  -0.991212;-0.132287;0.000000;,
  -0.991212;-0.132287;0.000000;,
  -1.000000;0.000000;0.000000;,
  -1.000000;0.000000;0.000000;,
  0.000000;0.000000;1.000000;,
  0.000000;0.000000;1.000000;,
  0.516456;0.856314;0.000000;,
  0.516456;0.856314;0.000000;,
  0.849415;0.527725;0.000000;,
  0.849415;0.527725;0.000000;,
  0.070479;0.997513;0.000000;,
  0.070479;0.997513;0.000000;,
  1.000000;0.000000;0.000000;,
  1.000000;0.000000;0.000000;,
  0.000000;0.000000;1.000000;,
  0.000000;0.000000;1.000000;,
  -0.849415;0.527725;0.000000;,
  -0.849415;0.527725;0.000000;,
  -0.516456;0.856314;0.000000;,
  -0.516456;0.856314;0.000000;,
  -0.070479;0.997513;0.000000;,
  -0.070479;0.997513;0.000000;,
  0.997801;-0.066289;0.000000;,
  0.991212;-0.132287;0.000000;,
  0.991212;-0.132287;0.000000;,
  0.997801;-0.066289;0.000000;,
  1.000000;0.000000;0.000000;,
  1.000000;0.000000;0.000000;,
  0.000000;0.000000;-1.000000;,
  0.000000;0.000000;-1.000000;,
  0.000000;0.000000;-1.000000;,
  0.000000;0.000000;-1.000000;,
  0.000000;0.000000;-1.000000;,
  0.000000;0.000000;-1.000000;,
  0.000000;0.000000;-1.000000;,
  0.000000;0.000000;-1.000000;,
  0.000000;0.000000;-1.000000;,
  0.000000;0.000000;-1.000000;,
  0.000000;0.000000;-1.000000;,
  0.000000;0.000000;-1.000000;,
  0.000000;0.000000;-1.000000;,
  0.000000;0.000000;-1.000000;,
  0.000000;0.000000;-1.000000;,
  0.000000;0.000000;-1.000000;,
  0.000000;0.000000;-1.000000;,
  0.000000;0.000000;-1.000000;,
  0.000000;0.000000;-1.000000;,
  0.000000;0.000000;-1.000000;,
  0.000000;0.000000;-1.000000;,
  0.000000;0.000000;-1.000000;,
  0.000000;0.000000;-1.000000;,
  0.000000;0.000000;-1.000000;,
  -1.000000;0.000000;0.000000;,
  -1.000000;0.000000;0.000000;,
  -1.000000;0.000000;0.000000;,
  -1.000000;0.000000;0.000000;,
  0.000000;-1.000000;0.000000;,
  0.000000;-1.000000;0.000000;,
  0.000000;1.000000;0.000000;,
  0.000000;1.000000;0.000000;,
  0.000000;-1.000000;0.000000;,
  0.000000;-1.000000;0.000000;,
  0.000000;1.000000;0.000000;,
  0.000000;1.000000;0.000000;,
  1.000000;0.000000;0.000000;,
  1.000000;0.000000;0.000000;,
  1.000000;0.000000;0.000000;,
  1.000000;0.000000;0.000000;,
  1.000000;0.000000;0.000000;,
  1.000000;0.000000;0.000000;,
  1.000000;0.000000;0.000000;,
  1.000000;0.000000;0.000000;,
  -1.000000;0.000000;0.000000;,
  -1.000000;0.000000;0.000000;,
  -1.000000;0.000000;0.000000;,
  -1.000000;0.000000;0.000000;,
  0.000000;0.000000;-1.000000;,
  0.000000;0.000000;-1.000000;,
  0.000000;0.000000;-1.000000;,
  0.000000;0.000000;-1.000000;,
  0.000000;0.000000;1.000000;,
  0.000000;0.000000;1.000000;,
  0.000000;0.000000;1.000000;,
  0.000000;0.000000;1.000000;,
  -0.084891;-0.996377;-0.005090;,
  -0.060203;-0.997976;-0.020493;,
  -0.060203;-0.997976;-0.020493;,
  -0.084891;-0.996377;-0.005090;,
  -0.019057;-0.999507;-0.024939;,
  -0.019057;-0.999507;-0.024939;,
  -0.001321;-0.999975;-0.006995;,
  -0.001321;-0.999975;-0.006995;,
  0.001896;-0.999975;-0.006787;,
  0.001896;-0.999975;-0.006787;,
  0.060208;-0.997975;-0.020496;,
  0.084896;-0.996377;-0.005093;,
  0.084896;-0.996377;-0.005093;,
  0.060208;-0.997975;-0.020496;,
  0.019634;-0.999501;-0.024732;,
  0.019634;-0.999501;-0.024732;,
  -0.891149;0.074431;-0.447565;,
  -0.994768;0.089253;-0.049699;,
  -0.338432;0.024988;-0.940659;,
  0.000000;-0.000001;-1.000000;,
  0.000000;-0.000001;-1.000000;,
  0.994768;0.089254;-0.049701;,
  0.891153;0.074439;-0.447554;,
  0.338444;0.024996;-0.940655;,
  0.258145;-0.108761;-0.959965;,
  0.881199;-0.072153;0.467206;,
  0.344104;-0.024901;0.938601;,
  0.009634;-0.000427;0.999953;,
  -0.013484;-0.000578;0.999909;,
  -0.258150;-0.108762;-0.959963;,
  -0.881204;-0.072160;0.467196;,
  -0.347725;-0.025035;0.937262;,
  -0.994768;0.089253;-0.049699;,
  -0.891149;0.074431;-0.447565;,
  -0.338432;0.024988;-0.940659;,
  0.000000;-0.000001;-1.000000;,
  0.000000;-0.000001;-1.000000;,
  0.891153;0.074439;-0.447554;,
  0.994768;0.089254;-0.049701;,
  0.338444;0.024996;-0.940655;,
  0.258145;-0.108761;-0.959965;,
  0.258145;-0.108761;-0.959965;,
  0.258145;-0.108761;-0.959965;,
  0.992466;-0.086730;0.086539;,
  0.881199;-0.072153;0.467206;,
  0.992466;-0.086730;0.086539;,
  0.344104;-0.024901;0.938601;,
  0.009634;-0.000427;0.999953;,
  -0.013484;-0.000578;0.999909;,
  -0.258150;-0.108762;-0.959963;,
  -0.258150;-0.108762;-0.959963;,
  -0.258150;-0.108762;-0.959963;,
  -0.992466;-0.086730;0.086535;,
  -0.992466;-0.086730;0.086535;,
  -0.881204;-0.072160;0.467196;,
  -0.347725;-0.025035;0.937262;,
  -0.935457;-0.090107;-0.341760;,
  -0.935457;-0.090107;-0.341760;,
  -0.935457;-0.090107;-0.341760;,
  -0.935457;-0.090107;-0.341760;,
  0.022872;-0.016096;-0.999609;,
  0.022872;-0.016096;-0.999609;,
  0.022872;-0.016096;-0.999609;,
  0.022872;-0.016096;-0.999609;,
  -0.022836;0.049367;0.998520;,
  -0.022836;0.049367;0.998520;,
  -0.022836;0.049367;0.998520;,
  -0.022836;0.049367;0.998520;,
  0.022836;-0.049367;-0.998520;,
  0.022836;-0.049367;-0.998520;,
  0.022836;-0.049367;-0.998520;,
  0.022836;-0.049367;-0.998520;,
  -0.022872;0.016096;0.999609;,
  -0.022872;0.016096;0.999609;,
  -0.022872;0.016096;0.999609;,
  -0.022872;0.016096;0.999609;,
  0.000000;0.000000;1.000000;,
  0.000000;0.000000;1.000000;,
  0.000000;0.000000;1.000000;,
  0.000000;0.000000;1.000000;,
  0.000000;0.000000;1.000000;,
  0.000000;0.000000;1.000000;,
  -1.000000;0.000000;0.000000;,
  -0.885926;0.463827;0.000000;,
  -0.398278;0.917265;0.000000;,
  -0.398278;0.917265;0.000000;,
  -0.134998;0.990846;0.000000;,
  -0.134998;0.990846;0.000000;,
  0.000000;0.000000;1.000000;,
  0.000000;0.000000;1.000000;,
  0.000000;1.000000;0.000000;,
  0.000000;1.000000;0.000000;,
  0.000000;0.000000;1.000000;,
  0.000000;0.000000;1.000000;,
  0.000000;0.000000;1.000000;,
  0.000000;0.000000;1.000000;,
  0.000000;0.000000;1.000000;,
  0.000000;0.000000;1.000000;,
  0.885926;0.463827;0.000000;,
  1.000000;0.000000;0.000000;,
  0.398278;0.917265;0.000000;,
  0.398278;0.917265;0.000000;,
  0.134998;0.990846;0.000000;,
  0.134998;0.990846;0.000000;,
  0.000000;0.000000;-1.000000;,
  0.000000;0.000000;-1.000000;,
  0.000000;0.000000;-1.000000;,
  0.000000;0.000000;-1.000000;,
  0.000000;0.000000;-1.000000;,
  0.000000;0.000000;-1.000000;,
  0.000000;0.000000;-1.000000;,
  0.000000;0.000000;-1.000000;,
  0.000000;0.000000;-1.000000;,
  0.000000;0.000000;-1.000000;,
  0.000000;0.000000;-1.000000;,
  0.000000;0.000000;-1.000000;,
  0.000000;0.000000;-1.000000;,
  0.000000;0.000000;-1.000000;,
  -1.000000;0.000000;0.000000;,
  -0.885926;0.463827;0.000000;,
  0.885926;0.463827;0.000000;,
  1.000000;0.000000;0.000000;,
  0.974395;0.224844;0.000000;,
  0.974395;0.224844;0.000000;,
  1.000000;0.000000;0.000000;,
  1.000000;0.000000;0.000000;,
  0.898890;0.438174;0.000000;,
  0.898890;0.438174;0.000000;,
  0.000000;0.000000;1.000000;,
  0.000000;0.000000;1.000000;,
  0.000000;0.000000;1.000000;,
  -0.974395;0.224844;0.000000;,
  -0.974395;0.224844;0.000000;,
  -1.000000;0.000000;0.000000;,
  -1.000000;0.000000;0.000000;,
  -0.898891;0.438173;0.000000;,
  -0.898891;0.438173;0.000000;,
  0.000000;0.000000;-1.000000;,
  0.000000;0.000000;-1.000000;,
  0.000000;0.000000;-1.000000;,
  0.000000;0.000000;-1.000000;,
  0.000000;0.000000;-1.000000;,
  0.000000;0.000000;-1.000000;,
  0.000000;0.000000;-1.000000;,
  0.000000;0.000000;-1.000000;,
  0.000000;0.000000;-1.000000;,
  -0.974395;0.224844;0.000000;,
  -1.000000;0.000000;0.000000;,
  -1.000000;0.000000;0.000000;,
  -0.974395;0.224844;0.000000;,
  -0.898890;0.438174;0.000000;,
  -0.898890;0.438174;0.000000;,
  0.000000;0.000000;1.000000;,
  0.000000;0.000000;1.000000;,
  0.000000;0.000000;1.000000;,
  0.974395;0.224844;0.000000;,
  1.000000;0.000000;0.000000;,
  1.000000;0.000000;0.000000;,
  0.974395;0.224844;0.000000;,
  0.898891;0.438173;0.000000;,
  0.898891;0.438173;0.000000;,
  0.000000;0.000000;-1.000000;,
  0.000000;0.000000;-1.000000;,
  0.000000;0.000000;-1.000000;,
  0.000000;0.000000;-1.000000;,
  0.000000;0.000000;-1.000000;,
  0.000000;0.000000;-1.000000;,
  0.000000;0.000000;-1.000000;,
  0.000000;0.000000;-1.000000;,
  0.000000;0.000000;-1.000000;,
  -0.974395;0.224844;0.000000;,
  -1.000000;0.000000;0.000000;,
  -1.000000;0.000000;0.000000;,
  -0.974395;0.224844;0.000000;,
  -0.898890;0.438174;0.000000;,
  -0.898890;0.438174;0.000000;,
  0.000000;0.000000;1.000000;,
  0.000000;0.000000;1.000000;,
  0.000000;0.000000;1.000000;,
  0.974395;0.224844;0.000000;,
  1.000000;0.000000;0.000000;,
  1.000000;0.000000;0.000000;,
  0.974395;0.224844;0.000000;,
  0.898891;0.438173;0.000000;,
  0.898891;0.438173;0.000000;,
  0.000000;0.000000;-1.000000;,
  0.000000;0.000000;-1.000000;,
  0.000000;0.000000;-1.000000;,
  0.000000;0.000000;-1.000000;,
  0.000000;0.000000;-1.000000;,
  0.000000;0.000000;-1.000000;,
  0.000000;0.000000;-1.000000;,
  0.000000;0.000000;-1.000000;,
  0.000000;0.000000;-1.000000;,
  -0.974395;0.224844;0.000000;,
  -1.000000;0.000000;0.000000;,
  -1.000000;0.000000;0.000000;,
  -0.974395;0.224844;0.000000;,
  -0.898891;0.438173;0.000000;,
  -0.898891;0.438173;0.000000;,
  0.000000;0.000000;1.000000;,
  0.000000;0.000000;1.000000;,
  0.000000;0.000000;1.000000;,
  0.974395;0.224844;0.000000;,
  1.000000;0.000000;0.000000;,
  1.000000;0.000000;0.000000;,
  0.974395;0.224844;0.000000;,
  0.898890;0.438174;0.000000;,
  0.898890;0.438174;0.000000;,
  0.000000;0.000000;-1.000000;,
  0.000000;0.000000;-1.000000;,
  0.000000;0.000000;-1.000000;,
  0.000000;0.000000;-1.000000;,
  0.000000;0.000000;-1.000000;,
  0.000000;0.000000;-1.000000;,
  0.000000;0.000000;-1.000000;,
  0.000000;0.000000;-1.000000;,
  0.000000;0.000000;-1.000000;,
  -0.974395;0.224844;0.000000;,
  -1.000000;0.000000;0.000000;,
  -1.000000;0.000000;0.000000;,
  -0.974395;0.224844;0.000000;,
  -0.898891;0.438173;0.000000;,
  -0.898891;0.438173;0.000000;,
  0.000000;0.000000;1.000000;,
  0.000000;0.000000;1.000000;,
  0.000000;0.000000;1.000000;,
  0.974395;0.224844;0.000000;,
  1.000000;0.000000;0.000000;,
  1.000000;0.000000;0.000000;,
  0.974395;0.224844;0.000000;,
  0.898890;0.438174;0.000000;,
  0.898890;0.438174;0.000000;,
  0.000000;0.000000;-1.000000;,
  0.000000;0.000000;-1.000000;,
  0.000000;0.000000;-1.000000;,
  0.000000;0.000000;-1.000000;,
  0.000000;0.000000;-1.000000;,
  0.000000;0.000000;-1.000000;,
  0.000000;0.000000;-1.000000;,
  0.000000;0.000000;-1.000000;,
  0.000000;0.000000;-1.000000;,
  -0.974395;0.224844;0.000000;,
  -1.000000;0.000000;0.000000;,
  -1.000000;0.000000;0.000000;,
  -0.974395;0.224844;0.000000;,
  -0.898890;0.438174;0.000000;,
  -0.898890;0.438174;0.000000;,
  0.000000;0.000000;1.000000;,
  0.000000;0.000000;1.000000;,
  0.000000;0.000000;1.000000;,
  0.974395;0.224844;0.000000;,
  1.000000;0.000000;0.000000;,
  1.000000;0.000000;0.000000;,
  0.974395;0.224844;0.000000;,
  0.898891;0.438173;0.000000;,
  0.898891;0.438173;0.000000;,
  0.000000;0.000000;-1.000000;,
  0.000000;0.000000;-1.000000;,
  0.000000;0.000000;-1.000000;,
  0.000000;0.000000;-1.000000;,
  0.000000;0.000000;-1.000000;,
  0.000000;0.000000;-1.000000;,
  0.000000;0.000000;-1.000000;,
  0.000000;0.000000;-1.000000;,
  0.000000;0.000000;-1.000000;,
  0.000000;0.000000;1.000000;,
  0.000000;0.000000;1.000000;,
  0.000000;0.000000;1.000000;,
  0.000000;0.000000;1.000000;,
  0.000000;0.000000;1.000000;,
  0.000000;0.000000;1.000000;,
  0.000000;0.000000;1.000000;,
  0.000000;0.000000;1.000000;,
  0.000000;0.000000;1.000000;,
  0.000000;0.000000;1.000000;,
  0.000000;0.000000;1.000000;,
  0.000000;0.000000;1.000000;,
  0.000000;0.000000;1.000000;,
  0.000000;0.000000;1.000000;,
  0.000000;0.000000;1.000000;,
  0.000000;0.000000;1.000000;,
  0.000000;0.000000;1.000000;,
  0.000000;0.000000;1.000000;,
  0.000000;0.000000;1.000000;,
  0.000000;0.000000;1.000000;,
  0.000000;0.000000;1.000000;,
  0.000000;0.000000;1.000000;,
  0.000000;0.000000;1.000000;,
  0.000000;0.000000;1.000000;,
  0.000000;0.000000;1.000000;,
  0.000000;0.000000;1.000000;,
  0.000000;0.000000;1.000000;,
  0.000000;0.000000;1.000000;,
  0.000000;0.000000;1.000000;,
  0.000000;0.000000;1.000000;,
  0.000000;0.000000;1.000000;,
  0.000000;0.000000;1.000000;,
  0.000000;0.000000;1.000000;,
  0.000000;0.000000;1.000000;,
  0.000000;0.000000;1.000000;,
  0.000000;0.000000;1.000000;,
  0.141038;-0.032275;0.989478;,
  0.249935;0.045105;0.967212;,
  0.147774;0.144729;0.978374;,
  0.322463;0.943631;0.074694;,
  0.323191;0.946334;0.000000;,
  0.091983;0.995761;0.000000;,
  0.091892;0.993737;0.063581;,
  0.091892;0.984757;0.147683;,
  0.316651;0.922327;0.221460;,
  0.987899;-0.133485;0.078975;,
  0.991212;-0.132287;0.000000;,
  0.997800;-0.066290;0.000000;,
  0.995168;-0.066859;0.071904;,
  0.936581;-0.070473;0.343292;,
  0.916385;-0.139888;0.375061;,
  0.000000;1.000000;0.000000;,
  0.000000;0.998143;0.060908;,
  0.000000;0.991333;0.131375;,
  0.723094;0.685296;0.086629;,
  0.725498;0.688225;0.000000;,
  0.687322;0.654598;0.314785;,
  0.975603;0.219541;0.000000;,
  0.972924;0.218358;0.075755;,
  0.922152;0.207539;0.326441;,
  0.084315;0.896622;0.434695;,
  0.030383;0.323228;0.945833;,
  0.100663;0.301457;0.948151;,
  0.264495;0.776709;0.571635;,
  0.686029;-0.073660;0.723836;,
  0.282729;-0.114062;0.952394;,
  0.686379;-0.142698;0.713106;,
  0.000000;0.916132;0.400877;,
  0.000000;0.429293;0.903165;,
  0.494221;0.476985;0.726795;,
  0.643889;0.136740;0.752801;,
  0.000000;-0.015379;0.999882;,
  0.000000;-0.076861;0.997042;,
  0.000000;0.000000;1.000000;,
  0.000000;0.000000;1.000000;,
  0.000000;0.000000;1.000000;,
  -0.147774;0.144729;0.978374;,
  -0.249935;0.045105;0.967212;,
  -0.141038;-0.032275;0.989478;,
  -0.091892;0.993737;0.063581;,
  -0.091983;0.995761;0.000000;,
  -0.323191;0.946334;0.000000;,
  -0.322463;0.943631;0.074694;,
  -0.316651;0.922327;0.221460;,
  -0.091892;0.984757;0.147683;,
  -0.995168;-0.066859;0.071904;,
  -0.997800;-0.066290;0.000000;,
  -0.991212;-0.132287;0.000000;,
  -0.987899;-0.133485;0.078975;,
  -0.916385;-0.139888;0.375061;,
  -0.936581;-0.070473;0.343292;,
  -0.725498;0.688225;0.000000;,
  -0.723094;0.685296;0.086629;,
  -0.687322;0.654598;0.314785;,
  -0.972924;0.218358;0.075755;,
  -0.975603;0.219541;0.000000;,
  -0.922152;0.207539;0.326441;,
  -0.264495;0.776709;0.571635;,
  -0.100663;0.301457;0.948151;,
  -0.030383;0.323228;0.945833;,
  -0.084315;0.896622;0.434695;,
  -0.686379;-0.142698;0.713106;,
  -0.282729;-0.114062;0.952394;,
  -0.686029;-0.073660;0.723836;,
  -0.494221;0.476985;0.726795;,
  -0.643889;0.136740;0.752801;,
  0.000000;-0.076861;0.997042;,
  0.000000;-0.015379;0.999882;,
  0.000000;0.000000;1.000000;,
  1.000000;0.000000;0.000000;,
  1.000000;0.000000;0.000000;,
  1.000000;0.000000;0.000000;,
  -1.000000;0.000000;0.000000;,
  -1.000000;0.000000;0.000000;,
  -1.000000;0.000000;0.000000;;
  438;
  3;0,1,2;,
  3;0,2,3;,
  3;4,5,1;,
  3;4,1,0;,
  3;6,5,4;,
  3;6,4,7;,
  3;6,7,8;,
  3;6,8,9;,
  3;3,2,10;,
  3;3,10,11;,
  3;11,10,12;,
  3;11,12,13;,
  3;14,13,12;,
  3;14,12,15;,
  3;16,17,14;,
  3;16,14,15;,
  3;18,19,20;,
  3;18,20,21;,
  3;22,40,41;,
  3;22,41,23;,
  3;24,42,43;,
  3;24,43,25;,
  3;44,45,46;,
  3;44,46,47;,
  3;44,48,49;,
  3;44,49,45;,
  3;26,27,28;,
  3;26,28,29;,
  3;30,50,51;,
  3;30,51,31;,
  3;32,52,53;,
  3;32,53,33;,
  3;54,55,56;,
  3;54,56,57;,
  3;56,58,59;,
  3;56,59,57;,
  3;34,35,36;,
  3;34,36,37;,
  3;34,37,38;,
  3;34,38,39;,
  3;60,61,62;,
  3;60,62,63;,
  3;60,63,64;,
  3;60,64,65;,
  3;66,67,68;,
  3;66,68,69;,
  3;66,69,70;,
  3;66,71,72;,
  3;68,67,73;,
  3;68,73,74;,
  3;68,74,69;,
  3;73,75,76;,
  3;66,77,71;,
  3;66,78,67;,
  3;66,79,80;,
  3;73,81,75;,
  3;73,82,83;,
  3;73,84,85;,
  3;86,87,88;,
  3;86,88,89;,
  3;90,91,92;,
  3;90,92,93;,
  3;98,99,94;,
  3;98,94,95;,
  3;96,97,100;,
  3;96,100,101;,
  3;102,103,104;,
  3;102,104,105;,
  3;106,107,108;,
  3;106,108,109;,
  3;110,111,112;,
  3;110,112,113;,
  3;114,115,116;,
  3;114,116,117;,
  3;118,119,120;,
  3;118,120,121;,
  3;122,123,124;,
  3;122,124,125;,
  3;123,126,127;,
  3;123,127,124;,
  3;126,128,129;,
  3;126,129,127;,
  3;128,130,131;,
  3;128,131,129;,
  3;132,133,134;,
  3;132,134,135;,
  3;136,132,135;,
  3;136,135,137;,
  3;130,136,137;,
  3;130,137,131;,
  3;138,139,154;,
  3;138,154,155;,
  3;140,138,155;,
  3;140,155,156;,
  3;140,156,157;,
  3;140,157,141;,
  3;141,157,158;,
  3;141,158,142;,
  3;143,144,159;,
  3;143,159,160;,
  3;144,145,161;,
  3;144,161,159;,
  3;142,158,161;,
  3;142,161,145;,
  3;146,162,163;,
  3;146,163,164;,
  3;165,147,166;,
  3;165,166,167;,
  3;147,148,168;,
  3;147,168,166;,
  3;149,169,168;,
  3;149,168,148;,
  3;150,170,169;,
  3;150,169,149;,
  3;151,171,172;,
  3;151,172,173;,
  3;152,174,175;,
  3;152,175,176;,
  3;153,152,176;,
  3;153,176,177;,
  3;178,179,180;,
  3;178,180,181;,
  3;153,177,170;,
  3;153,170,150;,
  3;182,183,184;,
  3;182,184,185;,
  3;194,195,196;,
  3;194,196,197;,
  3;186,187,188;,
  3;186,188,189;,
  3;190,191,192;,
  3;190,192,193;,
  3;198,199,200;,
  3;198,200,201;,
  3;201,200,202;,
  3;201,202,203;,
  3;204,240,241;,
  3;204,241,205;,
  3;205,241,206;,
  3;205,206,207;,
  3;208,207,206;,
  3;208,206,209;,
  3;210,203,202;,
  3;210,202,211;,
  3;212,208,209;,
  3;212,209,213;,
  3;214,215,216;,
  3;214,216,217;,
  3;218,219,215;,
  3;218,215,214;,
  3;220,242,243;,
  3;220,243,221;,
  3;222,223,242;,
  3;222,242,220;,
  3;224,223,222;,
  3;224,222,225;,
  3;211,219,218;,
  3;211,218,210;,
  3;213,224,225;,
  3;213,225,212;,
  3;226,227,228;,
  3;226,228,229;,
  3;227,230,231;,
  3;227,231,228;,
  3;232,233,231;,
  3;232,231,230;,
  3;234,235,236;,
  3;234,236,237;,
  3;238,234,237;,
  3;238,237,239;,
  3;233,232,238;,
  3;233,238,239;,
  3;244,245,246;,
  3;244,246,247;,
  3;244,248,249;,
  3;244,249,245;,
  3;250,388,389;,
  3;250,389,251;,
  3;250,252,390;,
  3;250,390,388;,
  3;253,254,255;,
  3;253,255,256;,
  3;257,254,253;,
  3;257,253,258;,
  3;391,250,251;,
  3;391,251,392;,
  3;252,250,391;,
  3;252,391,393;,
  3;259,260,261;,
  3;259,261,262;,
  3;259,262,263;,
  3;259,263,264;,
  3;265,266,260;,
  3;265,260,259;,
  3;264,267,265;,
  3;264,265,259;,
  3;268,269,270;,
  3;268,270,271;,
  3;268,271,272;,
  3;268,272,273;,
  3;274,275,394;,
  3;274,394,395;,
  3;274,395,396;,
  3;274,396,276;,
  3;277,278,279;,
  3;277,279,280;,
  3;281,282,277;,
  3;281,277,280;,
  3;397,398,275;,
  3;397,275,274;,
  3;276,399,397;,
  3;276,397,274;,
  3;283,284,285;,
  3;283,285,286;,
  3;283,287,288;,
  3;283,288,284;,
  3;289,283,286;,
  3;289,286,290;,
  3;287,283,289;,
  3;287,289,291;,
  3;292,293,294;,
  3;292,294,295;,
  3;292,295,296;,
  3;292,296,297;,
  3;298,299,400;,
  3;298,400,401;,
  3;298,401,402;,
  3;298,402,300;,
  3;301,302,303;,
  3;301,303,304;,
  3;305,306,301;,
  3;305,301,304;,
  3;403,404,299;,
  3;403,299,298;,
  3;300,405,403;,
  3;300,403,298;,
  3;307,308,309;,
  3;307,309,310;,
  3;307,311,312;,
  3;307,312,308;,
  3;313,307,310;,
  3;313,310,314;,
  3;311,307,313;,
  3;311,313,315;,
  3;316,317,318;,
  3;316,318,319;,
  3;316,319,320;,
  3;316,320,321;,
  3;322,323,406;,
  3;322,406,407;,
  3;322,407,408;,
  3;322,408,324;,
  3;325,326,327;,
  3;325,327,328;,
  3;329,330,325;,
  3;329,325,328;,
  3;409,410,323;,
  3;409,323,322;,
  3;324,411,409;,
  3;324,409,322;,
  3;331,332,333;,
  3;331,333,334;,
  3;331,335,336;,
  3;331,336,332;,
  3;337,331,334;,
  3;337,334,338;,
  3;335,331,337;,
  3;335,337,339;,
  3;340,341,342;,
  3;340,342,343;,
  3;340,343,344;,
  3;340,344,345;,
  3;346,347,412;,
  3;346,412,413;,
  3;346,413,414;,
  3;346,414,348;,
  3;349,350,351;,
  3;349,351,352;,
  3;353,354,349;,
  3;353,349,352;,
  3;415,416,347;,
  3;415,347,346;,
  3;348,417,415;,
  3;348,415,346;,
  3;355,356,357;,
  3;355,357,358;,
  3;355,359,360;,
  3;355,360,356;,
  3;361,355,358;,
  3;361,358,362;,
  3;359,355,361;,
  3;359,361,363;,
  3;364,365,366;,
  3;364,366,367;,
  3;364,367,368;,
  3;364,368,369;,
  3;370,371,418;,
  3;370,418,419;,
  3;370,419,420;,
  3;370,420,372;,
  3;373,374,375;,
  3;373,375,376;,
  3;377,378,373;,
  3;377,373,376;,
  3;421,422,371;,
  3;421,371,370;,
  3;372,423,421;,
  3;372,421,370;,
  3;379,380,381;,
  3;379,381,382;,
  3;379,383,384;,
  3;379,384,380;,
  3;385,379,382;,
  3;385,382,386;,
  3;383,379,385;,
  3;383,385,387;,
  3;424,425,426;,
  3;427,428,429;,
  3;427,429,430;,
  3;427,430,431;,
  3;427,431,432;,
  3;433,434,435;,
  3;433,435,436;,
  3;433,436,437;,
  3;433,437,438;,
  3;430,429,439;,
  3;430,439,440;,
  3;430,440,441;,
  3;430,441,431;,
  3;442,443,428;,
  3;442,428,427;,
  3;442,427,432;,
  3;442,432,444;,
  3;436,435,445;,
  3;436,445,446;,
  3;436,446,447;,
  3;436,447,437;,
  3;446,445,443;,
  3;446,443,442;,
  3;446,442,444;,
  3;446,444,447;,
  3;448,449,450;,
  3;448,450,451;,
  3;448,451,432;,
  3;448,432,431;,
  3;452,424,453;,
  3;452,453,454;,
  3;452,454,438;,
  3;452,438,437;,
  3;455,456,449;,
  3;455,449,448;,
  3;455,448,431;,
  3;455,431,441;,
  3;451,450,426;,
  3;451,426,457;,
  3;451,457,444;,
  3;451,444,432;,
  3;458,425,424;,
  3;458,424,452;,
  3;458,452,437;,
  3;458,437,447;,
  3;457,426,425;,
  3;457,425,458;,
  3;457,458,447;,
  3;457,447,444;,
  3;459,460,453;,
  3;459,453,424;,
  3;424,450,449;,
  3;424,426,450;,
  3;459,461,462;,
  3;459,462,463;,
  3;449,456,461;,
  3;449,461,459;,
  3;459,461,462;,
  3;459,462,463;,
  3;449,459,424;,
  3;497,498,499;,
  3;464,465,466;,
  3;467,468,469;,
  3;467,469,470;,
  3;471,472,467;,
  3;471,467,470;,
  3;473,474,475;,
  3;473,475,476;,
  3;477,478,473;,
  3;477,473,476;,
  3;440,439,468;,
  3;440,468,467;,
  3;472,441,440;,
  3;472,440,467;,
  3;470,469,479;,
  3;470,479,480;,
  3;481,471,470;,
  3;481,470,480;,
  3;482,483,474;,
  3;482,474,473;,
  3;478,484,482;,
  3;478,482,473;,
  3;480,479,483;,
  3;480,483,482;,
  3;484,481,480;,
  3;484,480,482;,
  3;485,486,487;,
  3;485,487,488;,
  3;472,471,485;,
  3;472,485,488;,
  3;489,490,466;,
  3;489,466,491;,
  3;478,477,489;,
  3;478,489,491;,
  3;488,487,456;,
  3;488,456,455;,
  3;441,472,488;,
  3;441,488,455;,
  3;492,464,486;,
  3;492,486,485;,
  3;471,481,492;,
  3;471,492,485;,
  3;491,466,465;,
  3;491,465,493;,
  3;484,478,491;,
  3;484,491,493;,
  3;493,465,464;,
  3;493,464,492;,
  3;481,484,493;,
  3;481,493,492;,
  3;466,490,494;,
  3;466,494,495;,
  3;487,486,466;,
  3;486,464,466;,
  3;496,462,461;,
  3;496,461,495;,
  3;495,461,456;,
  3;495,456,487;,
  3;496,462,461;,
  3;496,461,495;,
  3;466,495,487;,
  3;500,501,502;;
 }

 MeshTextureCoords {
  503;
  0.995037;0.005764;,
  0.007247;0.005764;,
  0.007247;0.002487;,
  0.995037;0.002487;,
  0.995037;0.052009;,
  0.007247;0.052009;,
  0.007247;0.083318;,
  0.995037;0.083318;,
  0.995037;0.103713;,
  0.007247;0.103713;,
  0.007247;0.005764;,
  0.995037;0.005764;,
  0.007247;0.052009;,
  0.995037;0.052009;,
  0.995037;0.083318;,
  0.007247;0.083318;,
  0.007247;0.103713;,
  0.995037;0.103713;,
  0.995037;0.046594;,
  0.995037;0.051674;,
  0.995037;0.083318;,
  0.995037;0.052009;,
  0.008263;0.046594;,
  0.008263;0.052009;,
  0.008263;0.051674;,
  0.008263;0.083318;,
  0.995037;0.052009;,
  0.995037;0.083318;,
  0.995037;0.051674;,
  0.995037;0.046594;,
  0.008263;0.052009;,
  0.008263;0.046594;,
  0.008263;0.083318;,
  0.008263;0.051674;,
  0.007247;0.809426;,
  0.007247;0.103713;,
  0.995037;0.103713;,
  0.995037;0.809426;,
  0.995037;0.997513;,
  0.007247;0.997513;,
  0.995037;0.046594;,
  0.995037;0.052009;,
  0.008263;0.046594;,
  0.008263;0.052009;,
  0.995037;0.051674;,
  0.008263;0.051674;,
  0.008263;0.083318;,
  0.995037;0.083318;,
  0.995037;0.046594;,
  0.008263;0.046594;,
  0.995037;0.052009;,
  0.995037;0.046594;,
  0.008263;0.052009;,
  0.008263;0.046594;,
  0.995037;0.083318;,
  0.008263;0.083318;,
  0.008263;0.051674;,
  0.995037;0.051674;,
  0.008263;0.046594;,
  0.995037;0.046594;,
  0.007247;0.809426;,
  0.007247;0.997513;,
  0.995037;0.997513;,
  0.995037;0.809426;,
  0.995037;0.103713;,
  0.007247;0.103713;,
  0.995040;0.810970;,
  0.995040;0.000000;,
  0.995040;0.810970;,
  0.995040;1.000000;,
  0.995040;1.000000;,
  0.995040;0.049770;,
  0.995040;0.003290;,
  0.995040;0.810970;,
  0.995040;1.000000;,
  0.995040;0.049770;,
  0.995040;0.081240;,
  0.995040;0.446110;,
  0.995040;0.407130;,
  0.995040;0.468970;,
  0.995040;0.081240;,
  0.995040;0.407130;,
  0.995040;0.405490;,
  0.995040;0.003290;,
  0.995040;0.446110;,
  0.995040;0.126970;,
  1.000000;0.000000;,
  1.000000;0.000000;,
  1.000000;1.000000;,
  1.000000;1.000000;,
  1.000000;1.000000;,
  -0.000010;1.000000;,
  -0.000020;0.000000;,
  1.000000;0.000000;,
  1.000000;1.000000;,
  0.000000;1.000000;,
  -0.000020;0.000000;,
  1.000000;0.000000;,
  -0.000010;1.000000;,
  1.000000;1.000000;,
  1.000000;0.000000;,
  -0.000020;0.000000;,
  0.000000;1.000000;,
  1.000000;1.000000;,
  1.000000;0.000000;,
  -0.000020;0.000000;,
  1.000000;0.008790;,
  1.000000;1.000000;,
  0.000000;1.000000;,
  0.000000;0.008790;,
  0.000000;0.008790;,
  0.000000;1.000000;,
  1.000000;1.000000;,
  1.000000;0.008790;,
  0.000000;0.008790;,
  0.000000;1.000000;,
  0.000000;1.000000;,
  0.000000;0.008790;,
  1.000000;0.008790;,
  1.000000;1.000000;,
  1.000000;1.000000;,
  1.000000;0.008790;,
  0.034170;0.820000;,
  0.043590;0.818780;,
  0.068090;0.813290;,
  0.062450;0.813290;,
  0.111360;0.815430;,
  0.121140;0.813290;,
  0.283100;0.813290;,
  0.283100;0.813290;,
  0.769370;0.813290;,
  0.769370;0.813290;,
  0.956410;0.818780;,
  0.965830;0.820000;,
  0.937550;0.813290;,
  0.931910;0.813290;,
  0.888640;0.815430;,
  0.878850;0.813290;,
  0.038340;0.008990;,
  0.035950;0.008990;,
  0.091850;0.008990;,
  0.283100;0.008990;,
  0.769370;0.008990;,
  0.964050;0.008990;,
  0.961660;0.008990;,
  0.908160;0.008990;,
  0.007430;0.008990;,
  0.013610;0.008990;,
  0.081970;0.008990;,
  0.283100;0.008990;,
  0.769370;0.008990;,
  0.992570;0.008990;,
  0.986390;0.008990;,
  0.918040;0.008990;,
  0.062450;0.813290;,
  0.068090;0.813290;,
  0.121140;0.813290;,
  0.283100;0.813290;,
  0.769370;0.813290;,
  0.931910;0.813290;,
  0.937550;0.813290;,
  0.878850;0.813290;,
  0.034170;0.820000;,
  0.062450;0.813290;,
  0.035950;0.008990;,
  0.007430;0.008990;,
  0.043590;0.818780;,
  0.034170;0.820000;,
  0.111360;0.815430;,
  0.283100;0.813290;,
  0.769370;0.813290;,
  0.964050;0.008990;,
  0.937550;0.813290;,
  0.965830;0.820000;,
  0.992570;0.008990;,
  0.965830;0.820000;,
  0.956410;0.818780;,
  0.888640;0.815430;,
  0.918040;0.008990;,
  0.908160;0.008990;,
  0.878850;0.813290;,
  0.888640;0.815430;,
  0.483270;0.903270;,
  0.483270;0.000000;,
  0.000000;0.000000;,
  0.000000;0.903270;,
  0.483270;0.903270;,
  0.483270;0.000000;,
  1.000000;0.000000;,
  1.000000;0.903270;,
  0.483270;0.903270;,
  1.000000;0.903270;,
  1.000000;0.000000;,
  0.483270;0.000000;,
  0.483270;0.903270;,
  0.000000;0.903270;,
  0.000000;0.000000;,
  0.483270;0.000000;,
  0.385840;0.434810;,
  0.385840;0.989290;,
  0.346230;0.989290;,
  0.346230;0.216150;,
  0.319830;0.989290;,
  0.319830;0.123320;,
  0.995870;0.989290;,
  0.995870;0.434810;,
  0.385840;0.216150;,
  0.995870;0.216150;,
  0.985300;0.123320;,
  0.346230;0.123320;,
  0.300130;0.095610;,
  0.300130;0.989290;,
  0.977990;0.095610;,
  0.326530;0.095610;,
  0.346230;0.216150;,
  0.346230;0.989290;,
  0.385840;0.989290;,
  0.385840;0.434810;,
  0.319830;0.123320;,
  0.319830;0.989290;,
  0.995870;0.434810;,
  0.995870;0.989290;,
  0.995870;0.216150;,
  0.385840;0.216150;,
  0.346230;0.123320;,
  0.985300;0.123320;,
  0.385840;0.434810;,
  0.346230;0.216150;,
  0.346230;0.989290;,
  0.385840;0.989290;,
  0.319830;0.123320;,
  0.319830;0.989290;,
  0.300130;0.095610;,
  0.300130;0.989290;,
  0.346230;0.216150;,
  0.385840;0.434810;,
  0.385840;0.989290;,
  0.346230;0.989290;,
  0.319830;0.123320;,
  0.319830;0.989290;,
  0.385840;0.989290;,
  0.385840;0.434810;,
  0.385840;0.434810;,
  0.385840;0.989290;,
  1.000000;0.113640;,
  0.282350;0.113640;,
  0.282350;1.000000;,
  1.000000;1.000000;,
  1.000000;0.000000;,
  0.282350;0.000000;,
  0.108560;0.113640;,
  0.108560;0.000000;,
  0.108560;1.000000;,
  0.282350;0.113640;,
  1.000000;0.113640;,
  1.000000;1.000000;,
  0.282350;1.000000;,
  1.000000;0.000000;,
  0.282350;0.000000;,
  0.108560;0.113640;,
  0.108560;0.000000;,
  0.282350;0.000000;,
  0.282350;0.113640;,
  0.282350;1.000000;,
  0.108560;1.000000;,
  0.282350;0.113640;,
  0.282350;0.000000;,
  0.282350;1.000000;,
  1.000000;0.113640;,
  1.000000;1.000000;,
  0.282350;1.000000;,
  0.282350;0.113640;,
  0.282350;0.000000;,
  1.000000;0.000000;,
  0.108560;0.113640;,
  0.108560;0.000000;,
  0.108560;1.000000;,
  0.282350;0.113640;,
  0.282350;1.000000;,
  1.000000;1.000000;,
  1.000000;0.113640;,
  1.000000;0.000000;,
  0.282350;0.000000;,
  0.108560;0.113640;,
  0.282350;0.113640;,
  0.282350;0.000000;,
  0.108560;0.000000;,
  0.108560;1.000000;,
  0.282350;1.000000;,
  0.282350;0.113640;,
  0.282350;0.000000;,
  0.282350;1.000000;,
  1.000000;0.113640;,
  1.000000;1.000000;,
  0.282350;1.000000;,
  0.282350;0.113640;,
  0.282350;0.000000;,
  1.000000;0.000000;,
  0.108560;0.113640;,
  0.108560;0.000000;,
  0.108560;1.000000;,
  0.282350;0.113640;,
  0.282350;1.000000;,
  1.000000;1.000000;,
  1.000000;0.113640;,
  1.000000;0.000000;,
  0.282350;0.000000;,
  0.108560;0.113640;,
  0.282350;0.113640;,
  0.282350;0.000000;,
  0.108560;0.000000;,
  0.108560;1.000000;,
  0.282350;1.000000;,
  0.282350;0.113640;,
  0.282350;0.000000;,
  0.282350;1.000000;,
  1.000000;0.113640;,
  1.000000;1.000000;,
  0.282350;1.000000;,
  0.282350;0.113640;,
  0.282350;0.000000;,
  1.000000;0.000000;,
  0.108560;0.113640;,
  0.108560;0.000000;,
  0.108560;1.000000;,
  0.282350;0.113640;,
  0.282350;1.000000;,
  1.000000;1.000000;,
  1.000000;0.113640;,
  1.000000;0.000000;,
  0.282350;0.000000;,
  0.108560;0.113640;,
  0.282350;0.113640;,
  0.282350;0.000000;,
  0.108560;0.000000;,
  0.108560;1.000000;,
  0.282350;1.000000;,
  0.282350;0.113640;,
  0.282350;0.000000;,
  0.282350;1.000000;,
  1.000000;0.113640;,
  1.000000;1.000000;,
  0.282350;1.000000;,
  0.282350;0.113640;,
  0.282350;0.000000;,
  1.000000;0.000000;,
  0.108560;0.113640;,
  0.108560;0.000000;,
  0.108560;1.000000;,
  0.282350;0.113640;,
  0.282350;1.000000;,
  1.000000;1.000000;,
  1.000000;0.113640;,
  1.000000;0.000000;,
  0.282350;0.000000;,
  0.108560;0.113640;,
  0.282350;0.113640;,
  0.282350;0.000000;,
  0.108560;0.000000;,
  0.108560;1.000000;,
  0.282350;1.000000;,
  0.282350;0.113640;,
  0.282350;0.000000;,
  0.282350;1.000000;,
  1.000000;0.113640;,
  1.000000;1.000000;,
  0.282350;1.000000;,
  0.282350;0.113640;,
  0.282350;0.000000;,
  1.000000;0.000000;,
  0.108560;0.113640;,
  0.108560;0.000000;,
  0.108560;1.000000;,
  0.282350;0.113640;,
  0.282350;1.000000;,
  1.000000;1.000000;,
  1.000000;0.113640;,
  1.000000;0.000000;,
  0.282350;0.000000;,
  0.108560;0.113640;,
  0.282350;0.113640;,
  0.282350;0.000000;,
  0.108560;0.000000;,
  0.108560;1.000000;,
  0.282350;1.000000;,
  0.282350;0.113640;,
  0.282350;0.000000;,
  0.282350;1.000000;,
  0.282350;0.113640;,
  0.282350;0.000000;,
  0.282350;1.000000;,
  0.282350;0.113640;,
  0.282350;0.000000;,
  0.282350;1.000000;,
  0.282350;0.000000;,
  0.282350;0.113640;,
  0.282350;1.000000;,
  0.282350;0.113640;,
  0.282350;0.000000;,
  0.282350;1.000000;,
  0.282350;0.000000;,
  0.282350;0.113640;,
  0.282350;1.000000;,
  0.282350;0.113640;,
  0.282350;0.000000;,
  0.282350;1.000000;,
  0.282350;0.000000;,
  0.282350;0.113640;,
  0.282350;1.000000;,
  0.282350;0.113640;,
  0.282350;0.000000;,
  0.282350;1.000000;,
  0.282350;0.000000;,
  0.282350;0.113640;,
  0.282350;1.000000;,
  0.282350;0.113640;,
  0.282350;0.000000;,
  0.282350;1.000000;,
  0.282350;0.000000;,
  0.282350;0.113640;,
  0.282350;1.000000;,
  0.282350;0.113640;,
  0.282350;0.000000;,
  0.282350;1.000000;,
  0.029404;0.807886;,
  0.029404;0.125164;,
  0.038467;0.098733;,
  0.067335;0.054239;,
  0.067335;0.054239;,
  0.347750;0.008224;,
  0.347750;0.008224;,
  0.348545;0.010678;,
  0.069596;0.056694;,
  0.025000;0.995037;,
  0.025000;0.995037;,
  0.000000;0.807886;,
  0.000000;0.807886;,
  0.002613;0.807886;,
  0.027483;0.995037;,
  0.500000;0.004963;,
  0.500000;0.004963;,
  0.500000;0.007418;,
  0.009629;0.085392;,
  0.009629;0.085392;,
  0.012192;0.087847;,
  0.000000;0.105685;,
  0.000000;0.105685;,
  0.002613;0.108140;,
  0.353464;0.014305;,
  0.356703;0.018880;,
  0.092779;0.064895;,
  0.083573;0.060321;,
  0.018766;0.807886;,
  0.052934;0.995037;,
  0.036630;0.995037;,
  0.500000;0.011045;,
  0.500000;0.015619;,
  0.025485;0.093387;,
  0.014852;0.115040;,
  0.356715;0.807886;,
  0.356715;0.995037;,
  0.500000;0.807886;,
  0.500000;0.995037;,
  0.356715;0.995037;,
  0.961533;0.098733;,
  0.970596;0.125164;,
  0.970596;0.807886;,
  0.652250;0.008224;,
  0.652250;0.008224;,
  0.932665;0.054239;,
  0.932665;0.054239;,
  0.930404;0.056694;,
  0.651455;0.010678;,
  1.000000;0.807886;,
  1.000000;0.807886;,
  0.975000;0.995037;,
  0.975000;0.995037;,
  0.972517;0.995037;,
  0.997387;0.807886;,
  0.990371;0.085392;,
  0.990371;0.085392;,
  0.987808;0.087847;,
  1.000000;0.105685;,
  1.000000;0.105685;,
  0.997387;0.108140;,
  0.916427;0.060321;,
  0.907221;0.064895;,
  0.643297;0.018880;,
  0.646536;0.014305;,
  0.963370;0.995037;,
  0.947066;0.995037;,
  0.981234;0.807886;,
  0.974515;0.093387;,
  0.985148;0.115040;,
  0.643285;0.995037;,
  0.643285;0.807886;,
  0.643285;0.995037;,
  0.356715;0.807886;,
  0.356715;0.995037;,
  0.356715;0.995037;,
  0.643285;0.995037;,
  0.643285;0.995037;,
  0.643285;0.807886;;
 }

 MeshMaterialList {
  10;
  438;
  0,
  0,
  0,
  0,
  0,
  0,
  0,
  0,
  0,
  0,
  0,
  0,
  0,
  0,
  0,
  0,
  0,
  0,
  0,
  0,
  0,
  0,
  0,
  0,
  0,
  0,
  0,
  0,
  0,
  0,
  0,
  0,
  0,
  0,
  0,
  0,
  0,
  0,
  0,
  0,
  1,
  1,
  1,
  1,
  2,
  2,
  2,
  2,
  2,
  2,
  2,
  2,
  2,
  2,
  2,
  2,
  2,
  2,
  2,
  2,
  3,
  3,
  3,
  3,
  3,
  3,
  3,
  3,
  4,
  4,
  4,
  4,
  4,
  4,
  4,
  4,
  5,
  5,
  5,
  5,
  5,
  5,
  5,
  5,
  5,
  5,
  5,
  5,
  5,
  5,
  5,
  5,
  5,
  5,
  5,
  5,
  5,
  5,
  5,
  5,
  5,
  5,
  5,
  5,
  5,
  5,
  5,
  5,
  5,
  5,
  5,
  5,
  5,
  5,
  5,
  5,
  5,
  5,
  5,
  5,
  5,
  5,
  5,
  5,
  6,
  6,
  6,
  6,
  6,
  6,
  6,
  6,
  7,
  7,
  7,
  7,
  7,
  7,
  7,
  7,
  7,
  7,
  7,
  7,
  7,
  7,
  7,
  7,
  7,
  7,
  7,
  7,
  7,
  7,
  7,
  7,
  7,
  7,
  7,
  7,
  7,
  7,
  7,
  7,
  7,
  7,
  7,
  7,
  7,
  7,
  7,
  7,
  8,
  8,
  8,
  8,
  8,
  8,
  8,
  8,
  8,
  8,
  8,
  8,
  8,
  8,
  8,
  8,
  8,
  8,
  8,
  8,
  8,
  8,
  8,
  8,
  8,
  8,
  8,
  8,
  8,
  8,
  8,
  8,
  8,
  8,
  8,
  8,
  8,
  8,
  8,
  8,
  8,
  8,
  8,
  8,
  8,
  8,
  8,
  8,
  8,
  8,
  8,
  8,
  8,
  8,
  8,
  8,
  8,
  8,
  8,
  8,
  8,
  8,
  8,
  8,
  8,
  8,
  8,
  8,
  8,
  8,
  8,
  8,
  8,
  8,
  8,
  8,
  8,
  8,
  8,
  8,
  8,
  8,
  8,
  8,
  8,
  8,
  8,
  8,
  8,
  8,
  8,
  8,
  8,
  8,
  8,
  8,
  8,
  8,
  8,
  8,
  8,
  8,
  8,
  8,
  8,
  8,
  8,
  8,
  8,
  8,
  8,
  8,
  8,
  8,
  8,
  8,
  8,
  8,
  8,
  8,
  8,
  8,
  8,
  8,
  8,
  8,
  8,
  8,
  8,
  8,
  8,
  8,
  8,
  8,
  8,
  8,
  8,
  8,
  8,
  8,
  8,
  8,
  8,
  8,
  9,
  9,
  9,
  9,
  9,
  9,
  9,
  9,
  9,
  9,
  9,
  9,
  9,
  9,
  9,
  9,
  9,
  9,
  9,
  9,
  9,
  9,
  9,
  9,
  9,
  9,
  9,
  9,
  9,
  9,
  9,
  9,
  9,
  9,
  9,
  9,
  9,
  9,
  9,
  9,
  9,
  9,
  9,
  9,
  9,
  9,
  9,
  9,
  9,
  9,
  9,
  9,
  9,
  9,
  9,
  9,
  9,
  9,
  9,
  9,
  9,
  9,
  9,
  9,
  9,
  9,
  9,
  9,
  9,
  9,
  9,
  9,
  9,
  9,
  9,
  9,
  9,
  9,
  9,
  9,
  9,
  9,
  9,
  9,
  9,
  9,
  9,
  9,
  9,
  9,
  9,
  9,
  9,
  9,
  9,
  9,
  9,
  9,
  9,
  9,
  9,
  9,
  9,
  9,
  9,
  9,
  9,
  9,
  9,
  9,
  9,
  9,
  9,
  9,
  9,
  9,
  9,
  9,
  9,
  9,
  9,
  9;

  Material {
   1.000000;1.000000;1.000000;1.000000;;
   5.000000;
   0.000000;0.000000;0.000000;;
   0.000000;0.000000;0.000000;;

   TextureFilename {
    "211_s3.png";
   }
  }

  Material {
   1.000000;1.000000;1.000000;1.000000;;
   5.000000;
   0.000000;0.000000;0.000000;;
   0.000000;0.000000;0.000000;;

   TextureFilename {
    "211_s3b.png";
   }
  }

  Material {
   0.400000;0.400000;0.400000;1.000000;;
   5.000000;
   0.000000;0.000000;0.000000;;
   0.000000;0.000000;0.000000;;
  }

  Material {
   1.000000;1.000000;1.000000;1.000000;;
   5.000000;
   0.000000;0.000000;0.000000;;
   0.000000;0.000000;0.000000;;

   TextureFilename {
    "horo.png";
   }
  }

  Material {
   1.000000;1.000000;1.000000;1.000000;;
   5.000000;
   0.000000;0.000000;0.000000;;
   0.000000;0.000000;0.000000;;

   TextureFilename {
    "211_u.png";
   }
  }

  Material {
   1.000000;1.000000;1.000000;1.000000;;
   5.000000;
   0.000000;0.000000;0.000000;;
   0.000000;0.000000;0.000000;;

   TextureFilename {
    "211_sk.png";
   }
  }

  Material {
   1.000000;1.000000;1.000000;1.000000;;
   5.000000;
   0.000000;0.000000;0.000000;;
   0.000000;0.000000;0.000000;;

   TextureFilename {
    "antena.png";
   }
  }

  Material {
   1.000000;1.000000;1.000000;1.000000;;
   5.000000;
   0.000000;0.000000;0.000000;;
   0.000000;0.000000;0.000000;;

   TextureFilename {
    "AU75.png";
   }
  }

  Material {
   1.000000;1.000000;1.000000;1.000000;;
   5.000000;
   0.000000;0.000000;0.000000;;
   0.000000;0.000000;0.000000;;

   TextureFilename {
    "benti.png";
   }
  }

  Material {
   1.000000;1.000000;1.000000;1.000000;;
   5.000000;
   0.000000;0.000000;0.000000;;
   0.000000;0.000000;0.000000;;

   TextureFilename {
    "tc211_f2.png";
   }
  }
 }
}