xof 0303txt 0032
template Vector {
 <3d82ab5e-62da-11cf-ab39-0020af71e433>
 FLOAT x;
 FLOAT y;
 FLOAT z;
}

template MeshFace {
 <3d82ab5f-62da-11cf-ab39-0020af71e433>
 DWORD nFaceVertexIndices;
 array DWORD faceVertexIndices[nFaceVertexIndices];
}

template Mesh {
 <3d82ab44-62da-11cf-ab39-0020af71e433>
 DWORD nVertices;
 array Vector vertices[nVertices];
 DWORD nFaces;
 array MeshFace faces[nFaces];
 [...]
}

template ColorRGBA {
 <35ff44e0-6c7c-11cf-8f52-0040333594a3>
 FLOAT red;
 FLOAT green;
 FLOAT blue;
 FLOAT alpha;
}

template ColorRGB {
 <d3e16e81-7835-11cf-8f52-0040333594a3>
 FLOAT red;
 FLOAT green;
 FLOAT blue;
}

template Material {
 <3d82ab4d-62da-11cf-ab39-0020af71e433>
 ColorRGBA faceColor;
 FLOAT power;
 ColorRGB specularColor;
 ColorRGB emissiveColor;
 [...]
}

template MeshMaterialList {
 <f6f23f42-7686-11cf-8f52-0040333594a3>
 DWORD nMaterials;
 DWORD nFaceIndexes;
 array DWORD faceIndexes[nFaceIndexes];
 [Material <3d82ab4d-62da-11cf-ab39-0020af71e433>]
}

template TextureFilename {
 <a42790e1-7810-11cf-8f52-0040333594a3>
 STRING filename;
}

template Coords2d {
 <f6f23f44-7686-11cf-8f52-0040333594a3>
 FLOAT u;
 FLOAT v;
}

template MeshTextureCoords {
 <f6f23f40-7686-11cf-8f52-0040333594a3>
 DWORD nTextureCoords;
 array Coords2d textureCoords[nTextureCoords];
}

template MeshNormals {
 <f6f23f43-7686-11cf-8f52-0040333594a3>
 DWORD nNormals;
 array Vector normals[nNormals];
 DWORD nFaceNormals;
 array MeshFace faceNormals[nFaceNormals];
}


Mesh  {
 124;
 -0.602000;-0.144000;0.000000;,
 -0.602000;0.000000;0.000000;,
 -0.534000;0.000000;0.000000;,
 -0.534000;-0.144000;0.000000;,
 -0.602000;-0.144000;25.500000;,
 -0.602000;0.000000;25.500000;,
 -0.534000;0.000000;25.500000;,
 -0.534000;-0.144000;25.500000;,
 0.602000;-0.144000;0.000000;,
 0.602000;0.000000;0.000000;,
 0.534000;0.000000;0.000000;,
 0.534000;-0.144000;0.000000;,
 0.602000;-0.144000;25.500000;,
 0.602000;0.000000;25.500000;,
 0.534000;0.000000;25.500000;,
 0.534000;-0.144000;25.500000;,
 -0.361000;-0.144000;0.000000;,
 -0.417000;-0.144000;4.198000;,
 -0.417000;-0.144000;8.396000;,
 -0.293300;-0.144000;12.590000;,
 -0.106100;-0.144000;16.790001;,
 0.134400;-0.144000;20.980000;,
 0.428400;-0.144000;25.170000;,
 -0.361000;-0.010000;0.000000;,
 -0.417000;-0.005000;4.198000;,
 -0.417000;0.000000;8.396000;,
 -0.293300;0.000000;12.590000;,
 -0.106100;0.000000;16.790001;,
 0.134400;0.000000;20.980000;,
 0.428400;0.000000;25.170000;,
 -0.361000;-0.010000;0.000000;,
 -0.465000;-0.005000;4.199000;,
 -0.485000;0.000000;8.398000;,
 -0.361000;0.000000;12.600000;,
 -0.174100;0.000000;16.790001;,
 0.067000;0.000000;20.980000;,
 0.361000;0.000000;25.170000;,
 -0.361000;-0.144000;0.000000;,
 -0.465000;-0.144000;4.199000;,
 -0.485000;-0.144000;8.398000;,
 -0.361000;-0.144000;12.600000;,
 -0.174100;-0.144000;16.790001;,
 0.067000;-0.144000;20.980000;,
 0.361000;-0.144000;25.170000;,
 0.602000;-0.144000;0.000000;,
 0.629000;-0.144000;4.184000;,
 0.709000;-0.144000;8.367000;,
 0.842000;-0.144000;12.549000;,
 1.028000;-0.144000;16.729000;,
 1.268000;-0.144000;20.906000;,
 1.561000;-0.144000;25.080000;,
 0.602000;-0.010000;0.000000;,
 0.629000;-0.005000;4.198000;,
 0.709000;0.000000;8.396000;,
 0.842000;0.000000;12.590000;,
 1.028000;0.000000;16.790001;,
 1.268000;0.000000;20.980000;,
 1.561000;0.000000;25.170000;,
 0.534000;-0.010000;0.000000;,
 0.561000;-0.005000;4.185000;,
 0.641000;0.000000;8.369000;,
 0.774000;0.000000;12.552000;,
 0.960000;0.000000;16.733000;,
 1.200000;0.000000;20.910999;,
 1.493000;0.000000;25.084999;,
 0.534000;-0.144000;0.000000;,
 0.561000;-0.144000;4.199000;,
 0.641000;-0.144000;8.398000;,
 0.774000;-0.144000;12.600000;,
 0.960000;-0.144000;16.790001;,
 1.200000;-0.144000;20.980000;,
 1.493000;-0.144000;25.170000;,
 1.050000;-0.290000;0.000000;,
 1.050000;-0.290000;10.000000;,
 1.050000;-0.144000;0.000000;,
 1.050000;-0.144000;10.000000;,
 -1.050000;-0.144000;0.000000;,
 -1.050000;-0.144000;10.000000;,
 -1.050000;-0.290000;0.000000;,
 -1.050000;-0.290000;10.000000;,
 1.250000;-0.290000;10.000000;,
 1.250000;-0.290000;15.000000;,
 1.250000;-0.144000;10.000000;,
 1.250000;-0.144000;15.000000;,
 -1.050000;-0.144000;10.000000;,
 -1.050000;-0.144000;15.000000;,
 -1.050000;-0.290000;10.000000;,
 -1.050000;-0.290000;15.000000;,
 1.450000;-0.290000;15.000000;,
 1.450000;-0.290000;17.500000;,
 1.450000;-0.144000;15.000000;,
 1.450000;-0.144000;17.500000;,
 -1.050000;-0.144000;15.000000;,
 -1.050000;-0.144000;17.500000;,
 -1.050000;-0.290000;15.000000;,
 -1.050000;-0.290000;17.500000;,
 1.650000;-0.290000;17.500000;,
 1.650000;-0.290000;20.000000;,
 1.650000;-0.144000;17.500000;,
 1.650000;-0.144000;20.000000;,
 -1.050000;-0.144000;17.500000;,
 -1.050000;-0.144000;20.000000;,
 -1.050000;-0.290000;17.500000;,
 -1.050000;-0.290000;20.000000;,
 1.850000;-0.290000;20.000000;,
 1.850000;-0.290000;22.500000;,
 1.850000;-0.144000;20.000000;,
 1.850000;-0.144000;22.500000;,
 -1.050000;-0.144000;20.000000;,
 -1.050000;-0.144000;22.500000;,
 -1.050000;-0.290000;20.000000;,
 -1.050000;-0.290000;22.500000;,
 2.050000;-0.290000;22.500000;,
 2.050000;-0.290000;25.000000;,
 2.050000;-0.144000;22.500000;,
 2.050000;-0.144000;25.000000;,
 -1.050000;-0.144000;22.500000;,
 -1.050000;-0.144000;25.000000;,
 -1.050000;-0.290000;22.500000;,
 -1.050000;-0.290000;25.000000;,
 1.900000;-0.290000;0.000000;,
 1.900000;-0.290000;25.100000;,
 -1.900000;-0.290000;25.100000;,
 -1.900000;-0.290000;0.000000;;
 132;
 3;4,5,1;,
 3;4,1,0;,
 3;5,6,2;,
 3;5,2,1;,
 3;6,7,3;,
 3;6,3,2;,
 3;13,12,8;,
 3;13,8,9;,
 3;14,13,9;,
 3;14,9,10;,
 3;15,14,10;,
 3;15,10,11;,
 3;23,24,17;,
 3;23,17,16;,
 3;24,25,18;,
 3;24,18,17;,
 3;25,26,19;,
 3;25,19,18;,
 3;26,27,20;,
 3;26,20,19;,
 3;27,28,21;,
 3;27,21,20;,
 3;28,29,22;,
 3;28,22,21;,
 3;30,31,24;,
 3;30,24,23;,
 3;31,32,25;,
 3;31,25,24;,
 3;32,33,26;,
 3;32,26,25;,
 3;33,34,27;,
 3;33,27,26;,
 3;34,35,28;,
 3;34,28,27;,
 3;35,36,29;,
 3;35,29,28;,
 3;37,38,31;,
 3;37,31,30;,
 3;38,39,32;,
 3;38,32,31;,
 3;39,40,33;,
 3;39,33,32;,
 3;40,41,34;,
 3;40,34,33;,
 3;41,42,35;,
 3;41,35,34;,
 3;42,43,36;,
 3;42,36,35;,
 3;51,52,45;,
 3;51,45,44;,
 3;52,53,46;,
 3;52,46,45;,
 3;53,54,47;,
 3;53,47,46;,
 3;54,55,48;,
 3;54,48,47;,
 3;55,56,49;,
 3;55,49,48;,
 3;56,57,50;,
 3;56,50,49;,
 3;58,59,52;,
 3;58,52,51;,
 3;59,60,53;,
 3;59,53,52;,
 3;60,61,54;,
 3;60,54,53;,
 3;61,62,55;,
 3;61,55,54;,
 3;62,63,56;,
 3;62,56,55;,
 3;63,64,57;,
 3;63,57,56;,
 3;65,66,59;,
 3;65,59,58;,
 3;66,67,60;,
 3;66,60,59;,
 3;67,68,61;,
 3;67,61,60;,
 3;68,69,62;,
 3;68,62,61;,
 3;69,70,63;,
 3;69,63,62;,
 3;70,71,64;,
 3;70,64,63;,
 3;74,75,73;,
 3;74,73,72;,
 3;76,77,75;,
 3;76,75,74;,
 3;78,79,77;,
 3;78,77,76;,
 3;82,83,81;,
 3;82,81,80;,
 3;84,85,83;,
 3;84,83,82;,
 3;86,87,85;,
 3;86,85,84;,
 3;86,84,82;,
 3;86,82,80;,
 3;90,91,89;,
 3;90,89,88;,
 3;92,93,91;,
 3;92,91,90;,
 3;94,95,93;,
 3;94,93,92;,
 3;94,92,90;,
 3;94,90,88;,
 3;98,99,97;,
 3;98,97,96;,
 3;100,101,99;,
 3;100,99,98;,
 3;102,103,101;,
 3;102,101,100;,
 3;102,100,98;,
 3;102,98,96;,
 3;106,107,105;,
 3;106,105,104;,
 3;108,109,107;,
 3;108,107,106;,
 3;110,111,109;,
 3;110,109,108;,
 3;110,108,106;,
 3;110,106,104;,
 3;114,115,113;,
 3;114,113,112;,
 3;116,117,115;,
 3;116,115,114;,
 3;118,119,117;,
 3;118,117,116;,
 3;118,116,114;,
 3;118,114,112;,
 3;123,122,121;,
 3;123,121,120;;

 MeshMaterialList  {
  11;
  132;
  0,
  0,
  0,
  0,
  0,
  0,
  1,
  1,
  1,
  1,
  1,
  1,
  2,
  2,
  2,
  2,
  2,
  2,
  2,
  2,
  2,
  2,
  2,
  2,
  2,
  2,
  2,
  2,
  2,
  2,
  2,
  2,
  2,
  2,
  2,
  2,
  2,
  2,
  2,
  2,
  2,
  2,
  2,
  2,
  2,
  2,
  2,
  2,
  3,
  3,
  3,
  3,
  3,
  3,
  3,
  3,
  3,
  3,
  3,
  3,
  3,
  3,
  3,
  3,
  3,
  3,
  3,
  3,
  3,
  3,
  3,
  3,
  3,
  3,
  3,
  3,
  3,
  3,
  3,
  3,
  3,
  3,
  3,
  3,
  4,
  4,
  4,
  4,
  4,
  4,
  5,
  5,
  5,
  5,
  5,
  5,
  5,
  5,
  6,
  6,
  6,
  6,
  6,
  6,
  6,
  6,
  7,
  7,
  7,
  7,
  7,
  7,
  7,
  7,
  8,
  8,
  8,
  8,
  8,
  8,
  8,
  8,
  9,
  9,
  9,
  9,
  9,
  9,
  9,
  9,
  10,
  10;

  Material  {
   1.000000;1.000000;1.000000;1.000000;;
   0.000000;
   0.000000;0.000000;0.000000;;
   0.000000;0.000000;0.000000;;

   TextureFilename  {
    "Rail2.png";
   }
  }

  Material  {
   1.000000;1.000000;1.000000;1.000000;;
   0.000000;
   0.000000;0.000000;0.000000;;
   0.000000;0.000000;0.000000;;

   TextureFilename  {
    "Rail2.png";
   }
  }

  Material  {
   1.000000;1.000000;1.000000;1.000000;;
   0.000000;
   0.000000;0.000000;0.000000;;
   0.000000;0.000000;0.000000;;

   TextureFilename  {
    "Rail2.png";
   }
  }

  Material  {
   1.000000;1.000000;1.000000;1.000000;;
   0.000000;
   0.000000;0.000000;0.000000;;
   0.000000;0.000000;0.000000;;

   TextureFilename  {
    "Rail2.png";
   }
  }

  Material  {
   1.000000;1.000000;1.000000;1.000000;;
   0.000000;
   0.000000;0.000000;0.000000;;
   0.000000;0.000000;0.000000;;

   TextureFilename  {
    "Tie4.png";
   }
  }

  Material  {
   1.000000;1.000000;1.000000;1.000000;;
   0.000000;
   0.000000;0.000000;0.000000;;
   0.000000;0.000000;0.000000;;

   TextureFilename  {
    "Tie4.png";
   }
  }

  Material  {
   1.000000;1.000000;1.000000;1.000000;;
   0.000000;
   0.000000;0.000000;0.000000;;
   0.000000;0.000000;0.000000;;

   TextureFilename  {
    "Tie4.png";
   }
  }

  Material  {
   1.000000;1.000000;1.000000;1.000000;;
   0.000000;
   0.000000;0.000000;0.000000;;
   0.000000;0.000000;0.000000;;

   TextureFilename  {
    "Tie4.png";
   }
  }

  Material  {
   1.000000;1.000000;1.000000;1.000000;;
   0.000000;
   0.000000;0.000000;0.000000;;
   0.000000;0.000000;0.000000;;

   TextureFilename  {
    "Tie4.png";
   }
  }

  Material  {
   1.000000;1.000000;1.000000;1.000000;;
   0.000000;
   0.000000;0.000000;0.000000;;
   0.000000;0.000000;0.000000;;

   TextureFilename  {
    "Tie4.png";
   }
  }

  Material  {
   0.470588;0.470588;0.470588;1.000000;;
   0.000000;
   0.000000;0.000000;0.000000;;
   0.000000;0.000000;0.000000;;

   TextureFilename  {
    "Ballast2.png";
   }
  }
 }

 MeshTextureCoords  {
  124;
  0.000000;1.500000;,
  0.375000;1.500000;,
  0.625000;1.500000;,
  1.000000;1.500000;,
  0.000000;0.500000;,
  0.375000;0.500000;,
  0.625000;0.500000;,
  1.000000;0.500000;,
  0.000000;1.000000;,
  0.375000;1.000000;,
  0.625000;1.000000;,
  1.000000;1.000000;,
  0.000000;0.000000;,
  0.375000;0.000000;,
  0.625000;0.000000;,
  1.000000;0.000000;,
  0.000000;1.800000;,
  0.000000;1.500000;,
  0.000000;1.200000;,
  0.000000;0.900000;,
  0.000000;0.600000;,
  0.000000;0.300000;,
  0.000000;0.000000;,
  0.375000;1.800000;,
  0.375000;1.500000;,
  0.375000;1.200000;,
  0.375000;0.900000;,
  0.375000;0.600000;,
  0.375000;0.300000;,
  0.375000;0.000000;,
  0.625000;1.800000;,
  0.625000;1.500000;,
  0.625000;1.200000;,
  0.625000;0.900000;,
  0.625000;0.600000;,
  0.625000;0.300000;,
  0.625000;0.000000;,
  1.000000;1.800000;,
  1.000000;1.500000;,
  1.000000;1.200000;,
  1.000000;0.900000;,
  1.000000;0.600000;,
  1.000000;0.300000;,
  1.000000;0.000000;,
  0.000000;1.800000;,
  0.000000;1.500000;,
  0.000000;1.200000;,
  0.000000;0.900000;,
  0.000000;0.600000;,
  0.000000;0.300000;,
  0.000000;0.000000;,
  0.375000;1.800000;,
  0.375000;1.500000;,
  0.375000;1.200000;,
  0.375000;0.900000;,
  0.375000;0.600000;,
  0.375000;0.300000;,
  0.375000;0.000000;,
  0.625000;1.800000;,
  0.625000;1.500000;,
  0.625000;1.200000;,
  0.625000;0.900000;,
  0.625000;0.600000;,
  0.625000;0.300000;,
  0.625000;0.000000;,
  1.000000;1.800000;,
  1.000000;1.500000;,
  1.000000;1.200000;,
  1.000000;0.900000;,
  1.000000;0.600000;,
  1.000000;0.300000;,
  1.000000;0.000000;,
  0.400000;0.000000;,
  0.400000;5.000000;,
  0.400000;0.000000;,
  0.400000;5.000000;,
  0.600000;0.000000;,
  0.600000;5.000000;,
  0.600000;0.000000;,
  0.600000;5.000000;,
  0.400000;0.000000;,
  0.400000;2.500000;,
  0.400000;0.000000;,
  0.400000;2.500000;,
  0.600000;0.000000;,
  0.600000;2.500000;,
  0.600000;0.000000;,
  0.600000;2.500000;,
  0.400000;0.000000;,
  0.400000;1.250000;,
  0.400000;0.000000;,
  0.400000;1.250000;,
  0.600000;0.000000;,
  0.600000;1.250000;,
  0.600000;0.000000;,
  0.600000;1.250000;,
  0.400000;0.000000;,
  0.400000;1.250000;,
  0.400000;0.000000;,
  0.400000;1.250000;,
  0.600000;0.000000;,
  0.600000;1.250000;,
  0.600000;0.000000;,
  0.600000;1.250000;,
  0.400000;0.000000;,
  0.400000;1.250000;,
  0.400000;0.000000;,
  0.400000;1.250000;,
  0.600000;0.000000;,
  0.600000;1.250000;,
  0.600000;0.000000;,
  0.600000;1.250000;,
  0.400000;0.000000;,
  0.400000;1.250000;,
  0.400000;0.000000;,
  0.400000;1.250000;,
  0.600000;0.000000;,
  0.600000;1.250000;,
  0.600000;0.000000;,
  0.600000;1.250000;,
  1.000000;1.000000;,
  1.000000;0.000000;,
  0.000000;0.000000;,
  0.000000;1.000000;;
 }

 MeshNormals  {
  132;
  -1.000000;0.000000;0.000000;,
  -1.000000;0.000000;0.000000;,
  0.000000;1.000000;0.000000;,
  0.000000;1.000000;0.000000;,
  1.000000;0.000000;0.000000;,
  1.000000;0.000000;0.000000;,
  1.000000;0.000000;0.000000;,
  1.000000;0.000000;0.000000;,
  0.000000;1.000000;0.000000;,
  0.000000;1.000000;0.000000;,
  -1.000000;0.000000;0.000000;,
  -1.000000;0.000000;0.000000;,
  0.999911;0.000000;0.013338;,
  0.999911;0.000000;0.013338;,
  1.000000;0.000000;0.000000;,
  1.000000;0.000000;0.000000;,
  0.999565;0.000000;-0.029482;,
  0.999565;0.000000;-0.029482;,
  0.999008;0.000000;-0.044527;,
  0.999008;0.000000;-0.044527;,
  0.998357;0.000000;-0.057304;,
  0.998357;0.000000;-0.057304;,
  0.997547;0.000000;-0.069995;,
  0.997547;0.000000;-0.069995;,
  -0.000025;0.999999;-0.001191;,
  0.000000;0.000000;0.000000;,
  -0.000035;0.999999;-0.001191;,
  -0.000025;0.999999;-0.001191;,
  0.000000;1.000000;0.000000;,
  0.000000;1.000000;0.000000;,
  0.000000;1.000000;0.000000;,
  0.000000;1.000000;0.000000;,
  0.000000;1.000000;0.000000;,
  0.000000;1.000000;0.000000;,
  0.000000;1.000000;0.000000;,
  0.000000;1.000000;0.000000;,
  -0.999693;0.000000;-0.024760;,
  -0.999693;0.000000;-0.024760;,
  -0.999989;0.000000;-0.004763;,
  -0.999989;0.000000;-0.004763;,
  -0.999565;0.000000;0.029497;,
  -0.999565;0.000000;0.029497;,
  -0.999007;0.000000;0.044562;,
  -0.999007;0.000000;0.044562;,
  -0.998349;0.000000;0.057447;,
  -0.998349;0.000000;0.057447;,
  -0.997547;0.000000;0.069995;,
  -0.997547;0.000000;0.069995;,
  0.999979;0.000648;-0.006432;,
  0.999979;0.000000;-0.006453;,
  0.999811;0.003838;-0.019058;,
  0.999815;0.001926;-0.019121;,
  0.999457;0.009024;-0.031695;,
  0.999474;0.006401;-0.031786;,
  0.998845;0.018739;-0.044235;,
  0.998931;0.012656;-0.044450;,
  0.997933;0.029374;-0.057161;,
  0.998059;0.024293;-0.057346;,
  0.996617;0.043557;-0.069692;,
  0.996900;0.035961;-0.069979;,
  0.000229;0.999999;-0.001196;,
  0.000000;0.999999;-0.001191;,
  0.000478;0.999999;-0.001204;,
  0.000229;0.999999;-0.001195;,
  0.000000;1.000000;0.000000;,
  0.000000;1.000000;0.000000;,
  0.000000;1.000000;0.000000;,
  0.000000;1.000000;0.000000;,
  0.000000;1.000000;0.000000;,
  0.000000;1.000000;0.000000;,
  0.000000;1.000000;0.000000;,
  0.000000;1.000000;0.000000;,
  -0.999979;0.000648;0.006430;,
  -0.999979;0.000000;0.006451;,
  -0.999811;0.003836;0.019049;,
  -0.999815;0.001925;0.019115;,
  -0.999444;0.010545;0.031634;,
  -0.999474;0.006400;0.031779;,
  -0.998862;0.017552;0.044341;,
  -0.998902;0.014813;0.044438;,
  -0.997989;0.027391;0.057164;,
  -0.998097;0.022695;0.057334;,
  -0.996719;0.041142;0.069699;,
  -0.996984;0.033534;0.069985;,
  1.000000;0.000000;0.000000;,
  1.000000;0.000000;0.000000;,
  0.000000;1.000000;0.000000;,
  0.000000;1.000000;0.000000;,
  -1.000000;0.000000;0.000000;,
  -1.000000;0.000000;0.000000;,
  1.000000;0.000000;0.000000;,
  1.000000;0.000000;0.000000;,
  0.000000;1.000000;0.000000;,
  0.000000;1.000000;0.000000;,
  -1.000000;0.000000;0.000000;,
  -1.000000;0.000000;0.000000;,
  0.000000;0.000000;-1.000000;,
  0.000000;0.000000;-1.000000;,
  1.000000;0.000000;0.000000;,
  1.000000;0.000000;0.000000;,
  0.000000;1.000000;0.000000;,
  0.000000;1.000000;0.000000;,
  -1.000000;0.000000;0.000000;,
  -1.000000;0.000000;0.000000;,
  0.000000;0.000000;-1.000000;,
  0.000000;0.000000;-1.000000;,
  1.000000;0.000000;0.000000;,
  1.000000;0.000000;0.000000;,
  0.000000;1.000000;0.000000;,
  0.000000;1.000000;0.000000;,
  -1.000000;0.000000;0.000000;,
  -1.000000;0.000000;0.000000;,
  0.000000;0.000000;-1.000000;,
  0.000000;0.000000;-1.000000;,
  1.000000;0.000000;0.000000;,
  1.000000;0.000000;0.000000;,
  0.000000;1.000000;0.000000;,
  0.000000;1.000000;0.000000;,
  -1.000000;0.000000;0.000000;,
  -1.000000;0.000000;0.000000;,
  0.000000;0.000000;-1.000000;,
  0.000000;0.000000;-1.000000;,
  1.000000;0.000000;0.000000;,
  1.000000;0.000000;0.000000;,
  0.000000;1.000000;0.000000;,
  0.000000;1.000000;0.000000;,
  -1.000000;0.000000;0.000000;,
  -1.000000;0.000000;0.000000;,
  0.000000;0.000000;-1.000000;,
  0.000000;0.000000;-1.000000;,
  0.000000;1.000000;0.000000;,
  0.000000;1.000000;0.000000;;
  132;
  3;0,0,0;,
  3;1,1,1;,
  3;2,2,2;,
  3;3,3,3;,
  3;4,4,4;,
  3;5,5,5;,
  3;6,6,6;,
  3;7,7,7;,
  3;8,8,8;,
  3;9,9,9;,
  3;10,10,10;,
  3;11,11,11;,
  3;12,12,12;,
  3;13,13,13;,
  3;14,14,14;,
  3;15,15,15;,
  3;16,16,16;,
  3;17,17,17;,
  3;18,18,18;,
  3;19,19,19;,
  3;20,20,20;,
  3;21,21,21;,
  3;22,22,22;,
  3;23,23,23;,
  3;24,24,24;,
  3;25,25,25;,
  3;26,26,26;,
  3;27,27,27;,
  3;28,28,28;,
  3;29,29,29;,
  3;30,30,30;,
  3;31,31,31;,
  3;32,32,32;,
  3;33,33,33;,
  3;34,34,34;,
  3;35,35,35;,
  3;36,36,36;,
  3;37,37,37;,
  3;38,38,38;,
  3;39,39,39;,
  3;40,40,40;,
  3;41,41,41;,
  3;42,42,42;,
  3;43,43,43;,
  3;44,44,44;,
  3;45,45,45;,
  3;46,46,46;,
  3;47,47,47;,
  3;48,48,48;,
  3;49,49,49;,
  3;50,50,50;,
  3;51,51,51;,
  3;52,52,52;,
  3;53,53,53;,
  3;54,54,54;,
  3;55,55,55;,
  3;56,56,56;,
  3;57,57,57;,
  3;58,58,58;,
  3;59,59,59;,
  3;60,60,60;,
  3;61,61,61;,
  3;62,62,62;,
  3;63,63,63;,
  3;64,64,64;,
  3;65,65,65;,
  3;66,66,66;,
  3;67,67,67;,
  3;68,68,68;,
  3;69,69,69;,
  3;70,70,70;,
  3;71,71,71;,
  3;72,72,72;,
  3;73,73,73;,
  3;74,74,74;,
  3;75,75,75;,
  3;76,76,76;,
  3;77,77,77;,
  3;78,78,78;,
  3;79,79,79;,
  3;80,80,80;,
  3;81,81,81;,
  3;82,82,82;,
  3;83,83,83;,
  3;84,84,84;,
  3;85,85,85;,
  3;86,86,86;,
  3;87,87,87;,
  3;88,88,88;,
  3;89,89,89;,
  3;90,90,90;,
  3;91,91,91;,
  3;92,92,92;,
  3;93,93,93;,
  3;94,94,94;,
  3;95,95,95;,
  3;96,96,96;,
  3;97,97,97;,
  3;98,98,98;,
  3;99,99,99;,
  3;100,100,100;,
  3;101,101,101;,
  3;102,102,102;,
  3;103,103,103;,
  3;104,104,104;,
  3;105,105,105;,
  3;106,106,106;,
  3;107,107,107;,
  3;108,108,108;,
  3;109,109,109;,
  3;110,110,110;,
  3;111,111,111;,
  3;112,112,112;,
  3;113,113,113;,
  3;114,114,114;,
  3;115,115,115;,
  3;116,116,116;,
  3;117,117,117;,
  3;118,118,118;,
  3;119,119,119;,
  3;120,120,120;,
  3;121,121,121;,
  3;122,122,122;,
  3;123,123,123;,
  3;124,124,124;,
  3;125,125,125;,
  3;126,126,126;,
  3;127,127,127;,
  3;128,128,128;,
  3;129,129,129;,
  3;130,130,130;,
  3;131,131,131;;
 }
}