xof 0303txt 0032
template Vector {
 <3d82ab5e-62da-11cf-ab39-0020af71e433>
 FLOAT x;
 FLOAT y;
 FLOAT z;
}

template MeshFace {
 <3d82ab5f-62da-11cf-ab39-0020af71e433>
 DWORD nFaceVertexIndices;
 array DWORD faceVertexIndices[nFaceVertexIndices];
}

template Mesh {
 <3d82ab44-62da-11cf-ab39-0020af71e433>
 DWORD nVertices;
 array Vector vertices[nVertices];
 DWORD nFaces;
 array MeshFace faces[nFaces];
 [...]
}

template ColorRGBA {
 <35ff44e0-6c7c-11cf-8f52-0040333594a3>
 FLOAT red;
 FLOAT green;
 FLOAT blue;
 FLOAT alpha;
}

template ColorRGB {
 <d3e16e81-7835-11cf-8f52-0040333594a3>
 FLOAT red;
 FLOAT green;
 FLOAT blue;
}

template Material {
 <3d82ab4d-62da-11cf-ab39-0020af71e433>
 ColorRGBA faceColor;
 FLOAT power;
 ColorRGB specularColor;
 ColorRGB emissiveColor;
 [...]
}

template MeshMaterialList {
 <f6f23f42-7686-11cf-8f52-0040333594a3>
 DWORD nMaterials;
 DWORD nFaceIndexes;
 array DWORD faceIndexes[nFaceIndexes];
 [Material <3d82ab4d-62da-11cf-ab39-0020af71e433>]
}

template TextureFilename {
 <a42790e1-7810-11cf-8f52-0040333594a3>
 STRING filename;
}

template Coords2d {
 <f6f23f44-7686-11cf-8f52-0040333594a3>
 FLOAT u;
 FLOAT v;
}

template MeshTextureCoords {
 <f6f23f40-7686-11cf-8f52-0040333594a3>
 DWORD nTextureCoords;
 array Coords2d textureCoords[nTextureCoords];
}

template MeshNormals {
 <f6f23f43-7686-11cf-8f52-0040333594a3>
 DWORD nNormals;
 array Vector normals[nNormals];
 DWORD nFaceNormals;
 array MeshFace faceNormals[nFaceNormals];
}


Mesh  {
 140;
 -0.601400;-0.144000;-0.004300;,
 -0.601400;0.000000;-0.004300;,
 -0.533400;0.000000;-0.003800;,
 -0.533400;-0.144000;-0.003800;,
 -0.621500;-0.144000;3.121800;,
 -0.621500;0.000000;3.121800;,
 -0.553500;0.000000;3.122100;,
 -0.553500;-0.144000;3.122100;,
 -0.635900;-0.144000;6.247800;,
 -0.635900;0.000000;6.247800;,
 -0.567900;0.000000;6.248100;,
 -0.567900;-0.144000;6.248100;,
 -0.644500;-0.144000;9.373900;,
 -0.644500;0.000000;9.373900;,
 -0.576500;0.000000;9.374100;,
 -0.576500;-0.144000;9.374100;,
 -0.647400;-0.144000;12.500000;,
 -0.647400;0.000000;12.500000;,
 -0.579400;0.000000;12.500000;,
 -0.579400;-0.144000;12.500000;,
 -0.644500;-0.144000;15.626100;,
 -0.644500;0.000000;15.626100;,
 -0.576500;0.000000;15.626000;,
 -0.576500;-0.144000;15.626000;,
 -0.635900;-0.144000;18.752199;,
 -0.635900;0.000000;18.752199;,
 -0.567900;0.000000;18.752001;,
 -0.567900;-0.144000;18.752001;,
 -0.621500;-0.144000;21.878300;,
 -0.621500;0.000000;21.878300;,
 -0.553500;0.000000;21.877899;,
 -0.553500;-0.144000;21.877899;,
 -0.601400;-0.144000;25.004299;,
 -0.601400;0.000000;25.004299;,
 -0.533400;0.000000;25.003799;,
 -0.533400;-0.144000;25.003799;,
 -0.599900;-0.144000;25.204399;,
 -0.599900;0.000000;25.204399;,
 -0.532000;0.000000;25.203899;,
 -0.532000;-0.144000;25.203899;,
 0.533400;-0.144000;0.004100;,
 0.533400;0.000000;0.004100;,
 0.601400;0.000000;0.004600;,
 0.601400;-0.144000;0.004600;,
 0.513300;-0.144000;3.128000;,
 0.513300;0.000000;3.128000;,
 0.581300;0.000000;3.128400;,
 0.581300;-0.144000;3.128400;,
 0.499000;-0.144000;6.252000;,
 0.499000;0.000000;6.252000;,
 0.567000;0.000000;6.252300;,
 0.567000;-0.144000;6.252300;,
 0.490400;-0.144000;9.376000;,
 0.490400;0.000000;9.376000;,
 0.558400;0.000000;9.376100;,
 0.558400;-0.144000;9.376100;,
 0.487500;-0.144000;12.500000;,
 0.487500;0.000000;12.500000;,
 0.555500;0.000000;12.500000;,
 0.555500;-0.144000;12.500000;,
 0.490400;-0.144000;15.624100;,
 0.490400;0.000000;15.624100;,
 0.558400;0.000000;15.623900;,
 0.558400;-0.144000;15.623900;,
 0.499000;-0.144000;18.748100;,
 0.499000;0.000000;18.748100;,
 0.567000;0.000000;18.747801;,
 0.567000;-0.144000;18.747801;,
 0.513300;-0.144000;21.872000;,
 0.513300;0.000000;21.872000;,
 0.581300;0.000000;21.871700;,
 0.581300;-0.144000;21.871700;,
 0.533400;-0.144000;24.996000;,
 0.533400;0.000000;24.996000;,
 0.601400;0.000000;24.995501;,
 0.601400;-0.144000;24.995501;,
 0.534900;-0.144000;25.195900;,
 0.534900;0.000000;25.195900;,
 0.602900;0.000000;25.195400;,
 0.602900;-0.144000;25.195400;,
 -0.949900;-0.144000;-0.006800;,
 0.949900;-0.144000;0.007100;,
 -0.970000;-0.144000;3.119800;,
 0.929800;-0.144000;3.130300;,
 -0.984400;-0.144000;6.246600;,
 0.915500;-0.144000;6.253500;,
 -0.993000;-0.144000;9.373300;,
 0.906900;-0.144000;9.376800;,
 -0.995900;-0.144000;12.500000;,
 0.904000;-0.144000;12.500000;,
 -0.993000;-0.144000;15.626800;,
 0.906900;-0.144000;15.623300;,
 -0.984400;-0.144000;18.753500;,
 0.915500;-0.144000;18.746500;,
 -0.970000;-0.144000;21.880199;,
 0.929800;-0.144000;21.869699;,
 -0.949900;-0.144000;25.006901;,
 0.949900;-0.144000;24.992901;,
 -0.948400;-0.144000;25.207001;,
 0.951400;-0.144000;25.192801;,
 -2.499900;-0.450000;-0.018200;,
 -0.949900;-0.144000;-0.006800;,
 -2.520100;-0.450000;3.111300;,
 -0.970000;-0.144000;3.119800;,
 -2.534500;-0.450000;6.240900;,
 -0.984400;-0.144000;6.246600;,
 -2.543100;-0.450000;9.370400;,
 -0.993000;-0.144000;9.373300;,
 -2.546000;-0.450000;12.500000;,
 -0.995900;-0.144000;12.500000;,
 -2.543100;-0.450000;15.629600;,
 -0.993000;-0.144000;15.626800;,
 -2.534500;-0.450000;18.759199;,
 -0.984400;-0.144000;18.753500;,
 -2.520100;-0.450000;21.888800;,
 -0.970000;-0.144000;21.880199;,
 -2.499900;-0.450000;25.018299;,
 -0.949900;-0.144000;25.006901;,
 -2.498400;-0.450000;25.218599;,
 -0.948400;-0.144000;25.207001;,
 0.949900;-0.144000;0.007100;,
 2.499900;-0.450000;0.018500;,
 0.929800;-0.144000;3.130300;,
 2.479900;-0.450000;3.138900;,
 0.915500;-0.144000;6.253500;,
 2.465500;-0.450000;6.259200;,
 0.906900;-0.144000;9.376800;,
 2.456900;-0.450000;9.379600;,
 0.904000;-0.144000;12.500000;,
 2.454000;-0.450000;12.500000;,
 0.906900;-0.144000;15.623300;,
 2.456900;-0.450000;15.620400;,
 0.915500;-0.144000;18.746500;,
 2.465500;-0.450000;18.740801;,
 0.929800;-0.144000;21.869699;,
 2.479900;-0.450000;21.861200;,
 0.949900;-0.144000;24.992901;,
 2.499900;-0.450000;24.981501;,
 0.951400;-0.144000;25.192801;,
 2.501400;-0.450000;25.181200;;
 162;
 3;1,0,4;,
 3;1,4,5;,
 3;2,1,5;,
 3;2,5,6;,
 3;3,2,6;,
 3;3,6,7;,
 3;5,4,8;,
 3;5,8,9;,
 3;6,5,9;,
 3;6,9,10;,
 3;7,6,10;,
 3;7,10,11;,
 3;9,8,12;,
 3;9,12,13;,
 3;10,9,13;,
 3;10,13,14;,
 3;11,10,14;,
 3;11,14,15;,
 3;13,12,16;,
 3;13,16,17;,
 3;14,13,17;,
 3;14,17,18;,
 3;15,14,18;,
 3;15,18,19;,
 3;17,16,20;,
 3;17,20,21;,
 3;18,17,21;,
 3;18,21,22;,
 3;19,18,22;,
 3;19,22,23;,
 3;21,20,24;,
 3;21,24,25;,
 3;22,21,25;,
 3;22,25,26;,
 3;23,22,26;,
 3;23,26,27;,
 3;25,24,28;,
 3;25,28,29;,
 3;26,25,29;,
 3;26,29,30;,
 3;27,26,30;,
 3;27,30,31;,
 3;29,28,32;,
 3;29,32,33;,
 3;30,29,33;,
 3;30,33,34;,
 3;31,30,34;,
 3;31,34,35;,
 3;33,32,36;,
 3;33,36,37;,
 3;34,33,37;,
 3;34,37,38;,
 3;35,34,38;,
 3;35,38,39;,
 3;41,40,44;,
 3;41,44,45;,
 3;42,41,45;,
 3;42,45,46;,
 3;43,42,46;,
 3;43,46,47;,
 3;45,44,48;,
 3;45,48,49;,
 3;46,45,49;,
 3;46,49,50;,
 3;47,46,50;,
 3;47,50,51;,
 3;49,48,52;,
 3;49,52,53;,
 3;50,49,53;,
 3;50,53,54;,
 3;51,50,54;,
 3;51,54,55;,
 3;53,52,56;,
 3;53,56,57;,
 3;54,53,57;,
 3;54,57,58;,
 3;55,54,58;,
 3;55,58,59;,
 3;57,56,60;,
 3;57,60,61;,
 3;58,57,61;,
 3;58,61,62;,
 3;59,58,62;,
 3;59,62,63;,
 3;61,60,64;,
 3;61,64,65;,
 3;62,61,65;,
 3;62,65,66;,
 3;63,62,66;,
 3;63,66,67;,
 3;65,64,68;,
 3;65,68,69;,
 3;66,65,69;,
 3;66,69,70;,
 3;67,66,70;,
 3;67,70,71;,
 3;69,68,72;,
 3;69,72,73;,
 3;70,69,73;,
 3;70,73,74;,
 3;71,70,74;,
 3;71,74,75;,
 3;73,72,76;,
 3;73,76,77;,
 3;74,73,77;,
 3;74,77,78;,
 3;75,74,78;,
 3;75,78,79;,
 3;81,80,82;,
 3;81,82,83;,
 3;83,82,84;,
 3;83,84,85;,
 3;85,84,86;,
 3;85,86,87;,
 3;87,86,88;,
 3;87,88,89;,
 3;89,88,90;,
 3;89,90,91;,
 3;91,90,92;,
 3;91,92,93;,
 3;93,92,94;,
 3;93,94,95;,
 3;95,94,96;,
 3;95,96,97;,
 3;97,96,98;,
 3;97,98,99;,
 3;101,100,102;,
 3;101,102,103;,
 3;103,102,104;,
 3;103,104,105;,
 3;105,104,106;,
 3;105,106,107;,
 3;107,106,108;,
 3;107,108,109;,
 3;109,108,110;,
 3;109,110,111;,
 3;111,110,112;,
 3;111,112,113;,
 3;113,112,114;,
 3;113,114,115;,
 3;115,114,116;,
 3;115,116,117;,
 3;117,116,118;,
 3;117,118,119;,
 3;121,120,122;,
 3;121,122,123;,
 3;123,122,124;,
 3;123,124,125;,
 3;125,124,126;,
 3;125,126,127;,
 3;127,126,128;,
 3;127,128,129;,
 3;129,128,130;,
 3;129,130,131;,
 3;131,130,132;,
 3;131,132,133;,
 3;133,132,134;,
 3;133,134,135;,
 3;135,134,136;,
 3;135,136,137;,
 3;137,136,138;,
 3;137,138,139;;

 MeshMaterialList  {
  5;
  162;
  0,
  0,
  0,
  0,
  0,
  0,
  0,
  0,
  0,
  0,
  0,
  0,
  0,
  0,
  0,
  0,
  0,
  0,
  0,
  0,
  0,
  0,
  0,
  0,
  0,
  0,
  0,
  0,
  0,
  0,
  0,
  0,
  0,
  0,
  0,
  0,
  0,
  0,
  0,
  0,
  0,
  0,
  0,
  0,
  0,
  0,
  0,
  0,
  0,
  0,
  0,
  0,
  0,
  0,
  1,
  1,
  1,
  1,
  1,
  1,
  1,
  1,
  1,
  1,
  1,
  1,
  1,
  1,
  1,
  1,
  1,
  1,
  1,
  1,
  1,
  1,
  1,
  1,
  1,
  1,
  1,
  1,
  1,
  1,
  1,
  1,
  1,
  1,
  1,
  1,
  1,
  1,
  1,
  1,
  1,
  1,
  1,
  1,
  1,
  1,
  1,
  1,
  1,
  1,
  1,
  1,
  1,
  1,
  2,
  2,
  2,
  2,
  2,
  2,
  2,
  2,
  2,
  2,
  2,
  2,
  2,
  2,
  2,
  2,
  2,
  2,
  3,
  3,
  3,
  3,
  3,
  3,
  3,
  3,
  3,
  3,
  3,
  3,
  3,
  3,
  3,
  3,
  3,
  3,
  4,
  4,
  4,
  4,
  4,
  4,
  4,
  4,
  4,
  4,
  4,
  4,
  4,
  4,
  4,
  4,
  4,
  4;

  Material  {
   1.000000;1.000000;1.000000;1.000000;;
   0.000000;
   0.000000;0.000000;0.000000;;
   0.000000;0.000000;0.000000;;

   TextureFilename  {
    "rail2.png";
   }
  }

  Material  {
   1.000000;1.000000;1.000000;1.000000;;
   0.000000;
   0.000000;0.000000;0.000000;;
   0.000000;0.000000;0.000000;;

   TextureFilename  {
    "rail2.png";
   }
  }

  Material  {
   1.000000;1.000000;1.000000;1.000000;;
   0.000000;
   0.000000;0.000000;0.000000;;
   0.000000;0.000000;0.000000;;

   TextureFilename  {
    "Tie.png";
   }
  }

  Material  {
   1.000000;1.000000;1.000000;1.000000;;
   0.000000;
   0.000000;0.000000;0.000000;;
   0.000000;0.000000;0.000000;;

   TextureFilename  {
    "Ballast.png";
   }
  }

  Material  {
   1.000000;1.000000;1.000000;1.000000;;
   0.000000;
   0.000000;0.000000;0.000000;;
   0.000000;0.000000;0.000000;;

   TextureFilename  {
    "Ballast.png";
   }
  }
 }

 MeshTextureCoords  {
  140;
  0.000000;1.000000;,
  0.375000;1.000000;,
  0.625000;1.000000;,
  1.000000;1.000000;,
  0.000000;0.875000;,
  0.375000;0.875000;,
  0.625000;0.875000;,
  1.000000;0.875000;,
  0.000000;0.750000;,
  0.375000;0.750000;,
  0.625000;0.750000;,
  1.000000;0.750000;,
  0.000000;0.625000;,
  0.375000;0.625000;,
  0.625000;0.625000;,
  1.000000;0.625000;,
  0.000000;0.500000;,
  0.375000;0.500000;,
  0.625000;0.500000;,
  1.000000;0.500000;,
  0.000000;0.375000;,
  0.375000;0.375000;,
  0.625000;0.375000;,
  1.000000;0.375000;,
  0.000000;0.250000;,
  0.375000;0.250000;,
  0.625000;0.250000;,
  1.000000;0.250000;,
  0.000000;0.125000;,
  0.375000;0.125000;,
  0.625000;0.125000;,
  1.000000;0.125000;,
  0.000000;0.000000;,
  0.375000;0.000000;,
  0.625000;0.000000;,
  1.000000;0.000000;,
  0.000000;-0.008000;,
  0.375000;-0.008000;,
  0.625000;-0.008000;,
  1.000000;-0.008000;,
  0.000000;1.000000;,
  0.375000;1.000000;,
  0.625000;1.000000;,
  1.000000;1.000000;,
  0.000000;0.875000;,
  0.375000;0.875000;,
  0.625000;0.875000;,
  1.000000;0.875000;,
  0.000000;0.750000;,
  0.375000;0.750000;,
  0.625000;0.750000;,
  1.000000;0.750000;,
  0.000000;0.625000;,
  0.375000;0.625000;,
  0.625000;0.625000;,
  1.000000;0.625000;,
  0.000000;0.500000;,
  0.375000;0.500000;,
  0.625000;0.500000;,
  1.000000;0.500000;,
  0.000000;0.375000;,
  0.375000;0.375000;,
  0.625000;0.375000;,
  1.000000;0.375000;,
  0.000000;0.250000;,
  0.375000;0.250000;,
  0.625000;0.250000;,
  1.000000;0.250000;,
  0.000000;0.125000;,
  0.375000;0.125000;,
  0.625000;0.125000;,
  1.000000;0.125000;,
  0.000000;0.000000;,
  0.375000;0.000000;,
  0.625000;0.000000;,
  1.000000;0.000000;,
  0.000000;-0.008000;,
  0.375000;-0.008000;,
  0.625000;-0.008000;,
  1.000000;-0.008000;,
  1.000000;9.000000;,
  0.000000;9.000000;,
  1.000000;7.875000;,
  0.000000;7.875000;,
  1.000000;6.750000;,
  0.000000;6.750000;,
  1.000000;5.625000;,
  0.000000;5.625000;,
  1.000000;4.500000;,
  0.000000;4.500000;,
  1.000000;3.375000;,
  0.000000;3.375000;,
  1.000000;2.250000;,
  0.000000;2.250000;,
  1.000000;1.125000;,
  0.000000;1.125000;,
  1.000000;0.000000;,
  0.000000;0.000000;,
  1.000000;-0.072000;,
  0.000000;-0.072000;,
  0.000000;1.000000;,
  1.000000;1.000000;,
  0.000000;0.875000;,
  1.000000;0.875000;,
  0.000000;0.750000;,
  1.000000;0.750000;,
  0.000000;0.625000;,
  1.000000;0.625000;,
  0.000000;0.500000;,
  1.000000;0.500000;,
  0.000000;0.375000;,
  1.000000;0.375000;,
  0.000000;0.250000;,
  1.000000;0.250000;,
  0.000000;0.125000;,
  1.000000;0.125000;,
  0.000000;0.000000;,
  1.000000;0.000000;,
  0.000000;-0.008000;,
  1.000000;-0.008000;,
  1.000000;1.000000;,
  0.000000;1.000000;,
  1.000000;0.875000;,
  0.000000;0.875000;,
  1.000000;0.750000;,
  0.000000;0.750000;,
  1.000000;0.625000;,
  0.000000;0.625000;,
  1.000000;0.500000;,
  0.000000;0.500000;,
  1.000000;0.375000;,
  0.000000;0.375000;,
  1.000000;0.250000;,
  0.000000;0.250000;,
  1.000000;0.125000;,
  0.000000;0.125000;,
  1.000000;0.000000;,
  0.000000;0.000000;,
  1.000000;-0.008000;,
  0.000000;-0.008000;;
 }

 MeshNormals  {
  162;
  -0.999979;0.000000;-0.006430;,
  -0.999979;0.000000;-0.006430;,
  0.000000;1.000000;0.000000;,
  0.000000;1.000000;0.000000;,
  0.999979;0.000000;0.006430;,
  0.999979;0.000000;0.006430;,
  -0.999989;0.000000;-0.004606;,
  -0.999989;0.000000;-0.004606;,
  0.000000;1.000000;0.000000;,
  0.000000;1.000000;0.000000;,
  0.999989;0.000000;0.004606;,
  0.999989;0.000000;0.004606;,
  -0.999996;0.000000;-0.002751;,
  -0.999996;0.000000;-0.002751;,
  0.000000;1.000000;0.000000;,
  0.000000;1.000000;0.000000;,
  0.999996;0.000000;0.002751;,
  0.999996;0.000000;0.002751;,
  -1.000000;0.000000;-0.000928;,
  -1.000000;0.000000;-0.000928;,
  0.000000;1.000000;0.000000;,
  0.000000;1.000000;0.000000;,
  1.000000;0.000000;0.000928;,
  1.000000;0.000000;0.000928;,
  -1.000000;0.000000;0.000928;,
  -1.000000;0.000000;0.000928;,
  0.000000;1.000000;0.000000;,
  0.000000;1.000000;0.000000;,
  1.000000;0.000000;-0.000928;,
  1.000000;0.000000;-0.000928;,
  -0.999996;0.000000;0.002751;,
  -0.999996;0.000000;0.002751;,
  0.000000;1.000000;0.000000;,
  0.000000;1.000000;0.000000;,
  0.999996;0.000000;-0.002751;,
  0.999996;0.000000;-0.002751;,
  -0.999989;0.000000;0.004606;,
  -0.999989;0.000000;0.004606;,
  0.000000;1.000000;0.000000;,
  0.000000;1.000000;0.000000;,
  0.999989;0.000000;-0.004607;,
  0.999989;0.000000;-0.004607;,
  -0.999979;0.000000;0.006430;,
  -0.999979;0.000000;0.006430;,
  0.000000;1.000000;0.000000;,
  0.000000;1.000000;0.000000;,
  0.999979;0.000000;-0.006430;,
  0.999979;0.000000;-0.006430;,
  -0.999972;0.000000;0.007496;,
  -0.999972;0.000000;0.007496;,
  0.000000;1.000000;0.000000;,
  0.000000;1.000000;0.000000;,
  0.999975;0.000000;-0.006996;,
  0.999975;0.000000;-0.006996;,
  -0.999979;0.000000;-0.006434;,
  -0.999979;0.000000;-0.006434;,
  0.000000;1.000000;0.000000;,
  0.000000;1.000000;0.000000;,
  0.999979;0.000000;0.006434;,
  0.999979;0.000000;0.006434;,
  -0.999989;0.000000;-0.004577;,
  -0.999989;0.000000;-0.004577;,
  0.000000;1.000000;0.000000;,
  0.000000;1.000000;0.000000;,
  0.999990;0.000000;0.004578;,
  0.999990;0.000000;0.004578;,
  -0.999996;0.000000;-0.002753;,
  -0.999996;0.000000;-0.002753;,
  0.000000;1.000000;0.000000;,
  0.000000;1.000000;0.000000;,
  0.999996;0.000000;0.002753;,
  0.999996;0.000000;0.002753;,
  -1.000000;0.000000;-0.000928;,
  -1.000000;0.000000;-0.000928;,
  0.000000;1.000000;0.000000;,
  0.000000;1.000000;0.000000;,
  1.000000;0.000000;0.000928;,
  1.000000;0.000000;0.000928;,
  -1.000000;0.000000;0.000928;,
  -1.000000;0.000000;0.000928;,
  0.000000;1.000000;0.000000;,
  0.000000;1.000000;0.000000;,
  1.000000;0.000000;-0.000928;,
  1.000000;0.000000;-0.000928;,
  -0.999996;0.000000;0.002753;,
  -0.999996;0.000000;0.002753;,
  0.000000;1.000000;0.000000;,
  0.000000;1.000000;0.000000;,
  0.999996;0.000000;-0.002753;,
  0.999996;0.000000;-0.002753;,
  -0.999989;0.000000;0.004578;,
  -0.999989;0.000000;0.004578;,
  0.000000;1.000000;0.000000;,
  0.000000;1.000000;0.000000;,
  0.999989;0.000000;-0.004578;,
  0.999989;0.000000;-0.004578;,
  -0.999979;0.000000;0.006434;,
  -0.999979;0.000000;0.006434;,
  0.000000;1.000000;0.000000;,
  0.000000;1.000000;0.000000;,
  0.999979;0.000000;-0.006434;,
  0.999979;0.000000;-0.006434;,
  -0.999972;0.000000;0.007504;,
  -0.999972;0.000000;0.007504;,
  0.000000;1.000000;0.000000;,
  0.000000;1.000000;0.000000;,
  0.999972;0.000000;-0.007504;,
  0.999972;0.000000;-0.007504;,
  0.000000;1.000000;0.000000;,
  0.000000;1.000000;0.000000;,
  0.000000;1.000000;0.000000;,
  0.000000;1.000000;0.000000;,
  0.000000;1.000000;0.000000;,
  0.000000;1.000000;0.000000;,
  0.000000;1.000000;0.000000;,
  0.000000;1.000000;0.000000;,
  0.000000;1.000000;0.000000;,
  0.000000;1.000000;0.000000;,
  0.000000;1.000000;0.000000;,
  0.000000;1.000000;0.000000;,
  0.000000;1.000000;0.000000;,
  0.000000;1.000000;0.000000;,
  0.000000;1.000000;0.000000;,
  0.000000;1.000000;0.000000;,
  0.000000;1.000000;0.000000;,
  0.000000;1.000000;0.000000;,
  -0.193672;0.981065;-0.001250;,
  -0.193662;0.981067;-0.001245;,
  -0.193664;0.981067;-0.000891;,
  -0.193666;0.981067;-0.000892;,
  -0.193667;0.981067;-0.000532;,
  -0.193668;0.981067;-0.000533;,
  -0.193669;0.981067;-0.000179;,
  -0.193669;0.981067;-0.000180;,
  -0.193669;0.981067;0.000179;,
  -0.193669;0.981067;0.000180;,
  -0.193668;0.981067;0.000532;,
  -0.193667;0.981067;0.000533;,
  -0.193666;0.981067;0.000891;,
  -0.193664;0.981067;0.000892;,
  -0.193662;0.981067;0.001250;,
  -0.193672;0.981066;0.001245;,
  -0.193671;0.981066;0.001450;,
  -0.193670;0.981066;0.001452;,
  0.193672;0.981066;0.001246;,
  0.193662;0.981067;0.001241;,
  0.193664;0.981068;0.000887;,
  0.193678;0.981065;0.000894;,
  0.193679;0.981065;0.000533;,
  0.193680;0.981065;0.000534;,
  0.193681;0.981065;0.000180;,
  0.193681;0.981065;0.000180;,
  0.193681;0.981064;-0.000180;,
  0.193681;0.981065;-0.000180;,
  0.193680;0.981065;-0.000533;,
  0.193679;0.981065;-0.000534;,
  0.193678;0.981065;-0.000887;,
  0.193664;0.981067;-0.000894;,
  0.193662;0.981067;-0.001246;,
  0.193672;0.981066;-0.001241;,
  0.193671;0.981066;-0.001453;,
  0.193670;0.981066;-0.001455;;
  162;
  3;0,0,0;,
  3;1,1,1;,
  3;2,2,2;,
  3;3,3,3;,
  3;4,4,4;,
  3;5,5,5;,
  3;6,6,6;,
  3;7,7,7;,
  3;8,8,8;,
  3;9,9,9;,
  3;10,10,10;,
  3;11,11,11;,
  3;12,12,12;,
  3;13,13,13;,
  3;14,14,14;,
  3;15,15,15;,
  3;16,16,16;,
  3;17,17,17;,
  3;18,18,18;,
  3;19,19,19;,
  3;20,20,20;,
  3;21,21,21;,
  3;22,22,22;,
  3;23,23,23;,
  3;24,24,24;,
  3;25,25,25;,
  3;26,26,26;,
  3;27,27,27;,
  3;28,28,28;,
  3;29,29,29;,
  3;30,30,30;,
  3;31,31,31;,
  3;32,32,32;,
  3;33,33,33;,
  3;34,34,34;,
  3;35,35,35;,
  3;36,36,36;,
  3;37,37,37;,
  3;38,38,38;,
  3;39,39,39;,
  3;40,40,40;,
  3;41,41,41;,
  3;42,42,42;,
  3;43,43,43;,
  3;44,44,44;,
  3;45,45,45;,
  3;46,46,46;,
  3;47,47,47;,
  3;48,48,48;,
  3;49,49,49;,
  3;50,50,50;,
  3;51,51,51;,
  3;52,52,52;,
  3;53,53,53;,
  3;54,54,54;,
  3;55,55,55;,
  3;56,56,56;,
  3;57,57,57;,
  3;58,58,58;,
  3;59,59,59;,
  3;60,60,60;,
  3;61,61,61;,
  3;62,62,62;,
  3;63,63,63;,
  3;64,64,64;,
  3;65,65,65;,
  3;66,66,66;,
  3;67,67,67;,
  3;68,68,68;,
  3;69,69,69;,
  3;70,70,70;,
  3;71,71,71;,
  3;72,72,72;,
  3;73,73,73;,
  3;74,74,74;,
  3;75,75,75;,
  3;76,76,76;,
  3;77,77,77;,
  3;78,78,78;,
  3;79,79,79;,
  3;80,80,80;,
  3;81,81,81;,
  3;82,82,82;,
  3;83,83,83;,
  3;84,84,84;,
  3;85,85,85;,
  3;86,86,86;,
  3;87,87,87;,
  3;88,88,88;,
  3;89,89,89;,
  3;90,90,90;,
  3;91,91,91;,
  3;92,92,92;,
  3;93,93,93;,
  3;94,94,94;,
  3;95,95,95;,
  3;96,96,96;,
  3;97,97,97;,
  3;98,98,98;,
  3;99,99,99;,
  3;100,100,100;,
  3;101,101,101;,
  3;102,102,102;,
  3;103,103,103;,
  3;104,104,104;,
  3;105,105,105;,
  3;106,106,106;,
  3;107,107,107;,
  3;108,108,108;,
  3;109,109,109;,
  3;110,110,110;,
  3;111,111,111;,
  3;112,112,112;,
  3;113,113,113;,
  3;114,114,114;,
  3;115,115,115;,
  3;116,116,116;,
  3;117,117,117;,
  3;118,118,118;,
  3;119,119,119;,
  3;120,120,120;,
  3;121,121,121;,
  3;122,122,122;,
  3;123,123,123;,
  3;124,124,124;,
  3;125,125,125;,
  3;126,126,126;,
  3;127,127,127;,
  3;128,128,128;,
  3;129,129,129;,
  3;130,130,130;,
  3;131,131,131;,
  3;132,132,132;,
  3;133,133,133;,
  3;134,134,134;,
  3;135,135,135;,
  3;136,136,136;,
  3;137,137,137;,
  3;138,138,138;,
  3;139,139,139;,
  3;140,140,140;,
  3;141,141,141;,
  3;142,142,142;,
  3;143,143,143;,
  3;144,144,144;,
  3;145,145,145;,
  3;146,146,146;,
  3;147,147,147;,
  3;148,148,148;,
  3;149,149,149;,
  3;150,150,150;,
  3;151,151,151;,
  3;152,152,152;,
  3;153,153,153;,
  3;154,154,154;,
  3;155,155,155;,
  3;156,156,156;,
  3;157,157,157;,
  3;158,158,158;,
  3;159,159,159;,
  3;160,160,160;,
  3;161,161,161;;
 }
}