xof 0303txt 0032
template Vector {
 <3d82ab5e-62da-11cf-ab39-0020af71e433>
 FLOAT x;
 FLOAT y;
 FLOAT z;
}

template MeshFace {
 <3d82ab5f-62da-11cf-ab39-0020af71e433>
 DWORD nFaceVertexIndices;
 array DWORD faceVertexIndices[nFaceVertexIndices];
}

template Mesh {
 <3d82ab44-62da-11cf-ab39-0020af71e433>
 DWORD nVertices;
 array Vector vertices[nVertices];
 DWORD nFaces;
 array MeshFace faces[nFaces];
 [...]
}

template ColorRGBA {
 <35ff44e0-6c7c-11cf-8f52-0040333594a3>
 FLOAT red;
 FLOAT green;
 FLOAT blue;
 FLOAT alpha;
}

template ColorRGB {
 <d3e16e81-7835-11cf-8f52-0040333594a3>
 FLOAT red;
 FLOAT green;
 FLOAT blue;
}

template Material {
 <3d82ab4d-62da-11cf-ab39-0020af71e433>
 ColorRGBA faceColor;
 FLOAT power;
 ColorRGB specularColor;
 ColorRGB emissiveColor;
 [...]
}

template MeshMaterialList {
 <f6f23f42-7686-11cf-8f52-0040333594a3>
 DWORD nMaterials;
 DWORD nFaceIndexes;
 array DWORD faceIndexes[nFaceIndexes];
 [Material <3d82ab4d-62da-11cf-ab39-0020af71e433>]
}

template TextureFilename {
 <a42790e1-7810-11cf-8f52-0040333594a3>
 STRING filename;
}

template Coords2d {
 <f6f23f44-7686-11cf-8f52-0040333594a3>
 FLOAT u;
 FLOAT v;
}

template MeshTextureCoords {
 <f6f23f40-7686-11cf-8f52-0040333594a3>
 DWORD nTextureCoords;
 array Coords2d textureCoords[nTextureCoords];
}

template MeshNormals {
 <f6f23f43-7686-11cf-8f52-0040333594a3>
 DWORD nNormals;
 array Vector normals[nNormals];
 DWORD nFaceNormals;
 array MeshFace faceNormals[nFaceNormals];
}


Mesh  {
 140;
 -0.600700;-0.144000;-0.030000;,
 -0.600700;0.000000;-0.030000;,
 -0.532800;0.000000;-0.026600;,
 -0.532800;-0.144000;-0.026600;,
 -0.737800;-0.144000;3.099500;,
 -0.737800;0.000000;3.099500;,
 -0.669800;0.000000;3.102000;,
 -0.669800;-0.144000;3.102000;,
 -0.835600;-0.144000;6.230400;,
 -0.835600;0.000000;6.230400;,
 -0.767600;0.000000;6.232100;,
 -0.767600;-0.144000;6.232100;,
 -0.894400;-0.144000;9.362400;,
 -0.894400;0.000000;9.362400;,
 -0.826400;0.000000;9.363200;,
 -0.826400;-0.144000;9.363200;,
 -0.913900;-0.144000;12.494800;,
 -0.913900;0.000000;12.494800;,
 -0.845900;0.000000;12.494800;,
 -0.845900;-0.144000;12.494800;,
 -0.894400;-0.144000;15.627300;,
 -0.894400;0.000000;15.627300;,
 -0.826400;0.000000;15.626400;,
 -0.826400;-0.144000;15.626400;,
 -0.835600;-0.144000;18.759199;,
 -0.835600;0.000000;18.759199;,
 -0.767600;0.000000;18.757500;,
 -0.767600;-0.144000;18.757500;,
 -0.737800;-0.144000;21.890200;,
 -0.737800;0.000000;21.890200;,
 -0.669800;0.000000;21.887600;,
 -0.669800;-0.144000;21.887600;,
 -0.600800;-0.144000;25.019699;,
 -0.600800;0.000000;25.019699;,
 -0.532800;0.000000;25.016300;,
 -0.532800;-0.144000;25.016300;,
 -0.590700;-0.144000;25.219900;,
 -0.590700;0.000000;25.219900;,
 -0.522700;0.000000;25.216400;,
 -0.522700;-0.144000;25.216400;,
 0.532800;-0.144000;0.026700;,
 0.532800;0.000000;0.026700;,
 0.600700;0.000000;0.030100;,
 0.600700;-0.144000;0.030100;,
 0.396400;-0.144000;3.142000;,
 0.396400;0.000000;3.142000;,
 0.464400;0.000000;3.144600;,
 0.464400;-0.144000;3.144600;,
 0.299000;-0.144000;6.258800;,
 0.299000;0.000000;6.258800;,
 0.367000;0.000000;6.260500;,
 0.367000;-0.144000;6.260500;,
 0.240500;-0.144000;9.376600;,
 0.240500;0.000000;9.376600;,
 0.308600;0.000000;9.377400;,
 0.308600;-0.144000;9.377400;,
 0.221100;-0.144000;12.494800;,
 0.221100;0.000000;12.494800;,
 0.289100;0.000000;12.494800;,
 0.289100;-0.144000;12.494800;,
 0.240500;-0.144000;15.613100;,
 0.240500;0.000000;15.613100;,
 0.308500;0.000000;15.612200;,
 0.308500;-0.144000;15.612200;,
 0.299000;-0.144000;18.730801;,
 0.299000;0.000000;18.730801;,
 0.367000;0.000000;18.729099;,
 0.367000;-0.144000;18.729099;,
 0.396400;-0.144000;21.847601;,
 0.396400;0.000000;21.847601;,
 0.464400;0.000000;21.845100;,
 0.464400;-0.144000;21.845100;,
 0.532800;-0.144000;24.962900;,
 0.532800;0.000000;24.962900;,
 0.600700;0.000000;24.959499;,
 0.600700;-0.144000;24.959499;,
 0.542900;-0.144000;25.162300;,
 0.542900;0.000000;25.162300;,
 0.610800;0.000000;25.158800;,
 0.610800;-0.144000;25.158800;,
 -0.948800;-0.144000;-0.047500;,
 0.948800;-0.144000;0.047500;,
 -1.086000;-0.144000;3.086400;,
 0.812700;-0.144000;3.157600;,
 -1.184000;-0.144000;6.221700;,
 0.715400;-0.144000;6.269200;,
 -1.242800;-0.144000;9.358000;,
 0.657000;-0.144000;9.381800;,
 -1.262400;-0.144000;12.494800;,
 0.637600;-0.144000;12.494800;,
 -1.242800;-0.144000;15.631600;,
 0.657000;-0.144000;15.607900;,
 -1.184000;-0.144000;18.767900;,
 0.715400;-0.144000;18.720400;,
 -1.086000;-0.144000;21.903200;,
 0.812700;-0.144000;21.832001;,
 -0.948800;-0.144000;25.037100;,
 0.948800;-0.144000;24.942101;,
 -0.938700;-0.144000;25.237600;,
 0.958800;-0.144000;25.141100;,
 -2.496900;-0.450000;-0.124900;,
 -0.948800;-0.144000;-0.047500;,
 -2.634900;-0.450000;3.028300;,
 -1.086000;-0.144000;3.086400;,
 -2.733500;-0.450000;6.183000;,
 -1.184000;-0.144000;6.221700;,
 -2.792700;-0.450000;9.338600;,
 -1.242800;-0.144000;9.358000;,
 -2.812400;-0.450000;12.494800;,
 -1.262400;-0.144000;12.494800;,
 -2.792700;-0.450000;15.651000;,
 -1.242800;-0.144000;15.631600;,
 -2.733500;-0.450000;18.806700;,
 -1.184000;-0.144000;18.767900;,
 -2.634900;-0.450000;21.961300;,
 -1.086000;-0.144000;21.903200;,
 -2.496900;-0.450000;25.114599;,
 -0.948800;-0.144000;25.037100;,
 -2.486700;-0.450000;25.316299;,
 -0.938700;-0.144000;25.237600;,
 0.948800;-0.144000;0.047500;,
 2.496900;-0.450000;0.125000;,
 0.812700;-0.144000;3.157600;,
 2.361600;-0.450000;3.215700;,
 0.715400;-0.144000;6.269200;,
 2.264900;-0.450000;6.308000;,
 0.657000;-0.144000;9.381800;,
 2.206900;-0.450000;9.401100;,
 0.637600;-0.144000;12.494800;,
 2.187600;-0.450000;12.494800;,
 0.657000;-0.144000;15.607900;,
 2.206900;-0.450000;15.588500;,
 0.715400;-0.144000;18.720400;,
 2.264900;-0.450000;18.681700;,
 0.812700;-0.144000;21.832001;,
 2.361600;-0.450000;21.773899;,
 0.948800;-0.144000;24.942101;,
 2.496900;-0.450000;24.864700;,
 0.958800;-0.144000;25.141100;,
 2.506800;-0.450000;25.062401;;
 162;
 3;1,0,4;,
 3;1,4,5;,
 3;2,1,5;,
 3;2,5,6;,
 3;3,2,6;,
 3;3,6,7;,
 3;5,4,8;,
 3;5,8,9;,
 3;6,5,9;,
 3;6,9,10;,
 3;7,6,10;,
 3;7,10,11;,
 3;9,8,12;,
 3;9,12,13;,
 3;10,9,13;,
 3;10,13,14;,
 3;11,10,14;,
 3;11,14,15;,
 3;13,12,16;,
 3;13,16,17;,
 3;14,13,17;,
 3;14,17,18;,
 3;15,14,18;,
 3;15,18,19;,
 3;17,16,20;,
 3;17,20,21;,
 3;18,17,21;,
 3;18,21,22;,
 3;19,18,22;,
 3;19,22,23;,
 3;21,20,24;,
 3;21,24,25;,
 3;22,21,25;,
 3;22,25,26;,
 3;23,22,26;,
 3;23,26,27;,
 3;25,24,28;,
 3;25,28,29;,
 3;26,25,29;,
 3;26,29,30;,
 3;27,26,30;,
 3;27,30,31;,
 3;29,28,32;,
 3;29,32,33;,
 3;30,29,33;,
 3;30,33,34;,
 3;31,30,34;,
 3;31,34,35;,
 3;33,32,36;,
 3;33,36,37;,
 3;34,33,37;,
 3;34,37,38;,
 3;35,34,38;,
 3;35,38,39;,
 3;41,40,44;,
 3;41,44,45;,
 3;42,41,45;,
 3;42,45,46;,
 3;43,42,46;,
 3;43,46,47;,
 3;45,44,48;,
 3;45,48,49;,
 3;46,45,49;,
 3;46,49,50;,
 3;47,46,50;,
 3;47,50,51;,
 3;49,48,52;,
 3;49,52,53;,
 3;50,49,53;,
 3;50,53,54;,
 3;51,50,54;,
 3;51,54,55;,
 3;53,52,56;,
 3;53,56,57;,
 3;54,53,57;,
 3;54,57,58;,
 3;55,54,58;,
 3;55,58,59;,
 3;57,56,60;,
 3;57,60,61;,
 3;58,57,61;,
 3;58,61,62;,
 3;59,58,62;,
 3;59,62,63;,
 3;61,60,64;,
 3;61,64,65;,
 3;62,61,65;,
 3;62,65,66;,
 3;63,62,66;,
 3;63,66,67;,
 3;65,64,68;,
 3;65,68,69;,
 3;66,65,69;,
 3;66,69,70;,
 3;67,66,70;,
 3;67,70,71;,
 3;69,68,72;,
 3;69,72,73;,
 3;70,69,73;,
 3;70,73,74;,
 3;71,70,74;,
 3;71,74,75;,
 3;73,72,76;,
 3;73,76,77;,
 3;74,73,77;,
 3;74,77,78;,
 3;75,74,78;,
 3;75,78,79;,
 3;81,80,82;,
 3;81,82,83;,
 3;83,82,84;,
 3;83,84,85;,
 3;85,84,86;,
 3;85,86,87;,
 3;87,86,88;,
 3;87,88,89;,
 3;89,88,90;,
 3;89,90,91;,
 3;91,90,92;,
 3;91,92,93;,
 3;93,92,94;,
 3;93,94,95;,
 3;95,94,96;,
 3;95,96,97;,
 3;97,96,98;,
 3;97,98,99;,
 3;101,100,102;,
 3;101,102,103;,
 3;103,102,104;,
 3;103,104,105;,
 3;105,104,106;,
 3;105,106,107;,
 3;107,106,108;,
 3;107,108,109;,
 3;109,108,110;,
 3;109,110,111;,
 3;111,110,112;,
 3;111,112,113;,
 3;113,112,114;,
 3;113,114,115;,
 3;115,114,116;,
 3;115,116,117;,
 3;117,116,118;,
 3;117,118,119;,
 3;121,120,122;,
 3;121,122,123;,
 3;123,122,124;,
 3;123,124,125;,
 3;125,124,126;,
 3;125,126,127;,
 3;127,126,128;,
 3;127,128,129;,
 3;129,128,130;,
 3;129,130,131;,
 3;131,130,132;,
 3;131,132,133;,
 3;133,132,134;,
 3;133,134,135;,
 3;135,134,136;,
 3;135,136,137;,
 3;137,136,138;,
 3;137,138,139;;

 MeshMaterialList  {
  5;
  162;
  0,
  0,
  0,
  0,
  0,
  0,
  0,
  0,
  0,
  0,
  0,
  0,
  0,
  0,
  0,
  0,
  0,
  0,
  0,
  0,
  0,
  0,
  0,
  0,
  0,
  0,
  0,
  0,
  0,
  0,
  0,
  0,
  0,
  0,
  0,
  0,
  0,
  0,
  0,
  0,
  0,
  0,
  0,
  0,
  0,
  0,
  0,
  0,
  0,
  0,
  0,
  0,
  0,
  0,
  1,
  1,
  1,
  1,
  1,
  1,
  1,
  1,
  1,
  1,
  1,
  1,
  1,
  1,
  1,
  1,
  1,
  1,
  1,
  1,
  1,
  1,
  1,
  1,
  1,
  1,
  1,
  1,
  1,
  1,
  1,
  1,
  1,
  1,
  1,
  1,
  1,
  1,
  1,
  1,
  1,
  1,
  1,
  1,
  1,
  1,
  1,
  1,
  1,
  1,
  1,
  1,
  1,
  1,
  2,
  2,
  2,
  2,
  2,
  2,
  2,
  2,
  2,
  2,
  2,
  2,
  2,
  2,
  2,
  2,
  2,
  2,
  3,
  3,
  3,
  3,
  3,
  3,
  3,
  3,
  3,
  3,
  3,
  3,
  3,
  3,
  3,
  3,
  3,
  3,
  4,
  4,
  4,
  4,
  4,
  4,
  4,
  4,
  4,
  4,
  4,
  4,
  4,
  4,
  4,
  4,
  4,
  4;

  Material  {
   1.000000;1.000000;1.000000;1.000000;;
   0.000000;
   0.000000;0.000000;0.000000;;
   0.000000;0.000000;0.000000;;

   TextureFilename  {
    "rail2.png";
   }
  }

  Material  {
   1.000000;1.000000;1.000000;1.000000;;
   0.000000;
   0.000000;0.000000;0.000000;;
   0.000000;0.000000;0.000000;;

   TextureFilename  {
    "rail2.png";
   }
  }

  Material  {
   1.000000;1.000000;1.000000;1.000000;;
   0.000000;
   0.000000;0.000000;0.000000;;
   0.000000;0.000000;0.000000;;

   TextureFilename  {
    "Tie.png";
   }
  }

  Material  {
   1.000000;1.000000;1.000000;1.000000;;
   0.000000;
   0.000000;0.000000;0.000000;;
   0.000000;0.000000;0.000000;;

   TextureFilename  {
    "Ballast.png";
   }
  }

  Material  {
   1.000000;1.000000;1.000000;1.000000;;
   0.000000;
   0.000000;0.000000;0.000000;;
   0.000000;0.000000;0.000000;;

   TextureFilename  {
    "Ballast.png";
   }
  }
 }

 MeshTextureCoords  {
  140;
  0.000000;1.000000;,
  0.375000;1.000000;,
  0.625000;1.000000;,
  1.000000;1.000000;,
  0.000000;0.875000;,
  0.375000;0.875000;,
  0.625000;0.875000;,
  1.000000;0.875000;,
  0.000000;0.750000;,
  0.375000;0.750000;,
  0.625000;0.750000;,
  1.000000;0.750000;,
  0.000000;0.625000;,
  0.375000;0.625000;,
  0.625000;0.625000;,
  1.000000;0.625000;,
  0.000000;0.500000;,
  0.375000;0.500000;,
  0.625000;0.500000;,
  1.000000;0.500000;,
  0.000000;0.375000;,
  0.375000;0.375000;,
  0.625000;0.375000;,
  1.000000;0.375000;,
  0.000000;0.250000;,
  0.375000;0.250000;,
  0.625000;0.250000;,
  1.000000;0.250000;,
  0.000000;0.125000;,
  0.375000;0.125000;,
  0.625000;0.125000;,
  1.000000;0.125000;,
  0.000000;0.000000;,
  0.375000;0.000000;,
  0.625000;0.000000;,
  1.000000;0.000000;,
  0.000000;-0.008000;,
  0.375000;-0.008000;,
  0.625000;-0.008000;,
  1.000000;-0.008000;,
  0.000000;1.000000;,
  0.375000;1.000000;,
  0.625000;1.000000;,
  1.000000;1.000000;,
  0.000000;0.875000;,
  0.375000;0.875000;,
  0.625000;0.875000;,
  1.000000;0.875000;,
  0.000000;0.750000;,
  0.375000;0.750000;,
  0.625000;0.750000;,
  1.000000;0.750000;,
  0.000000;0.625000;,
  0.375000;0.625000;,
  0.625000;0.625000;,
  1.000000;0.625000;,
  0.000000;0.500000;,
  0.375000;0.500000;,
  0.625000;0.500000;,
  1.000000;0.500000;,
  0.000000;0.375000;,
  0.375000;0.375000;,
  0.625000;0.375000;,
  1.000000;0.375000;,
  0.000000;0.250000;,
  0.375000;0.250000;,
  0.625000;0.250000;,
  1.000000;0.250000;,
  0.000000;0.125000;,
  0.375000;0.125000;,
  0.625000;0.125000;,
  1.000000;0.125000;,
  0.000000;0.000000;,
  0.375000;0.000000;,
  0.625000;0.000000;,
  1.000000;0.000000;,
  0.000000;-0.008000;,
  0.375000;-0.008000;,
  0.625000;-0.008000;,
  1.000000;-0.008000;,
  1.000000;9.000000;,
  0.000000;9.000000;,
  1.000000;7.875000;,
  0.000000;7.875000;,
  1.000000;6.750000;,
  0.000000;6.750000;,
  1.000000;5.625000;,
  0.000000;5.625000;,
  1.000000;4.500000;,
  0.000000;4.500000;,
  1.000000;3.375000;,
  0.000000;3.375000;,
  1.000000;2.250000;,
  0.000000;2.250000;,
  1.000000;1.125000;,
  0.000000;1.125000;,
  1.000000;0.000000;,
  0.000000;0.000000;,
  1.000000;-0.072000;,
  0.000000;-0.072000;,
  0.000000;1.000000;,
  1.000000;1.000000;,
  0.000000;0.875000;,
  1.000000;0.875000;,
  0.000000;0.750000;,
  1.000000;0.750000;,
  0.000000;0.625000;,
  1.000000;0.625000;,
  0.000000;0.500000;,
  1.000000;0.500000;,
  0.000000;0.375000;,
  1.000000;0.375000;,
  0.000000;0.250000;,
  1.000000;0.250000;,
  0.000000;0.125000;,
  1.000000;0.125000;,
  0.000000;0.000000;,
  1.000000;0.000000;,
  0.000000;-0.008000;,
  1.000000;-0.008000;,
  1.000000;1.000000;,
  0.000000;1.000000;,
  1.000000;0.875000;,
  0.000000;0.875000;,
  1.000000;0.750000;,
  0.000000;0.750000;,
  1.000000;0.625000;,
  0.000000;0.625000;,
  1.000000;0.500000;,
  0.000000;0.500000;,
  1.000000;0.375000;,
  0.000000;0.375000;,
  1.000000;0.250000;,
  0.000000;0.250000;,
  1.000000;0.125000;,
  0.000000;0.125000;,
  1.000000;0.000000;,
  0.000000;0.000000;,
  1.000000;-0.008000;,
  0.000000;-0.008000;;
 }

 MeshNormals  {
  162;
  -0.999042;0.000000;-0.043767;,
  -0.999042;0.000000;-0.043767;,
  0.000000;1.000000;0.000000;,
  0.000000;1.000000;0.000000;,
  0.999043;0.000000;0.043748;,
  0.999043;0.000000;0.043748;,
  -0.999512;0.000000;-0.031222;,
  -0.999512;0.000000;-0.031222;,
  0.000000;1.000000;0.000000;,
  0.000000;1.000000;0.000000;,
  0.999512;0.000000;0.031230;,
  0.999512;0.000000;0.031230;,
  -0.999824;0.000000;-0.018771;,
  -0.999824;0.000000;-0.018771;,
  0.000000;1.000000;0.000000;,
  0.000000;1.000000;0.000000;,
  0.999824;0.000000;0.018776;,
  0.999824;0.000000;0.018776;,
  -0.999981;0.000000;-0.006225;,
  -0.999981;0.000000;-0.006225;,
  0.000000;1.000000;0.000000;,
  0.000000;1.000000;0.000000;,
  0.999981;0.000000;0.006227;,
  0.999981;0.000000;0.006227;,
  -0.999981;0.000000;0.006225;,
  -0.999981;0.000000;0.006225;,
  0.000000;1.000000;0.000000;,
  0.000000;1.000000;0.000000;,
  0.999981;0.000000;-0.006227;,
  0.999981;0.000000;-0.006227;,
  -0.999824;0.000000;0.018771;,
  -0.999824;0.000000;0.018771;,
  0.000000;1.000000;0.000000;,
  0.000000;1.000000;0.000000;,
  0.999824;0.000000;-0.018776;,
  0.999824;0.000000;-0.018776;,
  -0.999512;0.000000;0.031221;,
  -0.999512;0.000000;0.031221;,
  0.000000;1.000000;0.000000;,
  0.000000;1.000000;0.000000;,
  0.999512;0.000000;-0.031230;,
  0.999512;0.000000;-0.031230;,
  -0.999043;0.000000;0.043735;,
  -0.999043;0.000000;0.043735;,
  0.000000;1.000000;0.000000;,
  0.000000;1.000000;0.000000;,
  0.999043;0.000000;-0.043746;,
  0.999043;0.000000;-0.043746;,
  -0.998730;0.000000;0.050385;,
  -0.998730;0.000000;0.050385;,
  0.000000;1.000000;0.000000;,
  0.000000;1.000000;0.000000;,
  0.998729;0.000000;-0.050411;,
  0.998729;0.000000;-0.050411;,
  -0.999043;0.000000;-0.043742;,
  -0.999043;0.000000;-0.043742;,
  0.000000;1.000000;0.000000;,
  0.000000;1.000000;0.000000;,
  0.999044;0.000000;0.043721;,
  0.999044;0.000000;0.043721;,
  -0.999512;0.000000;-0.031235;,
  -0.999512;0.000000;-0.031235;,
  0.000000;1.000000;0.000000;,
  0.000000;1.000000;0.000000;,
  0.999512;0.000000;0.031244;,
  0.999512;0.000000;0.031244;,
  -0.999824;0.000000;-0.018760;,
  -0.999824;0.000000;-0.018760;,
  0.000000;1.000000;0.000000;,
  0.000000;1.000000;0.000000;,
  0.999824;0.000000;0.018733;,
  0.999824;0.000000;0.018733;,
  -0.999981;0.000000;-0.006221;,
  -0.999981;0.000000;-0.006221;,
  0.000000;1.000000;0.000000;,
  0.000000;1.000000;0.000000;,
  0.999980;0.000000;0.006255;,
  0.999980;0.000000;0.006255;,
  -0.999981;0.000000;0.006221;,
  -0.999981;0.000000;0.006221;,
  0.000000;1.000000;0.000000;,
  0.000000;1.000000;0.000000;,
  0.999981;0.000000;-0.006223;,
  0.999981;0.000000;-0.006223;,
  -0.999824;0.000000;0.018761;,
  -0.999824;0.000000;0.018761;,
  0.000000;1.000000;0.000000;,
  0.000000;1.000000;0.000000;,
  0.999824;0.000000;-0.018765;,
  0.999824;0.000000;-0.018765;,
  -0.999512;0.000000;0.031235;,
  -0.999512;0.000000;0.031235;,
  0.000000;1.000000;0.000000;,
  0.000000;1.000000;0.000000;,
  0.999512;0.000000;-0.031243;,
  0.999512;0.000000;-0.031243;,
  -0.999043;0.000000;0.043742;,
  -0.999043;0.000000;0.043742;,
  0.000000;1.000000;0.000000;,
  0.000000;1.000000;0.000000;,
  0.999044;0.000000;-0.043723;,
  0.999044;0.000000;-0.043723;,
  -0.998720;0.000000;0.050587;,
  -0.998720;0.000000;0.050587;,
  0.000000;1.000000;0.000000;,
  0.000000;1.000000;0.000000;,
  0.998718;0.000000;-0.050612;,
  0.998718;0.000000;-0.050612;,
  0.000000;1.000000;0.000000;,
  0.000000;1.000000;0.000000;,
  0.000000;1.000000;0.000000;,
  0.000000;1.000000;0.000000;,
  0.000000;1.000000;0.000000;,
  0.000000;1.000000;0.000000;,
  0.000000;1.000000;0.000000;,
  0.000000;1.000000;0.000000;,
  0.000000;1.000000;0.000000;,
  0.000000;1.000000;0.000000;,
  0.000000;1.000000;0.000000;,
  0.000000;1.000000;0.000000;,
  0.000000;1.000000;0.000000;,
  0.000000;1.000000;0.000000;,
  0.000000;1.000000;0.000000;,
  0.000000;1.000000;0.000000;,
  0.000000;1.000000;0.000000;,
  0.000000;1.000000;0.000000;,
  -0.193495;0.981065;-0.008468;,
  -0.193501;0.981063;-0.008471;,
  -0.193591;0.981064;-0.006051;,
  -0.193592;0.981063;-0.006051;,
  -0.193653;0.981063;-0.003633;,
  -0.193648;0.981064;-0.003631;,
  -0.193678;0.981064;-0.001209;,
  -0.193681;0.981064;-0.001210;,
  -0.193681;0.981064;0.001209;,
  -0.193678;0.981064;0.001210;,
  -0.193648;0.981064;0.003633;,
  -0.193652;0.981063;0.003631;,
  -0.193592;0.981063;0.006051;,
  -0.193591;0.981064;0.006051;,
  -0.193501;0.981064;0.008468;,
  -0.193495;0.981065;0.008471;,
  -0.193429;0.981065;0.009782;,
  -0.193436;0.981064;0.009744;,
  0.193495;0.981065;0.008467;,
  0.193501;0.981064;0.008471;,
  0.193591;0.981063;0.006054;,
  0.193592;0.981063;0.006054;,
  0.193652;0.981064;0.003633;,
  0.193648;0.981064;0.003631;,
  0.193679;0.981064;0.001207;,
  0.193681;0.981064;0.001208;,
  0.193681;0.981064;-0.001207;,
  0.193678;0.981064;-0.001208;,
  0.193648;0.981064;-0.003633;,
  0.193653;0.981063;-0.003631;,
  0.193592;0.981063;-0.006054;,
  0.193591;0.981064;-0.006054;,
  0.193501;0.981064;-0.008468;,
  0.193495;0.981064;-0.008470;,
  0.193433;0.981065;-0.009720;,
  0.193439;0.981064;-0.009686;;
  162;
  3;0,0,0;,
  3;1,1,1;,
  3;2,2,2;,
  3;3,3,3;,
  3;4,4,4;,
  3;5,5,5;,
  3;6,6,6;,
  3;7,7,7;,
  3;8,8,8;,
  3;9,9,9;,
  3;10,10,10;,
  3;11,11,11;,
  3;12,12,12;,
  3;13,13,13;,
  3;14,14,14;,
  3;15,15,15;,
  3;16,16,16;,
  3;17,17,17;,
  3;18,18,18;,
  3;19,19,19;,
  3;20,20,20;,
  3;21,21,21;,
  3;22,22,22;,
  3;23,23,23;,
  3;24,24,24;,
  3;25,25,25;,
  3;26,26,26;,
  3;27,27,27;,
  3;28,28,28;,
  3;29,29,29;,
  3;30,30,30;,
  3;31,31,31;,
  3;32,32,32;,
  3;33,33,33;,
  3;34,34,34;,
  3;35,35,35;,
  3;36,36,36;,
  3;37,37,37;,
  3;38,38,38;,
  3;39,39,39;,
  3;40,40,40;,
  3;41,41,41;,
  3;42,42,42;,
  3;43,43,43;,
  3;44,44,44;,
  3;45,45,45;,
  3;46,46,46;,
  3;47,47,47;,
  3;48,48,48;,
  3;49,49,49;,
  3;50,50,50;,
  3;51,51,51;,
  3;52,52,52;,
  3;53,53,53;,
  3;54,54,54;,
  3;55,55,55;,
  3;56,56,56;,
  3;57,57,57;,
  3;58,58,58;,
  3;59,59,59;,
  3;60,60,60;,
  3;61,61,61;,
  3;62,62,62;,
  3;63,63,63;,
  3;64,64,64;,
  3;65,65,65;,
  3;66,66,66;,
  3;67,67,67;,
  3;68,68,68;,
  3;69,69,69;,
  3;70,70,70;,
  3;71,71,71;,
  3;72,72,72;,
  3;73,73,73;,
  3;74,74,74;,
  3;75,75,75;,
  3;76,76,76;,
  3;77,77,77;,
  3;78,78,78;,
  3;79,79,79;,
  3;80,80,80;,
  3;81,81,81;,
  3;82,82,82;,
  3;83,83,83;,
  3;84,84,84;,
  3;85,85,85;,
  3;86,86,86;,
  3;87,87,87;,
  3;88,88,88;,
  3;89,89,89;,
  3;90,90,90;,
  3;91,91,91;,
  3;92,92,92;,
  3;93,93,93;,
  3;94,94,94;,
  3;95,95,95;,
  3;96,96,96;,
  3;97,97,97;,
  3;98,98,98;,
  3;99,99,99;,
  3;100,100,100;,
  3;101,101,101;,
  3;102,102,102;,
  3;103,103,103;,
  3;104,104,104;,
  3;105,105,105;,
  3;106,106,106;,
  3;107,107,107;,
  3;108,108,108;,
  3;109,109,109;,
  3;110,110,110;,
  3;111,111,111;,
  3;112,112,112;,
  3;113,113,113;,
  3;114,114,114;,
  3;115,115,115;,
  3;116,116,116;,
  3;117,117,117;,
  3;118,118,118;,
  3;119,119,119;,
  3;120,120,120;,
  3;121,121,121;,
  3;122,122,122;,
  3;123,123,123;,
  3;124,124,124;,
  3;125,125,125;,
  3;126,126,126;,
  3;127,127,127;,
  3;128,128,128;,
  3;129,129,129;,
  3;130,130,130;,
  3;131,131,131;,
  3;132,132,132;,
  3;133,133,133;,
  3;134,134,134;,
  3;135,135,135;,
  3;136,136,136;,
  3;137,137,137;,
  3;138,138,138;,
  3;139,139,139;,
  3;140,140,140;,
  3;141,141,141;,
  3;142,142,142;,
  3;143,143,143;,
  3;144,144,144;,
  3;145,145,145;,
  3;146,146,146;,
  3;147,147,147;,
  3;148,148,148;,
  3;149,149,149;,
  3;150,150,150;,
  3;151,151,151;,
  3;152,152,152;,
  3;153,153,153;,
  3;154,154,154;,
  3;155,155,155;,
  3;156,156,156;,
  3;157,157,157;,
  3;158,158,158;,
  3;159,159,159;,
  3;160,160,160;,
  3;161,161,161;;
 }
}