xof 0303txt 0032
template Vector {
 <3d82ab5e-62da-11cf-ab39-0020af71e433>
 FLOAT x;
 FLOAT y;
 FLOAT z;
}

template MeshFace {
 <3d82ab5f-62da-11cf-ab39-0020af71e433>
 DWORD nFaceVertexIndices;
 array DWORD faceVertexIndices[nFaceVertexIndices];
}

template Mesh {
 <3d82ab44-62da-11cf-ab39-0020af71e433>
 DWORD nVertices;
 array Vector vertices[nVertices];
 DWORD nFaces;
 array MeshFace faces[nFaces];
 [...]
}

template ColorRGBA {
 <35ff44e0-6c7c-11cf-8f52-0040333594a3>
 FLOAT red;
 FLOAT green;
 FLOAT blue;
 FLOAT alpha;
}

template ColorRGB {
 <d3e16e81-7835-11cf-8f52-0040333594a3>
 FLOAT red;
 FLOAT green;
 FLOAT blue;
}

template Material {
 <3d82ab4d-62da-11cf-ab39-0020af71e433>
 ColorRGBA faceColor;
 FLOAT power;
 ColorRGB specularColor;
 ColorRGB emissiveColor;
 [...]
}

template MeshMaterialList {
 <f6f23f42-7686-11cf-8f52-0040333594a3>
 DWORD nMaterials;
 DWORD nFaceIndexes;
 array DWORD faceIndexes[nFaceIndexes];
 [Material <3d82ab4d-62da-11cf-ab39-0020af71e433>]
}

template TextureFilename {
 <a42790e1-7810-11cf-8f52-0040333594a3>
 STRING filename;
}

template Coords2d {
 <f6f23f44-7686-11cf-8f52-0040333594a3>
 FLOAT u;
 FLOAT v;
}

template MeshTextureCoords {
 <f6f23f40-7686-11cf-8f52-0040333594a3>
 DWORD nTextureCoords;
 array Coords2d textureCoords[nTextureCoords];
}

template MeshNormals {
 <f6f23f43-7686-11cf-8f52-0040333594a3>
 DWORD nNormals;
 array Vector normals[nNormals];
 DWORD nFaceNormals;
 array MeshFace faceNormals[nFaceNormals];
}


Mesh  {
 140;
 -0.601400;-0.144000;-0.004600;,
 -0.601400;0.000000;-0.004600;,
 -0.533400;0.000000;-0.004000;,
 -0.533400;-0.144000;-0.004000;,
 -0.622800;-0.144000;3.121500;,
 -0.622800;0.000000;3.121500;,
 -0.554800;0.000000;3.121900;,
 -0.554800;-0.144000;3.121900;,
 -0.638100;-0.144000;6.247700;,
 -0.638100;0.000000;6.247700;,
 -0.570100;0.000000;6.247900;,
 -0.570100;-0.144000;6.247900;,
 -0.647200;-0.144000;9.373800;,
 -0.647200;0.000000;9.373800;,
 -0.579200;0.000000;9.374000;,
 -0.579200;-0.144000;9.374000;,
 -0.650300;-0.144000;12.500000;,
 -0.650300;0.000000;12.500000;,
 -0.582300;0.000000;12.500000;,
 -0.582300;-0.144000;12.500000;,
 -0.647200;-0.144000;15.626200;,
 -0.647200;0.000000;15.626200;,
 -0.579200;0.000000;15.626100;,
 -0.579200;-0.144000;15.626100;,
 -0.638100;-0.144000;18.752300;,
 -0.638100;0.000000;18.752300;,
 -0.570100;0.000000;18.752100;,
 -0.570100;-0.144000;18.752100;,
 -0.622800;-0.144000;21.878500;,
 -0.622800;0.000000;21.878500;,
 -0.554800;0.000000;21.878099;,
 -0.554800;-0.144000;21.878099;,
 -0.601400;-0.144000;25.004601;,
 -0.601400;0.000000;25.004601;,
 -0.533400;0.000000;25.004101;,
 -0.533400;-0.144000;25.004101;,
 -0.599800;-0.144000;25.204700;,
 -0.599800;0.000000;25.204700;,
 -0.531900;0.000000;25.204100;,
 -0.531900;-0.144000;25.204100;,
 0.533400;-0.144000;0.004300;,
 0.533400;0.000000;0.004300;,
 0.601400;0.000000;0.004800;,
 0.601400;-0.144000;0.004800;,
 0.512100;-0.144000;3.128200;,
 0.512100;0.000000;3.128200;,
 0.580100;0.000000;3.128600;,
 0.580100;-0.144000;3.128600;,
 0.496800;-0.144000;6.252100;,
 0.496800;0.000000;6.252100;,
 0.564800;0.000000;6.252400;,
 0.564800;-0.144000;6.252400;,
 0.487700;-0.144000;9.376100;,
 0.487700;0.000000;9.376100;,
 0.555700;0.000000;9.376200;,
 0.555700;-0.144000;9.376200;,
 0.484600;-0.144000;12.500000;,
 0.484600;0.000000;12.500000;,
 0.552600;0.000000;12.500000;,
 0.552600;-0.144000;12.500000;,
 0.487700;-0.144000;15.624000;,
 0.487700;0.000000;15.624000;,
 0.555700;0.000000;15.623800;,
 0.555700;-0.144000;15.623800;,
 0.496800;-0.144000;18.747900;,
 0.496800;0.000000;18.747900;,
 0.564800;0.000000;18.747601;,
 0.564800;-0.144000;18.747601;,
 0.512100;-0.144000;21.871799;,
 0.512100;0.000000;21.871799;,
 0.580100;0.000000;21.871401;,
 0.580100;-0.144000;21.871401;,
 0.533400;-0.144000;24.995701;,
 0.533400;0.000000;24.995701;,
 0.601400;0.000000;24.995199;,
 0.601400;-0.144000;24.995199;,
 0.535000;-0.144000;25.195601;,
 0.535000;0.000000;25.195601;,
 0.603000;0.000000;25.195101;,
 0.603000;-0.144000;25.195101;,
 -0.949900;-0.144000;-0.007300;,
 0.949900;-0.144000;0.007600;,
 -0.971300;-0.144000;3.119500;,
 0.928600;-0.144000;3.130600;,
 -0.986600;-0.144000;6.246300;,
 0.913300;-0.144000;6.253700;,
 -0.995700;-0.144000;9.373200;,
 0.904200;-0.144000;9.376900;,
 -0.998800;-0.144000;12.500000;,
 0.901100;-0.144000;12.500000;,
 -0.995700;-0.144000;15.626900;,
 0.904200;-0.144000;15.623200;,
 -0.986600;-0.144000;18.753700;,
 0.913300;-0.144000;18.746300;,
 -0.971300;-0.144000;21.880501;,
 0.928600;-0.144000;21.869400;,
 -0.949900;-0.144000;25.007299;,
 0.949900;-0.144000;24.992500;,
 -0.948300;-0.144000;25.207399;,
 0.951500;-0.144000;25.192301;,
 -2.499900;-0.450000;-0.019400;,
 -0.949900;-0.144000;-0.007300;,
 -2.521300;-0.450000;3.110400;,
 -0.971300;-0.144000;3.119500;,
 -2.536600;-0.450000;6.240300;,
 -0.986600;-0.144000;6.246300;,
 -2.545800;-0.450000;9.370100;,
 -0.995700;-0.144000;9.373200;,
 -2.548800;-0.450000;12.500000;,
 -0.998800;-0.144000;12.500000;,
 -2.545800;-0.450000;15.629900;,
 -0.995700;-0.144000;15.626900;,
 -2.536600;-0.450000;18.759800;,
 -0.986600;-0.144000;18.753700;,
 -2.521300;-0.450000;21.889601;,
 -0.971300;-0.144000;21.880501;,
 -2.499900;-0.450000;25.019400;,
 -0.949900;-0.144000;25.007299;,
 -2.498300;-0.450000;25.219700;,
 -0.948300;-0.144000;25.207399;,
 0.949900;-0.144000;0.007600;,
 2.499900;-0.450000;0.019700;,
 0.928600;-0.144000;3.130600;,
 2.478600;-0.450000;3.139700;,
 0.913300;-0.144000;6.253700;,
 2.463400;-0.450000;6.259800;,
 0.904200;-0.144000;9.376900;,
 2.454200;-0.450000;9.379900;,
 0.901100;-0.144000;12.500000;,
 2.451200;-0.450000;12.500000;,
 0.904200;-0.144000;15.623200;,
 2.454200;-0.450000;15.620100;,
 0.913300;-0.144000;18.746300;,
 2.463400;-0.450000;18.740200;,
 0.928600;-0.144000;21.869400;,
 2.478600;-0.450000;21.860300;,
 0.949900;-0.144000;24.992500;,
 2.499900;-0.450000;24.980400;,
 0.951500;-0.144000;25.192301;,
 2.501500;-0.450000;25.180000;;
 162;
 3;1,0,4;,
 3;1,4,5;,
 3;2,1,5;,
 3;2,5,6;,
 3;3,2,6;,
 3;3,6,7;,
 3;5,4,8;,
 3;5,8,9;,
 3;6,5,9;,
 3;6,9,10;,
 3;7,6,10;,
 3;7,10,11;,
 3;9,8,12;,
 3;9,12,13;,
 3;10,9,13;,
 3;10,13,14;,
 3;11,10,14;,
 3;11,14,15;,
 3;13,12,16;,
 3;13,16,17;,
 3;14,13,17;,
 3;14,17,18;,
 3;15,14,18;,
 3;15,18,19;,
 3;17,16,20;,
 3;17,20,21;,
 3;18,17,21;,
 3;18,21,22;,
 3;19,18,22;,
 3;19,22,23;,
 3;21,20,24;,
 3;21,24,25;,
 3;22,21,25;,
 3;22,25,26;,
 3;23,22,26;,
 3;23,26,27;,
 3;25,24,28;,
 3;25,28,29;,
 3;26,25,29;,
 3;26,29,30;,
 3;27,26,30;,
 3;27,30,31;,
 3;29,28,32;,
 3;29,32,33;,
 3;30,29,33;,
 3;30,33,34;,
 3;31,30,34;,
 3;31,34,35;,
 3;33,32,36;,
 3;33,36,37;,
 3;34,33,37;,
 3;34,37,38;,
 3;35,34,38;,
 3;35,38,39;,
 3;41,40,44;,
 3;41,44,45;,
 3;42,41,45;,
 3;42,45,46;,
 3;43,42,46;,
 3;43,46,47;,
 3;45,44,48;,
 3;45,48,49;,
 3;46,45,49;,
 3;46,49,50;,
 3;47,46,50;,
 3;47,50,51;,
 3;49,48,52;,
 3;49,52,53;,
 3;50,49,53;,
 3;50,53,54;,
 3;51,50,54;,
 3;51,54,55;,
 3;53,52,56;,
 3;53,56,57;,
 3;54,53,57;,
 3;54,57,58;,
 3;55,54,58;,
 3;55,58,59;,
 3;57,56,60;,
 3;57,60,61;,
 3;58,57,61;,
 3;58,61,62;,
 3;59,58,62;,
 3;59,62,63;,
 3;61,60,64;,
 3;61,64,65;,
 3;62,61,65;,
 3;62,65,66;,
 3;63,62,66;,
 3;63,66,67;,
 3;65,64,68;,
 3;65,68,69;,
 3;66,65,69;,
 3;66,69,70;,
 3;67,66,70;,
 3;67,70,71;,
 3;69,68,72;,
 3;69,72,73;,
 3;70,69,73;,
 3;70,73,74;,
 3;71,70,74;,
 3;71,74,75;,
 3;73,72,76;,
 3;73,76,77;,
 3;74,73,77;,
 3;74,77,78;,
 3;75,74,78;,
 3;75,78,79;,
 3;81,80,82;,
 3;81,82,83;,
 3;83,82,84;,
 3;83,84,85;,
 3;85,84,86;,
 3;85,86,87;,
 3;87,86,88;,
 3;87,88,89;,
 3;89,88,90;,
 3;89,90,91;,
 3;91,90,92;,
 3;91,92,93;,
 3;93,92,94;,
 3;93,94,95;,
 3;95,94,96;,
 3;95,96,97;,
 3;97,96,98;,
 3;97,98,99;,
 3;101,100,102;,
 3;101,102,103;,
 3;103,102,104;,
 3;103,104,105;,
 3;105,104,106;,
 3;105,106,107;,
 3;107,106,108;,
 3;107,108,109;,
 3;109,108,110;,
 3;109,110,111;,
 3;111,110,112;,
 3;111,112,113;,
 3;113,112,114;,
 3;113,114,115;,
 3;115,114,116;,
 3;115,116,117;,
 3;117,116,118;,
 3;117,118,119;,
 3;121,120,122;,
 3;121,122,123;,
 3;123,122,124;,
 3;123,124,125;,
 3;125,124,126;,
 3;125,126,127;,
 3;127,126,128;,
 3;127,128,129;,
 3;129,128,130;,
 3;129,130,131;,
 3;131,130,132;,
 3;131,132,133;,
 3;133,132,134;,
 3;133,134,135;,
 3;135,134,136;,
 3;135,136,137;,
 3;137,136,138;,
 3;137,138,139;;

 MeshMaterialList  {
  5;
  162;
  0,
  0,
  0,
  0,
  0,
  0,
  0,
  0,
  0,
  0,
  0,
  0,
  0,
  0,
  0,
  0,
  0,
  0,
  0,
  0,
  0,
  0,
  0,
  0,
  0,
  0,
  0,
  0,
  0,
  0,
  0,
  0,
  0,
  0,
  0,
  0,
  0,
  0,
  0,
  0,
  0,
  0,
  0,
  0,
  0,
  0,
  0,
  0,
  0,
  0,
  0,
  0,
  0,
  0,
  1,
  1,
  1,
  1,
  1,
  1,
  1,
  1,
  1,
  1,
  1,
  1,
  1,
  1,
  1,
  1,
  1,
  1,
  1,
  1,
  1,
  1,
  1,
  1,
  1,
  1,
  1,
  1,
  1,
  1,
  1,
  1,
  1,
  1,
  1,
  1,
  1,
  1,
  1,
  1,
  1,
  1,
  1,
  1,
  1,
  1,
  1,
  1,
  1,
  1,
  1,
  1,
  1,
  1,
  2,
  2,
  2,
  2,
  2,
  2,
  2,
  2,
  2,
  2,
  2,
  2,
  2,
  2,
  2,
  2,
  2,
  2,
  3,
  3,
  3,
  3,
  3,
  3,
  3,
  3,
  3,
  3,
  3,
  3,
  3,
  3,
  3,
  3,
  3,
  3,
  4,
  4,
  4,
  4,
  4,
  4,
  4,
  4,
  4,
  4,
  4,
  4,
  4,
  4,
  4,
  4,
  4,
  4;

  Material  {
   1.000000;1.000000;1.000000;1.000000;;
   0.000000;
   0.000000;0.000000;0.000000;;
   0.000000;0.000000;0.000000;;

   TextureFilename  {
    "rail2.png";
   }
  }

  Material  {
   1.000000;1.000000;1.000000;1.000000;;
   0.000000;
   0.000000;0.000000;0.000000;;
   0.000000;0.000000;0.000000;;

   TextureFilename  {
    "rail2.png";
   }
  }

  Material  {
   1.000000;1.000000;1.000000;1.000000;;
   0.000000;
   0.000000;0.000000;0.000000;;
   0.000000;0.000000;0.000000;;

   TextureFilename  {
    "Tie.png";
   }
  }

  Material  {
   1.000000;1.000000;1.000000;1.000000;;
   0.000000;
   0.000000;0.000000;0.000000;;
   0.000000;0.000000;0.000000;;

   TextureFilename  {
    "Ballast.png";
   }
  }

  Material  {
   1.000000;1.000000;1.000000;1.000000;;
   0.000000;
   0.000000;0.000000;0.000000;;
   0.000000;0.000000;0.000000;;

   TextureFilename  {
    "Ballast.png";
   }
  }
 }

 MeshTextureCoords  {
  140;
  0.000000;1.000000;,
  0.375000;1.000000;,
  0.625000;1.000000;,
  1.000000;1.000000;,
  0.000000;0.875000;,
  0.375000;0.875000;,
  0.625000;0.875000;,
  1.000000;0.875000;,
  0.000000;0.750000;,
  0.375000;0.750000;,
  0.625000;0.750000;,
  1.000000;0.750000;,
  0.000000;0.625000;,
  0.375000;0.625000;,
  0.625000;0.625000;,
  1.000000;0.625000;,
  0.000000;0.500000;,
  0.375000;0.500000;,
  0.625000;0.500000;,
  1.000000;0.500000;,
  0.000000;0.375000;,
  0.375000;0.375000;,
  0.625000;0.375000;,
  1.000000;0.375000;,
  0.000000;0.250000;,
  0.375000;0.250000;,
  0.625000;0.250000;,
  1.000000;0.250000;,
  0.000000;0.125000;,
  0.375000;0.125000;,
  0.625000;0.125000;,
  1.000000;0.125000;,
  0.000000;0.000000;,
  0.375000;0.000000;,
  0.625000;0.000000;,
  1.000000;0.000000;,
  0.000000;-0.008000;,
  0.375000;-0.008000;,
  0.625000;-0.008000;,
  1.000000;-0.008000;,
  0.000000;1.000000;,
  0.375000;1.000000;,
  0.625000;1.000000;,
  1.000000;1.000000;,
  0.000000;0.875000;,
  0.375000;0.875000;,
  0.625000;0.875000;,
  1.000000;0.875000;,
  0.000000;0.750000;,
  0.375000;0.750000;,
  0.625000;0.750000;,
  1.000000;0.750000;,
  0.000000;0.625000;,
  0.375000;0.625000;,
  0.625000;0.625000;,
  1.000000;0.625000;,
  0.000000;0.500000;,
  0.375000;0.500000;,
  0.625000;0.500000;,
  1.000000;0.500000;,
  0.000000;0.375000;,
  0.375000;0.375000;,
  0.625000;0.375000;,
  1.000000;0.375000;,
  0.000000;0.250000;,
  0.375000;0.250000;,
  0.625000;0.250000;,
  1.000000;0.250000;,
  0.000000;0.125000;,
  0.375000;0.125000;,
  0.625000;0.125000;,
  1.000000;0.125000;,
  0.000000;0.000000;,
  0.375000;0.000000;,
  0.625000;0.000000;,
  1.000000;0.000000;,
  0.000000;-0.008000;,
  0.375000;-0.008000;,
  0.625000;-0.008000;,
  1.000000;-0.008000;,
  1.000000;9.000000;,
  0.000000;9.000000;,
  1.000000;7.875000;,
  0.000000;7.875000;,
  1.000000;6.750000;,
  0.000000;6.750000;,
  1.000000;5.625000;,
  0.000000;5.625000;,
  1.000000;4.500000;,
  0.000000;4.500000;,
  1.000000;3.375000;,
  0.000000;3.375000;,
  1.000000;2.250000;,
  0.000000;2.250000;,
  1.000000;1.125000;,
  0.000000;1.125000;,
  1.000000;0.000000;,
  0.000000;0.000000;,
  1.000000;-0.072000;,
  0.000000;-0.072000;,
  0.000000;1.000000;,
  1.000000;1.000000;,
  0.000000;0.875000;,
  1.000000;0.875000;,
  0.000000;0.750000;,
  1.000000;0.750000;,
  0.000000;0.625000;,
  1.000000;0.625000;,
  0.000000;0.500000;,
  1.000000;0.500000;,
  0.000000;0.375000;,
  1.000000;0.375000;,
  0.000000;0.250000;,
  1.000000;0.250000;,
  0.000000;0.125000;,
  1.000000;0.125000;,
  0.000000;0.000000;,
  1.000000;0.000000;,
  0.000000;-0.008000;,
  1.000000;-0.008000;,
  1.000000;1.000000;,
  0.000000;1.000000;,
  1.000000;0.875000;,
  0.000000;0.875000;,
  1.000000;0.750000;,
  0.000000;0.750000;,
  1.000000;0.625000;,
  0.000000;0.625000;,
  1.000000;0.500000;,
  0.000000;0.500000;,
  1.000000;0.375000;,
  0.000000;0.375000;,
  1.000000;0.250000;,
  0.000000;0.250000;,
  1.000000;0.125000;,
  0.000000;0.125000;,
  1.000000;0.000000;,
  0.000000;0.000000;,
  1.000000;-0.008000;,
  0.000000;-0.008000;;
 }

 MeshNormals  {
  162;
  -0.999977;0.000000;-0.006845;,
  -0.999977;0.000000;-0.006845;,
  0.000000;1.000000;0.000000;,
  0.000000;1.000000;0.000000;,
  0.999977;0.000000;0.006846;,
  0.999977;0.000000;0.006846;,
  -0.999988;0.000000;-0.004894;,
  -0.999988;0.000000;-0.004894;,
  0.000000;1.000000;0.000000;,
  0.000000;1.000000;0.000000;,
  0.999988;0.000000;0.004894;,
  0.999988;0.000000;0.004894;,
  -0.999996;0.000000;-0.002911;,
  -0.999996;0.000000;-0.002911;,
  0.000000;1.000000;0.000000;,
  0.000000;1.000000;0.000000;,
  0.999996;0.000000;0.002911;,
  0.999996;0.000000;0.002911;,
  -1.000000;0.000000;-0.000992;,
  -1.000000;0.000000;-0.000992;,
  0.000000;1.000000;0.000000;,
  0.000000;1.000000;0.000000;,
  1.000000;0.000000;0.000992;,
  1.000000;0.000000;0.000992;,
  -1.000000;0.000000;0.000992;,
  -1.000000;0.000000;0.000992;,
  0.000000;1.000000;0.000000;,
  0.000000;1.000000;0.000000;,
  1.000000;0.000000;-0.000992;,
  1.000000;0.000000;-0.000992;,
  -0.999996;0.000000;0.002911;,
  -0.999996;0.000000;0.002911;,
  0.000000;1.000000;0.000000;,
  0.000000;1.000000;0.000000;,
  0.999996;0.000000;-0.002911;,
  0.999996;0.000000;-0.002911;,
  -0.999988;0.000000;0.004894;,
  -0.999988;0.000000;0.004894;,
  0.000000;1.000000;0.000000;,
  0.000000;1.000000;0.000000;,
  0.999988;0.000000;-0.004894;,
  0.999988;0.000000;-0.004894;,
  -0.999977;0.000000;0.006845;,
  -0.999977;0.000000;0.006845;,
  0.000000;1.000000;0.000000;,
  0.000000;1.000000;0.000000;,
  0.999976;0.000000;-0.006846;,
  0.999976;0.000000;-0.006846;,
  -0.999968;0.000000;0.007996;,
  -0.999968;0.000000;0.007996;,
  0.000000;1.000000;0.000000;,
  0.000000;1.000000;0.000000;,
  0.999972;0.000000;-0.007500;,
  0.999972;0.000000;-0.007500;,
  -0.999977;0.000000;-0.006818;,
  -0.999977;0.000000;-0.006818;,
  0.000000;1.000000;0.000000;,
  0.000000;1.000000;0.000000;,
  0.999977;0.000000;0.006818;,
  0.999977;0.000000;0.006818;,
  -0.999988;0.000000;-0.004898;,
  -0.999988;0.000000;-0.004898;,
  0.000000;1.000000;0.000000;,
  0.000000;1.000000;0.000000;,
  0.999988;0.000000;0.004898;,
  0.999988;0.000000;0.004898;,
  -0.999996;0.000000;-0.002913;,
  -0.999996;0.000000;-0.002913;,
  0.000000;1.000000;0.000000;,
  0.000000;1.000000;0.000000;,
  0.999996;0.000000;0.002913;,
  0.999996;0.000000;0.002913;,
  -1.000000;0.000000;-0.000992;,
  -1.000000;0.000000;-0.000992;,
  0.000000;1.000000;0.000000;,
  0.000000;1.000000;0.000000;,
  1.000000;0.000000;0.000992;,
  1.000000;0.000000;0.000992;,
  -1.000000;0.000000;0.000992;,
  -1.000000;0.000000;0.000992;,
  0.000000;1.000000;0.000000;,
  0.000000;1.000000;0.000000;,
  1.000000;0.000000;-0.000992;,
  1.000000;0.000000;-0.000992;,
  -0.999996;0.000000;0.002913;,
  -0.999996;0.000000;0.002913;,
  0.000000;1.000000;0.000000;,
  0.000000;1.000000;0.000000;,
  0.999996;0.000000;-0.002913;,
  0.999996;0.000000;-0.002913;,
  -0.999988;0.000000;0.004898;,
  -0.999988;0.000000;0.004898;,
  0.000000;1.000000;0.000000;,
  0.000000;1.000000;0.000000;,
  0.999988;0.000000;-0.004898;,
  0.999988;0.000000;-0.004898;,
  -0.999977;0.000000;0.006818;,
  -0.999977;0.000000;0.006818;,
  0.000000;1.000000;0.000000;,
  0.000000;1.000000;0.000000;,
  0.999977;0.000000;-0.006818;,
  0.999977;0.000000;-0.006818;,
  -0.999968;0.000000;0.008004;,
  -0.999968;0.000000;0.008004;,
  0.000000;1.000000;0.000000;,
  0.000000;1.000000;0.000000;,
  0.999968;0.000000;-0.008004;,
  0.999968;0.000000;-0.008004;,
  0.000000;1.000000;0.000000;,
  0.000000;1.000000;0.000000;,
  0.000000;1.000000;0.000000;,
  0.000000;1.000000;0.000000;,
  0.000000;1.000000;0.000000;,
  0.000000;1.000000;0.000000;,
  0.000000;1.000000;0.000000;,
  0.000000;1.000000;0.000000;,
  0.000000;1.000000;0.000000;,
  0.000000;1.000000;0.000000;,
  0.000000;1.000000;0.000000;,
  0.000000;1.000000;0.000000;,
  0.000000;1.000000;0.000000;,
  0.000000;1.000000;0.000000;,
  0.000000;1.000000;0.000000;,
  0.000000;1.000000;0.000000;,
  0.000000;1.000000;0.000000;,
  0.000000;1.000000;0.000000;,
  -0.193671;0.981066;-0.001324;,
  -0.193673;0.981065;-0.001326;,
  -0.193676;0.981065;-0.000947;,
  -0.193677;0.981065;-0.000948;,
  -0.193679;0.981065;-0.000569;,
  -0.193668;0.981067;-0.000564;,
  -0.193669;0.981067;-0.000186;,
  -0.193681;0.981064;-0.000192;,
  -0.193681;0.981064;0.000186;,
  -0.193669;0.981067;0.000192;,
  -0.193668;0.981067;0.000569;,
  -0.193679;0.981065;0.000564;,
  -0.193677;0.981065;0.000947;,
  -0.193676;0.981065;0.000948;,
  -0.193673;0.981065;0.001324;,
  -0.193671;0.981066;0.001326;,
  -0.193669;0.981066;0.001547;,
  -0.193669;0.981066;0.001548;,
  0.193671;0.981066;0.001321;,
  0.193673;0.981065;0.001322;,
  0.193676;0.981065;0.000949;,
  0.193665;0.981067;0.000943;,
  0.193667;0.981067;0.000564;,
  0.193680;0.981065;0.000571;,
  0.193681;0.981065;0.000192;,
  0.193669;0.981067;0.000186;,
  0.193669;0.981067;-0.000192;,
  0.193681;0.981064;-0.000186;,
  0.193680;0.981065;-0.000564;,
  0.193667;0.981067;-0.000571;,
  0.193665;0.981067;-0.000949;,
  0.193676;0.981065;-0.000944;,
  0.193673;0.981065;-0.001321;,
  0.193671;0.981066;-0.001322;,
  0.193669;0.981066;-0.001551;,
  0.193669;0.981066;-0.001552;;
  162;
  3;0,0,0;,
  3;1,1,1;,
  3;2,2,2;,
  3;3,3,3;,
  3;4,4,4;,
  3;5,5,5;,
  3;6,6,6;,
  3;7,7,7;,
  3;8,8,8;,
  3;9,9,9;,
  3;10,10,10;,
  3;11,11,11;,
  3;12,12,12;,
  3;13,13,13;,
  3;14,14,14;,
  3;15,15,15;,
  3;16,16,16;,
  3;17,17,17;,
  3;18,18,18;,
  3;19,19,19;,
  3;20,20,20;,
  3;21,21,21;,
  3;22,22,22;,
  3;23,23,23;,
  3;24,24,24;,
  3;25,25,25;,
  3;26,26,26;,
  3;27,27,27;,
  3;28,28,28;,
  3;29,29,29;,
  3;30,30,30;,
  3;31,31,31;,
  3;32,32,32;,
  3;33,33,33;,
  3;34,34,34;,
  3;35,35,35;,
  3;36,36,36;,
  3;37,37,37;,
  3;38,38,38;,
  3;39,39,39;,
  3;40,40,40;,
  3;41,41,41;,
  3;42,42,42;,
  3;43,43,43;,
  3;44,44,44;,
  3;45,45,45;,
  3;46,46,46;,
  3;47,47,47;,
  3;48,48,48;,
  3;49,49,49;,
  3;50,50,50;,
  3;51,51,51;,
  3;52,52,52;,
  3;53,53,53;,
  3;54,54,54;,
  3;55,55,55;,
  3;56,56,56;,
  3;57,57,57;,
  3;58,58,58;,
  3;59,59,59;,
  3;60,60,60;,
  3;61,61,61;,
  3;62,62,62;,
  3;63,63,63;,
  3;64,64,64;,
  3;65,65,65;,
  3;66,66,66;,
  3;67,67,67;,
  3;68,68,68;,
  3;69,69,69;,
  3;70,70,70;,
  3;71,71,71;,
  3;72,72,72;,
  3;73,73,73;,
  3;74,74,74;,
  3;75,75,75;,
  3;76,76,76;,
  3;77,77,77;,
  3;78,78,78;,
  3;79,79,79;,
  3;80,80,80;,
  3;81,81,81;,
  3;82,82,82;,
  3;83,83,83;,
  3;84,84,84;,
  3;85,85,85;,
  3;86,86,86;,
  3;87,87,87;,
  3;88,88,88;,
  3;89,89,89;,
  3;90,90,90;,
  3;91,91,91;,
  3;92,92,92;,
  3;93,93,93;,
  3;94,94,94;,
  3;95,95,95;,
  3;96,96,96;,
  3;97,97,97;,
  3;98,98,98;,
  3;99,99,99;,
  3;100,100,100;,
  3;101,101,101;,
  3;102,102,102;,
  3;103,103,103;,
  3;104,104,104;,
  3;105,105,105;,
  3;106,106,106;,
  3;107,107,107;,
  3;108,108,108;,
  3;109,109,109;,
  3;110,110,110;,
  3;111,111,111;,
  3;112,112,112;,
  3;113,113,113;,
  3;114,114,114;,
  3;115,115,115;,
  3;116,116,116;,
  3;117,117,117;,
  3;118,118,118;,
  3;119,119,119;,
  3;120,120,120;,
  3;121,121,121;,
  3;122,122,122;,
  3;123,123,123;,
  3;124,124,124;,
  3;125,125,125;,
  3;126,126,126;,
  3;127,127,127;,
  3;128,128,128;,
  3;129,129,129;,
  3;130,130,130;,
  3;131,131,131;,
  3;132,132,132;,
  3;133,133,133;,
  3;134,134,134;,
  3;135,135,135;,
  3;136,136,136;,
  3;137,137,137;,
  3;138,138,138;,
  3;139,139,139;,
  3;140,140,140;,
  3;141,141,141;,
  3;142,142,142;,
  3;143,143,143;,
  3;144,144,144;,
  3;145,145,145;,
  3;146,146,146;,
  3;147,147,147;,
  3;148,148,148;,
  3;149,149,149;,
  3;150,150,150;,
  3;151,151,151;,
  3;152,152,152;,
  3;153,153,153;,
  3;154,154,154;,
  3;155,155,155;,
  3;156,156,156;,
  3;157,157,157;,
  3;158,158,158;,
  3;159,159,159;,
  3;160,160,160;,
  3;161,161,161;;
 }
}