xof 0303txt 0032
template Vector {
 <3d82ab5e-62da-11cf-ab39-0020af71e433>
 FLOAT x;
 FLOAT y;
 FLOAT z;
}

template MeshFace {
 <3d82ab5f-62da-11cf-ab39-0020af71e433>
 DWORD nFaceVertexIndices;
 array DWORD faceVertexIndices[nFaceVertexIndices];
}

template Mesh {
 <3d82ab44-62da-11cf-ab39-0020af71e433>
 DWORD nVertices;
 array Vector vertices[nVertices];
 DWORD nFaces;
 array MeshFace faces[nFaces];
 [...]
}

template ColorRGBA {
 <35ff44e0-6c7c-11cf-8f52-0040333594a3>
 FLOAT red;
 FLOAT green;
 FLOAT blue;
 FLOAT alpha;
}

template ColorRGB {
 <d3e16e81-7835-11cf-8f52-0040333594a3>
 FLOAT red;
 FLOAT green;
 FLOAT blue;
}

template Material {
 <3d82ab4d-62da-11cf-ab39-0020af71e433>
 ColorRGBA faceColor;
 FLOAT power;
 ColorRGB specularColor;
 ColorRGB emissiveColor;
 [...]
}

template MeshMaterialList {
 <f6f23f42-7686-11cf-8f52-0040333594a3>
 DWORD nMaterials;
 DWORD nFaceIndexes;
 array DWORD faceIndexes[nFaceIndexes];
 [Material <3d82ab4d-62da-11cf-ab39-0020af71e433>]
}

template TextureFilename {
 <a42790e1-7810-11cf-8f52-0040333594a3>
 STRING filename;
}

template Coords2d {
 <f6f23f44-7686-11cf-8f52-0040333594a3>
 FLOAT u;
 FLOAT v;
}

template MeshTextureCoords {
 <f6f23f40-7686-11cf-8f52-0040333594a3>
 DWORD nTextureCoords;
 array Coords2d textureCoords[nTextureCoords];
}

template MeshNormals {
 <f6f23f43-7686-11cf-8f52-0040333594a3>
 DWORD nNormals;
 array Vector normals[nNormals];
 DWORD nFaceNormals;
 array MeshFace faceNormals[nFaceNormals];
}


Mesh  {
 84;
 -0.601600;-0.144000;0.001800;,
 -0.601600;0.000000;0.001800;,
 -0.533400;0.000000;0.001600;,
 -0.533400;-0.144000;0.001600;,
 -0.584800;-0.144000;6.250700;,
 -0.584800;0.000000;6.250700;,
 -0.516700;0.000000;6.250600;,
 -0.516700;-0.144000;6.250600;,
 -0.579200;-0.144000;12.499700;,
 -0.579200;0.000000;12.499700;,
 -0.511100;0.000000;12.499700;,
 -0.511100;-0.144000;12.499700;,
 -0.584800;-0.144000;18.748600;,
 -0.584800;0.000000;18.748600;,
 -0.516700;0.000000;18.748699;,
 -0.516700;-0.144000;18.748699;,
 -0.601600;-0.144000;24.997499;,
 -0.601600;0.000000;24.997499;,
 -0.533400;0.000000;24.997700;,
 -0.533400;-0.144000;24.997700;,
 -0.602300;-0.144000;25.197500;,
 -0.602300;0.000000;25.197500;,
 -0.534200;0.000000;25.197701;,
 -0.534200;-0.144000;25.197701;,
 0.533400;-0.144000;-0.002200;,
 0.533400;0.000000;-0.002200;,
 0.601600;0.000000;-0.002500;,
 0.601600;-0.144000;-0.002500;,
 0.550200;-0.144000;6.248700;,
 0.550200;0.000000;6.248700;,
 0.618300;0.000000;6.248600;,
 0.618300;-0.144000;6.248600;,
 0.555800;-0.144000;12.499700;,
 0.555800;0.000000;12.499700;,
 0.623900;0.000000;12.499700;,
 0.623900;-0.144000;12.499700;,
 0.550200;-0.144000;18.750601;,
 0.550200;0.000000;18.750601;,
 0.618300;0.000000;18.750700;,
 0.618300;-0.144000;18.750700;,
 0.533400;-0.144000;25.001499;,
 0.533400;0.000000;25.001499;,
 0.601600;0.000000;25.001801;,
 0.601600;-0.144000;25.001801;,
 0.532700;-0.144000;25.201599;,
 0.532700;0.000000;25.201599;,
 0.600800;0.000000;25.201799;,
 0.600800;-0.144000;25.201799;,
 -0.949900;-0.144000;0.003100;,
 0.949900;-0.144000;-0.003700;,
 -0.933200;-0.144000;6.251400;,
 0.966700;-0.144000;6.248000;,
 -0.927600;-0.144000;12.499700;,
 0.972300;-0.144000;12.499700;,
 -0.933200;-0.144000;18.747999;,
 0.966700;-0.144000;18.751400;,
 -0.949900;-0.144000;24.996201;,
 0.949900;-0.144000;25.003000;,
 -0.950700;-0.144000;25.196199;,
 0.949200;-0.144000;25.203100;,
 -2.500000;-0.450000;0.008600;,
 -0.949900;-0.144000;0.003100;,
 -2.483300;-0.450000;6.254100;,
 -0.933200;-0.144000;6.251400;,
 -2.477700;-0.450000;12.499700;,
 -0.927600;-0.144000;12.499700;,
 -2.483300;-0.450000;18.745199;,
 -0.933200;-0.144000;18.747999;,
 -2.500000;-0.450000;24.990700;,
 -0.949900;-0.144000;24.996201;,
 -2.500700;-0.450000;25.190599;,
 -0.950700;-0.144000;25.196199;,
 0.949900;-0.144000;-0.003700;,
 2.500000;-0.450000;-0.009200;,
 0.966700;-0.144000;6.248000;,
 2.516700;-0.450000;6.245200;,
 0.972300;-0.144000;12.499700;,
 2.522300;-0.450000;12.499700;,
 0.966700;-0.144000;18.751400;,
 2.516700;-0.450000;18.754101;,
 0.949900;-0.144000;25.003000;,
 2.500000;-0.450000;25.008600;,
 0.949200;-0.144000;25.203100;,
 2.499300;-0.450000;25.208700;;
 90;
 3;1,0,4;,
 3;1,4,5;,
 3;2,1,5;,
 3;2,5,6;,
 3;3,2,6;,
 3;3,6,7;,
 3;5,4,8;,
 3;5,8,9;,
 3;6,5,9;,
 3;6,9,10;,
 3;7,6,10;,
 3;7,10,11;,
 3;9,8,12;,
 3;9,12,13;,
 3;10,9,13;,
 3;10,13,14;,
 3;11,10,14;,
 3;11,14,15;,
 3;13,12,16;,
 3;13,16,17;,
 3;14,13,17;,
 3;14,17,18;,
 3;15,14,18;,
 3;15,18,19;,
 3;17,16,20;,
 3;17,20,21;,
 3;18,17,21;,
 3;18,21,22;,
 3;19,18,22;,
 3;19,22,23;,
 3;25,24,28;,
 3;25,28,29;,
 3;26,25,29;,
 3;26,29,30;,
 3;27,26,30;,
 3;27,30,31;,
 3;29,28,32;,
 3;29,32,33;,
 3;30,29,33;,
 3;30,33,34;,
 3;31,30,34;,
 3;31,34,35;,
 3;33,32,36;,
 3;33,36,37;,
 3;34,33,37;,
 3;34,37,38;,
 3;35,34,38;,
 3;35,38,39;,
 3;37,36,40;,
 3;37,40,41;,
 3;38,37,41;,
 3;38,41,42;,
 3;39,38,42;,
 3;39,42,43;,
 3;41,40,44;,
 3;41,44,45;,
 3;42,41,45;,
 3;42,45,46;,
 3;43,42,46;,
 3;43,46,47;,
 3;49,48,50;,
 3;49,50,51;,
 3;51,50,52;,
 3;51,52,53;,
 3;53,52,54;,
 3;53,54,55;,
 3;55,54,56;,
 3;55,56,57;,
 3;57,56,58;,
 3;57,58,59;,
 3;61,60,62;,
 3;61,62,63;,
 3;63,62,64;,
 3;63,64,65;,
 3;65,64,66;,
 3;65,66,67;,
 3;67,66,68;,
 3;67,68,69;,
 3;69,68,70;,
 3;69,70,71;,
 3;73,72,74;,
 3;73,74,75;,
 3;75,74,76;,
 3;75,76,77;,
 3;77,76,78;,
 3;77,78,79;,
 3;79,78,80;,
 3;79,80,81;,
 3;81,80,82;,
 3;81,82,83;;

 MeshMaterialList  {
  5;
  90;
  0,
  0,
  0,
  0,
  0,
  0,
  0,
  0,
  0,
  0,
  0,
  0,
  0,
  0,
  0,
  0,
  0,
  0,
  0,
  0,
  0,
  0,
  0,
  0,
  0,
  0,
  0,
  0,
  0,
  0,
  1,
  1,
  1,
  1,
  1,
  1,
  1,
  1,
  1,
  1,
  1,
  1,
  1,
  1,
  1,
  1,
  1,
  1,
  1,
  1,
  1,
  1,
  1,
  1,
  1,
  1,
  1,
  1,
  1,
  1,
  2,
  2,
  2,
  2,
  2,
  2,
  2,
  2,
  2,
  2,
  3,
  3,
  3,
  3,
  3,
  3,
  3,
  3,
  3,
  3,
  4,
  4,
  4,
  4,
  4,
  4,
  4,
  4,
  4,
  4;

  Material  {
   1.000000;1.000000;1.000000;1.000000;;
   0.000000;
   0.000000;0.000000;0.000000;;
   0.000000;0.000000;0.000000;;

   TextureFilename  {
    "rail2.png";
   }
  }

  Material  {
   1.000000;1.000000;1.000000;1.000000;;
   0.000000;
   0.000000;0.000000;0.000000;;
   0.000000;0.000000;0.000000;;

   TextureFilename  {
    "rail2.png";
   }
  }

  Material  {
   1.000000;1.000000;1.000000;1.000000;;
   0.000000;
   0.000000;0.000000;0.000000;;
   0.000000;0.000000;0.000000;;

   TextureFilename  {
    "Tie.png";
   }
  }

  Material  {
   1.000000;1.000000;1.000000;1.000000;;
   0.000000;
   0.000000;0.000000;0.000000;;
   0.000000;0.000000;0.000000;;

   TextureFilename  {
    "Ballast.png";
   }
  }

  Material  {
   1.000000;1.000000;1.000000;1.000000;;
   0.000000;
   0.000000;0.000000;0.000000;;
   0.000000;0.000000;0.000000;;

   TextureFilename  {
    "Ballast.png";
   }
  }
 }

 MeshTextureCoords  {
  84;
  0.000000;1.000000;,
  0.375000;1.000000;,
  0.625000;1.000000;,
  1.000000;1.000000;,
  0.000000;0.750000;,
  0.375000;0.750000;,
  0.625000;0.750000;,
  1.000000;0.750000;,
  0.000000;0.500000;,
  0.375000;0.500000;,
  0.625000;0.500000;,
  1.000000;0.500000;,
  0.000000;0.250000;,
  0.375000;0.250000;,
  0.625000;0.250000;,
  1.000000;0.250000;,
  0.000000;0.000000;,
  0.375000;0.000000;,
  0.625000;0.000000;,
  1.000000;0.000000;,
  0.000000;-0.008000;,
  0.375000;-0.008000;,
  0.625000;-0.008000;,
  1.000000;-0.008000;,
  0.000000;1.000000;,
  0.375000;1.000000;,
  0.625000;1.000000;,
  1.000000;1.000000;,
  0.000000;0.750000;,
  0.375000;0.750000;,
  0.625000;0.750000;,
  1.000000;0.750000;,
  0.000000;0.500000;,
  0.375000;0.500000;,
  0.625000;0.500000;,
  1.000000;0.500000;,
  0.000000;0.250000;,
  0.375000;0.250000;,
  0.625000;0.250000;,
  1.000000;0.250000;,
  0.000000;0.000000;,
  0.375000;0.000000;,
  0.625000;0.000000;,
  1.000000;0.000000;,
  0.000000;-0.008000;,
  0.375000;-0.008000;,
  0.625000;-0.008000;,
  1.000000;-0.008000;,
  1.000000;9.000000;,
  0.000000;9.000000;,
  1.000000;6.750000;,
  0.000000;6.750000;,
  1.000000;4.500000;,
  0.000000;4.500000;,
  1.000000;2.250000;,
  0.000000;2.250000;,
  1.000000;0.000000;,
  0.000000;0.000000;,
  1.000000;-0.072000;,
  0.000000;-0.072000;,
  0.000000;1.000000;,
  1.000000;1.000000;,
  0.000000;0.750000;,
  1.000000;0.750000;,
  0.000000;0.500000;,
  1.000000;0.500000;,
  0.000000;0.250000;,
  1.000000;0.250000;,
  0.000000;0.000000;,
  1.000000;0.000000;,
  0.000000;-0.008000;,
  1.000000;-0.008000;,
  1.000000;1.000000;,
  0.000000;1.000000;,
  1.000000;0.750000;,
  0.000000;0.750000;,
  1.000000;0.500000;,
  0.000000;0.500000;,
  1.000000;0.250000;,
  0.000000;0.250000;,
  1.000000;0.000000;,
  0.000000;0.000000;,
  1.000000;-0.008000;,
  0.000000;-0.008000;;
 }

 MeshNormals  {
  90;
  -0.999996;0.000000;0.002688;,
  -0.999996;0.000000;0.002688;,
  0.000000;1.000000;0.000000;,
  0.000000;1.000000;0.000000;,
  0.999996;0.000000;-0.002672;,
  0.999996;0.000000;-0.002672;,
  -1.000000;0.000000;0.000896;,
  -1.000000;0.000000;0.000896;,
  0.000000;1.000000;0.000000;,
  0.000000;1.000000;0.000000;,
  1.000000;0.000000;-0.000896;,
  1.000000;0.000000;-0.000896;,
  -1.000000;0.000000;-0.000896;,
  -1.000000;0.000000;-0.000896;,
  0.000000;1.000000;0.000000;,
  0.000000;1.000000;0.000000;,
  1.000000;0.000000;0.000896;,
  1.000000;0.000000;0.000896;,
  -0.999996;0.000000;-0.002688;,
  -0.999996;0.000000;-0.002688;,
  0.000000;1.000000;0.000000;,
  0.000000;1.000000;0.000000;,
  0.999996;0.000000;0.002672;,
  0.999996;0.000000;0.002672;,
  -0.999994;0.000000;-0.003500;,
  -0.999994;0.000000;-0.003500;,
  0.000000;1.000000;0.000000;,
  0.000000;1.000000;0.000000;,
  0.999992;0.000000;0.004000;,
  0.999992;0.000000;0.004000;,
  -0.999996;0.000000;0.002688;,
  -0.999996;0.000000;0.002688;,
  0.000000;1.000000;0.000000;,
  0.000000;1.000000;0.000000;,
  0.999996;0.000000;-0.002672;,
  0.999996;0.000000;-0.002672;,
  -1.000000;0.000000;0.000896;,
  -1.000000;0.000000;0.000896;,
  0.000000;1.000000;0.000000;,
  0.000000;1.000000;0.000000;,
  1.000000;0.000000;-0.000896;,
  1.000000;0.000000;-0.000896;,
  -1.000000;0.000000;-0.000896;,
  -1.000000;0.000000;-0.000896;,
  0.000000;1.000000;0.000000;,
  0.000000;1.000000;0.000000;,
  1.000000;0.000000;0.000896;,
  1.000000;0.000000;0.000896;,
  -0.999996;0.000000;-0.002688;,
  -0.999996;0.000000;-0.002688;,
  0.000000;1.000000;0.000000;,
  0.000000;1.000000;0.000000;,
  0.999996;0.000000;0.002672;,
  0.999996;0.000000;0.002672;,
  -0.999994;0.000000;-0.003498;,
  -0.999994;0.000000;-0.003498;,
  0.000000;1.000000;0.000000;,
  0.000000;1.000000;0.000000;,
  0.999992;0.000000;0.004000;,
  0.999992;0.000000;0.004000;,
  0.000000;1.000000;0.000000;,
  0.000000;1.000000;0.000000;,
  0.000000;1.000000;0.000000;,
  0.000000;1.000000;0.000000;,
  0.000000;1.000000;0.000000;,
  0.000000;1.000000;0.000000;,
  0.000000;1.000000;0.000000;,
  0.000000;1.000000;0.000000;,
  0.000000;1.000000;0.000000;,
  0.000000;1.000000;0.000000;,
  -0.193667;0.981067;0.000518;,
  -0.193668;0.981067;0.000518;,
  -0.193669;0.981067;0.000174;,
  -0.193669;0.981067;0.000174;,
  -0.193669;0.981067;-0.000174;,
  -0.193669;0.981067;-0.000174;,
  -0.193668;0.981067;-0.000518;,
  -0.193667;0.981067;-0.000518;,
  -0.193667;0.981067;-0.000678;,
  -0.193678;0.981065;-0.000775;,
  0.193667;0.981067;-0.000520;,
  0.193680;0.981065;-0.000517;,
  0.193681;0.981064;-0.000173;,
  0.193681;0.981064;-0.000173;,
  0.193681;0.981064;0.000173;,
  0.193681;0.981065;0.000173;,
  0.193680;0.981065;0.000520;,
  0.193667;0.981067;0.000517;,
  0.193667;0.981067;0.000677;,
  0.193667;0.981067;0.000677;;
  90;
  3;0,0,0;,
  3;1,1,1;,
  3;2,2,2;,
  3;3,3,3;,
  3;4,4,4;,
  3;5,5,5;,
  3;6,6,6;,
  3;7,7,7;,
  3;8,8,8;,
  3;9,9,9;,
  3;10,10,10;,
  3;11,11,11;,
  3;12,12,12;,
  3;13,13,13;,
  3;14,14,14;,
  3;15,15,15;,
  3;16,16,16;,
  3;17,17,17;,
  3;18,18,18;,
  3;19,19,19;,
  3;20,20,20;,
  3;21,21,21;,
  3;22,22,22;,
  3;23,23,23;,
  3;24,24,24;,
  3;25,25,25;,
  3;26,26,26;,
  3;27,27,27;,
  3;28,28,28;,
  3;29,29,29;,
  3;30,30,30;,
  3;31,31,31;,
  3;32,32,32;,
  3;33,33,33;,
  3;34,34,34;,
  3;35,35,35;,
  3;36,36,36;,
  3;37,37,37;,
  3;38,38,38;,
  3;39,39,39;,
  3;40,40,40;,
  3;41,41,41;,
  3;42,42,42;,
  3;43,43,43;,
  3;44,44,44;,
  3;45,45,45;,
  3;46,46,46;,
  3;47,47,47;,
  3;48,48,48;,
  3;49,49,49;,
  3;50,50,50;,
  3;51,51,51;,
  3;52,52,52;,
  3;53,53,53;,
  3;54,54,54;,
  3;55,55,55;,
  3;56,56,56;,
  3;57,57,57;,
  3;58,58,58;,
  3;59,59,59;,
  3;60,60,60;,
  3;61,61,61;,
  3;62,62,62;,
  3;63,63,63;,
  3;64,64,64;,
  3;65,65,65;,
  3;66,66,66;,
  3;67,67,67;,
  3;68,68,68;,
  3;69,69,69;,
  3;70,70,70;,
  3;71,71,71;,
  3;72,72,72;,
  3;73,73,73;,
  3;74,74,74;,
  3;75,75,75;,
  3;76,76,76;,
  3;77,77,77;,
  3;78,78,78;,
  3;79,79,79;,
  3;80,80,80;,
  3;81,81,81;,
  3;82,82,82;,
  3;83,83,83;,
  3;84,84,84;,
  3;85,85,85;,
  3;86,86,86;,
  3;87,87,87;,
  3;88,88,88;,
  3;89,89,89;;
 }
}