xof 0303txt 0032
template Vector {
 <3d82ab5e-62da-11cf-ab39-0020af71e433>
 FLOAT x;
 FLOAT y;
 FLOAT z;
}

template MeshFace {
 <3d82ab5f-62da-11cf-ab39-0020af71e433>
 DWORD nFaceVertexIndices;
 array DWORD faceVertexIndices[nFaceVertexIndices];
}

template Mesh {
 <3d82ab44-62da-11cf-ab39-0020af71e433>
 DWORD nVertices;
 array Vector vertices[nVertices];
 DWORD nFaces;
 array MeshFace faces[nFaces];
 [...]
}

template ColorRGBA {
 <35ff44e0-6c7c-11cf-8f52-0040333594a3>
 FLOAT red;
 FLOAT green;
 FLOAT blue;
 FLOAT alpha;
}

template ColorRGB {
 <d3e16e81-7835-11cf-8f52-0040333594a3>
 FLOAT red;
 FLOAT green;
 FLOAT blue;
}

template Material {
 <3d82ab4d-62da-11cf-ab39-0020af71e433>
 ColorRGBA faceColor;
 FLOAT power;
 ColorRGB specularColor;
 ColorRGB emissiveColor;
 [...]
}

template MeshMaterialList {
 <f6f23f42-7686-11cf-8f52-0040333594a3>
 DWORD nMaterials;
 DWORD nFaceIndexes;
 array DWORD faceIndexes[nFaceIndexes];
 [Material <3d82ab4d-62da-11cf-ab39-0020af71e433>]
}

template TextureFilename {
 <a42790e1-7810-11cf-8f52-0040333594a3>
 STRING filename;
}

template Coords2d {
 <f6f23f44-7686-11cf-8f52-0040333594a3>
 FLOAT u;
 FLOAT v;
}

template MeshTextureCoords {
 <f6f23f40-7686-11cf-8f52-0040333594a3>
 DWORD nTextureCoords;
 array Coords2d textureCoords[nTextureCoords];
}

template MeshNormals {
 <f6f23f43-7686-11cf-8f52-0040333594a3>
 DWORD nNormals;
 array Vector normals[nNormals];
 DWORD nFaceNormals;
 array MeshFace faceNormals[nFaceNormals];
}


Mesh  {
 84;
 0.602000;-0.144000;0.000000;,
 0.602000;0.000000;0.000000;,
 0.534000;0.000000;0.000000;,
 0.534000;-0.144000;0.000000;,
 0.602000;-0.144000;25.500000;,
 0.602000;0.000000;25.500000;,
 0.534000;0.000000;25.500000;,
 0.534000;-0.144000;25.500000;,
 -0.602000;-0.144000;0.000000;,
 -0.602000;0.000000;0.000000;,
 -0.534000;0.000000;0.000000;,
 -0.534000;-0.144000;0.000000;,
 -0.602000;-0.144000;25.500000;,
 -0.602000;0.000000;25.500000;,
 -0.534000;0.000000;25.500000;,
 -0.534000;-0.144000;25.500000;,
 2.050000;-0.290000;0.000000;,
 2.050000;-0.290000;1.500000;,
 2.050000;-0.144000;0.000000;,
 2.050000;-0.144000;1.500000;,
 -1.050000;-0.144000;0.000000;,
 -1.050000;-0.144000;1.500000;,
 -1.050000;-0.290000;0.000000;,
 -1.050000;-0.290000;1.500000;,
 2.250000;-0.290000;1.500000;,
 2.250000;-0.290000;4.000000;,
 2.250000;-0.144000;1.500000;,
 2.250000;-0.144000;4.000000;,
 -1.050000;-0.144000;1.500000;,
 -1.050000;-0.144000;4.000000;,
 -1.050000;-0.290000;1.500000;,
 -1.050000;-0.290000;4.000000;,
 2.450000;-0.290000;4.000000;,
 2.450000;-0.290000;6.500000;,
 2.450000;-0.144000;4.000000;,
 2.450000;-0.144000;6.500000;,
 -1.050000;-0.144000;4.000000;,
 -1.050000;-0.144000;6.500000;,
 -1.050000;-0.290000;4.000000;,
 -1.050000;-0.290000;6.500000;,
 2.650000;-0.290000;6.500000;,
 2.650000;-0.290000;9.000000;,
 2.650000;-0.144000;6.500000;,
 2.650000;-0.144000;9.000000;,
 -1.050000;-0.144000;6.500000;,
 -1.050000;-0.144000;9.000000;,
 -1.050000;-0.290000;6.500000;,
 -1.050000;-0.290000;9.000000;,
 2.850000;-0.290000;9.000000;,
 2.850000;-0.290000;11.500000;,
 2.850000;-0.144000;9.000000;,
 2.850000;-0.144000;11.500000;,
 -1.050000;-0.144000;9.000000;,
 -1.050000;-0.144000;11.500000;,
 -1.050000;-0.290000;9.000000;,
 -1.050000;-0.290000;11.500000;,
 3.050000;-0.290000;11.500000;,
 3.050000;-0.290000;14.000000;,
 3.050000;-0.144000;11.500000;,
 3.050000;-0.144000;14.000000;,
 -1.050000;-0.144000;11.500000;,
 -1.050000;-0.144000;14.000000;,
 -1.050000;-0.290000;11.500000;,
 -1.050000;-0.290000;14.000000;,
 1.050000;-0.290000;14.000000;,
 1.050000;-0.290000;16.000000;,
 1.050000;-0.144000;14.000000;,
 1.050000;-0.144000;16.000000;,
 -1.050000;-0.144000;14.000000;,
 -1.050000;-0.144000;16.000000;,
 -1.050000;-0.290000;14.000000;,
 -1.050000;-0.290000;16.000000;,
 1.050000;-0.290000;16.000000;,
 1.050000;-0.290000;25.000000;,
 1.050000;-0.130000;16.000000;,
 1.050000;-0.130000;25.000000;,
 -1.050000;-0.130000;16.000000;,
 -1.050000;-0.130000;25.000000;,
 -1.050000;-0.290000;16.000000;,
 -1.050000;-0.290000;25.000000;,
 1.900000;-0.290000;0.000000;,
 1.900000;-0.290000;25.100000;,
 -1.900000;-0.290000;25.100000;,
 -1.900000;-0.290000;0.000000;;
 76;
 3;5,4,0;,
 3;5,0,1;,
 3;6,5,1;,
 3;6,1,2;,
 3;7,6,2;,
 3;7,2,3;,
 3;12,13,9;,
 3;12,9,8;,
 3;13,14,10;,
 3;13,10,9;,
 3;14,15,11;,
 3;14,11,10;,
 3;18,19,17;,
 3;18,17,16;,
 3;20,21,19;,
 3;20,19,18;,
 3;22,23,21;,
 3;22,21,20;,
 3;22,20,18;,
 3;22,18,16;,
 3;26,27,25;,
 3;26,25,24;,
 3;28,29,27;,
 3;28,27,26;,
 3;30,31,29;,
 3;30,29,28;,
 3;30,28,26;,
 3;30,26,24;,
 3;34,35,33;,
 3;34,33,32;,
 3;36,37,35;,
 3;36,35,34;,
 3;38,39,37;,
 3;38,37,36;,
 3;38,36,34;,
 3;38,34,32;,
 3;42,43,41;,
 3;42,41,40;,
 3;44,45,43;,
 3;44,43,42;,
 3;46,47,45;,
 3;46,45,44;,
 3;46,44,42;,
 3;46,42,40;,
 3;50,51,49;,
 3;50,49,48;,
 3;52,53,51;,
 3;52,51,50;,
 3;54,55,53;,
 3;54,53,52;,
 3;54,52,50;,
 3;54,50,48;,
 3;58,59,57;,
 3;58,57,56;,
 3;60,61,59;,
 3;60,59,58;,
 3;62,63,61;,
 3;62,61,60;,
 3;62,60,58;,
 3;62,58,56;,
 3;66,67,65;,
 3;66,65,64;,
 3;68,69,67;,
 3;68,67,66;,
 3;70,71,69;,
 3;70,69,68;,
 3;70,68,66;,
 3;70,66,64;,
 3;74,75,73;,
 3;74,73,72;,
 3;76,77,75;,
 3;76,75,74;,
 3;78,79,77;,
 3;78,77,76;,
 3;83,82,81;,
 3;83,81,80;;

 MeshMaterialList  {
  11;
  76;
  0,
  0,
  0,
  0,
  0,
  0,
  1,
  1,
  1,
  1,
  1,
  1,
  2,
  2,
  2,
  2,
  2,
  2,
  2,
  2,
  3,
  3,
  3,
  3,
  3,
  3,
  3,
  3,
  4,
  4,
  4,
  4,
  4,
  4,
  4,
  4,
  5,
  5,
  5,
  5,
  5,
  5,
  5,
  5,
  6,
  6,
  6,
  6,
  6,
  6,
  6,
  6,
  7,
  7,
  7,
  7,
  7,
  7,
  7,
  7,
  8,
  8,
  8,
  8,
  8,
  8,
  8,
  8,
  9,
  9,
  9,
  9,
  9,
  9,
  10,
  10;

  Material  {
   1.000000;1.000000;1.000000;1.000000;;
   0.000000;
   0.000000;0.000000;0.000000;;
   0.000000;0.000000;0.000000;;

   TextureFilename  {
    "Rail2.png";
   }
  }

  Material  {
   1.000000;1.000000;1.000000;1.000000;;
   0.000000;
   0.000000;0.000000;0.000000;;
   0.000000;0.000000;0.000000;;

   TextureFilename  {
    "Rail2.png";
   }
  }

  Material  {
   1.000000;1.000000;1.000000;1.000000;;
   0.000000;
   0.000000;0.000000;0.000000;;
   0.000000;0.000000;0.000000;;

   TextureFilename  {
    "Tie4.png";
   }
  }

  Material  {
   1.000000;1.000000;1.000000;1.000000;;
   0.000000;
   0.000000;0.000000;0.000000;;
   0.000000;0.000000;0.000000;;

   TextureFilename  {
    "Tie4.png";
   }
  }

  Material  {
   1.000000;1.000000;1.000000;1.000000;;
   0.000000;
   0.000000;0.000000;0.000000;;
   0.000000;0.000000;0.000000;;

   TextureFilename  {
    "Tie4.png";
   }
  }

  Material  {
   1.000000;1.000000;1.000000;1.000000;;
   0.000000;
   0.000000;0.000000;0.000000;;
   0.000000;0.000000;0.000000;;

   TextureFilename  {
    "Tie4.png";
   }
  }

  Material  {
   1.000000;1.000000;1.000000;1.000000;;
   0.000000;
   0.000000;0.000000;0.000000;;
   0.000000;0.000000;0.000000;;

   TextureFilename  {
    "Tie4.png";
   }
  }

  Material  {
   1.000000;1.000000;1.000000;1.000000;;
   0.000000;
   0.000000;0.000000;0.000000;;
   0.000000;0.000000;0.000000;;

   TextureFilename  {
    "Tie4.png";
   }
  }

  Material  {
   1.000000;1.000000;1.000000;1.000000;;
   0.000000;
   0.000000;0.000000;0.000000;;
   0.000000;0.000000;0.000000;;

   TextureFilename  {
    "Tie4.png";
   }
  }

  Material  {
   0.588235;0.588235;0.588235;1.000000;;
   0.000000;
   0.000000;0.000000;0.000000;;
   0.000000;0.000000;0.000000;;

   TextureFilename  {
    "Tie2.png";
   }
  }

  Material  {
   0.470588;0.470588;0.470588;1.000000;;
   0.000000;
   0.000000;0.000000;0.000000;;
   0.000000;0.000000;0.000000;;

   TextureFilename  {
    "Ballast2.png";
   }
  }
 }

 MeshTextureCoords  {
  84;
  0.000000;1.000000;,
  0.375000;1.000000;,
  0.625000;1.000000;,
  1.000000;1.000000;,
  0.000000;0.000000;,
  0.375000;0.000000;,
  0.625000;0.000000;,
  1.000000;0.000000;,
  0.000000;1.500000;,
  0.375000;1.500000;,
  0.625000;1.500000;,
  1.000000;1.500000;,
  0.000000;0.500000;,
  0.375000;0.500000;,
  0.625000;0.500000;,
  1.000000;0.500000;,
  0.400000;0.000000;,
  0.400000;0.750000;,
  0.400000;0.000000;,
  0.400000;0.750000;,
  0.600000;0.000000;,
  0.600000;0.750000;,
  0.600000;0.000000;,
  0.600000;0.750000;,
  0.400000;0.000000;,
  0.400000;1.250000;,
  0.400000;0.000000;,
  0.400000;1.250000;,
  0.600000;0.000000;,
  0.600000;1.250000;,
  0.600000;0.000000;,
  0.600000;1.250000;,
  0.400000;0.000000;,
  0.400000;1.250000;,
  0.400000;0.000000;,
  0.400000;1.250000;,
  0.600000;0.000000;,
  0.600000;1.250000;,
  0.600000;0.000000;,
  0.600000;1.250000;,
  0.400000;0.000000;,
  0.400000;1.250000;,
  0.400000;0.000000;,
  0.400000;1.250000;,
  0.600000;0.000000;,
  0.600000;1.250000;,
  0.600000;0.000000;,
  0.600000;1.250000;,
  0.400000;0.000000;,
  0.400000;1.250000;,
  0.400000;0.000000;,
  0.400000;1.250000;,
  0.600000;0.000000;,
  0.600000;1.250000;,
  0.600000;0.000000;,
  0.600000;1.250000;,
  0.400000;0.000000;,
  0.400000;1.250000;,
  0.400000;0.000000;,
  0.400000;1.250000;,
  0.600000;0.000000;,
  0.600000;1.250000;,
  0.600000;0.000000;,
  0.600000;1.250000;,
  0.400000;0.000000;,
  0.400000;1.000000;,
  0.400000;0.000000;,
  0.400000;1.000000;,
  0.600000;0.000000;,
  0.600000;1.000000;,
  0.600000;0.000000;,
  0.600000;1.000000;,
  0.000000;6.000000;,
  0.000000;0.750000;,
  0.050000;6.000000;,
  0.050000;0.750000;,
  0.950000;6.000000;,
  0.950000;0.750000;,
  1.000000;6.000000;,
  1.000000;0.750000;,
  1.000000;1.000000;,
  1.000000;0.000000;,
  0.000000;0.000000;,
  0.000000;1.000000;;
 }

 MeshNormals  {
  76;
  1.000000;0.000000;0.000000;,
  1.000000;0.000000;0.000000;,
  0.000000;1.000000;0.000000;,
  0.000000;1.000000;0.000000;,
  -1.000000;0.000000;0.000000;,
  -1.000000;0.000000;0.000000;,
  -1.000000;0.000000;0.000000;,
  -1.000000;0.000000;0.000000;,
  0.000000;1.000000;0.000000;,
  0.000000;1.000000;0.000000;,
  1.000000;0.000000;0.000000;,
  1.000000;0.000000;0.000000;,
  1.000000;0.000000;0.000000;,
  1.000000;0.000000;0.000000;,
  0.000000;1.000000;0.000000;,
  0.000000;1.000000;0.000000;,
  -1.000000;0.000000;0.000000;,
  -1.000000;0.000000;0.000000;,
  0.000000;0.000000;-1.000000;,
  0.000000;0.000000;-1.000000;,
  1.000000;0.000000;0.000000;,
  1.000000;0.000000;0.000000;,
  0.000000;1.000000;0.000000;,
  0.000000;1.000000;0.000000;,
  -1.000000;0.000000;0.000000;,
  -1.000000;0.000000;0.000000;,
  0.000000;0.000000;-1.000000;,
  0.000000;0.000000;-1.000000;,
  1.000000;0.000000;0.000000;,
  1.000000;0.000000;0.000000;,
  0.000000;1.000000;0.000000;,
  0.000000;1.000000;0.000000;,
  -1.000000;0.000000;0.000000;,
  -1.000000;0.000000;0.000000;,
  0.000000;0.000000;-1.000000;,
  0.000000;0.000000;-1.000000;,
  1.000000;0.000000;0.000000;,
  1.000000;0.000000;0.000000;,
  0.000000;1.000000;0.000000;,
  0.000000;1.000000;0.000000;,
  -1.000000;0.000000;0.000000;,
  -1.000000;0.000000;0.000000;,
  0.000000;0.000000;-1.000000;,
  0.000000;0.000000;-1.000000;,
  1.000000;0.000000;0.000000;,
  1.000000;0.000000;0.000000;,
  0.000000;1.000000;0.000000;,
  0.000000;1.000000;0.000000;,
  -1.000000;0.000000;0.000000;,
  -1.000000;0.000000;0.000000;,
  0.000000;0.000000;-1.000000;,
  0.000000;0.000000;-1.000000;,
  1.000000;0.000000;0.000000;,
  1.000000;0.000000;0.000000;,
  0.000000;1.000000;0.000000;,
  0.000000;1.000000;0.000000;,
  -1.000000;0.000000;0.000000;,
  -1.000000;0.000000;0.000000;,
  0.000000;0.000000;-1.000000;,
  0.000000;0.000000;-1.000000;,
  1.000000;0.000000;0.000000;,
  1.000000;0.000000;0.000000;,
  0.000000;1.000000;0.000000;,
  0.000000;1.000000;0.000000;,
  -1.000000;0.000000;0.000000;,
  -1.000000;0.000000;0.000000;,
  0.000000;0.000000;-1.000000;,
  0.000000;0.000000;-1.000000;,
  1.000000;0.000000;0.000000;,
  1.000000;0.000000;0.000000;,
  0.000000;1.000000;0.000000;,
  0.000000;1.000000;0.000000;,
  -1.000000;0.000000;0.000000;,
  -1.000000;0.000000;0.000000;,
  0.000000;1.000000;0.000000;,
  0.000000;1.000000;0.000000;;
  76;
  3;0,0,0;,
  3;1,1,1;,
  3;2,2,2;,
  3;3,3,3;,
  3;4,4,4;,
  3;5,5,5;,
  3;6,6,6;,
  3;7,7,7;,
  3;8,8,8;,
  3;9,9,9;,
  3;10,10,10;,
  3;11,11,11;,
  3;12,12,12;,
  3;13,13,13;,
  3;14,14,14;,
  3;15,15,15;,
  3;16,16,16;,
  3;17,17,17;,
  3;18,18,18;,
  3;19,19,19;,
  3;20,20,20;,
  3;21,21,21;,
  3;22,22,22;,
  3;23,23,23;,
  3;24,24,24;,
  3;25,25,25;,
  3;26,26,26;,
  3;27,27,27;,
  3;28,28,28;,
  3;29,29,29;,
  3;30,30,30;,
  3;31,31,31;,
  3;32,32,32;,
  3;33,33,33;,
  3;34,34,34;,
  3;35,35,35;,
  3;36,36,36;,
  3;37,37,37;,
  3;38,38,38;,
  3;39,39,39;,
  3;40,40,40;,
  3;41,41,41;,
  3;42,42,42;,
  3;43,43,43;,
  3;44,44,44;,
  3;45,45,45;,
  3;46,46,46;,
  3;47,47,47;,
  3;48,48,48;,
  3;49,49,49;,
  3;50,50,50;,
  3;51,51,51;,
  3;52,52,52;,
  3;53,53,53;,
  3;54,54,54;,
  3;55,55,55;,
  3;56,56,56;,
  3;57,57,57;,
  3;58,58,58;,
  3;59,59,59;,
  3;60,60,60;,
  3;61,61,61;,
  3;62,62,62;,
  3;63,63,63;,
  3;64,64,64;,
  3;65,65,65;,
  3;66,66,66;,
  3;67,67,67;,
  3;68,68,68;,
  3;69,69,69;,
  3;70,70,70;,
  3;71,71,71;,
  3;72,72,72;,
  3;73,73,73;,
  3;74,74,74;,
  3;75,75,75;;
 }
}