xof 0303txt 0032
template Vector {
 <3d82ab5e-62da-11cf-ab39-0020af71e433>
 FLOAT x;
 FLOAT y;
 FLOAT z;
}

template MeshFace {
 <3d82ab5f-62da-11cf-ab39-0020af71e433>
 DWORD nFaceVertexIndices;
 array DWORD faceVertexIndices[nFaceVertexIndices];
}

template Mesh {
 <3d82ab44-62da-11cf-ab39-0020af71e433>
 DWORD nVertices;
 array Vector vertices[nVertices];
 DWORD nFaces;
 array MeshFace faces[nFaces];
 [...]
}

template ColorRGBA {
 <35ff44e0-6c7c-11cf-8f52-0040333594a3>
 FLOAT red;
 FLOAT green;
 FLOAT blue;
 FLOAT alpha;
}

template ColorRGB {
 <d3e16e81-7835-11cf-8f52-0040333594a3>
 FLOAT red;
 FLOAT green;
 FLOAT blue;
}

template Material {
 <3d82ab4d-62da-11cf-ab39-0020af71e433>
 ColorRGBA faceColor;
 FLOAT power;
 ColorRGB specularColor;
 ColorRGB emissiveColor;
 [...]
}

template MeshMaterialList {
 <f6f23f42-7686-11cf-8f52-0040333594a3>
 DWORD nMaterials;
 DWORD nFaceIndexes;
 array DWORD faceIndexes[nFaceIndexes];
 [Material <3d82ab4d-62da-11cf-ab39-0020af71e433>]
}

template TextureFilename {
 <a42790e1-7810-11cf-8f52-0040333594a3>
 STRING filename;
}

template Coords2d {
 <f6f23f44-7686-11cf-8f52-0040333594a3>
 FLOAT u;
 FLOAT v;
}

template MeshTextureCoords {
 <f6f23f40-7686-11cf-8f52-0040333594a3>
 DWORD nTextureCoords;
 array Coords2d textureCoords[nTextureCoords];
}

template MeshNormals {
 <f6f23f43-7686-11cf-8f52-0040333594a3>
 DWORD nNormals;
 array Vector normals[nNormals];
 DWORD nFaceNormals;
 array MeshFace faceNormals[nFaceNormals];
}


Mesh  {
 84;
 -0.602000;-0.144000;0.000000;,
 -0.602000;0.000000;0.000000;,
 -0.534000;0.000000;0.000000;,
 -0.534000;-0.144000;0.000000;,
 -0.602000;-0.144000;25.500000;,
 -0.602000;0.000000;25.500000;,
 -0.534000;0.000000;25.500000;,
 -0.534000;-0.144000;25.500000;,
 0.602000;-0.144000;0.000000;,
 0.602000;0.000000;0.000000;,
 0.534000;0.000000;0.000000;,
 0.534000;-0.144000;0.000000;,
 0.602000;-0.144000;25.500000;,
 0.602000;0.000000;25.500000;,
 0.534000;0.000000;25.500000;,
 0.534000;-0.144000;25.500000;,
 2.050000;-0.290000;25.000000;,
 2.050000;-0.290000;23.500000;,
 2.050000;-0.144000;25.000000;,
 2.050000;-0.144000;23.500000;,
 -1.050000;-0.144000;25.000000;,
 -1.050000;-0.144000;23.500000;,
 -1.050000;-0.290000;25.000000;,
 -1.050000;-0.290000;23.500000;,
 2.250000;-0.290000;23.500000;,
 2.250000;-0.290000;21.000000;,
 2.250000;-0.144000;23.500000;,
 2.250000;-0.144000;21.000000;,
 -1.050000;-0.144000;23.500000;,
 -1.050000;-0.144000;21.000000;,
 -1.050000;-0.290000;23.500000;,
 -1.050000;-0.290000;21.000000;,
 2.450000;-0.290000;21.000000;,
 2.450000;-0.290000;18.500000;,
 2.450000;-0.144000;21.000000;,
 2.450000;-0.144000;18.500000;,
 -1.050000;-0.144000;21.000000;,
 -1.050000;-0.144000;18.500000;,
 -1.050000;-0.290000;21.000000;,
 -1.050000;-0.290000;18.500000;,
 2.650000;-0.290000;18.500000;,
 2.650000;-0.290000;16.000000;,
 2.650000;-0.144000;18.500000;,
 2.650000;-0.144000;16.000000;,
 -1.050000;-0.144000;18.500000;,
 -1.050000;-0.144000;16.000000;,
 -1.050000;-0.290000;18.500000;,
 -1.050000;-0.290000;16.000000;,
 2.850000;-0.290000;16.000000;,
 2.850000;-0.290000;13.500000;,
 2.850000;-0.144000;16.000000;,
 2.850000;-0.144000;13.500000;,
 -1.050000;-0.144000;16.000000;,
 -1.050000;-0.144000;13.500000;,
 -1.050000;-0.290000;16.000000;,
 -1.050000;-0.290000;13.500000;,
 3.050000;-0.290000;13.500000;,
 3.050000;-0.290000;11.000000;,
 3.050000;-0.144000;13.500000;,
 3.050000;-0.144000;11.000000;,
 -1.050000;-0.144000;13.500000;,
 -1.050000;-0.144000;11.000000;,
 -1.050000;-0.290000;13.500000;,
 -1.050000;-0.290000;11.000000;,
 1.050000;-0.290000;11.000000;,
 1.050000;-0.290000;9.000000;,
 1.050000;-0.144000;11.000000;,
 1.050000;-0.144000;9.000000;,
 -1.050000;-0.144000;11.000000;,
 -1.050000;-0.144000;9.000000;,
 -1.050000;-0.290000;11.000000;,
 -1.050000;-0.290000;9.000000;,
 -1.050000;-0.290000;0.000000;,
 -1.050000;-0.290000;9.000000;,
 -1.050000;-0.130000;0.000000;,
 -1.050000;-0.130000;9.000000;,
 1.050000;-0.130000;0.000000;,
 1.050000;-0.130000;9.000000;,
 1.050000;-0.290000;0.000000;,
 1.050000;-0.290000;9.000000;,
 -1.900000;-0.290000;0.000000;,
 -1.900000;-0.290000;25.100000;,
 1.900000;-0.290000;25.100000;,
 1.900000;-0.290000;0.000000;;
 76;
 3;1,0,4;,
 3;1,4,5;,
 3;2,1,5;,
 3;2,5,6;,
 3;3,2,6;,
 3;3,6,7;,
 3;8,9,13;,
 3;8,13,12;,
 3;9,10,14;,
 3;9,14,13;,
 3;10,11,15;,
 3;10,15,14;,
 3;16,17,19;,
 3;16,19,18;,
 3;18,19,21;,
 3;18,21,20;,
 3;20,21,23;,
 3;20,23,22;,
 3;23,21,19;,
 3;23,19,17;,
 3;24,25,27;,
 3;24,27,26;,
 3;26,27,29;,
 3;26,29,28;,
 3;28,29,31;,
 3;28,31,30;,
 3;31,29,27;,
 3;31,27,25;,
 3;32,33,35;,
 3;32,35,34;,
 3;34,35,37;,
 3;34,37,36;,
 3;36,37,39;,
 3;36,39,38;,
 3;39,37,35;,
 3;39,35,33;,
 3;40,41,43;,
 3;40,43,42;,
 3;42,43,45;,
 3;42,45,44;,
 3;44,45,47;,
 3;44,47,46;,
 3;47,45,43;,
 3;47,43,41;,
 3;48,49,51;,
 3;48,51,50;,
 3;50,51,53;,
 3;50,53,52;,
 3;52,53,55;,
 3;52,55,54;,
 3;55,53,51;,
 3;55,51,49;,
 3;56,57,59;,
 3;56,59,58;,
 3;58,59,61;,
 3;58,61,60;,
 3;60,61,63;,
 3;60,63,62;,
 3;63,61,59;,
 3;63,59,57;,
 3;64,65,67;,
 3;64,67,66;,
 3;66,67,69;,
 3;66,69,68;,
 3;68,69,71;,
 3;68,71,70;,
 3;71,69,67;,
 3;71,67,65;,
 3;72,73,75;,
 3;72,75,74;,
 3;74,75,77;,
 3;74,77,76;,
 3;76,77,79;,
 3;76,79,78;,
 3;80,81,82;,
 3;80,82,83;;

 MeshMaterialList  {
  11;
  76;
  0,
  0,
  0,
  0,
  0,
  0,
  1,
  1,
  1,
  1,
  1,
  1,
  2,
  2,
  2,
  2,
  2,
  2,
  2,
  2,
  3,
  3,
  3,
  3,
  3,
  3,
  3,
  3,
  4,
  4,
  4,
  4,
  4,
  4,
  4,
  4,
  5,
  5,
  5,
  5,
  5,
  5,
  5,
  5,
  6,
  6,
  6,
  6,
  6,
  6,
  6,
  6,
  7,
  7,
  7,
  7,
  7,
  7,
  7,
  7,
  8,
  8,
  8,
  8,
  8,
  8,
  8,
  8,
  9,
  9,
  9,
  9,
  9,
  9,
  10,
  10;

  Material  {
   1.000000;1.000000;1.000000;1.000000;;
   0.000000;
   0.000000;0.000000;0.000000;;
   0.000000;0.000000;0.000000;;

   TextureFilename  {
    "Rail2.png";
   }
  }

  Material  {
   1.000000;1.000000;1.000000;1.000000;;
   0.000000;
   0.000000;0.000000;0.000000;;
   0.000000;0.000000;0.000000;;

   TextureFilename  {
    "Rail2.png";
   }
  }

  Material  {
   1.000000;1.000000;1.000000;1.000000;;
   0.000000;
   0.000000;0.000000;0.000000;;
   0.000000;0.000000;0.000000;;

   TextureFilename  {
    "Tie4.png";
   }
  }

  Material  {
   1.000000;1.000000;1.000000;1.000000;;
   0.000000;
   0.000000;0.000000;0.000000;;
   0.000000;0.000000;0.000000;;

   TextureFilename  {
    "Tie4.png";
   }
  }

  Material  {
   1.000000;1.000000;1.000000;1.000000;;
   0.000000;
   0.000000;0.000000;0.000000;;
   0.000000;0.000000;0.000000;;

   TextureFilename  {
    "Tie4.png";
   }
  }

  Material  {
   1.000000;1.000000;1.000000;1.000000;;
   0.000000;
   0.000000;0.000000;0.000000;;
   0.000000;0.000000;0.000000;;

   TextureFilename  {
    "Tie4.png";
   }
  }

  Material  {
   1.000000;1.000000;1.000000;1.000000;;
   0.000000;
   0.000000;0.000000;0.000000;;
   0.000000;0.000000;0.000000;;

   TextureFilename  {
    "Tie4.png";
   }
  }

  Material  {
   1.000000;1.000000;1.000000;1.000000;;
   0.000000;
   0.000000;0.000000;0.000000;;
   0.000000;0.000000;0.000000;;

   TextureFilename  {
    "Tie4.png";
   }
  }

  Material  {
   1.000000;1.000000;1.000000;1.000000;;
   0.000000;
   0.000000;0.000000;0.000000;;
   0.000000;0.000000;0.000000;;

   TextureFilename  {
    "Tie4.png";
   }
  }

  Material  {
   0.588235;0.588235;0.588235;1.000000;;
   0.000000;
   0.000000;0.000000;0.000000;;
   0.000000;0.000000;0.000000;;

   TextureFilename  {
    "Tie2.png";
   }
  }

  Material  {
   0.470588;0.470588;0.470588;1.000000;;
   0.000000;
   0.000000;0.000000;0.000000;;
   0.000000;0.000000;0.000000;;

   TextureFilename  {
    "Ballast2.png";
   }
  }
 }

 MeshTextureCoords  {
  84;
  0.000000;1.000000;,
  0.375000;1.000000;,
  0.625000;1.000000;,
  1.000000;1.000000;,
  0.000000;0.000000;,
  0.375000;0.000000;,
  0.625000;0.000000;,
  1.000000;0.000000;,
  0.000000;1.500000;,
  0.375000;1.500000;,
  0.625000;1.500000;,
  1.000000;1.500000;,
  0.000000;0.500000;,
  0.375000;0.500000;,
  0.625000;0.500000;,
  1.000000;0.500000;,
  0.400000;0.750000;,
  0.400000;0.000000;,
  0.400000;0.750000;,
  0.400000;0.000000;,
  0.600000;0.750000;,
  0.600000;0.000000;,
  0.600000;0.750000;,
  0.600000;0.000000;,
  0.400000;1.250000;,
  0.400000;0.000000;,
  0.400000;1.250000;,
  0.400000;0.000000;,
  0.600000;1.250000;,
  0.600000;0.000000;,
  0.600000;1.250000;,
  0.600000;0.000000;,
  0.400000;1.250000;,
  0.400000;0.000000;,
  0.400000;1.250000;,
  0.400000;0.000000;,
  0.600000;1.250000;,
  0.600000;0.000000;,
  0.600000;1.250000;,
  0.600000;0.000000;,
  0.400000;1.250000;,
  0.400000;0.000000;,
  0.400000;1.250000;,
  0.400000;0.000000;,
  0.600000;1.250000;,
  0.600000;0.000000;,
  0.600000;1.250000;,
  0.600000;0.000000;,
  0.400000;1.250000;,
  0.400000;0.000000;,
  0.400000;1.250000;,
  0.400000;0.000000;,
  0.600000;1.250000;,
  0.600000;0.000000;,
  0.600000;1.250000;,
  0.600000;0.000000;,
  0.400000;1.250000;,
  0.400000;0.000000;,
  0.400000;1.250000;,
  0.400000;0.000000;,
  0.600000;1.250000;,
  0.600000;0.000000;,
  0.600000;1.250000;,
  0.600000;0.000000;,
  0.400000;1.250000;,
  0.400000;0.000000;,
  0.400000;1.250000;,
  0.400000;0.000000;,
  0.600000;1.250000;,
  0.600000;0.000000;,
  0.600000;1.250000;,
  0.600000;0.000000;,
  0.000000;5.000000;,
  0.000000;-0.505000;,
  0.050000;5.000000;,
  0.050000;-0.505000;,
  0.950000;5.000000;,
  0.950000;-0.505000;,
  1.000000;5.000000;,
  1.000000;-0.505000;,
  1.000000;1.000000;,
  1.000000;0.000000;,
  0.000000;0.000000;,
  0.000000;1.000000;;
 }

 MeshNormals  {
  76;
  -1.000000;0.000000;0.000000;,
  -1.000000;0.000000;0.000000;,
  0.000000;1.000000;0.000000;,
  0.000000;1.000000;0.000000;,
  1.000000;0.000000;0.000000;,
  1.000000;0.000000;0.000000;,
  1.000000;0.000000;0.000000;,
  1.000000;0.000000;0.000000;,
  0.000000;1.000000;0.000000;,
  0.000000;1.000000;0.000000;,
  -1.000000;0.000000;0.000000;,
  -1.000000;0.000000;0.000000;,
  1.000000;0.000000;0.000000;,
  1.000000;0.000000;0.000000;,
  0.000000;1.000000;0.000000;,
  0.000000;1.000000;0.000000;,
  -1.000000;0.000000;0.000000;,
  -1.000000;0.000000;0.000000;,
  0.000000;0.000000;-1.000000;,
  0.000000;0.000000;-1.000000;,
  1.000000;0.000000;0.000000;,
  1.000000;0.000000;0.000000;,
  0.000000;1.000000;0.000000;,
  0.000000;1.000000;0.000000;,
  -1.000000;0.000000;0.000000;,
  -1.000000;0.000000;0.000000;,
  0.000000;0.000000;-1.000000;,
  0.000000;0.000000;-1.000000;,
  1.000000;0.000000;0.000000;,
  1.000000;0.000000;0.000000;,
  0.000000;1.000000;0.000000;,
  0.000000;1.000000;0.000000;,
  -1.000000;0.000000;0.000000;,
  -1.000000;0.000000;0.000000;,
  0.000000;0.000000;-1.000000;,
  0.000000;0.000000;-1.000000;,
  1.000000;0.000000;0.000000;,
  1.000000;0.000000;0.000000;,
  0.000000;1.000000;0.000000;,
  0.000000;1.000000;0.000000;,
  -1.000000;0.000000;0.000000;,
  -1.000000;0.000000;0.000000;,
  0.000000;0.000000;-1.000000;,
  0.000000;0.000000;-1.000000;,
  1.000000;0.000000;0.000000;,
  1.000000;0.000000;0.000000;,
  0.000000;1.000000;0.000000;,
  0.000000;1.000000;0.000000;,
  -1.000000;0.000000;0.000000;,
  -1.000000;0.000000;0.000000;,
  0.000000;0.000000;-1.000000;,
  0.000000;0.000000;-1.000000;,
  1.000000;0.000000;0.000000;,
  1.000000;0.000000;0.000000;,
  0.000000;1.000000;0.000000;,
  0.000000;1.000000;0.000000;,
  -1.000000;0.000000;0.000000;,
  -1.000000;0.000000;0.000000;,
  0.000000;0.000000;-1.000000;,
  0.000000;0.000000;-1.000000;,
  1.000000;0.000000;0.000000;,
  1.000000;0.000000;0.000000;,
  0.000000;1.000000;0.000000;,
  0.000000;1.000000;0.000000;,
  -1.000000;0.000000;0.000000;,
  -1.000000;0.000000;0.000000;,
  0.000000;0.000000;-1.000000;,
  0.000000;0.000000;-1.000000;,
  -1.000000;0.000000;0.000000;,
  -1.000000;0.000000;0.000000;,
  0.000000;1.000000;0.000000;,
  0.000000;1.000000;0.000000;,
  1.000000;0.000000;0.000000;,
  1.000000;0.000000;0.000000;,
  0.000000;1.000000;0.000000;,
  0.000000;1.000000;0.000000;;
  76;
  3;0,0,0;,
  3;1,1,1;,
  3;2,2,2;,
  3;3,3,3;,
  3;4,4,4;,
  3;5,5,5;,
  3;6,6,6;,
  3;7,7,7;,
  3;8,8,8;,
  3;9,9,9;,
  3;10,10,10;,
  3;11,11,11;,
  3;12,12,12;,
  3;13,13,13;,
  3;14,14,14;,
  3;15,15,15;,
  3;16,16,16;,
  3;17,17,17;,
  3;18,18,18;,
  3;19,19,19;,
  3;20,20,20;,
  3;21,21,21;,
  3;22,22,22;,
  3;23,23,23;,
  3;24,24,24;,
  3;25,25,25;,
  3;26,26,26;,
  3;27,27,27;,
  3;28,28,28;,
  3;29,29,29;,
  3;30,30,30;,
  3;31,31,31;,
  3;32,32,32;,
  3;33,33,33;,
  3;34,34,34;,
  3;35,35,35;,
  3;36,36,36;,
  3;37,37,37;,
  3;38,38,38;,
  3;39,39,39;,
  3;40,40,40;,
  3;41,41,41;,
  3;42,42,42;,
  3;43,43,43;,
  3;44,44,44;,
  3;45,45,45;,
  3;46,46,46;,
  3;47,47,47;,
  3;48,48,48;,
  3;49,49,49;,
  3;50,50,50;,
  3;51,51,51;,
  3;52,52,52;,
  3;53,53,53;,
  3;54,54,54;,
  3;55,55,55;,
  3;56,56,56;,
  3;57,57,57;,
  3;58,58,58;,
  3;59,59,59;,
  3;60,60,60;,
  3;61,61,61;,
  3;62,62,62;,
  3;63,63,63;,
  3;64,64,64;,
  3;65,65,65;,
  3;66,66,66;,
  3;67,67,67;,
  3;68,68,68;,
  3;69,69,69;,
  3;70,70,70;,
  3;71,71,71;,
  3;72,72,72;,
  3;73,73,73;,
  3;74,74,74;,
  3;75,75,75;;
 }
}