xof 0303txt 0032
template Vector {
 <3d82ab5e-62da-11cf-ab39-0020af71e433>
 FLOAT x;
 FLOAT y;
 FLOAT z;
}

template MeshFace {
 <3d82ab5f-62da-11cf-ab39-0020af71e433>
 DWORD nFaceVertexIndices;
 array DWORD faceVertexIndices[nFaceVertexIndices];
}

template Mesh {
 <3d82ab44-62da-11cf-ab39-0020af71e433>
 DWORD nVertices;
 array Vector vertices[nVertices];
 DWORD nFaces;
 array MeshFace faces[nFaces];
 [...]
}

template ColorRGBA {
 <35ff44e0-6c7c-11cf-8f52-0040333594a3>
 FLOAT red;
 FLOAT green;
 FLOAT blue;
 FLOAT alpha;
}

template ColorRGB {
 <d3e16e81-7835-11cf-8f52-0040333594a3>
 FLOAT red;
 FLOAT green;
 FLOAT blue;
}

template Material {
 <3d82ab4d-62da-11cf-ab39-0020af71e433>
 ColorRGBA faceColor;
 FLOAT power;
 ColorRGB specularColor;
 ColorRGB emissiveColor;
 [...]
}

template MeshMaterialList {
 <f6f23f42-7686-11cf-8f52-0040333594a3>
 DWORD nMaterials;
 DWORD nFaceIndexes;
 array DWORD faceIndexes[nFaceIndexes];
 [Material <3d82ab4d-62da-11cf-ab39-0020af71e433>]
}

template TextureFilename {
 <a42790e1-7810-11cf-8f52-0040333594a3>
 STRING filename;
}

template Coords2d {
 <f6f23f44-7686-11cf-8f52-0040333594a3>
 FLOAT u;
 FLOAT v;
}

template MeshTextureCoords {
 <f6f23f40-7686-11cf-8f52-0040333594a3>
 DWORD nTextureCoords;
 array Coords2d textureCoords[nTextureCoords];
}

template MeshNormals {
 <f6f23f43-7686-11cf-8f52-0040333594a3>
 DWORD nNormals;
 array Vector normals[nNormals];
 DWORD nFaceNormals;
 array MeshFace faceNormals[nFaceNormals];
}


Mesh  {
 36;
 -0.602000;-0.144000;0.000000;,
 -0.602000;0.000000;0.000000;,
 -0.534000;0.000000;0.000000;,
 -0.534000;-0.144000;0.000000;,
 -0.602000;-0.144000;25.500000;,
 -0.602000;0.000000;25.500000;,
 -0.534000;0.000000;25.500000;,
 -0.534000;-0.144000;25.500000;,
 0.602000;-0.144000;0.000000;,
 0.602000;0.000000;0.000000;,
 0.534000;0.000000;0.000000;,
 0.534000;-0.144000;0.000000;,
 0.602000;-0.144000;25.500000;,
 0.602000;0.000000;25.500000;,
 0.534000;0.000000;25.500000;,
 0.534000;-0.144000;25.500000;,
 1.050000;-0.290000;10.925000;,
 1.050000;-0.290000;8.925000;,
 1.050000;-0.144000;10.925000;,
 1.050000;-0.144000;8.925000;,
 -1.050000;-0.144000;10.925000;,
 -1.050000;-0.144000;8.925000;,
 -1.050000;-0.290000;10.925000;,
 -1.050000;-0.290000;8.925000;,
 -1.050000;-0.290000;0.000000;,
 -1.050000;-0.290000;8.925000;,
 -1.050000;-0.130000;0.000000;,
 -1.050000;-0.130000;8.925000;,
 1.050000;-0.130000;0.000000;,
 1.050000;-0.130000;8.925000;,
 1.050000;-0.290000;0.000000;,
 1.050000;-0.290000;8.925000;,
 -1.900000;-0.290000;0.000000;,
 -1.900000;-0.290000;25.100000;,
 1.900000;-0.290000;25.100000;,
 1.900000;-0.290000;0.000000;;
 28;
 3;1,0,4;,
 3;1,4,5;,
 3;2,1,5;,
 3;2,5,6;,
 3;3,2,6;,
 3;3,6,7;,
 3;8,9,13;,
 3;8,13,12;,
 3;9,10,14;,
 3;9,14,13;,
 3;10,11,15;,
 3;10,15,14;,
 3;16,17,19;,
 3;16,19,18;,
 3;18,19,21;,
 3;18,21,20;,
 3;20,21,23;,
 3;20,23,22;,
 3;16,18,20;,
 3;16,20,22;,
 3;24,25,27;,
 3;24,27,26;,
 3;26,27,29;,
 3;26,29,28;,
 3;28,29,31;,
 3;28,31,30;,
 3;32,33,34;,
 3;32,34,35;;

 MeshMaterialList  {
  5;
  28;
  0,
  0,
  0,
  0,
  0,
  0,
  1,
  1,
  1,
  1,
  1,
  1,
  2,
  2,
  2,
  2,
  2,
  2,
  2,
  2,
  3,
  3,
  3,
  3,
  3,
  3,
  4,
  4;

  Material  {
   1.000000;1.000000;1.000000;1.000000;;
   0.000000;
   0.000000;0.000000;0.000000;;
   0.000000;0.000000;0.000000;;

   TextureFilename  {
    "Rail2.png";
   }
  }

  Material  {
   1.000000;1.000000;1.000000;1.000000;;
   0.000000;
   0.000000;0.000000;0.000000;;
   0.000000;0.000000;0.000000;;

   TextureFilename  {
    "Rail2.png";
   }
  }

  Material  {
   1.000000;1.000000;1.000000;1.000000;;
   0.000000;
   0.000000;0.000000;0.000000;;
   0.000000;0.000000;0.000000;;

   TextureFilename  {
    "Tie4.png";
   }
  }

  Material  {
   0.588235;0.588235;0.588235;1.000000;;
   0.000000;
   0.000000;0.000000;0.000000;;
   0.000000;0.000000;0.000000;;

   TextureFilename  {
    "Tie2.png";
   }
  }

  Material  {
   0.470588;0.470588;0.470588;1.000000;;
   0.000000;
   0.000000;0.000000;0.000000;;
   0.000000;0.000000;0.000000;;

   TextureFilename  {
    "Ballast2.png";
   }
  }
 }

 MeshTextureCoords  {
  36;
  0.000000;1.000000;,
  0.375000;1.000000;,
  0.625000;1.000000;,
  1.000000;1.000000;,
  0.000000;0.000000;,
  0.375000;0.000000;,
  0.625000;0.000000;,
  1.000000;0.000000;,
  0.000000;1.500000;,
  0.375000;1.500000;,
  0.625000;1.500000;,
  1.000000;1.500000;,
  0.000000;0.500000;,
  0.375000;0.500000;,
  0.625000;0.500000;,
  1.000000;0.500000;,
  0.400000;1.000000;,
  0.400000;0.000000;,
  0.400000;1.000000;,
  0.400000;0.000000;,
  0.600000;1.000000;,
  0.600000;0.000000;,
  0.600000;1.000000;,
  0.600000;0.000000;,
  0.000000;5.250000;,
  0.000000;0.000000;,
  0.050000;5.250000;,
  0.050000;0.000000;,
  0.950000;5.250000;,
  0.950000;0.000000;,
  1.000000;5.250000;,
  1.000000;0.000000;,
  1.000000;1.000000;,
  1.000000;0.000000;,
  0.000000;0.000000;,
  0.000000;1.000000;;
 }

 MeshNormals  {
  28;
  -1.000000;0.000000;0.000000;,
  -1.000000;0.000000;0.000000;,
  0.000000;1.000000;0.000000;,
  0.000000;1.000000;0.000000;,
  1.000000;0.000000;0.000000;,
  1.000000;0.000000;0.000000;,
  1.000000;0.000000;0.000000;,
  1.000000;0.000000;0.000000;,
  0.000000;1.000000;0.000000;,
  0.000000;1.000000;0.000000;,
  -1.000000;0.000000;0.000000;,
  -1.000000;0.000000;0.000000;,
  1.000000;0.000000;0.000000;,
  1.000000;0.000000;0.000000;,
  0.000000;1.000000;0.000000;,
  0.000000;1.000000;0.000000;,
  -1.000000;0.000000;0.000000;,
  -1.000000;0.000000;0.000000;,
  0.000000;0.000000;1.000000;,
  0.000000;0.000000;1.000000;,
  -1.000000;0.000000;0.000000;,
  -1.000000;0.000000;0.000000;,
  0.000000;1.000000;0.000000;,
  0.000000;1.000000;0.000000;,
  1.000000;0.000000;0.000000;,
  1.000000;0.000000;0.000000;,
  0.000000;1.000000;0.000000;,
  0.000000;1.000000;0.000000;;
  28;
  3;0,0,0;,
  3;1,1,1;,
  3;2,2,2;,
  3;3,3,3;,
  3;4,4,4;,
  3;5,5,5;,
  3;6,6,6;,
  3;7,7,7;,
  3;8,8,8;,
  3;9,9,9;,
  3;10,10,10;,
  3;11,11,11;,
  3;12,12,12;,
  3;13,13,13;,
  3;14,14,14;,
  3;15,15,15;,
  3;16,16,16;,
  3;17,17,17;,
  3;18,18,18;,
  3;19,19,19;,
  3;20,20,20;,
  3;21,21,21;,
  3;22,22,22;,
  3;23,23,23;,
  3;24,24,24;,
  3;25,25,25;,
  3;26,26,26;,
  3;27,27,27;;
 }
}