﻿BveTs Map 2.00

//////////////////////////////////////////////////////////////////////////
// 東海道本線（しぞーか本線）CA03/CB18 沼津駅 下本[2番線]
// (125.280) ～ 駅中心126.230 ～ (127.350)
//////////////////////////////////////////////////////////////////////////


// -------------------------------------------------------------------------------------------------------------

$CAWay = $Numazu - 1230; // 125km

$T00 = '00'; // 海下本[2]
$T01 = '01'; // 海下１[1]
$T02 = '02'; // 下２
$T03 = '03'; // 下３
$T10 = '10'; // 海上本[4]
$T11 = '11'; // 海中[3]
$T12 = '34'; // 通路4区
$T20 = '20'; // 御本[5]
$T21 = '21'; // 御1[6]
$T22 = '22'; // 御2
$T23 = '23'; // 御3
$T24 = '24'; // 御4
$T25 = '25'; // 御5
$T26 = '26'; // 御6
$T27 = '27'; // 御7

$slope=-3.0;





$CAWay + 298;
	//◯●●下本場内 (125.2xx)
	Section.BeginNew(0, 2, 3, 4);
	//Structure['PoleSL1'].Put(0, -2.4, 0, 0.3, 0, 0, 0, 1, 1.0);
	Signal['type5'].Put(0, 0, -2.4, 5.6, 0.0, 0, 0, 0, 1, 1.0);
	//◯●●下１場内 (125.2xx)
	Structure['Signal5L0'].Put(0, -2.7, 3.6, 0.0, 0, 0, 0, 1, 1.0);
	//◯●●中場内 (125.2xx)
	Structure['Signal1L0'].Put(0, 1.9, 5.6, 0.0, 0, 0, 0, 1, 1.0);


$CAWay+387;
//◎ 市営住宅踏切　125.387
	Structure['Fumikiri_BL'].Put0($T01, 0, 5);
	Structure['Fumikiri_BC'].Put0($T01, 0, 5);
	Structure['Fumikiri_BM'].Put0($T01, 0, 5);
	Structure['Fumikiri_BH'].Put0($T00, 0, 5);
	Structure['Fumikiri_BC'].Put0($T00, 0, 5);
	Structure['Fumikiri_BM'].Put0($T00, 0, 5);
	Structure['Fumikiri_BH'].Put0($T10, 0, 5);
	Structure['Fumikiri_BC'].Put0($T10, 0, 5);
	Structure['Fumikiri_BR'].Put0($T10, 0, 5);
	Sound3D['Fumikiri'].Put(-2.5, 3.0);


$CAWay + 400;
	$RailNo=$T01;
	Track[$RailNo].Position(0.00, 0, -211, 0); // 下1
	Repeater['Rail'+$RailNo+'u'].Begin($RailNo, 0, 0, 0, 0, 0, 0, 3, 5, 5, 'Ballast0', 'Ballast1', 'Ballast2', 'Ballast3', 'Ballast4');
	Repeater['Kasen'+$RailNo].Begin($RailNo, 0, 0, 0, 0, 0, 0, 1, 25, 25, 'KasenS0');
		$dist = distance;
	include 'utility\TongStartL.txt';

	Track[$T00].X.Interpolate(0.00, 0); // 下本

	Track[$T10].X.Interpolate(3.80, 0); // 上本
	Repeater['Rail'+$T10+'L'].Begin($T10, -0.5335, 0, 0, 0, 0, 0, 3, 5.0, 5.0, 'RailL0', 'RailL1', 'RailL2', 'RailL3', 'RailL4');
	Repeater['Rail'+$T10+'R'].Begin($T10,  0.5335, 0, 0, 0, 0, 0, 3, 5.0, 5.0, 'RailR0', 'RailR1', 'RailR2', 'RailR3', 'RailR4');
	Repeater['Rail'+$T10+'u'].Begin($T10, 0, 0, 0, 0, 0, 0, 3, 5, 5, 'Ballast0', 'Ballast1', 'Ballast2', 'Ballast3', 'Ballast4');
	Repeater['Kasen'+$T10].Begin($T10, 0, 0, 0, 0, 0, 0, 1, 25, 25, 'KasenS0');
	JointNoise.Play(0);


$CAWay + 420;
	Track[$T01].X.Interpolate(-0.95, 0); // 下1


$CAWay + 430;
		$dist = distance;
		$radius=800;
		$cant=60;
	include 'utility\CurveStart.txt';


$CAWay + 440;
	Track[$T01].X.Interpolate(-2.85, 329); // 下1


$CAWay + 450;
	Repeater['EnePole00'].Begin(0, -3.80, 0, 0, 0, 0, 0, 0, 1.0, 50.0, 'Pole2_0');


$CAWay + 460;
	Track[$T01].X.Interpolate(-3.80, 0); // 下1



//▼▼▼ 沼津 (CA03)


$CAWay+472;
//◎ 官舎裏踏切　125.472
	Structure['Fumikiri_BL'].Put0($T01, 0, 5);
	Structure['Fumikiri_BC'].Put0($T01, 0, 5);
	Structure['Fumikiri_BM'].Put0($T01, 0, 5);
	Structure['Fumikiri_BH'].Put0($T00, 0, 5);
	Structure['Fumikiri_BC'].Put0($T00, 0, 5);
	Structure['Fumikiri_BM'].Put0($T00, 0, 5);
	Structure['Fumikiri_BH'].Put0($T10, 0, 5);
	Structure['Fumikiri_BC'].Put0($T10, 0, 5);
	Structure['Fumikiri_BR'].Put0($T10, 0, 5);
	Sound3D['Fumikiri'].Put(-2.5, 3.0);


$CAWay+578;
//◎ 東寺脇踏切　125.578
	Structure['Fumikiri_BL'].Put0($T01, 0, 5);
	Structure['Fumikiri_BC'].Put0($T01, 0, 5);
	Structure['Fumikiri_BM'].Put0($T01, 0, 5);
	Structure['Fumikiri_BH'].Put0($T00, 0, 5);
	Structure['Fumikiri_BC'].Put0($T00, 0, 5);
	Structure['Fumikiri_BM'].Put0($T00, 0, 5);
	Structure['Fumikiri_BH'].Put0($T10, 0, 5);
	Structure['Fumikiri_BC'].Put0($T10, 0, 5);
	Structure['Fumikiri_BR'].Put0($T10, 0, 5);
	Sound3D['Fumikiri'].Put(-2.5, 3.0);


$CAWay + 600;
	//┓ 3.0‰
		$dist = distance;
	include 'utility\GraDownEnd.txt';


$CAWay + 700;
	Track[$T01].X.Interpolate(-3.80, 0); // 下1
	Track[$T00].X.Interpolate( 0.00, 0); // 下本
	Track[$T10].X.Interpolate( 3.80, 0); // 上本


$CAWay+701;
//◎ 西寺脇踏切　125.701
	Structure['Fumikiri_BL'].Put0($T01, 0, 5);
	Structure['Fumikiri_BC'].Put0($T01, 0, 5);
	Structure['Fumikiri_BM'].Put0($T01, 0, 5);
	Structure['Fumikiri_BH'].Put0($T00, 0, 5);
	Structure['Fumikiri_BC'].Put0($T00, 0, 5);
	Structure['Fumikiri_BM'].Put0($T00, 0, 5);
	Structure['Fumikiri_BH'].Put0($T10, 0, 5);
	Structure['Fumikiri_BC'].Put0($T10, 0, 5);
	Structure['Fumikiri_BR'].Put0($T10, 0, 5);
	Sound3D['Fumikiri'].Put(-2.5, 3.0);


$CAWay + 725;
	Structure['CrackR0'].PutBetween($T01, $T10);


$CAWay + 750;
	Structure['CrackR0'].PutBetween($T01, $T10);


$CAWay + 760;
		$dist = distance;
	include 'utility\CurveEnd.txt';
$CAWay + 760;
	$RailNo='51';
	Track[$RailNo].Position(46.60, 0, 300, 0); // 御下→海中
	Repeater['Rail'+$RailNo+'u'].Begin($RailNo, 0, 0, 0, 0, 0, 0, 3, 5, 5, 'Ballast0', 'Ballast1', 'Ballast2', 'Ballast3', 'Ballast4');
	Repeater['Kasen'+$RailNo].Begin($RailNo, 0, 0, 0, 0, 0, 0, 1, 25, 25, 'KasenS0');
		$dist = distance;
	include 'utility\TongStartL.txt';

	$RailNo='52';
	Track[$RailNo].Position(52.30, 0, 300, 0); // 御下→海上
	Repeater['Rail'+$RailNo+'u'].Begin($RailNo, 0, 0, 0, 0, 0, 0, 3, 5, 5, 'Ballast0', 'Ballast1', 'Ballast2', 'Ballast3', 'Ballast4');
	Repeater['Kasen'+$RailNo].Begin($RailNo, 0, 0, 0, 0, 0, 0, 1, 25, 25, 'KasenS0');
		$dist = distance;
	include 'utility\TongStartL.txt';

	$RailNo=$T20;
	Track[$RailNo].Position(57.10, 0, 600, 0); // 御下
	Repeater['Rail'+$RailNo+'u'].Begin($RailNo, 0, 0, 0, 0, 0, 0, 3, 5, 5, 'Ballast0', 'Ballast1', 'Ballast2', 'Ballast3', 'Ballast4');
	Repeater['Kasen'+$RailNo].Begin($RailNo, 0, 0, 0, 0, 0, 0, 1, 25, 25, 'KasenS0');
		$dist = distance;
	include 'utility\TongStartL.txt';

	$RailNo='22';
	Track[$RailNo].Position(60.90, 0, 600, 0); // 御2
	Repeater['Rail'+$RailNo+'u'].Begin($RailNo, 0, 0, 0, 0, 0, 0, 3, 5, 5, 'Ballast0', 'Ballast1', 'Ballast2', 'Ballast3', 'Ballast4');
	Repeater['Kasen'+$RailNo].Begin($RailNo, 0, 0, 0, 0, 0, 0, 1, 25, 25, 'KasenS0');
		$dist = distance;
	include 'utility\TongStartL.txt';

	$RailNo='23';
	Track[$RailNo].Position(64.70, 0, 600, 0); // 御3
	Repeater['Rail'+$RailNo+'u'].Begin($RailNo, 0, 0, 0, 0, 0, 0, 3, 5, 5, 'Ballast0', 'Ballast1', 'Ballast2', 'Ballast3', 'Ballast4');
	Repeater['Kasen'+$RailNo].Begin($RailNo, 0, 0, 0, 0, 0, 0, 1, 25, 25, 'KasenS0');
		$dist = distance;
	include 'utility\TongStartL.txt';


$CAWay + 775;
//＊＊＊ 蓮光寺BV
	Repeater['Rail'+$T10+'u'].End();
	Repeater['Bridge'+$T10].Begin($T10, 0, 0, 5.0, 0, 0, 0, 3, 5, 5, 'Bridge01');
	Repeater['Bridge_Makuragi'+$T10].Begin($T10, 0, 0, 2.0, 0, 0, 0, 3, 2, 2, 'Bridge_Makuragi');
	Repeater['Bridgeu'+$T10+'L'].Begin($T10, 0, 0, 5.0, 0, 0, 0, 3, 5.0, 5.0, 'BridgeSGL0');
	Repeater['Bridgeu'+$T10+'R'].Begin($T10, 0, 0, 5.0, 0, 0, 0, 3, 5.0, 5.0, 'BridgeSGR0');


$CAWay + 780;
	RollingNoise.Change(3);
	Repeater['Rail'+$T00+'u'].End();
	Repeater['Bridge'+$T00].Begin($T00, 0, 0, 5.0, 0, 0, 0, 3, 5, 5, 'Bridge01');
	Repeater['Bridge_Makuragi'+$T00].Begin($T00, 0, 0, 2.0, 0, 0, 0, 3, 2, 2, 'Bridge_Makuragi');
	Repeater['Bridgeu'+$T00+'L'].Begin($T00, 0, 0, 5.0, 0, 0, 0, 3, 5.0, 5.0, 'BridgeSGL0');
	Repeater['Bridgeu'+$T00+'R'].Begin($T00, 0, 0, 5.0, 0, 0, 0, 3, 5.0, 5.0, 'BridgeSGR0');


$CAWay + 785;
	Repeater['Rail'+$T01+'u'].End();
	Repeater['Bridge'+$T01].Begin($T01, 0, 0, 5.0, 0, 0, 0, 3, 5, 5, 'Bridge01');
	Repeater['Bridge_Makuragi'+$T01].Begin($T01, 0, 0, 2.0, 0, 0, 0, 3, 2, 2, 'Bridge_Makuragi');
	Repeater['Bridgeu'+$T01+'L'].Begin($T01, 0, 0, 5.0, 0, 0, 0, 3, 5.0, 5.0, 'BridgeSGL0');
	Repeater['Bridgeu'+$T01+'R'].Begin($T01, 0, 0, 5.0, 0, 0, 0, 3, 5.0, 5.0, 'BridgeSGR0');


$CAWay + 795;
	Repeater['Rail'+$T10+'u'].Begin($T10, 0, 0, 0, 0, 0, 0, 3, 5.0, 5.0, 'Ballast0', 'Ballast1', 'Ballast2', 'Ballast3', 'Ballast4');
	Repeater['Bridge'+$T10].End();
	Repeater['Bridge_Makuragi'+$T10].End();
	Repeater['Bridgeu'+$T10+'L'].End();
	Repeater['Bridgeu'+$T10+'R'].End();


$CAWay + 800;
	RollingNoise.Change(0);
	Repeater['Rail'+$T00+'u'].Begin($T00, 0, 0, 0, 0, 0, 0, 3, 5.0, 5.0, 'Ballast0', 'Ballast1', 'Ballast2', 'Ballast3', 'Ballast4');
	Repeater['Bridge'+$T00].End();
	Repeater['Bridge_Makuragi'+$T00].End();
	Repeater['Bridgeu'+$T00+'L'].End();
	Repeater['Bridgeu'+$T00+'R'].End();
$CAWay + 800;
	Repeater['EnePole00'].Begin($T01, 0.00, 0, 0, 0, 0, 0, 0, 1.0, 50.0, 'Pole3_0');


$CAWay + 805;
//＊＊＊
	Repeater['Rail'+$T01+'u'].Begin($T01, 0, 0, 0, 0, 0, 0, 3, 5.0, 5.0, 'Ballast0', 'Ballast1', 'Ballast2', 'Ballast3', 'Ballast4');
	Repeater['Bridge'+$T01].End();
	Repeater['Bridge_Makuragi'+$T01].End();
	Repeater['Bridgeu'+$T01+'L'].End();
	Repeater['Bridgeu'+$T01+'R'].End();

	Structure['CrackR0'].PutBetween($T01, $T10);


$CAWay + 820;
	$RailNo='02';
	Track[$RailNo].Position(0.00, 0, 422, 0); // 海下→海中
	Repeater['Rail'+$RailNo+'u'].Begin($RailNo, 0, 0, 0, 0, 0, 0, 3, 5, 5, 'Ballast0', 'Ballast1', 'Ballast2', 'Ballast3', 'Ballast4');
	Repeater['Kasen'+$RailNo].Begin($RailNo, 0, 0, 0, 0, 0, 0, 1, 25, 25, 'KasenS0');
		$dist = distance;
	include 'utility\TongStartR.txt';

	$RailNo=$T11;
	Track[$RailNo].Position(8.55, 0, -422, 0); // 海中
	Repeater['Rail'+$RailNo+'u'].Begin($RailNo, 0, 0, 0, 0, 0, 0, 3, 5, 5, 'Ballast0', 'Ballast1', 'Ballast2', 'Ballast3', 'Ballast4');
	Repeater['Kasen'+$RailNo].Begin($RailNo, 0, 0, 0, 0, 0, 0, 1, 25, 25, 'KasenS0');
		$dist = distance;
	include 'utility\TongStartL.txt';

	Track[$T10].X.Interpolate(8.55, 0); // 上本
	Track['51'].X.Interpolate(22.80, 300); // 御下→海中
	Track['52'].X.Interpolate(32.30, 300); // 御下→海上
	Track[$T20].X.Interpolate(37.10, 600); // 御下
	Track['22'].X.Interpolate(40.90, 600); // 御2
	Track['23'].X.Interpolate(44.70, 600); // 御3
	JointNoise.Play(0);


$CAWay + 825;
	Structure['CrackR0'].PutBetween($T01, $T20);


$CAWay + 840;
	Track['02'].X.Interpolate(0.66, 0); // 海下→海中
	Track[$T11].X.Interpolate(7.60, 0); // 海中


$CAWay + 850;
	Structure['CrackR0'].PutBetween($T01, $T20);
$CAWay + 850;
	Repeater['EnePole00'].Begin(0, -1.40, 0, 0, 0, 0, 0, 0, 1.0, 50.0, 'Pole3_0');


$CAWay + 860;
	Track['51'].X.Interpolate(15.20, 0); // 御下→海中


$CAWay + 875;
	Structure['CrackR0'].PutBetween($T01, $T20);


$CAWay + 890;
		$dist = distance;
		$radius=900;
		$cant=60;
	include 'utility\CurveStart.txt';
$CAWay + 890;
	Track[$T01].X.Interpolate(-6.65,    0); // 下1
	Track[$T00].X.Interpolate( 0.00,    0); // 下本
	Track[$T10].X.Interpolate(13.30, -900); // 上本


$CAWay + 900;
	Structure['CrackR0'].PutBetween($T01, $T20);
$CAWay + 900;
	Repeater['EnePole00'].Begin(0, -1.40, 0, 0, 0, 0, 0, 0, 1.0, 50.0, 'Pole4_0');


$CAWay + 920;
	Track['02'].X.Interpolate( 5.89, -400); // 海下→海中
	Track['52'].X.Interpolate(15.80,    0); // 御下→海上


$CAWay + 925;
	Structure['CrackR0'].PutBetween($T01, $T20);


$CAWay + 940;
	$RailNo='02';
	Track[$RailNo].Position(6.45, 0, 0, 0); // 海下→海中
	Repeater['Rail'+$RailNo+'u'].End();
	Repeater['Kasen'+$RailNo].End();
		$dist = distance;
	include 'utility\TongEndL.txt';

	Track[$T11].X.Interpolate( 6.45, 0); // 海中

	Track[$T10].X.Interpolate(15.65, 0); // 海上

	$RailNo='52';
	Track[$RailNo].Position(15.65, 0, 0, 0); // 御下→海上
	Repeater['Rail'+$RailNo+'u'].End();
	Repeater['Kasen'+$RailNo].End();
		$dist = distance;
	include 'utility\TongEndR.txt';

	$RailNo='43';
	Track[$RailNo].Position(15.65, 0, 211, 0); // 海上→御下
	Repeater['Rail'+$RailNo+'u'].Begin($RailNo, 0, 0, 0, 0, 0, 0, 3, 5, 5, 'Ballast0', 'Ballast1', 'Ballast2', 'Ballast3', 'Ballast4');
	Repeater['Kasen'+$RailNo].Begin($RailNo, 0, 0, 0, 0, 0, 0, 1, 25, 25, 'KasenS0');
		$dist = distance;
	include 'utility\TongStartR.txt';


$CAWay + 950;
	Structure['CrackR0'].PutBetween($T01, $T20);
$CAWay + 950;
	Repeater['EnePole00'].Begin(0, -3.80, 0, 0, 0, 0, 0, 0, 1.0, 50.0, 'Pole3_0');


$CAWay + 960;
	Track['51'].X.Interpolate( 5.55, 329); // 御下→海中
	Track['43'].X.Interpolate(17.75,   0); // 海上→御下


$CAWay + 975;
	Structure['CrackR0'].PutBetween($T01, $T20);


$CAWay + 980;
	Track[$T01].X.Interpolate(-8.55, 0); // 下1
	Track[$T00].X.Interpolate( 0.00, 0); // 下本

	$RailNo='42';
	Track[$RailNo].Position(4.10, 0, -150, 0); // 海中→海下
	Repeater['Rail'+$RailNo+'u'].Begin($RailNo, 0, 0, 0, 0, 0, 0, 3, 5, 5, 'Ballast0', 'Ballast1', 'Ballast2', 'Ballast3', 'Ballast4');
	Repeater['Kasen'+$RailNo].Begin($RailNo, 0, 0, 0, 0, 0, 0, 1, 25, 25, 'KasenS0');
		$dist = distance;
	include 'utility\TongStartL.txt';

	Track[$T11].X.Interpolate( 4.10, 0); // 海中

	$RailNo='51';
	Track[$RailNo].Position(4.10, 0, 0, 0); // 御下→海中
	Repeater['Rail'+$RailNo+'u'].End();
	Repeater['Kasen'+$RailNo].End();
		$dist = distance;
	include 'utility\TongEndR.txt';

	Track[$T10].X.Interpolate(15.20, 0); // 上本
	Track['43'].X.Interpolate(19.85, -211); // 海上→御下

//[1:2]
	Repeater['Form'+$T01+'S'].Begin0($T01, 1, 5.0, 5.0, 'FormR2');
	Repeater['Form'+$T01+'C'].Begin0($T01, 1, 5.0, 5.0, 'FormCR2');
	Repeater['Form'+$T00+'S'].Begin0($T00, 1, 5.0, 5.0, 'FormL2');
	Repeater['Form'+$T00+'C'].Begin0($T00, 1, 5.0, 5.0, 'FormCL2');


$CAWay + 1000;
	$RailNo='42';
	Track['42'].X.Interpolate( 1.90,  162); // 海中→海下

	Track[$T20].X.Interpolate(21.70,    0); // 御下

	$RailNo='43';
	Track[$RailNo].Position(21.70, 0, 0, 0); // 海上→御下
	Repeater['Rail'+$RailNo+'u'].End();
	Repeater['Kasen'+$RailNo].End();
		$dist = distance;
	include 'utility\TongEndL.txt';

	Track['22'].X.Interpolate(25.50, 0); // 御2
	Track['23'].X.Interpolate(29.30, 0); // 御3
	JointNoise.Play(0);

	Structure['CrackR0'].PutBetween($T00, $T20);


$CAWay + 1020;
	$RailNo='42';
	Track[$RailNo].Position(0.00, 0, 0, 0); // 海中→海下
	Repeater['Rail'+$RailNo+'u'].End();
	Repeater['Kasen'+$RailNo].End();
		$dist = distance;
	include 'utility\TongEndR.txt';

	Track[$T11].X.Interpolate( 3.80, 0); // 海中
	Track[$T10].X.Interpolate(15.20, 0); // 上本
	Track[$T20].X.Interpolate(22.80, 0); // 御下

	$RailNo=$T21;
	Track[$RailNo].Position(22.80, 0, 211, 0); // 御上
	Repeater['Rail'+$RailNo+'u'].Begin($RailNo, 0, 0, 0, 0, 0, 0, 3, 5, 5, 'Ballast0', 'Ballast1', 'Ballast2', 'Ballast3', 'Ballast4');
	Repeater['Kasen'+$RailNo].Begin($RailNo, 0, 0, 0, 0, 0, 0, 1, 25, 25, 'KasenS0');
		$dist = distance;
	include 'utility\TongStartR.txt';

	$RailNo='29';
	Track[$RailNo].Position(26.60, 0, -211, 0); // 御2→御下
	Repeater['Rail'+$RailNo+'u'].Begin($RailNo, 0, 0, 0, 0, 0, 0, 3, 5, 5, 'Ballast0', 'Ballast1', 'Ballast2', 'Ballast3', 'Ballast4');
	Repeater['Kasen'+$RailNo].Begin($RailNo, 0, 0, 0, 0, 0, 0, 1, 25, 25, 'KasenS0');
		$dist = distance;
	include 'utility\TongStartL.txt';

	Track['22'].X.Interpolate(26.60, 0); // 御2
	Track['23'].X.Interpolate(30.40, 0); // 御2
//[3:4]
	Repeater['Form'+$T11+'S'].Begin0($T11, 1, 5.0, 5.0, 'FormR2');
	Repeater['Form'+$T11+'C'].Begin0($T11, 1, 5.0, 5.0, 'FormCR2');
	Repeater['Form'+$T10+'S'].Begin0($T10, 1, 5.0, 5.0, 'FormL2');
	Repeater['Form'+$T10+'C'].Begin0($T10, 1, 5.0, 5.0, 'FormCL2');


$CAWay + 1040;
	Track[$T21].X.Interpolate(23.75, 0); // 御上
	Track['29'].X.Interpolate(25.65, 0); // 御2→御下
	Track['23'].X.Interpolate(30.40, 211); // 御3


$CAWay + 1025;
	Structure['CrackR0'].PutBetween($T00, $T21);


$CAWay + 1050;
	Repeater['RoofL00'].Begin($T00, -11.40, 0.00, 0.00, 0, 0, 0, 3, 10.0, 10.0, 'CA03_RoofR1');
	Structure['CrackR0'].PutBetween($T00, $T21);


$CAWay + 1060;
	Track['29'].X.Interpolate(23.75, 211); // 御2→御下
	Track['22'].X.Interpolate(26.60, 211); // 御2
	Track['23'].X.Interpolate(31.35,   0); // 御3


$CAWay + 1075;
	Structure['CrackR0'].PutBetween($T00, $T21);


$CAWay + 1080;
	//Structure['CA03_RoofR1'].PutBetween($T01, $T00);
	Structure['CA03_RoofR1'].PutBetween($T11, $T10);
$CAWay + 1080;
		$dist = distance;
	include 'utility\CurveEnd.txt';
$CAWay + 1080;
	Track[$T01].X.Interpolate(-11.40, 0); // 下1
	Track[$T00].X.Interpolate(  0.00, 0); // 下本
	Track[$T11].X.Interpolate(  3.80, 0); // 海中
	Track[$T10].X.Interpolate( 15.20, 0); // 上本

	$RailNo=$T12;
	Track[$RailNo].Position(19.00, 0, 0, 0); // 通路4
	Repeater['Rail'+$RailNo+'u'].Begin($RailNo, 0, 0, 0, 0, 0, 0, 3, 5, 5, 'Ballast0', 'Ballast1', 'Ballast2', 'Ballast3', 'Ballast4');
	Repeater['Kasen'+$RailNo].Begin($RailNo, 0, 0, 0, 0, 0, 0, 1, 25, 25, 'KasenS0');
		$dist = distance;
	include 'utility\TongStartR.txt';

	Track[$T20].X.Interpolate( 22.80, 0); // 御下

	$RailNo='29';
	Track[$RailNo].Position(22.80, 0, 0, 0); // 御2→御下
	Repeater['Rail'+$RailNo+'u'].End();
	Repeater['Kasen'+$RailNo].End();
		$dist = distance;
	include 'utility\TongEndR.txt';

	Track[$T21].X.Interpolate( 27.55, 0); // 御上

	$RailNo='22';
	Track[$RailNo].Position(27.55, 0, 0, 0); // 御2
	Repeater['Rail'+$RailNo+'u'].End();
	Repeater['Kasen'+$RailNo].End();
		$dist = distance;
	include 'utility\TongEndR.txt';

	Track['23'].X.Interpolate(33.25, 0); // 御3


$CAWay + 1090;
	//Structure['CA03_RoofR1'].PutBetween($T01, $T00);
	Structure['CA03_RoofR1'].PutBetween($T11, $T10);


$CAWay + 1100;
	//Structure['CA03_RoofR1'].PutBetween($T01, $T00);
	Structure['CA03_RoofR1'].PutBetween($T11, $T10);
$CAWay + 1100;
	$RailNo='19';
	Track[$RailNo].Position(22.80, 0, -211, 0); // 御下→通路4
	Repeater['Rail'+$RailNo+'u'].Begin($RailNo, 0, 0, 0, 0, 0, 0, 3, 5, 5, 'Ballast0', 'Ballast1', 'Ballast2', 'Ballast3', 'Ballast4');
	Repeater['Kasen'+$RailNo].Begin($RailNo, 0, 0, 0, 0, 0, 0, 1, 25, 25, 'KasenS0');
		$dist = distance;
	include 'utility\TongStartL.txt';

	Track['23'].X.Interpolate(35.15, -211); // 御3

	$RailNo='24';
	Track[$RailNo].Position(35.15, 0, 0, 0); // 御4
	Repeater['Rail'+$RailNo+'u'].Begin($RailNo, 0, 0, 0, 0, 0, 0, 3, 5, 5, 'Ballast0', 'Ballast1', 'Ballast2', 'Ballast3', 'Ballast4');
	Repeater['Kasen'+$RailNo].Begin($RailNo, 0, 0, 0, 0, 0, 0, 1, 25, 25, 'KasenS0');
		$dist = distance;
	include 'utility\TongStartR.txt';

	Structure['CrackR0'].PutBetween($T00, $T21);


$CAWay + 1110;
	//Structure['CA03_RoofR1'].PutBetween($T01, $T00);
	Structure['CA03_RoofR1'].PutBetween($T11, $T10);


$CAWay + 1120;
	//Structure['CA03_RoofR1'].PutBetween($T01, $T00);
	Structure['CA03_RoofR1'].PutBetween($T11, $T10);
$CAWay + 1120;
	Track['19'].X.Interpolate( 21.85, 0); // 御上
	Track[$T21].X.Interpolate( 31.35, -211); // 御上

	$RailNo='38';
	Track[$RailNo].Position(31.35, 0, 0, 0); // 御上→御3
	Repeater['Rail'+$RailNo+'u'].Begin($RailNo, 0, 0, 0, 0, 0, 0, 3, 5, 5, 'Ballast0', 'Ballast1', 'Ballast2', 'Ballast3', 'Ballast4');
	Repeater['Kasen'+$RailNo].Begin($RailNo, 0, 0, 0, 0, 0, 0, 1, 25, 25, 'KasenS0');
		$dist = distance;
	include 'utility\TongStartR.txt';

	$RailNo='39';
	Track[$RailNo].Position(36.10, 0, -211, 0); // 御3→御上
	Repeater['Rail'+$RailNo+'u'].Begin($RailNo, 0, 0, 0, 0, 0, 0, 3, 5, 5, 'Ballast0', 'Ballast1', 'Ballast2', 'Ballast3', 'Ballast4');
	Repeater['Kasen'+$RailNo].Begin($RailNo, 0, 0, 0, 0, 0, 0, 1, 25, 25, 'KasenS0');
		$dist = distance;
	include 'utility\TongStartL.txt';

	Track['23'].X.Interpolate( 36.10, 0); // 御3
	Track['24'].X.Interpolate( 37.05, 0); // 御4

$CAWay + 1125;
	Structure['CrackR0'].PutBetween($T00, $T21);


$CAWay + 1130;
	//Structure['CA03_RoofR1'].PutBetween($T01, $T00);
	Structure['CA03_RoofR1'].PutBetween($T11, $T10);


$CAWay + 1140;
	Repeater['RoofL00'].Begin($T00, -11.40, -0.20, 0.00, 0, 0, 0, 3, 10.0, 10.0, 'CA03_RoofR2');
	Structure['CA03_RoofR1'].PutBetween($T11, $T10);
$CAWay + 1140;
	Track['19'].X.Interpolate( 19.95,  211); // 御下→通路4
	Track[$T21].X.Interpolate( 32.30,    0); // 御上
	Track['38'].X.Interpolate( 33.25,    0); // 御上→御3
	Track['39'].X.Interpolate( 35.15,    0); // 御3→御上
	Track['24'].X.Interpolate( 38.95, -211); // 御4

	$RailNo='25';
	Track[$RailNo].Position(38.95, 0, 0, 0); // 御4
	Repeater['Rail'+$RailNo+'u'].Begin($RailNo, 0, 0, 0, 0, 0, 0, 3, 5, 5, 'Ballast0', 'Ballast1', 'Ballast2', 'Ballast3', 'Ballast4');
	Repeater['Kasen'+$RailNo].Begin($RailNo, 0, 0, 0, 0, 0, 0, 1, 25, 25, 'KasenS0');
		$dist = distance;
	include 'utility\TongStartR.txt';


$CAWay + 1150;
	//Structure['CA03_RoofR2'].PutBetween($T01, $T00);
	Structure['CA03_RoofR1'].PutBetween($T11, $T10);
	Structure['CrackR0'].PutBetween($T00, $T21);


$CAWay + 1160;
	//Structure['CA03_RoofR2'].PutBetween($T01, $T00);
	Structure['CA03_RoofR1'].PutBetween($T11, $T10);
$CAWay + 1160;
	$RailNo='19';
	Track[$RailNo].Position(19.00, 0, 0, 0); // 御下→通路4
	Repeater['Rail'+$RailNo+'u'].End();
	Repeater['Kasen'+$RailNo].End();
		$dist = distance;
	include 'utility\TongEndR.txt';

	Track['39'].X.Interpolate( 33.25,  211); // 御3→御上
	Track['38'].X.Interpolate( 35.15, -211); // 御上→御3
	Track['24'].X.Interpolate( 39.90,    0); // 御4
	Track['25'].X.Interpolate( 40.85,    0); // 御5


$CAWay + 1170;
	//Structure['CA03_RoofR2'].PutBetween($T01, $T00);
	Structure['CA03_RoofR1'].PutBetween($T11, $T10);
	Structure['CA03_Shop'].Put($T00, -6.70, 0.00, -4.00, 0, 0, 0, 1, 6.0);
// 自販機
	Structure['Vending001'].Put(0, -6.70, 1.1, -7.00, 0, -90, 0, 0, 1.0);
	Structure['Vending002'].Put(0, -6.70, 1.1, -8.06, 0, -90, 0, 0, 1.0);


$CAWay + 1180;
	//Structure['CA03_RoofR2'].PutBetween($T01, $T00);
	Structure['CA03_RoofR1'].PutBetween($T11, $T10);
$CAWay + 1180;
	$RailNo='39';
	Track[$RailNo].Position(32.30, 0, 0, 0); // 御3→御上
	Repeater['Rail'+$RailNo+'u'].End();
	Repeater['Kasen'+$RailNo].End();
		$dist = distance;
	include 'utility\TongEndR.txt';

	$RailNo='38';
	Track[$RailNo].Position(36.10, 0, 0, 0); // 御上→御3
	Repeater['Rail'+$RailNo+'u'].End();
	Repeater['Kasen'+$RailNo].End();
		$dist = distance;
	include 'utility\TongEndL.txt';

	Track['25'].X.Interpolate( 42.75, -211); // 御5
//[5:6]
	Repeater['Form'+$T20+'S'].Begin0($T20, 1, 5.0, 5.0, 'FormR2');
	Repeater['Form'+$T20+'C'].Begin0($T20, 1, 5.0, 5.0, 'FormCR2');
	Repeater['Form'+$T21+'S'].Begin0($T21, 1, 5.0, 5.0, 'FormL2');
	Repeater['Form'+$T21+'C'].Begin0($T21, 1, 5.0, 5.0, 'FormCL2');


$CAWay + 1190;
	//Structure['CA03_RoofR2'].PutBetween($T01, $T00);
	Structure['CA03_RoofR1'].PutBetween($T11, $T10);


$CAWay + 1200;
	//Structure['CA03_RoofR2'].PutBetween($T01, $T00);
	Structure['CA03_RoofR1'].PutBetween($T11, $T10);
$CAWay + 1200;
	$RailNo='38';
	Track[$RailNo].Position(36.10, 0, 211, 0); // 御3→御4
	Repeater['Rail'+$RailNo+'u'].Begin($RailNo, 0, 0, 0, 0, 0, 0, 3, 5, 5, 'Ballast0', 'Ballast1', 'Ballast2', 'Ballast3', 'Ballast4');
	Repeater['Kasen'+$RailNo].Begin($RailNo, 0, 0, 0, 0, 0, 0, 1, 25, 25, 'KasenS0');
		$dist = distance;
	include 'utility\TongStartL.txt';

	Track['25'].X.Interpolate( 43.70,    0); // 御5


$CAWay+1210;
	//Structure['CA03_RoofR2'].PutBetween($T01, $T00);
	Structure['CA03_RoofR1'].PutBetween($T11, $T10);


$CAWay+1220;
// [○B]
	Structure['StaStop04'].Put(0, -2.3, 3.3, 0, 0, 0, 0, 1, 1.0);
	//Structure['StaPole00'].Put(0, -2.3, 3.3, 0, 0, 0, 0, 1, 1.0);
// [○B]
	Structure['StaStop04'].Put($T11, 2.3, 3.3, 0, 0, 0, 0, 1, 1.0);
	Structure['StaPole00'].Put($T11, 2.3, 3.3, 0, 0, 180, 0, 1, 1.0);
$CAWay+1220;
	//Structure['CA03_RoofR2'].PutBetween($T01, $T00);
	Structure['CA03_RoofR1'].PutBetween($T11, $T10);
$CAWay + 1220;
	$RailNo=$T03;
	Track[$RailNo].Position(-11.40, 0, 0, 0); // 下３
	Repeater['Rail'+$RailNo+'u'].Begin($RailNo, 0, 0, 0, 0, 0, 0, 3, 5, 5, 'Ballast0', 'Ballast1', 'Ballast2', 'Ballast3', 'Ballast4');
	Repeater['Kasen'+$RailNo].Begin($RailNo, 0, 0, 0, 0, 0, 0, 1, 25, 25, 'KasenS0');
		$dist = distance;
	include 'utility\TongStartL.txt';

	Track[$T01].X.Interpolate(-11.40, 400); // 下1
	Track['38'].X.Interpolate(37.05, 0); // 御3→御4


$CAWay + 1230;
	Repeater['RoofL00'].End();
$CAWay + 1230;
		$dist = distance;
		$radius=800;
		$cant=10;
	include 'utility\CurveStart.txt';
$CAWay + 1230;
	Track[$T01].X.Interpolate(-10.95,  800); // 下1
	Track[$T00].X.Interpolate(  0.00,    0); // 下本
	Track[$T11].X.Interpolate(  3.80,    0); // 海中
	Track[$T10].X.Interpolate( 15.20, -800); // 上本
	Track[$T12].X.Interpolate( 19.00, -800); // 通路4
	Track[$T20].X.Interpolate( 22.80, -800); // 御下
	Track[$T21].X.Interpolate( 32.30, -800); // 御上
	Track['23'].X.Interpolate( 36.10, -800); // 御3
	Track['24'].X.Interpolate( 39.90, -800); // 御4
	Track['25'].X.Interpolate( 43.70, -800); // 御5
	Structure['CA03_Tsuro'].Put(0, 0.00, 0.00, 7.50, 0, 0, 0, 1, 1.0);


$CAWay+1240;
// [○B]
	Structure['StaStop10'].Put(0, -2.3, 3.3, 0, 0, 0, 0, 1, 1.0);
	//Structure['StaPole00'].Put(0, -2.3, 3.3, 0, 0, 0, 0, 1, 1.0);
// [○B]
	Structure['StaStop08'].Put($T11, 2.3, 3.3, 0, 0, 0, 0, 1, 1.0);
	Structure['StaPole00'].Put($T11, 2.3, 3.3, 0, 0, 180, 0, 1, 1.0);


$CAWay + 1250;
	Repeater['EnePole00'].Begin(0, -1.90, 0, 0, 0, 0, 0, 0, 1.0, 50.0, 'Pole2_0');


$CAWay+1260;
// [○B]
	Structure['StaStop11'].Put(0, -2.3, 3.3, 0, 0, 0, 0, 1, 1.0);
	//Structure['StaPole00'].Put(0, -2.3, 3.3, 0, 0, 0, 0, 1, 1.0);
// [○B]
	Structure['StaStop11'].Put($T11, 2.3, 3.3, 0, 0, 0, 0, 1, 1.0);
	//Structure['StaPole00'].Put($T11, 2.3, 3.3, 0, 0, 0, 0, 1, 1.0);


$CAWay + 1280;
		$dist = distance;
	include 'utility\CurveEnd.txt';
$CAWay + 1280;
	Track[$T01].X.Interpolate( -6.65, 0); // 下1
	Track[$T00].X.Interpolate(  0.00, 0); // 下本
	Track[$T11].X.Interpolate(  3.80, 0); // 海中
	Track[$T10].X.Interpolate( 13.30, 0); // 上本
	Track[$T12].X.Interpolate( 17.10, 0); // 通路4
	Track[$T20].X.Interpolate( 20.90, 0); // 御下
	Track[$T21].X.Interpolate( 30.40, 0); // 御上
	Track['23'].X.Interpolate( 34.20, 0); // 御3
	Track['24'].X.Interpolate( 38.00, 0); // 御4
	Track['25'].X.Interpolate( 41.80, 0); // 御5


$CAWay + 1240;
	Track['38'].X.Interpolate(38.95, -211); // 御3→御4


$CAWay + 1260;
	$RailNo='38';
	Track[$RailNo].Position(39.00, 0, 0, 0); // 御3→御4
	Repeater['Rail'+$RailNo+'u'].End();
	Repeater['Kasen'+$RailNo].End();
		$dist = distance;
	include 'utility\TongEndL.txt';


$CAWay+1300;
// [○B]
	Structure['StaStop14'].Put(0, -2.3, 3.3, 0, 0, 0, 0, 1, 1.0);
	Structure['StaPole00'].Put(0, -2.3, 3.3, 0, 0, 0, 0, 1, 1.0);
// [○B]
	Structure['StaStop00'].Put($T11, 2.3, 3.3, 0, 0, 0, 0, 1, 1.0);
	Structure['StaPole00'].Put($T11, 2.3, 3.3, 0, 0, 180, 0, 1, 1.0);
$CAWay + 1300;
	Repeater['EnePole00'].Begin(0, 0.00, 0, 0, 0, 0, 0, 0, 1.0, 50.0, 'Pole1_0');


$CAWay+1310;
// [○B]
	Structure['StaStop00'].Put(0, -2.3, 3.3, 0, 0, 0, 0, 1, 1.0);
	Structure['StaPole00'].Put(0, -2.3, 3.3, 0, 0, 0, 0, 1, 1.0);


$CAWay + 1320;
	//◯●●下本出発 (沼津)
	Section.BeginNew(0, 2, 4);
	Structure['PoleSL1'].Put(0, -2.2, 0, 0.3, 0, 0, 0, 1, 1.0);
	Signal['type3'].Put(0, 0, -2.2, 4.4, 0.0, 0, 0, 0, 1, 1.0);
	//◯●●下２場 (沼貨)
	Structure['PoleSL1'].Put(0, -3.0, 0, 0.3, 0, 0, 0, 1, 1.0);
	Structure['Signal4L0'].Put(0, -3.0, 4.0, 0.0, 0, 0, 0, 1, 1.0);


$CAWay + 1340;
	$RailNo=$T02;
	Track[$RailNo].Position(-4.75, 0, -211, 0); // 下２
	Repeater['Rail'+$RailNo+'u'].Begin($RailNo, 0, 0, 0, 0, 0, 0, 3, 5, 5, 'Ballast0', 'Ballast1', 'Ballast2', 'Ballast3', 'Ballast4');
	Repeater['Kasen'+$RailNo].Begin($RailNo, 0, 0, 0, 0, 0, 0, 1, 25, 25, 'KasenS0');
		$dist = distance;
	include 'utility\TongStartL.txt';

	Track[$T01].X.Interpolate( -4.75, 0); // 下1
	Track[$T10].X.Interpolate(  9.95, 1400); // 上本
	Track[$T12].X.Interpolate( 13.75, 1400); // 通路4
	Track[$T20].X.Interpolate( 17.55, 1400); // 御下
	Track[$T21].X.Interpolate( 27.05,    0); // 御上
	Track['23'].X.Interpolate( 30.95,    0); // 御3
	Track['24'].X.Interpolate( 34.75,    0); // 御4
	Track['25'].X.Interpolate( 38.55,    0); // 御5


$CAWay + 1350;
	Repeater['EnePole00'].Begin(0, -3.80, 0, 0, 0, 0, 0, 0, 1.0, 50.0, 'Pole4_0');


$CAWay + 1360;
	Track[$T02].X.Interpolate(-3.80, 0); // 下2
	Track[$T01].X.Interpolate(-2.85, 0); // 下1


$CAWay + 1380;
	Track[$T01].X.Interpolate(-0.95, -211); // 下1
	JointNoise.Play(0);


$CAWay + 1400;
	$RailNo=$T01;
	Track[$RailNo].Position(0.00, 0, 0, 0); // 下1
	Repeater['Rail'+$RailNo+'u'].End();
	Repeater['Kasen'+$RailNo].End();
		$dist = distance;
	include 'utility\TongEndL.txt';

	//Track[$T11].X.Interpolate(  3.80, 0); // 海中
	Track[$T10].X.Interpolate(  7.60, 0); // 上本
	Track[$T12].X.Interpolate( 11.40, 0); // 通路4
	Track[$T20].X.Interpolate( 15.20, 0); // 御下
	Track[$T21].X.Interpolate( 23.75, 0); // 御上
	Track['23'].X.Interpolate( 27.55, 2000); // 御3
	Track['24'].X.Interpolate( 31.35, 1800); // 御4
	Track['25'].X.Interpolate( 35.15, 1800); // 御5


$CAWay + 1420;
	$RailNo='08';
	Track[$RailNo].Position(0.00, 0, 211, 0); // 下本→海中
	Repeater['Rail'+$RailNo+'u'].Begin($RailNo, 0, 0, 0, 0, 0, 0, 3, 5, 5, 'Ballast0', 'Ballast1', 'Ballast2', 'Ballast3', 'Ballast4');
	Repeater['Kasen'+$RailNo].Begin($RailNo, 0, 0, 0, 0, 0, 0, 1, 25, 25, 'KasenS0');
		$dist = distance;
	include 'utility\TongStartR.txt';

	$RailNo='09';
	Track[$RailNo].Position(3.80, 0, -211, 0); // 海中→下本
	Repeater['Rail'+$RailNo+'u'].Begin($RailNo, 0, 0, 0, 0, 0, 0, 3, 5, 5, 'Ballast0', 'Ballast1', 'Ballast2', 'Ballast3', 'Ballast4');
	Repeater['Kasen'+$RailNo].Begin($RailNo, 0, 0, 0, 0, 0, 0, 1, 25, 25, 'KasenS0');
		$dist = distance;
	include 'utility\TongStartL.txt';
	JointNoise.Play(0);


$CAWay + 1440;
	Track['08'].X.Interpolate(0.95,    0); // 下本→海中
	Track['09'].X.Interpolate(2.85,    0); // 海中→下本

	$RailNo=$T20;
	Track[$RailNo].Position(15.20, 0, 0, 0); // 御下
	Repeater['Kasen'+$RailNo].End();
		$dist = distance;
	include 'utility\RailEnd.txt';


$CAWay + 1460;
	Track['09'].X.Interpolate(0.95,  211); // 海中→下本
	Track['08'].X.Interpolate(2.85, -211); // 下本→海中
	JointNoise.Play(0);


$CAWay + 1480;
	$RailNo='09';
	Track[$RailNo].Position(0.00, 0, 0, 0); // 海中→下本
	Repeater['Rail'+$RailNo+'u'].End();
	Repeater['Kasen'+$RailNo].End();
		$dist = distance;
	include 'utility\TongEndR.txt';

	$RailNo='08';
	Track[$RailNo].Position(3.80, 0, 0, 0); // 下本→海中
	Repeater['Rail'+$RailNo+'u'].End();
	Repeater['Kasen'+$RailNo].End();
		$dist = distance;
	include 'utility\TongEndL.txt';


$CAWay + 1540;
	$RailNo='08';
	Track[$RailNo].Position(3.80, 0, 211, 0); // 海中→上本
	Repeater['Rail'+$RailNo+'u'].Begin($RailNo, 0, 0, 0, 0, 0, 0, 3, 5, 5, 'Ballast0', 'Ballast1', 'Ballast2', 'Ballast3', 'Ballast4');
	Repeater['Kasen'+$RailNo].Begin($RailNo, 0, 0, 0, 0, 0, 0, 1, 25, 25, 'KasenS0');
		$dist = distance;
	include 'utility\TongStartR.txt';

	$RailNo='09';
	Track[$RailNo].Position(7.60, 0, -211, 0); // 上本→海中
	Repeater['Rail'+$RailNo+'u'].Begin($RailNo, 0, 0, 0, 0, 0, 0, 3, 5, 5, 'Ballast0', 'Ballast1', 'Ballast2', 'Ballast3', 'Ballast4');
	Repeater['Kasen'+$RailNo].Begin($RailNo, 0, 0, 0, 0, 0, 0, 1, 25, 25, 'KasenS0');
		$dist = distance;
	include 'utility\TongStartL.txt';


$CAWay + 1560;
	Track['08'].X.Interpolate(  4.75, 0); // 海中→上本
	Track['09'].X.Interpolate(  6.65, 0); // 上本→海中
	Track[$T21].X.Interpolate( 15.20, 0); // 御上
	Track['23'].X.Interpolate( 22.80,    0); // 御3
	Track['24'].X.Interpolate( 28.50,    0); // 御4
	Track['25'].X.Interpolate( 32.30,    0); // 御5


$CAWay + 1580;
	Track['09'].X.Interpolate(4.75,  211); // 上本→海中
	Track['08'].X.Interpolate(6.65, -211); // 海中→上本


$CAWay + 1600;
	$RailNo='09';
	Track[$RailNo].Position(3.80, 0, 0, 0); // 上本→海中
	Repeater['Rail'+$RailNo+'u'].End();
	Repeater['Kasen'+$RailNo].End();
		$dist = distance;
	include 'utility\TongEndR.txt';

	$RailNo='08';
	Track[$RailNo].Position(7.60, 0, 0, 0); // 海中→上本
	Repeater['Rail'+$RailNo+'u'].End();
	Repeater['Kasen'+$RailNo].End();
		$dist = distance;
	include 'utility\TongEndL.txt';

	$RailNo='07';
	Track[$RailNo].Position(7.60, 0, 211, 0); // 上本→通路4
	Repeater['Rail'+$RailNo+'u'].Begin($RailNo, 0, 0, 0, 0, 0, 0, 3, 5, 5, 'Ballast0', 'Ballast1', 'Ballast2', 'Ballast3', 'Ballast4');
	Repeater['Kasen'+$RailNo].Begin($RailNo, 0, 0, 0, 0, 0, 0, 1, 25, 25, 'KasenS0');
		$dist = distance;
	include 'utility\TongStartL.txt';


$CAWay + 1620;
		$dist = distance;
		$radius=600;
		$cant=40;
	include 'utility\CurveStart.txt';
$CAWay + 1620;
	Track[$T03].X.Interpolate(-11.40, 0); // 下3
	Track['07'].X.Interpolate(  8.55, 0); // 上本→通路4


$CAWay + 1640;
	Track['07'].X.Interpolate(10.45, -211); // 上本→通路4


$CAWay + 1660;
	$RailNo='07';
	Track[$RailNo].Position(11.40, 0, 0, 0); // 上本→通路4
	Repeater['Rail'+$RailNo+'u'].End();
	Repeater['Kasen'+$RailNo].End();
		$dist = distance;
	include 'utility\TongEndL.txt';

	Track[$T10].X.Interpolate(  7.60, 0); // 上本
	Track[$T12].X.Interpolate( 11.40, 0); // 通路4
	Track[$T21].X.Interpolate( 15.20, 0); // 御上
	Track['23'].X.Interpolate( 22.80,    0); // 御3
	Track['24'].X.Interpolate( 28.50,    0); // 御4
	Track['25'].X.Interpolate( 32.30,    0); // 御5


$CAWay + 1680;
	$RailNo=$T11;
	Track[$RailNo].Position(3.80, 0, 0, 0); // 海中
	Repeater['Kasen'+$RailNo].End();
		$dist = distance;
	include 'utility\RailEnd.txt';


$CAWay + 1700;
	Repeater['EnePole00'].Begin(0, -3.80, 0, 0, 0, 0, 0, 0, 1.0, 50.0, 'Pole1_0');
	Repeater['EnePole10'].Begin($T10, 0.00, 0, 0, 0, 0, 0, 0, 1.0, 50.0, 'Pole2_0');


$CAWay + 1720;
	$RailNo='04';
	Track[$RailNo].Position(-15.20, 0, 0, 0); // 下4
		$dist = distance;
	include 'utility\RailStart.txt';


$CAWay + 1740;
	$RailNo='05';
	Track[$RailNo].Position(-15.20, 0, -211, 0); // 下5
	Repeater['Rail'+$RailNo+'u'].Begin($RailNo, 0, 0, 0, 0, 0, 0, 3, 5, 5, 'Ballast0', 'Ballast1', 'Ballast2', 'Ballast3', 'Ballast4');
		$dist = distance;
	include 'utility\TongStartL.txt';


$CAWay + 1760;
	Track['05'].X.Interpolate(-16.15, 0); // 下5


$CAWay + 1780;
	Track['05'].X.Interpolate(-18.05, 211); // 下5


$CAWay + 1800;
	Track['05'].X.Interpolate(-19.00, 0); // 下5
	Track['04'].X.Interpolate(-15.20, 0); // 下4


$CAWay + 1820;
	Track['25'].X.Interpolate( 26.60, -211); // 御5


$CAWay + 1840;
	Track['25'].X.Interpolate( 24.70,  0); // 御5


$CAWay + 1850;
	Repeater['EnePole00'].End();
	Repeater['EnePole10'].End();
	Structure['CusPole0L'].Put($T00,-18.0, 0, 0, 0, 0, 0, 3, 1.0);
	Structure['CusPole0C'].Put($T00,-17.0, 0, 0, 0, 0, 0, 3, 1.0);
	Structure['CusPole0C'].Put($T00,-15.0, 0, 0, 0, 0, 0, 3, 1.0);
	Structure['CusPole0C'].Put($T00,-13.0, 0, 0, 0, 0, 0, 3, 1.0);
	Structure['CusPole0C'].Put($T00,-11.0, 0, 0, 0, 0, 0, 3, 1.0);
	Structure['CusPole0C'].Put($T00, -9.0, 0, 0, 0, 0, 0, 3, 1.0);
	Structure['CusPole0C'].Put($T00, -7.0, 0, 0, 0, 0, 0, 3, 1.0);
	Structure['CusPole0C'].Put($T00, -5.0, 0, 0, 0, 0, 0, 3, 1.0);
	Structure['CusPole0C'].Put($T00, -3.0, 0, 0, 0, 0, 0, 3, 1.0);
	Structure['CusPole0C'].Put($T00, -1.0, 0, 0, 0, 0, 0, 3, 1.0);
	Structure['CusPole0C'].Put($T00,  1.0, 0, 0, 0, 0, 0, 3, 1.0);
	Structure['CusPole0C'].Put($T00,  3.0, 0, 0, 0, 0, 0, 3, 1.0);
	Structure['CusPole0C'].Put($T00,  5.0, 0, 0, 0, 0, 0, 3, 1.0);
	Structure['CusPole0C'].Put($T00,  7.0, 0, 0, 0, 0, 0, 3, 1.0);
	Structure['CusPole0C'].Put($T00,  9.0, 0, 0, 0, 0, 0, 3, 1.0);
	Structure['CusPole0C'].Put($T00, 11.0, 0, 0, 0, 0, 0, 3, 1.0);
	Structure['CusPole0C'].Put($T00, 13.0, 0, 0, 0, 0, 0, 3, 1.0);
	Structure['CusPole0C'].Put($T00, 15.0, 0, 0, 0, 0, 0, 3, 1.0);
	Structure['CusPole0C'].Put($T00, 17.0, 0, 0, 0, 0, 0, 3, 1.0);
	Structure['CusPole0C'].Put($T00, 19.0, 0, 0, 0, 0, 0, 3, 1.0);
	Structure['CusPole0C'].Put($T00, 21.0, 0, 0, 0, 0, 0, 3, 1.0);
	Structure['CusPole0C'].Put($T00, 23.0, 0, 0, 0, 0, 0, 3, 1.0);
	Structure['CusPole0C'].Put($T00, 25.0, 0, 0, 0, 0, 0, 3, 1.0);
	Structure['CusPole0R'].Put($T00, 24.0, 0, 0, 0, 0, 0, 3, 1.0);


$CAWay + 1860;
	Track['23'].X.Interpolate( 17.10,    0); // 御3
	Track['24'].X.Interpolate( 20.90, -211); // 御4
	Track['25'].X.Interpolate( 21.85,    0); // 御5


$CAWay + 1880;
	Track['24'].X.Interpolate( 19.00,    0); // 御4

	$RailNo='25';
	Track[$RailNo].Position(19.00, 0, 0, 0); // 御5
	Repeater['Rail'+$RailNo+'u'].End();
	Repeater['Kasen'+$RailNo].End();
		$dist = distance;
	include 'utility\TongEndR.txt';


$CAWay + 1900;
	Track['23'].X.Interpolate( 15.20, -211); // 御3
	Track['24'].X.Interpolate( 16.15,    0); // 御4


	Structure['CusPole0L'].Put($T00,-16.0, 0, 0, 0, 0, 0, 3, 1.0);
	Structure['CusPole0C'].Put($T00,-15.0, 0, 0, 0, 0, 0, 3, 1.0);
	Structure['CusPole0C'].Put($T00,-13.0, 0, 0, 0, 0, 0, 3, 1.0);
	Structure['CusPole0C'].Put($T00,-11.0, 0, 0, 0, 0, 0, 3, 1.0);
	Structure['CusPole0C'].Put($T00, -9.0, 0, 0, 0, 0, 0, 3, 1.0);
	Structure['CusPole0C'].Put($T00, -7.0, 0, 0, 0, 0, 0, 3, 1.0);
	Structure['CusPole0C'].Put($T00, -5.0, 0, 0, 0, 0, 0, 3, 1.0);
	Structure['CusPole0C'].Put($T00, -3.0, 0, 0, 0, 0, 0, 3, 1.0);
	Structure['CusPole0C'].Put($T00, -1.0, 0, 0, 0, 0, 0, 3, 1.0);
	Structure['CusPole0C'].Put($T00,  1.0, 0, 0, 0, 0, 0, 3, 1.0);
	Structure['CusPole0C'].Put($T00,  3.0, 0, 0, 0, 0, 0, 3, 1.0);
	Structure['CusPole0C'].Put($T00,  5.0, 0, 0, 0, 0, 0, 3, 1.0);
	Structure['CusPole0C'].Put($T00,  7.0, 0, 0, 0, 0, 0, 3, 1.0);
	Structure['CusPole0C'].Put($T00,  9.0, 0, 0, 0, 0, 0, 3, 1.0);
	Structure['CusPole0C'].Put($T00, 11.0, 0, 0, 0, 0, 0, 3, 1.0);
	Structure['CusPole0C'].Put($T00, 13.0, 0, 0, 0, 0, 0, 3, 1.0);
	Structure['CusPole0C'].Put($T00, 15.0, 0, 0, 0, 0, 0, 3, 1.0);
	Structure['CusPole0C'].Put($T00, 17.0, 0, 0, 0, 0, 0, 3, 1.0);
	Structure['CusPole0R'].Put($T00, 16.0, 0, 0, 0, 0, 0, 3, 1.0);


$CAWay + 1920;
	Track['23'].X.Interpolate( 14.25,    0); // 御3

	$RailNo='24';
	Track[$RailNo].Position(14.25, 0, 0, 0); // 御4
	Repeater['Rail'+$RailNo+'u'].End();
	Repeater['Kasen'+$RailNo].End();
		$dist = distance;
	include 'utility\TongEndR.txt';


$CAWay + 1925;
	$RailNo='07';
	Track[$RailNo].Position(-7.60, 0, -165, 0); // 下3→下4
	Repeater['Rail'+$RailNo+'u'].Begin($RailNo, 0, 0, 0, 0, 0, 0, 3, 5, 5, 'Ballast0', 'Ballast1', 'Ballast2', 'Ballast3', 'Ballast4');
	Repeater['Kasen'+$RailNo].Begin($RailNo, 0, 0, 0, 0, 0, 0, 1, 25, 25, 'KasenS0');
		$dist = distance;
	include 'utility\TongStartL.txt';

	Track[$T03].X.Interpolate(-7.60, 0); // 下3


$CAWay + 1940;
	Track[$T21].X.Interpolate( 11.40, -211); // 御上
	Track['23'].X.Interpolate( 12.35,    0); // 御3


$CAWay + 1950;
		$dist = distance;
	include 'utility\CurveEnd.txt';
$CAWay + 1950;
	Track[$T03].X.Interpolate( -7.60, 0); // 下3
	Track[$T02].X.Interpolate( -3.80, 0); // 下2
	Track[$T10].X.Interpolate(  3.80, 0); // 上本
	Track[$T12].X.Interpolate(  7.60, 0); // 通路4
	Track['07'].X.Interpolate(-9.50, 165); // 下3→下4
	Track[$T21].X.Interpolate( 11.40, 0); // 御上

	Structure['CusPole0L'].Put($T00,-16.0, 0, 0, 0, 0, 0, 3, 1.0);
	Structure['CusPole0C'].Put($T00,-15.0, 0, 0, 0, 0, 0, 3, 1.0);
	Structure['CusPole0C'].Put($T00,-13.0, 0, 0, 0, 0, 0, 3, 1.0);
	Structure['CusPole0C'].Put($T00,-11.0, 0, 0, 0, 0, 0, 3, 1.0);
	Structure['CusPole0C'].Put($T00, -9.0, 0, 0, 0, 0, 0, 3, 1.0);
	Structure['CusPole0C'].Put($T00, -7.0, 0, 0, 0, 0, 0, 3, 1.0);
	Structure['CusPole0C'].Put($T00, -5.0, 0, 0, 0, 0, 0, 3, 1.0);
	Structure['CusPole0C'].Put($T00, -3.0, 0, 0, 0, 0, 0, 3, 1.0);
	Structure['CusPole0C'].Put($T00, -1.0, 0, 0, 0, 0, 0, 3, 1.0);
	Structure['CusPole0C'].Put($T00,  1.0, 0, 0, 0, 0, 0, 3, 1.0);
	Structure['CusPole0C'].Put($T00,  3.0, 0, 0, 0, 0, 0, 3, 1.0);
	Structure['CusPole0C'].Put($T00,  5.0, 0, 0, 0, 0, 0, 3, 1.0);
	Structure['CusPole0C'].Put($T00,  7.0, 0, 0, 0, 0, 0, 3, 1.0);
	Structure['CusPole0C'].Put($T00,  9.0, 0, 0, 0, 0, 0, 3, 1.0);
	Structure['CusPole0C'].Put($T00, 11.0, 0, 0, 0, 0, 0, 3, 1.0);
	Structure['CusPole0C'].Put($T00, 13.0, 0, 0, 0, 0, 0, 3, 1.0);
	Structure['CusPole0R'].Put($T00, 12.0, 0, 0, 0, 0, 0, 3, 1.0);


$CAWay + 1960;
	Track[$T21].X.Interpolate( 10.45, 0); // 御上

	$RailNo='23';
	Track[$RailNo].Position(10.45, 0, 0, 0); // 御3
	Repeater['Rail'+$RailNo+'u'].End();
	Repeater['Kasen'+$RailNo].End();
		$dist = distance;
	include 'utility\TongEndR.txt';


$CAWay + 1975;
	Track['05'].X.Interpolate(-15.20, 0); // 下5
	Track['04'].X.Interpolate(-11.40, 0); // 下4

	$RailNo='07';
	Track[$RailNo].Position(-11.40, 0, 0, 0); // 下3→下4
	Repeater['Rail'+$RailNo+'u'].End();
	Repeater['Kasen'+$RailNo].End();
		$dist = distance;
	include 'utility\TongEndR.txt';


$CAWay + 1980;
	Track[$T21].X.Interpolate( 8.55, 211); // 御上


$CAWay + 2000;
// 幟道ガード
$CAWay + 2000;
	$RailNo='07';
	Track[$RailNo].Position(7.60, 0, -211, 0); // 通路5→海上
	Repeater['Rail'+$RailNo+'u'].Begin($RailNo, 0, 0, 0, 0, 0, 0, 3, 5, 5, 'Ballast0', 'Ballast1', 'Ballast2', 'Ballast3', 'Ballast4');
	Repeater['Kasen'+$RailNo].Begin($RailNo, 0, 0, 0, 0, 0, 0, 1, 25, 25, 'KasenS0');
		$dist = distance;
	include 'utility\TongStartL.txt';

	Track[$T12].X.Interpolate( 7.60, 0); // 通路5
	Repeater['Kasen'+$T12].End();

	$RailNo=$T21;
	Track[$RailNo].Position(7.60, 0, 0, 0); // 御上
	Repeater['Rail'+$RailNo+'u'].End();
	Repeater['Kasen'+$RailNo].End();
		$dist = distance;
	include 'utility\TongEndR.txt';

	Structure['CusPole0L'].Put($T00,-16.0, 0, 0, 0, 0, 0, 3, 1.0);
	Structure['CusPole0C'].Put($T00,-15.0, 0, 0, 0, 0, 0, 3, 1.0);
	Structure['CusPole0C'].Put($T00,-13.0, 0, 0, 0, 0, 0, 3, 1.0);
	Structure['CusPole0C'].Put($T00,-11.0, 0, 0, 0, 0, 0, 3, 1.0);
	Structure['CusPole0C'].Put($T00, -9.0, 0, 0, 0, 0, 0, 3, 1.0);
	Structure['CusPole0C'].Put($T00, -7.0, 0, 0, 0, 0, 0, 3, 1.0);
	Structure['CusPole0C'].Put($T00, -5.0, 0, 0, 0, 0, 0, 3, 1.0);
	Structure['CusPole0C'].Put($T00, -3.0, 0, 0, 0, 0, 0, 3, 1.0);
	Structure['CusPole0C'].Put($T00, -1.0, 0, 0, 0, 0, 0, 3, 1.0);
	Structure['CusPole0C'].Put($T00,  1.0, 0, 0, 0, 0, 0, 3, 1.0);
	Structure['CusPole0C'].Put($T00,  3.0, 0, 0, 0, 0, 0, 3, 1.0);
	Structure['CusPole0C'].Put($T00,  5.0, 0, 0, 0, 0, 0, 3, 1.0);
	Structure['CusPole0C'].Put($T00,  7.0, 0, 0, 0, 0, 0, 3, 1.0);
	Structure['CusPole0C'].Put($T00,  9.0, 0, 0, 0, 0, 0, 3, 1.0);
	Structure['CusPole0R'].Put($T00,  8.0, 0, 0, 0, 0, 0, 3, 1.0);


$CAWay + 2020;
	Track['07'].X.Interpolate(6.65, 0); // 通路5→海上


$CAWay + 2040;
	Track['07'].X.Interpolate(4.75, 211); // 通路5→海上


$CAWay + 2050;
	Structure['CusPole0L'].Put($T00,-16.0, 0, 0, 0, 0, 0, 3, 1.0);
	Structure['CusPole0C'].Put($T00,-15.0, 0, 0, 0, 0, 0, 3, 1.0);
	Structure['CusPole0C'].Put($T00,-13.0, 0, 0, 0, 0, 0, 3, 1.0);
	Structure['CusPole0C'].Put($T00,-11.0, 0, 0, 0, 0, 0, 3, 1.0);
	Structure['CusPole0C'].Put($T00, -9.0, 0, 0, 0, 0, 0, 3, 1.0);
	Structure['CusPole0C'].Put($T00, -7.0, 0, 0, 0, 0, 0, 3, 1.0);
	Structure['CusPole0C'].Put($T00, -5.0, 0, 0, 0, 0, 0, 3, 1.0);
	Structure['CusPole0C'].Put($T00, -3.0, 0, 0, 0, 0, 0, 3, 1.0);
	Structure['CusPole0C'].Put($T00, -1.0, 0, 0, 0, 0, 0, 3, 1.0);
	Structure['CusPole0C'].Put($T00,  1.0, 0, 0, 0, 0, 0, 3, 1.0);
	Structure['CusPole0C'].Put($T00,  3.0, 0, 0, 0, 0, 0, 3, 1.0);
	Structure['CusPole0C'].Put($T00,  5.0, 0, 0, 0, 0, 0, 3, 1.0);
	Structure['CusPole0C'].Put($T00,  7.0, 0, 0, 0, 0, 0, 3, 1.0);
	Structure['CusPole0C'].Put($T00,  9.0, 0, 0, 0, 0, 0, 3, 1.0);
	Structure['CusPole0R'].Put($T00,  8.0, 0, 0, 0, 0, 0, 3, 1.0);


$CAWay + 2060;
	$RailNo='08';
	Track[$RailNo].Position(3.80, 0, -211, 0); // 海上→海下
	Repeater['Rail'+$RailNo+'u'].Begin($RailNo, 0, 0, 0, 0, 0, 0, 3, 5, 5, 'Ballast0', 'Ballast1', 'Ballast2', 'Ballast3', 'Ballast4');
	Repeater['Kasen'+$RailNo].Begin($RailNo, 0, 0, 0, 0, 0, 0, 1, 25, 25, 'KasenS0');
		$dist = distance;
	include 'utility\TongStartL.txt';

	Track[$T10].X.Interpolate( 3.80, 0); // 海上

	$RailNo='07';
	Track[$RailNo].Position(3.80, 0, 0, 0); // 通路5→海上
	Repeater['Rail'+$RailNo+'u'].End();
	Repeater['Kasen'+$RailNo].End();
		$dist = distance;
	include 'utility\TongEndR.txt';


$CAWay + 2080;
	Track['08'].X.Interpolate(2.85, 0); // 海上→海下


$CAWay + 2100;
	Track['08'].X.Interpolate(0.95, 211); // 海上→海下
	JointNoise.Play(0);

	Structure['CusPole0L'].Put($T00,-16.0, 0, 0, 0, 0, 0, 3, 1.0);
	Structure['CusPole0C'].Put($T00,-15.0, 0, 0, 0, 0, 0, 3, 1.0);
	Structure['CusPole0C'].Put($T00,-13.0, 0, 0, 0, 0, 0, 3, 1.0);
	Structure['CusPole0C'].Put($T00,-11.0, 0, 0, 0, 0, 0, 3, 1.0);
	Structure['CusPole0C'].Put($T00, -9.0, 0, 0, 0, 0, 0, 3, 1.0);
	Structure['CusPole0C'].Put($T00, -7.0, 0, 0, 0, 0, 0, 3, 1.0);
	Structure['CusPole0C'].Put($T00, -5.0, 0, 0, 0, 0, 0, 3, 1.0);
	Structure['CusPole0C'].Put($T00, -3.0, 0, 0, 0, 0, 0, 3, 1.0);
	Structure['CusPole0C'].Put($T00, -1.0, 0, 0, 0, 0, 0, 3, 1.0);
	Structure['CusPole0C'].Put($T00,  1.0, 0, 0, 0, 0, 0, 3, 1.0);
	Structure['CusPole0C'].Put($T00,  3.0, 0, 0, 0, 0, 0, 3, 1.0);
	Structure['CusPole0C'].Put($T00,  5.0, 0, 0, 0, 0, 0, 3, 1.0);
	Structure['CusPole0C'].Put($T00,  7.0, 0, 0, 0, 0, 0, 3, 1.0);
	Structure['CusPole0C'].Put($T00,  9.0, 0, 0, 0, 0, 0, 3, 1.0);
	Structure['CusPole0R'].Put($T00,  8.0, 0, 0, 0, 0, 0, 3, 1.0);


$CAWay + 2120;
	$RailNo='09';
	Track[$RailNo].Position(0.00, 0, -211, 0); // 海下→下2
	Repeater['Rail'+$RailNo+'u'].Begin($RailNo, 0, 0, 0, 0, 0, 0, 3, 5, 5, 'Ballast0', 'Ballast1', 'Ballast2', 'Ballast3', 'Ballast4');
	Repeater['Kasen'+$RailNo].Begin($RailNo, 0, 0, 0, 0, 0, 0, 1, 25, 25, 'KasenS0');
		$dist = distance;
	include 'utility\TongStartL.txt';

	$RailNo='08';
	Track[$RailNo].Position(0.00, 0, 0, 0); // 海上→海下
	Repeater['Rail'+$RailNo+'u'].End();
	Repeater['Kasen'+$RailNo].End();
		$dist = distance;
	include 'utility\TongEndR.txt';

	Track[$T12].X.Interpolate( 7.60, 211); // 通路5
	JointNoise.Play(0);


$CAWay + 2140;
	Track['09'].X.Interpolate(-0.95, 0); // 海下→下2
	Track[$T12].X.Interpolate( 8.55, -211); // 通路5


$CAWay + 2150;
	Structure['CusPole0L'].Put($T00,-17.0, 0, 0, 0, 0, 0, 3, 1.0);
	Structure['CusPole0C'].Put($T00,-16.0, 0, 0, 0, 0, 0, 3, 1.0);
	Structure['CusPole0C'].Put($T00,-14.0, 0, 0, 0, 0, 0, 3, 1.0);
	Structure['CusPole0C'].Put($T00,-12.0, 0, 0, 0, 0, 0, 3, 1.0);
	Structure['CusPole0C'].Put($T00,-10.0, 0, 0, 0, 0, 0, 3, 1.0);
	Structure['CusPole0C'].Put($T00, -8.0, 0, 0, 0, 0, 0, 3, 1.0);
	Structure['CusPole0C'].Put($T00, -6.0, 0, 0, 0, 0, 0, 3, 1.0);
	Structure['CusPole0C'].Put($T00, -4.0, 0, 0, 0, 0, 0, 3, 1.0);
	Structure['CusPole0C'].Put($T00, -2.0, 0, 0, 0, 0, 0, 3, 1.0);
	Structure['CusPole0C'].Put($T00,  0.0, 0, 0, 0, 0, 0, 3, 1.0);
	Structure['CusPole0C'].Put($T00,  2.0, 0, 0, 0, 0, 0, 3, 1.0);
	Structure['CusPole0C'].Put($T00,  4.0, 0, 0, 0, 0, 0, 3, 1.0);
	Structure['CusPole0C'].Put($T00,  6.0, 0, 0, 0, 0, 0, 3, 1.0);
	Structure['CusPole0R'].Put($T00,  5.0, 0, 0, 0, 0, 0, 3, 1.0);


$CAWay + 2160;
	Track['09'].X.Interpolate(-2.85, 211); // 海下→下2
	Track[$T12].X.Interpolate( 9.50, 0); // 通路5


$CAWay + 2180;
	$RailNo='08';
	Track[$RailNo].Position(-3.80, 0, 211, 0); // 下2→海下
	Repeater['Rail'+$RailNo+'u'].Begin($RailNo, 0, 0, 0, 0, 0, 0, 3, 5, 5, 'Ballast0', 'Ballast1', 'Ballast2', 'Ballast3', 'Ballast4');
	Repeater['Kasen'+$RailNo].Begin($RailNo, 0, 0, 0, 0, 0, 0, 1, 25, 25, 'KasenS0');
		$dist = distance;
	include 'utility\TongStartR.txt';

	$RailNo='09';
	Track[$RailNo].Position(-3.80, 0, 0, 0); // 海下→下2
	Repeater['Rail'+$RailNo+'u'].End();
	Repeater['Kasen'+$RailNo].End();
		$dist = distance;
	include 'utility\TongEndR.txt';


$CAWay + 2200;
	Track['05'].X.Interpolate(-15.20, 211); // 下5

	$RailNo='04';
	Track[$RailNo].Position(-11.40, 0, 0, 0); // 下4
	Repeater['Rail'+$RailNo+'u'].End();
		$dist = distance;
	include 'utility\TongEndR.txt';

	$RailNo='07';
	Track[$RailNo].Position(-3.80, 0, -211, 0); // 下2→下3
	Repeater['Rail'+$RailNo+'u'].Begin($RailNo, 0, 0, 0, 0, 0, 0, 3, 5, 5, 'Ballast0', 'Ballast1', 'Ballast2', 'Ballast3', 'Ballast4');
	Repeater['Kasen'+$RailNo].Begin($RailNo, 0, 0, 0, 0, 0, 0, 1, 25, 25, 'KasenS0');
		$dist = distance;
	include 'utility\TongStartR.txt';

	Track['08'].X.Interpolate(-2.85, 0); // 下2→海下

	Structure['CusPole0L'].Put($T00,-17.0, 0, 0, 0, 0, 0, 3, 1.0);
	Structure['CusPole0C'].Put($T00,-16.0, 0, 0, 0, 0, 0, 3, 1.0);
	Structure['CusPole0C'].Put($T00,-14.0, 0, 0, 0, 0, 0, 3, 1.0);
	Structure['CusPole0C'].Put($T00,-12.0, 0, 0, 0, 0, 0, 3, 1.0);
	Structure['CusPole0C'].Put($T00,-10.0, 0, 0, 0, 0, 0, 3, 1.0);
	Structure['CusPole0C'].Put($T00, -8.0, 0, 0, 0, 0, 0, 3, 1.0);
	Structure['CusPole0C'].Put($T00, -6.0, 0, 0, 0, 0, 0, 3, 1.0);
	Structure['CusPole0C'].Put($T00, -4.0, 0, 0, 0, 0, 0, 3, 1.0);
	Structure['CusPole0C'].Put($T00, -2.0, 0, 0, 0, 0, 0, 3, 1.0);
	Structure['CusPole0C'].Put($T00,  0.0, 0, 0, 0, 0, 0, 3, 1.0);
	Structure['CusPole0C'].Put($T00,  2.0, 0, 0, 0, 0, 0, 3, 1.0);
	Structure['CusPole0C'].Put($T00,  4.0, 0, 0, 0, 0, 0, 3, 1.0);
	Structure['CusPole0C'].Put($T00,  6.0, 0, 0, 0, 0, 0, 3, 1.0);
	Structure['CusPole0R'].Put($T00,  5.0, 0, 0, 0, 0, 0, 3, 1.0);


$CAWay + 2220;
	Track['05'].X.Interpolate(-14.25, 0); // 下5

	Track['07'].X.Interpolate(-4.75, 0); // 下2→下3
	Track['08'].X.Interpolate(-0.95, -211); // 下2→海下
	JointNoise.Play(0);


$CAWay + 2240;
	Track['07'].X.Interpolate(-6.65, 211); // 下2→下3

	$RailNo='08';
	Track[$RailNo].Position(0.00, 0, 0, 0); // 下2→海下
	Repeater['Rail'+$RailNo+'u'].End();
	Repeater['Kasen'+$RailNo].End();
		$dist = distance;
	include 'utility\TongEndL.txt';


$CAWay + 2250;
	Repeater['EnePole00'].Begin(0, -10.10, 0, 0, 0, 0, 0, 0, 1.0, 50.0, 'Pole4_0');


$CAWay + 2260;
	$RailNo='07';
	Track[$RailNo].Position(-7.60, 0, 0, 0); // 下2→下3
	Repeater['Rail'+$RailNo+'u'].End();
	Repeater['Kasen'+$RailNo].End();
		$dist = distance;
	include 'utility\TongEndR.txt';


$CAWay + 2280;
	Track[$T03].X.Interpolate(-7.60, 211); // 下3

	$RailNo=$T02;
	Track[$RailNo].Position(-3.80, 0, 0, 0); // 下2
	Repeater['Kasen'+$RailNo].End();
		$dist = distance;
	include 'utility\RailEnd.txt';


$CAWay + 2300;
	$RailNo='05';
	Track[$RailNo].Position(-6.65, 0, 0, 0); // 下5
	Repeater['Rail'+$RailNo+'u'].End();
		$dist = distance;
	include 'utility\TongEndR.txt';

	Track[$T03].X.Interpolate(-6.65, 0); // 下3
$CAWay + 2300;
	Repeater['EnePole00'].Begin(0, -6.30, 0, 0, 0, 0, 0, 0, 1.0, 50.0, 'Pole3_0');


$CAWay + 2320;
	Track[$T03].X.Interpolate(-4.75, -211); // 下3


$CAWay + 2340;
	$RailNo=$T02;
	Track[$RailNo].Position(-3.80, 0, 0, 0); // 西通路
	Repeater['Kasen'+$RailNo].Begin($RailNo, 0, 0, 0, 0, 0, 0, 1, 25, 25, 'KasenS0');
		$dist = distance;
	include 'utility\RailStart.txt';

	$RailNo=$T03;
	Track[$RailNo].Position(-3.80, 0, 0, 0); // 下3
	Repeater['Kasen'+$RailNo].End();
		$dist = distance;
	include 'utility\RailEnd.txt';


$CAWay + 2350;





$CAWay + 1275;
//[1:2]
	Repeater['Form'+$T01+'C'].End();
	Repeater['Form'+$T00+'C'].End();
	Structure['FormCR2'].PutBetween($T01, $T00);
$CAWay + 1280;
	Structure['FormCR2'].PutBetween($T01, $T00);
$CAWay + 1285;
	Structure['FormCR2'].PutBetween($T01, $T00);
$CAWay + 1290;
	Structure['FormCR2'].PutBetween($T01, $T00);
$CAWay + 1295;
	Structure['FormCR2'].PutBetween($T01, $T00);
$CAWay + 1300;
	Structure['FormCR2'].PutBetween($T01, $T00);
$CAWay + 1305;
	Structure['FormCR2'].PutBetween($T01, $T00);
$CAWay + 1310;
//[1:2]
	Repeater['Form'+$T01+'S'].End();
	Repeater['Form'+$T01+'C'].End();
	Repeater['Form'+$T00+'S'].End();
	Repeater['Form'+$T00+'C'].End();


$CAWay + 1320;
//[3:4]
	Repeater['Form'+$T11+'C'].End();
	Repeater['Form'+$T10+'C'].End();
$CAWay + 1325;
	Structure['FormCR2'].PutBetween($T10, $T11);
$CAWay + 1330;
	Structure['FormCR2'].PutBetween($T10, $T11);
$CAWay + 1335;
	Structure['FormCR2'].PutBetween($T10, $T11);
$CAWay + 1340;
	Structure['FormCR2'].PutBetween($T10, $T11);
$CAWay + 1345;
	Structure['FormCR2'].PutBetween($T10, $T11);
$CAWay + 1350;
	Structure['FormCR2'].PutBetween($T10, $T11);
$CAWay + 1355;
	Structure['FormCR2'].PutBetween($T10, $T11);
$CAWay + 1360;
//[3:4]
	Repeater['Form'+$T11+'S'].End();
	Repeater['Form'+$T11+'C'].End();
	Repeater['Form'+$T10+'S'].End();
	Repeater['Form'+$T10+'C'].End();


$CAWay + 1400;
//[5:6]
	Repeater['Form'+$T20+'S'].End();
	Repeater['Form'+$T20+'C'].End();
	Repeater['Form'+$T21+'S'].End();
	Repeater['Form'+$T21+'C'].End();



// -------------------------------------------------------------------------------------------------------------


// (C)Harupi
