﻿BveTs Map 2.00

//////////////////////////////////////////////////////////////////////////
// 東海道本線（しぞーか本線）CA08/CC00 富士駅 下本 ～ CA13 興津駅 場内
// (146.500) ～ (163.500)
//////////////////////////////////////////////////////////////////////////


// -------------------------------------------------------------------------------------------------------------

$CAWay = $Fuji - 160; // 146km

$T00 = '00'; // 下本
$T01 = '01'; // 下1
$T02 = '02'; // 下2
$T08 = '08'; // 下x
$T09 = '09'; // 下x
$T10 = '10'; // 上本
$T11 = '11'; // 上1
$T12 = '12'; // 上2
$T13 = '13'; // 上3
$T22 = '22'; // 下引上 富士
$T40 = '40'; // 身下本
$T41 = '41'; // 身上本



$CAWay+500;


$CAWay+500;
	Repeater['EnePole00'].Begin($T22, 0.00, 0.00, 0.00, 0, 0, 0, 0, 25.0, 25.0, 'Pole4_0');
$CAWay+500;
	$RailNo='44';
	Track[$RailNo].Position(3.80, 0, 329, 0); // 海上本->身下本
	Repeater['Rail'+$RailNo+'u'].Begin($RailNo, 0, 0, 0, 0, 0, 0, 3, 5, 5, 'Ballast0', 'Ballast1', 'Ballast2', 'Ballast3', 'Ballast4');
	Repeater['Kasen'+$RailNo].Begin($RailNo, 0, 0, 0, 0, 0, 0, 1, 25, 25, 'KasenS0');
		$dist = distance;
	include 'utility\TongStartR.txt';

	$RailNo='45';
	Track[$RailNo].Position(7.60, 0, -329, 0); // 身下本->海上本
	Repeater['Rail'+$RailNo+'u'].Begin($RailNo, 0, 0, 0, 0, 0, 0, 3, 5, 5, 'Ballast0', 'Ballast1', 'Ballast2', 'Ballast3', 'Ballast4');
	Repeater['Kasen'+$RailNo].Begin($RailNo, 0, 0, 0, 0, 0, 0, 1, 25, 25, 'KasenS0');
		$dist = distance;
	include 'utility\TongStartL.txt';


$CAWay+525;
	Track['44'].X.Interpolate(4.75, 0); // 海上本->身下本
	Track['45'].X.Interpolate(6.65, 0); // 身下本->海上本


$CAWay+600;
// 富士大通り
	Structure['OverRoad01'].Put(0, 3.80, 6.5, 0, 0, 0, 0, 1, 1.0);


$CAWay+550;
	Track['45'].X.Interpolate(4.75,  329); // 身下本->海上本
	Track['44'].X.Interpolate(6.65, -329); // 海上本->身下本


$CAWay+575;
	$RailNo='54';
	Track[$RailNo].Position(3.80, 0, -329, 0); // 海上本->海下本
	Repeater['Rail'+$RailNo+'u'].Begin($RailNo, 0, 0, 0, 0, 0, 0, 3, 5, 5, 'Ballast0', 'Ballast1', 'Ballast2', 'Ballast3', 'Ballast4');
	Repeater['Kasen'+$RailNo].Begin($RailNo, 0, 0, 0, 0, 0, 0, 1, 25, 25, 'KasenS0');
		$dist = distance;
	include 'utility\TongStartL.txt';

	$RailNo='45';
	Track[$RailNo].Position(3.80, 0, 0, 0); // 身下本->海上本
	Repeater['Rail'+$RailNo+'u'].End();
	Repeater['Kasen'+$RailNo].End();
		$dist = distance;
	include 'utility\TongEndR.txt';

	$RailNo='44';
	Track[$RailNo].Position(7.60, 0, 0, 0); // 海上本->身下本
	Repeater['Rail'+$RailNo+'u'].End();
	Repeater['Kasen'+$RailNo].End();
		$dist = distance;
	include 'utility\TongEndL.txt';

	$RailNo='53';
	Track[$RailNo].Position(7.60, 0, 329, 0); // 身下本->身上本
	Repeater['Rail'+$RailNo+'u'].Begin($RailNo, 0, 0, 0, 0, 0, 0, 3, 5, 5, 'Ballast0', 'Ballast1', 'Ballast2', 'Ballast3', 'Ballast4');
	Repeater['Kasen'+$RailNo].Begin($RailNo, 0, 0, 0, 0, 0, 0, 1, 25, 25, 'KasenS0');
		$dist = distance;
	include 'utility\TongStartR.txt';


$CAWay+600;
	Track['54'].X.Interpolate(2.85, 0); // 海上本->海下本
	Track['53'].X.Interpolate(8.55, 0); // 身下本->身上本


$CAWay+625;
	Track['54'].X.Interpolate( 0.95,  329); // 海上本->海下本
	Track['53'].X.Interpolate(10.45, -329); // 身下本->身上本
	JointNoise.Play(0);


$CAWay+650;
	$RailNo='54';
	Track[$RailNo].Position(0.00, 0, 0, 0); // 海上本->海下本
	Repeater['Rail'+$RailNo+'u'].End();
	Repeater['Kasen'+$RailNo].End();
		$dist = distance;
	include 'utility\TongEndR.txt';

	$RailNo='53';
	Track[$RailNo].Position(11.40, 0, 0, 0); // 身下本->身上本
	Repeater['Rail'+$RailNo+'u'].End();
	Repeater['Kasen'+$RailNo].End();
		$dist = distance;
	include 'utility\TongEndL.txt';

	Repeater['EnePole00'].Begin($T22, 0.00, 0.00, 0.00, 0, 0, 0, 0, 1.0, 50.0, 'Pole4_0');


$CAWay+725;
	Track[$T22].Position(-3.80, 0,    0, 0); // 東海道下引上
	Repeater['Rail22L'].End();
	Repeater['Rail22R'].End();
	Repeater['Rail22u'].End();
	Repeater['Kasen22'].End();


$CAWay+750;
	Repeater['EnePole00'].Begin($T00, 0.00, 0.00, 0.00, 0, 0, 0, 0, 1.0, 50.0, 'Pole3_0');


$CAWay+765;
	Track[$T40].X.Interpolate( 7.60, 1500); // 身下本
	Track[$T41].X.Interpolate(11.40, 1500); // 身上本


$CAWay+782;
//◎ 塩沢踏切　0.582
	Structure['Fumikiri_AL'].Put0($T00, 0, 5);
	Structure['Fumikiri_AC'].Put0($T00, 0, 5);
	Structure['Fumikiri_AM'].Put0($T00, 0, 5);
	Structure['Fumikiri_AH'].Put0($T10, 0, 5);
	Structure['Fumikiri_AC'].Put0($T10, 0, 5);
	Structure['Fumikiri_AM'].Put0($T10, 0, 5);
	Structure['Fumikiri_AH'].Put0($T40, 0, 5);
	Structure['Fumikiri_AC'].Put0($T40, 0, 5);
	Structure['Fumikiri_AM'].Put0($T40, 0, 5);
	Structure['Fumikiri_AH'].Put0($T41, 0, 5);
	Structure['Fumikiri_AC'].Put0($T41, 0, 5);
	Structure['Fumikiri_AR'].Put0($T41, 0, 5);
	Sound3D['Fumikiri'].Put(-2.5, 3.0);


$CAWay+798;
;// ○●● 東海道上場内
//	Structure['PoleSL1'].Put($T10, 2.4, -1.0, 0, 0, 180, 0, 1, 1.0);
//	Structure['Signal6L2'].Put($T10, 2.4, 3.8, 0, 0, 180, 0, 1, 1.0);


$CAWay+800;
	Track[$T40].X.Interpolate( 8.00, 0); // 身下本
	Track[$T41].X.Interpolate(11.80, 0); // 身上本


$CAWay+875;
	Track['20'].X.Interpolate( 9.75, 0); // 身下本
	Track['30'].X.Interpolate(13.55, 0); // 身上本

	$RailNo='61';
	Track[$RailNo].Position( 9.75, 0, -162, 0); // 富士区入出
	Repeater['Rail'+$RailNo+'u'].Begin($RailNo, 0, 0, 0, 0, 0, 0, 3, 5, 5, 'Ballast0', 'Ballast1', 'Ballast2', 'Ballast3', 'Ballast4');
	Repeater['Kasen'+$RailNo].Begin($RailNo, 0, 0, 0, 0, 0, 0, 1, 25, 25, 'KasenS0');
		$dist = distance;
	include 'utility\TongStartL.txt';


$CAWay+900;
	Repeater['EnePole00'].Begin($T00, 0.00, 0.00, 0.00, 0, 0, 0, 0, 1.0, 50.0, 'Pole1_0');
	Repeater['EnePole40'].Begin($T40, -1.9, 0.00, 0.00, 0, 0, 0, 0, 1.0, 25.0, 'Pole2_0');
$CAWay+900;
	Track['61'].X.Interpolate( 8.43, 169); // 富士区入出
	Track[$T40].X.Interpolate(10.33, 300); // 身下本
	Track[$T41].X.Interpolate(14.13, 300); // 身上本


$CAWay+925;
	Track['61'].X.Interpolate( 7.60, 0); // 富士区入出
	Track[$T40].X.Interpolate(11.03, 300); // 身下本
	Track[$T41].X.Interpolate(14.83, 300); // 身上本
$CAWay+925;
	Repeater['EnePole40'].Begin($T40, 0, 0, 0, 0, 0, 0, 0, 125.0, 25.0, 'Pole1_0');


$CAWay+950;
	$RailNo='62';
	Track[$RailNo].Position(7.60, 0, 162, 0); // 富士区2
	Repeater['Rail'+$RailNo+'u'].Begin($RailNo, 0, 0, 0, 0, 0, 0, 3, 5, 5, 'Ballast0', 'Ballast1', 'Ballast2', 'Ballast3', 'Ballast4');
	Repeater['Kasen'+$RailNo].Begin($RailNo, 0, 0, 0, 0, 0, 0, 1, 25, 25, 'KasenS0');
		$dist = distance;
	include 'utility\TongStartR.txt';


$CAWay+970;
;// ○●● 上
	//Structure['PoleSL1'].Put('10', 2.8, -1.0, 0, 0, 180, 0, 1, 1.0);
	Structure['SignalB'].Put($T40, -2.6,  0.0, 0, 0,  0, 0, 1, 1.0);


$CAWay+975;
	Track['62'].X.Interpolate(9.50, -162); // 富士区2

	$RailNo='72';
	Track[$RailNo].Position(11.40, 0, 0, 0); // 富士区2x
	Repeater['Rail'+$RailNo+'u'].Begin($RailNo, 0, 0, 0, 0, 0, 0, 3, 5, 5, 'Ballast0', 'Ballast1', 'Ballast2', 'Ballast3', 'Ballast4');
	Repeater['Kasen'+$RailNo].Begin($RailNo, 0, 0, 0, 0, 0, 0, 1, 25, 25, 'KasenS0');
		$dist = distance;
	include 'utility\TongStartR.txt';


$CAWay+1000;
	$RailNo='72';
	Track[$RailNo].Position(11.40, 0, 0, 0); // 富士区2x
	Repeater['Rail'+$RailNo+'u'].End();
	Repeater['Kasen'+$RailNo].End();
		$dist = distance;
	include 'utility\TongEndR.txt';

	Track['62'].X.Interpolate(11.40, 0); // 富士区2

	$RailNo='65';
	Track[$RailNo].Position(15.20, 0, 0, 0); // 富士区5
	Repeater['Rail'+$RailNo+'u'].Begin($RailNo, 0, 0, 0, 0, 0, 0, 3, 5, 5, 'Ballast0', 'Ballast1', 'Ballast2', 'Ballast3', 'Ballast4');
	Repeater['Kasen'+$RailNo].Begin($RailNo, 0, 0, 0, 0, 0, 0, 1, 25, 25, 'KasenS0');
		$dist = distance;
	include 'utility\TongStartR.txt';



$CAWay+1050;
	$RailNo='75';
	Track[$RailNo].Position(11.40, 0, 162, 0); // 富士区2->5
	Repeater['Rail'+$RailNo+'u'].Begin($RailNo, 0, 0, 0, 0, 0, 0, 3, 5, 5, 'Ballast0', 'Ballast1', 'Ballast2', 'Ballast3', 'Ballast4');
	Repeater['Kasen'+$RailNo].Begin($RailNo, 0, 0, 0, 0, 0, 0, 1, 25, 25, 'KasenS0');
		$dist = distance;
	include 'utility\TongStartR.txt';

	$RailNo='63';
	Track[$RailNo].Position(15.20, 0, -162, 0); // 富士区3
	Repeater['Rail'+$RailNo+'u'].Begin($RailNo, 0, 0, 0, 0, 0, 0, 3, 5, 5, 'Ballast0', 'Ballast1', 'Ballast2', 'Ballast3', 'Ballast4');
	Repeater['Kasen'+$RailNo].Begin($RailNo, 0, 0, 0, 0, 0, 0, 1, 25, 25, 'KasenS0');
		$dist = distance;
	include 'utility\TongStartL.txt';


$CAWay+1075;
	Track['63'].X.Interpolate(13.30, 162); // 富士区5
	Track['75'].X.Interpolate(13.30, 0); // 富士区2->5
	Track['65'].X.Interpolate(15.20, 162); // 富士区5

	$RailNo=$T40;
	Track[$RailNo].Position(57.13, 0, 0, 0); // 身下本
	Repeater['Rail'+$RailNo+'u'].End();
	Repeater['Kasen'+$RailNo].End();
		$dist = distance;
	include 'utility\TongEndL.txt';

	$RailNo=$T41;
	Track[$RailNo].Position(60.93, 0, 0, 0); // 身上本
	Repeater['Rail'+$RailNo+'u'].End();
	Repeater['Kasen'+$RailNo].End();
		$dist = distance;
	include 'utility\TongEndL.txt';

	Repeater['EnePole40'].End();


$CAWay + 1090;
	//◯●● 2 (130.7xx)
	Section.BeginNew(0, 2, 3, 4);
	Structure['PoleSL1'].Put(0, -2.6, 0, 0.3, 0, 0, 0, 1, 1.0);
	Signal['type1'].Put(0, 0, -2.6, 4.6, 0.0, 0, 0, 0, 1, 1.0);


$CAWay+1100;
	Track['63'].X.Interpolate(11.40, 162); // 富士区3

	$RailNo='75';
	Track[$RailNo].Position(17.10, 0, 0, 0); // 富士区2->5
	Repeater['Rail'+$RailNo+'u'].End();
	Repeater['Kasen'+$RailNo].End();
		$dist = distance;
	include 'utility\TongEndL.txt';

	Track['65'].X.Interpolate(17.10, 0); // 富士区5


$CAWay+1125;
	Track['63'].X.Interpolate(13.30, -162); // 富士区3

	$RailNo='64';
	Track[$RailNo].Position(13.30, 0, 0, 0); // 富士区4
	Repeater['Rail'+$RailNo+'u'].Begin($RailNo, 0, 0, 0, 0, 0, 0, 3, 5, 5, 'Ballast0', 'Ballast1', 'Ballast2', 'Ballast3', 'Ballast4');
	Repeater['Kasen'+$RailNo].Begin($RailNo, 0, 0, 0, 0, 0, 0, 1, 25, 25, 'KasenS0');
		$dist = distance;
	include 'utility\TongStartR.txt';

	Track['65'].X.Interpolate(20.90, -162); // 富士区5

	$RailNo='68';
	Track[$RailNo].Position(20.90, 0, 0, 0); // 富士区8
	Repeater['Rail'+$RailNo+'u'].Begin($RailNo, 0, 0, 0, 0, 0, 0, 3, 5, 5, 'Ballast0', 'Ballast1', 'Ballast2', 'Ballast3', 'Ballast4');
	Repeater['Kasen'+$RailNo].Begin($RailNo, 0, 0, 0, 0, 0, 0, 1, 25, 25, 'KasenS0');
		$dist = distance;
	include 'utility\TongStartR.txt';


$CAWay+1150;
	Track['63'].X.Interpolate(15.20,    0); // 富士区3
	Track['64'].X.Interpolate(17.10, -162); // 富士区4
	Track['65'].X.Interpolate(22.80,    0); // 富士区5

	$RailNo='67';
	Track[$RailNo].Position(22.80, 0, 162, 0); // 富士区7
	Repeater['Rail'+$RailNo+'u'].Begin($RailNo, 0, 0, 0, 0, 0, 0, 3, 5, 5, 'Ballast0', 'Ballast1', 'Ballast2', 'Ballast3', 'Ballast4');
	Repeater['Kasen'+$RailNo].Begin($RailNo, 0, 0, 0, 0, 0, 0, 1, 25, 25, 'KasenS0');
		$dist = distance;
	include 'utility\TongStartR.txt';

	Track['68'].X.Interpolate(24.70, 0); // 富士区8


$CAWay+1175;
	Track['64'].X.Interpolate(19.00, 0); // 富士区4

	$RailNo='66';
	Track[$RailNo].Position(22.80, 0, 162, 0); // 富士区6
	Repeater['Rail'+$RailNo+'u'].Begin($RailNo, 0, 0, 0, 0, 0, 0, 3, 5, 5, 'Ballast0', 'Ballast1', 'Ballast2', 'Ballast3', 'Ballast4');
	Repeater['Kasen'+$RailNo].Begin($RailNo, 0, 0, 0, 0, 0, 0, 1, 25, 25, 'KasenS0');
		$dist = distance;
	include 'utility\TongStartR.txt';

	Track['67'].X.Interpolate(24.70, 0); // 富士区7
	Track['68'].X.Interpolate(28.50, 0); // 富士区8


$CAWay+1200;
	Track['66'].X.Interpolate(24.70, -162); // 富士区6
	Track['67'].X.Interpolate(28.50, -162); // 富士区7
	Track['68'].X.Interpolate(32.30, -162); // 富士区8

	$RailNo='69';
	Track[$RailNo].Position(32.30, 0, 0, 0); // 富士区9
	Repeater['Rail'+$RailNo+'u'].Begin($RailNo, 0, 0, 0, 0, 0, 0, 3, 5, 5, 'Ballast0', 'Ballast1', 'Ballast2', 'Ballast3', 'Ballast4');
	Repeater['Kasen'+$RailNo].Begin($RailNo, 0, 0, 0, 0, 0, 0, 1, 25, 25, 'KasenS0');
		$dist = distance;
	include 'utility\TongStartR.txt';


$CAWay + 1220;
		$dist = distance;
		$radius=-1600;
		$cant=-50;
	include 'utility\CurveStart.txt';


$CAWay + 1225;
	Track['61'].X.Interpolate( 7.60, 1600); // 富士区入出
	Track['62'].X.Interpolate(11.40, 1600); // 富士区2
	Track['63'].X.Interpolate(15.20, 1600); // 富士区3
	Track['64'].X.Interpolate(19.00, 1600); // 富士区4
	Track['65'].X.Interpolate(22.80, 1600); // 富士区5
	Track['66'].X.Interpolate(26.60, 1600); // 富士区6
	Track['67'].X.Interpolate(30.40, 1600); // 富士区7
	Track['68'].X.Interpolate(34.20, 1600); // 富士区8
	Track['69'].X.Interpolate(36.10, -162); // 富士区9


$CAWay + 1250;
	Track['69'].X.Interpolate(38.00, 1600); // 富士区9


$CAWay + 1340;
	//┛ 10.0‰
		$dist = distance;
		$slope=10.0;
	include 'utility\GraUpStart.txt';


$CAWay+1330;
	$RailNo='62';
	Repeater['Rail'+$RailNo+'u'].End();
	Repeater['Kasen'+$RailNo].End();
		$dist = distance;
	include 'utility\TongEndL.txt';

	$RailNo='63';
	Repeater['Rail'+$RailNo+'u'].End();
	Repeater['Kasen'+$RailNo].End();
		$dist = distance;
	include 'utility\TongEndL.txt';


$CAWay+1430;
	$RailNo='61';
	Track[$RailNo].Position(19.00, 0, 0, 0); // 富士区入出
	Repeater['Rail'+$RailNo+'u'].End();
	Repeater['Kasen'+$RailNo].End();
		$dist = distance;
	include 'utility\TongEndL.txt';

	Track['62'].Position(22.80, 0, 0, 0); // 富士区2
	Track['63'].Position(26.60, 0, 0, 0); // 富士区3

	$RailNo='64';
	Track[$RailNo].Position(30.40, 0, 0, 0); // 富士区4
	Repeater['Rail'+$RailNo+'u'].End();
	Repeater['Kasen'+$RailNo].End();
		$dist = distance;
	include 'utility\TongEndL.txt';

	$RailNo='65';
	Track[$RailNo].Position(34.20, 0, 0, 0); // 富士区5
	Repeater['Rail'+$RailNo+'u'].End();
	Repeater['Kasen'+$RailNo].End();
		$dist = distance;
	include 'utility\TongEndL.txt';

	$RailNo='66';
	Track[$RailNo].Position(38.00, 0, 0, 0); // 富士区6
	Repeater['Rail'+$RailNo+'u'].End();
	Repeater['Kasen'+$RailNo].End();
		$dist = distance;
	include 'utility\TongEndL.txt';

	$RailNo='67';
	Track[$RailNo].Position(41.80, 0, 0, 0); // 富士区7
	Repeater['Rail'+$RailNo+'u'].End();
	Repeater['Kasen'+$RailNo].End();
		$dist = distance;
	include 'utility\TongEndL.txt';

	$RailNo='68';
	Track[$RailNo].Position(45.60, 0, 0, 0); // 富士区8
	Repeater['Rail'+$RailNo+'u'].End();
	Repeater['Kasen'+$RailNo].End();
		$dist = distance;
	include 'utility\TongEndL.txt';

	$RailNo='69';
	Track[$RailNo].Position(49.40, 0, 0, 0); // 富士区9
	Repeater['Rail'+$RailNo+'u'].End();
	Repeater['Kasen'+$RailNo].End();
		$dist = distance;
	include 'utility\TongEndL.txt';



$CAWay+1476;
//◎ 梅屋敷踏切　147.476
	Structure['Fumikiri_AL'].Put0($T00, 0, 5);
	Structure['Fumikiri_AC'].Put0($T00, 0, 5);
	Structure['Fumikiri_AM'].Put0($T00, 0, 5);
	Structure['Fumikiri_AH'].Put0($T10, 0, 5);
	Structure['Fumikiri_AC'].Put0($T10, 0, 5);
	Structure['Fumikiri_AR'].Put0($T10, 0, 5);
	Sound3D['Fumikiri'].Put(-2.5, 3.0);


$CAWay+1623;
//◎ 松岡踏切　147.623
	Structure['Fumikiri_BL'].Put0($T00, 0, 5);
	Structure['Fumikiri_BC'].Put0($T00, 0, 5);
	Structure['Fumikiri_BM'].Put0($T00, 0, 5);
	Structure['Fumikiri_BH'].Put0($T10, 0, 5);
	Structure['Fumikiri_BC'].Put0($T10, 0, 5);
	Structure['Fumikiri_BR'].Put0($T10, 0, 5);
	Sound3D['Fumikiri'].Put(-2.5, 3.0);


$CAWay + 1750;
		$dist = distance;
	include 'utility\CurveEnd.txt';


$CAWay + 1780;
	Track['K0'].X.Interpolate(1.90, 0); // 架線用
	Track[$T10].X.Interpolate(3.80, 0); // 上本
$CAWay + 1780;
		$dist = distance;
		$radius=-1600;
		$cant=-50;
	include 'utility\CurveStart.txt';


$CAWay + 1800;
	Repeater['EnePole00'].Begin('K0', -3.80, 0, 0, 0, 0, 0, 0, 1.0, 50.0, 'Pole2_0');
	Structure['CrackR0'].PutBetween($T00, $T10);


$CAWay+1825;
	Structure['CrackR0'].PutBetween($T00, $T10);


$CAWay+1850;
	Structure['CrackR0'].PutBetween($T00, $T10);


$CAWay+1875;
	Structure['CrackR0'].PutBetween($T00, $T10);


$CAWay+1900;
	Structure['CrackR0'].PutBetween($T00, $T10);


$CAWay+1925;
	Structure['CrackR0'].PutBetween($T00, $T10);


$CAWay + 1950;
	Repeater['EnePole00'].Begin('K0', -4.75, 0, 0, 0, 0, 0, 0, 1.0, 50.0, 'Pole3_0');
	Structure['CrackR0'].PutBetween($T00, $T10);


$CAWay+1957;
//◎ 宮下踏切　147.957
	Structure['Fumikiri_AL'].Put0($T00, 0, 5);
	Structure['Fumikiri_AC'].Put0($T00, 0, 5);
	Structure['Fumikiri_AM'].Put0($T00, 0, 5);
	Structure['Fumikiri_AM'].Put($T00,  0.50, 0.00, 0.00, 0, 0, 0, 3, 5.0);
	Structure['Fumikiri_AM'].Put($T00,  1.00, 0.00, 0.00, 0, 0, 0, 3, 5.0);
	Structure['Fumikiri_AM'].Put($T00,  1.50, 0.00, 0.00, 0, 0, 0, 3, 5.0);
	Structure['Fumikiri_AM'].Put($T00,  2.00, 0.00, 0.00, 0, 0, 0, 3, 5.0);
	Structure['Fumikiri_AM'].Put($T00,  2.50, 0.00, 0.00, 0, 0, 0, 3, 5.0);
	Structure['Fumikiri_AM'].Put($T00,  3.00, 0.00, 0.00, 0, 0, 0, 3, 5.0);
	Structure['Fumikiri_AH'].Put($T10, -3.00, 0.00, 0.00, 0, 0, 0, 3, 5.0);
	Structure['Fumikiri_AH'].Put($T10, -2.50, 0.00, 0.00, 0, 0, 0, 3, 5.0);
	Structure['Fumikiri_AH'].Put($T10, -2.00, 0.00, 0.00, 0, 0, 0, 3, 5.0);
	Structure['Fumikiri_AH'].Put($T10, -1.50, 0.00, 0.00, 0, 0, 0, 3, 5.0);
	Structure['Fumikiri_AH'].Put($T10, -1.00, 0.00, 0.00, 0, 0, 0, 3, 5.0);
	Structure['Fumikiri_AH'].Put($T10, -0.50, 0.00, 0.00, 0, 0, 0, 3, 5.0);
	Structure['Fumikiri_AH'].Put0($T10, 0, 5);
	Structure['Fumikiri_AC'].Put0($T10, 0, 5);
	Structure['Fumikiri_AR'].Put0($T10, 0, 5);
	Sound3D['Fumikiri'].Put(-2.5, 3.0);


$CAWay+1975;
	Structure['CrackR0'].PutBetween($T00, $T10);


$CAWay+2000;
	Structure['CrackR0'].PutBetween($T00, $T10);


$CAWay+2025;
	Structure['CrackR0'].PutBetween($T00, $T10);


$CAWay + 2050;
	Repeater['EnePole00'].Begin('K0', -7.60, 0, 0, 0, 0, 0, 0, 1.0, 50.0, 'Pole4_0');
	Structure['CrackR0'].PutBetween($T00, $T10);


$CAWay+2075;
	Structure['CrackR0'].PutBetween($T00, $T10);


$CAWay + 2080;
	Track['K0'].X.Interpolate( 6.90, 0); // 架線用
	Track[$T10].X.Interpolate(13.80, 0); // 上本
$CAWay + 2080;
		$dist = distance;
	include 'utility\CurveEnd.txt';


$CAWay + 2100;
	Repeater['EnePole00'].Begin(0, 0.00, 0, 0, 0, 0, 0, 0, 1.0, 50.0, 'Pole0_2');
	Repeater['EnePole10'].Begin(0, 7.60, 0, 0, 0, 0, 0, 0, 1.0, 50.0, 'Pole2_0');
	Structure['CrackR0'].PutBetween($T00, $T10);


$CAWay + 2110;
	//◯●● 1 (130.7xx)
	Section.BeginNew(0, 2, 4);
	Structure['PoleSL1'].Put(0, 3.0, 0, 0.3, 0, 0, 0, 1, 1.0);
	Signal['type1'].Put(0, 0, 3.0, 4.6, 0.0, 0, 0, 0, 1, 1.0);
$CAWay + 2110;
	//━ 0.0‰
		$dist = distance;
	include 'utility\GraUpEnd.txt';


$CAWay+2115;
//＊＊＊ 富士川
	RollingNoise.Change(3);
	Repeater['Rail00u'].End();
	Repeater['Bridge00'].Begin(0, 0, 0, 5.0, 0, 0, 0, 3, 5, 5, 'Bridge01');
	Repeater['Bridge_Makuragi0'].Begin(0, 0, 0, 2.0, 0, 0, 0, 3, 2, 2, 'Bridge_Makuragi');
	Repeater['Rail10u'].End();
	Repeater['Bridge10'].Begin('10', 0, 0, 5.0, 0, 0, 0, 3, 5, 5, 'Bridge01');
	Repeater['Bridge_Makuragi10'].Begin('10', 0, 0, 2.0, 0, 0, 0, 3, 2, 2, 'Bridge_Makuragi');
	Repeater['BridgeuR'].Begin(0, 0, 0, 5.0, 0, 0, 0, 3, 5.0, 5.0, 'BridgeSGR0');
	Repeater['Bridge_TenryuK'].Begin(0, 0.00, 0.00, 62.4, 0, 0, 0, 3, 62.4, 62.4, 'Bridge_TenryuN');
$CAWay + 2115;
	Repeater['EnePole00'].End();
$CAWay+2115;
		$dist = distance;
		$riverlen=560;
	include 'utility\River2.txt';


$CAWay + 2125;
	Repeater['EnePole10'].Begin($T10, 0.00, 0, 0, 0, 0, 0, 0, 1.0, 50.0, 'Pole0_2');


$CAWay+2675;
//＊＊＊
	RollingNoise.Change(0);
	Repeater['Rail00u'].Begin(0, 0, 0, 0, 0, 0, 0, 3, 5.0, 5.0, 'Ballast0', 'Ballast1', 'Ballast2', 'Ballast3', 'Ballast4');
	Repeater['Bridge00'].End();
	Repeater['Bridge_Makuragi0'].End();
	Repeater['Bridge_TenryuK'].End();
	Repeater['Rail10u'].Begin('10', 0, 0, 0, 0, 0, 0, 3, 5.0, 5.0, 'Ballast0', 'Ballast1', 'Ballast2', 'Ballast3', 'Ballast4');
	Repeater['Bridge10'].End();
	Repeater['Bridge_Makuragi10'].End();
	Repeater['BridgeuR'].End();
$CAWay + 2680;
	Repeater['Bridge_Makuragi0'].End();
$CAWay + 2675;
	Structure['CrackR0'].PutBetween($T00, $T10);


$CAWay + 2680;
	Track[$T10].X.Interpolate(13.80, 0); // 上本
$CAWay + 2680;
		$dist = distance;
		$radius=-740;
		$cant=-60;
	include 'utility\CurveStart.txt';
$CAWay + 2680;
	//┓ 10.0‰
		$dist = distance;
		$slope=-10.0;
	include 'utility\GraDownStart.txt';


$CAWay + 2700;
	Repeater['EnePole00'].Begin(0, 0, 0, 0, 0, 0, 0, 0, 1.0, 50.0, 'Pole3_0');
	Repeater['EnePole10'].End();
	Structure['CrackR0'].PutBetween($T00, $T10);


$CAWay + 2725;
	Structure['CrackR0'].PutBetween($T00, $T10);


$CAWay + 2750;
	Structure['CrackR0'].PutBetween($T00, $T10);


$CAWay + 2775;
	Structure['CrackR0'].PutBetween($T00, $T10);


$CAWay + 2800;
	Structure['CrackR0'].PutBetween($T00, $T10);


$CAWay + 2825;
	Structure['CrackR0'].PutBetween($T00, $T10);


$CAWay + 2850;
	Structure['CrackR0'].PutBetween($T00, $T10);


$CAWay + 2875;
	Structure['CrackR0'].PutBetween($T00, $T10);


$CAWay + 2900;
	Structure['CrackR0'].PutBetween($T00, $T10);
	Repeater['EnePole00'].Begin(0, 0, 0, 0, 0, 0, 0, 0, 1.0, 50.0, 'Pole2_0');


$CAWay + 2925;
	Structure['CrackR0'].PutBetween($T00, $T10);


$CAWay + 2950;
	Structure['CrackR0'].PutBetween($T00, $T10);


$CAWay + 2975;
	Structure['CrackR0'].PutBetween($T00, $T10);


$CAWay + 3100;
	Repeater['EnePole00'].Begin(0, 0, 0, 0, 0, 0, 0, 0, 1.0, 50.0, 'Pole1_0');


$CAWay + 3110;
	Track[$T10].X.Interpolate(3.80, 0); // 上本
$CAWay + 3110;
		$dist = distance;
		$radius=-540;
		$cant=-70;
	include 'utility\CurveStart.txt';


$CAWay + 3140;
	//◯●● 下本場内 (130.7xx)
	Section.BeginNew(0, 2, 4);
	Structure['PoleSL1'].Put($T10, 2.8, 0, 0.3, 0, 0, 0, 1, 1.0);
	Signal['type3'].Put(0, $T10, 3.0, 6.1, 0.0, 0, 0, 0, 1, 1.0);
	//◯●● 下１場内
	Structure['Signal3L0'].Put($T10, 2.6, 5.1, 0.0, 0, 0, 0, 1, 1.0);


$CAWay + 3300;
	Repeater['EnePole00'].Begin($T00, 0.00, 0.00, 0.00, 0, 0, 0, 0, 1.0, 50.0, 'Pole2_0');
	Structure['CrackR0'].PutBetween($T00, $T10);


$CAWay + 3325;
	Structure['CrackR0'].PutBetween($T00, $T10);


$CAWay + 3350;
	Structure['CrackR0'].PutBetween($T00, $T10);


$CAWay + 3375;
	Structure['CrackR0'].PutBetween($T00, $T10);


$CAWay + 3390;
		$dist = distance;
	include 'utility\CurveEnd.txt';


$CAWay+3400;
	$RailNo=$T08;
	Track[$RailNo].Position(5.70, 0, -150, 0); // 下1x
	Repeater['Rail'+$RailNo+'u'].Begin($RailNo, 0, 0, 0, 0, 0, 0, 3, 5, 5, 'Ballast0', 'Ballast1', 'Ballast2', 'Ballast3', 'Ballast4');
	Repeater['Kasen'+$RailNo].Begin($RailNo, 0, 0, 0, 0, 0, 0, 1, 25, 25, 'KasenS0');
		$dist = distance;
	include 'utility\TongStartL.txt';

	Track[$T10].X.Interpolate(5.70, 0); // 上本
	Structure['CrackR0'].PutBetween($T00, $T10);


$CAWay+3425;
	Track[$RailNo].X.Interpolate(4.35, 0); // 下1x
	Structure['CrackR0'].PutBetween($T00, $T10);


$CAWay + 3440;
	//┓ 3.0‰
		$dist = distance;
		$slope2=-3.0;
	include 'utility\GraDownChange.txt';


$CAWay+3450;
	Track[$RailNo].X.Interpolate(1.35, 150); // 下1x

	$RailNo=$T12;
	Track[$RailNo].Position(7.30, 0, 162, 0); // 上2
	Repeater['Rail'+$RailNo+'u'].Begin($RailNo, 0, 0, 0, 0, 0, 0, 3, 5, 5, 'Ballast0', 'Ballast1', 'Ballast2', 'Ballast3', 'Ballast4');
		$dist = distance;
	include 'utility\TongStartR.txt';

	Structure['CrackR0'].PutBetween($T00, $T10);
	JointNoise.Play(0);


$CAWay+3475;
	$RailNo=$T08;
	Track[$RailNo].Position(0.00, 0, 0, 0); // 下1x
	Repeater['Rail'+$RailNo+'u'].End();
	Repeater['Kasen'+$RailNo].End();
		$dist = distance;
	include 'utility\TongEndL.txt';

	Track[$T12].Position(9.25, 0, -162, 0); // 上1
	Structure['CrackR0'].PutBetween($T00, $T10);


$CAWay+3491;
//◎ 岩渕踏切　149.496
	Structure['Fumikiri_AL'].Put($T00, -0.50, 0.00, 0.00, 0, 0, 0, 0, 5.0);
	Structure['Fumikiri_AH'].Put($T10,  0.00, 0.00, 0.00, 0, 0, 0, 0, 5.0);
	Structure['Fumikiri_AC'].Put0($T00, 0, 5);
	Structure['Fumikiri_AM'].Put($T00,  0.00, 0.00, 0.00, 0, 0, 0, 0, 5.0);
	Structure['Fumikiri_AM'].Put($T00,  0.50, 0.00, 0.00, 0, 0, 0, 0, 5.0);
	Structure['Fumikiri_AM'].Put($T00,  1.00, 0.00, 0.00, 0, 0, 0, 0, 5.0);
	Structure['Fumikiri_AM'].Put($T00,  1.50, 0.00, 0.00, 0, 0, 0, 0, 5.0);
	Structure['Fumikiri_AM'].Put($T00,  2.00, 0.00, 0.00, 0, 0, 0, 0, 5.0);
	Structure['Fumikiri_AM'].Put($T00,  2.50, 0.00, 0.00, 0, 0, 0, 0, 5.0);
	Structure['Fumikiri_AM'].Put($T00,  3.00, 0.00, 0.00, 0, 0, 0, 0, 5.0);
	Structure['Fumikiri_AH'].Put($T10, -3.00, 0.00, 0.00, 0, 0, 0, 0, 5.0);
	Structure['Fumikiri_AH'].Put($T10, -2.50, 0.00, 0.00, 0, 0, 0, 0, 5.0);
	Structure['Fumikiri_AH'].Put($T10, -2.00, 0.00, 0.00, 0, 0, 0, 0, 5.0);
	Structure['Fumikiri_AH'].Put($T10, -1.50, 0.00, 0.00, 0, 0, 0, 0, 5.0);
	Structure['Fumikiri_AH'].Put($T10, -1.00, 0.00, 0.00, 0, 0, 0, 0, 5.0);
	Structure['Fumikiri_AH'].Put($T10, -0.50, 0.00, 0.00, 0, 0, 0, 0, 5.0);
	Structure['Fumikiri_AH'].Put($T10,  0.00, 0.00, 0.00, 0, 0, 0, 0, 5.0);
	Structure['Fumikiri_AC'].Put0($T10, 0, 5);
	Structure['Fumikiri_AC'].Put0($T12, 0, 5);
	Structure['Fumikiri_AR'].Put($T10,  3.80, 0.00, 0.00, 0, 0, 0, 0, 5.0);
	Sound3D['Fumikiri'].Put(-2.5, 3.0);


//▼▼▼ 富士川 (CA09)

$CAWay+3500;
	$RailNo=$T09;
	Track[$RailNo].Position(-4.75, 0, 0, 0); // 下2x
	Repeater['Rail'+$RailNo+'u'].Begin($RailNo, 0, 0, 0, 0, 0, 0, 3, 5, 5, 'Ballast0', 'Ballast1', 'Ballast2', 'Ballast3', 'Ballast4');
	Repeater['Kasen'+$RailNo].Begin($RailNo, 0, 0, 0, 0, 0, 0, 1, 25, 25, 'KasenS0');
		$dist = distance;
	include 'utility\TongStartL.txt';

	$RailNo=$T01;
	Track[$RailNo].Position(0.00, 0, -329, 0); // 下1
	Repeater['Rail'+$RailNo+'u'].Begin($RailNo, 0, 0, 0, 0, 0, 0, 3, 5, 5, 'Ballast0', 'Ballast1', 'Ballast2', 'Ballast3', 'Ballast4');
	Repeater['Kasen'+$RailNo].Begin($RailNo, 0, 0, 0, 0, 0, 0, 1, 25, 25, 'KasenS0');
		$dist = distance;
	include 'utility\TongStartL.txt';

	$RailNo=$T11;
	Track[$RailNo].Position(8.55, 0, -329, 0); // 上1
	Repeater['Rail'+$RailNo+'u'].Begin($RailNo, 0, 0, 0, 0, 0, 0, 3, 5, 5, 'Ballast0', 'Ballast1', 'Ballast2', 'Ballast3', 'Ballast4');
	Repeater['Kasen'+$RailNo].Begin($RailNo, 0, 0, 0, 0, 0, 0, 1, 25, 25, 'KasenS0');
		$dist = distance;
	include 'utility\TongStartL.txt';

	Track[$T10].X.Interpolate( 8.55, 0); // 上本
	Track[$T12].X.Interpolate(12.35, 0); // 上2

	Repeater['EnePole00'].Begin($T09, 0.00, 0.00, 0.00, 0, 0, 0, 0, 1.0, 50.0, 'Pole4_0');
	Structure['CrackR0'].PutBetween($T09, $T10);
	JointNoise.Play(0);


$CAWay+3525;
	Track[$T09].X.Interpolate(-6.65,  329); // 下2x
	Track[$T01].X.Interpolate(-0.95,    0); // 下1
	Track[$T11].X.Interpolate( 7.60+0.7, 0); // 上1
	Track[$T10].X.Interpolate( 8.55+0.7, 0); // 上本
	Structure['CrackR0'].PutBetween($T09, $T10);


$CAWay+3550;
	Track[$T09].X.Interpolate(-7.60,   0); // 下2x

	$RailNo=$T02;
	Track[$RailNo].Position(-2.85, 0, 0, 0); // 下2
	Repeater['Rail'+$RailNo+'u'].Begin($RailNo, 0, 0, 0, 0, 0, 0, 3, 5, 5, 'Ballast0', 'Ballast1', 'Ballast2', 'Ballast3', 'Ballast4');
	Repeater['Kasen'+$RailNo].Begin($RailNo, 0, 0, 0, 0, 0, 0, 1, 25, 25, 'KasenS0');
		$dist = distance;
	include 'utility\TongStartL.txt';

	Track[$T01].X.Interpolate(-2.85, 329); // 下1
	Track[$T11].X.Interpolate( 5.70+1.4, 329); // 上1
	Track[$T10].X.Interpolate( 8.55+1.4,   0); // 上本
	Repeater['EnePole00'].Begin($T00, -7.60, 0.00, 0.00, 0, 0, 0, 0, 1.0, 50.0, 'Pole2_0');
	Repeater['EnePole10'].Begin($T10, -3.80, 0.00, 0.00, 0, 0, 0, 0, 1.0, 50.0, 'Pole1_0');
	Structure['CrackR0'].PutBetween($T09, $T10);


$CAWay + 3580;
		$dist = distance;
		$radius=900;
		$cant=40;
	include 'utility\CurveStart.txt';


$CAWay+3575;
	Track[$T09].X.Interpolate(-7.60, 0); // 下2x
	Track[$T02].X.Interpolate(-4.75, 0); // 下2
	Track[$T01].X.Interpolate(-3.80, 0); // 下1
	Track[$T11].X.Interpolate( 4.75+2.1, -900); // 上1
	Track[$T10].X.Interpolate( 8.55+2.1, -900); // 上本
	Structure['CrackR0'].PutBetween($T00, $T10);


$CAWay + 3585;
	//◯●● 下本出発中継 (130.7xx)
	Structure['PoleSL1'].Put(0, 3.2, 0, 0.3, 0, 0, 0, 1, 1.0);
	Signal['typeR'].Put(0, 0, 3.2, 5.1, 0.0, 0, 0, 0, 1, 1.0);


$CAWay + 3590;
// [2:3]
	Repeater['Form'+$T00+'R'].Begin($T00, 0, 0, 0, 0, 0, 0, 3, 5.0, 5.0, 'FormR2');
	Repeater['Form'+$T00+'CR'].Begin($T00, 0, 0, 0, 0, 0, 0, 3, 5.0, 5.0, 'FormCR2');
	Repeater['Form'+$T11+'L'].Begin($T11, 0, 0, 0, 0, 0, 0, 3, 5.0, 5.0, 'FormL2');
	Repeater['Form'+$T11+'CL'].Begin($T11, 0, 0, 0, 0, 0, 0, 3, 5.0, 5.0, 'FormCL2');


$CAWay+3600;
	Track[$T09].X.Interpolate(-7.60,   0); // 下2x
	Track[$T02].X.Interpolate(-6.65,  329); // 下2
	Track[$T01].X.Interpolate(-3.80,   0); // 下1
	Track[$T11].X.Interpolate( 5.70+1.7, -900); // 上1
	Track[$T10].X.Interpolate( 9.50+1.7, -900); // 上本


$CAWay + 3640;
	Track[$T11].X.Interpolate( 8.55, 0); // 上1
	Track[$T10].X.Interpolate(12.35, 0); // 上本
$CAWay + 3640;
		$dist = distance;
	include 'utility\CurveEnd.txt';


$CAWay+3625;
	Track[$T02].X.Interpolate(-7.60, 0); // 下2

	$RailNo=$T09;
	Track[$RailNo].Position(-7.60, 0, 0, 0); // 下2x
	Repeater['Rail'+$RailNo+'u'].End();
	Repeater['Kasen'+$RailNo].End();
		$dist = distance;
	include 'utility\TongEndL.txt';

	Track[$T01].X.Interpolate(-3.80, 0); // 下1

	$RailNo=$T12;
	Track[$RailNo].Position(17.15-0.40, 0, 0, 0); // 上2
	Repeater['Rail'+$RailNo+'u'].End();
		$dist = distance;
	include 'utility\RailEnd.txt';


$CAWay + 3630;
// [1]
	Repeater['Form'+$T10+'R'].Begin($T10, 0, 0, 0, 0, 0, 0, 3, 5.0, 5.0, 'FormR2');
	Repeater['Form'+$T10+'CR'].Begin($T10, 0, 0, 0, 0, 0, 0, 3, 5.0, 5.0, 'FormCR2');


$CAWay + 3650;
	Repeater['EnePole00'].Begin($T00, -7.60, 0.00, 0.00, 0, 0, 0, 0, 1.0, 50.0, 'Pole2_0');
	Repeater['EnePole10'].Begin($T10, -5.70, 0.00, 0.00, 0, 0, 0, 0, 1.0, 50.0, 'Pole2_0');


$CAWay + 3740;
// [○B]
	Structure['StaStop06'].Put($T00, 2.3, 3.3, 0, 0, 0, 0, 1, 1.0);
	Structure['StaPole00'].Put($T00, 2.3, 3.3, 0, 0, 180, 0, 1, 1.0);


$CAWay + 3770;
		$dist = distance;
		$radius=1250;
		$cant=30;
	include 'utility\CurveStart.txt';


$CAWay + 3800;
	Track[$T11].X.Interpolate( 9.50, 0); // 上1
	Track[$T10].X.Interpolate(13.30, 0); // 上本
$CAWay + 3800;
// [○B]
	Structure['StaStop08'].Put($T00, 2.3, 3.3, 0, 0, 0, 0, 1, 1.0);
	Structure['StaPole00'].Put($T00, 2.3, 3.3, 0, 0, 180, 0, 1, 1.0);


$CAWay + 3840;
// [○B]
	Structure['StaStop00'].Put($T00, 2.3, 3.3, 0, 0, 0, 0, 1, 1.0);
	Structure['StaPole00'].Put($T00, 2.3, 3.3, 0, 0, 180, 0, 1, 1.0);
$CAWay + 3800;
	Track[$T11].X.Interpolate( 9.50-0.1, 0); // 上1
	Track[$T10].X.Interpolate(13.30-0.1, 0); // 上本
$CAWay + 3840;
		$dist = distance;
	include 'utility\CurveEnd.txt';


$CAWay + 3850;
// [2:3]
	Repeater['Form'+$T00+'R'].End();
	Repeater['Form'+$T00+'CR'].End();
	Repeater['Form'+$T11+'L'].End();
	Repeater['Form'+$T11+'CL'].End();
$CAWay+3850;
	Track['r396'].Position(50.00, 0, 0, 0); // 道路
	Repeater['r396u'].Begin('r396', 0, 0, 0, 0, 0, 0, 3, 10, 10, 'Road02');
	Structure['CrackR0'].PutBetween($T00, $T10);


$CAWay + 3870;
// [1]
	Repeater['Form'+$T10+'R'].End();
	Repeater['Form'+$T10+'CR'].End();


$CAWay + 3875;
	Track[$T02].X.Interpolate(-7.60, 162); // 下2
	Track[$T01].X.Interpolate(-3.80,   0); // 下1
	Structure['CrackR0'].PutBetween($T00, $T10);


$CAWay + 3900;
	Track[$T02].X.Interpolate(-5.70, -162); // 下2
	Track[$T01].X.Interpolate(-3.80,    0); // 下1
	Structure['CrackR0'].PutBetween($T00, $T10);


$CAWay + 3925;
	$RailNo=$T02;
	Track[$RailNo].Position(-3.80, 0, 0, 0); // 下2
	Repeater['Rail'+$RailNo+'u'].End();
	Repeater['Kasen'+$RailNo].End();
		$dist = distance;
	include 'utility\TongEndL.txt';

	Track[$T01].X.Interpolate(-3.80,    0); // 下1
	Structure['CrackR0'].PutBetween($T00, $T10);


$CAWay + 3950;
	Repeater['EnePole00'].Begin($T00, -3.80, 0.00, 0.00, 0, 0, 0, 0, 1.0, 50.0, 'Pole3_0');
	Repeater['EnePole10'].End();
	Structure['CrackR0'].PutBetween($T00, $T10);


$CAWay + 3975;
	Structure['CrackR0'].PutBetween($T00, $T10);


$CAWay + 4000;
	Structure['CrackR0'].PutBetween($T00, $T10);


$CAWay+4025;
	$RailNo=$T09;
	Track[$RailNo].Position(-3.80, 0, 0, 0); // 下1x
	Repeater['Rail'+$RailNo+'u'].Begin($RailNo, 0, 0, 0, 0, 0, 0, 3, 5, 5, 'Ballast0', 'Ballast1', 'Ballast2', 'Ballast3', 'Ballast4');
	Repeater['Kasen'+$RailNo].Begin($RailNo, 0, 0, 0, 0, 0, 0, 1, 25, 25, 'KasenS0');
		$dist = distance;
	include 'utility\TongStartL.txt';

	Track[$T01].X.Interpolate(-3.80, 329); // 下1
	Track[$T11].X.Interpolate( 3.80, 329); // 上1
	Track[$T10].X.Interpolate( 7.60,   0); // 上本
	Structure['CrackR0'].PutBetween($T00, $T10);


$CAWay + 4035;
	//◯●● 下本出発 (130.7xx)
	Section.BeginNew(0, 2, 4);
	Structure['PoleSL1'].Put($T01, -2.6, 0, 0.3, 0, 0, 0, 1, 1.0);
	Signal['type3'].Put(0, $T01, -2.6, 5.1, 0.0, 0, 0, 0, 1, 1.0);
	//◯●● 下１出発
	Structure['PoleSL1'].Put($T01, -3.4, 0, 0.3, 0, 0, 0, 1, 1.0);
	Structure['Signal3L0'].Put($T01, -3.4, 4.6, 0.0, 0, 0, 0, 1, 1.0);


$CAWay + 4040;
	//━ 0.0‰
		$dist = distance;
	include 'utility\GraDownEnd.txt';


$CAWay+4050;
	Track[$T01].X.Interpolate(-2.85, 0); // 下1
	Track[$T11].X.Interpolate( 4.75-0.50, 0); // 上1

	Track['r396'].Position(22.00, 0, 0, 0); // 道路
	Structure['CrackR0'].PutBetween($T00, $T10);


$CAWay+4068;
//◎ 軽金踏切　150.068
	Structure['Fumikiri_AL'].Put0($T09, 0, 5);
	Structure['Fumikiri_AC'].Put0($T09, 0, 5);
	Structure['Fumikiri_AM'].Put0($T09, 0, 5);
	Structure['Fumikiri_AH'].Put0($T00, 0, 5);
	Structure['Fumikiri_AC'].Put0($T00, 0, 5);
	Structure['Fumikiri_AM'].Put0($T00, 0, 5);
	Structure['Fumikiri_AM'].Put($T00,  0.50, 0.00, 0.00, 0, 0, 0, 0, 5.0);
	Structure['Fumikiri_AM'].Put($T00,  1.00, 0.00, 0.00, 0, 0, 0, 0, 5.0);
	Structure['Fumikiri_AM'].Put($T00,  1.50, 0.00, 0.00, 0, 0, 0, 0, 5.0);
	Structure['Fumikiri_AM'].Put($T00,  2.00, 0.00, 0.00, 0, 0, 0, 0, 5.0);
	Structure['Fumikiri_AH'].Put($T10, -2.00, 0.00, 0.00, 0, 0, 0, 0, 5.0);
	Structure['Fumikiri_AH'].Put($T10, -1.50, 0.00, 0.00, 0, 0, 0, 0, 5.0);
	Structure['Fumikiri_AH'].Put($T10, -1.00, 0.00, 0.00, 0, 0, 0, 0, 5.0);
	Structure['Fumikiri_AH'].Put($T10, -0.50, 0.00, 0.00, 0, 0, 0, 0, 5.0);
	Structure['Fumikiri_AH'].Put0($T10, 0, 5);
	Structure['Fumikiri_AC'].Put0($T10, 0, 5);
	Structure['Fumikiri_AR'].Put0($T10, 0, 5);
	Sound3D['Fumikiri'].Put(-2.5, 3.0);


$CAWay+4075;
	Track[$T01].X.Interpolate(-0.95, -329); // 下1
	Track[$T11].X.Interpolate( 6.65-1.00, -329); // 上1
	Structure['CrackR0'].PutBetween($T00, $T10);
	JointNoise.Play(0);


$CAWay+4100;
	$RailNo=$T09;
	Track[$RailNo].Position(-3.80, 0, 0, 0); // 下1x
	Repeater['Rail'+$RailNo+'u'].End();
	Repeater['Kasen'+$RailNo].End();
		$dist = distance;
	include 'utility\RailEnd.txt';

	$RailNo=$T01;
	Track[$RailNo].Position(0.00, 0, 0, 0); // 下1
	Repeater['Rail'+$RailNo+'u'].End();
	Repeater['Kasen'+$RailNo].End();
		$dist = distance;
	include 'utility\TongEndL.txt';

	$RailNo=$T11;
	Track[$RailNo].Position(7.60-1.50, 0, 0, 0); // 上1
	Repeater['Rail'+$RailNo+'u'].End();
	Repeater['Kasen'+$RailNo].End();
		$dist = distance;
	include 'utility\TongEndL.txt';

	Track[$T10].X.Interpolate( 7.60-1.50,   0); // 上本
	Structure['CrackR0'].PutBetween($T00, $T10);

//▲▲▲ 富士川 (CA09)

$CAWay + 4100;
	Repeater['Diker396L'].Begin('r396', -4.50, 0.50, 0, 0, 0, 0, 3, 10.0, 10.0, 'DikeL2');
	Structure['CrackR0'].PutBetween($T00, $T10);


$CAWay + 4110;
		$dist = distance;
		$radius=-500;
		$cant=-70;
	include 'utility\CurveStart.txt';


$CAWay + 4125;
	Structure['CrackR0'].PutBetween($T00, $T10);


$CAWay + 4150;
	Repeater['EnePole00'].Begin($T00, -1.90, 0.00, 0.00, 0, 0, 0, 0, 1.0, 50.0, 'Pole2_0');
	Structure['CrackR0'].PutBetween($T00, $T10);


$CAWay + 4170;
// sunkansun
	Structure['OverRoad01'].Put(0, 0.0, 7.0, 0.0, 0, 0, 0, 1, 1.0);


$CAWay + 4200;
	//┓ 10.0‰
		$dist = distance;
		$slope=-10.0;
	include 'utility\GraDownStart.txt';
$CAWay + 4200;
	Structure['CrackR0'].PutBetween($T00, $T10);


$CAWay + 4225;
	Structure['CrackR0'].PutBetween($T00, $T10);


$CAWay + 4250;
	Structure['CrackR0'].PutBetween($T00, $T10);


$CAWay + 4275;
	Structure['CrackR0'].PutBetween($T00, $T10);


$CAWay + 4300;
	//┓ 5.0‰
		$dist = distance;
		$slope2=-5.0;
	include 'utility\GraDownChange.txt';
$CAWay + 4300;
	Structure['CrackR0'].PutBetween($T00, $T10);


$CAWay + 4325;
	Structure['CrackR0'].PutBetween($T00, $T10);


$CAWay + 4350;
	Structure['CrackR0'].PutBetween($T00, $T10);


$CAWay + 4375;
	Structure['CrackR0'].PutBetween($T00, $T10);


$CAWay + 4400;
	Repeater['EnePole00'].Begin($T00, 0.00, 0.00, 0.00, 0, 0, 0, 0, 1.0, 50.0, 'Pole1_0');


$CAWay + 4500;
	Track[$T10].X.Interpolate(3.80, 0); // 上本
	Track['r396'].Position(18.00, 0, 0, 0); // 道路
$CAWay + 4500;
		$dist = distance;
	include 'utility\CurveEnd.txt';


$CAWay+4510;
//◎ 寺町踏切　150.510?
	Structure['Fumikiri_BL'].Put0($T00, 0, 5);
	Structure['Fumikiri_BC'].Put0($T00, 0, 5);
	Structure['Fumikiri_BM'].Put0($T00, 0, 5);
	Structure['Fumikiri_BH'].Put0($T10, 0, 5);
	Structure['Fumikiri_BC'].Put0($T10, 0, 5);
	Structure['Fumikiri_BR'].Put0($T10, 0, 5);
	Sound3D['Fumikiri'].Put(-2.5, 3.0);
$CAWay+4510;
	Track['R01'].Position(-20.00, 0, 0, 0); // 道路
	Repeater['R01u'].Begin('R01', 0, 0, 0, 0, 0, 0, 3, 10, 10, 'Road01');


$CAWay + 4790;
		$dist = distance;
		$radius=500;
		$cant=80;
	include 'utility\CurveStart.txt';
$CAWay+4790;
	Track['R01'].Position(-35.00, -0.5, -500, 0); // 道路


$CAWay + 4810;
	//┓ 3.3‰
		$dist = distance;
		$slope2=-3.3;
	include 'utility\GraDownChange.txt';


$CAWay + 4890;
	//◯●● 3
	Section.BeginNew(0, 2, 4);
	Structure['PoleSL1'].Put(0, -3.0, 0, 0.3, 0, 0, 0, 1, 1.0);
	Signal['type3'].Put(0, 0, -3.0, 4.6, 0.0, 0, 0, 0, 1, 1.0);


$CAWay+5000;
	Track['R01'].Position(-12.00, -0.5, -500, 0); // 道路


$CAWay + 5110;
	Structure['OverRoad01'].Put(0, 0.0, 7.0, 0.0, 0, 0, 0, 1, 1.0);


$CAWay+5150;
	Track['R01'].Position(-23.00, -0.5, -500, 0); // 道路


$CAWay + 5240;
		$dist = distance;
	include 'utility\CurveEnd.txt';
$CAWay+5240;
	Track['R01'].Position(-10.00, -0.5, 0, 0); // 道路


$CAWay + 5250;
	Track['r396'].Position(30.00, 7.00, 0, 0); // 道路


$CAWay + 5260;
		$dist = distance;
		$radius=600;
		$cant=70;
	include 'utility\CurveStart.txt';


$CAWay+5280;
	Track['R01'].Position(-16.00, -0.50, 0, 0); // 道路


$CAWay + 5420;
	//━ 0.0‰
		$dist = distance;
	include 'utility\GraDownEnd.txt';


$CAWay + 5300;
	Track['R01'].Position(-20.00, -600, -0.5, 0); // 道路
	Track['r396'].Position(22.00, 7.00, 0, 0); // 道路
	Structure['OverRoad01'].Put(0, 0.0, 7.0, 0.0, 0, 0, 0, 1, 1.0);
	Structure['DikeL2'].Put(0, -80.0, 7.0, -3.0, 0, -90, 0, 1, 1.0);
	Structure['DikeL2'].Put(0, -70.0, 7.0, -3.0, 0, -90, 0, 1, 1.0);
	Structure['DikeL2'].Put(0, -60.0, 7.0, -3.0, 0, -90, 0, 1, 1.0);
	Structure['DikeL2'].Put(0, -50.0, 7.0, -3.0, 0, -90, 0, 1, 1.0);
	Structure['DikeL2'].Put(0, -40.0, 7.0, -3.0, 0, -90, 0, 1, 1.0);
	Structure['DikeL2'].Put(0, -30.0, 7.0, -3.0, 0, -90, 0, 1, 1.0);
	Structure['DikeL2'].Put(0, -20.0, 7.0, -3.0, 0, -90, 0, 1, 1.0);


$CAWay + 5500;
	Track['r396'].Position(60.00, 5.00, 0, 0); // 道路
	Repeater['r396u'].End();
	Repeater['Diker396L'].End();


$CAWay + 5520;
		$dist = distance;
	include 'utility\CurveEnd.txt';


$CAWay+5850;
	Track['R01'].Position(-20.00, 0, 0, 0); // 道路
	Repeater['R01u'].End();


$CAWay + 5890;
	//┓ 6.7‰
		$dist = distance;
		$slope=-6.7;
	include 'utility\GraDownStart.txt';


$CAWay+5990;
//◎ 八ツ沢踏切　151.990?
	Structure['Fumikiri_BL'].Put0($T00, 0, 5);
	Structure['Fumikiri_BC'].Put0($T00, 0, 5);
	Structure['Fumikiri_BM'].Put0($T00, 0, 5);
	Structure['Fumikiri_BH'].Put0($T10, 0, 5);
	Structure['Fumikiri_BC'].Put0($T10, 0, 5);
	Structure['Fumikiri_BR'].Put0($T10, 0, 5);
	Sound3D['Fumikiri'].Put(-2.5, 3.0);


$CAWay + 6150;
	//━ 0.0‰
		$dist = distance;
	include 'utility\GraDownEnd.txt';


$CAWay + 6240;
	//◯●● 2[場内相当]
	Section.BeginNew(0, 2, 4);
	Structure['PoleSL1'].Put(0, -2.6, 0, 0.3, 0, 0, 0, 1, 1.0);
	Signal['type3'].Put(0, 0, -2.6, 4.6, 0.0, 0, 0, 0, 1, 1.0);


$CAWay + 6260;
		$dist = distance;
		$radius=790;
		$cant=65;
	include 'utility\CurveStart.txt';


$CAWay + 6520;
		$dist = distance;
	include 'utility\CurveEnd.txt';


//▼▼▼ 新蒲原 (CA10)
$CAWay + 6530;


$CAWay + 6550;
// [1][2]
	Repeater['Form'+$T00+'L'].Begin($T00, 0, 0, 0, 0, 0, 0, 3, 5.0, 5.0, 'FormL2');
	Repeater['Form'+$T00+'CL'].Begin($T00, 0, 0, 0, 0, 0, 0, 3, 5.0, 5.0, 'FormCL2');
	Repeater['Form'+$T10+'R'].Begin($T10, 0, 0, 0, 0, 0, 0, 3, 5.0, 5.0, 'FormR2');
	Repeater['Form'+$T10+'CR'].Begin($T10, 0, 0, 0, 0, 0, 0, 3, 5.0, 5.0, 'FormCR2');

	Repeater['EnePole00'].Begin($T00, -3.80, 0.00, 0.00, 0, 0, 0, 0, 1.0, 50.0, 'Pole3_0');


$CAWay + 6620;
// [○B]
	Structure['StaStop03'].Put($T00, -2.3, 3.3, 0, 0, 0, 0, 1, 1.0);
	Structure['StaPole00'].Put($T00, -2.3, 3.3, 0, 0, 0, 0, 1, 1.0);


$CAWay + 6640;
// [○B]
	Structure['StaStop04'].Put($T00, -2.3, 3.3, 0, 0, 0, 0, 1, 1.0);
	Structure['StaPole00'].Put($T00, -2.3, 3.3, 0, 0, 0, 0, 1, 1.0);


$CAWay + 6680;
// [○B]
	Structure['StaStop06'].Put($T00, -2.3, 3.3, 0, 0, 0, 0, 1, 1.0);
	Structure['StaPole00'].Put($T00, -2.3, 3.3, 0, 0, 0, 0, 1, 1.0);


$CAWay + 6700;
	//┓ 6.7‰
		$dist = distance;
		$slope=-6.7;
	include 'utility\GraDownStart.txt';


$CAWay + 6720;
// [○B]
	Structure['StaStop08'].Put($T00, -2.3, 3.3, 0, 0, 0, 0, 1, 1.0);
	Structure['StaPole00'].Put($T00, -2.3, 3.3, 0, 0, 0, 0, 1, 1.0);


$CAWay + 6760;
// [○B]
	Structure['StaStop10'].Put($T00, -2.3, 3.3, 0, 0, 0, 0, 1, 1.0);
	Structure['StaPole00'].Put($T00, -2.3, 3.3, 0, 0, 0, 0, 1, 1.0);


$CAWay + 6780;
// [○B]
	Structure['StaStop11'].Put($T00, -2.3, 3.3, 0, 0, 0, 0, 1, 1.0);
	Structure['StaPole00'].Put($T00, -2.3, 3.3, 0, 0, 0, 0, 1, 1.0);


$CAWay + 6860;
// [○B]
	Structure['StaStop00'].Put($T00, -2.3, 3.3, 0, 0, 0, 0, 1, 1.0);
	Structure['StaPole00'].Put($T00, -2.3, 3.3, 0, 0, 0, 0, 1, 1.0);


$CAWay+6870;
// [1][2]
	Repeater['Form'+$T00+'L'].End();
	Repeater['Form'+$T00+'CL'].End();
	Repeater['Form'+$T10+'R'].End();
	Repeater['Form'+$T10+'CR'].End();

//▲▲▲ 新蒲原 (CA10)


$CAWay+6900;
	Repeater['EnePole00'].Begin($T00, 0.00, 0.00, 0.00, 0, 0, 0, 0, 1.0, 50.0, 'Pole1_0');


$CAWay+6920;
//◎ 御殿踏切　152.920?
	Structure['Fumikiri_AL'].Put0($T00, 0, 5);
	Structure['Fumikiri_AC'].Put0($T00, 0, 5);
	Structure['Fumikiri_AM'].Put0($T00, 0, 5);
	Structure['Fumikiri_AH'].Put0($T10, 0, 5);
	Structure['Fumikiri_AC'].Put0($T10, 0, 5);
	Structure['Fumikiri_AR'].Put0($T10, 0, 5);
	Sound3D['Fumikiri'].Put(-2.5, 3.0);


$CAWay + 7070;
	//━ 0.0‰
		$dist = distance;
	include 'utility\GraDownEnd.txt';


$CAWay+7170;
//◎ 金毘羅踏切　153.170?
	Structure['Fumikiri_BL'].Put0($T00, 0, 5);
	Structure['Fumikiri_BC'].Put0($T00, 0, 5);
	Structure['Fumikiri_BM'].Put0($T00, 0, 5);
	Structure['Fumikiri_BH'].Put0($T10, 0, 5);
	Structure['Fumikiri_BC'].Put0($T10, 0, 5);
	Structure['Fumikiri_BR'].Put0($T10, 0, 5);
	Sound3D['Fumikiri'].Put(-2.5, 3.0);


$CAWay + 7360;
		$dist = distance;
		$radius=800;
		$cant=65;
	include 'utility\CurveStart.txt';


$CAWay + 7415;
	//◯●● 1
	Section.BeginNew(0, 2, 4);
	Structure['PoleSL1'].Put(0, -2.6, 0, 0.3, 0, 0, 0, 1, 1.0);
	Signal['type3'].Put(0, 0, -2.6, 4.6, 0.0, 0, 0, 0, 1, 1.0);


$CAWay + 7560;
	//┛ 3.3‰
		$dist = distance;
		$slope=3.3;
	include 'utility\GraUpStart.txt';


$CAWay+7566;
//◎ 新田踏切　153.566?
	Structure['Fumikiri_BL'].Put0($T00, 0, 5);
	Structure['Fumikiri_BC'].Put0($T00, 0, 5);
	Structure['Fumikiri_BM'].Put0($T00, 0, 5);
	Structure['Fumikiri_BH'].Put0($T10, 0, 5);
	Structure['Fumikiri_BC'].Put0($T10, 0, 5);
	Structure['Fumikiri_BR'].Put0($T10, 0, 5);
	Sound3D['Fumikiri'].Put(-2.5, 3.0);


$CAWay + 7660;
		$dist = distance;
	include 'utility\CurveEnd.txt';


$CAWay+8097;
//◎ 小金踏切　154.097?
	Structure['Fumikiri_AL'].Put0($T00, 0, 5);
	Structure['Fumikiri_AC'].Put0($T00, 0, 5);
	Structure['Fumikiri_AM'].Put0($T00, 0, 5);
	Structure['Fumikiri_AH'].Put0($T10, 0, 5);
	Structure['Fumikiri_AC'].Put0($T10, 0, 5);
	Structure['Fumikiri_AR'].Put0($T10, 0, 5);
	Sound3D['Fumikiri'].Put(-2.5, 3.0);


$CAWay + 8260;
	//┓ 3.3‰
		$dist = distance;
		$slope2=-3.3;
	include 'utility\GraDownChange.txt';


$CAWay+8340;
	//◯●●下本場内 (130.7xx)
	Section.BeginNew(0, 2, 4);
	Structure['PoleSL1'].Put(0, -2.8, 0, 0.3, 0, 0, 0, 1, 1.0);
	Signal['type3'].Put(0, 0, -2.6, 6.1, 0.0, 0, 0, 0, 1, 1.0);
	//◯●●下１場内
	Structure['Signal3L0'].Put(0, -3.0, 4.3, 0.0, 0, 0, 0, 1, 1.0);


$CAWay+8397;
//◎ 家政踏切　154.397
	Structure['Fumikiri_BL'].Put0($T00, 0, 5);
	Structure['Fumikiri_BC'].Put0($T00, 0, 5);
	Structure['Fumikiri_BM'].Put0($T00, 0, 5);
	Structure['Fumikiri_BH'].Put0($T10, 0, 5);
	Structure['Fumikiri_BC'].Put0($T10, 0, 5);
	Structure['Fumikiri_BR'].Put0($T10, 0, 5);
	Sound3D['Fumikiri'].Put(-2.5, 3.0);


$CAWay + 8510;
	//━ 0.0‰
		$dist = distance;
	include 'utility\GraDownEnd.txt';


//▼▼▼ 蒲原 (CA11)
$CAWay+8575;
	$RailNo=$T01;
	Track[$RailNo].Position(0.00, 0, -162, 0); // 下1
	Repeater['Rail'+$RailNo+'u'].Begin($RailNo, 0, 0, 0, 0, 0, 0, 3, 5, 5, 'Ballast0', 'Ballast1', 'Ballast2', 'Ballast3', 'Ballast4');
	Repeater['Kasen'+$RailNo].Begin($RailNo, 0, 0, 0, 0, 0, 0, 1, 25, 25, 'KasenS0');
		$dist = distance;
	include 'utility\TongStartL.txt';

	JointNoise.Play(0);


$CAWay+8600;
	Track[$T01].X.Interpolate(-1.90, 162); // 下1
	Repeater['EnePole00'].Begin($T00, -3.80, 0.00, 0.00, 0, 0, 0, 0, 1.0, 50.0, 'Pole2_0');


$CAWay+8620;
//◎ 中道踏切　154.620?
	Structure['Fumikiri_BL'].Put0($T01, 0, 5);
	Structure['Fumikiri_BC'].Put0($T01, 0, 5);
	Structure['Fumikiri_BM'].Put0($T01, 0, 5);
	Structure['Fumikiri_BH'].Put0($T00, 0, 5);
	Structure['Fumikiri_BC'].Put0($T00, 0, 5);
	Structure['Fumikiri_BM'].Put0($T00, 0, 5);
	Structure['Fumikiri_BH'].Put0($T10, 0, 5);
	Structure['Fumikiri_BC'].Put0($T10, 0, 5);
	Structure['Fumikiri_BR'].Put0($T10, 0, 5);
	Sound3D['Fumikiri'].Put(-2.5, 3.0);


$CAWay+8625;
	Track[$T01].X.Interpolate(-3.80, 0); // 下1
	Track[$T10].X.Interpolate( 3.80, 0); // 上本


$CAWay + 8630;
		$dist = distance;
		$radius=-1550;
		$cant=-40;
	include 'utility\CurveStart.txt';


$CAWay+8650;
	Track[$T10].X.Interpolate( 4.00, 1250); // 上本


$CAWay+8700;
	Track[$T10].X.Interpolate( 5.00, 1250); // 上本

	$RailNo=$T11;
	Track[$RailNo].Position(5.00, 0, -240, 0); // 上1
	Repeater['Rail'+$RailNo+'u'].Begin($RailNo, 0, 0, 0, 0, 0, 0, 3, 5, 5, 'Ballast0', 'Ballast1', 'Ballast2', 'Ballast3', 'Ballast4');
	Repeater['Kasen'+$RailNo].Begin($RailNo, 0, 0, 0, 0, 0, 0, 1, 25, 25, 'KasenS0');
		$dist = distance;
	include 'utility\TongStartL.txt';

	Repeater['EnePole00'].Begin($T00, -3.80, 0.00, 0.00, 0, 0, 0, 0, 1.0, 50.0, 'Pole3_0');


$CAWay+8725;
	Track[$T11].X.Interpolate( 4.75, 329); // 上1


$CAWay+8750;
	Track[$T11].X.Interpolate( 4.20, 0); // 上1
	Track[$T10].X.Interpolate( 8.00, 0); // 上本
$CAWay + 8750;
		$dist = distance;
	include 'utility\CurveEnd.txt';


$CAWay+8760;
// [2:3]
	Repeater['Form'+$T00+'R'].Begin($T00, 0, 0, 0, 0, 0, 0, 3, 5.0, 5.0, 'FormR2');
	//Repeater['Form'+$T00+'CR'].Begin($T00, 0, 0, 0, 0, 0, 0, 3, 5.0, 5.0, 'FormCR2');
	Repeater['Form'+$T11+'L'].Begin($T11, 0, 0, 0, 0, 0, 0, 3, 5.0, 5.0, 'FormL2');
	//Repeater['Form'+$T11+'CL'].Begin($T11, 0, 0, 0, 0, 0, 0, 3, 5.0, 5.0, 'FormCL2');
	Structure['FormCR2'].PutBetween($T00, $T11);


$CAWay+8760;
	Structure['FormCR2'].PutBetween($T00, $T11);
$CAWay+8765;
	Structure['FormCR2'].PutBetween($T00, $T11);
$CAWay+8770;
	Structure['FormCR2'].PutBetween($T00, $T11);
$CAWay+8775;
	Structure['FormCR2'].PutBetween($T00, $T11);
$CAWay+8780;
	Structure['FormCR2'].PutBetween($T00, $T11);
$CAWay+8785;
	Structure['FormCR2'].PutBetween($T00, $T11);


$CAWay+8790;
	Structure['FormCR2'].PutBetween($T00, $T11);
// [1]
	Repeater['Form'+$T10+'R'].Begin($T10, 0, 0, 0, 0, 0, 0, 3, 5.0, 5.0, 'FormR2');
	Repeater['Form'+$T10+'CR'].Begin($T10, 0, 0, 0, 0, 0, 0, 3, 5.0, 5.0, 'FormCR2');


$CAWay+8795;
	Structure['FormCR2'].PutBetween($T00, $T11);


$CAWay+8800;
	Track[$T11].X.Interpolate( 7.60, 0); // 上1
	Track[$T10].X.Interpolate(11.40, 0); // 上本
// [2:3]
	Repeater['Form'+$T00+'CR'].Begin($T00, 0, 0, 0, 0, 0, 0, 3, 5.0, 5.0, 'FormCR2');
	Repeater['Form'+$T11+'CL'].Begin($T11, 0, 0, 0, 0, 0, 0, 3, 5.0, 5.0, 'FormCL2');

	Repeater['EnePole00'].Begin($T00, -3.80, 0.00, 0.00, 0, 0, 0, 0, 1.0, 50.0, 'Pole1_0');
	Repeater['EnePole10'].Begin($T10, -3.80, 0.00, 0.00, 0, 0, 0, 0, 1.0, 50.0, 'Pole1_0');
$CAWay + 8800;
		$dist = distance;
		$radius=-960;
		$cant=-50;
	include 'utility\CurveStart.txt';


$CAWay+8950;
	Track[$T11].X.Interpolate( 9.50, -1000); // 上1
	Track[$T10].X.Interpolate(13.30, -1000); // 上本
$CAWay + 8950;
		$dist = distance;
	include 'utility\CurveEnd.txt';


$CAWay + 8975;
// [○B]
	Structure['StaStop08'].Put($T00, 2.3, 3.3, 0, 0, 0, 0, 1, 1.0);
	Structure['StaPole00'].Put($T00, 2.3, 3.3, 0, 0, 180, 0, 1, 1.0);


$CAWay + 8995;
// [○B]
	Structure['StaStop18'].Put($T00, 2.3, 3.3, 0, 0, 0, 0, 1, 1.0);
	Structure['StaPole00'].Put($T00, 2.3, 3.3, 0, 0, 180, 0, 1, 1.0);


$CAWay + 9015;
// [○B]
	Structure['StaStop00'].Put($T00, 2.3, 3.3, 0, 0, 0, 0, 1, 1.0);
	Structure['StaPole00'].Put($T00, 2.3, 3.3, 0, 0, 180, 0, 1, 1.0);


$CAWay+9020;
// [2:3]
	Repeater['Form'+$T00+'R'].End();
	Repeater['Form'+$T00+'CR'].End();
	Repeater['Form'+$T11+'L'].End();
	Repeater['Form'+$T11+'CL'].End();


$CAWay+9050;
	Track[$T11].X.Interpolate( 7.60, 0); // 上1
	Track[$T10].X.Interpolate(11.40, 0); // 上本


$CAWay+9040;
// [1]
	Repeater['Form'+$T10+'R'].End();
	Repeater['Form'+$T10+'CR'].End();


$CAWay + 9060;
		$dist = distance;
		$radius=-1100;
		$cant=-30;
	include 'utility\CurveStart.txt';


$CAWay+9090;
	//◯●●下本出発 (130.7xx)
	Section.BeginNew(0, 2, 4);
	Structure['PoleSL1'].Put($T10, 2.4, 0, 0.3, 0, 0, 0, 1, 1.0);
	Signal['type3'].Put(0, $T10, 2.4, 4.9, 0.0, 0, 0, 0, 1, 1.0);
	//◯●●下１出発
	Structure['PoleSL1'].Put($T01, -2.4, 0, 0.3, 0, 0, 0, 1, 1.0);
	Structure['Signal3L0'].Put($T01, -2.4, 4.3, 0.0, 0, 0, 0, 1, 1.0);


$CAWay+9100;
	Track[$T01].X.Interpolate(-3.80, 162); // 下1
	Repeater['EnePole00'].Begin($T00, -3.80, 0.00, 0.00, 0, 0, 0, 0, 1.0, 50.0, 'Pole3_0');
	Repeater['EnePole10'].End();


$CAWay + 9120;
		$dist = distance;
	include 'utility\CurveEnd.txt';


$CAWay+9125;
	Track[$T01].X.Interpolate(-1.90, -162); // 下1
	Track[$T11].X.Interpolate( 3.80,    0); // 上1
	Track[$T10].X.Interpolate( 7.60,    0); // 上本
	JointNoise.Play(0);


$CAWay+9150;
	$RailNo=$T01;
	Track[$RailNo].Position(0.00, 0, 0, 0); // 下1
	Repeater['Rail'+$RailNo+'u'].End();
	Repeater['Kasen'+$RailNo].End();
		$dist = distance;
	include 'utility\TongEndL.txt';

	Repeater['EnePole00'].Begin($T00, 0.00, 0.00, 0.00, 0, 0, 0, 0, 1.0, 50.0, 'Pole2_0');


$CAWay+9200;
	$RailNo=$T09;
	Track[$RailNo].Position(3.80, 0, -162, 0); // 上1x
	Repeater['Rail'+$RailNo+'u'].Begin($RailNo, 0, 0, 0, 0, 0, 0, 3, 5, 5, 'Ballast0', 'Ballast1', 'Ballast2', 'Ballast3', 'Ballast4');
	Repeater['Kasen'+$RailNo].Begin($RailNo, 0, 0, 0, 0, 0, 0, 1, 25, 25, 'KasenS0');
		$dist = distance;
	include 'utility\TongStartL.txt';

	Track[$T11].X.Interpolate( 3.80, 329); // 上1

$CAWay+9225;
	Track[$T09].X.Interpolate( 1.90, 162); // 上1x
	Track[$T11].X.Interpolate( 4.75,   0); // 上1
	JointNoise.Play(0);


$CAWay+9250;
	$RailNo=$T09;
	Track[$RailNo].Position(0.00, 0, 0, 0); // 上1x
	Repeater['Rail'+$RailNo+'u'].End();
	Repeater['Kasen'+$RailNo].End();
		$dist = distance;
	include 'utility\TongEndR.txt';

	Track[$T11].X.Interpolate( 6.65, -329); // 上1


$CAWay + 9270;
	//┓ 3.3‰
		$dist = distance;
		$slope=-3.3;
	include 'utility\GraDownStart.txt';


$CAWay+9275;
	$RailNo=$T11;
	Track[$RailNo].Position(7.60, 0, 0, 0); // 上1
	Repeater['Rail'+$RailNo+'u'].End();
	Repeater['Kasen'+$RailNo].End();
		$dist = distance;
	include 'utility\TongEndL.txt';


$CAWay+9300;
	Curve.Begin(3000);
	Track[$T10].X.Interpolate( 7.60, -3000); // 上本
	Repeater['EnePole00'].Begin($T10, -7.60, 0.00, 0.00, 0, 0, 0, 0, 1.0, 50.0, 'Pole2_0');
$CAWay + 9300;
	Track['R00'].Position(-78.00, 0, 0, 0); // 道路
	Repeater['RailR00u'].Begin('R00', 0, 0, 0, 0, 0, 0, 3, 10, 10, 'Road02');
	Track['R01'].Position(-70.00, 0, 0, 0); // 道路
	Repeater['RailR01u'].Begin('R01', 0, 0, 0, 0, 0, 0, 3, 10, 10, 'Road02');


$CAWay+9400;
	Curve.Begin(-3000);
	Track[$T10].X.Interpolate( 5.70, 3000); // 上本


$CAWay+9500;
	Curve.End();
	Track[$T10].X.Interpolate( 3.80, 0); // 上本
	Repeater['EnePole00'].Begin($T00, 0.00, 0.00, 0.00, 0, 0, 0, 0, 1.0, 50.0, 'Pole1_0');


//▲▲▲ 蒲原 (CA11)


$CAWay+9650;
	Track['E00'].Position(60.00, 10.0, 1000, 0); // 東名
	Track['E01'].Position(72.00, 10.0, 1000, 0); // 東名
	Repeater['E00u'].Begin('E00', 0.0, 0.0, 0.0, 0, 0, 0, 1, 30.0, 25.0, 'ShintoumeiBridge2');
	Repeater['E01u'].Begin('E01', 0.0, 0.0, 0.0, 0, 0, 0, 1, 30.0, 25.0, 'ShintoumeiBridge2');


$CAWay+9672;
//◎ 神沢踏切　155.672
	Structure['Fumikiri_AL'].Put0($T00, 0, 5);
	Structure['Fumikiri_AC'].Put0($T00, 0, 5);
	Structure['Fumikiri_AM'].Put0($T00, 0, 5);
	Structure['Fumikiri_AH'].Put0($T10, 0, 5);
	Structure['Fumikiri_AC'].Put0($T10, 0, 5);
	Structure['Fumikiri_AR'].Put0($T10, 0, 5);
	Sound3D['Fumikiri'].Put(-2.5, 3.0);


$CAWay + 9700;
	Structure['ShintoumeiPier1'].Put('E01', 0.00, -20.0, 0.0, 0, 0, 0, 0, 1.0);


$CAWay + 9710;
		$dist = distance;
		$radius=-600;
		$cant=-80;
	include 'utility\CurveStart.txt';


$CAWay + 9900;
	Repeater['Dike00L'].Begin(0, -2.75, 1.00, 0.00, 0, 0, 0, 0, 10.0, 10.0, 'DikeRR');


$CAWay + 9950;
	Track['R00'].Position(-21.00, 0, 0, 0); // 道路
	Track['R01'].Position(-13.00, 0, 0, 0); // 道路


$CAWay + 9960;
		$dist = distance;
	include 'utility\CurveEnd.txt';


$CAWay + 10080;
	//━ 0.0‰
		$dist = distance;
	include 'utility\GraDownEnd.txt';


$CAWay + 10220;
		$dist = distance;
		$radius=1600;
		$cant=45;
	include 'utility\CurveStart.txt';


$CAWay + 10300;
	Repeater['Dike00L'].End();


$CAWay + 10350;
	Track['R00'].Position(-28.00, 0, 0, 0); // 道路
	Track['R01'].Position(-20.00, 0, 0, 0); // 道路


$CAWay + 10380;
	//┛ 3.8‰
		$dist = distance;
		$slope=3.8;
	include 'utility\GraUpStart.txt';


$CAWay + 10395;
	//◯●● 2 (130.7xx)
	Section.BeginNew(0, 2, 4);
	Structure['PoleSL1'].Put(0, -2.4, 0, 0.3, 0, 0, 0, 1, 1.0);
	Signal['type3'].Put(0, 0, -2.4, 4.6, 0.0, 0, 0, 0, 1, 1.0);


$CAWay + 10410;
		$dist = distance;
	include 'utility\CurveEnd.txt';


$CAWay + 10450;
	Track['E00'].Position(-66.00, 0, 0, 0); // 東名
	Track['E01'].Position(-54.00, 0, 0, 0); // 東名
	Track['R00'].Position(-36.00, 0, 0, 0); // 道路
	Track['R01'].Position(-28.00, 0, 0, 0); // 道路


$CAWay + 10520;
		$dist = distance;
		$radius=1200;
		$cant=50;
	include 'utility\CurveStart.txt';


$CAWay + 10570;
	Track['D0'].X.Interpolate(0.00, 0); // Dike用
	Repeater['Dike00L'].Begin('D0', -3.10, 2.00, 0.00, 0, 0, 0, 0, 10.0, 10.0, 'DikeRR');


$CAWay + 10750;
	Track['E00'].Position(-62.00, 0, 0, 0); // 東名
	Track['E01'].Position(-50.00, 0, 0, 0); // 東名
	Track['R00'].Position(-25.00, 0, 0, 0); // 道路
	Track['R01'].Position(-17.00, 0, 0, 0); // 道路


$CAWay + 10770;
		$dist = distance;
	include 'utility\CurveEnd.txt';


$CAWay + 10780;
	Track['D0'].X.Interpolate(-8.00, 0); // Dike用
	Repeater['Dike00L'].End();
	Structure['DikeRR'].Put(0, -2.20, 2.00, 0.00, 0, -90, 0, 0, 1.0);
$CAWay + 10780;
	//━ 0.0‰
		$dist = distance;
	include 'utility\GraUpEnd.txt';
$CAWay+10780;
//＊＊＊ 由比川 99.5
	RollingNoise.Change(3);
	Repeater['Rail00u'].End();
	Repeater['Bridge00'].Begin(0, 0, 0, 5.0, 0, 0, 0, 3, 5, 5, 'Bridge01');
	Repeater['Bridge_Makuragi0'].Begin(0, 0, 0, 2.0, 0, 0, 0, 3, 2, 2, 'Bridge_Makuragi');
	Repeater['Rail10u'].End();
	Repeater['Bridge10'].Begin('10', 0, 0, 5.0, 0, 0, 0, 3, 5, 5, 'Bridge01');
	Repeater['Bridge_Makuragi10'].Begin('10', 0, 0, 2.0, 0, 0, 0, 3, 2, 2, 'Bridge_Makuragi');
	Repeater['BridgeuL'].Begin(0, 0, 0, 5.0, 0, 0, 0, 3, 5.0, 5.0, 'BridgeSGL0');
	Repeater['BridgeuR'].Begin($T10, 0, 0, 5.0, 0, 0, 0, 3, 5.0, 5.0, 'BridgeSGR0');
$CAWay+10780;
		$dist = distance;
		$riverlen=100;
	include 'utility\River2.txt';


$CAWay+10880;
//＊＊＊
	RollingNoise.Change(0);
	Repeater['Rail00u'].Begin(0, 0, 0, 0, 0, 0, 0, 3, 5.0, 5.0, 'Ballast0', 'Ballast1', 'Ballast2', 'Ballast3', 'Ballast4');
	Repeater['Bridge00'].End();
	Repeater['Bridge_Makuragi0'].End();
	Repeater['Rail10u'].Begin('10', 0, 0, 0, 0, 0, 0, 3, 5.0, 5.0, 'Ballast0', 'Ballast1', 'Ballast2', 'Ballast3', 'Ballast4');
	Repeater['Bridge10'].End();
	Repeater['Bridge_Makuragi10'].End();
	Repeater['BridgeuL'].End();
	Repeater['BridgeuR'].End();
$CAWay + 10880;
	Track['D0'].X.Interpolate(-8.00, 0); // Dike用
	Repeater['Dike00L'].Begin('D0', -3.10, 2.00, 0.00, 0, 0, 0, 0, 10.0, 10.0, 'DikeRR');
	Structure['DikeRR'].Put(0, -12.20, 2.00, 0.00, 0, 90, 0, 0, 1.0);
$CAWay + 10880;
	//┓ 3.8‰
		$dist = distance;
		$slope=-3.8;
	include 'utility\GraDownStart.txt';


$CAWay + 11099;
	//◯●● 1 (130.7xx)
	Section.BeginNew(0, 2, 4);
//	Structure['PoleSL1'].Put(0, -2.4, 0, 0.3, 0, 0, 0, 1, 1.0);
	Signal['type3'].Put(0, 0, -2.4, 4.6, 0.0, 0, 0, 0, 1, 1.0);


$CAWay + 11000;
	Track['E00'].Position(-62.00, 0, 0, 0); // 東名
	Track['E01'].Position(-50.00, 0, 0, 0); // 東名
	Track['R00'].Position(-23.00, 0, 0, 0); // 道路
	Track['R01'].Position(-15.00, 0, 0, 0); // 道路
$CAWay + 11000;
	Track['D0'].X.Interpolate(0.00, 0); // Dike用
	Repeater['Dike00L'].Begin(0, -3.10, 2.00, 0.00, 0, 0, 0, 0, 10.0, 10.0, 'DikeRR');


$CAWay + 11280;
	//━ 0.0‰
		$dist = distance;
	include 'utility\GraDownEnd.txt';
$CAWay + 11280;
	Repeater['Dike00L'].Begin(0, -3.35, 3.00, 0.00, 0, 0, 0, 0, 10.0, 10.0, 'DikeRR');


$CAWay + 11600;
	Repeater['Dike00L'].End();
$CAWay + 11600;
	Track['R00'].Position(-19.00, 0, 0, 0); // 道路
	Track['R01'].Position(-11.00, 0, 0, 0); // 道路
	Track['Mt1'].Position(300.00, 0, 0, 0); // 山
	Repeater['Mt1R'].Begin('Mt1', 0.00, -5.00, 0.00, 0, 0, 0, 0, 50.0, 50.0, 'Mt_R');


$CAWay + 11620;
		$dist = distance;
		$radius=-400;
		$cant=-80;
	include 'utility\CurveStart.txt';


$CAWay + 11690;
	//◯●●下本場内 (130.7xx)
	Section.BeginNew(0, 2, 4);
	Structure['PoleSL1'].Put($T10, 2.6, 0, 0.3, 0, 0, 0, 1, 1.0);
	Signal['type3'].Put(0, $T10, 2.8, 5.6, 0.0, 0, 0, 0, 1, 1.0);
	//◯●●下１場内
	Structure['Signal3L0'].Put($T10, 2.4, 4.3, 0.0, 0, 0, 0, 1, 1.0);


$CAWay + 11700;
	Repeater['Dike00L'].Begin(0, -2.85, 1.00, 0.00, 0, 0, 0, 0, 10.0, 10.0, 'DikeRR');


$CAWay + 11850;
	Track['R00'].Position(-19.00, 0, 0, 0); // 道路
	Track['R01'].Position(-11.00, 0, 0, 0); // 道路


$CAWay + 11880;
		$dist = distance;
	include 'utility\CurveEnd.txt';


$CAWay + 11900;
	Track['Mt1'].Position(90.00, 0, 0, 0); // 山


//▼▼▼ 由比 (CA12)
$CAWay + 12000;
	$RailNo=$T11;
	Track[$RailNo].Position(3.80, 0, 162, 0); // 上1
	Repeater['Rail'+$RailNo+'u'].Begin($RailNo, 0, 0, 0, 0, 0, 0, 3, 5, 5, 'Ballast0', 'Ballast1', 'Ballast2', 'Ballast3', 'Ballast4');
	Repeater['Kasen'+$RailNo].Begin($RailNo, 0, 0, 0, 0, 0, 0, 1, 25, 25, 'KasenS0');
		$dist = distance;
	include 'utility\TongStartL.txt';


$CAWay + 12010;
	Repeater['Dike00L'].End();


$CAWay + 12025;
	$RailNo=$T09;
	Track[$RailNo].Position(3.80, 0, -162, 0); // 上1x
	Repeater['Rail'+$RailNo+'u'].Begin($RailNo, 0, 0, 0, 0, 0, 0, 3, 5, 5, 'Ballast0', 'Ballast1', 'Ballast2', 'Ballast3', 'Ballast4');
	Repeater['Kasen'+$RailNo].Begin($RailNo, 0, 0, 0, 0, 0, 0, 1, 25, 25, 'KasenS0');
		$dist = distance;
	include 'utility\TongStartL.txt';

	Track[$T10].X.Interpolate(3.80,    0); // 上本
	Track[$T11].X.Interpolate(5.70, -162); // 上1

	Repeater['EnePole00'].Begin($T00, 0.00, 0.00, 0.00, 0, 0, 0, 0, 1.0, 25.0, 'Pole2_0');


$CAWay + 12050;
	Track[$T09].X.Interpolate(2.85, 0); // 上1x
	Track[$T11].X.Interpolate(7.60, 0); // 上1


$CAWay + 12075;
	Track[$T09].X.Interpolate(0.95, 329); // 上1x
	JointNoise.Play(0);


$CAWay + 12080;
		$dist = distance;
		$radius=-3000;
		$cant=-10;
	include 'utility\CurveStart.txt';


$CAWay + 12090;
	//┛ 2.3‰
		$dist = distance;
		$slope=2.3;
	include 'utility\GraUpStart.txt';


$CAWay + 12100;
	$RailNo=$T01;
	Track[$RailNo].Position(0.00, 0, -162, 0); // 下1
	Repeater['Rail'+$RailNo+'u'].Begin($RailNo, 0, 0, 0, 0, 0, 0, 3, 5, 5, 'Ballast0', 'Ballast1', 'Ballast2', 'Ballast3', 'Ballast4');
	Repeater['Kasen'+$RailNo].Begin($RailNo, 0, 0, 0, 0, 0, 0, 1, 25, 25, 'KasenS0');
		$dist = distance;
	include 'utility\TongStartL.txt';

	$RailNo=$T09;
	Track[$RailNo].Position(0.00, 0, 0, 0); // 上1x
	Repeater['Rail'+$RailNo+'u'].End();
	Repeater['Kasen'+$RailNo].End();
		$dist = distance;
	include 'utility\TongEndL.txt';

	JointNoise.Play(0);


$CAWay + 12120;
		$dist = distance;
	include 'utility\CurveEnd.txt';


$CAWay + 12125;
	Track[$T01].X.Interpolate(-1.90, 162); // 下1
	Repeater['EnePole00'].Begin($T00, -3.80, 0.00, 0.00, 0, 0, 0, 0, 1.0, 50.0, 'Pole1_0');
	Repeater['EnePole10'].Begin($T10, 0.00, 0.00, 0.00, 0, 0, 0, 0, 1.0, 50.0, 'Pole1_0');


$CAWay + 12150;
	Track[$T01].X.Interpolate(-3.80, 0); // 下1
	Repeater['EnePole00'].Begin($T00, -5.70, 0.00, 0.00, 0, 0, 0, 0, 1.0, 50.0, 'Pole2_0');
	Repeater['EnePole10'].Begin($T10, 0.00, 0.00, 0.00, 0, 0, 0, 0, 1.0, 50.0, 'Pole1_0');


$CAWay + 12180;
// [4]
	Repeater['Form'+$T01+'L'].Begin($T01, 0, 0, 0, 0, 0, 0, 3, 5.0, 5.0, 'FormL2');
	Repeater['Form'+$T01+'CL'].Begin($T01, 0, 0, 0, 0, 0, 0, 3, 5.0, 5.0, 'FormCL2');


$CAWay + 12190;
	Track[$T10].X.Interpolate( 8.55, 0); // 上本
	Track[$T11].X.Interpolate(12.35, 0); // 上1
// [3]
	Repeater['Form'+$T00+'R'].Begin($T00, 0, 0, 0, 0, 0, 0, 3, 5.0, 5.0, 'FormR2');
//	Repeater['Form'+$T00+'CR'].Begin($T00, 0, 0, 0, 0, 0, 0, 3, 5.0, 5.0, 'FormCR2');
$CAWay + 12190;
		$dist = distance;
		$radius=1600;
		$cant=20;
	include 'utility\CurveStart.txt';


$CAWay + 12210;
	Track['E00'].Position(-94.00, 0, 0, 0); // 東名
	Track['E01'].Position(-82.00, 0, 0, 0); // 東名
	Track['R00'].Position(-48.00, 0, 0, 0); // 道路
	Track['R01'].Position(-40.00, 0, 0, 0); // 道路


$CAWay + 12210;
// [2:3]
	Repeater['Form'+$T00+'CR'].Begin($T00, 0, 0, 0, 0, 0, 0, 3, 5.0, 5.0, 'FormCR2');
	Repeater['Form'+$T10+'L'].Begin($T10, 0, 0, 0, 0, 0, 0, 3, 5.0, 5.0, 'FormL2');
	Repeater['Form'+$T10+'CL'].Begin($T10, 0, 0, 0, 0, 0, 0, 3, 5.0, 5.0, 'FormCL2');


$CAWay + 12230;
	Track[$T10].X.Interpolate( 9.50, 0); // 上本
	Track[$T11].X.Interpolate(13.30, 0); // 上1
$CAWay + 12230;
		$dist = distance;
	include 'utility\CurveEnd.txt';


$CAWay + 12280;
// [1]
	Repeater['Form'+$T11+'R'].Begin($T11, 0, 0, 0, 0, 0, 0, 3, 5.0, 5.0, 'FormR2');
	Repeater['Form'+$T11+'CR'].Begin($T11, 0, 0, 0, 0, 0, 0, 3, 5.0, 5.0, 'FormCR2');


$CAWay + 12390;
// [○B]
	Structure['StaStop04'].Put($T00, 2.3, 3.3, 0, 0, 0, 0, 1, 1.0);
	Structure['StaPole00'].Put($T00, 2.3, 3.3, 0, 0, 180, 0, 1, 1.0);


$CAWay + 12410;
// [○B]
	Structure['StaStop08'].Put($T00, 2.3, 3.3, 0, 0, 0, 0, 1, 1.0);
	Structure['StaPole00'].Put($T00, 2.3, 3.3, 0, 0, 180, 0, 1, 1.0);


$CAWay + 12430;
// [○B]
	Structure['StaStop09'].Put($T00, 2.3, 3.3, 0, 0, 0, 0, 1, 1.0);
	Structure['StaPole00'].Put($T00, 2.3, 3.3, 0, 0, 180, 0, 1, 1.0);


$CAWay + 12450;
// [○B]
	Structure['StaStop00'].Put($T00, 2.3, 3.3, 0, 0, 0, 0, 1, 1.0);
	Structure['StaPole00'].Put($T00, 2.3, 3.3, 0, 0, 180, 0, 1, 1.0);


$CAWay + 12455;
// [4][2:3]
	Repeater['Form'+$T01+'L'].End();
	Repeater['Form'+$T01+'CL'].End();
	Repeater['Form'+$T00+'R'].End();
	Repeater['Form'+$T00+'CR'].End();
	Repeater['Form'+$T10+'L'].End();
	Repeater['Form'+$T10+'CL'].End();


$CAWay + 12500;
	//┓ 2.3‰
		$dist = distance;
		$slope2=-2.3;
	include 'utility\GraDownChange.txt';


$CAWay + 12515;
// [1]
	Repeater['Form'+$T11+'R'].End();
	Repeater['Form'+$T11+'CR'].End();


$CAWay + 12550;
	Track[$T10].X.Interpolate( 7.60, 0); // 上本
	Track[$T11].X.Interpolate(11.40, 0); // 上1


$CAWay + 12560;
		$dist = distance;
		$radius=-1500;
		$cant=-40;
	include 'utility\CurveStart.txt';


$CAWay + 12550;
	Track[$T11].X.Interpolate(11.40, -162); // 上1


$CAWay + 12575;
	Track[$T11].X.Interpolate(9.50, 162); // 上1


$CAWay + 12600;
	Track[$T10].X.Interpolate(7.60, 0); // 上本

	$RailNo=$T11;
	Track[$RailNo].Position(7.60, 0, 0, 0); // 上1
	Repeater['Rail'+$RailNo+'u'].End();
	Repeater['Kasen'+$RailNo].End();
		$dist = distance;
	include 'utility\TongEndR.txt';

	Repeater['EnePole00'].Begin($T00, -3.80, 0.00, 0.00, 0, 0, 0, 0, 1.0, 50.0, 'Pole3_0');
	Repeater['EnePole10'].End();


$CAWay + 12650;
	Track[$T01].X.Interpolate(-3.80, 329); // 下1


$CAWay + 12660;
	Repeater['Wall00'].Begin(0, 0.00, 0.00, 0.00, 0, 0, 0, 3, 10.0, 10.0, 'CA12_CT1');
	CabIlluminance.Interpolate(1);
	Repeater['EnePole00'].End();
$CAWay + 12665;
	CabIlluminance.Interpolate(0);


$CAWay + 12670;
	//◯●●下本出発 (130.7xx)
	Section.BeginNew(0, 2, 4);
	Signal['type3'].Put(0, 0, 1.9, 6.2, 0.0, 0, 0, 0, 0, 1.0);
	//◯●●下１出発
	Structure['Signal3L0'].Put($T01, 1.9, 6.2, 0.0, 0, 0, 0, 0, 1.0);


$CAWay + 12675;
	Track[$T01].X.Interpolate(-2.85, 0); // 下1


$CAWay + 12700;
	Track[$T01].X.Interpolate(-0.95, -329); // 下1
	JointNoise.Play(0);


$CAWay + 12710;
	Repeater['Wall00'].Begin(0, 0.00, 0.00, 0.00, 0, 0, 0, 3, 10.0, 10.0, 'CA12_CT2');


$CAWay + 12725;
	$RailNo=$T01;
	Track[$RailNo].Position(0.00, 0, 0, 0); // 下1
	Repeater['Rail'+$RailNo+'u'].End();
	Repeater['Kasen'+$RailNo].End();
		$dist = distance;
	include 'utility\TongEndL.txt';

//▲▲▲ 由比 (CA12)


$CAWay + 12800;
	Track['E00'].Position(-84.00, 0, 0, 0); // 東名
	Track['E01'].Position(-72.00, 0, 0, 0); // 東名
	Track['R00'].Position(-50.00, 0, 0, 0); // 道路
	Track['R01'].Position(-42.00, 0, 0, 0); // 道路


$CAWay + 12845;
	CabIlluminance.Interpolate(0);
$CAWay + 12850;
	Repeater['Wall00'].End();
	CabIlluminance.Interpolate(1);


$CAWay + 12900;
	Repeater['EnePole00'].Begin($T00, 0.00, 0.00, 0.00, 0, 0, 0, 0, 1.0, 50.0, 'Pole1_0');
$CAWay + 12900;
	//┓ 1.0‰
		$dist = distance;
		$slope2=-1.0;
	include 'utility\GraDownChange.txt';


$CAWay + 12910;
	Track[$T10].X.Interpolate(3.80, 0); // 上本
$CAWay + 12910;
		$dist = distance;
	include 'utility\CurveEnd.txt';


$CAWay + 12920;
	Track['R90'].Position(12.00, 0, 0, 0); // 側道
	Repeater['R90u'].Begin('R90', 0.00, 0.00, 0.00, 0, 0, 0, 3, 10.0, 10.0, 'Road01');


$CAWay + 13300;
	Track['E00'].Position(-52.00, 0, 0, 0); // 東名
	Track['E01'].Position(-40.00, 0, 0, 0); // 東名
	Track['R00'].Position(-20.00, 0, 0, 0); // 道路
	Track['R01'].Position(-12.00, 0, 0, 0); // 道路


$CAWay + 13300;
	//━ 0.0‰
		$dist = distance;
	include 'utility\GraDownEnd.txt';


$CAWay + 13320;
		$dist = distance;
		$radius=-2500;
		$cant=-30;
	include 'utility\CurveStart.txt';


$CAWay + 13340;
	Track['R90'].X.Interpolate(12.00, 0); // 側道
	Repeater['R90u'].End();


$CAWay + 13430;
		$dist = distance;
	include 'utility\CurveEnd.txt';


$CAWay + 13530;
		$dist = distance;
		$radius=-1200;
		$cant=-45;
	include 'utility\CurveStart.txt';


$CAWay + 13660;
	//◯●● 3 (130.7xx)
	Section.BeginNew(0, 2, 3, 4);
	Structure['PoleSL1'].Put($T10, 2.6, 0, 0.3, 0, 0, 0, 1, 1.0);
	Signal['type1'].Put(0, $T10, 2.8, 4.6, 0.0, 0, 0, 0, 1, 1.0);


$CAWay + 13690;
		$dist = distance;
	include 'utility\CurveEnd.txt';


$CAWay+13747;
//◎ 東倉沢踏切　159.747
	Structure['Fumikiri_BL'].Put0($T00, 0, 5);
	Structure['Fumikiri_BC'].Put0($T00, 0, 5);
	Structure['Fumikiri_BM'].Put0($T00, 0, 5);
	Structure['Fumikiri_BH'].Put0($T10, 0, 5);
	Structure['Fumikiri_BC'].Put0($T10, 0, 5);
	Structure['Fumikiri_BR'].Put0($T10, 0, 5);
	Sound3D['Fumikiri'].Put(-2.5, 3.0);


$CAWay + 13750;
	Track['E00'].Position(-62.00, 0, 0, 0); // 東名
	Track['E01'].Position(-50.00, 0, 0, 0); // 東名


$CAWay + 13820;
	Curve.Begin(-3000);


$CAWay + 13960;
	Curve.End();


$CAWay + 14000;
	//┛ 1.7‰
		$dist = distance;
		$slope=1.7;
	include 'utility\GraUpStart.txt';


$CAWay + 14100;
	Track['Mt1'].Position(60.00, 0, 0, 0); // 山


$CAWay + 14185;
	Track['C91'].Position(15.50, 5.00); // 側道
	Repeater['C91u'].Begin('C91', 0.00, 0.00, 0.00, 0, 0, 0, 3, 10.0, 10.0, 'Road01');
	Repeater['DikeC91L'].Begin('C91', -0.20, 0.50, 0, 0, 0, 0, 3, 10.0, 10.0, 'DikeL2');


$CAWay + 14275;
	Track['E00'].Position(-72.00, 0, 0, 0); // 東名
	Track['E01'].Position(-60.00, 0, 0, 0); // 東名
	Track['Mt1'].Position( 10.00, 0, 0, 0); // 山


$CAWay + 14285;
	Track['C91'].Position(10.50, 0); // 側道
	Repeater['C91u'].End();
	Repeater['DikeC91L'].End();
$CAWay+14285;
//◎ 倉沢踏切　160.288
	Structure['Fumikiri_AL'].Put0($T00, 0, 5);
	Structure['Fumikiri_AC'].Put0($T00, 0, 5);
	Structure['Fumikiri_AM'].Put0($T00, 0, 5);
	Structure['Fumikiri_AH'].Put0($T10, 0, 5);
	Structure['Fumikiri_AC'].Put0($T10, 0, 5);
	Structure['Fumikiri_AR'].Put0($T10, 0, 5);
	Sound3D['Fumikiri'].Put(-2.5, 3.0);


$CAWay+14290;
	Repeater['Dike10'].Begin($T10, 5.0, 8.0, 0.0, 0, 0, 0, 1, 10.0, 10.0, 'DikeWL');
	Structure['DikeWL'].Put($T10, 5.0, 8.0, 0.0, 0, 90, 0, 1, 1.0);
	Track['R00'].Position(-18.00, 0, 0, 0); // 道路
	Track['R01'].Position(-10.00, 0, 0, 0); // 道路


$CAWay + 14420;
		$dist = distance;
		$radius=500;
		$cant=80;
	include 'utility\CurveStart.txt';


$CAWay + 14500;
	Track['E00'].Position(-58.00, 0, 0, 0); // 東名
	Track['E01'].Position(-46.00, 0, 0, 0); // 東名


$CAWay + 14550;
	Repeater['DikeR00L'].Begin('R00', -5.00, 2.00, 0.00, 0, 0, 0, 0, 10.0, 10.0, 'DikeRR');


$CAWay + 14610;
	//┓ 1.7‰
		$dist = distance;
		$slope2=-1.7;
	include 'utility\GraDownChange.txt';


$CAWay + 14690;
		$dist = distance;
	include 'utility\CurveEnd.txt';


$CAWay + 14750;
	Repeater['DikeR00L'].End();


$CAWay + 14890;
	//◯●● 2 (130.7xx)
	Section.BeginNew(0, 2, 4);
	Structure['PoleSL1'].Put(0, -2.6, 0, 0.3, 0, 0, 0, 1, 1.0);
	Signal['type3'].Put(0, 0, -2.6, 4.6, 0.0, 0, 0, 0, 1, 1.0);


$CAWay + 14900;
	Track['E00'].Position(-88.00, 0, 550, 0); // 東名
	Track['E01'].Position(-76.00, 0, 550, 0); // 東名
	Track['R00'].Position(-18.00, 0, 0, 0); // 道路
	Track['R01'].Position(-10.00, 0, 0, 0); // 道路


$CAWay + 14910;
	//━ 0.0‰
		$dist = distance;
	include 'utility\GraDownEnd.txt';


$CAWay + 15000;
// 海未
	Repeater['Ground'].Begin('Height', 115,  0, 0, 0, 0, 0, 1, 25, 25, 'Grass');
	Repeater['Ground2'].Begin('Height',  0, -2, 0, 0, 0, 0, 1, 25, 25, 'River');
$CAWay + 15000;
	Structure['ShintoumeiPier1'].Put('E00', 0.00, -20.0, 0.0, 0, 0, 0, 0, 1.0);
	Structure['ShintoumeiPier1'].Put('E01', 0.00, -20.0, 0.0, 0, 0, 0, 0, 1.0);


$CAWay + 15050;
	Structure['ShintoumeiPier1'].Put('E00', 0.00, -20.0, 0.0, 0, 0, 0, 0, 1.0);
	Structure['ShintoumeiPier1'].Put('E01', 0.00, -20.0, 0.0, 0, 0, 0, 0, 1.0);


$CAWay + 15070;
		$dist = distance;
		$radius=-600;
		$cant=-80;
	include 'utility\CurveStart.txt';


$CAWay + 15100;
	Repeater['DikeR00'].Begin('R00', -12.0, 1.0, 0.0, 0, 0, 0, 1, 10.0, 10.0, 'DikeRR');
	Structure['ShintoumeiPier1'].Put('E00', 0.00, -20.0, 0.0, 0, 0, 0, 0, 1.0);
	Structure['ShintoumeiPier1'].Put('E01', 0.00, -20.0, 0.0, 0, 0, 0, 0, 1.0);


$CAWay + 15150;
	Structure['ShintoumeiPier1'].Put('E00', 0.00, -20.0, 0.0, 0, 0, 0, 0, 1.0);
	Structure['ShintoumeiPier1'].Put('E01', 0.00, -20.0, 0.0, 0, 0, 0, 0, 1.0);


$CAWay + 15200;
	Structure['ShintoumeiPier1'].Put('E00', 0.00, -20.0, 0.0, 0, 0, 0, 0, 1.0);
	Structure['ShintoumeiPier1'].Put('E01', 0.00, -20.0, 0.0, 0, 0, 0, 0, 1.0);


$CAWay + 15290;
//東名
	Track['E00'].Position(-40.00, 10.0, 550, 0); // 東名
	Track['E01'].Position(  0.00, 10.0, 550, 0); // 東名
	Structure['ShintoumeiPier1'].Put('E00',  0.00, -20.0, -3.0, 0, 0, 0, 0, 1.0);
	Structure['ShintoumeiPier1'].Put('E01', -6.00, -20.0, -3.0, 0, 0, 0, 0, 1.0);


$CAWay+15300;
	Repeater['Dike10'].Begin($T10, 4.5, 6.0, 0.0, 0, 0, 0, 1, 10.0, 10.0, 'DikeWL');
	Track['R00'].Position(-24.00, 0, 0, 0); // 道路
	Track['R01'].Position(-16.00, 0, 0, 0); // 道路


$CAWay + 15310;
	//┓ 0.8‰
		$dist = distance;
		$slope=-0.8;
	include 'utility\GraDownStart.txt';


$CAWay + 15320;
//東名上り
	Track['E00'].Position( 0.00, 10.0, 0, 0); // 東名
	Track['E01'].Position(50.00, 10.0, 0, 0); // 東名
	Structure['ShintoumeiPier1'].Put('E00', -6.00, -20.0, -3.0, 0, 0, 0, 0, 1.0);
	Repeater['E01u'].End();


$CAWay+15350;
	Track['E00'].Position(42.00, 10.0, 0, 0); // 東名
	Repeater['E00u'].End();


$CAWay+15380;
	Repeater['Dike10'].Begin($T10, 5.0, 8.0, 0.0, 0, 0, 0, 1, 10.0, 10.0, 'DikeWL');


$CAWay + 15400;
	Track['R00'].Position(-20.00, 0, 0, 0); // 道路
	Track['R01'].Position(-12.00, 0, 0, 0); // 道路


$CAWay + 15409;
		$dist = distance;
	include 'utility\CurveEnd.txt';


$CAWay + 15410;
		$dist = distance;
		$radius=400;
		$cant=80;
	include 'utility\CurveStart.txt';


$CAWay+15500;
// R->100m H->90m
// 薩た峠展望台


$CAWay+15680;
	Repeater['Dike10'].Begin($T10, 11.0, 8.0, 0.0, 0, 0, 0, 1, 10.0, 10.0, 'DikeWL');


$CAWay+15690;
	Repeater['Dike10'].Begin($T10, 5.0, 8.0, 0.0, 0, 0, 0, 1, 10.0, 10.0, 'DikeWL');


$CAWay + 15709;
		$dist = distance;
	include 'utility\CurveEnd.txt';


$CAWay + 15710;
		$dist = distance;
		$radius=-400;
		$cant=-80;
	include 'utility\CurveStart.txt';


$CAWay + 15770;
	//┓ 1.5‰
		$dist = distance;
		$slope2=-1.5;
	include 'utility\GraDownChange.txt';


$CAWay + 15930;
		$dist = distance;
	include 'utility\CurveEnd.txt';


$CAWay+15950;
	Track[$T10].X.Interpolate(3.80, 0);
	Repeater['Dike11'].Begin($T10, 7.0, 10.0, 0.0, 0, 0, 0, 1, 10.0, 10.0, 'DikeCL');
	Structure['CrackR0'].PutBetween($T00, $T10);


$CAWay + 15960;
	//━ 0.0‰
		$dist = distance;
	include 'utility\GraDownEnd.txt';
$CAWay+15960;
	Repeater['Dike10'].End();
	Track['R00'].Position(-20.00, 0, 0, 0); // 道路
	Track['R01'].Position(-12.00, 0, 0, 0); // 道路


$CAWay+15975;
	Structure['CrackR0'].PutBetween($T00, $T10);


$CAWay + 15990;
		$dist = distance;
		$radius=400;
		$cant=70;
	include 'utility\CurveStart.txt';


$CAWay+16000;
	Repeater['EnePole00'].Begin($T00, 0.00, 0.00, 0.00, 0, 0, 0, 0, 1.0, 50.0, 'Pole2_0');
	Repeater['Dike10'].Begin($T10, 4.5, 10.0, 0.0, 0, 0, 0, 1, 10.0, 10.0, 'DikeWL');
	Repeater['Dike11'].End();
	Structure['CrackR0'].PutBetween($T00, $T10);


$CAWay + 16010;
	//◯●● 1 (130.7xx)
	Section.BeginNew(0, 2, 4);
	Structure['PoleSL1'].Put(0, 2.8, 0, 0.3, 0, 0, 0, 1, 1.0);
	Signal['type3'].Put(0, 0, 2.8, 4.6, 0.0, 0, 0, 0, 1, 1.0);


$CAWay + 16020;
	Track[$T10].X.Interpolate(9.50, 0);
	Structure['DikeWL'].Put(0, 5.0, 8.0, 0.0, 0, 0, 0, 1, 10.0);
	Repeater['Dike10'].End();

	Structure['Mt_Wall10a'].Put($T10, 1.00, 6.00, 0.50, 0, 0, 0, 1, 10.0);
	Structure['1go_c1_Potal1'].Put($T10, 0, -0.3, 0, 0, 0, 0, 1, 1);
	Repeater['Wall10L'].Begin($T10, 0, -0.3, 0, 0, 0, 0, 3, 5.0, 5.0, '1go_c1_lp');
	Repeater['Wall10R'].Begin($T10, 0,  0.0, 0, 0, 0, 0, 3, 5.0, 5.0, '1go_c1_lp');
	//Repeater['Rail10u'].End();

	Track['R00'].Position(-22.00, 0, 0, 0); // 道路
	Track['R01'].Position(-14.00, 0, 0, 0); // 道路


$CAWay + 16030;
;//●□● [xx]洞第一 97
	Repeater['EnePole00'].End();
	Structure['Mt_Wall10a'].Put(0, 0.00, 6.00, 0.50, 0, 0, 0, 1, 10.0);
		$dist = distance;
	include 'utility\SingleTunnelStart.txt';


$CAWay + 16130;
;//○□○ [xx]洞第一
		$dist = distance;
	include 'utility\SingleTunnelEnd.txt';

	Repeater['Dike00L'].Begin(0, -2.85, 1.00, 0.00, 0, 0, 0, 0, 10.0, 10.0, 'DikeRR');
	Repeater['Dike00R'].Begin(0,  5.00, 8.00, 0.00, 0, 0, 0, 0, 10.0, 10.0, 'DikeWL');
	Structure['DikeWL'].Put(0, 5.0, 8.0, 0.0, 0, 0, 0, 1, 10.0);

$CAWay + 16150;
	Track['R00'].Position(-33.00, 0, 0, 0); // 道路
	Track['R01'].Position(-25.00, 0, 0, 0); // 道路


$CAWay + 16160;
		$dist = distance;
	include 'utility\CurveEnd.txt';
$CAWay + 16160;
	Repeater['Dike00L'].End();
	Repeater['Dike00R'].End();
$CAWay + 16160;
;//●□● [xx]洞第二 xxx
	Repeater['EnePole00'].End();
	Structure['Mt_Wall10a'].Put(0, 0.00, 6.00, 0.50, 0, 0, 0, 1, 10.0);
	Structure['Mt_Wall10a'].Put(0, 6.00, 7.00, 0.55, 0, 0, 0, 1, 10.0);
		$dist = distance;
	include 'utility\SingleTunnelStart.txt';


$CAWay + 16300;
	Repeater['Ground'].Begin('Height',  0, 0, 0, 0, 0, 0, 1, 25, 25, 'Grass');
	Repeater['Ground2'].End();
	Structure['CrackR0'].PutBetween($T00, $T10);


$CAWay + 16310;
;//○□○ [xx]洞第二
		$dist = distance;
	include 'utility\SingleTunnelEnd.txt';
$CAWay + 16310;
	Track[$T10].X.Interpolate(11.40, 0);
	Repeater['Wall10L'].End();
	Repeater['Wall10R'].End();
	Repeater['Mt1R'].End();
	Repeater['Dike00L'].Begin(0, -2.85, 1.00, 0.00, 0, 0, 0, 0, 10.0, 10.0, 'DikeRR');


$CAWay + 16300;
	//┛ 3.3‰
		$dist = distance;
		$slope=3.3;
	include 'utility\GraUpStart.txt';


$CAWay + 16325;
	Repeater['EnePole00'].Begin($T00, 0.00, 0.00, 0.00, 0, 0, 0, 0, 1.0, 25.0, 'Pole3_0');
	Structure['CrackR0'].PutBetween($T00, $T10);


$CAWay+16350;
	Structure['CrackR0'].PutBetween($T00, $T10);


$CAWay+16375;
	Structure['CrackR0'].PutBetween($T00, $T10);


$CAWay + 16380;
		$dist = distance;
		$radius=500;
		$cant=70;
	include 'utility\CurveStart.txt';


$CAWay + 16400;
	Repeater['Dike00L'].End();
	Structure['CrackR0'].PutBetween($T00, $T10);


$CAWay+16425;
	Structure['CrackR0'].PutBetween($T00, $T10);


$CAWay + 16450;
	Repeater['EnePole00'].Begin($T00, 0.00, 0.00, 0.00, 0, 0, 0, 0, 1.0, 25.0, 'Pole2_0');
	Structure['CrackR0'].PutBetween($T00, $T10);


$CAWay+16500;
	Track['R00'].Position(-18.00, 0, 0, 0); // 道路
	Track['R01'].Position(-10.00, 0, 0, 0); // 道路
	Structure['CrackR0'].PutBetween($T00, $T10);


$CAWay+16625;
	Structure['CrackR0'].PutBetween($T00, $T10);


$CAWay+16550;
	Structure['CrackR0'].PutBetween($T00, $T10);


$CAWay+16575;
	Structure['CrackR0'].PutBetween($T00, $T10);


$CAWay + 16600;
	Repeater['EnePole00'].Begin($T00, 0.00, 0.00, 0.00, 0, 0, 0, 0, 1.0, 25.0, 'Pole1_0');
	Structure['CrackR0'].PutBetween($T00, $T10);


$CAWay+16620;
	Track[$T10].X.Interpolate(3.80, 0);


$CAWay+16630;
//◎ 洞踏切　162.630?
	Structure['Fumikiri_AL'].Put0($T00, 0, 5);
	Structure['Fumikiri_AC'].Put0($T00, 0, 5);
	Structure['Fumikiri_AM'].Put0($T00, 0, 5);
	Structure['Fumikiri_AH'].Put0($T10, 0, 5);
	Structure['Fumikiri_AC'].Put0($T10, 0, 5);
	Structure['Fumikiri_AR'].Put0($T10, 0, 5);
	Sound3D['Fumikiri'].Put(-2.5, 3.0);


$CAWay + 16650;
	Repeater['DikeR00'].End();
	Repeater['EnePole00'].Begin($T00, 0.00, 0.00, 0.00, 0, 0, 0, 0, 1.0, 50.0, 'Pole1_0');


$CAWay + 16710;
		$dist = distance;
	include 'utility\CurveEnd.txt';


$CAWay + 16720;
	//┛ 10.0‰
		$dist = distance;
		$slope2=10.0;
	include 'utility\GraUpChange.txt';


$CAWay + 16810;
	//━ 0.0‰
		$dist = distance;
	include 'utility\GraUpEnd.txt';


$CAWay+16900;
	Track['R00'].Position(-90.00, 0, 0, 0); // 道路
	Track['R01'].Position(-50.00, 0, 0, 0); // 道路
$CAWay+16900;
//＊＊＊ 興津川 199.5
	RollingNoise.Change(3);
	Repeater['Rail00u'].End();
	Repeater['Bridge00'].Begin(0, 0, 0, 5.0, 0, 0, 0, 3, 5, 5, 'Bridge01');
	Repeater['Bridge_Makuragi0'].Begin(0, 0, 0, 2.0, 0, 0, 0, 3, 2, 2, 'Bridge_Makuragi');
	Repeater['Rail10u'].End();
	Repeater['Bridge10'].Begin('10', 0, 0, 5.0, 0, 0, 0, 3, 5, 5, 'Bridge01');
	Repeater['Bridge_Makuragi10'].Begin('10', 0, 0, 2.0, 0, 0, 0, 3, 2, 2, 'Bridge_Makuragi');
	Repeater['BridgeuL'].Begin($T00, 0, 0, 5.0, 0, 0, 0, 3, 5.0, 5.0, 'BridgeSGL0');
	Repeater['BridgeuR'].Begin($T10, 0, 0, 5.0, 0, 0, 0, 3, 5.0, 5.0, 'BridgeSGR0');
$CAWay+16900;
		$dist = distance;
		$riverlen=200;
	include 'utility\River2.txt';


$CAWay+17100;
	Track['R00'].Position(-150.00, 0, 0, 0); // 道路
	Track['R01'].Position(-50.00, 0, 0, 0); // 道路
	Repeater['RailR00u'].End();
	Repeater['RailR01u'].End();
$CAWay+17100;
//＊＊＊
	RollingNoise.Change(0);
	Repeater['Rail00u'].Begin(0, 0, 0, 0, 0, 0, 0, 3, 5.0, 5.0, 'Ballast0', 'Ballast1', 'Ballast2', 'Ballast3', 'Ballast4');
	Repeater['Bridge00'].End();
	Repeater['Bridge_Makuragi0'].End();
	Repeater['Rail10u'].Begin('10', 0, 0, 0, 0, 0, 0, 3, 5.0, 5.0, 'Ballast0', 'Ballast1', 'Ballast2', 'Ballast3', 'Ballast4');
	Repeater['Bridge10'].End();
	Repeater['Bridge_Makuragi10'].End();
	Repeater['BridgeuL'].End();
	Repeater['BridgeuR'].End();


$CAWay + 17140;
	//┓ 10.0‰
		$dist = distance;
		$slope=-10.0;
	include 'utility\GraDownStart.txt';


$CAWay + 17360;
	//┓ 6.1‰
		$dist = distance;
		$slope2=-6.1;
	include 'utility\GraDownChange.txt';


$CAWay+17395;
//◎ 川西踏切　163.395
	Structure['Fumikiri_AL'].Put0($T00, 0, 5);
	Structure['Fumikiri_AC'].Put0($T00, 0, 5);
	Structure['Fumikiri_AM'].Put0($T00, 0, 5);
	Structure['Fumikiri_AH'].Put0($T10, 0, 5);
	Structure['Fumikiri_AC'].Put0($T10, 0, 5);
	Structure['Fumikiri_AR'].Put0($T10, 0, 5);
	Sound3D['Fumikiri'].Put(-2.5, 3.0);


$CAWay + 17480;
	//━ 0.0‰
		$dist = distance;
	include 'utility\GraDownEnd.txt';


$CAWay+17500;
// 富士保線区
//-------------------------
// 静岡保線区



$CAWay+17500;
// -------------------------------------------------------------------------------------------------------------


// (C)Harupi
