﻿BveTs Train 1.00

[Structure]
Key=Tc312-3NB
Distance=0
Span=13.8
Z=-3.1

[Structure]
Key=M313-3YB
Distance=20
Span=13.8
Z=-3.1

[Structure]
Key=T313-3YA
Distance=40
Span=13.8
Z=-3.1

[Structure]
Key=M313-3YB
Distance=60
Span=13.8
Z=-3.1

[Structure]
Key=T313-3YA
Distance=80
Span=13.8
Z=-3.1

[Structure]
Key=Mc313-3YB
Distance=100
Span=13.8
Z=-3.1

