xof 0303txt 0032
template Vector {
 <3d82ab5e-62da-11cf-ab39-0020af71e433>
 FLOAT x;
 FLOAT y;
 FLOAT z;
}

template MeshFace {
 <3d82ab5f-62da-11cf-ab39-0020af71e433>
 DWORD nFaceVertexIndices;
 array DWORD faceVertexIndices[nFaceVertexIndices];
}

template Mesh {
 <3d82ab44-62da-11cf-ab39-0020af71e433>
 DWORD nVertices;
 array Vector vertices[nVertices];
 DWORD nFaces;
 array MeshFace faces[nFaces];
 [...]
}

template MeshNormals {
 <f6f23f43-7686-11cf-8f52-0040333594a3>
 DWORD nNormals;
 array Vector normals[nNormals];
 DWORD nFaceNormals;
 array MeshFace faceNormals[nFaceNormals];
}

template Coords2d {
 <f6f23f44-7686-11cf-8f52-0040333594a3>
 FLOAT u;
 FLOAT v;
}

template MeshTextureCoords {
 <f6f23f40-7686-11cf-8f52-0040333594a3>
 DWORD nTextureCoords;
 array Coords2d textureCoords[nTextureCoords];
}

template ColorRGBA {
 <35ff44e0-6c7c-11cf-8f52-0040333594a3>
 FLOAT red;
 FLOAT green;
 FLOAT blue;
 FLOAT alpha;
}

template ColorRGB {
 <d3e16e81-7835-11cf-8f52-0040333594a3>
 FLOAT red;
 FLOAT green;
 FLOAT blue;
}

template Material {
 <3d82ab4d-62da-11cf-ab39-0020af71e433>
 ColorRGBA faceColor;
 FLOAT power;
 ColorRGB specularColor;
 ColorRGB emissiveColor;
 [...]
}

template MeshMaterialList {
 <f6f23f42-7686-11cf-8f52-0040333594a3>
 DWORD nMaterials;
 DWORD nFaceIndexes;
 array DWORD faceIndexes[nFaceIndexes];
 [Material <3d82ab4d-62da-11cf-ab39-0020af71e433>]
}

template TextureFilename {
 <a42790e1-7810-11cf-8f52-0040333594a3>
 STRING filename;
}


Mesh {
 31;
 -0.108420;0.138373;0.106100;,
 -0.002347;-0.611641;0.000000;,
 -0.108454;-0.611615;0.106100;,
 -0.002312;0.138347;0.000000;,
 -0.108420;0.138373;-0.106100;,
 -0.108454;-0.611615;-0.106100;,
 -0.002347;-0.611641;0.000000;,
 -0.002312;0.138347;0.000000;,
 -0.108420;0.138373;-0.106100;,
 -0.108454;-0.611615;-0.106100;,
 -0.108420;0.138373;0.106100;,
 -0.108454;-0.611615;0.106100;,
 -0.108385;0.888361;0.000000;,
 -0.108428;0.738390;-0.106100;,
 -0.108428;0.738390;0.106100;,
 -0.002320;0.738364;0.000000;,
 -0.108428;0.738390;-0.106100;,
 -0.108385;0.888361;0.000000;,
 -0.108428;0.738390;0.106100;,
 -0.002320;0.738364;0.000000;,
 -0.108385;0.888361;0.000000;,
 -0.108420;0.138373;-0.106100;,
 -0.108420;0.138373;0.106100;,
 -0.108428;0.738390;0.106100;,
 -0.002312;0.138347;0.000000;,
 -0.108420;0.138373;0.106100;,
 -0.002320;0.738364;0.000000;,
 -0.002312;0.138347;0.000000;,
 -0.108428;0.738390;-0.106100;,
 -0.108420;0.138373;-0.106100;,
 -0.002320;0.738364;0.000000;;
 15;
 3;2,1,0;,
 3;3,0,1;,
 3;5,4,6;,
 3;7,6,4;,
 3;8,9,10;,
 3;11,10,9;,
 3;13,21,12;,
 3;22,12,21;,
 3;14,12,22;,
 3;15,16,17;,
 3;18,19,20;,
 3;25,24,23;,
 3;26,23,24;,
 3;29,28,27;,
 3;30,27,28;;

 MeshNormals {
  31;
  0.707129;0.000006;0.707085;,
  0.707129;0.000006;0.707085;,
  0.707129;0.000006;0.707085;,
  0.707129;0.000006;0.707085;,
  0.707129;0.000006;-0.707085;,
  0.707129;0.000006;-0.707085;,
  0.707129;0.000006;-0.707085;,
  0.707129;0.000006;-0.707085;,
  -1.000000;0.000046;0.000000;,
  -1.000000;0.000046;0.000000;,
  -1.000000;0.000046;0.000000;,
  -1.000000;0.000046;0.000000;,
  -1.000000;0.000046;0.000000;,
  -1.000000;0.000046;0.000000;,
  -1.000000;0.000046;0.000000;,
  0.632452;0.447164;-0.632494;,
  0.632452;0.447164;-0.632494;,
  0.632452;0.447164;-0.632494;,
  0.632452;0.447164;0.632494;,
  0.632452;0.447164;0.632494;,
  0.632452;0.447164;0.632494;,
  -1.000000;0.000046;0.000000;,
  -1.000000;0.000046;0.000000;,
  0.707129;0.000006;0.707085;,
  0.707129;0.000006;0.707085;,
  0.707129;0.000006;0.707085;,
  0.707129;0.000006;0.707085;,
  0.707129;0.000006;-0.707085;,
  0.707129;0.000006;-0.707085;,
  0.707129;0.000006;-0.707085;,
  0.707129;0.000006;-0.707085;;
  15;
  3;2,1,0;,
  3;3,0,1;,
  3;5,4,6;,
  3;7,6,4;,
  3;8,9,10;,
  3;11,10,9;,
  3;13,21,12;,
  3;22,12,21;,
  3;14,12,22;,
  3;15,16,17;,
  3;18,19,20;,
  3;25,24,23;,
  3;26,23,24;,
  3;29,28,27;,
  3;30,27,28;;
 }

 MeshTextureCoords {
  31;
  0.000000;0.000000;,
  0.000000;0.000000;,
  0.000000;0.000000;,
  0.000000;0.000000;,
  0.000000;0.000000;,
  0.000000;0.000000;,
  0.000000;0.000000;,
  0.000000;0.000000;,
  0.000000;0.000000;,
  0.000000;0.000000;,
  0.000000;0.000000;,
  0.000000;0.000000;,
  0.000000;0.000000;,
  0.000000;0.000000;,
  0.000000;0.000000;,
  0.000000;0.000000;,
  0.000000;0.000000;,
  0.000000;0.000000;,
  0.000000;0.000000;,
  0.000000;0.000000;,
  0.000000;0.000000;,
  0.000000;0.000000;,
  0.000000;0.000000;,
  -0.273400;-0.641700;,
  -0.734500;0.256300;,
  -0.284800;0.257700;,
  -0.723100;-0.643100;,
  -0.260300;0.248400;,
  -0.728100;-0.642200;,
  -0.706900;0.251100;,
  -0.281400;-0.644800;;
 }

 MeshMaterialList {
  3;
  15;
  0,
  0,
  0,
  0,
  0,
  0,
  1,
  1,
  1,
  1,
  1,
  2,
  2,
  2,
  2;

  Material {
   0.117600;0.117600;0.117600;1.000000;;
   5.000000;
   0.011800;0.011800;0.011800;;
   0.023500;0.023500;0.023500;;
  }

  Material {
   0.117600;0.117600;0.117600;1.000000;;
   5.000000;
   0.077600;0.077600;0.077600;;
   0.155300;0.155300;0.155300;;
  }

  Material {
   0.117600;0.117600;0.117600;1.000000;;
   5.000000;
   0.077600;0.077600;0.077600;;
   0.155300;0.155300;0.155300;;

   TextureFilename {
    "half.dds";
   }
  }
 }
}