xof 0303txt 0032
template Vector {
 <3d82ab5e-62da-11cf-ab39-0020af71e433>
 FLOAT x;
 FLOAT y;
 FLOAT z;
}

template MeshFace {
 <3d82ab5f-62da-11cf-ab39-0020af71e433>
 DWORD nFaceVertexIndices;
 array DWORD faceVertexIndices[nFaceVertexIndices];
}

template Mesh {
 <3d82ab44-62da-11cf-ab39-0020af71e433>
 DWORD nVertices;
 array Vector vertices[nVertices];
 DWORD nFaces;
 array MeshFace faces[nFaces];
 [...]
}

template MeshNormals {
 <f6f23f43-7686-11cf-8f52-0040333594a3>
 DWORD nNormals;
 array Vector normals[nNormals];
 DWORD nFaceNormals;
 array MeshFace faceNormals[nFaceNormals];
}

template Coords2d {
 <f6f23f44-7686-11cf-8f52-0040333594a3>
 FLOAT u;
 FLOAT v;
}

template MeshTextureCoords {
 <f6f23f40-7686-11cf-8f52-0040333594a3>
 DWORD nTextureCoords;
 array Coords2d textureCoords[nTextureCoords];
}

template ColorRGBA {
 <35ff44e0-6c7c-11cf-8f52-0040333594a3>
 FLOAT red;
 FLOAT green;
 FLOAT blue;
 FLOAT alpha;
}

template ColorRGB {
 <d3e16e81-7835-11cf-8f52-0040333594a3>
 FLOAT red;
 FLOAT green;
 FLOAT blue;
}

template Material {
 <3d82ab4d-62da-11cf-ab39-0020af71e433>
 ColorRGBA faceColor;
 FLOAT power;
 ColorRGB specularColor;
 ColorRGB emissiveColor;
 [...]
}

template MeshMaterialList {
 <f6f23f42-7686-11cf-8f52-0040333594a3>
 DWORD nMaterials;
 DWORD nFaceIndexes;
 array DWORD faceIndexes[nFaceIndexes];
 [Material <3d82ab4d-62da-11cf-ab39-0020af71e433>]
}

template TextureFilename {
 <a42790e1-7810-11cf-8f52-0040333594a3>
 STRING filename;
}


Mesh {
 34;
 -0.114782;1.054990;0.113100;,
 -0.000086;0.155203;0.000000;,
 -0.113232;0.155048;0.113100;,
 -0.001718;1.055260;0.000000;,
 -0.000086;0.155203;0.000000;,
 -0.114782;1.054990;-0.113100;,
 -0.113232;0.155048;-0.113100;,
 -0.001718;1.055260;0.000000;,
 -0.113232;0.155048;0.113100;,
 0.001194;-0.594814;0.000000;,
 -0.111951;-0.594968;0.113100;,
 -0.000086;0.155203;0.000000;,
 -0.113232;0.155048;-0.113100;,
 -0.111951;-0.594968;-0.113100;,
 0.001194;-0.594814;0.000000;,
 -0.000086;0.155203;0.000000;,
 -0.111951;-0.594968;-0.113100;,
 -0.111951;-0.594968;0.113100;,
 -0.113232;0.155048;-0.113100;,
 -0.113232;0.155048;0.113100;,
 -0.115035;1.205013;0.000000;,
 -0.114782;1.054990;-0.113100;,
 -0.001718;1.055260;0.000000;,
 -0.114782;1.054990;0.113100;,
 -0.114782;1.054990;-0.113100;,
 -0.115035;1.205013;0.000000;,
 -0.114782;1.054990;0.113100;,
 -0.001718;1.055260;0.000000;,
 -0.115035;1.205013;0.000000;,
 -0.113232;0.155048;-0.113100;,
 -0.113232;0.155048;0.113100;,
 -0.113232;0.155048;0.113100;,
 -0.113232;0.155048;-0.113100;,
 -0.000086;0.155203;0.000000;;
 16;
 3;2,1,0;,
 3;3,0,1;,
 3;6,5,4;,
 3;7,4,5;,
 3;10,9,8;,
 3;11,8,9;,
 3;13,12,14;,
 3;15,14,12;,
 3;16,17,18;,
 3;19,18,17;,
 3;22,21,20;,
 3;29,30,24;,
 3;25,24,30;,
 3;23,25,30;,
 3;26,27,28;,
 3;31,32,33;;

 MeshNormals {
  34;
  0.707085;0.001240;0.707128;,
  0.707085;0.001240;0.707128;,
  0.707085;0.001240;0.707128;,
  0.707085;0.001240;0.707128;,
  0.707085;0.001240;-0.707128;,
  0.707085;0.001240;-0.707128;,
  0.707085;0.001240;-0.707128;,
  0.707085;0.001240;-0.707128;,
  0.707085;0.001240;0.707128;,
  0.707085;0.001240;0.707128;,
  0.707085;0.001240;0.707128;,
  0.707085;0.001240;0.707128;,
  0.707085;0.001240;-0.707128;,
  0.707085;0.001240;-0.707128;,
  0.707085;0.001240;-0.707128;,
  0.707085;0.001240;-0.707128;,
  -0.999998;-0.001779;0.000000;,
  -0.999998;-0.001779;0.000000;,
  -0.999998;-0.001779;0.000000;,
  -0.999998;-0.001779;0.000000;,
  0.623089;0.471684;-0.623918;,
  0.623089;0.471684;-0.623918;,
  0.623089;0.471684;-0.623918;,
  -0.999998;-0.001779;0.000000;,
  -0.999998;-0.001779;0.000000;,
  -0.999998;-0.001779;0.000000;,
  0.623089;0.471684;0.623918;,
  0.623089;0.471684;0.623918;,
  0.623089;0.471684;0.623918;,
  -0.999998;-0.001779;0.000000;,
  -0.999998;-0.001779;0.000000;,
  0.001779;-0.999998;0.000000;,
  0.001779;-0.999998;0.000000;,
  0.001779;-0.999998;0.000000;;
  16;
  3;2,1,0;,
  3;3,0,1;,
  3;6,5,4;,
  3;7,4,5;,
  3;10,9,8;,
  3;11,8,9;,
  3;13,12,14;,
  3;15,14,12;,
  3;16,17,18;,
  3;19,18,17;,
  3;22,21,20;,
  3;29,30,24;,
  3;25,24,30;,
  3;23,25,30;,
  3;26,27,28;,
  3;31,32,33;;
 }

 MeshTextureCoords {
  34;
  0.639500;-0.736200;,
  0.338100;0.126400;,
  0.644600;0.125900;,
  0.333000;-0.735700;,
  0.622800;0.124900;,
  0.335600;-0.732900;,
  0.318300;0.123400;,
  0.640000;-0.731400;,
  0.000000;0.000000;,
  0.000000;0.000000;,
  0.000000;0.000000;,
  0.000000;0.000000;,
  0.000000;0.000000;,
  0.000000;0.000000;,
  0.000000;0.000000;,
  0.000000;0.000000;,
  0.000000;0.000000;,
  0.000000;0.000000;,
  0.000000;0.000000;,
  0.000000;0.000000;,
  0.000000;0.000000;,
  0.000000;0.000000;,
  0.000000;0.000000;,
  0.000000;0.000000;,
  0.000000;0.000000;,
  0.000000;0.000000;,
  0.000000;0.000000;,
  0.000000;0.000000;,
  0.000000;0.000000;,
  0.000000;0.000000;,
  0.000000;0.000000;,
  0.000000;0.000000;,
  0.000000;0.000000;,
  0.000000;0.000000;;
 }

 MeshMaterialList {
  4;
  16;
  0,
  0,
  0,
  0,
  1,
  1,
  1,
  1,
  1,
  1,
  2,
  2,
  2,
  2,
  2,
  3;

  Material {
   1.000000;1.000000;1.000000;1.000000;;
   5.000000;
   0.100000;0.100000;0.100000;;
   0.200000;0.200000;0.200000;;

   TextureFilename {
    "1000.dds";
   }
  }

  Material {
   0.117600;0.117600;0.117600;1.000000;;
   5.000000;
   0.011800;0.011800;0.011800;;
   0.023500;0.023500;0.023500;;
  }

  Material {
   0.776500;0.776500;0.776500;1.000000;;
   5.000000;
   0.077600;0.077600;0.077600;;
   0.155300;0.155300;0.155300;;
  }

  Material {
   1.000000;1.000000;1.000000;1.000000;;
   5.000000;
   0.100000;0.100000;0.100000;;
   0.200000;0.200000;0.200000;;
  }
 }
}