xof 0303txt 0032
Material __Color_008_ {
0.1176;0.1176;0.1176;1.0000;;
5.0000;
0.0118;0.0118;0.0118;;	
0.0235;0.0235;0.0235;;	
}
Material __Color_002_ {
0.7765;0.7765;0.7765;1.0000;;
5.0000;
0.0776;0.0776;0.0776;;	
0.1553;0.1553;0.1553;;	
}
Material _8_8_png {
1.0000;1.0000;1.0000;  1.0000;;
5.0000;
0.1000;0.1000;0.1000;;	
0.2000;0.2000;0.2000;;	
   TextureFilename { "6.dds"; }
}
Material _888_888_png {
1.0000;1.0000;1.0000;  1.0000;;
5.0000;
0.1000;0.1000;0.1000;;	
0.2000;0.2000;0.2000;;	
   TextureFilename { "888.dds"; }
}
Mesh mesh_0{
26;
0.0900;0.1200;0.0700;,
0.0900;0.2900;-0.0700;,
0.0900;0.1200;-0.0700;,
0.0900;0.2900;0.0700;,
0.0900;-0.6504;0.0700;,
0.0900;0.1200;-0.0700;,
0.0900;-0.6504;-0.0700;,
0.0900;0.1200;0.0700;,
-0.0900;-0.6504;-0.0700;,
-0.0900;0.1200;-0.0700;,
-0.0900;0.1200;0.0700;,
-0.0900;-0.6504;0.0700;,
-0.0900;0.6600;0.0700;,
-0.0900;0.6600;-0.0700;,
0.0900;0.2900;-0.0700;,
-0.0900;0.1200;-0.0700;,
0.0900;0.1200;-0.0700;,
-0.0900;0.6600;-0.0700;,
-0.0900;0.6600;0.0700;,
0.0900;0.1200;0.0700;,
-0.0900;0.1200;0.0700;,
0.0900;0.2900;0.0700;,
0.0900;0.2900;0.0700;,
-0.0900;0.6600;-0.0700;,
0.0900;0.2900;-0.0700;,
-0.0900;0.6600;0.0700;;
18;
3;2,1,0,
3;3,0,1,
3;6,5,4,
3;7,4,5,
3;6,8,5,
3;9,5,8,
3;11,4,10,
3;7,10,4,
3;9,8,10,
3;11,10,8,
3;13,9,12,
3;10,12,9,
3;16,15,14,
3;17,14,15,
3;20,19,18,
3;21,18,19,
3;24,23,22,
3;25,22,23;;
  MeshMaterialList {
4;
18;
3,
3,
0,
0,
0,
0,
0,
0,
0,
0,
1,
1,
2,
2,
2,
2,
2,
2;
{ __Color_008_ }
{ __Color_002_ }
{ _8_8_png }
{ _888_888_png }
  }
  MeshTextureCoords {
26;
0.9184,0.5740;
0.0640,-0.4636;
0.0640,0.5740;
0.9184,-0.4636;
0.0000,0.0000;
0.0000,0.0000;
0.0000,0.0000;
0.0000,0.0000;
0.0000,0.0000;
0.0000,0.0000;
0.0000,0.0000;
0.0000,0.0000;
0.0000,0.0000;
0.0000,0.0000;
0.6848,0.7358;
0.3137,1.0863;
0.6848,1.0863;
0.3137,-0.0270;
0.6835,-0.0269;
0.3077,1.1004;
0.6835,1.1004;
0.3077,0.7455;
0.6633,1.2629;
0.3272,0.2751;
0.3272,1.2629;
0.6633,0.2751;
  }
  MeshNormals {
5;
1.0000;0.0000;0.0000;,
0.0000;0.0000;-1.0000;,
0.0000;0.0000;1.0000;,
-1.0000;0.0000;0.0000;,
0.8992;0.4375;0.0000;;
18;
3;0,0,0;
3;0,0,0;
3;0,0,0;
3;0,0,0;
3;1,1,1;
3;1,1,1;
3;2,2,2;
3;2,2,2;
3;3,3,3;
3;3,3,3;
3;3,3,3;
3;3,3,3;
3;1,1,1;
3;1,1,1;
3;2,2,2;
3;2,2,2;
3;4,4,4;
3;4,4,4;;
  }
}
