xof 0303txt 0032

Material part1 {
	1.0000;1.0000;1.0000;1.0000;;
	0.0000;
	0.0000;0.0000;0.0000;;
	0.0000;0.0000;0.0000;;
	TextureFilename { "point1.dds"; }
}
Mesh {
	4;
	0.0000; 0.0010; 5.0500;,
	-0.1300; 0.0010; 5.0500;,
	-0.1300; 0.0010; 0.0000;,
	0.0000; 0.0010; 0.0000;;
	2;
	3;3,1,0;,
	3;3,2,1;;
MeshMaterialList {
		1;
		1;
		0;
		{ part1 }
	}
MeshTextureCoords {
	4;
	0.9900,0.0000;
	0.0000,0.0000;
	0.0000,1.0000;
	0.9900,1.0000;
	}
MeshNormals {
	2;
	-0.0000;12.0000;0.0000;,
	-0.0000;54.0000;0.0000;;
	2;
	3;0,0,0;,
	3;0,0,0;;
	}
}

