xof 0303txt 0032
Material __Color_008_ {
0.1176;0.1176;0.1176;1.0000;;
5.0000;
0.0118;0.0118;0.0118;;	
0.0235;0.0235;0.0235;;	
}
Material _grd1_grd_png {
1.0000;1.0000;1.0000;  1.0000;;
5.0000;
0.1000;0.1000;0.1000;;	
0.2000;0.2000;0.2000;;	
   TextureFilename { "grd.dds"; }
}
Material _L3_L_png {
1.0000;1.0000;1.0000;  1.0000;;
5.0000;
0.1000;0.1000;0.1000;;	
0.2000;0.2000;0.2000;;	
   TextureFilename { "L.dds"; }
}
Material __Color_002_ {
0.7765;0.7765;0.7765;1.0000;;
5.0000;
0.0776;0.0776;0.0776;;	
0.1553;0.1553;0.1553;;	
}
Mesh mesh_0{
42;
-0.4564;0.6688;-0.0610;,
0.0622;0.9706;-0.0910;,
0.0622;0.9706;-0.0610;,
-0.4564;0.6688;-0.0910;,
-0.3880;0.5512;-0.0610;,
-0.3880;0.5512;-0.0910;,
0.0622;0.8132;-0.0610;,
0.0622;0.8132;-0.0910;,
-0.5386;0.8359;0.0564;,
0.0614;0.8359;0.0864;,
0.0614;0.8359;0.0564;,
-0.5386;0.8359;0.0864;,
-0.5386;0.9719;0.0864;,
-0.5386;0.9719;0.0564;,
0.0614;0.9719;0.0564;,
0.0614;0.9719;0.0864;,
-0.5386;0.9719;0.0864;,
0.0614;0.8359;0.0864;,
-0.5386;0.8359;0.0864;,
0.0614;0.9719;0.0864;,
0.0622;0.1506;-0.0620;,
0.0622;1.0506;0.0580;,
0.0622;1.0506;-0.0620;,
0.0622;0.8186;0.0580;,
0.0622;0.1506;0.0580;,
0.0622;1.0506;-0.0620;,
-0.0578;0.1506;-0.0620;,
0.0622;0.1506;-0.0620;,
-0.0578;1.0506;-0.0620;,
0.0022;1.0856;-0.0020;,
-0.0578;1.0506;0.0580;,
-0.0578;1.0506;-0.0620;,
-0.0578;0.1506;0.0580;,
-0.0578;1.0506;0.0580;,
0.0622;0.1506;0.0580;,
-0.0578;0.1506;0.0580;,
0.0622;0.8186;0.0580;,
0.0622;1.0506;0.0580;,
0.0622;-0.7494;0.0580;,
-0.0578;-0.7494;0.0580;,
0.0622;-0.7494;-0.0620;,
-0.0578;-0.7494;-0.0620;;
46;
3;2,1,0,
3;3,0,1,
3;0,3,4,
3;5,4,3,
3;4,6,0,
3;2,0,6,
3;5,3,7,
3;1,7,3,
3;7,6,5,
3;4,5,6,
3;2,6,1,
3;7,1,6,
3;10,9,8,
3;11,8,9,
3;11,12,8,
3;13,8,12,
3;15,14,12,
3;13,12,14,
3;18,17,16,
3;19,16,17,
3;10,8,14,
3;13,14,8,
3;15,9,14,
3;10,14,9,
3;22,21,20,
3;23,20,21,
3;24,20,23,
3;27,26,25,
3;28,25,26,
3;29,21,22,
3;31,26,30,
3;32,30,26,
3;35,34,33,
3;36,33,34,
3;37,33,36,
3;31,30,29,
3;31,29,22,
3;29,30,21,
3;39,38,32,
3;24,32,38,
3;20,24,40,
3;38,40,24,
3;40,41,20,
3;26,20,41,
3;26,41,32,
3;39,32,41;;
  MeshMaterialList {
4;
46;
3,
3,
3,
3,
0,
0,
3,
3,
3,
3,
3,
3,
3,
3,
3,
3,
3,
3,
2,
2,
0,
0,
3,
3,
3,
3,
3,
1,
1,
3,
3,
3,
1,
1,
1,
3,
3,
3,
0,
0,
0,
0,
0,
0,
0,
0;
{ __Color_008_ }
{ _grd1_grd_png }
{ _L3_L_png }
{ __Color_002_ }
  }
  MeshTextureCoords {
42;
0.0000,0.0000;
0.0000,0.0000;
0.0000,0.0000;
0.0000,0.0000;
0.0000,0.0000;
0.0000,0.0000;
0.0000,0.0000;
0.0000,0.0000;
0.0000,0.0000;
0.0000,0.0000;
0.0000,0.0000;
0.0000,0.0000;
0.0000,0.0000;
0.0000,0.0000;
0.0000,0.0000;
0.0000,0.0000;
1.0473,-1.0000;
-0.0557,0.0000;
1.0473,0.0000;
-0.0557,-1.0000;
0.0000,0.0000;
0.0000,0.0000;
0.0000,0.0000;
0.0000,0.0000;
0.0000,0.0000;
1.0000,-0.9375;
0.0000,0.0000;
1.0000,0.0000;
0.0000,-0.9375;
0.0000,0.0000;
0.0000,0.0000;
0.0000,0.0000;
0.0000,0.0000;
1.0000,-0.9375;
-0.0000,-0.0000;
1.0000,-0.0000;
-0.0000,-0.6959;
-0.0000,-0.9375;
0.0000,0.0000;
0.0000,0.0000;
0.0000,0.0000;
0.0000,0.0000;
  }
  MeshNormals {
16;
-0.5030;0.8643;0.0000;,
-0.8643;-0.5030;0.0000;,
0.0000;-0.0000;1.0000;,
-0.0000;0.0000;-1.0000;,
0.5030;-0.8643;-0.0000;,
1.0000;-0.0000;-0.0000;,
0.0000;-1.0000;0.0000;,
-1.0000;0.0000;0.0000;,
0.0000;1.0000;0.0000;,
0.0000;0.0000;1.0000;,
1.0000;0.0000;-0.0000;,
-0.0000;-0.0000;-1.0000;,
0.5044;0.8635;0.0000;,
-0.5044;0.8635;0.0000;,
-0.0000;0.8635;-0.5044;,
-0.0000;0.8635;0.5044;;
46;
3;0,0,0;
3;0,0,0;
3;1,1,1;
3;1,1,1;
3;2,2,2;
3;2,2,2;
3;3,3,3;
3;3,3,3;
3;4,4,4;
3;4,4,4;
3;5,5,5;
3;5,5,5;
3;6,6,6;
3;6,6,6;
3;7,7,7;
3;7,7,7;
3;8,8,8;
3;8,8,8;
3;9,9,9;
3;9,9,9;
3;3,3,3;
3;3,3,3;
3;10,10,10;
3;10,10,10;
3;10,10,10;
3;10,10,10;
3;10,10,10;
3;11,11,11;
3;11,11,11;
3;12,12,12;
3;7,7,7;
3;7,7,7;
3;9,9,9;
3;9,9,9;
3;9,9,9;
3;13,13,13;
3;14,14,14;
3;15,15,15;
3;9,9,9;
3;9,9,9;
3;10,10,10;
3;10,10,10;
3;11,11,11;
3;11,11,11;
3;7,7,7;
3;7,7,7;;
  }
}
