xof 0303txt 0032
Material __Color_008_ {
0.1176;0.1176;0.1176;1.0000;;
5.0000;
0.0118;0.0118;0.0118;;	
0.0235;0.0235;0.0235;;	
}
Material _grd1_grd_png {
1.0000;1.0000;1.0000;  1.0000;;
5.0000;
0.1000;0.1000;0.1000;;	
0.2000;0.2000;0.2000;;	
   TextureFilename { "grd.dds"; }
}
Material _L3_L_png {
1.0000;1.0000;1.0000;  1.0000;;
5.0000;
0.1000;0.1000;0.1000;;	
0.2000;0.2000;0.2000;;	
   TextureFilename { "L.dds"; }
}
Material __Color_002_ {
0.7765;0.7765;0.7765;1.0000;;
5.0000;
0.0776;0.0776;0.0776;;	
0.1553;0.1553;0.1553;;	
}
Mesh mesh_0{
41;
0.0622;0.9719;-0.0910;,
0.0622;0.8359;-0.0610;,
0.0622;0.9719;-0.0610;,
0.0622;0.8359;-0.0910;,
-0.5378;0.8359;-0.0910;,
-0.5378;0.8359;-0.0610;,
-0.5378;0.9719;-0.0610;,
-0.5378;0.9719;-0.0910;,
0.0622;0.9719;-0.0910;,
-0.5378;0.8359;-0.0910;,
0.0622;0.8359;-0.0910;,
-0.5378;0.9719;-0.0910;,
-0.3880;0.5566;0.0580;,
0.0622;0.8186;0.0880;,
0.0622;0.8186;0.0580;,
-0.3880;0.5566;0.0880;,
-0.4564;0.6742;0.0880;,
0.0622;0.9760;0.0580;,
0.0622;0.9760;0.0880;,
-0.4564;0.6742;0.0580;,
0.0622;0.1506;-0.0620;,
0.0622;1.0506;0.0580;,
0.0622;1.0506;-0.0620;,
0.0622;0.1506;0.0580;,
0.0622;1.0506;-0.0620;,
-0.0578;0.1506;-0.0620;,
0.0622;0.1506;-0.0620;,
-0.0578;1.0506;-0.0620;,
0.0022;1.0856;-0.0020;,
-0.0578;1.0506;0.0580;,
-0.0578;1.0506;-0.0620;,
-0.0578;0.1506;0.0580;,
-0.0578;1.0506;0.0580;,
0.0622;0.1506;0.0580;,
-0.0578;0.1506;0.0580;,
0.0622;0.8186;0.0580;,
0.0622;1.0506;0.0580;,
0.0622;-0.7494;0.0580;,
-0.0578;-0.7494;0.0580;,
0.0622;-0.7494;-0.0620;,
-0.0578;-0.7494;-0.0620;;
46;
3;2,1,0,
3;3,0,1,
3;3,1,4,
3;5,4,1,
3;5,6,4,
3;7,4,6,
3;2,0,6,
3;7,6,0,
3;5,1,6,
3;2,6,1,
3;10,9,8,
3;11,8,9,
3;14,13,12,
3;15,12,13,
3;18,17,16,
3;19,16,17,
3;16,19,15,
3;12,15,19,
3;15,13,16,
3;18,16,13,
3;12,19,14,
3;17,14,19,
3;18,13,17,
3;14,17,13,
3;22,21,20,
3;14,20,21,
3;23,20,14,
3;26,25,24,
3;27,24,25,
3;28,21,22,
3;30,25,29,
3;31,29,25,
3;34,33,32,
3;35,32,33,
3;36,32,35,
3;30,29,28,
3;30,28,22,
3;28,29,21,
3;38,37,31,
3;23,31,37,
3;20,23,39,
3;37,39,23,
3;39,40,20,
3;25,20,40,
3;25,40,31,
3;38,31,40;;
  MeshMaterialList {
4;
46;
3,
3,
3,
3,
3,
3,
3,
3,
0,
0,
2,
2,
3,
3,
3,
3,
3,
3,
3,
3,
0,
0,
3,
3,
3,
3,
3,
1,
1,
3,
3,
3,
1,
1,
1,
3,
3,
3,
0,
0,
0,
0,
0,
0,
0,
0;
{ __Color_008_ }
{ _grd1_grd_png }
{ _L3_L_png }
{ __Color_002_ }
  }
  MeshTextureCoords {
41;
0.0000,0.0000;
0.0000,0.0000;
0.0000,0.0000;
0.0000,0.0000;
0.0000,0.0000;
0.0000,0.0000;
0.0000,0.0000;
0.0000,0.0000;
1.0518,-1.0000;
-0.0511,0.0000;
1.0518,0.0000;
-0.0511,-1.0000;
0.0000,0.0000;
0.0000,0.0000;
0.0000,0.0000;
0.0000,0.0000;
0.0000,0.0000;
0.0000,0.0000;
0.0000,0.0000;
0.0000,0.0000;
0.0000,0.0000;
0.0000,0.0000;
0.0000,0.0000;
0.0000,0.0000;
1.0000,-0.9375;
0.0000,0.0000;
1.0000,0.0000;
0.0000,-0.9375;
0.0000,0.0000;
0.0000,0.0000;
0.0000,0.0000;
0.0000,0.0000;
1.0000,-0.9375;
-0.0000,-0.0000;
1.0000,-0.0000;
-0.0000,-0.6959;
-0.0000,-0.9375;
0.0000,0.0000;
0.0000,0.0000;
0.0000,0.0000;
0.0000,0.0000;
  }
  MeshNormals {
15;
1.0000;0.0000;-0.0000;,
0.0000;-1.0000;0.0000;,
-1.0000;0.0000;0.0000;,
0.0000;1.0000;0.0000;,
0.0000;0.0000;1.0000;,
-0.0000;0.0000;-1.0000;,
0.5030;-0.8643;-0.0000;,
-0.5030;0.8643;0.0000;,
-0.8643;-0.5030;0.0000;,
0.0000;-0.0000;1.0000;,
-0.0000;-0.0000;-1.0000;,
0.5044;0.8635;0.0000;,
-0.5044;0.8635;0.0000;,
-0.0000;0.8635;-0.5044;,
-0.0000;0.8635;0.5044;;
46;
3;0,0,0;
3;0,0,0;
3;1,1,1;
3;1,1,1;
3;2,2,2;
3;2,2,2;
3;3,3,3;
3;3,3,3;
3;4,4,4;
3;4,4,4;
3;5,5,5;
3;5,5,5;
3;6,6,6;
3;6,6,6;
3;7,7,7;
3;7,7,7;
3;8,8,8;
3;8,8,8;
3;9,9,9;
3;9,9,9;
3;5,5,5;
3;5,5,5;
3;0,0,0;
3;0,0,0;
3;0,0,0;
3;0,0,0;
3;0,0,0;
3;10,10,10;
3;10,10,10;
3;11,11,11;
3;2,2,2;
3;2,2,2;
3;4,4,4;
3;4,4,4;
3;4,4,4;
3;12,12,12;
3;13,13,13;
3;14,14,14;
3;4,4,4;
3;4,4,4;
3;0,0,0;
3;0,0,0;
3;10,10,10;
3;10,10,10;
3;2,2,2;
3;2,2,2;;
  }
}
