xof 0303txt 0032
Material __Color_008_ {
0.1176;0.1176;0.1176;1.0000;;
5.0000;
0.0118;0.0118;0.0118;;	
0.0235;0.0235;0.0235;;	
}
Material _grd1_grd_png {
1.0000;1.0000;1.0000;  1.0000;;
5.0000;
0.1000;0.1000;0.1000;;	
0.2000;0.2000;0.2000;;	
   TextureFilename { "grd.dds"; }
}
Material __Color_002_ {
0.7765;0.7765;0.7765;1.0000;;
5.0000;
0.0776;0.0776;0.0776;;	
0.1553;0.1553;0.1553;;	
}
Mesh mesh_0{
42;
0.0612;0.7825;0.0874;,
0.0624;0.7845;0.0574;,
0.0612;0.7825;0.0574;,
0.0624;0.7845;0.0874;,
-0.3890;1.2018;0.0874;,
0.0624;0.9391;0.0574;,
0.0624;0.9391;0.0874;,
-0.3890;1.2018;0.0574;,
-0.4574;1.0843;0.0574;,
-0.4574;1.0843;0.0874;,
0.0610;0.7814;-0.0920;,
0.0622;0.7835;-0.0620;,
0.0610;0.7814;-0.0620;,
0.0622;0.7835;-0.0920;,
-0.3892;1.2008;-0.0920;,
0.0622;0.9380;-0.0620;,
0.0622;0.9380;-0.0920;,
-0.3892;1.2008;-0.0620;,
-0.4576;1.0832;-0.0620;,
-0.4576;1.0832;-0.0920;,
0.0622;0.1506;-0.0620;,
0.0622;1.0506;0.0580;,
0.0622;1.0506;-0.0620;,
0.0622;0.8186;0.0580;,
0.0622;0.1506;0.0580;,
0.0622;1.0506;-0.0620;,
-0.0578;0.1506;-0.0620;,
0.0622;0.1506;-0.0620;,
-0.0578;1.0506;-0.0620;,
0.0022;1.0856;-0.0020;,
-0.0578;1.0506;0.0580;,
-0.0578;1.0506;-0.0620;,
-0.0578;0.1506;0.0580;,
-0.0578;1.0506;0.0580;,
0.0622;0.1506;0.0580;,
-0.0578;0.1506;0.0580;,
0.0622;0.8186;0.0580;,
0.0622;1.0506;0.0580;,
0.0622;-0.7494;0.0580;,
-0.0578;-0.7494;0.0580;,
0.0622;-0.7494;-0.0620;,
-0.0578;-0.7494;-0.0620;;
54;
3;2,1,0,
3;3,0,1,
3;6,5,4,
3;7,4,5,
3;2,0,8,
3;9,8,0,
3;4,9,6,
3;0,6,9,
3;3,6,0,
3;7,8,4,
3;9,4,8,
3;7,5,8,
3;2,8,5,
3;1,2,5,
3;1,5,3,
3;6,3,5,
3;10,11,12,
3;11,10,13,
3;14,15,16,
3;15,14,17,
3;18,10,12,
3;10,18,19,
3;16,19,14,
3;19,16,10,
3;10,16,13,
3;17,19,18,
3;19,17,14,
3;18,15,17,
3;15,18,12,
3;15,12,11,
3;13,15,11,
3;15,13,16,
3;22,21,20,
3;23,20,21,
3;24,20,23,
3;27,26,25,
3;28,25,26,
3;29,21,22,
3;31,26,30,
3;32,30,26,
3;35,34,33,
3;36,33,34,
3;37,33,36,
3;31,30,29,
3;31,29,22,
3;29,30,21,
3;39,38,32,
3;24,32,38,
3;20,24,40,
3;38,40,24,
3;40,41,20,
3;26,20,41,
3;26,41,32,
3;39,32,41;;
  MeshMaterialList {
3;
54;
2,
2,
2,
2,
2,
2,
2,
2,
2,
2,
2,
0,
0,
0,
2,
2,
2,
2,
2,
2,
2,
2,
2,
2,
2,
2,
2,
0,
0,
0,
2,
2,
2,
2,
2,
1,
1,
2,
2,
2,
1,
1,
1,
2,
2,
2,
0,
0,
0,
0,
0,
0,
0,
0;
{ __Color_008_ }
{ _grd1_grd_png }
{ __Color_002_ }
  }
  MeshTextureCoords {
42;
0.0000,0.0000;
0.0000,0.0000;
0.0000,0.0000;
0.0000,0.0000;
0.0000,0.0000;
0.0000,0.0000;
0.0000,0.0000;
0.0000,0.0000;
0.0000,0.0000;
0.0000,0.0000;
0.0000,0.0000;
0.0000,0.0000;
0.0000,0.0000;
0.0000,0.0000;
0.0000,0.0000;
0.0000,0.0000;
0.0000,0.0000;
0.0000,0.0000;
0.0000,0.0000;
0.0000,0.0000;
0.0000,0.0000;
0.0000,0.0000;
0.0000,0.0000;
0.0000,0.0000;
0.0000,0.0000;
1.0000,-0.9375;
0.0000,0.0000;
1.0000,0.0000;
0.0000,-0.9375;
0.0000,0.0000;
0.0000,0.0000;
0.0000,0.0000;
0.0000,0.0000;
1.0000,-0.9375;
-0.0000,-0.0000;
1.0000,-0.0000;
-0.0000,-0.6959;
-0.0000,-0.9375;
0.0000,0.0000;
0.0000,0.0000;
0.0000,0.0000;
0.0000,0.0000;
  }
  MeshNormals {
13;
0.8643;-0.5030;-0.0000;,
0.5030;0.8643;-0.0000;,
-0.5030;-0.8643;0.0000;,
0.0000;0.0000;1.0000;,
-0.8643;0.5030;0.0000;,
-0.0000;0.0000;-1.0000;,
1.0000;0.0000;-0.0000;,
-0.0000;-0.0000;-1.0000;,
0.5044;0.8635;0.0000;,
-1.0000;0.0000;0.0000;,
-0.5044;0.8635;0.0000;,
-0.0000;0.8635;-0.5044;,
-0.0000;0.8635;0.5044;;
54;
3;0,0,0;
3;0,0,0;
3;1,1,1;
3;1,1,1;
3;2,2,2;
3;2,2,2;
3;3,3,3;
3;3,3,3;
3;3,3,3;
3;4,4,4;
3;4,4,4;
3;5,5,5;
3;5,5,5;
3;5,5,5;
3;6,6,6;
3;6,6,6;
3;0,0,0;
3;0,0,0;
3;1,1,1;
3;1,1,1;
3;2,2,2;
3;2,2,2;
3;5,5,5;
3;5,5,5;
3;5,5,5;
3;4,4,4;
3;4,4,4;
3;3,3,3;
3;3,3,3;
3;3,3,3;
3;6,6,6;
3;6,6,6;
3;6,6,6;
3;6,6,6;
3;6,6,6;
3;7,7,7;
3;7,7,7;
3;8,8,8;
3;9,9,9;
3;9,9,9;
3;3,3,3;
3;3,3,3;
3;3,3,3;
3;10,10,10;
3;11,11,11;
3;12,12,12;
3;3,3,3;
3;3,3,3;
3;6,6,6;
3;6,6,6;
3;7,7,7;
3;7,7,7;
3;9,9,9;
3;9,9,9;;
  }
}
