xof 0303txt 0032
template Vector {
 <3d82ab5e-62da-11cf-ab39-0020af71e433>
 FLOAT x;
 FLOAT y;
 FLOAT z;
}

template MeshFace {
 <3d82ab5f-62da-11cf-ab39-0020af71e433>
 DWORD nFaceVertexIndices;
 array DWORD faceVertexIndices[nFaceVertexIndices];
}

template Mesh {
 <3d82ab44-62da-11cf-ab39-0020af71e433>
 DWORD nVertices;
 array Vector vertices[nVertices];
 DWORD nFaces;
 array MeshFace faces[nFaces];
 [...]
}

template MeshNormals {
 <f6f23f43-7686-11cf-8f52-0040333594a3>
 DWORD nNormals;
 array Vector normals[nNormals];
 DWORD nFaceNormals;
 array MeshFace faceNormals[nFaceNormals];
}

template Coords2d {
 <f6f23f44-7686-11cf-8f52-0040333594a3>
 FLOAT u;
 FLOAT v;
}

template MeshTextureCoords {
 <f6f23f40-7686-11cf-8f52-0040333594a3>
 DWORD nTextureCoords;
 array Coords2d textureCoords[nTextureCoords];
}

template ColorRGBA {
 <35ff44e0-6c7c-11cf-8f52-0040333594a3>
 FLOAT red;
 FLOAT green;
 FLOAT blue;
 FLOAT alpha;
}

template ColorRGB {
 <d3e16e81-7835-11cf-8f52-0040333594a3>
 FLOAT red;
 FLOAT green;
 FLOAT blue;
}

template Material {
 <3d82ab4d-62da-11cf-ab39-0020af71e433>
 ColorRGBA faceColor;
 FLOAT power;
 ColorRGB specularColor;
 ColorRGB emissiveColor;
 [...]
}

template MeshMaterialList {
 <f6f23f42-7686-11cf-8f52-0040333594a3>
 DWORD nMaterials;
 DWORD nFaceIndexes;
 array DWORD faceIndexes[nFaceIndexes];
 [Material <3d82ab4d-62da-11cf-ab39-0020af71e433>]
}

template TextureFilename {
 <a42790e1-7810-11cf-8f52-0040333594a3>
 STRING filename;
}


Mesh {
 54;
 0.395900;4.595399;0.000000;,
 0.779800;4.492499;5.099999;,
 0.779800;4.492499;0.000000;,
 0.395900;4.595399;5.099999;,
 1.974500;3.490000;5.099999;,
 2.142500;3.129800;0.000000;,
 1.974500;3.490000;0.000000;,
 2.142500;3.129800;5.099999;,
 2.245400;2.745900;5.099999;,
 2.280000;2.350000;0.000000;,
 2.245400;2.745900;0.000000;,
 2.280000;2.350000;5.099999;,
 1.746600;3.815600;5.099999;,
 1.746600;3.815600;0.000000;,
 0.000000;4.630000;0.000000;,
 0.000000;4.630000;5.099999;,
 1.140000;4.324500;5.099999;,
 1.140000;4.324500;0.000000;,
 2.150400;0.868400;0.000000;,
 2.150400;0.868400;5.099999;,
 1.465600;4.096600;5.099999;,
 1.465600;4.096600;0.000000;,
 1.804000;-0.460000;0.000000;,
 1.804000;-0.460000;5.099999;,
 -2.245400;2.745900;0.000000;,
 -2.142500;3.129800;5.099999;,
 -2.142500;3.129800;0.000000;,
 -2.245400;2.745900;5.099999;,
 -1.974500;3.490000;5.099999;,
 -1.974500;3.490000;0.000000;,
 -2.280000;2.350000;0.000000;,
 -2.280000;2.350000;5.099999;,
 -2.169500;0.981600;0.000000;,
 -2.169500;0.981600;5.099999;,
 -1.804000;-0.460000;0.000000;,
 -1.804000;-0.460000;5.099999;,
 -1.465600;4.096600;0.000000;,
 -1.140000;4.324500;5.099999;,
 -1.140000;4.324500;0.000000;,
 -1.465600;4.096600;5.099999;,
 -1.746600;3.815600;0.000000;,
 -1.746600;3.815600;5.099999;,
 -0.779800;4.492499;5.099999;,
 -0.779800;4.492499;0.000000;,
 -0.395900;4.595399;5.099999;,
 -0.395900;4.595399;0.000000;,
 0.000000;4.630000;5.099999;,
 0.000000;4.630000;0.000000;,
 -1.804000;-0.460000;5.099999;,
 0.000000;-0.460000;0.000000;,
 0.000000;-0.460000;5.099999;,
 -1.804000;-0.460000;0.000000;,
 1.804000;-0.460000;0.000000;,
 1.804000;-0.460000;5.099999;;
 48;
 3;0,2,1;,
 3;1,3,0;,
 3;4,6,5;,
 3;5,7,4;,
 3;8,10,9;,
 3;9,11,8;,
 3;12,13,6;,
 3;6,4,12;,
 3;14,0,3;,
 3;3,15,14;,
 3;2,17,16;,
 3;16,1,2;,
 3;7,5,10;,
 3;10,8,7;,
 3;11,9,18;,
 3;18,19,11;,
 3;13,12,20;,
 3;20,21,13;,
 3;19,18,22;,
 3;22,23,19;,
 3;17,21,20;,
 3;20,16,17;,
 3;24,26,25;,
 3;25,27,24;,
 3;26,29,28;,
 3;28,25,26;,
 3;30,24,27;,
 3;27,31,30;,
 3;32,30,31;,
 3;31,33,32;,
 3;34,32,33;,
 3;33,35,34;,
 3;36,38,37;,
 3;37,39,36;,
 3;40,36,39;,
 3;39,41,40;,
 3;29,40,41;,
 3;41,28,29;,
 3;38,43,42;,
 3;42,37,38;,
 3;43,45,44;,
 3;44,42,43;,
 3;45,47,46;,
 3;46,44,45;,
 3;48,50,49;,
 3;49,51,48;,
 3;50,53,52;,
 3;52,49,50;;

 MeshNormals {
  54;
  -0.173700;-0.984799;0.000000;,
  -0.342000;-0.939700;0.000000;,
  -0.342000;-0.939700;0.000000;,
  -0.173700;-0.984799;0.000000;,
  -0.866019;-0.500011;0.000000;,
  -0.939700;-0.342000;0.000000;,
  -0.866019;-0.500011;0.000000;,
  -0.939700;-0.342000;0.000000;,
  -0.984816;-0.173603;0.000000;,
  -1.000000;0.000000;0.000000;,
  -0.984816;-0.173603;0.000000;,
  -1.000000;0.000000;0.000000;,
  -0.766020;-0.642817;0.000000;,
  -0.766020;-0.642817;0.000000;,
  -0.087199;-0.996191;0.000000;,
  -0.087199;-0.996191;0.000000;,
  -0.500011;-0.866019;0.000000;,
  -0.500011;-0.866019;0.000000;,
  -0.985392;0.170299;0.000000;,
  -0.985392;0.170299;0.000000;,
  -0.642817;-0.766020;0.000000;,
  -0.642817;-0.766020;0.000000;,
  -0.967646;0.252312;0.000000;,
  -0.967646;0.252312;0.000000;,
  0.984816;-0.173603;0.000000;,
  0.939700;-0.342000;0.000000;,
  0.939700;-0.342000;0.000000;,
  0.984816;-0.173603;0.000000;,
  0.866019;-0.500011;0.000000;,
  0.866019;-0.500011;0.000000;,
  0.999994;-0.003400;0.000000;,
  0.999994;-0.003400;0.000000;,
  0.986510;0.163702;0.000000;,
  0.986510;0.163702;0.000000;,
  0.969319;0.245805;0.000000;,
  0.969319;0.245805;0.000000;,
  0.642817;-0.766020;0.000000;,
  0.500011;-0.866019;0.000000;,
  0.500011;-0.866019;0.000000;,
  0.642817;-0.766020;0.000000;,
  0.766020;-0.642817;0.000000;,
  0.766020;-0.642817;0.000000;,
  0.342000;-0.939700;0.000000;,
  0.342000;-0.939700;0.000000;,
  0.173700;-0.984799;0.000000;,
  0.173700;-0.984799;0.000000;,
  0.087199;-0.996191;0.000000;,
  0.087199;-0.996191;0.000000;,
  0.000000;1.000000;0.000000;,
  0.000000;1.000000;0.000000;,
  0.000000;1.000000;0.000000;,
  0.000000;1.000000;0.000000;,
  0.000000;1.000000;0.000000;,
  0.000000;1.000000;0.000000;;
  48;
  3;0,2,1;,
  3;1,3,0;,
  3;4,6,5;,
  3;5,7,4;,
  3;8,10,9;,
  3;9,11,8;,
  3;12,13,6;,
  3;6,4,12;,
  3;14,0,3;,
  3;3,15,14;,
  3;2,17,16;,
  3;16,1,2;,
  3;7,5,10;,
  3;10,8,7;,
  3;11,9,18;,
  3;18,19,11;,
  3;13,12,20;,
  3;20,21,13;,
  3;19,18,22;,
  3;22,23,19;,
  3;17,21,20;,
  3;20,16,17;,
  3;24,26,25;,
  3;25,27,24;,
  3;26,29,28;,
  3;28,25,26;,
  3;30,24,27;,
  3;27,31,30;,
  3;32,30,31;,
  3;31,33,32;,
  3;34,32,33;,
  3;33,35,34;,
  3;36,38,37;,
  3;37,39,36;,
  3;40,36,39;,
  3;39,41,40;,
  3;29,40,41;,
  3;41,28,29;,
  3;38,43,42;,
  3;42,37,38;,
  3;43,45,44;,
  3;44,42,43;,
  3;45,47,46;,
  3;46,44,45;,
  3;48,50,49;,
  3;49,51,48;,
  3;50,53,52;,
  3;52,49,50;;
 }

 MeshTextureCoords {
  54;
  0.000000;-0.991200;,
  1.000000;-0.971100;,
  0.000000;-0.971100;,
  1.000000;-0.991200;,
  1.000000;-0.774500;,
  0.000000;-0.703900;,
  0.000000;-0.774500;,
  1.000000;-0.703900;,
  1.000000;-0.628600;,
  0.000000;-0.551000;,
  0.000000;-0.628600;,
  1.000000;-0.551000;,
  1.000000;-0.838300;,
  0.000000;-0.838300;,
  0.000000;-0.998000;,
  1.000000;-0.998000;,
  1.000000;-0.938100;,
  0.000000;-0.938100;,
  0.000000;-0.260500;,
  1.000000;-0.260500;,
  1.000000;-0.893400;,
  0.000000;-0.893400;,
  0.000000;0.000000;,
  1.000000;0.000000;,
  0.000000;-0.628600;,
  1.000000;-0.703900;,
  0.000000;-0.703900;,
  1.000000;-0.628600;,
  1.000000;-0.774500;,
  0.000000;-0.774500;,
  0.000000;-0.551000;,
  1.000000;-0.551000;,
  0.000000;-0.282700;,
  1.000000;-0.282700;,
  0.000000;0.000000;,
  1.000000;0.000000;,
  0.000000;-0.893400;,
  1.000000;-0.938100;,
  0.000000;-0.938100;,
  1.000000;-0.893400;,
  0.000000;-0.838300;,
  1.000000;-0.838300;,
  1.000000;-0.971100;,
  0.000000;-0.971100;,
  1.000000;-0.991200;,
  0.000000;-0.991200;,
  1.000000;-0.998000;,
  0.000000;-0.998000;,
  -0.623000;-1.726800;,
  0.000000;0.000000;,
  0.000000;-1.726800;,
  -0.623000;0.000000;,
  0.623000;0.000000;,
  0.623000;-1.726800;;
 }

 MeshMaterialList {
  3;
  48;
  0,
  0,
  0,
  0,
  0,
  0,
  0,
  0,
  0,
  0,
  0,
  0,
  0,
  0,
  0,
  0,
  0,
  0,
  0,
  0,
  0,
  0,
  1,
  1,
  1,
  1,
  1,
  1,
  1,
  1,
  1,
  1,
  1,
  1,
  1,
  1,
  1,
  1,
  1,
  1,
  1,
  1,
  1,
  1,
  2,
  2,
  2,
  2;

  Material {
   1.000000;1.000000;1.000000;1.000000;;
   5.000000;
   0.100000;0.100000;0.100000;;
   0.200000;0.200000;0.200000;;

   TextureFilename {
    "conc01_taihi.png";
   }
  }

  Material {
   1.000000;1.000000;1.000000;1.000000;;
   5.000000;
   0.100000;0.100000;0.100000;;
   0.200000;0.200000;0.200000;;

   TextureFilename {
    "conc01_wall.png";
   }
  }

  Material {
   0.000000;0.000000;0.000000;1.000000;;
   5.000000;
   0.100000;0.100000;0.100000;;
   0.200000;0.200000;0.200000;;
  }
 }
}