xof 0303txt 0032
template Vector {
 <3d82ab5e-62da-11cf-ab39-0020af71e433>
 FLOAT x;
 FLOAT y;
 FLOAT z;
}

template MeshFace {
 <3d82ab5f-62da-11cf-ab39-0020af71e433>
 DWORD nFaceVertexIndices;
 array DWORD faceVertexIndices[nFaceVertexIndices];
}

template Mesh {
 <3d82ab44-62da-11cf-ab39-0020af71e433>
 DWORD nVertices;
 array Vector vertices[nVertices];
 DWORD nFaces;
 array MeshFace faces[nFaces];
 [...]
}

template MeshNormals {
 <f6f23f43-7686-11cf-8f52-0040333594a3>
 DWORD nNormals;
 array Vector normals[nNormals];
 DWORD nFaceNormals;
 array MeshFace faceNormals[nFaceNormals];
}

template Coords2d {
 <f6f23f44-7686-11cf-8f52-0040333594a3>
 FLOAT u;
 FLOAT v;
}

template MeshTextureCoords {
 <f6f23f40-7686-11cf-8f52-0040333594a3>
 DWORD nTextureCoords;
 array Coords2d textureCoords[nTextureCoords];
}

template ColorRGBA {
 <35ff44e0-6c7c-11cf-8f52-0040333594a3>
 FLOAT red;
 FLOAT green;
 FLOAT blue;
 FLOAT alpha;
}

template ColorRGB {
 <d3e16e81-7835-11cf-8f52-0040333594a3>
 FLOAT red;
 FLOAT green;
 FLOAT blue;
}

template Material {
 <3d82ab4d-62da-11cf-ab39-0020af71e433>
 ColorRGBA faceColor;
 FLOAT power;
 ColorRGB specularColor;
 ColorRGB emissiveColor;
 [...]
}

template MeshMaterialList {
 <f6f23f42-7686-11cf-8f52-0040333594a3>
 DWORD nMaterials;
 DWORD nFaceIndexes;
 array DWORD faceIndexes[nFaceIndexes];
 [Material <3d82ab4d-62da-11cf-ab39-0020af71e433>]
}

template TextureFilename {
 <a42790e1-7810-11cf-8f52-0040333594a3>
 STRING filename;
}


Mesh {
 50;
 1.140000;4.324500;0.000000;,
 1.465600;4.096600;5.099999;,
 1.140000;4.324500;5.099999;,
 1.465600;4.096600;0.000000;,
 -0.779800;4.492500;0.000000;,
 -0.395900;4.595399;5.099999;,
 -0.779800;4.492500;5.099999;,
 -0.395900;4.595399;0.000000;,
 -1.974500;3.490000;0.000000;,
 -2.142500;3.129800;5.099999;,
 -2.142500;3.129800;0.000000;,
 -1.974500;3.490000;5.099999;,
 1.746600;3.815600;0.000000;,
 1.746600;3.815600;5.099999;,
 -2.245400;2.745900;0.000000;,
 -2.280000;2.350000;5.099999;,
 -2.280000;2.350000;0.000000;,
 -2.245400;2.745900;5.099999;,
 1.974500;3.490000;5.099999;,
 1.974500;3.490000;0.000000;,
 -1.746600;3.815600;0.000000;,
 -1.746600;3.815600;5.099999;,
 0.779800;4.492500;0.000000;,
 0.779800;4.492500;5.099999;,
 0.000000;4.630000;5.099999;,
 0.000000;4.630000;0.000000;,
 -2.150400;0.868400;5.099999;,
 -2.150400;0.868400;0.000000;,
 -1.465600;4.096600;0.000000;,
 -1.140000;4.324500;5.099999;,
 -1.465600;4.096600;5.099999;,
 -1.140000;4.324500;0.000000;,
 0.395900;4.595399;5.099999;,
 0.395900;4.595399;0.000000;,
 -1.804000;-0.460000;5.099999;,
 -1.804000;-0.460000;0.000000;,
 2.169500;0.981600;5.099999;,
 2.280000;2.350000;0.000000;,
 2.169500;0.981600;0.000000;,
 2.280000;2.350000;5.099999;,
 2.245400;2.745900;5.099999;,
 2.142500;3.129800;0.000000;,
 2.245400;2.745900;0.000000;,
 2.142500;3.129800;5.099999;,
 1.804000;-0.460000;5.099999;,
 1.804000;-0.460000;0.000000;,
 1.804000;-0.460000;0.000000;,
 -1.804000;-0.460000;5.099999;,
 1.804000;-0.460000;5.099999;,
 -1.804000;-0.460000;0.000000;;
 46;
 3;0,1,2;,
 3;1,0,3;,
 3;4,5,6;,
 3;5,4,7;,
 3;8,9,10;,
 3;9,8,11;,
 3;1,12,13;,
 3;12,1,3;,
 3;14,15,16;,
 3;15,14,17;,
 3;18,12,19;,
 3;12,18,13;,
 3;20,11,8;,
 3;11,20,21;,
 3;22,2,23;,
 3;2,22,0;,
 3;7,24,5;,
 3;24,7,25;,
 3;16,26,27;,
 3;26,16,15;,
 3;28,29,30;,
 3;29,28,31;,
 3;20,30,21;,
 3;30,20,28;,
 3;25,32,24;,
 3;32,25,33;,
 3;29,4,6;,
 3;4,29,31;,
 3;33,23,32;,
 3;23,33,22;,
 3;10,17,14;,
 3;17,10,9;,
 3;27,34,35;,
 3;34,27,26;,
 3;36,37,38;,
 3;37,36,39;,
 3;40,41,42;,
 3;41,40,43;,
 3;43,19,41;,
 3;19,43,18;,
 3;44,38,45;,
 3;38,44,36;,
 3;39,42,37;,
 3;42,39,40;,
 3;46,47,48;,
 3;47,46,49;;

 MeshNormals {
  50;
  -0.500011;-0.866019;0.000000;,
  -0.642817;-0.766020;0.000000;,
  -0.500011;-0.866019;0.000000;,
  -0.642817;-0.766020;0.000000;,
  0.342000;-0.939700;0.000000;,
  0.173700;-0.984799;0.000000;,
  0.342000;-0.939700;0.000000;,
  0.173700;-0.984799;0.000000;,
  0.866019;-0.500011;0.000000;,
  0.939700;-0.342000;0.000000;,
  0.939700;-0.342000;0.000000;,
  0.866019;-0.500011;0.000000;,
  -0.766020;-0.642817;0.000000;,
  -0.766020;-0.642817;0.000000;,
  0.984816;-0.173603;0.000000;,
  1.000000;0.000000;0.000000;,
  1.000000;0.000000;0.000000;,
  0.984816;-0.173603;0.000000;,
  -0.866019;-0.500011;0.000000;,
  -0.866019;-0.500011;0.000000;,
  0.766020;-0.642817;0.000000;,
  0.766020;-0.642817;0.000000;,
  -0.342000;-0.939700;0.000000;,
  -0.342000;-0.939700;0.000000;,
  0.000000;-1.000000;0.000000;,
  0.000000;-1.000000;0.000000;,
  0.985392;0.170299;0.000000;,
  0.985392;0.170299;0.000000;,
  0.642817;-0.766020;0.000000;,
  0.500011;-0.866019;0.000000;,
  0.642817;-0.766020;0.000000;,
  0.500011;-0.866019;0.000000;,
  -0.173700;-0.984799;0.000000;,
  -0.173700;-0.984799;0.000000;,
  0.967646;0.252312;0.000000;,
  0.967646;0.252312;0.000000;,
  -0.986510;0.163702;0.000000;,
  -0.999994;-0.003400;0.000000;,
  -0.986510;0.163702;0.000000;,
  -0.999994;-0.003400;0.000000;,
  -0.984816;-0.173603;0.000000;,
  -0.939700;-0.342000;0.000000;,
  -0.984816;-0.173603;0.000000;,
  -0.939700;-0.342000;0.000000;,
  -0.969319;0.245805;0.000000;,
  -0.969319;0.245805;0.000000;,
  0.000000;1.000000;0.000000;,
  0.000000;1.000000;0.000000;,
  0.000000;1.000000;0.000000;,
  0.000000;1.000000;0.000000;;
  46;
  3;0,1,2;,
  3;1,0,3;,
  3;4,5,6;,
  3;5,4,7;,
  3;8,9,10;,
  3;9,8,11;,
  3;1,12,13;,
  3;12,1,3;,
  3;14,15,16;,
  3;15,14,17;,
  3;18,12,19;,
  3;12,18,13;,
  3;20,11,8;,
  3;11,20,21;,
  3;22,2,23;,
  3;2,22,0;,
  3;7,24,5;,
  3;24,7,25;,
  3;16,26,27;,
  3;26,16,15;,
  3;28,29,30;,
  3;29,28,31;,
  3;20,30,21;,
  3;30,20,28;,
  3;25,32,24;,
  3;32,25,33;,
  3;29,4,6;,
  3;4,29,31;,
  3;33,23,32;,
  3;23,33,22;,
  3;10,17,14;,
  3;17,10,9;,
  3;27,34,35;,
  3;34,27,26;,
  3;36,37,38;,
  3;37,36,39;,
  3;40,41,42;,
  3;41,40,43;,
  3;43,19,41;,
  3;19,43,18;,
  3;44,38,45;,
  3;38,44,36;,
  3;39,42,37;,
  3;42,39,40;,
  3;46,47,48;,
  3;47,46,49;;
 }

 MeshTextureCoords {
  50;
  0.000000;-0.938100;,
  1.000000;-0.893400;,
  1.000000;-0.938100;,
  0.000000;-0.893400;,
  0.000000;-0.971100;,
  1.000000;-0.991200;,
  1.000000;-0.971100;,
  0.000000;-0.991200;,
  0.000000;-0.774500;,
  1.000000;-0.703900;,
  0.000000;-0.703900;,
  1.000000;-0.774500;,
  0.000000;-0.838300;,
  1.000000;-0.838300;,
  0.000000;-0.628600;,
  1.000000;-0.551000;,
  0.000000;-0.551000;,
  1.000000;-0.628600;,
  1.000000;-0.774500;,
  0.000000;-0.774500;,
  0.000000;-0.838300;,
  1.000000;-0.838300;,
  0.000000;-0.971100;,
  1.000000;-0.971100;,
  1.000000;-0.998000;,
  0.000000;-0.998000;,
  1.000000;-0.260500;,
  0.000000;-0.260500;,
  0.000000;-0.893400;,
  1.000000;-0.938100;,
  1.000000;-0.893400;,
  0.000000;-0.938100;,
  1.000000;-0.991200;,
  0.000000;-0.991200;,
  1.000000;0.000000;,
  0.000000;0.000000;,
  1.000000;-0.282700;,
  0.000000;-0.551000;,
  0.000000;-0.282700;,
  1.000000;-0.551000;,
  1.000000;-0.628600;,
  0.000000;-0.703900;,
  0.000000;-0.628600;,
  1.000000;-0.703900;,
  1.000000;0.000000;,
  0.000000;0.000000;,
  -0.623000;0.000000;,
  0.623000;-1.726800;,
  -0.623000;-1.726800;,
  0.623000;0.000000;;
 }

 MeshMaterialList {
  2;
  46;
  0,
  0,
  0,
  0,
  0,
  0,
  0,
  0,
  0,
  0,
  0,
  0,
  0,
  0,
  0,
  0,
  0,
  0,
  0,
  0,
  0,
  0,
  0,
  0,
  0,
  0,
  0,
  0,
  0,
  0,
  0,
  0,
  0,
  0,
  0,
  0,
  0,
  0,
  0,
  0,
  0,
  0,
  0,
  0,
  1,
  1;

  Material {
   1.000000;1.000000;1.000000;1.000000;;
   5.000000;
   0.100000;0.100000;0.100000;;
   0.200000;0.200000;0.200000;;

   TextureFilename {
    "conc01_wall.png";
   }
  }

  Material {
   0.000000;0.000000;0.000000;1.000000;;
   0.000000;
   0.000000;0.000000;0.000000;;
   0.000000;0.000000;0.000000;;
  }
 }
}