xof 0303txt 0032
template Vector {
 <3d82ab5e-62da-11cf-ab39-0020af71e433>
 FLOAT x;
 FLOAT y;
 FLOAT z;
}

template MeshFace {
 <3d82ab5f-62da-11cf-ab39-0020af71e433>
 DWORD nFaceVertexIndices;
 array DWORD faceVertexIndices[nFaceVertexIndices];
}

template Mesh {
 <3d82ab44-62da-11cf-ab39-0020af71e433>
 DWORD nVertices;
 array Vector vertices[nVertices];
 DWORD nFaces;
 array MeshFace faces[nFaces];
 [...]
}

template MeshNormals {
 <f6f23f43-7686-11cf-8f52-0040333594a3>
 DWORD nNormals;
 array Vector normals[nNormals];
 DWORD nFaceNormals;
 array MeshFace faceNormals[nFaceNormals];
}

template Coords2d {
 <f6f23f44-7686-11cf-8f52-0040333594a3>
 FLOAT u;
 FLOAT v;
}

template MeshTextureCoords {
 <f6f23f40-7686-11cf-8f52-0040333594a3>
 DWORD nTextureCoords;
 array Coords2d textureCoords[nTextureCoords];
}

template ColorRGBA {
 <35ff44e0-6c7c-11cf-8f52-0040333594a3>
 FLOAT red;
 FLOAT green;
 FLOAT blue;
 FLOAT alpha;
}

template ColorRGB {
 <d3e16e81-7835-11cf-8f52-0040333594a3>
 FLOAT red;
 FLOAT green;
 FLOAT blue;
}

template Material {
 <3d82ab4d-62da-11cf-ab39-0020af71e433>
 ColorRGBA faceColor;
 FLOAT power;
 ColorRGB specularColor;
 ColorRGB emissiveColor;
 [...]
}

template MeshMaterialList {
 <f6f23f42-7686-11cf-8f52-0040333594a3>
 DWORD nMaterials;
 DWORD nFaceIndexes;
 array DWORD faceIndexes[nFaceIndexes];
 [Material <3d82ab4d-62da-11cf-ab39-0020af71e433>]
}

template TextureFilename {
 <a42790e1-7810-11cf-8f52-0040333594a3>
 STRING filename;
}


Mesh {
 52;
 -1.140000;4.324500;0.000000;,
 -1.465600;4.096600;5.099998;,
 -1.140000;4.324500;5.099998;,
 -1.465600;4.096600;0.000000;,
 -1.746600;3.815600;0.000000;,
 -1.746600;3.815600;5.099998;,
 -1.974500;3.490000;5.099998;,
 -1.974500;3.490000;0.000000;,
 -0.779800;4.492498;0.000000;,
 -0.779800;4.492498;5.099998;,
 0.000000;4.630000;5.099998;,
 0.000000;4.630000;0.000000;,
 -0.395900;4.595398;5.099998;,
 -0.395900;4.595398;0.000000;,
 -2.169500;0.981600;5.099998;,
 -2.280000;2.350000;0.000000;,
 -2.169500;0.981600;0.000000;,
 -2.280000;2.350000;5.099998;,
 -2.245400;2.745900;5.099998;,
 -2.142500;3.129800;0.000000;,
 -2.245400;2.745900;0.000000;,
 -2.142500;3.129800;5.099998;,
 -1.804000;-0.460000;5.099998;,
 -1.804000;-0.460000;0.000000;,
 -1.804000;-0.460000;0.000000;,
 1.804000;-0.460000;5.099998;,
 -1.804000;-0.460000;5.099998;,
 1.804000;-0.460000;0.000000;,
 0.779800;4.492498;0.000000;,
 0.395900;4.595398;5.099998;,
 0.779800;4.492498;5.099998;,
 0.395900;4.595398;0.000000;,
 1.974500;3.490000;0.000000;,
 2.142500;3.129800;5.099998;,
 2.142500;3.129800;0.000000;,
 1.974500;3.490000;5.099998;,
 2.245400;2.745900;0.000000;,
 2.280000;2.350000;5.099998;,
 2.280000;2.350000;0.000000;,
 2.245400;2.745900;5.099998;,
 1.746600;3.815600;0.000000;,
 1.746600;3.815600;5.099998;,
 2.150400;0.868400;5.099998;,
 2.150400;0.868400;0.000000;,
 1.465600;4.096600;0.000000;,
 1.140000;4.324500;5.099998;,
 1.465600;4.096600;5.099998;,
 1.140000;4.324500;0.000000;,
 1.804000;-0.460000;5.099998;,
 1.804000;-0.460000;0.000000;,
 0.000000;4.630000;5.099998;,
 0.000000;4.630000;0.000000;;
 46;
 3;0,2,1;,
 3;1,3,0;,
 3;1,5,4;,
 3;4,3,1;,
 3;6,7,4;,
 3;4,5,6;,
 3;8,9,2;,
 3;2,0,8;,
 3;11,10,12;,
 3;12,13,11;,
 3;13,12,9;,
 3;9,8,13;,
 3;14,16,15;,
 3;15,17,14;,
 3;18,20,19;,
 3;19,21,18;,
 3;21,19,7;,
 3;7,6,21;,
 3;22,23,16;,
 3;16,14,22;,
 3;17,15,20;,
 3;20,18,17;,
 3;24,26,25;,
 3;25,27,24;,
 3;28,30,29;,
 3;29,31,28;,
 3;32,34,33;,
 3;33,35,32;,
 3;36,38,37;,
 3;37,39,36;,
 3;40,32,35;,
 3;35,41,40;,
 3;31,29,50;,
 3;50,51,31;,
 3;38,43,42;,
 3;42,37,38;,
 3;44,46,45;,
 3;45,47,44;,
 3;40,41,46;,
 3;46,44,40;,
 3;45,30,28;,
 3;28,47,45;,
 3;34,36,39;,
 3;39,33,34;,
 3;43,49,48;,
 3;48,42,43;;

 MeshNormals {
  52;
  0.500011;-0.866019;0.000000;,
  0.642817;-0.766020;0.000000;,
  0.500011;-0.866019;0.000000;,
  0.642817;-0.766020;0.000000;,
  0.766020;-0.642817;0.000000;,
  0.766020;-0.642817;0.000000;,
  0.866019;-0.500011;0.000000;,
  0.866019;-0.500011;0.000000;,
  0.342000;-0.939700;0.000000;,
  0.342000;-0.939700;0.000000;,
  0.000000;-1.000000;0.000000;,
  0.000000;-1.000000;0.000000;,
  0.173700;-0.984798;0.000000;,
  0.173700;-0.984798;0.000000;,
  0.986510;0.163702;0.000000;,
  0.999994;-0.003400;0.000000;,
  0.986510;0.163702;0.000000;,
  0.999994;-0.003400;0.000000;,
  0.984816;-0.173603;0.000000;,
  0.939700;-0.342000;0.000000;,
  0.984816;-0.173603;0.000000;,
  0.939700;-0.342000;0.000000;,
  0.969319;0.245805;0.000000;,
  0.969319;0.245805;0.000000;,
  0.000000;1.000000;0.000000;,
  0.000000;1.000000;0.000000;,
  0.000000;1.000000;0.000000;,
  0.000000;1.000000;0.000000;,
  -0.342000;-0.939700;0.000000;,
  -0.173700;-0.984798;0.000000;,
  -0.342000;-0.939700;0.000000;,
  -0.173700;-0.984798;0.000000;,
  -0.866019;-0.500011;0.000000;,
  -0.939700;-0.342000;0.000000;,
  -0.939700;-0.342000;0.000000;,
  -0.866019;-0.500011;0.000000;,
  -0.984816;-0.173603;0.000000;,
  -1.000000;0.000000;0.000000;,
  -1.000000;0.000000;0.000000;,
  -0.984816;-0.173603;0.000000;,
  -0.766020;-0.642817;0.000000;,
  -0.766020;-0.642817;0.000000;,
  -0.985392;0.170299;0.000000;,
  -0.985392;0.170299;0.000000;,
  -0.642817;-0.766020;0.000000;,
  -0.500011;-0.866019;0.000000;,
  -0.642817;-0.766020;0.000000;,
  -0.500011;-0.866019;0.000000;,
  -0.967646;0.252312;0.000000;,
  -0.967646;0.252312;0.000000;,
  0.000000;-1.000000;0.000000;,
  0.000000;-1.000000;0.000000;;
  46;
  3;0,2,1;,
  3;1,3,0;,
  3;1,5,4;,
  3;4,3,1;,
  3;6,7,4;,
  3;4,5,6;,
  3;8,9,2;,
  3;2,0,8;,
  3;11,10,12;,
  3;12,13,11;,
  3;13,12,9;,
  3;9,8,13;,
  3;14,16,15;,
  3;15,17,14;,
  3;18,20,19;,
  3;19,21,18;,
  3;21,19,7;,
  3;7,6,21;,
  3;22,23,16;,
  3;16,14,22;,
  3;17,15,20;,
  3;20,18,17;,
  3;24,26,25;,
  3;25,27,24;,
  3;28,30,29;,
  3;29,31,28;,
  3;32,34,33;,
  3;33,35,32;,
  3;36,38,37;,
  3;37,39,36;,
  3;40,32,35;,
  3;35,41,40;,
  3;31,29,50;,
  3;50,51,31;,
  3;38,43,42;,
  3;42,37,38;,
  3;44,46,45;,
  3;45,47,44;,
  3;40,41,46;,
  3;46,44,40;,
  3;45,30,28;,
  3;28,47,45;,
  3;34,36,39;,
  3;39,33,34;,
  3;43,49,48;,
  3;48,42,43;;
 }

 MeshTextureCoords {
  52;
  0.000000;-0.938100;,
  1.000000;-0.893400;,
  1.000000;-0.938100;,
  0.000000;-0.893400;,
  0.000000;-0.838300;,
  1.000000;-0.838300;,
  1.000000;-0.774500;,
  0.000000;-0.774500;,
  0.000000;-0.971100;,
  1.000000;-0.971100;,
  1.000000;-0.998000;,
  0.000000;-0.998000;,
  1.000000;-0.991200;,
  0.000000;-0.991200;,
  1.000000;-0.282700;,
  0.000000;-0.551000;,
  0.000000;-0.282700;,
  1.000000;-0.551000;,
  1.000000;-0.628600;,
  0.000000;-0.703900;,
  0.000000;-0.628600;,
  1.000000;-0.703900;,
  1.000000;0.000000;,
  0.000000;0.000000;,
  -0.623000;0.000000;,
  0.623000;-1.726800;,
  -0.623000;-1.726800;,
  0.623000;0.000000;,
  0.000000;-0.971100;,
  1.000000;-0.991200;,
  1.000000;-0.971100;,
  0.000000;-0.991200;,
  0.000000;-0.774500;,
  1.000000;-0.703900;,
  0.000000;-0.703900;,
  1.000000;-0.774500;,
  0.000000;-0.628600;,
  1.000000;-0.551000;,
  0.000000;-0.551000;,
  1.000000;-0.628600;,
  0.000000;-0.838300;,
  1.000000;-0.838300;,
  1.000000;-0.260500;,
  0.000000;-0.260500;,
  0.000000;-0.893400;,
  1.000000;-0.938100;,
  1.000000;-0.893400;,
  0.000000;-0.938100;,
  1.000000;0.000000;,
  0.000000;0.000000;,
  1.000000;-0.998000;,
  0.000000;-0.998000;;
 }

 MeshMaterialList {
  3;
  46;
  0,
  0,
  0,
  0,
  0,
  0,
  0,
  0,
  0,
  0,
  0,
  0,
  0,
  0,
  0,
  0,
  0,
  0,
  0,
  0,
  0,
  0,
  1,
  1,
  2,
  2,
  2,
  2,
  2,
  2,
  2,
  2,
  2,
  2,
  2,
  2,
  2,
  2,
  2,
  2,
  2,
  2,
  2,
  2,
  2,
  2;

  Material {
   1.000000;1.000000;1.000000;1.000000;;
   5.000000;
   0.100000;0.100000;0.100000;;
   0.200000;0.200000;0.200000;;

   TextureFilename {
    "renga01_wall.png";
   }
  }

  Material {
   0.000000;0.000000;0.000000;1.000000;;
   5.000000;
   0.100000;0.100000;0.100000;;
   0.200000;0.200000;0.200000;;
  }

  Material {
   1.000000;1.000000;1.000000;1.000000;;
   5.000000;
   0.100000;0.100000;0.100000;;
   0.200000;0.200000;0.200000;;

   TextureFilename {
    "renga01_taihi.png";
   }
  }
 }
}