xof 0303txt 0032
template Vector {
 <3d82ab5e-62da-11cf-ab39-0020af71e433>
 FLOAT x;
 FLOAT y;
 FLOAT z;
}

template MeshFace {
 <3d82ab5f-62da-11cf-ab39-0020af71e433>
 DWORD nFaceVertexIndices;
 array DWORD faceVertexIndices[nFaceVertexIndices];
}

template Mesh {
 <3d82ab44-62da-11cf-ab39-0020af71e433>
 DWORD nVertices;
 array Vector vertices[nVertices];
 DWORD nFaces;
 array MeshFace faces[nFaces];
 [...]
}

template MeshNormals {
 <f6f23f43-7686-11cf-8f52-0040333594a3>
 DWORD nNormals;
 array Vector normals[nNormals];
 DWORD nFaceNormals;
 array MeshFace faceNormals[nFaceNormals];
}

template Coords2d {
 <f6f23f44-7686-11cf-8f52-0040333594a3>
 FLOAT u;
 FLOAT v;
}

template MeshTextureCoords {
 <f6f23f40-7686-11cf-8f52-0040333594a3>
 DWORD nTextureCoords;
 array Coords2d textureCoords[nTextureCoords];
}

template ColorRGBA {
 <35ff44e0-6c7c-11cf-8f52-0040333594a3>
 FLOAT red;
 FLOAT green;
 FLOAT blue;
 FLOAT alpha;
}

template ColorRGB {
 <d3e16e81-7835-11cf-8f52-0040333594a3>
 FLOAT red;
 FLOAT green;
 FLOAT blue;
}

template Material {
 <3d82ab4d-62da-11cf-ab39-0020af71e433>
 ColorRGBA faceColor;
 FLOAT power;
 ColorRGB specularColor;
 ColorRGB emissiveColor;
 [...]
}

template MeshMaterialList {
 <f6f23f42-7686-11cf-8f52-0040333594a3>
 DWORD nMaterials;
 DWORD nFaceIndexes;
 array DWORD faceIndexes[nFaceIndexes];
 [Material <3d82ab4d-62da-11cf-ab39-0020af71e433>]
}

template TextureFilename {
 <a42790e1-7810-11cf-8f52-0040333594a3>
 STRING filename;
}


Mesh {
 52;
 1.140000;4.324500;0.000000;,
 1.465600;4.096600;5.099998;,
 1.140000;4.324500;5.099998;,
 1.465600;4.096600;0.000000;,
 1.746600;3.815600;0.000000;,
 1.746600;3.815600;5.099998;,
 1.974500;3.490000;5.099998;,
 1.974500;3.490000;0.000000;,
 0.779800;4.492498;0.000000;,
 0.779800;4.492498;5.099998;,
 0.000000;4.630000;5.099998;,
 0.000000;4.630000;0.000000;,
 0.395900;4.595398;5.099998;,
 0.395900;4.595398;0.000000;,
 2.169500;0.981600;5.099998;,
 2.280000;2.350000;0.000000;,
 2.169500;0.981600;0.000000;,
 2.280000;2.350000;5.099998;,
 2.245400;2.745900;5.099998;,
 2.142500;3.129800;0.000000;,
 2.245400;2.745900;0.000000;,
 2.142500;3.129800;5.099998;,
 1.804000;-0.460000;5.099998;,
 1.804000;-0.460000;0.000000;,
 1.804000;-0.460000;0.000000;,
 -1.804000;-0.460000;5.099998;,
 1.804000;-0.460000;5.099998;,
 -1.804000;-0.460000;0.000000;,
 -0.779800;4.492498;0.000000;,
 -0.395900;4.595398;5.099998;,
 -0.779800;4.492498;5.099998;,
 -0.395900;4.595398;0.000000;,
 -1.974500;3.490000;0.000000;,
 -2.142500;3.129800;5.099998;,
 -2.142500;3.129800;0.000000;,
 -1.974500;3.490000;5.099998;,
 -2.245400;2.745900;0.000000;,
 -2.280000;2.350000;5.099998;,
 -2.280000;2.350000;0.000000;,
 -2.245400;2.745900;5.099998;,
 -1.746600;3.815600;0.000000;,
 -1.746600;3.815600;5.099998;,
 -2.150400;0.868400;5.099998;,
 -2.150400;0.868400;0.000000;,
 -1.465600;4.096600;0.000000;,
 -1.140000;4.324500;5.099998;,
 -1.465600;4.096600;5.099998;,
 -1.140000;4.324500;0.000000;,
 -1.804000;-0.460000;5.099998;,
 -1.804000;-0.460000;0.000000;,
 0.000000;4.630000;5.099998;,
 0.000000;4.630000;0.000000;;
 46;
 3;0,1,2;,
 3;1,0,3;,
 3;1,4,5;,
 3;4,1,3;,
 3;6,4,7;,
 3;4,6,5;,
 3;8,2,9;,
 3;2,8,0;,
 3;11,12,10;,
 3;12,11,13;,
 3;13,9,12;,
 3;9,13,8;,
 3;14,15,16;,
 3;15,14,17;,
 3;18,19,20;,
 3;19,18,21;,
 3;21,7,19;,
 3;7,21,6;,
 3;22,16,23;,
 3;16,22,14;,
 3;17,20,15;,
 3;20,17,18;,
 3;24,25,26;,
 3;25,24,27;,
 3;28,29,30;,
 3;29,28,31;,
 3;32,33,34;,
 3;33,32,35;,
 3;36,37,38;,
 3;37,36,39;,
 3;40,35,32;,
 3;35,40,41;,
 3;31,50,29;,
 3;50,31,51;,
 3;38,42,43;,
 3;42,38,37;,
 3;44,45,46;,
 3;45,44,47;,
 3;40,46,41;,
 3;46,40,44;,
 3;45,28,30;,
 3;28,45,47;,
 3;34,39,36;,
 3;39,34,33;,
 3;43,48,49;,
 3;48,43,42;;

 MeshNormals {
  52;
  -0.500011;-0.866019;0.000000;,
  -0.642817;-0.766020;0.000000;,
  -0.500011;-0.866019;0.000000;,
  -0.642817;-0.766020;0.000000;,
  -0.766020;-0.642817;0.000000;,
  -0.766020;-0.642817;0.000000;,
  -0.866019;-0.500011;0.000000;,
  -0.866019;-0.500011;0.000000;,
  -0.342000;-0.939700;0.000000;,
  -0.342000;-0.939700;0.000000;,
  0.000000;-1.000000;0.000000;,
  0.000000;-1.000000;0.000000;,
  -0.173700;-0.984798;0.000000;,
  -0.173700;-0.984798;0.000000;,
  -0.986510;0.163702;0.000000;,
  -0.999994;-0.003400;0.000000;,
  -0.986510;0.163702;0.000000;,
  -0.999994;-0.003400;0.000000;,
  -0.984816;-0.173603;0.000000;,
  -0.939700;-0.342000;0.000000;,
  -0.984816;-0.173603;0.000000;,
  -0.939700;-0.342000;0.000000;,
  -0.969319;0.245805;0.000000;,
  -0.969319;0.245805;0.000000;,
  0.000000;1.000000;0.000000;,
  0.000000;1.000000;0.000000;,
  0.000000;1.000000;0.000000;,
  0.000000;1.000000;0.000000;,
  0.342000;-0.939700;0.000000;,
  0.173700;-0.984798;0.000000;,
  0.342000;-0.939700;0.000000;,
  0.173700;-0.984798;0.000000;,
  0.866019;-0.500011;0.000000;,
  0.939700;-0.342000;0.000000;,
  0.939700;-0.342000;0.000000;,
  0.866019;-0.500011;0.000000;,
  0.984816;-0.173603;0.000000;,
  1.000000;0.000000;0.000000;,
  1.000000;0.000000;0.000000;,
  0.984816;-0.173603;0.000000;,
  0.766020;-0.642817;0.000000;,
  0.766020;-0.642817;0.000000;,
  0.985392;0.170299;0.000000;,
  0.985392;0.170299;0.000000;,
  0.642817;-0.766020;0.000000;,
  0.500011;-0.866019;0.000000;,
  0.642817;-0.766020;0.000000;,
  0.500011;-0.866019;0.000000;,
  0.967646;0.252312;0.000000;,
  0.967646;0.252312;0.000000;,
  0.000000;-1.000000;0.000000;,
  0.000000;-1.000000;0.000000;;
  46;
  3;0,1,2;,
  3;1,0,3;,
  3;1,4,5;,
  3;4,1,3;,
  3;6,4,7;,
  3;4,6,5;,
  3;8,2,9;,
  3;2,8,0;,
  3;11,12,10;,
  3;12,11,13;,
  3;13,9,12;,
  3;9,13,8;,
  3;14,15,16;,
  3;15,14,17;,
  3;18,19,20;,
  3;19,18,21;,
  3;21,7,19;,
  3;7,21,6;,
  3;22,16,23;,
  3;16,22,14;,
  3;17,20,15;,
  3;20,17,18;,
  3;24,25,26;,
  3;25,24,27;,
  3;28,29,30;,
  3;29,28,31;,
  3;32,33,34;,
  3;33,32,35;,
  3;36,37,38;,
  3;37,36,39;,
  3;40,35,32;,
  3;35,40,41;,
  3;31,50,29;,
  3;50,31,51;,
  3;38,42,43;,
  3;42,38,37;,
  3;44,45,46;,
  3;45,44,47;,
  3;40,46,41;,
  3;46,40,44;,
  3;45,28,30;,
  3;28,45,47;,
  3;34,39,36;,
  3;39,34,33;,
  3;43,48,49;,
  3;48,43,42;;
 }

 MeshTextureCoords {
  52;
  0.000000;-0.938100;,
  1.000000;-0.893400;,
  1.000000;-0.938100;,
  0.000000;-0.893400;,
  0.000000;-0.838300;,
  1.000000;-0.838300;,
  1.000000;-0.774500;,
  0.000000;-0.774500;,
  0.000000;-0.971100;,
  1.000000;-0.971100;,
  1.000000;-0.998000;,
  0.000000;-0.998000;,
  1.000000;-0.991200;,
  0.000000;-0.991200;,
  1.000000;-0.282700;,
  0.000000;-0.551000;,
  0.000000;-0.282700;,
  1.000000;-0.551000;,
  1.000000;-0.628600;,
  0.000000;-0.703900;,
  0.000000;-0.628600;,
  1.000000;-0.703900;,
  1.000000;0.000000;,
  0.000000;0.000000;,
  -0.623000;0.000000;,
  0.623000;-1.726800;,
  -0.623000;-1.726800;,
  0.623000;0.000000;,
  0.000000;-0.971100;,
  1.000000;-0.991200;,
  1.000000;-0.971100;,
  0.000000;-0.991200;,
  0.000000;-0.774500;,
  1.000000;-0.703900;,
  0.000000;-0.703900;,
  1.000000;-0.774500;,
  0.000000;-0.628600;,
  1.000000;-0.551000;,
  0.000000;-0.551000;,
  1.000000;-0.628600;,
  0.000000;-0.838300;,
  1.000000;-0.838300;,
  1.000000;-0.260500;,
  0.000000;-0.260500;,
  0.000000;-0.893400;,
  1.000000;-0.938100;,
  1.000000;-0.893400;,
  0.000000;-0.938100;,
  1.000000;0.000000;,
  0.000000;0.000000;,
  1.000000;-0.998000;,
  0.000000;-0.998000;;
 }

 MeshMaterialList {
  3;
  46;
  0,
  0,
  0,
  0,
  0,
  0,
  0,
  0,
  0,
  0,
  0,
  0,
  0,
  0,
  0,
  0,
  0,
  0,
  0,
  0,
  0,
  0,
  1,
  1,
  2,
  2,
  2,
  2,
  2,
  2,
  2,
  2,
  2,
  2,
  2,
  2,
  2,
  2,
  2,
  2,
  2,
  2,
  2,
  2,
  2,
  2;

  Material {
   1.000000;1.000000;1.000000;1.000000;;
   5.000000;
   0.100000;0.100000;0.100000;;
   0.200000;0.200000;0.200000;;

   TextureFilename {
    "renga01_wall.png";
   }
  }

  Material {
   0.000000;0.000000;0.000000;1.000000;;
   5.000000;
   0.100000;0.100000;0.100000;;
   0.200000;0.200000;0.200000;;
  }

  Material {
   1.000000;1.000000;1.000000;1.000000;;
   5.000000;
   0.100000;0.100000;0.100000;;
   0.200000;0.200000;0.200000;;

   TextureFilename {
    "renga01_taihi.png";
   }
  }
 }
}