xof 0303txt 0032
Material _renga_potal3_renga_potal_png {
1.0000;1.0000;1.0000;  1.0000;;
5.0000;
0.1000;0.1000;0.1000;;	
0.2000;0.2000;0.2000;;	
   TextureFilename { "renga02_potal.png"; }
}
Mesh mesh_0{
28;
4.6547;7.3015;0.0000;,
1.8040;-0.4600;0.0000;,
4.6647;-0.5485;0.0000;,
2.1695;0.9816;-0.0000;,
2.2800;2.3500;-0.0000;,
2.2454;2.7459;-0.0000;,
2.1425;3.1298;-0.0000;,
1.9745;3.4900;-0.0000;,
1.7466;3.8156;-0.0000;,
1.4656;4.0966;-0.0000;,
1.1400;4.3245;-0.0000;,
0.7798;4.4925;-0.0000;,
0.3959;4.5954;-0.0000;,
0.0000;4.6300;-0.0000;,
-4.7337;-0.5485;0.0000;,
-1.8040;-0.4600;0.0000;,
-4.7437;7.3015;0.0000;,
0.0000;-0.4600;0.0000;,
-2.1504;0.8684;-0.0000;,
-2.2800;2.3500;-0.0000;,
-2.2454;2.7459;-0.0000;,
-2.1425;3.1298;-0.0000;,
-1.9745;3.4900;-0.0000;,
-1.7466;3.8156;-0.0000;,
-1.4656;4.0966;-0.0000;,
-1.1400;4.3245;-0.0000;,
-0.7798;4.4925;-0.0000;,
-0.3959;4.5954;-0.0000;;
28;
3;2,1,0,
3;3,0,1,
3;4,0,3,
3;5,0,4,
3;6,0,5,
3;7,0,6,
3;8,0,7,
3;9,0,8,
3;10,0,9,
3;11,0,10,
3;12,0,11,
3;13,0,12,
3;16,15,14,
3;2,14,15,
3;1,2,15,
3;17,1,15,
3;18,15,16,
3;19,18,16,
3;20,19,16,
3;21,20,16,
3;22,21,16,
3;23,22,16,
3;24,23,16,
3;25,24,16,
3;26,25,16,
3;27,26,16,
3;13,27,16,
3;0,13,16;;
  MeshMaterialList {
1;
28;
0,
0,
0,
0,
0,
0,
0,
0,
0,
0,
0,
0,
0,
0,
0,
0,
0,
0,
0,
0,
0,
0,
0,
0,
0,
0,
0,
0;
{ _renga_potal3_renga_potal_png }
  }
  MeshTextureCoords {
28;
0.8362,-1.0003;
0.6327,-0.0159;
0.8369,-0.0047;
0.6588,-0.1987;
0.6667,-0.3723;
0.6642,-0.4225;
0.6569,-0.4712;
0.6449,-0.5169;
0.6286,-0.5582;
0.6086,-0.5938;
0.5853,-0.6228;
0.5596,-0.6441;
0.5322,-0.6571;
0.5040,-0.6615;
0.1661,-0.0047;
0.3752,-0.0159;
0.1654,-1.0003;
0.5040,-0.0159;
0.3505,-0.1844;
0.3412,-0.3723;
0.3437,-0.4225;
0.3510,-0.4712;
0.3630,-0.5169;
0.3793,-0.5582;
0.3994,-0.5938;
0.4226,-0.6228;
0.4483,-0.6441;
0.4757,-0.6571;
  }
  MeshNormals {
1;
0.0000;0.0000;-1.0000;;
28;
3;0,0,0;
3;0,0,0;
3;0,0,0;
3;0,0,0;
3;0,0,0;
3;0,0,0;
3;0,0,0;
3;0,0,0;
3;0,0,0;
3;0,0,0;
3;0,0,0;
3;0,0,0;
3;0,0,0;
3;0,0,0;
3;0,0,0;
3;0,0,0;
3;0,0,0;
3;0,0,0;
3;0,0,0;
3;0,0,0;
3;0,0,0;
3;0,0,0;
3;0,0,0;
3;0,0,0;
3;0,0,0;
3;0,0,0;
3;0,0,0;
3;0,0,0;;
  }
}
