xof 0303txt 0032
Material _ent_conc_ent_conc_png {
1.0000;1.0000;1.0000;  1.0000;;
5.0000;
0.1000;0.1000;0.1000;;	
0.2000;0.2000;0.2000;;	
   TextureFilename { "conc01a_potal.png"; }
}
Mesh mesh_0{
33;
-5.0200;-0.6282;0.0000;,
-1.9055;-0.4000;-0.0000;,
4.8400;-0.6282;0.0000;,
-5.0200;8.0018;0.0000;,
-2.2820;1.0830;-0.0000;,
-2.4390;2.8770;-0.0000;,
-2.4348;3.0333;-0.0000;,
-2.3636;3.5331;-0.0000;,
-2.2068;4.0129;-0.0000;,
-1.9690;4.4582;-0.0000;,
-1.6575;4.8555;-0.0000;,
-1.2817;5.1926;-0.0000;,
-1.1659;5.2737;-0.0000;,
-0.8378;5.4489;-0.0000;,
-0.4842;5.5644;-0.0000;,
-0.1160;5.6169;-0.0000;,
1.9045;-0.4000;-0.0000;,
4.8400;8.0018;0.0000;,
-0.0005;-0.4000;-0.0000;,
2.3247;1.3511;-0.0000;,
2.4380;2.8766;-0.0000;,
2.4380;2.8770;-0.0000;,
2.3940;3.3795;-0.0000;,
2.2634;3.8671;-0.0000;,
2.0500;4.3246;-0.0000;,
1.7605;4.7381;-0.0000;,
1.4035;5.0951;-0.0000;,
1.2807;5.1926;-0.0000;,
0.9649;5.3891;-0.0000;,
0.6198;5.5279;-0.0000;,
0.2558;5.6046;-0.0000;,
-0.0000;5.6130;-0.0000;,
-0.0005;5.6130;-0.0000;;
33;
3;0,1,2,
3;1,0,3,
3;1,3,4,
3;4,3,5,
3;5,3,6,
3;6,3,7,
3;7,3,8,
3;8,3,9,
3;9,3,10,
3;10,3,11,
3;11,3,12,
3;12,3,13,
3;13,3,14,
3;14,3,15,
3;2,16,17,
3;16,2,1,
3;16,1,18,
3;17,16,19,
3;17,19,20,
3;17,20,21,
3;17,21,22,
3;17,22,23,
3;17,23,24,
3;17,24,25,
3;17,25,26,
3;17,26,27,
3;17,27,28,
3;17,28,29,
3;17,29,30,
3;17,30,31,
3;17,31,32,
3;17,32,15,
3;17,15,3;;
  MeshMaterialList {
1;
33;
0,
0,
0,
0,
0,
0,
0,
0,
0,
0,
0,
0,
0,
0,
0,
0,
0,
0,
0,
0,
0,
0,
0,
0,
0,
0,
0,
0,
0,
0,
0,
0,
0;
{ _ent_conc_ent_conc_png }
  }
  MeshTextureCoords {
33;
0.0365,-0.0000;
0.3359,-0.0261;
0.9846,-0.0000;
0.0365,-0.9861;
0.2997,-0.1955;
0.2846,-0.4005;
0.2851,-0.4184;
0.2919,-0.4755;
0.3070,-0.5303;
0.3298,-0.5812;
0.3598,-0.6266;
0.3959,-0.6651;
0.4071,-0.6743;
0.4386,-0.6944;
0.4726,-0.7076;
0.5080,-0.7136;
0.7023,-0.0261;
0.9846,-0.9861;
0.5191,-0.0261;
0.7427,-0.2262;
0.7536,-0.4005;
0.7536,-0.4005;
0.7494,-0.4579;
0.7368,-0.5136;
0.7163,-0.5659;
0.6884,-0.6132;
0.6541,-0.6539;
0.6423,-0.6651;
0.6119,-0.6875;
0.5788,-0.7034;
0.5438,-0.7122;
0.5192,-0.7131;
0.5191,-0.7131;
  }
  MeshNormals {
1;
0.0000;0.0000;-1.0000;;
33;
3;0,0,0;
3;0,0,0;
3;0,0,0;
3;0,0,0;
3;0,0,0;
3;0,0,0;
3;0,0,0;
3;0,0,0;
3;0,0,0;
3;0,0,0;
3;0,0,0;
3;0,0,0;
3;0,0,0;
3;0,0,0;
3;0,0,0;
3;0,0,0;
3;0,0,0;
3;0,0,0;
3;0,0,0;
3;0,0,0;
3;0,0,0;
3;0,0,0;
3;0,0,0;
3;0,0,0;
3;0,0,0;
3;0,0,0;
3;0,0,0;
3;0,0,0;
3;0,0,0;
3;0,0,0;
3;0,0,0;
3;0,0,0;
3;0,0,0;;
  }
}
