xof 0303txt 0032
Material _black {
0.0000;0.0000;0.0000;1.0000;;
5.0000;
0.0000;0.0000;0.0000;;	
0.0000;0.0000;0.0000;;	
}
Material ______3_shadow_png {
1.0000;1.0000;1.0000;  1.0000;;
5.0000;
0.1000;0.1000;0.1000;;	
0.2000;0.2000;0.2000;;	
   TextureFilename { "shadow.png"; }
}
Material _mid2_syonan_side_mid2_png {
1.0000;1.0000;1.0000;  1.0000;;
5.0000;
0.1000;0.1000;0.1000;;	
0.2000;0.2000;0.2000;;	
   TextureFilename { "syonan.side.mid2.png"; }
}
Material _96_96_96 {
0.3765;0.3765;0.3765;1.0000;;
5.0000;
0.0376;0.0376;0.0376;;	
0.0753;0.0753;0.0753;;	
}
Material ______6_radio_png {
1.0000;1.0000;1.0000;  1.0000;;
5.0000;
0.1000;0.1000;0.1000;;	
0.2000;0.2000;0.2000;;	
   TextureFilename { "radio.png"; }
}
Material ______5_au726_front_png {
1.0000;1.0000;1.0000;  1.0000;;
5.0000;
0.1000;0.1000;0.1000;;	
0.2000;0.2000;0.2000;;	
   TextureFilename { "au726.front.png"; }
}
Material _mid1_syonan_side_mid1_png {
1.0000;1.0000;1.0000;  1.0000;;
5.0000;
0.1000;0.1000;0.1000;;	
0.2000;0.2000;0.2000;;	
   TextureFilename { "syonan.side.mid1.png"; }
}
Material ____e_side_png {
1.0000;1.0000;1.0000;  1.0000;;
5.0000;
0.1000;0.1000;0.1000;;	
0.2000;0.2000;0.2000;;	
   TextureFilename { "e.side.png"; }
}
Material Default_Material { 
1.0000;1.0000;1.0000;1.0;;
5.0;
0.1;0.1;0.1;;
0.2;0.2;0.2;;
} 
Material ______8_roofdef_png {
1.0000;1.0000;1.0000;  1.0000;;
5.0000;
0.1000;0.1000;0.1000;;	
0.2000;0.2000;0.2000;;	
   TextureFilename { "roofdef.png"; }
}
Material __LightGray_ {
0.6627;0.6627;0.6627;1.0000;;
5.0000;
0.0663;0.0663;0.0663;;	
0.1325;0.1325;0.1325;;	
}
Material ______4_au726_png {
1.0000;1.0000;1.0000;  1.0000;;
5.0000;
0.1000;0.1000;0.1000;;	
0.2000;0.2000;0.2000;;	
   TextureFilename { "au726.png"; }
}
Material __0135_DarkGray_ {
0.3176;0.3176;0.3176;1.0000;;
5.0000;
0.0318;0.0318;0.0318;;	
0.0635;0.0635;0.0635;;	
}
Mesh mesh_0{
804;
1.4234;3.4700;-0.0000;,
1.4342;3.4606;19.5000;,
1.4234;3.4700;19.5000;,
1.4342;3.4606;-0.0000;,
1.4234;3.4700;-0.0000;,
1.4342;3.4606;19.5000;,
1.4234;3.4700;19.5000;,
1.4342;3.4606;-0.0000;,
1.4747;3.4028;-0.0000;,
1.4686;3.4156;19.5000;,
1.4686;3.4156;-0.0000;,
1.4747;3.4028;19.5000;,
1.4747;3.4028;-0.0000;,
1.4686;3.4156;19.5000;,
1.4686;3.4156;-0.0000;,
1.4747;3.4028;19.5000;,
1.3871;3.4922;19.5000;,
1.3672;3.5373;-0.0000;,
1.3871;3.4922;-0.0000;,
1.3672;3.5373;19.5000;,
1.3871;3.4922;19.5000;,
1.3672;3.5373;-0.0000;,
1.3871;3.4922;-0.0000;,
1.3672;3.5373;19.5000;,
1.0034;0.9835;-0.0000;,
-1.0000;0.0235;-0.0000;,
1.0000;0.0165;0.0000;,
-0.9966;0.9905;-0.0000;,
1.3998;3.4858;-0.0000;,
1.3998;3.4858;19.5000;,
1.3998;3.4858;-0.0000;,
1.3998;3.4858;19.5000;,
-1.0000;0.0235;19.5000;,
1.0034;0.9835;19.5000;,
1.0000;0.0165;19.5000;,
-0.9966;0.9905;19.5000;,
0.0034;0.9870;19.5000;,
0.0041;1.1870;19.5000;,
0.4605;3.0354;19.5000;,
0.4541;1.1854;19.5000;,
-0.4459;1.1886;19.5000;,
-0.4395;3.0385;19.5000;,
1.4034;0.9821;19.5000;,
1.4034;0.9821;-0.0000;,
1.4119;3.4784;-0.0000;,
1.4119;3.4784;19.5000;,
1.4119;3.4784;-0.0000;,
1.4119;3.4784;19.5000;,
-0.9966;0.9905;19.5000;,
0.0041;1.1870;19.5000;,
0.0034;0.9870;19.5000;,
-1.3966;0.9919;19.5000;,
-0.4459;1.1886;19.5000;,
-1.4695;1.5921;19.5000;,
-0.4395;3.0385;19.5000;,
-1.4633;3.3721;19.5000;,
1.4866;3.3618;19.5000;,
1.4838;3.3758;19.5000;,
-1.4604;3.3860;19.5000;,
1.4798;3.3895;19.5000;,
-1.4563;3.3997;19.5000;,
1.4747;3.4028;19.5000;,
-1.4512;3.4129;19.5000;,
1.4686;3.4156;19.5000;,
-1.4449;3.4257;19.5000;,
1.4614;3.4279;19.5000;,
-1.4377;3.4380;19.5000;,
1.4532;3.4395;19.5000;,
-1.4294;3.4496;19.5000;,
1.4441;3.4505;19.5000;,
-1.4202;3.4604;19.5000;,
1.4342;3.4606;19.5000;,
-1.4102;3.4705;19.5000;,
1.4234;3.4700;19.5000;,
1.4119;3.4784;19.5000;,
-1.3994;3.4798;19.5000;,
1.3998;3.4858;19.5000;,
-1.3878;3.4881;19.5000;,
1.3871;3.4922;19.5000;,
-1.3756;3.4954;19.5000;,
1.3672;3.5373;19.5000;,
-1.3629;3.5018;19.5000;,
1.1997;3.5378;19.5000;,
-1.1752;3.5461;19.5000;,
-1.3427;3.5467;19.5000;,
1.1620;3.5465;19.5000;,
-1.1374;3.5545;19.5000;,
1.0486;3.5699;19.5000;,
-1.0239;3.5771;19.5000;,
0.9347;3.5908;19.5000;,
-0.9098;3.5973;19.5000;,
0.8204;3.6092;19.5000;,
-0.7954;3.6149;19.5000;,
0.7057;3.6251;19.5000;,
-0.6806;3.6299;19.5000;,
0.5907;3.6385;19.5000;,
-0.5655;3.6425;19.5000;,
0.4754;3.6493;19.5000;,
-0.4501;3.6525;19.5000;,
0.3599;3.6575;19.5000;,
-0.3346;3.6599;19.5000;,
0.2442;3.6632;19.5000;,
-0.2189;3.6648;19.5000;,
0.1285;3.6664;19.5000;,
-0.1031;3.6672;19.5000;,
0.0127;3.6670;19.5000;,
0.4541;1.1854;19.5000;,
1.0034;0.9835;19.5000;,
1.4804;1.5819;19.5000;,
1.4034;0.9821;19.5000;,
0.4605;3.0354;19.5000;,
-1.3966;0.9919;19.5000;,
-1.4695;1.5921;19.5000;,
-1.4633;3.3721;19.5000;,
1.4866;3.3618;19.5000;,
1.4838;3.3758;19.5000;,
-1.4604;3.3860;19.5000;,
1.4798;3.3895;19.5000;,
-1.4563;3.3997;19.5000;,
-1.4512;3.4129;19.5000;,
-1.4449;3.4257;19.5000;,
1.4614;3.4279;19.5000;,
-1.4377;3.4380;19.5000;,
1.4532;3.4395;19.5000;,
-1.4294;3.4496;19.5000;,
1.4441;3.4505;19.5000;,
-1.4202;3.4604;19.5000;,
-1.4102;3.4705;19.5000;,
-1.3994;3.4798;19.5000;,
-1.3878;3.4881;19.5000;,
-1.3756;3.4954;19.5000;,
-1.3629;3.5018;19.5000;,
1.1997;3.5378;19.5000;,
-1.1752;3.5461;19.5000;,
-1.3427;3.5467;19.5000;,
1.1620;3.5465;19.5000;,
-1.1374;3.5545;19.5000;,
1.0486;3.5699;19.5000;,
-1.0239;3.5771;19.5000;,
0.9347;3.5908;19.5000;,
-0.9098;3.5973;19.5000;,
0.8204;3.6092;19.5000;,
-0.7954;3.6149;19.5000;,
0.7057;3.6251;19.5000;,
-0.6806;3.6299;19.5000;,
0.5907;3.6385;19.5000;,
-0.5655;3.6425;19.5000;,
0.4754;3.6493;19.5000;,
-0.4501;3.6525;19.5000;,
0.3599;3.6575;19.5000;,
-0.3346;3.6599;19.5000;,
0.2442;3.6632;19.5000;,
-0.2189;3.6648;19.5000;,
0.1285;3.6664;19.5000;,
-0.1031;3.6672;19.5000;,
0.0127;3.6670;19.5000;,
1.4804;1.5819;19.5000;,
0.4605;3.0354;-0.0000;,
-0.4459;1.1886;-0.0000;,
0.4541;1.1854;-0.0000;,
-0.4395;3.0385;-0.0000;,
1.4804;1.5819;-0.0000;,
1.4866;3.3618;19.5000;,
1.4866;3.3618;-0.0000;,
1.4804;1.5819;19.5000;,
1.4804;1.5819;-0.0000;,
1.4866;3.3618;-0.0000;,
1.4798;3.3895;-0.0000;,
1.4798;3.3895;19.5000;,
1.4798;3.3895;-0.0000;,
1.1997;3.5378;-0.0000;,
1.1620;3.5465;19.5000;,
1.1620;3.5465;-0.0000;,
1.1997;3.5378;19.5000;,
1.1997;3.5378;-0.0000;,
1.1620;3.5465;-0.0000;,
0.7057;3.6251;11.1000;,
0.8204;3.6092;19.5000;,
0.7057;3.6251;19.5000;,
0.8204;3.6092;11.1000;,
0.7057;3.6251;11.1000;,
0.8204;3.6092;11.1000;,
1.4614;3.4279;-0.0000;,
1.4614;3.4279;19.5000;,
1.4614;3.4279;-0.0000;,
0.3599;3.6575;11.1000;,
0.2442;3.6632;19.5000;,
0.2442;3.6632;11.1000;,
0.3599;3.6575;19.5000;,
0.3599;3.6575;11.1000;,
0.2442;3.6632;11.1000;,
0.4754;3.6493;11.1000;,
0.5907;3.6385;19.5000;,
0.4754;3.6493;19.5000;,
0.5907;3.6385;11.1000;,
0.4754;3.6493;11.1000;,
0.5907;3.6385;11.1000;,
0.0127;3.6670;11.1000;,
0.1285;3.6664;19.5000;,
0.0127;3.6670;19.5000;,
0.1285;3.6664;11.1000;,
0.0127;3.6670;11.1000;,
0.1285;3.6664;11.1000;,
0.9347;3.5908;19.5000;,
0.9347;3.5908;11.1000;,
0.9347;3.5908;11.1000;,
1.4532;3.4395;19.5000;,
1.4441;3.4505;-0.0000;,
1.4532;3.4395;-0.0000;,
1.4441;3.4505;19.5000;,
1.4441;3.4505;-0.0000;,
1.4532;3.4395;-0.0000;,
1.4804;1.5819;-0.0000;,
1.0034;0.9835;-0.0000;,
1.4034;0.9821;-0.0000;,
0.4541;1.1854;-0.0000;,
-0.9966;0.9905;-0.0000;,
-1.3966;0.9919;-0.0000;,
0.4605;3.0354;-0.0000;,
1.4866;3.3618;-0.0000;,
-0.4395;3.0385;-0.0000;,
1.1620;3.5465;-0.0000;,
-1.1752;3.5461;-0.0000;,
1.1997;3.5378;-0.0000;,
-1.1374;3.5545;-0.0000;,
1.0486;3.5699;-0.0000;,
-1.0239;3.5771;-0.0000;,
0.9347;3.5908;-0.0000;,
-0.9098;3.5973;-0.0000;,
0.8204;3.6092;-0.0000;,
-0.7954;3.6149;-0.0000;,
0.7057;3.6251;-0.0000;,
-0.6806;3.6299;-0.0000;,
0.5907;3.6385;-0.0000;,
-0.5655;3.6425;0.0000;,
0.4754;3.6493;-0.0000;,
-0.4501;3.6525;-0.0000;,
0.3599;3.6575;-0.0000;,
-0.3346;3.6599;-0.0000;,
0.2442;3.6632;-0.0000;,
-0.2189;3.6648;-0.0000;,
0.1285;3.6664;-0.0000;,
-0.1031;3.6672;-0.0000;,
0.0127;3.6670;-0.0000;,
-0.4459;1.1886;-0.0000;,
-1.4695;1.5921;-0.0000;,
-1.4633;3.3721;-0.0000;,
1.4838;3.3758;-0.0000;,
-1.4604;3.3860;0.0000;,
1.4798;3.3895;-0.0000;,
-1.4563;3.3997;-0.0000;,
1.4747;3.4028;-0.0000;,
-1.4512;3.4129;-0.0000;,
1.4686;3.4156;-0.0000;,
-1.4449;3.4257;-0.0000;,
1.4614;3.4279;-0.0000;,
-1.4377;3.4380;-0.0000;,
1.4532;3.4395;-0.0000;,
-1.4294;3.4496;-0.0000;,
1.4441;3.4505;-0.0000;,
-1.4202;3.4604;-0.0000;,
1.4342;3.4606;-0.0000;,
-1.4102;3.4705;-0.0000;,
1.4234;3.4700;-0.0000;,
1.4119;3.4784;-0.0000;,
-1.3994;3.4798;-0.0000;,
1.3998;3.4858;-0.0000;,
-1.3878;3.4881;-0.0000;,
1.3871;3.4922;-0.0000;,
-1.3756;3.4954;-0.0000;,
1.3672;3.5373;-0.0000;,
-1.3629;3.5018;-0.0000;,
-1.3427;3.5467;-0.0000;,
-1.3966;0.9919;-0.0000;,
-1.1752;3.5461;-0.0000;,
-1.1374;3.5545;-0.0000;,
1.0486;3.5699;-0.0000;,
-1.0239;3.5771;-0.0000;,
0.9347;3.5908;-0.0000;,
-0.9098;3.5973;-0.0000;,
0.8204;3.6092;-0.0000;,
-0.7954;3.6149;-0.0000;,
0.7057;3.6251;-0.0000;,
-0.6806;3.6299;-0.0000;,
0.5907;3.6385;-0.0000;,
-0.5655;3.6425;0.0000;,
0.4754;3.6493;-0.0000;,
-0.4501;3.6525;-0.0000;,
0.3599;3.6575;-0.0000;,
-0.3346;3.6599;-0.0000;,
0.2442;3.6632;-0.0000;,
-0.2189;3.6648;-0.0000;,
0.1285;3.6664;-0.0000;,
-0.1031;3.6672;-0.0000;,
0.0127;3.6670;-0.0000;,
-1.4695;1.5921;-0.0000;,
-1.4633;3.3721;-0.0000;,
1.4838;3.3758;-0.0000;,
-1.4604;3.3860;0.0000;,
-1.4563;3.3997;-0.0000;,
-1.4512;3.4129;-0.0000;,
-1.4449;3.4257;-0.0000;,
-1.4377;3.4380;-0.0000;,
-1.4294;3.4496;-0.0000;,
-1.4202;3.4604;-0.0000;,
-1.4102;3.4705;-0.0000;,
-1.3994;3.4798;-0.0000;,
-1.3878;3.4881;-0.0000;,
-1.3756;3.4954;-0.0000;,
-1.3629;3.5018;-0.0000;,
-1.3427;3.5467;-0.0000;,
1.4034;0.9821;-0.0000;,
1.4804;1.5819;19.5000;,
1.4804;1.5819;-0.0000;,
1.4866;3.3618;19.5000;,
1.4838;3.3758;-0.0000;,
1.4866;3.3618;-0.0000;,
1.4838;3.3758;19.5000;,
1.0486;3.5699;7.1000;,
1.0598;3.5676;11.1000;,
1.0486;3.5699;11.1000;,
1.0598;3.5676;7.1000;,
1.0486;3.5699;19.5000;,
1.0486;3.5699;11.1000;,
-0.5655;3.6425;0.0000;,
-0.4501;3.6525;7.1000;,
-0.5655;3.6425;7.1000;,
-0.4501;3.6525;-0.0000;,
-0.4501;3.6525;7.1000;,
-0.5655;3.6425;7.1000;,
-0.7954;3.6149;-0.0000;,
-0.9098;3.5973;7.1000;,
-0.9098;3.5973;-0.0000;,
-0.7954;3.6149;7.1000;,
-0.9098;3.5973;7.1000;,
-0.7954;3.6149;7.1000;,
-1.4377;3.4380;19.5000;,
-1.4449;3.4257;-0.0000;,
-1.4377;3.4380;-0.0000;,
-1.4449;3.4257;19.5000;,
-0.2873;3.6619;1.8000;,
-0.2373;3.6640;2.2000;,
-0.2873;3.6619;2.2000;,
-0.2373;3.6640;1.8000;,
-0.2189;3.6648;2.2000;,
-0.2189;3.6648;1.8000;,
-0.2873;3.6619;1.8000;,
-0.2373;3.6640;2.2000;,
-0.2873;3.6619;2.2000;,
-0.2373;3.6640;1.8000;,
-0.2189;3.6648;2.2000;,
-0.2189;3.6648;1.8000;,
-0.6806;3.6299;7.1000;,
-0.6806;3.6299;-0.0000;,
-0.6806;3.6299;7.1000;,
0.0127;3.6670;-0.0000;,
-0.1031;3.6672;7.1000;,
-0.1031;3.6672;-0.0000;,
0.0127;3.6670;7.1000;,
-0.1031;3.6672;7.1000;,
0.0127;3.6670;7.1000;,
-0.3346;3.6599;-0.0000;,
-0.3346;3.6599;7.1000;,
-0.3346;3.6599;7.1000;,
-1.0239;3.5771;-0.0000;,
-1.0239;3.5771;7.1000;,
-1.0239;3.5771;7.1000;,
-1.4695;1.5921;19.5000;,
-1.3966;0.9919;-0.0000;,
-1.4695;1.5921;-0.0000;,
-1.4604;3.3860;0.0000;,
-1.4633;3.3721;19.5000;,
-1.4633;3.3721;-0.0000;,
-1.4604;3.3860;19.5000;,
-1.4102;3.4705;-0.0000;,
-1.4202;3.4604;19.5000;,
-1.4202;3.4604;-0.0000;,
-1.4102;3.4705;19.5000;,
-0.2189;3.6648;-0.0000;,
-0.1873;3.6655;1.8000;,
-0.1873;3.6655;2.2000;,
-0.2189;3.6648;7.1000;,
-0.1873;3.6655;1.8000;,
-0.1873;3.6655;2.2000;,
-0.2189;3.6648;7.1000;,
-1.1752;3.5461;-0.0000;,
-1.3427;3.5467;19.5000;,
-1.3427;3.5467;-0.0000;,
-1.1752;3.5461;19.5000;,
-1.0351;3.5749;7.1000;,
-1.1374;3.5545;-0.0000;,
-1.0239;3.5771;19.5000;,
-1.1374;3.5545;19.5000;,
-1.0351;3.5749;11.1000;,
-1.0239;3.5771;11.1000;,
-1.0351;3.5749;7.1000;,
-1.0351;3.5749;11.1000;,
-1.0239;3.5771;11.1000;,
-1.4294;3.4496;19.5000;,
-1.4294;3.4496;-0.0000;,
-1.4563;3.3997;19.5000;,
-1.4563;3.3997;-0.0000;,
-1.4633;3.3721;-0.0000;,
-1.4695;1.5921;19.5000;,
-1.4695;1.5921;-0.0000;,
-1.4633;3.3721;19.5000;,
-1.4512;3.4129;-0.0000;,
-1.4512;3.4129;19.5000;,
-1.3994;3.4798;-0.0000;,
-1.3878;3.4881;19.5000;,
-1.3994;3.4798;19.5000;,
-1.3878;3.4881;-0.0000;,
-1.3756;3.4954;19.5000;,
-1.3756;3.4954;-0.0000;,
-1.3629;3.5018;19.5000;,
-1.3629;3.5018;-0.0000;,
1.0000;0.0165;0.0000;,
1.4000;0.0151;19.5000;,
1.0000;0.0165;19.5000;,
1.4000;0.0151;-0.0000;,
-1.0000;0.0235;-0.0000;,
-1.4000;0.0249;19.5000;,
-1.4000;0.0249;-0.0000;,
-1.0000;0.0235;19.5000;,
-0.7089;3.9013;7.1000;,
-0.8762;3.8213;11.1000;,
-0.8762;3.8213;7.1000;,
-0.7089;3.9013;11.1000;,
-0.7089;3.9013;7.1000;,
-0.8762;3.8213;11.1000;,
-0.8762;3.8213;7.1000;,
-0.7089;3.9013;11.1000;,
-0.1712;4.0366;7.1000;,
-0.3547;4.0095;11.1000;,
-0.3547;4.0095;7.1000;,
-0.1712;4.0366;11.1000;,
-0.1712;4.0366;7.1000;,
-0.3547;4.0095;11.1000;,
-0.3547;4.0095;7.1000;,
-0.1712;4.0366;11.1000;,
0.3824;4.0070;7.1000;,
0.5619;3.9605;11.1000;,
0.3824;4.0070;11.1000;,
0.5619;3.9605;7.1000;,
0.3824;4.0070;7.1000;,
0.5619;3.9605;11.1000;,
0.3824;4.0070;11.1000;,
0.5619;3.9605;7.1000;,
0.1992;4.0353;7.1000;,
0.0140;4.0452;11.1000;,
0.0140;4.0452;7.1000;,
0.1992;4.0353;11.1000;,
0.1992;4.0353;7.1000;,
0.0140;4.0452;11.1000;,
0.0140;4.0452;7.1000;,
0.1992;4.0353;11.1000;,
0.7359;3.8963;7.1000;,
0.9026;3.8151;11.1000;,
0.7359;3.8963;11.1000;,
0.9026;3.8151;7.1000;,
0.7359;3.8963;7.1000;,
0.9026;3.8151;11.1000;,
0.7359;3.8963;11.1000;,
0.9026;3.8151;7.1000;,
1.0604;3.7176;11.1000;,
1.0604;3.7176;7.1000;,
1.0604;3.7176;11.1000;,
1.0604;3.7176;7.1000;,
1.0604;3.7176;7.1000;,
1.0486;3.5699;7.1000;,
1.0598;3.5676;7.1000;,
0.9347;3.5908;7.1000;,
0.8204;3.6092;7.1000;,
0.7057;3.6251;7.1000;,
0.5907;3.6385;7.1000;,
0.4754;3.6493;7.1000;,
0.3599;3.6575;7.1000;,
0.2442;3.6632;7.1000;,
0.1285;3.6664;7.1000;,
0.0127;3.6670;7.1000;,
-0.1031;3.6672;7.1000;,
-1.0239;3.5771;7.1000;,
-1.0346;3.7249;7.1000;,
-1.0351;3.5749;7.1000;,
-0.9098;3.5973;7.1000;,
-0.7954;3.6149;7.1000;,
-0.6806;3.6299;7.1000;,
-0.5655;3.6425;7.1000;,
-0.4501;3.6525;7.1000;,
-0.3346;3.6599;7.1000;,
-0.2189;3.6648;7.1000;,
0.9026;3.8151;7.1000;,
-0.8762;3.8213;7.1000;,
0.7359;3.8963;7.1000;,
-0.7089;3.9013;7.1000;,
0.5619;3.9605;7.1000;,
-0.5345;3.9643;7.1000;,
0.3824;4.0070;7.1000;,
-0.3547;4.0095;7.1000;,
0.1992;4.0353;7.1000;,
-0.1712;4.0366;7.1000;,
0.0140;4.0452;7.1000;,
0.9347;3.5908;7.1000;,
0.8204;3.6092;7.1000;,
0.7057;3.6251;7.1000;,
0.5907;3.6385;7.1000;,
0.4754;3.6493;7.1000;,
0.3599;3.6575;7.1000;,
0.2442;3.6632;7.1000;,
0.1285;3.6664;7.1000;,
-1.0346;3.7249;7.1000;,
-0.5345;3.9643;7.1000;,
-1.0346;3.7249;11.1000;,
-1.0239;3.5771;11.1000;,
-1.0351;3.5749;11.1000;,
-0.9098;3.5973;11.1000;,
-0.7954;3.6149;11.1000;,
-0.6806;3.6299;11.1000;,
-0.5655;3.6425;11.1000;,
-0.4501;3.6525;11.1000;,
-0.3346;3.6599;11.1000;,
-0.2189;3.6648;11.1000;,
-0.1031;3.6672;11.1000;,
1.0604;3.7176;11.1000;,
0.9026;3.8151;11.1000;,
-0.8762;3.8213;11.1000;,
0.7359;3.8963;11.1000;,
-0.7089;3.9013;11.1000;,
0.5619;3.9605;11.1000;,
-0.5345;3.9643;11.1000;,
0.3824;4.0070;11.1000;,
-0.3547;4.0095;11.1000;,
0.1992;4.0353;11.1000;,
-0.1712;4.0366;11.1000;,
0.0140;4.0452;11.1000;,
1.0486;3.5699;11.1000;,
1.0598;3.5676;11.1000;,
0.9347;3.5908;11.1000;,
0.8204;3.6092;11.1000;,
0.7057;3.6251;11.1000;,
0.5907;3.6385;11.1000;,
0.4754;3.6493;11.1000;,
0.3599;3.6575;11.1000;,
0.2442;3.6632;11.1000;,
0.1285;3.6664;11.1000;,
0.0127;3.6670;11.1000;,
-1.0346;3.7249;11.1000;,
-0.9098;3.5973;11.1000;,
-0.7954;3.6149;11.1000;,
-0.6806;3.6299;11.1000;,
-0.5655;3.6425;11.1000;,
-0.4501;3.6525;11.1000;,
-0.3346;3.6599;11.1000;,
-0.2189;3.6648;11.1000;,
-0.1031;3.6672;11.1000;,
-0.5345;3.9643;11.1000;,
-1.0346;3.7249;11.1000;,
-1.0346;3.7249;7.1000;,
-0.5345;3.9643;11.1000;,
-0.5345;3.9643;7.1000;,
-1.0346;3.7249;11.1000;,
-1.0351;3.5749;7.1000;,
-1.0346;3.7249;7.1000;,
-1.0351;3.5749;11.1000;,
1.0598;3.5676;11.1000;,
1.0604;3.7176;7.1000;,
1.0598;3.5676;7.1000;,
1.0604;3.7176;11.1000;,
0.1285;3.6664;-0.0000;,
0.2127;3.6641;1.8000;,
0.2127;3.6641;2.2000;,
0.2442;3.6632;-0.0000;,
0.2442;3.6632;1.8000;,
0.2442;3.6632;7.1000;,
0.1285;3.6664;7.1000;,
0.2442;3.6632;2.2000;,
0.2127;3.6641;1.8000;,
0.2127;3.6641;2.2000;,
0.2442;3.6632;1.8000;,
0.2442;3.6632;2.2000;,
0.7057;3.6251;-0.0000;,
0.5907;3.6385;7.1000;,
0.5907;3.6385;-0.0000;,
0.7057;3.6251;7.1000;,
0.4754;3.6493;-0.0000;,
0.3599;3.6575;7.1000;,
0.3599;3.6575;-0.0000;,
0.4754;3.6493;7.1000;,
0.8204;3.6092;-0.0000;,
0.8204;3.6092;7.1000;,
0.9347;3.5908;7.1000;,
0.9347;3.5908;-0.0000;,
0.2627;3.6623;1.8000;,
0.3127;3.6598;1.8000;,
0.2627;3.6623;2.2000;,
0.3127;3.6598;2.2000;,
0.2627;3.6623;1.8000;,
0.3127;3.6598;1.8000;,
0.2627;3.6623;2.2000;,
0.3127;3.6598;2.2000;,
-0.9098;3.5973;11.1000;,
-0.7954;3.6149;19.5000;,
-0.9098;3.5973;19.5000;,
-0.7954;3.6149;11.1000;,
1.0486;3.5699;7.1000;,
1.0486;3.5699;-0.0000;,
1.0598;3.5676;7.1000;,
1.0598;3.5676;11.1000;,
-0.4501;3.6525;11.1000;,
-0.3346;3.6599;19.5000;,
-0.4501;3.6525;19.5000;,
-0.3346;3.6599;11.1000;,
-0.6806;3.6299;19.5000;,
-0.6806;3.6299;11.1000;,
-0.1031;3.6672;11.1000;,
-0.1031;3.6672;19.5000;,
-0.5655;3.6425;11.1000;,
-0.5655;3.6425;19.5000;,
-0.2189;3.6648;19.5000;,
-0.2189;3.6648;11.1000;,
-0.2566;3.8841;2.1700;,
-0.2566;3.8641;1.8300;,
-0.2566;3.8841;1.8300;,
-0.2566;3.8641;2.1700;,
-0.2566;3.8841;2.1700;,
-0.2566;3.8641;1.8300;,
-0.2566;3.8841;1.8300;,
-0.2566;3.8641;2.1700;,
-0.2566;3.8841;1.8300;,
-0.2366;3.8840;1.8500;,
-0.2366;3.8840;2.1500;,
0.2834;3.8822;1.8300;,
0.2634;3.8823;1.8500;,
-0.2566;3.8841;2.1700;,
0.2834;3.8822;2.1700;,
0.2634;3.8823;2.1500;,
-0.2366;3.8840;1.8500;,
-0.2366;3.8840;2.1500;,
0.2834;3.8822;1.8300;,
0.2634;3.8823;1.8500;,
0.2834;3.8822;2.1700;,
0.2634;3.8823;2.1500;,
-0.2369;3.7840;2.1500;,
0.0131;3.7832;2.1100;,
-0.2369;3.7840;2.1100;,
0.2631;3.7823;2.1500;,
0.2631;3.7823;2.1100;,
-0.2369;3.7840;2.1500;,
0.0131;3.7832;2.1100;,
-0.2369;3.7840;2.1100;,
0.2631;3.7823;2.1500;,
0.2631;3.7823;2.1100;,
-0.2369;3.7840;2.1000;,
0.0131;3.7832;2.1000;,
-0.2364;3.9340;2.1500;,
0.2337;3.9624;2.1200;,
0.2636;3.9323;2.1500;,
-0.2063;3.9639;2.1200;,
-0.2364;3.9340;2.1500;,
0.2337;3.9624;2.1200;,
0.2636;3.9323;2.1500;,
-0.2063;3.9639;2.1200;,
0.2627;3.6823;2.1000;,
0.2127;3.6825;2.1100;,
0.2127;3.6825;2.1000;,
0.2627;3.6823;2.1100;,
-0.2364;3.9340;1.8500;,
-0.2063;3.9639;2.1200;,
-0.2364;3.9340;2.1500;,
-0.2063;3.9639;1.8800;,
-0.2364;3.9340;1.8500;,
-0.2063;3.9639;1.8800;,
-0.2366;3.8840;2.1500;,
0.2636;3.9323;2.1500;,
0.2634;3.8823;2.1500;,
-0.2364;3.9340;2.1500;,
-0.1873;3.6839;2.1000;,
-0.1873;3.6839;2.1100;,
0.2627;3.6823;2.1100;,
0.2631;3.7823;2.1000;,
0.2627;3.6823;2.1000;,
0.2631;3.7823;2.1100;,
0.2631;3.7823;2.1000;,
-0.2373;3.6840;2.1000;,
0.2127;3.6825;2.1000;,
-0.1873;3.6839;2.1000;,
-0.2373;3.6840;2.1000;,
-0.2369;3.7840;2.1000;,
0.0131;3.7832;2.1000;,
-0.2369;3.7840;1.8900;,
-0.2373;3.6840;1.9000;,
-0.2373;3.6840;1.8900;,
-0.2369;3.7840;1.9000;,
-0.2369;3.7840;1.8900;,
-0.2373;3.6840;1.9000;,
-0.2373;3.6840;1.8900;,
-0.2369;3.7840;1.9000;,
-0.2366;3.8640;2.1500;,
-0.2369;3.7840;1.8500;,
-0.2366;3.8640;1.8500;,
-0.2369;3.7840;2.1000;,
-0.2369;3.7840;2.1100;,
-0.2369;3.7840;2.1500;,
-0.2366;3.8640;2.1500;,
-0.2369;3.7840;1.8500;,
-0.2366;3.8640;1.8500;,
0.0131;3.7832;1.8900;,
0.0131;3.7832;1.9000;,
-0.2369;3.7840;2.1500;,
0.2634;3.8623;2.1500;,
0.2631;3.7823;2.1500;,
-0.2366;3.8640;2.1500;,
0.2634;3.8623;2.1500;,
-0.2566;3.8641;2.1700;,
-0.2366;3.8640;2.1500;,
-0.2566;3.8641;1.8300;,
0.2834;3.8622;2.1700;,
-0.2366;3.8640;1.8500;,
0.2634;3.8623;2.1500;,
0.2834;3.8622;1.8300;,
0.2634;3.8623;1.8500;,
0.2834;3.8622;2.1700;,
0.2834;3.8622;1.8300;,
0.2634;3.8623;1.8500;,
0.2627;3.6823;1.8900;,
0.2631;3.7823;1.9000;,
0.2631;3.7823;1.8900;,
0.2627;3.6823;1.9000;,
0.2627;3.6823;1.8900;,
0.2631;3.7823;1.9000;,
0.2631;3.7823;1.8900;,
0.2627;3.6823;1.9000;,
-0.2373;3.6840;2.1100;,
-0.2873;3.6842;2.2000;,
-0.1873;3.6839;2.2000;,
-0.2373;3.6840;2.1000;,
-0.2373;3.6840;2.1100;,
0.2127;3.6825;1.9000;,
-0.1873;3.6839;1.9000;,
0.2127;3.6825;1.9000;,
-0.1873;3.6839;1.9000;,
-0.2373;3.6840;1.9000;,
-0.2369;3.7840;1.9000;,
0.0131;3.7832;1.9000;,
0.2337;3.9624;1.8800;,
-0.2364;3.9340;1.8500;,
0.2636;3.9323;1.8500;,
-0.2063;3.9639;1.8800;,
0.2337;3.9624;1.8800;,
0.2636;3.9323;1.8500;,
-0.1873;3.6839;1.8000;,
-0.1873;3.6839;1.8900;,
-0.2873;3.6842;1.8000;,
0.2834;3.8622;1.8300;,
0.2834;3.8822;2.1700;,
0.2834;3.8822;1.8300;,
0.2834;3.8622;2.1700;,
0.3127;3.6821;1.8000;,
0.2127;3.6825;1.8900;,
0.2127;3.6825;1.8000;,
0.3127;3.6821;2.2000;,
0.2127;3.6825;2.2000;,
0.2337;3.9624;2.1200;,
0.2337;3.9624;1.8800;,
0.2634;3.8623;1.8500;,
-0.2369;3.7840;1.8500;,
0.2631;3.7823;1.8500;,
-0.2366;3.8640;1.8500;,
0.2631;3.7823;1.8500;,
0.0131;3.7832;1.8900;,
-0.2369;3.7840;1.8900;,
0.2631;3.7823;1.8900;,
0.2127;3.6825;1.8900;,
0.2627;3.6823;1.8900;,
-0.1873;3.6839;1.8900;,
-0.2373;3.6840;1.8900;,
0.2127;3.6825;2.1100;,
0.2627;3.6823;2.1100;,
-0.1873;3.6839;2.1100;,
-0.2373;3.6840;2.1100;,
-0.2366;3.8840;1.8500;,
-0.2366;3.8840;2.1500;,
-0.2566;3.8641;2.1700;,
0.2834;3.8822;2.1700;,
0.2834;3.8622;2.1700;,
-0.2566;3.8841;2.1700;,
0.2634;3.8823;2.1500;,
0.2636;3.9323;1.8500;,
0.2634;3.8823;1.8500;,
0.2636;3.9323;2.1500;,
0.2634;3.8623;1.8500;,
0.2631;3.7823;1.8500;,
0.2634;3.8623;2.1500;,
0.2631;3.7823;2.1500;,
0.2636;3.9323;1.8500;,
-0.2366;3.8840;1.8500;,
0.2634;3.8823;1.8500;,
-0.2364;3.9340;1.8500;,
0.2337;3.9624;1.8800;,
0.2337;3.9624;2.1200;,
0.2834;3.8822;1.8300;,
-0.2566;3.8641;1.8300;,
0.2834;3.8622;1.8300;,
-0.2566;3.8841;1.8300;;
1260;
3;2,1,0,
3;3,0,1,
3;4,5,6,
3;5,4,7,
3;10,9,8,
3;11,8,9,
3;12,13,14,
3;13,12,15,
3;18,17,16,
3;19,16,17,
3;20,21,22,
3;21,20,23,
3;26,25,24,
3;27,24,25,
3;24,25,26,
3;25,24,27,
3;18,16,28,
3;29,28,16,
3;30,20,22,
3;20,30,31,
3;34,33,32,
3;35,32,33,
3;36,35,33,
3;32,33,34,
3;33,32,35,
3;33,35,36,
3;39,38,37,
3;40,37,38,
3;41,40,38,
3;37,38,39,
3;38,37,40,
3;38,40,41,
3;24,33,26,
3;34,26,33,
3;26,33,24,
3;33,26,34,
3;33,24,42,
3;43,42,24,
3;42,24,33,
3;24,42,43,
3;45,2,44,
3;0,44,2,
3;46,6,47,
3;6,46,4,
3;28,29,44,
3;45,44,29,
3;46,31,30,
3;31,46,47,
3;50,49,48,
3;51,48,49,
3;52,51,49,
3;53,51,52,
3;54,53,52,
3;55,53,54,
3;56,55,54,
3;57,55,56,
3;58,55,57,
3;59,58,57,
3;60,58,59,
3;61,60,59,
3;62,60,61,
3;63,62,61,
3;64,62,63,
3;65,64,63,
3;66,64,65,
3;67,66,65,
3;68,66,67,
3;69,68,67,
3;70,68,69,
3;71,70,69,
3;72,70,71,
3;73,72,71,
3;74,72,73,
3;75,72,74,
3;76,75,74,
3;77,75,76,
3;78,77,76,
3;79,77,78,
3;80,79,78,
3;81,79,80,
3;82,81,80,
3;83,81,82,
3;84,81,83,
3;82,85,83,
3;86,83,85,
3;87,86,85,
3;88,86,87,
3;89,88,87,
3;90,88,89,
3;91,90,89,
3;92,90,91,
3;93,92,91,
3;94,92,93,
3;95,94,93,
3;96,94,95,
3;97,96,95,
3;98,96,97,
3;99,98,97,
3;100,98,99,
3;101,100,99,
3;102,100,101,
3;103,102,101,
3;104,102,103,
3;105,104,103,
3;50,106,49,
3;109,108,107,
3;50,107,108,
3;106,50,108,
3;110,106,108,
3;56,110,108,
3;54,110,56,
3;35,37,36,
3;37,35,111,
3;37,111,40,
3;40,111,112,
3;40,112,41,
3;41,112,113,
3;41,113,114,
3;114,113,115,
3;115,113,116,
3;115,116,117,
3;117,116,118,
3;117,118,15,
3;15,118,119,
3;15,119,13,
3;13,119,120,
3;13,120,121,
3;121,120,122,
3;121,122,123,
3;123,122,124,
3;123,124,125,
3;125,124,126,
3;125,126,5,
3;5,126,127,
3;5,127,6,
3;6,127,47,
3;47,127,128,
3;47,128,31,
3;31,128,129,
3;31,129,20,
3;20,129,130,
3;20,130,23,
3;23,130,131,
3;23,131,132,
3;132,131,133,
3;133,131,134,
3;133,135,132,
3;135,133,136,
3;135,136,137,
3;137,136,138,
3;137,138,139,
3;139,138,140,
3;139,140,141,
3;141,140,142,
3;141,142,143,
3;143,142,144,
3;143,144,145,
3;145,144,146,
3;145,146,147,
3;147,146,148,
3;147,148,149,
3;149,148,150,
3;149,150,151,
3;151,150,152,
3;151,152,153,
3;153,152,154,
3;153,154,155,
3;37,39,36,
3;33,156,42,
3;156,33,36,
3;156,36,39,
3;156,39,38,
3;156,38,114,
3;114,38,41,
3;159,158,157,
3;160,157,158,
3;157,158,159,
3;158,157,160,
3;163,162,161,
3;164,161,162,
3;165,114,166,
3;114,165,156,
3;8,11,167,
3;168,167,11,
3;169,15,12,
3;15,169,117,
3;172,171,170,
3;173,170,171,
3;174,135,175,
3;135,174,132,
3;178,177,176,
3;179,176,177,
3;180,141,143,
3;141,180,181,
3;10,182,9,
3;183,9,182,
3;13,184,14,
3;184,13,121,
3;187,186,185,
3;188,185,186,
3;189,151,190,
3;151,189,149,
3;193,192,191,
3;194,191,192,
3;195,145,147,
3;145,195,196,
3;199,198,197,
3;200,197,198,
3;201,153,155,
3;153,201,202,
3;177,203,179,
3;204,179,203,
3;181,139,141,
3;139,181,205,
3;208,207,206,
3;209,206,207,
3;123,210,211,
3;210,123,125,
3;214,213,212,
3;215,212,213,
3;216,215,213,
3;217,215,216,
3;218,212,215,
3;219,212,218,
3;220,219,218,
3;223,222,221,
3;224,221,222,
3;225,221,224,
3;226,225,224,
3;227,225,226,
3;228,227,226,
3;229,227,228,
3;230,229,228,
3;231,229,230,
3;232,231,230,
3;233,231,232,
3;234,233,232,
3;235,233,234,
3;236,235,234,
3;237,235,236,
3;238,237,236,
3;239,237,238,
3;240,239,238,
3;241,239,240,
3;242,241,240,
3;243,241,242,
3;245,244,217,
3;215,217,244,
3;220,244,245,
3;246,220,245,
3;219,220,246,
3;247,219,246,
3;248,247,246,
3;249,247,248,
3;250,249,248,
3;251,249,250,
3;252,251,250,
3;253,251,252,
3;254,253,252,
3;255,253,254,
3;256,255,254,
3;257,255,256,
3;258,257,256,
3;259,257,258,
3;260,259,258,
3;261,259,260,
3;262,261,260,
3;263,261,262,
3;264,263,262,
3;265,264,262,
3;266,264,265,
3;267,266,265,
3;268,266,267,
3;269,268,267,
3;270,268,269,
3;271,270,269,
3;223,270,271,
3;272,223,271,
3;222,223,272,
3;165,24,43,
3;24,165,159,
3;24,159,27,
3;27,159,273,
3;159,165,157,
3;157,165,166,
3;157,166,160,
3;175,274,174,
3;274,175,275,
3;275,175,276,
3;275,276,277,
3;277,276,278,
3;277,278,279,
3;279,278,280,
3;279,280,281,
3;281,280,282,
3;281,282,283,
3;283,282,284,
3;283,284,285,
3;285,284,286,
3;285,286,287,
3;287,286,288,
3;287,288,289,
3;289,288,290,
3;289,290,291,
3;291,290,292,
3;291,292,293,
3;293,292,294,
3;273,158,295,
3;158,273,159,
3;295,158,160,
3;295,160,296,
3;296,160,166,
3;296,166,297,
3;296,297,298,
3;298,297,169,
3;298,169,299,
3;299,169,12,
3;299,12,300,
3;300,12,14,
3;300,14,301,
3;301,14,184,
3;301,184,302,
3;302,184,211,
3;302,211,303,
3;303,211,210,
3;303,210,304,
3;304,210,7,
3;304,7,305,
3;305,7,4,
3;305,4,46,
3;305,46,306,
3;306,46,30,
3;306,30,307,
3;307,30,22,
3;307,22,308,
3;308,22,21,
3;308,21,309,
3;309,21,174,
3;309,174,310,
3;310,174,274,
3;313,312,311,
3;42,311,312,
3;43,156,165,
3;156,43,42,
3;207,3,209,
3;1,209,3,
3;125,7,210,
3;7,125,5,
3;198,186,200,
3;187,200,186,
3;202,151,153,
3;151,202,190,
3;316,315,314,
3;317,314,315,
3;114,297,166,
3;297,114,115,
3;170,173,17,
3;19,17,173,
3;21,132,174,
3;132,21,23,
3;192,178,194,
3;176,194,178,
3;196,143,145,
3;143,196,180,
3;320,319,318,
3;321,318,319,
3;318,319,320,
3;319,318,321,
3;185,188,191,
3;193,191,188,
3;195,149,189,
3;149,195,147,
3;208,206,182,
3;183,182,206,
3;184,123,211,
3;123,184,121,
3;203,322,204,
3;323,204,322,
3;205,137,139,
3;137,205,320,
3;315,167,317,
3;168,317,167,
3;115,169,297,
3;169,115,117,
3;326,325,324,
3;327,324,325,
3;285,328,329,
3;328,285,287,
3;332,331,330,
3;333,330,331,
3;281,334,279,
3;334,281,335,
3;338,337,336,
3;339,336,337,
3;122,301,302,
3;301,122,120,
3;342,341,340,
3;343,340,341,
3;344,343,341,
3;345,343,344,
3;346,347,348,
3;347,346,349,
3;347,349,350,
3;350,349,351,
3;333,352,330,
3;353,330,352,
3;281,354,335,
3;354,281,283,
3;357,356,355,
3;358,355,356,
3;294,359,293,
3;359,294,360,
3;327,325,361,
3;362,361,325,
3;289,328,287,
3;328,289,363,
3;353,352,324,
3;326,324,352,
3;285,354,283,
3;354,285,329,
3;365,331,364,
3;332,364,331,
3;277,334,366,
3;334,277,279,
3;369,368,367,
3;111,367,368,
3;112,273,295,
3;273,112,111,
3;372,371,370,
3;373,370,371,
3;298,113,296,
3;113,298,116,
3;376,375,374,
3;377,374,375,
3;305,126,304,
3;126,305,127,
3;345,379,378,
3;357,378,379,
3;380,357,379,
3;381,356,344,
3;380,344,356,
3;357,380,356,
3;291,382,351,
3;382,291,293,
3;382,293,383,
3;350,359,384,
3;359,350,383,
3;359,383,293,
3;387,386,385,
3;388,385,386,
3;274,134,310,
3;134,274,133,
3;390,389,364,
3;365,364,389,
3;392,391,390,
3;393,390,391,
3;389,390,393,
3;394,393,391,
3;277,395,275,
3;395,277,366,
3;275,138,136,
3;138,275,396,
3;396,275,395,
3;138,396,397,
3;399,338,398,
3;336,398,338,
3;124,302,303,
3;302,124,122,
3;401,370,400,
3;373,400,370,
3;118,298,299,
3;298,118,116,
3;399,398,376,
3;375,376,398,
3;304,124,303,
3;124,304,126,
3;388,392,385,
3;390,385,392,
3;274,136,133,
3;136,274,275,
3;404,403,402,
3;405,402,403,
3;296,112,295,
3;112,296,113,
3;401,400,406,
3;407,406,400,
3;300,118,299,
3;118,300,119,
3;410,409,408,
3;411,408,409,
3;306,129,128,
3;129,306,307,
3;377,410,374,
3;408,374,410,
3;305,128,127,
3;128,305,306,
3;409,412,411,
3;413,411,412,
3;307,130,129,
3;130,307,308,
3;337,406,339,
3;407,339,406,
3;120,300,301,
3;300,120,119,
3;415,414,387,
3;386,387,414,
3;310,131,309,
3;131,310,134,
3;412,414,413,
3;415,413,414,
3;308,131,130,
3;131,308,309,
3;27,25,35,
3;32,35,25,
3;35,25,27,
3;25,35,32,
3;111,273,35,
3;27,35,273,
3;35,273,111,
3;273,35,27,
3;418,417,416,
3;419,416,417,
3;416,417,418,
3;417,416,419,
3;422,421,420,
3;423,420,421,
3;420,421,422,
3;421,420,423,
3;426,425,424,
3;427,424,425,
3;428,429,430,
3;429,428,431,
3;434,433,432,
3;435,432,433,
3;436,437,438,
3;437,436,439,
3;442,441,440,
3;443,440,441,
3;444,445,446,
3;445,444,447,
3;450,449,448,
3;451,448,449,
3;452,453,454,
3;453,452,455,
3;458,457,456,
3;459,456,457,
3;460,461,462,
3;461,460,463,
3;457,464,459,
3;465,459,464,
3;463,466,461,
3;466,463,467,
3;470,469,468,
3;471,468,469,
3;472,468,471,
3;473,468,472,
3;474,468,473,
3;475,468,474,
3;476,468,475,
3;477,468,476,
3;478,468,477,
3;479,468,478,
3;480,468,479,
3;483,482,481,
3;484,481,482,
3;485,484,482,
3;486,485,482,
3;487,486,482,
3;488,487,482,
3;489,488,482,
3;490,489,482,
3;480,490,482,
3;468,480,482,
3;491,468,482,
3;492,491,482,
3;493,491,492,
3;494,493,492,
3;495,493,494,
3;496,495,494,
3;497,495,496,
3;498,497,496,
3;499,497,498,
3;500,499,498,
3;501,499,500,
3;467,318,321,
3;318,467,502,
3;502,467,503,
3;503,467,504,
3;504,467,505,
3;505,467,506,
3;506,467,507,
3;507,467,508,
3;508,467,509,
3;509,467,360,
3;360,467,359,
3;366,510,395,
3;510,366,334,
3;510,334,335,
3;510,335,354,
3;510,354,329,
3;510,329,328,
3;510,328,363,
3;510,363,384,
3;510,384,359,
3;510,359,467,
3;510,467,463,
3;510,463,430,
3;430,463,460,
3;430,460,428,
3;428,460,447,
3;428,447,511,
3;511,447,444,
3;511,444,438,
3;438,444,452,
3;438,452,436,
3;436,452,454,
3;435,449,432,
3;450,432,449,
3;436,453,439,
3;453,436,454,
3;514,513,512,
3;515,512,513,
3;516,512,515,
3;517,512,516,
3;518,512,517,
3;519,512,518,
3;520,512,519,
3;521,512,520,
3;522,512,521,
3;523,512,522,
3;524,512,523,
3;525,512,524,
3;526,525,524,
3;527,525,526,
3;528,527,526,
3;529,527,528,
3;530,529,528,
3;531,529,530,
3;532,531,530,
3;533,531,532,
3;534,533,532,
3;536,523,535,
3;537,535,523,
3;538,537,523,
3;539,538,523,
3;540,539,523,
3;541,540,523,
3;542,541,523,
3;543,542,523,
3;544,543,523,
3;545,544,523,
3;522,545,523,
3;546,397,396,
3;397,546,547,
3;547,546,548,
3;548,546,549,
3;549,546,550,
3;550,546,551,
3;551,546,552,
3;552,546,553,
3;553,546,554,
3;554,546,466,
3;466,546,461,
3;461,546,429,
3;461,429,462,
3;462,429,431,
3;462,431,445,
3;445,431,555,
3;445,555,446,
3;446,555,437,
3;446,437,455,
3;455,437,439,
3;455,439,453,
3;320,466,319,
3;466,320,205,
3;466,205,181,
3;466,181,180,
3;466,180,196,
3;466,196,195,
3;466,195,189,
3;466,189,190,
3;466,190,202,
3;466,202,201,
3;466,201,554,
3;557,556,426,
3;425,426,556,
3;430,546,510,
3;546,430,429,
3;448,451,440,
3;442,440,451,
3;444,455,452,
3;455,444,446,
3;427,558,424,
3;559,424,558,
3;428,555,431,
3;555,428,511,
3;562,561,560,
3;563,560,561,
3;546,395,510,
3;395,546,396,
3;441,458,443,
3;456,443,458,
3;447,462,445,
3;462,447,460,
3;558,433,559,
3;434,559,433,
3;511,437,555,
3;437,511,438,
3;566,565,564,
3;567,564,565,
3;319,467,321,
3;467,319,466,
3;509,202,508,
3;190,508,202,
3;508,202,509,
3;202,508,190,
3;570,569,568,
3;571,568,569,
3;572,571,569,
3;574,573,568,
3;570,568,573,
3;575,570,573,
3;292,576,577,
3;576,292,290,
3;576,290,578,
3;292,508,509,
3;508,292,577,
3;508,577,579,
3;582,581,580,
3;583,580,581,
3;282,505,284,
3;505,282,504,
3;505,196,504,
3;180,504,196,
3;504,196,505,
3;196,504,180,
3;586,585,584,
3;587,584,585,
3;286,507,288,
3;507,286,506,
3;189,195,507,
3;506,507,195,
3;507,195,189,
3;195,507,506,
3;580,583,588,
3;589,588,583,
3;280,504,282,
3;504,280,503,
3;180,181,504,
3;503,504,181,
3;504,181,180,
3;181,504,503,
3;355,358,568,
3;574,568,358,
3;292,360,294,
3;360,292,509,
3;201,202,360,
3;509,360,202,
3;360,202,201,
3;202,360,509,
3;195,196,506,
3;505,506,196,
3;506,196,195,
3;196,506,505,
3;584,587,582,
3;581,582,587,
3;284,506,286,
3;506,284,505,
3;181,205,503,
3;502,503,205,
3;503,205,181,
3;205,503,502,
3;589,590,588,
3;591,588,590,
3;280,502,503,
3;502,280,278,
3;190,189,508,
3;507,508,189,
3;508,189,190,
3;189,508,507,
3;571,572,586,
3;592,586,572,
3;593,586,592,
3;573,585,575,
3;594,575,585,
3;595,594,585,
3;593,595,585,
3;586,593,585,
3;288,578,290,
3;578,288,596,
3;596,288,597,
3;579,507,508,
3;507,579,598,
3;507,598,599,
3;507,599,597,
3;507,597,288,
3;547,548,334,
3;335,334,548,
3;334,548,547,
3;548,334,335,
3;602,601,600,
3;603,600,601,
3;547,142,140,
3;142,547,548,
3;605,604,172,
3;606,172,604,
3;322,171,323,
3;607,323,171,
3;606,607,171,
3;172,606,171,
3;175,318,276,
3;318,175,321,
3;320,135,137,
3;135,320,319,
3;135,319,321,
3;135,321,175,
3;551,552,328,
3;363,328,552,
3;328,552,551,
3;552,328,363,
3;610,609,608,
3;611,608,609,
3;551,150,148,
3;150,551,552,
3;548,549,335,
3;354,335,549,
3;335,549,548,
3;549,335,354,
3;601,612,603,
3;613,603,612,
3;548,144,142,
3;144,548,549,
3;205,320,502,
3;318,502,320,
3;502,320,205,
3;320,502,318,
3;591,590,605,
3;604,605,590,
3;276,502,278,
3;502,276,318,
3;366,397,334,
3;547,334,397,
3;334,397,366,
3;397,334,547,
3;391,602,394,
3;600,394,602,
3;397,140,138,
3;140,397,547,
3;359,554,360,
3;201,360,554,
3;360,554,359,
3;554,360,201,
3;615,199,614,
3;197,614,199,
3;554,155,154,
3;155,554,201,
3;617,610,616,
3;608,616,610,
3;550,148,146,
3;148,550,551,
3;550,551,329,
3;328,329,551,
3;329,551,550,
3;551,329,328,
3;395,396,366,
3;397,366,396,
3;366,396,395,
3;396,366,397,
3;612,617,613,
3;616,613,617,
3;549,146,144,
3;146,549,550,
3;549,550,354,
3;329,354,550,
3;354,550,549,
3;550,354,329,
3;619,618,614,
3;615,614,618,
3;554,152,553,
3;152,554,154,
3;553,554,384,
3;359,384,554,
3;384,554,553,
3;554,384,359,
3;609,618,611,
3;619,611,618,
3;552,152,150,
3;152,552,553,
3;363,552,384,
3;553,384,552,
3;384,552,363,
3;552,384,553,
3;622,621,620,
3;623,620,621,
3;624,625,626,
3;625,624,627,
3;630,629,628,
3;631,628,629,
3;632,631,629,
3;634,630,633,
3;628,633,630,
3;635,630,634,
3;632,635,634,
3;631,632,634,
3;626,636,637,
3;636,626,638,
3;636,638,639,
3;624,637,640,
3;637,624,626,
3;640,637,641,
3;640,641,639,
3;640,639,638,
3;644,643,642,
3;645,642,643,
3;646,645,643,
3;647,648,649,
3;648,647,650,
3;648,650,651,
3;649,652,648,
3;653,648,652,
3;648,652,649,
3;652,648,653,
3;656,655,654,
3;657,654,655,
3;658,659,660,
3;659,658,661,
3;664,663,662,
3;665,662,663,
3;662,663,664,
3;663,662,665,
3;668,667,666,
3;669,666,667,
3;670,661,658,
3;661,670,671,
3;674,673,672,
3;675,672,673,
3;637,660,641,
3;660,637,658,
3;677,663,676,
3;664,676,663,
3;676,663,677,
3;663,676,664,
3;680,679,678,
3;681,678,679,
3;665,682,662,
3;682,665,651,
3;662,682,664,
3;676,664,682,
3;683,676,682,
3;652,683,682,
3;653,652,682,
3;684,679,680,
3;679,684,685,
3;679,685,686,
3;679,686,687,
3;679,687,688,
3;691,690,689,
3;692,689,690,
3;693,694,695,
3;694,693,696,
3;699,698,697,
3;689,697,698,
3;692,697,689,
3;700,697,692,
3;701,697,700,
3;702,697,701,
3;703,704,705,
3;704,703,693,
3;693,703,696,
3;696,703,652,
3;652,703,649,
3;649,703,647,
3;693,706,696,
3;707,696,706,
3;696,706,693,
3;706,696,707,
3;710,709,708,
3;711,708,709,
3;647,712,650,
3;712,647,703,
3;715,714,713,
3;716,713,714,
3;717,714,715,
3;718,716,714,
3;715,719,717,
3;720,717,719,
3;718,720,719,
3;716,718,719,
3;627,703,625,
3;703,627,721,
3;625,703,705,
3;703,721,712,
3;705,722,625,
3;722,705,723,
3;722,723,712,
3;722,712,721,
3;726,725,724,
3;727,724,725,
3;728,729,730,
3;729,728,731,
3;732,677,683,
3;676,683,677,
3;683,677,732,
3;677,683,676,
3;348,347,733,
3;350,733,347,
3;383,733,350,
3;734,733,383,
3;733,347,348,
3;347,733,350,
3;350,733,383,
3;383,733,734,
3;700,735,701,
3;736,701,735,
3;649,683,652,
3;683,649,732,
3;731,737,729,
3;738,729,737,
3;694,729,738,
3;696,729,694,
3;707,729,696,
3;725,739,727,
3;739,725,740,
3;740,725,741,
3;741,725,742,
3;742,725,743,
3;742,743,687,
3;688,687,743,
3;725,688,743,
3;679,688,725,
3;652,707,696,
3;707,652,653,
3;707,653,729,
3;729,653,682,
3;746,745,744,
3;747,744,745,
3;748,670,749,
3;670,748,671,
3;382,750,383,
3;751,383,750,
3;738,383,751,
3;676,383,738,
3;677,383,676,
3;734,383,677,
3;383,750,382,
3;750,383,751,
3;751,383,738,
3;738,383,676,
3;676,383,677,
3;677,383,734,
3;707,706,729,
3;730,729,706,
3;729,706,707,
3;706,729,730,
3;695,694,751,
3;738,751,694,
3;751,694,695,
3;694,751,738,
3;752,695,750,
3;751,750,695,
3;732,683,694,
3;738,694,683,
3;676,738,683,
3;734,732,733,
3;752,733,732,
3;695,752,732,
3;694,695,732,
3;677,732,734,
3;750,695,752,
3;695,750,751,
3;694,683,732,
3;683,694,738,
3;683,738,676,
3;733,732,734,
3;732,733,752,
3;732,752,695,
3;732,695,694,
3;734,732,677,
3;755,754,753,
3;756,753,754,
3;722,640,638,
3;640,722,721,
3;752,346,733,
3;348,733,346,
3;733,346,752,
3;346,733,348,
3;759,758,757,
3;728,757,758,
3;731,757,728,
3;665,757,731,
3;760,757,665,
3;761,760,663,
3;665,663,760,
3;737,664,731,
3;662,731,664,
3;665,731,662,
3;757,758,759,
3;758,757,728,
3;728,757,731,
3;731,757,665,
3;665,757,760,
3;663,760,761,
3;760,663,665,
3;731,664,737,
3;664,731,662,
3;662,731,665,
3;757,760,597,
3;599,597,760,
3;597,760,757,
3;760,597,599,
3;667,762,669,
3;763,669,762,
3;671,659,661,
3;659,671,748,
3;648,653,651,
3;682,651,653,
3;651,653,648,
3;653,651,682,
3;599,760,598,
3;579,598,760,
3;577,579,760,
3;761,577,760,
3;598,760,599,
3;760,598,579,
3;760,579,577,
3;760,577,761,
3;766,765,764,
3;767,764,765,
3;723,704,768,
3;704,723,705,
3;770,765,769,
3;766,769,765,
3;771,769,766,
3;706,704,693,
3;704,706,768,
3;768,706,730,
3;773,772,771,
3;774,771,772,
3;775,771,774,
3;769,771,775,
3;770,769,775,
3;730,758,728,
3;758,730,751,
3;751,730,695,
3;695,730,706,
3;695,706,693,
3;777,646,776,
3;778,776,646,
3;779,778,646,
3;643,779,646,
3;644,779,643,
3;663,651,665,
3;651,663,677,
3;651,677,732,
3;651,732,648,
3;648,732,649,
3;346,752,349,
3;351,349,752,
3;382,351,752,
3;750,382,752,
3;349,752,346,
3;752,349,351,
3;752,351,382,
3;752,382,750,
3;666,780,668,
3;781,668,780,
3;658,636,670,
3;636,658,637,
3;784,783,782,
3;785,782,783,
3;627,640,721,
3;640,627,624,
3;759,576,758,
3;577,758,576,
3;737,758,577,
3;664,737,577,
3;663,664,577,
3;761,663,577,
3;758,576,759,
3;576,758,577,
3;577,758,737,
3;577,737,664,
3;577,664,663,
3;577,663,761,
3;788,787,786,
3;789,786,787,
3;641,749,639,
3;749,641,660,
3;791,790,726,
3;792,726,790,
3;725,726,792,
3;679,725,792,
3;681,679,792,
3;793,681,792,
3;730,723,768,
3;723,730,712,
3;712,730,729,
3;712,729,682,
3;712,682,651,
3;712,651,650,
3;597,596,757,
3;578,757,596,
3;576,757,578,
3;759,757,576,
3;757,596,597,
3;596,757,578,
3;578,757,576,
3;576,757,759,
3;737,731,758,
3;728,758,731,
3;758,731,737,
3;731,758,728,
3;796,795,794,
3;797,794,795,
3;749,636,639,
3;636,749,670,
3;787,798,789,
3;799,789,798,
3;660,748,749,
3;748,660,659,
3;751,738,758,
3;737,758,738,
3;758,738,751,
3;738,758,737,
3;802,801,800,
3;803,800,801,
3;638,625,722,
3;625,638,626,
3;342,340,361,
3;378,361,340,
3;343,378,340,
3;345,378,343,
3;362,381,361,
3;342,361,381,
3;341,342,381,
3;344,341,381,
3;289,346,348,
3;346,289,291,
3;346,291,349,
3;349,291,351,
3;289,384,363,
3;384,289,348,
3;384,348,347,
3;384,347,350,
3;345,344,379,
3;380,379,344,
3;382,350,351,
3;350,382,383,
3;570,575,569,
3;572,569,575,
3;576,579,577,
3;579,576,578,
3;572,575,592,
3;594,592,575,
3;595,592,594,
3;593,592,595,
3;596,579,578,
3;579,596,598,
3;598,596,599,
3;599,596,597;;
  MeshMaterialList {
13;
1260;
9,
9,
8,
8,
9,
9,
8,
8,
9,
9,
8,
8,
0,
0,
8,
8,
9,
9,
8,
8,
0,
0,
0,
8,
8,
8,
0,
0,
0,
8,
8,
8,
0,
0,
8,
8,
0,
0,
8,
8,
9,
9,
8,
8,
9,
9,
8,
8,
7,
7,
7,
7,
7,
7,
7,
7,
7,
7,
7,
7,
7,
7,
7,
7,
7,
7,
7,
7,
7,
7,
7,
7,
7,
7,
7,
7,
7,
7,
7,
7,
7,
7,
7,
7,
7,
7,
7,
7,
7,
7,
7,
7,
7,
7,
7,
7,
7,
7,
7,
7,
7,
7,
7,
7,
7,
7,
7,
7,
7,
7,
7,
8,
8,
8,
8,
8,
8,
8,
8,
8,
8,
8,
8,
8,
8,
8,
8,
8,
8,
8,
8,
8,
8,
8,
8,
8,
8,
8,
8,
8,
8,
8,
8,
8,
8,
8,
8,
8,
8,
8,
8,
8,
8,
8,
8,
8,
8,
8,
8,
8,
8,
8,
8,
8,
8,
8,
8,
8,
8,
8,
8,
8,
8,
8,
0,
0,
8,
8,
6,
6,
8,
8,
9,
9,
8,
8,
9,
9,
8,
8,
9,
9,
8,
8,
9,
9,
8,
8,
9,
9,
8,
8,
9,
9,
8,
8,
9,
9,
8,
8,
9,
9,
8,
8,
9,
9,
8,
8,
7,
7,
7,
7,
7,
7,
7,
7,
7,
7,
7,
7,
7,
7,
7,
7,
7,
7,
7,
7,
7,
7,
7,
7,
7,
7,
7,
7,
7,
7,
7,
7,
7,
7,
7,
7,
7,
7,
7,
7,
7,
7,
7,
7,
7,
7,
7,
7,
7,
7,
7,
7,
7,
7,
7,
7,
7,
7,
7,
7,
7,
8,
8,
8,
8,
8,
8,
8,
8,
8,
8,
8,
8,
8,
8,
8,
8,
8,
8,
8,
8,
8,
8,
8,
8,
8,
8,
8,
8,
8,
8,
8,
8,
8,
8,
8,
8,
8,
8,
8,
8,
8,
8,
8,
8,
8,
8,
8,
8,
8,
8,
8,
8,
8,
8,
8,
8,
8,
8,
8,
8,
8,
6,
6,
8,
8,
9,
9,
8,
8,
9,
9,
8,
8,
9,
9,
8,
8,
9,
9,
8,
8,
9,
9,
8,
8,
12,
12,
8,
8,
9,
9,
8,
8,
9,
9,
8,
8,
9,
9,
8,
8,
9,
9,
8,
8,
9,
9,
8,
8,
9,
9,
8,
8,
9,
9,
8,
8,
9,
9,
9,
9,
8,
8,
8,
8,
9,
9,
8,
8,
9,
9,
8,
8,
9,
9,
8,
8,
9,
9,
8,
8,
9,
9,
8,
8,
2,
2,
8,
8,
9,
9,
8,
8,
9,
9,
8,
8,
9,
9,
9,
9,
9,
9,
8,
8,
8,
8,
8,
8,
9,
9,
8,
8,
9,
9,
9,
9,
9,
9,
8,
8,
8,
8,
8,
8,
9,
9,
8,
8,
9,
9,
8,
8,
9,
9,
8,
8,
9,
9,
8,
8,
2,
2,
8,
8,
9,
9,
8,
8,
9,
9,
8,
8,
9,
9,
8,
8,
9,
9,
8,
8,
9,
9,
8,
8,
9,
9,
8,
8,
9,
9,
8,
8,
0,
0,
8,
8,
0,
0,
8,
8,
1,
1,
1,
1,
1,
1,
1,
1,
11,
11,
8,
8,
11,
11,
8,
8,
11,
11,
8,
8,
11,
11,
8,
8,
11,
11,
8,
8,
11,
11,
8,
8,
5,
5,
5,
5,
5,
5,
5,
5,
5,
5,
5,
5,
5,
5,
5,
5,
5,
5,
5,
5,
5,
5,
5,
5,
5,
5,
5,
5,
5,
5,
5,
5,
8,
8,
8,
8,
8,
8,
8,
8,
8,
8,
8,
8,
8,
8,
8,
8,
8,
8,
8,
8,
8,
8,
8,
8,
8,
8,
8,
8,
8,
8,
8,
8,
11,
11,
8,
8,
5,
5,
5,
5,
5,
5,
5,
5,
5,
5,
5,
5,
5,
5,
5,
5,
5,
5,
5,
5,
5,
5,
5,
5,
5,
5,
5,
5,
5,
5,
5,
5,
8,
8,
8,
8,
8,
8,
8,
8,
8,
8,
8,
8,
8,
8,
8,
8,
8,
8,
8,
8,
8,
8,
8,
8,
8,
8,
8,
8,
8,
8,
8,
8,
11,
11,
8,
8,
11,
11,
8,
8,
11,
11,
8,
8,
11,
11,
8,
8,
11,
11,
8,
8,
11,
11,
8,
8,
11,
11,
8,
8,
12,
12,
8,
8,
9,
9,
9,
9,
9,
9,
8,
8,
8,
8,
8,
8,
9,
9,
8,
8,
12,
12,
8,
8,
9,
9,
8,
8,
12,
12,
8,
8,
9,
9,
8,
8,
12,
12,
8,
8,
9,
9,
8,
8,
12,
12,
8,
8,
12,
12,
8,
8,
9,
9,
8,
8,
12,
12,
8,
8,
9,
9,
8,
8,
12,
12,
8,
8,
9,
9,
9,
9,
9,
9,
9,
9,
8,
8,
8,
8,
8,
8,
8,
8,
12,
12,
8,
8,
9,
9,
8,
8,
9,
9,
9,
9,
9,
9,
8,
8,
8,
8,
8,
8,
12,
12,
8,
8,
9,
9,
8,
8,
12,
12,
8,
8,
9,
9,
8,
8,
12,
12,
8,
8,
9,
9,
8,
8,
12,
12,
8,
8,
9,
9,
8,
8,
12,
12,
8,
8,
9,
9,
8,
8,
9,
9,
8,
8,
12,
12,
8,
8,
12,
12,
8,
8,
9,
9,
8,
8,
12,
12,
8,
8,
9,
9,
8,
8,
12,
12,
8,
8,
9,
9,
8,
8,
12,
12,
8,
8,
4,
4,
8,
8,
4,
4,
4,
4,
4,
4,
4,
4,
8,
8,
8,
8,
8,
8,
8,
8,
4,
4,
4,
8,
8,
8,
10,
10,
8,
8,
4,
4,
8,
8,
3,
3,
8,
8,
4,
4,
8,
8,
4,
4,
8,
8,
8,
8,
8,
8,
4,
4,
8,
8,
8,
8,
8,
8,
8,
4,
4,
4,
4,
4,
4,
4,
8,
8,
4,
4,
4,
4,
4,
4,
8,
8,
8,
8,
8,
8,
10,
10,
8,
8,
4,
4,
8,
8,
4,
4,
4,
4,
4,
4,
4,
4,
8,
8,
8,
8,
8,
8,
8,
8,
4,
4,
8,
8,
3,
3,
8,
8,
3,
3,
3,
3,
8,
8,
8,
8,
4,
4,
8,
8,
8,
8,
8,
8,
8,
4,
4,
4,
4,
4,
4,
4,
4,
4,
8,
8,
8,
8,
4,
4,
8,
8,
3,
3,
3,
3,
3,
3,
8,
8,
8,
8,
8,
8,
10,
10,
8,
8,
3,
3,
8,
8,
3,
3,
3,
3,
3,
3,
3,
3,
3,
3,
8,
8,
8,
8,
8,
8,
8,
8,
8,
8,
4,
4,
8,
8,
3,
3,
8,
8,
3,
3,
3,
3,
3,
3,
3,
3,
3,
3,
8,
8,
8,
8,
8,
8,
8,
8,
8,
8,
3,
3,
8,
8,
4,
4,
8,
8,
10,
10,
8,
8,
3,
3,
3,
3,
8,
8,
8,
8,
4,
4,
8,
8,
4,
4,
4,
8,
8,
8,
4,
4,
4,
4,
4,
8,
8,
8,
8,
8,
4,
4,
4,
4,
4,
8,
8,
8,
8,
8,
3,
3,
3,
3,
8,
8,
8,
8,
4,
4,
8,
8,
4,
4,
8,
8,
3,
3,
3,
3,
3,
3,
8,
8,
8,
8,
8,
8,
4,
4,
8,
8,
4,
4,
4,
4,
4,
4,
8,
8,
8,
8,
8,
8,
3,
3,
3,
3,
8,
8,
8,
8,
3,
3,
8,
8,
4,
4,
8,
8,
4,
4,
8,
8,
8,
8,
8,
8,
4,
4,
8,
8,
9,
9,
9,
9,
9,
9,
9,
9,
8,
8,
8,
8,
8,
8,
8,
8,
9,
9,
8,
8,
9,
9,
8,
8,
9,
9,
9,
9,
8,
8,
8,
8;
{ _black }
{ ______3_shadow_png }
{ _mid2_syonan_side_mid2_png }
{ _96_96_96 }
{ ______6_radio_png }
{ ______5_au726_front_png }
{ _mid1_syonan_side_mid1_png }
{ ____e_side_png }
{ Default_Material }
{ ______8_roofdef_png }
{ __LightGray_ }
{ ______4_au726_png }
{ __0135_DarkGray_ }
  }
  MeshTextureCoords {
804;
-0.0206,-47.0177;
-0.0169,-20.5770;
-0.0206,-20.5770;
-0.0169,-47.0177;
0.0000,0.0000;
0.0000,0.0000;
0.0000,0.0000;
0.0000,0.0000;
-0.0031,-47.0177;
-0.0052,-20.5770;
-0.0052,-47.0177;
-0.0031,-20.5770;
0.0000,0.0000;
0.0000,0.0000;
0.0000,0.0000;
0.0000,0.0000;
-0.0329,-20.5770;
-0.0397,-47.0177;
-0.0329,-47.0177;
-0.0397,-20.5770;
0.0000,0.0000;
0.0000,0.0000;
0.0000,0.0000;
0.0000,0.0000;
0.0000,0.0000;
0.0000,0.0000;
0.0000,0.0000;
0.0000,0.0000;
-0.0286,-47.0177;
-0.0286,-20.5770;
0.0000,0.0000;
0.0000,0.0000;
0.0000,0.0000;
0.0000,0.0000;
0.0000,0.0000;
0.0000,0.0000;
0.0000,0.0000;
0.0000,0.0000;
0.0000,0.0000;
0.0000,0.0000;
0.0000,0.0000;
0.0000,0.0000;
0.0000,0.0000;
0.0000,0.0000;
-0.0245,-47.0177;
-0.0245,-20.5770;
0.0000,0.0000;
0.0000,0.0000;
-8.1429,-20.0000;
-8.5000,-20.0714;
-8.5000,-20.0000;
-8.0000,-20.0000;
-8.3393,-20.0714;
-7.9732,-20.2143;
-8.3393,-20.7321;
-7.9732,-20.8500;
-9.0268,-20.8500;
-9.0258,-20.8550;
-7.9742,-20.8550;
-9.0243,-20.8598;
-7.9757,-20.8599;
-9.0225,-20.8646;
-7.9775,-20.8646;
-9.0203,-20.8692;
-7.9797,-20.8692;
-9.0177,-20.8735;
-7.9823,-20.8736;
-9.0148,-20.8777;
-7.9852,-20.8777;
-9.0115,-20.8816;
-7.9885,-20.8816;
-9.0079,-20.8852;
-7.9921,-20.8852;
-9.0041,-20.8885;
-9.0000,-20.8915;
-7.9959,-20.8885;
-8.9956,-20.8942;
-8.0000,-20.8915;
-8.9911,-20.8964;
-8.0044,-20.8942;
-8.9839,-20.9125;
-8.0089,-20.8964;
-8.9241,-20.9125;
-8.0759,-20.9125;
-8.0161,-20.9125;
-8.9106,-20.9155;
-8.0894,-20.9155;
-8.8701,-20.9238;
-8.1299,-20.9238;
-8.8294,-20.9311;
-8.1706,-20.9311;
-8.7885,-20.9375;
-8.2115,-20.9375;
-8.7475,-20.9430;
-8.2525,-20.9431;
-8.7065,-20.9477;
-8.2935,-20.9477;
-8.6653,-20.9514;
-8.3347,-20.9514;
-8.6240,-20.9542;
-8.3760,-20.9542;
-8.5827,-20.9561;
-8.4173,-20.9561;
-8.5414,-20.9571;
-8.4586,-20.9571;
-8.5000,-20.9571;
-8.6607,-20.0714;
-8.8571,-20.0000;
-9.0268,-20.2143;
-9.0000,-20.0000;
-8.6607,-20.7321;
0.0000,0.0000;
0.0000,0.0000;
0.0000,0.0000;
0.0000,0.0000;
0.0000,0.0000;
0.0000,0.0000;
0.0000,0.0000;
0.0000,0.0000;
0.0000,0.0000;
0.0000,0.0000;
0.0000,0.0000;
0.0000,0.0000;
0.0000,0.0000;
0.0000,0.0000;
0.0000,0.0000;
0.0000,0.0000;
0.0000,0.0000;
0.0000,0.0000;
0.0000,0.0000;
0.0000,0.0000;
0.0000,0.0000;
0.0000,0.0000;
0.0000,0.0000;
0.0000,0.0000;
0.0000,0.0000;
0.0000,0.0000;
0.0000,0.0000;
0.0000,0.0000;
0.0000,0.0000;
0.0000,0.0000;
0.0000,0.0000;
0.0000,0.0000;
0.0000,0.0000;
0.0000,0.0000;
0.0000,0.0000;
0.0000,0.0000;
0.0000,0.0000;
0.0000,0.0000;
0.0000,0.0000;
0.0000,0.0000;
0.0000,0.0000;
0.0000,0.0000;
0.0000,0.0000;
0.0000,0.0000;
0.0000,0.0000;
0.0000,0.0000;
0.0000,0.0000;
0.0000,0.0000;
0.0000,0.0000;
0.0000,0.0000;
-1.0000,-1.2552;
0.0000,-2.0000;
-1.0000,-2.0000;
0.0000,-1.2552;
0.0000,0.0000;
0.0000,0.0000;
-0.0014,-47.0177;
-0.0014,-20.5770;
0.0000,0.0000;
-0.0965,-47.0177;
-0.1093,-20.5770;
-0.1093,-47.0177;
-0.0965,-20.5770;
0.0000,0.0000;
0.0000,0.0000;
-0.2641,-31.9668;
-0.2252,-20.5770;
-0.2641,-20.5770;
-0.2252,-31.9668;
0.0000,0.0000;
0.0000,0.0000;
-0.0077,-47.0177;
-0.0077,-20.5770;
0.0000,0.0000;
-0.3813,-31.9668;
-0.4205,-20.5770;
-0.4205,-31.9668;
-0.3813,-20.5770;
0.0000,0.0000;
0.0000,0.0000;
-0.3422,-31.9668;
-0.3031,-20.5770;
-0.3422,-20.5770;
-0.3031,-31.9668;
0.0000,0.0000;
0.0000,0.0000;
-0.4990,-31.9668;
-0.4598,-20.5770;
-0.4990,-20.5770;
-0.4598,-31.9668;
0.0000,0.0000;
0.0000,0.0000;
-0.1864,-20.5770;
-0.1864,-31.9668;
0.0000,0.0000;
-0.0104,-20.5770;
-0.0135,-47.0177;
-0.0104,-47.0177;
-0.0135,-20.5770;
0.0000,0.0000;
0.0000,0.0000;
8.0268,-21.2143;
7.8571,-21.0000;
8.0000,-21.0000;
7.6607,-21.0714;
7.1429,-21.0000;
7.0000,-21.0000;
7.6607,-21.7321;
8.0268,-21.8500;
7.3393,-21.7321;
7.9106,-21.9155;
7.0759,-21.9125;
7.9241,-21.9125;
7.0894,-21.9155;
7.8701,-21.9238;
7.1299,-21.9238;
7.8294,-21.9311;
7.1706,-21.9311;
7.7885,-21.9375;
7.2115,-21.9375;
7.7475,-21.9431;
7.2525,-21.9430;
7.7065,-21.9477;
7.2935,-21.9477;
7.6653,-21.9514;
7.3347,-21.9514;
7.6240,-21.9542;
7.3760,-21.9542;
7.5827,-21.9561;
7.4173,-21.9561;
7.5414,-21.9571;
7.4586,-21.9571;
7.5000,-21.9571;
7.3393,-21.0714;
6.9732,-21.2143;
6.9732,-21.8500;
8.0258,-21.8550;
6.9742,-21.8550;
8.0243,-21.8599;
6.9757,-21.8598;
8.0225,-21.8646;
6.9775,-21.8646;
8.0203,-21.8692;
6.9797,-21.8692;
8.0177,-21.8735;
6.9823,-21.8735;
8.0148,-21.8777;
6.9852,-21.8777;
8.0115,-21.8816;
6.9885,-21.8816;
8.0079,-21.8852;
6.9921,-21.8852;
8.0041,-21.8885;
8.0000,-21.8915;
6.9959,-21.8885;
7.9956,-21.8942;
7.0000,-21.8915;
7.9911,-21.8964;
7.0044,-21.8942;
7.9839,-21.9125;
7.0089,-21.8964;
7.0161,-21.9125;
0.0000,0.0000;
0.0000,0.0000;
0.0000,0.0000;
0.0000,0.0000;
0.0000,0.0000;
0.0000,0.0000;
0.0000,0.0000;
0.0000,0.0000;
0.0000,0.0000;
0.0000,0.0000;
0.0000,0.0000;
0.0000,0.0000;
0.0000,0.0000;
0.0000,0.0000;
0.0000,0.0000;
0.0000,0.0000;
0.0000,0.0000;
0.0000,0.0000;
0.0000,0.0000;
0.0000,0.0000;
0.0000,0.0000;
0.0000,0.0000;
0.0000,0.0000;
0.0000,0.0000;
0.0000,0.0000;
0.0000,0.0000;
0.0000,0.0000;
0.0000,0.0000;
0.0000,0.0000;
0.0000,0.0000;
0.0000,0.0000;
0.0000,0.0000;
0.0000,0.0000;
0.0000,0.0000;
0.0000,0.0000;
0.0000,0.0000;
0.0000,0.0000;
0.0000,0.0000;
-1.0000,0.0000;
0.0000,-0.2530;
-1.0000,-0.2530;
0.0010,-20.5770;
0.0000,-47.0177;
0.0010,-47.0177;
0.0000,-20.5770;
0.0000,0.0000;
0.0000,0.0000;
0.0000,0.0000;
0.0000,0.0000;
-0.1478,-20.5770;
-0.1478,-31.9668;
-0.6950,-47.0177;
-0.6559,-37.3906;
-0.6950,-37.3906;
-0.6559,-47.0177;
0.0000,0.0000;
0.0000,0.0000;
-0.7729,-47.0177;
-0.8117,-37.3906;
-0.8117,-47.0177;
-0.7729,-37.3906;
0.0000,0.0000;
0.0000,0.0000;
-0.9904,-20.5770;
-0.9928,-47.0177;
-0.9904,-47.0177;
-0.9928,-20.5770;
-0.6007,-44.5770;
-0.5838,-44.0346;
-0.6007,-44.0346;
-0.5838,-44.5770;
-0.5775,-44.0346;
-0.5775,-44.5770;
0.0000,0.0000;
0.0000,0.0000;
0.0000,0.0000;
0.0000,0.0000;
0.0000,0.0000;
0.0000,0.0000;
-0.7340,-37.3906;
-0.7340,-47.0177;
0.0000,0.0000;
-0.4990,-47.0177;
-0.5383,-37.3906;
-0.5383,-47.0177;
-0.4990,-37.3906;
0.0000,0.0000;
0.0000,0.0000;
-0.6167,-47.0177;
-0.6167,-37.3906;
0.0000,0.0000;
-0.8503,-47.0177;
-0.8503,-37.3906;
0.0000,0.0000;
-0.0000,-0.2530;
1.0000,0.0000;
1.0000,-0.2530;
-0.9980,-47.0177;
-0.9990,-20.5770;
-0.9990,-47.0177;
-0.9980,-20.5770;
-0.9811,-47.0177;
-0.9845,-20.5770;
-0.9845,-47.0177;
-0.9811,-20.5770;
-0.5775,-47.0177;
-0.5668,-44.5770;
-0.5668,-44.0346;
-0.5775,-37.3906;
0.0000,0.0000;
0.0000,0.0000;
0.0000,0.0000;
-0.9016,-47.0177;
-0.9583,-20.5770;
-0.9583,-47.0177;
-0.9016,-20.5770;
-0.8541,-37.3906;
-0.8888,-47.0177;
-0.8503,-20.5770;
-0.8888,-20.5770;
-0.8541,-31.9668;
-0.8503,-31.9668;
0.0000,0.0000;
0.0000,0.0000;
0.0000,0.0000;
-0.9876,-20.5770;
-0.9876,-47.0177;
-0.9967,-20.5770;
-0.9967,-47.0177;
1.0000,-1.0000;
0.0000,-0.2552;
1.0000,-0.2552;
0.0000,-1.0000;
-0.9949,-47.0177;
-0.9949,-20.5770;
-0.9775,-47.0177;
-0.9736,-20.5770;
-0.9775,-20.5770;
-0.9736,-47.0177;
-0.9694,-20.5770;
-0.9694,-47.0177;
-0.9651,-20.5770;
-0.9651,-47.0177;
-0.5471,-227.6246;
-1.0000,-1.0000;
-0.8574,-0.7923;
-0.6897,-227.8324;
0.8571,-227.2861;
1.0000,0.0000;
1.0000,-227.2861;
0.8571,0.0000;
0.0000,-0.2108;
1.0000,-0.1439;
0.0000,-0.1439;
1.0000,-0.2108;
0.0000,0.0000;
0.0000,0.0000;
0.0000,0.0000;
0.0000,0.0000;
0.0000,-0.4260;
1.0000,-0.3525;
0.0000,-0.3525;
1.0000,-0.4260;
0.0000,0.0000;
0.0000,0.0000;
0.0000,0.0000;
0.0000,0.0000;
0.0000,-0.3525;
1.0000,-0.2806;
1.0000,-0.3525;
0.0000,-0.2806;
0.0000,0.0000;
0.0000,0.0000;
0.0000,0.0000;
0.0000,0.0000;
0.0000,-0.4260;
1.0000,-0.5002;
0.0000,-0.5002;
1.0000,-0.4260;
0.0000,0.0000;
0.0000,0.0000;
0.0000,0.0000;
0.0000,0.0000;
0.0000,-0.2108;
1.0000,-0.1439;
1.0000,-0.2108;
0.0000,-0.1439;
0.0000,0.0000;
0.0000,0.0000;
0.0000,0.0000;
0.0000,0.0000;
1.0000,-0.0805;
0.0000,-0.0805;
0.0000,0.0000;
0.0000,0.0000;
0.9946,-0.3110;
0.9892,-0.0000;
0.9946,0.0048;
0.9348,-0.0432;
0.8802,-0.0811;
0.8255,-0.1137;
0.7705,-0.1409;
0.7155,-0.1628;
0.6604,-0.1793;
0.6051,-0.1905;
0.5499,-0.1963;
0.4946,-0.1967;
0.4393,-0.1963;
-0.0000,-0.0000;
-0.0054,-0.3110;
-0.0054,0.0048;
0.0544,-0.0432;
0.1090,-0.0811;
0.1638,-0.1137;
0.2187,-0.1409;
0.2737,-0.1628;
0.3289,-0.1793;
0.3841,-0.1905;
0.9192,-0.5150;
0.0701,-0.5150;
0.8395,-0.6848;
0.1498,-0.6848;
0.7563,-0.8187;
0.2329,-0.8187;
0.6705,-0.9152;
0.3187,-0.9152;
0.5830,-0.9736;
0.4062,-0.9736;
0.4946,-0.9931;
0.0000,0.0000;
0.0000,0.0000;
0.0000,0.0000;
0.0000,0.0000;
0.0000,0.0000;
0.0000,0.0000;
0.0000,0.0000;
0.0000,0.0000;
0.0000,0.0000;
0.0000,0.0000;
-0.0000,-0.3158;
-0.0054,-0.0048;
-0.0000,-0.0000;
-0.0598,-0.0480;
-0.1144,-0.0859;
-0.1691,-0.1185;
-0.2241,-0.1457;
-0.2791,-0.1676;
-0.3343,-0.1842;
-0.3895,-0.1953;
-0.4447,-0.2011;
-1.0000,-0.3158;
-0.9245,-0.5198;
-0.0755,-0.5198;
-0.8448,-0.6896;
-0.1552,-0.6896;
-0.7617,-0.8235;
-0.2383,-0.8235;
-0.6759,-0.9201;
-0.3241,-0.9201;
-0.5884,-0.9784;
-0.4116,-0.9784;
-0.5000,-0.9979;
-0.9946,-0.0048;
-1.0000,-0.0000;
-0.9402,-0.0480;
-0.8856,-0.0859;
-0.8309,-0.1185;
-0.7759,-0.1457;
-0.7209,-0.1676;
-0.6657,-0.1842;
-0.6105,-0.1953;
-0.5553,-0.2011;
-0.5000,-0.2015;
0.0000,0.0000;
0.0000,0.0000;
0.0000,0.0000;
0.0000,0.0000;
0.0000,0.0000;
0.0000,0.0000;
0.0000,0.0000;
0.0000,0.0000;
0.0000,0.0000;
0.0000,0.0000;
1.0000,-0.0805;
0.0000,-0.0805;
1.0000,-0.2806;
0.0000,-0.2806;
0.0000,0.9399;
-1.0000,1.0000;
-1.0000,0.9399;
0.0000,1.0000;
0.0000,1.0000;
-1.0000,0.9399;
-1.0000,1.0000;
0.0000,0.9399;
-0.4598,-47.0177;
-0.4312,-44.5770;
-0.4312,-44.0346;
-0.4205,-47.0177;
-0.4205,-44.5770;
-0.4205,-37.3906;
-0.4598,-37.3906;
-0.4205,-44.0346;
0.0000,0.0000;
0.0000,0.0000;
0.0000,0.0000;
0.0000,0.0000;
-0.2641,-47.0177;
-0.3031,-37.3906;
-0.3031,-47.0177;
-0.2641,-37.3906;
-0.3422,-47.0177;
-0.3813,-37.3906;
-0.3813,-47.0177;
-0.3422,-37.3906;
-0.2252,-47.0177;
-0.2252,-37.3906;
-0.1864,-37.3906;
-0.1864,-47.0177;
-0.4143,-44.5770;
-0.3973,-44.5770;
-0.4143,-44.0346;
-0.3973,-44.0346;
0.0000,0.0000;
0.0000,0.0000;
0.0000,0.0000;
0.0000,0.0000;
-0.8117,-31.9668;
-0.7729,-20.5770;
-0.8117,-20.5770;
-0.7729,-31.9668;
-0.1478,-37.3906;
-0.1478,-47.0177;
-0.1439,-37.3906;
-0.1439,-31.9668;
-0.6559,-31.9668;
-0.6167,-20.5770;
-0.6559,-20.5770;
-0.6167,-31.9668;
-0.7340,-20.5770;
-0.7340,-31.9668;
-0.5383,-31.9668;
-0.5383,-20.5770;
-0.6950,-31.9668;
-0.6950,-20.5770;
-0.5775,-20.5770;
-0.5775,-31.9668;
-1.8667,-0.7143;
-1.8667,-0.6429;
-1.8667,-0.7143;
-1.8667,-0.6429;
0.0000,0.0000;
0.0000,0.0000;
0.0000,0.0000;
0.0000,0.0000;
-4.5333,-0.7857;
-4.0000,-0.7857;
-4.0000,-0.7857;
9.8667,-0.7857;
9.3333,-0.7857;
-4.5333,-0.7857;
9.8667,-0.7857;
9.3333,-0.7857;
0.0000,0.0000;
0.0000,0.0000;
0.0000,0.0000;
0.0000,0.0000;
0.0000,0.0000;
0.0000,0.0000;
9.3333,-0.3571;
2.6667,-0.3571;
9.3333,-0.3571;
-4.0000,-0.3571;
-4.0000,-0.3571;
0.0000,0.0000;
0.0000,0.0000;
0.0000,0.0000;
0.0000,0.0000;
0.0000,0.0000;
0.0000,0.0000;
0.0000,0.0000;
-4.0000,-0.8929;
8.5333,-1.0000;
9.3333,-0.8929;
-3.2000,-1.0000;
0.0000,0.0000;
0.0000,0.0000;
0.0000,0.0000;
0.0000,0.0000;
0.0000,0.0000;
0.0000,0.0000;
0.0000,0.0000;
0.0000,0.0000;
-1.3333,-0.8929;
-0.5333,-1.0000;
-1.3333,-0.8929;
-0.5333,-1.0000;
0.0000,0.0000;
0.0000,0.0000;
9.3333,-0.7143;
-4.0000,-0.8929;
-4.0000,-0.7143;
9.3333,-0.8929;
0.0000,0.0000;
0.0000,0.0000;
-1.3333,0.0000;
-1.3333,-0.3571;
-1.3333,0.0000;
-1.3333,-0.3571;
0.0000,0.0000;
0.0000,0.0000;
-0.0000,0.0000;
10.6667,0.0000;
12.0000,0.0000;
12.0000,-0.3571;
5.3333,-0.3571;
-1.3333,-0.3571;
-1.3333,0.0000;
-1.3333,0.0000;
-1.3333,-0.3571;
0.0000,0.0000;
0.0000,0.0000;
0.0000,0.0000;
0.0000,0.0000;
-1.3333,-0.6429;
-1.3333,-0.3571;
-1.3333,-0.6429;
-1.3333,-0.3571;
-1.3333,-0.3571;
-1.3333,-0.3571;
0.0000,0.0000;
0.0000,0.0000;
0.0000,0.0000;
0.0000,0.0000;
0.0000,0.0000;
-4.0000,-0.3571;
9.3333,-0.6429;
9.3333,-0.3571;
-4.0000,-0.6429;
0.0000,0.0000;
9.8667,-0.7143;
9.3333,-0.7143;
9.8667,-0.7143;
-4.5333,-0.7143;
9.3333,-0.7143;
-4.0000,-0.7143;
-4.5333,-0.7143;
-4.0000,-0.7143;
0.0000,0.0000;
0.0000,0.0000;
0.0000,0.0000;
-1.3333,0.0000;
-1.3333,-0.3571;
-1.3333,-0.3571;
-1.3333,0.0000;
0.0000,0.0000;
0.0000,0.0000;
0.0000,0.0000;
0.0000,0.0000;
0.0000,0.0000;
0.0000,0.0000;
0.0000,0.0000;
-1.3333,0.0000;
-1.3333,0.0000;
0.0000,0.0000;
0.0000,0.0000;
-0.0000,0.0000;
10.6667,0.0000;
12.0000,0.0000;
12.0000,-0.3571;
5.3333,-0.3571;
8.5333,-1.0000;
-4.0000,-0.8929;
9.3333,-0.8929;
-3.2000,-1.0000;
0.0000,0.0000;
0.0000,0.0000;
0.0000,0.0000;
0.0000,0.0000;
0.0000,0.0000;
-1.8667,-0.6429;
-1.8667,-0.7143;
-1.8667,-0.7143;
-1.8667,-0.6429;
0.0000,0.0000;
0.0000,0.0000;
0.0000,0.0000;
0.0000,0.0000;
0.0000,0.0000;
11.2000,-1.0000;
11.2000,-1.0000;
-4.0000,-0.6429;
9.3333,-0.3571;
-4.0000,-0.3571;
9.3333,-0.6429;
0.0000,0.0000;
2.6667,-0.3571;
9.3333,-0.3571;
-4.0000,-0.3571;
-2.6667,0.0000;
-4.0000,0.0000;
8.0000,0.0000;
9.3333,0.0000;
-2.6667,0.0000;
-4.0000,0.0000;
8.0000,0.0000;
9.3333,0.0000;
-1.3333,-0.7143;
-1.3333,-0.7143;
-4.5333,-0.6429;
9.8667,-0.7143;
9.8667,-0.6429;
-4.5333,-0.7143;
-1.3333,-0.7143;
-1.3333,-0.8929;
-1.3333,-0.7143;
-1.3333,-0.8929;
-1.3333,-0.6429;
-1.3333,-0.3571;
-1.3333,-0.6429;
-1.3333,-0.3571;
-4.0000,-0.8929;
9.3333,-0.7143;
-4.0000,-0.7143;
9.3333,-0.8929;
-0.5333,-1.0000;
-0.5333,-1.0000;
-4.5333,-0.7143;
9.8667,-0.6429;
-4.5333,-0.6429;
9.8667,-0.7143;
  }
  MeshNormals {
206;
0.6229;0.7823;-0.0000;,
0.6849;0.7286;-0.0000;,
-0.6229;-0.7823;0.0000;,
-0.6849;-0.7286;0.0000;,
0.9187;0.3950;-0.0000;,
0.8832;0.4690;-0.0000;,
-0.9187;-0.3950;0.0000;,
-0.8832;-0.4690;0.0000;,
0.9152;0.4031;-0.0000;,
-0.9152;-0.4031;0.0000;,
0.0000;-0.0000;-1.0000;,
-0.0000;0.0000;1.0000;,
0.4868;0.8735;-0.0000;,
0.4505;0.8928;-0.0000;,
-0.4868;-0.8735;0.0000;,
-0.4505;-0.8928;0.0000;,
0.0000;0.0000;1.0000;,
-0.0000;-0.0000;-1.0000;,
1.0000;-0.0035;0.0000;,
-1.0000;0.0035;-0.0000;,
-0.0035;-1.0000;0.0000;,
0.0035;1.0000;-0.0000;,
0.5567;0.8307;-0.0000;,
-0.5567;-0.8307;0.0000;,
1.0000;-0.0035;-0.0000;,
-1.0000;0.0035;0.0000;,
0.9479;0.3184;-0.0000;,
-0.9479;-0.3184;0.0000;,
0.2238;0.9746;-0.0000;,
0.2130;0.9770;-0.0000;,
-0.2238;-0.9746;0.0000;,
-0.2130;-0.9770;0.0000;,
0.1262;0.9920;-0.0000;,
0.1480;0.9890;-0.0000;,
-0.1262;-0.9920;0.0000;,
-0.1480;-0.9890;0.0000;,
0.8418;0.5398;-0.0000;,
-0.8418;-0.5398;0.0000;,
0.0603;0.9982;-0.0000;,
0.0383;0.9993;-0.0000;,
-0.0603;-0.9982;0.0000;,
-0.0383;-0.9993;0.0000;,
0.0823;0.9966;-0.0000;,
0.1043;0.9946;-0.0000;,
-0.0823;-0.9966;0.0000;,
-0.1043;-0.9946;0.0000;,
0.0052;1.0000;-0.0000;,
0.0162;0.9999;-0.0000;,
-0.0052;-1.0000;0.0000;,
-0.0162;-0.9999;0.0000;,
0.1698;0.9855;-0.0000;,
-0.1698;-0.9855;0.0000;,
0.7947;0.6070;-0.0000;,
0.7423;0.6700;-0.0000;,
-0.7947;-0.6070;0.0000;,
-0.7423;-0.6700;0.0000;,
0.9918;-0.1275;0.0000;,
-0.9918;0.1275;-0.0000;,
0.9799;0.1997;0.0000;,
0.9709;0.2397;0.0000;,
-0.9799;-0.1997;-0.0000;,
-0.9709;-0.2397;-0.0000;,
0.1914;0.9815;0.0000;,
0.2023;0.9793;-0.0000;,
-0.1914;-0.9815;-0.0000;,
-0.2023;-0.9793;0.0000;,
0.1914;0.9815;-0.0000;,
-0.1914;-0.9815;0.0000;,
-0.0973;0.9953;0.0000;,
-0.0754;0.9972;0.0000;,
0.0973;-0.9953;-0.0000;,
0.0754;-0.9972;-0.0000;,
-0.1411;0.9900;0.0000;,
-0.1629;0.9866;0.0000;,
0.1411;-0.9900;-0.0000;,
0.1629;-0.9866;-0.0000;,
-0.8380;0.5456;-0.0000;,
-0.8799;0.4751;-0.0000;,
0.8380;-0.5456;0.0000;,
0.8799;-0.4751;0.0000;,
-0.0423;0.9991;0.0000;,
-0.0313;0.9995;-0.0000;,
0.0423;-0.9991;-0.0000;,
0.0313;-0.9995;0.0000;,
-0.1192;0.9929;0.0000;,
0.1192;-0.9929;-0.0000;,
0.0017;1.0000;-0.0000;,
-0.0093;1.0000;0.0000;,
-0.0017;-1.0000;0.0000;,
0.0093;-1.0000;-0.0000;,
-0.0534;0.9986;-0.0000;,
0.0534;-0.9986;0.0000;,
-0.1846;0.9828;0.0000;,
0.1846;-0.9828;-0.0000;,
-0.9927;-0.1206;-0.0000;,
0.9927;0.1206;0.0000;,
-0.9692;0.2464;-0.0000;,
-0.9785;0.2065;-0.0000;,
0.9692;-0.2464;0.0000;,
0.9785;-0.2065;0.0000;,
-0.6798;0.7334;-0.0000;,
-0.7377;0.6752;-0.0000;,
0.6798;-0.7334;0.0000;,
0.7377;-0.6752;0.0000;,
-0.0313;0.9995;0.0000;,
-0.0203;0.9998;0.0000;,
0.0313;-0.9995;-0.0000;,
0.0203;-0.9998;-0.0000;,
-0.1954;0.9807;-0.0000;,
-0.2062;0.9785;-0.0000;,
-0.1846;0.9828;-0.0000;,
0.1954;-0.9807;0.0000;,
0.2062;-0.9785;0.0000;,
0.1846;-0.9828;0.0000;,
-0.7905;0.6125;-0.0000;,
0.7905;-0.6125;0.0000;,
-0.9457;0.3250;-0.0000;,
0.9457;-0.3250;0.0000;,
-0.2170;0.9762;-0.0000;,
0.2170;-0.9762;0.0000;,
-0.9159;0.4014;-0.0000;,
0.9159;-0.4014;0.0000;,
-0.6175;0.7866;-0.0000;,
-0.5509;0.8346;-0.0000;,
0.6175;-0.7866;0.0000;,
0.5509;-0.8346;0.0000;,
-0.4807;0.8769;-0.0000;,
0.4807;-0.8769;0.0000;,
-0.9123;0.4094;0.0000;,
0.9123;-0.4094;-0.0000;,
-0.4443;0.8959;-0.0000;,
0.4443;-0.8959;0.0000;,
-0.0035;-1.0000;-0.0000;,
0.0035;1.0000;0.0000;,
-0.3862;0.9224;-0.0000;,
-0.4763;0.8793;0.0000;,
0.3862;-0.9224;0.0000;,
0.4763;-0.8793;-0.0000;,
-0.0964;0.9953;-0.0000;,
-0.1952;0.9808;0.0000;,
0.0964;-0.9953;0.0000;,
0.1952;-0.9808;-0.0000;,
0.2021;0.9794;-0.0000;,
0.2988;0.9543;-0.0000;,
-0.2021;-0.9794;0.0000;,
-0.2988;-0.9543;0.0000;,
0.1033;0.9947;-0.0000;,
0.0534;0.9986;-0.0000;,
-0.1033;-0.9947;0.0000;,
-0.0534;-0.9986;0.0000;,
0.3926;0.9197;-0.0000;,
0.4824;0.8759;0.0000;,
-0.3926;-0.9197;0.0000;,
-0.4824;-0.8759;-0.0000;,
0.5256;0.8507;0.0000;,
-0.5256;-0.8507;-0.0000;,
-0.0465;0.9989;-0.0000;,
0.0465;-0.9989;0.0000;,
-0.0000;-0.0000;1.0000;,
0.0000;0.0000;-1.0000;,
-0.5197;0.8544;0.0000;,
0.5197;-0.8544;-0.0000;,
-0.2922;0.9564;0.0000;,
0.2922;-0.9564;-0.0000;,
0.0273;0.9996;-0.0000;,
-0.0273;-0.9996;0.0000;,
0.1262;0.9920;0.0000;,
-0.1262;-0.9920;-0.0000;,
0.1480;0.9890;0.0000;,
-0.1480;-0.9890;-0.0000;,
0.1698;0.9855;0.0000;,
-0.1698;-0.9855;-0.0000;,
0.0493;0.9988;0.0000;,
-0.0493;-0.9988;-0.0000;,
-0.1629;0.9866;-0.0000;,
-0.1411;0.9900;-0.0000;,
0.1629;-0.9866;0.0000;,
0.1411;-0.9900;0.0000;,
-0.0534;0.9986;0.0000;,
0.0534;-0.9986;-0.0000;,
-0.0754;0.9972;-0.0000;,
0.0754;-0.9972;0.0000;,
-0.1192;0.9929;-0.0000;,
0.1192;-0.9929;0.0000;,
0.0017;1.0000;0.0000;,
-0.0017;-1.0000;-0.0000;,
-0.0093;1.0000;-0.0000;,
0.0093;-1.0000;0.0000;,
-0.0973;0.9953;-0.0000;,
0.0973;-0.9953;0.0000;,
-0.1954;0.9807;0.0000;,
0.1954;-0.9807;-0.0000;,
0.0025;0.7071;0.7071;,
-0.0025;-0.7071;-0.7071;,
-0.7046;0.7096;-0.0000;,
0.7046;-0.7096;0.0000;,
0.0000;-0.0000;1.0000;,
-0.0000;0.0000;-1.0000;,
0.0025;0.7071;-0.7071;,
-0.0025;-0.7071;0.7071;,
0.7096;0.7046;-0.0000;,
-0.7096;-0.7046;0.0000;,
-0.0203;0.9998;-0.0000;,
0.0203;-0.9998;0.0000;,
0.0383;0.9993;0.0000;,
-0.0383;-0.9993;-0.0000;;
1260;
3;0,1,0;
3;1,0,1;
3;2,3,2;
3;3,2,3;
3;5,5,4;
3;4,4,5;
3;6,7,7;
3;7,6,6;
3;8,8,8;
3;8,8,8;
3;9,9,9;
3;9,9,9;
3;10,10,10;
3;10,10,10;
3;11,11,11;
3;11,11,11;
3;13,13,12;
3;12,12,13;
3;14,15,15;
3;15,14,14;
3;16,16,16;
3;16,16,16;
3;16,16,16;
3;17,17,17;
3;17,17,17;
3;17,17,17;
3;16,16,16;
3;16,16,16;
3;16,16,16;
3;17,17,17;
3;17,17,17;
3;17,17,17;
3;18,18,18;
3;18,18,18;
3;19,19,19;
3;19,19,19;
3;20,20,20;
3;20,20,20;
3;21,21,21;
3;21,21,21;
3;22,0,22;
3;0,22,0;
3;23,2,23;
3;2,23,2;
3;12,12,22;
3;22,22,12;
3;23,14,14;
3;14,23,23;
3;11,11,11;
3;11,11,11;
3;11,11,11;
3;11,11,11;
3;11,11,11;
3;11,11,11;
3;11,11,11;
3;11,11,11;
3;11,11,11;
3;11,11,11;
3;11,11,11;
3;11,11,11;
3;11,11,11;
3;11,11,11;
3;11,11,11;
3;11,11,11;
3;11,11,11;
3;11,11,11;
3;11,11,11;
3;11,11,11;
3;11,11,11;
3;11,11,11;
3;11,11,11;
3;11,11,11;
3;11,11,11;
3;11,11,11;
3;11,11,11;
3;11,11,11;
3;11,11,11;
3;11,11,11;
3;11,11,11;
3;11,11,11;
3;11,11,11;
3;11,11,11;
3;11,11,11;
3;11,11,11;
3;11,11,11;
3;11,11,11;
3;11,11,11;
3;11,11,11;
3;11,11,11;
3;11,11,11;
3;11,11,11;
3;11,11,11;
3;11,11,11;
3;11,11,11;
3;11,11,11;
3;11,11,11;
3;11,11,11;
3;11,11,11;
3;11,11,11;
3;11,11,11;
3;11,11,11;
3;11,11,11;
3;11,11,11;
3;11,11,11;
3;11,11,11;
3;11,11,11;
3;11,11,11;
3;11,11,11;
3;11,11,11;
3;11,11,11;
3;11,11,11;
3;10,10,10;
3;10,10,10;
3;10,10,10;
3;10,10,10;
3;10,10,10;
3;10,10,10;
3;10,10,10;
3;10,10,10;
3;10,10,10;
3;10,10,10;
3;10,10,10;
3;10,10,10;
3;10,10,10;
3;10,10,10;
3;10,10,10;
3;10,10,10;
3;10,10,10;
3;10,10,10;
3;10,10,10;
3;10,10,10;
3;10,10,10;
3;10,10,10;
3;10,10,10;
3;10,10,10;
3;10,10,10;
3;10,10,10;
3;10,10,10;
3;10,10,10;
3;10,10,10;
3;10,10,10;
3;10,10,10;
3;10,10,10;
3;10,10,10;
3;10,10,10;
3;10,10,10;
3;10,10,10;
3;10,10,10;
3;10,10,10;
3;10,10,10;
3;10,10,10;
3;10,10,10;
3;10,10,10;
3;10,10,10;
3;10,10,10;
3;10,10,10;
3;10,10,10;
3;10,10,10;
3;10,10,10;
3;10,10,10;
3;10,10,10;
3;10,10,10;
3;10,10,10;
3;10,10,10;
3;10,10,10;
3;10,10,10;
3;10,10,10;
3;10,10,10;
3;10,10,10;
3;10,10,10;
3;10,10,10;
3;10,10,10;
3;10,10,10;
3;10,10,10;
3;10,10,10;
3;10,10,10;
3;11,11,11;
3;11,11,11;
3;24,24,24;
3;24,24,24;
3;25,25,25;
3;25,25,25;
3;4,4,26;
3;26,26,4;
3;27,6,6;
3;6,27,27;
3;29,29,28;
3;28,28,29;
3;30,31,31;
3;31,30,30;
3;32,33,32;
3;33,32,33;
3;34,35,34;
3;35,34,35;
3;5,36,5;
3;36,5,36;
3;7,37,7;
3;37,7,37;
3;39,39,38;
3;38,38,39;
3;40,41,41;
3;41,40,40;
3;42,43,42;
3;43,42,43;
3;44,45,44;
3;45,44,45;
3;46,47,46;
3;47,46,47;
3;48,49,48;
3;49,48,49;
3;33,50,33;
3;50,33,50;
3;35,51,35;
3;51,35,51;
3;52,53,52;
3;53,52,53;
3;54,55,54;
3;55,54,55;
3;17,17,17;
3;17,17,17;
3;17,17,17;
3;17,17,17;
3;17,17,17;
3;17,17,17;
3;17,17,17;
3;17,17,17;
3;17,17,17;
3;17,17,17;
3;17,17,17;
3;17,17,17;
3;17,17,17;
3;17,17,17;
3;17,17,17;
3;17,17,17;
3;17,17,17;
3;17,17,17;
3;17,17,17;
3;17,17,17;
3;17,17,17;
3;17,17,17;
3;17,17,17;
3;17,17,17;
3;17,17,17;
3;17,17,17;
3;17,17,17;
3;17,17,17;
3;17,17,17;
3;17,17,17;
3;17,17,17;
3;17,17,17;
3;17,17,17;
3;17,17,17;
3;17,17,17;
3;17,17,17;
3;17,17,17;
3;17,17,17;
3;17,17,17;
3;17,17,17;
3;17,17,17;
3;17,17,17;
3;17,17,17;
3;17,17,17;
3;17,17,17;
3;17,17,17;
3;17,17,17;
3;17,17,17;
3;17,17,17;
3;17,17,17;
3;17,17,17;
3;17,17,17;
3;17,17,17;
3;17,17,17;
3;17,17,17;
3;17,17,17;
3;17,17,17;
3;17,17,17;
3;17,17,17;
3;17,17,17;
3;17,17,17;
3;16,16,16;
3;16,16,16;
3;16,16,16;
3;16,16,16;
3;16,16,16;
3;16,16,16;
3;16,16,16;
3;16,16,16;
3;16,16,16;
3;16,16,16;
3;16,16,16;
3;16,16,16;
3;16,16,16;
3;16,16,16;
3;16,16,16;
3;16,16,16;
3;16,16,16;
3;16,16,16;
3;16,16,16;
3;16,16,16;
3;16,16,16;
3;16,16,16;
3;16,16,16;
3;16,16,16;
3;16,16,16;
3;16,16,16;
3;16,16,16;
3;16,16,16;
3;16,16,16;
3;16,16,16;
3;16,16,16;
3;16,16,16;
3;16,16,16;
3;16,16,16;
3;16,16,16;
3;16,16,16;
3;16,16,16;
3;16,16,16;
3;16,16,16;
3;16,16,16;
3;16,16,16;
3;16,16,16;
3;16,16,16;
3;16,16,16;
3;16,16,16;
3;16,16,16;
3;16,16,16;
3;16,16,16;
3;16,16,16;
3;16,16,16;
3;16,16,16;
3;16,16,16;
3;16,16,16;
3;16,16,16;
3;16,16,16;
3;16,16,16;
3;16,16,16;
3;16,16,16;
3;16,16,16;
3;16,16,16;
3;16,16,16;
3;56,56,56;
3;56,56,56;
3;57,57,57;
3;57,57,57;
3;53,1,53;
3;1,53,1;
3;55,3,55;
3;3,55,3;
3;47,39,47;
3;39,47,39;
3;49,41,49;
3;41,49,41;
3;58,59,58;
3;59,58,59;
3;60,61,60;
3;61,60,61;
3;21,21,21;
3;21,21,21;
3;20,20,20;
3;20,20,20;
3;43,32,43;
3;32,43,32;
3;45,34,45;
3;34,45,34;
3;62,63,62;
3;63,62,63;
3;64,65,64;
3;65,64,65;
3;38,38,42;
3;42,42,38;
3;44,40,40;
3;40,44,44;
3;52,52,36;
3;36,36,52;
3;37,54,54;
3;54,37,37;
3;50,66,50;
3;66,50,66;
3;51,67,51;
3;67,51,67;
3;59,26,59;
3;26,59,26;
3;61,27,61;
3;27,61,27;
3;68,69,68;
3;69,68,69;
3;70,71,70;
3;71,70,71;
3;73,73,72;
3;72,72,73;
3;74,75,75;
3;75,74,74;
3;76,77,76;
3;77,76,77;
3;78,79,78;
3;79,78,79;
3;80,80,80;
3;80,80,80;
3;81,80,80;
3;81,80,81;
3;82,82,82;
3;82,82,82;
3;82,82,83;
3;83,82,83;
3;72,84,72;
3;84,72,84;
3;74,85,74;
3;85,74,85;
3;87,87,86;
3;86,86,87;
3;88,89,89;
3;89,88,88;
3;69,69,90;
3;90,90,69;
3;91,71,71;
3;71,91,91;
3;84,84,68;
3;68,68,84;
3;70,85,85;
3;85,70,70;
3;92,73,92;
3;73,92,73;
3;93,75,93;
3;75,93,75;
3;94,94,94;
3;94,94,94;
3;95,95,95;
3;95,95,95;
3;97,97,96;
3;96,96,97;
3;98,99,99;
3;99,98,98;
3;101,101,100;
3;100,100,101;
3;102,103,103;
3;103,102,102;
3;104,105,104;
3;87,104,105;
3;105,87,105;
3;104,87,104;
3;105,104,87;
3;87,105,87;
3;106,107,106;
3;107,106,89;
3;107,89,107;
3;106,89,106;
3;89,106,107;
3;89,107,89;
3;21,21,21;
3;21,21,21;
3;20,20,20;
3;20,20,20;
3;109,108,92;
3;92,92,108;
3;109,110,109;
3;108,109,110;
3;108,109,108;
3;110,108,110;
3;93,111,112;
3;111,93,93;
3;112,113,112;
3;113,112,111;
3;111,112,111;
3;113,111,113;
3;114,76,114;
3;76,114,76;
3;115,78,115;
3;78,115,78;
3;116,96,116;
3;96,116,96;
3;117,98,117;
3;98,117,98;
3;114,114,101;
3;101,101,114;
3;103,115,115;
3;115,103,103;
3;118,109,118;
3;109,118,109;
3;119,112,119;
3;112,119,112;
3;19,19,19;
3;19,19,19;
3;18,18,18;
3;18,18,18;
3;116,116,120;
3;120,120,116;
3;121,117,117;
3;117,121,121;
3;122,123,122;
3;123,122,123;
3;124,125,124;
3;125,124,125;
3;100,122,100;
3;122,100,122;
3;102,124,102;
3;124,102,124;
3;123,126,123;
3;126,123,126;
3;125,127,125;
3;127,125,127;
3;77,120,77;
3;120,77,120;
3;79,121,79;
3;121,79,121;
3;128,128,128;
3;128,128,128;
3;129,129,129;
3;129,129,129;
3;126,130,126;
3;130,126,130;
3;127,131,127;
3;131,127,131;
3;19,19,19;
3;19,19,19;
3;18,18,18;
3;18,18,18;
3;132,132,132;
3;132,132,132;
3;133,133,133;
3;133,133,133;
3;21,21,21;
3;21,21,21;
3;20,20,20;
3;20,20,20;
3;21,21,21;
3;21,21,21;
3;20,20,20;
3;20,20,20;
3;135,135,134;
3;134,134,135;
3;136,137,137;
3;137,136,136;
3;139,139,138;
3;138,138,139;
3;140,141,141;
3;141,140,140;
3;142,143,142;
3;143,142,143;
3;144,145,144;
3;145,144,145;
3;147,147,146;
3;146,146,147;
3;148,149,149;
3;149,148,148;
3;150,151,150;
3;151,150,151;
3;152,153,152;
3;153,152,153;
3;151,154,151;
3;154,151,154;
3;153,155,153;
3;155,153,155;
3;10,10,10;
3;10,10,10;
3;10,10,10;
3;10,10,10;
3;10,10,10;
3;10,10,10;
3;10,10,10;
3;10,10,10;
3;10,10,10;
3;10,10,10;
3;10,10,10;
3;10,10,10;
3;10,10,10;
3;10,10,10;
3;10,10,10;
3;10,10,10;
3;10,10,10;
3;10,10,10;
3;10,10,10;
3;10,10,10;
3;10,10,10;
3;10,10,10;
3;10,10,10;
3;10,10,10;
3;10,10,10;
3;10,10,10;
3;10,10,10;
3;10,10,10;
3;10,10,10;
3;10,10,10;
3;10,10,10;
3;10,10,10;
3;11,11,11;
3;11,11,11;
3;11,11,11;
3;11,11,11;
3;11,11,11;
3;11,11,11;
3;11,11,11;
3;11,11,11;
3;11,11,11;
3;11,11,11;
3;11,11,11;
3;11,11,11;
3;11,11,11;
3;11,11,11;
3;11,11,11;
3;11,11,11;
3;11,11,11;
3;11,11,11;
3;11,11,11;
3;11,11,11;
3;11,11,11;
3;11,11,11;
3;11,11,11;
3;11,11,11;
3;11,11,11;
3;11,11,11;
3;11,11,11;
3;11,11,11;
3;11,11,11;
3;11,11,11;
3;11,11,11;
3;11,11,11;
3;138,156,138;
3;156,138,156;
3;140,157,140;
3;157,140,157;
3;158,158,158;
3;158,158,158;
3;158,158,158;
3;158,158,158;
3;158,158,158;
3;158,158,158;
3;158,158,158;
3;158,158,158;
3;158,158,158;
3;158,158,158;
3;158,158,158;
3;158,158,158;
3;158,158,158;
3;158,158,158;
3;158,158,158;
3;158,158,158;
3;158,158,158;
3;158,158,158;
3;158,158,158;
3;158,158,158;
3;158,158,158;
3;158,158,158;
3;158,158,158;
3;158,158,158;
3;158,158,158;
3;158,158,158;
3;158,158,158;
3;158,158,158;
3;158,158,158;
3;158,158,158;
3;158,158,158;
3;158,158,158;
3;159,159,159;
3;159,159,159;
3;159,159,159;
3;159,159,159;
3;159,159,159;
3;159,159,159;
3;159,159,159;
3;159,159,159;
3;159,159,159;
3;159,159,159;
3;159,159,159;
3;159,159,159;
3;159,159,159;
3;159,159,159;
3;159,159,159;
3;159,159,159;
3;159,159,159;
3;159,159,159;
3;159,159,159;
3;159,159,159;
3;159,159,159;
3;159,159,159;
3;159,159,159;
3;159,159,159;
3;159,159,159;
3;159,159,159;
3;159,159,159;
3;159,159,159;
3;159,159,159;
3;159,159,159;
3;159,159,159;
3;159,159,159;
3;160,160,135;
3;135,135,160;
3;137,161,161;
3;161,137,137;
3;146,146,142;
3;142,142,146;
3;144,148,148;
3;148,144,144;
3;134,162,134;
3;162,134,162;
3;136,163,136;
3;163,136,163;
3;25,25,25;
3;25,25,25;
3;24,24,24;
3;24,24,24;
3;143,150,143;
3;150,143,150;
3;145,152,145;
3;152,145,152;
3;162,139,162;
3;139,162,139;
3;163,141,163;
3;141,163,141;
3;18,18,18;
3;18,18,18;
3;19,19,19;
3;19,19,19;
3;47,47,39;
3;39,39,47;
3;41,49,49;
3;49,41,41;
3;164,164,47;
3;39,47,164;
3;39,39,164;
3;47,39,47;
3;164,47,39;
3;39,164,39;
3;49,165,165;
3;165,49,41;
3;165,41,41;
3;49,41,49;
3;41,49,165;
3;41,165,41;
3;43,43,166;
3;166,166,43;
3;167,45,45;
3;45,167,167;
3;43,43,32;
3;32,32,43;
3;34,45,45;
3;45,34,34;
3;38,38,42;
3;42,42,38;
3;44,40,40;
3;40,44,44;
3;38,42,38;
3;42,38,42;
3;40,44,40;
3;44,40,44;
3;166,166,168;
3;168,168,166;
3;169,167,167;
3;167,169,169;
3;32,33,32;
3;33,32,33;
3;34,35,34;
3;35,34,35;
3;46,46,47;
3;47,47,46;
3;49,48,48;
3;48,49,49;
3;46,47,46;
3;47,46,47;
3;48,49,48;
3;49,48,49;
3;42,43,42;
3;43,42,43;
3;44,45,44;
3;45,44,45;
3;42,42,43;
3;43,43,42;
3;45,44,44;
3;44,45,45;
3;33,170,33;
3;170,33,170;
3;35,171,35;
3;171,35,171;
3;168,170,168;
3;170,168,170;
3;169,171,169;
3;171,169,171;
3;39,38,39;
3;38,39,38;
3;41,40,41;
3;40,41,40;
3;39,39,38;
3;172,38,39;
3;172,38,172;
3;39,38,39;
3;172,39,38;
3;172,172,38;
3;172,172,38;
3;38,172,38;
3;40,41,41;
3;41,40,173;
3;173,40,173;
3;41,40,41;
3;40,41,173;
3;40,173,173;
3;40,173,173;
3;40,173,40;
3;174,175,174;
3;175,174,175;
3;176,177,176;
3;177,176,177;
3;174,175,174;
3;175,174,175;
3;176,177,176;
3;177,176,177;
3;66,66,29;
3;63,29,66;
3;66,29,66;
3;63,66,29;
3;63,63,29;
3;29,63,29;
3;31,67,67;
3;67,31,65;
3;67,31,67;
3;31,67,65;
3;31,65,65;
3;31,65,31;
3;69,178,69;
3;178,69,178;
3;71,179,71;
3;179,71,179;
3;180,90,180;
3;90,180,90;
3;181,91,181;
3;91,181,91;
3;175,182,175;
3;182,175,182;
3;177,183,177;
3;183,177,183;
3;175,182,175;
3;182,175,182;
3;177,183,177;
3;183,177,183;
3;170,62,170;
3;62,170,62;
3;171,64,171;
3;64,171,64;
3;170,170,66;
3;66,66,170;
3;67,171,171;
3;171,67,67;
3;92,92,174;
3;174,174,92;
3;176,93,93;
3;93,176,176;
3;110,174,110;
3;174,110,174;
3;113,176,113;
3;176,113,176;
3;87,87,184;
3;184,184,87;
3;185,89,89;
3;89,185,185;
3;186,86,186;
3;86,186,86;
3;187,88,187;
3;88,187,88;
3;188,180,188;
3;180,188,180;
3;189,181,189;
3;181,189,181;
3;68,69,68;
3;69,68,69;
3;70,71,70;
3;71,70,71;
3;190,190,92;
3;92,92,190;
3;93,191,191;
3;191,93,93;
3;182,188,182;
3;188,182,188;
3;183,189,183;
3;189,183,189;
3;182,68,182;
3;68,182,68;
3;183,70,183;
3;70,183,70;
3;81,81,186;
3;186,186,81;
3;187,83,83;
3;83,187,187;
3;104,87,104;
3;87,104,87;
3;106,89,106;
3;89,106,89;
3;90,81,90;
3;81,90,81;
3;91,83,91;
3;83,91,83;
3;178,178,104;
3;104,104,178;
3;106,179,179;
3;179,106,106;
3;19,19,19;
3;19,19,19;
3;18,18,18;
3;18,18,18;
3;133,133,133;
3;133,133,133;
3;133,133,133;
3;133,133,133;
3;133,133,133;
3;133,133,133;
3;133,133,133;
3;133,133,133;
3;132,132,132;
3;132,132,132;
3;132,132,132;
3;132,132,132;
3;132,132,132;
3;132,132,132;
3;132,132,132;
3;132,132,132;
3;20,20,20;
3;20,20,20;
3;20,20,20;
3;21,21,21;
3;21,21,21;
3;21,21,21;
3;132,132,132;
3;132,132,132;
3;133,133,133;
3;133,133,133;
3;192,192,192;
3;192,192,192;
3;193,193,193;
3;193,193,193;
3;133,133,133;
3;133,133,133;
3;132,132,132;
3;132,132,132;
3;194,194,194;
3;194,194,194;
3;195,195,195;
3;195,195,195;
3;158,158,158;
3;158,158,158;
3;159,159,159;
3;159,159,159;
3;133,133,133;
3;133,133,133;
3;132,132,132;
3;132,132,132;
3;24,24,24;
3;24,24,24;
3;25,25,25;
3;25,25,25;
3;158,158,158;
3;158,158,158;
3;158,158,158;
3;158,158,158;
3;158,158,158;
3;159,159,159;
3;159,159,159;
3;159,159,159;
3;159,159,159;
3;159,159,159;
3;25,25,25;
3;25,25,25;
3;24,24,24;
3;24,24,24;
3;25,25,25;
3;25,25,25;
3;25,25,25;
3;25,25,25;
3;25,25,25;
3;25,25,25;
3;24,24,24;
3;24,24,24;
3;24,24,24;
3;24,24,24;
3;24,24,24;
3;24,24,24;
3;20,20,20;
3;20,20,20;
3;21,21,21;
3;21,21,21;
3;158,158,158;
3;158,158,158;
3;159,159,159;
3;159,159,159;
3;20,20,20;
3;20,20,20;
3;20,20,20;
3;20,20,20;
3;20,20,20;
3;20,20,20;
3;20,20,20;
3;20,20,20;
3;21,21,21;
3;21,21,21;
3;21,21,21;
3;21,21,21;
3;21,21,21;
3;21,21,21;
3;21,21,21;
3;21,21,21;
3;24,24,24;
3;24,24,24;
3;25,25,25;
3;25,25,25;
3;21,21,21;
3;21,21,21;
3;20,20,20;
3;20,20,20;
3;196,196,196;
3;196,196,196;
3;196,196,196;
3;196,196,196;
3;197,197,197;
3;197,197,197;
3;197,197,197;
3;197,197,197;
3;19,19,19;
3;19,19,19;
3;18,18,18;
3;18,18,18;
3;159,159,159;
3;159,159,159;
3;159,159,159;
3;159,159,159;
3;159,159,159;
3;158,158,158;
3;158,158,158;
3;158,158,158;
3;158,158,158;
3;158,158,158;
3;132,132,132;
3;132,132,132;
3;132,132,132;
3;132,132,132;
3;133,133,133;
3;133,133,133;
3;133,133,133;
3;133,133,133;
3;198,198,198;
3;198,198,198;
3;199,199,199;
3;199,199,199;
3;18,18,18;
3;18,18,18;
3;18,18,18;
3;18,18,18;
3;18,18,18;
3;18,18,18;
3;19,19,19;
3;19,19,19;
3;19,19,19;
3;19,19,19;
3;19,19,19;
3;19,19,19;
3;20,20,20;
3;20,20,20;
3;21,21,21;
3;21,21,21;
3;21,21,21;
3;21,21,21;
3;20,20,20;
3;20,20,20;
3;21,21,21;
3;21,21,21;
3;21,21,21;
3;21,21,21;
3;21,21,21;
3;21,21,21;
3;21,21,21;
3;21,21,21;
3;21,21,21;
3;21,21,21;
3;20,20,20;
3;20,20,20;
3;20,20,20;
3;20,20,20;
3;20,20,20;
3;20,20,20;
3;20,20,20;
3;20,20,20;
3;20,20,20;
3;20,20,20;
3;24,24,24;
3;24,24,24;
3;25,25,25;
3;25,25,25;
3;19,19,19;
3;19,19,19;
3;18,18,18;
3;18,18,18;
3;133,133,133;
3;133,133,133;
3;133,133,133;
3;133,133,133;
3;133,133,133;
3;133,133,133;
3;133,133,133;
3;133,133,133;
3;133,133,133;
3;133,133,133;
3;132,132,132;
3;132,132,132;
3;132,132,132;
3;132,132,132;
3;132,132,132;
3;132,132,132;
3;132,132,132;
3;132,132,132;
3;132,132,132;
3;132,132,132;
3;18,18,18;
3;18,18,18;
3;19,19,19;
3;19,19,19;
3;133,133,133;
3;133,133,133;
3;132,132,132;
3;132,132,132;
3;20,20,20;
3;20,20,20;
3;21,21,21;
3;21,21,21;
3;16,16,16;
3;16,16,16;
3;16,16,16;
3;16,16,16;
3;17,17,17;
3;17,17,17;
3;17,17,17;
3;17,17,17;
3;10,10,10;
3;10,10,10;
3;11,11,11;
3;11,11,11;
3;20,20,20;
3;20,20,20;
3;20,20,20;
3;21,21,21;
3;21,21,21;
3;21,21,21;
3;10,10,10;
3;10,10,10;
3;10,10,10;
3;10,10,10;
3;10,10,10;
3;11,11,11;
3;11,11,11;
3;11,11,11;
3;11,11,11;
3;11,11,11;
3;196,196,196;
3;196,196,196;
3;196,196,196;
3;196,196,196;
3;196,196,196;
3;197,197,197;
3;197,197,197;
3;197,197,197;
3;197,197,197;
3;197,197,197;
3;197,197,197;
3;197,197,197;
3;197,197,197;
3;197,197,197;
3;196,196,196;
3;196,196,196;
3;196,196,196;
3;196,196,196;
3;19,19,19;
3;19,19,19;
3;18,18,18;
3;18,18,18;
3;16,16,16;
3;16,16,16;
3;17,17,17;
3;17,17,17;
3;19,19,19;
3;19,19,19;
3;19,19,19;
3;19,19,19;
3;19,19,19;
3;19,19,19;
3;18,18,18;
3;18,18,18;
3;18,18,18;
3;18,18,18;
3;18,18,18;
3;18,18,18;
3;24,24,24;
3;24,24,24;
3;25,25,25;
3;25,25,25;
3;24,24,24;
3;24,24,24;
3;24,24,24;
3;24,24,24;
3;24,24,24;
3;24,24,24;
3;25,25,25;
3;25,25,25;
3;25,25,25;
3;25,25,25;
3;25,25,25;
3;25,25,25;
3;10,10,10;
3;10,10,10;
3;10,10,10;
3;10,10,10;
3;11,11,11;
3;11,11,11;
3;11,11,11;
3;11,11,11;
3;133,133,133;
3;133,133,133;
3;132,132,132;
3;132,132,132;
3;197,197,197;
3;197,197,197;
3;196,196,196;
3;196,196,196;
3;200,200,200;
3;200,200,200;
3;201,201,201;
3;201,201,201;
3;21,21,21;
3;21,21,21;
3;20,20,20;
3;20,20,20;
3;10,10,10;
3;10,10,10;
3;11,11,11;
3;11,11,11;
3;80,80,90;
3;104,90,80;
3;80,104,80;
3;104,104,80;
3;90,104,90;
3;80,90,104;
3;80,80,104;
3;104,80,104;
3;91,82,82;
3;82,91,106;
3;82,106,82;
3;82,106,106;
3;91,106,91;
3;106,91,82;
3;106,82,82;
3;106,82,106;
3;81,81,202;
3;202,202,81;
3;203,83,83;
3;83,203,203;
3;164,204,164;
3;204,164,204;
3;165,205,165;
3;205,165,205;
3;204,204,172;
3;172,172,204;
3;172,172,172;
3;172,172,172;
3;173,205,205;
3;205,173,173;
3;173,173,173;
3;173,173,173;;
  }
}
