xof 0303txt 0032
Material _black {
0.0000;0.0000;0.0000;1.0000;;
5.0000;
0.0000;0.0000;0.0000;;	
0.0000;0.0000;0.0000;;	
}
Material ______3_shadow_png {
1.0000;1.0000;1.0000;  1.0000;;
5.0000;
0.1000;0.1000;0.1000;;	
0.2000;0.2000;0.2000;;	
   TextureFilename { "shadow.png"; }
}
Material _mid2_syonan_side_mid2_png {
1.0000;1.0000;1.0000;  1.0000;;
5.0000;
0.1000;0.1000;0.1000;;	
0.2000;0.2000;0.2000;;	
   TextureFilename { "syonan.side.mid2.png"; }
}
Material _96_96_96 {
0.3765;0.3765;0.3765;1.0000;;
5.0000;
0.0376;0.0376;0.0376;;	
0.0753;0.0753;0.0753;;	
}
Material ______6_radio_png {
1.0000;1.0000;1.0000;  1.0000;;
5.0000;
0.1000;0.1000;0.1000;;	
0.2000;0.2000;0.2000;;	
   TextureFilename { "radio.png"; }
}
Material ______5_au726_front_png {
1.0000;1.0000;1.0000;  1.0000;;
5.0000;
0.1000;0.1000;0.1000;;	
0.2000;0.2000;0.2000;;	
   TextureFilename { "au726.front.png"; }
}
Material _mid1_syonan_side_mid1_png {
1.0000;1.0000;1.0000;  1.0000;;
5.0000;
0.1000;0.1000;0.1000;;	
0.2000;0.2000;0.2000;;	
   TextureFilename { "syonan.side.mid1.png"; }
}
Material ____e_side_png {
1.0000;1.0000;1.0000;  1.0000;;
5.0000;
0.1000;0.1000;0.1000;;	
0.2000;0.2000;0.2000;;	
   TextureFilename { "e.side.png"; }
}
Material Default_Material { 
1.0000;1.0000;1.0000;1.0;;
5.0;
0.1;0.1;0.1;;
0.2;0.2;0.2;;
} 
Material ______8_roofdef_png {
1.0000;1.0000;1.0000;  1.0000;;
5.0000;
0.1000;0.1000;0.1000;;	
0.2000;0.2000;0.2000;;	
   TextureFilename { "roofdef.png"; }
}
Material __LightGray_ {
0.6627;0.6627;0.6627;1.0000;;
5.0000;
0.0663;0.0663;0.0663;;	
0.1325;0.1325;0.1325;;	
}
Material ______4_au726_png {
1.0000;1.0000;1.0000;  1.0000;;
5.0000;
0.1000;0.1000;0.1000;;	
0.2000;0.2000;0.2000;;	
   TextureFilename { "au726.png"; }
}
Material __0135_DarkGray_ {
0.3176;0.3176;0.3176;1.0000;;
5.0000;
0.0318;0.0318;0.0318;;	
0.0635;0.0635;0.0635;;	
}
Mesh mesh_0{
806;
-1.4114;3.4749;0.0000;,
-1.4222;3.4656;19.5000;,
-1.4222;3.4656;0.0000;,
-1.4114;3.4749;19.5000;,
-1.4114;3.4749;0.0000;,
-1.4222;3.4656;19.5000;,
-1.4222;3.4656;0.0000;,
-1.4114;3.4749;19.5000;,
-1.4568;3.4207;19.5000;,
-1.4630;3.4079;0.0000;,
-1.4568;3.4207;0.0000;,
-1.4630;3.4079;19.5000;,
-1.4568;3.4207;19.5000;,
-1.4630;3.4079;0.0000;,
-1.4568;3.4207;0.0000;,
-1.4630;3.4079;19.5000;,
-1.3550;3.5420;19.5000;,
-1.3750;3.4970;0.0000;,
-1.3550;3.5420;0.0000;,
-1.3750;3.4970;19.5000;,
-1.3550;3.5420;19.5000;,
-1.3750;3.4970;0.0000;,
-1.3550;3.5420;0.0000;,
-1.3750;3.4970;19.5000;,
-1.0000;0.9870;19.5000;,
1.0000;0.0200;19.5000;,
-1.0000;0.0200;19.5000;,
1.0000;0.9870;19.5000;,
-1.3877;3.4906;19.5000;,
-1.3877;3.4906;0.0000;,
-1.3877;3.4906;19.5000;,
-1.3877;3.4906;0.0000;,
1.0000;0.9870;0.0000;,
-1.0000;0.0200;-0.0000;,
1.0000;0.0200;0.0000;,
-1.0000;0.9870;0.0000;,
0.0000;0.9870;0.0000;,
0.4500;3.0370;-0.0000;,
0.0000;1.1870;0.0000;,
0.4500;1.1870;0.0000;,
-0.4500;1.1870;0.0000;,
-0.4500;3.0370;0.0000;,
-1.4000;0.9870;0.0000;,
-1.4000;0.9870;19.5000;,
-1.3999;3.4832;0.0000;,
-1.3999;3.4832;19.5000;,
-1.3999;3.4832;0.0000;,
-1.3999;3.4832;19.5000;,
1.4000;0.9870;0.0000;,
0.0000;0.9870;0.0000;,
1.0000;0.9870;0.0000;,
1.4750;1.5870;0.0000;,
0.4500;1.1870;0.0000;,
0.4500;3.0370;-0.0000;,
1.4750;3.3670;-0.0000;,
-0.4500;3.0370;0.0000;,
1.1497;3.5505;-0.0000;,
-1.1875;3.5420;0.0000;,
1.1875;3.5420;-0.0000;,
-1.1497;3.5505;0.0000;,
1.0362;3.5736;-0.0000;,
-1.0362;3.5736;0.0000;,
0.9223;3.5941;-0.0000;,
-0.9223;3.5941;0.0000;,
0.8079;3.6121;-0.0000;,
-0.8079;3.6121;0.0000;,
0.6931;3.6275;-0.0000;,
-0.6931;3.6275;0.0000;,
0.5781;3.6405;-0.0000;,
-0.5781;3.6405;0.0000;,
0.4627;3.6509;-0.0000;,
-0.4627;3.6509;0.0000;,
0.3472;3.6587;-0.0000;,
-0.3472;3.6587;0.0000;,
0.2315;3.6640;-0.0000;,
-0.2315;3.6640;0.0000;,
0.1158;3.6668;-0.0000;,
-0.1158;3.6668;0.0000;,
0.0000;3.6670;0.0000;,
0.0000;1.1870;0.0000;,
-1.0000;0.9870;0.0000;,
-1.4000;0.9870;0.0000;,
-0.4500;1.1870;0.0000;,
-1.4750;1.5870;0.0000;,
-1.4750;3.3670;0.0000;,
1.4721;3.3809;-0.0000;,
-1.4721;3.3809;0.0000;,
1.4681;3.3946;-0.0000;,
-1.4681;3.3946;0.0000;,
1.4630;3.4079;-0.0000;,
-1.4630;3.4079;0.0000;,
1.4568;3.4207;-0.0000;,
-1.4568;3.4207;0.0000;,
1.4495;3.4329;-0.0000;,
-1.4495;3.4329;0.0000;,
1.4413;3.4446;-0.0000;,
-1.4413;3.4446;0.0000;,
1.4322;3.4555;-0.0000;,
-1.4322;3.4555;0.0000;,
1.4222;3.4656;-0.0000;,
-1.4222;3.4656;0.0000;,
1.4114;3.4749;-0.0000;,
-1.4114;3.4749;0.0000;,
1.3999;3.4832;-0.0000;,
-1.3999;3.4832;0.0000;,
1.3877;3.4906;-0.0000;,
-1.3877;3.4906;0.0000;,
1.3750;3.4970;-0.0000;,
-1.3750;3.4970;0.0000;,
1.3550;3.5420;-0.0000;,
-1.3550;3.5420;0.0000;,
1.4000;0.9870;0.0000;,
1.4750;1.5870;0.0000;,
1.4750;3.3670;-0.0000;,
1.1497;3.5505;-0.0000;,
-1.1875;3.5420;0.0000;,
1.1875;3.5420;-0.0000;,
-1.1497;3.5505;0.0000;,
1.0362;3.5736;-0.0000;,
-1.0362;3.5736;0.0000;,
0.9223;3.5941;-0.0000;,
-0.9223;3.5941;0.0000;,
0.8079;3.6121;-0.0000;,
-0.8079;3.6121;0.0000;,
0.6931;3.6275;-0.0000;,
-0.6931;3.6275;0.0000;,
0.5781;3.6405;-0.0000;,
-0.5781;3.6405;0.0000;,
0.4627;3.6509;-0.0000;,
-0.4627;3.6509;0.0000;,
0.3472;3.6587;-0.0000;,
-0.3472;3.6587;0.0000;,
0.2315;3.6640;-0.0000;,
-0.2315;3.6640;0.0000;,
0.1158;3.6668;-0.0000;,
-0.1158;3.6668;0.0000;,
0.0000;3.6670;0.0000;,
-1.4750;1.5870;0.0000;,
-1.4750;3.3670;0.0000;,
1.4721;3.3809;-0.0000;,
-1.4721;3.3809;0.0000;,
1.4681;3.3946;-0.0000;,
-1.4681;3.3946;0.0000;,
1.4630;3.4079;-0.0000;,
1.4568;3.4207;-0.0000;,
1.4495;3.4329;-0.0000;,
-1.4495;3.4329;0.0000;,
1.4413;3.4446;-0.0000;,
-1.4413;3.4446;0.0000;,
1.4322;3.4555;-0.0000;,
-1.4322;3.4555;0.0000;,
1.4222;3.4656;-0.0000;,
1.4114;3.4749;-0.0000;,
1.3999;3.4832;-0.0000;,
1.3877;3.4906;-0.0000;,
1.3750;3.4970;-0.0000;,
1.3550;3.5420;-0.0000;,
-0.4500;3.0370;19.5000;,
0.4500;1.1870;19.5000;,
-0.4500;1.1870;19.5000;,
0.4500;3.0370;19.5000;,
-1.4750;3.3670;19.5000;,
-1.4750;1.5870;0.0000;,
-1.4750;3.3670;0.0000;,
-1.4750;1.5870;19.5000;,
-1.4750;3.3670;19.5000;,
-1.4750;1.5870;19.5000;,
-1.4681;3.3946;0.0000;,
-1.4681;3.3946;19.5000;,
-1.4681;3.3946;19.5000;,
-1.1497;3.5505;0.0000;,
-1.1875;3.5420;19.5000;,
-1.1875;3.5420;0.0000;,
-1.1497;3.5505;19.5000;,
-1.1875;3.5420;19.5000;,
-1.1497;3.5505;19.5000;,
-0.6931;3.6275;0.0000;,
-0.8079;3.6121;8.4000;,
-0.8079;3.6121;0.0000;,
-0.6931;3.6275;8.4000;,
-0.8079;3.6121;8.4000;,
-0.6931;3.6275;8.4000;,
-1.4495;3.4329;19.5000;,
-1.4495;3.4329;0.0000;,
-1.4495;3.4329;19.5000;,
-0.3472;3.6587;0.0000;,
-0.2315;3.6640;8.4000;,
-0.3472;3.6587;8.4000;,
-0.2315;3.6640;0.0000;,
-0.2315;3.6640;8.4000;,
-0.3472;3.6587;8.4000;,
-0.4627;3.6509;0.0000;,
-0.5781;3.6405;8.4000;,
-0.5781;3.6405;0.0000;,
-0.4627;3.6509;8.4000;,
-0.5781;3.6405;8.4000;,
-0.4627;3.6509;8.4000;,
0.0000;3.6670;0.0000;,
-0.1158;3.6668;8.4000;,
-0.1158;3.6668;0.0000;,
0.0000;3.6670;8.4000;,
-0.1158;3.6668;8.4000;,
0.0000;3.6670;8.4000;,
-0.9223;3.5941;0.0000;,
-0.9223;3.5941;8.4000;,
-0.9223;3.5941;8.4000;,
-1.4322;3.4555;19.5000;,
-1.4413;3.4446;0.0000;,
-1.4322;3.4555;0.0000;,
-1.4413;3.4446;19.5000;,
-1.4322;3.4555;19.5000;,
-1.4413;3.4446;19.5000;,
-1.4750;1.5870;19.5000;,
-1.0000;0.9870;19.5000;,
-1.4000;0.9870;19.5000;,
-0.4500;1.1870;19.5000;,
1.0000;0.9870;19.5000;,
1.4000;0.9870;19.5000;,
-0.4500;3.0370;19.5000;,
-1.4750;3.3670;19.5000;,
0.4500;3.0370;19.5000;,
-1.1497;3.5505;19.5000;,
1.1875;3.5420;19.5000;,
-1.1875;3.5420;19.5000;,
1.1497;3.5505;19.5000;,
-1.0362;3.5736;19.5000;,
1.0362;3.5736;19.5000;,
-0.9223;3.5941;19.5000;,
0.9223;3.5941;19.5000;,
-0.8079;3.6121;19.5000;,
0.8079;3.6121;19.5000;,
-0.6931;3.6275;19.5000;,
0.6931;3.6275;19.5000;,
-0.5781;3.6405;19.5000;,
0.5781;3.6405;19.5000;,
-0.4627;3.6509;19.5000;,
0.4627;3.6509;19.5000;,
-0.3472;3.6587;19.5000;,
0.3472;3.6587;19.5000;,
-0.2315;3.6640;19.5000;,
0.2315;3.6640;19.5000;,
-0.1158;3.6668;19.5000;,
0.1158;3.6668;19.5000;,
0.0000;3.6670;19.5000;,
0.4500;1.1870;19.5000;,
1.4750;1.5870;19.5000;,
1.4750;3.3670;19.5000;,
-1.4721;3.3809;19.5000;,
1.4721;3.3809;19.5000;,
-1.4681;3.3946;19.5000;,
1.4681;3.3946;19.5000;,
-1.4630;3.4079;19.5000;,
1.4630;3.4079;19.5000;,
-1.4568;3.4207;19.5000;,
1.4568;3.4207;19.5000;,
-1.4495;3.4329;19.5000;,
1.4495;3.4329;19.5000;,
-1.4413;3.4446;19.5000;,
1.4413;3.4446;19.5000;,
-1.4322;3.4555;19.5000;,
1.4322;3.4555;19.5000;,
-1.4222;3.4656;19.5000;,
1.4222;3.4656;19.5000;,
-1.4114;3.4749;19.5000;,
1.4114;3.4749;19.5000;,
-1.3999;3.4832;19.5000;,
1.3999;3.4832;19.5000;,
-1.3877;3.4906;19.5000;,
1.3877;3.4906;19.5000;,
-1.3750;3.4970;19.5000;,
1.3750;3.4970;19.5000;,
-1.3550;3.5420;19.5000;,
1.3550;3.5420;19.5000;,
1.4000;0.9870;19.5000;,
1.1875;3.5420;19.5000;,
1.1497;3.5505;19.5000;,
-1.0362;3.5736;19.5000;,
1.0362;3.5736;19.5000;,
-0.9223;3.5941;19.5000;,
0.9223;3.5941;19.5000;,
-0.8079;3.6121;19.5000;,
0.8079;3.6121;19.5000;,
-0.6931;3.6275;19.5000;,
0.6931;3.6275;19.5000;,
-0.5781;3.6405;19.5000;,
0.5781;3.6405;19.5000;,
-0.4627;3.6509;19.5000;,
0.4627;3.6509;19.5000;,
-0.3472;3.6587;19.5000;,
0.3472;3.6587;19.5000;,
-0.2315;3.6640;19.5000;,
0.2315;3.6640;19.5000;,
-0.1158;3.6668;19.5000;,
0.1158;3.6668;19.5000;,
0.0000;3.6670;19.5000;,
1.4750;1.5870;19.5000;,
1.4750;3.3670;19.5000;,
-1.4721;3.3809;19.5000;,
1.4721;3.3809;19.5000;,
1.4681;3.3946;19.5000;,
1.4630;3.4079;19.5000;,
1.4568;3.4207;19.5000;,
1.4495;3.4329;19.5000;,
1.4413;3.4446;19.5000;,
1.4322;3.4555;19.5000;,
1.4222;3.4656;19.5000;,
1.4114;3.4749;19.5000;,
1.3999;3.4832;19.5000;,
1.3877;3.4906;19.5000;,
1.3750;3.4970;19.5000;,
1.3550;3.5420;19.5000;,
-1.4750;1.5870;19.5000;,
-1.4000;0.9870;0.0000;,
-1.4750;1.5870;0.0000;,
-1.4000;0.9870;19.5000;,
-1.4721;3.3809;19.5000;,
-1.4750;3.3670;0.0000;,
-1.4721;3.3809;0.0000;,
-1.4750;3.3670;19.5000;,
-1.0362;3.5736;8.4000;,
-1.0475;3.5713;12.4000;,
-1.0475;3.5713;8.4000;,
-1.0362;3.5736;12.4000;,
-1.0362;3.5736;8.4000;,
-1.0362;3.5736;0.0000;,
0.5781;3.6405;12.4000;,
0.4627;3.6509;19.5000;,
0.4627;3.6509;12.4000;,
0.5781;3.6405;19.5000;,
0.5781;3.6405;12.4000;,
0.4627;3.6509;12.4000;,
0.9223;3.5941;12.4000;,
0.8079;3.6121;19.5000;,
0.8079;3.6121;12.4000;,
0.9223;3.5941;19.5000;,
0.9223;3.5941;12.4000;,
0.8079;3.6121;12.4000;,
1.4568;3.4207;-0.0000;,
1.4495;3.4329;19.5000;,
1.4495;3.4329;-0.0000;,
1.4568;3.4207;19.5000;,
0.2500;3.6632;17.3000;,
0.2315;3.6640;17.7000;,
0.2315;3.6640;17.3000;,
0.2500;3.6632;17.7000;,
0.3000;3.6609;17.7000;,
0.3000;3.6609;17.3000;,
0.2500;3.6632;17.3000;,
0.2315;3.6640;17.7000;,
0.2315;3.6640;17.3000;,
0.2500;3.6632;17.7000;,
0.3000;3.6609;17.7000;,
0.3000;3.6609;17.3000;,
0.6931;3.6275;12.4000;,
0.6931;3.6275;19.5000;,
0.6931;3.6275;12.4000;,
0.1158;3.6668;12.4000;,
0.0000;3.6670;19.5000;,
0.0000;3.6670;12.4000;,
0.1158;3.6668;19.5000;,
0.1158;3.6668;12.4000;,
0.0000;3.6670;12.4000;,
0.3472;3.6587;12.4000;,
0.3472;3.6587;19.5000;,
0.3472;3.6587;12.4000;,
1.0362;3.5736;19.5000;,
1.0362;3.5736;12.4000;,
1.0362;3.5736;12.4000;,
1.4000;0.9870;0.0000;,
1.4750;1.5870;19.5000;,
1.4750;1.5870;0.0000;,
1.4000;0.9870;19.5000;,
1.4750;3.3670;-0.0000;,
1.4721;3.3809;19.5000;,
1.4721;3.3809;-0.0000;,
1.4750;3.3670;19.5000;,
1.4322;3.4555;-0.0000;,
1.4222;3.4656;19.5000;,
1.4222;3.4656;-0.0000;,
1.4322;3.4555;19.5000;,
0.2315;3.6640;12.4000;,
0.2000;3.6648;17.3000;,
0.2000;3.6648;17.7000;,
0.2315;3.6640;19.5000;,
0.2315;3.6640;12.4000;,
0.2000;3.6648;17.3000;,
0.2000;3.6648;17.7000;,
1.3550;3.5420;-0.0000;,
1.1875;3.5420;19.5000;,
1.1875;3.5420;-0.0000;,
1.3550;3.5420;19.5000;,
1.0362;3.5736;-0.0000;,
1.0475;3.5713;8.4000;,
1.0362;3.5736;8.4000;,
1.1497;3.5505;-0.0000;,
1.0475;3.5713;12.4000;,
1.1497;3.5505;19.5000;,
1.0475;3.5713;8.4000;,
1.0362;3.5736;8.4000;,
1.0475;3.5713;12.4000;,
1.4413;3.4446;19.5000;,
1.4413;3.4446;-0.0000;,
1.4681;3.3946;19.5000;,
1.4681;3.3946;-0.0000;,
1.4750;1.5870;0.0000;,
1.4750;3.3670;19.5000;,
1.4750;3.3670;-0.0000;,
1.4750;1.5870;19.5000;,
1.4630;3.4079;19.5000;,
1.4630;3.4079;-0.0000;,
1.4114;3.4749;-0.0000;,
1.3999;3.4832;19.5000;,
1.3999;3.4832;-0.0000;,
1.4114;3.4749;19.5000;,
1.3877;3.4906;19.5000;,
1.3877;3.4906;-0.0000;,
1.3750;3.4970;-0.0000;,
1.3750;3.4970;19.5000;,
-1.0000;0.0200;-0.0000;,
-1.4000;0.0200;19.5000;,
-1.4000;0.0200;-0.0000;,
-1.0000;0.0200;19.5000;,
1.4000;0.0200;0.0000;,
1.0000;0.0200;19.5000;,
1.0000;0.0200;0.0000;,
1.4000;0.0200;19.5000;,
0.8894;3.8182;8.4000;,
0.7224;3.8988;12.4000;,
0.7224;3.8988;8.4000;,
0.8894;3.8182;12.4000;,
0.8894;3.8182;8.4000;,
0.7224;3.8988;12.4000;,
0.7224;3.8988;8.4000;,
0.8894;3.8182;12.4000;,
0.3686;4.0083;8.4000;,
0.1852;4.0360;12.4000;,
0.1852;4.0360;8.4000;,
0.3686;4.0083;12.4000;,
0.3686;4.0083;8.4000;,
0.1852;4.0360;12.4000;,
0.1852;4.0360;8.4000;,
0.3686;4.0083;12.4000;,
-0.3686;4.0083;8.4000;,
-0.5482;3.9624;12.4000;,
-0.5482;3.9624;8.4000;,
-0.3686;4.0083;12.4000;,
-0.3686;4.0083;8.4000;,
-0.5482;3.9624;12.4000;,
-0.5482;3.9624;8.4000;,
-0.3686;4.0083;12.4000;,
0.0000;4.0453;8.4000;,
-0.1852;4.0360;12.4000;,
-0.1852;4.0360;8.4000;,
0.0000;4.0453;12.4000;,
0.0000;4.0453;8.4000;,
-0.1852;4.0360;12.4000;,
-0.1852;4.0360;8.4000;,
0.0000;4.0453;12.4000;,
-0.7224;3.8988;8.4000;,
-0.8894;3.8182;12.4000;,
-0.8894;3.8182;8.4000;,
-0.7224;3.8988;12.4000;,
-0.7224;3.8988;8.4000;,
-0.8894;3.8182;12.4000;,
-0.8894;3.8182;8.4000;,
-0.7224;3.8988;12.4000;,
-1.0475;3.7213;12.4000;,
-1.0475;3.7213;8.4000;,
-1.0475;3.7213;12.4000;,
-1.0475;3.7213;8.4000;,
-1.0475;3.7213;12.4000;,
-1.0362;3.5736;12.4000;,
-1.0475;3.5713;12.4000;,
-0.9223;3.5941;12.4000;,
-0.8079;3.6121;12.4000;,
-0.6931;3.6275;12.4000;,
-0.5781;3.6405;12.4000;,
-0.4627;3.6509;12.4000;,
-0.3472;3.6587;12.4000;,
-0.2315;3.6640;12.4000;,
-0.1158;3.6668;12.4000;,
0.0000;3.6670;12.4000;,
1.0362;3.5736;12.4000;,
1.0475;3.7213;12.4000;,
1.0475;3.5713;12.4000;,
0.9223;3.5941;12.4000;,
0.8079;3.6121;12.4000;,
0.6931;3.6275;12.4000;,
0.5781;3.6405;12.4000;,
0.4627;3.6509;12.4000;,
0.3472;3.6587;12.4000;,
0.2315;3.6640;12.4000;,
0.1158;3.6668;12.4000;,
-0.8894;3.8182;12.4000;,
0.8894;3.8182;12.4000;,
-0.7224;3.8988;12.4000;,
0.7224;3.8988;12.4000;,
-0.5482;3.9624;12.4000;,
0.5482;3.9624;12.4000;,
-0.3686;4.0083;12.4000;,
0.3686;4.0083;12.4000;,
-0.1852;4.0360;12.4000;,
0.1852;4.0360;12.4000;,
0.0000;4.0453;12.4000;,
-0.9223;3.5941;12.4000;,
-0.8079;3.6121;12.4000;,
-0.6931;3.6275;12.4000;,
-0.5781;3.6405;12.4000;,
-0.4627;3.6509;12.4000;,
-0.3472;3.6587;12.4000;,
-0.2315;3.6640;12.4000;,
-0.1158;3.6668;12.4000;,
1.0475;3.7213;12.4000;,
0.5482;3.9624;12.4000;,
1.0475;3.7213;8.4000;,
1.0362;3.5736;8.4000;,
1.0475;3.5713;8.4000;,
0.9223;3.5941;8.4000;,
0.8079;3.6121;8.4000;,
0.6931;3.6275;8.4000;,
0.5781;3.6405;8.4000;,
0.4627;3.6509;8.4000;,
0.3472;3.6587;8.4000;,
0.2315;3.6640;8.4000;,
0.1158;3.6668;8.4000;,
0.0000;3.6670;8.4000;,
-1.0362;3.5736;8.4000;,
-1.0475;3.7213;8.4000;,
-1.0475;3.5713;8.4000;,
-0.9223;3.5941;8.4000;,
-0.8079;3.6121;8.4000;,
-0.6931;3.6275;8.4000;,
-0.5781;3.6405;8.4000;,
-0.4627;3.6509;8.4000;,
-0.3472;3.6587;8.4000;,
-0.2315;3.6640;8.4000;,
-0.1158;3.6668;8.4000;,
0.8894;3.8182;8.4000;,
-0.8894;3.8182;8.4000;,
0.7224;3.8988;8.4000;,
-0.7224;3.8988;8.4000;,
0.5482;3.9624;8.4000;,
-0.5482;3.9624;8.4000;,
0.3686;4.0083;8.4000;,
-0.3686;4.0083;8.4000;,
0.1852;4.0360;8.4000;,
-0.1852;4.0360;8.4000;,
0.0000;4.0453;8.4000;,
1.0475;3.7213;8.4000;,
0.9223;3.5941;8.4000;,
0.8079;3.6121;8.4000;,
0.6931;3.6275;8.4000;,
0.5781;3.6405;8.4000;,
0.4627;3.6509;8.4000;,
0.3472;3.6587;8.4000;,
0.2315;3.6640;8.4000;,
0.1158;3.6668;8.4000;,
0.5482;3.9624;8.4000;,
1.0475;3.7213;8.4000;,
1.0475;3.7213;12.4000;,
0.5482;3.9624;12.4000;,
0.5482;3.9624;8.4000;,
1.0475;3.5713;12.4000;,
1.0475;3.7213;8.4000;,
1.0475;3.5713;8.4000;,
1.0475;3.7213;12.4000;,
-1.0475;3.7213;12.4000;,
-1.0475;3.5713;8.4000;,
-1.0475;3.7213;8.4000;,
-1.0475;3.5713;12.4000;,
-0.2315;3.6640;12.4000;,
-0.2000;3.6648;17.3000;,
-0.2315;3.6640;17.3000;,
-0.1158;3.6668;12.4000;,
-0.2000;3.6648;17.7000;,
-0.1158;3.6668;19.5000;,
-0.2315;3.6640;17.7000;,
-0.2315;3.6640;19.5000;,
-0.2000;3.6648;17.3000;,
-0.2315;3.6640;17.3000;,
-0.2000;3.6648;17.7000;,
-0.2315;3.6640;17.7000;,
-0.5781;3.6405;12.4000;,
-0.6931;3.6275;19.5000;,
-0.6931;3.6275;12.4000;,
-0.5781;3.6405;19.5000;,
-0.4627;3.6509;12.4000;,
-0.3472;3.6587;19.5000;,
-0.4627;3.6509;19.5000;,
-0.3472;3.6587;12.4000;,
-0.8079;3.6121;12.4000;,
-0.8079;3.6121;19.5000;,
-0.9223;3.5941;19.5000;,
-0.9223;3.5941;12.4000;,
-0.3000;3.6609;17.3000;,
-0.2500;3.6632;17.3000;,
-0.3000;3.6609;17.7000;,
-0.2500;3.6632;17.7000;,
-0.3000;3.6609;17.3000;,
-0.2500;3.6632;17.3000;,
-0.3000;3.6609;17.7000;,
-0.2500;3.6632;17.7000;,
0.8079;3.6121;-0.0000;,
0.9223;3.5941;8.4000;,
0.8079;3.6121;8.4000;,
0.9223;3.5941;-0.0000;,
-1.0475;3.5713;8.4000;,
-1.0475;3.5713;12.4000;,
-1.0362;3.5736;19.5000;,
-1.0362;3.5736;12.4000;,
0.4627;3.6509;-0.0000;,
0.3472;3.6587;8.4000;,
0.3472;3.6587;-0.0000;,
0.4627;3.6509;8.4000;,
0.6931;3.6275;8.4000;,
0.6931;3.6275;-0.0000;,
0.1158;3.6668;-0.0000;,
0.1158;3.6668;8.4000;,
0.5781;3.6405;8.4000;,
0.5781;3.6405;-0.0000;,
0.2315;3.6640;8.4000;,
0.2315;3.6640;-0.0000;,
0.2700;3.8632;17.6700;,
0.2700;3.8832;17.3300;,
0.2700;3.8632;17.3300;,
0.2700;3.8832;17.6700;,
0.2700;3.8632;17.6700;,
0.2700;3.8832;17.3300;,
0.2700;3.8632;17.3300;,
0.2700;3.8832;17.6700;,
-0.2700;3.8832;17.3300;,
-0.2500;3.8832;17.3500;,
-0.2700;3.8832;17.6700;,
0.2700;3.8832;17.3300;,
0.2500;3.8832;17.3500;,
0.2500;3.8832;17.6500;,
-0.2500;3.8832;17.6500;,
0.2700;3.8832;17.6700;,
-0.2700;3.8832;17.3300;,
-0.2500;3.8832;17.3500;,
-0.2700;3.8832;17.6700;,
0.2500;3.8832;17.3500;,
0.2500;3.8832;17.6500;,
-0.2500;3.8832;17.6500;,
0.0000;3.7832;17.3900;,
-0.2500;3.7832;17.3500;,
-0.2500;3.7832;17.3900;,
0.2500;3.7832;17.3500;,
0.2500;3.7832;17.3900;,
0.0000;3.7832;17.3900;,
-0.2500;3.7832;17.3500;,
-0.2500;3.7832;17.3900;,
0.2500;3.7832;17.3500;,
0.2500;3.7832;17.3900;,
0.2500;3.7832;17.4000;,
0.0000;3.7832;17.4000;,
0.2500;3.9332;17.3500;,
-0.2200;3.9632;17.3800;,
-0.2500;3.9332;17.3500;,
0.2200;3.9632;17.3800;,
0.2500;3.9332;17.3500;,
-0.2200;3.9632;17.3800;,
-0.2500;3.9332;17.3500;,
0.2200;3.9632;17.3800;,
-0.2000;3.6832;17.3900;,
-0.2500;3.6832;17.4000;,
-0.2500;3.6832;17.3900;,
-0.2000;3.6832;17.4000;,
0.2500;3.9332;17.6500;,
0.2200;3.9632;17.3800;,
0.2500;3.9332;17.3500;,
0.2200;3.9632;17.6200;,
0.2500;3.9332;17.6500;,
0.2200;3.9632;17.6200;,
0.2500;3.9332;17.3500;,
-0.2500;3.8832;17.3500;,
0.2500;3.8832;17.3500;,
-0.2500;3.9332;17.3500;,
0.2000;3.6832;17.3900;,
0.2000;3.6832;17.4000;,
-0.2500;3.7832;17.4000;,
-0.2500;3.6832;17.3900;,
-0.2500;3.7832;17.3900;,
-0.2500;3.6832;17.4000;,
-0.2500;3.7832;17.4000;,
0.2500;3.6832;17.4000;,
0.2500;3.7832;17.4000;,
0.2000;3.6832;17.4000;,
0.2500;3.6832;17.4000;,
-0.2000;3.6832;17.4000;,
0.0000;3.7832;17.4000;,
0.2500;3.6832;17.6100;,
0.2500;3.7832;17.6000;,
0.2500;3.6832;17.6000;,
0.2500;3.7832;17.6100;,
0.2500;3.6832;17.6100;,
0.2500;3.7832;17.6000;,
0.2500;3.6832;17.6000;,
0.2500;3.7832;17.6100;,
0.2500;3.7832;17.3900;,
0.2500;3.8632;17.3500;,
0.2500;3.7832;17.3500;,
0.2500;3.8632;17.6500;,
0.2500;3.7832;17.4000;,
0.2500;3.7832;17.6500;,
0.2500;3.8632;17.3500;,
0.2500;3.8632;17.6500;,
0.2500;3.7832;17.6500;,
0.0000;3.7832;17.6000;,
0.0000;3.7832;17.6100;,
0.2500;3.8632;17.3500;,
-0.2500;3.7832;17.3500;,
0.2500;3.7832;17.3500;,
-0.2500;3.8632;17.3500;,
-0.2500;3.8632;17.3500;,
-0.2700;3.8632;17.6700;,
-0.2500;3.8632;17.6500;,
-0.2700;3.8632;17.3300;,
0.2700;3.8632;17.6700;,
0.2500;3.8632;17.6500;,
0.2500;3.8632;17.3500;,
-0.2500;3.8632;17.3500;,
0.2700;3.8632;17.3300;,
-0.2700;3.8632;17.6700;,
-0.2500;3.8632;17.6500;,
-0.2700;3.8632;17.3300;,
-0.2500;3.7832;17.6100;,
-0.2500;3.6832;17.6000;,
-0.2500;3.7832;17.6000;,
-0.2500;3.6832;17.6100;,
-0.2500;3.7832;17.6100;,
-0.2500;3.6832;17.6000;,
-0.2500;3.7832;17.6000;,
-0.2500;3.6832;17.6100;,
0.2500;3.6832;17.3900;,
0.3000;3.6832;17.3000;,
0.2000;3.6832;17.3000;,
0.2500;3.6832;17.4000;,
0.2500;3.6832;17.3900;,
-0.2000;3.6832;17.6000;,
0.2000;3.6832;17.6000;,
-0.2000;3.6832;17.6000;,
0.2000;3.6832;17.6000;,
0.2500;3.6832;17.6000;,
0.2500;3.7832;17.6000;,
0.0000;3.7832;17.6000;,
-0.2200;3.9632;17.6200;,
0.2500;3.9332;17.6500;,
-0.2500;3.9332;17.6500;,
0.2200;3.9632;17.6200;,
-0.2200;3.9632;17.6200;,
-0.2500;3.9332;17.6500;,
0.2000;3.6832;17.6100;,
0.2000;3.6832;17.7000;,
0.3000;3.6832;17.7000;,
-0.2700;3.8832;17.6700;,
-0.2700;3.8632;17.3300;,
-0.2700;3.8832;17.3300;,
-0.2700;3.8632;17.6700;,
-0.3000;3.6832;17.3000;,
-0.3000;3.6832;17.7000;,
-0.2000;3.6832;17.3000;,
-0.2000;3.6832;17.7000;,
-0.2000;3.6832;17.6100;,
-0.2200;3.9632;17.3800;,
-0.2200;3.9632;17.6200;,
-0.2500;3.8632;17.6500;,
0.2500;3.7832;17.6500;,
-0.2500;3.7832;17.6500;,
0.2500;3.8632;17.6500;,
-0.2500;3.7832;17.6500;,
-0.2500;3.7832;17.6100;,
0.0000;3.7832;17.6100;,
0.2500;3.7832;17.6100;,
-0.2000;3.6832;17.6100;,
-0.2500;3.6832;17.6100;,
0.2000;3.6832;17.6100;,
0.2500;3.6832;17.6100;,
0.2000;3.6832;17.3900;,
0.2500;3.6832;17.3900;,
-0.2000;3.6832;17.3900;,
-0.2500;3.6832;17.3900;,
0.2500;3.8832;17.6500;,
0.2500;3.8832;17.3500;,
0.2700;3.8832;17.3300;,
-0.2700;3.8632;17.3300;,
0.2700;3.8632;17.3300;,
-0.2700;3.8832;17.3300;,
-0.2500;3.9332;17.6500;,
-0.2500;3.8832;17.3500;,
-0.2500;3.9332;17.3500;,
-0.2500;3.8832;17.6500;,
-0.2500;3.8632;17.6500;,
-0.2500;3.7832;17.3500;,
-0.2500;3.8632;17.3500;,
-0.2500;3.7832;17.6500;,
-0.2500;3.9332;17.6500;,
0.2500;3.8832;17.6500;,
-0.2500;3.8832;17.6500;,
0.2500;3.9332;17.6500;,
-0.2200;3.9632;17.3800;,
-0.2200;3.9632;17.6200;,
-0.2700;3.8832;17.6700;,
0.2700;3.8632;17.6700;,
-0.2700;3.8632;17.6700;,
0.2700;3.8832;17.6700;;
1260;
3;2,1,0,
3;3,0,1,
3;4,5,6,
3;5,4,7,
3;10,9,8,
3;11,8,9,
3;12,13,14,
3;13,12,15,
3;18,17,16,
3;19,16,17,
3;20,21,22,
3;21,20,23,
3;26,25,24,
3;27,24,25,
3;24,25,26,
3;25,24,27,
3;29,28,17,
3;19,17,28,
3;21,30,31,
3;30,21,23,
3;34,33,32,
3;35,32,33,
3;36,32,35,
3;32,33,34,
3;33,32,35,
3;35,32,36,
3;39,38,37,
3;40,37,38,
3;41,37,40,
3;37,38,39,
3;38,37,40,
3;40,37,41,
3;33,26,35,
3;24,35,26,
3;35,26,33,
3;26,35,24,
3;43,42,24,
3;35,24,42,
3;24,42,43,
3;42,24,35,
3;0,3,44,
3;45,44,3,
3;46,7,4,
3;7,46,47,
3;44,45,29,
3;28,29,45,
3;31,47,46,
3;47,31,30,
3;50,49,48,
3;51,48,49,
3;52,51,49,
3;53,51,52,
3;54,51,53,
3;55,54,53,
3;58,57,56,
3;59,56,57,
3;60,56,59,
3;61,60,59,
3;62,60,61,
3;63,62,61,
3;64,62,63,
3;65,64,63,
3;66,64,65,
3;67,66,65,
3;68,66,67,
3;69,68,67,
3;70,68,69,
3;71,70,69,
3;72,70,71,
3;73,72,71,
3;74,72,73,
3;75,74,73,
3;76,74,75,
3;77,76,75,
3;78,76,77,
3;49,80,79,
3;81,79,80,
3;82,79,81,
3;83,82,81,
3;55,82,83,
3;84,55,83,
3;54,55,84,
3;85,54,84,
3;86,85,84,
3;87,85,86,
3;88,87,86,
3;89,87,88,
3;90,89,88,
3;91,89,90,
3;92,91,90,
3;93,91,92,
3;94,93,92,
3;95,93,94,
3;96,95,94,
3;97,95,96,
3;98,97,96,
3;99,97,98,
3;100,99,98,
3;101,99,100,
3;102,101,100,
3;103,101,102,
3;104,103,102,
3;105,103,104,
3;106,105,104,
3;107,105,106,
3;108,107,106,
3;109,107,108,
3;58,109,108,
3;110,58,108,
3;57,58,110,
3;52,49,79,
3;111,36,32,
3;36,111,112,
3;36,112,39,
3;39,112,37,
3;37,112,113,
3;37,113,41,
3;114,115,116,
3;115,114,117,
3;117,114,118,
3;117,118,119,
3;119,118,120,
3;119,120,121,
3;121,120,122,
3;121,122,123,
3;123,122,124,
3;123,124,125,
3;125,124,126,
3;125,126,127,
3;127,126,128,
3;127,128,129,
3;129,128,130,
3;129,130,131,
3;131,130,132,
3;131,132,133,
3;133,132,134,
3;133,134,135,
3;135,134,136,
3;38,35,36,
3;35,38,42,
3;42,38,40,
3;42,40,137,
3;137,40,41,
3;137,41,138,
3;138,41,113,
3;138,113,139,
3;138,139,140,
3;140,139,141,
3;140,141,142,
3;142,141,143,
3;142,143,13,
3;13,143,144,
3;13,144,14,
3;14,144,145,
3;14,145,146,
3;146,145,147,
3;146,147,148,
3;148,147,149,
3;148,149,150,
3;150,149,151,
3;150,151,6,
3;6,151,152,
3;6,152,4,
3;4,152,153,
3;4,153,46,
3;46,153,154,
3;46,154,31,
3;31,154,155,
3;31,155,21,
3;21,155,156,
3;21,156,116,
3;21,116,22,
3;22,116,115,
3;38,36,39,
3;159,158,157,
3;160,157,158,
3;157,158,159,
3;158,157,160,
3;163,162,161,
3;164,161,162,
3;165,137,138,
3;137,165,166,
3;9,167,11,
3;168,11,167,
3;15,142,13,
3;142,15,169,
3;172,171,170,
3;173,170,171,
3;117,174,115,
3;174,117,175,
3;178,177,176,
3;179,176,177,
3;125,180,123,
3;180,125,181,
3;183,10,182,
3;8,182,10,
3;184,14,146,
3;14,184,12,
3;187,186,185,
3;188,185,186,
3;131,189,190,
3;189,131,133,
3;193,192,191,
3;194,191,192,
3;129,195,127,
3;195,129,196,
3;199,198,197,
3;200,197,198,
3;136,201,135,
3;201,136,202,
3;204,177,203,
3;178,203,177,
3;121,180,205,
3;180,121,123,
3;208,207,206,
3;209,206,207,
3;210,148,150,
3;148,210,211,
3;214,213,212,
3;215,212,213,
3;216,215,213,
3;217,215,216,
3;218,212,215,
3;219,212,218,
3;220,219,218,
3;223,222,221,
3;224,221,222,
3;225,221,224,
3;226,225,224,
3;227,225,226,
3;228,227,226,
3;229,227,228,
3;230,229,228,
3;231,229,230,
3;232,231,230,
3;233,231,232,
3;234,233,232,
3;235,233,234,
3;236,235,234,
3;237,235,236,
3;238,237,236,
3;239,237,238,
3;240,239,238,
3;241,239,240,
3;242,241,240,
3;243,241,242,
3;245,244,217,
3;215,217,244,
3;220,244,245,
3;246,220,245,
3;219,220,246,
3;247,219,246,
3;248,247,246,
3;249,247,248,
3;250,249,248,
3;251,249,250,
3;252,251,250,
3;253,251,252,
3;254,253,252,
3;255,253,254,
3;256,255,254,
3;257,255,256,
3;258,257,256,
3;259,257,258,
3;260,259,258,
3;261,259,260,
3;262,261,260,
3;263,261,262,
3;264,263,262,
3;265,263,264,
3;266,265,264,
3;267,265,266,
3;268,267,266,
3;269,267,268,
3;270,269,268,
3;271,269,270,
3;223,271,270,
3;272,223,270,
3;222,223,272,
3;166,24,43,
3;24,166,159,
3;24,159,27,
3;27,159,273,
3;159,166,157,
3;157,166,165,
3;157,165,160,
3;175,274,174,
3;274,175,275,
3;275,175,276,
3;275,276,277,
3;277,276,278,
3;277,278,279,
3;279,278,280,
3;279,280,281,
3;281,280,282,
3;281,282,283,
3;283,282,284,
3;283,284,285,
3;285,284,286,
3;285,286,287,
3;287,286,288,
3;287,288,289,
3;289,288,290,
3;289,290,291,
3;291,290,292,
3;291,292,293,
3;293,292,294,
3;273,158,295,
3;158,273,159,
3;295,158,160,
3;295,160,296,
3;296,160,165,
3;296,165,297,
3;296,297,298,
3;298,297,169,
3;298,169,299,
3;299,169,15,
3;299,15,300,
3;300,15,12,
3;300,12,301,
3;301,12,184,
3;301,184,302,
3;302,184,211,
3;302,211,303,
3;303,211,210,
3;303,210,304,
3;304,210,5,
3;304,5,305,
3;305,5,7,
3;305,7,306,
3;306,7,47,
3;306,47,307,
3;307,47,30,
3;307,30,308,
3;308,30,23,
3;308,23,309,
3;309,23,20,
3;309,20,174,
3;309,174,310,
3;310,174,274,
3;313,312,311,
3;314,311,312,
3;166,42,137,
3;42,166,43,
3;2,208,1,
3;206,1,208,
3;5,150,6,
3;150,5,210,
3;188,186,199,
3;198,199,186,
3;135,189,133,
3;189,135,201,
3;317,316,315,
3;318,315,316,
3;297,138,140,
3;138,297,165,
3;18,16,172,
3;171,172,16,
3;115,20,22,
3;20,115,174,
3;176,179,193,
3;192,193,179,
3;127,181,125,
3;181,127,195,
3;321,320,319,
3;322,319,320,
3;319,320,321,
3;320,319,322,
3;191,194,185,
3;187,185,194,
3;131,196,129,
3;196,131,190,
3;207,183,209,
3;182,209,183,
3;211,146,148,
3;146,211,184,
3;324,323,203,
3;204,203,323,
3;121,319,119,
3;319,121,205,
3;167,317,168,
3;315,168,317,
3;169,140,142,
3;140,169,297,
3;327,326,325,
3;328,325,326,
3;329,287,330,
3;287,329,285,
3;333,332,331,
3;334,331,332,
3;335,281,336,
3;281,335,279,
3;339,338,337,
3;340,337,338,
3;144,302,145,
3;302,144,301,
3;343,342,341,
3;344,341,342,
3;345,341,344,
3;346,341,345,
3;347,348,349,
3;348,347,350,
3;350,347,351,
3;351,347,352,
3;354,332,353,
3;333,353,332,
3;355,281,283,
3;281,355,336,
3;358,357,356,
3;359,356,357,
3;360,294,361,
3;294,360,293,
3;363,326,362,
3;327,362,326,
3;364,287,289,
3;287,364,330,
3;325,328,353,
3;354,353,328,
3;355,285,329,
3;285,355,283,
3;334,365,331,
3;366,331,365,
3;335,277,279,
3;277,335,367,
3;370,369,368,
3;371,368,369,
3;111,295,112,
3;295,111,273,
3;374,373,372,
3;375,372,373,
3;113,298,139,
3;298,113,296,
3;378,377,376,
3;379,376,377,
3;149,305,151,
3;305,149,304,
3;356,359,380,
3;381,380,359,
3;343,380,381,
3;383,382,359,
3;381,359,382,
3;342,382,383,
3;384,293,360,
3;293,384,385,
3;385,384,349,
3;293,386,291,
3;386,293,385,
3;291,386,348,
3;389,388,387,
3;390,387,388,
3;156,274,116,
3;274,156,310,
3;393,392,391,
3;394,391,392,
3;395,394,392,
3;366,365,395,
3;396,395,365,
3;394,395,396,
3;118,397,398,
3;397,118,114,
3;397,114,399,
3;399,277,367,
3;277,399,275,
3;275,399,114,
3;401,400,339,
3;338,339,400,
3;145,303,147,
3;303,145,302,
3;403,402,374,
3;373,374,402,
3;139,299,141,
3;299,139,298,
3;376,379,401,
3;400,401,379,
3;147,304,149,
3;304,147,303,
3;394,396,389,
3;388,389,396,
3;116,275,114,
3;275,116,274,
3;406,405,404,
3;407,404,405,
3;112,296,113,
3;296,112,295,
3;409,408,403,
3;402,403,408,
3;141,300,143,
3;300,141,299,
3;412,411,410,
3;413,410,411,
3;152,307,153,
3;307,152,306,
3;410,413,378,
3;377,378,413,
3;151,306,152,
3;306,151,305,
3;415,414,412,
3;411,412,414,
3;153,308,154,
3;308,153,307,
3;337,340,409,
3;408,409,340,
3;143,301,144,
3;301,143,300,
3;387,390,416,
3;417,416,390,
3;155,310,156,
3;310,155,309,
3;416,417,415,
3;414,415,417,
3;154,309,155,
3;309,154,308,
3;32,27,34,
3;25,34,27,
3;34,27,32,
3;27,34,25,
3;32,111,27,
3;273,27,111,
3;27,111,32,
3;111,27,273,
3;420,419,418,
3;421,418,419,
3;418,419,420,
3;419,418,421,
3;424,423,422,
3;425,422,423,
3;422,423,424,
3;423,422,425,
3;428,427,426,
3;429,426,427,
3;430,431,432,
3;431,430,433,
3;436,435,434,
3;437,434,435,
3;438,439,440,
3;439,438,441,
3;444,443,442,
3;445,442,443,
3;446,447,448,
3;447,446,449,
3;452,451,450,
3;453,450,451,
3;454,455,456,
3;455,454,457,
3;460,459,458,
3;461,458,459,
3;462,463,464,
3;463,462,465,
3;467,466,460,
3;459,460,466,
3;464,468,469,
3;468,464,463,
3;472,471,470,
3;473,470,471,
3;474,470,473,
3;475,470,474,
3;476,470,475,
3;477,470,476,
3;478,470,477,
3;479,470,478,
3;480,470,479,
3;481,470,480,
3;484,483,482,
3;485,482,483,
3;486,485,483,
3;487,486,483,
3;488,487,483,
3;489,488,483,
3;490,489,483,
3;491,490,483,
3;492,491,483,
3;481,492,483,
3;470,481,483,
3;493,470,483,
3;494,493,483,
3;495,493,494,
3;496,495,494,
3;497,495,496,
3;498,497,496,
3;499,497,498,
3;500,499,498,
3;501,499,500,
3;502,501,500,
3;503,501,502,
3;468,322,320,
3;322,468,504,
3;504,468,505,
3;505,468,506,
3;506,468,507,
3;507,468,508,
3;508,468,509,
3;509,468,510,
3;510,468,511,
3;511,468,361,
3;367,512,399,
3;512,367,335,
3;512,335,336,
3;512,336,355,
3;512,355,329,
3;512,329,330,
3;512,330,364,
3;512,364,384,
3;512,384,360,
3;512,360,361,
3;512,361,468,
3;512,468,463,
3;512,463,433,
3;433,463,465,
3;433,465,431,
3;431,465,447,
3;431,447,513,
3;513,447,449,
3;513,449,441,
3;441,449,455,
3;441,455,439,
3;439,455,457,
3;450,453,436,
3;435,436,453,
3;440,457,454,
3;457,440,439,
3;516,515,514,
3;517,514,515,
3;518,514,517,
3;519,514,518,
3;520,514,519,
3;521,514,520,
3;522,514,521,
3;523,514,522,
3;524,514,523,
3;525,514,524,
3;528,527,526,
3;529,526,527,
3;530,529,527,
3;531,530,527,
3;532,531,527,
3;533,532,527,
3;534,533,527,
3;535,534,527,
3;536,535,527,
3;525,536,527,
3;514,525,527,
3;537,514,527,
3;538,537,527,
3;539,537,538,
3;540,539,538,
3;541,539,540,
3;542,541,540,
3;543,541,542,
3;544,543,542,
3;545,543,544,
3;546,545,544,
3;547,545,546,
3;548,398,397,
3;398,548,549,
3;549,548,550,
3;550,548,551,
3;551,548,552,
3;552,548,553,
3;553,548,554,
3;554,548,555,
3;555,548,556,
3;556,548,202,
3;319,469,321,
3;469,319,205,
3;469,205,180,
3;469,180,181,
3;469,181,195,
3;469,195,196,
3;469,196,190,
3;469,190,189,
3;469,189,201,
3;469,201,202,
3;469,202,548,
3;469,548,430,
3;469,430,464,
3;464,430,432,
3;464,432,462,
3;462,432,557,
3;462,557,448,
3;448,557,438,
3;448,438,446,
3;446,438,440,
3;446,440,456,
3;456,440,454,
3;426,429,558,
3;559,558,429,
3;548,433,430,
3;433,548,512,
3;442,445,452,
3;451,452,445,
3;456,449,446,
3;449,456,455,
3;561,560,428,
3;427,428,560,
3;432,513,557,
3;513,432,431,
3;564,563,562,
3;565,562,563,
3;399,548,397,
3;548,399,512,
3;458,461,444,
3;443,444,461,
3;448,465,462,
3;465,448,447,
3;434,437,561,
3;560,561,437,
3;557,441,438,
3;441,557,513,
3;568,567,566,
3;569,566,567,
3;468,321,469,
3;321,468,320,
3;189,510,201,
3;511,201,510,
3;201,510,189,
3;510,201,511,
3;572,571,570,
3;573,570,571,
3;574,573,571,
3;575,573,574,
3;577,575,576,
3;574,576,575,
3;510,578,579,
3;578,510,511,
3;578,511,580,
3;580,511,292,
3;581,292,290,
3;292,581,580,
3;584,583,582,
3;585,582,583,
3;507,282,506,
3;282,507,284,
3;181,506,195,
3;507,195,506,
3;195,506,181,
3;506,195,507,
3;588,587,586,
3;589,586,587,
3;508,288,286,
3;288,508,509,
3;196,508,190,
3;509,190,508,
3;190,508,196,
3;508,190,509,
3;591,583,590,
3;584,590,583,
3;505,282,280,
3;282,505,506,
3;180,505,181,
3;506,181,505,
3;181,505,180,
3;505,181,506,
3;575,357,573,
3;358,573,357,
3;511,294,292,
3;294,511,361,
3;201,511,202,
3;361,202,511,
3;202,511,201,
3;511,202,361,
3;195,507,196,
3;508,196,507,
3;196,507,195,
3;507,196,508,
3;585,588,582,
3;586,582,588,
3;507,286,284,
3;286,507,508,
3;205,504,180,
3;505,180,504,
3;180,504,205,
3;504,180,505,
3;593,592,590,
3;591,590,592,
3;505,278,504,
3;278,505,280,
3;190,509,189,
3;510,189,509,
3;189,509,190,
3;509,189,510,
3;589,587,570,
3;594,570,587,
3;595,570,594,
3;572,570,595,
3;577,596,587,
3;594,587,596,
3;597,596,577,
3;576,597,577,
3;510,288,509,
3;288,510,598,
3;598,510,599,
3;599,510,579,
3;288,600,290,
3;600,288,598,
3;290,600,601,
3;290,601,581,
3;550,336,549,
3;335,549,336,
3;549,336,550,
3;336,549,335,
3;604,603,602,
3;605,602,603,
3;122,549,550,
3;549,122,120,
3;170,173,324,
3;606,324,173,
3;323,324,606,
3;608,607,173,
3;606,173,607,
3;609,607,608,
3;119,175,117,
3;175,119,321,
3;321,119,319,
3;175,320,276,
3;320,175,321,
3;276,320,322,
3;554,364,553,
3;330,553,364,
3;553,364,554,
3;364,553,330,
3;612,611,610,
3;613,610,611,
3;128,554,130,
3;554,128,553,
3;551,355,550,
3;336,550,355,
3;550,355,551,
3;355,550,336,
3;615,614,602,
3;604,602,614,
3;122,551,124,
3;551,122,550,
3;319,322,205,
3;504,205,322,
3;205,322,319,
3;322,205,504,
3;608,592,609,
3;593,609,592,
3;322,278,276,
3;278,322,504,
3;549,335,398,
3;367,398,335,
3;398,335,549,
3;335,398,367,
3;605,603,391,
3;393,391,603,
3;118,549,120,
3;549,118,398,
3;361,360,202,
3;556,202,360,
3;202,360,361,
3;360,202,556,
3;197,200,616,
3;617,616,200,
3;134,202,136,
3;202,134,556,
3;613,618,610,
3;619,610,618,
3;128,552,553,
3;552,128,126,
3;553,330,552,
3;329,552,330,
3;552,330,553,
3;330,552,329,
3;398,367,397,
3;399,397,367,
3;397,367,398,
3;367,397,399,
3;618,614,619,
3;615,619,614,
3;126,551,552,
3;551,126,124,
3;552,329,551,
3;355,551,329,
3;551,329,552,
3;329,551,355,
3;617,620,616,
3;621,616,620,
3;134,555,556,
3;555,134,132,
3;556,360,555,
3;384,555,360,
3;555,360,556,
3;360,555,384,
3;620,611,621,
3;612,621,611,
3;132,554,555,
3;554,132,130,
3;555,384,554,
3;364,554,384,
3;554,384,555,
3;384,554,364,
3;624,623,622,
3;625,622,623,
3;626,627,628,
3;627,626,629,
3;632,631,630,
3;633,630,631,
3;634,633,631,
3;635,633,634,
3;637,636,632,
3;631,632,636,
3;635,636,637,
3;633,635,637,
3;638,639,640,
3;639,638,627,
3;639,627,641,
3;641,627,642,
3;640,643,629,
3;643,640,639,
3;629,643,642,
3;629,642,627,
3;646,645,644,
3;647,644,645,
3;648,644,647,
3;649,650,651,
3;650,649,652,
3;652,649,653,
3;655,649,654,
3;653,654,649,
3;654,649,655,
3;649,654,653,
3;658,657,656,
3;659,656,657,
3;660,661,662,
3;661,660,663,
3;666,665,664,
3;667,664,665,
3;664,665,666,
3;665,664,667,
3;670,669,668,
3;671,668,669,
3;672,663,660,
3;663,672,673,
3;676,675,674,
3;677,674,675,
3;660,639,641,
3;639,660,662,
3;664,667,678,
3;679,678,667,
3;678,667,664,
3;667,678,679,
3;682,681,680,
3;683,680,681,
3;684,666,651,
3;666,684,665,
3;685,679,654,
3;667,654,679,
3;665,654,667,
3;684,654,665,
3;655,654,684,
3;686,687,688,
3;687,686,689,
3;689,686,683,
3;683,686,680,
3;680,686,690,
3;693,692,691,
3;694,691,692,
3;695,696,697,
3;696,695,698,
3;701,700,699,
3;702,699,700,
3;703,699,702,
3;692,703,702,
3;694,692,702,
3;704,694,702,
3;653,705,652,
3;705,653,706,
3;706,653,654,
3;706,654,696,
3;706,696,698,
3;706,698,707,
3;709,708,698,
3;696,698,708,
3;698,708,709,
3;708,698,696,
3;712,711,710,
3;713,710,711,
3;705,650,652,
3;650,705,714,
3;717,716,715,
3;718,715,716,
3;719,718,716,
3;720,718,719,
3;722,721,717,
3;716,717,721,
3;720,721,722,
3;718,720,722,
3;723,724,725,
3;724,723,626,
3;724,626,706,
3;706,626,705,
3;725,714,628,
3;714,725,724,
3;628,714,705,
3;628,705,626,
3;728,727,726,
3;729,726,727,
3;730,731,732,
3;731,730,733,
3;678,679,734,
3;685,734,679,
3;734,679,678,
3;679,734,685,
3;352,347,735,
3;349,735,347,
3;385,735,349,
3;736,735,385,
3;735,347,352,
3;347,735,349,
3;349,735,385,
3;385,735,736,
3;738,699,737,
3;703,737,699,
3;685,653,734,
3;653,685,654,
3;731,739,732,
3;740,732,739,
3;697,732,740,
3;696,732,697,
3;708,732,696,
3;728,741,727,
3;741,728,742,
3;742,728,743,
3;743,728,744,
3;744,728,745,
3;728,680,745,
3;690,745,680,
3;744,745,690,
3;686,744,690,
3;708,684,732,
3;684,708,655,
3;655,708,696,
3;655,696,654,
3;748,747,746,
3;749,746,747,
3;750,672,751,
3;672,750,673,
3;736,385,678,
3;386,678,385,
3;679,678,386,
3;740,679,386,
3;752,740,386,
3;753,752,386,
3;678,385,736,
3;385,678,386,
3;386,678,679,
3;386,679,740,
3;386,740,752,
3;386,752,753,
3;730,732,709,
3;708,709,732,
3;709,732,730,
3;732,709,708,
3;740,752,697,
3;695,697,752,
3;697,752,740,
3;752,697,695,
3;679,740,685,
3;697,685,740,
3;695,685,697,
3;736,678,735,
3;734,735,678,
3;685,735,734,
3;754,735,685,
3;752,753,695,
3;754,695,753,
3;685,695,754,
3;685,740,679,
3;740,685,697,
3;697,685,695,
3;735,678,736,
3;678,735,734,
3;734,735,685,
3;685,735,754,
3;695,753,752,
3;753,695,754,
3;754,695,685,
3;757,756,755,
3;758,755,756,
3;640,725,638,
3;725,640,723,
3;352,735,351,
3;754,351,735,
3;351,735,352,
3;735,351,754,
3;760,666,759,
3;761,759,666,
3;664,761,666,
3;665,731,667,
3;739,667,731,
3;762,733,760,
3;665,760,733,
3;666,760,665,
3;731,665,733,
3;763,733,762,
3;759,666,760,
3;666,759,761,
3;666,761,664,
3;667,731,665,
3;731,667,739,
3;760,733,762,
3;733,760,665,
3;665,760,666,
3;733,665,731,
3;762,733,763,
3;759,598,760,
3;600,760,598,
3;760,598,759,
3;598,760,600,
3;765,671,764,
3;669,764,671,
3;661,673,750,
3;673,661,663,
3;684,651,655,
3;649,655,651,
3;655,651,684,
3;651,655,649,
3;598,759,599,
3;579,599,759,
3;578,579,759,
3;761,578,759,
3;599,759,598,
3;759,599,579,
3;759,579,578,
3;759,578,761,
3;768,767,766,
3;769,766,767,
3;724,707,770,
3;707,724,706,
3;768,771,767,
3;772,767,771,
3;773,767,772,
3;707,730,770,
3;730,707,709,
3;709,707,698,
3;775,774,771,
3;776,771,774,
3;777,771,776,
3;773,771,777,
3;772,771,773,
3;730,763,733,
3;763,730,752,
3;752,730,695,
3;695,730,698,
3;698,730,709,
3;779,778,648,
3;780,648,778,
3;781,648,780,
3;646,648,781,
3;644,648,646,
3;653,678,734,
3;678,653,664,
3;664,653,666,
3;666,653,651,
3;651,653,649,
3;351,754,350,
3;348,350,754,
3;386,348,754,
3;753,386,754,
3;350,754,351,
3;754,350,348,
3;754,348,386,
3;754,386,753,
3;783,670,782,
3;668,782,670,
3;642,660,641,
3;660,642,672,
3;786,785,784,
3;787,784,785,
3;627,725,628,
3;725,627,638,
3;578,761,580,
3;664,580,761,
3;667,580,664,
3;739,580,667,
3;763,580,739,
3;762,580,763,
3;580,761,578,
3;761,580,664,
3;664,580,667,
3;667,580,739,
3;739,580,763,
3;763,580,762,
3;790,789,788,
3;791,788,789,
3;751,639,662,
3;639,751,643,
3;794,793,792,
3;682,792,793,
3;680,792,682,
3;728,792,680,
3;726,792,728,
3;795,792,726,
3;724,650,714,
3;650,724,651,
3;651,724,684,
3;684,724,732,
3;732,724,730,
3;730,724,770,
3;600,601,760,
3;581,760,601,
3;580,760,581,
3;762,760,580,
3;760,601,600,
3;601,760,581,
3;581,760,580,
3;580,760,762,
3;731,733,739,
3;763,739,733,
3;739,733,731,
3;733,739,763,
3;798,797,796,
3;799,796,797,
3;751,642,643,
3;642,751,672,
3;790,788,800,
3;801,800,788,
3;661,751,662,
3;751,661,750,
3;739,763,740,
3;752,740,763,
3;740,763,739,
3;763,740,752,
3;804,803,802,
3;805,802,803,
3;640,626,723,
3;626,640,629,
3;343,341,380,
3;362,380,341,
3;346,362,341,
3;363,362,346,
3;342,383,344,
3;363,344,383,
3;345,344,363,
3;346,345,363,
3;384,347,349,
3;347,384,364,
3;347,364,352,
3;352,364,289,
3;350,291,348,
3;291,350,289,
3;289,350,351,
3;289,351,352,
3;381,382,343,
3;342,343,382,
3;349,386,385,
3;386,349,348,
3;572,576,571,
3;574,571,576,
3;578,581,579,
3;581,578,580,
3;594,596,595,
3;597,595,596,
3;572,595,597,
3;576,572,597,
3;599,600,598,
3;600,599,601,
3;601,599,579,
3;601,579,581;;
  MeshMaterialList {
13;
1260;
9,
9,
8,
8,
9,
9,
8,
8,
9,
9,
8,
8,
0,
0,
8,
8,
9,
9,
8,
8,
0,
0,
0,
8,
8,
8,
0,
0,
0,
8,
8,
8,
0,
0,
8,
8,
0,
0,
8,
8,
9,
9,
8,
8,
9,
9,
8,
8,
7,
7,
7,
7,
7,
7,
7,
7,
7,
7,
7,
7,
7,
7,
7,
7,
7,
7,
7,
7,
7,
7,
7,
7,
7,
7,
7,
7,
7,
7,
7,
7,
7,
7,
7,
7,
7,
7,
7,
7,
7,
7,
7,
7,
7,
7,
7,
7,
7,
7,
7,
7,
7,
7,
7,
7,
7,
7,
7,
7,
7,
7,
7,
8,
8,
8,
8,
8,
8,
8,
8,
8,
8,
8,
8,
8,
8,
8,
8,
8,
8,
8,
8,
8,
8,
8,
8,
8,
8,
8,
8,
8,
8,
8,
8,
8,
8,
8,
8,
8,
8,
8,
8,
8,
8,
8,
8,
8,
8,
8,
8,
8,
8,
8,
8,
8,
8,
8,
8,
8,
8,
8,
8,
8,
8,
8,
0,
0,
8,
8,
6,
6,
8,
8,
9,
9,
8,
8,
9,
9,
8,
8,
9,
9,
8,
8,
9,
9,
8,
8,
9,
9,
8,
8,
9,
9,
8,
8,
9,
9,
8,
8,
9,
9,
8,
8,
9,
9,
8,
8,
7,
7,
7,
7,
7,
7,
7,
7,
7,
7,
7,
7,
7,
7,
7,
7,
7,
7,
7,
7,
7,
7,
7,
7,
7,
7,
7,
7,
7,
7,
7,
7,
7,
7,
7,
7,
7,
7,
7,
7,
7,
7,
7,
7,
7,
7,
7,
7,
7,
7,
7,
7,
7,
7,
7,
7,
7,
7,
7,
7,
7,
8,
8,
8,
8,
8,
8,
8,
8,
8,
8,
8,
8,
8,
8,
8,
8,
8,
8,
8,
8,
8,
8,
8,
8,
8,
8,
8,
8,
8,
8,
8,
8,
8,
8,
8,
8,
8,
8,
8,
8,
8,
8,
8,
8,
8,
8,
8,
8,
8,
8,
8,
8,
8,
8,
8,
8,
8,
8,
8,
8,
8,
6,
6,
8,
8,
9,
9,
8,
8,
9,
9,
8,
8,
9,
9,
8,
8,
9,
9,
8,
8,
9,
9,
8,
8,
12,
12,
8,
8,
9,
9,
8,
8,
9,
9,
8,
8,
9,
9,
8,
8,
9,
9,
8,
8,
9,
9,
8,
8,
9,
9,
8,
8,
9,
9,
8,
8,
9,
9,
9,
9,
8,
8,
8,
8,
9,
9,
8,
8,
9,
9,
8,
8,
9,
9,
8,
8,
9,
9,
8,
8,
9,
9,
8,
8,
2,
2,
8,
8,
9,
9,
8,
8,
9,
9,
8,
8,
9,
9,
9,
9,
9,
9,
8,
8,
8,
8,
8,
8,
9,
9,
8,
8,
9,
9,
9,
9,
9,
9,
8,
8,
8,
8,
8,
8,
9,
9,
8,
8,
9,
9,
8,
8,
9,
9,
8,
8,
9,
9,
8,
8,
2,
2,
8,
8,
9,
9,
8,
8,
9,
9,
8,
8,
9,
9,
8,
8,
9,
9,
8,
8,
9,
9,
8,
8,
9,
9,
8,
8,
9,
9,
8,
8,
0,
0,
8,
8,
0,
0,
8,
8,
1,
1,
1,
1,
1,
1,
1,
1,
11,
11,
8,
8,
11,
11,
8,
8,
11,
11,
8,
8,
11,
11,
8,
8,
11,
11,
8,
8,
11,
11,
8,
8,
5,
5,
5,
5,
5,
5,
5,
5,
5,
5,
5,
5,
5,
5,
5,
5,
5,
5,
5,
5,
5,
5,
5,
5,
5,
5,
5,
5,
5,
5,
5,
5,
8,
8,
8,
8,
8,
8,
8,
8,
8,
8,
8,
8,
8,
8,
8,
8,
8,
8,
8,
8,
8,
8,
8,
8,
8,
8,
8,
8,
8,
8,
8,
8,
11,
11,
8,
8,
5,
5,
5,
5,
5,
5,
5,
5,
5,
5,
5,
5,
5,
5,
5,
5,
5,
5,
5,
5,
5,
5,
5,
5,
5,
5,
5,
5,
5,
5,
5,
5,
8,
8,
8,
8,
8,
8,
8,
8,
8,
8,
8,
8,
8,
8,
8,
8,
8,
8,
8,
8,
8,
8,
8,
8,
8,
8,
8,
8,
8,
8,
8,
8,
11,
11,
8,
8,
11,
11,
8,
8,
11,
11,
8,
8,
11,
11,
8,
8,
11,
11,
8,
8,
11,
11,
8,
8,
11,
11,
8,
8,
12,
12,
8,
8,
9,
9,
9,
9,
9,
9,
8,
8,
8,
8,
8,
8,
9,
9,
8,
8,
12,
12,
8,
8,
9,
9,
8,
8,
12,
12,
8,
8,
9,
9,
8,
8,
12,
12,
8,
8,
9,
9,
8,
8,
12,
12,
8,
8,
12,
12,
8,
8,
9,
9,
8,
8,
12,
12,
8,
8,
9,
9,
8,
8,
12,
12,
8,
8,
9,
9,
9,
9,
9,
9,
9,
9,
8,
8,
8,
8,
8,
8,
8,
8,
12,
12,
8,
8,
9,
9,
8,
8,
9,
9,
9,
9,
9,
9,
8,
8,
8,
8,
8,
8,
12,
12,
8,
8,
9,
9,
8,
8,
12,
12,
8,
8,
9,
9,
8,
8,
12,
12,
8,
8,
9,
9,
8,
8,
12,
12,
8,
8,
9,
9,
8,
8,
12,
12,
8,
8,
9,
9,
8,
8,
9,
9,
8,
8,
12,
12,
8,
8,
12,
12,
8,
8,
9,
9,
8,
8,
12,
12,
8,
8,
9,
9,
8,
8,
12,
12,
8,
8,
9,
9,
8,
8,
12,
12,
8,
8,
4,
4,
8,
8,
4,
4,
4,
4,
4,
4,
4,
4,
8,
8,
8,
8,
8,
8,
8,
8,
4,
4,
4,
8,
8,
8,
10,
10,
8,
8,
4,
4,
8,
8,
3,
3,
8,
8,
4,
4,
8,
8,
4,
4,
8,
8,
8,
8,
8,
8,
4,
4,
8,
8,
8,
8,
8,
8,
8,
4,
4,
4,
4,
4,
4,
4,
8,
8,
4,
4,
4,
4,
4,
4,
8,
8,
8,
8,
8,
8,
10,
10,
8,
8,
4,
4,
8,
8,
4,
4,
4,
4,
4,
4,
4,
4,
8,
8,
8,
8,
8,
8,
8,
8,
4,
4,
8,
8,
3,
3,
8,
8,
3,
3,
3,
3,
8,
8,
8,
8,
4,
4,
8,
8,
8,
8,
8,
8,
8,
4,
4,
4,
4,
4,
4,
4,
4,
4,
8,
8,
8,
8,
4,
4,
8,
8,
3,
3,
3,
3,
3,
3,
8,
8,
8,
8,
8,
8,
10,
10,
8,
8,
3,
3,
8,
8,
3,
3,
3,
3,
3,
3,
3,
3,
3,
3,
8,
8,
8,
8,
8,
8,
8,
8,
8,
8,
4,
4,
8,
8,
3,
3,
8,
8,
3,
3,
3,
3,
3,
3,
3,
3,
3,
3,
8,
8,
8,
8,
8,
8,
8,
8,
8,
8,
3,
3,
8,
8,
4,
4,
8,
8,
10,
10,
8,
8,
3,
3,
3,
3,
8,
8,
8,
8,
4,
4,
8,
8,
4,
4,
4,
8,
8,
8,
4,
4,
4,
4,
4,
8,
8,
8,
8,
8,
4,
4,
4,
4,
4,
8,
8,
8,
8,
8,
3,
3,
3,
3,
8,
8,
8,
8,
4,
4,
8,
8,
4,
4,
8,
8,
3,
3,
3,
3,
3,
3,
8,
8,
8,
8,
8,
8,
4,
4,
8,
8,
4,
4,
4,
4,
4,
4,
8,
8,
8,
8,
8,
8,
3,
3,
3,
3,
8,
8,
8,
8,
3,
3,
8,
8,
4,
4,
8,
8,
4,
4,
8,
8,
8,
8,
8,
8,
4,
4,
8,
8,
9,
9,
9,
9,
9,
9,
9,
9,
8,
8,
8,
8,
8,
8,
8,
8,
9,
9,
8,
8,
9,
9,
8,
8,
9,
9,
9,
9,
8,
8,
8,
8;
{ _black }
{ ______3_shadow_png }
{ _mid2_syonan_side_mid2_png }
{ _96_96_96 }
{ ______6_radio_png }
{ ______5_au726_front_png }
{ _mid1_syonan_side_mid1_png }
{ ____e_side_png }
{ Default_Material }
{ ______8_roofdef_png }
{ __LightGray_ }
{ ______4_au726_png }
{ __0135_DarkGray_ }
  }
  MeshTextureCoords {
806;
-0.0206,-20.5770;
-0.0169,-47.0177;
-0.0169,-20.5770;
-0.0206,-47.0177;
0.0000,0.0000;
0.0000,0.0000;
0.0000,0.0000;
0.0000,0.0000;
-0.0052,-47.0177;
-0.0031,-20.5770;
-0.0052,-20.5770;
-0.0031,-47.0177;
0.0000,0.0000;
0.0000,0.0000;
0.0000,0.0000;
0.0000,0.0000;
-0.0397,-47.0177;
-0.0329,-20.5770;
-0.0397,-20.5770;
-0.0329,-47.0177;
0.0000,0.0000;
0.0000,0.0000;
0.0000,0.0000;
0.0000,0.0000;
0.0000,0.0000;
0.0000,0.0000;
0.0000,0.0000;
0.0000,0.0000;
-0.0286,-47.0177;
-0.0286,-20.5770;
0.0000,0.0000;
0.0000,0.0000;
0.0000,0.0000;
0.0000,0.0000;
0.0000,0.0000;
0.0000,0.0000;
0.0000,0.0000;
0.0000,0.0000;
0.0000,0.0000;
0.0000,0.0000;
0.0000,0.0000;
0.0000,0.0000;
0.0000,0.0000;
0.0000,0.0000;
-0.0245,-20.5770;
-0.0245,-47.0177;
0.0000,0.0000;
0.0000,0.0000;
-8.0000,-20.0000;
-8.5000,-20.0000;
-8.1429,-20.0000;
-7.9732,-20.2143;
-8.3393,-20.0714;
-8.3393,-20.7321;
-7.9732,-20.8500;
-8.6607,-20.7321;
-8.0894,-20.9155;
-8.9241,-20.9125;
-8.0759,-20.9125;
-8.9106,-20.9155;
-8.1299,-20.9238;
-8.8701,-20.9238;
-8.1706,-20.9311;
-8.8294,-20.9311;
-8.2115,-20.9375;
-8.7885,-20.9375;
-8.2525,-20.9431;
-8.7475,-20.9430;
-8.2935,-20.9477;
-8.7065,-20.9477;
-8.3347,-20.9514;
-8.6653,-20.9514;
-8.3760,-20.9542;
-8.6240,-20.9542;
-8.4173,-20.9561;
-8.5827,-20.9561;
-8.4586,-20.9571;
-8.5414,-20.9571;
-8.5000,-20.9571;
-8.5000,-20.0714;
-8.8571,-20.0000;
-9.0000,-20.0000;
-8.6607,-20.0714;
-9.0268,-20.2143;
-9.0268,-20.8500;
-7.9742,-20.8550;
-9.0258,-20.8550;
-7.9757,-20.8599;
-9.0243,-20.8598;
-7.9775,-20.8646;
-9.0225,-20.8646;
-7.9797,-20.8692;
-9.0203,-20.8692;
-7.9823,-20.8736;
-9.0177,-20.8735;
-7.9852,-20.8777;
-9.0148,-20.8777;
-7.9885,-20.8816;
-9.0115,-20.8816;
-7.9921,-20.8852;
-9.0079,-20.8852;
-7.9959,-20.8885;
-9.0041,-20.8885;
-8.0000,-20.8915;
-9.0000,-20.8915;
-8.0044,-20.8942;
-8.9956,-20.8941;
-8.0089,-20.8964;
-8.9911,-20.8964;
-8.0161,-20.9125;
-8.9839,-20.9125;
0.0000,0.0000;
0.0000,0.0000;
0.0000,0.0000;
0.0000,0.0000;
0.0000,0.0000;
0.0000,0.0000;
0.0000,0.0000;
0.0000,0.0000;
0.0000,0.0000;
0.0000,0.0000;
0.0000,0.0000;
0.0000,0.0000;
0.0000,0.0000;
0.0000,0.0000;
0.0000,0.0000;
0.0000,0.0000;
0.0000,0.0000;
0.0000,0.0000;
0.0000,0.0000;
0.0000,0.0000;
0.0000,0.0000;
0.0000,0.0000;
0.0000,0.0000;
0.0000,0.0000;
0.0000,0.0000;
0.0000,0.0000;
0.0000,0.0000;
0.0000,0.0000;
0.0000,0.0000;
0.0000,0.0000;
0.0000,0.0000;
0.0000,0.0000;
0.0000,0.0000;
0.0000,0.0000;
0.0000,0.0000;
0.0000,0.0000;
0.0000,0.0000;
0.0000,0.0000;
0.0000,0.0000;
0.0000,0.0000;
0.0000,0.0000;
0.0000,0.0000;
0.0000,0.0000;
0.0000,0.0000;
0.0000,0.0000;
0.0000,0.0000;
0.0000,0.0000;
0.0000,0.0000;
0.0000,0.0000;
0.0000,0.0000;
-1.0000,-2.0000;
0.0000,-1.2552;
0.0000,-2.0000;
-1.0000,-1.2552;
0.0000,0.0000;
0.0000,0.0000;
-0.0014,-20.5770;
-0.0014,-47.0177;
0.0000,0.0000;
-0.1093,-20.5770;
-0.0965,-47.0177;
-0.0965,-20.5770;
-0.1093,-47.0177;
0.0000,0.0000;
0.0000,0.0000;
-0.2641,-20.5770;
-0.2252,-31.9668;
-0.2252,-20.5770;
-0.2641,-31.9668;
0.0000,0.0000;
0.0000,0.0000;
-0.0077,-47.0177;
-0.0077,-20.5770;
0.0000,0.0000;
-0.3813,-20.5770;
-0.4205,-31.9668;
-0.3813,-31.9668;
-0.4205,-20.5770;
0.0000,0.0000;
0.0000,0.0000;
-0.3422,-20.5770;
-0.3031,-31.9668;
-0.3031,-20.5770;
-0.3422,-31.9668;
0.0000,0.0000;
0.0000,0.0000;
-0.4990,-20.5770;
-0.4598,-31.9668;
-0.4598,-20.5770;
-0.4990,-31.9668;
0.0000,0.0000;
0.0000,0.0000;
-0.1864,-20.5770;
-0.1864,-31.9668;
0.0000,0.0000;
-0.0135,-47.0177;
-0.0104,-20.5770;
-0.0135,-20.5770;
-0.0104,-47.0177;
0.0000,0.0000;
0.0000,0.0000;
8.0268,-21.2143;
7.8571,-21.0000;
8.0000,-21.0000;
7.6607,-21.0714;
7.1429,-21.0000;
7.0000,-21.0000;
7.6607,-21.7321;
8.0268,-21.8500;
7.3393,-21.7321;
7.9106,-21.9155;
7.0759,-21.9125;
7.9241,-21.9125;
7.0894,-21.9155;
7.8701,-21.9238;
7.1299,-21.9238;
7.8294,-21.9311;
7.1706,-21.9311;
7.7885,-21.9375;
7.2115,-21.9375;
7.7475,-21.9431;
7.2525,-21.9431;
7.7065,-21.9477;
7.2935,-21.9477;
7.6653,-21.9514;
7.3347,-21.9514;
7.6240,-21.9542;
7.3760,-21.9542;
7.5827,-21.9561;
7.4173,-21.9561;
7.5414,-21.9571;
7.4586,-21.9571;
7.5000,-21.9571;
7.3393,-21.0714;
6.9732,-21.2143;
6.9732,-21.8500;
8.0258,-21.8550;
6.9742,-21.8550;
8.0243,-21.8599;
6.9757,-21.8598;
8.0225,-21.8646;
6.9775,-21.8646;
8.0203,-21.8692;
6.9797,-21.8692;
8.0177,-21.8735;
6.9823,-21.8735;
8.0148,-21.8777;
6.9852,-21.8777;
8.0115,-21.8816;
6.9885,-21.8816;
8.0079,-21.8852;
6.9921,-21.8852;
8.0041,-21.8885;
6.9959,-21.8885;
8.0000,-21.8915;
7.0000,-21.8915;
7.9956,-21.8942;
7.0044,-21.8942;
7.9911,-21.8964;
7.0089,-21.8964;
7.9839,-21.9125;
7.0161,-21.9125;
0.0000,0.0000;
0.0000,0.0000;
0.0000,0.0000;
0.0000,0.0000;
0.0000,0.0000;
0.0000,0.0000;
0.0000,0.0000;
0.0000,0.0000;
0.0000,0.0000;
0.0000,0.0000;
0.0000,0.0000;
0.0000,0.0000;
0.0000,0.0000;
0.0000,0.0000;
0.0000,0.0000;
0.0000,0.0000;
0.0000,0.0000;
0.0000,0.0000;
0.0000,0.0000;
0.0000,0.0000;
0.0000,0.0000;
0.0000,0.0000;
0.0000,0.0000;
0.0000,0.0000;
0.0000,0.0000;
0.0000,0.0000;
0.0000,0.0000;
0.0000,0.0000;
0.0000,0.0000;
0.0000,0.0000;
0.0000,0.0000;
0.0000,0.0000;
0.0000,0.0000;
0.0000,0.0000;
0.0000,0.0000;
0.0000,0.0000;
0.0000,0.0000;
0.0000,0.0000;
-1.0000,-0.2530;
0.0000,-0.0000;
0.0000,-0.2530;
-1.0000,-0.0000;
0.0000,-47.0177;
0.0010,-20.5770;
0.0000,-20.5770;
0.0010,-47.0177;
0.0000,0.0000;
0.0000,0.0000;
0.0000,0.0000;
0.0000,0.0000;
-0.1478,-31.9668;
-0.1478,-20.5770;
-0.6950,-37.3906;
-0.6559,-47.0177;
-0.6559,-37.3906;
-0.6950,-47.0177;
0.0000,0.0000;
0.0000,0.0000;
-0.8117,-37.3906;
-0.7729,-47.0177;
-0.7729,-37.3906;
-0.8117,-47.0177;
0.0000,0.0000;
0.0000,0.0000;
-0.9928,-20.5770;
-0.9904,-47.0177;
-0.9904,-20.5770;
-0.9928,-47.0177;
-0.5838,-44.0346;
-0.5775,-44.5770;
-0.5775,-44.0346;
-0.5838,-44.5770;
-0.6007,-44.5770;
-0.6007,-44.0346;
0.0000,0.0000;
0.0000,0.0000;
0.0000,0.0000;
0.0000,0.0000;
0.0000,0.0000;
0.0000,0.0000;
-0.7340,-37.3906;
-0.7340,-47.0177;
0.0000,0.0000;
-0.5383,-37.3906;
-0.4990,-47.0177;
-0.4990,-37.3906;
-0.5383,-47.0177;
0.0000,0.0000;
0.0000,0.0000;
-0.6167,-37.3906;
-0.6167,-47.0177;
0.0000,0.0000;
-0.8503,-47.0177;
-0.8503,-37.3906;
0.0000,0.0000;
0.0000,-0.0000;
1.0000,-0.2530;
-0.0000,-0.2530;
1.0000,-0.0000;
-0.9990,-20.5770;
-0.9980,-47.0177;
-0.9980,-20.5770;
-0.9990,-47.0177;
-0.9845,-20.5770;
-0.9811,-47.0177;
-0.9811,-20.5770;
-0.9845,-47.0177;
-0.5775,-37.3906;
-0.5668,-44.0346;
-0.5668,-44.5770;
-0.5775,-47.0177;
0.0000,0.0000;
0.0000,0.0000;
0.0000,0.0000;
-0.9583,-20.5770;
-0.9016,-47.0177;
-0.9016,-20.5770;
-0.9583,-47.0177;
-0.8503,-20.5770;
-0.8541,-31.9668;
-0.8503,-31.9668;
-0.8888,-20.5770;
-0.8541,-37.3906;
-0.8888,-47.0177;
0.0000,0.0000;
0.0000,0.0000;
0.0000,0.0000;
-0.9876,-47.0177;
-0.9876,-20.5770;
-0.9967,-47.0177;
-0.9967,-20.5770;
-0.0000,-0.2552;
1.0000,-1.0000;
-0.0000,-1.0000;
1.0000,-0.2552;
-0.9949,-47.0177;
-0.9949,-20.5770;
-0.9775,-20.5770;
-0.9736,-47.0177;
-0.9736,-20.5770;
-0.9775,-47.0177;
-0.9694,-47.0177;
-0.9694,-20.5770;
-0.9651,-20.5770;
-0.9651,-47.0177;
-0.8574,-0.7923;
-0.6897,-227.8331;
-1.0000,-1.0000;
-0.5471,-227.6254;
1.0000,-0.0000;
0.8571,-227.2861;
0.8571,-0.0000;
1.0000,-227.2861;
1.0000,-0.1439;
0.0000,-0.2108;
1.0000,-0.2108;
0.0000,-0.1439;
0.0000,0.0000;
0.0000,0.0000;
0.0000,0.0000;
0.0000,0.0000;
1.0000,-0.3525;
0.0000,-0.4260;
1.0000,-0.4260;
0.0000,-0.3525;
0.0000,0.0000;
0.0000,0.0000;
0.0000,0.0000;
0.0000,0.0000;
1.0000,-0.3525;
0.0000,-0.2806;
1.0000,-0.2806;
0.0000,-0.3525;
0.0000,0.0000;
0.0000,0.0000;
0.0000,0.0000;
0.0000,0.0000;
1.0000,-0.5002;
0.0000,-0.4260;
1.0000,-0.4260;
0.0000,-0.5002;
0.0000,0.0000;
0.0000,0.0000;
0.0000,0.0000;
0.0000,0.0000;
1.0000,-0.2108;
0.0000,-0.1439;
1.0000,-0.1439;
0.0000,-0.2108;
0.0000,0.0000;
0.0000,0.0000;
0.0000,0.0000;
0.0000,0.0000;
0.0000,-0.0805;
1.0000,-0.0805;
0.0000,0.0000;
0.0000,0.0000;
0.9946,-0.3110;
0.9892,0.0000;
0.9946,0.0048;
0.9348,-0.0432;
0.8802,-0.0811;
0.8255,-0.1137;
0.7705,-0.1409;
0.7155,-0.1628;
0.6604,-0.1793;
0.6051,-0.1905;
0.5499,-0.1963;
0.4946,-0.1967;
0.0000,-0.0000;
-0.0054,-0.3110;
-0.0054,0.0048;
0.0544,-0.0432;
0.1090,-0.0811;
0.1638,-0.1137;
0.2187,-0.1409;
0.2737,-0.1628;
0.3289,-0.1793;
0.3841,-0.1905;
0.4393,-0.1963;
0.9192,-0.5150;
0.0701,-0.5150;
0.8395,-0.6848;
0.1498,-0.6848;
0.7563,-0.8187;
0.2329,-0.8187;
0.6705,-0.9152;
0.3187,-0.9152;
0.5830,-0.9736;
0.4062,-0.9736;
0.4946,-0.9931;
0.0000,0.0000;
0.0000,0.0000;
0.0000,0.0000;
0.0000,0.0000;
0.0000,0.0000;
0.0000,0.0000;
0.0000,0.0000;
0.0000,0.0000;
0.0000,0.0000;
0.0000,0.0000;
-0.0000,-0.3158;
-0.0054,-0.0048;
-0.0000,-0.0000;
-0.0598,-0.0480;
-0.1144,-0.0859;
-0.1691,-0.1185;
-0.2241,-0.1457;
-0.2791,-0.1676;
-0.3343,-0.1842;
-0.3895,-0.1953;
-0.4447,-0.2011;
-0.5000,-0.2015;
-0.9946,-0.0048;
-1.0000,-0.3158;
-1.0000,-0.0000;
-0.9402,-0.0480;
-0.8856,-0.0859;
-0.8309,-0.1185;
-0.7759,-0.1457;
-0.7209,-0.1676;
-0.6657,-0.1842;
-0.6105,-0.1953;
-0.5553,-0.2011;
-0.0755,-0.5198;
-0.9245,-0.5198;
-0.1552,-0.6896;
-0.8448,-0.6896;
-0.2383,-0.8235;
-0.7617,-0.8235;
-0.3241,-0.9201;
-0.6759,-0.9201;
-0.4116,-0.9784;
-0.5884,-0.9784;
-0.5000,-0.9979;
0.0000,0.0000;
0.0000,0.0000;
0.0000,0.0000;
0.0000,0.0000;
0.0000,0.0000;
0.0000,0.0000;
0.0000,0.0000;
0.0000,0.0000;
0.0000,0.0000;
0.0000,0.0000;
1.0000,-0.0805;
0.0000,-0.0805;
0.0000,-0.2806;
1.0000,-0.2806;
-1.0000,1.0000;
-0.0000,0.9399;
-0.0000,1.0000;
-1.0000,0.9399;
-1.0000,0.9399;
0.0000,1.0000;
0.0000,0.9399;
-1.0000,1.0000;
-0.4205,-37.3906;
-0.4312,-44.0346;
-0.4205,-44.0346;
-0.4598,-37.3906;
-0.4312,-44.5770;
-0.4598,-47.0177;
-0.4205,-44.5770;
-0.4205,-47.0177;
0.0000,0.0000;
0.0000,0.0000;
0.0000,0.0000;
0.0000,0.0000;
-0.3031,-37.3906;
-0.2641,-47.0177;
-0.2641,-37.3906;
-0.3031,-47.0177;
-0.3422,-37.3906;
-0.3813,-47.0177;
-0.3422,-47.0177;
-0.3813,-37.3906;
-0.2252,-37.3906;
-0.2252,-47.0177;
-0.1864,-47.0177;
-0.1864,-37.3906;
-0.3973,-44.0346;
-0.4143,-44.0346;
-0.3973,-44.5770;
-0.4143,-44.5770;
0.0000,0.0000;
0.0000,0.0000;
0.0000,0.0000;
0.0000,0.0000;
-0.7729,-20.5770;
-0.8117,-31.9668;
-0.7729,-31.9668;
-0.8117,-20.5770;
-0.1439,-31.9668;
-0.1439,-37.3906;
-0.1478,-47.0177;
-0.1478,-37.3906;
-0.6559,-20.5770;
-0.6167,-31.9668;
-0.6167,-20.5770;
-0.6559,-31.9668;
-0.7340,-31.9668;
-0.7340,-20.5770;
-0.5383,-20.5770;
-0.5383,-31.9668;
-0.6950,-31.9668;
-0.6950,-20.5770;
-0.5775,-31.9668;
-0.5775,-20.5770;
-1.8667,-0.6429;
-1.8667,-0.7143;
-1.8667,-0.6429;
-1.8667,-0.7143;
0.0000,0.0000;
0.0000,0.0000;
0.0000,0.0000;
0.0000,0.0000;
9.8667,-0.7857;
9.3333,-0.7857;
9.8667,-0.7857;
-4.5333,-0.7857;
-4.0000,-0.7857;
-4.0000,-0.7857;
9.3333,-0.7857;
-4.5333,-0.7857;
0.0000,0.0000;
0.0000,0.0000;
0.0000,0.0000;
0.0000,0.0000;
0.0000,0.0000;
0.0000,0.0000;
2.6667,-0.3571;
-4.0000,-0.3571;
-4.0000,-0.3571;
9.3333,-0.3571;
9.3333,-0.3571;
0.0000,0.0000;
0.0000,0.0000;
0.0000,0.0000;
0.0000,0.0000;
0.0000,0.0000;
0.0000,0.0000;
0.0000,0.0000;
-4.0000,-0.8929;
8.5333,-1.0000;
9.3333,-0.8929;
-3.2000,-1.0000;
0.0000,0.0000;
0.0000,0.0000;
0.0000,0.0000;
0.0000,0.0000;
0.0000,0.0000;
0.0000,0.0000;
0.0000,0.0000;
0.0000,0.0000;
-1.3333,-0.8929;
-0.5333,-1.0000;
-1.3333,-0.8929;
-0.5333,-1.0000;
0.0000,0.0000;
0.0000,0.0000;
9.3333,-0.8929;
-4.0000,-0.7143;
9.3333,-0.7143;
-4.0000,-0.8929;
0.0000,0.0000;
0.0000,0.0000;
-1.3333,-0.3571;
-1.3333,-0.0000;
-1.3333,-0.3571;
-1.3333,-0.0000;
0.0000,0.0000;
0.0000,0.0000;
12.0000,-0.3571;
10.6667,-0.0000;
12.0000,-0.0000;
0.0000,-0.0000;
5.3333,-0.3571;
-1.3333,0.0000;
-1.3333,-0.3571;
-1.3333,0.0000;
-1.3333,-0.3571;
0.0000,0.0000;
0.0000,0.0000;
0.0000,0.0000;
0.0000,0.0000;
-1.3333,-0.3571;
-1.3333,-0.6429;
-1.3333,-0.3571;
-1.3333,-0.6429;
-1.3333,-0.3571;
-1.3333,-0.3571;
0.0000,0.0000;
0.0000,0.0000;
0.0000,0.0000;
0.0000,0.0000;
0.0000,0.0000;
-4.0000,-0.6429;
9.3333,-0.3571;
-4.0000,-0.3571;
9.3333,-0.6429;
0.0000,0.0000;
-4.5333,-0.7143;
-4.0000,-0.7143;
-4.5333,-0.7143;
9.8667,-0.7143;
9.3333,-0.7143;
9.3333,-0.7143;
-4.0000,-0.7143;
9.8667,-0.7143;
0.0000,0.0000;
0.0000,0.0000;
0.0000,0.0000;
-1.3333,-0.3571;
-1.3333,-0.0000;
-1.3333,-0.3571;
-1.3333,-0.0000;
0.0000,0.0000;
0.0000,0.0000;
0.0000,0.0000;
0.0000,0.0000;
0.0000,0.0000;
0.0000,0.0000;
0.0000,0.0000;
-1.3333,-0.0000;
-1.3333,-0.0000;
0.0000,0.0000;
0.0000,0.0000;
0.0000,-0.0000;
10.6667,-0.0000;
12.0000,-0.0000;
12.0000,-0.3571;
5.3333,-0.3571;
8.5333,-1.0000;
-4.0000,-0.8929;
9.3333,-0.8929;
-3.2000,-1.0000;
0.0000,0.0000;
0.0000,0.0000;
0.0000,0.0000;
0.0000,0.0000;
0.0000,0.0000;
-1.8667,-0.7143;
-1.8667,-0.6429;
-1.8667,-0.7143;
-1.8667,-0.6429;
0.0000,0.0000;
0.0000,0.0000;
0.0000,0.0000;
0.0000,0.0000;
0.0000,0.0000;
11.2000,-1.0000;
11.2000,-1.0000;
-4.0000,-0.6429;
9.3333,-0.3571;
-4.0000,-0.3571;
9.3333,-0.6429;
0.0000,0.0000;
-4.0000,-0.3571;
2.6667,-0.3571;
9.3333,-0.3571;
-2.6667,-0.0000;
-4.0000,-0.0000;
8.0000,-0.0000;
9.3333,-0.0000;
8.0000,-0.0000;
9.3333,-0.0000;
-2.6667,-0.0000;
-4.0000,-0.0000;
-1.3333,-0.7143;
-1.3333,-0.7143;
-4.5333,-0.7143;
9.8667,-0.6429;
-4.5333,-0.6429;
9.8667,-0.7143;
-1.3333,-0.8929;
-1.3333,-0.7143;
-1.3333,-0.8929;
-1.3333,-0.7143;
-1.3333,-0.6429;
-1.3333,-0.3571;
-1.3333,-0.6429;
-1.3333,-0.3571;
-4.0000,-0.8929;
9.3333,-0.7143;
-4.0000,-0.7143;
9.3333,-0.8929;
-0.5333,-1.0000;
-0.5333,-1.0000;
-4.5333,-0.7143;
9.8667,-0.6429;
-4.5333,-0.6429;
9.8667,-0.7143;
  }
  MeshNormals {
202;
-0.6202;0.7844;0.0000;,
-0.6824;0.7310;0.0000;,
0.6202;-0.7844;-0.0000;,
0.6824;-0.7310;-0.0000;,
-0.8816;0.4721;0.0000;,
-0.9173;0.3982;-0.0000;,
0.8816;-0.4721;-0.0000;,
0.9173;-0.3982;0.0000;,
-0.9138;0.4062;0.0000;,
0.9138;-0.4062;-0.0000;,
-0.0000;-0.0000;1.0000;,
0.0000;0.0000;-1.0000;,
-0.4474;0.8943;0.0000;,
-0.4837;0.8752;0.0000;,
0.4474;-0.8943;-0.0000;,
0.4837;-0.8752;-0.0000;,
0.0000;-0.0000;-1.0000;,
-0.0000;0.0000;1.0000;,
-0.0000;-0.0000;-1.0000;,
0.0000;0.0000;1.0000;,
-1.0000;0.0000;-0.0000;,
1.0000;-0.0000;0.0000;,
-0.0000;-1.0000;0.0000;,
0.0000;1.0000;-0.0000;,
-0.5538;0.8326;0.0000;,
0.5538;-0.8326;-0.0000;,
-1.0000;0.0000;0.0000;,
1.0000;-0.0000;-0.0000;,
-0.9468;0.3217;0.0000;,
0.9468;-0.3217;-0.0000;,
-0.2096;0.9778;-0.0000;,
-0.2204;0.9754;-0.0000;,
0.2096;-0.9778;0.0000;,
0.2204;-0.9754;0.0000;,
-0.1227;0.9924;0.0000;,
-0.1446;0.9895;0.0000;,
0.1227;-0.9924;-0.0000;,
0.1446;-0.9895;-0.0000;,
-0.8399;0.5427;0.0000;,
0.8399;-0.5427;-0.0000;,
-0.0568;0.9984;0.0000;,
-0.0348;0.9994;0.0000;,
0.0568;-0.9984;-0.0000;,
0.0348;-0.9994;-0.0000;,
-0.0788;0.9969;0.0000;,
-0.1008;0.9949;0.0000;,
0.0788;-0.9969;-0.0000;,
0.1008;-0.9949;-0.0000;,
-0.0017;1.0000;0.0000;,
-0.0128;0.9999;0.0000;,
0.0017;-1.0000;-0.0000;,
0.0128;-0.9999;-0.0000;,
-0.1663;0.9861;0.0000;,
0.1663;-0.9861;-0.0000;,
-0.7400;0.6726;0.0000;,
-0.7926;0.6097;0.0000;,
0.7400;-0.6726;-0.0000;,
0.7926;-0.6097;-0.0000;,
-0.9923;-0.1240;-0.0000;,
0.9923;0.1240;0.0000;,
-0.9700;0.2431;0.0000;,
-0.9792;0.2031;0.0000;,
0.9700;-0.2431;-0.0000;,
0.9792;-0.2031;-0.0000;,
-0.0000;1.0000;-0.0000;,
0.0000;-1.0000;0.0000;,
-0.1880;0.9822;-0.0000;,
-0.1989;0.9800;-0.0000;,
0.1880;-0.9822;0.0000;,
0.1989;-0.9800;0.0000;,
-0.1880;0.9822;0.0000;,
0.1880;-0.9822;-0.0000;,
0.1008;0.9949;-0.0000;,
0.0788;0.9969;-0.0000;,
-0.1008;-0.9949;0.0000;,
-0.0788;-0.9969;0.0000;,
0.1663;0.9861;-0.0000;,
0.1446;0.9895;-0.0000;,
-0.1663;-0.9861;0.0000;,
-0.1446;-0.9895;0.0000;,
0.8816;0.4721;-0.0000;,
0.8399;0.5427;-0.0000;,
-0.8816;-0.4721;0.0000;,
-0.8399;-0.5427;0.0000;,
0.0458;0.9989;-0.0000;,
0.0348;0.9994;-0.0000;,
-0.0458;-0.9989;0.0000;,
-0.0348;-0.9994;0.0000;,
0.1227;0.9924;-0.0000;,
-0.1227;-0.9924;0.0000;,
0.0128;0.9999;-0.0000;,
0.0017;1.0000;-0.0000;,
-0.0128;-0.9999;0.0000;,
-0.0017;-1.0000;0.0000;,
0.0568;0.9984;-0.0000;,
-0.0568;-0.9984;0.0000;,
0.1880;0.9822;-0.0000;,
-0.1880;-0.9822;0.0000;,
0.9923;-0.1240;0.0000;,
-0.9923;0.1240;-0.0000;,
0.9792;0.2031;-0.0000;,
0.9700;0.2431;-0.0000;,
-0.9792;-0.2031;0.0000;,
-0.9700;-0.2431;0.0000;,
0.7400;0.6726;-0.0000;,
0.6824;0.7310;-0.0000;,
-0.7400;-0.6726;0.0000;,
-0.6824;-0.7310;0.0000;,
0.0238;0.9997;-0.0000;,
-0.0238;-0.9997;0.0000;,
0.1989;0.9800;-0.0000;,
0.2096;0.9778;-0.0000;,
-0.1989;-0.9800;0.0000;,
-0.2096;-0.9778;0.0000;,
0.7926;0.6097;-0.0000;,
-0.7926;-0.6097;0.0000;,
0.9468;0.3217;-0.0000;,
-0.9468;-0.3217;0.0000;,
0.2204;0.9754;-0.0000;,
-0.2204;-0.9754;0.0000;,
1.0000;0.0000;0.0000;,
-1.0000;-0.0000;-0.0000;,
0.9173;0.3982;-0.0000;,
-0.9173;-0.3982;0.0000;,
0.6202;0.7844;-0.0000;,
0.5538;0.8326;-0.0000;,
-0.6202;-0.7844;0.0000;,
-0.5538;-0.8326;0.0000;,
0.4837;0.8752;-0.0000;,
-0.4837;-0.8752;0.0000;,
0.9138;0.4062;-0.0000;,
-0.9138;-0.4062;0.0000;,
0.4474;0.8943;-0.0000;,
-0.4474;-0.8943;0.0000;,
1.0000;0.0000;-0.0000;,
-1.0000;-0.0000;0.0000;,
0.4794;0.8776;-0.0000;,
0.3894;0.9211;-0.0000;,
-0.4794;-0.8776;0.0000;,
-0.3894;-0.9211;0.0000;,
0.1987;0.9801;-0.0000;,
0.0998;0.9950;-0.0000;,
-0.1987;-0.9801;0.0000;,
-0.0998;-0.9950;0.0000;,
-0.1987;0.9801;-0.0000;,
-0.2955;0.9553;-0.0000;,
0.1987;-0.9801;0.0000;,
0.2955;-0.9553;0.0000;,
-0.0500;0.9988;-0.0000;,
-0.0998;0.9950;-0.0000;,
0.0500;-0.9988;0.0000;,
0.0998;-0.9950;0.0000;,
-0.3894;0.9211;-0.0000;,
-0.4794;0.8776;-0.0000;,
0.3894;-0.9211;0.0000;,
0.4794;-0.8776;0.0000;,
-0.5226;0.8525;-0.0000;,
0.5226;-0.8525;0.0000;,
0.0500;0.9988;-0.0000;,
-0.0500;-0.9988;0.0000;,
0.5226;0.8525;-0.0000;,
-0.5226;-0.8525;0.0000;,
0.2955;0.9553;-0.0000;,
-0.2955;-0.9553;0.0000;,
-0.0128;0.9999;-0.0000;,
-0.0348;0.9994;-0.0000;,
0.0128;-0.9999;0.0000;,
0.0348;-0.9994;0.0000;,
-0.0238;0.9997;-0.0000;,
0.0238;-0.9997;0.0000;,
-0.1008;0.9949;-0.0000;,
-0.1227;0.9924;-0.0000;,
0.1008;-0.9949;0.0000;,
0.1227;-0.9924;0.0000;,
-0.0788;0.9969;-0.0000;,
-0.0568;0.9984;-0.0000;,
0.0788;-0.9969;0.0000;,
0.0568;-0.9984;0.0000;,
-0.1446;0.9895;-0.0000;,
0.1446;-0.9895;0.0000;,
-0.0017;1.0000;-0.0000;,
0.0017;-1.0000;0.0000;,
-0.1663;0.9861;-0.0000;,
0.1663;-0.9861;0.0000;,
-0.0458;0.9989;-0.0000;,
0.0458;-0.9989;0.0000;,
0.1446;0.9895;0.0000;,
0.1663;0.9861;0.0000;,
-0.1446;-0.9895;-0.0000;,
-0.1663;-0.9861;-0.0000;,
-0.0000;0.7071;-0.7071;,
0.0000;-0.7071;0.7071;,
0.7071;0.7071;-0.0000;,
-0.7071;-0.7071;0.0000;,
0.0000;0.7071;0.7071;,
-0.0000;-0.7071;-0.7071;,
0.0000;-0.0000;1.0000;,
-0.0000;0.0000;-1.0000;,
0.0000;-1.0000;-0.0000;,
-0.0000;1.0000;0.0000;,
-0.7071;0.7071;-0.0000;,
0.7071;-0.7071;0.0000;;
1260;
3;1,1,0;
3;0,0,1;
3;2,3,3;
3;3,2,2;
3;4,5,4;
3;5,4,5;
3;6,7,6;
3;7,6,7;
3;8,8,8;
3;8,8,8;
3;9,9,9;
3;9,9,9;
3;10,10,10;
3;10,10,10;
3;11,11,11;
3;11,11,11;
3;13,13,12;
3;12,12,13;
3;14,15,15;
3;15,14,14;
3;16,16,16;
3;16,16,16;
3;16,16,16;
3;17,17,17;
3;17,17,17;
3;17,17,17;
3;18,18,18;
3;18,18,18;
3;18,18,18;
3;19,19,19;
3;19,19,19;
3;19,19,19;
3;20,20,20;
3;20,20,20;
3;21,21,21;
3;21,21,21;
3;22,22,22;
3;22,22,22;
3;23,23,23;
3;23,23,23;
3;0,0,24;
3;24,24,0;
3;25,2,2;
3;2,25,25;
3;24,24,13;
3;13,13,24;
3;15,25,25;
3;25,15,15;
3;18,18,18;
3;18,18,18;
3;18,18,18;
3;18,18,18;
3;18,18,18;
3;18,18,18;
3;18,18,18;
3;18,18,18;
3;18,18,18;
3;18,18,18;
3;18,18,18;
3;18,18,18;
3;18,18,18;
3;18,18,18;
3;18,18,18;
3;18,18,18;
3;18,18,18;
3;18,18,18;
3;18,18,18;
3;18,18,18;
3;18,18,18;
3;18,18,18;
3;18,18,18;
3;18,18,18;
3;18,18,18;
3;18,18,18;
3;18,18,18;
3;18,18,18;
3;18,18,18;
3;18,18,18;
3;18,18,18;
3;18,18,18;
3;18,18,18;
3;18,18,18;
3;18,18,18;
3;18,18,18;
3;18,18,18;
3;18,18,18;
3;18,18,18;
3;18,18,18;
3;18,18,18;
3;18,18,18;
3;18,18,18;
3;18,18,18;
3;18,18,18;
3;18,18,18;
3;18,18,18;
3;18,18,18;
3;18,18,18;
3;18,18,18;
3;18,18,18;
3;18,18,18;
3;18,18,18;
3;18,18,18;
3;18,18,18;
3;18,18,18;
3;18,18,18;
3;18,18,18;
3;18,18,18;
3;18,18,18;
3;18,18,18;
3;18,18,18;
3;18,18,18;
3;19,19,19;
3;19,19,19;
3;19,19,19;
3;19,19,19;
3;19,19,19;
3;19,19,19;
3;19,19,19;
3;19,19,19;
3;19,19,19;
3;19,19,19;
3;19,19,19;
3;19,19,19;
3;19,19,19;
3;19,19,19;
3;19,19,19;
3;19,19,19;
3;19,19,19;
3;19,19,19;
3;19,19,19;
3;19,19,19;
3;19,19,19;
3;19,19,19;
3;19,19,19;
3;19,19,19;
3;19,19,19;
3;19,19,19;
3;19,19,19;
3;19,19,19;
3;19,19,19;
3;19,19,19;
3;19,19,19;
3;19,19,19;
3;19,19,19;
3;19,19,19;
3;19,19,19;
3;19,19,19;
3;19,19,19;
3;19,19,19;
3;19,19,19;
3;19,19,19;
3;19,19,19;
3;19,19,19;
3;19,19,19;
3;19,19,19;
3;19,19,19;
3;19,19,19;
3;19,19,19;
3;19,19,19;
3;19,19,19;
3;19,19,19;
3;19,19,19;
3;19,19,19;
3;19,19,19;
3;19,19,19;
3;19,19,19;
3;19,19,19;
3;19,19,19;
3;19,19,19;
3;19,19,19;
3;19,19,19;
3;19,19,19;
3;19,19,19;
3;19,19,19;
3;10,10,10;
3;10,10,10;
3;11,11,11;
3;11,11,11;
3;26,26,26;
3;26,26,26;
3;27,27,27;
3;27,27,27;
3;5,28,5;
3;28,5,28;
3;7,29,7;
3;29,7,29;
3;31,31,30;
3;30,30,31;
3;32,33,33;
3;33,32,32;
3;35,35,34;
3;34,34,35;
3;36,37,37;
3;37,36,36;
3;38,4,38;
3;4,38,4;
3;39,6,39;
3;6,39,6;
3;40,41,40;
3;41,40,41;
3;42,43,42;
3;43,42,43;
3;45,45,44;
3;44,44,45;
3;46,47,47;
3;47,46,46;
3;49,49,48;
3;48,48,49;
3;50,51,51;
3;51,50,50;
3;52,35,52;
3;35,52,35;
3;53,37,53;
3;37,53,37;
3;54,55,54;
3;55,54,55;
3;56,57,56;
3;57,56,57;
3;10,10,10;
3;10,10,10;
3;10,10,10;
3;10,10,10;
3;10,10,10;
3;10,10,10;
3;10,10,10;
3;10,10,10;
3;10,10,10;
3;10,10,10;
3;10,10,10;
3;10,10,10;
3;10,10,10;
3;10,10,10;
3;10,10,10;
3;10,10,10;
3;10,10,10;
3;10,10,10;
3;10,10,10;
3;10,10,10;
3;10,10,10;
3;10,10,10;
3;10,10,10;
3;10,10,10;
3;10,10,10;
3;10,10,10;
3;10,10,10;
3;10,10,10;
3;10,10,10;
3;10,10,10;
3;10,10,10;
3;10,10,10;
3;10,10,10;
3;10,10,10;
3;10,10,10;
3;10,10,10;
3;10,10,10;
3;10,10,10;
3;10,10,10;
3;10,10,10;
3;10,10,10;
3;10,10,10;
3;10,10,10;
3;10,10,10;
3;10,10,10;
3;10,10,10;
3;10,10,10;
3;10,10,10;
3;10,10,10;
3;10,10,10;
3;10,10,10;
3;10,10,10;
3;10,10,10;
3;10,10,10;
3;10,10,10;
3;10,10,10;
3;10,10,10;
3;10,10,10;
3;10,10,10;
3;10,10,10;
3;10,10,10;
3;11,11,11;
3;11,11,11;
3;11,11,11;
3;11,11,11;
3;11,11,11;
3;11,11,11;
3;11,11,11;
3;11,11,11;
3;11,11,11;
3;11,11,11;
3;11,11,11;
3;11,11,11;
3;11,11,11;
3;11,11,11;
3;11,11,11;
3;11,11,11;
3;11,11,11;
3;11,11,11;
3;11,11,11;
3;11,11,11;
3;11,11,11;
3;11,11,11;
3;11,11,11;
3;11,11,11;
3;11,11,11;
3;11,11,11;
3;11,11,11;
3;11,11,11;
3;11,11,11;
3;11,11,11;
3;11,11,11;
3;11,11,11;
3;11,11,11;
3;11,11,11;
3;11,11,11;
3;11,11,11;
3;11,11,11;
3;11,11,11;
3;11,11,11;
3;11,11,11;
3;11,11,11;
3;11,11,11;
3;11,11,11;
3;11,11,11;
3;11,11,11;
3;11,11,11;
3;11,11,11;
3;11,11,11;
3;11,11,11;
3;11,11,11;
3;11,11,11;
3;11,11,11;
3;11,11,11;
3;11,11,11;
3;11,11,11;
3;11,11,11;
3;11,11,11;
3;11,11,11;
3;11,11,11;
3;11,11,11;
3;11,11,11;
3;58,58,58;
3;58,58,58;
3;59,59,59;
3;59,59,59;
3;1,54,1;
3;54,1,54;
3;3,56,3;
3;56,3,56;
3;41,41,49;
3;49,49,41;
3;51,43,43;
3;43,51,51;
3;60,61,60;
3;61,60,61;
3;62,63,62;
3;63,62,63;
3;64,64,64;
3;64,64,64;
3;65,65,65;
3;65,65,65;
3;34,34,45;
3;45,45,34;
3;47,36,36;
3;36,47,47;
3;67,67,66;
3;66,66,67;
3;68,69,69;
3;69,68,68;
3;44,44,40;
3;40,40,44;
3;42,46,46;
3;46,42,42;
3;55,38,55;
3;38,55,38;
3;57,39,57;
3;39,57,39;
3;70,70,52;
3;52,52,70;
3;53,71,71;
3;71,53,53;
3;28,60,28;
3;60,28,60;
3;29,62,29;
3;62,29,62;
3;73,73,72;
3;72,72,73;
3;74,75,75;
3;75,74,74;
3;77,77,76;
3;76,76,77;
3;78,79,79;
3;79,78,78;
3;81,81,80;
3;80,80,81;
3;82,83,83;
3;83,82,82;
3;85,85,84;
3;84,84,85;
3;84,84,84;
3;84,84,84;
3;86,87,87;
3;87,86,86;
3;86,86,86;
3;86,86,86;
3;88,77,88;
3;77,88,77;
3;89,79,89;
3;79,89,79;
3;91,91,90;
3;90,90,91;
3;92,93,93;
3;93,92,92;
3;94,73,94;
3;73,94,73;
3;95,75,95;
3;75,95,75;
3;72,72,88;
3;88,88,72;
3;89,74,74;
3;74,89,89;
3;76,96,76;
3;96,76,96;
3;78,97,78;
3;97,78,97;
3;98,98,98;
3;98,98,98;
3;99,99,99;
3;99,99,99;
3;101,101,100;
3;100,100,101;
3;102,103,103;
3;103,102,102;
3;105,105,104;
3;104,104,105;
3;106,107,107;
3;107,106,106;
3;90,90,85;
3;108,85,90;
3;85,85,108;
3;85,108,90;
3;108,90,108;
3;85,108,85;
3;87,92,92;
3;92,87,109;
3;109,87,87;
3;92,109,87;
3;109,92,109;
3;87,109,87;
3;64,64,64;
3;64,64,64;
3;65,65,65;
3;65,65,65;
3;96,110,96;
3;111,96,110;
3;110,111,110;
3;96,96,110;
3;111,110,96;
3;111,110,111;
3;97,112,97;
3;112,97,113;
3;112,113,112;
3;112,97,97;
3;97,112,113;
3;113,112,113;
3;114,114,81;
3;81,81,114;
3;83,115,115;
3;115,83,83;
3;116,116,101;
3;101,101,116;
3;103,117,117;
3;117,103,103;
3;104,104,114;
3;114,114,104;
3;115,106,106;
3;106,115,115;
3;111,111,118;
3;118,118,111;
3;119,113,113;
3;113,119,119;
3;120,120,120;
3;120,120,120;
3;121,121,121;
3;121,121,121;
3;122,122,116;
3;116,116,122;
3;117,123,123;
3;123,117,117;
3;125,125,124;
3;124,124,125;
3;126,127,127;
3;127,126,126;
3;124,124,105;
3;105,105,124;
3;107,126,126;
3;126,107,107;
3;128,128,125;
3;125,125,128;
3;127,129,129;
3;129,127,127;
3;80,80,122;
3;122,122,80;
3;123,82,82;
3;82,123,123;
3;130,130,130;
3;130,130,130;
3;131,131,131;
3;131,131,131;
3;132,132,128;
3;128,128,132;
3;129,133,133;
3;133,129,129;
3;134,134,134;
3;134,134,134;
3;135,135,135;
3;135,135,135;
3;65,65,65;
3;65,65,65;
3;64,64,64;
3;64,64,64;
3;64,64,64;
3;64,64,64;
3;65,65,65;
3;65,65,65;
3;23,23,23;
3;23,23,23;
3;22,22,22;
3;22,22,22;
3;137,137,136;
3;136,136,137;
3;138,139,139;
3;139,138,138;
3;141,141,140;
3;140,140,141;
3;142,143,143;
3;143,142,142;
3;145,145,144;
3;144,144,145;
3;146,147,147;
3;147,146,146;
3;149,149,148;
3;148,148,149;
3;150,151,151;
3;151,150,150;
3;153,153,152;
3;152,152,153;
3;154,155,155;
3;155,154,154;
3;156,156,153;
3;153,153,156;
3;155,157,157;
3;157,155,155;
3;10,10,10;
3;10,10,10;
3;10,10,10;
3;10,10,10;
3;10,10,10;
3;10,10,10;
3;10,10,10;
3;10,10,10;
3;10,10,10;
3;10,10,10;
3;10,10,10;
3;10,10,10;
3;10,10,10;
3;10,10,10;
3;10,10,10;
3;10,10,10;
3;10,10,10;
3;10,10,10;
3;10,10,10;
3;10,10,10;
3;10,10,10;
3;10,10,10;
3;10,10,10;
3;10,10,10;
3;10,10,10;
3;10,10,10;
3;10,10,10;
3;10,10,10;
3;10,10,10;
3;10,10,10;
3;10,10,10;
3;10,10,10;
3;11,11,11;
3;11,11,11;
3;11,11,11;
3;11,11,11;
3;11,11,11;
3;11,11,11;
3;11,11,11;
3;11,11,11;
3;11,11,11;
3;11,11,11;
3;11,11,11;
3;11,11,11;
3;11,11,11;
3;11,11,11;
3;11,11,11;
3;11,11,11;
3;11,11,11;
3;11,11,11;
3;11,11,11;
3;11,11,11;
3;11,11,11;
3;11,11,11;
3;11,11,11;
3;11,11,11;
3;11,11,11;
3;11,11,11;
3;11,11,11;
3;11,11,11;
3;11,11,11;
3;11,11,11;
3;11,11,11;
3;11,11,11;
3;158,158,141;
3;141,141,158;
3;143,159,159;
3;159,143,143;
3;11,11,11;
3;11,11,11;
3;11,11,11;
3;11,11,11;
3;11,11,11;
3;11,11,11;
3;11,11,11;
3;11,11,11;
3;11,11,11;
3;11,11,11;
3;11,11,11;
3;11,11,11;
3;11,11,11;
3;11,11,11;
3;11,11,11;
3;11,11,11;
3;11,11,11;
3;11,11,11;
3;11,11,11;
3;11,11,11;
3;11,11,11;
3;11,11,11;
3;11,11,11;
3;11,11,11;
3;11,11,11;
3;11,11,11;
3;11,11,11;
3;11,11,11;
3;11,11,11;
3;11,11,11;
3;11,11,11;
3;11,11,11;
3;10,10,10;
3;10,10,10;
3;10,10,10;
3;10,10,10;
3;10,10,10;
3;10,10,10;
3;10,10,10;
3;10,10,10;
3;10,10,10;
3;10,10,10;
3;10,10,10;
3;10,10,10;
3;10,10,10;
3;10,10,10;
3;10,10,10;
3;10,10,10;
3;10,10,10;
3;10,10,10;
3;10,10,10;
3;10,10,10;
3;10,10,10;
3;10,10,10;
3;10,10,10;
3;10,10,10;
3;10,10,10;
3;10,10,10;
3;10,10,10;
3;10,10,10;
3;10,10,10;
3;10,10,10;
3;10,10,10;
3;10,10,10;
3;136,136,160;
3;160,160,136;
3;161,138,138;
3;138,161,161;
3;144,144,149;
3;149,149,144;
3;151,146,146;
3;146,151,151;
3;162,162,137;
3;137,137,162;
3;139,163,163;
3;163,139,139;
3;27,27,27;
3;27,27,27;
3;26,26,26;
3;26,26,26;
3;152,152,145;
3;145,145,152;
3;147,154,154;
3;154,147,147;
3;140,140,162;
3;162,162,140;
3;163,142,142;
3;142,163,163;
3;26,26,26;
3;26,26,26;
3;27,27,27;
3;27,27,27;
3;165,165,164;
3;164,164,165;
3;166,167,167;
3;167,166,166;
3;165,168,165;
3;164,165,168;
3;168,164,168;
3;164,164,168;
3;165,164,165;
3;168,165,164;
3;167,169,167;
3;169,167,166;
3;169,166,169;
3;169,166,166;
3;167,166,167;
3;166,167,169;
3;171,171,170;
3;170,170,171;
3;172,173,173;
3;173,172,172;
3;171,171,170;
3;170,170,171;
3;172,173,173;
3;173,172,172;
3;174,175,174;
3;175,174,175;
3;176,177,176;
3;177,176,177;
3;174,174,175;
3;175,175,174;
3;177,176,176;
3;176,177,177;
3;178,171,178;
3;171,178,171;
3;179,173,179;
3;173,179,173;
3;178,178,171;
3;171,171,178;
3;173,179,179;
3;179,173,173;
3;164,48,164;
3;48,164,48;
3;166,50,166;
3;50,166,50;
3;164,164,180;
3;180,180,164;
3;181,166,166;
3;166,181,181;
3;170,170,174;
3;174,174,170;
3;176,172,172;
3;172,176,176;
3;170,174,170;
3;174,170,174;
3;172,176,172;
3;176,172,176;
3;182,182,178;
3;178,178,182;
3;179,183,183;
3;183,179,179;
3;182,182,178;
3;178,178,182;
3;179,183,183;
3;183,179,179;
3;175,175,165;
3;165,165,175;
3;167,177,177;
3;177,167,167;
3;175,175,165;
3;184,165,175;
3;184,165,184;
3;165,165,184;
3;165,184,175;
3;184,175,184;
3;184,184,165;
3;165,184,165;
3;167,177,177;
3;177,167,185;
3;185,167,185;
3;185,167,167;
3;177,185,167;
3;185,177,185;
3;167,185,185;
3;167,185,167;
3;77,77,76;
3;76,76,77;
3;78,79,79;
3;79,78,78;
3;186,187,186;
3;187,186,187;
3;188,189,188;
3;189,188,189;
3;30,30,70;
3;67,70,30;
3;70,70,67;
3;66,67,30;
3;67,30,67;
3;66,67,66;
3;71,32,32;
3;32,71,69;
3;69,71,71;
3;32,69,68;
3;69,32,69;
3;68,69,68;
3;94,94,73;
3;73,73,94;
3;75,95,95;
3;95,75,75;
3;94,94,73;
3;73,73,94;
3;75,95,95;
3;95,75,75;
3;88,88,77;
3;77,77,88;
3;79,89,89;
3;89,79,79;
3;88,88,186;
3;186,186,88;
3;188,89,89;
3;89,188,188;
3;66,66,182;
3;182,182,66;
3;183,68,68;
3;68,183,183;
3;66,182,66;
3;182,66,182;
3;68,183,68;
3;183,68,183;
3;76,76,96;
3;96,96,76;
3;97,78,78;
3;78,97,97;
3;187,187,96;
3;96,96,187;
3;97,189,189;
3;189,97,97;
3;91,90,91;
3;90,91,90;
3;93,92,93;
3;92,93,92;
3;91,91,90;
3;90,90,91;
3;92,93,93;
3;93,92,92;
3;73,72,73;
3;72,73,72;
3;75,74,75;
3;74,75,74;
3;73,73,72;
3;72,72,73;
3;74,75,75;
3;75,74,74;
3;96,96,110;
3;110,110,96;
3;112,97,97;
3;97,112,112;
3;72,88,72;
3;88,72,88;
3;74,89,74;
3;89,74,89;
3;72,72,88;
3;88,88,72;
3;89,74,74;
3;74,89,89;
3;90,85,90;
3;85,90,85;
3;92,87,92;
3;87,92,87;
3;90,90,85;
3;85,85,90;
3;87,92,92;
3;92,87,87;
3;85,94,85;
3;94,85,94;
3;87,95,87;
3;95,87,95;
3;85,85,94;
3;94,94,85;
3;95,87,87;
3;87,95,95;
3;120,120,120;
3;120,120,120;
3;121,121,121;
3;121,121,121;
3;23,23,23;
3;23,23,23;
3;23,23,23;
3;23,23,23;
3;23,23,23;
3;23,23,23;
3;23,23,23;
3;23,23,23;
3;22,22,22;
3;22,22,22;
3;22,22,22;
3;22,22,22;
3;22,22,22;
3;22,22,22;
3;22,22,22;
3;22,22,22;
3;22,22,22;
3;22,22,22;
3;22,22,22;
3;23,23,23;
3;23,23,23;
3;23,23,23;
3;22,22,22;
3;22,22,22;
3;23,23,23;
3;23,23,23;
3;190,190,190;
3;190,190,190;
3;191,191,191;
3;191,191,191;
3;64,64,64;
3;64,64,64;
3;65,65,65;
3;65,65,65;
3;192,192,192;
3;192,192,192;
3;193,193,193;
3;193,193,193;
3;18,18,18;
3;18,18,18;
3;19,19,19;
3;19,19,19;
3;23,23,23;
3;23,23,23;
3;22,22,22;
3;22,22,22;
3;26,26,26;
3;26,26,26;
3;27,27,27;
3;27,27,27;
3;18,18,18;
3;18,18,18;
3;18,18,18;
3;18,18,18;
3;18,18,18;
3;19,19,19;
3;19,19,19;
3;19,19,19;
3;19,19,19;
3;19,19,19;
3;21,21,21;
3;21,21,21;
3;20,20,20;
3;20,20,20;
3;120,120,120;
3;120,120,120;
3;120,120,120;
3;120,120,120;
3;120,120,120;
3;120,120,120;
3;121,121,121;
3;121,121,121;
3;121,121,121;
3;121,121,121;
3;121,121,121;
3;121,121,121;
3;22,22,22;
3;22,22,22;
3;23,23,23;
3;23,23,23;
3;18,18,18;
3;18,18,18;
3;19,19,19;
3;19,19,19;
3;22,22,22;
3;22,22,22;
3;22,22,22;
3;22,22,22;
3;22,22,22;
3;22,22,22;
3;22,22,22;
3;22,22,22;
3;23,23,23;
3;23,23,23;
3;23,23,23;
3;23,23,23;
3;23,23,23;
3;23,23,23;
3;23,23,23;
3;23,23,23;
3;135,135,135;
3;135,135,135;
3;134,134,134;
3;134,134,134;
3;23,23,23;
3;23,23,23;
3;22,22,22;
3;22,22,22;
3;11,11,11;
3;11,11,11;
3;11,11,11;
3;11,11,11;
3;10,10,10;
3;10,10,10;
3;10,10,10;
3;10,10,10;
3;120,120,120;
3;120,120,120;
3;121,121,121;
3;121,121,121;
3;19,19,19;
3;19,19,19;
3;19,19,19;
3;19,19,19;
3;19,19,19;
3;18,18,18;
3;18,18,18;
3;18,18,18;
3;18,18,18;
3;18,18,18;
3;65,65,65;
3;65,65,65;
3;65,65,65;
3;65,65,65;
3;64,64,64;
3;64,64,64;
3;64,64,64;
3;64,64,64;
3;194,194,194;
3;194,194,194;
3;195,195,195;
3;195,195,195;
3;121,121,121;
3;121,121,121;
3;121,121,121;
3;121,121,121;
3;121,121,121;
3;121,121,121;
3;120,120,120;
3;120,120,120;
3;120,120,120;
3;120,120,120;
3;120,120,120;
3;120,120,120;
3;65,65,65;
3;65,65,65;
3;64,64,64;
3;64,64,64;
3;23,23,23;
3;23,23,23;
3;22,22,22;
3;22,22,22;
3;23,23,23;
3;23,23,23;
3;23,23,23;
3;23,23,23;
3;23,23,23;
3;23,23,23;
3;23,23,23;
3;23,23,23;
3;23,23,23;
3;23,23,23;
3;22,22,22;
3;22,22,22;
3;22,22,22;
3;22,22,22;
3;22,22,22;
3;22,22,22;
3;22,22,22;
3;22,22,22;
3;22,22,22;
3;22,22,22;
3;26,26,26;
3;26,26,26;
3;27,27,27;
3;27,27,27;
3;120,120,120;
3;120,120,120;
3;121,121,121;
3;121,121,121;
3;64,64,64;
3;64,64,64;
3;64,64,64;
3;64,64,64;
3;64,64,64;
3;64,64,64;
3;64,64,64;
3;64,64,64;
3;64,64,64;
3;64,64,64;
3;65,65,65;
3;65,65,65;
3;65,65,65;
3;65,65,65;
3;65,65,65;
3;65,65,65;
3;65,65,65;
3;65,65,65;
3;65,65,65;
3;65,65,65;
3;26,26,26;
3;26,26,26;
3;27,27,27;
3;27,27,27;
3;64,64,64;
3;64,64,64;
3;65,65,65;
3;65,65,65;
3;65,65,65;
3;65,65,65;
3;64,64,64;
3;64,64,64;
3;11,11,11;
3;11,11,11;
3;11,11,11;
3;11,11,11;
3;10,10,10;
3;10,10,10;
3;10,10,10;
3;10,10,10;
3;196,196,196;
3;196,196,196;
3;197,197,197;
3;197,197,197;
3;198,198,198;
3;198,198,198;
3;198,198,198;
3;199,199,199;
3;199,199,199;
3;199,199,199;
3;19,19,19;
3;19,19,19;
3;19,19,19;
3;19,19,19;
3;19,19,19;
3;18,18,18;
3;18,18,18;
3;18,18,18;
3;18,18,18;
3;18,18,18;
3;18,18,18;
3;18,18,18;
3;18,18,18;
3;18,18,18;
3;18,18,18;
3;19,19,19;
3;19,19,19;
3;19,19,19;
3;19,19,19;
3;19,19,19;
3;10,10,10;
3;10,10,10;
3;10,10,10;
3;10,10,10;
3;11,11,11;
3;11,11,11;
3;11,11,11;
3;11,11,11;
3;120,120,120;
3;120,120,120;
3;121,121,121;
3;121,121,121;
3;18,18,18;
3;18,18,18;
3;19,19,19;
3;19,19,19;
3;27,27,27;
3;27,27,27;
3;27,27,27;
3;27,27,27;
3;27,27,27;
3;27,27,27;
3;26,26,26;
3;26,26,26;
3;26,26,26;
3;26,26,26;
3;26,26,26;
3;26,26,26;
3;26,26,26;
3;26,26,26;
3;27,27,27;
3;27,27,27;
3;26,26,26;
3;26,26,26;
3;26,26,26;
3;26,26,26;
3;26,26,26;
3;26,26,26;
3;27,27,27;
3;27,27,27;
3;27,27,27;
3;27,27,27;
3;27,27,27;
3;27,27,27;
3;10,10,10;
3;10,10,10;
3;10,10,10;
3;10,10,10;
3;11,11,11;
3;11,11,11;
3;11,11,11;
3;11,11,11;
3;199,199,199;
3;199,199,199;
3;198,198,198;
3;198,198,198;
3;19,19,19;
3;19,19,19;
3;18,18,18;
3;18,18,18;
3;200,200,200;
3;200,200,200;
3;201,201,201;
3;201,201,201;
3;199,199,199;
3;199,199,199;
3;198,198,198;
3;198,198,198;
3;196,196,196;
3;196,196,196;
3;197,197,197;
3;197,197,197;
3;85,84,85;
3;94,85,84;
3;84,94,84;
3;94,94,84;
3;85,85,84;
3;94,84,85;
3;84,84,94;
3;84,84,94;
3;87,86,87;
3;86,87,95;
3;86,95,86;
3;86,95,95;
3;86,87,87;
3;87,86,95;
3;95,86,86;
3;95,86,86;
3;108,108,85;
3;85,85,108;
3;87,109,109;
3;109,87,87;
3;165,165,168;
3;168,168,165;
3;169,167,167;
3;167,169,169;
3;184,184,184;
3;184,184,184;
3;165,184,184;
3;165,165,184;
3;185,185,185;
3;185,185,185;
3;185,185,167;
3;185,167,167;;
  }
}
