xof 0303txt 0032
template Vector {
 <3d82ab5e-62da-11cf-ab39-0020af71e433>
 FLOAT x;
 FLOAT y;
 FLOAT z;
}

template MeshFace {
 <3d82ab5f-62da-11cf-ab39-0020af71e433>
 DWORD nFaceVertexIndices;
 array DWORD faceVertexIndices[nFaceVertexIndices];
}

template Mesh {
 <3d82ab44-62da-11cf-ab39-0020af71e433>
 DWORD nVertices;
 array Vector vertices[nVertices];
 DWORD nFaces;
 array MeshFace faces[nFaces];
 [...]
}

template ColorRGBA {
 <35ff44e0-6c7c-11cf-8f52-0040333594a3>
 FLOAT red;
 FLOAT green;
 FLOAT blue;
 FLOAT alpha;
}

template ColorRGB {
 <d3e16e81-7835-11cf-8f52-0040333594a3>
 FLOAT red;
 FLOAT green;
 FLOAT blue;
}

template Material {
 <3d82ab4d-62da-11cf-ab39-0020af71e433>
 ColorRGBA faceColor;
 FLOAT power;
 ColorRGB specularColor;
 ColorRGB emissiveColor;
 [...]
}

template MeshMaterialList {
 <f6f23f42-7686-11cf-8f52-0040333594a3>
 DWORD nMaterials;
 DWORD nFaceIndexes;
 array DWORD faceIndexes[nFaceIndexes];
 [Material <3d82ab4d-62da-11cf-ab39-0020af71e433>]
}

template TextureFilename {
 <a42790e1-7810-11cf-8f52-0040333594a3>
 STRING filename;
}

template Coords2d {
 <f6f23f44-7686-11cf-8f52-0040333594a3>
 FLOAT u;
 FLOAT v;
}

template MeshTextureCoords {
 <f6f23f40-7686-11cf-8f52-0040333594a3>
 DWORD nTextureCoords;
 array Coords2d textureCoords[nTextureCoords];
}

template MeshNormals {
 <f6f23f43-7686-11cf-8f52-0040333594a3>
 DWORD nNormals;
 array Vector normals[nNormals];
 DWORD nFaceNormals;
 array MeshFace faceNormals[nFaceNormals];
}


Mesh  {
 224;
 -1.500000;0.950000;0.000000;,
 -1.500000;1.100000;0.000000;,
 -2.700000;1.100000;0.000000;,
 -1.500000;0.950000;25.000000;,
 -1.500000;1.100000;25.000000;,
 -2.700000;1.100000;25.000000;,
 -2.700000;1.100000;0.000000;,
 -2.700000;1.100000;25.000000;,
 -4.100000;1.100000;0.000000;,
 -4.100000;1.100000;25.000000;,
 -4.100000;1.100000;0.000000;,
 -4.100000;2.300000;0.000000;,
 -4.100000;1.100000;14.500000;,
 -4.100000;2.300000;14.500000;,
 -4.100000;-1.000000;3.500000;,
 -4.100000;0.950000;3.500000;,
 -1.500000;0.950000;3.500000;,
 -1.500000;-1.000000;3.500000;,
 -4.100000;-1.000000;9.500000;,
 -4.100000;0.950000;9.500000;,
 -1.500000;0.950000;9.500000;,
 -1.500000;-1.000000;9.500000;,
 -4.100000;-1.000000;15.500000;,
 -4.100000;0.950000;15.500000;,
 -1.500000;0.950000;15.500000;,
 -1.500000;-1.000000;15.500000;,
 -4.100000;-1.000000;21.500000;,
 -4.100000;0.950000;21.500000;,
 -1.500000;0.950000;21.500000;,
 -1.500000;-1.000000;21.500000;,
 -4.100000;1.100000;15.500000;,
 -4.100000;4.100000;15.500000;,
 -3.800000;4.100000;15.500000;,
 -3.800000;1.100000;15.500000;,
 -4.100000;1.100000;21.500000;,
 -4.100000;4.100000;21.500000;,
 -3.800000;4.100000;21.500000;,
 -3.800000;1.100000;21.500000;,
 -4.100000;1.100000;14.500000;,
 -4.100000;3.900000;14.500000;,
 -4.100000;1.100000;27.500000;,
 -4.100000;3.900000;27.500000;,
 -4.090000;3.800000;14.500000;,
 -4.090000;4.100000;14.500000;,
 -4.090000;3.800000;25.000000;,
 -4.090000;4.100000;25.000000;,
 -2.100000;3.900000;14.500000;,
 -2.100000;4.200000;14.500000;,
 -2.100000;3.900000;25.000000;,
 -2.100000;4.200000;25.000000;,
 -4.100000;3.800000;15.500000;,
 -4.100000;4.100000;15.500000;,
 -2.100000;3.900000;15.500000;,
 -2.100000;4.200000;15.500000;,
 -4.100000;3.950000;18.500000;,
 -4.100000;4.100000;18.500000;,
 -2.100000;4.050000;18.500000;,
 -2.100000;4.200000;18.500000;,
 -4.100000;3.800000;21.500000;,
 -4.100000;4.100000;21.500000;,
 -2.100000;3.900000;21.500000;,
 -2.100000;4.200000;21.500000;,
 -4.100000;3.950000;24.500000;,
 -4.100000;4.100000;24.500000;,
 -2.100000;4.050000;24.500000;,
 -2.100000;4.200000;24.500000;,
 -4.100000;4.100000;14.500000;,
 -4.100000;4.100000;25.000000;,
 -1.500000;4.230000;14.500000;,
 -1.500000;4.230000;25.000000;,
 -1.500000;4.230000;14.500000;,
 -1.500000;4.430000;14.500000;,
 -1.500000;4.230000;25.000000;,
 -1.500000;4.430000;25.000000;,
 -4.400000;3.785000;14.500000;,
 -4.400000;4.285000;14.500000;,
 -2.100000;3.900000;14.500000;,
 -2.100000;4.200000;14.500000;,
 -1.500000;4.230000;14.500000;,
 -1.500000;4.430000;14.500000;,
 -3.460000;-0.500000;3.200000;,
 -3.460000;-1.000000;3.200000;,
 -4.059999;-1.000000;3.200000;,
 -4.059999;-0.500000;3.200000;,
 -3.460000;-0.500000;3.800000;,
 -3.460000;-1.000000;3.800000;,
 -4.059999;-1.000000;3.800000;,
 -4.059999;-0.500000;3.800000;,
 -3.460000;-0.500000;9.199999;,
 -3.460000;-1.000000;9.199999;,
 -4.059999;-1.000000;9.199999;,
 -4.059999;-0.500000;9.199999;,
 -3.460000;-0.500000;9.799999;,
 -3.460000;-1.000000;9.799999;,
 -4.059999;-1.000000;9.799999;,
 -4.059999;-0.500000;9.799999;,
 -3.460000;-0.500000;15.199999;,
 -3.460000;-1.000000;15.199999;,
 -4.059999;-1.000000;15.199999;,
 -4.059999;-0.500000;15.199999;,
 -3.460000;-0.500000;15.799999;,
 -3.460000;-1.000000;15.799999;,
 -4.059999;-1.000000;15.799999;,
 -4.059999;-0.500000;15.799999;,
 -3.460000;-0.500000;21.199999;,
 -3.460000;-1.000000;21.199999;,
 -4.059999;-1.000000;21.199999;,
 -4.059999;-0.500000;21.199999;,
 -3.460000;-0.500000;21.799997;,
 -3.460000;-1.000000;21.799997;,
 -4.059999;-1.000000;21.799997;,
 -4.059999;-0.500000;21.799997;,
 5.300000;0.950000;0.000000;,
 5.300000;1.100000;0.000000;,
 6.500000;1.100000;0.000000;,
 5.300000;0.950000;25.000000;,
 5.300000;1.100000;25.000000;,
 6.500000;1.100000;25.000000;,
 6.500000;1.100000;0.000000;,
 6.500000;1.100000;25.000000;,
 7.900000;1.100000;0.000000;,
 7.900000;1.100000;25.000000;,
 7.900000;1.100000;0.000000;,
 7.900000;2.300000;0.000000;,
 7.900000;1.100000;14.500000;,
 7.900000;2.300000;14.500000;,
 7.900000;-1.000000;3.500000;,
 7.900000;0.950000;3.500000;,
 5.300000;0.950000;3.500000;,
 5.300000;-1.000000;3.500000;,
 7.900000;-1.000000;9.500000;,
 7.900000;0.950000;9.500000;,
 5.300000;0.950000;9.500000;,
 5.300000;-1.000000;9.500000;,
 7.900000;-1.000000;15.500000;,
 7.900000;0.950000;15.500000;,
 5.300000;0.950000;15.500000;,
 5.300000;-1.000000;15.500000;,
 7.900000;-1.000000;21.500000;,
 7.900000;0.950000;21.500000;,
 5.300000;0.950000;21.500000;,
 5.300000;-1.000000;21.500000;,
 7.900000;1.100000;15.500000;,
 7.900000;4.100000;15.500000;,
 7.600000;4.100000;15.500000;,
 7.600000;1.100000;15.500000;,
 7.900000;1.100000;21.500000;,
 7.900000;4.100000;21.500000;,
 7.600000;4.100000;21.500000;,
 7.600000;1.100000;21.500000;,
 7.900000;1.100000;14.500000;,
 7.900000;3.900000;14.500000;,
 7.900000;1.100000;26.500000;,
 7.900000;3.900000;26.500000;,
 7.890000;3.800000;14.500000;,
 7.890000;4.100000;14.500000;,
 7.890000;3.800000;25.000000;,
 7.890000;4.100000;25.000000;,
 5.900000;3.900000;14.500000;,
 5.900000;4.200000;14.500000;,
 5.900000;3.900000;25.000000;,
 5.900000;4.200000;25.000000;,
 7.900000;3.800000;15.500000;,
 7.900000;4.100000;15.500000;,
 5.900000;3.900000;15.500000;,
 5.900000;4.200000;15.500000;,
 7.900000;3.950000;18.500000;,
 7.900000;4.100000;18.500000;,
 5.900000;4.050000;18.500000;,
 5.900000;4.200000;18.500000;,
 7.900000;3.800000;21.500000;,
 7.900000;4.100000;21.500000;,
 5.900000;3.900000;21.500000;,
 5.900000;4.200000;21.500000;,
 7.900000;3.950000;24.500000;,
 7.900000;4.100000;24.500000;,
 5.900000;4.050000;24.500000;,
 5.900000;4.200000;24.500000;,
 7.900000;4.100000;14.500000;,
 7.900000;4.100000;25.000000;,
 5.300000;4.230000;14.500000;,
 5.300000;4.230000;25.000000;,
 5.300000;4.230000;14.500000;,
 5.300000;4.430000;14.500000;,
 5.300000;4.230000;25.000000;,
 5.300000;4.430000;25.000000;,
 8.200000;3.785000;14.500000;,
 8.200000;4.285000;14.500000;,
 5.900000;3.900000;14.500000;,
 5.900000;4.200000;14.500000;,
 5.300000;4.230000;14.500000;,
 5.300000;4.430000;14.500000;,
 7.860000;-0.500000;3.200000;,
 7.860000;-1.000000;3.200000;,
 7.259999;-1.000000;3.200000;,
 7.259999;-0.500000;3.200000;,
 7.860000;-0.500000;3.800000;,
 7.860000;-1.000000;3.800000;,
 7.259999;-1.000000;3.800000;,
 7.259999;-0.500000;3.800000;,
 7.860000;-0.500000;9.199999;,
 7.860000;-1.000000;9.199999;,
 7.259999;-1.000000;9.199999;,
 7.259999;-0.500000;9.199999;,
 7.860000;-0.500000;9.799999;,
 7.860000;-1.000000;9.799999;,
 7.259999;-1.000000;9.799999;,
 7.259999;-0.500000;9.799999;,
 7.860000;-0.500000;15.199999;,
 7.860000;-1.000000;15.199999;,
 7.259999;-1.000000;15.199999;,
 7.259999;-0.500000;15.199999;,
 7.860000;-0.500000;15.799999;,
 7.860000;-1.000000;15.799999;,
 7.259999;-1.000000;15.799999;,
 7.259999;-0.500000;15.799999;,
 7.860000;-0.500000;21.199999;,
 7.860000;-1.000000;21.199999;,
 7.259999;-1.000000;21.199999;,
 7.259999;-0.500000;21.199999;,
 7.860000;-0.500000;21.799997;,
 7.860000;-1.000000;21.799997;,
 7.259999;-1.000000;21.799997;,
 7.259999;-0.500000;21.799997;;
 180;
 3;0,1,4;,
 3;0,4,3;,
 3;1,2,5;,
 3;1,5,4;,
 3;8,9,7;,
 3;8,7,6;,
 3;10,11,13;,
 3;10,13,12;,
 3;14,15,16;,
 3;14,16,17;,
 3;18,19,20;,
 3;18,20,21;,
 3;22,23,24;,
 3;22,24,25;,
 3;26,27,28;,
 3;26,28,29;,
 3;30,31,32;,
 3;30,32,33;,
 3;34,35,36;,
 3;34,36,37;,
 3;38,39,41;,
 3;38,41,40;,
 3;42,43,45;,
 3;42,45,44;,
 3;46,47,49;,
 3;46,49,48;,
 3;50,51,53;,
 3;50,53,52;,
 3;54,55,57;,
 3;54,57,56;,
 3;58,59,61;,
 3;58,61,60;,
 3;62,63,65;,
 3;62,65,64;,
 3;68,69,67;,
 3;68,67,66;,
 3;70,71,73;,
 3;70,73,72;,
 3;74,75,77;,
 3;74,77,76;,
 3;75,79,78;,
 3;75,78,77;,
 3;80,81,82;,
 3;80,82,83;,
 3;83,82,86;,
 3;83,86,87;,
 3;87,86,85;,
 3;87,85,84;,
 3;84,85,81;,
 3;84,81,80;,
 3;80,83,87;,
 3;80,87,84;,
 3;81,85,86;,
 3;81,86,82;,
 3;88,89,90;,
 3;88,90,91;,
 3;91,90,94;,
 3;91,94,95;,
 3;95,94,93;,
 3;95,93,92;,
 3;92,93,89;,
 3;92,89,88;,
 3;88,91,95;,
 3;88,95,92;,
 3;89,93,94;,
 3;89,94,90;,
 3;96,97,98;,
 3;96,98,99;,
 3;99,98,102;,
 3;99,102,103;,
 3;103,102,101;,
 3;103,101,100;,
 3;100,101,97;,
 3;100,97,96;,
 3;96,99,103;,
 3;96,103,100;,
 3;97,101,102;,
 3;97,102,98;,
 3;104,105,106;,
 3;104,106,107;,
 3;107,106,110;,
 3;107,110,111;,
 3;111,110,109;,
 3;111,109,108;,
 3;108,109,105;,
 3;108,105,104;,
 3;104,107,111;,
 3;104,111,108;,
 3;105,109,110;,
 3;105,110,106;,
 3;115,116,113;,
 3;115,113,112;,
 3;116,117,114;,
 3;116,114,113;,
 3;118,119,121;,
 3;118,121,120;,
 3;124,125,123;,
 3;124,123,122;,
 3;129,128,127;,
 3;129,127,126;,
 3;133,132,131;,
 3;133,131,130;,
 3;137,136,135;,
 3;137,135,134;,
 3;141,140,139;,
 3;141,139,138;,
 3;145,144,143;,
 3;145,143,142;,
 3;149,148,147;,
 3;149,147,146;,
 3;152,153,151;,
 3;152,151,150;,
 3;156,157,155;,
 3;156,155,154;,
 3;160,161,159;,
 3;160,159,158;,
 3;164,165,163;,
 3;164,163,162;,
 3;168,169,167;,
 3;168,167,166;,
 3;172,173,171;,
 3;172,171,170;,
 3;176,177,175;,
 3;176,175,174;,
 3;178,179,181;,
 3;178,181,180;,
 3;184,185,183;,
 3;184,183,182;,
 3;188,189,187;,
 3;188,187,186;,
 3;189,190,191;,
 3;189,191,187;,
 3;192,193,194;,
 3;192,194,195;,
 3;195,194,198;,
 3;195,198,199;,
 3;199,198,197;,
 3;199,197,196;,
 3;196,197,193;,
 3;196,193,192;,
 3;192,195,199;,
 3;192,199,196;,
 3;193,197,198;,
 3;193,198,194;,
 3;200,201,202;,
 3;200,202,203;,
 3;203,202,206;,
 3;203,206,207;,
 3;207,206,205;,
 3;207,205,204;,
 3;204,205,201;,
 3;204,201,200;,
 3;200,203,207;,
 3;200,207,204;,
 3;201,205,206;,
 3;201,206,202;,
 3;208,209,210;,
 3;208,210,211;,
 3;211,210,214;,
 3;211,214,215;,
 3;215,214,213;,
 3;215,213,212;,
 3;212,213,209;,
 3;212,209,208;,
 3;208,211,215;,
 3;208,215,212;,
 3;209,213,214;,
 3;209,214,210;,
 3;216,217,218;,
 3;216,218,219;,
 3;219,218,222;,
 3;219,222,223;,
 3;223,222,221;,
 3;223,221,220;,
 3;220,221,217;,
 3;220,217,216;,
 3;216,219,223;,
 3;216,223,220;,
 3;217,221,222;,
 3;217,222,218;;

 MeshMaterialList  {
  46;
  180;
  0,
  0,
  0,
  0,
  1,
  1,
  2,
  2,
  3,
  3,
  4,
  4,
  5,
  5,
  6,
  6,
  7,
  7,
  8,
  8,
  9,
  9,
  10,
  10,
  11,
  11,
  12,
  12,
  13,
  13,
  14,
  14,
  15,
  15,
  16,
  16,
  17,
  17,
  18,
  18,
  18,
  18,
  19,
  19,
  19,
  19,
  19,
  19,
  19,
  19,
  19,
  19,
  19,
  19,
  20,
  20,
  20,
  20,
  20,
  20,
  20,
  20,
  20,
  20,
  20,
  20,
  21,
  21,
  21,
  21,
  21,
  21,
  21,
  21,
  21,
  21,
  21,
  21,
  22,
  22,
  22,
  22,
  22,
  22,
  22,
  22,
  22,
  22,
  22,
  22,
  23,
  23,
  23,
  23,
  24,
  24,
  25,
  25,
  26,
  26,
  27,
  27,
  28,
  28,
  29,
  29,
  30,
  30,
  31,
  31,
  32,
  32,
  33,
  33,
  34,
  34,
  35,
  35,
  36,
  36,
  37,
  37,
  38,
  38,
  39,
  39,
  40,
  40,
  41,
  41,
  41,
  41,
  42,
  42,
  42,
  42,
  42,
  42,
  42,
  42,
  42,
  42,
  42,
  42,
  43,
  43,
  43,
  43,
  43,
  43,
  43,
  43,
  43,
  43,
  43,
  43,
  44,
  44,
  44,
  44,
  44,
  44,
  44,
  44,
  44,
  44,
  44,
  44,
  45,
  45,
  45,
  45,
  45,
  45,
  45,
  45,
  45,
  45,
  45,
  45;

  Material  {
   1.000000;1.000000;1.000000;1.000000;;
   0.000000;
   0.000000;0.000000;0.000000;;
   0.000000;0.000000;0.000000;;

   TextureFilename  {
    "FormSide1.png";
   }
  }

  Material  {
   1.000000;1.000000;1.000000;1.000000;;
   0.000000;
   0.000000;0.000000;0.000000;;
   0.000000;0.000000;0.000000;;

   TextureFilename  {
    "FormC.png";
   }
  }

  Material  {
   1.000000;1.000000;1.000000;1.000000;;
   0.000000;
   0.000000;0.000000;0.000000;;
   0.000000;0.000000;0.000000;;

   TextureFilename  {
    "Saku1.png";
   }
  }

  Material  {
   1.000000;1.000000;1.000000;1.000000;;
   0.000000;
   0.000000;0.000000;0.000000;;
   0.000000;0.000000;0.000000;;

   TextureFilename  {
    "Iron1.png";
   }
  }

  Material  {
   1.000000;1.000000;1.000000;1.000000;;
   0.000000;
   0.000000;0.000000;0.000000;;
   0.000000;0.000000;0.000000;;

   TextureFilename  {
    "Iron1.png";
   }
  }

  Material  {
   1.000000;1.000000;1.000000;1.000000;;
   0.000000;
   0.000000;0.000000;0.000000;;
   0.000000;0.000000;0.000000;;

   TextureFilename  {
    "Iron1.png";
   }
  }

  Material  {
   1.000000;1.000000;1.000000;1.000000;;
   0.000000;
   0.000000;0.000000;0.000000;;
   0.000000;0.000000;0.000000;;

   TextureFilename  {
    "Iron1.png";
   }
  }

  Material  {
   1.000000;1.000000;1.000000;1.000000;;
   0.000000;
   0.000000;0.000000;0.000000;;
   0.000000;0.000000;0.000000;;

   TextureFilename  {
    "Iron2.png";
   }
  }

  Material  {
   1.000000;1.000000;1.000000;1.000000;;
   0.000000;
   0.000000;0.000000;0.000000;;
   0.000000;0.000000;0.000000;;

   TextureFilename  {
    "Iron2.png";
   }
  }

  Material  {
   1.000000;1.000000;1.000000;1.000000;;
   0.000000;
   0.000000;0.000000;0.000000;;
   0.000000;0.000000;0.000000;;

   TextureFilename  {
    "Wall1.png";
   }
  }

  Material  {
   1.000000;1.000000;1.000000;1.000000;;
   0.000000;
   0.000000;0.000000;0.000000;;
   0.000000;0.000000;0.000000;;

   TextureFilename  {
    "Iron2.png";
   }
  }

  Material  {
   1.000000;1.000000;1.000000;1.000000;;
   0.000000;
   0.000000;0.000000;0.000000;;
   0.000000;0.000000;0.000000;;

   TextureFilename  {
    "Iron2.png";
   }
  }

  Material  {
   1.000000;1.000000;1.000000;1.000000;;
   0.000000;
   0.000000;0.000000;0.000000;;
   0.000000;0.000000;0.000000;;

   TextureFilename  {
    "Iron2.png";
   }
  }

  Material  {
   1.000000;1.000000;1.000000;1.000000;;
   0.000000;
   0.000000;0.000000;0.000000;;
   0.000000;0.000000;0.000000;;

   TextureFilename  {
    "Iron2.png";
   }
  }

  Material  {
   1.000000;1.000000;1.000000;1.000000;;
   0.000000;
   0.000000;0.000000;0.000000;;
   0.000000;0.000000;0.000000;;

   TextureFilename  {
    "Iron2.png";
   }
  }

  Material  {
   1.000000;1.000000;1.000000;1.000000;;
   0.000000;
   0.000000;0.000000;0.000000;;
   0.000000;0.000000;0.000000;;

   TextureFilename  {
    "Iron2.png";
   }
  }

  Material  {
   1.000000;1.000000;1.000000;1.000000;;
   0.000000;
   0.000000;0.000000;0.000000;;
   0.000000;0.000000;0.000000;;

   TextureFilename  {
    "Roof1.png";
   }
  }

  Material  {
   1.000000;1.000000;1.000000;1.000000;;
   0.000000;
   0.000000;0.000000;0.000000;;
   0.000000;0.000000;0.000000;;

   TextureFilename  {
    "Roof2.png";
   }
  }

  Material  {
   1.000000;1.000000;1.000000;1.000000;;
   0.000000;
   0.000000;0.000000;0.000000;;
   0.000000;0.000000;0.000000;;

   TextureFilename  {
    "Iron3.png";
   }
  }

  Material  {
   0.352941;0.333333;0.333333;1.000000;;
   0.000000;
   0.000000;0.000000;0.000000;;
   0.000000;0.000000;0.000000;;
  }

  Material  {
   0.352941;0.333333;0.333333;1.000000;;
   0.000000;
   0.000000;0.000000;0.000000;;
   0.000000;0.000000;0.000000;;
  }

  Material  {
   0.352941;0.333333;0.333333;1.000000;;
   0.000000;
   0.000000;0.000000;0.000000;;
   0.000000;0.000000;0.000000;;
  }

  Material  {
   0.352941;0.333333;0.333333;1.000000;;
   0.000000;
   0.000000;0.000000;0.000000;;
   0.000000;0.000000;0.000000;;
  }

  Material  {
   1.000000;1.000000;1.000000;1.000000;;
   0.000000;
   0.000000;0.000000;0.000000;;
   0.000000;0.000000;0.000000;;

   TextureFilename  {
    "FormSide1.png";
   }
  }

  Material  {
   1.000000;1.000000;1.000000;1.000000;;
   0.000000;
   0.000000;0.000000;0.000000;;
   0.000000;0.000000;0.000000;;

   TextureFilename  {
    "FormC.png";
   }
  }

  Material  {
   1.000000;1.000000;1.000000;1.000000;;
   0.000000;
   0.000000;0.000000;0.000000;;
   0.000000;0.000000;0.000000;;

   TextureFilename  {
    "Saku1.png";
   }
  }

  Material  {
   1.000000;1.000000;1.000000;1.000000;;
   0.000000;
   0.000000;0.000000;0.000000;;
   0.000000;0.000000;0.000000;;

   TextureFilename  {
    "Iron1.png";
   }
  }

  Material  {
   1.000000;1.000000;1.000000;1.000000;;
   0.000000;
   0.000000;0.000000;0.000000;;
   0.000000;0.000000;0.000000;;

   TextureFilename  {
    "Iron1.png";
   }
  }

  Material  {
   1.000000;1.000000;1.000000;1.000000;;
   0.000000;
   0.000000;0.000000;0.000000;;
   0.000000;0.000000;0.000000;;

   TextureFilename  {
    "Iron1.png";
   }
  }

  Material  {
   1.000000;1.000000;1.000000;1.000000;;
   0.000000;
   0.000000;0.000000;0.000000;;
   0.000000;0.000000;0.000000;;

   TextureFilename  {
    "Iron1.png";
   }
  }

  Material  {
   1.000000;1.000000;1.000000;1.000000;;
   0.000000;
   0.000000;0.000000;0.000000;;
   0.000000;0.000000;0.000000;;

   TextureFilename  {
    "Iron2.png";
   }
  }

  Material  {
   1.000000;1.000000;1.000000;1.000000;;
   0.000000;
   0.000000;0.000000;0.000000;;
   0.000000;0.000000;0.000000;;

   TextureFilename  {
    "Iron2.png";
   }
  }

  Material  {
   1.000000;1.000000;1.000000;1.000000;;
   0.000000;
   0.000000;0.000000;0.000000;;
   0.000000;0.000000;0.000000;;

   TextureFilename  {
    "Wall1.png";
   }
  }

  Material  {
   1.000000;1.000000;1.000000;1.000000;;
   0.000000;
   0.000000;0.000000;0.000000;;
   0.000000;0.000000;0.000000;;

   TextureFilename  {
    "Iron2.png";
   }
  }

  Material  {
   1.000000;1.000000;1.000000;1.000000;;
   0.000000;
   0.000000;0.000000;0.000000;;
   0.000000;0.000000;0.000000;;

   TextureFilename  {
    "Iron2.png";
   }
  }

  Material  {
   1.000000;1.000000;1.000000;1.000000;;
   0.000000;
   0.000000;0.000000;0.000000;;
   0.000000;0.000000;0.000000;;

   TextureFilename  {
    "Iron2.png";
   }
  }

  Material  {
   1.000000;1.000000;1.000000;1.000000;;
   0.000000;
   0.000000;0.000000;0.000000;;
   0.000000;0.000000;0.000000;;

   TextureFilename  {
    "Iron2.png";
   }
  }

  Material  {
   1.000000;1.000000;1.000000;1.000000;;
   0.000000;
   0.000000;0.000000;0.000000;;
   0.000000;0.000000;0.000000;;

   TextureFilename  {
    "Iron2.png";
   }
  }

  Material  {
   1.000000;1.000000;1.000000;1.000000;;
   0.000000;
   0.000000;0.000000;0.000000;;
   0.000000;0.000000;0.000000;;

   TextureFilename  {
    "Iron2.png";
   }
  }

  Material  {
   1.000000;1.000000;1.000000;1.000000;;
   0.000000;
   0.000000;0.000000;0.000000;;
   0.000000;0.000000;0.000000;;

   TextureFilename  {
    "Roof1.png";
   }
  }

  Material  {
   1.000000;1.000000;1.000000;1.000000;;
   0.000000;
   0.000000;0.000000;0.000000;;
   0.000000;0.000000;0.000000;;

   TextureFilename  {
    "Roof2.png";
   }
  }

  Material  {
   1.000000;1.000000;1.000000;1.000000;;
   0.000000;
   0.000000;0.000000;0.000000;;
   0.000000;0.000000;0.000000;;

   TextureFilename  {
    "Iron3.png";
   }
  }

  Material  {
   0.352941;0.333333;0.333333;1.000000;;
   0.000000;
   0.000000;0.000000;0.000000;;
   0.000000;0.000000;0.000000;;
  }

  Material  {
   0.352941;0.333333;0.333333;1.000000;;
   0.000000;
   0.000000;0.000000;0.000000;;
   0.000000;0.000000;0.000000;;
  }

  Material  {
   0.352941;0.333333;0.333333;1.000000;;
   0.000000;
   0.000000;0.000000;0.000000;;
   0.000000;0.000000;0.000000;;
  }

  Material  {
   0.352941;0.333333;0.333333;1.000000;;
   0.000000;
   0.000000;0.000000;0.000000;;
   0.000000;0.000000;0.000000;;
  }
 }

 MeshTextureCoords  {
  224;
  0.000000;1.000000;,
  0.000000;0.440000;,
  0.000000;0.000000;,
  2.000000;1.000000;,
  2.000000;0.440000;,
  2.000000;0.000000;,
  0.000000;0.000000;,
  0.000000;1.000000;,
  0.560000;0.000000;,
  0.560000;1.000000;,
  0.500000;1.000000;,
  0.500000;0.000000;,
  3.000000;1.000000;,
  3.000000;0.000000;,
  0.000000;1.000000;,
  0.000000;0.020000;,
  1.000000;0.020000;,
  1.000000;1.000000;,
  0.000000;1.000000;,
  0.000000;0.020000;,
  1.000000;0.020000;,
  1.000000;1.000000;,
  0.000000;1.000000;,
  0.000000;0.020000;,
  1.000000;0.020000;,
  1.000000;1.000000;,
  0.000000;1.000000;,
  0.000000;0.020000;,
  1.000000;0.020000;,
  1.000000;1.000000;,
  0.000000;0.800000;,
  0.000000;0.100000;,
  1.000000;0.100000;,
  1.000000;1.000000;,
  0.000000;0.800000;,
  0.000000;0.100000;,
  1.000000;0.100000;,
  1.000000;1.000000;,
  -0.166667;1.000000;,
  -0.166667;0.020000;,
  2.000000;1.000000;,
  2.000000;0.020000;,
  1.000000;0.100000;,
  0.000000;0.100000;,
  1.000000;0.200000;,
  0.000000;0.200000;,
  1.000000;0.100000;,
  0.000000;0.100000;,
  1.000000;0.200000;,
  0.000000;0.200000;,
  1.000000;0.100000;,
  0.000000;0.100000;,
  1.000000;0.200000;,
  0.000000;0.200000;,
  1.000000;0.100000;,
  0.000000;0.100000;,
  1.000000;0.200000;,
  0.000000;0.200000;,
  1.000000;0.100000;,
  0.000000;0.100000;,
  1.000000;0.200000;,
  0.000000;0.200000;,
  1.000000;0.100000;,
  0.000000;0.100000;,
  1.000000;0.200000;,
  0.000000;0.200000;,
  0.000000;0.000000;,
  2.100000;0.000000;,
  0.000000;1.000000;,
  2.100000;1.000000;,
  0.000000;0.850000;,
  0.000000;0.000000;,
  4.200000;0.850000;,
  4.200000;0.000000;,
  0.000000;1.000000;,
  0.000000;0.000000;,
  0.785714;1.000000;,
  0.785714;0.400000;,
  1.000000;0.400000;,
  1.000000;0.000000;,
  0.000000;0.000000;,
  0.000000;0.000000;,
  0.000000;0.000000;,
  0.000000;0.000000;,
  0.000000;0.000000;,
  0.000000;0.000000;,
  0.000000;0.000000;,
  0.000000;0.000000;,
  0.000000;0.000000;,
  0.000000;0.000000;,
  0.000000;0.000000;,
  0.000000;0.000000;,
  0.000000;0.000000;,
  0.000000;0.000000;,
  0.000000;0.000000;,
  0.000000;0.000000;,
  0.000000;0.000000;,
  0.000000;0.000000;,
  0.000000;0.000000;,
  0.000000;0.000000;,
  0.000000;0.000000;,
  0.000000;0.000000;,
  0.000000;0.000000;,
  0.000000;0.000000;,
  0.000000;0.000000;,
  0.000000;0.000000;,
  0.000000;0.000000;,
  0.000000;0.000000;,
  0.000000;0.000000;,
  0.000000;0.000000;,
  0.000000;0.000000;,
  0.000000;0.000000;,
  0.000000;1.000000;,
  0.000000;0.440000;,
  0.000000;0.000000;,
  2.000000;1.000000;,
  2.000000;0.440000;,
  2.000000;0.000000;,
  0.000000;0.000000;,
  0.000000;1.000000;,
  0.560000;0.000000;,
  0.560000;1.000000;,
  0.500000;1.000000;,
  0.500000;0.000000;,
  3.000000;1.000000;,
  3.000000;0.000000;,
  0.000000;1.000000;,
  0.000000;0.020000;,
  1.000000;0.020000;,
  1.000000;1.000000;,
  0.000000;1.000000;,
  0.000000;0.020000;,
  1.000000;0.020000;,
  1.000000;1.000000;,
  0.000000;1.000000;,
  0.000000;0.020000;,
  1.000000;0.020000;,
  1.000000;1.000000;,
  0.000000;1.000000;,
  0.000000;0.020000;,
  1.000000;0.020000;,
  1.000000;1.000000;,
  0.000000;0.500000;,
  0.000000;0.100000;,
  1.000000;0.100000;,
  1.000000;0.500000;,
  0.000000;0.500000;,
  0.000000;0.100000;,
  1.000000;0.100000;,
  1.000000;0.500000;,
  0.000000;1.000000;,
  0.000000;0.020000;,
  2.000000;1.000000;,
  2.000000;0.020000;,
  1.000000;0.100000;,
  0.000000;0.100000;,
  1.000000;0.200000;,
  0.000000;0.200000;,
  1.000000;0.100000;,
  0.000000;0.100000;,
  1.000000;0.200000;,
  0.000000;0.200000;,
  1.000000;0.100000;,
  0.000000;0.100000;,
  1.000000;0.200000;,
  0.000000;0.200000;,
  1.000000;0.100000;,
  0.000000;0.100000;,
  1.000000;0.200000;,
  0.000000;0.200000;,
  1.000000;0.100000;,
  0.000000;0.100000;,
  1.000000;0.200000;,
  0.000000;0.200000;,
  1.000000;0.100000;,
  0.000000;0.100000;,
  1.000000;0.200000;,
  0.000000;0.200000;,
  0.000000;0.000000;,
  2.100000;0.000000;,
  0.000000;1.000000;,
  2.100000;1.000000;,
  0.000000;0.850000;,
  0.000000;0.000000;,
  4.200000;0.850000;,
  4.200000;0.000000;,
  0.000000;1.000000;,
  0.000000;0.000000;,
  0.785714;1.000000;,
  0.785714;0.400000;,
  1.000000;0.400000;,
  1.000000;0.000000;,
  0.000000;0.000000;,
  0.000000;0.000000;,
  0.000000;0.000000;,
  0.000000;0.000000;,
  0.000000;0.000000;,
  0.000000;0.000000;,
  0.000000;0.000000;,
  0.000000;0.000000;,
  0.000000;0.000000;,
  0.000000;0.000000;,
  0.000000;0.000000;,
  0.000000;0.000000;,
  0.000000;0.000000;,
  0.000000;0.000000;,
  0.000000;0.000000;,
  0.000000;0.000000;,
  0.000000;0.000000;,
  0.000000;0.000000;,
  0.000000;0.000000;,
  0.000000;0.000000;,
  0.000000;0.000000;,
  0.000000;0.000000;,
  0.000000;0.000000;,
  0.000000;0.000000;,
  0.000000;0.000000;,
  0.000000;0.000000;,
  0.000000;0.000000;,
  0.000000;0.000000;,
  0.000000;0.000000;,
  0.000000;0.000000;,
  0.000000;0.000000;,
  0.000000;0.000000;;
 }

 MeshNormals  {
  180;
  1.000000;0.000000;0.000000;,
  1.000000;0.000000;0.000000;,
  0.000000;1.000000;0.000000;,
  0.000000;1.000000;0.000000;,
  0.000000;1.000000;0.000000;,
  0.000000;1.000000;0.000000;,
  1.000000;0.000000;0.000000;,
  1.000000;0.000000;0.000000;,
  0.000000;0.000000;-1.000000;,
  0.000000;0.000000;-1.000000;,
  0.000000;0.000000;-1.000000;,
  0.000000;0.000000;-1.000000;,
  0.000000;0.000000;-1.000000;,
  0.000000;0.000000;-1.000000;,
  0.000000;0.000000;-1.000000;,
  0.000000;0.000000;-1.000000;,
  0.000000;0.000000;-1.000000;,
  0.000000;0.000000;-1.000000;,
  0.000000;0.000000;-1.000000;,
  0.000000;0.000000;-1.000000;,
  1.000000;0.000000;0.000000;,
  1.000000;0.000000;0.000000;,
  1.000000;0.000000;0.000000;,
  1.000000;0.000000;0.000000;,
  1.000000;0.000000;0.000000;,
  1.000000;0.000000;0.000000;,
  0.000000;0.000000;-1.000000;,
  0.000000;0.000000;-1.000000;,
  0.000000;0.000000;-1.000000;,
  0.000000;0.000000;-1.000000;,
  0.000000;0.000000;-1.000000;,
  0.000000;0.000000;-1.000000;,
  0.000000;0.000000;-1.000000;,
  0.000000;0.000000;-1.000000;,
  0.049938;-0.998752;0.000000;,
  0.049938;-0.998752;0.000000;,
  1.000000;0.000000;0.000000;,
  1.000000;0.000000;0.000000;,
  0.000000;0.000000;-1.000000;,
  0.000000;0.000000;-1.000000;,
  0.000000;0.000000;-1.000000;,
  0.000000;0.000000;-1.000000;,
  0.000000;0.000000;-1.000000;,
  0.000000;0.000000;-1.000000;,
  -1.000000;0.000000;0.000000;,
  -1.000000;0.000000;0.000000;,
  0.000000;0.000000;1.000000;,
  0.000000;0.000000;1.000000;,
  1.000000;0.000000;0.000000;,
  1.000000;0.000000;0.000000;,
  0.000000;1.000000;0.000000;,
  0.000000;1.000000;0.000000;,
  0.000000;-1.000000;0.000000;,
  0.000000;-1.000000;0.000000;,
  0.000000;0.000000;-1.000000;,
  0.000000;0.000000;-1.000000;,
  -1.000000;0.000000;0.000000;,
  -1.000000;0.000000;0.000000;,
  0.000000;0.000000;1.000000;,
  0.000000;0.000000;1.000000;,
  1.000000;0.000000;0.000000;,
  1.000000;0.000000;0.000000;,
  0.000000;1.000000;0.000000;,
  0.000000;1.000000;0.000000;,
  0.000000;-1.000000;0.000000;,
  0.000000;-1.000000;0.000000;,
  0.000000;0.000000;-1.000000;,
  0.000000;0.000000;-1.000000;,
  -1.000000;0.000000;0.000000;,
  -1.000000;0.000000;0.000000;,
  0.000000;0.000000;1.000000;,
  0.000000;0.000000;1.000000;,
  1.000000;0.000000;0.000000;,
  1.000000;0.000000;0.000000;,
  0.000000;1.000000;0.000000;,
  0.000000;1.000000;0.000000;,
  0.000000;-1.000000;0.000000;,
  0.000000;-1.000000;0.000000;,
  0.000000;0.000000;-1.000000;,
  0.000000;0.000000;-1.000000;,
  -1.000000;0.000000;0.000000;,
  -1.000000;0.000000;0.000000;,
  0.000000;0.000000;1.000000;,
  0.000000;0.000000;1.000000;,
  1.000000;0.000000;0.000000;,
  1.000000;0.000000;0.000000;,
  0.000000;1.000000;0.000000;,
  0.000000;1.000000;0.000000;,
  0.000000;-1.000000;0.000000;,
  0.000000;-1.000000;0.000000;,
  -1.000000;0.000000;0.000000;,
  -1.000000;0.000000;0.000000;,
  0.000000;1.000000;0.000000;,
  0.000000;1.000000;0.000000;,
  0.000000;1.000000;0.000000;,
  0.000000;1.000000;0.000000;,
  -1.000000;0.000000;0.000000;,
  -1.000000;0.000000;0.000000;,
  0.000000;0.000000;-1.000000;,
  0.000000;0.000000;-1.000000;,
  0.000000;0.000000;-1.000000;,
  0.000000;0.000000;-1.000000;,
  0.000000;0.000000;-1.000000;,
  0.000000;0.000000;-1.000000;,
  0.000000;0.000000;-1.000000;,
  0.000000;0.000000;-1.000000;,
  0.000000;0.000000;-1.000000;,
  0.000000;0.000000;-1.000000;,
  0.000000;0.000000;-1.000000;,
  0.000000;0.000000;-1.000000;,
  -1.000000;0.000000;0.000000;,
  -1.000000;0.000000;0.000000;,
  -1.000000;0.000000;0.000000;,
  -1.000000;0.000000;0.000000;,
  -1.000000;0.000000;0.000000;,
  -1.000000;0.000000;0.000000;,
  0.000000;0.000000;-1.000000;,
  0.000000;0.000000;-1.000000;,
  0.000000;0.000000;-1.000000;,
  0.000000;0.000000;-1.000000;,
  0.000000;0.000000;-1.000000;,
  0.000000;0.000000;-1.000000;,
  0.000000;0.000000;-1.000000;,
  0.000000;0.000000;-1.000000;,
  -0.049938;-0.998752;0.000000;,
  -0.049938;-0.998752;0.000000;,
  -1.000000;0.000000;0.000000;,
  -1.000000;0.000000;0.000000;,
  0.000000;0.000000;-1.000000;,
  0.000000;0.000000;-1.000000;,
  0.000000;0.000000;-1.000000;,
  0.000000;0.000000;-1.000000;,
  0.000000;0.000000;-1.000000;,
  0.000000;0.000000;-1.000000;,
  -1.000000;0.000000;0.000000;,
  -1.000000;0.000000;0.000000;,
  0.000000;0.000000;1.000000;,
  0.000000;0.000000;1.000000;,
  1.000000;0.000000;0.000000;,
  1.000000;0.000000;0.000000;,
  0.000000;1.000000;0.000000;,
  0.000000;1.000000;0.000000;,
  0.000000;-1.000000;0.000000;,
  0.000000;-1.000000;0.000000;,
  0.000000;0.000000;-1.000000;,
  0.000000;0.000000;-1.000000;,
  -1.000000;0.000000;0.000000;,
  -1.000000;0.000000;0.000000;,
  0.000000;0.000000;1.000000;,
  0.000000;0.000000;1.000000;,
  1.000000;0.000000;0.000000;,
  1.000000;0.000000;0.000000;,
  0.000000;1.000000;0.000000;,
  0.000000;1.000000;0.000000;,
  0.000000;-1.000000;0.000000;,
  0.000000;-1.000000;0.000000;,
  0.000000;0.000000;-1.000000;,
  0.000000;0.000000;-1.000000;,
  -1.000000;0.000000;0.000000;,
  -1.000000;0.000000;0.000000;,
  0.000000;0.000000;1.000000;,
  0.000000;0.000000;1.000000;,
  1.000000;0.000000;0.000000;,
  1.000000;0.000000;0.000000;,
  0.000000;1.000000;0.000000;,
  0.000000;1.000000;0.000000;,
  0.000000;-1.000000;0.000000;,
  0.000000;-1.000000;0.000000;,
  0.000000;0.000000;-1.000000;,
  0.000000;0.000000;-1.000000;,
  -1.000000;0.000000;0.000000;,
  -1.000000;0.000000;0.000000;,
  0.000000;0.000000;1.000000;,
  0.000000;0.000000;1.000000;,
  1.000000;0.000000;0.000000;,
  1.000000;0.000000;0.000000;,
  0.000000;1.000000;0.000000;,
  0.000000;1.000000;0.000000;,
  0.000000;-1.000000;0.000000;,
  0.000000;-1.000000;0.000000;;
  180;
  3;0,0,0;,
  3;1,1,1;,
  3;2,2,2;,
  3;3,3,3;,
  3;4,4,4;,
  3;5,5,5;,
  3;6,6,6;,
  3;7,7,7;,
  3;8,8,8;,
  3;9,9,9;,
  3;10,10,10;,
  3;11,11,11;,
  3;12,12,12;,
  3;13,13,13;,
  3;14,14,14;,
  3;15,15,15;,
  3;16,16,16;,
  3;17,17,17;,
  3;18,18,18;,
  3;19,19,19;,
  3;20,20,20;,
  3;21,21,21;,
  3;22,22,22;,
  3;23,23,23;,
  3;24,24,24;,
  3;25,25,25;,
  3;26,26,26;,
  3;27,27,27;,
  3;28,28,28;,
  3;29,29,29;,
  3;30,30,30;,
  3;31,31,31;,
  3;32,32,32;,
  3;33,33,33;,
  3;34,34,34;,
  3;35,35,35;,
  3;36,36,36;,
  3;37,37,37;,
  3;38,38,38;,
  3;39,39,39;,
  3;40,40,40;,
  3;41,41,41;,
  3;42,42,42;,
  3;43,43,43;,
  3;44,44,44;,
  3;45,45,45;,
  3;46,46,46;,
  3;47,47,47;,
  3;48,48,48;,
  3;49,49,49;,
  3;50,50,50;,
  3;51,51,51;,
  3;52,52,52;,
  3;53,53,53;,
  3;54,54,54;,
  3;55,55,55;,
  3;56,56,56;,
  3;57,57,57;,
  3;58,58,58;,
  3;59,59,59;,
  3;60,60,60;,
  3;61,61,61;,
  3;62,62,62;,
  3;63,63,63;,
  3;64,64,64;,
  3;65,65,65;,
  3;66,66,66;,
  3;67,67,67;,
  3;68,68,68;,
  3;69,69,69;,
  3;70,70,70;,
  3;71,71,71;,
  3;72,72,72;,
  3;73,73,73;,
  3;74,74,74;,
  3;75,75,75;,
  3;76,76,76;,
  3;77,77,77;,
  3;78,78,78;,
  3;79,79,79;,
  3;80,80,80;,
  3;81,81,81;,
  3;82,82,82;,
  3;83,83,83;,
  3;84,84,84;,
  3;85,85,85;,
  3;86,86,86;,
  3;87,87,87;,
  3;88,88,88;,
  3;89,89,89;,
  3;90,90,90;,
  3;91,91,91;,
  3;92,92,92;,
  3;93,93,93;,
  3;94,94,94;,
  3;95,95,95;,
  3;96,96,96;,
  3;97,97,97;,
  3;98,98,98;,
  3;99,99,99;,
  3;100,100,100;,
  3;101,101,101;,
  3;102,102,102;,
  3;103,103,103;,
  3;104,104,104;,
  3;105,105,105;,
  3;106,106,106;,
  3;107,107,107;,
  3;108,108,108;,
  3;109,109,109;,
  3;110,110,110;,
  3;111,111,111;,
  3;112,112,112;,
  3;113,113,113;,
  3;114,114,114;,
  3;115,115,115;,
  3;116,116,116;,
  3;117,117,117;,
  3;118,118,118;,
  3;119,119,119;,
  3;120,120,120;,
  3;121,121,121;,
  3;122,122,122;,
  3;123,123,123;,
  3;124,124,124;,
  3;125,125,125;,
  3;126,126,126;,
  3;127,127,127;,
  3;128,128,128;,
  3;129,129,129;,
  3;130,130,130;,
  3;131,131,131;,
  3;132,132,132;,
  3;133,133,133;,
  3;134,134,134;,
  3;135,135,135;,
  3;136,136,136;,
  3;137,137,137;,
  3;138,138,138;,
  3;139,139,139;,
  3;140,140,140;,
  3;141,141,141;,
  3;142,142,142;,
  3;143,143,143;,
  3;144,144,144;,
  3;145,145,145;,
  3;146,146,146;,
  3;147,147,147;,
  3;148,148,148;,
  3;149,149,149;,
  3;150,150,150;,
  3;151,151,151;,
  3;152,152,152;,
  3;153,153,153;,
  3;154,154,154;,
  3;155,155,155;,
  3;156,156,156;,
  3;157,157,157;,
  3;158,158,158;,
  3;159,159,159;,
  3;160,160,160;,
  3;161,161,161;,
  3;162,162,162;,
  3;163,163,163;,
  3;164,164,164;,
  3;165,165,165;,
  3;166,166,166;,
  3;167,167,167;,
  3;168,168,168;,
  3;169,169,169;,
  3;170,170,170;,
  3;171,171,171;,
  3;172,172,172;,
  3;173,173,173;,
  3;174,174,174;,
  3;175,175,175;,
  3;176,176,176;,
  3;177,177,177;,
  3;178,178,178;,
  3;179,179,179;;
 }
}