xof 0303txt 0032
template Vector {
 <3d82ab5e-62da-11cf-ab39-0020af71e433>
 FLOAT x;
 FLOAT y;
 FLOAT z;
}

template MeshFace {
 <3d82ab5f-62da-11cf-ab39-0020af71e433>
 DWORD nFaceVertexIndices;
 array DWORD faceVertexIndices[nFaceVertexIndices];
}

template Mesh {
 <3d82ab44-62da-11cf-ab39-0020af71e433>
 DWORD nVertices;
 array Vector vertices[nVertices];
 DWORD nFaces;
 array MeshFace faces[nFaces];
 [...]
}

template ColorRGBA {
 <35ff44e0-6c7c-11cf-8f52-0040333594a3>
 FLOAT red;
 FLOAT green;
 FLOAT blue;
 FLOAT alpha;
}

template ColorRGB {
 <d3e16e81-7835-11cf-8f52-0040333594a3>
 FLOAT red;
 FLOAT green;
 FLOAT blue;
}

template Material {
 <3d82ab4d-62da-11cf-ab39-0020af71e433>
 ColorRGBA faceColor;
 FLOAT power;
 ColorRGB specularColor;
 ColorRGB emissiveColor;
 [...]
}

template MeshMaterialList {
 <f6f23f42-7686-11cf-8f52-0040333594a3>
 DWORD nMaterials;
 DWORD nFaceIndexes;
 array DWORD faceIndexes[nFaceIndexes];
 [Material <3d82ab4d-62da-11cf-ab39-0020af71e433>]
}

template TextureFilename {
 <a42790e1-7810-11cf-8f52-0040333594a3>
 STRING filename;
}

template Coords2d {
 <f6f23f44-7686-11cf-8f52-0040333594a3>
 FLOAT u;
 FLOAT v;
}

template MeshTextureCoords {
 <f6f23f40-7686-11cf-8f52-0040333594a3>
 DWORD nTextureCoords;
 array Coords2d textureCoords[nTextureCoords];
}

template MeshNormals {
 <f6f23f43-7686-11cf-8f52-0040333594a3>
 DWORD nNormals;
 array Vector normals[nNormals];
 DWORD nFaceNormals;
 array MeshFace faceNormals[nFaceNormals];
}


Mesh  {
 248;
 -1.500000;0.950000;0.000000;,
 -1.500000;1.100000;0.000000;,
 -2.700000;1.100000;0.000000;,
 -1.500000;0.950000;25.000000;,
 -1.500000;1.100000;25.000000;,
 -2.700000;1.100000;25.000000;,
 -2.700000;1.100000;0.000000;,
 -2.700000;1.100000;25.000000;,
 -6.000000;1.100000;0.000000;,
 -6.000000;1.100000;25.000000;,
 -6.000000;1.100000;7.500000;,
 -6.000000;2.300000;7.500000;,
 -6.000000;1.100000;25.000000;,
 -6.000000;2.300000;25.000000;,
 -6.000000;-1.000000;1.500000;,
 -6.000000;0.950000;1.500000;,
 -1.500000;0.950000;1.500000;,
 -1.500000;-1.000000;1.500000;,
 -6.000000;-1.000000;7.500000;,
 -6.000000;0.950000;7.500000;,
 -1.500000;0.950000;7.500000;,
 -1.500000;-1.000000;7.500000;,
 -6.000000;-1.000000;13.500000;,
 -6.000000;0.950000;13.500000;,
 -1.500000;0.950000;13.500000;,
 -1.500000;-1.000000;13.500000;,
 -6.000000;-1.000000;19.500000;,
 -6.000000;0.950000;19.500000;,
 -1.500000;0.950000;19.500000;,
 -1.500000;-1.000000;19.500000;,
 -3.400000;1.100000;1.500000;,
 -3.400000;4.100000;1.500000;,
 -3.100000;4.100000;1.500000;,
 -3.100000;1.100000;1.500000;,
 -6.000000;1.100000;1.500000;,
 -6.000000;4.100000;1.500000;,
 -5.700000;4.100000;1.500000;,
 -5.700000;1.100000;1.500000;,
 -6.000000;1.100000;1.500000;,
 -6.000000;3.900000;1.500000;,
 -6.000000;1.100000;4.700000;,
 -6.000000;3.900000;4.700000;,
 -3.150000;3.800000;0.000000;,
 -3.150000;4.100000;0.000000;,
 -3.150000;3.800000;15.500000;,
 -3.150000;4.100000;15.500000;,
 -5.990000;3.800000;0.000000;,
 -5.990000;4.100000;0.000000;,
 -5.990000;3.800000;4.700000;,
 -5.990000;4.100000;4.700000;,
 -2.100000;3.900000;0.000000;,
 -2.100000;4.200000;0.000000;,
 -2.100000;3.900000;15.500000;,
 -2.100000;4.200000;15.500000;,
 -6.000000;3.705000;1.500000;,
 -6.000000;4.005000;1.500000;,
 -2.100000;3.900000;1.500000;,
 -2.100000;4.200000;1.500000;,
 -6.000000;3.855000;3.000000;,
 -6.000000;4.005000;3.000000;,
 -2.100000;4.050000;3.000000;,
 -2.100000;4.200000;3.000000;,
 -3.150000;3.700000;4.700000;,
 -3.150000;3.900000;4.700000;,
 -2.100000;3.700000;4.700000;,
 -2.100000;3.900000;4.700000;,
 -3.150000;3.900000;7.200000;,
 -3.150000;4.100000;7.200000;,
 -2.100000;3.900000;7.200000;,
 -2.100000;4.100000;7.200000;,
 -3.150000;3.700000;9.700000;,
 -3.150000;3.900000;9.700000;,
 -2.100000;3.700000;9.700000;,
 -2.100000;3.900000;9.700000;,
 -3.150000;3.900000;12.200000;,
 -3.150000;4.100000;12.200000;,
 -2.100000;3.900000;12.200000;,
 -2.100000;4.100000;12.200000;,
 -3.250000;3.700000;15.500000;,
 -3.250000;3.900000;15.500000;,
 -2.100000;3.700000;15.500000;,
 -2.100000;3.900000;15.500000;,
 -6.000000;4.005000;0.000000;,
 -6.000000;4.005000;4.700000;,
 -3.500000;4.130000;4.700000;,
 -3.500000;4.130000;15.500000;,
 -1.500000;4.230000;0.000000;,
 -1.500000;4.230000;15.500000;,
 -1.500000;4.230000;0.000000;,
 -1.500000;4.430000;0.000000;,
 -1.500000;4.230000;15.500000;,
 -1.500000;4.430000;15.500000;,
 -5.099999;-0.500000;1.200000;,
 -5.099999;-1.000000;1.200000;,
 -5.700000;-1.000000;1.200000;,
 -5.700000;-0.500000;1.200000;,
 -5.099999;-0.500000;1.800000;,
 -5.099999;-1.000000;1.800000;,
 -5.700000;-1.000000;1.800000;,
 -5.700000;-0.500000;1.800000;,
 -5.099999;-0.500000;7.199999;,
 -5.099999;-1.000000;7.199999;,
 -5.700000;-1.000000;7.199999;,
 -5.700000;-0.500000;7.199999;,
 -5.099999;-0.500000;7.800000;,
 -5.099999;-1.000000;7.800000;,
 -5.700000;-1.000000;7.800000;,
 -5.700000;-0.500000;7.800000;,
 -5.099999;-0.500000;13.199999;,
 -5.099999;-1.000000;13.199999;,
 -5.700000;-1.000000;13.199999;,
 -5.700000;-0.500000;13.199999;,
 -5.099999;-0.500000;13.799999;,
 -5.099999;-1.000000;13.799999;,
 -5.700000;-1.000000;13.799999;,
 -5.700000;-0.500000;13.799999;,
 -5.099999;-0.500000;19.199999;,
 -5.099999;-1.000000;19.199999;,
 -5.700000;-1.000000;19.199999;,
 -5.700000;-0.500000;19.199999;,
 -5.099999;-0.500000;19.799997;,
 -5.099999;-1.000000;19.799997;,
 -5.700000;-1.000000;19.799997;,
 -5.700000;-0.500000;19.799997;,
 5.300000;0.950000;0.000000;,
 5.300000;1.100000;0.000000;,
 6.500000;1.100000;0.000000;,
 5.300000;0.950000;25.000000;,
 5.300000;1.100000;25.000000;,
 6.500000;1.100000;25.000000;,
 6.500000;1.100000;0.000000;,
 6.500000;1.100000;25.000000;,
 9.800000;1.100000;0.000000;,
 9.800000;1.100000;25.000000;,
 9.800000;1.100000;7.500000;,
 9.800000;2.300000;7.500000;,
 9.800000;1.100000;25.000000;,
 9.800000;2.300000;25.000000;,
 9.800000;-1.000000;1.500000;,
 9.800000;0.950000;1.500000;,
 5.300000;0.950000;1.500000;,
 5.300000;-1.000000;1.500000;,
 9.800000;-1.000000;7.500000;,
 9.800000;0.950000;7.500000;,
 5.300000;0.950000;7.500000;,
 5.300000;-1.000000;7.500000;,
 9.800000;-1.000000;13.500000;,
 9.800000;0.950000;13.500000;,
 5.300000;0.950000;13.500000;,
 5.300000;-1.000000;13.500000;,
 9.800000;-1.000000;19.500000;,
 9.800000;0.950000;19.500000;,
 5.300000;0.950000;19.500000;,
 5.300000;-1.000000;19.500000;,
 7.200000;1.100000;1.500000;,
 7.200000;4.100000;1.500000;,
 6.900000;4.100000;1.500000;,
 6.900000;1.100000;1.500000;,
 9.800000;1.100000;1.500000;,
 9.800000;4.100000;1.500000;,
 9.500000;4.100000;1.500000;,
 9.500000;1.100000;1.500000;,
 9.800000;1.100000;1.500000;,
 9.800000;3.900000;1.500000;,
 9.800000;1.100000;4.700000;,
 9.800000;3.900000;4.700000;,
 6.950000;3.800000;0.000000;,
 6.950000;4.100000;0.000000;,
 6.950000;3.800000;15.500000;,
 6.950000;4.100000;15.500000;,
 9.790000;3.800000;0.000000;,
 9.790000;4.100000;0.000000;,
 9.790000;3.800000;4.700000;,
 9.790000;4.100000;4.700000;,
 5.900000;3.900000;0.000000;,
 5.900000;4.200000;0.000000;,
 5.900000;3.900000;15.500000;,
 5.900000;4.200000;15.500000;,
 9.800000;3.705000;1.500000;,
 9.800000;4.005000;1.500000;,
 5.900000;3.900000;1.500000;,
 5.900000;4.200000;1.500000;,
 9.800000;3.855000;3.000000;,
 9.800000;4.005000;3.000000;,
 5.900000;4.050000;3.000000;,
 5.900000;4.200000;3.000000;,
 6.950000;3.700000;4.700000;,
 6.950000;3.900000;4.700000;,
 5.900000;3.700000;4.700000;,
 5.900000;3.900000;4.700000;,
 6.950000;3.900000;7.200000;,
 6.950000;4.100000;7.200000;,
 5.900000;3.900000;7.200000;,
 5.900000;4.100000;7.200000;,
 6.950000;3.700000;9.700000;,
 6.950000;3.900000;9.700000;,
 5.900000;3.700000;9.700000;,
 5.900000;3.900000;9.700000;,
 6.950000;3.900000;12.200000;,
 6.950000;4.100000;12.200000;,
 5.900000;3.900000;12.200000;,
 5.900000;4.100000;12.200000;,
 7.050000;3.700000;15.500000;,
 7.050000;3.900000;15.500000;,
 5.900000;3.700000;15.500000;,
 5.900000;3.900000;15.500000;,
 9.800000;4.005000;0.000000;,
 9.800000;4.005000;4.700000;,
 7.300000;4.130000;4.700000;,
 7.300000;4.130000;15.500000;,
 5.300000;4.230000;0.000000;,
 5.300000;4.230000;15.500000;,
 5.300000;4.230000;0.000000;,
 5.300000;4.430000;0.000000;,
 5.300000;4.230000;15.500000;,
 5.300000;4.430000;15.500000;,
 9.499999;-0.500000;1.200000;,
 9.499999;-1.000000;1.200000;,
 8.899999;-1.000000;1.200000;,
 8.899999;-0.500000;1.200000;,
 9.499999;-0.500000;1.800000;,
 9.499999;-1.000000;1.800000;,
 8.899999;-1.000000;1.800000;,
 8.899999;-0.500000;1.800000;,
 9.499999;-0.500000;7.199999;,
 9.499999;-1.000000;7.199999;,
 8.899999;-1.000000;7.199999;,
 8.899999;-0.500000;7.199999;,
 9.499999;-0.500000;7.800000;,
 9.499999;-1.000000;7.800000;,
 8.899999;-1.000000;7.800000;,
 8.899999;-0.500000;7.800000;,
 9.499999;-0.500000;13.199999;,
 9.499999;-1.000000;13.199999;,
 8.899999;-1.000000;13.199999;,
 8.899999;-0.500000;13.199999;,
 9.499999;-0.500000;13.799999;,
 9.499999;-1.000000;13.799999;,
 8.899999;-1.000000;13.799999;,
 8.899999;-0.500000;13.799999;,
 9.499999;-0.500000;19.199999;,
 9.499999;-1.000000;19.199999;,
 8.899999;-1.000000;19.199999;,
 8.899999;-0.500000;19.199999;,
 9.499999;-0.500000;19.799997;,
 9.499999;-1.000000;19.799997;,
 8.899999;-1.000000;19.799997;,
 8.899999;-0.500000;19.799997;;
 192;
 3;0,1,4;,
 3;0,4,3;,
 3;1,2,5;,
 3;1,5,4;,
 3;8,9,7;,
 3;8,7,6;,
 3;10,11,13;,
 3;10,13,12;,
 3;14,15,16;,
 3;14,16,17;,
 3;18,19,20;,
 3;18,20,21;,
 3;22,23,24;,
 3;22,24,25;,
 3;26,27,28;,
 3;26,28,29;,
 3;30,31,32;,
 3;30,32,33;,
 3;34,35,36;,
 3;34,36,37;,
 3;38,39,41;,
 3;38,41,40;,
 3;42,43,45;,
 3;42,45,44;,
 3;46,47,49;,
 3;46,49,48;,
 3;50,51,53;,
 3;50,53,52;,
 3;54,55,57;,
 3;54,57,56;,
 3;58,59,61;,
 3;58,61,60;,
 3;62,63,65;,
 3;62,65,64;,
 3;66,67,69;,
 3;66,69,68;,
 3;70,71,73;,
 3;70,73,72;,
 3;74,75,77;,
 3;74,77,76;,
 3;78,79,81;,
 3;78,81,80;,
 3;86,87,85;,
 3;86,85,84;,
 3;86,84,83;,
 3;86,83,82;,
 3;88,89,91;,
 3;88,91,90;,
 3;92,93,94;,
 3;92,94,95;,
 3;95,94,98;,
 3;95,98,99;,
 3;99,98,97;,
 3;99,97,96;,
 3;96,97,93;,
 3;96,93,92;,
 3;92,95,99;,
 3;92,99,96;,
 3;93,97,98;,
 3;93,98,94;,
 3;100,101,102;,
 3;100,102,103;,
 3;103,102,106;,
 3;103,106,107;,
 3;107,106,105;,
 3;107,105,104;,
 3;104,105,101;,
 3;104,101,100;,
 3;100,103,107;,
 3;100,107,104;,
 3;101,105,106;,
 3;101,106,102;,
 3;108,109,110;,
 3;108,110,111;,
 3;111,110,114;,
 3;111,114,115;,
 3;115,114,113;,
 3;115,113,112;,
 3;112,113,109;,
 3;112,109,108;,
 3;108,111,115;,
 3;108,115,112;,
 3;109,113,114;,
 3;109,114,110;,
 3;116,117,118;,
 3;116,118,119;,
 3;119,118,122;,
 3;119,122,123;,
 3;123,122,121;,
 3;123,121,120;,
 3;120,121,117;,
 3;120,117,116;,
 3;116,119,123;,
 3;116,123,120;,
 3;117,121,122;,
 3;117,122,118;,
 3;127,128,125;,
 3;127,125,124;,
 3;128,129,126;,
 3;128,126,125;,
 3;130,131,133;,
 3;130,133,132;,
 3;136,137,135;,
 3;136,135,134;,
 3;141,140,139;,
 3;141,139,138;,
 3;145,144,143;,
 3;145,143,142;,
 3;149,148,147;,
 3;149,147,146;,
 3;153,152,151;,
 3;153,151,150;,
 3;157,156,155;,
 3;157,155,154;,
 3;161,160,159;,
 3;161,159,158;,
 3;164,165,163;,
 3;164,163,162;,
 3;168,169,167;,
 3;168,167,166;,
 3;172,173,171;,
 3;172,171,170;,
 3;176,177,175;,
 3;176,175,174;,
 3;180,181,179;,
 3;180,179,178;,
 3;184,185,183;,
 3;184,183,182;,
 3;188,189,187;,
 3;188,187,186;,
 3;192,193,191;,
 3;192,191,190;,
 3;196,197,195;,
 3;196,195,194;,
 3;200,201,199;,
 3;200,199,198;,
 3;204,205,203;,
 3;204,203,202;,
 3;208,209,211;,
 3;208,211,210;,
 3;206,207,208;,
 3;206,208,210;,
 3;214,215,213;,
 3;214,213,212;,
 3;216,217,218;,
 3;216,218,219;,
 3;219,218,222;,
 3;219,222,223;,
 3;223,222,221;,
 3;223,221,220;,
 3;220,221,217;,
 3;220,217,216;,
 3;216,219,223;,
 3;216,223,220;,
 3;217,221,222;,
 3;217,222,218;,
 3;224,225,226;,
 3;224,226,227;,
 3;227,226,230;,
 3;227,230,231;,
 3;231,230,229;,
 3;231,229,228;,
 3;228,229,225;,
 3;228,225,224;,
 3;224,227,231;,
 3;224,231,228;,
 3;225,229,230;,
 3;225,230,226;,
 3;232,233,234;,
 3;232,234,235;,
 3;235,234,238;,
 3;235,238,239;,
 3;239,238,237;,
 3;239,237,236;,
 3;236,237,233;,
 3;236,233,232;,
 3;232,235,239;,
 3;232,239,236;,
 3;233,237,238;,
 3;233,238,234;,
 3;240,241,242;,
 3;240,242,243;,
 3;243,242,246;,
 3;243,246,247;,
 3;247,246,245;,
 3;247,245,244;,
 3;244,245,241;,
 3;244,241,240;,
 3;240,243,247;,
 3;240,247,244;,
 3;241,245,246;,
 3;241,246,242;;

 MeshMaterialList  {
  50;
  192;
  0,
  0,
  0,
  0,
  1,
  1,
  2,
  2,
  3,
  3,
  4,
  4,
  5,
  5,
  6,
  6,
  7,
  7,
  8,
  8,
  9,
  9,
  10,
  10,
  10,
  10,
  11,
  11,
  12,
  12,
  13,
  13,
  14,
  14,
  15,
  15,
  16,
  16,
  17,
  17,
  18,
  18,
  19,
  19,
  19,
  19,
  20,
  20,
  21,
  21,
  21,
  21,
  21,
  21,
  21,
  21,
  21,
  21,
  21,
  21,
  22,
  22,
  22,
  22,
  22,
  22,
  22,
  22,
  22,
  22,
  22,
  22,
  23,
  23,
  23,
  23,
  23,
  23,
  23,
  23,
  23,
  23,
  23,
  23,
  24,
  24,
  24,
  24,
  24,
  24,
  24,
  24,
  24,
  24,
  24,
  24,
  25,
  25,
  25,
  25,
  26,
  26,
  27,
  27,
  28,
  28,
  29,
  29,
  30,
  30,
  31,
  31,
  32,
  32,
  33,
  33,
  34,
  34,
  35,
  35,
  35,
  35,
  36,
  36,
  37,
  37,
  38,
  38,
  39,
  39,
  40,
  40,
  41,
  41,
  42,
  42,
  43,
  43,
  44,
  44,
  44,
  44,
  45,
  45,
  46,
  46,
  46,
  46,
  46,
  46,
  46,
  46,
  46,
  46,
  46,
  46,
  47,
  47,
  47,
  47,
  47,
  47,
  47,
  47,
  47,
  47,
  47,
  47,
  48,
  48,
  48,
  48,
  48,
  48,
  48,
  48,
  48,
  48,
  48,
  48,
  49,
  49,
  49,
  49,
  49,
  49,
  49,
  49,
  49,
  49,
  49,
  49;

  Material  {
   1.000000;1.000000;1.000000;1.000000;;
   0.000000;
   0.000000;0.000000;0.000000;;
   0.000000;0.000000;0.000000;;

   TextureFilename  {
    "FormSide1.png";
   }
  }

  Material  {
   1.000000;1.000000;1.000000;1.000000;;
   0.000000;
   0.000000;0.000000;0.000000;;
   0.000000;0.000000;0.000000;;

   TextureFilename  {
    "FormC.png";
   }
  }

  Material  {
   1.000000;1.000000;1.000000;1.000000;;
   0.000000;
   0.000000;0.000000;0.000000;;
   0.000000;0.000000;0.000000;;

   TextureFilename  {
    "Saku1.png";
   }
  }

  Material  {
   1.000000;1.000000;1.000000;1.000000;;
   0.000000;
   0.000000;0.000000;0.000000;;
   0.000000;0.000000;0.000000;;

   TextureFilename  {
    "Iron1.png";
   }
  }

  Material  {
   1.000000;1.000000;1.000000;1.000000;;
   0.000000;
   0.000000;0.000000;0.000000;;
   0.000000;0.000000;0.000000;;

   TextureFilename  {
    "Iron1.png";
   }
  }

  Material  {
   1.000000;1.000000;1.000000;1.000000;;
   0.000000;
   0.000000;0.000000;0.000000;;
   0.000000;0.000000;0.000000;;

   TextureFilename  {
    "Iron1.png";
   }
  }

  Material  {
   1.000000;1.000000;1.000000;1.000000;;
   0.000000;
   0.000000;0.000000;0.000000;;
   0.000000;0.000000;0.000000;;

   TextureFilename  {
    "Iron1.png";
   }
  }

  Material  {
   1.000000;1.000000;1.000000;1.000000;;
   0.000000;
   0.000000;0.000000;0.000000;;
   0.000000;0.000000;0.000000;;

   TextureFilename  {
    "Iron2.png";
   }
  }

  Material  {
   1.000000;1.000000;1.000000;1.000000;;
   0.000000;
   0.000000;0.000000;0.000000;;
   0.000000;0.000000;0.000000;;

   TextureFilename  {
    "Iron2.png";
   }
  }

  Material  {
   1.000000;1.000000;1.000000;1.000000;;
   0.000000;
   0.000000;0.000000;0.000000;;
   0.000000;0.000000;0.000000;;

   TextureFilename  {
    "Wall1.png";
   }
  }

  Material  {
   1.000000;1.000000;1.000000;1.000000;;
   0.000000;
   0.000000;0.000000;0.000000;;
   0.000000;0.000000;0.000000;;

   TextureFilename  {
    "Iron2.png";
   }
  }

  Material  {
   1.000000;1.000000;1.000000;1.000000;;
   0.000000;
   0.000000;0.000000;0.000000;;
   0.000000;0.000000;0.000000;;

   TextureFilename  {
    "Iron2.png";
   }
  }

  Material  {
   1.000000;1.000000;1.000000;1.000000;;
   0.000000;
   0.000000;0.000000;0.000000;;
   0.000000;0.000000;0.000000;;

   TextureFilename  {
    "Iron2.png";
   }
  }

  Material  {
   1.000000;1.000000;1.000000;1.000000;;
   0.000000;
   0.000000;0.000000;0.000000;;
   0.000000;0.000000;0.000000;;

   TextureFilename  {
    "Iron2.png";
   }
  }

  Material  {
   1.000000;1.000000;1.000000;1.000000;;
   0.000000;
   0.000000;0.000000;0.000000;;
   0.000000;0.000000;0.000000;;

   TextureFilename  {
    "Iron2.png";
   }
  }

  Material  {
   1.000000;1.000000;1.000000;1.000000;;
   0.000000;
   0.000000;0.000000;0.000000;;
   0.000000;0.000000;0.000000;;

   TextureFilename  {
    "Iron2.png";
   }
  }

  Material  {
   1.000000;1.000000;1.000000;1.000000;;
   0.000000;
   0.000000;0.000000;0.000000;;
   0.000000;0.000000;0.000000;;

   TextureFilename  {
    "Iron2.png";
   }
  }

  Material  {
   1.000000;1.000000;1.000000;1.000000;;
   0.000000;
   0.000000;0.000000;0.000000;;
   0.000000;0.000000;0.000000;;

   TextureFilename  {
    "Iron2.png";
   }
  }

  Material  {
   1.000000;1.000000;1.000000;1.000000;;
   0.000000;
   0.000000;0.000000;0.000000;;
   0.000000;0.000000;0.000000;;

   TextureFilename  {
    "Iron2.png";
   }
  }

  Material  {
   1.000000;1.000000;1.000000;1.000000;;
   0.000000;
   0.000000;0.000000;0.000000;;
   0.000000;0.000000;0.000000;;

   TextureFilename  {
    "Roof1.png";
   }
  }

  Material  {
   1.000000;1.000000;1.000000;1.000000;;
   0.000000;
   0.000000;0.000000;0.000000;;
   0.000000;0.000000;0.000000;;

   TextureFilename  {
    "Roof2.png";
   }
  }

  Material  {
   0.352941;0.333333;0.333333;1.000000;;
   0.000000;
   0.000000;0.000000;0.000000;;
   0.000000;0.000000;0.000000;;
  }

  Material  {
   0.352941;0.333333;0.333333;1.000000;;
   0.000000;
   0.000000;0.000000;0.000000;;
   0.000000;0.000000;0.000000;;
  }

  Material  {
   0.352941;0.333333;0.333333;1.000000;;
   0.000000;
   0.000000;0.000000;0.000000;;
   0.000000;0.000000;0.000000;;
  }

  Material  {
   0.352941;0.333333;0.333333;1.000000;;
   0.000000;
   0.000000;0.000000;0.000000;;
   0.000000;0.000000;0.000000;;
  }

  Material  {
   1.000000;1.000000;1.000000;1.000000;;
   0.000000;
   0.000000;0.000000;0.000000;;
   0.000000;0.000000;0.000000;;

   TextureFilename  {
    "FormSide1.png";
   }
  }

  Material  {
   1.000000;1.000000;1.000000;1.000000;;
   0.000000;
   0.000000;0.000000;0.000000;;
   0.000000;0.000000;0.000000;;

   TextureFilename  {
    "FormC.png";
   }
  }

  Material  {
   1.000000;1.000000;1.000000;1.000000;;
   0.000000;
   0.000000;0.000000;0.000000;;
   0.000000;0.000000;0.000000;;

   TextureFilename  {
    "Saku1.png";
   }
  }

  Material  {
   1.000000;1.000000;1.000000;1.000000;;
   0.000000;
   0.000000;0.000000;0.000000;;
   0.000000;0.000000;0.000000;;

   TextureFilename  {
    "Iron1.png";
   }
  }

  Material  {
   1.000000;1.000000;1.000000;1.000000;;
   0.000000;
   0.000000;0.000000;0.000000;;
   0.000000;0.000000;0.000000;;

   TextureFilename  {
    "Iron1.png";
   }
  }

  Material  {
   1.000000;1.000000;1.000000;1.000000;;
   0.000000;
   0.000000;0.000000;0.000000;;
   0.000000;0.000000;0.000000;;

   TextureFilename  {
    "Iron1.png";
   }
  }

  Material  {
   1.000000;1.000000;1.000000;1.000000;;
   0.000000;
   0.000000;0.000000;0.000000;;
   0.000000;0.000000;0.000000;;

   TextureFilename  {
    "Iron1.png";
   }
  }

  Material  {
   1.000000;1.000000;1.000000;1.000000;;
   0.000000;
   0.000000;0.000000;0.000000;;
   0.000000;0.000000;0.000000;;

   TextureFilename  {
    "Iron2.png";
   }
  }

  Material  {
   1.000000;1.000000;1.000000;1.000000;;
   0.000000;
   0.000000;0.000000;0.000000;;
   0.000000;0.000000;0.000000;;

   TextureFilename  {
    "Iron2.png";
   }
  }

  Material  {
   1.000000;1.000000;1.000000;1.000000;;
   0.000000;
   0.000000;0.000000;0.000000;;
   0.000000;0.000000;0.000000;;

   TextureFilename  {
    "Wall1.png";
   }
  }

  Material  {
   1.000000;1.000000;1.000000;1.000000;;
   0.000000;
   0.000000;0.000000;0.000000;;
   0.000000;0.000000;0.000000;;

   TextureFilename  {
    "Iron2.png";
   }
  }

  Material  {
   1.000000;1.000000;1.000000;1.000000;;
   0.000000;
   0.000000;0.000000;0.000000;;
   0.000000;0.000000;0.000000;;

   TextureFilename  {
    "Iron2.png";
   }
  }

  Material  {
   1.000000;1.000000;1.000000;1.000000;;
   0.000000;
   0.000000;0.000000;0.000000;;
   0.000000;0.000000;0.000000;;

   TextureFilename  {
    "Iron2.png";
   }
  }

  Material  {
   1.000000;1.000000;1.000000;1.000000;;
   0.000000;
   0.000000;0.000000;0.000000;;
   0.000000;0.000000;0.000000;;

   TextureFilename  {
    "Iron2.png";
   }
  }

  Material  {
   1.000000;1.000000;1.000000;1.000000;;
   0.000000;
   0.000000;0.000000;0.000000;;
   0.000000;0.000000;0.000000;;

   TextureFilename  {
    "Iron2.png";
   }
  }

  Material  {
   1.000000;1.000000;1.000000;1.000000;;
   0.000000;
   0.000000;0.000000;0.000000;;
   0.000000;0.000000;0.000000;;

   TextureFilename  {
    "Iron2.png";
   }
  }

  Material  {
   1.000000;1.000000;1.000000;1.000000;;
   0.000000;
   0.000000;0.000000;0.000000;;
   0.000000;0.000000;0.000000;;

   TextureFilename  {
    "Iron2.png";
   }
  }

  Material  {
   1.000000;1.000000;1.000000;1.000000;;
   0.000000;
   0.000000;0.000000;0.000000;;
   0.000000;0.000000;0.000000;;

   TextureFilename  {
    "Iron2.png";
   }
  }

  Material  {
   1.000000;1.000000;1.000000;1.000000;;
   0.000000;
   0.000000;0.000000;0.000000;;
   0.000000;0.000000;0.000000;;

   TextureFilename  {
    "Iron2.png";
   }
  }

  Material  {
   1.000000;1.000000;1.000000;1.000000;;
   0.000000;
   0.000000;0.000000;0.000000;;
   0.000000;0.000000;0.000000;;

   TextureFilename  {
    "Roof1.png";
   }
  }

  Material  {
   1.000000;1.000000;1.000000;1.000000;;
   0.000000;
   0.000000;0.000000;0.000000;;
   0.000000;0.000000;0.000000;;

   TextureFilename  {
    "Roof2.png";
   }
  }

  Material  {
   0.352941;0.333333;0.333333;1.000000;;
   0.000000;
   0.000000;0.000000;0.000000;;
   0.000000;0.000000;0.000000;;
  }

  Material  {
   0.352941;0.333333;0.333333;1.000000;;
   0.000000;
   0.000000;0.000000;0.000000;;
   0.000000;0.000000;0.000000;;
  }

  Material  {
   0.352941;0.333333;0.333333;1.000000;;
   0.000000;
   0.000000;0.000000;0.000000;;
   0.000000;0.000000;0.000000;;
  }

  Material  {
   0.352941;0.333333;0.333333;1.000000;;
   0.000000;
   0.000000;0.000000;0.000000;;
   0.000000;0.000000;0.000000;;
  }
 }

 MeshTextureCoords  {
  248;
  0.000000;1.000000;,
  0.000000;0.440000;,
  0.000000;0.000000;,
  2.000000;1.000000;,
  2.000000;0.440000;,
  2.000000;0.000000;,
  0.000000;0.000000;,
  0.000000;1.000000;,
  1.320000;0.000000;,
  1.320000;1.000000;,
  0.000000;1.000000;,
  0.000000;0.000000;,
  2.800000;1.000000;,
  2.800000;0.000000;,
  0.000000;1.000000;,
  0.000000;0.020000;,
  1.000000;0.020000;,
  1.000000;1.000000;,
  0.000000;1.000000;,
  0.000000;0.020000;,
  1.000000;0.020000;,
  1.000000;1.000000;,
  0.000000;1.000000;,
  0.000000;0.020000;,
  1.000000;0.020000;,
  1.000000;1.000000;,
  0.000000;1.000000;,
  0.000000;0.020000;,
  1.000000;0.020000;,
  1.000000;1.000000;,
  0.000000;0.800000;,
  0.000000;0.400000;,
  1.000000;0.400000;,
  1.000000;1.000000;,
  0.000000;0.500000;,
  0.000000;0.100000;,
  1.000000;0.100000;,
  1.000000;0.500000;,
  -0.190000;1.000000;,
  -0.190000;0.020000;,
  0.343000;1.000000;,
  0.343000;0.020000;,
  1.000000;0.100000;,
  0.000000;0.100000;,
  1.000000;0.200000;,
  0.000000;0.200000;,
  1.000000;0.100000;,
  0.000000;0.100000;,
  1.000000;0.200000;,
  0.000000;0.200000;,
  1.000000;0.100000;,
  0.000000;0.100000;,
  1.000000;0.200000;,
  0.000000;0.200000;,
  1.000000;0.100000;,
  0.000000;0.100000;,
  1.000000;0.200000;,
  0.000000;0.200000;,
  1.000000;0.100000;,
  0.000000;0.100000;,
  1.000000;0.200000;,
  0.000000;0.200000;,
  1.000000;0.100000;,
  0.000000;0.100000;,
  1.000000;0.200000;,
  0.000000;0.200000;,
  1.000000;0.100000;,
  0.000000;0.100000;,
  1.000000;0.200000;,
  0.000000;0.200000;,
  1.000000;0.100000;,
  0.000000;0.100000;,
  1.000000;0.200000;,
  0.000000;0.200000;,
  1.000000;0.100000;,
  0.000000;0.100000;,
  1.000000;0.200000;,
  0.000000;0.200000;,
  1.000000;0.100000;,
  0.000000;0.100000;,
  1.000000;0.200000;,
  0.000000;0.200000;,
  0.100000;0.000000;,
  1.040000;0.000000;,
  1.040000;0.500000;,
  3.200000;0.500000;,
  0.100000;1.000000;,
  3.200000;1.000000;,
  0.000000;0.850000;,
  0.000000;0.000000;,
  6.400000;0.850000;,
  6.400000;0.000000;,
  0.000000;0.000000;,
  0.000000;0.000000;,
  0.000000;0.000000;,
  0.000000;0.000000;,
  0.000000;0.000000;,
  0.000000;0.000000;,
  0.000000;0.000000;,
  0.000000;0.000000;,
  0.000000;0.000000;,
  0.000000;0.000000;,
  0.000000;0.000000;,
  0.000000;0.000000;,
  0.000000;0.000000;,
  0.000000;0.000000;,
  0.000000;0.000000;,
  0.000000;0.000000;,
  0.000000;0.000000;,
  0.000000;0.000000;,
  0.000000;0.000000;,
  0.000000;0.000000;,
  0.000000;0.000000;,
  0.000000;0.000000;,
  0.000000;0.000000;,
  0.000000;0.000000;,
  0.000000;0.000000;,
  0.000000;0.000000;,
  0.000000;0.000000;,
  0.000000;0.000000;,
  0.000000;0.000000;,
  0.000000;0.000000;,
  0.000000;0.000000;,
  0.000000;0.000000;,
  0.000000;1.000000;,
  0.000000;0.440000;,
  0.000000;0.000000;,
  2.000000;1.000000;,
  2.000000;0.440000;,
  2.000000;0.000000;,
  0.000000;0.000000;,
  0.000000;1.000000;,
  1.320000;0.000000;,
  1.320000;1.000000;,
  0.000000;1.000000;,
  0.000000;0.000000;,
  2.800000;1.000000;,
  2.800000;0.000000;,
  0.000000;1.000000;,
  0.000000;0.020000;,
  1.000000;0.020000;,
  1.000000;1.000000;,
  0.000000;1.000000;,
  0.000000;0.020000;,
  1.000000;0.020000;,
  1.000000;1.000000;,
  0.000000;1.000000;,
  0.000000;0.020000;,
  1.000000;0.020000;,
  1.000000;1.000000;,
  0.000000;1.000000;,
  0.000000;0.020000;,
  1.000000;0.020000;,
  1.000000;1.000000;,
  0.000000;0.500000;,
  0.000000;0.100000;,
  1.000000;0.100000;,
  1.000000;0.500000;,
  0.000000;0.500000;,
  0.000000;0.100000;,
  1.000000;0.100000;,
  1.000000;0.500000;,
  -0.190000;1.000000;,
  -0.190000;0.020000;,
  0.343000;1.000000;,
  0.343000;0.020000;,
  1.000000;0.100000;,
  0.000000;0.100000;,
  1.000000;0.200000;,
  0.000000;0.200000;,
  1.000000;0.100000;,
  0.000000;0.100000;,
  1.000000;0.200000;,
  0.000000;0.200000;,
  1.000000;0.100000;,
  0.000000;0.100000;,
  1.000000;0.200000;,
  0.000000;0.200000;,
  1.000000;0.100000;,
  0.000000;0.100000;,
  1.000000;0.200000;,
  0.000000;0.200000;,
  1.000000;0.100000;,
  0.000000;0.100000;,
  1.000000;0.200000;,
  0.000000;0.200000;,
  1.000000;0.100000;,
  0.000000;0.100000;,
  1.000000;0.200000;,
  0.000000;0.200000;,
  1.000000;0.100000;,
  0.000000;0.100000;,
  1.000000;0.200000;,
  0.000000;0.200000;,
  1.000000;0.100000;,
  0.000000;0.100000;,
  1.000000;0.200000;,
  0.000000;0.200000;,
  1.000000;0.100000;,
  0.000000;0.100000;,
  1.000000;0.200000;,
  0.000000;0.200000;,
  1.000000;0.100000;,
  0.000000;0.100000;,
  1.000000;0.200000;,
  0.000000;0.200000;,
  0.100000;0.000000;,
  1.040000;0.000000;,
  1.040000;0.500000;,
  3.200000;0.500000;,
  0.100000;1.000000;,
  3.200000;1.000000;,
  0.000000;0.850000;,
  0.000000;0.000000;,
  6.400000;0.850000;,
  6.400000;0.000000;,
  0.000000;0.000000;,
  0.000000;0.000000;,
  0.000000;0.000000;,
  0.000000;0.000000;,
  0.000000;0.000000;,
  0.000000;0.000000;,
  0.000000;0.000000;,
  0.000000;0.000000;,
  0.000000;0.000000;,
  0.000000;0.000000;,
  0.000000;0.000000;,
  0.000000;0.000000;,
  0.000000;0.000000;,
  0.000000;0.000000;,
  0.000000;0.000000;,
  0.000000;0.000000;,
  0.000000;0.000000;,
  0.000000;0.000000;,
  0.000000;0.000000;,
  0.000000;0.000000;,
  0.000000;0.000000;,
  0.000000;0.000000;,
  0.000000;0.000000;,
  0.000000;0.000000;,
  0.000000;0.000000;,
  0.000000;0.000000;,
  0.000000;0.000000;,
  0.000000;0.000000;,
  0.000000;0.000000;,
  0.000000;0.000000;,
  0.000000;0.000000;,
  0.000000;0.000000;;
 }

 MeshNormals  {
  192;
  1.000000;0.000000;0.000000;,
  1.000000;0.000000;0.000000;,
  0.000000;1.000000;0.000000;,
  0.000000;1.000000;0.000000;,
  0.000000;1.000000;0.000000;,
  0.000000;1.000000;0.000000;,
  1.000000;0.000000;0.000000;,
  1.000000;0.000000;0.000000;,
  0.000000;0.000000;-1.000000;,
  0.000000;0.000000;-1.000000;,
  0.000000;0.000000;-1.000000;,
  0.000000;0.000000;-1.000000;,
  0.000000;0.000000;-1.000000;,
  0.000000;0.000000;-1.000000;,
  0.000000;0.000000;-1.000000;,
  0.000000;0.000000;-1.000000;,
  0.000000;0.000000;-1.000000;,
  0.000000;0.000000;-1.000000;,
  0.000000;0.000000;-1.000000;,
  0.000000;0.000000;-1.000000;,
  1.000000;0.000000;0.000000;,
  1.000000;0.000000;0.000000;,
  1.000000;0.000000;0.000000;,
  1.000000;0.000000;0.000000;,
  1.000000;0.000000;0.000000;,
  1.000000;0.000000;0.000000;,
  1.000000;0.000000;0.000000;,
  1.000000;0.000000;0.000000;,
  0.000000;0.000000;-1.000000;,
  0.000000;0.000000;-1.000000;,
  0.000000;0.000000;-1.000000;,
  0.000000;0.000000;-1.000000;,
  0.000000;0.000000;-1.000000;,
  0.000000;0.000000;-1.000000;,
  0.000000;0.000000;-1.000000;,
  0.000000;0.000000;-1.000000;,
  0.000000;0.000000;-1.000000;,
  0.000000;0.000000;-1.000000;,
  0.000000;0.000000;-1.000000;,
  0.000000;0.000000;-1.000000;,
  0.000000;0.000000;-1.000000;,
  0.000000;0.000000;-1.000000;,
  0.049938;-0.998752;0.000000;,
  0.049938;-0.998752;0.000000;,
  0.049938;-0.998752;0.000000;,
  0.049938;-0.998752;0.000000;,
  1.000000;0.000000;0.000000;,
  1.000000;0.000000;0.000000;,
  0.000000;0.000000;-1.000000;,
  0.000000;0.000000;-1.000000;,
  -1.000000;0.000000;0.000000;,
  -1.000000;0.000000;0.000000;,
  0.000000;0.000000;1.000000;,
  0.000000;0.000000;1.000000;,
  1.000000;0.000000;0.000000;,
  1.000000;0.000000;0.000000;,
  0.000000;1.000000;0.000000;,
  0.000000;1.000000;0.000000;,
  0.000000;-1.000000;0.000000;,
  0.000000;-1.000000;0.000000;,
  0.000000;0.000000;-1.000000;,
  0.000000;0.000000;-1.000000;,
  -1.000000;0.000000;0.000000;,
  -1.000000;0.000000;0.000000;,
  0.000000;0.000000;1.000000;,
  0.000000;0.000000;1.000000;,
  1.000000;0.000000;0.000000;,
  1.000000;0.000000;0.000000;,
  0.000000;1.000000;0.000000;,
  0.000000;1.000000;0.000000;,
  0.000000;-1.000000;0.000000;,
  0.000000;-1.000000;0.000000;,
  0.000000;0.000000;-1.000000;,
  0.000000;0.000000;-1.000000;,
  -1.000000;0.000000;0.000000;,
  -1.000000;0.000000;0.000000;,
  0.000000;0.000000;1.000000;,
  0.000000;0.000000;1.000000;,
  1.000000;0.000000;0.000000;,
  1.000000;0.000000;0.000000;,
  0.000000;1.000000;0.000000;,
  0.000000;1.000000;0.000000;,
  0.000000;-1.000000;0.000000;,
  0.000000;-1.000000;0.000000;,
  0.000000;0.000000;-1.000000;,
  0.000000;0.000000;-1.000000;,
  -1.000000;0.000000;0.000000;,
  -1.000000;0.000000;0.000000;,
  0.000000;0.000000;1.000000;,
  0.000000;0.000000;1.000000;,
  1.000000;0.000000;0.000000;,
  1.000000;0.000000;0.000000;,
  0.000000;1.000000;0.000000;,
  0.000000;1.000000;0.000000;,
  0.000000;-1.000000;0.000000;,
  0.000000;-1.000000;0.000000;,
  -1.000000;0.000000;0.000000;,
  -1.000000;0.000000;0.000000;,
  0.000000;1.000000;0.000000;,
  0.000000;1.000000;0.000000;,
  0.000000;1.000000;0.000000;,
  0.000000;1.000000;0.000000;,
  -1.000000;0.000000;0.000000;,
  -1.000000;0.000000;0.000000;,
  0.000000;0.000000;-1.000000;,
  0.000000;0.000000;-1.000000;,
  0.000000;0.000000;-1.000000;,
  0.000000;0.000000;-1.000000;,
  0.000000;0.000000;-1.000000;,
  0.000000;0.000000;-1.000000;,
  0.000000;0.000000;-1.000000;,
  0.000000;0.000000;-1.000000;,
  0.000000;0.000000;-1.000000;,
  0.000000;0.000000;-1.000000;,
  0.000000;0.000000;-1.000000;,
  0.000000;0.000000;-1.000000;,
  -1.000000;0.000000;0.000000;,
  -1.000000;0.000000;0.000000;,
  -1.000000;0.000000;0.000000;,
  -1.000000;0.000000;0.000000;,
  -1.000000;0.000000;0.000000;,
  -1.000000;0.000000;0.000000;,
  -1.000000;0.000000;0.000000;,
  -1.000000;0.000000;0.000000;,
  0.000000;0.000000;-1.000000;,
  0.000000;0.000000;-1.000000;,
  0.000000;0.000000;-1.000000;,
  0.000000;0.000000;-1.000000;,
  0.000000;0.000000;-1.000000;,
  0.000000;0.000000;-1.000000;,
  0.000000;0.000000;-1.000000;,
  0.000000;0.000000;-1.000000;,
  0.000000;0.000000;-1.000000;,
  0.000000;0.000000;-1.000000;,
  0.000000;0.000000;-1.000000;,
  0.000000;0.000000;-1.000000;,
  0.000000;0.000000;-1.000000;,
  0.000000;0.000000;-1.000000;,
  -0.049938;-0.998752;0.000000;,
  -0.049938;-0.998752;0.000000;,
  -0.049938;-0.998752;0.000000;,
  -0.049938;-0.998752;0.000000;,
  -1.000000;0.000000;0.000000;,
  -1.000000;0.000000;0.000000;,
  0.000000;0.000000;-1.000000;,
  0.000000;0.000000;-1.000000;,
  -1.000000;0.000000;0.000000;,
  -1.000000;0.000000;0.000000;,
  0.000000;0.000000;1.000000;,
  0.000000;0.000000;1.000000;,
  1.000000;0.000000;0.000000;,
  1.000000;0.000000;0.000000;,
  0.000000;1.000000;0.000000;,
  0.000000;1.000000;0.000000;,
  0.000000;-1.000000;0.000000;,
  0.000000;-1.000000;0.000000;,
  0.000000;0.000000;-1.000000;,
  0.000000;0.000000;-1.000000;,
  -1.000000;0.000000;0.000000;,
  -1.000000;0.000000;0.000000;,
  0.000000;0.000000;1.000000;,
  0.000000;0.000000;1.000000;,
  1.000000;0.000000;0.000000;,
  1.000000;0.000000;0.000000;,
  0.000000;1.000000;0.000000;,
  0.000000;1.000000;0.000000;,
  0.000000;-1.000000;0.000000;,
  0.000000;-1.000000;0.000000;,
  0.000000;0.000000;-1.000000;,
  0.000000;0.000000;-1.000000;,
  -1.000000;0.000000;0.000000;,
  -1.000000;0.000000;0.000000;,
  0.000000;0.000000;1.000000;,
  0.000000;0.000000;1.000000;,
  1.000000;0.000000;0.000000;,
  1.000000;0.000000;0.000000;,
  0.000000;1.000000;0.000000;,
  0.000000;1.000000;0.000000;,
  0.000000;-1.000000;0.000000;,
  0.000000;-1.000000;0.000000;,
  0.000000;0.000000;-1.000000;,
  0.000000;0.000000;-1.000000;,
  -1.000000;0.000000;0.000000;,
  -1.000000;0.000000;0.000000;,
  0.000000;0.000000;1.000000;,
  0.000000;0.000000;1.000000;,
  1.000000;0.000000;0.000000;,
  1.000000;0.000000;0.000000;,
  0.000000;1.000000;0.000000;,
  0.000000;1.000000;0.000000;,
  0.000000;-1.000000;0.000000;,
  0.000000;-1.000000;0.000000;;
  192;
  3;0,0,0;,
  3;1,1,1;,
  3;2,2,2;,
  3;3,3,3;,
  3;4,4,4;,
  3;5,5,5;,
  3;6,6,6;,
  3;7,7,7;,
  3;8,8,8;,
  3;9,9,9;,
  3;10,10,10;,
  3;11,11,11;,
  3;12,12,12;,
  3;13,13,13;,
  3;14,14,14;,
  3;15,15,15;,
  3;16,16,16;,
  3;17,17,17;,
  3;18,18,18;,
  3;19,19,19;,
  3;20,20,20;,
  3;21,21,21;,
  3;22,22,22;,
  3;23,23,23;,
  3;24,24,24;,
  3;25,25,25;,
  3;26,26,26;,
  3;27,27,27;,
  3;28,28,28;,
  3;29,29,29;,
  3;30,30,30;,
  3;31,31,31;,
  3;32,32,32;,
  3;33,33,33;,
  3;34,34,34;,
  3;35,35,35;,
  3;36,36,36;,
  3;37,37,37;,
  3;38,38,38;,
  3;39,39,39;,
  3;40,40,40;,
  3;41,41,41;,
  3;42,42,42;,
  3;43,43,43;,
  3;44,44,44;,
  3;45,45,45;,
  3;46,46,46;,
  3;47,47,47;,
  3;48,48,48;,
  3;49,49,49;,
  3;50,50,50;,
  3;51,51,51;,
  3;52,52,52;,
  3;53,53,53;,
  3;54,54,54;,
  3;55,55,55;,
  3;56,56,56;,
  3;57,57,57;,
  3;58,58,58;,
  3;59,59,59;,
  3;60,60,60;,
  3;61,61,61;,
  3;62,62,62;,
  3;63,63,63;,
  3;64,64,64;,
  3;65,65,65;,
  3;66,66,66;,
  3;67,67,67;,
  3;68,68,68;,
  3;69,69,69;,
  3;70,70,70;,
  3;71,71,71;,
  3;72,72,72;,
  3;73,73,73;,
  3;74,74,74;,
  3;75,75,75;,
  3;76,76,76;,
  3;77,77,77;,
  3;78,78,78;,
  3;79,79,79;,
  3;80,80,80;,
  3;81,81,81;,
  3;82,82,82;,
  3;83,83,83;,
  3;84,84,84;,
  3;85,85,85;,
  3;86,86,86;,
  3;87,87,87;,
  3;88,88,88;,
  3;89,89,89;,
  3;90,90,90;,
  3;91,91,91;,
  3;92,92,92;,
  3;93,93,93;,
  3;94,94,94;,
  3;95,95,95;,
  3;96,96,96;,
  3;97,97,97;,
  3;98,98,98;,
  3;99,99,99;,
  3;100,100,100;,
  3;101,101,101;,
  3;102,102,102;,
  3;103,103,103;,
  3;104,104,104;,
  3;105,105,105;,
  3;106,106,106;,
  3;107,107,107;,
  3;108,108,108;,
  3;109,109,109;,
  3;110,110,110;,
  3;111,111,111;,
  3;112,112,112;,
  3;113,113,113;,
  3;114,114,114;,
  3;115,115,115;,
  3;116,116,116;,
  3;117,117,117;,
  3;118,118,118;,
  3;119,119,119;,
  3;120,120,120;,
  3;121,121,121;,
  3;122,122,122;,
  3;123,123,123;,
  3;124,124,124;,
  3;125,125,125;,
  3;126,126,126;,
  3;127,127,127;,
  3;128,128,128;,
  3;129,129,129;,
  3;130,130,130;,
  3;131,131,131;,
  3;132,132,132;,
  3;133,133,133;,
  3;134,134,134;,
  3;135,135,135;,
  3;136,136,136;,
  3;137,137,137;,
  3;138,138,138;,
  3;139,139,139;,
  3;140,140,140;,
  3;141,141,141;,
  3;142,142,142;,
  3;143,143,143;,
  3;144,144,144;,
  3;145,145,145;,
  3;146,146,146;,
  3;147,147,147;,
  3;148,148,148;,
  3;149,149,149;,
  3;150,150,150;,
  3;151,151,151;,
  3;152,152,152;,
  3;153,153,153;,
  3;154,154,154;,
  3;155,155,155;,
  3;156,156,156;,
  3;157,157,157;,
  3;158,158,158;,
  3;159,159,159;,
  3;160,160,160;,
  3;161,161,161;,
  3;162,162,162;,
  3;163,163,163;,
  3;164,164,164;,
  3;165,165,165;,
  3;166,166,166;,
  3;167,167,167;,
  3;168,168,168;,
  3;169,169,169;,
  3;170,170,170;,
  3;171,171,171;,
  3;172,172,172;,
  3;173,173,173;,
  3;174,174,174;,
  3;175,175,175;,
  3;176,176,176;,
  3;177,177,177;,
  3;178,178,178;,
  3;179,179,179;,
  3;180,180,180;,
  3;181,181,181;,
  3;182,182,182;,
  3;183,183,183;,
  3;184,184,184;,
  3;185,185,185;,
  3;186,186,186;,
  3;187,187,187;,
  3;188,188,188;,
  3;189,189,189;,
  3;190,190,190;,
  3;191,191,191;;
 }
}