xof 0303txt 0032
template Vector {
 <3d82ab5e-62da-11cf-ab39-0020af71e433>
 FLOAT x;
 FLOAT y;
 FLOAT z;
}

template MeshFace {
 <3d82ab5f-62da-11cf-ab39-0020af71e433>
 DWORD nFaceVertexIndices;
 array DWORD faceVertexIndices[nFaceVertexIndices];
}

template Mesh {
 <3d82ab44-62da-11cf-ab39-0020af71e433>
 DWORD nVertices;
 array Vector vertices[nVertices];
 DWORD nFaces;
 array MeshFace faces[nFaces];
 [...]
}

template ColorRGBA {
 <35ff44e0-6c7c-11cf-8f52-0040333594a3>
 FLOAT red;
 FLOAT green;
 FLOAT blue;
 FLOAT alpha;
}

template ColorRGB {
 <d3e16e81-7835-11cf-8f52-0040333594a3>
 FLOAT red;
 FLOAT green;
 FLOAT blue;
}

template Material {
 <3d82ab4d-62da-11cf-ab39-0020af71e433>
 ColorRGBA faceColor;
 FLOAT power;
 ColorRGB specularColor;
 ColorRGB emissiveColor;
 [...]
}

template MeshMaterialList {
 <f6f23f42-7686-11cf-8f52-0040333594a3>
 DWORD nMaterials;
 DWORD nFaceIndexes;
 array DWORD faceIndexes[nFaceIndexes];
 [Material <3d82ab4d-62da-11cf-ab39-0020af71e433>]
}

template TextureFilename {
 <a42790e1-7810-11cf-8f52-0040333594a3>
 STRING filename;
}

template Coords2d {
 <f6f23f44-7686-11cf-8f52-0040333594a3>
 FLOAT u;
 FLOAT v;
}

template MeshTextureCoords {
 <f6f23f40-7686-11cf-8f52-0040333594a3>
 DWORD nTextureCoords;
 array Coords2d textureCoords[nTextureCoords];
}

template MeshNormals {
 <f6f23f43-7686-11cf-8f52-0040333594a3>
 DWORD nNormals;
 array Vector normals[nNormals];
 DWORD nFaceNormals;
 array MeshFace faceNormals[nFaceNormals];
}


Mesh  {
 200;
 -1.500000;0.950000;-25.000000;,
 -1.500000;1.100000;-25.000000;,
 -2.700000;1.100000;-25.000000;,
 -1.500000;0.950000;10.000000;,
 -1.500000;1.100000;10.000000;,
 -2.700000;1.100000;10.000000;,
 -2.700000;1.100000;-25.000000;,
 -2.700000;1.100000;10.000000;,
 -4.100000;1.100000;-25.000000;,
 -4.100000;1.100000;10.000000;,
 -4.100000;1.100000;-25.000000;,
 -4.100000;2.300000;-25.000000;,
 -4.100000;1.100000;10.000000;,
 -4.100000;2.300000;10.000000;,
 -2.100000;1.100000;10.000000;,
 -2.100000;2.300000;10.000000;,
 -4.100000;-1.000000;-23.900000;,
 -4.100000;0.950000;-23.900000;,
 -1.500000;0.950000;-23.900000;,
 -1.500000;-1.000000;-23.900000;,
 -4.100000;-1.000000;-17.900000;,
 -4.100000;0.950000;-17.900000;,
 -1.500000;0.950000;-17.900000;,
 -1.500000;-1.000000;-17.900000;,
 -4.100000;-1.000000;-11.900000;,
 -4.100000;0.950000;-11.900000;,
 -1.500000;0.950000;-11.900000;,
 -1.500000;-1.000000;-11.900000;,
 -4.100000;-1.000000;-5.900000;,
 -4.100000;0.950000;-5.900000;,
 -1.500000;0.950000;-5.900000;,
 -1.500000;-1.000000;-5.900000;,
 -4.100000;-1.000000;0.100000;,
 -4.100000;0.950000;0.100000;,
 -1.500000;0.950000;0.100000;,
 -1.500000;-1.000000;0.100000;,
 -4.100000;-1.000000;6.100000;,
 -4.100000;0.950000;6.100000;,
 -1.500000;0.950000;6.100000;,
 -1.500000;-1.000000;6.100000;,
 -4.100000;-1.000000;10.000000;,
 -4.100000;0.950000;10.000000;,
 -1.500000;0.950000;10.000000;,
 -1.500000;-1.000000;10.000000;,
 -3.460000;-0.500000;-24.199997;,
 -3.460000;-1.000000;-24.199997;,
 -4.059999;-1.000000;-24.199997;,
 -4.059999;-0.500000;-24.199997;,
 -3.460000;-0.500000;-23.599998;,
 -3.460000;-1.000000;-23.599998;,
 -4.059999;-1.000000;-23.599998;,
 -4.059999;-0.500000;-23.599998;,
 -3.460000;-0.500000;-18.199997;,
 -3.460000;-1.000000;-18.199997;,
 -4.059999;-1.000000;-18.199997;,
 -4.059999;-0.500000;-18.199997;,
 -3.460000;-0.500000;-17.599998;,
 -3.460000;-1.000000;-17.599998;,
 -4.059999;-1.000000;-17.599998;,
 -4.059999;-0.500000;-17.599998;,
 -3.460000;-0.500000;-12.199999;,
 -3.460000;-1.000000;-12.199999;,
 -4.059999;-1.000000;-12.199999;,
 -4.059999;-0.500000;-12.199999;,
 -3.460000;-0.500000;-11.599998;,
 -3.460000;-1.000000;-11.599998;,
 -4.059999;-1.000000;-11.599998;,
 -4.059999;-0.500000;-11.599998;,
 -3.460000;-0.500000;-6.200000;,
 -3.460000;-1.000000;-6.200000;,
 -4.059999;-1.000000;-6.200000;,
 -4.059999;-0.500000;-6.200000;,
 -3.460000;-0.500000;-5.599999;,
 -3.460000;-1.000000;-5.599999;,
 -4.059999;-1.000000;-5.599999;,
 -4.059999;-0.500000;-5.599999;,
 -3.460000;-0.500000;-0.200000;,
 -3.460000;-1.000000;-0.200000;,
 -4.059999;-1.000000;-0.200000;,
 -4.059999;-0.500000;-0.200000;,
 -3.460000;-0.500000;0.400000;,
 -3.460000;-1.000000;0.400000;,
 -4.059999;-1.000000;0.400000;,
 -4.059999;-0.500000;0.400000;,
 -3.460000;-0.500000;5.799999;,
 -3.460000;-1.000000;5.799999;,
 -4.059999;-1.000000;5.799999;,
 -4.059999;-0.500000;5.799999;,
 -3.460000;-0.500000;6.400000;,
 -3.460000;-1.000000;6.400000;,
 -4.059999;-1.000000;6.400000;,
 -4.059999;-0.500000;6.400000;,
 -3.460000;-0.500000;9.699999;,
 -3.460000;-1.000000;9.699999;,
 -4.059999;-1.000000;9.699999;,
 -4.059999;-0.500000;9.699999;,
 -3.460000;-0.500000;10.299999;,
 -3.460000;-1.000000;10.299999;,
 -4.059999;-1.000000;10.299999;,
 -4.059999;-0.500000;10.299999;,
 5.300000;0.950000;-25.000000;,
 5.300000;1.100000;-25.000000;,
 6.500000;1.100000;-25.000000;,
 5.300000;0.950000;10.000000;,
 5.300000;1.100000;10.000000;,
 6.500000;1.100000;10.000000;,
 6.500000;1.100000;-25.000000;,
 6.500000;1.100000;10.000000;,
 7.900000;1.100000;-25.000000;,
 7.900000;1.100000;10.000000;,
 7.900000;1.100000;-25.000000;,
 7.900000;2.300000;-25.000000;,
 7.900000;1.100000;10.000000;,
 7.900000;2.300000;10.000000;,
 5.900000;1.100000;10.000000;,
 5.900000;2.300000;10.000000;,
 7.900000;-1.000000;-23.900000;,
 7.900000;0.950000;-23.900000;,
 5.300000;0.950000;-23.900000;,
 5.300000;-1.000000;-23.900000;,
 7.900000;-1.000000;-17.900000;,
 7.900000;0.950000;-17.900000;,
 5.300000;0.950000;-17.900000;,
 5.300000;-1.000000;-17.900000;,
 7.900000;-1.000000;-11.900000;,
 7.900000;0.950000;-11.900000;,
 5.300000;0.950000;-11.900000;,
 5.300000;-1.000000;-11.900000;,
 7.900000;-1.000000;-5.900000;,
 7.900000;0.950000;-5.900000;,
 5.300000;0.950000;-5.900000;,
 5.300000;-1.000000;-5.900000;,
 7.900000;-1.000000;0.100000;,
 7.900000;0.950000;0.100000;,
 5.300000;0.950000;0.100000;,
 5.300000;-1.000000;0.100000;,
 7.900000;-1.000000;6.100000;,
 7.900000;0.950000;6.100000;,
 5.300000;0.950000;6.100000;,
 5.300000;-1.000000;6.100000;,
 7.900000;-1.000000;10.000000;,
 7.900000;0.950000;10.000000;,
 5.300000;0.950000;10.000000;,
 5.300000;-1.000000;10.000000;,
 7.860000;-0.500000;-24.199997;,
 7.860000;-1.000000;-24.199997;,
 7.259999;-1.000000;-24.199997;,
 7.259999;-0.500000;-24.199997;,
 7.860000;-0.500000;-23.599998;,
 7.860000;-1.000000;-23.599998;,
 7.259999;-1.000000;-23.599998;,
 7.259999;-0.500000;-23.599998;,
 7.860000;-0.500000;-18.199997;,
 7.860000;-1.000000;-18.199997;,
 7.259999;-1.000000;-18.199997;,
 7.259999;-0.500000;-18.199997;,
 7.860000;-0.500000;-17.599998;,
 7.860000;-1.000000;-17.599998;,
 7.259999;-1.000000;-17.599998;,
 7.259999;-0.500000;-17.599998;,
 7.860000;-0.500000;-12.199999;,
 7.860000;-1.000000;-12.199999;,
 7.259999;-1.000000;-12.199999;,
 7.259999;-0.500000;-12.199999;,
 7.860000;-0.500000;-11.599998;,
 7.860000;-1.000000;-11.599998;,
 7.259999;-1.000000;-11.599998;,
 7.259999;-0.500000;-11.599998;,
 7.860000;-0.500000;-6.200000;,
 7.860000;-1.000000;-6.200000;,
 7.259999;-1.000000;-6.200000;,
 7.259999;-0.500000;-6.200000;,
 7.860000;-0.500000;-5.599999;,
 7.860000;-1.000000;-5.599999;,
 7.259999;-1.000000;-5.599999;,
 7.259999;-0.500000;-5.599999;,
 7.860000;-0.500000;-0.200000;,
 7.860000;-1.000000;-0.200000;,
 7.259999;-1.000000;-0.200000;,
 7.259999;-0.500000;-0.200000;,
 7.860000;-0.500000;0.400000;,
 7.860000;-1.000000;0.400000;,
 7.259999;-1.000000;0.400000;,
 7.259999;-0.500000;0.400000;,
 7.860000;-0.500000;5.799999;,
 7.860000;-1.000000;5.799999;,
 7.259999;-1.000000;5.799999;,
 7.259999;-0.500000;5.799999;,
 7.860000;-0.500000;6.400000;,
 7.860000;-1.000000;6.400000;,
 7.259999;-1.000000;6.400000;,
 7.259999;-0.500000;6.400000;,
 7.860000;-0.500000;9.699999;,
 7.860000;-1.000000;9.699999;,
 7.259999;-1.000000;9.699999;,
 7.259999;-0.500000;9.699999;,
 7.860000;-0.500000;10.299999;,
 7.860000;-1.000000;10.299999;,
 7.259999;-1.000000;10.299999;,
 7.259999;-0.500000;10.299999;;
 216;
 3;0,1,4;,
 3;0,4,3;,
 3;1,2,5;,
 3;1,5,4;,
 3;8,9,7;,
 3;8,7,6;,
 3;10,11,13;,
 3;10,13,12;,
 3;12,13,15;,
 3;12,15,14;,
 3;16,17,18;,
 3;16,18,19;,
 3;20,21,22;,
 3;20,22,23;,
 3;24,25,26;,
 3;24,26,27;,
 3;28,29,30;,
 3;28,30,31;,
 3;32,33,34;,
 3;32,34,35;,
 3;36,37,38;,
 3;36,38,39;,
 3;40,41,42;,
 3;40,42,43;,
 3;44,45,46;,
 3;44,46,47;,
 3;47,46,50;,
 3;47,50,51;,
 3;51,50,49;,
 3;51,49,48;,
 3;48,49,45;,
 3;48,45,44;,
 3;44,47,51;,
 3;44,51,48;,
 3;45,49,50;,
 3;45,50,46;,
 3;52,53,54;,
 3;52,54,55;,
 3;55,54,58;,
 3;55,58,59;,
 3;59,58,57;,
 3;59,57,56;,
 3;56,57,53;,
 3;56,53,52;,
 3;52,55,59;,
 3;52,59,56;,
 3;53,57,58;,
 3;53,58,54;,
 3;60,61,62;,
 3;60,62,63;,
 3;63,62,66;,
 3;63,66,67;,
 3;67,66,65;,
 3;67,65,64;,
 3;64,65,61;,
 3;64,61,60;,
 3;60,63,67;,
 3;60,67,64;,
 3;61,65,66;,
 3;61,66,62;,
 3;68,69,70;,
 3;68,70,71;,
 3;71,70,74;,
 3;71,74,75;,
 3;75,74,73;,
 3;75,73,72;,
 3;72,73,69;,
 3;72,69,68;,
 3;68,71,75;,
 3;68,75,72;,
 3;69,73,74;,
 3;69,74,70;,
 3;76,77,78;,
 3;76,78,79;,
 3;79,78,82;,
 3;79,82,83;,
 3;83,82,81;,
 3;83,81,80;,
 3;80,81,77;,
 3;80,77,76;,
 3;76,79,83;,
 3;76,83,80;,
 3;77,81,82;,
 3;77,82,78;,
 3;84,85,86;,
 3;84,86,87;,
 3;87,86,90;,
 3;87,90,91;,
 3;91,90,89;,
 3;91,89,88;,
 3;88,89,85;,
 3;88,85,84;,
 3;84,87,91;,
 3;84,91,88;,
 3;85,89,90;,
 3;85,90,86;,
 3;92,93,94;,
 3;92,94,95;,
 3;95,94,98;,
 3;95,98,99;,
 3;99,98,97;,
 3;99,97,96;,
 3;96,97,93;,
 3;96,93,92;,
 3;92,95,99;,
 3;92,99,96;,
 3;93,97,98;,
 3;93,98,94;,
 3;103,104,101;,
 3;103,101,100;,
 3;104,105,102;,
 3;104,102,101;,
 3;106,107,109;,
 3;106,109,108;,
 3;112,113,111;,
 3;112,111,110;,
 3;114,115,113;,
 3;114,113,112;,
 3;119,118,117;,
 3;119,117,116;,
 3;123,122,121;,
 3;123,121,120;,
 3;127,126,125;,
 3;127,125,124;,
 3;131,130,129;,
 3;131,129,128;,
 3;135,134,133;,
 3;135,133,132;,
 3;139,138,137;,
 3;139,137,136;,
 3;143,142,141;,
 3;143,141,140;,
 3;144,145,146;,
 3;144,146,147;,
 3;147,146,150;,
 3;147,150,151;,
 3;151,150,149;,
 3;151,149,148;,
 3;148,149,145;,
 3;148,145,144;,
 3;144,147,151;,
 3;144,151,148;,
 3;145,149,150;,
 3;145,150,146;,
 3;152,153,154;,
 3;152,154,155;,
 3;155,154,158;,
 3;155,158,159;,
 3;159,158,157;,
 3;159,157,156;,
 3;156,157,153;,
 3;156,153,152;,
 3;152,155,159;,
 3;152,159,156;,
 3;153,157,158;,
 3;153,158,154;,
 3;160,161,162;,
 3;160,162,163;,
 3;163,162,166;,
 3;163,166,167;,
 3;167,166,165;,
 3;167,165,164;,
 3;164,165,161;,
 3;164,161,160;,
 3;160,163,167;,
 3;160,167,164;,
 3;161,165,166;,
 3;161,166,162;,
 3;168,169,170;,
 3;168,170,171;,
 3;171,170,174;,
 3;171,174,175;,
 3;175,174,173;,
 3;175,173,172;,
 3;172,173,169;,
 3;172,169,168;,
 3;168,171,175;,
 3;168,175,172;,
 3;169,173,174;,
 3;169,174,170;,
 3;176,177,178;,
 3;176,178,179;,
 3;179,178,182;,
 3;179,182,183;,
 3;183,182,181;,
 3;183,181,180;,
 3;180,181,177;,
 3;180,177,176;,
 3;176,179,183;,
 3;176,183,180;,
 3;177,181,182;,
 3;177,182,178;,
 3;184,185,186;,
 3;184,186,187;,
 3;187,186,190;,
 3;187,190,191;,
 3;191,190,189;,
 3;191,189,188;,
 3;188,189,185;,
 3;188,185,184;,
 3;184,187,191;,
 3;184,191,188;,
 3;185,189,190;,
 3;185,190,186;,
 3;192,193,194;,
 3;192,194,195;,
 3;195,194,198;,
 3;195,198,199;,
 3;199,198,197;,
 3;199,197,196;,
 3;196,197,193;,
 3;196,193,192;,
 3;192,195,199;,
 3;192,199,196;,
 3;193,197,198;,
 3;193,198,194;;

 MeshMaterialList  {
  34;
  216;
  0,
  0,
  0,
  0,
  1,
  1,
  2,
  2,
  2,
  2,
  3,
  3,
  4,
  4,
  5,
  5,
  6,
  6,
  7,
  7,
  8,
  8,
  9,
  9,
  10,
  10,
  10,
  10,
  10,
  10,
  10,
  10,
  10,
  10,
  10,
  10,
  11,
  11,
  11,
  11,
  11,
  11,
  11,
  11,
  11,
  11,
  11,
  11,
  12,
  12,
  12,
  12,
  12,
  12,
  12,
  12,
  12,
  12,
  12,
  12,
  13,
  13,
  13,
  13,
  13,
  13,
  13,
  13,
  13,
  13,
  13,
  13,
  14,
  14,
  14,
  14,
  14,
  14,
  14,
  14,
  14,
  14,
  14,
  14,
  15,
  15,
  15,
  15,
  15,
  15,
  15,
  15,
  15,
  15,
  15,
  15,
  16,
  16,
  16,
  16,
  16,
  16,
  16,
  16,
  16,
  16,
  16,
  16,
  17,
  17,
  17,
  17,
  18,
  18,
  19,
  19,
  19,
  19,
  20,
  20,
  21,
  21,
  22,
  22,
  23,
  23,
  24,
  24,
  25,
  25,
  26,
  26,
  27,
  27,
  27,
  27,
  27,
  27,
  27,
  27,
  27,
  27,
  27,
  27,
  28,
  28,
  28,
  28,
  28,
  28,
  28,
  28,
  28,
  28,
  28,
  28,
  29,
  29,
  29,
  29,
  29,
  29,
  29,
  29,
  29,
  29,
  29,
  29,
  30,
  30,
  30,
  30,
  30,
  30,
  30,
  30,
  30,
  30,
  30,
  30,
  31,
  31,
  31,
  31,
  31,
  31,
  31,
  31,
  31,
  31,
  31,
  31,
  32,
  32,
  32,
  32,
  32,
  32,
  32,
  32,
  32,
  32,
  32,
  32,
  33,
  33,
  33,
  33,
  33,
  33,
  33,
  33,
  33,
  33,
  33,
  33;

  Material  {
   1.000000;1.000000;1.000000;1.000000;;
   0.000000;
   0.000000;0.000000;0.000000;;
   0.000000;0.000000;0.000000;;

   TextureFilename  {
    "FormSide1.png";
   }
  }

  Material  {
   1.000000;1.000000;1.000000;1.000000;;
   0.000000;
   0.000000;0.000000;0.000000;;
   0.000000;0.000000;0.000000;;

   TextureFilename  {
    "FormC.png";
   }
  }

  Material  {
   1.000000;1.000000;1.000000;1.000000;;
   0.000000;
   0.000000;0.000000;0.000000;;
   0.000000;0.000000;0.000000;;

   TextureFilename  {
    "Saku1.png";
   }
  }

  Material  {
   1.000000;1.000000;1.000000;1.000000;;
   0.000000;
   0.000000;0.000000;0.000000;;
   0.000000;0.000000;0.000000;;

   TextureFilename  {
    "Iron1.png";
   }
  }

  Material  {
   1.000000;1.000000;1.000000;1.000000;;
   0.000000;
   0.000000;0.000000;0.000000;;
   0.000000;0.000000;0.000000;;

   TextureFilename  {
    "Iron1.png";
   }
  }

  Material  {
   1.000000;1.000000;1.000000;1.000000;;
   0.000000;
   0.000000;0.000000;0.000000;;
   0.000000;0.000000;0.000000;;

   TextureFilename  {
    "Iron1.png";
   }
  }

  Material  {
   1.000000;1.000000;1.000000;1.000000;;
   0.000000;
   0.000000;0.000000;0.000000;;
   0.000000;0.000000;0.000000;;

   TextureFilename  {
    "Iron1.png";
   }
  }

  Material  {
   1.000000;1.000000;1.000000;1.000000;;
   0.000000;
   0.000000;0.000000;0.000000;;
   0.000000;0.000000;0.000000;;

   TextureFilename  {
    "Iron1.png";
   }
  }

  Material  {
   1.000000;1.000000;1.000000;1.000000;;
   0.000000;
   0.000000;0.000000;0.000000;;
   0.000000;0.000000;0.000000;;

   TextureFilename  {
    "Iron1.png";
   }
  }

  Material  {
   1.000000;1.000000;1.000000;1.000000;;
   0.000000;
   0.000000;0.000000;0.000000;;
   0.000000;0.000000;0.000000;;

   TextureFilename  {
    "Iron1.png";
   }
  }

  Material  {
   0.352941;0.333333;0.333333;1.000000;;
   0.000000;
   0.000000;0.000000;0.000000;;
   0.000000;0.000000;0.000000;;
  }

  Material  {
   0.352941;0.333333;0.333333;1.000000;;
   0.000000;
   0.000000;0.000000;0.000000;;
   0.000000;0.000000;0.000000;;
  }

  Material  {
   0.352941;0.333333;0.333333;1.000000;;
   0.000000;
   0.000000;0.000000;0.000000;;
   0.000000;0.000000;0.000000;;
  }

  Material  {
   0.352941;0.333333;0.333333;1.000000;;
   0.000000;
   0.000000;0.000000;0.000000;;
   0.000000;0.000000;0.000000;;
  }

  Material  {
   0.352941;0.333333;0.333333;1.000000;;
   0.000000;
   0.000000;0.000000;0.000000;;
   0.000000;0.000000;0.000000;;
  }

  Material  {
   0.352941;0.333333;0.333333;1.000000;;
   0.000000;
   0.000000;0.000000;0.000000;;
   0.000000;0.000000;0.000000;;
  }

  Material  {
   0.352941;0.333333;0.333333;1.000000;;
   0.000000;
   0.000000;0.000000;0.000000;;
   0.000000;0.000000;0.000000;;
  }

  Material  {
   1.000000;1.000000;1.000000;1.000000;;
   0.000000;
   0.000000;0.000000;0.000000;;
   0.000000;0.000000;0.000000;;

   TextureFilename  {
    "FormSide1.png";
   }
  }

  Material  {
   1.000000;1.000000;1.000000;1.000000;;
   0.000000;
   0.000000;0.000000;0.000000;;
   0.000000;0.000000;0.000000;;

   TextureFilename  {
    "FormC.png";
   }
  }

  Material  {
   1.000000;1.000000;1.000000;1.000000;;
   0.000000;
   0.000000;0.000000;0.000000;;
   0.000000;0.000000;0.000000;;

   TextureFilename  {
    "Saku1.png";
   }
  }

  Material  {
   1.000000;1.000000;1.000000;1.000000;;
   0.000000;
   0.000000;0.000000;0.000000;;
   0.000000;0.000000;0.000000;;

   TextureFilename  {
    "Iron1.png";
   }
  }

  Material  {
   1.000000;1.000000;1.000000;1.000000;;
   0.000000;
   0.000000;0.000000;0.000000;;
   0.000000;0.000000;0.000000;;

   TextureFilename  {
    "Iron1.png";
   }
  }

  Material  {
   1.000000;1.000000;1.000000;1.000000;;
   0.000000;
   0.000000;0.000000;0.000000;;
   0.000000;0.000000;0.000000;;

   TextureFilename  {
    "Iron1.png";
   }
  }

  Material  {
   1.000000;1.000000;1.000000;1.000000;;
   0.000000;
   0.000000;0.000000;0.000000;;
   0.000000;0.000000;0.000000;;

   TextureFilename  {
    "Iron1.png";
   }
  }

  Material  {
   1.000000;1.000000;1.000000;1.000000;;
   0.000000;
   0.000000;0.000000;0.000000;;
   0.000000;0.000000;0.000000;;

   TextureFilename  {
    "Iron1.png";
   }
  }

  Material  {
   1.000000;1.000000;1.000000;1.000000;;
   0.000000;
   0.000000;0.000000;0.000000;;
   0.000000;0.000000;0.000000;;

   TextureFilename  {
    "Iron1.png";
   }
  }

  Material  {
   1.000000;1.000000;1.000000;1.000000;;
   0.000000;
   0.000000;0.000000;0.000000;;
   0.000000;0.000000;0.000000;;

   TextureFilename  {
    "Iron1.png";
   }
  }

  Material  {
   0.352941;0.333333;0.333333;1.000000;;
   0.000000;
   0.000000;0.000000;0.000000;;
   0.000000;0.000000;0.000000;;
  }

  Material  {
   0.352941;0.333333;0.333333;1.000000;;
   0.000000;
   0.000000;0.000000;0.000000;;
   0.000000;0.000000;0.000000;;
  }

  Material  {
   0.352941;0.333333;0.333333;1.000000;;
   0.000000;
   0.000000;0.000000;0.000000;;
   0.000000;0.000000;0.000000;;
  }

  Material  {
   0.352941;0.333333;0.333333;1.000000;;
   0.000000;
   0.000000;0.000000;0.000000;;
   0.000000;0.000000;0.000000;;
  }

  Material  {
   0.352941;0.333333;0.333333;1.000000;;
   0.000000;
   0.000000;0.000000;0.000000;;
   0.000000;0.000000;0.000000;;
  }

  Material  {
   0.352941;0.333333;0.333333;1.000000;;
   0.000000;
   0.000000;0.000000;0.000000;;
   0.000000;0.000000;0.000000;;
  }

  Material  {
   0.352941;0.333333;0.333333;1.000000;;
   0.000000;
   0.000000;0.000000;0.000000;;
   0.000000;0.000000;0.000000;;
  }
 }

 MeshTextureCoords  {
  200;
  0.000000;1.000000;,
  0.000000;0.440000;,
  0.000000;0.000000;,
  2.800000;1.000000;,
  2.800000;0.440000;,
  2.800000;0.000000;,
  0.000000;0.000000;,
  0.000000;1.400000;,
  0.560000;0.000000;,
  0.560000;1.400000;,
  0.164000;1.000000;,
  0.164000;0.000000;,
  5.764000;1.000000;,
  5.764000;0.000000;,
  6.245000;1.000000;,
  6.245000;0.000000;,
  0.000000;1.000000;,
  0.000000;0.020000;,
  1.000000;0.020000;,
  1.000000;1.000000;,
  0.000000;1.000000;,
  0.000000;0.020000;,
  1.000000;0.020000;,
  1.000000;1.000000;,
  0.000000;1.000000;,
  0.000000;0.020000;,
  1.000000;0.020000;,
  1.000000;1.000000;,
  0.000000;1.000000;,
  0.000000;0.020000;,
  1.000000;0.020000;,
  1.000000;1.000000;,
  0.000000;1.000000;,
  0.000000;0.020000;,
  1.000000;0.020000;,
  1.000000;1.000000;,
  0.000000;1.000000;,
  0.000000;0.020000;,
  1.000000;0.020000;,
  1.000000;1.000000;,
  0.000000;1.000000;,
  0.000000;0.020000;,
  1.000000;0.020000;,
  1.000000;1.000000;,
  0.000000;0.000000;,
  0.000000;0.000000;,
  0.000000;0.000000;,
  0.000000;0.000000;,
  0.000000;0.000000;,
  0.000000;0.000000;,
  0.000000;0.000000;,
  0.000000;0.000000;,
  0.000000;0.000000;,
  0.000000;0.000000;,
  0.000000;0.000000;,
  0.000000;0.000000;,
  0.000000;0.000000;,
  0.000000;0.000000;,
  0.000000;0.000000;,
  0.000000;0.000000;,
  0.000000;0.000000;,
  0.000000;0.000000;,
  0.000000;0.000000;,
  0.000000;0.000000;,
  0.000000;0.000000;,
  0.000000;0.000000;,
  0.000000;0.000000;,
  0.000000;0.000000;,
  0.000000;0.000000;,
  0.000000;0.000000;,
  0.000000;0.000000;,
  0.000000;0.000000;,
  0.000000;0.000000;,
  0.000000;0.000000;,
  0.000000;0.000000;,
  0.000000;0.000000;,
  0.000000;0.000000;,
  0.000000;0.000000;,
  0.000000;0.000000;,
  0.000000;0.000000;,
  0.000000;0.000000;,
  0.000000;0.000000;,
  0.000000;0.000000;,
  0.000000;0.000000;,
  0.000000;0.000000;,
  0.000000;0.000000;,
  0.000000;0.000000;,
  0.000000;0.000000;,
  0.000000;0.000000;,
  0.000000;0.000000;,
  0.000000;0.000000;,
  0.000000;0.000000;,
  0.000000;0.000000;,
  0.000000;0.000000;,
  0.000000;0.000000;,
  0.000000;0.000000;,
  0.000000;0.000000;,
  0.000000;0.000000;,
  0.000000;0.000000;,
  0.000000;0.000000;,
  0.000000;1.000000;,
  0.000000;0.440000;,
  0.000000;0.000000;,
  2.800000;1.000000;,
  2.800000;0.440000;,
  2.800000;0.000000;,
  0.000000;0.000000;,
  0.000000;1.400000;,
  0.560000;0.000000;,
  0.560000;1.400000;,
  0.164000;1.000000;,
  0.164000;0.000000;,
  5.764000;1.000000;,
  5.764000;0.000000;,
  6.245000;1.000000;,
  6.245000;0.000000;,
  0.000000;1.000000;,
  0.000000;0.020000;,
  1.000000;0.020000;,
  1.000000;1.000000;,
  0.000000;1.000000;,
  0.000000;0.020000;,
  1.000000;0.020000;,
  1.000000;1.000000;,
  0.000000;1.000000;,
  0.000000;0.020000;,
  1.000000;0.020000;,
  1.000000;1.000000;,
  0.000000;1.000000;,
  0.000000;0.020000;,
  1.000000;0.020000;,
  1.000000;1.000000;,
  0.000000;1.000000;,
  0.000000;0.020000;,
  1.000000;0.020000;,
  1.000000;1.000000;,
  0.000000;1.000000;,
  0.000000;0.020000;,
  1.000000;0.020000;,
  1.000000;1.000000;,
  0.000000;1.000000;,
  0.000000;0.020000;,
  1.000000;0.020000;,
  1.000000;1.000000;,
  0.000000;0.000000;,
  0.000000;0.000000;,
  0.000000;0.000000;,
  0.000000;0.000000;,
  0.000000;0.000000;,
  0.000000;0.000000;,
  0.000000;0.000000;,
  0.000000;0.000000;,
  0.000000;0.000000;,
  0.000000;0.000000;,
  0.000000;0.000000;,
  0.000000;0.000000;,
  0.000000;0.000000;,
  0.000000;0.000000;,
  0.000000;0.000000;,
  0.000000;0.000000;,
  0.000000;0.000000;,
  0.000000;0.000000;,
  0.000000;0.000000;,
  0.000000;0.000000;,
  0.000000;0.000000;,
  0.000000;0.000000;,
  0.000000;0.000000;,
  0.000000;0.000000;,
  0.000000;0.000000;,
  0.000000;0.000000;,
  0.000000;0.000000;,
  0.000000;0.000000;,
  0.000000;0.000000;,
  0.000000;0.000000;,
  0.000000;0.000000;,
  0.000000;0.000000;,
  0.000000;0.000000;,
  0.000000;0.000000;,
  0.000000;0.000000;,
  0.000000;0.000000;,
  0.000000;0.000000;,
  0.000000;0.000000;,
  0.000000;0.000000;,
  0.000000;0.000000;,
  0.000000;0.000000;,
  0.000000;0.000000;,
  0.000000;0.000000;,
  0.000000;0.000000;,
  0.000000;0.000000;,
  0.000000;0.000000;,
  0.000000;0.000000;,
  0.000000;0.000000;,
  0.000000;0.000000;,
  0.000000;0.000000;,
  0.000000;0.000000;,
  0.000000;0.000000;,
  0.000000;0.000000;,
  0.000000;0.000000;,
  0.000000;0.000000;,
  0.000000;0.000000;;
 }

 MeshNormals  {
  216;
  1.000000;0.000000;0.000000;,
  1.000000;0.000000;0.000000;,
  0.000000;1.000000;0.000000;,
  0.000000;1.000000;0.000000;,
  0.000000;1.000000;0.000000;,
  0.000000;1.000000;0.000000;,
  1.000000;0.000000;0.000000;,
  1.000000;0.000000;0.000000;,
  0.000000;0.000000;-1.000000;,
  0.000000;0.000000;-1.000000;,
  0.000000;0.000000;-1.000000;,
  0.000000;0.000000;-1.000000;,
  0.000000;0.000000;-1.000000;,
  0.000000;0.000000;-1.000000;,
  0.000000;0.000000;-1.000000;,
  0.000000;0.000000;-1.000000;,
  0.000000;0.000000;-1.000000;,
  0.000000;0.000000;-1.000000;,
  0.000000;0.000000;-1.000000;,
  0.000000;0.000000;-1.000000;,
  0.000000;0.000000;-1.000000;,
  0.000000;0.000000;-1.000000;,
  0.000000;0.000000;-1.000000;,
  0.000000;0.000000;-1.000000;,
  0.000000;0.000000;-1.000000;,
  0.000000;0.000000;-1.000000;,
  -1.000000;0.000000;0.000000;,
  -1.000000;0.000000;0.000000;,
  0.000000;0.000000;1.000000;,
  0.000000;0.000000;1.000000;,
  1.000000;0.000000;0.000000;,
  1.000000;0.000000;0.000000;,
  0.000000;1.000000;0.000000;,
  0.000000;1.000000;0.000000;,
  0.000000;-1.000000;0.000000;,
  0.000000;-1.000000;0.000000;,
  0.000000;0.000000;-1.000000;,
  0.000000;0.000000;-1.000000;,
  -1.000000;0.000000;0.000000;,
  -1.000000;0.000000;0.000000;,
  0.000000;0.000000;1.000000;,
  0.000000;0.000000;1.000000;,
  1.000000;0.000000;0.000000;,
  1.000000;0.000000;0.000000;,
  0.000000;1.000000;0.000000;,
  0.000000;1.000000;0.000000;,
  0.000000;-1.000000;0.000000;,
  0.000000;-1.000000;0.000000;,
  0.000000;0.000000;-1.000000;,
  0.000000;0.000000;-1.000000;,
  -1.000000;0.000000;0.000000;,
  -1.000000;0.000000;0.000000;,
  0.000000;0.000000;1.000000;,
  0.000000;0.000000;1.000000;,
  1.000000;0.000000;0.000000;,
  1.000000;0.000000;0.000000;,
  0.000000;1.000000;0.000000;,
  0.000000;1.000000;0.000000;,
  0.000000;-1.000000;0.000000;,
  0.000000;-1.000000;0.000000;,
  0.000000;0.000000;-1.000000;,
  0.000000;0.000000;-1.000000;,
  -1.000000;0.000000;0.000000;,
  -1.000000;0.000000;0.000000;,
  0.000000;0.000000;1.000000;,
  0.000000;0.000000;1.000000;,
  1.000000;0.000000;0.000000;,
  1.000000;0.000000;0.000000;,
  0.000000;1.000000;0.000000;,
  0.000000;1.000000;0.000000;,
  0.000000;-1.000000;0.000000;,
  0.000000;-1.000000;0.000000;,
  0.000000;0.000000;-1.000000;,
  0.000000;0.000000;-1.000000;,
  -1.000000;0.000000;0.000000;,
  -1.000000;0.000000;0.000000;,
  0.000000;0.000000;1.000000;,
  0.000000;0.000000;1.000000;,
  1.000000;0.000000;0.000000;,
  1.000000;0.000000;0.000000;,
  0.000000;1.000000;0.000000;,
  0.000000;1.000000;0.000000;,
  0.000000;-1.000000;0.000000;,
  0.000000;-1.000000;0.000000;,
  0.000000;0.000000;-1.000000;,
  0.000000;0.000000;-1.000000;,
  -1.000000;0.000000;0.000000;,
  -1.000000;0.000000;0.000000;,
  0.000000;0.000000;1.000000;,
  0.000000;0.000000;1.000000;,
  1.000000;0.000000;0.000000;,
  1.000000;0.000000;0.000000;,
  0.000000;1.000000;0.000000;,
  0.000000;1.000000;0.000000;,
  0.000000;-1.000000;0.000000;,
  0.000000;-1.000000;0.000000;,
  0.000000;0.000000;-1.000000;,
  0.000000;0.000000;-1.000000;,
  -1.000000;0.000000;0.000000;,
  -1.000000;0.000000;0.000000;,
  0.000000;0.000000;1.000000;,
  0.000000;0.000000;1.000000;,
  1.000000;0.000000;0.000000;,
  1.000000;0.000000;0.000000;,
  0.000000;1.000000;0.000000;,
  0.000000;1.000000;0.000000;,
  0.000000;-1.000000;0.000000;,
  0.000000;-1.000000;0.000000;,
  -1.000000;0.000000;0.000000;,
  -1.000000;0.000000;0.000000;,
  0.000000;1.000000;0.000000;,
  0.000000;1.000000;0.000000;,
  0.000000;1.000000;0.000000;,
  0.000000;1.000000;0.000000;,
  -1.000000;0.000000;0.000000;,
  -1.000000;0.000000;0.000000;,
  0.000000;0.000000;-1.000000;,
  0.000000;0.000000;-1.000000;,
  0.000000;0.000000;-1.000000;,
  0.000000;0.000000;-1.000000;,
  0.000000;0.000000;-1.000000;,
  0.000000;0.000000;-1.000000;,
  0.000000;0.000000;-1.000000;,
  0.000000;0.000000;-1.000000;,
  0.000000;0.000000;-1.000000;,
  0.000000;0.000000;-1.000000;,
  0.000000;0.000000;-1.000000;,
  0.000000;0.000000;-1.000000;,
  0.000000;0.000000;-1.000000;,
  0.000000;0.000000;-1.000000;,
  0.000000;0.000000;-1.000000;,
  0.000000;0.000000;-1.000000;,
  0.000000;0.000000;-1.000000;,
  0.000000;0.000000;-1.000000;,
  -1.000000;0.000000;0.000000;,
  -1.000000;0.000000;0.000000;,
  0.000000;0.000000;1.000000;,
  0.000000;0.000000;1.000000;,
  1.000000;0.000000;0.000000;,
  1.000000;0.000000;0.000000;,
  0.000000;1.000000;0.000000;,
  0.000000;1.000000;0.000000;,
  0.000000;-1.000000;0.000000;,
  0.000000;-1.000000;0.000000;,
  0.000000;0.000000;-1.000000;,
  0.000000;0.000000;-1.000000;,
  -1.000000;0.000000;0.000000;,
  -1.000000;0.000000;0.000000;,
  0.000000;0.000000;1.000000;,
  0.000000;0.000000;1.000000;,
  1.000000;0.000000;0.000000;,
  1.000000;0.000000;0.000000;,
  0.000000;1.000000;0.000000;,
  0.000000;1.000000;0.000000;,
  0.000000;-1.000000;0.000000;,
  0.000000;-1.000000;0.000000;,
  0.000000;0.000000;-1.000000;,
  0.000000;0.000000;-1.000000;,
  -1.000000;0.000000;0.000000;,
  -1.000000;0.000000;0.000000;,
  0.000000;0.000000;1.000000;,
  0.000000;0.000000;1.000000;,
  1.000000;0.000000;0.000000;,
  1.000000;0.000000;0.000000;,
  0.000000;1.000000;0.000000;,
  0.000000;1.000000;0.000000;,
  0.000000;-1.000000;0.000000;,
  0.000000;-1.000000;0.000000;,
  0.000000;0.000000;-1.000000;,
  0.000000;0.000000;-1.000000;,
  -1.000000;0.000000;0.000000;,
  -1.000000;0.000000;0.000000;,
  0.000000;0.000000;1.000000;,
  0.000000;0.000000;1.000000;,
  1.000000;0.000000;0.000000;,
  1.000000;0.000000;0.000000;,
  0.000000;1.000000;0.000000;,
  0.000000;1.000000;0.000000;,
  0.000000;-1.000000;0.000000;,
  0.000000;-1.000000;0.000000;,
  0.000000;0.000000;-1.000000;,
  0.000000;0.000000;-1.000000;,
  -1.000000;0.000000;0.000000;,
  -1.000000;0.000000;0.000000;,
  0.000000;0.000000;1.000000;,
  0.000000;0.000000;1.000000;,
  1.000000;0.000000;0.000000;,
  1.000000;0.000000;0.000000;,
  0.000000;1.000000;0.000000;,
  0.000000;1.000000;0.000000;,
  0.000000;-1.000000;0.000000;,
  0.000000;-1.000000;0.000000;,
  0.000000;0.000000;-1.000000;,
  0.000000;0.000000;-1.000000;,
  -1.000000;0.000000;0.000000;,
  -1.000000;0.000000;0.000000;,
  0.000000;0.000000;1.000000;,
  0.000000;0.000000;1.000000;,
  1.000000;0.000000;0.000000;,
  1.000000;0.000000;0.000000;,
  0.000000;1.000000;0.000000;,
  0.000000;1.000000;0.000000;,
  0.000000;-1.000000;0.000000;,
  0.000000;-1.000000;0.000000;,
  0.000000;0.000000;-1.000000;,
  0.000000;0.000000;-1.000000;,
  -1.000000;0.000000;0.000000;,
  -1.000000;0.000000;0.000000;,
  0.000000;0.000000;1.000000;,
  0.000000;0.000000;1.000000;,
  1.000000;0.000000;0.000000;,
  1.000000;0.000000;0.000000;,
  0.000000;1.000000;0.000000;,
  0.000000;1.000000;0.000000;,
  0.000000;-1.000000;0.000000;,
  0.000000;-1.000000;0.000000;;
  216;
  3;0,0,0;,
  3;1,1,1;,
  3;2,2,2;,
  3;3,3,3;,
  3;4,4,4;,
  3;5,5,5;,
  3;6,6,6;,
  3;7,7,7;,
  3;8,8,8;,
  3;9,9,9;,
  3;10,10,10;,
  3;11,11,11;,
  3;12,12,12;,
  3;13,13,13;,
  3;14,14,14;,
  3;15,15,15;,
  3;16,16,16;,
  3;17,17,17;,
  3;18,18,18;,
  3;19,19,19;,
  3;20,20,20;,
  3;21,21,21;,
  3;22,22,22;,
  3;23,23,23;,
  3;24,24,24;,
  3;25,25,25;,
  3;26,26,26;,
  3;27,27,27;,
  3;28,28,28;,
  3;29,29,29;,
  3;30,30,30;,
  3;31,31,31;,
  3;32,32,32;,
  3;33,33,33;,
  3;34,34,34;,
  3;35,35,35;,
  3;36,36,36;,
  3;37,37,37;,
  3;38,38,38;,
  3;39,39,39;,
  3;40,40,40;,
  3;41,41,41;,
  3;42,42,42;,
  3;43,43,43;,
  3;44,44,44;,
  3;45,45,45;,
  3;46,46,46;,
  3;47,47,47;,
  3;48,48,48;,
  3;49,49,49;,
  3;50,50,50;,
  3;51,51,51;,
  3;52,52,52;,
  3;53,53,53;,
  3;54,54,54;,
  3;55,55,55;,
  3;56,56,56;,
  3;57,57,57;,
  3;58,58,58;,
  3;59,59,59;,
  3;60,60,60;,
  3;61,61,61;,
  3;62,62,62;,
  3;63,63,63;,
  3;64,64,64;,
  3;65,65,65;,
  3;66,66,66;,
  3;67,67,67;,
  3;68,68,68;,
  3;69,69,69;,
  3;70,70,70;,
  3;71,71,71;,
  3;72,72,72;,
  3;73,73,73;,
  3;74,74,74;,
  3;75,75,75;,
  3;76,76,76;,
  3;77,77,77;,
  3;78,78,78;,
  3;79,79,79;,
  3;80,80,80;,
  3;81,81,81;,
  3;82,82,82;,
  3;83,83,83;,
  3;84,84,84;,
  3;85,85,85;,
  3;86,86,86;,
  3;87,87,87;,
  3;88,88,88;,
  3;89,89,89;,
  3;90,90,90;,
  3;91,91,91;,
  3;92,92,92;,
  3;93,93,93;,
  3;94,94,94;,
  3;95,95,95;,
  3;96,96,96;,
  3;97,97,97;,
  3;98,98,98;,
  3;99,99,99;,
  3;100,100,100;,
  3;101,101,101;,
  3;102,102,102;,
  3;103,103,103;,
  3;104,104,104;,
  3;105,105,105;,
  3;106,106,106;,
  3;107,107,107;,
  3;108,108,108;,
  3;109,109,109;,
  3;110,110,110;,
  3;111,111,111;,
  3;112,112,112;,
  3;113,113,113;,
  3;114,114,114;,
  3;115,115,115;,
  3;116,116,116;,
  3;117,117,117;,
  3;118,118,118;,
  3;119,119,119;,
  3;120,120,120;,
  3;121,121,121;,
  3;122,122,122;,
  3;123,123,123;,
  3;124,124,124;,
  3;125,125,125;,
  3;126,126,126;,
  3;127,127,127;,
  3;128,128,128;,
  3;129,129,129;,
  3;130,130,130;,
  3;131,131,131;,
  3;132,132,132;,
  3;133,133,133;,
  3;134,134,134;,
  3;135,135,135;,
  3;136,136,136;,
  3;137,137,137;,
  3;138,138,138;,
  3;139,139,139;,
  3;140,140,140;,
  3;141,141,141;,
  3;142,142,142;,
  3;143,143,143;,
  3;144,144,144;,
  3;145,145,145;,
  3;146,146,146;,
  3;147,147,147;,
  3;148,148,148;,
  3;149,149,149;,
  3;150,150,150;,
  3;151,151,151;,
  3;152,152,152;,
  3;153,153,153;,
  3;154,154,154;,
  3;155,155,155;,
  3;156,156,156;,
  3;157,157,157;,
  3;158,158,158;,
  3;159,159,159;,
  3;160,160,160;,
  3;161,161,161;,
  3;162,162,162;,
  3;163,163,163;,
  3;164,164,164;,
  3;165,165,165;,
  3;166,166,166;,
  3;167,167,167;,
  3;168,168,168;,
  3;169,169,169;,
  3;170,170,170;,
  3;171,171,171;,
  3;172,172,172;,
  3;173,173,173;,
  3;174,174,174;,
  3;175,175,175;,
  3;176,176,176;,
  3;177,177,177;,
  3;178,178,178;,
  3;179,179,179;,
  3;180,180,180;,
  3;181,181,181;,
  3;182,182,182;,
  3;183,183,183;,
  3;184,184,184;,
  3;185,185,185;,
  3;186,186,186;,
  3;187,187,187;,
  3;188,188,188;,
  3;189,189,189;,
  3;190,190,190;,
  3;191,191,191;,
  3;192,192,192;,
  3;193,193,193;,
  3;194,194,194;,
  3;195,195,195;,
  3;196,196,196;,
  3;197,197,197;,
  3;198,198,198;,
  3;199,199,199;,
  3;200,200,200;,
  3;201,201,201;,
  3;202,202,202;,
  3;203,203,203;,
  3;204,204,204;,
  3;205,205,205;,
  3;206,206,206;,
  3;207,207,207;,
  3;208,208,208;,
  3;209,209,209;,
  3;210,210,210;,
  3;211,211,211;,
  3;212,212,212;,
  3;213,213,213;,
  3;214,214,214;,
  3;215,215,215;;
 }
}