xof 0303txt 0032
template Vector {
 <3d82ab5e-62da-11cf-ab39-0020af71e433>
 FLOAT x;
 FLOAT y;
 FLOAT z;
}

template MeshFace {
 <3d82ab5f-62da-11cf-ab39-0020af71e433>
 DWORD nFaceVertexIndices;
 array DWORD faceVertexIndices[nFaceVertexIndices];
}

template Mesh {
 <3d82ab44-62da-11cf-ab39-0020af71e433>
 DWORD nVertices;
 array Vector vertices[nVertices];
 DWORD nFaces;
 array MeshFace faces[nFaces];
 [...]
}

template ColorRGBA {
 <35ff44e0-6c7c-11cf-8f52-0040333594a3>
 FLOAT red;
 FLOAT green;
 FLOAT blue;
 FLOAT alpha;
}

template ColorRGB {
 <d3e16e81-7835-11cf-8f52-0040333594a3>
 FLOAT red;
 FLOAT green;
 FLOAT blue;
}

template Material {
 <3d82ab4d-62da-11cf-ab39-0020af71e433>
 ColorRGBA faceColor;
 FLOAT power;
 ColorRGB specularColor;
 ColorRGB emissiveColor;
 [...]
}

template MeshMaterialList {
 <f6f23f42-7686-11cf-8f52-0040333594a3>
 DWORD nMaterials;
 DWORD nFaceIndexes;
 array DWORD faceIndexes[nFaceIndexes];
 [Material <3d82ab4d-62da-11cf-ab39-0020af71e433>]
}

template TextureFilename {
 <a42790e1-7810-11cf-8f52-0040333594a3>
 STRING filename;
}

template Coords2d {
 <f6f23f44-7686-11cf-8f52-0040333594a3>
 FLOAT u;
 FLOAT v;
}

template MeshTextureCoords {
 <f6f23f40-7686-11cf-8f52-0040333594a3>
 DWORD nTextureCoords;
 array Coords2d textureCoords[nTextureCoords];
}

template MeshNormals {
 <f6f23f43-7686-11cf-8f52-0040333594a3>
 DWORD nNormals;
 array Vector normals[nNormals];
 DWORD nFaceNormals;
 array MeshFace faceNormals[nFaceNormals];
}


Mesh  {
 308;
 -1.500000;0.950000;0.000000;,
 -1.500000;1.100000;0.000000;,
 -2.700000;1.100000;0.000000;,
 -1.500000;0.950000;25.000000;,
 -1.500000;1.100000;25.000000;,
 -2.700000;1.100000;25.000000;,
 -6.000000;0.950000;14.500000;,
 -6.000000;1.100000;14.500000;,
 -4.100000;0.950000;14.500000;,
 -4.100000;1.100000;14.500000;,
 -2.700000;1.100000;0.000000;,
 -2.700000;1.100000;25.000000;,
 -4.100000;1.100000;0.000000;,
 -4.100000;1.100000;14.500000;,
 -6.000000;1.100000;14.500000;,
 -6.000000;1.100000;25.000000;,
 -4.100000;-1.000000;2.500000;,
 -4.100000;0.950000;2.500000;,
 -1.500000;0.950000;2.500000;,
 -1.500000;-1.000000;2.500000;,
 -4.100000;-1.000000;8.500000;,
 -4.100000;0.950000;8.500000;,
 -1.500000;0.950000;8.500000;,
 -1.500000;-1.000000;8.500000;,
 -6.000000;-1.000000;14.500000;,
 -6.000000;0.950000;14.500000;,
 -1.500000;0.950000;14.500000;,
 -1.500000;-1.000000;14.500000;,
 -6.000000;-1.000000;20.500000;,
 -6.000000;0.950000;20.500000;,
 -1.500000;0.950000;20.500000;,
 -1.500000;-1.000000;20.500000;,
 -4.100000;1.100000;2.500000;,
 -4.100000;4.100000;2.500000;,
 -3.800000;4.100000;2.500000;,
 -3.800000;1.100000;2.500000;,
 -4.100000;1.100000;8.500000;,
 -4.100000;4.100000;8.500000;,
 -3.800000;4.100000;8.500000;,
 -3.800000;1.100000;8.500000;,
 -4.100000;1.100000;14.500000;,
 -4.100000;4.100000;14.500000;,
 -3.800000;4.100000;14.500000;,
 -3.800000;1.100000;14.500000;,
 -3.400000;1.100000;20.500000;,
 -3.400000;4.100000;20.500000;,
 -3.100000;4.100000;20.500000;,
 -3.100000;1.100000;20.500000;,
 -6.000000;1.100000;20.500000;,
 -6.000000;4.100000;20.500000;,
 -5.700000;4.100000;20.500000;,
 -5.700000;1.100000;20.500000;,
 -4.100000;1.100000;2.500000;,
 -4.100000;3.900000;2.500000;,
 -4.100000;1.100000;14.500000;,
 -4.100000;3.900000;14.500000;,
 -6.000000;1.100000;14.500000;,
 -6.000000;3.900000;14.500000;,
 -6.000000;1.100000;26.500000;,
 -6.000000;3.900000;26.500000;,
 -4.090000;3.800000;0.000000;,
 -4.090000;4.100000;0.000000;,
 -4.090000;3.800000;14.500000;,
 -4.090000;4.100000;14.500000;,
 -3.050000;3.800000;20.500000;,
 -3.050000;4.100000;20.500000;,
 -3.050000;3.800000;25.000000;,
 -3.050000;4.100000;25.000000;,
 -5.990000;3.800000;14.500000;,
 -5.990000;4.100000;14.500000;,
 -5.990000;3.800000;25.000000;,
 -5.990000;4.100000;25.000000;,
 -2.100000;3.900000;0.000000;,
 -2.100000;4.200000;0.000000;,
 -2.100000;3.900000;25.000000;,
 -2.100000;4.200000;25.000000;,
 -4.100000;3.800000;2.500000;,
 -4.100000;4.100000;2.500000;,
 -2.100000;3.900000;2.500000;,
 -2.100000;4.200000;2.500000;,
 -4.100000;3.950000;5.500000;,
 -4.100000;4.100000;5.500000;,
 -2.100000;4.050000;5.500000;,
 -2.100000;4.200000;5.500000;,
 -4.100000;3.800000;8.500000;,
 -4.100000;4.100000;8.500000;,
 -2.100000;3.900000;8.500000;,
 -2.100000;4.200000;8.500000;,
 -4.100000;3.950000;11.500000;,
 -4.100000;4.100000;11.500000;,
 -2.100000;4.050000;11.500000;,
 -2.100000;4.200000;11.500000;,
 -4.100000;3.800000;14.500000;,
 -4.100000;4.100000;14.500000;,
 -2.100000;3.900000;14.500000;,
 -2.100000;4.200000;14.500000;,
 -6.000000;3.855000;17.500000;,
 -6.000000;4.005000;17.500000;,
 -2.100000;4.050000;17.500000;,
 -2.100000;4.200000;17.500000;,
 -6.000000;3.705000;20.500000;,
 -6.000000;4.005000;20.500000;,
 -2.100000;3.900000;20.500000;,
 -2.100000;4.200000;20.500000;,
 -6.000000;3.855000;23.500000;,
 -6.000000;4.005000;23.500000;,
 -2.100000;4.050000;23.500000;,
 -2.100000;4.200000;23.500000;,
 -6.000000;4.005000;14.500000;,
 -6.000000;4.005000;25.000000;,
 -4.100000;4.100000;0.000000;,
 -4.100000;4.100000;14.500000;,
 -1.500000;4.230000;0.000000;,
 -1.500000;4.230000;25.000000;,
 -1.500000;4.230000;0.000000;,
 -1.500000;4.430000;0.000000;,
 -1.500000;4.230000;25.000000;,
 -1.500000;4.430000;25.000000;,
 -6.100000;3.800000;14.450000;,
 -6.100000;4.100000;14.450000;,
 -4.100000;3.800000;14.450000;,
 -4.100000;4.100000;14.450000;,
 -3.460000;-0.500000;2.200000;,
 -3.460000;-1.000000;2.200000;,
 -4.059999;-1.000000;2.200000;,
 -4.059999;-0.500000;2.200000;,
 -3.460000;-0.500000;2.800000;,
 -3.460000;-1.000000;2.800000;,
 -4.059999;-1.000000;2.800000;,
 -4.059999;-0.500000;2.800000;,
 -3.460000;-0.500000;8.199999;,
 -3.460000;-1.000000;8.199999;,
 -4.059999;-1.000000;8.199999;,
 -4.059999;-0.500000;8.199999;,
 -3.460000;-0.500000;8.799999;,
 -3.460000;-1.000000;8.799999;,
 -4.059999;-1.000000;8.799999;,
 -4.059999;-0.500000;8.799999;,
 -5.099999;-0.500000;14.199999;,
 -5.099999;-1.000000;14.199999;,
 -5.700000;-1.000000;14.199999;,
 -5.700000;-0.500000;14.199999;,
 -5.099999;-0.500000;14.799999;,
 -5.099999;-1.000000;14.799999;,
 -5.700000;-1.000000;14.799999;,
 -5.700000;-0.500000;14.799999;,
 -5.099999;-0.500000;20.199999;,
 -5.099999;-1.000000;20.199999;,
 -5.700000;-1.000000;20.199999;,
 -5.700000;-0.500000;20.199999;,
 -5.099999;-0.500000;20.799997;,
 -5.099999;-1.000000;20.799997;,
 -5.700000;-1.000000;20.799997;,
 -5.700000;-0.500000;20.799997;,
 5.300000;0.950000;0.000000;,
 5.300000;1.100000;0.000000;,
 6.500000;1.100000;0.000000;,
 5.300000;0.950000;25.000000;,
 5.300000;1.100000;25.000000;,
 6.500000;1.100000;25.000000;,
 9.800000;0.950000;14.500000;,
 9.800000;1.100000;14.500000;,
 7.900000;0.950000;14.500000;,
 7.900000;1.100000;14.500000;,
 6.500000;1.100000;0.000000;,
 6.500000;1.100000;25.000000;,
 7.900000;1.100000;0.000000;,
 7.900000;1.100000;14.500000;,
 9.800000;1.100000;14.500000;,
 9.800000;1.100000;25.000000;,
 7.900000;-1.000000;2.500000;,
 7.900000;0.950000;2.500000;,
 5.300000;0.950000;2.500000;,
 5.300000;-1.000000;2.500000;,
 7.900000;-1.000000;8.500000;,
 7.900000;0.950000;8.500000;,
 5.300000;0.950000;8.500000;,
 5.300000;-1.000000;8.500000;,
 9.800000;-1.000000;14.500000;,
 9.800000;0.950000;14.500000;,
 5.300000;0.950000;14.500000;,
 5.300000;-1.000000;14.500000;,
 9.800000;-1.000000;20.500000;,
 9.800000;0.950000;20.500000;,
 5.300000;0.950000;20.500000;,
 5.300000;-1.000000;20.500000;,
 7.900000;1.100000;2.500000;,
 7.900000;4.100000;2.500000;,
 7.600000;4.100000;2.500000;,
 7.600000;1.100000;2.500000;,
 7.900000;1.100000;8.500000;,
 7.900000;4.100000;8.500000;,
 7.600000;4.100000;8.500000;,
 7.600000;1.100000;8.500000;,
 7.900000;1.100000;14.500000;,
 7.900000;4.100000;14.500000;,
 7.600000;4.100000;14.500000;,
 7.600000;1.100000;14.500000;,
 7.200000;1.100000;20.500000;,
 7.200000;4.100000;20.500000;,
 6.900000;4.100000;20.500000;,
 6.900000;1.100000;20.500000;,
 9.800000;1.100000;20.500000;,
 9.800000;4.100000;20.500000;,
 9.500000;4.100000;20.500000;,
 9.500000;1.100000;20.500000;,
 7.900000;1.100000;2.500000;,
 7.900000;3.900000;2.500000;,
 7.900000;1.100000;14.500000;,
 7.900000;3.900000;14.500000;,
 9.800000;1.100000;14.500000;,
 9.800000;3.900000;14.500000;,
 9.800000;1.100000;26.500000;,
 9.800000;3.900000;26.500000;,
 7.890000;3.800000;0.000000;,
 7.890000;4.100000;0.000000;,
 7.890000;3.800000;14.500000;,
 7.890000;4.100000;14.500000;,
 6.850000;3.800000;20.500000;,
 6.850000;4.100000;20.500000;,
 6.850000;3.800000;25.000000;,
 6.850000;4.100000;25.000000;,
 9.790000;3.800000;14.500000;,
 9.790000;4.100000;14.500000;,
 9.790000;3.800000;25.000000;,
 9.790000;4.100000;25.000000;,
 5.900000;3.900000;0.000000;,
 5.900000;4.200000;0.000000;,
 5.900000;3.900000;25.000000;,
 5.900000;4.200000;25.000000;,
 7.900000;3.800000;2.500000;,
 7.900000;4.100000;2.500000;,
 5.900000;3.900000;2.500000;,
 5.900000;4.200000;2.500000;,
 7.900000;3.950000;5.500000;,
 7.900000;4.100000;5.500000;,
 5.900000;4.050000;5.500000;,
 5.900000;4.200000;5.500000;,
 7.900000;3.800000;8.500000;,
 7.900000;4.100000;8.500000;,
 5.900000;3.900000;8.500000;,
 5.900000;4.200000;8.500000;,
 7.900000;3.950000;11.500000;,
 7.900000;4.100000;11.500000;,
 5.900000;4.050000;11.500000;,
 5.900000;4.200000;11.500000;,
 7.900000;3.800000;14.500000;,
 7.900000;4.100000;14.500000;,
 5.900000;3.900000;14.500000;,
 5.900000;4.200000;14.500000;,
 9.800000;3.855000;17.500000;,
 9.800000;4.005000;17.500000;,
 5.900000;4.050000;17.500000;,
 5.900000;4.200000;17.500000;,
 9.800000;3.705000;20.500000;,
 9.800000;4.005000;20.500000;,
 5.900000;3.900000;20.500000;,
 5.900000;4.200000;20.500000;,
 9.800000;3.855000;23.500000;,
 9.800000;4.005000;23.500000;,
 5.900000;4.050000;23.500000;,
 5.900000;4.200000;23.500000;,
 9.800000;4.005000;14.500000;,
 9.800000;4.005000;25.000000;,
 7.900000;4.100000;0.000000;,
 7.900000;4.100000;14.500000;,
 5.300000;4.230000;0.000000;,
 5.300000;4.230000;25.000000;,
 5.300000;4.230000;0.000000;,
 5.300000;4.430000;0.000000;,
 5.300000;4.230000;25.000000;,
 5.300000;4.430000;25.000000;,
 9.900000;3.800000;14.450000;,
 9.900000;4.100000;14.450000;,
 7.900000;3.800000;14.450000;,
 7.900000;4.100000;14.450000;,
 7.860000;-0.500000;2.200000;,
 7.860000;-1.000000;2.200000;,
 7.259999;-1.000000;2.200000;,
 7.259999;-0.500000;2.200000;,
 7.860000;-0.500000;2.800000;,
 7.860000;-1.000000;2.800000;,
 7.259999;-1.000000;2.800000;,
 7.259999;-0.500000;2.800000;,
 7.860000;-0.500000;8.199999;,
 7.860000;-1.000000;8.199999;,
 7.259999;-1.000000;8.199999;,
 7.259999;-0.500000;8.199999;,
 7.860000;-0.500000;8.799999;,
 7.860000;-1.000000;8.799999;,
 7.259999;-1.000000;8.799999;,
 7.259999;-0.500000;8.799999;,
 9.499999;-0.500000;14.199999;,
 9.499999;-1.000000;14.199999;,
 8.899999;-1.000000;14.199999;,
 8.899999;-0.500000;14.199999;,
 9.499999;-0.500000;14.799999;,
 9.499999;-1.000000;14.799999;,
 8.899999;-1.000000;14.799999;,
 8.899999;-0.500000;14.799999;,
 9.499999;-0.500000;20.199999;,
 9.499999;-1.000000;20.199999;,
 8.899999;-1.000000;20.199999;,
 8.899999;-0.500000;20.199999;,
 9.499999;-0.500000;20.799997;,
 9.499999;-1.000000;20.799997;,
 8.899999;-1.000000;20.799997;,
 8.899999;-0.500000;20.799997;;
 232;
 3;0,1,4;,
 3;0,4,3;,
 3;1,2,5;,
 3;1,5,4;,
 3;6,7,9;,
 3;6,9,8;,
 3;12,13,11;,
 3;12,11,10;,
 3;14,15,11;,
 3;14,11,13;,
 3;16,17,18;,
 3;16,18,19;,
 3;20,21,22;,
 3;20,22,23;,
 3;24,25,26;,
 3;24,26,27;,
 3;28,29,30;,
 3;28,30,31;,
 3;32,33,34;,
 3;32,34,35;,
 3;36,37,38;,
 3;36,38,39;,
 3;40,41,42;,
 3;40,42,43;,
 3;44,45,46;,
 3;44,46,47;,
 3;48,49,50;,
 3;48,50,51;,
 3;52,53,55;,
 3;52,55,54;,
 3;56,57,55;,
 3;56,55,54;,
 3;56,57,59;,
 3;56,59,58;,
 3;60,61,63;,
 3;60,63,62;,
 3;62,63,65;,
 3;62,65,64;,
 3;64,65,67;,
 3;64,67,66;,
 3;68,69,71;,
 3;68,71,70;,
 3;72,73,75;,
 3;72,75,74;,
 3;76,77,79;,
 3;76,79,78;,
 3;80,81,83;,
 3;80,83,82;,
 3;84,85,87;,
 3;84,87,86;,
 3;88,89,91;,
 3;88,91,90;,
 3;92,93,95;,
 3;92,95,94;,
 3;96,97,99;,
 3;96,99,98;,
 3;100,101,103;,
 3;100,103,102;,
 3;104,105,107;,
 3;104,107,106;,
 3;112,113,111;,
 3;112,111,110;,
 3;109,108,111;,
 3;109,111,113;,
 3;114,115,117;,
 3;114,117,116;,
 3;118,119,121;,
 3;118,121,120;,
 3;122,123,124;,
 3;122,124,125;,
 3;125,124,128;,
 3;125,128,129;,
 3;129,128,127;,
 3;129,127,126;,
 3;126,127,123;,
 3;126,123,122;,
 3;122,125,129;,
 3;122,129,126;,
 3;123,127,128;,
 3;123,128,124;,
 3;130,131,132;,
 3;130,132,133;,
 3;133,132,136;,
 3;133,136,137;,
 3;137,136,135;,
 3;137,135,134;,
 3;134,135,131;,
 3;134,131,130;,
 3;130,133,137;,
 3;130,137,134;,
 3;131,135,136;,
 3;131,136,132;,
 3;138,139,140;,
 3;138,140,141;,
 3;141,140,144;,
 3;141,144,145;,
 3;145,144,143;,
 3;145,143,142;,
 3;142,143,139;,
 3;142,139,138;,
 3;138,141,145;,
 3;138,145,142;,
 3;139,143,144;,
 3;139,144,140;,
 3;146,147,148;,
 3;146,148,149;,
 3;149,148,152;,
 3;149,152,153;,
 3;153,152,151;,
 3;153,151,150;,
 3;150,151,147;,
 3;150,147,146;,
 3;146,149,153;,
 3;146,153,150;,
 3;147,151,152;,
 3;147,152,148;,
 3;157,158,155;,
 3;157,155,154;,
 3;158,159,156;,
 3;158,156,155;,
 3;162,163,161;,
 3;162,161,160;,
 3;164,165,167;,
 3;164,167,166;,
 3;167,165,169;,
 3;167,169,168;,
 3;173,172,171;,
 3;173,171,170;,
 3;177,176,175;,
 3;177,175,174;,
 3;181,180,179;,
 3;181,179,178;,
 3;185,184,183;,
 3;185,183,182;,
 3;189,188,187;,
 3;189,187,186;,
 3;193,192,191;,
 3;193,191,190;,
 3;197,196,195;,
 3;197,195,194;,
 3;201,200,199;,
 3;201,199,198;,
 3;205,204,203;,
 3;205,203,202;,
 3;208,209,207;,
 3;208,207,206;,
 3;208,209,211;,
 3;208,211,210;,
 3;212,213,211;,
 3;212,211,210;,
 3;216,217,215;,
 3;216,215,214;,
 3;218,219,217;,
 3;218,217,216;,
 3;220,221,219;,
 3;220,219,218;,
 3;224,225,223;,
 3;224,223,222;,
 3;228,229,227;,
 3;228,227,226;,
 3;232,233,231;,
 3;232,231,230;,
 3;236,237,235;,
 3;236,235,234;,
 3;240,241,239;,
 3;240,239,238;,
 3;244,245,243;,
 3;244,243,242;,
 3;248,249,247;,
 3;248,247,246;,
 3;252,253,251;,
 3;252,251,250;,
 3;256,257,255;,
 3;256,255,254;,
 3;260,261,259;,
 3;260,259,258;,
 3;264,265,267;,
 3;264,267,266;,
 3;267,265,262;,
 3;267,262,263;,
 3;270,271,269;,
 3;270,269,268;,
 3;274,275,273;,
 3;274,273,272;,
 3;276,277,278;,
 3;276,278,279;,
 3;279,278,282;,
 3;279,282,283;,
 3;283,282,281;,
 3;283,281,280;,
 3;280,281,277;,
 3;280,277,276;,
 3;276,279,283;,
 3;276,283,280;,
 3;277,281,282;,
 3;277,282,278;,
 3;284,285,286;,
 3;284,286,287;,
 3;287,286,290;,
 3;287,290,291;,
 3;291,290,289;,
 3;291,289,288;,
 3;288,289,285;,
 3;288,285,284;,
 3;284,287,291;,
 3;284,291,288;,
 3;285,289,290;,
 3;285,290,286;,
 3;292,293,294;,
 3;292,294,295;,
 3;295,294,298;,
 3;295,298,299;,
 3;299,298,297;,
 3;299,297,296;,
 3;296,297,293;,
 3;296,293,292;,
 3;292,295,299;,
 3;292,299,296;,
 3;293,297,298;,
 3;293,298,294;,
 3;300,301,302;,
 3;300,302,303;,
 3;303,302,306;,
 3;303,306,307;,
 3;307,306,305;,
 3;307,305,304;,
 3;304,305,301;,
 3;304,301,300;,
 3;300,303,307;,
 3;300,307,304;,
 3;301,305,306;,
 3;301,306,302;;

 MeshMaterialList  {
  60;
  232;
  0,
  0,
  0,
  0,
  1,
  1,
  2,
  2,
  2,
  2,
  3,
  3,
  4,
  4,
  5,
  5,
  6,
  6,
  7,
  7,
  8,
  8,
  9,
  9,
  10,
  10,
  11,
  11,
  12,
  12,
  12,
  12,
  12,
  12,
  13,
  13,
  13,
  13,
  13,
  13,
  13,
  13,
  14,
  14,
  15,
  15,
  16,
  16,
  17,
  17,
  18,
  18,
  19,
  19,
  20,
  20,
  21,
  21,
  22,
  22,
  23,
  23,
  23,
  23,
  24,
  24,
  25,
  25,
  26,
  26,
  26,
  26,
  26,
  26,
  26,
  26,
  26,
  26,
  26,
  26,
  27,
  27,
  27,
  27,
  27,
  27,
  27,
  27,
  27,
  27,
  27,
  27,
  28,
  28,
  28,
  28,
  28,
  28,
  28,
  28,
  28,
  28,
  28,
  28,
  29,
  29,
  29,
  29,
  29,
  29,
  29,
  29,
  29,
  29,
  29,
  29,
  30,
  30,
  30,
  30,
  31,
  31,
  32,
  32,
  32,
  32,
  33,
  33,
  34,
  34,
  35,
  35,
  36,
  36,
  37,
  37,
  38,
  38,
  39,
  39,
  40,
  40,
  41,
  41,
  42,
  42,
  42,
  42,
  42,
  42,
  43,
  43,
  43,
  43,
  43,
  43,
  43,
  43,
  44,
  44,
  45,
  45,
  46,
  46,
  47,
  47,
  48,
  48,
  49,
  49,
  50,
  50,
  51,
  51,
  52,
  52,
  53,
  53,
  53,
  53,
  54,
  54,
  55,
  55,
  56,
  56,
  56,
  56,
  56,
  56,
  56,
  56,
  56,
  56,
  56,
  56,
  57,
  57,
  57,
  57,
  57,
  57,
  57,
  57,
  57,
  57,
  57,
  57,
  58,
  58,
  58,
  58,
  58,
  58,
  58,
  58,
  58,
  58,
  58,
  58,
  59,
  59,
  59,
  59,
  59,
  59,
  59,
  59,
  59,
  59,
  59,
  59;

  Material  {
   1.000000;1.000000;1.000000;1.000000;;
   0.000000;
   0.000000;0.000000;0.000000;;
   0.000000;0.000000;0.000000;;

   TextureFilename  {
    "FormSide1.png";
   }
  }

  Material  {
   1.000000;1.000000;1.000000;1.000000;;
   0.000000;
   0.000000;0.000000;0.000000;;
   0.000000;0.000000;0.000000;;

   TextureFilename  {
    "FormSide1.png";
   }
  }

  Material  {
   1.000000;1.000000;1.000000;1.000000;;
   0.000000;
   0.000000;0.000000;0.000000;;
   0.000000;0.000000;0.000000;;

   TextureFilename  {
    "FormC.png";
   }
  }

  Material  {
   1.000000;1.000000;1.000000;1.000000;;
   0.000000;
   0.000000;0.000000;0.000000;;
   0.000000;0.000000;0.000000;;

   TextureFilename  {
    "Iron1.png";
   }
  }

  Material  {
   1.000000;1.000000;1.000000;1.000000;;
   0.000000;
   0.000000;0.000000;0.000000;;
   0.000000;0.000000;0.000000;;

   TextureFilename  {
    "Iron1.png";
   }
  }

  Material  {
   1.000000;1.000000;1.000000;1.000000;;
   0.000000;
   0.000000;0.000000;0.000000;;
   0.000000;0.000000;0.000000;;

   TextureFilename  {
    "Iron1.png";
   }
  }

  Material  {
   1.000000;1.000000;1.000000;1.000000;;
   0.000000;
   0.000000;0.000000;0.000000;;
   0.000000;0.000000;0.000000;;

   TextureFilename  {
    "Iron1.png";
   }
  }

  Material  {
   1.000000;1.000000;1.000000;1.000000;;
   0.000000;
   0.000000;0.000000;0.000000;;
   0.000000;0.000000;0.000000;;

   TextureFilename  {
    "Iron2.png";
   }
  }

  Material  {
   1.000000;1.000000;1.000000;1.000000;;
   0.000000;
   0.000000;0.000000;0.000000;;
   0.000000;0.000000;0.000000;;

   TextureFilename  {
    "Iron2.png";
   }
  }

  Material  {
   1.000000;1.000000;1.000000;1.000000;;
   0.000000;
   0.000000;0.000000;0.000000;;
   0.000000;0.000000;0.000000;;

   TextureFilename  {
    "Iron2.png";
   }
  }

  Material  {
   1.000000;1.000000;1.000000;1.000000;;
   0.000000;
   0.000000;0.000000;0.000000;;
   0.000000;0.000000;0.000000;;

   TextureFilename  {
    "Iron2.png";
   }
  }

  Material  {
   1.000000;1.000000;1.000000;1.000000;;
   0.000000;
   0.000000;0.000000;0.000000;;
   0.000000;0.000000;0.000000;;

   TextureFilename  {
    "Iron2.png";
   }
  }

  Material  {
   1.000000;1.000000;1.000000;1.000000;;
   0.000000;
   0.000000;0.000000;0.000000;;
   0.000000;0.000000;0.000000;;

   TextureFilename  {
    "Wall1.png";
   }
  }

  Material  {
   1.000000;1.000000;1.000000;1.000000;;
   0.000000;
   0.000000;0.000000;0.000000;;
   0.000000;0.000000;0.000000;;

   TextureFilename  {
    "Iron2.png";
   }
  }

  Material  {
   1.000000;1.000000;1.000000;1.000000;;
   0.000000;
   0.000000;0.000000;0.000000;;
   0.000000;0.000000;0.000000;;

   TextureFilename  {
    "Iron2.png";
   }
  }

  Material  {
   1.000000;1.000000;1.000000;1.000000;;
   0.000000;
   0.000000;0.000000;0.000000;;
   0.000000;0.000000;0.000000;;

   TextureFilename  {
    "Iron2.png";
   }
  }

  Material  {
   1.000000;1.000000;1.000000;1.000000;;
   0.000000;
   0.000000;0.000000;0.000000;;
   0.000000;0.000000;0.000000;;

   TextureFilename  {
    "Iron2.png";
   }
  }

  Material  {
   1.000000;1.000000;1.000000;1.000000;;
   0.000000;
   0.000000;0.000000;0.000000;;
   0.000000;0.000000;0.000000;;

   TextureFilename  {
    "Iron2.png";
   }
  }

  Material  {
   1.000000;1.000000;1.000000;1.000000;;
   0.000000;
   0.000000;0.000000;0.000000;;
   0.000000;0.000000;0.000000;;

   TextureFilename  {
    "Iron2.png";
   }
  }

  Material  {
   1.000000;1.000000;1.000000;1.000000;;
   0.000000;
   0.000000;0.000000;0.000000;;
   0.000000;0.000000;0.000000;;

   TextureFilename  {
    "Iron2.png";
   }
  }

  Material  {
   1.000000;1.000000;1.000000;1.000000;;
   0.000000;
   0.000000;0.000000;0.000000;;
   0.000000;0.000000;0.000000;;

   TextureFilename  {
    "Iron2.png";
   }
  }

  Material  {
   1.000000;1.000000;1.000000;1.000000;;
   0.000000;
   0.000000;0.000000;0.000000;;
   0.000000;0.000000;0.000000;;

   TextureFilename  {
    "Iron2.png";
   }
  }

  Material  {
   1.000000;1.000000;1.000000;1.000000;;
   0.000000;
   0.000000;0.000000;0.000000;;
   0.000000;0.000000;0.000000;;

   TextureFilename  {
    "Iron2.png";
   }
  }

  Material  {
   1.000000;1.000000;1.000000;1.000000;;
   0.000000;
   0.000000;0.000000;0.000000;;
   0.000000;0.000000;0.000000;;

   TextureFilename  {
    "Roof1.png";
   }
  }

  Material  {
   1.000000;1.000000;1.000000;1.000000;;
   0.000000;
   0.000000;0.000000;0.000000;;
   0.000000;0.000000;0.000000;;

   TextureFilename  {
    "Roof2.png";
   }
  }

  Material  {
   1.000000;1.000000;1.000000;1.000000;;
   0.000000;
   0.000000;0.000000;0.000000;;
   0.000000;0.000000;0.000000;;

   TextureFilename  {
    "Iron3.png";
   }
  }

  Material  {
   0.352941;0.333333;0.333333;1.000000;;
   0.000000;
   0.000000;0.000000;0.000000;;
   0.000000;0.000000;0.000000;;
  }

  Material  {
   0.352941;0.333333;0.333333;1.000000;;
   0.000000;
   0.000000;0.000000;0.000000;;
   0.000000;0.000000;0.000000;;
  }

  Material  {
   0.352941;0.333333;0.333333;1.000000;;
   0.000000;
   0.000000;0.000000;0.000000;;
   0.000000;0.000000;0.000000;;
  }

  Material  {
   0.352941;0.333333;0.333333;1.000000;;
   0.000000;
   0.000000;0.000000;0.000000;;
   0.000000;0.000000;0.000000;;
  }

  Material  {
   1.000000;1.000000;1.000000;1.000000;;
   0.000000;
   0.000000;0.000000;0.000000;;
   0.000000;0.000000;0.000000;;

   TextureFilename  {
    "FormSide1.png";
   }
  }

  Material  {
   1.000000;1.000000;1.000000;1.000000;;
   0.000000;
   0.000000;0.000000;0.000000;;
   0.000000;0.000000;0.000000;;

   TextureFilename  {
    "FormSide1.png";
   }
  }

  Material  {
   1.000000;1.000000;1.000000;1.000000;;
   0.000000;
   0.000000;0.000000;0.000000;;
   0.000000;0.000000;0.000000;;

   TextureFilename  {
    "FormC.png";
   }
  }

  Material  {
   1.000000;1.000000;1.000000;1.000000;;
   0.000000;
   0.000000;0.000000;0.000000;;
   0.000000;0.000000;0.000000;;

   TextureFilename  {
    "Iron1.png";
   }
  }

  Material  {
   1.000000;1.000000;1.000000;1.000000;;
   0.000000;
   0.000000;0.000000;0.000000;;
   0.000000;0.000000;0.000000;;

   TextureFilename  {
    "Iron1.png";
   }
  }

  Material  {
   1.000000;1.000000;1.000000;1.000000;;
   0.000000;
   0.000000;0.000000;0.000000;;
   0.000000;0.000000;0.000000;;

   TextureFilename  {
    "Iron1.png";
   }
  }

  Material  {
   1.000000;1.000000;1.000000;1.000000;;
   0.000000;
   0.000000;0.000000;0.000000;;
   0.000000;0.000000;0.000000;;

   TextureFilename  {
    "Iron1.png";
   }
  }

  Material  {
   1.000000;1.000000;1.000000;1.000000;;
   0.000000;
   0.000000;0.000000;0.000000;;
   0.000000;0.000000;0.000000;;

   TextureFilename  {
    "Iron2.png";
   }
  }

  Material  {
   1.000000;1.000000;1.000000;1.000000;;
   0.000000;
   0.000000;0.000000;0.000000;;
   0.000000;0.000000;0.000000;;

   TextureFilename  {
    "Iron2.png";
   }
  }

  Material  {
   1.000000;1.000000;1.000000;1.000000;;
   0.000000;
   0.000000;0.000000;0.000000;;
   0.000000;0.000000;0.000000;;

   TextureFilename  {
    "Iron2.png";
   }
  }

  Material  {
   1.000000;1.000000;1.000000;1.000000;;
   0.000000;
   0.000000;0.000000;0.000000;;
   0.000000;0.000000;0.000000;;

   TextureFilename  {
    "Iron2.png";
   }
  }

  Material  {
   1.000000;1.000000;1.000000;1.000000;;
   0.000000;
   0.000000;0.000000;0.000000;;
   0.000000;0.000000;0.000000;;

   TextureFilename  {
    "Iron2.png";
   }
  }

  Material  {
   1.000000;1.000000;1.000000;1.000000;;
   0.000000;
   0.000000;0.000000;0.000000;;
   0.000000;0.000000;0.000000;;

   TextureFilename  {
    "Wall1.png";
   }
  }

  Material  {
   1.000000;1.000000;1.000000;1.000000;;
   0.000000;
   0.000000;0.000000;0.000000;;
   0.000000;0.000000;0.000000;;

   TextureFilename  {
    "Iron2.png";
   }
  }

  Material  {
   1.000000;1.000000;1.000000;1.000000;;
   0.000000;
   0.000000;0.000000;0.000000;;
   0.000000;0.000000;0.000000;;

   TextureFilename  {
    "Iron2.png";
   }
  }

  Material  {
   1.000000;1.000000;1.000000;1.000000;;
   0.000000;
   0.000000;0.000000;0.000000;;
   0.000000;0.000000;0.000000;;

   TextureFilename  {
    "Iron2.png";
   }
  }

  Material  {
   1.000000;1.000000;1.000000;1.000000;;
   0.000000;
   0.000000;0.000000;0.000000;;
   0.000000;0.000000;0.000000;;

   TextureFilename  {
    "Iron2.png";
   }
  }

  Material  {
   1.000000;1.000000;1.000000;1.000000;;
   0.000000;
   0.000000;0.000000;0.000000;;
   0.000000;0.000000;0.000000;;

   TextureFilename  {
    "Iron2.png";
   }
  }

  Material  {
   1.000000;1.000000;1.000000;1.000000;;
   0.000000;
   0.000000;0.000000;0.000000;;
   0.000000;0.000000;0.000000;;

   TextureFilename  {
    "Iron2.png";
   }
  }

  Material  {
   1.000000;1.000000;1.000000;1.000000;;
   0.000000;
   0.000000;0.000000;0.000000;;
   0.000000;0.000000;0.000000;;

   TextureFilename  {
    "Iron2.png";
   }
  }

  Material  {
   1.000000;1.000000;1.000000;1.000000;;
   0.000000;
   0.000000;0.000000;0.000000;;
   0.000000;0.000000;0.000000;;

   TextureFilename  {
    "Iron2.png";
   }
  }

  Material  {
   1.000000;1.000000;1.000000;1.000000;;
   0.000000;
   0.000000;0.000000;0.000000;;
   0.000000;0.000000;0.000000;;

   TextureFilename  {
    "Iron2.png";
   }
  }

  Material  {
   1.000000;1.000000;1.000000;1.000000;;
   0.000000;
   0.000000;0.000000;0.000000;;
   0.000000;0.000000;0.000000;;

   TextureFilename  {
    "Iron2.png";
   }
  }

  Material  {
   1.000000;1.000000;1.000000;1.000000;;
   0.000000;
   0.000000;0.000000;0.000000;;
   0.000000;0.000000;0.000000;;

   TextureFilename  {
    "Roof1.png";
   }
  }

  Material  {
   1.000000;1.000000;1.000000;1.000000;;
   0.000000;
   0.000000;0.000000;0.000000;;
   0.000000;0.000000;0.000000;;

   TextureFilename  {
    "Roof2.png";
   }
  }

  Material  {
   1.000000;1.000000;1.000000;1.000000;;
   0.000000;
   0.000000;0.000000;0.000000;;
   0.000000;0.000000;0.000000;;

   TextureFilename  {
    "Iron3.png";
   }
  }

  Material  {
   0.352941;0.333333;0.333333;1.000000;;
   0.000000;
   0.000000;0.000000;0.000000;;
   0.000000;0.000000;0.000000;;
  }

  Material  {
   0.352941;0.333333;0.333333;1.000000;;
   0.000000;
   0.000000;0.000000;0.000000;;
   0.000000;0.000000;0.000000;;
  }

  Material  {
   0.352941;0.333333;0.333333;1.000000;;
   0.000000;
   0.000000;0.000000;0.000000;;
   0.000000;0.000000;0.000000;;
  }

  Material  {
   0.352941;0.333333;0.333333;1.000000;;
   0.000000;
   0.000000;0.000000;0.000000;;
   0.000000;0.000000;0.000000;;
  }
 }

 MeshTextureCoords  {
  308;
  0.000000;1.000000;,
  0.000000;0.440000;,
  0.000000;0.000000;,
  2.000000;1.000000;,
  2.000000;0.440000;,
  2.000000;0.000000;,
  0.000000;1.000000;,
  0.000000;0.440000;,
  0.050000;1.000000;,
  0.050000;0.440000;,
  0.000000;0.000000;,
  0.000000;1.000000;,
  0.560000;0.000000;,
  0.560000;0.580000;,
  1.320000;0.580000;,
  1.320000;1.000000;,
  0.000000;1.000000;,
  0.000000;0.020000;,
  1.000000;0.020000;,
  1.000000;1.000000;,
  0.000000;1.000000;,
  0.000000;0.020000;,
  1.000000;0.020000;,
  1.000000;1.000000;,
  0.000000;1.000000;,
  0.000000;0.020000;,
  1.000000;0.020000;,
  1.000000;1.000000;,
  0.000000;1.000000;,
  0.000000;0.020000;,
  1.000000;0.020000;,
  1.000000;1.000000;,
  0.000000;0.800000;,
  0.000000;0.100000;,
  1.000000;0.100000;,
  1.000000;1.000000;,
  0.000000;0.800000;,
  0.000000;0.100000;,
  1.000000;0.100000;,
  1.000000;1.000000;,
  0.000000;0.800000;,
  0.000000;0.100000;,
  1.000000;0.100000;,
  1.000000;1.000000;,
  0.000000;0.800000;,
  0.000000;0.400000;,
  1.000000;0.400000;,
  1.000000;1.000000;,
  0.000000;0.500000;,
  0.000000;0.100000;,
  1.000000;0.100000;,
  1.000000;0.500000;,
  0.000000;1.000000;,
  0.000000;0.020000;,
  2.000000;1.000000;,
  2.000000;0.020000;,
  2.000000;1.000000;,
  2.000000;0.020000;,
  4.000000;1.000000;,
  4.000000;0.020000;,
  1.000000;0.100000;,
  0.000000;0.100000;,
  1.000000;0.200000;,
  0.000000;0.200000;,
  1.000000;0.100000;,
  0.000000;0.100000;,
  1.000000;0.200000;,
  0.000000;0.200000;,
  1.000000;0.100000;,
  0.000000;0.100000;,
  1.000000;0.200000;,
  0.000000;0.200000;,
  1.000000;0.100000;,
  0.000000;0.100000;,
  1.000000;0.200000;,
  0.000000;0.200000;,
  1.000000;0.100000;,
  0.000000;0.100000;,
  1.000000;0.200000;,
  0.000000;0.200000;,
  1.000000;0.100000;,
  0.000000;0.100000;,
  1.000000;0.200000;,
  0.000000;0.200000;,
  1.000000;0.100000;,
  0.000000;0.100000;,
  1.000000;0.200000;,
  0.000000;0.200000;,
  1.000000;0.100000;,
  0.000000;0.100000;,
  1.000000;0.200000;,
  0.000000;0.200000;,
  1.000000;0.100000;,
  0.000000;0.100000;,
  1.000000;0.200000;,
  0.000000;0.200000;,
  1.000000;0.100000;,
  0.000000;0.100000;,
  1.000000;0.200000;,
  0.000000;0.200000;,
  1.000000;0.100000;,
  0.000000;0.100000;,
  1.000000;0.200000;,
  0.000000;0.200000;,
  1.000000;0.100000;,
  0.000000;0.100000;,
  1.000000;0.200000;,
  0.000000;0.200000;,
  3.000000;0.000000;,
  5.100000;0.000000;,
  0.100000;0.500000;,
  3.000000;0.500000;,
  0.100000;1.000000;,
  5.100000;1.000000;,
  0.000000;0.850000;,
  0.000000;0.000000;,
  10.000000;0.850000;,
  10.000000;0.000000;,
  0.000000;0.300000;,
  0.000000;0.000000;,
  1.000000;0.300000;,
  1.000000;0.000000;,
  0.000000;0.000000;,
  0.000000;0.000000;,
  0.000000;0.000000;,
  0.000000;0.000000;,
  0.000000;0.000000;,
  0.000000;0.000000;,
  0.000000;0.000000;,
  0.000000;0.000000;,
  0.000000;0.000000;,
  0.000000;0.000000;,
  0.000000;0.000000;,
  0.000000;0.000000;,
  0.000000;0.000000;,
  0.000000;0.000000;,
  0.000000;0.000000;,
  0.000000;0.000000;,
  0.000000;0.000000;,
  0.000000;0.000000;,
  0.000000;0.000000;,
  0.000000;0.000000;,
  0.000000;0.000000;,
  0.000000;0.000000;,
  0.000000;0.000000;,
  0.000000;0.000000;,
  0.000000;0.000000;,
  0.000000;0.000000;,
  0.000000;0.000000;,
  0.000000;0.000000;,
  0.000000;0.000000;,
  0.000000;0.000000;,
  0.000000;0.000000;,
  0.000000;0.000000;,
  0.000000;1.000000;,
  0.000000;0.440000;,
  0.000000;0.000000;,
  2.000000;1.000000;,
  2.000000;0.440000;,
  2.000000;0.000000;,
  0.000000;1.000000;,
  0.000000;0.440000;,
  0.050000;1.000000;,
  0.050000;0.440000;,
  0.000000;0.000000;,
  0.000000;1.000000;,
  0.560000;0.000000;,
  0.560000;0.580000;,
  1.320000;0.580000;,
  1.320000;1.000000;,
  0.000000;1.000000;,
  0.000000;0.020000;,
  1.000000;0.020000;,
  1.000000;1.000000;,
  0.000000;1.000000;,
  0.000000;0.020000;,
  1.000000;0.020000;,
  1.000000;1.000000;,
  0.000000;1.000000;,
  0.000000;0.020000;,
  1.000000;0.020000;,
  1.000000;1.000000;,
  0.000000;1.000000;,
  0.000000;0.020000;,
  1.000000;0.020000;,
  1.000000;1.000000;,
  0.000000;0.500000;,
  0.000000;0.100000;,
  1.000000;0.100000;,
  1.000000;0.500000;,
  0.000000;0.500000;,
  0.000000;0.100000;,
  1.000000;0.100000;,
  1.000000;0.500000;,
  0.000000;0.500000;,
  0.000000;0.100000;,
  1.000000;0.100000;,
  1.000000;0.500000;,
  0.000000;0.500000;,
  0.000000;0.100000;,
  1.000000;0.100000;,
  1.000000;0.500000;,
  0.000000;0.500000;,
  0.000000;0.100000;,
  1.000000;0.100000;,
  1.000000;0.500000;,
  0.000000;1.000000;,
  0.000000;0.020000;,
  2.000000;1.000000;,
  2.000000;0.020000;,
  2.000000;1.000000;,
  2.000000;0.020000;,
  4.000000;1.000000;,
  4.000000;0.020000;,
  1.000000;0.100000;,
  0.000000;0.100000;,
  1.000000;0.200000;,
  0.000000;0.200000;,
  1.000000;0.100000;,
  0.000000;0.100000;,
  1.000000;0.200000;,
  0.000000;0.200000;,
  1.000000;0.100000;,
  0.000000;0.100000;,
  1.000000;0.200000;,
  0.000000;0.200000;,
  1.000000;0.100000;,
  0.000000;0.100000;,
  1.000000;0.200000;,
  0.000000;0.200000;,
  1.000000;0.100000;,
  0.000000;0.100000;,
  1.000000;0.200000;,
  0.000000;0.200000;,
  1.000000;0.100000;,
  0.000000;0.100000;,
  1.000000;0.200000;,
  0.000000;0.200000;,
  1.000000;0.100000;,
  0.000000;0.100000;,
  1.000000;0.200000;,
  0.000000;0.200000;,
  1.000000;0.100000;,
  0.000000;0.100000;,
  1.000000;0.200000;,
  0.000000;0.200000;,
  1.000000;0.100000;,
  0.000000;0.100000;,
  1.000000;0.200000;,
  0.000000;0.200000;,
  1.000000;0.100000;,
  0.000000;0.100000;,
  1.000000;0.200000;,
  0.000000;0.200000;,
  1.000000;0.100000;,
  0.000000;0.100000;,
  1.000000;0.200000;,
  0.000000;0.200000;,
  1.000000;0.100000;,
  0.000000;0.100000;,
  1.000000;0.200000;,
  0.000000;0.200000;,
  3.000000;0.000000;,
  5.100000;0.000000;,
  0.100000;0.500000;,
  3.000000;0.500000;,
  0.100000;1.000000;,
  5.100000;1.000000;,
  0.000000;0.850000;,
  0.000000;0.000000;,
  10.000000;0.850000;,
  10.000000;0.000000;,
  0.000000;0.300000;,
  0.000000;0.000000;,
  1.000000;0.300000;,
  1.000000;0.000000;,
  0.000000;0.000000;,
  0.000000;0.000000;,
  0.000000;0.000000;,
  0.000000;0.000000;,
  0.000000;0.000000;,
  0.000000;0.000000;,
  0.000000;0.000000;,
  0.000000;0.000000;,
  0.000000;0.000000;,
  0.000000;0.000000;,
  0.000000;0.000000;,
  0.000000;0.000000;,
  0.000000;0.000000;,
  0.000000;0.000000;,
  0.000000;0.000000;,
  0.000000;0.000000;,
  0.000000;0.000000;,
  0.000000;0.000000;,
  0.000000;0.000000;,
  0.000000;0.000000;,
  0.000000;0.000000;,
  0.000000;0.000000;,
  0.000000;0.000000;,
  0.000000;0.000000;,
  0.000000;0.000000;,
  0.000000;0.000000;,
  0.000000;0.000000;,
  0.000000;0.000000;,
  0.000000;0.000000;,
  0.000000;0.000000;,
  0.000000;0.000000;,
  0.000000;0.000000;;
 }

 MeshNormals  {
  232;
  1.000000;0.000000;0.000000;,
  1.000000;0.000000;0.000000;,
  0.000000;1.000000;0.000000;,
  0.000000;1.000000;0.000000;,
  0.000000;0.000000;-1.000000;,
  0.000000;0.000000;-1.000000;,
  0.000000;1.000000;0.000000;,
  0.000000;1.000000;0.000000;,
  0.000000;1.000000;0.000000;,
  0.000000;1.000000;0.000000;,
  0.000000;0.000000;-1.000000;,
  0.000000;0.000000;-1.000000;,
  0.000000;0.000000;-1.000000;,
  0.000000;0.000000;-1.000000;,
  0.000000;0.000000;-1.000000;,
  0.000000;0.000000;-1.000000;,
  0.000000;0.000000;-1.000000;,
  0.000000;0.000000;-1.000000;,
  0.000000;0.000000;-1.000000;,
  0.000000;0.000000;-1.000000;,
  0.000000;0.000000;-1.000000;,
  0.000000;0.000000;-1.000000;,
  0.000000;0.000000;-1.000000;,
  0.000000;0.000000;-1.000000;,
  0.000000;0.000000;-1.000000;,
  0.000000;0.000000;-1.000000;,
  0.000000;0.000000;-1.000000;,
  0.000000;0.000000;-1.000000;,
  1.000000;0.000000;0.000000;,
  1.000000;0.000000;0.000000;,
  0.000000;0.000000;-1.000000;,
  0.000000;0.000000;-1.000000;,
  1.000000;0.000000;0.000000;,
  1.000000;0.000000;0.000000;,
  1.000000;0.000000;0.000000;,
  1.000000;0.000000;0.000000;,
  0.985308;0.000000;-0.170787;,
  0.985308;0.000000;-0.170787;,
  1.000000;0.000000;0.000000;,
  1.000000;0.000000;0.000000;,
  1.000000;0.000000;0.000000;,
  1.000000;0.000000;0.000000;,
  1.000000;0.000000;0.000000;,
  1.000000;0.000000;0.000000;,
  0.000000;0.000000;-1.000000;,
  0.000000;0.000000;-1.000000;,
  0.000000;0.000000;-1.000000;,
  0.000000;0.000000;-1.000000;,
  0.000000;0.000000;-1.000000;,
  0.000000;0.000000;-1.000000;,
  0.000000;0.000000;-1.000000;,
  0.000000;0.000000;-1.000000;,
  0.000000;0.000000;-1.000000;,
  0.000000;0.000000;-1.000000;,
  0.000000;0.000000;-1.000000;,
  0.000000;0.000000;-1.000000;,
  0.000000;0.000000;-1.000000;,
  0.000000;0.000000;-1.000000;,
  0.000000;0.000000;-1.000000;,
  0.000000;0.000000;-1.000000;,
  0.049938;-0.998752;0.000000;,
  0.049938;-0.998752;0.000000;,
  0.049938;-0.998752;0.000000;,
  0.049938;-0.998752;0.000000;,
  1.000000;0.000000;0.000000;,
  1.000000;0.000000;0.000000;,
  0.000000;0.000000;-1.000000;,
  0.000000;0.000000;-1.000000;,
  0.000000;0.000000;-1.000000;,
  0.000000;0.000000;-1.000000;,
  -1.000000;0.000000;0.000000;,
  -1.000000;0.000000;0.000000;,
  0.000000;0.000000;1.000000;,
  0.000000;0.000000;1.000000;,
  1.000000;0.000000;0.000000;,
  1.000000;0.000000;0.000000;,
  0.000000;1.000000;0.000000;,
  0.000000;1.000000;0.000000;,
  0.000000;-1.000000;0.000000;,
  0.000000;-1.000000;0.000000;,
  0.000000;0.000000;-1.000000;,
  0.000000;0.000000;-1.000000;,
  -1.000000;0.000000;0.000000;,
  -1.000000;0.000000;0.000000;,
  0.000000;0.000000;1.000000;,
  0.000000;0.000000;1.000000;,
  1.000000;0.000000;0.000000;,
  1.000000;0.000000;0.000000;,
  0.000000;1.000000;0.000000;,
  0.000000;1.000000;0.000000;,
  0.000000;-1.000000;0.000000;,
  0.000000;-1.000000;0.000000;,
  0.000000;0.000000;-1.000000;,
  0.000000;0.000000;-1.000000;,
  -1.000000;0.000000;0.000000;,
  -1.000000;0.000000;0.000000;,
  0.000000;0.000000;1.000000;,
  0.000000;0.000000;1.000000;,
  1.000000;0.000000;0.000000;,
  1.000000;0.000000;0.000000;,
  0.000000;1.000000;0.000000;,
  0.000000;1.000000;0.000000;,
  0.000000;-1.000000;0.000000;,
  0.000000;-1.000000;0.000000;,
  0.000000;0.000000;-1.000000;,
  0.000000;0.000000;-1.000000;,
  -1.000000;0.000000;0.000000;,
  -1.000000;0.000000;0.000000;,
  0.000000;0.000000;1.000000;,
  0.000000;0.000000;1.000000;,
  1.000000;0.000000;0.000000;,
  1.000000;0.000000;0.000000;,
  0.000000;1.000000;0.000000;,
  0.000000;1.000000;0.000000;,
  0.000000;-1.000000;0.000000;,
  0.000000;-1.000000;0.000000;,
  -1.000000;0.000000;0.000000;,
  -1.000000;0.000000;0.000000;,
  0.000000;1.000000;0.000000;,
  0.000000;1.000000;0.000000;,
  0.000000;0.000000;-1.000000;,
  0.000000;0.000000;-1.000000;,
  0.000000;1.000000;0.000000;,
  0.000000;1.000000;0.000000;,
  0.000000;1.000000;0.000000;,
  0.000000;1.000000;0.000000;,
  0.000000;0.000000;-1.000000;,
  0.000000;0.000000;-1.000000;,
  0.000000;0.000000;-1.000000;,
  0.000000;0.000000;-1.000000;,
  0.000000;0.000000;-1.000000;,
  0.000000;0.000000;-1.000000;,
  0.000000;0.000000;-1.000000;,
  0.000000;0.000000;-1.000000;,
  0.000000;0.000000;-1.000000;,
  0.000000;0.000000;-1.000000;,
  0.000000;0.000000;-1.000000;,
  0.000000;0.000000;-1.000000;,
  0.000000;0.000000;-1.000000;,
  0.000000;0.000000;-1.000000;,
  0.000000;0.000000;-1.000000;,
  0.000000;0.000000;-1.000000;,
  0.000000;0.000000;-1.000000;,
  0.000000;0.000000;-1.000000;,
  -1.000000;0.000000;0.000000;,
  -1.000000;0.000000;0.000000;,
  0.000000;0.000000;-1.000000;,
  0.000000;0.000000;-1.000000;,
  -1.000000;0.000000;0.000000;,
  -1.000000;0.000000;0.000000;,
  -1.000000;0.000000;0.000000;,
  -1.000000;0.000000;0.000000;,
  -0.985308;0.000000;-0.170787;,
  -0.985308;0.000000;-0.170787;,
  -1.000000;0.000000;0.000000;,
  -1.000000;0.000000;0.000000;,
  -1.000000;0.000000;0.000000;,
  -1.000000;0.000000;0.000000;,
  -1.000000;0.000000;0.000000;,
  -1.000000;0.000000;0.000000;,
  0.000000;0.000000;-1.000000;,
  0.000000;0.000000;-1.000000;,
  0.000000;0.000000;-1.000000;,
  0.000000;0.000000;-1.000000;,
  0.000000;0.000000;-1.000000;,
  0.000000;0.000000;-1.000000;,
  0.000000;0.000000;-1.000000;,
  0.000000;0.000000;-1.000000;,
  0.000000;0.000000;-1.000000;,
  0.000000;0.000000;-1.000000;,
  0.000000;0.000000;-1.000000;,
  0.000000;0.000000;-1.000000;,
  0.000000;0.000000;-1.000000;,
  0.000000;0.000000;-1.000000;,
  0.000000;0.000000;-1.000000;,
  0.000000;0.000000;-1.000000;,
  -0.049938;-0.998752;0.000000;,
  -0.049938;-0.998752;0.000000;,
  -0.049938;-0.998752;0.000000;,
  -0.049938;-0.998752;0.000000;,
  -1.000000;0.000000;0.000000;,
  -1.000000;0.000000;0.000000;,
  0.000000;0.000000;-1.000000;,
  0.000000;0.000000;-1.000000;,
  0.000000;0.000000;-1.000000;,
  0.000000;0.000000;-1.000000;,
  -1.000000;0.000000;0.000000;,
  -1.000000;0.000000;0.000000;,
  0.000000;0.000000;1.000000;,
  0.000000;0.000000;1.000000;,
  1.000000;0.000000;0.000000;,
  1.000000;0.000000;0.000000;,
  0.000000;1.000000;0.000000;,
  0.000000;1.000000;0.000000;,
  0.000000;-1.000000;0.000000;,
  0.000000;-1.000000;0.000000;,
  0.000000;0.000000;-1.000000;,
  0.000000;0.000000;-1.000000;,
  -1.000000;0.000000;0.000000;,
  -1.000000;0.000000;0.000000;,
  0.000000;0.000000;1.000000;,
  0.000000;0.000000;1.000000;,
  1.000000;0.000000;0.000000;,
  1.000000;0.000000;0.000000;,
  0.000000;1.000000;0.000000;,
  0.000000;1.000000;0.000000;,
  0.000000;-1.000000;0.000000;,
  0.000000;-1.000000;0.000000;,
  0.000000;0.000000;-1.000000;,
  0.000000;0.000000;-1.000000;,
  -1.000000;0.000000;0.000000;,
  -1.000000;0.000000;0.000000;,
  0.000000;0.000000;1.000000;,
  0.000000;0.000000;1.000000;,
  1.000000;0.000000;0.000000;,
  1.000000;0.000000;0.000000;,
  0.000000;1.000000;0.000000;,
  0.000000;1.000000;0.000000;,
  0.000000;-1.000000;0.000000;,
  0.000000;-1.000000;0.000000;,
  0.000000;0.000000;-1.000000;,
  0.000000;0.000000;-1.000000;,
  -1.000000;0.000000;0.000000;,
  -1.000000;0.000000;0.000000;,
  0.000000;0.000000;1.000000;,
  0.000000;0.000000;1.000000;,
  1.000000;0.000000;0.000000;,
  1.000000;0.000000;0.000000;,
  0.000000;1.000000;0.000000;,
  0.000000;1.000000;0.000000;,
  0.000000;-1.000000;0.000000;,
  0.000000;-1.000000;0.000000;;
  232;
  3;0,0,0;,
  3;1,1,1;,
  3;2,2,2;,
  3;3,3,3;,
  3;4,4,4;,
  3;5,5,5;,
  3;6,6,6;,
  3;7,7,7;,
  3;8,8,8;,
  3;9,9,9;,
  3;10,10,10;,
  3;11,11,11;,
  3;12,12,12;,
  3;13,13,13;,
  3;14,14,14;,
  3;15,15,15;,
  3;16,16,16;,
  3;17,17,17;,
  3;18,18,18;,
  3;19,19,19;,
  3;20,20,20;,
  3;21,21,21;,
  3;22,22,22;,
  3;23,23,23;,
  3;24,24,24;,
  3;25,25,25;,
  3;26,26,26;,
  3;27,27,27;,
  3;28,28,28;,
  3;29,29,29;,
  3;30,30,30;,
  3;31,31,31;,
  3;32,32,32;,
  3;33,33,33;,
  3;34,34,34;,
  3;35,35,35;,
  3;36,36,36;,
  3;37,37,37;,
  3;38,38,38;,
  3;39,39,39;,
  3;40,40,40;,
  3;41,41,41;,
  3;42,42,42;,
  3;43,43,43;,
  3;44,44,44;,
  3;45,45,45;,
  3;46,46,46;,
  3;47,47,47;,
  3;48,48,48;,
  3;49,49,49;,
  3;50,50,50;,
  3;51,51,51;,
  3;52,52,52;,
  3;53,53,53;,
  3;54,54,54;,
  3;55,55,55;,
  3;56,56,56;,
  3;57,57,57;,
  3;58,58,58;,
  3;59,59,59;,
  3;60,60,60;,
  3;61,61,61;,
  3;62,62,62;,
  3;63,63,63;,
  3;64,64,64;,
  3;65,65,65;,
  3;66,66,66;,
  3;67,67,67;,
  3;68,68,68;,
  3;69,69,69;,
  3;70,70,70;,
  3;71,71,71;,
  3;72,72,72;,
  3;73,73,73;,
  3;74,74,74;,
  3;75,75,75;,
  3;76,76,76;,
  3;77,77,77;,
  3;78,78,78;,
  3;79,79,79;,
  3;80,80,80;,
  3;81,81,81;,
  3;82,82,82;,
  3;83,83,83;,
  3;84,84,84;,
  3;85,85,85;,
  3;86,86,86;,
  3;87,87,87;,
  3;88,88,88;,
  3;89,89,89;,
  3;90,90,90;,
  3;91,91,91;,
  3;92,92,92;,
  3;93,93,93;,
  3;94,94,94;,
  3;95,95,95;,
  3;96,96,96;,
  3;97,97,97;,
  3;98,98,98;,
  3;99,99,99;,
  3;100,100,100;,
  3;101,101,101;,
  3;102,102,102;,
  3;103,103,103;,
  3;104,104,104;,
  3;105,105,105;,
  3;106,106,106;,
  3;107,107,107;,
  3;108,108,108;,
  3;109,109,109;,
  3;110,110,110;,
  3;111,111,111;,
  3;112,112,112;,
  3;113,113,113;,
  3;114,114,114;,
  3;115,115,115;,
  3;116,116,116;,
  3;117,117,117;,
  3;118,118,118;,
  3;119,119,119;,
  3;120,120,120;,
  3;121,121,121;,
  3;122,122,122;,
  3;123,123,123;,
  3;124,124,124;,
  3;125,125,125;,
  3;126,126,126;,
  3;127,127,127;,
  3;128,128,128;,
  3;129,129,129;,
  3;130,130,130;,
  3;131,131,131;,
  3;132,132,132;,
  3;133,133,133;,
  3;134,134,134;,
  3;135,135,135;,
  3;136,136,136;,
  3;137,137,137;,
  3;138,138,138;,
  3;139,139,139;,
  3;140,140,140;,
  3;141,141,141;,
  3;142,142,142;,
  3;143,143,143;,
  3;144,144,144;,
  3;145,145,145;,
  3;146,146,146;,
  3;147,147,147;,
  3;148,148,148;,
  3;149,149,149;,
  3;150,150,150;,
  3;151,151,151;,
  3;152,152,152;,
  3;153,153,153;,
  3;154,154,154;,
  3;155,155,155;,
  3;156,156,156;,
  3;157,157,157;,
  3;158,158,158;,
  3;159,159,159;,
  3;160,160,160;,
  3;161,161,161;,
  3;162,162,162;,
  3;163,163,163;,
  3;164,164,164;,
  3;165,165,165;,
  3;166,166,166;,
  3;167,167,167;,
  3;168,168,168;,
  3;169,169,169;,
  3;170,170,170;,
  3;171,171,171;,
  3;172,172,172;,
  3;173,173,173;,
  3;174,174,174;,
  3;175,175,175;,
  3;176,176,176;,
  3;177,177,177;,
  3;178,178,178;,
  3;179,179,179;,
  3;180,180,180;,
  3;181,181,181;,
  3;182,182,182;,
  3;183,183,183;,
  3;184,184,184;,
  3;185,185,185;,
  3;186,186,186;,
  3;187,187,187;,
  3;188,188,188;,
  3;189,189,189;,
  3;190,190,190;,
  3;191,191,191;,
  3;192,192,192;,
  3;193,193,193;,
  3;194,194,194;,
  3;195,195,195;,
  3;196,196,196;,
  3;197,197,197;,
  3;198,198,198;,
  3;199,199,199;,
  3;200,200,200;,
  3;201,201,201;,
  3;202,202,202;,
  3;203,203,203;,
  3;204,204,204;,
  3;205,205,205;,
  3;206,206,206;,
  3;207,207,207;,
  3;208,208,208;,
  3;209,209,209;,
  3;210,210,210;,
  3;211,211,211;,
  3;212,212,212;,
  3;213,213,213;,
  3;214,214,214;,
  3;215,215,215;,
  3;216,216,216;,
  3;217,217,217;,
  3;218,218,218;,
  3;219,219,219;,
  3;220,220,220;,
  3;221,221,221;,
  3;222,222,222;,
  3;223,223,223;,
  3;224,224,224;,
  3;225,225,225;,
  3;226,226,226;,
  3;227,227,227;,
  3;228,228,228;,
  3;229,229,229;,
  3;230,230,230;,
  3;231,231,231;;
 }
}