xof 0303txt 0032
template Vector {
 <3d82ab5e-62da-11cf-ab39-0020af71e433>
 FLOAT x;
 FLOAT y;
 FLOAT z;
}

template MeshFace {
 <3d82ab5f-62da-11cf-ab39-0020af71e433>
 DWORD nFaceVertexIndices;
 array DWORD faceVertexIndices[nFaceVertexIndices];
}

template Mesh {
 <3d82ab44-62da-11cf-ab39-0020af71e433>
 DWORD nVertices;
 array Vector vertices[nVertices];
 DWORD nFaces;
 array MeshFace faces[nFaces];
 [...]
}

template ColorRGBA {
 <35ff44e0-6c7c-11cf-8f52-0040333594a3>
 FLOAT red;
 FLOAT green;
 FLOAT blue;
 FLOAT alpha;
}

template ColorRGB {
 <d3e16e81-7835-11cf-8f52-0040333594a3>
 FLOAT red;
 FLOAT green;
 FLOAT blue;
}

template Material {
 <3d82ab4d-62da-11cf-ab39-0020af71e433>
 ColorRGBA faceColor;
 FLOAT power;
 ColorRGB specularColor;
 ColorRGB emissiveColor;
 [...]
}

template MeshMaterialList {
 <f6f23f42-7686-11cf-8f52-0040333594a3>
 DWORD nMaterials;
 DWORD nFaceIndexes;
 array DWORD faceIndexes[nFaceIndexes];
 [Material <3d82ab4d-62da-11cf-ab39-0020af71e433>]
}

template TextureFilename {
 <a42790e1-7810-11cf-8f52-0040333594a3>
 STRING filename;
}

template Coords2d {
 <f6f23f44-7686-11cf-8f52-0040333594a3>
 FLOAT u;
 FLOAT v;
}

template MeshTextureCoords {
 <f6f23f40-7686-11cf-8f52-0040333594a3>
 DWORD nTextureCoords;
 array Coords2d textureCoords[nTextureCoords];
}

template MeshNormals {
 <f6f23f43-7686-11cf-8f52-0040333594a3>
 DWORD nNormals;
 array Vector normals[nNormals];
 DWORD nFaceNormals;
 array MeshFace faceNormals[nFaceNormals];
}


Mesh  {
 180;
 -3.200000;0.950000;0.000000;,
 -3.200000;1.100000;0.000000;,
 -1.500000;0.950000;0.000000;,
 -1.500000;1.100000;0.000000;,
 -2.700000;1.100000;0.000000;,
 -1.500000;0.950000;25.000000;,
 -1.500000;1.100000;25.000000;,
 -2.700000;1.100000;25.000000;,
 -2.700000;1.100000;0.000000;,
 -2.700000;1.100000;25.000000;,
 -3.200000;1.100000;25.000000;,
 -3.200000;1.100000;0.000000;,
 -2.100000;1.100000;0.000000;,
 -2.100000;2.300000;0.000000;,
 -3.200000;1.100000;0.000000;,
 -3.200000;2.300000;0.000000;,
 -3.200000;1.100000;25.000000;,
 -3.200000;2.300000;25.000000;,
 -3.200000;-1.000000;0.000000;,
 -3.200000;0.950000;0.000000;,
 -1.500000;0.950000;0.000000;,
 -1.500000;-1.000000;0.000000;,
 -3.200000;-1.000000;3.250000;,
 -3.200000;0.950000;3.250000;,
 -1.500000;0.950000;3.250000;,
 -1.500000;-1.000000;3.250000;,
 -3.200000;-1.000000;6.500000;,
 -3.200000;0.950000;6.500000;,
 -1.500000;0.950000;6.500000;,
 -1.500000;-1.000000;6.500000;,
 -3.200000;-1.000000;12.500000;,
 -3.200000;0.950000;12.500000;,
 -1.500000;0.950000;12.500000;,
 -1.500000;-1.000000;12.500000;,
 -3.200000;-1.000000;18.500000;,
 -3.200000;0.950000;18.500000;,
 -1.500000;0.950000;18.500000;,
 -1.500000;-1.000000;18.500000;,
 -3.200000;-1.000000;24.500000;,
 -3.200000;0.950000;24.500000;,
 -1.500000;0.950000;24.500000;,
 -1.500000;-1.000000;24.500000;,
 -2.670000;-0.500000;-0.300000;,
 -2.670000;-1.000000;-0.300000;,
 -3.270000;-1.000000;-0.300000;,
 -3.270000;-0.500000;-0.300000;,
 -2.670000;-0.500000;0.300000;,
 -2.670000;-1.000000;0.300000;,
 -3.270000;-1.000000;0.300000;,
 -3.270000;-0.500000;0.300000;,
 -2.670000;-0.500000;2.950000;,
 -2.670000;-1.000000;2.950000;,
 -3.270000;-1.000000;2.950000;,
 -3.270000;-0.500000;2.950000;,
 -2.670000;-0.500000;3.550000;,
 -2.670000;-1.000000;3.550000;,
 -3.270000;-1.000000;3.550000;,
 -3.270000;-0.500000;3.550000;,
 -2.670000;-0.500000;6.199999;,
 -2.670000;-1.000000;6.199999;,
 -3.270000;-1.000000;6.199999;,
 -3.270000;-0.500000;6.199999;,
 -2.670000;-0.500000;6.800000;,
 -2.670000;-1.000000;6.800000;,
 -3.270000;-1.000000;6.800000;,
 -3.270000;-0.500000;6.800000;,
 -2.670000;-0.500000;12.199999;,
 -2.670000;-1.000000;12.199999;,
 -3.270000;-1.000000;12.199999;,
 -3.270000;-0.500000;12.199999;,
 -2.670000;-0.500000;12.799999;,
 -2.670000;-1.000000;12.799999;,
 -3.270000;-1.000000;12.799999;,
 -3.270000;-0.500000;12.799999;,
 -2.670000;-0.500000;18.199999;,
 -2.670000;-1.000000;18.199999;,
 -3.270000;-1.000000;18.199999;,
 -3.270000;-0.500000;18.199999;,
 -2.670000;-0.500000;18.799997;,
 -2.670000;-1.000000;18.799997;,
 -3.270000;-1.000000;18.799997;,
 -3.270000;-0.500000;18.799997;,
 -2.670000;-0.500000;24.199999;,
 -2.670000;-1.000000;24.199999;,
 -3.270000;-1.000000;24.199999;,
 -3.270000;-0.500000;24.199999;,
 -2.670000;-0.500000;24.799997;,
 -2.670000;-1.000000;24.799997;,
 -3.270000;-1.000000;24.799997;,
 -3.270000;-0.500000;24.799997;,
 7.000000;0.950000;0.000000;,
 7.000000;1.100000;0.000000;,
 5.300000;0.950000;0.000000;,
 5.300000;1.100000;0.000000;,
 6.500000;1.100000;0.000000;,
 5.300000;0.950000;25.000000;,
 5.300000;1.100000;25.000000;,
 6.500000;1.100000;25.000000;,
 6.500000;1.100000;0.000000;,
 6.500000;1.100000;25.000000;,
 7.000000;1.100000;25.000000;,
 7.000000;1.100000;0.000000;,
 5.900000;1.100000;0.000000;,
 5.900000;2.300000;0.000000;,
 7.000000;1.100000;0.000000;,
 7.000000;2.300000;0.000000;,
 7.000000;1.100000;25.000000;,
 7.000000;2.300000;25.000000;,
 7.000000;-1.000000;0.000000;,
 7.000000;0.950000;0.000000;,
 5.300000;0.950000;0.000000;,
 5.300000;-1.000000;0.000000;,
 7.000000;-1.000000;3.250000;,
 7.000000;0.950000;3.250000;,
 5.300000;0.950000;3.250000;,
 5.300000;-1.000000;3.250000;,
 7.000000;-1.000000;6.500000;,
 7.000000;0.950000;6.500000;,
 5.300000;0.950000;6.500000;,
 5.300000;-1.000000;6.500000;,
 7.000000;-1.000000;12.500000;,
 7.000000;0.950000;12.500000;,
 5.300000;0.950000;12.500000;,
 5.300000;-1.000000;12.500000;,
 7.000000;-1.000000;18.500000;,
 7.000000;0.950000;18.500000;,
 5.300000;0.950000;18.500000;,
 5.300000;-1.000000;18.500000;,
 7.000000;-1.000000;24.500000;,
 7.000000;0.950000;24.500000;,
 5.300000;0.950000;24.500000;,
 5.300000;-1.000000;24.500000;,
 7.070000;-0.500000;-0.300000;,
 7.070000;-1.000000;-0.300000;,
 6.469999;-1.000000;-0.300000;,
 6.469999;-0.500000;-0.300000;,
 7.070000;-0.500000;0.300000;,
 7.070000;-1.000000;0.300000;,
 6.469999;-1.000000;0.300000;,
 6.469999;-0.500000;0.300000;,
 7.070000;-0.500000;2.950000;,
 7.070000;-1.000000;2.950000;,
 6.469999;-1.000000;2.950000;,
 6.469999;-0.500000;2.950000;,
 7.070000;-0.500000;3.550000;,
 7.070000;-1.000000;3.550000;,
 6.469999;-1.000000;3.550000;,
 6.469999;-0.500000;3.550000;,
 7.070000;-0.500000;6.199999;,
 7.070000;-1.000000;6.199999;,
 6.469999;-1.000000;6.199999;,
 6.469999;-0.500000;6.199999;,
 7.070000;-0.500000;6.800000;,
 7.070000;-1.000000;6.800000;,
 6.469999;-1.000000;6.800000;,
 6.469999;-0.500000;6.800000;,
 7.070000;-0.500000;12.199999;,
 7.070000;-1.000000;12.199999;,
 6.469999;-1.000000;12.199999;,
 6.469999;-0.500000;12.199999;,
 7.070000;-0.500000;12.799999;,
 7.070000;-1.000000;12.799999;,
 6.469999;-1.000000;12.799999;,
 6.469999;-0.500000;12.799999;,
 7.070000;-0.500000;18.199999;,
 7.070000;-1.000000;18.199999;,
 6.469999;-1.000000;18.199999;,
 6.469999;-0.500000;18.199999;,
 7.070000;-0.500000;18.799997;,
 7.070000;-1.000000;18.799997;,
 6.469999;-1.000000;18.799997;,
 6.469999;-0.500000;18.799997;,
 7.070000;-0.500000;24.199999;,
 7.070000;-1.000000;24.199999;,
 6.469999;-1.000000;24.199999;,
 6.469999;-0.500000;24.199999;,
 7.070000;-0.500000;24.799997;,
 7.070000;-1.000000;24.799997;,
 6.469999;-1.000000;24.799997;,
 6.469999;-0.500000;24.799997;;
 192;
 3;0,1,3;,
 3;0,3,2;,
 3;2,3,6;,
 3;2,6,5;,
 3;3,4,7;,
 3;3,7,6;,
 3;11,10,9;,
 3;11,9,8;,
 3;14,15,13;,
 3;14,13,12;,
 3;14,15,17;,
 3;14,17,16;,
 3;18,19,20;,
 3;18,20,21;,
 3;22,23,24;,
 3;22,24,25;,
 3;26,27,28;,
 3;26,28,29;,
 3;30,31,32;,
 3;30,32,33;,
 3;34,35,36;,
 3;34,36,37;,
 3;38,39,40;,
 3;38,40,41;,
 3;42,43,44;,
 3;42,44,45;,
 3;45,44,48;,
 3;45,48,49;,
 3;49,48,47;,
 3;49,47,46;,
 3;46,47,43;,
 3;46,43,42;,
 3;42,45,49;,
 3;42,49,46;,
 3;43,47,48;,
 3;43,48,44;,
 3;50,51,52;,
 3;50,52,53;,
 3;53,52,56;,
 3;53,56,57;,
 3;57,56,55;,
 3;57,55,54;,
 3;54,55,51;,
 3;54,51,50;,
 3;50,53,57;,
 3;50,57,54;,
 3;51,55,56;,
 3;51,56,52;,
 3;58,59,60;,
 3;58,60,61;,
 3;61,60,64;,
 3;61,64,65;,
 3;65,64,63;,
 3;65,63,62;,
 3;62,63,59;,
 3;62,59,58;,
 3;58,61,65;,
 3;58,65,62;,
 3;59,63,64;,
 3;59,64,60;,
 3;66,67,68;,
 3;66,68,69;,
 3;69,68,72;,
 3;69,72,73;,
 3;73,72,71;,
 3;73,71,70;,
 3;70,71,67;,
 3;70,67,66;,
 3;66,69,73;,
 3;66,73,70;,
 3;67,71,72;,
 3;67,72,68;,
 3;74,75,76;,
 3;74,76,77;,
 3;77,76,80;,
 3;77,80,81;,
 3;81,80,79;,
 3;81,79,78;,
 3;78,79,75;,
 3;78,75,74;,
 3;74,77,81;,
 3;74,81,78;,
 3;75,79,80;,
 3;75,80,76;,
 3;82,83,84;,
 3;82,84,85;,
 3;85,84,88;,
 3;85,88,89;,
 3;89,88,87;,
 3;89,87,86;,
 3;86,87,83;,
 3;86,83,82;,
 3;82,85,89;,
 3;82,89,86;,
 3;83,87,88;,
 3;83,88,84;,
 3;92,93,91;,
 3;92,91,90;,
 3;95,96,93;,
 3;95,93,92;,
 3;96,97,94;,
 3;96,94,93;,
 3;98,99,100;,
 3;98,100,101;,
 3;102,103,105;,
 3;102,105,104;,
 3;106,107,105;,
 3;106,105,104;,
 3;111,110,109;,
 3;111,109,108;,
 3;115,114,113;,
 3;115,113,112;,
 3;119,118,117;,
 3;119,117,116;,
 3;123,122,121;,
 3;123,121,120;,
 3;127,126,125;,
 3;127,125,124;,
 3;131,130,129;,
 3;131,129,128;,
 3;132,133,134;,
 3;132,134,135;,
 3;135,134,138;,
 3;135,138,139;,
 3;139,138,137;,
 3;139,137,136;,
 3;136,137,133;,
 3;136,133,132;,
 3;132,135,139;,
 3;132,139,136;,
 3;133,137,138;,
 3;133,138,134;,
 3;140,141,142;,
 3;140,142,143;,
 3;143,142,146;,
 3;143,146,147;,
 3;147,146,145;,
 3;147,145,144;,
 3;144,145,141;,
 3;144,141,140;,
 3;140,143,147;,
 3;140,147,144;,
 3;141,145,146;,
 3;141,146,142;,
 3;148,149,150;,
 3;148,150,151;,
 3;151,150,154;,
 3;151,154,155;,
 3;155,154,153;,
 3;155,153,152;,
 3;152,153,149;,
 3;152,149,148;,
 3;148,151,155;,
 3;148,155,152;,
 3;149,153,154;,
 3;149,154,150;,
 3;156,157,158;,
 3;156,158,159;,
 3;159,158,162;,
 3;159,162,163;,
 3;163,162,161;,
 3;163,161,160;,
 3;160,161,157;,
 3;160,157,156;,
 3;156,159,163;,
 3;156,163,160;,
 3;157,161,162;,
 3;157,162,158;,
 3;164,165,166;,
 3;164,166,167;,
 3;167,166,170;,
 3;167,170,171;,
 3;171,170,169;,
 3;171,169,168;,
 3;168,169,165;,
 3;168,165,164;,
 3;164,167,171;,
 3;164,171,168;,
 3;165,169,170;,
 3;165,170,166;,
 3;172,173,174;,
 3;172,174,175;,
 3;175,174,178;,
 3;175,178,179;,
 3;179,178,177;,
 3;179,177,176;,
 3;176,177,173;,
 3;176,173,172;,
 3;172,175,179;,
 3;172,179,176;,
 3;173,177,178;,
 3;173,178,174;;

 MeshMaterialList  {
  30;
  192;
  0,
  0,
  0,
  0,
  0,
  0,
  1,
  1,
  2,
  2,
  2,
  2,
  3,
  3,
  4,
  4,
  5,
  5,
  6,
  6,
  7,
  7,
  8,
  8,
  9,
  9,
  9,
  9,
  9,
  9,
  9,
  9,
  9,
  9,
  9,
  9,
  10,
  10,
  10,
  10,
  10,
  10,
  10,
  10,
  10,
  10,
  10,
  10,
  11,
  11,
  11,
  11,
  11,
  11,
  11,
  11,
  11,
  11,
  11,
  11,
  12,
  12,
  12,
  12,
  12,
  12,
  12,
  12,
  12,
  12,
  12,
  12,
  13,
  13,
  13,
  13,
  13,
  13,
  13,
  13,
  13,
  13,
  13,
  13,
  14,
  14,
  14,
  14,
  14,
  14,
  14,
  14,
  14,
  14,
  14,
  14,
  15,
  15,
  15,
  15,
  15,
  15,
  16,
  16,
  17,
  17,
  17,
  17,
  18,
  18,
  19,
  19,
  20,
  20,
  21,
  21,
  22,
  22,
  23,
  23,
  24,
  24,
  24,
  24,
  24,
  24,
  24,
  24,
  24,
  24,
  24,
  24,
  25,
  25,
  25,
  25,
  25,
  25,
  25,
  25,
  25,
  25,
  25,
  25,
  26,
  26,
  26,
  26,
  26,
  26,
  26,
  26,
  26,
  26,
  26,
  26,
  27,
  27,
  27,
  27,
  27,
  27,
  27,
  27,
  27,
  27,
  27,
  27,
  28,
  28,
  28,
  28,
  28,
  28,
  28,
  28,
  28,
  28,
  28,
  28,
  29,
  29,
  29,
  29,
  29,
  29,
  29,
  29,
  29,
  29,
  29,
  29;

  Material  {
   1.000000;1.000000;1.000000;1.000000;;
   0.000000;
   0.000000;0.000000;0.000000;;
   0.000000;0.000000;0.000000;;

   TextureFilename  {
    "FormSide1.png";
   }
  }

  Material  {
   1.000000;1.000000;1.000000;1.000000;;
   0.000000;
   0.000000;0.000000;0.000000;;
   0.000000;0.000000;0.000000;;

   TextureFilename  {
    "FormC.png";
   }
  }

  Material  {
   1.000000;1.000000;1.000000;1.000000;;
   0.000000;
   0.000000;0.000000;0.000000;;
   0.000000;0.000000;0.000000;;

   TextureFilename  {
    "Saku1.png";
   }
  }

  Material  {
   1.000000;1.000000;1.000000;1.000000;;
   0.000000;
   0.000000;0.000000;0.000000;;
   0.000000;0.000000;0.000000;;

   TextureFilename  {
    "Iron1.png";
   }
  }

  Material  {
   1.000000;1.000000;1.000000;1.000000;;
   0.000000;
   0.000000;0.000000;0.000000;;
   0.000000;0.000000;0.000000;;

   TextureFilename  {
    "Iron1.png";
   }
  }

  Material  {
   1.000000;1.000000;1.000000;1.000000;;
   0.000000;
   0.000000;0.000000;0.000000;;
   0.000000;0.000000;0.000000;;

   TextureFilename  {
    "Iron1.png";
   }
  }

  Material  {
   1.000000;1.000000;1.000000;1.000000;;
   0.000000;
   0.000000;0.000000;0.000000;;
   0.000000;0.000000;0.000000;;

   TextureFilename  {
    "Iron1.png";
   }
  }

  Material  {
   1.000000;1.000000;1.000000;1.000000;;
   0.000000;
   0.000000;0.000000;0.000000;;
   0.000000;0.000000;0.000000;;

   TextureFilename  {
    "Iron1.png";
   }
  }

  Material  {
   1.000000;1.000000;1.000000;1.000000;;
   0.000000;
   0.000000;0.000000;0.000000;;
   0.000000;0.000000;0.000000;;

   TextureFilename  {
    "Iron1.png";
   }
  }

  Material  {
   0.352941;0.333333;0.333333;1.000000;;
   0.000000;
   0.000000;0.000000;0.000000;;
   0.000000;0.000000;0.000000;;
  }

  Material  {
   0.352941;0.333333;0.333333;1.000000;;
   0.000000;
   0.000000;0.000000;0.000000;;
   0.000000;0.000000;0.000000;;
  }

  Material  {
   0.352941;0.333333;0.333333;1.000000;;
   0.000000;
   0.000000;0.000000;0.000000;;
   0.000000;0.000000;0.000000;;
  }

  Material  {
   0.352941;0.333333;0.333333;1.000000;;
   0.000000;
   0.000000;0.000000;0.000000;;
   0.000000;0.000000;0.000000;;
  }

  Material  {
   0.352941;0.333333;0.333333;1.000000;;
   0.000000;
   0.000000;0.000000;0.000000;;
   0.000000;0.000000;0.000000;;
  }

  Material  {
   0.352941;0.333333;0.333333;1.000000;;
   0.000000;
   0.000000;0.000000;0.000000;;
   0.000000;0.000000;0.000000;;
  }

  Material  {
   1.000000;1.000000;1.000000;1.000000;;
   0.000000;
   0.000000;0.000000;0.000000;;
   0.000000;0.000000;0.000000;;

   TextureFilename  {
    "FormSide1.png";
   }
  }

  Material  {
   1.000000;1.000000;1.000000;1.000000;;
   0.000000;
   0.000000;0.000000;0.000000;;
   0.000000;0.000000;0.000000;;

   TextureFilename  {
    "FormC.png";
   }
  }

  Material  {
   1.000000;1.000000;1.000000;1.000000;;
   0.000000;
   0.000000;0.000000;0.000000;;
   0.000000;0.000000;0.000000;;

   TextureFilename  {
    "Saku1.png";
   }
  }

  Material  {
   1.000000;1.000000;1.000000;1.000000;;
   0.000000;
   0.000000;0.000000;0.000000;;
   0.000000;0.000000;0.000000;;

   TextureFilename  {
    "Iron1.png";
   }
  }

  Material  {
   1.000000;1.000000;1.000000;1.000000;;
   0.000000;
   0.000000;0.000000;0.000000;;
   0.000000;0.000000;0.000000;;

   TextureFilename  {
    "Iron1.png";
   }
  }

  Material  {
   1.000000;1.000000;1.000000;1.000000;;
   0.000000;
   0.000000;0.000000;0.000000;;
   0.000000;0.000000;0.000000;;

   TextureFilename  {
    "Iron1.png";
   }
  }

  Material  {
   1.000000;1.000000;1.000000;1.000000;;
   0.000000;
   0.000000;0.000000;0.000000;;
   0.000000;0.000000;0.000000;;

   TextureFilename  {
    "Iron1.png";
   }
  }

  Material  {
   1.000000;1.000000;1.000000;1.000000;;
   0.000000;
   0.000000;0.000000;0.000000;;
   0.000000;0.000000;0.000000;;

   TextureFilename  {
    "Iron1.png";
   }
  }

  Material  {
   1.000000;1.000000;1.000000;1.000000;;
   0.000000;
   0.000000;0.000000;0.000000;;
   0.000000;0.000000;0.000000;;

   TextureFilename  {
    "Iron1.png";
   }
  }

  Material  {
   0.352941;0.333333;0.333333;1.000000;;
   0.000000;
   0.000000;0.000000;0.000000;;
   0.000000;0.000000;0.000000;;
  }

  Material  {
   0.352941;0.333333;0.333333;1.000000;;
   0.000000;
   0.000000;0.000000;0.000000;;
   0.000000;0.000000;0.000000;;
  }

  Material  {
   0.352941;0.333333;0.333333;1.000000;;
   0.000000;
   0.000000;0.000000;0.000000;;
   0.000000;0.000000;0.000000;;
  }

  Material  {
   0.352941;0.333333;0.333333;1.000000;;
   0.000000;
   0.000000;0.000000;0.000000;;
   0.000000;0.000000;0.000000;;
  }

  Material  {
   0.352941;0.333333;0.333333;1.000000;;
   0.000000;
   0.000000;0.000000;0.000000;;
   0.000000;0.000000;0.000000;;
  }

  Material  {
   0.352941;0.333333;0.333333;1.000000;;
   0.000000;
   0.000000;0.000000;0.000000;;
   0.000000;0.000000;0.000000;;
  }
 }

 MeshTextureCoords  {
  180;
  0.050000;1.000000;,
  0.050000;0.440000;,
  0.000000;1.000000;,
  0.000000;0.440000;,
  0.000000;0.000000;,
  2.000000;1.000000;,
  2.000000;0.440000;,
  2.000000;0.000000;,
  0.000000;1.000000;,
  0.000000;0.000000;,
  0.200000;0.000000;,
  0.200000;1.000000;,
  -0.012000;1.000000;,
  -0.012000;0.000000;,
  0.250000;1.000000;,
  0.250000;0.000000;,
  4.250000;1.000000;,
  4.250000;0.000000;,
  0.000000;1.000000;,
  0.000000;0.020000;,
  1.000000;0.020000;,
  1.000000;1.000000;,
  0.000000;1.000000;,
  0.000000;0.020000;,
  1.000000;0.020000;,
  1.000000;1.000000;,
  0.000000;1.000000;,
  0.000000;0.020000;,
  1.000000;0.020000;,
  1.000000;1.000000;,
  0.000000;1.000000;,
  0.000000;0.020000;,
  1.000000;0.020000;,
  1.000000;1.000000;,
  0.000000;1.000000;,
  0.000000;0.020000;,
  1.000000;0.020000;,
  1.000000;1.000000;,
  0.000000;1.000000;,
  0.000000;0.020000;,
  1.000000;0.020000;,
  1.000000;1.000000;,
  0.000000;0.000000;,
  0.000000;0.000000;,
  0.000000;0.000000;,
  0.000000;0.000000;,
  0.000000;0.000000;,
  0.000000;0.000000;,
  0.000000;0.000000;,
  0.000000;0.000000;,
  0.000000;0.000000;,
  0.000000;0.000000;,
  0.000000;0.000000;,
  0.000000;0.000000;,
  0.000000;0.000000;,
  0.000000;0.000000;,
  0.000000;0.000000;,
  0.000000;0.000000;,
  0.000000;0.000000;,
  0.000000;0.000000;,
  0.000000;0.000000;,
  0.000000;0.000000;,
  0.000000;0.000000;,
  0.000000;0.000000;,
  0.000000;0.000000;,
  0.000000;0.000000;,
  0.000000;0.000000;,
  0.000000;0.000000;,
  0.000000;0.000000;,
  0.000000;0.000000;,
  0.000000;0.000000;,
  0.000000;0.000000;,
  0.000000;0.000000;,
  0.000000;0.000000;,
  0.000000;0.000000;,
  0.000000;0.000000;,
  0.000000;0.000000;,
  0.000000;0.000000;,
  0.000000;0.000000;,
  0.000000;0.000000;,
  0.000000;0.000000;,
  0.000000;0.000000;,
  0.000000;0.000000;,
  0.000000;0.000000;,
  0.000000;0.000000;,
  0.000000;0.000000;,
  0.000000;0.000000;,
  0.000000;0.000000;,
  0.000000;0.000000;,
  0.000000;0.000000;,
  0.050000;1.000000;,
  0.050000;0.440000;,
  0.000000;1.000000;,
  0.000000;0.440000;,
  0.000000;0.000000;,
  2.000000;1.000000;,
  2.000000;0.440000;,
  2.000000;0.000000;,
  0.000000;1.000000;,
  0.000000;0.000000;,
  0.200000;0.000000;,
  0.200000;1.000000;,
  -0.012000;1.000000;,
  -0.012000;0.000000;,
  0.250000;1.000000;,
  0.250000;0.000000;,
  4.250000;1.000000;,
  4.250000;0.000000;,
  0.000000;1.000000;,
  0.000000;0.020000;,
  1.000000;0.020000;,
  1.000000;1.000000;,
  0.000000;1.000000;,
  0.000000;0.020000;,
  1.000000;0.020000;,
  1.000000;1.000000;,
  0.000000;1.000000;,
  0.000000;0.020000;,
  1.000000;0.020000;,
  1.000000;1.000000;,
  0.000000;1.000000;,
  0.000000;0.020000;,
  1.000000;0.020000;,
  1.000000;1.000000;,
  0.000000;1.000000;,
  0.000000;0.020000;,
  1.000000;0.020000;,
  1.000000;1.000000;,
  0.000000;1.000000;,
  0.000000;0.020000;,
  1.000000;0.020000;,
  1.000000;1.000000;,
  0.000000;0.000000;,
  0.000000;0.000000;,
  0.000000;0.000000;,
  0.000000;0.000000;,
  0.000000;0.000000;,
  0.000000;0.000000;,
  0.000000;0.000000;,
  0.000000;0.000000;,
  0.000000;0.000000;,
  0.000000;0.000000;,
  0.000000;0.000000;,
  0.000000;0.000000;,
  0.000000;0.000000;,
  0.000000;0.000000;,
  0.000000;0.000000;,
  0.000000;0.000000;,
  0.000000;0.000000;,
  0.000000;0.000000;,
  0.000000;0.000000;,
  0.000000;0.000000;,
  0.000000;0.000000;,
  0.000000;0.000000;,
  0.000000;0.000000;,
  0.000000;0.000000;,
  0.000000;0.000000;,
  0.000000;0.000000;,
  0.000000;0.000000;,
  0.000000;0.000000;,
  0.000000;0.000000;,
  0.000000;0.000000;,
  0.000000;0.000000;,
  0.000000;0.000000;,
  0.000000;0.000000;,
  0.000000;0.000000;,
  0.000000;0.000000;,
  0.000000;0.000000;,
  0.000000;0.000000;,
  0.000000;0.000000;,
  0.000000;0.000000;,
  0.000000;0.000000;,
  0.000000;0.000000;,
  0.000000;0.000000;,
  0.000000;0.000000;,
  0.000000;0.000000;,
  0.000000;0.000000;,
  0.000000;0.000000;,
  0.000000;0.000000;,
  0.000000;0.000000;;
 }

 MeshNormals  {
  192;
  0.000000;0.000000;-1.000000;,
  0.000000;0.000000;-1.000000;,
  1.000000;0.000000;0.000000;,
  1.000000;0.000000;0.000000;,
  0.000000;1.000000;0.000000;,
  0.000000;1.000000;0.000000;,
  0.000000;1.000000;0.000000;,
  0.000000;1.000000;0.000000;,
  0.000000;0.000000;-1.000000;,
  0.000000;0.000000;-1.000000;,
  1.000000;0.000000;0.000000;,
  1.000000;0.000000;0.000000;,
  0.000000;0.000000;-1.000000;,
  0.000000;0.000000;-1.000000;,
  0.000000;0.000000;-1.000000;,
  0.000000;0.000000;-1.000000;,
  0.000000;0.000000;-1.000000;,
  0.000000;0.000000;-1.000000;,
  0.000000;0.000000;-1.000000;,
  0.000000;0.000000;-1.000000;,
  0.000000;0.000000;-1.000000;,
  0.000000;0.000000;-1.000000;,
  0.000000;0.000000;-1.000000;,
  0.000000;0.000000;-1.000000;,
  0.000000;0.000000;-1.000000;,
  0.000000;0.000000;-1.000000;,
  -1.000000;0.000000;0.000000;,
  -1.000000;0.000000;0.000000;,
  0.000000;0.000000;1.000000;,
  0.000000;0.000000;1.000000;,
  1.000000;0.000000;0.000000;,
  1.000000;0.000000;0.000000;,
  0.000000;1.000000;0.000000;,
  0.000000;1.000000;0.000000;,
  0.000000;-1.000000;0.000000;,
  0.000000;-1.000000;0.000000;,
  0.000000;0.000000;-1.000000;,
  0.000000;0.000000;-1.000000;,
  -1.000000;0.000000;0.000000;,
  -1.000000;0.000000;0.000000;,
  0.000000;0.000000;1.000000;,
  0.000000;0.000000;1.000000;,
  1.000000;0.000000;0.000000;,
  1.000000;0.000000;0.000000;,
  0.000000;1.000000;0.000000;,
  0.000000;1.000000;0.000000;,
  0.000000;-1.000000;0.000000;,
  0.000000;-1.000000;0.000000;,
  0.000000;0.000000;-1.000000;,
  0.000000;0.000000;-1.000000;,
  -1.000000;0.000000;0.000000;,
  -1.000000;0.000000;0.000000;,
  0.000000;0.000000;1.000000;,
  0.000000;0.000000;1.000000;,
  1.000000;0.000000;0.000000;,
  1.000000;0.000000;0.000000;,
  0.000000;1.000000;0.000000;,
  0.000000;1.000000;0.000000;,
  0.000000;-1.000000;0.000000;,
  0.000000;-1.000000;0.000000;,
  0.000000;0.000000;-1.000000;,
  0.000000;0.000000;-1.000000;,
  -1.000000;0.000000;0.000000;,
  -1.000000;0.000000;0.000000;,
  0.000000;0.000000;1.000000;,
  0.000000;0.000000;1.000000;,
  1.000000;0.000000;0.000000;,
  1.000000;0.000000;0.000000;,
  0.000000;1.000000;0.000000;,
  0.000000;1.000000;0.000000;,
  0.000000;-1.000000;0.000000;,
  0.000000;-1.000000;0.000000;,
  0.000000;0.000000;-1.000000;,
  0.000000;0.000000;-1.000000;,
  -1.000000;0.000000;0.000000;,
  -1.000000;0.000000;0.000000;,
  0.000000;0.000000;1.000000;,
  0.000000;0.000000;1.000000;,
  1.000000;0.000000;0.000000;,
  1.000000;0.000000;0.000000;,
  0.000000;1.000000;0.000000;,
  0.000000;1.000000;0.000000;,
  0.000000;-1.000000;0.000000;,
  0.000000;-1.000000;0.000000;,
  0.000000;0.000000;-1.000000;,
  0.000000;0.000000;-1.000000;,
  -1.000000;0.000000;0.000000;,
  -1.000000;0.000000;0.000000;,
  0.000000;0.000000;1.000000;,
  0.000000;0.000000;1.000000;,
  1.000000;0.000000;0.000000;,
  1.000000;0.000000;0.000000;,
  0.000000;1.000000;0.000000;,
  0.000000;1.000000;0.000000;,
  0.000000;-1.000000;0.000000;,
  0.000000;-1.000000;0.000000;,
  0.000000;0.000000;-1.000000;,
  0.000000;0.000000;-1.000000;,
  -1.000000;0.000000;0.000000;,
  -1.000000;0.000000;0.000000;,
  0.000000;1.000000;0.000000;,
  0.000000;1.000000;0.000000;,
  0.000000;1.000000;0.000000;,
  0.000000;1.000000;0.000000;,
  0.000000;0.000000;-1.000000;,
  0.000000;0.000000;-1.000000;,
  -1.000000;0.000000;0.000000;,
  -1.000000;0.000000;0.000000;,
  0.000000;0.000000;-1.000000;,
  0.000000;0.000000;-1.000000;,
  0.000000;0.000000;-1.000000;,
  0.000000;0.000000;-1.000000;,
  0.000000;0.000000;-1.000000;,
  0.000000;0.000000;-1.000000;,
  0.000000;0.000000;-1.000000;,
  0.000000;0.000000;-1.000000;,
  0.000000;0.000000;-1.000000;,
  0.000000;0.000000;-1.000000;,
  0.000000;0.000000;-1.000000;,
  0.000000;0.000000;-1.000000;,
  0.000000;0.000000;-1.000000;,
  0.000000;0.000000;-1.000000;,
  -1.000000;0.000000;0.000000;,
  -1.000000;0.000000;0.000000;,
  0.000000;0.000000;1.000000;,
  0.000000;0.000000;1.000000;,
  1.000000;0.000000;0.000000;,
  1.000000;0.000000;0.000000;,
  0.000000;1.000000;0.000000;,
  0.000000;1.000000;0.000000;,
  0.000000;-1.000000;0.000000;,
  0.000000;-1.000000;0.000000;,
  0.000000;0.000000;-1.000000;,
  0.000000;0.000000;-1.000000;,
  -1.000000;0.000000;0.000000;,
  -1.000000;0.000000;0.000000;,
  0.000000;0.000000;1.000000;,
  0.000000;0.000000;1.000000;,
  1.000000;0.000000;0.000000;,
  1.000000;0.000000;0.000000;,
  0.000000;1.000000;0.000000;,
  0.000000;1.000000;0.000000;,
  0.000000;-1.000000;0.000000;,
  0.000000;-1.000000;0.000000;,
  0.000000;0.000000;-1.000000;,
  0.000000;0.000000;-1.000000;,
  -1.000000;0.000000;0.000000;,
  -1.000000;0.000000;0.000000;,
  0.000000;0.000000;1.000000;,
  0.000000;0.000000;1.000000;,
  1.000000;0.000000;0.000000;,
  1.000000;0.000000;0.000000;,
  0.000000;1.000000;0.000000;,
  0.000000;1.000000;0.000000;,
  0.000000;-1.000000;0.000000;,
  0.000000;-1.000000;0.000000;,
  0.000000;0.000000;-1.000000;,
  0.000000;0.000000;-1.000000;,
  -1.000000;0.000000;0.000000;,
  -1.000000;0.000000;0.000000;,
  0.000000;0.000000;1.000000;,
  0.000000;0.000000;1.000000;,
  1.000000;0.000000;0.000000;,
  1.000000;0.000000;0.000000;,
  0.000000;1.000000;0.000000;,
  0.000000;1.000000;0.000000;,
  0.000000;-1.000000;0.000000;,
  0.000000;-1.000000;0.000000;,
  0.000000;0.000000;-1.000000;,
  0.000000;0.000000;-1.000000;,
  -1.000000;0.000000;0.000000;,
  -1.000000;0.000000;0.000000;,
  0.000000;0.000000;1.000000;,
  0.000000;0.000000;1.000000;,
  1.000000;0.000000;0.000000;,
  1.000000;0.000000;0.000000;,
  0.000000;1.000000;0.000000;,
  0.000000;1.000000;0.000000;,
  0.000000;-1.000000;0.000000;,
  0.000000;-1.000000;0.000000;,
  0.000000;0.000000;-1.000000;,
  0.000000;0.000000;-1.000000;,
  -1.000000;0.000000;0.000000;,
  -1.000000;0.000000;0.000000;,
  0.000000;0.000000;1.000000;,
  0.000000;0.000000;1.000000;,
  1.000000;0.000000;0.000000;,
  1.000000;0.000000;0.000000;,
  0.000000;1.000000;0.000000;,
  0.000000;1.000000;0.000000;,
  0.000000;-1.000000;0.000000;,
  0.000000;-1.000000;0.000000;;
  192;
  3;0,0,0;,
  3;1,1,1;,
  3;2,2,2;,
  3;3,3,3;,
  3;4,4,4;,
  3;5,5,5;,
  3;6,6,6;,
  3;7,7,7;,
  3;8,8,8;,
  3;9,9,9;,
  3;10,10,10;,
  3;11,11,11;,
  3;12,12,12;,
  3;13,13,13;,
  3;14,14,14;,
  3;15,15,15;,
  3;16,16,16;,
  3;17,17,17;,
  3;18,18,18;,
  3;19,19,19;,
  3;20,20,20;,
  3;21,21,21;,
  3;22,22,22;,
  3;23,23,23;,
  3;24,24,24;,
  3;25,25,25;,
  3;26,26,26;,
  3;27,27,27;,
  3;28,28,28;,
  3;29,29,29;,
  3;30,30,30;,
  3;31,31,31;,
  3;32,32,32;,
  3;33,33,33;,
  3;34,34,34;,
  3;35,35,35;,
  3;36,36,36;,
  3;37,37,37;,
  3;38,38,38;,
  3;39,39,39;,
  3;40,40,40;,
  3;41,41,41;,
  3;42,42,42;,
  3;43,43,43;,
  3;44,44,44;,
  3;45,45,45;,
  3;46,46,46;,
  3;47,47,47;,
  3;48,48,48;,
  3;49,49,49;,
  3;50,50,50;,
  3;51,51,51;,
  3;52,52,52;,
  3;53,53,53;,
  3;54,54,54;,
  3;55,55,55;,
  3;56,56,56;,
  3;57,57,57;,
  3;58,58,58;,
  3;59,59,59;,
  3;60,60,60;,
  3;61,61,61;,
  3;62,62,62;,
  3;63,63,63;,
  3;64,64,64;,
  3;65,65,65;,
  3;66,66,66;,
  3;67,67,67;,
  3;68,68,68;,
  3;69,69,69;,
  3;70,70,70;,
  3;71,71,71;,
  3;72,72,72;,
  3;73,73,73;,
  3;74,74,74;,
  3;75,75,75;,
  3;76,76,76;,
  3;77,77,77;,
  3;78,78,78;,
  3;79,79,79;,
  3;80,80,80;,
  3;81,81,81;,
  3;82,82,82;,
  3;83,83,83;,
  3;84,84,84;,
  3;85,85,85;,
  3;86,86,86;,
  3;87,87,87;,
  3;88,88,88;,
  3;89,89,89;,
  3;90,90,90;,
  3;91,91,91;,
  3;92,92,92;,
  3;93,93,93;,
  3;94,94,94;,
  3;95,95,95;,
  3;96,96,96;,
  3;97,97,97;,
  3;98,98,98;,
  3;99,99,99;,
  3;100,100,100;,
  3;101,101,101;,
  3;102,102,102;,
  3;103,103,103;,
  3;104,104,104;,
  3;105,105,105;,
  3;106,106,106;,
  3;107,107,107;,
  3;108,108,108;,
  3;109,109,109;,
  3;110,110,110;,
  3;111,111,111;,
  3;112,112,112;,
  3;113,113,113;,
  3;114,114,114;,
  3;115,115,115;,
  3;116,116,116;,
  3;117,117,117;,
  3;118,118,118;,
  3;119,119,119;,
  3;120,120,120;,
  3;121,121,121;,
  3;122,122,122;,
  3;123,123,123;,
  3;124,124,124;,
  3;125,125,125;,
  3;126,126,126;,
  3;127,127,127;,
  3;128,128,128;,
  3;129,129,129;,
  3;130,130,130;,
  3;131,131,131;,
  3;132,132,132;,
  3;133,133,133;,
  3;134,134,134;,
  3;135,135,135;,
  3;136,136,136;,
  3;137,137,137;,
  3;138,138,138;,
  3;139,139,139;,
  3;140,140,140;,
  3;141,141,141;,
  3;142,142,142;,
  3;143,143,143;,
  3;144,144,144;,
  3;145,145,145;,
  3;146,146,146;,
  3;147,147,147;,
  3;148,148,148;,
  3;149,149,149;,
  3;150,150,150;,
  3;151,151,151;,
  3;152,152,152;,
  3;153,153,153;,
  3;154,154,154;,
  3;155,155,155;,
  3;156,156,156;,
  3;157,157,157;,
  3;158,158,158;,
  3;159,159,159;,
  3;160,160,160;,
  3;161,161,161;,
  3;162,162,162;,
  3;163,163,163;,
  3;164,164,164;,
  3;165,165,165;,
  3;166,166,166;,
  3;167,167,167;,
  3;168,168,168;,
  3;169,169,169;,
  3;170,170,170;,
  3;171,171,171;,
  3;172,172,172;,
  3;173,173,173;,
  3;174,174,174;,
  3;175,175,175;,
  3;176,176,176;,
  3;177,177,177;,
  3;178,178,178;,
  3;179,179,179;,
  3;180,180,180;,
  3;181,181,181;,
  3;182,182,182;,
  3;183,183,183;,
  3;184,184,184;,
  3;185,185,185;,
  3;186,186,186;,
  3;187,187,187;,
  3;188,188,188;,
  3;189,189,189;,
  3;190,190,190;,
  3;191,191,191;;
 }
}