xof 0303txt 0032
template Vector {
 <3d82ab5e-62da-11cf-ab39-0020af71e433>
 FLOAT x;
 FLOAT y;
 FLOAT z;
}

template MeshFace {
 <3d82ab5f-62da-11cf-ab39-0020af71e433>
 DWORD nFaceVertexIndices;
 array DWORD faceVertexIndices[nFaceVertexIndices];
}

template Mesh {
 <3d82ab44-62da-11cf-ab39-0020af71e433>
 DWORD nVertices;
 array Vector vertices[nVertices];
 DWORD nFaces;
 array MeshFace faces[nFaces];
 [...]
}

template ColorRGBA {
 <35ff44e0-6c7c-11cf-8f52-0040333594a3>
 FLOAT red;
 FLOAT green;
 FLOAT blue;
 FLOAT alpha;
}

template ColorRGB {
 <d3e16e81-7835-11cf-8f52-0040333594a3>
 FLOAT red;
 FLOAT green;
 FLOAT blue;
}

template Material {
 <3d82ab4d-62da-11cf-ab39-0020af71e433>
 ColorRGBA faceColor;
 FLOAT power;
 ColorRGB specularColor;
 ColorRGB emissiveColor;
 [...]
}

template MeshMaterialList {
 <f6f23f42-7686-11cf-8f52-0040333594a3>
 DWORD nMaterials;
 DWORD nFaceIndexes;
 array DWORD faceIndexes[nFaceIndexes];
 [Material <3d82ab4d-62da-11cf-ab39-0020af71e433>]
}

template TextureFilename {
 <a42790e1-7810-11cf-8f52-0040333594a3>
 STRING filename;
}

template Coords2d {
 <f6f23f44-7686-11cf-8f52-0040333594a3>
 FLOAT u;
 FLOAT v;
}

template MeshTextureCoords {
 <f6f23f40-7686-11cf-8f52-0040333594a3>
 DWORD nTextureCoords;
 array Coords2d textureCoords[nTextureCoords];
}

template MeshNormals {
 <f6f23f43-7686-11cf-8f52-0040333594a3>
 DWORD nNormals;
 array Vector normals[nNormals];
 DWORD nFaceNormals;
 array MeshFace faceNormals[nFaceNormals];
}


Mesh  {
 402;
 -10.100000;-0.500000;1.500000;,
 -10.100000;6.500000;1.500000;,
 -9.700000;-0.500000;1.500000;,
 -9.700000;6.500000;1.500000;,
 -10.100000;-0.500000;-1.500000;,
 -10.100000;6.500000;-1.500000;,
 -9.700000;-0.500000;-1.500000;,
 -9.700000;6.500000;-1.500000;,
 -7.100000;-0.500000;1.500000;,
 -7.100000;6.500000;1.500000;,
 -6.700000;-0.500000;1.500000;,
 -6.700000;6.500000;1.500000;,
 -7.100000;-0.500000;-1.500000;,
 -7.100000;6.500000;-1.500000;,
 -6.700000;-0.500000;-1.500000;,
 -6.700000;6.500000;-1.500000;,
 -14.100000;-0.500000;-7.200000;,
 -14.100000;3.500000;-7.200000;,
 -13.700000;-0.500000;-7.200000;,
 -13.700000;3.500000;-7.200000;,
 -14.100000;-0.500000;-10.900000;,
 -14.100000;3.500000;-10.900000;,
 -13.700000;-0.500000;-10.900000;,
 -13.700000;3.500000;-10.900000;,
 -7.100000;-0.500000;-7.200000;,
 -7.100000;3.500000;-7.200000;,
 -6.700000;-0.500000;-7.200000;,
 -6.700000;3.500000;-7.200000;,
 -7.100000;-0.500000;-10.900000;,
 -7.100000;3.500000;-10.900000;,
 -6.700000;-0.500000;-10.900000;,
 -6.700000;3.500000;-10.900000;,
 -10.100000;2.100000;-1.510000;,
 -10.100000;2.300000;-1.510000;,
 -6.700000;2.100000;-1.510000;,
 -6.700000;2.300000;-1.510000;,
 -6.700000;2.100000;1.510000;,
 -6.700000;2.300000;1.510000;,
 -10.100000;2.100000;1.510000;,
 -10.100000;2.300000;1.510000;,
 -10.100000;6.200000;-1.510000;,
 -10.100000;6.500000;-1.510000;,
 -6.700000;6.200000;-1.510000;,
 -6.700000;6.500000;-1.510000;,
 -6.700000;6.200000;1.510000;,
 -6.700000;6.500000;1.510000;,
 -10.100000;6.200000;1.510000;,
 -10.100000;6.500000;1.510000;,
 -14.100000;3.200000;-10.910000;,
 -14.100000;3.500000;-10.910000;,
 -6.700000;3.200000;-10.910000;,
 -6.700000;3.500000;-10.910000;,
 -6.700000;3.200000;-7.190000;,
 -6.700000;3.500000;-7.190000;,
 -14.100000;3.200000;-7.190000;,
 -14.100000;3.500000;-7.190000;,
 -12.600000;3.200000;-7.200000;,
 -12.600000;3.500000;-7.200000;,
 -12.600000;0.850000;-2.200000;,
 -12.600000;1.150000;-2.200000;,
 -12.600000;0.850000;-1.300000;,
 -12.600000;1.150000;-1.300000;,
 -12.600000;-1.500000;3.700000;,
 -12.600000;-1.200000;3.700000;,
 -10.100000;7.000000;-1.500000;,
 -6.700000;7.000000;-1.500000;,
 -6.700000;6.500000;-1.500000;,
 -10.100000;4.000000;-7.200000;,
 -6.700000;4.000000;-7.200000;,
 -6.700000;3.500000;-7.200000;,
 -10.100000;4.000000;-10.900000;,
 -6.700000;4.000000;-10.900000;,
 -6.700000;3.500000;-10.900000;,
 -10.100000;2.000000;-14.700000;,
 -6.700000;2.000000;-14.700000;,
 -6.700000;1.500000;-14.700000;,
 -10.100000;2.000000;-15.700000;,
 -6.700000;2.000000;-15.700000;,
 -6.700000;1.500000;-15.700000;,
 -10.100000;-0.500000;-20.450001;,
 -6.700000;-0.500000;-20.450001;,
 -6.700000;-1.000000;-20.450001;,
 -6.700000;7.000000;-1.500000;,
 -6.700000;9.500000;-1.500000;,
 -6.700000;4.000000;-7.200000;,
 -6.700000;6.500000;-7.200000;,
 -6.700000;4.000000;-10.900000;,
 -6.700000;6.500000;-10.900000;,
 -6.700000;2.000000;-14.700000;,
 -6.700000;4.500000;-14.700000;,
 -6.700000;2.000000;-15.700000;,
 -6.700000;4.500000;-15.700000;,
 -6.700000;-0.500000;-20.450001;,
 -6.700000;2.000000;-20.450001;,
 -10.100000;7.000000;-1.500000;,
 -10.100000;9.500000;-1.500000;,
 -10.100000;4.000000;-7.200000;,
 -10.100000;6.500000;-7.200000;,
 -10.100000;4.000000;-10.900000;,
 -10.100000;6.500000;-10.900000;,
 -10.100000;2.000000;-14.700000;,
 -10.100000;4.500000;-14.700000;,
 -10.100000;2.000000;-15.700000;,
 -10.100000;4.500000;-15.700000;,
 -10.100000;-0.500000;-20.450001;,
 -10.100000;2.000000;-20.450001;,
 -14.100000;3.500000;-7.200000;,
 -11.100000;3.500000;-7.200000;,
 -11.100000;4.000000;-7.200000;,
 -14.100000;1.150000;-2.200000;,
 -11.100000;1.150000;-2.200000;,
 -11.100000;1.650000;-2.200000;,
 -14.100000;1.150000;-1.300000;,
 -11.100000;1.150000;-1.300000;,
 -11.100000;1.650000;-1.300000;,
 -14.100000;-1.200000;3.700000;,
 -11.100000;-1.200000;3.700000;,
 -11.100000;-0.700000;3.700000;,
 -11.100000;4.000000;-7.200000;,
 -11.100000;6.500000;-7.200000;,
 -11.100000;1.650000;-2.200000;,
 -11.100000;4.150000;-2.200000;,
 -11.100000;1.650000;-1.300000;,
 -11.100000;4.150000;-1.300000;,
 -11.100000;-0.700000;3.700000;,
 -11.100000;1.800000;3.700000;,
 -6.900000;-0.600000;-20.450001;,
 -6.900000;3.270000;-20.450001;,
 -6.700000;-0.600000;-20.450001;,
 -6.700000;3.270000;-20.450001;,
 -6.900000;2.000000;-15.200000;,
 -6.900000;6.000000;-15.200000;,
 -6.700000;2.000000;-15.200000;,
 -6.700000;6.000000;-15.200000;,
 -6.900000;4.000000;-10.900000;,
 -6.900000;8.300000;-10.900000;,
 -6.700000;4.000000;-10.900000;,
 -6.700000;8.300000;-10.900000;,
 -6.900000;4.000000;-7.200000;,
 -6.900000;8.300000;-7.200000;,
 -6.700000;4.000000;-7.200000;,
 -6.700000;8.300000;-7.200000;,
 -6.900000;7.000000;-1.500000;,
 -6.900000;11.300000;-1.500000;,
 -6.700000;7.000000;-1.500000;,
 -6.700000;11.300000;-1.500000;,
 -10.100000;-0.600000;-20.450001;,
 -10.100000;3.270000;-20.450001;,
 -9.900000;-0.600000;-20.450001;,
 -9.900000;3.270000;-20.450001;,
 -10.100000;2.000000;-15.200000;,
 -10.100000;6.000000;-15.200000;,
 -9.900000;2.000000;-15.200000;,
 -9.900000;6.000000;-15.200000;,
 -10.100000;4.000000;-10.900000;,
 -10.100000;8.300000;-10.900000;,
 -9.900000;4.000000;-10.900000;,
 -9.900000;8.300000;-10.900000;,
 -10.100000;4.000000;-7.200000;,
 -10.100000;8.300000;-7.200000;,
 -9.900000;4.000000;-7.200000;,
 -9.900000;8.300000;-7.200000;,
 -10.100000;7.000000;-1.500000;,
 -10.100000;11.300000;-1.500000;,
 -9.900000;7.000000;-1.500000;,
 -9.900000;11.300000;-1.500000;,
 -14.100000;4.000000;-10.900000;,
 -14.100000;8.000000;-10.900000;,
 -13.900000;4.000000;-10.900000;,
 -13.900000;8.000000;-10.900000;,
 -14.400000;8.300000;-10.900000;,
 -14.400000;9.326316;-8.950000;,
 -10.100000;3.273682;-20.450001;,
 -10.100000;8.300000;-10.900000;,
 -10.100000;9.326316;-8.950000;,
 -10.100000;8.300000;-7.200000;,
 -10.100000;12.089476;0.000000;,
 -6.700000;3.273682;-20.450001;,
 -6.700000;9.326316;-8.950000;,
 -6.700000;8.300000;-7.200000;,
 -6.700000;12.089476;0.000000;,
 -14.400000;8.000000;-11.000000;,
 -14.400000;8.400000;-11.000000;,
 -10.100000;8.000000;-11.000000;,
 -10.100000;8.400000;-11.000000;,
 -14.100000;3.500000;-10.900000;,
 -14.100000;4.000000;-10.900000;,
 -10.100000;4.000000;-10.900000;,
 -10.100000;3.500000;-10.900000;,
 -13.900000;4.000000;-10.900000;,
 -13.900000;7.000000;-10.900000;,
 -10.100000;7.000000;-10.900000;,
 -10.100000;4.000000;-10.900000;,
 -13.900000;7.000000;-10.900000;,
 -13.900000;8.000000;-10.900000;,
 -10.100000;8.000000;-10.900000;,
 -10.100000;7.000000;-10.900000;,
 -10.100000;6.500000;-1.500000;,
 -5.750000;6.500000;-1.500000;,
 -10.100000;6.500000;1.510000;,
 -5.750000;6.500000;1.510000;,
 13.900000;-0.500000;1.500000;,
 13.900000;6.500000;1.500000;,
 13.500000;-0.500000;1.500000;,
 13.500000;6.500000;1.500000;,
 13.900000;-0.500000;-1.500000;,
 13.900000;6.500000;-1.500000;,
 13.500000;-0.500000;-1.500000;,
 13.500000;6.500000;-1.500000;,
 10.900000;-0.500000;1.500000;,
 10.900000;6.500000;1.500000;,
 10.500000;-0.500000;1.500000;,
 10.500000;6.500000;1.500000;,
 10.900000;-0.500000;-1.500000;,
 10.900000;6.500000;-1.500000;,
 10.500000;-0.500000;-1.500000;,
 10.500000;6.500000;-1.500000;,
 17.900000;-0.500000;-7.200000;,
 17.900000;3.500000;-7.200000;,
 17.500000;-0.500000;-7.200000;,
 17.500000;3.500000;-7.200000;,
 17.900000;-0.500000;-10.900000;,
 17.900000;3.500000;-10.900000;,
 17.500000;-0.500000;-10.900000;,
 17.500000;3.500000;-10.900000;,
 10.900000;-0.500000;-7.200000;,
 10.900000;3.500000;-7.200000;,
 10.500000;-0.500000;-7.200000;,
 10.500000;3.500000;-7.200000;,
 10.900000;-0.500000;-10.900000;,
 10.900000;3.500000;-10.900000;,
 10.500000;-0.500000;-10.900000;,
 10.500000;3.500000;-10.900000;,
 13.900000;2.100000;-1.510000;,
 13.900000;2.300000;-1.510000;,
 10.500000;2.100000;-1.510000;,
 10.500000;2.300000;-1.510000;,
 10.500000;2.100000;1.510000;,
 10.500000;2.300000;1.510000;,
 13.900000;2.100000;1.510000;,
 13.900000;2.300000;1.510000;,
 13.900000;6.200000;-1.510000;,
 13.900000;6.500000;-1.510000;,
 10.500000;6.200000;-1.510000;,
 10.500000;6.500000;-1.510000;,
 10.500000;6.200000;1.510000;,
 10.500000;6.500000;1.510000;,
 13.900000;6.200000;1.510000;,
 13.900000;6.500000;1.510000;,
 17.900000;3.200000;-10.910000;,
 17.900000;3.500000;-10.910000;,
 10.500000;3.200000;-10.910000;,
 10.500000;3.500000;-10.910000;,
 10.500000;3.200000;-7.190000;,
 10.500000;3.500000;-7.190000;,
 17.900000;3.200000;-7.190000;,
 17.900000;3.500000;-7.190000;,
 16.400000;3.200000;-7.200000;,
 16.400000;3.500000;-7.200000;,
 16.400000;0.850000;-2.200000;,
 16.400000;1.150000;-2.200000;,
 16.400000;0.850000;-1.300000;,
 16.400000;1.150000;-1.300000;,
 16.400000;-1.500000;3.700000;,
 16.400000;-1.200000;3.700000;,
 13.900000;7.000000;-1.500000;,
 10.500000;7.000000;-1.500000;,
 10.500000;6.500000;-1.500000;,
 13.900000;4.000000;-7.200000;,
 10.500000;4.000000;-7.200000;,
 10.500000;3.500000;-7.200000;,
 13.900000;4.000000;-10.900000;,
 10.500000;4.000000;-10.900000;,
 10.500000;3.500000;-10.900000;,
 13.900000;2.000000;-14.700000;,
 10.500000;2.000000;-14.700000;,
 10.500000;1.500000;-14.700000;,
 13.900000;2.000000;-15.700000;,
 10.500000;2.000000;-15.700000;,
 10.500000;1.500000;-15.700000;,
 13.900000;-0.500000;-20.450001;,
 10.500000;-0.500000;-20.450001;,
 10.500000;-1.000000;-20.450001;,
 10.500000;7.000000;-1.500000;,
 10.500000;9.500000;-1.500000;,
 10.500000;4.000000;-7.200000;,
 10.500000;6.500000;-7.200000;,
 10.500000;4.000000;-10.900000;,
 10.500000;6.500000;-10.900000;,
 10.500000;2.000000;-14.700000;,
 10.500000;4.500000;-14.700000;,
 10.500000;2.000000;-15.700000;,
 10.500000;4.500000;-15.700000;,
 10.500000;-0.500000;-20.450001;,
 10.500000;2.000000;-20.450001;,
 13.900000;7.000000;-1.500000;,
 13.900000;9.500000;-1.500000;,
 13.900000;4.000000;-7.200000;,
 13.900000;6.500000;-7.200000;,
 13.900000;4.000000;-10.900000;,
 13.900000;6.500000;-10.900000;,
 13.900000;2.000000;-14.700000;,
 13.900000;4.500000;-14.700000;,
 13.900000;2.000000;-15.700000;,
 13.900000;4.500000;-15.700000;,
 13.900000;-0.500000;-20.450001;,
 13.900000;2.000000;-20.450001;,
 17.900000;3.500000;-7.200000;,
 14.900000;3.500000;-7.200000;,
 14.900000;4.000000;-7.200000;,
 17.900000;1.150000;-2.200000;,
 14.900000;1.150000;-2.200000;,
 14.900000;1.650000;-2.200000;,
 17.900000;1.150000;-1.300000;,
 14.900000;1.150000;-1.300000;,
 14.900000;1.650000;-1.300000;,
 17.900000;-1.200000;3.700000;,
 14.900000;-1.200000;3.700000;,
 14.900000;-0.700000;3.700000;,
 14.900000;4.000000;-7.200000;,
 14.900000;6.500000;-7.200000;,
 14.900000;1.650000;-2.200000;,
 14.900000;4.150000;-2.200000;,
 14.900000;1.650000;-1.300000;,
 14.900000;4.150000;-1.300000;,
 14.900000;-0.700000;3.700000;,
 14.900000;1.800000;3.700000;,
 10.700000;-0.600000;-20.450001;,
 10.700000;3.270000;-20.450001;,
 10.500000;-0.600000;-20.450001;,
 10.500000;3.270000;-20.450001;,
 10.700000;2.000000;-15.200000;,
 10.700000;6.000000;-15.200000;,
 10.500000;2.000000;-15.200000;,
 10.500000;6.000000;-15.200000;,
 10.700000;4.000000;-10.900000;,
 10.700000;8.300000;-10.900000;,
 10.500000;4.000000;-10.900000;,
 10.500000;8.300000;-10.900000;,
 10.700000;4.000000;-7.200000;,
 10.700000;8.300000;-7.200000;,
 10.500000;4.000000;-7.200000;,
 10.500000;8.300000;-7.200000;,
 10.700000;7.000000;-1.500000;,
 10.700000;11.300000;-1.500000;,
 10.500000;7.000000;-1.500000;,
 10.500000;11.300000;-1.500000;,
 13.900000;-0.600000;-20.450001;,
 13.900000;3.270000;-20.450001;,
 13.700000;-0.600000;-20.450001;,
 13.700000;3.270000;-20.450001;,
 13.900000;2.000000;-15.200000;,
 13.900000;6.000000;-15.200000;,
 13.700000;2.000000;-15.200000;,
 13.700000;6.000000;-15.200000;,
 13.900000;4.000000;-10.900000;,
 13.900000;8.300000;-10.900000;,
 13.700000;4.000000;-10.900000;,
 13.700000;8.300000;-10.900000;,
 13.900000;4.000000;-7.200000;,
 13.900000;8.300000;-7.200000;,
 13.700000;4.000000;-7.200000;,
 13.700000;8.300000;-7.200000;,
 13.900000;7.000000;-1.500000;,
 13.900000;11.300000;-1.500000;,
 13.700000;7.000000;-1.500000;,
 13.700000;11.300000;-1.500000;,
 17.900000;4.000000;-10.900000;,
 17.900000;8.000000;-10.900000;,
 17.700001;4.000000;-10.900000;,
 17.700001;8.000000;-10.900000;,
 18.200001;8.300000;-10.900000;,
 18.200001;9.326316;-8.950000;,
 13.900000;3.273682;-20.450001;,
 13.900000;8.300000;-10.900000;,
 13.900000;9.326316;-8.950000;,
 13.900000;8.300000;-7.200000;,
 13.900000;12.089476;0.000000;,
 10.500000;3.273682;-20.450001;,
 10.500000;9.326316;-8.950000;,
 10.500000;8.300000;-7.200000;,
 10.500000;12.089476;0.000000;,
 18.200001;8.000000;-11.000000;,
 18.200001;8.400000;-11.000000;,
 13.900000;8.000000;-11.000000;,
 13.900000;8.400000;-11.000000;,
 17.900000;3.500000;-10.900000;,
 17.900000;4.000000;-10.900000;,
 13.900000;4.000000;-10.900000;,
 13.900000;3.500000;-10.900000;,
 17.700001;4.000000;-10.900000;,
 17.700001;7.000000;-10.900000;,
 13.900000;7.000000;-10.900000;,
 13.900000;4.000000;-10.900000;,
 17.700001;7.000000;-10.900000;,
 17.700001;8.000000;-10.900000;,
 13.900000;8.000000;-10.900000;,
 13.900000;7.000000;-10.900000;,
 13.900000;6.500000;-1.500000;,
 9.550000;6.500000;-1.500000;,
 13.900000;6.500000;1.510000;,
 9.550000;6.500000;1.510000;;
 282;
 3;0,1,3;,
 3;0,3,2;,
 3;4,5,7;,
 3;4,7,6;,
 3;8,9,11;,
 3;8,11,10;,
 3;12,13,15;,
 3;12,15,14;,
 3;16,17,19;,
 3;16,19,18;,
 3;20,21,23;,
 3;20,23,22;,
 3;24,25,27;,
 3;24,27,26;,
 3;28,29,31;,
 3;28,31,30;,
 3;32,33,35;,
 3;32,35,34;,
 3;34,35,37;,
 3;34,37,36;,
 3;38,39,37;,
 3;38,37,36;,
 3;32,33,39;,
 3;32,39,38;,
 3;40,41,43;,
 3;40,43,42;,
 3;42,43,45;,
 3;42,45,44;,
 3;46,47,45;,
 3;46,45,44;,
 3;40,41,47;,
 3;40,47,46;,
 3;48,49,51;,
 3;48,51,50;,
 3;50,51,53;,
 3;50,53,52;,
 3;54,55,53;,
 3;54,53,52;,
 3;48,49,55;,
 3;48,55,54;,
 3;56,57,59;,
 3;56,59,58;,
 3;58,59,61;,
 3;58,61,60;,
 3;60,61,63;,
 3;60,63,62;,
 3;67,64,65;,
 3;67,65,68;,
 3;69,68,65;,
 3;69,65,66;,
 3;70,67,68;,
 3;70,68,71;,
 3;72,71,68;,
 3;72,68,69;,
 3;73,70,71;,
 3;73,71,74;,
 3;75,74,71;,
 3;75,71,72;,
 3;76,73,74;,
 3;76,74,77;,
 3;78,77,74;,
 3;78,74,75;,
 3;79,76,77;,
 3;79,77,80;,
 3;81,80,77;,
 3;81,77,78;,
 3;84,85,83;,
 3;84,83,82;,
 3;86,87,85;,
 3;86,85,84;,
 3;88,89,87;,
 3;88,87,86;,
 3;90,91,89;,
 3;90,89,88;,
 3;92,93,91;,
 3;92,91,90;,
 3;96,97,95;,
 3;96,95,94;,
 3;100,101,99;,
 3;100,99,98;,
 3;102,103,101;,
 3;102,101,100;,
 3;104,105,103;,
 3;104,103,102;,
 3;106,107,110;,
 3;106,110,109;,
 3;107,108,111;,
 3;107,111,110;,
 3;109,110,113;,
 3;109,113,112;,
 3;110,111,114;,
 3;110,114,113;,
 3;112,113,116;,
 3;112,116,115;,
 3;113,114,117;,
 3;113,117,116;,
 3;118,119,121;,
 3;118,121,120;,
 3;120,121,123;,
 3;120,123,122;,
 3;122,123,125;,
 3;122,125,124;,
 3;126,127,129;,
 3;126,129,128;,
 3;130,131,133;,
 3;130,133,132;,
 3;134,135,137;,
 3;134,137,136;,
 3;138,139,141;,
 3;138,141,140;,
 3;142,143,145;,
 3;142,145,144;,
 3;146,147,149;,
 3;146,149,148;,
 3;150,151,153;,
 3;150,153,152;,
 3;154,155,157;,
 3;154,157,156;,
 3;158,159,161;,
 3;158,161,160;,
 3;162,163,165;,
 3;162,165,164;,
 3;166,167,169;,
 3;166,169,168;,
 3;170,171,174;,
 3;170,174,173;,
 3;172,173,174;,
 3;172,174,178;,
 3;172,178,177;,
 3;175,176,180;,
 3;175,180,179;,
 3;181,182,184;,
 3;181,184,183;,
 3;185,186,187;,
 3;185,187,188;,
 3;189,190,191;,
 3;189,191,192;,
 3;193,194,195;,
 3;193,195,196;,
 3;200,199,197;,
 3;200,197,198;,
 3;203,204,202;,
 3;203,202,201;,
 3;207,208,206;,
 3;207,206,205;,
 3;211,212,210;,
 3;211,210,209;,
 3;215,216,214;,
 3;215,214,213;,
 3;219,220,218;,
 3;219,218,217;,
 3;223,224,222;,
 3;223,222,221;,
 3;227,228,226;,
 3;227,226,225;,
 3;231,232,230;,
 3;231,230,229;,
 3;235,236,234;,
 3;235,234,233;,
 3;237,238,236;,
 3;237,236,235;,
 3;237,238,240;,
 3;237,240,239;,
 3;239,240,234;,
 3;239,234,233;,
 3;243,244,242;,
 3;243,242,241;,
 3;245,246,244;,
 3;245,244,243;,
 3;245,246,248;,
 3;245,248,247;,
 3;247,248,242;,
 3;247,242,241;,
 3;251,252,250;,
 3;251,250,249;,
 3;253,254,252;,
 3;253,252,251;,
 3;253,254,256;,
 3;253,256,255;,
 3;255,256,250;,
 3;255,250,249;,
 3;259,260,258;,
 3;259,258,257;,
 3;261,262,260;,
 3;261,260,259;,
 3;263,264,262;,
 3;263,262,261;,
 3;269,266,265;,
 3;269,265,268;,
 3;267,266,269;,
 3;267,269,270;,
 3;272,269,268;,
 3;272,268,271;,
 3;270,269,272;,
 3;270,272,273;,
 3;275,272,271;,
 3;275,271,274;,
 3;273,272,275;,
 3;273,275,276;,
 3;278,275,274;,
 3;278,274,277;,
 3;276,275,278;,
 3;276,278,279;,
 3;281,278,277;,
 3;281,277,280;,
 3;279,278,281;,
 3;279,281,282;,
 3;283,284,286;,
 3;283,286,285;,
 3;285,286,288;,
 3;285,288,287;,
 3;287,288,290;,
 3;287,290,289;,
 3;289,290,292;,
 3;289,292,291;,
 3;291,292,294;,
 3;291,294,293;,
 3;295,296,298;,
 3;295,298,297;,
 3;299,300,302;,
 3;299,302,301;,
 3;301,302,304;,
 3;301,304,303;,
 3;303,304,306;,
 3;303,306,305;,
 3;310,311,308;,
 3;310,308,307;,
 3;311,312,309;,
 3;311,309,308;,
 3;313,314,311;,
 3;313,311,310;,
 3;314,315,312;,
 3;314,312,311;,
 3;316,317,314;,
 3;316,314,313;,
 3;317,318,315;,
 3;317,315,314;,
 3;321,322,320;,
 3;321,320,319;,
 3;323,324,322;,
 3;323,322,321;,
 3;325,326,324;,
 3;325,324,323;,
 3;329,330,328;,
 3;329,328,327;,
 3;333,334,332;,
 3;333,332,331;,
 3;337,338,336;,
 3;337,336,335;,
 3;341,342,340;,
 3;341,340,339;,
 3;345,346,344;,
 3;345,344,343;,
 3;349,350,348;,
 3;349,348,347;,
 3;353,354,352;,
 3;353,352,351;,
 3;357,358,356;,
 3;357,356,355;,
 3;361,362,360;,
 3;361,360,359;,
 3;365,366,364;,
 3;365,364,363;,
 3;369,370,368;,
 3;369,368,367;,
 3;374,375,372;,
 3;374,372,371;,
 3;375,374,373;,
 3;375,373,378;,
 3;375,378,379;,
 3;380,381,377;,
 3;380,377,376;,
 3;384,385,383;,
 3;384,383,382;,
 3;389,388,387;,
 3;389,387,386;,
 3;393,392,391;,
 3;393,391,390;,
 3;397,396,395;,
 3;397,395,394;,
 3;399,398,400;,
 3;399,400,401;;

 MeshMaterialList  {
  68;
  282;
  0,
  0,
  1,
  1,
  2,
  2,
  3,
  3,
  4,
  4,
  5,
  5,
  6,
  6,
  7,
  7,
  8,
  8,
  8,
  8,
  8,
  8,
  8,
  8,
  9,
  9,
  9,
  9,
  9,
  9,
  9,
  9,
  10,
  10,
  10,
  10,
  10,
  10,
  10,
  10,
  11,
  11,
  11,
  11,
  11,
  11,
  12,
  12,
  12,
  12,
  12,
  12,
  12,
  12,
  12,
  12,
  12,
  12,
  12,
  12,
  12,
  12,
  12,
  12,
  12,
  12,
  13,
  13,
  13,
  13,
  13,
  13,
  13,
  13,
  13,
  13,
  14,
  14,
  14,
  14,
  14,
  14,
  14,
  14,
  15,
  15,
  15,
  15,
  15,
  15,
  15,
  15,
  15,
  15,
  15,
  15,
  16,
  16,
  16,
  16,
  16,
  16,
  17,
  17,
  18,
  18,
  19,
  19,
  20,
  20,
  21,
  21,
  22,
  22,
  23,
  23,
  24,
  24,
  25,
  25,
  26,
  26,
  27,
  27,
  28,
  28,
  28,
  28,
  28,
  28,
  28,
  29,
  29,
  30,
  30,
  31,
  31,
  32,
  32,
  33,
  33,
  34,
  34,
  35,
  35,
  36,
  36,
  37,
  37,
  38,
  38,
  39,
  39,
  40,
  40,
  41,
  41,
  42,
  42,
  42,
  42,
  42,
  42,
  42,
  42,
  43,
  43,
  43,
  43,
  43,
  43,
  43,
  43,
  44,
  44,
  44,
  44,
  44,
  44,
  44,
  44,
  45,
  45,
  45,
  45,
  45,
  45,
  46,
  46,
  46,
  46,
  46,
  46,
  46,
  46,
  46,
  46,
  46,
  46,
  46,
  46,
  46,
  46,
  46,
  46,
  46,
  46,
  47,
  47,
  47,
  47,
  47,
  47,
  47,
  47,
  47,
  47,
  48,
  48,
  48,
  48,
  48,
  48,
  48,
  48,
  49,
  49,
  49,
  49,
  49,
  49,
  49,
  49,
  49,
  49,
  49,
  49,
  50,
  50,
  50,
  50,
  50,
  50,
  51,
  51,
  52,
  52,
  53,
  53,
  54,
  54,
  55,
  55,
  56,
  56,
  57,
  57,
  58,
  58,
  59,
  59,
  60,
  60,
  61,
  61,
  62,
  62,
  62,
  62,
  62,
  62,
  62,
  63,
  63,
  64,
  64,
  65,
  65,
  66,
  66,
  67,
  67;

  Material  {
   1.000000;1.000000;1.000000;1.000000;;
   0.000000;
   0.000000;0.000000;0.000000;;
   0.000000;0.000000;0.000000;;

   TextureFilename  {
    "Iron5.png";
   }
  }

  Material  {
   1.000000;1.000000;1.000000;1.000000;;
   0.000000;
   0.000000;0.000000;0.000000;;
   0.000000;0.000000;0.000000;;

   TextureFilename  {
    "Iron5.png";
   }
  }

  Material  {
   1.000000;1.000000;1.000000;1.000000;;
   0.000000;
   0.000000;0.000000;0.000000;;
   0.000000;0.000000;0.000000;;

   TextureFilename  {
    "Iron5.png";
   }
  }

  Material  {
   1.000000;1.000000;1.000000;1.000000;;
   0.000000;
   0.000000;0.000000;0.000000;;
   0.000000;0.000000;0.000000;;

   TextureFilename  {
    "Iron5.png";
   }
  }

  Material  {
   1.000000;1.000000;1.000000;1.000000;;
   0.000000;
   0.000000;0.000000;0.000000;;
   0.000000;0.000000;0.000000;;

   TextureFilename  {
    "Iron5.png";
   }
  }

  Material  {
   1.000000;1.000000;1.000000;1.000000;;
   0.000000;
   0.000000;0.000000;0.000000;;
   0.000000;0.000000;0.000000;;

   TextureFilename  {
    "Iron5.png";
   }
  }

  Material  {
   1.000000;1.000000;1.000000;1.000000;;
   0.000000;
   0.000000;0.000000;0.000000;;
   0.000000;0.000000;0.000000;;

   TextureFilename  {
    "Iron5.png";
   }
  }

  Material  {
   1.000000;1.000000;1.000000;1.000000;;
   0.000000;
   0.000000;0.000000;0.000000;;
   0.000000;0.000000;0.000000;;

   TextureFilename  {
    "Iron5.png";
   }
  }

  Material  {
   1.000000;1.000000;1.000000;1.000000;;
   0.000000;
   0.000000;0.000000;0.000000;;
   0.000000;0.000000;0.000000;;

   TextureFilename  {
    "Iron6.png";
   }
  }

  Material  {
   1.000000;1.000000;1.000000;1.000000;;
   0.000000;
   0.000000;0.000000;0.000000;;
   0.000000;0.000000;0.000000;;

   TextureFilename  {
    "Iron6.png";
   }
  }

  Material  {
   1.000000;1.000000;1.000000;1.000000;;
   0.000000;
   0.000000;0.000000;0.000000;;
   0.000000;0.000000;0.000000;;

   TextureFilename  {
    "Iron6.png";
   }
  }

  Material  {
   1.000000;1.000000;1.000000;1.000000;;
   0.000000;
   0.000000;0.000000;0.000000;;
   0.000000;0.000000;0.000000;;

   TextureFilename  {
    "Iron6.png";
   }
  }

  Material  {
   1.000000;1.000000;1.000000;1.000000;;
   0.000000;
   0.000000;0.000000;0.000000;;
   0.000000;0.000000;0.000000;;

   TextureFilename  {
    "Kaidan1.png";
   }
  }

  Material  {
   1.000000;1.000000;1.000000;1.000000;;
   0.000000;
   0.000000;0.000000;0.000000;;
   0.000000;0.000000;0.000000;;

   TextureFilename  {
    "KaidanWall1.png";
   }
  }

  Material  {
   1.000000;1.000000;1.000000;1.000000;;
   0.000000;
   0.000000;0.000000;0.000000;;
   0.000000;0.000000;0.000000;;

   TextureFilename  {
    "KaidanWall1.png";
   }
  }

  Material  {
   1.000000;1.000000;1.000000;1.000000;;
   0.000000;
   0.000000;0.000000;0.000000;;
   0.000000;0.000000;0.000000;;

   TextureFilename  {
    "Kaidan1.png";
   }
  }

  Material  {
   1.000000;1.000000;1.000000;1.000000;;
   0.000000;
   0.000000;0.000000;0.000000;;
   0.000000;0.000000;0.000000;;

   TextureFilename  {
    "KaidanWall1.png";
   }
  }

  Material  {
   1.000000;1.000000;1.000000;1.000000;;
   0.000000;
   0.000000;0.000000;0.000000;;
   0.000000;0.000000;0.000000;;

   TextureFilename  {
    "Iron5.png";
   }
  }

  Material  {
   1.000000;1.000000;1.000000;1.000000;;
   0.000000;
   0.000000;0.000000;0.000000;;
   0.000000;0.000000;0.000000;;

   TextureFilename  {
    "Iron5.png";
   }
  }

  Material  {
   1.000000;1.000000;1.000000;1.000000;;
   0.000000;
   0.000000;0.000000;0.000000;;
   0.000000;0.000000;0.000000;;

   TextureFilename  {
    "Iron5.png";
   }
  }

  Material  {
   1.000000;1.000000;1.000000;1.000000;;
   0.000000;
   0.000000;0.000000;0.000000;;
   0.000000;0.000000;0.000000;;

   TextureFilename  {
    "Iron5.png";
   }
  }

  Material  {
   1.000000;1.000000;1.000000;1.000000;;
   0.000000;
   0.000000;0.000000;0.000000;;
   0.000000;0.000000;0.000000;;

   TextureFilename  {
    "Iron5.png";
   }
  }

  Material  {
   1.000000;1.000000;1.000000;1.000000;;
   0.000000;
   0.000000;0.000000;0.000000;;
   0.000000;0.000000;0.000000;;

   TextureFilename  {
    "Iron5.png";
   }
  }

  Material  {
   1.000000;1.000000;1.000000;1.000000;;
   0.000000;
   0.000000;0.000000;0.000000;;
   0.000000;0.000000;0.000000;;

   TextureFilename  {
    "Iron5.png";
   }
  }

  Material  {
   1.000000;1.000000;1.000000;1.000000;;
   0.000000;
   0.000000;0.000000;0.000000;;
   0.000000;0.000000;0.000000;;

   TextureFilename  {
    "Iron5.png";
   }
  }

  Material  {
   1.000000;1.000000;1.000000;1.000000;;
   0.000000;
   0.000000;0.000000;0.000000;;
   0.000000;0.000000;0.000000;;

   TextureFilename  {
    "Iron5.png";
   }
  }

  Material  {
   1.000000;1.000000;1.000000;1.000000;;
   0.000000;
   0.000000;0.000000;0.000000;;
   0.000000;0.000000;0.000000;;

   TextureFilename  {
    "Iron5.png";
   }
  }

  Material  {
   1.000000;1.000000;1.000000;1.000000;;
   0.000000;
   0.000000;0.000000;0.000000;;
   0.000000;0.000000;0.000000;;

   TextureFilename  {
    "Iron5.png";
   }
  }

  Material  {
   1.000000;1.000000;1.000000;1.000000;;
   0.000000;
   0.000000;0.000000;0.000000;;
   0.000000;0.000000;0.000000;;

   TextureFilename  {
    "Roof3.png";
   }
  }

  Material  {
   1.000000;1.000000;1.000000;1.000000;;
   0.000000;
   0.000000;0.000000;0.000000;;
   0.000000;0.000000;0.000000;;

   TextureFilename  {
    "Roof3.png";
   }
  }

  Material  {
   1.000000;1.000000;1.000000;1.000000;;
   0.000000;
   0.000000;0.000000;0.000000;;
   0.000000;0.000000;0.000000;;

   TextureFilename  {
    "Iron5.png";
   }
  }

  Material  {
   1.000000;1.000000;1.000000;1.000000;;
   0.000000;
   0.000000;0.000000;0.000000;;
   0.000000;0.000000;0.000000;;

   TextureFilename  {
    "Window.png";
   }
  }

  Material  {
   1.000000;1.000000;1.000000;1.000000;;
   0.000000;
   0.000000;0.000000;0.000000;;
   0.000000;0.000000;0.000000;;

   TextureFilename  {
    "Wall2.png";
   }
  }

  Material  {
   0.647059;0.647059;0.647059;1.000000;;
   0.000000;
   0.000000;0.000000;0.000000;;
   0.000000;0.000000;0.000000;;

   TextureFilename  {
    "Roof1.png";
   }
  }

  Material  {
   1.000000;1.000000;1.000000;1.000000;;
   0.000000;
   0.000000;0.000000;0.000000;;
   0.000000;0.000000;0.000000;;

   TextureFilename  {
    "Iron5.png";
   }
  }

  Material  {
   1.000000;1.000000;1.000000;1.000000;;
   0.000000;
   0.000000;0.000000;0.000000;;
   0.000000;0.000000;0.000000;;

   TextureFilename  {
    "Iron5.png";
   }
  }

  Material  {
   1.000000;1.000000;1.000000;1.000000;;
   0.000000;
   0.000000;0.000000;0.000000;;
   0.000000;0.000000;0.000000;;

   TextureFilename  {
    "Iron5.png";
   }
  }

  Material  {
   1.000000;1.000000;1.000000;1.000000;;
   0.000000;
   0.000000;0.000000;0.000000;;
   0.000000;0.000000;0.000000;;

   TextureFilename  {
    "Iron5.png";
   }
  }

  Material  {
   1.000000;1.000000;1.000000;1.000000;;
   0.000000;
   0.000000;0.000000;0.000000;;
   0.000000;0.000000;0.000000;;

   TextureFilename  {
    "Iron5.png";
   }
  }

  Material  {
   1.000000;1.000000;1.000000;1.000000;;
   0.000000;
   0.000000;0.000000;0.000000;;
   0.000000;0.000000;0.000000;;

   TextureFilename  {
    "Iron5.png";
   }
  }

  Material  {
   1.000000;1.000000;1.000000;1.000000;;
   0.000000;
   0.000000;0.000000;0.000000;;
   0.000000;0.000000;0.000000;;

   TextureFilename  {
    "Iron5.png";
   }
  }

  Material  {
   1.000000;1.000000;1.000000;1.000000;;
   0.000000;
   0.000000;0.000000;0.000000;;
   0.000000;0.000000;0.000000;;

   TextureFilename  {
    "Iron5.png";
   }
  }

  Material  {
   1.000000;1.000000;1.000000;1.000000;;
   0.000000;
   0.000000;0.000000;0.000000;;
   0.000000;0.000000;0.000000;;

   TextureFilename  {
    "Iron6.png";
   }
  }

  Material  {
   1.000000;1.000000;1.000000;1.000000;;
   0.000000;
   0.000000;0.000000;0.000000;;
   0.000000;0.000000;0.000000;;

   TextureFilename  {
    "Iron6.png";
   }
  }

  Material  {
   1.000000;1.000000;1.000000;1.000000;;
   0.000000;
   0.000000;0.000000;0.000000;;
   0.000000;0.000000;0.000000;;

   TextureFilename  {
    "Iron6.png";
   }
  }

  Material  {
   1.000000;1.000000;1.000000;1.000000;;
   0.000000;
   0.000000;0.000000;0.000000;;
   0.000000;0.000000;0.000000;;

   TextureFilename  {
    "Iron6.png";
   }
  }

  Material  {
   1.000000;1.000000;1.000000;1.000000;;
   0.000000;
   0.000000;0.000000;0.000000;;
   0.000000;0.000000;0.000000;;

   TextureFilename  {
    "Kaidan1.png";
   }
  }

  Material  {
   1.000000;1.000000;1.000000;1.000000;;
   0.000000;
   0.000000;0.000000;0.000000;;
   0.000000;0.000000;0.000000;;

   TextureFilename  {
    "KaidanWall1.png";
   }
  }

  Material  {
   1.000000;1.000000;1.000000;1.000000;;
   0.000000;
   0.000000;0.000000;0.000000;;
   0.000000;0.000000;0.000000;;

   TextureFilename  {
    "KaidanWall1.png";
   }
  }

  Material  {
   1.000000;1.000000;1.000000;1.000000;;
   0.000000;
   0.000000;0.000000;0.000000;;
   0.000000;0.000000;0.000000;;

   TextureFilename  {
    "Kaidan1.png";
   }
  }

  Material  {
   1.000000;1.000000;1.000000;1.000000;;
   0.000000;
   0.000000;0.000000;0.000000;;
   0.000000;0.000000;0.000000;;

   TextureFilename  {
    "KaidanWall1.png";
   }
  }

  Material  {
   1.000000;1.000000;1.000000;1.000000;;
   0.000000;
   0.000000;0.000000;0.000000;;
   0.000000;0.000000;0.000000;;

   TextureFilename  {
    "Iron5.png";
   }
  }

  Material  {
   1.000000;1.000000;1.000000;1.000000;;
   0.000000;
   0.000000;0.000000;0.000000;;
   0.000000;0.000000;0.000000;;

   TextureFilename  {
    "Iron5.png";
   }
  }

  Material  {
   1.000000;1.000000;1.000000;1.000000;;
   0.000000;
   0.000000;0.000000;0.000000;;
   0.000000;0.000000;0.000000;;

   TextureFilename  {
    "Iron5.png";
   }
  }

  Material  {
   1.000000;1.000000;1.000000;1.000000;;
   0.000000;
   0.000000;0.000000;0.000000;;
   0.000000;0.000000;0.000000;;

   TextureFilename  {
    "Iron5.png";
   }
  }

  Material  {
   1.000000;1.000000;1.000000;1.000000;;
   0.000000;
   0.000000;0.000000;0.000000;;
   0.000000;0.000000;0.000000;;

   TextureFilename  {
    "Iron5.png";
   }
  }

  Material  {
   1.000000;1.000000;1.000000;1.000000;;
   0.000000;
   0.000000;0.000000;0.000000;;
   0.000000;0.000000;0.000000;;

   TextureFilename  {
    "Iron5.png";
   }
  }

  Material  {
   1.000000;1.000000;1.000000;1.000000;;
   0.000000;
   0.000000;0.000000;0.000000;;
   0.000000;0.000000;0.000000;;

   TextureFilename  {
    "Iron5.png";
   }
  }

  Material  {
   1.000000;1.000000;1.000000;1.000000;;
   0.000000;
   0.000000;0.000000;0.000000;;
   0.000000;0.000000;0.000000;;

   TextureFilename  {
    "Iron5.png";
   }
  }

  Material  {
   1.000000;1.000000;1.000000;1.000000;;
   0.000000;
   0.000000;0.000000;0.000000;;
   0.000000;0.000000;0.000000;;

   TextureFilename  {
    "Iron5.png";
   }
  }

  Material  {
   1.000000;1.000000;1.000000;1.000000;;
   0.000000;
   0.000000;0.000000;0.000000;;
   0.000000;0.000000;0.000000;;

   TextureFilename  {
    "Iron5.png";
   }
  }

  Material  {
   1.000000;1.000000;1.000000;1.000000;;
   0.000000;
   0.000000;0.000000;0.000000;;
   0.000000;0.000000;0.000000;;

   TextureFilename  {
    "Iron5.png";
   }
  }

  Material  {
   1.000000;1.000000;1.000000;1.000000;;
   0.000000;
   0.000000;0.000000;0.000000;;
   0.000000;0.000000;0.000000;;

   TextureFilename  {
    "Roof3.png";
   }
  }

  Material  {
   1.000000;1.000000;1.000000;1.000000;;
   0.000000;
   0.000000;0.000000;0.000000;;
   0.000000;0.000000;0.000000;;

   TextureFilename  {
    "Roof3.png";
   }
  }

  Material  {
   1.000000;1.000000;1.000000;1.000000;;
   0.000000;
   0.000000;0.000000;0.000000;;
   0.000000;0.000000;0.000000;;

   TextureFilename  {
    "Iron5.png";
   }
  }

  Material  {
   1.000000;1.000000;1.000000;1.000000;;
   0.000000;
   0.000000;0.000000;0.000000;;
   0.000000;0.000000;0.000000;;

   TextureFilename  {
    "Window.png";
   }
  }

  Material  {
   1.000000;1.000000;1.000000;1.000000;;
   0.000000;
   0.000000;0.000000;0.000000;;
   0.000000;0.000000;0.000000;;

   TextureFilename  {
    "Wall2.png";
   }
  }

  Material  {
   0.647059;0.647059;0.647059;1.000000;;
   0.000000;
   0.000000;0.000000;0.000000;;
   0.000000;0.000000;0.000000;;

   TextureFilename  {
    "Roof1.png";
   }
  }
 }

 MeshTextureCoords  {
  402;
  0.000000;1.000000;,
  0.000000;0.000000;,
  1.000000;1.000000;,
  1.000000;0.000000;,
  0.000000;1.000000;,
  0.000000;0.000000;,
  1.000000;1.000000;,
  1.000000;0.000000;,
  0.000000;1.000000;,
  0.000000;0.000000;,
  1.000000;1.000000;,
  1.000000;0.000000;,
  0.000000;1.000000;,
  0.000000;0.000000;,
  1.000000;1.000000;,
  1.000000;0.000000;,
  0.000000;1.000000;,
  0.000000;0.000000;,
  1.000000;1.000000;,
  1.000000;0.000000;,
  0.000000;1.000000;,
  0.000000;0.000000;,
  1.000000;1.000000;,
  1.000000;0.000000;,
  0.000000;1.000000;,
  0.000000;0.000000;,
  1.000000;1.000000;,
  1.000000;0.000000;,
  0.000000;1.000000;,
  0.000000;0.000000;,
  1.000000;1.000000;,
  1.000000;0.000000;,
  0.000000;1.000000;,
  0.000000;0.000000;,
  0.100000;1.000000;,
  0.100000;0.000000;,
  0.000000;1.000000;,
  0.000000;0.000000;,
  0.100000;1.000000;,
  0.100000;0.000000;,
  0.000000;1.000000;,
  0.000000;0.000000;,
  0.100000;1.000000;,
  0.100000;0.000000;,
  0.000000;1.000000;,
  0.000000;0.000000;,
  0.100000;1.000000;,
  0.100000;0.000000;,
  0.000000;1.000000;,
  0.000000;0.000000;,
  0.100000;1.000000;,
  0.100000;0.000000;,
  0.000000;1.000000;,
  0.000000;0.000000;,
  0.100000;1.000000;,
  0.100000;0.000000;,
  0.000000;1.000000;,
  0.000000;0.000000;,
  0.100000;1.000000;,
  0.100000;0.000000;,
  0.000000;1.000000;,
  0.000000;0.000000;,
  0.100000;1.000000;,
  0.100000;0.000000;,
  0.000000;1.000000;,
  1.000000;1.000000;,
  1.000000;1.000000;,
  0.000000;0.000000;,
  1.000000;0.000000;,
  1.000000;0.000000;,
  0.000000;1.000000;,
  1.000000;1.000000;,
  1.000000;1.000000;,
  0.000000;0.000000;,
  1.000000;0.000000;,
  1.000000;0.000000;,
  0.000000;1.000000;,
  1.000000;1.000000;,
  1.000000;1.000000;,
  0.000000;0.000000;,
  1.000000;0.000000;,
  1.000000;0.000000;,
  4.000000;0.775000;,
  4.000000;0.700000;,
  2.796834;0.865000;,
  2.796834;0.790000;,
  2.015831;0.865000;,
  2.015831;0.790000;,
  1.213720;0.925000;,
  1.213720;0.850000;,
  1.002639;0.925000;,
  1.002639;0.850000;,
  0.000000;1.000000;,
  0.000000;0.925000;,
  4.000000;0.775000;,
  4.000000;0.700000;,
  2.796834;0.865000;,
  2.796834;0.790000;,
  2.015831;0.865000;,
  2.015831;0.790000;,
  1.213720;0.925000;,
  1.213720;0.850000;,
  1.002639;0.925000;,
  1.002639;0.850000;,
  0.000000;1.000000;,
  0.000000;0.925000;,
  0.970000;1.000000;,
  1.000000;1.000000;,
  1.000000;1.000000;,
  0.970000;0.000000;,
  1.000000;0.000000;,
  1.000000;0.000000;,
  0.970000;1.000000;,
  1.000000;1.000000;,
  1.000000;1.000000;,
  0.970000;0.000000;,
  1.000000;0.000000;,
  1.000000;0.000000;,
  0.000000;0.804167;,
  0.000000;0.700000;,
  0.917431;0.902083;,
  0.917431;0.797917;,
  1.082569;0.902083;,
  1.082569;0.797917;,
  2.000000;1.000000;,
  2.000000;0.895833;,
  0.000000;1.000000;,
  0.000000;1.000000;,
  1.000000;0.000000;,
  1.000000;0.000000;,
  0.000000;1.000000;,
  0.000000;1.000000;,
  1.000000;0.000000;,
  1.000000;0.000000;,
  0.000000;1.000000;,
  0.000000;1.000000;,
  1.000000;0.000000;,
  1.000000;0.000000;,
  0.000000;1.000000;,
  0.000000;1.000000;,
  1.000000;0.000000;,
  1.000000;0.000000;,
  0.000000;1.000000;,
  0.000000;1.000000;,
  1.000000;0.000000;,
  1.000000;0.000000;,
  0.000000;1.000000;,
  0.000000;1.000000;,
  1.000000;0.000000;,
  1.000000;0.000000;,
  0.000000;1.000000;,
  0.000000;1.000000;,
  1.000000;0.000000;,
  1.000000;0.000000;,
  0.000000;1.000000;,
  0.000000;1.000000;,
  1.000000;0.000000;,
  1.000000;0.000000;,
  0.000000;1.000000;,
  0.000000;1.000000;,
  1.000000;0.000000;,
  1.000000;0.000000;,
  0.000000;1.000000;,
  0.000000;1.000000;,
  1.000000;0.000000;,
  1.000000;0.000000;,
  0.000000;1.000000;,
  0.000000;1.000000;,
  1.000000;0.000000;,
  1.000000;0.000000;,
  0.000000;0.000000;,
  0.000000;0.000000;,
  1.011765;0.000000;,
  1.011765;0.000000;,
  1.011765;0.000000;,
  1.011765;0.000000;,
  1.011765;0.000000;,
  1.811765;0.000000;,
  1.811765;0.000000;,
  1.811765;0.000000;,
  1.811765;0.000000;,
  0.990000;0.000000;,
  1.000000;0.000000;,
  0.990000;1.000000;,
  1.000000;1.000000;,
  0.700000;0.500000;,
  0.700000;1.000000;,
  0.900000;1.000000;,
  0.900000;0.500000;,
  0.000000;1.000000;,
  0.000000;0.000000;,
  2.000000;0.000000;,
  2.000000;1.000000;,
  0.000000;1.000000;,
  0.000000;0.800000;,
  0.500000;0.800000;,
  0.500000;1.000000;,
  0.000000;0.000000;,
  0.870000;0.000000;,
  0.000000;1.000000;,
  0.870000;1.000000;,
  0.000000;1.000000;,
  0.000000;0.000000;,
  1.000000;1.000000;,
  1.000000;0.000000;,
  0.000000;1.000000;,
  0.000000;0.000000;,
  1.000000;1.000000;,
  1.000000;0.000000;,
  0.000000;1.000000;,
  0.000000;0.000000;,
  1.000000;1.000000;,
  1.000000;0.000000;,
  0.000000;1.000000;,
  0.000000;0.000000;,
  1.000000;1.000000;,
  1.000000;0.000000;,
  0.000000;1.000000;,
  0.000000;0.000000;,
  1.000000;1.000000;,
  1.000000;0.000000;,
  0.000000;1.000000;,
  0.000000;0.000000;,
  1.000000;1.000000;,
  1.000000;0.000000;,
  0.000000;1.000000;,
  0.000000;0.000000;,
  1.000000;1.000000;,
  1.000000;0.000000;,
  0.000000;1.000000;,
  0.000000;0.000000;,
  1.000000;1.000000;,
  1.000000;0.000000;,
  0.000000;1.000000;,
  0.000000;0.000000;,
  0.100000;1.000000;,
  0.100000;0.000000;,
  0.000000;1.000000;,
  0.000000;0.000000;,
  0.100000;1.000000;,
  0.100000;0.000000;,
  0.000000;1.000000;,
  0.000000;0.000000;,
  0.100000;1.000000;,
  0.100000;0.000000;,
  0.000000;1.000000;,
  0.000000;0.000000;,
  0.100000;1.000000;,
  0.100000;0.000000;,
  0.000000;1.000000;,
  0.000000;0.000000;,
  0.100000;1.000000;,
  0.100000;0.000000;,
  0.000000;1.000000;,
  0.000000;0.000000;,
  0.100000;1.000000;,
  0.100000;0.000000;,
  0.000000;1.000000;,
  0.000000;0.000000;,
  0.100000;1.000000;,
  0.100000;0.000000;,
  0.000000;1.000000;,
  0.000000;0.000000;,
  0.100000;1.000000;,
  0.100000;0.000000;,
  0.000000;1.000000;,
  1.000000;1.000000;,
  1.000000;1.000000;,
  0.000000;0.000000;,
  1.000000;0.000000;,
  1.000000;0.000000;,
  0.000000;1.000000;,
  1.000000;1.000000;,
  1.000000;1.000000;,
  0.000000;0.000000;,
  1.000000;0.000000;,
  1.000000;0.000000;,
  0.000000;1.000000;,
  1.000000;1.000000;,
  1.000000;1.000000;,
  0.000000;0.000000;,
  1.000000;0.000000;,
  1.000000;0.000000;,
  4.000000;0.775000;,
  4.000000;0.700000;,
  2.796834;0.865000;,
  2.796834;0.790000;,
  2.015831;0.865000;,
  2.015831;0.790000;,
  1.213720;0.925000;,
  1.213720;0.850000;,
  1.002639;0.925000;,
  1.002639;0.850000;,
  0.000000;1.000000;,
  0.000000;0.925000;,
  4.000000;0.775000;,
  4.000000;0.700000;,
  2.796834;0.865000;,
  2.796834;0.790000;,
  2.015831;0.865000;,
  2.015831;0.790000;,
  1.213720;0.925000;,
  1.213720;0.850000;,
  1.002639;0.925000;,
  1.002639;0.850000;,
  0.000000;1.000000;,
  0.000000;0.925000;,
  0.970000;1.000000;,
  1.000000;1.000000;,
  1.000000;1.000000;,
  0.970000;0.000000;,
  1.000000;0.000000;,
  1.000000;0.000000;,
  0.970000;1.000000;,
  1.000000;1.000000;,
  1.000000;1.000000;,
  0.970000;0.000000;,
  1.000000;0.000000;,
  1.000000;0.000000;,
  0.000000;0.804167;,
  0.000000;0.700000;,
  0.917431;0.902083;,
  0.917431;0.797917;,
  1.082569;0.902083;,
  1.082569;0.797917;,
  2.000000;1.000000;,
  2.000000;0.895833;,
  0.000000;1.000000;,
  0.000000;1.000000;,
  1.000000;0.000000;,
  1.000000;0.000000;,
  0.000000;1.000000;,
  0.000000;1.000000;,
  1.000000;0.000000;,
  1.000000;0.000000;,
  0.000000;1.000000;,
  0.000000;1.000000;,
  1.000000;0.000000;,
  1.000000;0.000000;,
  0.000000;1.000000;,
  0.000000;1.000000;,
  1.000000;0.000000;,
  1.000000;0.000000;,
  0.000000;1.000000;,
  0.000000;1.000000;,
  1.000000;0.000000;,
  1.000000;0.000000;,
  0.000000;1.000000;,
  0.000000;1.000000;,
  1.000000;0.000000;,
  1.000000;0.000000;,
  0.000000;1.000000;,
  0.000000;1.000000;,
  1.000000;0.000000;,
  1.000000;0.000000;,
  0.000000;1.000000;,
  0.000000;1.000000;,
  1.000000;0.000000;,
  1.000000;0.000000;,
  0.000000;1.000000;,
  0.000000;1.000000;,
  1.000000;0.000000;,
  1.000000;0.000000;,
  0.000000;1.000000;,
  0.000000;1.000000;,
  1.000000;0.000000;,
  1.000000;0.000000;,
  0.000000;1.000000;,
  0.000000;1.000000;,
  1.000000;0.000000;,
  1.000000;0.000000;,
  0.000000;0.000000;,
  0.000000;0.000000;,
  1.011765;0.000000;,
  1.011765;0.000000;,
  1.011765;0.000000;,
  1.011765;0.000000;,
  1.011765;0.000000;,
  1.811765;0.000000;,
  1.811765;0.000000;,
  1.811765;0.000000;,
  1.811765;0.000000;,
  0.990000;0.000000;,
  1.000000;0.000000;,
  0.990000;1.000000;,
  1.000000;1.000000;,
  0.700000;0.500000;,
  0.700000;1.000000;,
  0.900000;1.000000;,
  0.900000;0.500000;,
  0.000000;1.000000;,
  0.000000;0.000000;,
  2.000000;0.000000;,
  2.000000;1.000000;,
  0.000000;1.000000;,
  0.000000;0.800000;,
  0.500000;0.800000;,
  0.500000;1.000000;,
  0.000000;0.000000;,
  0.870000;0.000000;,
  0.000000;1.000000;,
  0.870000;1.000000;;
 }

 MeshNormals  {
  282;
  0.000000;0.000000;-1.000000;,
  0.000000;0.000000;-1.000000;,
  0.000000;0.000000;-1.000000;,
  0.000000;0.000000;-1.000000;,
  0.000000;0.000000;-1.000000;,
  0.000000;0.000000;-1.000000;,
  0.000000;0.000000;-1.000000;,
  0.000000;0.000000;-1.000000;,
  0.000000;0.000000;-1.000000;,
  0.000000;0.000000;-1.000000;,
  0.000000;0.000000;-1.000000;,
  0.000000;0.000000;-1.000000;,
  0.000000;0.000000;-1.000000;,
  0.000000;0.000000;-1.000000;,
  0.000000;0.000000;-1.000000;,
  0.000000;0.000000;-1.000000;,
  0.000000;0.000000;-1.000000;,
  0.000000;0.000000;-1.000000;,
  1.000000;0.000000;0.000000;,
  1.000000;0.000000;0.000000;,
  0.000000;0.000000;-1.000000;,
  0.000000;0.000000;-1.000000;,
  1.000000;0.000000;0.000000;,
  1.000000;0.000000;0.000000;,
  0.000000;0.000000;-1.000000;,
  0.000000;0.000000;-1.000000;,
  1.000000;0.000000;0.000000;,
  1.000000;0.000000;0.000000;,
  0.000000;0.000000;-1.000000;,
  0.000000;0.000000;-1.000000;,
  1.000000;0.000000;0.000000;,
  1.000000;0.000000;0.000000;,
  0.000000;0.000000;-1.000000;,
  0.000000;0.000000;-1.000000;,
  1.000000;0.000000;0.000000;,
  1.000000;0.000000;0.000000;,
  0.000000;0.000000;-1.000000;,
  0.000000;0.000000;-1.000000;,
  1.000000;0.000000;0.000000;,
  1.000000;0.000000;0.000000;,
  1.000000;0.000000;0.000000;,
  1.000000;0.000000;0.000000;,
  1.000000;0.000000;0.000000;,
  1.000000;0.000000;0.000000;,
  1.000000;0.000000;0.000000;,
  1.000000;0.000000;0.000000;,
  0.000000;0.884918;-0.465746;,
  0.000000;0.884918;-0.465746;,
  1.000000;0.000000;0.000000;,
  1.000000;0.000000;0.000000;,
  0.000000;1.000000;0.000000;,
  0.000000;1.000000;0.000000;,
  1.000000;0.000000;0.000000;,
  1.000000;0.000000;0.000000;,
  0.000000;0.884918;-0.465746;,
  0.000000;0.884918;-0.465746;,
  1.000000;0.000000;0.000000;,
  1.000000;0.000000;0.000000;,
  0.000000;1.000000;0.000000;,
  0.000000;1.000000;0.000000;,
  1.000000;0.000000;0.000000;,
  1.000000;0.000000;0.000000;,
  0.000000;0.884918;-0.465746;,
  0.000000;0.884918;-0.465746;,
  1.000000;0.000000;0.000000;,
  1.000000;0.000000;0.000000;,
  1.000000;0.000000;0.000000;,
  1.000000;0.000000;0.000000;,
  1.000000;0.000000;0.000000;,
  1.000000;0.000000;0.000000;,
  1.000000;0.000000;0.000000;,
  1.000000;0.000000;0.000000;,
  1.000000;0.000000;0.000000;,
  1.000000;0.000000;0.000000;,
  1.000000;0.000000;0.000000;,
  1.000000;0.000000;0.000000;,
  1.000000;0.000000;0.000000;,
  1.000000;0.000000;0.000000;,
  1.000000;0.000000;0.000000;,
  1.000000;0.000000;0.000000;,
  1.000000;0.000000;0.000000;,
  1.000000;0.000000;0.000000;,
  1.000000;0.000000;0.000000;,
  1.000000;0.000000;0.000000;,
  0.000000;-0.905024;-0.425361;,
  0.000000;-0.905024;-0.425361;,
  1.000000;0.000000;0.000000;,
  1.000000;0.000000;0.000000;,
  0.000000;-1.000000;0.000000;,
  0.000000;-1.000000;0.000000;,
  1.000000;0.000000;0.000000;,
  1.000000;0.000000;0.000000;,
  0.000000;-0.905024;-0.425361;,
  0.000000;-0.905024;-0.425361;,
  1.000000;0.000000;0.000000;,
  1.000000;0.000000;0.000000;,
  1.000000;0.000000;0.000000;,
  1.000000;0.000000;0.000000;,
  1.000000;0.000000;0.000000;,
  1.000000;0.000000;0.000000;,
  1.000000;0.000000;0.000000;,
  1.000000;0.000000;0.000000;,
  0.000000;0.000000;-1.000000;,
  0.000000;0.000000;-1.000000;,
  0.000000;0.000000;-1.000000;,
  0.000000;0.000000;-1.000000;,
  0.000000;0.000000;-1.000000;,
  0.000000;0.000000;-1.000000;,
  0.000000;0.000000;-1.000000;,
  0.000000;0.000000;-1.000000;,
  0.000000;0.000000;-1.000000;,
  0.000000;0.000000;-1.000000;,
  0.000000;0.000000;-1.000000;,
  0.000000;0.000000;-1.000000;,
  0.000000;0.000000;-1.000000;,
  0.000000;0.000000;-1.000000;,
  0.000000;0.000000;-1.000000;,
  0.000000;0.000000;-1.000000;,
  0.000000;0.000000;-1.000000;,
  0.000000;0.000000;-1.000000;,
  0.000000;0.000000;-1.000000;,
  0.000000;0.000000;-1.000000;,
  0.000000;0.000000;-1.000000;,
  0.000000;0.000000;-1.000000;,
  0.000000;0.884918;-0.465746;,
  0.000000;0.884918;-0.465746;,
  1.000000;0.000000;0.000000;,
  0.000000;0.884918;-0.465746;,
  0.000000;0.884918;-0.465746;,
  0.000000;0.884918;-0.465747;,
  0.000000;0.884918;-0.465747;,
  0.000000;0.000000;-1.000000;,
  0.000000;0.000000;-1.000000;,
  0.000000;0.000000;-1.000000;,
  0.000000;0.000000;-1.000000;,
  0.000000;0.000000;-1.000000;,
  0.000000;0.000000;-1.000000;,
  0.000000;0.000000;-1.000000;,
  0.000000;0.000000;-1.000000;,
  0.000000;-1.000000;0.000000;,
  0.000000;-1.000000;0.000000;,
  0.000000;0.000000;-1.000000;,
  0.000000;0.000000;-1.000000;,
  0.000000;0.000000;-1.000000;,
  0.000000;0.000000;-1.000000;,
  0.000000;0.000000;-1.000000;,
  0.000000;0.000000;-1.000000;,
  0.000000;0.000000;-1.000000;,
  0.000000;0.000000;-1.000000;,
  0.000000;0.000000;-1.000000;,
  0.000000;0.000000;-1.000000;,
  0.000000;0.000000;-1.000000;,
  0.000000;0.000000;-1.000000;,
  0.000000;0.000000;-1.000000;,
  0.000000;0.000000;-1.000000;,
  0.000000;0.000000;-1.000000;,
  0.000000;0.000000;-1.000000;,
  0.000000;0.000000;-1.000000;,
  0.000000;0.000000;-1.000000;,
  -1.000000;0.000000;0.000000;,
  -1.000000;0.000000;0.000000;,
  0.000000;0.000000;-1.000000;,
  0.000000;0.000000;-1.000000;,
  -1.000000;0.000000;0.000000;,
  -1.000000;0.000000;0.000000;,
  0.000000;0.000000;-1.000000;,
  0.000000;0.000000;-1.000000;,
  -1.000000;0.000000;0.000000;,
  -1.000000;0.000000;0.000000;,
  0.000000;0.000000;-1.000000;,
  0.000000;0.000000;-1.000000;,
  -1.000000;0.000000;0.000000;,
  -1.000000;0.000000;0.000000;,
  0.000000;0.000000;-1.000000;,
  0.000000;0.000000;-1.000000;,
  -1.000000;0.000000;0.000000;,
  -1.000000;0.000000;0.000000;,
  0.000000;0.000000;-1.000000;,
  0.000000;0.000000;-1.000000;,
  -1.000000;0.000000;0.000000;,
  -1.000000;0.000000;0.000000;,
  -1.000000;0.000000;0.000000;,
  -1.000000;0.000000;0.000000;,
  -1.000000;0.000000;0.000000;,
  -1.000000;0.000000;0.000000;,
  -1.000000;0.000000;0.000000;,
  -1.000000;0.000000;0.000000;,
  0.000000;0.884918;-0.465746;,
  0.000000;0.884918;-0.465746;,
  -1.000000;0.000000;0.000000;,
  -1.000000;0.000000;0.000000;,
  0.000000;1.000000;0.000000;,
  0.000000;1.000000;0.000000;,
  -1.000000;0.000000;0.000000;,
  -1.000000;0.000000;0.000000;,
  0.000000;0.884918;-0.465746;,
  0.000000;0.884918;-0.465746;,
  -1.000000;0.000000;0.000000;,
  -1.000000;0.000000;0.000000;,
  0.000000;1.000000;0.000000;,
  0.000000;1.000000;0.000000;,
  -1.000000;0.000000;0.000000;,
  -1.000000;0.000000;0.000000;,
  0.000000;0.884918;-0.465746;,
  0.000000;0.884918;-0.465746;,
  -1.000000;0.000000;0.000000;,
  -1.000000;0.000000;0.000000;,
  -1.000000;0.000000;0.000000;,
  -1.000000;0.000000;0.000000;,
  -1.000000;0.000000;0.000000;,
  -1.000000;0.000000;0.000000;,
  -1.000000;0.000000;0.000000;,
  -1.000000;0.000000;0.000000;,
  -1.000000;0.000000;0.000000;,
  -1.000000;0.000000;0.000000;,
  -1.000000;0.000000;0.000000;,
  -1.000000;0.000000;0.000000;,
  -1.000000;0.000000;0.000000;,
  -1.000000;0.000000;0.000000;,
  -1.000000;0.000000;0.000000;,
  -1.000000;0.000000;0.000000;,
  -1.000000;0.000000;0.000000;,
  -1.000000;0.000000;0.000000;,
  -1.000000;0.000000;0.000000;,
  -1.000000;0.000000;0.000000;,
  0.000000;-0.905024;-0.425361;,
  0.000000;-0.905024;-0.425361;,
  -1.000000;0.000000;0.000000;,
  -1.000000;0.000000;0.000000;,
  0.000000;-1.000000;0.000000;,
  0.000000;-1.000000;0.000000;,
  -1.000000;0.000000;0.000000;,
  -1.000000;0.000000;0.000000;,
  0.000000;-0.905024;-0.425361;,
  0.000000;-0.905024;-0.425361;,
  -1.000000;0.000000;0.000000;,
  -1.000000;0.000000;0.000000;,
  -1.000000;0.000000;0.000000;,
  -1.000000;0.000000;0.000000;,
  -1.000000;0.000000;0.000000;,
  -1.000000;0.000000;0.000000;,
  -1.000000;0.000000;0.000000;,
  -1.000000;0.000000;0.000000;,
  0.000000;0.000000;-1.000000;,
  0.000000;0.000000;-1.000000;,
  0.000000;0.000000;-1.000000;,
  0.000000;0.000000;-1.000000;,
  0.000000;0.000000;-1.000000;,
  0.000000;0.000000;-1.000000;,
  0.000000;0.000000;-1.000000;,
  0.000000;0.000000;-1.000000;,
  0.000000;0.000000;-1.000000;,
  0.000000;0.000000;-1.000000;,
  0.000000;0.000000;-1.000000;,
  0.000000;0.000000;-1.000000;,
  0.000000;0.000000;-1.000000;,
  0.000000;0.000000;-1.000000;,
  0.000000;0.000000;-1.000000;,
  0.000000;0.000000;-1.000000;,
  0.000000;0.000000;-1.000000;,
  0.000000;0.000000;-1.000000;,
  0.000000;0.000000;-1.000000;,
  0.000000;0.000000;-1.000000;,
  0.000000;0.000000;-1.000000;,
  0.000000;0.000000;-1.000000;,
  0.000000;0.884918;-0.465746;,
  0.000000;0.884918;-0.465746;,
  -1.000000;0.000000;0.000000;,
  0.000000;0.884918;-0.465747;,
  0.000000;0.884918;-0.465747;,
  0.000000;0.884918;-0.465747;,
  0.000000;0.884918;-0.465747;,
  0.000000;0.000000;-1.000000;,
  0.000000;0.000000;-1.000000;,
  0.000000;0.000000;-1.000000;,
  0.000000;0.000000;-1.000000;,
  0.000000;0.000000;-1.000000;,
  0.000000;0.000000;-1.000000;,
  0.000000;0.000000;-1.000000;,
  0.000000;0.000000;-1.000000;,
  0.000000;-1.000000;0.000000;,
  0.000000;-1.000000;0.000000;;
  282;
  3;0,0,0;,
  3;1,1,1;,
  3;2,2,2;,
  3;3,3,3;,
  3;4,4,4;,
  3;5,5,5;,
  3;6,6,6;,
  3;7,7,7;,
  3;8,8,8;,
  3;9,9,9;,
  3;10,10,10;,
  3;11,11,11;,
  3;12,12,12;,
  3;13,13,13;,
  3;14,14,14;,
  3;15,15,15;,
  3;16,16,16;,
  3;17,17,17;,
  3;18,18,18;,
  3;19,19,19;,
  3;20,20,20;,
  3;21,21,21;,
  3;22,22,22;,
  3;23,23,23;,
  3;24,24,24;,
  3;25,25,25;,
  3;26,26,26;,
  3;27,27,27;,
  3;28,28,28;,
  3;29,29,29;,
  3;30,30,30;,
  3;31,31,31;,
  3;32,32,32;,
  3;33,33,33;,
  3;34,34,34;,
  3;35,35,35;,
  3;36,36,36;,
  3;37,37,37;,
  3;38,38,38;,
  3;39,39,39;,
  3;40,40,40;,
  3;41,41,41;,
  3;42,42,42;,
  3;43,43,43;,
  3;44,44,44;,
  3;45,45,45;,
  3;46,46,46;,
  3;47,47,47;,
  3;48,48,48;,
  3;49,49,49;,
  3;50,50,50;,
  3;51,51,51;,
  3;52,52,52;,
  3;53,53,53;,
  3;54,54,54;,
  3;55,55,55;,
  3;56,56,56;,
  3;57,57,57;,
  3;58,58,58;,
  3;59,59,59;,
  3;60,60,60;,
  3;61,61,61;,
  3;62,62,62;,
  3;63,63,63;,
  3;64,64,64;,
  3;65,65,65;,
  3;66,66,66;,
  3;67,67,67;,
  3;68,68,68;,
  3;69,69,69;,
  3;70,70,70;,
  3;71,71,71;,
  3;72,72,72;,
  3;73,73,73;,
  3;74,74,74;,
  3;75,75,75;,
  3;76,76,76;,
  3;77,77,77;,
  3;78,78,78;,
  3;79,79,79;,
  3;80,80,80;,
  3;81,81,81;,
  3;82,82,82;,
  3;83,83,83;,
  3;84,84,84;,
  3;85,85,85;,
  3;86,86,86;,
  3;87,87,87;,
  3;88,88,88;,
  3;89,89,89;,
  3;90,90,90;,
  3;91,91,91;,
  3;92,92,92;,
  3;93,93,93;,
  3;94,94,94;,
  3;95,95,95;,
  3;96,96,96;,
  3;97,97,97;,
  3;98,98,98;,
  3;99,99,99;,
  3;100,100,100;,
  3;101,101,101;,
  3;102,102,102;,
  3;103,103,103;,
  3;104,104,104;,
  3;105,105,105;,
  3;106,106,106;,
  3;107,107,107;,
  3;108,108,108;,
  3;109,109,109;,
  3;110,110,110;,
  3;111,111,111;,
  3;112,112,112;,
  3;113,113,113;,
  3;114,114,114;,
  3;115,115,115;,
  3;116,116,116;,
  3;117,117,117;,
  3;118,118,118;,
  3;119,119,119;,
  3;120,120,120;,
  3;121,121,121;,
  3;122,122,122;,
  3;123,123,123;,
  3;124,124,124;,
  3;125,125,125;,
  3;126,126,126;,
  3;127,127,127;,
  3;128,128,128;,
  3;129,129,129;,
  3;130,130,130;,
  3;131,131,131;,
  3;132,132,132;,
  3;133,133,133;,
  3;134,134,134;,
  3;135,135,135;,
  3;136,136,136;,
  3;137,137,137;,
  3;138,138,138;,
  3;139,139,139;,
  3;140,140,140;,
  3;141,141,141;,
  3;142,142,142;,
  3;143,143,143;,
  3;144,144,144;,
  3;145,145,145;,
  3;146,146,146;,
  3;147,147,147;,
  3;148,148,148;,
  3;149,149,149;,
  3;150,150,150;,
  3;151,151,151;,
  3;152,152,152;,
  3;153,153,153;,
  3;154,154,154;,
  3;155,155,155;,
  3;156,156,156;,
  3;157,157,157;,
  3;158,158,158;,
  3;159,159,159;,
  3;160,160,160;,
  3;161,161,161;,
  3;162,162,162;,
  3;163,163,163;,
  3;164,164,164;,
  3;165,165,165;,
  3;166,166,166;,
  3;167,167,167;,
  3;168,168,168;,
  3;169,169,169;,
  3;170,170,170;,
  3;171,171,171;,
  3;172,172,172;,
  3;173,173,173;,
  3;174,174,174;,
  3;175,175,175;,
  3;176,176,176;,
  3;177,177,177;,
  3;178,178,178;,
  3;179,179,179;,
  3;180,180,180;,
  3;181,181,181;,
  3;182,182,182;,
  3;183,183,183;,
  3;184,184,184;,
  3;185,185,185;,
  3;186,186,186;,
  3;187,187,187;,
  3;188,188,188;,
  3;189,189,189;,
  3;190,190,190;,
  3;191,191,191;,
  3;192,192,192;,
  3;193,193,193;,
  3;194,194,194;,
  3;195,195,195;,
  3;196,196,196;,
  3;197,197,197;,
  3;198,198,198;,
  3;199,199,199;,
  3;200,200,200;,
  3;201,201,201;,
  3;202,202,202;,
  3;203,203,203;,
  3;204,204,204;,
  3;205,205,205;,
  3;206,206,206;,
  3;207,207,207;,
  3;208,208,208;,
  3;209,209,209;,
  3;210,210,210;,
  3;211,211,211;,
  3;212,212,212;,
  3;213,213,213;,
  3;214,214,214;,
  3;215,215,215;,
  3;216,216,216;,
  3;217,217,217;,
  3;218,218,218;,
  3;219,219,219;,
  3;220,220,220;,
  3;221,221,221;,
  3;222,222,222;,
  3;223,223,223;,
  3;224,224,224;,
  3;225,225,225;,
  3;226,226,226;,
  3;227,227,227;,
  3;228,228,228;,
  3;229,229,229;,
  3;230,230,230;,
  3;231,231,231;,
  3;232,232,232;,
  3;233,233,233;,
  3;234,234,234;,
  3;235,235,235;,
  3;236,236,236;,
  3;237,237,237;,
  3;238,238,238;,
  3;239,239,239;,
  3;240,240,240;,
  3;241,241,241;,
  3;242,242,242;,
  3;243,243,243;,
  3;244,244,244;,
  3;245,245,245;,
  3;246,246,246;,
  3;247,247,247;,
  3;248,248,248;,
  3;249,249,249;,
  3;250,250,250;,
  3;251,251,251;,
  3;252,252,252;,
  3;253,253,253;,
  3;254,254,254;,
  3;255,255,255;,
  3;256,256,256;,
  3;257,257,257;,
  3;258,258,258;,
  3;259,259,259;,
  3;260,260,260;,
  3;261,261,261;,
  3;262,262,262;,
  3;263,263,263;,
  3;264,264,264;,
  3;265,265,265;,
  3;266,266,266;,
  3;267,267,267;,
  3;268,268,268;,
  3;269,269,269;,
  3;270,270,270;,
  3;271,271,271;,
  3;272,272,272;,
  3;273,273,273;,
  3;274,274,274;,
  3;275,275,275;,
  3;276,276,276;,
  3;277,277,277;,
  3;278,278,278;,
  3;279,279,279;,
  3;280,280,280;,
  3;281,281,281;;
 }
}