xof 0303txt 0032
template Vector {
 <3d82ab5e-62da-11cf-ab39-0020af71e433>
 FLOAT x;
 FLOAT y;
 FLOAT z;
}

template MeshFace {
 <3d82ab5f-62da-11cf-ab39-0020af71e433>
 DWORD nFaceVertexIndices;
 array DWORD faceVertexIndices[nFaceVertexIndices];
}

template Mesh {
 <3d82ab44-62da-11cf-ab39-0020af71e433>
 DWORD nVertices;
 array Vector vertices[nVertices];
 DWORD nFaces;
 array MeshFace faces[nFaces];
 [...]
}

template ColorRGBA {
 <35ff44e0-6c7c-11cf-8f52-0040333594a3>
 FLOAT red;
 FLOAT green;
 FLOAT blue;
 FLOAT alpha;
}

template ColorRGB {
 <d3e16e81-7835-11cf-8f52-0040333594a3>
 FLOAT red;
 FLOAT green;
 FLOAT blue;
}

template Material {
 <3d82ab4d-62da-11cf-ab39-0020af71e433>
 ColorRGBA faceColor;
 FLOAT power;
 ColorRGB specularColor;
 ColorRGB emissiveColor;
 [...]
}

template MeshMaterialList {
 <f6f23f42-7686-11cf-8f52-0040333594a3>
 DWORD nMaterials;
 DWORD nFaceIndexes;
 array DWORD faceIndexes[nFaceIndexes];
 [Material <3d82ab4d-62da-11cf-ab39-0020af71e433>]
}

template TextureFilename {
 <a42790e1-7810-11cf-8f52-0040333594a3>
 STRING filename;
}

template Coords2d {
 <f6f23f44-7686-11cf-8f52-0040333594a3>
 FLOAT u;
 FLOAT v;
}

template MeshTextureCoords {
 <f6f23f40-7686-11cf-8f52-0040333594a3>
 DWORD nTextureCoords;
 array Coords2d textureCoords[nTextureCoords];
}

template MeshNormals {
 <f6f23f43-7686-11cf-8f52-0040333594a3>
 DWORD nNormals;
 array Vector normals[nNormals];
 DWORD nFaceNormals;
 array MeshFace faceNormals[nFaceNormals];
}


Mesh  {
 56;
 0.040000;0.300000;-6.070000;,
 0.040000;0.500000;-6.070000;,
 0.040000;0.500000;-5.770000;,
 0.040000;0.300000;-5.770000;,
 -0.040000;0.300000;-6.070000;,
 -0.040000;0.500000;-6.070000;,
 -0.040000;0.500000;-5.770000;,
 -0.040000;0.300000;-5.770000;,
 0.030000;0.300000;-6.030000;,
 0.030000;-0.100000;-6.030000;,
 -0.030000;-0.100000;-6.030000;,
 -0.030000;0.300000;-6.030000;,
 0.030000;0.300000;-5.969999;,
 0.030000;-0.100000;-5.969999;,
 -0.030000;-0.100000;-5.969999;,
 -0.030000;0.300000;-5.969999;,
 0.150000;-0.100000;-6.150000;,
 0.150000;-0.400000;-6.150000;,
 -0.150000;-0.400000;-6.150000;,
 -0.150000;-0.100000;-6.150000;,
 0.150000;-0.100000;-5.849999;,
 0.150000;-0.400000;-5.849999;,
 -0.150000;-0.400000;-5.849999;,
 -0.150000;-0.100000;-5.849999;,
 -0.040000;0.350000;-5.950000;,
 -0.040000;0.500000;-5.950000;,
 0.040000;0.500000;-5.950000;,
 0.040000;0.350000;-5.950000;,
 0.040000;0.300000;5.770000;,
 0.040000;0.500000;5.770000;,
 0.040000;0.500000;6.070000;,
 0.040000;0.300000;6.070000;,
 -0.040000;0.300000;5.770000;,
 -0.040000;0.500000;5.770000;,
 -0.040000;0.500000;6.070000;,
 -0.040000;0.300000;6.070000;,
 0.030000;0.300000;5.969999;,
 0.030000;-0.100000;5.969999;,
 -0.030000;-0.100000;5.969999;,
 -0.030000;0.300000;5.969999;,
 0.030000;0.300000;6.030000;,
 0.030000;-0.100000;6.030000;,
 -0.030000;-0.100000;6.030000;,
 -0.030000;0.300000;6.030000;,
 0.150000;-0.100000;5.849999;,
 0.150000;-0.400000;5.849999;,
 -0.150000;-0.400000;5.849999;,
 -0.150000;-0.100000;5.849999;,
 0.150000;-0.100000;6.150000;,
 0.150000;-0.400000;6.150000;,
 -0.150000;-0.400000;6.150000;,
 -0.150000;-0.100000;6.150000;,
 -0.040000;0.350000;5.950000;,
 -0.040000;0.500000;5.950000;,
 0.040000;0.500000;5.950000;,
 0.040000;0.350000;5.950000;;
 88;
 3;0,1,2;,
 3;0,2,3;,
 3;3,2,1;,
 3;3,1,0;,
 3;7,6,5;,
 3;7,5,4;,
 3;4,5,6;,
 3;4,6,7;,
 3;4,5,1;,
 3;4,1,0;,
 3;0,1,5;,
 3;0,5,4;,
 3;5,6,2;,
 3;5,2,1;,
 3;1,2,6;,
 3;1,6,5;,
 3;8,9,10;,
 3;8,10,11;,
 3;11,10,14;,
 3;11,14,15;,
 3;15,14,13;,
 3;15,13,12;,
 3;12,13,9;,
 3;12,9,8;,
 3;8,11,15;,
 3;8,15,12;,
 3;9,13,14;,
 3;9,14,10;,
 3;16,17,18;,
 3;16,18,19;,
 3;19,18,22;,
 3;19,22,23;,
 3;23,22,21;,
 3;23,21,20;,
 3;20,21,17;,
 3;20,17,16;,
 3;16,19,23;,
 3;16,23,20;,
 3;17,21,22;,
 3;17,22,18;,
 3;24,25,26;,
 3;24,26,27;,
 3;27,26,25;,
 3;27,25,24;,
 3;28,29,30;,
 3;28,30,31;,
 3;31,30,29;,
 3;31,29,28;,
 3;35,34,33;,
 3;35,33,32;,
 3;32,33,34;,
 3;32,34,35;,
 3;31,30,34;,
 3;31,34,35;,
 3;35,34,30;,
 3;35,30,31;,
 3;33,34,30;,
 3;33,30,29;,
 3;29,30,34;,
 3;29,34,33;,
 3;36,37,38;,
 3;36,38,39;,
 3;39,38,42;,
 3;39,42,43;,
 3;43,42,41;,
 3;43,41,40;,
 3;40,41,37;,
 3;40,37,36;,
 3;36,39,43;,
 3;36,43,40;,
 3;37,41,42;,
 3;37,42,38;,
 3;44,45,46;,
 3;44,46,47;,
 3;47,46,50;,
 3;47,50,51;,
 3;51,50,49;,
 3;51,49,48;,
 3;48,49,45;,
 3;48,45,44;,
 3;44,47,51;,
 3;44,51,48;,
 3;45,49,50;,
 3;45,50,46;,
 3;52,53,54;,
 3;52,54,55;,
 3;55,54,53;,
 3;55,53,52;;

 MeshMaterialList  {
  8;
  88;
  0,
  0,
  0,
  0,
  0,
  0,
  0,
  0,
  0,
  0,
  0,
  0,
  0,
  0,
  0,
  0,
  1,
  1,
  1,
  1,
  1,
  1,
  1,
  1,
  1,
  1,
  1,
  1,
  2,
  2,
  2,
  2,
  2,
  2,
  2,
  2,
  2,
  2,
  2,
  2,
  3,
  3,
  3,
  3,
  4,
  4,
  4,
  4,
  4,
  4,
  4,
  4,
  4,
  4,
  4,
  4,
  4,
  4,
  4,
  4,
  5,
  5,
  5,
  5,
  5,
  5,
  5,
  5,
  5,
  5,
  5,
  5,
  6,
  6,
  6,
  6,
  6,
  6,
  6,
  6,
  6,
  6,
  6,
  6,
  7,
  7,
  7,
  7;

  Material  {
   1.000000;1.000000;1.000000;1.000000;;
   0.000000;
   0.000000;0.000000;0.000000;;
   0.000000;0.000000;0.000000;;

   TextureFilename  {
    "Senser.png";
   }
  }

  Material  {
   0.098039;0.098039;0.098039;1.000000;;
   0.000000;
   0.000000;0.000000;0.000000;;
   0.000000;0.000000;0.000000;;
  }

  Material  {
   0.490196;0.490196;0.490196;1.000000;;
   0.000000;
   0.000000;0.000000;0.000000;;
   0.000000;0.000000;0.000000;;
  }

  Material  {
   0.098039;0.098039;0.098039;1.000000;;
   0.000000;
   0.000000;0.000000;0.000000;;
   0.000000;0.000000;0.000000;;
  }

  Material  {
   1.000000;1.000000;1.000000;1.000000;;
   0.000000;
   0.000000;0.000000;0.000000;;
   0.000000;0.000000;0.000000;;

   TextureFilename  {
    "Senser.png";
   }
  }

  Material  {
   0.098039;0.098039;0.098039;1.000000;;
   0.000000;
   0.000000;0.000000;0.000000;;
   0.000000;0.000000;0.000000;;
  }

  Material  {
   0.490196;0.490196;0.490196;1.000000;;
   0.000000;
   0.000000;0.000000;0.000000;;
   0.000000;0.000000;0.000000;;
  }

  Material  {
   0.098039;0.098039;0.098039;1.000000;;
   0.000000;
   0.000000;0.000000;0.000000;;
   0.000000;0.000000;0.000000;;
  }
 }

 MeshTextureCoords  {
  56;
  0.010000;0.000000;,
  0.010000;0.350000;,
  1.000000;0.350000;,
  1.000000;0.000000;,
  0.010000;1.000000;,
  0.010000;0.650000;,
  1.000000;0.650000;,
  1.000000;1.000000;,
  0.000000;0.000000;,
  0.000000;0.000000;,
  0.000000;0.000000;,
  0.000000;0.000000;,
  0.000000;0.000000;,
  0.000000;0.000000;,
  0.000000;0.000000;,
  0.000000;0.000000;,
  0.000000;0.000000;,
  0.000000;0.000000;,
  0.000000;0.000000;,
  0.000000;0.000000;,
  0.000000;0.000000;,
  0.000000;0.000000;,
  0.000000;0.000000;,
  0.000000;0.000000;,
  0.000000;0.000000;,
  0.000000;0.000000;,
  0.000000;0.000000;,
  0.000000;0.000000;,
  1.000000;0.000000;,
  1.000000;0.350000;,
  0.010000;0.350000;,
  0.010000;0.000000;,
  1.000000;1.000000;,
  1.000000;0.650000;,
  0.010000;0.650000;,
  0.010000;1.000000;,
  0.000000;0.000000;,
  0.000000;0.000000;,
  0.000000;0.000000;,
  0.000000;0.000000;,
  0.000000;0.000000;,
  0.000000;0.000000;,
  0.000000;0.000000;,
  0.000000;0.000000;,
  0.000000;0.000000;,
  0.000000;0.000000;,
  0.000000;0.000000;,
  0.000000;0.000000;,
  0.000000;0.000000;,
  0.000000;0.000000;,
  0.000000;0.000000;,
  0.000000;0.000000;,
  0.000000;0.000000;,
  0.000000;0.000000;,
  0.000000;0.000000;,
  0.000000;0.000000;;
 }

 MeshNormals  {
  88;
  1.000000;0.000000;0.000000;,
  1.000000;0.000000;0.000000;,
  -1.000000;0.000000;0.000000;,
  -1.000000;0.000000;0.000000;,
  -1.000000;0.000000;0.000000;,
  -1.000000;0.000000;0.000000;,
  1.000000;0.000000;0.000000;,
  1.000000;0.000000;0.000000;,
  0.000000;0.000000;-1.000000;,
  0.000000;0.000000;-1.000000;,
  0.000000;0.000000;1.000000;,
  0.000000;0.000000;1.000000;,
  0.000000;1.000000;0.000000;,
  0.000000;1.000000;0.000000;,
  0.000000;-1.000000;0.000000;,
  0.000000;-1.000000;0.000000;,
  0.000000;0.000000;-1.000000;,
  0.000000;0.000000;-1.000000;,
  -1.000000;0.000000;0.000000;,
  -1.000000;0.000000;0.000000;,
  0.000000;0.000000;1.000000;,
  0.000000;0.000000;1.000000;,
  1.000000;0.000000;0.000000;,
  1.000000;0.000000;0.000000;,
  0.000000;1.000000;0.000000;,
  0.000000;1.000000;0.000000;,
  0.000000;-1.000000;0.000000;,
  0.000000;-1.000000;0.000000;,
  0.000000;0.000000;-1.000000;,
  0.000000;0.000000;-1.000000;,
  -1.000000;0.000000;0.000000;,
  -1.000000;0.000000;0.000000;,
  0.000000;0.000000;1.000000;,
  0.000000;0.000000;1.000000;,
  1.000000;0.000000;0.000000;,
  1.000000;0.000000;0.000000;,
  0.000000;1.000000;0.000000;,
  0.000000;1.000000;0.000000;,
  0.000000;-1.000000;0.000000;,
  0.000000;-1.000000;0.000000;,
  0.000000;0.000000;-1.000000;,
  0.000000;0.000000;-1.000000;,
  0.000000;0.000000;1.000000;,
  0.000000;0.000000;1.000000;,
  1.000000;0.000000;0.000000;,
  1.000000;0.000000;0.000000;,
  -1.000000;0.000000;0.000000;,
  -1.000000;0.000000;0.000000;,
  -1.000000;0.000000;0.000000;,
  -1.000000;0.000000;0.000000;,
  1.000000;0.000000;0.000000;,
  1.000000;0.000000;0.000000;,
  0.000000;0.000000;1.000000;,
  0.000000;0.000000;1.000000;,
  0.000000;0.000000;-1.000000;,
  0.000000;0.000000;-1.000000;,
  0.000000;1.000000;0.000000;,
  0.000000;1.000000;0.000000;,
  0.000000;-1.000000;0.000000;,
  0.000000;-1.000000;0.000000;,
  0.000000;0.000000;-1.000000;,
  0.000000;0.000000;-1.000000;,
  -1.000000;0.000000;0.000000;,
  -1.000000;0.000000;0.000000;,
  0.000000;0.000000;1.000000;,
  0.000000;0.000000;1.000000;,
  1.000000;0.000000;0.000000;,
  1.000000;0.000000;0.000000;,
  0.000000;1.000000;0.000000;,
  0.000000;1.000000;0.000000;,
  0.000000;-1.000000;0.000000;,
  0.000000;-1.000000;0.000000;,
  0.000000;0.000000;-1.000000;,
  0.000000;0.000000;-1.000000;,
  -1.000000;0.000000;0.000000;,
  -1.000000;0.000000;0.000000;,
  0.000000;0.000000;1.000000;,
  0.000000;0.000000;1.000000;,
  1.000000;0.000000;0.000000;,
  1.000000;0.000000;0.000000;,
  0.000000;1.000000;0.000000;,
  0.000000;1.000000;0.000000;,
  0.000000;-1.000000;0.000000;,
  0.000000;-1.000000;0.000000;,
  0.000000;0.000000;-1.000000;,
  0.000000;0.000000;-1.000000;,
  0.000000;0.000000;1.000000;,
  0.000000;0.000000;1.000000;;
  88;
  3;0,0,0;,
  3;1,1,1;,
  3;2,2,2;,
  3;3,3,3;,
  3;4,4,4;,
  3;5,5,5;,
  3;6,6,6;,
  3;7,7,7;,
  3;8,8,8;,
  3;9,9,9;,
  3;10,10,10;,
  3;11,11,11;,
  3;12,12,12;,
  3;13,13,13;,
  3;14,14,14;,
  3;15,15,15;,
  3;16,16,16;,
  3;17,17,17;,
  3;18,18,18;,
  3;19,19,19;,
  3;20,20,20;,
  3;21,21,21;,
  3;22,22,22;,
  3;23,23,23;,
  3;24,24,24;,
  3;25,25,25;,
  3;26,26,26;,
  3;27,27,27;,
  3;28,28,28;,
  3;29,29,29;,
  3;30,30,30;,
  3;31,31,31;,
  3;32,32,32;,
  3;33,33,33;,
  3;34,34,34;,
  3;35,35,35;,
  3;36,36,36;,
  3;37,37,37;,
  3;38,38,38;,
  3;39,39,39;,
  3;40,40,40;,
  3;41,41,41;,
  3;42,42,42;,
  3;43,43,43;,
  3;44,44,44;,
  3;45,45,45;,
  3;46,46,46;,
  3;47,47,47;,
  3;48,48,48;,
  3;49,49,49;,
  3;50,50,50;,
  3;51,51,51;,
  3;52,52,52;,
  3;53,53,53;,
  3;54,54,54;,
  3;55,55,55;,
  3;56,56,56;,
  3;57,57,57;,
  3;58,58,58;,
  3;59,59,59;,
  3;60,60,60;,
  3;61,61,61;,
  3;62,62,62;,
  3;63,63,63;,
  3;64,64,64;,
  3;65,65,65;,
  3;66,66,66;,
  3;67,67,67;,
  3;68,68,68;,
  3;69,69,69;,
  3;70,70,70;,
  3;71,71,71;,
  3;72,72,72;,
  3;73,73,73;,
  3;74,74,74;,
  3;75,75,75;,
  3;76,76,76;,
  3;77,77,77;,
  3;78,78,78;,
  3;79,79,79;,
  3;80,80,80;,
  3;81,81,81;,
  3;82,82,82;,
  3;83,83,83;,
  3;84,84,84;,
  3;85,85,85;,
  3;86,86,86;,
  3;87,87,87;;
 }
}