xof 0303txt 0032
template Vector {
 <3d82ab5e-62da-11cf-ab39-0020af71e433>
 FLOAT x;
 FLOAT y;
 FLOAT z;
}

template MeshFace {
 <3d82ab5f-62da-11cf-ab39-0020af71e433>
 DWORD nFaceVertexIndices;
 array DWORD faceVertexIndices[nFaceVertexIndices];
}

template Mesh {
 <3d82ab44-62da-11cf-ab39-0020af71e433>
 DWORD nVertices;
 array Vector vertices[nVertices];
 DWORD nFaces;
 array MeshFace faces[nFaces];
 [...]
}

template ColorRGBA {
 <35ff44e0-6c7c-11cf-8f52-0040333594a3>
 FLOAT red;
 FLOAT green;
 FLOAT blue;
 FLOAT alpha;
}

template ColorRGB {
 <d3e16e81-7835-11cf-8f52-0040333594a3>
 FLOAT red;
 FLOAT green;
 FLOAT blue;
}

template Material {
 <3d82ab4d-62da-11cf-ab39-0020af71e433>
 ColorRGBA faceColor;
 FLOAT power;
 ColorRGB specularColor;
 ColorRGB emissiveColor;
 [...]
}

template MeshMaterialList {
 <f6f23f42-7686-11cf-8f52-0040333594a3>
 DWORD nMaterials;
 DWORD nFaceIndexes;
 array DWORD faceIndexes[nFaceIndexes];
 [Material <3d82ab4d-62da-11cf-ab39-0020af71e433>]
}

template TextureFilename {
 <a42790e1-7810-11cf-8f52-0040333594a3>
 STRING filename;
}

template Coords2d {
 <f6f23f44-7686-11cf-8f52-0040333594a3>
 FLOAT u;
 FLOAT v;
}

template MeshTextureCoords {
 <f6f23f40-7686-11cf-8f52-0040333594a3>
 DWORD nTextureCoords;
 array Coords2d textureCoords[nTextureCoords];
}

template MeshNormals {
 <f6f23f43-7686-11cf-8f52-0040333594a3>
 DWORD nNormals;
 array Vector normals[nNormals];
 DWORD nFaceNormals;
 array MeshFace faceNormals[nFaceNormals];
}


Mesh  {
 172;
 -5.200000;-2.000000;-5.000000;,
 -5.200000;-0.010000;-1.000000;,
 -5.200000;-0.010000;1.000000;,
 -3.400000;-2.000000;-1.000000;,
 -3.400000;-2.000000;-5.000000;,
 -3.400000;-0.010000;-1.000000;,
 -3.400000;-0.010000;1.000000;,
 -3.000000;-2.000000;-1.000000;,
 -3.000000;-0.010000;-1.000000;,
 -3.000000;-0.010000;1.000000;,
 -5.500000;-2.000000;-5.000000;,
 -5.500000;-0.010000;-1.000000;,
 -5.500000;-0.010000;1.000000;,
 -5.200000;-2.000000;-5.000000;,
 -5.200000;-0.010000;-1.000000;,
 -5.200000;-0.010000;1.000000;,
 -5.349999;1.000000;0.000000;,
 -5.349999;1.000000;0.000000;,
 -5.349999;1.000000;-0.000000;,
 -5.349999;1.000000;-0.000000;,
 -5.349999;1.000000;-0.000000;,
 -5.349999;1.000000;-0.000000;,
 -5.349999;1.000000;-0.000000;,
 -5.349999;1.000000;-0.000000;,
 -5.349999;1.000000;0.000000;,
 -5.349999;1.000000;0.000000;,
 -5.349999;1.000000;0.000000;,
 -5.349999;1.000000;0.000000;,
 -5.349999;0.500000;0.000000;,
 -5.349999;0.500000;0.000000;,
 -5.349999;0.500000;-0.000000;,
 -5.349999;0.500000;-0.000000;,
 -5.349999;0.500000;-0.000000;,
 -5.349999;0.500000;-0.000000;,
 -5.349999;0.500000;-0.000000;,
 -5.349999;0.500000;-0.000000;,
 -5.349999;0.500000;0.000000;,
 -5.349999;0.500000;0.000000;,
 -5.349999;0.500000;0.000000;,
 -5.349999;0.500000;0.000000;,
 -5.329999;1.001972;-0.993199;,
 -5.329999;-0.001972;-3.006801;,
 -5.339999;0.986472;-0.985471;,
 -5.339999;-0.017473;-2.999072;,
 -5.360000;0.986472;-0.985471;,
 -5.360000;-0.017473;-2.999072;,
 -5.369999;1.001972;-0.993199;,
 -5.369999;-0.001972;-3.006801;,
 -5.360000;1.017473;-1.000927;,
 -5.360000;0.013528;-3.014529;,
 -5.339999;1.017473;-1.000927;,
 -5.339999;0.013528;-3.014529;,
 -5.329999;0.501972;-0.993199;,
 -5.329999;-0.501972;-3.006801;,
 -5.339999;0.486472;-0.985471;,
 -5.339999;-0.517473;-2.999072;,
 -5.360000;0.486472;-0.985471;,
 -5.360000;-0.517473;-2.999072;,
 -5.369999;0.501972;-0.993199;,
 -5.369999;-0.501972;-3.006801;,
 -5.360000;0.517473;-1.000927;,
 -5.360000;-0.486472;-3.014529;,
 -5.339999;0.517473;-1.000927;,
 -5.339999;-0.486472;-3.014529;,
 -5.329999;1.001972;0.993199;,
 -5.329999;-0.001972;3.006801;,
 -5.339999;1.017473;1.000927;,
 -5.339999;0.013528;3.014529;,
 -5.360000;1.017473;1.000927;,
 -5.360000;0.013528;3.014529;,
 -5.369999;1.001972;0.993199;,
 -5.369999;-0.001972;3.006801;,
 -5.360000;0.986472;0.985471;,
 -5.360000;-0.017473;2.999072;,
 -5.339999;0.986472;0.985471;,
 -5.339999;-0.017473;2.999072;,
 -5.329999;0.501972;0.993199;,
 -5.329999;-0.501972;3.006801;,
 -5.339999;0.517473;1.000927;,
 -5.339999;-0.486472;3.014529;,
 -5.360000;0.517473;1.000927;,
 -5.360000;-0.486472;3.014529;,
 -5.369999;0.501972;0.993199;,
 -5.369999;-0.501972;3.006801;,
 -5.360000;0.486472;0.985471;,
 -5.360000;-0.517473;2.999072;,
 -5.339999;0.486472;0.985471;,
 -5.339999;-0.517473;2.999072;,
 -5.349999;1.000000;-0.020000;,
 -5.349999;0.000000;-0.020000;,
 -5.332679;1.000000;-0.010000;,
 -5.332679;0.000000;-0.010000;,
 -5.332679;1.000000;0.010000;,
 -5.332679;0.000000;0.010000;,
 -5.349999;1.000000;0.020000;,
 -5.349999;0.000000;0.020000;,
 -5.367320;1.000000;0.010000;,
 -5.367320;0.000000;0.010000;,
 -5.367320;1.000000;-0.010000;,
 -5.367320;0.000000;-0.010000;,
 -5.349999;1.000000;-1.020000;,
 -5.349999;0.000000;-1.020000;,
 -5.332679;1.000000;-1.010000;,
 -5.332679;0.000000;-1.010000;,
 -5.332679;1.000000;-0.990000;,
 -5.332679;0.000000;-0.990000;,
 -5.349999;1.000000;-0.980000;,
 -5.349999;0.000000;-0.980000;,
 -5.367320;1.000000;-0.990000;,
 -5.367320;0.000000;-0.990000;,
 -5.367320;1.000000;-1.010000;,
 -5.367320;0.000000;-1.010000;,
 -5.349999;0.500000;-2.020000;,
 -5.349999;-0.500000;-2.020000;,
 -5.332679;0.500000;-2.010000;,
 -5.332679;-0.500000;-2.010000;,
 -5.332679;0.500000;-1.990000;,
 -5.332679;-0.500000;-1.990000;,
 -5.349999;0.500000;-1.980000;,
 -5.349999;-0.500000;-1.980000;,
 -5.367320;0.500000;-1.990000;,
 -5.367320;-0.500000;-1.990000;,
 -5.367320;0.500000;-2.010000;,
 -5.367320;-0.500000;-2.010000;,
 -5.349999;-0.000000;-3.020000;,
 -5.349999;-1.000000;-3.020000;,
 -5.332679;-0.000000;-3.010000;,
 -5.332679;-1.000000;-3.010000;,
 -5.332679;-0.000000;-2.990000;,
 -5.332679;-1.000000;-2.990000;,
 -5.349999;-0.000000;-2.980000;,
 -5.349999;-1.000000;-2.980000;,
 -5.367320;-0.000000;-2.990000;,
 -5.367320;-1.000000;-2.990000;,
 -5.367320;-0.000000;-3.010000;,
 -5.367320;-1.000000;-3.010000;,
 -5.349999;1.000000;0.980000;,
 -5.349999;0.000000;0.980000;,
 -5.332679;1.000000;0.990000;,
 -5.332679;0.000000;0.990000;,
 -5.332679;1.000000;1.010000;,
 -5.332679;0.000000;1.010000;,
 -5.349999;1.000000;1.020000;,
 -5.349999;0.000000;1.020000;,
 -5.367320;1.000000;1.010000;,
 -5.367320;0.000000;1.010000;,
 -5.367320;1.000000;0.990000;,
 -5.367320;0.000000;0.990000;,
 -5.349999;0.500000;1.980000;,
 -5.349999;-0.500000;1.980000;,
 -5.332679;0.500000;1.990000;,
 -5.332679;-0.500000;1.990000;,
 -5.332679;0.500000;2.010000;,
 -5.332679;-0.500000;2.010000;,
 -5.349999;0.500000;2.020000;,
 -5.349999;-0.500000;2.020000;,
 -5.367320;0.500000;2.010000;,
 -5.367320;-0.500000;2.010000;,
 -5.367320;0.500000;1.990000;,
 -5.367320;-0.500000;1.990000;,
 -5.349999;-0.000000;2.980000;,
 -5.349999;-1.000000;2.980000;,
 -5.332679;-0.000000;2.990000;,
 -5.332679;-1.000000;2.990000;,
 -5.332679;-0.000000;3.010000;,
 -5.332679;-1.000000;3.010000;,
 -5.349999;-0.000000;3.020000;,
 -5.349999;-1.000000;3.020000;,
 -5.367320;-0.000000;3.010000;,
 -5.367320;-1.000000;3.010000;,
 -5.367320;-0.000000;2.990000;,
 -5.367320;-1.000000;2.990000;;
 273;
 3;0,1,5;,
 3;0,5,4;,
 3;1,2,6;,
 3;1,6,5;,
 3;3,4,5;,
 3;3,5,8;,
 3;3,8,7;,
 3;5,6,9;,
 3;5,9,8;,
 3;10,11,14;,
 3;10,14,13;,
 3;11,12,15;,
 3;11,15,14;,
 3;17,16,18;,
 3;17,18,19;,
 3;19,18,20;,
 3;19,20,21;,
 3;21,20,22;,
 3;21,22,23;,
 3;23,22,24;,
 3;23,24,25;,
 3;25,24,26;,
 3;25,26,27;,
 3;27,26,16;,
 3;27,16,17;,
 3;26,24,22;,
 3;26,22,20;,
 3;26,20,18;,
 3;26,18,16;,
 3;17,19,21;,
 3;17,21,23;,
 3;17,23,25;,
 3;17,25,27;,
 3;29,28,30;,
 3;29,30,31;,
 3;31,30,32;,
 3;31,32,33;,
 3;33,32,34;,
 3;33,34,35;,
 3;35,34,36;,
 3;35,36,37;,
 3;37,36,38;,
 3;37,38,39;,
 3;39,38,28;,
 3;39,28,29;,
 3;38,36,34;,
 3;38,34,32;,
 3;38,32,30;,
 3;38,30,28;,
 3;29,31,33;,
 3;29,33,35;,
 3;29,35,37;,
 3;29,37,39;,
 3;41,40,42;,
 3;41,42,43;,
 3;43,42,44;,
 3;43,44,45;,
 3;45,44,46;,
 3;45,46,47;,
 3;47,46,48;,
 3;47,48,49;,
 3;49,48,50;,
 3;49,50,51;,
 3;51,50,40;,
 3;51,40,41;,
 3;50,48,46;,
 3;50,46,44;,
 3;50,44,42;,
 3;50,42,40;,
 3;41,43,45;,
 3;41,45,47;,
 3;41,47,49;,
 3;41,49,51;,
 3;53,52,54;,
 3;53,54,55;,
 3;55,54,56;,
 3;55,56,57;,
 3;57,56,58;,
 3;57,58,59;,
 3;59,58,60;,
 3;59,60,61;,
 3;61,60,62;,
 3;61,62,63;,
 3;63,62,52;,
 3;63,52,53;,
 3;62,60,58;,
 3;62,58,56;,
 3;62,56,54;,
 3;62,54,52;,
 3;53,55,57;,
 3;53,57,59;,
 3;53,59,61;,
 3;53,61,63;,
 3;65,64,66;,
 3;65,66,67;,
 3;67,66,68;,
 3;67,68,69;,
 3;69,68,70;,
 3;69,70,71;,
 3;71,70,72;,
 3;71,72,73;,
 3;73,72,74;,
 3;73,74,75;,
 3;75,74,64;,
 3;75,64,65;,
 3;74,72,70;,
 3;74,70,68;,
 3;74,68,66;,
 3;74,66,64;,
 3;65,67,69;,
 3;65,69,71;,
 3;65,71,73;,
 3;65,73,75;,
 3;77,76,78;,
 3;77,78,79;,
 3;79,78,80;,
 3;79,80,81;,
 3;81,80,82;,
 3;81,82,83;,
 3;83,82,84;,
 3;83,84,85;,
 3;85,84,86;,
 3;85,86,87;,
 3;87,86,76;,
 3;87,76,77;,
 3;86,84,82;,
 3;86,82,80;,
 3;86,80,78;,
 3;86,78,76;,
 3;77,79,81;,
 3;77,81,83;,
 3;77,83,85;,
 3;77,85,87;,
 3;89,88,90;,
 3;89,90,91;,
 3;91,90,92;,
 3;91,92,93;,
 3;93,92,94;,
 3;93,94,95;,
 3;95,94,96;,
 3;95,96,97;,
 3;97,96,98;,
 3;97,98,99;,
 3;99,98,88;,
 3;99,88,89;,
 3;98,96,94;,
 3;98,94,92;,
 3;98,92,90;,
 3;98,90,88;,
 3;89,91,93;,
 3;89,93,95;,
 3;89,95,97;,
 3;89,97,99;,
 3;101,100,102;,
 3;101,102,103;,
 3;103,102,104;,
 3;103,104,105;,
 3;105,104,106;,
 3;105,106,107;,
 3;107,106,108;,
 3;107,108,109;,
 3;109,108,110;,
 3;109,110,111;,
 3;111,110,100;,
 3;111,100,101;,
 3;110,108,106;,
 3;110,106,104;,
 3;110,104,102;,
 3;110,102,100;,
 3;101,103,105;,
 3;101,105,107;,
 3;101,107,109;,
 3;101,109,111;,
 3;113,112,114;,
 3;113,114,115;,
 3;115,114,116;,
 3;115,116,117;,
 3;117,116,118;,
 3;117,118,119;,
 3;119,118,120;,
 3;119,120,121;,
 3;121,120,122;,
 3;121,122,123;,
 3;123,122,112;,
 3;123,112,113;,
 3;122,120,118;,
 3;122,118,116;,
 3;122,116,114;,
 3;122,114,112;,
 3;113,115,117;,
 3;113,117,119;,
 3;113,119,121;,
 3;113,121,123;,
 3;125,124,126;,
 3;125,126,127;,
 3;127,126,128;,
 3;127,128,129;,
 3;129,128,130;,
 3;129,130,131;,
 3;131,130,132;,
 3;131,132,133;,
 3;133,132,134;,
 3;133,134,135;,
 3;135,134,124;,
 3;135,124,125;,
 3;134,132,130;,
 3;134,130,128;,
 3;134,128,126;,
 3;134,126,124;,
 3;125,127,129;,
 3;125,129,131;,
 3;125,131,133;,
 3;125,133,135;,
 3;137,136,138;,
 3;137,138,139;,
 3;139,138,140;,
 3;139,140,141;,
 3;141,140,142;,
 3;141,142,143;,
 3;143,142,144;,
 3;143,144,145;,
 3;145,144,146;,
 3;145,146,147;,
 3;147,146,136;,
 3;147,136,137;,
 3;146,144,142;,
 3;146,142,140;,
 3;146,140,138;,
 3;146,138,136;,
 3;137,139,141;,
 3;137,141,143;,
 3;137,143,145;,
 3;137,145,147;,
 3;149,148,150;,
 3;149,150,151;,
 3;151,150,152;,
 3;151,152,153;,
 3;153,152,154;,
 3;153,154,155;,
 3;155,154,156;,
 3;155,156,157;,
 3;157,156,158;,
 3;157,158,159;,
 3;159,158,148;,
 3;159,148,149;,
 3;158,156,154;,
 3;158,154,152;,
 3;158,152,150;,
 3;158,150,148;,
 3;149,151,153;,
 3;149,153,155;,
 3;149,155,157;,
 3;149,157,159;,
 3;161,160,162;,
 3;161,162,163;,
 3;163,162,164;,
 3;163,164,165;,
 3;165,164,166;,
 3;165,166,167;,
 3;167,166,168;,
 3;167,168,169;,
 3;169,168,170;,
 3;169,170,171;,
 3;171,170,160;,
 3;171,160,161;,
 3;170,168,166;,
 3;170,166,164;,
 3;170,164,162;,
 3;170,162,160;,
 3;161,163,165;,
 3;161,165,167;,
 3;161,167,169;,
 3;161,169,171;;

 MeshMaterialList  {
  15;
  273;
  0,
  0,
  0,
  0,
  0,
  0,
  0,
  0,
  0,
  1,
  1,
  1,
  1,
  2,
  2,
  2,
  2,
  2,
  2,
  2,
  2,
  2,
  2,
  2,
  2,
  2,
  2,
  2,
  2,
  2,
  2,
  2,
  2,
  3,
  3,
  3,
  3,
  3,
  3,
  3,
  3,
  3,
  3,
  3,
  3,
  3,
  3,
  3,
  3,
  3,
  3,
  3,
  3,
  4,
  4,
  4,
  4,
  4,
  4,
  4,
  4,
  4,
  4,
  4,
  4,
  4,
  4,
  4,
  4,
  4,
  4,
  4,
  4,
  5,
  5,
  5,
  5,
  5,
  5,
  5,
  5,
  5,
  5,
  5,
  5,
  5,
  5,
  5,
  5,
  5,
  5,
  5,
  5,
  6,
  6,
  6,
  6,
  6,
  6,
  6,
  6,
  6,
  6,
  6,
  6,
  6,
  6,
  6,
  6,
  6,
  6,
  6,
  6,
  7,
  7,
  7,
  7,
  7,
  7,
  7,
  7,
  7,
  7,
  7,
  7,
  7,
  7,
  7,
  7,
  7,
  7,
  7,
  7,
  8,
  8,
  8,
  8,
  8,
  8,
  8,
  8,
  8,
  8,
  8,
  8,
  8,
  8,
  8,
  8,
  8,
  8,
  8,
  8,
  9,
  9,
  9,
  9,
  9,
  9,
  9,
  9,
  9,
  9,
  9,
  9,
  9,
  9,
  9,
  9,
  9,
  9,
  9,
  9,
  10,
  10,
  10,
  10,
  10,
  10,
  10,
  10,
  10,
  10,
  10,
  10,
  10,
  10,
  10,
  10,
  10,
  10,
  10,
  10,
  11,
  11,
  11,
  11,
  11,
  11,
  11,
  11,
  11,
  11,
  11,
  11,
  11,
  11,
  11,
  11,
  11,
  11,
  11,
  11,
  12,
  12,
  12,
  12,
  12,
  12,
  12,
  12,
  12,
  12,
  12,
  12,
  12,
  12,
  12,
  12,
  12,
  12,
  12,
  12,
  13,
  13,
  13,
  13,
  13,
  13,
  13,
  13,
  13,
  13,
  13,
  13,
  13,
  13,
  13,
  13,
  13,
  13,
  13,
  13,
  14,
  14,
  14,
  14,
  14,
  14,
  14,
  14,
  14,
  14,
  14,
  14,
  14,
  14,
  14,
  14,
  14,
  14,
  14,
  14;

  Material  {
   1.000000;1.000000;1.000000;1.000000;;
   0.000000;
   0.000000;0.000000;0.000000;;
   0.000000;0.000000;0.000000;;

   TextureFilename  {
    "FormC.png";
   }
  }

  Material  {
   1.000000;1.000000;1.000000;1.000000;;
   0.000000;
   0.000000;0.000000;0.000000;;
   0.000000;0.000000;0.000000;;

   TextureFilename  {
    "Pier1.png";
   }
  }

  Material  {
   0.784314;0.784314;0.784314;1.000000;;
   0.000000;
   0.000000;0.000000;0.000000;;
   0.000000;0.000000;0.000000;;
  }

  Material  {
   0.784314;0.784314;0.784314;1.000000;;
   0.000000;
   0.000000;0.000000;0.000000;;
   0.000000;0.000000;0.000000;;
  }

  Material  {
   0.784314;0.784314;0.784314;1.000000;;
   0.000000;
   0.000000;0.000000;0.000000;;
   0.000000;0.000000;0.000000;;
  }

  Material  {
   0.784314;0.784314;0.784314;1.000000;;
   0.000000;
   0.000000;0.000000;0.000000;;
   0.000000;0.000000;0.000000;;
  }

  Material  {
   0.784314;0.784314;0.784314;1.000000;;
   0.000000;
   0.000000;0.000000;0.000000;;
   0.000000;0.000000;0.000000;;
  }

  Material  {
   0.784314;0.784314;0.784314;1.000000;;
   0.000000;
   0.000000;0.000000;0.000000;;
   0.000000;0.000000;0.000000;;
  }

  Material  {
   0.784314;0.784314;0.784314;1.000000;;
   0.000000;
   0.000000;0.000000;0.000000;;
   0.000000;0.000000;0.000000;;
  }

  Material  {
   0.784314;0.784314;0.784314;1.000000;;
   0.000000;
   0.000000;0.000000;0.000000;;
   0.000000;0.000000;0.000000;;
  }

  Material  {
   0.784314;0.784314;0.784314;1.000000;;
   0.000000;
   0.000000;0.000000;0.000000;;
   0.000000;0.000000;0.000000;;
  }

  Material  {
   0.784314;0.784314;0.784314;1.000000;;
   0.000000;
   0.000000;0.000000;0.000000;;
   0.000000;0.000000;0.000000;;
  }

  Material  {
   0.784314;0.784314;0.784314;1.000000;;
   0.000000;
   0.000000;0.000000;0.000000;;
   0.000000;0.000000;0.000000;;
  }

  Material  {
   0.784314;0.784314;0.784314;1.000000;;
   0.000000;
   0.000000;0.000000;0.000000;;
   0.000000;0.000000;0.000000;;
  }

  Material  {
   0.784314;0.784314;0.784314;1.000000;;
   0.000000;
   0.000000;0.000000;0.000000;;
   0.000000;0.000000;0.000000;;
  }
 }

 MeshTextureCoords  {
  172;
  0.000000;1.000000;,
  0.000000;0.500000;,
  0.000000;0.000000;,
  0.300000;0.500000;,
  0.300000;1.000000;,
  0.300000;0.500000;,
  0.300000;0.000000;,
  0.500000;0.500000;,
  0.500000;0.500000;,
  0.500000;0.000000;,
  0.000000;0.600000;,
  0.000000;0.200000;,
  0.000000;0.000000;,
  0.100000;0.600000;,
  0.100000;0.200000;,
  0.100000;0.000000;,
  0.000000;0.000000;,
  0.000000;0.000000;,
  0.000000;0.000000;,
  0.000000;0.000000;,
  0.000000;0.000000;,
  0.000000;0.000000;,
  0.000000;0.000000;,
  0.000000;0.000000;,
  0.000000;0.000000;,
  0.000000;0.000000;,
  0.000000;0.000000;,
  0.000000;0.000000;,
  0.000000;0.000000;,
  0.000000;0.000000;,
  0.000000;0.000000;,
  0.000000;0.000000;,
  0.000000;0.000000;,
  0.000000;0.000000;,
  0.000000;0.000000;,
  0.000000;0.000000;,
  0.000000;0.000000;,
  0.000000;0.000000;,
  0.000000;0.000000;,
  0.000000;0.000000;,
  0.000000;0.000000;,
  0.000000;0.000000;,
  0.000000;0.000000;,
  0.000000;0.000000;,
  0.000000;0.000000;,
  0.000000;0.000000;,
  0.000000;0.000000;,
  0.000000;0.000000;,
  0.000000;0.000000;,
  0.000000;0.000000;,
  0.000000;0.000000;,
  0.000000;0.000000;,
  0.000000;0.000000;,
  0.000000;0.000000;,
  0.000000;0.000000;,
  0.000000;0.000000;,
  0.000000;0.000000;,
  0.000000;0.000000;,
  0.000000;0.000000;,
  0.000000;0.000000;,
  0.000000;0.000000;,
  0.000000;0.000000;,
  0.000000;0.000000;,
  0.000000;0.000000;,
  0.000000;0.000000;,
  0.000000;0.000000;,
  0.000000;0.000000;,
  0.000000;0.000000;,
  0.000000;0.000000;,
  0.000000;0.000000;,
  0.000000;0.000000;,
  0.000000;0.000000;,
  0.000000;0.000000;,
  0.000000;0.000000;,
  0.000000;0.000000;,
  0.000000;0.000000;,
  0.000000;0.000000;,
  0.000000;0.000000;,
  0.000000;0.000000;,
  0.000000;0.000000;,
  0.000000;0.000000;,
  0.000000;0.000000;,
  0.000000;0.000000;,
  0.000000;0.000000;,
  0.000000;0.000000;,
  0.000000;0.000000;,
  0.000000;0.000000;,
  0.000000;0.000000;,
  0.000000;0.000000;,
  0.000000;0.000000;,
  0.000000;0.000000;,
  0.000000;0.000000;,
  0.000000;0.000000;,
  0.000000;0.000000;,
  0.000000;0.000000;,
  0.000000;0.000000;,
  0.000000;0.000000;,
  0.000000;0.000000;,
  0.000000;0.000000;,
  0.000000;0.000000;,
  0.000000;0.000000;,
  0.000000;0.000000;,
  0.000000;0.000000;,
  0.000000;0.000000;,
  0.000000;0.000000;,
  0.000000;0.000000;,
  0.000000;0.000000;,
  0.000000;0.000000;,
  0.000000;0.000000;,
  0.000000;0.000000;,
  0.000000;0.000000;,
  0.000000;0.000000;,
  0.000000;0.000000;,
  0.000000;0.000000;,
  0.000000;0.000000;,
  0.000000;0.000000;,
  0.000000;0.000000;,
  0.000000;0.000000;,
  0.000000;0.000000;,
  0.000000;0.000000;,
  0.000000;0.000000;,
  0.000000;0.000000;,
  0.000000;0.000000;,
  0.000000;0.000000;,
  0.000000;0.000000;,
  0.000000;0.000000;,
  0.000000;0.000000;,
  0.000000;0.000000;,
  0.000000;0.000000;,
  0.000000;0.000000;,
  0.000000;0.000000;,
  0.000000;0.000000;,
  0.000000;0.000000;,
  0.000000;0.000000;,
  0.000000;0.000000;,
  0.000000;0.000000;,
  0.000000;0.000000;,
  0.000000;0.000000;,
  0.000000;0.000000;,
  0.000000;0.000000;,
  0.000000;0.000000;,
  0.000000;0.000000;,
  0.000000;0.000000;,
  0.000000;0.000000;,
  0.000000;0.000000;,
  0.000000;0.000000;,
  0.000000;0.000000;,
  0.000000;0.000000;,
  0.000000;0.000000;,
  0.000000;0.000000;,
  0.000000;0.000000;,
  0.000000;0.000000;,
  0.000000;0.000000;,
  0.000000;0.000000;,
  0.000000;0.000000;,
  0.000000;0.000000;,
  0.000000;0.000000;,
  0.000000;0.000000;,
  0.000000;0.000000;,
  0.000000;0.000000;,
  0.000000;0.000000;,
  0.000000;0.000000;,
  0.000000;0.000000;,
  0.000000;0.000000;,
  0.000000;0.000000;,
  0.000000;0.000000;,
  0.000000;0.000000;,
  0.000000;0.000000;,
  0.000000;0.000000;,
  0.000000;0.000000;,
  0.000000;0.000000;,
  0.000000;0.000000;;
 }

 MeshNormals  {
  169;
  0.000000;0.895321;-0.445422;,
  0.000000;0.895321;-0.445422;,
  0.000000;1.000000;0.000000;,
  0.000000;1.000000;0.000000;,
  1.000000;0.000000;0.000000;,
  0.000000;0.000000;-1.000000;,
  0.000000;0.000000;-1.000000;,
  0.000000;1.000000;0.000000;,
  0.000000;1.000000;0.000000;,
  0.000000;0.895321;-0.445422;,
  0.000000;0.895321;-0.445422;,
  0.000000;1.000000;0.000000;,
  0.000000;1.000000;0.000000;,
  0.965926;0.000000;-0.258819;,
  1.000000;0.000000;0.000000;,
  0.500000;0.000000;0.866025;,
  0.258819;0.000000;0.965926;,
  -0.500000;0.000000;0.866025;,
  -0.707107;0.000000;0.707107;,
  -1.000000;0.000000;0.000000;,
  -0.965926;0.000000;-0.258819;,
  -0.500000;0.000000;-0.866025;,
  -0.258819;0.000000;-0.965926;,
  0.500000;0.000000;-0.866025;,
  0.707107;0.000000;-0.707107;,
  0.965926;0.000000;-0.258819;,
  1.000000;0.000000;0.000000;,
  0.500000;0.000000;0.866025;,
  0.258819;0.000000;0.965926;,
  -0.500000;0.000000;0.866025;,
  -0.707107;0.000000;0.707107;,
  -1.000000;0.000000;0.000000;,
  -0.965926;0.000000;-0.258819;,
  -0.500000;0.000000;-0.866025;,
  -0.258819;0.000000;-0.965926;,
  0.500000;0.000000;-0.866025;,
  0.707107;0.000000;-0.707107;,
  0.965926;0.000000;-0.258819;,
  1.000000;0.000000;0.000000;,
  0.500000;0.000000;0.866025;,
  0.258819;0.000000;0.965926;,
  -0.500000;0.000000;0.866025;,
  -0.707107;0.000000;0.707107;,
  -1.000000;0.000000;0.000000;,
  -0.965926;0.000000;-0.258819;,
  -0.500000;0.000000;-0.866025;,
  -0.258819;0.000000;-0.965926;,
  0.500000;0.000000;-0.866025;,
  0.707107;0.000000;-0.707107;,
  0.965926;0.000000;-0.258819;,
  1.000000;0.000000;0.000000;,
  0.500000;0.000000;0.866025;,
  0.258819;0.000000;0.965926;,
  -0.500000;0.000000;0.866025;,
  -0.707107;0.000000;0.707107;,
  -1.000000;0.000000;0.000000;,
  -0.965926;0.000000;-0.258819;,
  -0.500000;0.000000;-0.866025;,
  -0.258819;0.000000;-0.965926;,
  0.500000;0.000000;-0.866025;,
  0.707107;0.000000;-0.707107;,
  0.965926;0.000000;-0.258819;,
  1.000000;0.000000;0.000000;,
  0.500000;0.000000;0.866025;,
  0.258819;0.000000;0.965926;,
  -0.500000;0.000000;0.866025;,
  -0.707107;0.000000;0.707107;,
  -1.000000;0.000000;0.000000;,
  -0.965926;0.000000;-0.258819;,
  -0.500000;0.000000;-0.866025;,
  -0.258819;0.000000;-0.965926;,
  0.500000;0.000000;-0.866025;,
  0.707107;0.000000;-0.707107;,
  0.965926;0.000000;-0.258819;,
  1.000000;0.000000;0.000000;,
  0.500000;0.000000;0.866025;,
  0.258819;0.000000;0.965926;,
  -0.500000;0.000000;0.866025;,
  -0.707107;0.000000;0.707107;,
  -1.000000;0.000000;0.000000;,
  -0.965926;0.000000;-0.258819;,
  -0.500000;0.000000;-0.866025;,
  -0.258819;0.000000;-0.965926;,
  0.500000;0.000000;-0.866025;,
  0.707107;0.000000;-0.707107;,
  0.965926;0.000000;-0.258819;,
  1.000000;0.000000;0.000000;,
  0.500000;0.000000;0.866025;,
  0.258819;0.000000;0.965926;,
  -0.500000;0.000000;0.866025;,
  -0.707107;0.000000;0.707107;,
  -1.000000;0.000000;0.000000;,
  -0.965926;0.000000;-0.258819;,
  -0.500000;0.000000;-0.866025;,
  -0.258819;0.000000;-0.965926;,
  0.500000;0.000000;-0.866025;,
  0.707107;0.000000;-0.707107;,
  0.965926;0.000000;-0.258819;,
  1.000000;0.000000;0.000000;,
  0.500000;0.000000;0.866025;,
  0.258819;0.000000;0.965926;,
  -0.500000;0.000000;0.866025;,
  -0.707107;0.000000;0.707107;,
  -1.000000;0.000000;0.000000;,
  -0.965926;0.000000;-0.258819;,
  -0.500000;0.000000;-0.866025;,
  -0.258819;0.000000;-0.965926;,
  0.500000;0.000000;-0.866025;,
  0.707107;0.000000;-0.707107;,
  0.965926;0.000000;-0.258819;,
  1.000000;0.000000;0.000000;,
  0.500000;0.000000;0.866025;,
  0.258819;0.000000;0.965926;,
  -0.500000;0.000000;0.866025;,
  -0.707107;0.000000;0.707107;,
  -1.000000;0.000000;0.000000;,
  -0.965926;0.000000;-0.258819;,
  -0.500000;0.000000;-0.866025;,
  -0.258819;0.000000;-0.965926;,
  0.500000;0.000000;-0.866025;,
  0.707107;0.000000;-0.707107;,
  0.965926;0.000000;-0.258819;,
  1.000000;0.000000;0.000000;,
  0.500000;0.000000;0.866025;,
  0.258819;0.000000;0.965926;,
  -0.500000;0.000000;0.866025;,
  -0.707107;0.000000;0.707107;,
  -1.000000;0.000000;0.000000;,
  -0.965926;0.000000;-0.258819;,
  -0.500000;0.000000;-0.866025;,
  -0.258819;0.000000;-0.965926;,
  0.500000;0.000000;-0.866025;,
  0.707107;0.000000;-0.707107;,
  0.965926;0.000000;-0.258819;,
  1.000000;0.000000;0.000000;,
  0.500000;0.000000;0.866025;,
  0.258819;0.000000;0.965926;,
  -0.500000;0.000000;0.866025;,
  -0.707107;0.000000;0.707107;,
  -1.000000;0.000000;0.000000;,
  -0.965926;0.000000;-0.258819;,
  -0.500000;0.000000;-0.866025;,
  -0.258819;0.000000;-0.965926;,
  0.500000;0.000000;-0.866025;,
  0.707107;0.000000;-0.707107;,
  0.965926;0.000000;-0.258819;,
  1.000000;0.000000;0.000000;,
  0.500000;0.000000;0.866025;,
  0.258819;0.000000;0.965926;,
  -0.500000;0.000000;0.866025;,
  -0.707107;0.000000;0.707107;,
  -1.000000;0.000000;0.000000;,
  -0.965926;0.000000;-0.258819;,
  -0.500000;0.000000;-0.866025;,
  -0.258819;0.000000;-0.965926;,
  0.500000;0.000000;-0.866025;,
  0.707107;0.000000;-0.707107;,
  0.965926;0.000000;-0.258819;,
  1.000000;0.000000;0.000000;,
  0.500000;0.000000;0.866025;,
  0.258819;0.000000;0.965926;,
  -0.500000;0.000000;0.866025;,
  -0.707107;0.000000;0.707107;,
  -1.000000;0.000000;0.000000;,
  -0.965926;0.000000;-0.258819;,
  -0.500000;0.000000;-0.866025;,
  -0.258819;0.000000;-0.965926;,
  0.500000;0.000000;-0.866025;,
  0.707107;0.000000;-0.707107;;
  273;
  3;0,0,0;,
  3;1,1,1;,
  3;2,2,2;,
  3;3,3,3;,
  3;4,4,4;,
  3;5,5,5;,
  3;6,6,6;,
  3;7,7,7;,
  3;8,8,8;,
  3;9,9,9;,
  3;10,10,10;,
  3;11,11,11;,
  3;12,12,12;,
  3;14,13,15;,
  3;14,15,16;,
  3;16,15,17;,
  3;16,17,18;,
  3;18,17,19;,
  3;18,19,20;,
  3;20,19,21;,
  3;20,21,22;,
  3;22,21,23;,
  3;22,23,24;,
  3;24,23,13;,
  3;24,13,14;,
  3;23,21,19;,
  3;23,19,17;,
  3;23,17,15;,
  3;23,15,13;,
  3;14,16,18;,
  3;14,18,20;,
  3;14,20,22;,
  3;14,22,24;,
  3;26,25,27;,
  3;26,27,28;,
  3;28,27,29;,
  3;28,29,30;,
  3;30,29,31;,
  3;30,31,32;,
  3;32,31,33;,
  3;32,33,34;,
  3;34,33,35;,
  3;34,35,36;,
  3;36,35,25;,
  3;36,25,26;,
  3;35,33,31;,
  3;35,31,29;,
  3;35,29,27;,
  3;35,27,25;,
  3;26,28,30;,
  3;26,30,32;,
  3;26,32,34;,
  3;26,34,36;,
  3;38,37,39;,
  3;38,39,40;,
  3;40,39,41;,
  3;40,41,42;,
  3;42,41,43;,
  3;42,43,44;,
  3;44,43,45;,
  3;44,45,46;,
  3;46,45,47;,
  3;46,47,48;,
  3;48,47,37;,
  3;48,37,38;,
  3;47,45,43;,
  3;47,43,41;,
  3;47,41,39;,
  3;47,39,37;,
  3;38,40,42;,
  3;38,42,44;,
  3;38,44,46;,
  3;38,46,48;,
  3;50,49,51;,
  3;50,51,52;,
  3;52,51,53;,
  3;52,53,54;,
  3;54,53,55;,
  3;54,55,56;,
  3;56,55,57;,
  3;56,57,58;,
  3;58,57,59;,
  3;58,59,60;,
  3;60,59,49;,
  3;60,49,50;,
  3;59,57,55;,
  3;59,55,53;,
  3;59,53,51;,
  3;59,51,49;,
  3;50,52,54;,
  3;50,54,56;,
  3;50,56,58;,
  3;50,58,60;,
  3;62,61,63;,
  3;62,63,64;,
  3;64,63,65;,
  3;64,65,66;,
  3;66,65,67;,
  3;66,67,68;,
  3;68,67,69;,
  3;68,69,70;,
  3;70,69,71;,
  3;70,71,72;,
  3;72,71,61;,
  3;72,61,62;,
  3;71,69,67;,
  3;71,67,65;,
  3;71,65,63;,
  3;71,63,61;,
  3;62,64,66;,
  3;62,66,68;,
  3;62,68,70;,
  3;62,70,72;,
  3;74,73,75;,
  3;74,75,76;,
  3;76,75,77;,
  3;76,77,78;,
  3;78,77,79;,
  3;78,79,80;,
  3;80,79,81;,
  3;80,81,82;,
  3;82,81,83;,
  3;82,83,84;,
  3;84,83,73;,
  3;84,73,74;,
  3;83,81,79;,
  3;83,79,77;,
  3;83,77,75;,
  3;83,75,73;,
  3;74,76,78;,
  3;74,78,80;,
  3;74,80,82;,
  3;74,82,84;,
  3;86,85,87;,
  3;86,87,88;,
  3;88,87,89;,
  3;88,89,90;,
  3;90,89,91;,
  3;90,91,92;,
  3;92,91,93;,
  3;92,93,94;,
  3;94,93,95;,
  3;94,95,96;,
  3;96,95,85;,
  3;96,85,86;,
  3;95,93,91;,
  3;95,91,89;,
  3;95,89,87;,
  3;95,87,85;,
  3;86,88,90;,
  3;86,90,92;,
  3;86,92,94;,
  3;86,94,96;,
  3;98,97,99;,
  3;98,99,100;,
  3;100,99,101;,
  3;100,101,102;,
  3;102,101,103;,
  3;102,103,104;,
  3;104,103,105;,
  3;104,105,106;,
  3;106,105,107;,
  3;106,107,108;,
  3;108,107,97;,
  3;108,97,98;,
  3;107,105,103;,
  3;107,103,101;,
  3;107,101,99;,
  3;107,99,97;,
  3;98,100,102;,
  3;98,102,104;,
  3;98,104,106;,
  3;98,106,108;,
  3;110,109,111;,
  3;110,111,112;,
  3;112,111,113;,
  3;112,113,114;,
  3;114,113,115;,
  3;114,115,116;,
  3;116,115,117;,
  3;116,117,118;,
  3;118,117,119;,
  3;118,119,120;,
  3;120,119,109;,
  3;120,109,110;,
  3;119,117,115;,
  3;119,115,113;,
  3;119,113,111;,
  3;119,111,109;,
  3;110,112,114;,
  3;110,114,116;,
  3;110,116,118;,
  3;110,118,120;,
  3;122,121,123;,
  3;122,123,124;,
  3;124,123,125;,
  3;124,125,126;,
  3;126,125,127;,
  3;126,127,128;,
  3;128,127,129;,
  3;128,129,130;,
  3;130,129,131;,
  3;130,131,132;,
  3;132,131,121;,
  3;132,121,122;,
  3;131,129,127;,
  3;131,127,125;,
  3;131,125,123;,
  3;131,123,121;,
  3;122,124,126;,
  3;122,126,128;,
  3;122,128,130;,
  3;122,130,132;,
  3;134,133,135;,
  3;134,135,136;,
  3;136,135,137;,
  3;136,137,138;,
  3;138,137,139;,
  3;138,139,140;,
  3;140,139,141;,
  3;140,141,142;,
  3;142,141,143;,
  3;142,143,144;,
  3;144,143,133;,
  3;144,133,134;,
  3;143,141,139;,
  3;143,139,137;,
  3;143,137,135;,
  3;143,135,133;,
  3;134,136,138;,
  3;134,138,140;,
  3;134,140,142;,
  3;134,142,144;,
  3;146,145,147;,
  3;146,147,148;,
  3;148,147,149;,
  3;148,149,150;,
  3;150,149,151;,
  3;150,151,152;,
  3;152,151,153;,
  3;152,153,154;,
  3;154,153,155;,
  3;154,155,156;,
  3;156,155,145;,
  3;156,145,146;,
  3;155,153,151;,
  3;155,151,149;,
  3;155,149,147;,
  3;155,147,145;,
  3;146,148,150;,
  3;146,150,152;,
  3;146,152,154;,
  3;146,154,156;,
  3;158,157,159;,
  3;158,159,160;,
  3;160,159,161;,
  3;160,161,162;,
  3;162,161,163;,
  3;162,163,164;,
  3;164,163,165;,
  3;164,165,166;,
  3;166,165,167;,
  3;166,167,168;,
  3;168,167,157;,
  3;168,157,158;,
  3;167,165,163;,
  3;167,163,161;,
  3;167,161,159;,
  3;167,159,157;,
  3;158,160,162;,
  3;158,162,164;,
  3;158,164,166;,
  3;158,166,168;;
 }
}