xof 0303txt 0032
template Vector {
 <3d82ab5e-62da-11cf-ab39-0020af71e433>
 FLOAT x;
 FLOAT y;
 FLOAT z;
}

template MeshFace {
 <3d82ab5f-62da-11cf-ab39-0020af71e433>
 DWORD nFaceVertexIndices;
 array DWORD faceVertexIndices[nFaceVertexIndices];
}

template Mesh {
 <3d82ab44-62da-11cf-ab39-0020af71e433>
 DWORD nVertices;
 array Vector vertices[nVertices];
 DWORD nFaces;
 array MeshFace faces[nFaces];
 [...]
}

template ColorRGBA {
 <35ff44e0-6c7c-11cf-8f52-0040333594a3>
 FLOAT red;
 FLOAT green;
 FLOAT blue;
 FLOAT alpha;
}

template ColorRGB {
 <d3e16e81-7835-11cf-8f52-0040333594a3>
 FLOAT red;
 FLOAT green;
 FLOAT blue;
}

template Material {
 <3d82ab4d-62da-11cf-ab39-0020af71e433>
 ColorRGBA faceColor;
 FLOAT power;
 ColorRGB specularColor;
 ColorRGB emissiveColor;
 [...]
}

template MeshMaterialList {
 <f6f23f42-7686-11cf-8f52-0040333594a3>
 DWORD nMaterials;
 DWORD nFaceIndexes;
 array DWORD faceIndexes[nFaceIndexes];
 [Material <3d82ab4d-62da-11cf-ab39-0020af71e433>]
}

template TextureFilename {
 <a42790e1-7810-11cf-8f52-0040333594a3>
 STRING filename;
}

template Coords2d {
 <f6f23f44-7686-11cf-8f52-0040333594a3>
 FLOAT u;
 FLOAT v;
}

template MeshTextureCoords {
 <f6f23f40-7686-11cf-8f52-0040333594a3>
 DWORD nTextureCoords;
 array Coords2d textureCoords[nTextureCoords];
}

template MeshNormals {
 <f6f23f43-7686-11cf-8f52-0040333594a3>
 DWORD nNormals;
 array Vector normals[nNormals];
 DWORD nFaceNormals;
 array MeshFace faceNormals[nFaceNormals];
}


Mesh  {
 54;
 -0.400000;-0.450000;-3.000000;,
 -0.400000;-0.010000;-3.000000;,
 -0.400000;-0.010000;3.000000;,
 0.400000;-0.450000;-3.000000;,
 0.400000;-0.010000;-3.000000;,
 0.400000;-0.010000;3.000000;,
 -1.000000;-0.450000;-3.000000;,
 -1.000000;-0.010000;-3.000000;,
 -1.000000;-0.010000;3.000000;,
 -0.530000;-0.450000;-3.000000;,
 -0.530000;-0.010000;-3.000000;,
 -0.530000;-0.010000;3.000000;,
 -3.000000;-0.450000;-3.000000;,
 -3.000000;-0.020000;-3.000000;,
 -3.000000;-0.020000;3.000000;,
 -1.000000;-0.450000;-3.000000;,
 -1.000000;-0.010000;-3.000000;,
 -1.000000;-0.010000;3.000000;,
 0.530000;-0.450000;-3.000000;,
 0.530000;-0.010000;-3.000000;,
 0.530000;-0.010000;3.000000;,
 1.000000;-0.450000;-3.000000;,
 1.000000;-0.010000;-3.000000;,
 1.000000;-0.010000;3.000000;,
 1.000000;-0.450000;-3.000000;,
 1.000000;-0.010000;-3.000000;,
 1.000000;-0.010000;3.000000;,
 3.000000;-0.450000;-3.000000;,
 3.000000;-0.020000;-3.000000;,
 3.000000;-0.020000;3.000000;,
 -0.351960;-0.145000;-3.203200;,
 -0.460000;-0.145000;-3.030000;,
 -0.460000;-0.145000;3.030000;,
 -0.351960;-0.145000;3.203200;,
 -0.351960;-0.010000;-3.203200;,
 -0.460000;-0.010000;-3.030000;,
 -0.460000;-0.010000;3.030000;,
 -0.351960;-0.010000;3.203200;,
 -0.300000;-0.010000;-3.173200;,
 -0.400000;-0.010000;-3.000000;,
 -0.400000;-0.010000;3.000000;,
 -0.300000;-0.010000;3.173200;,
 0.351960;-0.145000;-3.203200;,
 0.460000;-0.145000;-3.030000;,
 0.460000;-0.145000;3.030000;,
 0.351960;-0.145000;3.203200;,
 0.351960;-0.010000;-3.203200;,
 0.460000;-0.010000;-3.030000;,
 0.460000;-0.010000;3.030000;,
 0.351960;-0.010000;3.203200;,
 0.300000;-0.010000;-3.173200;,
 0.400000;-0.010000;-3.000000;,
 0.400000;-0.010000;3.000000;,
 0.300000;-0.010000;3.173200;;
 44;
 3;0,1,4;,
 3;0,4,3;,
 3;1,2,5;,
 3;1,5,4;,
 3;6,7,10;,
 3;6,10,9;,
 3;7,8,11;,
 3;7,11,10;,
 3;12,13,16;,
 3;12,16,15;,
 3;13,14,17;,
 3;13,17,16;,
 3;18,19,22;,
 3;18,22,21;,
 3;19,20,23;,
 3;19,23,22;,
 3;24,25,28;,
 3;24,28,27;,
 3;25,26,29;,
 3;25,29,28;,
 3;30,31,35;,
 3;30,35,34;,
 3;31,32,36;,
 3;31,36,35;,
 3;32,33,37;,
 3;32,37,36;,
 3;34,35,39;,
 3;34,39,38;,
 3;35,36,40;,
 3;35,40,39;,
 3;36,37,41;,
 3;36,41,40;,
 3;46,47,43;,
 3;46,43,42;,
 3;47,48,44;,
 3;47,44,43;,
 3;48,49,45;,
 3;48,45,44;,
 3;50,51,47;,
 3;50,47,46;,
 3;51,52,48;,
 3;51,48,47;,
 3;52,53,49;,
 3;52,49,48;;

 MeshMaterialList  {
  7;
  44;
  0,
  0,
  0,
  0,
  1,
  1,
  1,
  1,
  2,
  2,
  2,
  2,
  3,
  3,
  3,
  3,
  4,
  4,
  4,
  4,
  5,
  5,
  5,
  5,
  5,
  5,
  5,
  5,
  5,
  5,
  5,
  5,
  6,
  6,
  6,
  6,
  6,
  6,
  6,
  6,
  6,
  6,
  6,
  6;

  Material  {
   0.588235;0.588235;0.588235;1.000000;;
   0.000000;
   0.000000;0.000000;0.000000;;
   0.000000;0.000000;0.000000;;

   TextureFilename  {
    "Plate2.png";
   }
  }

  Material  {
   0.588235;0.588235;0.588235;1.000000;;
   0.000000;
   0.000000;0.000000;0.000000;;
   0.000000;0.000000;0.000000;;

   TextureFilename  {
    "Plate2.png";
   }
  }

  Material  {
   1.000000;1.000000;1.000000;1.000000;;
   0.000000;
   0.000000;0.000000;0.000000;;
   0.000000;0.000000;0.000000;;

   TextureFilename  {
    "FormC.png";
   }
  }

  Material  {
   0.588235;0.588235;0.588235;1.000000;;
   0.000000;
   0.000000;0.000000;0.000000;;
   0.000000;0.000000;0.000000;;

   TextureFilename  {
    "Plate2.png";
   }
  }

  Material  {
   1.000000;1.000000;1.000000;1.000000;;
   0.000000;
   0.000000;0.000000;0.000000;;
   0.000000;0.000000;0.000000;;

   TextureFilename  {
    "FormC.png";
   }
  }

  Material  {
   1.000000;1.000000;1.000000;1.000000;;
   0.000000;
   0.000000;0.000000;0.000000;;
   0.000000;0.000000;0.000000;;

   TextureFilename  {
    "rail1.png";
   }
  }

  Material  {
   1.000000;1.000000;1.000000;1.000000;;
   0.000000;
   0.000000;0.000000;0.000000;;
   0.000000;0.000000;0.000000;;

   TextureFilename  {
    "rail1.png";
   }
  }
 }

 MeshTextureCoords  {
  54;
  0.000000;1.000000;,
  0.000000;0.900000;,
  0.000000;0.500000;,
  1.000000;1.000000;,
  1.000000;0.900000;,
  1.000000;0.500000;,
  1.000000;1.000000;,
  1.000000;0.900000;,
  1.000000;0.500000;,
  0.000000;1.000000;,
  0.000000;0.900000;,
  0.000000;0.500000;,
  1.000000;1.000000;,
  1.000000;0.900000;,
  1.000000;0.500000;,
  0.000000;1.000000;,
  0.000000;0.900000;,
  0.000000;0.500000;,
  1.000000;1.000000;,
  1.000000;0.900000;,
  1.000000;0.500000;,
  0.000000;1.000000;,
  0.000000;0.900000;,
  0.000000;0.500000;,
  1.000000;1.000000;,
  1.000000;0.900000;,
  1.000000;0.500000;,
  0.000000;1.000000;,
  0.000000;0.900000;,
  0.000000;0.500000;,
  0.000000;0.000000;,
  0.000000;0.100000;,
  0.000000;0.400000;,
  0.000000;0.500000;,
  0.375000;0.000000;,
  0.375000;0.100000;,
  0.375000;0.400000;,
  0.375000;0.500000;,
  0.625000;0.000000;,
  0.625000;0.100000;,
  0.625000;0.400000;,
  0.625000;0.500000;,
  0.000000;0.000000;,
  0.000000;0.100000;,
  0.000000;0.400000;,
  0.000000;0.500000;,
  0.375000;0.000000;,
  0.375000;0.100000;,
  0.375000;0.400000;,
  0.375000;0.500000;,
  0.625000;0.000000;,
  0.625000;0.100000;,
  0.625000;0.400000;,
  0.625000;0.500000;;
 }

 MeshNormals  {
  44;
  0.000000;0.000000;-1.000000;,
  0.000000;0.000000;-1.000000;,
  0.000000;1.000000;0.000000;,
  0.000000;1.000000;0.000000;,
  0.000000;0.000000;-1.000000;,
  0.000000;0.000000;-1.000000;,
  0.000000;1.000000;0.000000;,
  0.000000;1.000000;0.000000;,
  0.000000;0.000000;-1.000000;,
  0.000000;0.000000;-1.000000;,
  -0.005000;0.999987;0.000000;,
  -0.005000;0.999987;0.000000;,
  0.000000;0.000000;-1.000000;,
  0.000000;0.000000;-1.000000;,
  0.000000;1.000000;0.000000;,
  0.000000;1.000000;0.000000;,
  0.000000;0.000000;-1.000000;,
  0.000000;0.000000;-1.000000;,
  0.005000;0.999987;0.000000;,
  0.005000;0.999987;0.000000;,
  -0.848460;0.000000;-0.529259;,
  -0.848460;0.000000;-0.529259;,
  -1.000000;0.000000;0.000000;,
  -1.000000;0.000000;0.000000;,
  -0.848460;0.000000;0.529259;,
  -0.848460;0.000000;0.529259;,
  0.000000;1.000000;0.000000;,
  0.000000;1.000000;0.000000;,
  0.000000;1.000000;0.000000;,
  0.000000;1.000000;0.000000;,
  0.000000;1.000000;0.000000;,
  0.000000;1.000000;0.000000;,
  0.848460;0.000000;-0.529259;,
  0.848460;0.000000;-0.529259;,
  1.000000;0.000000;0.000000;,
  1.000000;0.000000;0.000000;,
  0.848460;0.000000;0.529259;,
  0.848460;0.000000;0.529259;,
  0.000000;1.000000;0.000000;,
  0.000000;1.000000;0.000000;,
  0.000000;1.000000;0.000000;,
  0.000000;1.000000;0.000000;,
  0.000000;1.000000;0.000000;,
  0.000000;1.000000;0.000000;;
  44;
  3;0,0,0;,
  3;1,1,1;,
  3;2,2,2;,
  3;3,3,3;,
  3;4,4,4;,
  3;5,5,5;,
  3;6,6,6;,
  3;7,7,7;,
  3;8,8,8;,
  3;9,9,9;,
  3;10,10,10;,
  3;11,11,11;,
  3;12,12,12;,
  3;13,13,13;,
  3;14,14,14;,
  3;15,15,15;,
  3;16,16,16;,
  3;17,17,17;,
  3;18,18,18;,
  3;19,19,19;,
  3;20,20,20;,
  3;21,21,21;,
  3;22,22,22;,
  3;23,23,23;,
  3;24,24,24;,
  3;25,25,25;,
  3;26,26,26;,
  3;27,27,27;,
  3;28,28,28;,
  3;29,29,29;,
  3;30,30,30;,
  3;31,31,31;,
  3;32,32,32;,
  3;33,33,33;,
  3;34,34,34;,
  3;35,35,35;,
  3;36,36,36;,
  3;37,37,37;,
  3;38,38,38;,
  3;39,39,39;,
  3;40,40,40;,
  3;41,41,41;,
  3;42,42,42;,
  3;43,43,43;;
 }
}