xof 0303txt 0032
template Vector {
 <3d82ab5e-62da-11cf-ab39-0020af71e433>
 FLOAT x;
 FLOAT y;
 FLOAT z;
}

template MeshFace {
 <3d82ab5f-62da-11cf-ab39-0020af71e433>
 DWORD nFaceVertexIndices;
 array DWORD faceVertexIndices[nFaceVertexIndices];
}

template Mesh {
 <3d82ab44-62da-11cf-ab39-0020af71e433>
 DWORD nVertices;
 array Vector vertices[nVertices];
 DWORD nFaces;
 array MeshFace faces[nFaces];
 [...]
}

template ColorRGBA {
 <35ff44e0-6c7c-11cf-8f52-0040333594a3>
 FLOAT red;
 FLOAT green;
 FLOAT blue;
 FLOAT alpha;
}

template ColorRGB {
 <d3e16e81-7835-11cf-8f52-0040333594a3>
 FLOAT red;
 FLOAT green;
 FLOAT blue;
}

template Material {
 <3d82ab4d-62da-11cf-ab39-0020af71e433>
 ColorRGBA faceColor;
 FLOAT power;
 ColorRGB specularColor;
 ColorRGB emissiveColor;
 [...]
}

template MeshMaterialList {
 <f6f23f42-7686-11cf-8f52-0040333594a3>
 DWORD nMaterials;
 DWORD nFaceIndexes;
 array DWORD faceIndexes[nFaceIndexes];
 [Material <3d82ab4d-62da-11cf-ab39-0020af71e433>]
}

template TextureFilename {
 <a42790e1-7810-11cf-8f52-0040333594a3>
 STRING filename;
}

template Coords2d {
 <f6f23f44-7686-11cf-8f52-0040333594a3>
 FLOAT u;
 FLOAT v;
}

template MeshTextureCoords {
 <f6f23f40-7686-11cf-8f52-0040333594a3>
 DWORD nTextureCoords;
 array Coords2d textureCoords[nTextureCoords];
}

template MeshNormals {
 <f6f23f43-7686-11cf-8f52-0040333594a3>
 DWORD nNormals;
 array Vector normals[nNormals];
 DWORD nFaceNormals;
 array MeshFace faceNormals[nFaceNormals];
}


Mesh  {
 176;
 -3.300000;0.400000;-1.700000;,
 -2.900000;0.400000;-1.700000;,
 -2.900000;0.400000;-1.500000;,
 -3.300000;0.900000;-1.700000;,
 -2.900000;0.900000;-1.700000;,
 -2.900000;0.950000;-1.500000;,
 -3.300000;0.950000;-1.500000;,
 -2.900000;0.400000;-1.700000;,
 -2.900000;1.000000;-1.700000;,
 -2.900000;1.000000;-1.300000;,
 -2.750000;0.400000;-1.700000;,
 -2.750000;1.000000;-1.700000;,
 -2.750000;1.000000;-1.300000;,
 -2.750000;0.400000;-1.300000;,
 -2.850000;0.600000;-1.550000;,
 -2.850000;-0.400000;-1.550000;,
 -2.950000;-0.400000;-1.550000;,
 -2.950000;0.600000;-1.550000;,
 -2.850000;0.600000;-1.450000;,
 -2.850000;-0.400000;-1.450000;,
 -2.950000;-0.400000;-1.450000;,
 -2.950000;0.600000;-1.450000;,
 -2.550000;0.000000;-1.850000;,
 -2.550000;-0.800000;-1.850000;,
 -3.250000;-0.800000;-1.850000;,
 -3.250000;0.000000;-1.850000;,
 -2.550000;0.000000;-1.150000;,
 -2.550000;-0.800000;-1.150000;,
 -3.250000;-0.800000;-1.150000;,
 -3.250000;0.000000;-1.150000;,
 -2.760000;0.750000;-1.300000;,
 -2.810000;0.800000;-1.300000;,
 -2.810000;0.800000;1.300000;,
 -2.760000;0.750000;1.300000;,
 -2.760000;0.600000;-0.300000;,
 -2.760000;0.760000;-0.300000;,
 -2.760000;0.760000;1.000000;,
 -2.760000;0.600000;1.000000;,
 -2.700000;0.000000;1.900000;,
 -2.700000;3.400000;1.900000;,
 -2.600000;3.400000;2.000000;,
 -2.600000;0.000000;2.000000;,
 -2.300000;0.150000;1.600000;,
 -2.300000;-0.650000;1.600000;,
 -3.000000;-0.650000;1.600000;,
 -3.000000;0.150000;1.600000;,
 -2.300000;0.150000;2.300000;,
 -2.300000;-0.650000;2.300000;,
 -3.000000;-0.650000;2.300000;,
 -3.000000;0.150000;2.300000;,
 -2.605000;2.450000;1.500000;,
 -2.595000;2.450000;1.500000;,
 -2.605000;2.416506;1.625000;,
 -2.595000;2.416506;1.625000;,
 -2.605000;2.325000;1.716506;,
 -2.595000;2.325000;1.716506;,
 -2.605000;2.200000;1.750000;,
 -2.595000;2.200000;1.750000;,
 -2.605000;2.075000;1.716506;,
 -2.595000;2.075000;1.716506;,
 -2.605000;1.983494;1.625000;,
 -2.595000;1.983494;1.625000;,
 -2.605000;1.950000;1.500000;,
 -2.595000;1.950000;1.500000;,
 -2.605000;1.983494;1.375000;,
 -2.595000;1.983494;1.375000;,
 -2.605000;2.075000;1.283494;,
 -2.595000;2.075000;1.283494;,
 -2.605000;2.200000;1.250000;,
 -2.595000;2.200000;1.250000;,
 -2.605000;2.325000;1.283494;,
 -2.595000;2.325000;1.283494;,
 -2.605000;2.416506;1.375000;,
 -2.595000;2.416506;1.375000;,
 -2.600000;2.380000;1.500000;,
 -2.420000;2.380000;1.500000;,
 -2.600000;2.290000;1.655884;,
 -2.420000;2.290000;1.655884;,
 -2.600000;2.110000;1.655884;,
 -2.420000;2.110000;1.655884;,
 -2.600000;2.020000;1.500000;,
 -2.420000;2.020000;1.500000;,
 -2.600000;2.110000;1.344115;,
 -2.420000;2.110000;1.344115;,
 -2.600000;2.290000;1.344115;,
 -2.420000;2.290000;1.344115;,
 -2.605000;2.450000;2.400000;,
 -2.595000;2.450000;2.400000;,
 -2.605000;2.416506;2.525000;,
 -2.595000;2.416506;2.525000;,
 -2.605000;2.325000;2.616506;,
 -2.595000;2.325000;2.616506;,
 -2.605000;2.200000;2.650000;,
 -2.595000;2.200000;2.650000;,
 -2.605000;2.075000;2.616506;,
 -2.595000;2.075000;2.616506;,
 -2.605000;1.983494;2.525000;,
 -2.595000;1.983494;2.525000;,
 -2.605000;1.950000;2.400000;,
 -2.595000;1.950000;2.400000;,
 -2.605000;1.983494;2.275000;,
 -2.595000;1.983494;2.275000;,
 -2.605000;2.075000;2.183494;,
 -2.595000;2.075000;2.183494;,
 -2.605000;2.200000;2.150000;,
 -2.595000;2.200000;2.150000;,
 -2.605000;2.325000;2.183494;,
 -2.595000;2.325000;2.183494;,
 -2.605000;2.416506;2.275000;,
 -2.595000;2.416506;2.275000;,
 -2.600000;2.380000;2.400000;,
 -2.420000;2.380000;2.400000;,
 -2.600000;2.290000;2.555884;,
 -2.420000;2.290000;2.555884;,
 -2.600000;2.110000;2.555884;,
 -2.420000;2.110000;2.555884;,
 -2.600000;2.020000;2.400000;,
 -2.420000;2.020000;2.400000;,
 -2.600000;2.110000;2.244115;,
 -2.420000;2.110000;2.244115;,
 -2.600000;2.290000;2.244115;,
 -2.420000;2.290000;2.244115;,
 -2.600000;1.850000;1.650000;,
 -2.600000;1.450000;1.650000;,
 -2.800000;1.450000;1.650000;,
 -2.800000;1.850000;1.650000;,
 -2.600000;1.850000;2.250000;,
 -2.600000;1.450000;2.250000;,
 -2.800000;1.450000;2.250000;,
 -2.800000;1.850000;2.250000;,
 -2.601000;2.500000;1.282000;,
 -2.601000;2.697000;1.144000;,
 -2.601000;3.729000;2.618000;,
 -2.601000;3.532000;2.756000;,
 -2.600000;3.532000;1.144000;,
 -2.600000;3.729000;1.282000;,
 -2.600000;2.697000;2.756000;,
 -2.600000;2.500000;2.618000;,
 -2.500000;3.480000;1.870000;,
 -2.500000;3.320000;1.870000;,
 -2.700000;3.320000;1.870000;,
 -2.700000;3.480000;1.870000;,
 -2.500000;3.480000;2.030000;,
 -2.500000;3.320000;2.030000;,
 -2.700000;3.320000;2.030000;,
 -2.700000;3.480000;2.030000;,
 -3.000000;-0.020000;-1.150000;,
 -3.000000;0.100000;-1.150000;,
 -3.000000;0.100000;-1.000000;,
 -1.300000;-0.020000;-1.150000;,
 -1.400000;0.100000;-1.150000;,
 -1.400000;0.100000;-1.000000;,
 -1.300000;-0.020000;-1.000000;,
 -1.300000;-0.020000;-1.150000;,
 -3.000000;-0.450000;-1.150000;,
 -3.000000;-0.020000;-1.150000;,
 -1.300000;-0.450000;-1.150000;,
 -1.300000;-0.020000;-1.150000;,
 -1.300000;-0.450000;-1.000000;,
 -1.300000;-0.020000;-1.000000;,
 -3.000000;-0.020000;1.000000;,
 -3.000000;0.100000;1.000000;,
 -3.000000;0.100000;1.150000;,
 -1.300000;-0.020000;1.000000;,
 -1.400000;0.100000;1.000000;,
 -1.400000;0.100000;1.150000;,
 -1.300000;-0.020000;1.150000;,
 -1.300000;-0.020000;1.000000;,
 -1.300000;-0.450000;1.000000;,
 -1.300000;-0.020000;1.000000;,
 -1.300000;-0.450000;1.150000;,
 -1.300000;-0.020000;1.150000;,
 -3.300000;-0.550000;1.000000;,
 -3.300000;2.500000;1.000000;,
 -3.000000;2.500000;1.300000;,
 -3.000000;-0.550000;1.300000;;
 228;
 3;0,3,4;,
 3;0,4,1;,
 3;3,6,5;,
 3;3,5,4;,
 3;7,8,11;,
 3;7,11,10;,
 3;8,9,12;,
 3;8,12,11;,
 3;10,11,12;,
 3;10,12,13;,
 3;14,15,16;,
 3;14,16,17;,
 3;17,16,20;,
 3;17,20,21;,
 3;21,20,19;,
 3;21,19,18;,
 3;18,19,15;,
 3;18,15,14;,
 3;14,17,21;,
 3;14,21,18;,
 3;15,19,20;,
 3;15,20,16;,
 3;22,23,24;,
 3;22,24,25;,
 3;25,24,28;,
 3;25,28,29;,
 3;29,28,27;,
 3;29,27,26;,
 3;26,27,23;,
 3;26,23,22;,
 3;22,25,29;,
 3;22,29,26;,
 3;23,27,28;,
 3;23,28,24;,
 3;30,31,32;,
 3;30,32,33;,
 3;34,35,36;,
 3;34,36,37;,
 3;38,39,40;,
 3;38,40,41;,
 3;42,43,44;,
 3;42,44,45;,
 3;45,44,48;,
 3;45,48,49;,
 3;49,48,47;,
 3;49,47,46;,
 3;46,47,43;,
 3;46,43,42;,
 3;42,45,49;,
 3;42,49,46;,
 3;43,47,48;,
 3;43,48,44;,
 3;51,50,52;,
 3;51,52,53;,
 3;53,52,54;,
 3;53,54,55;,
 3;55,54,56;,
 3;55,56,57;,
 3;57,56,58;,
 3;57,58,59;,
 3;59,58,60;,
 3;59,60,61;,
 3;61,60,62;,
 3;61,62,63;,
 3;63,62,64;,
 3;63,64,65;,
 3;65,64,66;,
 3;65,66,67;,
 3;67,66,68;,
 3;67,68,69;,
 3;69,68,70;,
 3;69,70,71;,
 3;71,70,72;,
 3;71,72,73;,
 3;73,72,50;,
 3;73,50,51;,
 3;72,70,68;,
 3;72,68,66;,
 3;72,66,64;,
 3;72,64,62;,
 3;72,62,60;,
 3;72,60,58;,
 3;72,58,56;,
 3;72,56,54;,
 3;72,54,52;,
 3;72,52,50;,
 3;51,53,55;,
 3;51,55,57;,
 3;51,57,59;,
 3;51,59,61;,
 3;51,61,63;,
 3;51,63,65;,
 3;51,65,67;,
 3;51,67,69;,
 3;51,69,71;,
 3;51,71,73;,
 3;75,74,76;,
 3;75,76,77;,
 3;77,76,78;,
 3;77,78,79;,
 3;79,78,80;,
 3;79,80,81;,
 3;81,80,82;,
 3;81,82,83;,
 3;83,82,84;,
 3;83,84,85;,
 3;85,84,74;,
 3;85,74,75;,
 3;84,82,80;,
 3;84,80,78;,
 3;84,78,76;,
 3;84,76,74;,
 3;75,77,79;,
 3;75,79,81;,
 3;75,81,83;,
 3;75,83,85;,
 3;87,86,88;,
 3;87,88,89;,
 3;89,88,90;,
 3;89,90,91;,
 3;91,90,92;,
 3;91,92,93;,
 3;93,92,94;,
 3;93,94,95;,
 3;95,94,96;,
 3;95,96,97;,
 3;97,96,98;,
 3;97,98,99;,
 3;99,98,100;,
 3;99,100,101;,
 3;101,100,102;,
 3;101,102,103;,
 3;103,102,104;,
 3;103,104,105;,
 3;105,104,106;,
 3;105,106,107;,
 3;107,106,108;,
 3;107,108,109;,
 3;109,108,86;,
 3;109,86,87;,
 3;108,106,104;,
 3;108,104,102;,
 3;108,102,100;,
 3;108,100,98;,
 3;108,98,96;,
 3;108,96,94;,
 3;108,94,92;,
 3;108,92,90;,
 3;108,90,88;,
 3;108,88,86;,
 3;87,89,91;,
 3;87,91,93;,
 3;87,93,95;,
 3;87,95,97;,
 3;87,97,99;,
 3;87,99,101;,
 3;87,101,103;,
 3;87,103,105;,
 3;87,105,107;,
 3;87,107,109;,
 3;111,110,112;,
 3;111,112,113;,
 3;113,112,114;,
 3;113,114,115;,
 3;115,114,116;,
 3;115,116,117;,
 3;117,116,118;,
 3;117,118,119;,
 3;119,118,120;,
 3;119,120,121;,
 3;121,120,110;,
 3;121,110,111;,
 3;120,118,116;,
 3;120,116,114;,
 3;120,114,112;,
 3;120,112,110;,
 3;111,113,115;,
 3;111,115,117;,
 3;111,117,119;,
 3;111,119,121;,
 3;122,123,124;,
 3;122,124,125;,
 3;125,124,128;,
 3;125,128,129;,
 3;129,128,127;,
 3;129,127,126;,
 3;126,127,123;,
 3;126,123,122;,
 3;122,125,129;,
 3;122,129,126;,
 3;123,127,128;,
 3;123,128,124;,
 3;130,131,132;,
 3;130,132,133;,
 3;134,135,136;,
 3;134,136,137;,
 3;138,139,140;,
 3;138,140,141;,
 3;141,140,144;,
 3;141,144,145;,
 3;145,144,143;,
 3;145,143,142;,
 3;142,143,139;,
 3;142,139,138;,
 3;138,141,145;,
 3;138,145,142;,
 3;139,143,144;,
 3;139,144,140;,
 3;146,147,150;,
 3;146,150,149;,
 3;147,148,151;,
 3;147,151,150;,
 3;150,151,152;,
 3;150,152,153;,
 3;154,155,157;,
 3;154,157,156;,
 3;156,157,159;,
 3;156,159,158;,
 3;160,161,164;,
 3;160,164,163;,
 3;161,162,165;,
 3;161,165,164;,
 3;164,165,166;,
 3;164,166,167;,
 3;168,169,171;,
 3;168,171,170;,
 3;172,173,174;,
 3;172,174,175;;

 MeshMaterialList  {
  21;
  228;
  0,
  0,
  0,
  0,
  1,
  1,
  1,
  1,
  1,
  1,
  2,
  2,
  2,
  2,
  2,
  2,
  2,
  2,
  2,
  2,
  2,
  2,
  3,
  3,
  3,
  3,
  3,
  3,
  3,
  3,
  3,
  3,
  3,
  3,
  4,
  4,
  5,
  5,
  6,
  6,
  7,
  7,
  7,
  7,
  7,
  7,
  7,
  7,
  7,
  7,
  7,
  7,
  8,
  8,
  8,
  8,
  8,
  8,
  8,
  8,
  8,
  8,
  8,
  8,
  8,
  8,
  8,
  8,
  8,
  8,
  8,
  8,
  8,
  8,
  8,
  8,
  8,
  8,
  8,
  8,
  8,
  8,
  8,
  8,
  8,
  8,
  8,
  8,
  8,
  8,
  8,
  8,
  8,
  8,
  8,
  8,
  9,
  9,
  9,
  9,
  9,
  9,
  9,
  9,
  9,
  9,
  9,
  9,
  9,
  9,
  9,
  9,
  9,
  9,
  9,
  9,
  10,
  10,
  10,
  10,
  10,
  10,
  10,
  10,
  10,
  10,
  10,
  10,
  10,
  10,
  10,
  10,
  10,
  10,
  10,
  10,
  10,
  10,
  10,
  10,
  10,
  10,
  10,
  10,
  10,
  10,
  10,
  10,
  10,
  10,
  10,
  10,
  10,
  10,
  10,
  10,
  10,
  10,
  10,
  10,
  11,
  11,
  11,
  11,
  11,
  11,
  11,
  11,
  11,
  11,
  11,
  11,
  11,
  11,
  11,
  11,
  11,
  11,
  11,
  11,
  12,
  12,
  12,
  12,
  12,
  12,
  12,
  12,
  12,
  12,
  12,
  12,
  13,
  13,
  14,
  14,
  15,
  15,
  15,
  15,
  15,
  15,
  15,
  15,
  15,
  15,
  15,
  15,
  16,
  16,
  16,
  16,
  16,
  16,
  17,
  17,
  17,
  17,
  18,
  18,
  18,
  18,
  18,
  18,
  19,
  19,
  20,
  20;

  Material  {
   1.000000;1.000000;1.000000;1.000000;;
   0.000000;
   0.000000;0.000000;0.000000;;
   0.000000;0.000000;0.000000;;

   TextureFilename  {
    "Tiger1.png";
   }
  }

  Material  {
   1.000000;1.000000;1.000000;1.000000;;
   0.000000;
   0.000000;0.000000;0.000000;;
   0.000000;0.000000;0.000000;;

   TextureFilename  {
    "Tiger1.png";
   }
  }

  Material  {
   0.235294;0.235294;0.235294;1.000000;;
   0.000000;
   0.000000;0.000000;0.000000;;
   0.000000;0.000000;0.000000;;
  }

  Material  {
   1.000000;1.000000;1.000000;1.000000;;
   0.000000;
   0.000000;0.000000;0.000000;;
   0.000000;0.000000;0.000000;;

   TextureFilename  {
    "Conc1.png";
   }
  }

  Material  {
   0.627451;0.627451;0.627451;1.000000;;
   0.000000;
   0.000000;0.000000;0.000000;;
   0.000000;0.000000;0.000000;;

   TextureFilename  {
    "Tiger2.png";
   }
  }

  Material  {
   1.000000;1.000000;1.000000;1.000000;;
   0.000000;
   0.000000;0.000000;0.000000;;
   0.000000;0.000000;0.000000;;

   TextureFilename  {
    "Flag1.png";
   }
  }

  Material  {
   0.784314;0.784314;0.784314;1.000000;;
   0.000000;
   0.000000;0.000000;0.000000;;
   0.000000;0.000000;0.000000;;

   TextureFilename  {
    "Tiger3.png";
   }
  }

  Material  {
   1.000000;1.000000;1.000000;1.000000;;
   0.000000;
   0.000000;0.000000;0.000000;;
   0.000000;0.000000;0.000000;;

   TextureFilename  {
    "Conc1.png";
   }
  }

  Material  {
   0.156863;0.156863;0.156863;1.000000;;
   0.000000;
   0.000000;0.000000;0.000000;;
   0.000000;0.000000;0.000000;;
  }

  Material  {
   0.156863;0.156863;0.156863;1.000000;;
   0.000000;
   0.000000;0.000000;0.000000;;
   0.000000;0.000000;0.000000;;
  }

  Material  {
   0.156863;0.156863;0.156863;1.000000;;
   0.000000;
   0.000000;0.000000;0.000000;;
   0.000000;0.000000;0.000000;;
  }

  Material  {
   0.156863;0.156863;0.156863;1.000000;;
   0.000000;
   0.000000;0.000000;0.000000;;
   0.000000;0.000000;0.000000;;
  }

  Material  {
   0.156863;0.156863;0.156863;1.000000;;
   0.000000;
   0.000000;0.000000;0.000000;;
   0.000000;0.000000;0.000000;;
  }

  Material  {
   1.000000;1.000000;1.000000;1.000000;;
   0.000000;
   0.000000;0.000000;0.000000;;
   0.000000;0.000000;0.000000;;

   TextureFilename  {
    "Tiger4.png";
   }
  }

  Material  {
   1.000000;1.000000;1.000000;1.000000;;
   0.000000;
   0.000000;0.000000;0.000000;;
   0.000000;0.000000;0.000000;;

   TextureFilename  {
    "Tiger4.png";
   }
  }

  Material  {
   0.156863;0.156863;0.156863;1.000000;;
   0.000000;
   0.000000;0.000000;0.000000;;
   0.000000;0.000000;0.000000;;
  }

  Material  {
   1.000000;1.000000;1.000000;1.000000;;
   0.000000;
   0.000000;0.000000;0.000000;;
   0.000000;0.000000;0.000000;;

   TextureFilename  {
    "Tiger5.png";
   }
  }

  Material  {
   1.000000;1.000000;1.000000;1.000000;;
   0.000000;
   0.000000;0.000000;0.000000;;
   0.000000;0.000000;0.000000;;

   TextureFilename  {
    "Conc1.png";
   }
  }

  Material  {
   1.000000;1.000000;1.000000;1.000000;;
   0.000000;
   0.000000;0.000000;0.000000;;
   0.000000;0.000000;0.000000;;

   TextureFilename  {
    "Tiger5.png";
   }
  }

  Material  {
   1.000000;1.000000;1.000000;1.000000;;
   0.000000;
   0.000000;0.000000;0.000000;;
   0.000000;0.000000;0.000000;;

   TextureFilename  {
    "Conc1.png";
   }
  }

  Material  {
   1.000000;1.000000;1.000000;1.000000;;
   0.000000;
   0.000000;0.000000;0.000000;;
   0.000000;0.000000;0.000000;;

   TextureFilename  {
    "Flag2.png";
   }
  }
 }

 MeshTextureCoords  {
  176;
  1.000000;1.000000;,
  0.000000;1.000000;,
  1.000000;0.150000;,
  1.000000;0.150000;,
  0.000000;0.150000;,
  0.000000;0.000000;,
  1.000000;0.000000;,
  1.000000;1.000000;,
  1.000000;0.300000;,
  1.000000;0.100000;,
  0.800000;1.000000;,
  0.800000;0.200000;,
  0.200000;0.200000;,
  0.200000;1.000000;,
  0.000000;0.000000;,
  0.000000;0.000000;,
  0.000000;0.000000;,
  0.000000;0.000000;,
  0.000000;0.000000;,
  0.000000;0.000000;,
  0.000000;0.000000;,
  0.000000;0.000000;,
  0.500000;0.000000;,
  0.500000;1.000000;,
  0.000000;1.000000;,
  0.000000;0.000000;,
  0.000000;0.000000;,
  0.000000;1.000000;,
  0.500000;1.000000;,
  0.500000;0.000000;,
  0.000000;1.000000;,
  0.000000;0.000000;,
  1.000000;0.000000;,
  1.000000;1.000000;,
  1.000000;1.000000;,
  1.000000;0.000000;,
  0.000000;0.000000;,
  0.000000;1.000000;,
  0.000000;1.000000;,
  0.000000;0.000000;,
  1.000000;0.000000;,
  1.000000;1.000000;,
  0.500000;0.000000;,
  0.500000;1.000000;,
  0.000000;1.000000;,
  0.000000;0.000000;,
  0.000000;0.000000;,
  0.000000;1.000000;,
  0.500000;1.000000;,
  0.500000;0.000000;,
  0.000000;0.000000;,
  0.000000;0.000000;,
  0.000000;0.000000;,
  0.000000;0.000000;,
  0.000000;0.000000;,
  0.000000;0.000000;,
  0.000000;0.000000;,
  0.000000;0.000000;,
  0.000000;0.000000;,
  0.000000;0.000000;,
  0.000000;0.000000;,
  0.000000;0.000000;,
  0.000000;0.000000;,
  0.000000;0.000000;,
  0.000000;0.000000;,
  0.000000;0.000000;,
  0.000000;0.000000;,
  0.000000;0.000000;,
  0.000000;0.000000;,
  0.000000;0.000000;,
  0.000000;0.000000;,
  0.000000;0.000000;,
  0.000000;0.000000;,
  0.000000;0.000000;,
  0.000000;0.000000;,
  0.000000;0.000000;,
  0.000000;0.000000;,
  0.000000;0.000000;,
  0.000000;0.000000;,
  0.000000;0.000000;,
  0.000000;0.000000;,
  0.000000;0.000000;,
  0.000000;0.000000;,
  0.000000;0.000000;,
  0.000000;0.000000;,
  0.000000;0.000000;,
  0.000000;0.000000;,
  0.000000;0.000000;,
  0.000000;0.000000;,
  0.000000;0.000000;,
  0.000000;0.000000;,
  0.000000;0.000000;,
  0.000000;0.000000;,
  0.000000;0.000000;,
  0.000000;0.000000;,
  0.000000;0.000000;,
  0.000000;0.000000;,
  0.000000;0.000000;,
  0.000000;0.000000;,
  0.000000;0.000000;,
  0.000000;0.000000;,
  0.000000;0.000000;,
  0.000000;0.000000;,
  0.000000;0.000000;,
  0.000000;0.000000;,
  0.000000;0.000000;,
  0.000000;0.000000;,
  0.000000;0.000000;,
  0.000000;0.000000;,
  0.000000;0.000000;,
  0.000000;0.000000;,
  0.000000;0.000000;,
  0.000000;0.000000;,
  0.000000;0.000000;,
  0.000000;0.000000;,
  0.000000;0.000000;,
  0.000000;0.000000;,
  0.000000;0.000000;,
  0.000000;0.000000;,
  0.000000;0.000000;,
  0.000000;0.000000;,
  0.000000;0.000000;,
  0.000000;0.000000;,
  0.000000;0.000000;,
  0.000000;0.000000;,
  0.000000;0.000000;,
  0.000000;0.000000;,
  0.000000;0.000000;,
  0.000000;0.000000;,
  0.000000;0.000000;,
  0.000000;1.000000;,
  0.000000;0.000000;,
  1.000000;0.000000;,
  1.000000;1.000000;,
  0.000000;1.000000;,
  0.000000;0.000000;,
  1.000000;0.000000;,
  1.000000;1.000000;,
  0.000000;0.000000;,
  0.000000;0.000000;,
  0.000000;0.000000;,
  0.000000;0.000000;,
  0.000000;0.000000;,
  0.000000;0.000000;,
  0.000000;0.000000;,
  0.000000;0.000000;,
  0.000000;1.000000;,
  0.000000;0.250000;,
  0.000000;0.000000;,
  4.000000;1.000000;,
  3.764706;0.250000;,
  3.764706;0.000000;,
  4.000000;0.000000;,
  4.000000;0.250000;,
  0.000000;1.000000;,
  0.000000;0.000000;,
  0.918919;1.000000;,
  0.918919;0.000000;,
  1.000000;1.000000;,
  1.000000;0.000000;,
  0.000000;1.000000;,
  0.000000;0.250000;,
  0.000000;0.000000;,
  4.000000;1.000000;,
  3.764706;0.250000;,
  3.764706;0.000000;,
  4.000000;0.000000;,
  4.000000;0.250000;,
  0.918919;1.000000;,
  0.918919;0.000000;,
  1.000000;1.000000;,
  1.000000;0.000000;,
  1.000000;1.000000;,
  1.000000;0.000000;,
  0.000000;0.000000;,
  0.000000;1.000000;;
 }

 MeshNormals  {
  172;
  0.000000;0.000000;-1.000000;,
  0.000000;0.000000;-1.000000;,
  0.000000;0.970143;-0.242536;,
  0.000000;0.970143;-0.242536;,
  0.000000;0.000000;-1.000000;,
  0.000000;0.000000;-1.000000;,
  0.000000;1.000000;0.000000;,
  0.000000;1.000000;0.000000;,
  1.000000;0.000000;0.000000;,
  1.000000;0.000000;0.000000;,
  0.000000;0.000000;-1.000000;,
  0.000000;0.000000;-1.000000;,
  -1.000000;0.000000;0.000000;,
  -1.000000;0.000000;0.000000;,
  0.000000;0.000000;1.000000;,
  0.000000;0.000000;1.000000;,
  1.000000;0.000000;0.000000;,
  1.000000;0.000000;0.000000;,
  0.000000;1.000000;0.000000;,
  0.000000;1.000000;0.000000;,
  0.000000;-1.000000;0.000000;,
  0.000000;-1.000000;0.000000;,
  0.000000;0.000000;-1.000000;,
  0.000000;0.000000;-1.000000;,
  -1.000000;0.000000;0.000000;,
  -1.000000;0.000000;0.000000;,
  0.000000;0.000000;1.000000;,
  0.000000;0.000000;1.000000;,
  1.000000;0.000000;0.000000;,
  1.000000;0.000000;0.000000;,
  0.000000;1.000000;0.000000;,
  0.000000;1.000000;0.000000;,
  0.000000;-1.000000;0.000000;,
  0.000000;-1.000000;0.000000;,
  0.707107;0.707106;0.000000;,
  0.707107;0.707106;0.000000;,
  1.000000;0.000000;0.000000;,
  1.000000;0.000000;0.000000;,
  0.707106;0.000000;-0.707107;,
  0.707106;0.000000;-0.707107;,
  0.000000;0.000000;-1.000000;,
  0.000000;0.000000;-1.000000;,
  -1.000000;0.000000;0.000000;,
  -1.000000;0.000000;0.000000;,
  0.000000;0.000000;1.000000;,
  0.000000;0.000000;1.000000;,
  1.000000;0.000000;0.000000;,
  1.000000;0.000000;0.000000;,
  0.000000;1.000000;0.000000;,
  0.000000;1.000000;0.000000;,
  0.000000;-1.000000;0.000000;,
  0.000000;-1.000000;0.000000;,
  0.991445;0.000000;-0.130526;,
  1.000000;0.000000;-0.000000;,
  0.866025;0.000000;0.500000;,
  0.793353;0.000000;0.608761;,
  0.500000;0.000000;0.866025;,
  0.382683;0.000000;0.923880;,
  -0.000000;0.000000;1.000000;,
  -0.130526;0.000000;0.991445;,
  -0.500000;0.000000;0.866025;,
  -0.608761;0.000000;0.793353;,
  -0.866025;0.000000;0.500000;,
  -0.923880;0.000000;0.382683;,
  -1.000000;0.000000;-0.000000;,
  -0.991445;0.000000;-0.130526;,
  -0.866025;0.000000;-0.500000;,
  -0.793353;0.000000;-0.608761;,
  -0.500000;0.000000;-0.866025;,
  -0.382683;0.000000;-0.923880;,
  0.000000;0.000000;-1.000000;,
  0.130526;0.000000;-0.991445;,
  0.500000;0.000000;-0.866025;,
  0.608761;0.000000;-0.793353;,
  0.866025;0.000000;-0.500000;,
  0.923880;0.000000;-0.382683;,
  0.965926;0.000000;-0.258819;,
  1.000000;0.000000;0.000000;,
  0.500000;0.000000;0.866025;,
  0.258819;0.000000;0.965926;,
  -0.500000;0.000000;0.866025;,
  -0.707107;0.000000;0.707107;,
  -1.000000;0.000000;0.000000;,
  -0.965926;0.000000;-0.258819;,
  -0.500000;0.000000;-0.866025;,
  -0.258819;0.000000;-0.965926;,
  0.500000;0.000000;-0.866025;,
  0.707107;0.000000;-0.707107;,
  0.991445;0.000000;-0.130526;,
  1.000000;0.000000;-0.000000;,
  0.866025;0.000000;0.500000;,
  0.793353;0.000000;0.608761;,
  0.500000;0.000000;0.866025;,
  0.382683;0.000000;0.923880;,
  -0.000000;0.000000;1.000000;,
  -0.130526;0.000000;0.991445;,
  -0.500000;0.000000;0.866025;,
  -0.608761;0.000000;0.793353;,
  -0.866025;0.000000;0.500000;,
  -0.923880;0.000000;0.382683;,
  -1.000000;0.000000;-0.000000;,
  -0.991445;0.000000;-0.130526;,
  -0.866025;0.000000;-0.500000;,
  -0.793353;0.000000;-0.608761;,
  -0.500000;0.000000;-0.866025;,
  -0.382683;0.000000;-0.923880;,
  0.000000;0.000000;-1.000000;,
  0.130526;0.000000;-0.991445;,
  0.500000;0.000000;-0.866025;,
  0.608761;0.000000;-0.793353;,
  0.866025;0.000000;-0.500000;,
  0.923880;0.000000;-0.382683;,
  0.965926;0.000000;-0.258819;,
  1.000000;0.000000;0.000000;,
  0.500000;0.000000;0.866025;,
  0.258819;0.000000;0.965926;,
  -0.500000;0.000000;0.866025;,
  -0.707107;0.000000;0.707107;,
  -1.000000;0.000000;0.000000;,
  -0.965926;0.000000;-0.258819;,
  -0.500000;0.000000;-0.866025;,
  -0.258819;0.000000;-0.965926;,
  0.500000;0.000000;-0.866025;,
  0.707107;0.000000;-0.707107;,
  0.000000;0.000000;-1.000000;,
  0.000000;0.000000;-1.000000;,
  -1.000000;0.000000;0.000000;,
  -1.000000;0.000000;0.000000;,
  0.000000;0.000000;1.000000;,
  0.000000;0.000000;1.000000;,
  1.000000;0.000000;0.000000;,
  1.000000;0.000000;0.000000;,
  0.000000;1.000000;0.000000;,
  0.000000;1.000000;0.000000;,
  0.000000;-1.000000;0.000000;,
  0.000000;-1.000000;0.000000;,
  1.000000;0.000000;0.000000;,
  1.000000;0.000000;0.000000;,
  1.000000;0.000000;0.000000;,
  1.000000;0.000000;0.000000;,
  0.000000;0.000000;-1.000000;,
  0.000000;0.000000;-1.000000;,
  -1.000000;0.000000;0.000000;,
  -1.000000;0.000000;0.000000;,
  0.000000;0.000000;1.000000;,
  0.000000;0.000000;1.000000;,
  1.000000;0.000000;0.000000;,
  1.000000;0.000000;0.000000;,
  0.000000;1.000000;0.000000;,
  0.000000;1.000000;0.000000;,
  0.000000;-1.000000;0.000000;,
  0.000000;-1.000000;0.000000;,
  0.000000;0.000000;-1.000000;,
  0.000000;0.000000;-1.000000;,
  0.000000;1.000000;0.000000;,
  0.000000;1.000000;0.000000;,
  0.768221;0.640185;0.000000;,
  0.768221;0.640185;0.000000;,
  0.000000;0.000000;-1.000000;,
  0.000000;0.000000;-1.000000;,
  1.000000;0.000000;0.000000;,
  1.000000;0.000000;0.000000;,
  0.000000;0.000000;-1.000000;,
  0.000000;0.000000;-1.000000;,
  0.000000;1.000000;0.000000;,
  0.000000;1.000000;0.000000;,
  0.768221;0.640185;0.000000;,
  0.768221;0.640185;0.000000;,
  1.000000;0.000000;0.000000;,
  1.000000;0.000000;0.000000;,
  0.707107;0.000000;-0.707107;,
  0.707107;0.000000;-0.707107;;
  228;
  3;0,0,0;,
  3;1,1,1;,
  3;2,2,2;,
  3;3,3,3;,
  3;4,4,4;,
  3;5,5,5;,
  3;6,6,6;,
  3;7,7,7;,
  3;8,8,8;,
  3;9,9,9;,
  3;10,10,10;,
  3;11,11,11;,
  3;12,12,12;,
  3;13,13,13;,
  3;14,14,14;,
  3;15,15,15;,
  3;16,16,16;,
  3;17,17,17;,
  3;18,18,18;,
  3;19,19,19;,
  3;20,20,20;,
  3;21,21,21;,
  3;22,22,22;,
  3;23,23,23;,
  3;24,24,24;,
  3;25,25,25;,
  3;26,26,26;,
  3;27,27,27;,
  3;28,28,28;,
  3;29,29,29;,
  3;30,30,30;,
  3;31,31,31;,
  3;32,32,32;,
  3;33,33,33;,
  3;34,34,34;,
  3;35,35,35;,
  3;36,36,36;,
  3;37,37,37;,
  3;38,38,38;,
  3;39,39,39;,
  3;40,40,40;,
  3;41,41,41;,
  3;42,42,42;,
  3;43,43,43;,
  3;44,44,44;,
  3;45,45,45;,
  3;46,46,46;,
  3;47,47,47;,
  3;48,48,48;,
  3;49,49,49;,
  3;50,50,50;,
  3;51,51,51;,
  3;53,52,54;,
  3;53,54,55;,
  3;55,54,56;,
  3;55,56,57;,
  3;57,56,58;,
  3;57,58,59;,
  3;59,58,60;,
  3;59,60,61;,
  3;61,60,62;,
  3;61,62,63;,
  3;63,62,64;,
  3;63,64,65;,
  3;65,64,66;,
  3;65,66,67;,
  3;67,66,68;,
  3;67,68,69;,
  3;69,68,70;,
  3;69,70,71;,
  3;71,70,72;,
  3;71,72,73;,
  3;73,72,74;,
  3;73,74,75;,
  3;75,74,52;,
  3;75,52,53;,
  3;74,72,70;,
  3;74,70,68;,
  3;74,68,66;,
  3;74,66,64;,
  3;74,64,62;,
  3;74,62,60;,
  3;74,60,58;,
  3;74,58,56;,
  3;74,56,54;,
  3;74,54,52;,
  3;53,55,57;,
  3;53,57,59;,
  3;53,59,61;,
  3;53,61,63;,
  3;53,63,65;,
  3;53,65,67;,
  3;53,67,69;,
  3;53,69,71;,
  3;53,71,73;,
  3;53,73,75;,
  3;77,76,78;,
  3;77,78,79;,
  3;79,78,80;,
  3;79,80,81;,
  3;81,80,82;,
  3;81,82,83;,
  3;83,82,84;,
  3;83,84,85;,
  3;85,84,86;,
  3;85,86,87;,
  3;87,86,76;,
  3;87,76,77;,
  3;86,84,82;,
  3;86,82,80;,
  3;86,80,78;,
  3;86,78,76;,
  3;77,79,81;,
  3;77,81,83;,
  3;77,83,85;,
  3;77,85,87;,
  3;89,88,90;,
  3;89,90,91;,
  3;91,90,92;,
  3;91,92,93;,
  3;93,92,94;,
  3;93,94,95;,
  3;95,94,96;,
  3;95,96,97;,
  3;97,96,98;,
  3;97,98,99;,
  3;99,98,100;,
  3;99,100,101;,
  3;101,100,102;,
  3;101,102,103;,
  3;103,102,104;,
  3;103,104,105;,
  3;105,104,106;,
  3;105,106,107;,
  3;107,106,108;,
  3;107,108,109;,
  3;109,108,110;,
  3;109,110,111;,
  3;111,110,88;,
  3;111,88,89;,
  3;110,108,106;,
  3;110,106,104;,
  3;110,104,102;,
  3;110,102,100;,
  3;110,100,98;,
  3;110,98,96;,
  3;110,96,94;,
  3;110,94,92;,
  3;110,92,90;,
  3;110,90,88;,
  3;89,91,93;,
  3;89,93,95;,
  3;89,95,97;,
  3;89,97,99;,
  3;89,99,101;,
  3;89,101,103;,
  3;89,103,105;,
  3;89,105,107;,
  3;89,107,109;,
  3;89,109,111;,
  3;113,112,114;,
  3;113,114,115;,
  3;115,114,116;,
  3;115,116,117;,
  3;117,116,118;,
  3;117,118,119;,
  3;119,118,120;,
  3;119,120,121;,
  3;121,120,122;,
  3;121,122,123;,
  3;123,122,112;,
  3;123,112,113;,
  3;122,120,118;,
  3;122,118,116;,
  3;122,116,114;,
  3;122,114,112;,
  3;113,115,117;,
  3;113,117,119;,
  3;113,119,121;,
  3;113,121,123;,
  3;124,124,124;,
  3;125,125,125;,
  3;126,126,126;,
  3;127,127,127;,
  3;128,128,128;,
  3;129,129,129;,
  3;130,130,130;,
  3;131,131,131;,
  3;132,132,132;,
  3;133,133,133;,
  3;134,134,134;,
  3;135,135,135;,
  3;136,136,136;,
  3;137,137,137;,
  3;138,138,138;,
  3;139,139,139;,
  3;140,140,140;,
  3;141,141,141;,
  3;142,142,142;,
  3;143,143,143;,
  3;144,144,144;,
  3;145,145,145;,
  3;146,146,146;,
  3;147,147,147;,
  3;148,148,148;,
  3;149,149,149;,
  3;150,150,150;,
  3;151,151,151;,
  3;152,152,152;,
  3;153,153,153;,
  3;154,154,154;,
  3;155,155,155;,
  3;156,156,156;,
  3;157,157,157;,
  3;158,158,158;,
  3;159,159,159;,
  3;160,160,160;,
  3;161,161,161;,
  3;162,162,162;,
  3;163,163,163;,
  3;164,164,164;,
  3;165,165,165;,
  3;166,166,166;,
  3;167,167,167;,
  3;168,168,168;,
  3;169,169,169;,
  3;170,170,170;,
  3;171,171,171;;
 }
}