xof 0303txt 0032
template Vector {
 <3d82ab5e-62da-11cf-ab39-0020af71e433>
 FLOAT x;
 FLOAT y;
 FLOAT z;
}

template MeshFace {
 <3d82ab5f-62da-11cf-ab39-0020af71e433>
 DWORD nFaceVertexIndices;
 array DWORD faceVertexIndices[nFaceVertexIndices];
}

template Mesh {
 <3d82ab44-62da-11cf-ab39-0020af71e433>
 DWORD nVertices;
 array Vector vertices[nVertices];
 DWORD nFaces;
 array MeshFace faces[nFaces];
 [...]
}

template MeshNormals {
 <f6f23f43-7686-11cf-8f52-0040333594a3>
 DWORD nNormals;
 array Vector normals[nNormals];
 DWORD nFaceNormals;
 array MeshFace faceNormals[nFaceNormals];
}

template Coords2d {
 <f6f23f44-7686-11cf-8f52-0040333594a3>
 FLOAT u;
 FLOAT v;
}

template MeshTextureCoords {
 <f6f23f40-7686-11cf-8f52-0040333594a3>
 DWORD nTextureCoords;
 array Coords2d textureCoords[nTextureCoords];
}

template ColorRGBA {
 <35ff44e0-6c7c-11cf-8f52-0040333594a3>
 FLOAT red;
 FLOAT green;
 FLOAT blue;
 FLOAT alpha;
}

template ColorRGB {
 <d3e16e81-7835-11cf-8f52-0040333594a3>
 FLOAT red;
 FLOAT green;
 FLOAT blue;
}

template Material {
 <3d82ab4d-62da-11cf-ab39-0020af71e433>
 ColorRGBA faceColor;
 FLOAT power;
 ColorRGB specularColor;
 ColorRGB emissiveColor;
 [...]
}

template MeshMaterialList {
 <f6f23f42-7686-11cf-8f52-0040333594a3>
 DWORD nMaterials;
 DWORD nFaceIndexes;
 array DWORD faceIndexes[nFaceIndexes];
 [Material <3d82ab4d-62da-11cf-ab39-0020af71e433>]
}

template TextureFilename {
 <a42790e1-7810-11cf-8f52-0040333594a3>
 STRING filename;
}


Mesh {
 32;
 -0.494967;0.451546;-0.103525;,
 0.494967;0.451546;-0.103525;,
 -0.494967;-0.309385;-0.036952;,
 0.494967;-0.309385;-0.036952;,
 -0.494967;-0.122833;-0.063302;,
 -0.494967;-0.121963;-0.053350;,
 -0.494967;0.451546;-0.103525;,
 -0.494967;0.440609;-0.228541;,
 -0.494967;0.440609;-0.228541;,
 -0.494967;0.451546;-0.103525;,
 0.494967;0.451546;-0.103525;,
 0.494967;0.440609;-0.228541;,
 0.494967;0.440609;-0.228541;,
 0.494967;0.451546;-0.103525;,
 0.494967;-0.121963;-0.053350;,
 0.494967;-0.122833;-0.063302;,
 -0.494967;-0.122833;-0.063302;,
 -0.494967;0.451546;-0.103525;,
 -0.494967;-0.121963;-0.053350;,
 -0.494967;0.440609;-0.228541;,
 -0.494967;0.440609;-0.228541;,
 0.494967;0.451546;-0.103525;,
 -0.494967;0.451546;-0.103525;,
 0.494967;0.440609;-0.228541;,
 0.494967;0.440609;-0.228541;,
 0.494967;-0.121963;-0.053350;,
 0.494967;0.451546;-0.103525;,
 0.494967;-0.122833;-0.063302;,
 -0.494967;0.451546;-0.103525;,
 -0.494967;-0.309385;-0.036952;,
 0.494967;0.451546;-0.103525;,
 0.494967;-0.309385;-0.036952;;
 16;
 3;0,1,2;,
 3;1,3,2;,
 3;4,5,6;,
 3;6,7,4;,
 3;8,9,10;,
 3;10,11,8;,
 3;12,13,14;,
 3;14,15,12;,
 3;16,17,18;,
 3;17,16,19;,
 3;20,21,22;,
 3;21,20,23;,
 3;24,25,26;,
 3;25,24,27;,
 3;28,29,30;,
 3;30,29,31;;

 MeshNormals {
  32;
  0.000000;-0.087156;-0.996195;,
  0.000000;-0.087156;-0.996195;,
  0.000000;-0.087156;-0.996195;,
  0.000000;-0.087156;-0.996195;,
  -1.000000;0.000000;0.000000;,
  -1.000000;0.000000;0.000000;,
  -1.000000;0.000000;0.000000;,
  -1.000000;0.000000;0.000000;,
  0.000000;0.996195;-0.087156;,
  0.000000;0.996195;-0.087156;,
  0.000000;0.996195;-0.087156;,
  0.000000;0.996195;-0.087156;,
  1.000000;0.000000;0.000000;,
  1.000000;0.000000;0.000000;,
  1.000000;0.000000;0.000000;,
  1.000000;0.000000;0.000000;,
  -1.000000;0.000000;0.000000;,
  -1.000000;0.000000;0.000000;,
  -1.000000;0.000000;0.000000;,
  -1.000000;0.000000;0.000000;,
  0.000000;0.996195;-0.087156;,
  0.000000;0.996195;-0.087156;,
  0.000000;0.996195;-0.087156;,
  0.000000;0.996195;-0.087156;,
  1.000000;0.000000;0.000000;,
  1.000000;0.000000;0.000000;,
  1.000000;0.000000;0.000000;,
  1.000000;0.000000;0.000000;,
  0.000000;-0.087156;-0.996195;,
  0.000000;-0.087156;-0.996195;,
  0.000000;-0.087156;-0.996195;,
  0.000000;-0.087156;-0.996195;;
  16;
  3;0,1,2;,
  3;1,3,2;,
  3;4,5,6;,
  3;6,7,4;,
  3;8,9,10;,
  3;10,11,8;,
  3;12,13,14;,
  3;14,15,12;,
  3;16,17,18;,
  3;17,16,19;,
  3;20,21,22;,
  3;21,20,23;,
  3;24,25,26;,
  3;25,24,27;,
  3;28,29,30;,
  3;30,29,31;;
 }

 MeshTextureCoords {
  32;
  0.000000;0.000000;,
  1.000000;0.000000;,
  0.000000;1.000000;,
  1.000000;1.000000;,
  0.000000;0.000000;,
  0.000000;0.000000;,
  0.000000;0.000000;,
  0.000000;0.000000;,
  0.000000;0.000000;,
  0.000000;0.000000;,
  0.000000;0.000000;,
  0.000000;0.000000;,
  0.000000;0.000000;,
  0.000000;0.000000;,
  0.000000;0.000000;,
  0.000000;0.000000;,
  0.000000;0.000000;,
  0.000000;0.000000;,
  0.000000;0.000000;,
  0.000000;0.000000;,
  0.000000;0.000000;,
  0.000000;0.000000;,
  0.000000;0.000000;,
  0.000000;0.000000;,
  0.000000;0.000000;,
  0.000000;0.000000;,
  0.000000;0.000000;,
  0.000000;0.000000;,
  0.000000;0.000000;,
  0.000000;1.000000;,
  1.000000;0.000000;,
  1.000000;1.000000;;
 }

 MeshMaterialList {
  4;
  16;
  0,
  0,
  1,
  1,
  1,
  1,
  1,
  1,
  2,
  2,
  2,
  2,
  2,
  2,
  3,
  3;

  Material {
   0.500000;0.500000;0.500000;1.000000;;
   0.000000;
   0.500000;0.500000;0.500000;;
   0.500000;0.500000;0.500000;;

   TextureFilename {
    "mirror_base.dds";
   }
  }

  Material {
   0.933333;0.933333;0.933333;0.750000;;
   5.000000;
   0.000000;0.000000;0.000000;;
   1.000000;1.000000;1.000000;;
  }

  Material {
   0.933333;0.933333;0.933333;0.750000;;
   5.000000;
   0.000000;0.000000;0.000000;;
   1.000000;1.000000;1.000000;;
  }

  Material {
   0.635294;0.203922;0.000000;1.000000;;
   0.000000;
   0.500000;0.500000;0.500000;;
   0.500000;0.500000;0.500000;;

   TextureFilename {
    "mirror_baseU.dds";
   }
  }
 }
}