xof 0303txt 0032

Header {
 1;
 0;
 1;
}

Mesh {
 12;
 -1.000000;-0.153000;0.000000;,
 -2.500000;-0.450000;0.000000;,
 -2.500000;-0.450000;2.500000;,
 -1.000000;-0.153000;2.500000;,
 1.000000;-0.153000;0.000000;,
 2.500000;-0.450000;0.000000;,
 2.500000;-0.450000;2.500000;,
 1.000000;-0.153000;2.500000;,
 -1.000000;-0.153000;0.000000;,
 -1.000000;-0.153000;2.500000;,
 1.000000;-0.153000;2.500000;,
 1.000000;-0.153000;0.000000;;
 3;
 4;0,1,2,3;,
 4;7,6,5,4;,
 4;8,9,10,11;;

 MeshMaterialList {
  3;
  3;
  0,
  1,
  2;

  Material {
   1.000000;1.000000;1.000000;1.000000;;
   0.000000;
   0.000000;0.000000;0.000000;;
   0.000000;0.000000;0.000000;;

   TextureFilename {
    "Ballast.png";
   }
  }

  Material {
   1.000000;1.000000;1.000000;1.000000;;
   0.000000;
   0.000000;0.000000;0.000000;;
   0.000000;0.000000;0.000000;;

   TextureFilename {
    "Ballast.png";
   }
  }

  Material {
   1.000000;1.000000;1.000000;1.000000;;
   0.000000;
   0.000000;0.000000;0.000000;;
   0.000000;0.000000;0.000000;;

   TextureFilename {
    "MakuragiT.png";
   }
  }
 }

 MeshNormals {
  3;
  -0.222723;0.974882;0.000000;,
  0.222723;0.974882;0.000000;,
  0.000000;1.000000;0.000000;;
  3;
  4;0,0,0,0;,
  4;1,1,1,1;,
  4;2,2,2,2;;
 }

 MeshTextureCoords {
  12;
  1.000000;1.000000;,
  0.000000;1.000000;,
  0.000000;0.800000;,
  1.000000;0.800000;,
  1.000000;1.500000;,
  0.000000;1.500000;,
  0.000000;1.300000;,
  1.000000;1.300000;,
  0.000000;8.000000;,
  0.000000;6.480000;,
  1.000000;6.480000;,
  1.000000;8.000000;;
 }
}