xof 0303txt 0032

Header {
 1;
 0;
 1;
}

Mesh {
 8;
  0.100000;-0.153000;0.000000;,
  0.100000;0.000000;0.000000;,
  0.099900;0.000000;0.000000;,
  0.099900;-0.153000;0.000000;,
  0.050000;-0.153000;5.050000;,
  0.050000;0.000000;5.050000;,
  0.017500;0.000000;5.050000;,
  0.017500;-0.153000;5.050000;;
 3;
 4;0,1,5,4;,
 4;1,2,6,5;,
 4;2,3,7,6;;

 MeshMaterialList {
  1;
  1;
  0;

  Material {
   1.000000;1.000000;1.000000;1.000000;;
   0.000000;
   0.000000;0.000000;0.000000;;
   0.000000;0.000000;0.000000;;

   TextureFilename {
    "rail.png";
   }
  }
 }

 MeshNormals {
  3;
  -1.000000;0.000000;0.000000;,
  0.000000;1.000000;0.000000;,
  1.000000;0.000000;0.000000;;
  3;
  4;0,0,0,0;,
  4;1,1,1,1;,
  4;2,2,2,2;;
 }

 MeshTextureCoords {
  8;
  1.000000;1.000000;,
  0.625000;1.000000;,
  0.375000;1.000000;,
  0.000000;1.000000;,
  1.000000;0.800000;;
  0.625000;0.800000;,
  0.375000;0.800000;,
  0.000000;0.800000;,
 }
}