xof 0303txt 0032
Material __Color_008_ {
0.1176;0.1176;0.1176;1.0000;;
5.0000;
0.0118;0.0118;0.0118;;	
0.0235;0.0235;0.0235;;	
}
Material _grd1_grd_png {
1.0000;1.0000;1.0000;  1.0000;;
5.0000;
0.1000;0.1000;0.1000;;	
0.2000;0.2000;0.2000;;	
   TextureFilename { "grd.dds"; }
}
Material __Color_002_ {
0.7765;0.7765;0.7765;1.0000;;
5.0000;
0.0776;0.0776;0.0776;;	
0.1553;0.1553;0.1553;;	
}
Mesh mesh_0{
37;
-0.4564;0.6688;-0.0610;,
0.0622;0.9706;-0.0910;,
0.0622;0.9706;-0.0610;,
-0.4564;0.6688;-0.0910;,
-0.3880;0.5512;-0.0610;,
-0.3880;0.5512;-0.0910;,
0.0622;0.8132;-0.0610;,
0.0622;0.8132;-0.0910;,
-0.3880;0.5566;0.0580;,
0.0622;0.8186;0.0880;,
0.0622;0.8186;0.0580;,
-0.3880;0.5566;0.0880;,
-0.4564;0.6742;0.0880;,
0.0622;0.9760;0.0580;,
0.0622;0.9760;0.0880;,
-0.4564;0.6742;0.0580;,
0.0622;0.1506;-0.0620;,
0.0622;1.0506;0.0580;,
0.0622;1.0506;-0.0620;,
0.0622;0.1506;0.0580;,
0.0622;1.0506;-0.0620;,
-0.0578;0.1506;-0.0620;,
0.0622;0.1506;-0.0620;,
-0.0578;1.0506;-0.0620;,
0.0022;1.0856;-0.0020;,
-0.0578;1.0506;0.0580;,
-0.0578;1.0506;-0.0620;,
-0.0578;0.1506;0.0580;,
-0.0578;1.0506;0.0580;,
0.0622;0.1506;0.0580;,
-0.0578;0.1506;0.0580;,
0.0622;0.8186;0.0580;,
0.0622;1.0506;0.0580;,
0.0622;-0.7494;0.0580;,
-0.0578;-0.7494;0.0580;,
0.0622;-0.7494;-0.0620;,
-0.0578;-0.7494;-0.0620;;
46;
3;2,1,0,
3;3,0,1,
3;0,3,4,
3;5,4,3,
3;4,6,0,
3;2,0,6,
3;5,3,7,
3;1,7,3,
3;7,6,5,
3;4,5,6,
3;2,6,1,
3;7,1,6,
3;10,9,8,
3;11,8,9,
3;14,13,12,
3;15,12,13,
3;12,15,11,
3;8,11,15,
3;11,9,12,
3;14,12,9,
3;8,15,10,
3;13,10,15,
3;14,9,13,
3;10,13,9,
3;18,17,16,
3;10,16,17,
3;19,16,10,
3;22,21,20,
3;23,20,21,
3;24,17,18,
3;26,21,25,
3;27,25,21,
3;30,29,28,
3;31,28,29,
3;32,28,31,
3;26,25,24,
3;26,24,18,
3;24,25,17,
3;34,33,27,
3;19,27,33,
3;16,19,35,
3;33,35,19,
3;35,36,16,
3;21,16,36,
3;21,36,27,
3;34,27,36;;
  MeshMaterialList {
3;
46;
2,
2,
2,
2,
0,
0,
2,
2,
2,
2,
2,
2,
2,
2,
2,
2,
2,
2,
2,
2,
0,
0,
2,
2,
2,
2,
2,
1,
1,
2,
2,
2,
1,
1,
1,
2,
2,
2,
0,
0,
0,
0,
0,
0,
0,
0;
{ __Color_008_ }
{ _grd1_grd_png }
{ __Color_002_ }
  }
  MeshTextureCoords {
37;
0.0000,0.0000;
0.0000,0.0000;
0.0000,0.0000;
0.0000,0.0000;
0.0000,0.0000;
0.0000,0.0000;
0.0000,0.0000;
0.0000,0.0000;
0.0000,0.0000;
0.0000,0.0000;
0.0000,0.0000;
0.0000,0.0000;
0.0000,0.0000;
0.0000,0.0000;
0.0000,0.0000;
0.0000,0.0000;
0.0000,0.0000;
0.0000,0.0000;
0.0000,0.0000;
0.0000,0.0000;
1.0000,-0.9375;
0.0000,0.0000;
1.0000,0.0000;
0.0000,-0.9375;
0.0000,0.0000;
0.0000,0.0000;
0.0000,0.0000;
0.0000,0.0000;
1.0000,-0.9375;
-0.0000,-0.0000;
1.0000,-0.0000;
-0.0000,-0.6959;
-0.0000,-0.9375;
0.0000,0.0000;
0.0000,0.0000;
0.0000,0.0000;
0.0000,0.0000;
  }
  MeshNormals {
14;
-0.5030;0.8643;0.0000;,
-0.8643;-0.5030;0.0000;,
0.0000;-0.0000;1.0000;,
-0.0000;0.0000;-1.0000;,
0.5030;-0.8643;-0.0000;,
1.0000;-0.0000;-0.0000;,
1.0000;0.0000;-0.0000;,
-0.0000;-0.0000;-1.0000;,
0.5044;0.8635;0.0000;,
-1.0000;0.0000;0.0000;,
0.0000;0.0000;1.0000;,
-0.5044;0.8635;0.0000;,
-0.0000;0.8635;-0.5044;,
-0.0000;0.8635;0.5044;;
46;
3;0,0,0;
3;0,0,0;
3;1,1,1;
3;1,1,1;
3;2,2,2;
3;2,2,2;
3;3,3,3;
3;3,3,3;
3;4,4,4;
3;4,4,4;
3;5,5,5;
3;5,5,5;
3;4,4,4;
3;4,4,4;
3;0,0,0;
3;0,0,0;
3;1,1,1;
3;1,1,1;
3;2,2,2;
3;2,2,2;
3;3,3,3;
3;3,3,3;
3;6,6,6;
3;6,6,6;
3;6,6,6;
3;6,6,6;
3;6,6,6;
3;7,7,7;
3;7,7,7;
3;8,8,8;
3;9,9,9;
3;9,9,9;
3;10,10,10;
3;10,10,10;
3;10,10,10;
3;11,11,11;
3;12,12,12;
3;13,13,13;
3;10,10,10;
3;10,10,10;
3;6,6,6;
3;6,6,6;
3;7,7,7;
3;7,7,7;
3;9,9,9;
3;9,9,9;;
  }
}
