xof 0303txt 0032
Material __Color_008_ {
0.1176;0.1176;0.1176;1.0000;;
5.0000;
0.0118;0.0118;0.0118;;	
0.0235;0.0235;0.0235;;	
}
Material _grd1_grd_png {
1.0000;1.0000;1.0000;  1.0000;;
5.0000;
0.1000;0.1000;0.1000;;	
0.2000;0.2000;0.2000;;	
   TextureFilename { "grd.dds"; }
}
Material _L3_L_png {
1.0000;1.0000;1.0000;  1.0000;;
5.0000;
0.1000;0.1000;0.1000;;	
0.2000;0.2000;0.2000;;	
   TextureFilename { "L.dds"; }
}
Material __Color_002_ {
0.7765;0.7765;0.7765;1.0000;;
5.0000;
0.0776;0.0776;0.0776;;	
0.1553;0.1553;0.1553;;	
}
Mesh mesh_0{
42;
0.0622;0.9719;-0.0910;,
0.0622;0.8359;-0.0610;,
0.0622;0.9719;-0.0610;,
0.0622;0.8359;-0.0910;,
-0.5378;0.8359;-0.0910;,
-0.5378;0.8359;-0.0610;,
-0.5378;0.9719;-0.0610;,
-0.5378;0.9719;-0.0910;,
0.0622;0.9719;-0.0910;,
-0.5378;0.8359;-0.0910;,
0.0622;0.8359;-0.0910;,
-0.5378;0.9719;-0.0910;,
0.0612;0.7825;0.0874;,
0.0624;0.7845;0.0574;,
0.0612;0.7825;0.0574;,
0.0624;0.7845;0.0874;,
-0.3890;1.2018;0.0874;,
0.0624;0.9391;0.0574;,
0.0624;0.9391;0.0874;,
-0.3890;1.2018;0.0574;,
-0.4574;1.0843;0.0574;,
-0.4574;1.0843;0.0874;,
0.0622;0.1506;-0.0620;,
0.0622;1.0506;0.0580;,
0.0622;1.0506;-0.0620;,
0.0622;0.1506;0.0580;,
0.0622;1.0506;-0.0620;,
-0.0578;0.1506;-0.0620;,
0.0622;0.1506;-0.0620;,
-0.0578;1.0506;-0.0620;,
0.0022;1.0856;-0.0020;,
-0.0578;1.0506;0.0580;,
-0.0578;1.0506;-0.0620;,
-0.0578;0.1506;0.0580;,
-0.0578;1.0506;0.0580;,
0.0622;0.1506;0.0580;,
-0.0578;0.1506;0.0580;,
0.0622;1.0506;0.0580;,
0.0622;-0.7494;0.0580;,
-0.0578;-0.7494;0.0580;,
0.0622;-0.7494;-0.0620;,
-0.0578;-0.7494;-0.0620;;
48;
3;2,1,0,
3;3,0,1,
3;3,1,4,
3;5,4,1,
3;5,6,4,
3;7,4,6,
3;2,0,6,
3;7,6,0,
3;5,1,6,
3;2,6,1,
3;10,9,8,
3;11,8,9,
3;14,13,12,
3;15,12,13,
3;18,17,16,
3;19,16,17,
3;14,12,20,
3;21,20,12,
3;16,21,18,
3;12,18,21,
3;15,18,12,
3;19,20,16,
3;21,16,20,
3;19,17,20,
3;14,20,17,
3;13,14,17,
3;13,17,15,
3;18,15,17,
3;24,23,22,
3;25,22,23,
3;28,27,26,
3;29,26,27,
3;30,23,24,
3;32,27,31,
3;33,31,27,
3;36,35,34,
3;37,34,35,
3;32,31,30,
3;32,30,24,
3;30,31,23,
3;39,38,33,
3;25,33,38,
3;22,25,40,
3;38,40,25,
3;40,41,22,
3;27,22,41,
3;27,41,33,
3;39,33,41;;
  MeshMaterialList {
4;
48;
3,
3,
3,
3,
3,
3,
3,
3,
0,
0,
2,
2,
3,
3,
3,
3,
3,
3,
3,
3,
3,
3,
3,
0,
0,
0,
3,
3,
3,
3,
1,
1,
3,
3,
3,
1,
1,
3,
3,
3,
0,
0,
0,
0,
0,
0,
0,
0;
{ __Color_008_ }
{ _grd1_grd_png }
{ _L3_L_png }
{ __Color_002_ }
  }
  MeshTextureCoords {
42;
0.0000,0.0000;
0.0000,0.0000;
0.0000,0.0000;
0.0000,0.0000;
0.0000,0.0000;
0.0000,0.0000;
0.0000,0.0000;
0.0000,0.0000;
1.0518,-1.0000;
-0.0511,0.0000;
1.0518,0.0000;
-0.0511,-1.0000;
0.0000,0.0000;
0.0000,0.0000;
0.0000,0.0000;
0.0000,0.0000;
0.0000,0.0000;
0.0000,0.0000;
0.0000,0.0000;
0.0000,0.0000;
0.0000,0.0000;
0.0000,0.0000;
0.0000,0.0000;
0.0000,0.0000;
0.0000,0.0000;
0.0000,0.0000;
1.0000,-0.9375;
0.0000,0.0000;
1.0000,0.0000;
0.0000,-0.9375;
0.0000,0.0000;
0.0000,0.0000;
0.0000,0.0000;
0.0000,0.0000;
1.0000,-0.9375;
-0.0000,-0.0000;
1.0000,-0.0000;
-0.0000,-0.9375;
0.0000,0.0000;
0.0000,0.0000;
0.0000,0.0000;
0.0000,0.0000;
  }
  MeshNormals {
15;
1.0000;0.0000;-0.0000;,
0.0000;-1.0000;0.0000;,
-1.0000;0.0000;0.0000;,
0.0000;1.0000;0.0000;,
0.0000;0.0000;1.0000;,
-0.0000;0.0000;-1.0000;,
0.8643;-0.5030;-0.0000;,
0.5030;0.8643;-0.0000;,
-0.5030;-0.8643;0.0000;,
-0.8643;0.5030;0.0000;,
-0.0000;-0.0000;-1.0000;,
0.5044;0.8635;0.0000;,
-0.5044;0.8635;0.0000;,
-0.0000;0.8635;-0.5044;,
-0.0000;0.8635;0.5044;;
48;
3;0,0,0;
3;0,0,0;
3;1,1,1;
3;1,1,1;
3;2,2,2;
3;2,2,2;
3;3,3,3;
3;3,3,3;
3;4,4,4;
3;4,4,4;
3;5,5,5;
3;5,5,5;
3;6,6,6;
3;6,6,6;
3;7,7,7;
3;7,7,7;
3;8,8,8;
3;8,8,8;
3;4,4,4;
3;4,4,4;
3;4,4,4;
3;9,9,9;
3;9,9,9;
3;5,5,5;
3;5,5,5;
3;5,5,5;
3;0,0,0;
3;0,0,0;
3;0,0,0;
3;0,0,0;
3;10,10,10;
3;10,10,10;
3;11,11,11;
3;2,2,2;
3;2,2,2;
3;4,4,4;
3;4,4,4;
3;12,12,12;
3;13,13,13;
3;14,14,14;
3;4,4,4;
3;4,4,4;
3;0,0,0;
3;0,0,0;
3;10,10,10;
3;10,10,10;
3;2,2,2;
3;2,2,2;;
  }
}
