xof 0303txt 0032
template Vector {
 <3d82ab5e-62da-11cf-ab39-0020af71e433>
 FLOAT x;
 FLOAT y;
 FLOAT z;
}

template MeshFace {
 <3d82ab5f-62da-11cf-ab39-0020af71e433>
 DWORD nFaceVertexIndices;
 array DWORD faceVertexIndices[nFaceVertexIndices];
}

template Mesh {
 <3d82ab44-62da-11cf-ab39-0020af71e433>
 DWORD nVertices;
 array Vector vertices[nVertices];
 DWORD nFaces;
 array MeshFace faces[nFaces];
 [...]
}

template ColorRGBA {
 <35ff44e0-6c7c-11cf-8f52-0040333594a3>
 FLOAT red;
 FLOAT green;
 FLOAT blue;
 FLOAT alpha;
}

template ColorRGB {
 <d3e16e81-7835-11cf-8f52-0040333594a3>
 FLOAT red;
 FLOAT green;
 FLOAT blue;
}

template Material {
 <3d82ab4d-62da-11cf-ab39-0020af71e433>
 ColorRGBA faceColor;
 FLOAT power;
 ColorRGB specularColor;
 ColorRGB emissiveColor;
 [...]
}

template MeshMaterialList {
 <f6f23f42-7686-11cf-8f52-0040333594a3>
 DWORD nMaterials;
 DWORD nFaceIndexes;
 array DWORD faceIndexes[nFaceIndexes];
 [Material <3d82ab4d-62da-11cf-ab39-0020af71e433>]
}

template TextureFilename {
 <a42790e1-7810-11cf-8f52-0040333594a3>
 STRING filename;
}

template Coords2d {
 <f6f23f44-7686-11cf-8f52-0040333594a3>
 FLOAT u;
 FLOAT v;
}

template MeshTextureCoords {
 <f6f23f40-7686-11cf-8f52-0040333594a3>
 DWORD nTextureCoords;
 array Coords2d textureCoords[nTextureCoords];
}

template MeshNormals {
 <f6f23f43-7686-11cf-8f52-0040333594a3>
 DWORD nNormals;
 array Vector normals[nNormals];
 DWORD nFaceNormals;
 array MeshFace faceNormals[nFaceNormals];
}


Mesh  {
 29;
 -0.060000;-0.750000;-0.060000;,
 0.060000;-0.750000;-0.060000;,
 0.060000;-0.750000;0.060000;,
 -0.060000;-0.750000;0.060000;,
 -0.060000;0.150000;-0.060000;,
 0.060000;0.150000;-0.060000;,
 0.060000;0.150000;0.060000;,
 -0.060000;0.150000;0.060000;,
 -0.060000;0.990000;-0.060000;,
 0.060000;0.990000;-0.060000;,
 0.060000;0.990000;0.060000;,
 -0.060000;0.990000;0.060000;,
 0.000000;1.050000;0.000000;,
 0.060000;0.760000;-0.080000;,
 0.060000;0.900000;-0.080000;,
 0.060000;0.900000;-0.060000;,
 0.060000;0.760000;-0.060000;,
 -0.450000;1.020000;-0.080000;,
 -0.390000;1.140000;-0.080000;,
 -0.390000;1.140000;-0.060000;,
 -0.450000;1.020000;-0.060000;,
 0.060000;0.760000;0.060000;,
 0.060000;0.900000;0.060000;,
 0.060000;0.900000;0.080000;,
 0.060000;0.760000;0.080000;,
 -0.450000;1.020000;0.060000;,
 -0.390000;1.140000;0.060000;,
 -0.390000;1.140000;0.080000;,
 -0.450000;1.020000;0.080000;;
 44;
 3;0,4,5;,
 3;0,5,1;,
 3;1,5,6;,
 3;1,6,2;,
 3;2,6,7;,
 3;2,7,3;,
 3;3,7,4;,
 3;3,4,0;,
 3;4,8,9;,
 3;4,9,5;,
 3;5,9,10;,
 3;5,10,6;,
 3;6,10,11;,
 3;6,11,7;,
 3;7,11,8;,
 3;7,8,4;,
 3;8,12,9;,
 3;9,12,10;,
 3;10,12,11;,
 3;11,12,8;,
 3;17,18,14;,
 3;17,14,13;,
 3;19,20,16;,
 3;19,16,15;,
 3;13,14,15;,
 3;13,15,16;,
 3;18,19,15;,
 3;18,15,14;,
 3;20,19,18;,
 3;20,18,17;,
 3;20,17,13;,
 3;20,13,16;,
 3;25,26,22;,
 3;25,22,21;,
 3;27,28,24;,
 3;27,24,23;,
 3;21,22,23;,
 3;21,23,24;,
 3;26,27,23;,
 3;26,23,22;,
 3;28,27,26;,
 3;28,26,25;,
 3;28,25,21;,
 3;28,21,24;;

 MeshMaterialList  {
  3;
  44;
  0,
  0,
  0,
  0,
  0,
  0,
  0,
  0,
  0,
  0,
  0,
  0,
  0,
  0,
  0,
  0,
  0,
  0,
  0,
  0,
  1,
  1,
  1,
  1,
  1,
  1,
  1,
  1,
  1,
  1,
  1,
  1,
  2,
  2,
  2,
  2,
  2,
  2,
  2,
  2,
  2,
  2,
  2,
  2;

  Material  {
   1.000000;1.000000;1.000000;1.000000;;
   0.000000;
   0.000000;0.000000;0.000000;;
   0.000000;0.000000;0.000000;;

   TextureFilename  {
    "Grade1.png";
   }
  }

  Material  {
   1.000000;1.000000;1.000000;1.000000;;
   0.000000;
   0.000000;0.000000;0.000000;;
   0.000000;0.000000;0.000000;;

   TextureFilename  {
    "Grade1.png";
   }
  }

  Material  {
   1.000000;1.000000;1.000000;1.000000;;
   0.000000;
   0.000000;0.000000;0.000000;;
   0.000000;0.000000;0.000000;;

   TextureFilename  {
    "Grade1.png";
   }
  }
 }

 MeshTextureCoords  {
  29;
  0.000000;1.000000;,
  0.500000;1.000000;,
  1.000000;1.000000;,
  0.500000;1.000000;,
  0.000000;0.750000;,
  0.500000;0.750000;,
  1.000000;0.750000;,
  0.500000;0.750000;,
  0.000000;0.125000;,
  0.500000;0.125000;,
  1.000000;0.125000;,
  0.500000;0.125000;,
  0.000000;0.125000;,
  0.000000;0.250000;,
  0.000000;0.500000;,
  0.000000;0.750000;,
  0.000000;1.000000;,
  0.500000;0.250000;,
  0.500000;0.500000;,
  0.500000;0.750000;,
  0.500000;1.000000;,
  0.000000;1.000000;,
  0.000000;0.750000;,
  0.000000;0.500000;,
  0.000000;0.250000;,
  0.500000;1.000000;,
  0.500000;0.750000;,
  0.500000;0.500000;,
  0.500000;0.250000;;
 }

 MeshNormals  {
  44;
  0.000000;0.000000;-1.000000;,
  0.000000;0.000000;-1.000000;,
  1.000000;0.000000;0.000000;,
  1.000000;0.000000;0.000000;,
  0.000000;0.000000;1.000000;,
  0.000000;0.000000;1.000000;,
  -1.000000;0.000000;0.000000;,
  -1.000000;0.000000;0.000000;,
  0.000000;0.000000;-1.000000;,
  0.000000;0.000000;-1.000000;,
  1.000000;0.000000;0.000000;,
  1.000000;0.000000;0.000000;,
  0.000000;0.000000;1.000000;,
  0.000000;0.000000;1.000000;,
  -1.000000;0.000000;0.000000;,
  -1.000000;0.000000;0.000000;,
  0.000000;0.707107;-0.707106;,
  0.707106;0.707107;0.000000;,
  0.000000;0.707107;0.707106;,
  -0.707106;0.707107;0.000000;,
  0.000000;0.000000;-1.000000;,
  0.000000;0.000000;-1.000000;,
  0.000000;0.000000;1.000000;,
  0.000000;0.000000;1.000000;,
  1.000000;0.000000;0.000000;,
  1.000000;0.000000;0.000000;,
  0.470588;0.882353;0.000000;,
  0.470588;0.882353;0.000000;,
  -0.894427;0.447214;0.000000;,
  -0.894427;0.447214;0.000000;,
  -0.454187;-0.890906;0.000000;,
  -0.454187;-0.890906;0.000000;,
  0.000000;0.000000;-1.000000;,
  0.000000;0.000000;-1.000000;,
  0.000000;0.000000;1.000000;,
  0.000000;0.000000;1.000000;,
  1.000000;0.000000;0.000000;,
  1.000000;0.000000;0.000000;,
  0.470588;0.882353;0.000000;,
  0.470588;0.882353;0.000000;,
  -0.894427;0.447214;0.000000;,
  -0.894427;0.447214;0.000000;,
  -0.454187;-0.890906;0.000000;,
  -0.454187;-0.890906;0.000000;;
  44;
  3;0,0,0;,
  3;1,1,1;,
  3;2,2,2;,
  3;3,3,3;,
  3;4,4,4;,
  3;5,5,5;,
  3;6,6,6;,
  3;7,7,7;,
  3;8,8,8;,
  3;9,9,9;,
  3;10,10,10;,
  3;11,11,11;,
  3;12,12,12;,
  3;13,13,13;,
  3;14,14,14;,
  3;15,15,15;,
  3;16,16,16;,
  3;17,17,17;,
  3;18,18,18;,
  3;19,19,19;,
  3;20,20,20;,
  3;21,21,21;,
  3;22,22,22;,
  3;23,23,23;,
  3;24,24,24;,
  3;25,25,25;,
  3;26,26,26;,
  3;27,27,27;,
  3;28,28,28;,
  3;29,29,29;,
  3;30,30,30;,
  3;31,31,31;,
  3;32,32,32;,
  3;33,33,33;,
  3;34,34,34;,
  3;35,35,35;,
  3;36,36,36;,
  3;37,37,37;,
  3;38,38,38;,
  3;39,39,39;,
  3;40,40,40;,
  3;41,41,41;,
  3;42,42,42;,
  3;43,43,43;;
 }
}