xof 0303txt 0032
template Vector {
 <3d82ab5e-62da-11cf-ab39-0020af71e433>
 FLOAT x;
 FLOAT y;
 FLOAT z;
}

template MeshFace {
 <3d82ab5f-62da-11cf-ab39-0020af71e433>
 DWORD nFaceVertexIndices;
 array DWORD faceVertexIndices[nFaceVertexIndices];
}

template Mesh {
 <3d82ab44-62da-11cf-ab39-0020af71e433>
 DWORD nVertices;
 array Vector vertices[nVertices];
 DWORD nFaces;
 array MeshFace faces[nFaces];
 [...]
}

template ColorRGBA {
 <35ff44e0-6c7c-11cf-8f52-0040333594a3>
 FLOAT red;
 FLOAT green;
 FLOAT blue;
 FLOAT alpha;
}

template ColorRGB {
 <d3e16e81-7835-11cf-8f52-0040333594a3>
 FLOAT red;
 FLOAT green;
 FLOAT blue;
}

template Material {
 <3d82ab4d-62da-11cf-ab39-0020af71e433>
 ColorRGBA faceColor;
 FLOAT power;
 ColorRGB specularColor;
 ColorRGB emissiveColor;
 [...]
}

template MeshMaterialList {
 <f6f23f42-7686-11cf-8f52-0040333594a3>
 DWORD nMaterials;
 DWORD nFaceIndexes;
 array DWORD faceIndexes[nFaceIndexes];
 [Material <3d82ab4d-62da-11cf-ab39-0020af71e433>]
}

template TextureFilename {
 <a42790e1-7810-11cf-8f52-0040333594a3>
 STRING filename;
}

template Coords2d {
 <f6f23f44-7686-11cf-8f52-0040333594a3>
 FLOAT u;
 FLOAT v;
}

template MeshTextureCoords {
 <f6f23f40-7686-11cf-8f52-0040333594a3>
 DWORD nTextureCoords;
 array Coords2d textureCoords[nTextureCoords];
}

template MeshNormals {
 <f6f23f43-7686-11cf-8f52-0040333594a3>
 DWORD nNormals;
 array Vector normals[nNormals];
 DWORD nFaceNormals;
 array MeshFace faceNormals[nFaceNormals];
}


Mesh  {
 6;
 -1.900000;-0.350000;0.000000;,
 -2.800000;-0.350000;0.000000;,
 -3.000000;-9.500000;0.000000;,
 -1.900000;-0.350000;25.500000;,
 -2.800000;-0.350000;25.500000;,
 -3.000000;-9.500000;25.500000;;
 4;
 3;0,1,4;,
 3;0,4,3;,
 3;1,2,5;,
 3;1,5,4;;

 MeshMaterialList  {
  1;
  4;
  0,
  0,
  0,
  0;

  Material  {
   1.000000;1.000000;1.000000;1.000000;;
   0.000000;
   0.000000;0.000000;0.000000;;
   0.000000;0.000000;0.000000;;

   TextureFilename  {
    "Pier2.png";
   }
  }
 }

 MeshTextureCoords  {
  6;
  1.000000;0.500000;,
  1.000000;1.000000;,
  1.000000;2.000000;,
  0.000000;0.500000;,
  0.000000;1.000000;,
  0.000000;2.000000;;
 }

 MeshNormals  {
  4;
  0.000000;1.000000;0.000000;,
  0.000000;1.000000;0.000000;,
  -0.999761;0.021853;0.000000;,
  -0.999761;0.021853;0.000000;;
  4;
  3;0,0,0;,
  3;1,1,1;,
  3;2,2,2;,
  3;3,3,3;;
 }
}