xof 0303txt 0032
template Vector {
 <3d82ab5e-62da-11cf-ab39-0020af71e433>
 FLOAT x;
 FLOAT y;
 FLOAT z;
}

template MeshFace {
 <3d82ab5f-62da-11cf-ab39-0020af71e433>
 DWORD nFaceVertexIndices;
 array DWORD faceVertexIndices[nFaceVertexIndices];
}

template Mesh {
 <3d82ab44-62da-11cf-ab39-0020af71e433>
 DWORD nVertices;
 array Vector vertices[nVertices];
 DWORD nFaces;
 array MeshFace faces[nFaces];
 [...]
}

template ColorRGBA {
 <35ff44e0-6c7c-11cf-8f52-0040333594a3>
 FLOAT red;
 FLOAT green;
 FLOAT blue;
 FLOAT alpha;
}

template ColorRGB {
 <d3e16e81-7835-11cf-8f52-0040333594a3>
 FLOAT red;
 FLOAT green;
 FLOAT blue;
}

template Material {
 <3d82ab4d-62da-11cf-ab39-0020af71e433>
 ColorRGBA faceColor;
 FLOAT power;
 ColorRGB specularColor;
 ColorRGB emissiveColor;
 [...]
}

template MeshMaterialList {
 <f6f23f42-7686-11cf-8f52-0040333594a3>
 DWORD nMaterials;
 DWORD nFaceIndexes;
 array DWORD faceIndexes[nFaceIndexes];
 [Material <3d82ab4d-62da-11cf-ab39-0020af71e433>]
}

template Coords2d {
 <f6f23f44-7686-11cf-8f52-0040333594a3>
 FLOAT u;
 FLOAT v;
}

template MeshTextureCoords {
 <f6f23f40-7686-11cf-8f52-0040333594a3>
 DWORD nTextureCoords;
 array Coords2d textureCoords[nTextureCoords];
}

template MeshNormals {
 <f6f23f43-7686-11cf-8f52-0040333594a3>
 DWORD nNormals;
 array Vector normals[nNormals];
 DWORD nFaceNormals;
 array MeshFace faceNormals[nFaceNormals];
}


Mesh  {
 156;
 -0.150000;1.200000;-0.150000;,
 0.150000;1.200000;-0.150000;,
 -0.150000;1.200000;0.150000;,
 0.150000;1.200000;0.150000;,
 -0.150000;1.050000;-0.300000;,
 0.150000;1.050000;-0.300000;,
 -0.300000;1.050000;-0.150000;,
 0.300000;1.050000;-0.150000;,
 -0.300000;1.050000;0.150000;,
 0.300000;1.050000;0.150000;,
 -0.150000;1.050000;0.300000;,
 0.150000;1.050000;0.300000;,
 -0.150000;0.800000;-0.300000;,
 0.150000;0.800000;-0.300000;,
 -0.300000;0.800000;-0.150000;,
 0.300000;0.800000;-0.150000;,
 -0.300000;0.800000;0.150000;,
 0.300000;0.800000;0.150000;,
 -0.150000;0.800000;0.300000;,
 0.150000;0.800000;0.300000;,
 -0.100000;1.000000;-0.301000;,
 0.100000;1.000000;-0.301000;,
 -0.100000;0.800000;-0.301000;,
 0.100000;0.800000;-0.301000;,
 0.181000;1.000000;-0.271000;,
 0.271000;1.000000;-0.181000;,
 0.181000;0.800000;-0.271000;,
 0.271000;0.800000;-0.181000;,
 0.301000;1.000000;-0.100000;,
 0.301000;1.000000;0.100000;,
 0.301000;0.800000;-0.100000;,
 0.301000;0.800000;0.100000;,
 0.271000;1.000000;0.181000;,
 0.181000;1.000000;0.271000;,
 0.271000;0.800000;0.181000;,
 0.181000;0.800000;0.271000;,
 0.100000;1.000000;0.301000;,
 -0.100000;1.000000;0.301000;,
 0.100000;0.800000;0.301000;,
 -0.100000;0.800000;0.301000;,
 -0.181000;1.000000;0.271000;,
 -0.271000;1.000000;0.181000;,
 -0.181000;0.800000;0.271000;,
 -0.271000;0.800000;0.181000;,
 -0.301000;1.000000;0.100000;,
 -0.301000;1.000000;-0.100000;,
 -0.301000;0.800000;0.100000;,
 -0.301000;0.800000;-0.100000;,
 -0.181000;1.000000;-0.271000;,
 -0.271000;1.000000;-0.181000;,
 -0.181000;0.800000;-0.271000;,
 -0.271000;0.800000;-0.181000;,
 -0.080000;1.200000;-0.151000;,
 0.080000;1.200000;-0.151000;,
 -0.080000;1.050000;-0.301000;,
 0.080000;1.050000;-0.301000;,
 -0.151000;1.200000;0.080000;,
 -0.151000;1.200000;-0.080000;,
 -0.301000;1.050000;0.080000;,
 -0.301000;1.050000;-0.080000;,
 -0.080000;1.050000;0.301000;,
 0.080000;1.050000;0.301000;,
 -0.080000;1.200000;0.151000;,
 0.080000;1.200000;0.151000;,
 0.151000;1.200000;-0.080000;,
 0.151000;1.200000;0.080000;,
 0.301000;1.050000;-0.080000;,
 0.301000;1.050000;0.080000;,
 0.900000;0.150000;-0.450000;,
 0.900000;0.050000;-0.450000;,
 -0.900000;0.050000;-0.450000;,
 -0.900000;0.150000;-0.450000;,
 0.900000;0.150000;-0.350000;,
 0.900000;0.050000;-0.350000;,
 -0.900000;0.050000;-0.350000;,
 -0.900000;0.150000;-0.350000;,
 0.900000;0.150000;0.350000;,
 0.900000;0.050000;0.350000;,
 -0.900000;0.050000;0.350000;,
 -0.900000;0.150000;0.350000;,
 0.900000;0.150000;0.450000;,
 0.900000;0.050000;0.450000;,
 -0.900000;0.050000;0.450000;,
 -0.900000;0.150000;0.450000;,
 0.100000;0.300000;-0.600000;,
 0.100000;0.000000;-0.600000;,
 -0.100000;0.000000;-0.600000;,
 -0.100000;0.300000;-0.600000;,
 0.100000;0.300000;-0.300000;,
 0.100000;0.000000;-0.300000;,
 -0.100000;0.000000;-0.300000;,
 -0.100000;0.300000;-0.300000;,
 -0.300000;0.300000;-0.100000;,
 -0.300000;0.000000;-0.100000;,
 -0.600000;0.000000;-0.100000;,
 -0.600000;0.300000;-0.100000;,
 -0.300000;0.300000;0.100000;,
 -0.300000;0.000000;0.100000;,
 -0.600000;0.000000;0.100000;,
 -0.600000;0.300000;0.100000;,
 0.600000;0.300000;-0.100000;,
 0.600000;0.000000;-0.100000;,
 0.300000;0.000000;-0.100000;,
 0.300000;0.300000;-0.100000;,
 0.600000;0.300000;0.100000;,
 0.600000;0.000000;0.100000;,
 0.300000;0.000000;0.100000;,
 0.300000;0.300000;0.100000;,
 0.075000;0.900000;0.000000;,
 0.075000;0.000000;0.000000;,
 0.072444;0.900000;0.019411;,
 0.072444;0.000000;0.019411;,
 0.064952;0.900000;0.037500;,
 0.064952;0.000000;0.037500;,
 0.053033;0.900000;0.053033;,
 0.053033;0.000000;0.053033;,
 0.037500;0.900000;0.064952;,
 0.037500;0.000000;0.064952;,
 0.019411;0.900000;0.072444;,
 0.019411;0.000000;0.072444;,
 0.000000;0.900000;0.075000;,
 0.000000;0.000000;0.075000;,
 -0.019411;0.900000;0.072444;,
 -0.019411;0.000000;0.072444;,
 -0.037500;0.900000;0.064952;,
 -0.037500;0.000000;0.064952;,
 -0.053033;0.900000;0.053033;,
 -0.053033;0.000000;0.053033;,
 -0.064952;0.900000;0.037500;,
 -0.064952;0.000000;0.037500;,
 -0.072444;0.900000;0.019411;,
 -0.072444;0.000000;0.019411;,
 -0.075000;0.900000;0.000000;,
 -0.075000;0.000000;0.000000;,
 -0.072444;0.900000;-0.019411;,
 -0.072444;0.000000;-0.019411;,
 -0.064952;0.900000;-0.037500;,
 -0.064952;0.000000;-0.037500;,
 -0.053033;0.900000;-0.053033;,
 -0.053033;0.000000;-0.053033;,
 -0.037500;0.900000;-0.064952;,
 -0.037500;0.000000;-0.064952;,
 -0.019411;0.900000;-0.072444;,
 -0.019411;0.000000;-0.072444;,
 -0.000000;0.900000;-0.075000;,
 -0.000000;0.000000;-0.075000;,
 0.019411;0.900000;-0.072444;,
 0.019411;0.000000;-0.072444;,
 0.037500;0.900000;-0.064952;,
 0.037500;0.000000;-0.064952;,
 0.053033;0.900000;-0.053033;,
 0.053033;0.000000;-0.053033;,
 0.064952;0.900000;-0.037500;,
 0.064952;0.000000;-0.037500;,
 0.072444;0.900000;-0.019411;,
 0.072444;0.000000;-0.019411;;
 260;
 3;0,1,3;,
 3;0,3,2;,
 3;2,3,1;,
 3;2,1,0;,
 3;1,0,4;,
 3;1,4,5;,
 3;5,4,0;,
 3;5,0,1;,
 3;1,5,7;,
 3;7,5,1;,
 3;3,1,7;,
 3;3,7,9;,
 3;9,7,1;,
 3;9,1,3;,
 3;3,9,11;,
 3;11,9,3;,
 3;2,3,11;,
 3;2,11,10;,
 3;10,11,3;,
 3;10,3,2;,
 3;2,10,8;,
 3;8,10,2;,
 3;0,2,8;,
 3;0,8,6;,
 3;6,8,2;,
 3;6,2,0;,
 3;0,6,4;,
 3;4,6,0;,
 3;5,4,12;,
 3;5,12,13;,
 3;13,12,4;,
 3;13,4,5;,
 3;7,5,13;,
 3;7,13,15;,
 3;15,13,5;,
 3;15,5,7;,
 3;9,7,15;,
 3;9,15,17;,
 3;17,15,7;,
 3;17,7,9;,
 3;11,9,17;,
 3;11,17,19;,
 3;19,17,9;,
 3;19,9,11;,
 3;10,11,19;,
 3;10,19,18;,
 3;18,19,11;,
 3;18,11,10;,
 3;8,10,18;,
 3;8,18,16;,
 3;16,18,10;,
 3;16,10,8;,
 3;6,8,16;,
 3;6,16,14;,
 3;14,16,8;,
 3;14,8,6;,
 3;4,6,14;,
 3;4,14,12;,
 3;12,14,6;,
 3;12,6,4;,
 3;20,21,23;,
 3;20,23,22;,
 3;22,23,21;,
 3;22,21,20;,
 3;24,25,27;,
 3;24,27,26;,
 3;26,27,25;,
 3;26,25,24;,
 3;28,29,31;,
 3;28,31,30;,
 3;30,31,29;,
 3;30,29,28;,
 3;32,33,35;,
 3;32,35,34;,
 3;34,35,33;,
 3;34,33,32;,
 3;36,37,39;,
 3;36,39,38;,
 3;38,39,37;,
 3;38,37,36;,
 3;40,41,43;,
 3;40,43,42;,
 3;42,43,41;,
 3;42,41,40;,
 3;44,45,47;,
 3;44,47,46;,
 3;46,47,45;,
 3;46,45,44;,
 3;48,49,51;,
 3;48,51,50;,
 3;50,51,49;,
 3;50,49,48;,
 3;52,53,55;,
 3;52,55,54;,
 3;54,55,53;,
 3;54,53,52;,
 3;56,57,59;,
 3;56,59,58;,
 3;58,59,57;,
 3;58,57,56;,
 3;60,61,63;,
 3;60,63,62;,
 3;62,63,61;,
 3;62,61,60;,
 3;64,65,67;,
 3;64,67,66;,
 3;66,67,65;,
 3;66,65,64;,
 3;68,69,70;,
 3;68,70,71;,
 3;71,70,74;,
 3;71,74,75;,
 3;75,74,73;,
 3;75,73,72;,
 3;72,73,69;,
 3;72,69,68;,
 3;68,71,75;,
 3;68,75,72;,
 3;69,73,74;,
 3;69,74,70;,
 3;76,77,78;,
 3;76,78,79;,
 3;79,78,82;,
 3;79,82,83;,
 3;83,82,81;,
 3;83,81,80;,
 3;80,81,77;,
 3;80,77,76;,
 3;76,79,83;,
 3;76,83,80;,
 3;77,81,82;,
 3;77,82,78;,
 3;84,85,86;,
 3;84,86,87;,
 3;87,86,90;,
 3;87,90,91;,
 3;91,90,89;,
 3;91,89,88;,
 3;88,89,85;,
 3;88,85,84;,
 3;84,87,91;,
 3;84,91,88;,
 3;85,89,90;,
 3;85,90,86;,
 3;92,93,94;,
 3;92,94,95;,
 3;95,94,98;,
 3;95,98,99;,
 3;99,98,97;,
 3;99,97,96;,
 3;96,97,93;,
 3;96,93,92;,
 3;92,95,99;,
 3;92,99,96;,
 3;93,97,98;,
 3;93,98,94;,
 3;100,101,102;,
 3;100,102,103;,
 3;103,102,106;,
 3;103,106,107;,
 3;107,106,105;,
 3;107,105,104;,
 3;104,105,101;,
 3;104,101,100;,
 3;100,103,107;,
 3;100,107,104;,
 3;101,105,106;,
 3;101,106,102;,
 3;109,108,110;,
 3;109,110,111;,
 3;111,110,112;,
 3;111,112,113;,
 3;113,112,114;,
 3;113,114,115;,
 3;115,114,116;,
 3;115,116,117;,
 3;117,116,118;,
 3;117,118,119;,
 3;119,118,120;,
 3;119,120,121;,
 3;121,120,122;,
 3;121,122,123;,
 3;123,122,124;,
 3;123,124,125;,
 3;125,124,126;,
 3;125,126,127;,
 3;127,126,128;,
 3;127,128,129;,
 3;129,128,130;,
 3;129,130,131;,
 3;131,130,132;,
 3;131,132,133;,
 3;133,132,134;,
 3;133,134,135;,
 3;135,134,136;,
 3;135,136,137;,
 3;137,136,138;,
 3;137,138,139;,
 3;139,138,140;,
 3;139,140,141;,
 3;141,140,142;,
 3;141,142,143;,
 3;143,142,144;,
 3;143,144,145;,
 3;145,144,146;,
 3;145,146,147;,
 3;147,146,148;,
 3;147,148,149;,
 3;149,148,150;,
 3;149,150,151;,
 3;151,150,152;,
 3;151,152,153;,
 3;153,152,154;,
 3;153,154,155;,
 3;155,154,108;,
 3;155,108,109;,
 3;154,152,150;,
 3;154,150,148;,
 3;154,148,146;,
 3;154,146,144;,
 3;154,144,142;,
 3;154,142,140;,
 3;154,140,138;,
 3;154,138,136;,
 3;154,136,134;,
 3;154,134,132;,
 3;154,132,130;,
 3;154,130,128;,
 3;154,128,126;,
 3;154,126,124;,
 3;154,124,122;,
 3;154,122,120;,
 3;154,120,118;,
 3;154,118,116;,
 3;154,116,114;,
 3;154,114,112;,
 3;154,112,110;,
 3;154,110,108;,
 3;109,111,113;,
 3;109,113,115;,
 3;109,115,117;,
 3;109,117,119;,
 3;109,119,121;,
 3;109,121,123;,
 3;109,123,125;,
 3;109,125,127;,
 3;109,127,129;,
 3;109,129,131;,
 3;109,131,133;,
 3;109,133,135;,
 3;109,135,137;,
 3;109,137,139;,
 3;109,139,141;,
 3;109,141,143;,
 3;109,143,145;,
 3;109,145,147;,
 3;109,147,149;,
 3;109,149,151;,
 3;109,151,153;,
 3;109,153,155;;

 MeshMaterialList  {
  8;
  260;
  0,
  0,
  0,
  0,
  0,
  0,
  0,
  0,
  0,
  0,
  0,
  0,
  0,
  0,
  0,
  0,
  0,
  0,
  0,
  0,
  0,
  0,
  0,
  0,
  0,
  0,
  0,
  0,
  0,
  0,
  0,
  0,
  0,
  0,
  0,
  0,
  0,
  0,
  0,
  0,
  0,
  0,
  0,
  0,
  0,
  0,
  0,
  0,
  0,
  0,
  0,
  0,
  0,
  0,
  0,
  0,
  0,
  0,
  0,
  0,
  1,
  1,
  1,
  1,
  1,
  1,
  1,
  1,
  1,
  1,
  1,
  1,
  1,
  1,
  1,
  1,
  1,
  1,
  1,
  1,
  1,
  1,
  1,
  1,
  1,
  1,
  1,
  1,
  1,
  1,
  1,
  1,
  1,
  1,
  1,
  1,
  1,
  1,
  1,
  1,
  1,
  1,
  1,
  1,
  1,
  1,
  1,
  1,
  2,
  2,
  2,
  2,
  2,
  2,
  2,
  2,
  2,
  2,
  2,
  2,
  3,
  3,
  3,
  3,
  3,
  3,
  3,
  3,
  3,
  3,
  3,
  3,
  4,
  4,
  4,
  4,
  4,
  4,
  4,
  4,
  4,
  4,
  4,
  4,
  5,
  5,
  5,
  5,
  5,
  5,
  5,
  5,
  5,
  5,
  5,
  5,
  6,
  6,
  6,
  6,
  6,
  6,
  6,
  6,
  6,
  6,
  6,
  6,
  7,
  7,
  7,
  7,
  7,
  7,
  7,
  7,
  7,
  7,
  7,
  7,
  7,
  7,
  7,
  7,
  7,
  7,
  7,
  7,
  7,
  7,
  7,
  7,
  7,
  7,
  7,
  7,
  7,
  7,
  7,
  7,
  7,
  7,
  7,
  7,
  7,
  7,
  7,
  7,
  7,
  7,
  7,
  7,
  7,
  7,
  7,
  7,
  7,
  7,
  7,
  7,
  7,
  7,
  7,
  7,
  7,
  7,
  7,
  7,
  7,
  7,
  7,
  7,
  7,
  7,
  7,
  7,
  7,
  7,
  7,
  7,
  7,
  7,
  7,
  7,
  7,
  7,
  7,
  7,
  7,
  7,
  7,
  7,
  7,
  7,
  7,
  7,
  7,
  7,
  7,
  7;

  Material  {
   0.501961;0.125490;1.000000;1.000000;;
   0.000000;
   0.000000;0.000000;0.000000;;
   0.000000;0.000000;0.000000;;
  }

  Material  {
   0.125490;0.125490;0.125490;1.000000;;
   0.000000;
   0.000000;0.000000;0.000000;;
   0.000000;0.000000;0.000000;;
  }

  Material  {
   0.125490;0.125490;0.125490;1.000000;;
   0.000000;
   0.000000;0.000000;0.000000;;
   0.000000;0.000000;0.000000;;
  }

  Material  {
   0.125490;0.125490;0.125490;1.000000;;
   0.000000;
   0.000000;0.000000;0.000000;;
   0.000000;0.000000;0.000000;;
  }

  Material  {
   1.000000;1.000000;0.862745;1.000000;;
   0.000000;
   0.000000;0.000000;0.000000;;
   0.000000;0.000000;0.000000;;
  }

  Material  {
   1.000000;1.000000;0.862745;1.000000;;
   0.000000;
   0.000000;0.000000;0.000000;;
   0.000000;0.000000;0.000000;;
  }

  Material  {
   1.000000;1.000000;0.862745;1.000000;;
   0.000000;
   0.000000;0.000000;0.000000;;
   0.000000;0.000000;0.000000;;
  }

  Material  {
   0.125490;0.125490;0.125490;1.000000;;
   0.000000;
   0.000000;0.000000;0.000000;;
   0.000000;0.000000;0.000000;;
  }
 }

 MeshTextureCoords  {
  156;
  0.000000;0.000000;,
  0.000000;0.000000;,
  0.000000;0.000000;,
  0.000000;0.000000;,
  0.000000;0.000000;,
  0.000000;0.000000;,
  0.000000;0.000000;,
  0.000000;0.000000;,
  0.000000;0.000000;,
  0.000000;0.000000;,
  0.000000;0.000000;,
  0.000000;0.000000;,
  0.000000;0.000000;,
  0.000000;0.000000;,
  0.000000;0.000000;,
  0.000000;0.000000;,
  0.000000;0.000000;,
  0.000000;0.000000;,
  0.000000;0.000000;,
  0.000000;0.000000;,
  0.000000;0.000000;,
  0.000000;0.000000;,
  0.000000;0.000000;,
  0.000000;0.000000;,
  0.000000;0.000000;,
  0.000000;0.000000;,
  0.000000;0.000000;,
  0.000000;0.000000;,
  0.000000;0.000000;,
  0.000000;0.000000;,
  0.000000;0.000000;,
  0.000000;0.000000;,
  0.000000;0.000000;,
  0.000000;0.000000;,
  0.000000;0.000000;,
  0.000000;0.000000;,
  0.000000;0.000000;,
  0.000000;0.000000;,
  0.000000;0.000000;,
  0.000000;0.000000;,
  0.000000;0.000000;,
  0.000000;0.000000;,
  0.000000;0.000000;,
  0.000000;0.000000;,
  0.000000;0.000000;,
  0.000000;0.000000;,
  0.000000;0.000000;,
  0.000000;0.000000;,
  0.000000;0.000000;,
  0.000000;0.000000;,
  0.000000;0.000000;,
  0.000000;0.000000;,
  0.000000;0.000000;,
  0.000000;0.000000;,
  0.000000;0.000000;,
  0.000000;0.000000;,
  0.000000;0.000000;,
  0.000000;0.000000;,
  0.000000;0.000000;,
  0.000000;0.000000;,
  0.000000;0.000000;,
  0.000000;0.000000;,
  0.000000;0.000000;,
  0.000000;0.000000;,
  0.000000;0.000000;,
  0.000000;0.000000;,
  0.000000;0.000000;,
  0.000000;0.000000;,
  0.000000;0.000000;,
  0.000000;0.000000;,
  0.000000;0.000000;,
  0.000000;0.000000;,
  0.000000;0.000000;,
  0.000000;0.000000;,
  0.000000;0.000000;,
  0.000000;0.000000;,
  0.000000;0.000000;,
  0.000000;0.000000;,
  0.000000;0.000000;,
  0.000000;0.000000;,
  0.000000;0.000000;,
  0.000000;0.000000;,
  0.000000;0.000000;,
  0.000000;0.000000;,
  0.000000;0.000000;,
  0.000000;0.000000;,
  0.000000;0.000000;,
  0.000000;0.000000;,
  0.000000;0.000000;,
  0.000000;0.000000;,
  0.000000;0.000000;,
  0.000000;0.000000;,
  0.000000;0.000000;,
  0.000000;0.000000;,
  0.000000;0.000000;,
  0.000000;0.000000;,
  0.000000;0.000000;,
  0.000000;0.000000;,
  0.000000;0.000000;,
  0.000000;0.000000;,
  0.000000;0.000000;,
  0.000000;0.000000;,
  0.000000;0.000000;,
  0.000000;0.000000;,
  0.000000;0.000000;,
  0.000000;0.000000;,
  0.000000;0.000000;,
  0.000000;0.000000;,
  0.000000;0.000000;,
  0.000000;0.000000;,
  0.000000;0.000000;,
  0.000000;0.000000;,
  0.000000;0.000000;,
  0.000000;0.000000;,
  0.000000;0.000000;,
  0.000000;0.000000;,
  0.000000;0.000000;,
  0.000000;0.000000;,
  0.000000;0.000000;,
  0.000000;0.000000;,
  0.000000;0.000000;,
  0.000000;0.000000;,
  0.000000;0.000000;,
  0.000000;0.000000;,
  0.000000;0.000000;,
  0.000000;0.000000;,
  0.000000;0.000000;,
  0.000000;0.000000;,
  0.000000;0.000000;,
  0.000000;0.000000;,
  0.000000;0.000000;,
  0.000000;0.000000;,
  0.000000;0.000000;,
  0.000000;0.000000;,
  0.000000;0.000000;,
  0.000000;0.000000;,
  0.000000;0.000000;,
  0.000000;0.000000;,
  0.000000;0.000000;,
  0.000000;0.000000;,
  0.000000;0.000000;,
  0.000000;0.000000;,
  0.000000;0.000000;,
  0.000000;0.000000;,
  0.000000;0.000000;,
  0.000000;0.000000;,
  0.000000;0.000000;,
  0.000000;0.000000;,
  0.000000;0.000000;,
  0.000000;0.000000;,
  0.000000;0.000000;,
  0.000000;0.000000;,
  0.000000;0.000000;,
  0.000000;0.000000;,
  0.000000;0.000000;,
  0.000000;0.000000;;
 }

 MeshNormals  {
  216;
  0.000000;-1.000000;0.000000;,
  0.000000;-1.000000;0.000000;,
  0.000000;1.000000;0.000000;,
  0.000000;1.000000;0.000000;,
  0.000000;-0.707107;0.707107;,
  0.000000;-0.707107;0.707107;,
  0.000000;0.707107;-0.707107;,
  0.000000;0.707107;-0.707107;,
  -0.577350;-0.577350;0.577350;,
  0.577350;0.577350;-0.577350;,
  -0.707107;-0.707107;0.000000;,
  -0.707107;-0.707107;0.000000;,
  0.707107;0.707107;0.000000;,
  0.707107;0.707107;0.000000;,
  -0.577350;-0.577350;-0.577350;,
  0.577350;0.577350;0.577350;,
  0.000000;-0.707107;-0.707107;,
  0.000000;-0.707107;-0.707107;,
  0.000000;0.707107;0.707107;,
  0.000000;0.707107;0.707107;,
  0.577350;-0.577350;-0.577350;,
  -0.577350;0.577350;0.577350;,
  0.707107;-0.707107;0.000000;,
  0.707107;-0.707107;0.000000;,
  -0.707107;0.707107;0.000000;,
  -0.707107;0.707107;0.000000;,
  0.577350;-0.577350;0.577350;,
  -0.577350;0.577350;-0.577350;,
  0.000000;0.000000;1.000000;,
  0.000000;0.000000;1.000000;,
  0.000000;0.000000;-1.000000;,
  0.000000;0.000000;-1.000000;,
  -0.707107;0.000000;0.707107;,
  -0.707107;0.000000;0.707107;,
  0.707107;0.000000;-0.707107;,
  0.707107;0.000000;-0.707107;,
  -1.000000;0.000000;0.000000;,
  -1.000000;0.000000;0.000000;,
  1.000000;0.000000;0.000000;,
  1.000000;0.000000;0.000000;,
  -0.707107;0.000000;-0.707107;,
  -0.707107;0.000000;-0.707107;,
  0.707107;0.000000;0.707107;,
  0.707107;0.000000;0.707107;,
  0.000000;0.000000;-1.000000;,
  0.000000;0.000000;-1.000000;,
  0.000000;0.000000;1.000000;,
  0.000000;0.000000;1.000000;,
  0.707107;0.000000;-0.707107;,
  0.707107;0.000000;-0.707107;,
  -0.707107;0.000000;0.707107;,
  -0.707107;0.000000;0.707107;,
  1.000000;0.000000;0.000000;,
  1.000000;0.000000;0.000000;,
  -1.000000;0.000000;0.000000;,
  -1.000000;0.000000;0.000000;,
  0.707107;0.000000;0.707107;,
  0.707107;0.000000;0.707107;,
  -0.707107;0.000000;-0.707107;,
  -0.707107;0.000000;-0.707107;,
  0.000000;0.000000;-1.000000;,
  0.000000;0.000000;-1.000000;,
  0.000000;0.000000;1.000000;,
  0.000000;0.000000;1.000000;,
  0.707107;0.000000;-0.707107;,
  0.707107;0.000000;-0.707107;,
  -0.707107;0.000000;0.707107;,
  -0.707107;0.000000;0.707107;,
  1.000000;0.000000;0.000000;,
  1.000000;0.000000;0.000000;,
  -1.000000;0.000000;0.000000;,
  -1.000000;0.000000;0.000000;,
  0.707107;0.000000;0.707107;,
  0.707107;0.000000;0.707107;,
  -0.707107;0.000000;-0.707107;,
  -0.707107;0.000000;-0.707107;,
  0.000000;0.000000;1.000000;,
  0.000000;0.000000;1.000000;,
  0.000000;0.000000;-1.000000;,
  0.000000;0.000000;-1.000000;,
  -0.707107;0.000000;0.707107;,
  -0.707107;0.000000;0.707107;,
  0.707107;0.000000;-0.707107;,
  0.707107;0.000000;-0.707107;,
  -1.000000;0.000000;0.000000;,
  -1.000000;0.000000;0.000000;,
  1.000000;0.000000;0.000000;,
  1.000000;0.000000;0.000000;,
  0.707107;0.000000;0.707107;,
  0.707107;0.000000;0.707107;,
  -0.707107;0.000000;-0.707107;,
  -0.707107;0.000000;-0.707107;,
  0.000000;0.707107;-0.707107;,
  0.000000;0.707107;-0.707107;,
  0.000000;-0.707107;0.707107;,
  0.000000;-0.707107;0.707107;,
  -0.707107;0.707107;0.000000;,
  -0.707107;0.707107;0.000000;,
  0.707107;-0.707107;0.000000;,
  0.707107;-0.707107;0.000000;,
  0.000000;0.707107;0.707107;,
  0.000000;0.707107;0.707107;,
  0.000000;-0.707107;-0.707107;,
  0.000000;-0.707107;-0.707107;,
  0.707107;0.707107;0.000000;,
  0.707107;0.707107;0.000000;,
  -0.707107;-0.707107;0.000000;,
  -0.707107;-0.707107;0.000000;,
  0.000000;0.000000;-1.000000;,
  0.000000;0.000000;-1.000000;,
  -1.000000;0.000000;0.000000;,
  -1.000000;0.000000;0.000000;,
  0.000000;0.000000;1.000000;,
  0.000000;0.000000;1.000000;,
  1.000000;0.000000;0.000000;,
  1.000000;0.000000;0.000000;,
  0.000000;1.000000;0.000000;,
  0.000000;1.000000;0.000000;,
  0.000000;-1.000000;0.000000;,
  0.000000;-1.000000;0.000000;,
  0.000000;0.000000;-1.000000;,
  0.000000;0.000000;-1.000000;,
  -1.000000;0.000000;0.000000;,
  -1.000000;0.000000;0.000000;,
  0.000000;0.000000;1.000000;,
  0.000000;0.000000;1.000000;,
  1.000000;0.000000;0.000000;,
  1.000000;0.000000;0.000000;,
  0.000000;1.000000;0.000000;,
  0.000000;1.000000;0.000000;,
  0.000000;-1.000000;0.000000;,
  0.000000;-1.000000;0.000000;,
  0.000000;0.000000;-1.000000;,
  0.000000;0.000000;-1.000000;,
  -1.000000;0.000000;0.000000;,
  -1.000000;0.000000;0.000000;,
  0.000000;0.000000;1.000000;,
  0.000000;0.000000;1.000000;,
  1.000000;0.000000;0.000000;,
  1.000000;0.000000;0.000000;,
  0.000000;1.000000;0.000000;,
  0.000000;1.000000;0.000000;,
  0.000000;-1.000000;0.000000;,
  0.000000;-1.000000;0.000000;,
  0.000000;0.000000;-1.000000;,
  0.000000;0.000000;-1.000000;,
  -1.000000;0.000000;0.000000;,
  -1.000000;0.000000;0.000000;,
  0.000000;0.000000;1.000000;,
  0.000000;0.000000;1.000000;,
  1.000000;0.000000;0.000000;,
  1.000000;0.000000;0.000000;,
  0.000000;1.000000;0.000000;,
  0.000000;1.000000;0.000000;,
  0.000000;-1.000000;0.000000;,
  0.000000;-1.000000;0.000000;,
  0.000000;0.000000;-1.000000;,
  0.000000;0.000000;-1.000000;,
  -1.000000;0.000000;0.000000;,
  -1.000000;0.000000;0.000000;,
  0.000000;0.000000;1.000000;,
  0.000000;0.000000;1.000000;,
  1.000000;0.000000;0.000000;,
  1.000000;0.000000;0.000000;,
  0.000000;1.000000;0.000000;,
  0.000000;1.000000;0.000000;,
  0.000000;-1.000000;0.000000;,
  0.000000;-1.000000;0.000000;,
  0.705593;0.707107;-0.046247;,
  0.000000;-1.000000;0.000000;,
  0.369644;0.923880;0.099046;,
  0.669581;-0.707107;0.227292;,
  0.331414;0.923879;0.191342;,
  0.318190;-0.923880;0.212608;,
  0.270598;0.923880;0.270598;,
  0.252321;-0.923879;0.287717;,
  0.191342;0.923880;0.331414;,
  0.169257;-0.923880;0.343218;,
  0.099046;0.923880;0.369644;,
  0.074658;-0.923880;0.375330;,
  0.000000;0.923880;0.382683;,
  -0.025029;-0.923880;0.381864;,
  -0.099046;0.923880;0.369644;,
  -0.123010;-0.923880;0.362375;,
  -0.191342;0.923879;0.331414;,
  -0.212608;-0.923880;0.318190;,
  -0.270598;0.923879;0.270598;,
  -0.287717;-0.923880;0.252321;,
  -0.331414;0.923879;0.191342;,
  -0.343218;-0.923880;0.169257;,
  -0.369644;0.923879;0.099046;,
  -0.375330;-0.923880;0.074658;,
  -0.382683;0.923879;0.000000;,
  -0.381864;-0.923880;-0.025029;,
  -0.369644;0.923880;-0.099046;,
  -0.362374;-0.923880;-0.123010;,
  -0.331414;0.923879;-0.191342;,
  -0.318190;-0.923880;-0.212608;,
  -0.270598;0.923880;-0.270598;,
  -0.252321;-0.923880;-0.287717;,
  -0.191342;0.923880;-0.331414;,
  -0.169257;-0.923880;-0.343218;,
  -0.099046;0.923880;-0.369644;,
  -0.074658;-0.923880;-0.375330;,
  0.000000;0.923880;-0.382683;,
  0.025029;-0.923880;-0.381864;,
  0.099046;0.923880;-0.369644;,
  0.123010;-0.923880;-0.362374;,
  0.191342;0.923879;-0.331414;,
  0.212608;-0.923879;-0.318190;,
  0.270598;0.923879;-0.270598;,
  0.287717;-0.923880;-0.252321;,
  0.612372;0.707107;-0.353553;,
  0.343218;-0.923880;-0.169257;,
  0.000000;1.000000;-0.000000;,
  0.693520;-0.707107;-0.137950;;
  260;
  3;0,0,0;,
  3;1,1,1;,
  3;2,2,2;,
  3;3,3,3;,
  3;4,4,4;,
  3;5,5,5;,
  3;6,6,6;,
  3;7,7,7;,
  3;8,8,8;,
  3;9,9,9;,
  3;10,10,10;,
  3;11,11,11;,
  3;12,12,12;,
  3;13,13,13;,
  3;14,14,14;,
  3;15,15,15;,
  3;16,16,16;,
  3;17,17,17;,
  3;18,18,18;,
  3;19,19,19;,
  3;20,20,20;,
  3;21,21,21;,
  3;22,22,22;,
  3;23,23,23;,
  3;24,24,24;,
  3;25,25,25;,
  3;26,26,26;,
  3;27,27,27;,
  3;28,28,28;,
  3;29,29,29;,
  3;30,30,30;,
  3;31,31,31;,
  3;32,32,32;,
  3;33,33,33;,
  3;34,34,34;,
  3;35,35,35;,
  3;36,36,36;,
  3;37,37,37;,
  3;38,38,38;,
  3;39,39,39;,
  3;40,40,40;,
  3;41,41,41;,
  3;42,42,42;,
  3;43,43,43;,
  3;44,44,44;,
  3;45,45,45;,
  3;46,46,46;,
  3;47,47,47;,
  3;48,48,48;,
  3;49,49,49;,
  3;50,50,50;,
  3;51,51,51;,
  3;52,52,52;,
  3;53,53,53;,
  3;54,54,54;,
  3;55,55,55;,
  3;56,56,56;,
  3;57,57,57;,
  3;58,58,58;,
  3;59,59,59;,
  3;60,60,60;,
  3;61,61,61;,
  3;62,62,62;,
  3;63,63,63;,
  3;64,64,64;,
  3;65,65,65;,
  3;66,66,66;,
  3;67,67,67;,
  3;68,68,68;,
  3;69,69,69;,
  3;70,70,70;,
  3;71,71,71;,
  3;72,72,72;,
  3;73,73,73;,
  3;74,74,74;,
  3;75,75,75;,
  3;76,76,76;,
  3;77,77,77;,
  3;78,78,78;,
  3;79,79,79;,
  3;80,80,80;,
  3;81,81,81;,
  3;82,82,82;,
  3;83,83,83;,
  3;84,84,84;,
  3;85,85,85;,
  3;86,86,86;,
  3;87,87,87;,
  3;88,88,88;,
  3;89,89,89;,
  3;90,90,90;,
  3;91,91,91;,
  3;92,92,92;,
  3;93,93,93;,
  3;94,94,94;,
  3;95,95,95;,
  3;96,96,96;,
  3;97,97,97;,
  3;98,98,98;,
  3;99,99,99;,
  3;100,100,100;,
  3;101,101,101;,
  3;102,102,102;,
  3;103,103,103;,
  3;104,104,104;,
  3;105,105,105;,
  3;106,106,106;,
  3;107,107,107;,
  3;108,108,108;,
  3;109,109,109;,
  3;110,110,110;,
  3;111,111,111;,
  3;112,112,112;,
  3;113,113,113;,
  3;114,114,114;,
  3;115,115,115;,
  3;116,116,116;,
  3;117,117,117;,
  3;118,118,118;,
  3;119,119,119;,
  3;120,120,120;,
  3;121,121,121;,
  3;122,122,122;,
  3;123,123,123;,
  3;124,124,124;,
  3;125,125,125;,
  3;126,126,126;,
  3;127,127,127;,
  3;128,128,128;,
  3;129,129,129;,
  3;130,130,130;,
  3;131,131,131;,
  3;132,132,132;,
  3;133,133,133;,
  3;134,134,134;,
  3;135,135,135;,
  3;136,136,136;,
  3;137,137,137;,
  3;138,138,138;,
  3;139,139,139;,
  3;140,140,140;,
  3;141,141,141;,
  3;142,142,142;,
  3;143,143,143;,
  3;144,144,144;,
  3;145,145,145;,
  3;146,146,146;,
  3;147,147,147;,
  3;148,148,148;,
  3;149,149,149;,
  3;150,150,150;,
  3;151,151,151;,
  3;152,152,152;,
  3;153,153,153;,
  3;154,154,154;,
  3;155,155,155;,
  3;156,156,156;,
  3;157,157,157;,
  3;158,158,158;,
  3;159,159,159;,
  3;160,160,160;,
  3;161,161,161;,
  3;162,162,162;,
  3;163,163,163;,
  3;164,164,164;,
  3;165,165,165;,
  3;166,166,166;,
  3;167,167,167;,
  3;169,168,170;,
  3;169,170,171;,
  3;171,170,172;,
  3;171,172,173;,
  3;173,172,174;,
  3;173,174,175;,
  3;175,174,176;,
  3;175,176,177;,
  3;177,176,178;,
  3;177,178,179;,
  3;179,178,180;,
  3;179,180,181;,
  3;181,180,182;,
  3;181,182,183;,
  3;183,182,184;,
  3;183,184,185;,
  3;185,184,186;,
  3;185,186,187;,
  3;187,186,188;,
  3;187,188,189;,
  3;189,188,190;,
  3;189,190,191;,
  3;191,190,192;,
  3;191,192,193;,
  3;193,192,194;,
  3;193,194,195;,
  3;195,194,196;,
  3;195,196,197;,
  3;197,196,198;,
  3;197,198,199;,
  3;199,198,200;,
  3;199,200,201;,
  3;201,200,202;,
  3;201,202,203;,
  3;203,202,204;,
  3;203,204,205;,
  3;205,204,206;,
  3;205,206,207;,
  3;207,206,208;,
  3;207,208,209;,
  3;209,208,210;,
  3;209,210,211;,
  3;211,210,212;,
  3;211,212,213;,
  3;213,212,214;,
  3;213,214,215;,
  3;215,214,168;,
  3;215,168,169;,
  3;214,212,210;,
  3;214,210,208;,
  3;214,208,206;,
  3;214,206,204;,
  3;214,204,202;,
  3;214,202,200;,
  3;214,200,198;,
  3;214,198,196;,
  3;214,196,194;,
  3;214,194,192;,
  3;214,192,190;,
  3;214,190,188;,
  3;214,188,186;,
  3;214,186,184;,
  3;214,184,182;,
  3;214,182,180;,
  3;214,180,178;,
  3;214,178,176;,
  3;214,176,174;,
  3;214,174,172;,
  3;214,172,170;,
  3;214,170,168;,
  3;169,171,173;,
  3;169,173,175;,
  3;169,175,177;,
  3;169,177,179;,
  3;169,179,181;,
  3;169,181,183;,
  3;169,183,185;,
  3;169,185,187;,
  3;169,187,189;,
  3;169,189,191;,
  3;169,191,193;,
  3;169,193,195;,
  3;169,195,197;,
  3;169,197,199;,
  3;169,199,201;,
  3;169,201,203;,
  3;169,203,205;,
  3;169,205,207;,
  3;169,207,209;,
  3;169,209,211;,
  3;169,211,213;,
  3;169,213,215;;
 }
}