xof 0303txt 0032
template Vector {
 <3d82ab5e-62da-11cf-ab39-0020af71e433>
 FLOAT x;
 FLOAT y;
 FLOAT z;
}

template MeshFace {
 <3d82ab5f-62da-11cf-ab39-0020af71e433>
 DWORD nFaceVertexIndices;
 array DWORD faceVertexIndices[nFaceVertexIndices];
}

template Mesh {
 <3d82ab44-62da-11cf-ab39-0020af71e433>
 DWORD nVertices;
 array Vector vertices[nVertices];
 DWORD nFaces;
 array MeshFace faces[nFaces];
 [...]
}

template ColorRGBA {
 <35ff44e0-6c7c-11cf-8f52-0040333594a3>
 FLOAT red;
 FLOAT green;
 FLOAT blue;
 FLOAT alpha;
}

template ColorRGB {
 <d3e16e81-7835-11cf-8f52-0040333594a3>
 FLOAT red;
 FLOAT green;
 FLOAT blue;
}

template Material {
 <3d82ab4d-62da-11cf-ab39-0020af71e433>
 ColorRGBA faceColor;
 FLOAT power;
 ColorRGB specularColor;
 ColorRGB emissiveColor;
 [...]
}

template MeshMaterialList {
 <f6f23f42-7686-11cf-8f52-0040333594a3>
 DWORD nMaterials;
 DWORD nFaceIndexes;
 array DWORD faceIndexes[nFaceIndexes];
 [Material <3d82ab4d-62da-11cf-ab39-0020af71e433>]
}

template TextureFilename {
 <a42790e1-7810-11cf-8f52-0040333594a3>
 STRING filename;
}

template Coords2d {
 <f6f23f44-7686-11cf-8f52-0040333594a3>
 FLOAT u;
 FLOAT v;
}

template MeshTextureCoords {
 <f6f23f40-7686-11cf-8f52-0040333594a3>
 DWORD nTextureCoords;
 array Coords2d textureCoords[nTextureCoords];
}

template MeshNormals {
 <f6f23f43-7686-11cf-8f52-0040333594a3>
 DWORD nNormals;
 array Vector normals[nNormals];
 DWORD nFaceNormals;
 array MeshFace faceNormals[nFaceNormals];
}


Mesh  {
 56;
 1.100000;0.500000;0.000000;,
 1.100000;-0.500000;0.000000;,
 -1.100000;-0.500000;0.000000;,
 -1.100000;0.500000;0.000000;,
 1.100000;0.500000;8.699999;,
 1.100000;-0.500000;8.699999;,
 -1.100000;-0.500000;8.699999;,
 -1.100000;0.500000;8.699999;,
 1.100000;2.730000;0.250000;,
 1.100000;1.730000;0.250000;,
 -1.100000;1.730000;0.250000;,
 -1.100000;2.730000;0.250000;,
 1.100000;2.730000;8.649999;,
 1.100000;1.730000;8.649999;,
 -1.100000;1.730000;8.649999;,
 -1.100000;2.730000;8.649999;,
 -1.140000;2.730000;1.550000;,
 1.140000;2.730000;1.550000;,
 -1.140000;2.830000;1.550000;,
 1.140000;2.830000;1.550000;,
 -1.140000;2.960000;1.750000;,
 1.140000;2.960000;1.750000;,
 -1.140000;2.960000;3.950000;,
 1.140000;2.960000;3.950000;,
 -1.140000;2.830000;4.120000;,
 1.140000;2.830000;4.120000;,
 -1.140000;2.730000;4.150000;,
 1.140000;2.730000;4.150000;,
 -1.150000;2.830000;0.150000;,
 1.150000;2.830000;0.150000;,
 -1.150000;2.300000;0.150000;,
 1.150000;2.300000;0.150000;,
 -1.150000;2.300000;0.200000;,
 1.150000;2.300000;0.200000;,
 -1.150000;1.300000;0.050000;,
 1.150000;1.300000;0.050000;,
 -1.150000;0.300000;0.000000;,
 1.150000;0.300000;0.000000;,
 -1.150000;2.830000;8.700000;,
 1.150000;2.830000;8.700000;,
 -1.150000;1.900000;8.800000;,
 1.150000;1.900000;8.800000;,
 -1.150000;0.700000;8.800000;,
 1.150000;0.700000;8.800000;,
 -1.150000;0.700000;8.890000;,
 1.150000;0.700000;8.890000;,
 -1.150000;0.500000;8.890000;,
 1.150000;0.500000;8.890000;,
 1.150000;2.980000;-0.500000;,
 1.150000;2.980000;8.990000;,
 1.150000;0.000000;-0.500000;,
 1.150000;0.000000;8.990000;,
 -1.150000;2.980000;0.000000;,
 -1.150000;2.980000;8.990000;,
 -1.150000;0.000000;0.000000;,
 -1.150000;0.000000;8.990000;;
 68;
 3;0,1,2;,
 3;0,2,3;,
 3;3,2,6;,
 3;3,6,7;,
 3;7,6,5;,
 3;7,5,4;,
 3;4,5,1;,
 3;4,1,0;,
 3;0,3,7;,
 3;0,7,4;,
 3;1,5,6;,
 3;1,6,2;,
 3;8,9,10;,
 3;8,10,11;,
 3;11,10,14;,
 3;11,14,15;,
 3;15,14,13;,
 3;15,13,12;,
 3;12,13,9;,
 3;12,9,8;,
 3;8,11,15;,
 3;8,15,12;,
 3;9,13,14;,
 3;9,14,10;,
 3;16,17,19;,
 3;16,19,18;,
 3;18,19,17;,
 3;18,17,16;,
 3;18,19,21;,
 3;18,21,20;,
 3;20,21,19;,
 3;20,19,18;,
 3;20,21,23;,
 3;20,23,22;,
 3;22,23,21;,
 3;22,21,20;,
 3;22,23,25;,
 3;22,25,24;,
 3;24,25,23;,
 3;24,23,22;,
 3;24,25,27;,
 3;24,27,26;,
 3;26,27,25;,
 3;26,25,24;,
 3;28,29,31;,
 3;28,31,30;,
 3;30,31,33;,
 3;30,33,32;,
 3;32,33,35;,
 3;32,35,34;,
 3;34,35,37;,
 3;34,37,36;,
 3;38,40,41;,
 3;38,41,39;,
 3;40,42,43;,
 3;40,43,41;,
 3;42,44,45;,
 3;42,45,43;,
 3;44,46,47;,
 3;44,47,45;,
 3;48,49,51;,
 3;48,51,50;,
 3;50,51,49;,
 3;50,49,48;,
 3;52,54,55;,
 3;52,55,53;,
 3;53,55,54;,
 3;53,54,52;;

 MeshMaterialList  {
  7;
  68;
  0,
  0,
  0,
  0,
  0,
  0,
  0,
  0,
  0,
  0,
  0,
  0,
  1,
  1,
  1,
  1,
  1,
  1,
  1,
  1,
  1,
  1,
  1,
  1,
  2,
  2,
  2,
  2,
  2,
  2,
  2,
  2,
  2,
  2,
  2,
  2,
  2,
  2,
  2,
  2,
  2,
  2,
  2,
  2,
  3,
  3,
  3,
  3,
  3,
  3,
  3,
  3,
  4,
  4,
  4,
  4,
  4,
  4,
  4,
  4,
  5,
  5,
  5,
  5,
  6,
  6,
  6,
  6;

  Material  {
   0.000000;0.000000;0.000000;0.196078;;
   0.000000;
   0.000000;0.000000;0.000000;;
   0.000000;0.000000;0.000000;;
  }

  Material  {
   0.627451;0.823529;0.980392;1.000000;;
   0.000000;
   0.000000;0.000000;0.000000;;
   0.000000;0.000000;0.000000;;
  }

  Material  {
   0.627451;0.823529;0.980392;1.000000;;
   0.000000;
   0.000000;0.000000;0.000000;;
   0.000000;0.000000;0.000000;;
  }

  Material  {
   1.000000;1.000000;1.000000;1.000000;;
   0.000000;
   0.000000;0.000000;0.000000;;
   0.000000;0.000000;0.000000;;

   TextureFilename  {
    "Yurubus1.dds";
   }
  }

  Material  {
   1.000000;1.000000;1.000000;1.000000;;
   0.000000;
   0.000000;0.000000;0.000000;;
   0.000000;0.000000;0.000000;;

   TextureFilename  {
    "Yurubus2.dds";
   }
  }

  Material  {
   1.000000;1.000000;1.000000;1.000000;;
   0.000000;
   0.000000;0.000000;0.000000;;
   0.000000;0.000000;0.000000;;

   TextureFilename  {
    "Yurubus3L.dds";
   }
  }

  Material  {
   1.000000;1.000000;1.000000;1.000000;;
   0.000000;
   0.000000;0.000000;0.000000;;
   0.000000;0.000000;0.000000;;

   TextureFilename  {
    "Yurubus3R.dds";
   }
  }
 }

 MeshTextureCoords  {
  56;
  0.000000;0.000000;,
  0.000000;0.000000;,
  0.000000;0.000000;,
  0.000000;0.000000;,
  0.000000;0.000000;,
  0.000000;0.000000;,
  0.000000;0.000000;,
  0.000000;0.000000;,
  0.000000;0.000000;,
  0.000000;0.000000;,
  0.000000;0.000000;,
  0.000000;0.000000;,
  0.000000;0.000000;,
  0.000000;0.000000;,
  0.000000;0.000000;,
  0.000000;0.000000;,
  0.000000;0.000000;,
  0.000000;0.000000;,
  0.000000;0.000000;,
  0.000000;0.000000;,
  0.000000;0.000000;,
  0.000000;0.000000;,
  0.000000;0.000000;,
  0.000000;0.000000;,
  0.000000;0.000000;,
  0.000000;0.000000;,
  0.000000;0.000000;,
  0.000000;0.000000;,
  0.050000;0.000000;,
  0.880000;0.000000;,
  0.050000;0.180000;,
  0.880000;0.180000;,
  0.050000;0.190000;,
  0.880000;0.190000;,
  0.050000;0.600000;,
  0.880000;0.600000;,
  0.050000;1.000000;,
  0.880000;1.000000;,
  1.000000;0.000000;,
  0.000000;0.000000;,
  1.000000;0.400000;,
  0.000000;0.400000;,
  1.000000;0.910000;,
  0.000000;0.910000;,
  1.000000;0.920000;,
  0.000000;0.920000;,
  1.000000;1.000000;,
  0.000000;1.000000;,
  0.000000;0.000000;,
  1.000000;0.000000;,
  0.000000;1.000000;,
  1.000000;1.000000;,
  1.000000;0.000000;,
  0.000000;0.000000;,
  1.000000;1.000000;,
  0.000000;1.000000;;
 }

 MeshNormals  {
  68;
  0.000000;0.000000;-1.000000;,
  0.000000;0.000000;-1.000000;,
  -1.000000;0.000000;0.000000;,
  -1.000000;0.000000;0.000000;,
  0.000000;0.000000;1.000000;,
  0.000000;0.000000;1.000000;,
  1.000000;0.000000;0.000000;,
  1.000000;0.000000;0.000000;,
  0.000000;1.000000;0.000000;,
  0.000000;1.000000;0.000000;,
  0.000000;-1.000000;0.000000;,
  0.000000;-1.000000;0.000000;,
  0.000000;0.000000;-1.000000;,
  0.000000;0.000000;-1.000000;,
  -1.000000;0.000000;0.000000;,
  -1.000000;0.000000;0.000000;,
  0.000000;0.000000;1.000000;,
  0.000000;0.000000;1.000000;,
  1.000000;0.000000;0.000000;,
  1.000000;0.000000;0.000000;,
  0.000000;1.000000;0.000000;,
  0.000000;1.000000;0.000000;,
  0.000000;-1.000000;0.000000;,
  0.000000;-1.000000;0.000000;,
  0.000000;0.000000;1.000000;,
  0.000000;0.000000;1.000000;,
  0.000000;0.000000;-1.000000;,
  0.000000;0.000000;-1.000000;,
  0.000000;-0.838443;0.544989;,
  0.000000;-0.838443;0.544989;,
  0.000000;0.838443;-0.544989;,
  0.000000;0.838443;-0.544989;,
  0.000000;-1.000000;0.000000;,
  0.000000;-1.000000;0.000000;,
  0.000000;1.000000;0.000000;,
  0.000000;1.000000;0.000000;,
  0.000000;-0.794357;-0.607451;,
  0.000000;-0.794357;-0.607451;,
  0.000000;0.794357;0.607451;,
  0.000000;0.794357;0.607451;,
  0.000000;-0.287350;-0.957826;,
  0.000000;-0.287350;-0.957826;,
  0.000000;0.287350;0.957826;,
  0.000000;0.287350;0.957826;,
  0.000000;0.000000;-1.000000;,
  0.000000;0.000000;-1.000000;,
  0.000000;-1.000000;0.000000;,
  0.000000;-1.000000;0.000000;,
  0.000000;0.148340;-0.988936;,
  0.000000;0.148340;-0.988936;,
  0.000000;0.049938;-0.998752;,
  0.000000;0.049938;-0.998752;,
  0.000000;0.106911;0.994269;,
  0.000000;0.106911;0.994269;,
  0.000000;0.000000;1.000000;,
  0.000000;0.000000;1.000000;,
  0.000000;1.000000;0.000000;,
  0.000000;1.000000;0.000000;,
  0.000000;0.000000;1.000000;,
  0.000000;0.000000;1.000000;,
  1.000000;0.000000;0.000000;,
  1.000000;0.000000;0.000000;,
  -1.000000;0.000000;0.000000;,
  -1.000000;0.000000;0.000000;,
  -1.000000;0.000000;0.000000;,
  -1.000000;0.000000;0.000000;,
  1.000000;0.000000;0.000000;,
  1.000000;0.000000;0.000000;;
  68;
  3;0,0,0;,
  3;1,1,1;,
  3;2,2,2;,
  3;3,3,3;,
  3;4,4,4;,
  3;5,5,5;,
  3;6,6,6;,
  3;7,7,7;,
  3;8,8,8;,
  3;9,9,9;,
  3;10,10,10;,
  3;11,11,11;,
  3;12,12,12;,
  3;13,13,13;,
  3;14,14,14;,
  3;15,15,15;,
  3;16,16,16;,
  3;17,17,17;,
  3;18,18,18;,
  3;19,19,19;,
  3;20,20,20;,
  3;21,21,21;,
  3;22,22,22;,
  3;23,23,23;,
  3;24,24,24;,
  3;25,25,25;,
  3;26,26,26;,
  3;27,27,27;,
  3;28,28,28;,
  3;29,29,29;,
  3;30,30,30;,
  3;31,31,31;,
  3;32,32,32;,
  3;33,33,33;,
  3;34,34,34;,
  3;35,35,35;,
  3;36,36,36;,
  3;37,37,37;,
  3;38,38,38;,
  3;39,39,39;,
  3;40,40,40;,
  3;41,41,41;,
  3;42,42,42;,
  3;43,43,43;,
  3;44,44,44;,
  3;45,45,45;,
  3;46,46,46;,
  3;47,47,47;,
  3;48,48,48;,
  3;49,49,49;,
  3;50,50,50;,
  3;51,51,51;,
  3;52,52,52;,
  3;53,53,53;,
  3;54,54,54;,
  3;55,55,55;,
  3;56,56,56;,
  3;57,57,57;,
  3;58,58,58;,
  3;59,59,59;,
  3;60,60,60;,
  3;61,61,61;,
  3;62,62,62;,
  3;63,63,63;,
  3;64,64,64;,
  3;65,65,65;,
  3;66,66,66;,
  3;67,67,67;;
 }
}