bvets train 0.01

;前橋車 10両編成


[structure] ;標
key=odorikohm
distance=-180
z=8
span=16

[structure];影
key=shadow_e
distance=0
z=8
span=16
[structure]
key=shadow_e
distance=-20
z=8
span=16
[structure]
key=shadow_e
distance=-40
z=8
span=16
[structure]
key=shadow_e
distance=-60
z=8
span=16
[structure]
key=shadow_e
distance=-80
z=8
span=16
[structure]
key=shadow_e
distance=-100
z=8
span=16
[structure]
key=shadow_e
distance=-120
z=8
span=16
[structure]
key=shadow_e
distance=-140
z=8
span=16
[structure]
key=shadow_e
distance=-160
z=8
span=16
[structure]
key=shadow_e
distance=-180
z=8
span=16

[structure];本体
key=185_04
distance=0
z=8
span=16
[structure]
key=185_02
distance=-20
z=8
span=16
[structure]
key=185_01
distance=-40
z=8
span=16.3
[structure]
key=185_02
distance=-60
z=8
span=16
[structure]
key=185_01
distance=-80
z=8
span=16
[structure]
key=185_03
distance=-100
z=8
span=16
[structure]
key=185_03
distance=-120
z=8
span=16
[structure]
key=185_02
distance=-140
z=8
span=16
[structure]
key=185_01
distance=-160
z=8
[structure]
key=185_00
distance=-180
z=8
span=16

[structure] ;灯
key=185_07 ;前
;key=185_08 ;後
distance=-180
z=8
span=16

;[sound3d]
;key=※ジョイント音
;distance2=10
;distance1=-190
;function=run
