<ＪＲ貨物 ＥＦ２１０電気機関車オブジェクト>
------------------------------------------------------------------------------------------------------
ＪＲ貨物ＥＦ２１０電気機関車のオブジェクトデータが入っています。

・本データはフリー素材です。路線データに組み込む場合に限り、自由に使用して頂いて結構です。
・正確な資料を基に制作していませんので、実車と異なる点や一部の表現を省略してあることを御了承ください。
・openBVEの運転車両用として使う場合はCSVファイルを開き、一番下の;TranslateAllの;を消去してください。

・データの内容は以下の通りです。配置間隔は１８ｍです。
  EF210-1   ＥＦ２１０　１号機

ＲＯＮ’Ｓ　ＢＶＥ　ホームページ
http://www.geocities.jp/ronbve/

ＲＯＮ’Ｓ　ＢＶＥ　掲示板
http://8226.teacup.com/ron/bbs

（Ｃ）２００４−２００９　ＲＯＮ　