////////////////////////////////////////////////////////////////
// 　　　　　　　　　　　　　　　　　　　　　　　　　　　　　 //
// CentralCommon (ver20200430)           　　　　　　　　　   //
// 　　　　　　　　　　　　　　　　　 (C)ハルピー 2019.03.30- //
// 　　　　　　　　　　　　　　　　　　　　　　　　　　　　　 //
////////////////////////////////////////////////////////////////

　CentralCommonは、BVE Trainsim向けのオブジェクトファイル群です。

・構成
Bvets
└ Scenarios
　└ Hamatetsu
　　├ harupi …CentralCommonストラクチャフォルダ
　　└ utility …共通マップファイル

----------------------------------------------------------------
利用について
　参照利用とし、配布データには同梱しないこと。
　なお、改造したデータは配布データに含めてよい。
　参照利用、改造に関して許可は不要。ただし、配布するデータに必ず
本ファイルを添付し、その中にCentralCommonを使用もしくは改造したも
のを使用したことと、ストラクチャリストのURLを記載すること。

　各フォルダ内にあるCAやCCなどの２文字のフォルダも利用してもかまい
ませんが、路線専用のストラクチャですので使い道があるかどうか…

　その他不明点があれば、Twitterもしくはメールにてお問い合わせくだ
さい。

----------------------------------------------------------------
ストラクチャリスト
https://annakaworks.sakura.ne.jp/20bvets/list.html
----------------------------------------------------------------
ver20201231-2
・このZipファイルの構造を構成表の通りに修正
ver20201231
・新規公開路線のストラクチャを追加
・路線専用ストラクチャの一部を専用フォルダに移動
ver20200430
・新規公開路線のストラクチャを追加
ver20200330
・公開
----------------------------------------------------------------



/_/_/_/_/_/_/_/_/_/_/_/_/_/_/_/_/_/_/_/_/_/_/_/_/_/_/_/_/_/_/_/
ハルピー
	HP 	https://annakaworks.sakura.ne.jp/
	Twitter @hamatetsu_train

