xof 0303txt 0032
template Vector {
 <3d82ab5e-62da-11cf-ab39-0020af71e433>
 FLOAT x;
 FLOAT y;
 FLOAT z;
}

template MeshFace {
 <3d82ab5f-62da-11cf-ab39-0020af71e433>
 DWORD nFaceVertexIndices;
 array DWORD faceVertexIndices[nFaceVertexIndices];
}

template Mesh {
 <3d82ab44-62da-11cf-ab39-0020af71e433>
 DWORD nVertices;
 array Vector vertices[nVertices];
 DWORD nFaces;
 array MeshFace faces[nFaces];
 [...]
}

template ColorRGBA {
 <35ff44e0-6c7c-11cf-8f52-0040333594a3>
 FLOAT red;
 FLOAT green;
 FLOAT blue;
 FLOAT alpha;
}

template ColorRGB {
 <d3e16e81-7835-11cf-8f52-0040333594a3>
 FLOAT red;
 FLOAT green;
 FLOAT blue;
}

template Material {
 <3d82ab4d-62da-11cf-ab39-0020af71e433>
 ColorRGBA faceColor;
 FLOAT power;
 ColorRGB specularColor;
 ColorRGB emissiveColor;
 [...]
}

template MeshMaterialList {
 <f6f23f42-7686-11cf-8f52-0040333594a3>
 DWORD nMaterials;
 DWORD nFaceIndexes;
 array DWORD faceIndexes[nFaceIndexes];
 [Material <3d82ab4d-62da-11cf-ab39-0020af71e433>]
}

template TextureFilename {
 <a42790e1-7810-11cf-8f52-0040333594a3>
 STRING filename;
}

template Coords2d {
 <f6f23f44-7686-11cf-8f52-0040333594a3>
 FLOAT u;
 FLOAT v;
}

template MeshTextureCoords {
 <f6f23f40-7686-11cf-8f52-0040333594a3>
 DWORD nTextureCoords;
 array Coords2d textureCoords[nTextureCoords];
}

template MeshNormals {
 <f6f23f43-7686-11cf-8f52-0040333594a3>
 DWORD nNormals;
 array Vector normals[nNormals];
 DWORD nFaceNormals;
 array MeshFace faceNormals[nFaceNormals];
}


Mesh  {
 274;
 0.000000;15.500000;0.000000;,
 0.000000;15.500000;27.000000;,
 27.000000;15.500000;0.000000;,
 27.000000;15.500000;27.000000;,
 0.000000;15.000000;0.000000;,
 0.000000;15.000000;27.000000;,
 27.000000;15.000000;0.000000;,
 27.000000;15.000000;27.000000;,
 0.000000;15.500000;0.000000;,
 0.000000;15.500000;27.000000;,
 27.000000;15.500000;0.000000;,
 27.000000;15.500000;27.000000;,
 9.499999;14.999999;0.500000;,
 9.499999;0.000000;0.500000;,
 9.461939;14.999999;0.691342;,
 9.461939;0.000000;0.691342;,
 9.353553;14.999999;0.853553;,
 9.353553;0.000000;0.853553;,
 9.191340;14.999999;0.961940;,
 9.191340;0.000000;0.961940;,
 8.999999;14.999999;1.000000;,
 8.999999;0.000000;1.000000;,
 8.808658;14.999999;0.961940;,
 8.808658;0.000000;0.961940;,
 8.646445;14.999999;0.853553;,
 8.646445;0.000000;0.853553;,
 8.538059;14.999999;0.691342;,
 8.538059;0.000000;0.691342;,
 8.499999;14.999999;0.500000;,
 8.499999;0.000000;0.500000;,
 8.538059;14.999999;0.308658;,
 8.538059;0.000000;0.308658;,
 8.646445;14.999999;0.146447;,
 8.646445;0.000000;0.146447;,
 8.808658;14.999999;0.038060;,
 8.808658;0.000000;0.038060;,
 8.999999;14.999999;0.000000;,
 8.999999;0.000000;0.000000;,
 9.191340;14.999999;0.038060;,
 9.191340;0.000000;0.038060;,
 9.353553;14.999999;0.146447;,
 9.353553;0.000000;0.146447;,
 9.461939;14.999999;0.308658;,
 9.461939;0.000000;0.308658;,
 18.499998;14.999999;0.500000;,
 18.499998;0.000000;0.500000;,
 18.461937;14.999999;0.691342;,
 18.461937;0.000000;0.691342;,
 18.353552;14.999999;0.853553;,
 18.353552;0.000000;0.853553;,
 18.191339;14.999999;0.961940;,
 18.191339;0.000000;0.961940;,
 17.999998;14.999999;1.000000;,
 17.999998;0.000000;1.000000;,
 17.808657;14.999999;0.961940;,
 17.808657;0.000000;0.961940;,
 17.646444;14.999999;0.853553;,
 17.646444;0.000000;0.853553;,
 17.538059;14.999999;0.691342;,
 17.538059;0.000000;0.691342;,
 17.499998;14.999999;0.500000;,
 17.499998;0.000000;0.500000;,
 17.538059;14.999999;0.308658;,
 17.538059;0.000000;0.308658;,
 17.646444;14.999999;0.146447;,
 17.646444;0.000000;0.146447;,
 17.808657;14.999999;0.038060;,
 17.808657;0.000000;0.038060;,
 17.999998;14.999999;0.000000;,
 17.999998;0.000000;0.000000;,
 18.191339;14.999999;0.038060;,
 18.191339;0.000000;0.038060;,
 18.353552;14.999999;0.146447;,
 18.353552;0.000000;0.146447;,
 18.461937;14.999999;0.308658;,
 18.461937;0.000000;0.308658;,
 9.499999;14.999999;26.499998;,
 9.499999;0.000000;26.499998;,
 9.461939;14.999999;26.691339;,
 9.461939;0.000000;26.691339;,
 9.353553;14.999999;26.853552;,
 9.353553;0.000000;26.853552;,
 9.191340;14.999999;26.961937;,
 9.191340;0.000000;26.961937;,
 8.999999;14.999999;26.999998;,
 8.999999;0.000000;26.999998;,
 8.808658;14.999999;26.961937;,
 8.808658;0.000000;26.961937;,
 8.646445;14.999999;26.853552;,
 8.646445;0.000000;26.853552;,
 8.538059;14.999999;26.691339;,
 8.538059;0.000000;26.691339;,
 8.499999;14.999999;26.499998;,
 8.499999;0.000000;26.499998;,
 8.538059;14.999999;26.308657;,
 8.538059;0.000000;26.308657;,
 8.646445;14.999999;26.146444;,
 8.646445;0.000000;26.146444;,
 8.808658;14.999999;26.038059;,
 8.808658;0.000000;26.038059;,
 8.999999;14.999999;25.999998;,
 8.999999;0.000000;25.999998;,
 9.191340;14.999999;26.038059;,
 9.191340;0.000000;26.038059;,
 9.353553;14.999999;26.146444;,
 9.353553;0.000000;26.146444;,
 9.461939;14.999999;26.308657;,
 9.461939;0.000000;26.308657;,
 18.499998;14.999999;26.499998;,
 18.499998;0.000000;26.499998;,
 18.461937;14.999999;26.691339;,
 18.461937;0.000000;26.691339;,
 18.353552;14.999999;26.853552;,
 18.353552;0.000000;26.853552;,
 18.191339;14.999999;26.961937;,
 18.191339;0.000000;26.961937;,
 17.999998;14.999999;26.999998;,
 17.999998;0.000000;26.999998;,
 17.808657;14.999999;26.961937;,
 17.808657;0.000000;26.961937;,
 17.646444;14.999999;26.853552;,
 17.646444;0.000000;26.853552;,
 17.538059;14.999999;26.691339;,
 17.538059;0.000000;26.691339;,
 17.499998;14.999999;26.499998;,
 17.499998;0.000000;26.499998;,
 17.538059;14.999999;26.308657;,
 17.538059;0.000000;26.308657;,
 17.646444;14.999999;26.146444;,
 17.646444;0.000000;26.146444;,
 17.808657;14.999999;26.038059;,
 17.808657;0.000000;26.038059;,
 17.999998;14.999999;25.999998;,
 17.999998;0.000000;25.999998;,
 18.191339;14.999999;26.038059;,
 18.191339;0.000000;26.038059;,
 18.353552;14.999999;26.146444;,
 18.353552;0.000000;26.146444;,
 18.461937;14.999999;26.308657;,
 18.461937;0.000000;26.308657;,
 1.000000;14.999999;8.999999;,
 1.000000;0.000000;8.999999;,
 0.961940;14.999999;9.191340;,
 0.961940;0.000000;9.191340;,
 0.853553;14.999999;9.353553;,
 0.853553;0.000000;9.353553;,
 0.691342;14.999999;9.461939;,
 0.691342;0.000000;9.461939;,
 0.500000;14.999999;9.499999;,
 0.500000;0.000000;9.499999;,
 0.308658;14.999999;9.461939;,
 0.308658;0.000000;9.461939;,
 0.146447;14.999999;9.353553;,
 0.146447;0.000000;9.353553;,
 0.038060;14.999999;9.191340;,
 0.038060;0.000000;9.191340;,
 0.000000;14.999999;8.999999;,
 0.000000;0.000000;8.999999;,
 0.038060;14.999999;8.808658;,
 0.038060;0.000000;8.808658;,
 0.146447;14.999999;8.646445;,
 0.146447;0.000000;8.646445;,
 0.308658;14.999999;8.538059;,
 0.308658;0.000000;8.538059;,
 0.500000;14.999999;8.499999;,
 0.500000;0.000000;8.499999;,
 0.691342;14.999999;8.538059;,
 0.691342;0.000000;8.538059;,
 0.853553;14.999999;8.646445;,
 0.853553;0.000000;8.646445;,
 0.961940;14.999999;8.808658;,
 0.961940;0.000000;8.808658;,
 1.000000;14.999999;17.999998;,
 1.000000;0.000000;17.999998;,
 0.961940;14.999999;18.191339;,
 0.961940;0.000000;18.191339;,
 0.853553;14.999999;18.353552;,
 0.853553;0.000000;18.353552;,
 0.691342;14.999999;18.461937;,
 0.691342;0.000000;18.461937;,
 0.500000;14.999999;18.499998;,
 0.500000;0.000000;18.499998;,
 0.308658;14.999999;18.461937;,
 0.308658;0.000000;18.461937;,
 0.146447;14.999999;18.353552;,
 0.146447;0.000000;18.353552;,
 0.038060;14.999999;18.191339;,
 0.038060;0.000000;18.191339;,
 0.000000;14.999999;17.999998;,
 0.000000;0.000000;17.999998;,
 0.038060;14.999999;17.808657;,
 0.038060;0.000000;17.808657;,
 0.146447;14.999999;17.646444;,
 0.146447;0.000000;17.646444;,
 0.308658;14.999999;17.538059;,
 0.308658;0.000000;17.538059;,
 0.500000;14.999999;17.499998;,
 0.500000;0.000000;17.499998;,
 0.691342;14.999999;17.538059;,
 0.691342;0.000000;17.538059;,
 0.853553;14.999999;17.646444;,
 0.853553;0.000000;17.646444;,
 0.961940;14.999999;17.808657;,
 0.961940;0.000000;17.808657;,
 26.999998;14.999999;8.999999;,
 26.999998;0.000000;8.999999;,
 26.961937;14.999999;9.191340;,
 26.961937;0.000000;9.191340;,
 26.853552;14.999999;9.353553;,
 26.853552;0.000000;9.353553;,
 26.691339;14.999999;9.461939;,
 26.691339;0.000000;9.461939;,
 26.499998;14.999999;9.499999;,
 26.499998;0.000000;9.499999;,
 26.308657;14.999999;9.461939;,
 26.308657;0.000000;9.461939;,
 26.146444;14.999999;9.353553;,
 26.146444;0.000000;9.353553;,
 26.038059;14.999999;9.191340;,
 26.038059;0.000000;9.191340;,
 25.999998;14.999999;8.999999;,
 25.999998;0.000000;8.999999;,
 26.038059;14.999999;8.808658;,
 26.038059;0.000000;8.808658;,
 26.146444;14.999999;8.646445;,
 26.146444;0.000000;8.646445;,
 26.308657;14.999999;8.538059;,
 26.308657;0.000000;8.538059;,
 26.499998;14.999999;8.499999;,
 26.499998;0.000000;8.499999;,
 26.691339;14.999999;8.538059;,
 26.691339;0.000000;8.538059;,
 26.853552;14.999999;8.646445;,
 26.853552;0.000000;8.646445;,
 26.961937;14.999999;8.808658;,
 26.961937;0.000000;8.808658;,
 26.999998;14.999999;17.999998;,
 26.999998;0.000000;17.999998;,
 26.961937;14.999999;18.191339;,
 26.961937;0.000000;18.191339;,
 26.853552;14.999999;18.353552;,
 26.853552;0.000000;18.353552;,
 26.691339;14.999999;18.461937;,
 26.691339;0.000000;18.461937;,
 26.499998;14.999999;18.499998;,
 26.499998;0.000000;18.499998;,
 26.308657;14.999999;18.461937;,
 26.308657;0.000000;18.461937;,
 26.146444;14.999999;18.353552;,
 26.146444;0.000000;18.353552;,
 26.038059;14.999999;18.191339;,
 26.038059;0.000000;18.191339;,
 25.999998;14.999999;17.999998;,
 25.999998;0.000000;17.999998;,
 26.038059;14.999999;17.808657;,
 26.038059;0.000000;17.808657;,
 26.146444;14.999999;17.646444;,
 26.146444;0.000000;17.646444;,
 26.308657;14.999999;17.538059;,
 26.308657;0.000000;17.538059;,
 26.499998;14.999999;17.499998;,
 26.499998;0.000000;17.499998;,
 26.691339;14.999999;17.538059;,
 26.691339;0.000000;17.538059;,
 26.853552;14.999999;17.646444;,
 26.853552;0.000000;17.646444;,
 26.961937;14.999999;17.808657;,
 26.961937;0.000000;17.808657;,
 27.000000;25.000000;0.000000;,
 27.000000;0.000000;0.000000;,
 170.000000;25.000000;0.000000;,
 170.000000;0.000000;0.000000;,
 27.000000;25.000000;9.000000;,
 27.000000;0.000000;9.000000;;
 508;
 3;0,1,5;,
 3;0,5,4;,
 3;4,5,1;,
 3;4,1,0;,
 3;1,3,7;,
 3;1,7,5;,
 3;5,7,3;,
 3;5,3,1;,
 3;2,3,7;,
 3;2,7,6;,
 3;6,7,3;,
 3;6,3,2;,
 3;0,2,6;,
 3;0,6,4;,
 3;4,6,2;,
 3;4,2,0;,
 3;8,9,11;,
 3;8,11,10;,
 3;10,11,9;,
 3;10,9,8;,
 3;13,12,14;,
 3;13,14,15;,
 3;15,14,16;,
 3;15,16,17;,
 3;17,16,18;,
 3;17,18,19;,
 3;19,18,20;,
 3;19,20,21;,
 3;21,20,22;,
 3;21,22,23;,
 3;23,22,24;,
 3;23,24,25;,
 3;25,24,26;,
 3;25,26,27;,
 3;27,26,28;,
 3;27,28,29;,
 3;29,28,30;,
 3;29,30,31;,
 3;31,30,32;,
 3;31,32,33;,
 3;33,32,34;,
 3;33,34,35;,
 3;35,34,36;,
 3;35,36,37;,
 3;37,36,38;,
 3;37,38,39;,
 3;39,38,40;,
 3;39,40,41;,
 3;41,40,42;,
 3;41,42,43;,
 3;43,42,12;,
 3;43,12,13;,
 3;42,40,38;,
 3;42,38,36;,
 3;42,36,34;,
 3;42,34,32;,
 3;42,32,30;,
 3;42,30,28;,
 3;42,28,26;,
 3;42,26,24;,
 3;42,24,22;,
 3;42,22,20;,
 3;42,20,18;,
 3;42,18,16;,
 3;42,16,14;,
 3;42,14,12;,
 3;13,15,17;,
 3;13,17,19;,
 3;13,19,21;,
 3;13,21,23;,
 3;13,23,25;,
 3;13,25,27;,
 3;13,27,29;,
 3;13,29,31;,
 3;13,31,33;,
 3;13,33,35;,
 3;13,35,37;,
 3;13,37,39;,
 3;13,39,41;,
 3;13,41,43;,
 3;45,44,46;,
 3;45,46,47;,
 3;47,46,48;,
 3;47,48,49;,
 3;49,48,50;,
 3;49,50,51;,
 3;51,50,52;,
 3;51,52,53;,
 3;53,52,54;,
 3;53,54,55;,
 3;55,54,56;,
 3;55,56,57;,
 3;57,56,58;,
 3;57,58,59;,
 3;59,58,60;,
 3;59,60,61;,
 3;61,60,62;,
 3;61,62,63;,
 3;63,62,64;,
 3;63,64,65;,
 3;65,64,66;,
 3;65,66,67;,
 3;67,66,68;,
 3;67,68,69;,
 3;69,68,70;,
 3;69,70,71;,
 3;71,70,72;,
 3;71,72,73;,
 3;73,72,74;,
 3;73,74,75;,
 3;75,74,44;,
 3;75,44,45;,
 3;74,72,70;,
 3;74,70,68;,
 3;74,68,66;,
 3;74,66,64;,
 3;74,64,62;,
 3;74,62,60;,
 3;74,60,58;,
 3;74,58,56;,
 3;74,56,54;,
 3;74,54,52;,
 3;74,52,50;,
 3;74,50,48;,
 3;74,48,46;,
 3;74,46,44;,
 3;45,47,49;,
 3;45,49,51;,
 3;45,51,53;,
 3;45,53,55;,
 3;45,55,57;,
 3;45,57,59;,
 3;45,59,61;,
 3;45,61,63;,
 3;45,63,65;,
 3;45,65,67;,
 3;45,67,69;,
 3;45,69,71;,
 3;45,71,73;,
 3;45,73,75;,
 3;77,76,78;,
 3;77,78,79;,
 3;79,78,80;,
 3;79,80,81;,
 3;81,80,82;,
 3;81,82,83;,
 3;83,82,84;,
 3;83,84,85;,
 3;85,84,86;,
 3;85,86,87;,
 3;87,86,88;,
 3;87,88,89;,
 3;89,88,90;,
 3;89,90,91;,
 3;91,90,92;,
 3;91,92,93;,
 3;93,92,94;,
 3;93,94,95;,
 3;95,94,96;,
 3;95,96,97;,
 3;97,96,98;,
 3;97,98,99;,
 3;99,98,100;,
 3;99,100,101;,
 3;101,100,102;,
 3;101,102,103;,
 3;103,102,104;,
 3;103,104,105;,
 3;105,104,106;,
 3;105,106,107;,
 3;107,106,76;,
 3;107,76,77;,
 3;106,104,102;,
 3;106,102,100;,
 3;106,100,98;,
 3;106,98,96;,
 3;106,96,94;,
 3;106,94,92;,
 3;106,92,90;,
 3;106,90,88;,
 3;106,88,86;,
 3;106,86,84;,
 3;106,84,82;,
 3;106,82,80;,
 3;106,80,78;,
 3;106,78,76;,
 3;77,79,81;,
 3;77,81,83;,
 3;77,83,85;,
 3;77,85,87;,
 3;77,87,89;,
 3;77,89,91;,
 3;77,91,93;,
 3;77,93,95;,
 3;77,95,97;,
 3;77,97,99;,
 3;77,99,101;,
 3;77,101,103;,
 3;77,103,105;,
 3;77,105,107;,
 3;109,108,110;,
 3;109,110,111;,
 3;111,110,112;,
 3;111,112,113;,
 3;113,112,114;,
 3;113,114,115;,
 3;115,114,116;,
 3;115,116,117;,
 3;117,116,118;,
 3;117,118,119;,
 3;119,118,120;,
 3;119,120,121;,
 3;121,120,122;,
 3;121,122,123;,
 3;123,122,124;,
 3;123,124,125;,
 3;125,124,126;,
 3;125,126,127;,
 3;127,126,128;,
 3;127,128,129;,
 3;129,128,130;,
 3;129,130,131;,
 3;131,130,132;,
 3;131,132,133;,
 3;133,132,134;,
 3;133,134,135;,
 3;135,134,136;,
 3;135,136,137;,
 3;137,136,138;,
 3;137,138,139;,
 3;139,138,108;,
 3;139,108,109;,
 3;138,136,134;,
 3;138,134,132;,
 3;138,132,130;,
 3;138,130,128;,
 3;138,128,126;,
 3;138,126,124;,
 3;138,124,122;,
 3;138,122,120;,
 3;138,120,118;,
 3;138,118,116;,
 3;138,116,114;,
 3;138,114,112;,
 3;138,112,110;,
 3;138,110,108;,
 3;109,111,113;,
 3;109,113,115;,
 3;109,115,117;,
 3;109,117,119;,
 3;109,119,121;,
 3;109,121,123;,
 3;109,123,125;,
 3;109,125,127;,
 3;109,127,129;,
 3;109,129,131;,
 3;109,131,133;,
 3;109,133,135;,
 3;109,135,137;,
 3;109,137,139;,
 3;141,140,142;,
 3;141,142,143;,
 3;143,142,144;,
 3;143,144,145;,
 3;145,144,146;,
 3;145,146,147;,
 3;147,146,148;,
 3;147,148,149;,
 3;149,148,150;,
 3;149,150,151;,
 3;151,150,152;,
 3;151,152,153;,
 3;153,152,154;,
 3;153,154,155;,
 3;155,154,156;,
 3;155,156,157;,
 3;157,156,158;,
 3;157,158,159;,
 3;159,158,160;,
 3;159,160,161;,
 3;161,160,162;,
 3;161,162,163;,
 3;163,162,164;,
 3;163,164,165;,
 3;165,164,166;,
 3;165,166,167;,
 3;167,166,168;,
 3;167,168,169;,
 3;169,168,170;,
 3;169,170,171;,
 3;171,170,140;,
 3;171,140,141;,
 3;170,168,166;,
 3;170,166,164;,
 3;170,164,162;,
 3;170,162,160;,
 3;170,160,158;,
 3;170,158,156;,
 3;170,156,154;,
 3;170,154,152;,
 3;170,152,150;,
 3;170,150,148;,
 3;170,148,146;,
 3;170,146,144;,
 3;170,144,142;,
 3;170,142,140;,
 3;141,143,145;,
 3;141,145,147;,
 3;141,147,149;,
 3;141,149,151;,
 3;141,151,153;,
 3;141,153,155;,
 3;141,155,157;,
 3;141,157,159;,
 3;141,159,161;,
 3;141,161,163;,
 3;141,163,165;,
 3;141,165,167;,
 3;141,167,169;,
 3;141,169,171;,
 3;173,172,174;,
 3;173,174,175;,
 3;175,174,176;,
 3;175,176,177;,
 3;177,176,178;,
 3;177,178,179;,
 3;179,178,180;,
 3;179,180,181;,
 3;181,180,182;,
 3;181,182,183;,
 3;183,182,184;,
 3;183,184,185;,
 3;185,184,186;,
 3;185,186,187;,
 3;187,186,188;,
 3;187,188,189;,
 3;189,188,190;,
 3;189,190,191;,
 3;191,190,192;,
 3;191,192,193;,
 3;193,192,194;,
 3;193,194,195;,
 3;195,194,196;,
 3;195,196,197;,
 3;197,196,198;,
 3;197,198,199;,
 3;199,198,200;,
 3;199,200,201;,
 3;201,200,202;,
 3;201,202,203;,
 3;203,202,172;,
 3;203,172,173;,
 3;202,200,198;,
 3;202,198,196;,
 3;202,196,194;,
 3;202,194,192;,
 3;202,192,190;,
 3;202,190,188;,
 3;202,188,186;,
 3;202,186,184;,
 3;202,184,182;,
 3;202,182,180;,
 3;202,180,178;,
 3;202,178,176;,
 3;202,176,174;,
 3;202,174,172;,
 3;173,175,177;,
 3;173,177,179;,
 3;173,179,181;,
 3;173,181,183;,
 3;173,183,185;,
 3;173,185,187;,
 3;173,187,189;,
 3;173,189,191;,
 3;173,191,193;,
 3;173,193,195;,
 3;173,195,197;,
 3;173,197,199;,
 3;173,199,201;,
 3;173,201,203;,
 3;205,204,206;,
 3;205,206,207;,
 3;207,206,208;,
 3;207,208,209;,
 3;209,208,210;,
 3;209,210,211;,
 3;211,210,212;,
 3;211,212,213;,
 3;213,212,214;,
 3;213,214,215;,
 3;215,214,216;,
 3;215,216,217;,
 3;217,216,218;,
 3;217,218,219;,
 3;219,218,220;,
 3;219,220,221;,
 3;221,220,222;,
 3;221,222,223;,
 3;223,222,224;,
 3;223,224,225;,
 3;225,224,226;,
 3;225,226,227;,
 3;227,226,228;,
 3;227,228,229;,
 3;229,228,230;,
 3;229,230,231;,
 3;231,230,232;,
 3;231,232,233;,
 3;233,232,234;,
 3;233,234,235;,
 3;235,234,204;,
 3;235,204,205;,
 3;234,232,230;,
 3;234,230,228;,
 3;234,228,226;,
 3;234,226,224;,
 3;234,224,222;,
 3;234,222,220;,
 3;234,220,218;,
 3;234,218,216;,
 3;234,216,214;,
 3;234,214,212;,
 3;234,212,210;,
 3;234,210,208;,
 3;234,208,206;,
 3;234,206,204;,
 3;205,207,209;,
 3;205,209,211;,
 3;205,211,213;,
 3;205,213,215;,
 3;205,215,217;,
 3;205,217,219;,
 3;205,219,221;,
 3;205,221,223;,
 3;205,223,225;,
 3;205,225,227;,
 3;205,227,229;,
 3;205,229,231;,
 3;205,231,233;,
 3;205,233,235;,
 3;237,236,238;,
 3;237,238,239;,
 3;239,238,240;,
 3;239,240,241;,
 3;241,240,242;,
 3;241,242,243;,
 3;243,242,244;,
 3;243,244,245;,
 3;245,244,246;,
 3;245,246,247;,
 3;247,246,248;,
 3;247,248,249;,
 3;249,248,250;,
 3;249,250,251;,
 3;251,250,252;,
 3;251,252,253;,
 3;253,252,254;,
 3;253,254,255;,
 3;255,254,256;,
 3;255,256,257;,
 3;257,256,258;,
 3;257,258,259;,
 3;259,258,260;,
 3;259,260,261;,
 3;261,260,262;,
 3;261,262,263;,
 3;263,262,264;,
 3;263,264,265;,
 3;265,264,266;,
 3;265,266,267;,
 3;267,266,236;,
 3;267,236,237;,
 3;266,264,262;,
 3;266,262,260;,
 3;266,260,258;,
 3;266,258,256;,
 3;266,256,254;,
 3;266,254,252;,
 3;266,252,250;,
 3;266,250,248;,
 3;266,248,246;,
 3;266,246,244;,
 3;266,244,242;,
 3;266,242,240;,
 3;266,240,238;,
 3;266,238,236;,
 3;237,239,241;,
 3;237,241,243;,
 3;237,243,245;,
 3;237,245,247;,
 3;237,247,249;,
 3;237,249,251;,
 3;237,251,253;,
 3;237,253,255;,
 3;237,255,257;,
 3;237,257,259;,
 3;237,259,261;,
 3;237,261,263;,
 3;237,263,265;,
 3;237,265,267;,
 3;268,269,271;,
 3;268,271,270;,
 3;270,271,269;,
 3;270,269,268;,
 3;268,269,273;,
 3;268,273,272;,
 3;272,273,269;,
 3;272,269,268;;

 MeshMaterialList  {
  11;
  508;
  0,
  0,
  0,
  0,
  0,
  0,
  0,
  0,
  0,
  0,
  0,
  0,
  0,
  0,
  0,
  0,
  1,
  1,
  1,
  1,
  2,
  2,
  2,
  2,
  2,
  2,
  2,
  2,
  2,
  2,
  2,
  2,
  2,
  2,
  2,
  2,
  2,
  2,
  2,
  2,
  2,
  2,
  2,
  2,
  2,
  2,
  2,
  2,
  2,
  2,
  2,
  2,
  2,
  2,
  2,
  2,
  2,
  2,
  2,
  2,
  2,
  2,
  2,
  2,
  2,
  2,
  2,
  2,
  2,
  2,
  2,
  2,
  2,
  2,
  2,
  2,
  2,
  2,
  2,
  2,
  3,
  3,
  3,
  3,
  3,
  3,
  3,
  3,
  3,
  3,
  3,
  3,
  3,
  3,
  3,
  3,
  3,
  3,
  3,
  3,
  3,
  3,
  3,
  3,
  3,
  3,
  3,
  3,
  3,
  3,
  3,
  3,
  3,
  3,
  3,
  3,
  3,
  3,
  3,
  3,
  3,
  3,
  3,
  3,
  3,
  3,
  3,
  3,
  3,
  3,
  3,
  3,
  3,
  3,
  3,
  3,
  3,
  3,
  3,
  3,
  4,
  4,
  4,
  4,
  4,
  4,
  4,
  4,
  4,
  4,
  4,
  4,
  4,
  4,
  4,
  4,
  4,
  4,
  4,
  4,
  4,
  4,
  4,
  4,
  4,
  4,
  4,
  4,
  4,
  4,
  4,
  4,
  4,
  4,
  4,
  4,
  4,
  4,
  4,
  4,
  4,
  4,
  4,
  4,
  4,
  4,
  4,
  4,
  4,
  4,
  4,
  4,
  4,
  4,
  4,
  4,
  4,
  4,
  4,
  4,
  5,
  5,
  5,
  5,
  5,
  5,
  5,
  5,
  5,
  5,
  5,
  5,
  5,
  5,
  5,
  5,
  5,
  5,
  5,
  5,
  5,
  5,
  5,
  5,
  5,
  5,
  5,
  5,
  5,
  5,
  5,
  5,
  5,
  5,
  5,
  5,
  5,
  5,
  5,
  5,
  5,
  5,
  5,
  5,
  5,
  5,
  5,
  5,
  5,
  5,
  5,
  5,
  5,
  5,
  5,
  5,
  5,
  5,
  5,
  5,
  6,
  6,
  6,
  6,
  6,
  6,
  6,
  6,
  6,
  6,
  6,
  6,
  6,
  6,
  6,
  6,
  6,
  6,
  6,
  6,
  6,
  6,
  6,
  6,
  6,
  6,
  6,
  6,
  6,
  6,
  6,
  6,
  6,
  6,
  6,
  6,
  6,
  6,
  6,
  6,
  6,
  6,
  6,
  6,
  6,
  6,
  6,
  6,
  6,
  6,
  6,
  6,
  6,
  6,
  6,
  6,
  6,
  6,
  6,
  6,
  7,
  7,
  7,
  7,
  7,
  7,
  7,
  7,
  7,
  7,
  7,
  7,
  7,
  7,
  7,
  7,
  7,
  7,
  7,
  7,
  7,
  7,
  7,
  7,
  7,
  7,
  7,
  7,
  7,
  7,
  7,
  7,
  7,
  7,
  7,
  7,
  7,
  7,
  7,
  7,
  7,
  7,
  7,
  7,
  7,
  7,
  7,
  7,
  7,
  7,
  7,
  7,
  7,
  7,
  7,
  7,
  7,
  7,
  7,
  7,
  8,
  8,
  8,
  8,
  8,
  8,
  8,
  8,
  8,
  8,
  8,
  8,
  8,
  8,
  8,
  8,
  8,
  8,
  8,
  8,
  8,
  8,
  8,
  8,
  8,
  8,
  8,
  8,
  8,
  8,
  8,
  8,
  8,
  8,
  8,
  8,
  8,
  8,
  8,
  8,
  8,
  8,
  8,
  8,
  8,
  8,
  8,
  8,
  8,
  8,
  8,
  8,
  8,
  8,
  8,
  8,
  8,
  8,
  8,
  8,
  9,
  9,
  9,
  9,
  9,
  9,
  9,
  9,
  9,
  9,
  9,
  9,
  9,
  9,
  9,
  9,
  9,
  9,
  9,
  9,
  9,
  9,
  9,
  9,
  9,
  9,
  9,
  9,
  9,
  9,
  9,
  9,
  9,
  9,
  9,
  9,
  9,
  9,
  9,
  9,
  9,
  9,
  9,
  9,
  9,
  9,
  9,
  9,
  9,
  9,
  9,
  9,
  9,
  9,
  9,
  9,
  9,
  9,
  9,
  9,
  10,
  10,
  10,
  10,
  10,
  10,
  10,
  10;

  Material  {
   1.000000;1.000000;1.000000;1.000000;;
   0.000000;
   0.000000;0.000000;0.000000;;
   0.000000;0.000000;0.000000;;

   TextureFilename  {
    "nagodo2.dds";
   }
  }

  Material  {
   0.000000;0.000000;1.000000;0.062745;;
   0.000000;
   0.000000;0.000000;0.000000;;
   0.000000;0.000000;0.000000;;
  }

  Material  {
   0.862745;0.862745;0.862745;1.000000;;
   0.000000;
   0.000000;0.000000;0.000000;;
   0.000000;0.000000;0.000000;;
  }

  Material  {
   0.862745;0.862745;0.862745;1.000000;;
   0.000000;
   0.000000;0.000000;0.000000;;
   0.000000;0.000000;0.000000;;
  }

  Material  {
   0.862745;0.862745;0.862745;1.000000;;
   0.000000;
   0.000000;0.000000;0.000000;;
   0.000000;0.000000;0.000000;;
  }

  Material  {
   0.862745;0.862745;0.862745;1.000000;;
   0.000000;
   0.000000;0.000000;0.000000;;
   0.000000;0.000000;0.000000;;
  }

  Material  {
   0.862745;0.862745;0.862745;1.000000;;
   0.000000;
   0.000000;0.000000;0.000000;;
   0.000000;0.000000;0.000000;;
  }

  Material  {
   0.862745;0.862745;0.862745;1.000000;;
   0.000000;
   0.000000;0.000000;0.000000;;
   0.000000;0.000000;0.000000;;
  }

  Material  {
   0.862745;0.862745;0.862745;1.000000;;
   0.000000;
   0.000000;0.000000;0.000000;;
   0.000000;0.000000;0.000000;;
  }

  Material  {
   0.862745;0.862745;0.862745;1.000000;;
   0.000000;
   0.000000;0.000000;0.000000;;
   0.000000;0.000000;0.000000;;
  }

  Material  {
   1.000000;1.000000;1.000000;1.000000;;
   0.000000;
   0.000000;0.000000;0.000000;;
   0.000000;0.000000;0.000000;;

   TextureFilename  {
    "nagodo1.dds";
   }
  }
 }

 MeshTextureCoords  {
  274;
  0.000000;0.000000;,
  1.000000;0.000000;,
  1.000000;0.000000;,
  0.000000;0.000000;,
  0.000000;1.000000;,
  1.000000;1.000000;,
  1.000000;1.000000;,
  0.000000;1.000000;,
  0.000000;0.000000;,
  0.000000;0.000000;,
  0.000000;0.000000;,
  0.000000;0.000000;,
  0.000000;0.000000;,
  0.000000;0.000000;,
  0.000000;0.000000;,
  0.000000;0.000000;,
  0.000000;0.000000;,
  0.000000;0.000000;,
  0.000000;0.000000;,
  0.000000;0.000000;,
  0.000000;0.000000;,
  0.000000;0.000000;,
  0.000000;0.000000;,
  0.000000;0.000000;,
  0.000000;0.000000;,
  0.000000;0.000000;,
  0.000000;0.000000;,
  0.000000;0.000000;,
  0.000000;0.000000;,
  0.000000;0.000000;,
  0.000000;0.000000;,
  0.000000;0.000000;,
  0.000000;0.000000;,
  0.000000;0.000000;,
  0.000000;0.000000;,
  0.000000;0.000000;,
  0.000000;0.000000;,
  0.000000;0.000000;,
  0.000000;0.000000;,
  0.000000;0.000000;,
  0.000000;0.000000;,
  0.000000;0.000000;,
  0.000000;0.000000;,
  0.000000;0.000000;,
  0.000000;0.000000;,
  0.000000;0.000000;,
  0.000000;0.000000;,
  0.000000;0.000000;,
  0.000000;0.000000;,
  0.000000;0.000000;,
  0.000000;0.000000;,
  0.000000;0.000000;,
  0.000000;0.000000;,
  0.000000;0.000000;,
  0.000000;0.000000;,
  0.000000;0.000000;,
  0.000000;0.000000;,
  0.000000;0.000000;,
  0.000000;0.000000;,
  0.000000;0.000000;,
  0.000000;0.000000;,
  0.000000;0.000000;,
  0.000000;0.000000;,
  0.000000;0.000000;,
  0.000000;0.000000;,
  0.000000;0.000000;,
  0.000000;0.000000;,
  0.000000;0.000000;,
  0.000000;0.000000;,
  0.000000;0.000000;,
  0.000000;0.000000;,
  0.000000;0.000000;,
  0.000000;0.000000;,
  0.000000;0.000000;,
  0.000000;0.000000;,
  0.000000;0.000000;,
  0.000000;0.000000;,
  0.000000;0.000000;,
  0.000000;0.000000;,
  0.000000;0.000000;,
  0.000000;0.000000;,
  0.000000;0.000000;,
  0.000000;0.000000;,
  0.000000;0.000000;,
  0.000000;0.000000;,
  0.000000;0.000000;,
  0.000000;0.000000;,
  0.000000;0.000000;,
  0.000000;0.000000;,
  0.000000;0.000000;,
  0.000000;0.000000;,
  0.000000;0.000000;,
  0.000000;0.000000;,
  0.000000;0.000000;,
  0.000000;0.000000;,
  0.000000;0.000000;,
  0.000000;0.000000;,
  0.000000;0.000000;,
  0.000000;0.000000;,
  0.000000;0.000000;,
  0.000000;0.000000;,
  0.000000;0.000000;,
  0.000000;0.000000;,
  0.000000;0.000000;,
  0.000000;0.000000;,
  0.000000;0.000000;,
  0.000000;0.000000;,
  0.000000;0.000000;,
  0.000000;0.000000;,
  0.000000;0.000000;,
  0.000000;0.000000;,
  0.000000;0.000000;,
  0.000000;0.000000;,
  0.000000;0.000000;,
  0.000000;0.000000;,
  0.000000;0.000000;,
  0.000000;0.000000;,
  0.000000;0.000000;,
  0.000000;0.000000;,
  0.000000;0.000000;,
  0.000000;0.000000;,
  0.000000;0.000000;,
  0.000000;0.000000;,
  0.000000;0.000000;,
  0.000000;0.000000;,
  0.000000;0.000000;,
  0.000000;0.000000;,
  0.000000;0.000000;,
  0.000000;0.000000;,
  0.000000;0.000000;,
  0.000000;0.000000;,
  0.000000;0.000000;,
  0.000000;0.000000;,
  0.000000;0.000000;,
  0.000000;0.000000;,
  0.000000;0.000000;,
  0.000000;0.000000;,
  0.000000;0.000000;,
  0.000000;0.000000;,
  0.000000;0.000000;,
  0.000000;0.000000;,
  0.000000;0.000000;,
  0.000000;0.000000;,
  0.000000;0.000000;,
  0.000000;0.000000;,
  0.000000;0.000000;,
  0.000000;0.000000;,
  0.000000;0.000000;,
  0.000000;0.000000;,
  0.000000;0.000000;,
  0.000000;0.000000;,
  0.000000;0.000000;,
  0.000000;0.000000;,
  0.000000;0.000000;,
  0.000000;0.000000;,
  0.000000;0.000000;,
  0.000000;0.000000;,
  0.000000;0.000000;,
  0.000000;0.000000;,
  0.000000;0.000000;,
  0.000000;0.000000;,
  0.000000;0.000000;,
  0.000000;0.000000;,
  0.000000;0.000000;,
  0.000000;0.000000;,
  0.000000;0.000000;,
  0.000000;0.000000;,
  0.000000;0.000000;,
  0.000000;0.000000;,
  0.000000;0.000000;,
  0.000000;0.000000;,
  0.000000;0.000000;,
  0.000000;0.000000;,
  0.000000;0.000000;,
  0.000000;0.000000;,
  0.000000;0.000000;,
  0.000000;0.000000;,
  0.000000;0.000000;,
  0.000000;0.000000;,
  0.000000;0.000000;,
  0.000000;0.000000;,
  0.000000;0.000000;,
  0.000000;0.000000;,
  0.000000;0.000000;,
  0.000000;0.000000;,
  0.000000;0.000000;,
  0.000000;0.000000;,
  0.000000;0.000000;,
  0.000000;0.000000;,
  0.000000;0.000000;,
  0.000000;0.000000;,
  0.000000;0.000000;,
  0.000000;0.000000;,
  0.000000;0.000000;,
  0.000000;0.000000;,
  0.000000;0.000000;,
  0.000000;0.000000;,
  0.000000;0.000000;,
  0.000000;0.000000;,
  0.000000;0.000000;,
  0.000000;0.000000;,
  0.000000;0.000000;,
  0.000000;0.000000;,
  0.000000;0.000000;,
  0.000000;0.000000;,
  0.000000;0.000000;,
  0.000000;0.000000;,
  0.000000;0.000000;,
  0.000000;0.000000;,
  0.000000;0.000000;,
  0.000000;0.000000;,
  0.000000;0.000000;,
  0.000000;0.000000;,
  0.000000;0.000000;,
  0.000000;0.000000;,
  0.000000;0.000000;,
  0.000000;0.000000;,
  0.000000;0.000000;,
  0.000000;0.000000;,
  0.000000;0.000000;,
  0.000000;0.000000;,
  0.000000;0.000000;,
  0.000000;0.000000;,
  0.000000;0.000000;,
  0.000000;0.000000;,
  0.000000;0.000000;,
  0.000000;0.000000;,
  0.000000;0.000000;,
  0.000000;0.000000;,
  0.000000;0.000000;,
  0.000000;0.000000;,
  0.000000;0.000000;,
  0.000000;0.000000;,
  0.000000;0.000000;,
  0.000000;0.000000;,
  0.000000;0.000000;,
  0.000000;0.000000;,
  0.000000;0.000000;,
  0.000000;0.000000;,
  0.000000;0.000000;,
  0.000000;0.000000;,
  0.000000;0.000000;,
  0.000000;0.000000;,
  0.000000;0.000000;,
  0.000000;0.000000;,
  0.000000;0.000000;,
  0.000000;0.000000;,
  0.000000;0.000000;,
  0.000000;0.000000;,
  0.000000;0.000000;,
  0.000000;0.000000;,
  0.000000;0.000000;,
  0.000000;0.000000;,
  0.000000;0.000000;,
  0.000000;0.000000;,
  0.000000;0.000000;,
  0.000000;0.000000;,
  0.000000;0.000000;,
  0.000000;0.000000;,
  0.000000;0.000000;,
  0.000000;0.000000;,
  0.000000;0.000000;,
  0.000000;0.000000;,
  0.000000;0.000000;,
  0.000000;0.000000;,
  0.000000;0.000000;,
  0.000000;0.000000;,
  0.000000;0.000000;,
  0.000000;0.000000;,
  0.000000;1.000000;,
  1.000000;0.500000;,
  1.000000;0.793000;,
  0.080000;0.000000;,
  0.080000;1.000000;;
 }

 MeshNormals  {
  284;
  1.000000;0.000000;0.000000;,
  1.000000;0.000000;0.000000;,
  -1.000000;0.000000;0.000000;,
  -1.000000;0.000000;0.000000;,
  0.000000;0.000000;-1.000000;,
  0.000000;0.000000;-1.000000;,
  0.000000;0.000000;1.000000;,
  0.000000;0.000000;1.000000;,
  1.000000;0.000000;0.000000;,
  1.000000;0.000000;0.000000;,
  -1.000000;0.000000;0.000000;,
  -1.000000;0.000000;0.000000;,
  0.000000;0.000000;-1.000000;,
  0.000000;0.000000;-1.000000;,
  0.000000;0.000000;1.000000;,
  0.000000;0.000000;1.000000;,
  0.000000;1.000000;0.000000;,
  0.000000;1.000000;0.000000;,
  0.000000;-1.000000;0.000000;,
  0.000000;-1.000000;0.000000;,
  0.703702;0.707107;-0.069309;,
  0.000096;-1.000000;0.000000;,
  0.353553;0.923880;0.146447;,
  0.623612;-0.707107;0.333328;,
  0.270598;0.923880;0.270598;,
  0.242772;-0.923880;0.295818;,
  0.146447;0.923880;0.353553;,
  0.111087;-0.923880;0.366205;,
  0.000000;0.923880;0.382683;,
  -0.037510;-0.923880;0.380841;,
  -0.146447;0.923880;0.353553;,
  -0.180396;-0.923880;0.337497;,
  -0.270598;0.923880;0.270598;,
  -0.295818;-0.923880;0.242772;,
  -0.353553;0.923880;0.146447;,
  -0.366205;-0.923880;0.111087;,
  -0.382683;0.923880;0.000000;,
  -0.380841;-0.923880;-0.037510;,
  -0.353553;0.923880;-0.146447;,
  -0.337497;-0.923880;-0.180396;,
  -0.270598;0.923880;-0.270598;,
  -0.242772;-0.923880;-0.295818;,
  -0.146447;0.923880;-0.353553;,
  -0.111087;-0.923880;-0.366205;,
  0.000000;0.923880;-0.382683;,
  0.037510;-0.923880;-0.380841;,
  0.146447;0.923880;-0.353553;,
  0.180396;-0.923880;-0.337497;,
  0.500000;0.707107;-0.500000;,
  0.295818;-0.923880;-0.242772;,
  0.000089;1.000000;-0.000037;,
  0.676659;-0.707107;-0.205262;,
  0.703702;0.707107;-0.069309;,
  0.000096;-1.000000;0.000000;,
  0.353553;0.923880;0.146447;,
  0.623612;-0.707107;0.333328;,
  0.270598;0.923880;0.270598;,
  0.242772;-0.923880;0.295818;,
  0.146447;0.923880;0.353553;,
  0.111087;-0.923880;0.366205;,
  0.000000;0.923880;0.382683;,
  -0.037510;-0.923880;0.380841;,
  -0.146447;0.923880;0.353553;,
  -0.180396;-0.923880;0.337497;,
  -0.270598;0.923880;0.270598;,
  -0.295818;-0.923880;0.242772;,
  -0.353553;0.923880;0.146447;,
  -0.366205;-0.923880;0.111087;,
  -0.382683;0.923880;0.000000;,
  -0.380841;-0.923880;-0.037510;,
  -0.353553;0.923880;-0.146447;,
  -0.337497;-0.923880;-0.180396;,
  -0.270598;0.923880;-0.270598;,
  -0.242772;-0.923880;-0.295818;,
  -0.146447;0.923880;-0.353553;,
  -0.111087;-0.923880;-0.366205;,
  0.000000;0.923880;-0.382683;,
  0.037510;-0.923880;-0.380841;,
  0.146447;0.923880;-0.353553;,
  0.180396;-0.923880;-0.337497;,
  0.500000;0.707107;-0.500000;,
  0.295818;-0.923880;-0.242772;,
  0.000089;1.000000;-0.000037;,
  0.676659;-0.707107;-0.205262;,
  0.703702;0.707107;-0.069309;,
  0.000096;-1.000000;0.000000;,
  0.353553;0.923880;0.146447;,
  0.623612;-0.707107;0.333328;,
  0.270598;0.923880;0.270598;,
  0.242772;-0.923880;0.295818;,
  0.146447;0.923880;0.353553;,
  0.111087;-0.923880;0.366205;,
  0.000000;0.923880;0.382683;,
  -0.037510;-0.923880;0.380841;,
  -0.146447;0.923880;0.353553;,
  -0.180396;-0.923880;0.337497;,
  -0.270598;0.923880;0.270598;,
  -0.295818;-0.923880;0.242772;,
  -0.353553;0.923880;0.146447;,
  -0.366205;-0.923880;0.111087;,
  -0.382683;0.923880;0.000000;,
  -0.380841;-0.923880;-0.037510;,
  -0.353553;0.923880;-0.146447;,
  -0.337497;-0.923880;-0.180396;,
  -0.270598;0.923880;-0.270598;,
  -0.242772;-0.923880;-0.295818;,
  -0.146447;0.923880;-0.353553;,
  -0.111087;-0.923880;-0.366205;,
  0.000000;0.923880;-0.382683;,
  0.037510;-0.923880;-0.380841;,
  0.146447;0.923880;-0.353553;,
  0.180396;-0.923880;-0.337497;,
  0.500000;0.707107;-0.500000;,
  0.295818;-0.923880;-0.242772;,
  0.000089;1.000000;-0.000037;,
  0.676659;-0.707107;-0.205262;,
  0.703702;0.707107;-0.069309;,
  0.000096;-1.000000;0.000000;,
  0.353553;0.923880;0.146447;,
  0.623612;-0.707107;0.333328;,
  0.270598;0.923880;0.270598;,
  0.242772;-0.923880;0.295818;,
  0.146447;0.923880;0.353553;,
  0.111087;-0.923880;0.366205;,
  0.000000;0.923880;0.382683;,
  -0.037510;-0.923880;0.380841;,
  -0.146447;0.923880;0.353553;,
  -0.180396;-0.923880;0.337497;,
  -0.270598;0.923880;0.270598;,
  -0.295818;-0.923880;0.242772;,
  -0.353553;0.923880;0.146447;,
  -0.366205;-0.923880;0.111087;,
  -0.382683;0.923880;0.000000;,
  -0.380841;-0.923880;-0.037510;,
  -0.353553;0.923880;-0.146447;,
  -0.337497;-0.923880;-0.180396;,
  -0.270598;0.923880;-0.270598;,
  -0.242772;-0.923880;-0.295818;,
  -0.146447;0.923880;-0.353553;,
  -0.111087;-0.923880;-0.366205;,
  0.000000;0.923880;-0.382683;,
  0.037510;-0.923880;-0.380841;,
  0.146447;0.923880;-0.353553;,
  0.180396;-0.923880;-0.337497;,
  0.500000;0.707107;-0.500000;,
  0.295818;-0.923880;-0.242772;,
  0.000089;1.000000;-0.000037;,
  0.676659;-0.707107;-0.205262;,
  0.703702;0.707107;-0.069309;,
  0.000096;-1.000000;0.000000;,
  0.353553;0.923880;0.146447;,
  0.623612;-0.707107;0.333328;,
  0.270598;0.923880;0.270598;,
  0.242772;-0.923880;0.295818;,
  0.146447;0.923880;0.353553;,
  0.111087;-0.923880;0.366205;,
  0.000000;0.923880;0.382683;,
  -0.037510;-0.923880;0.380841;,
  -0.146447;0.923880;0.353553;,
  -0.180396;-0.923880;0.337497;,
  -0.270598;0.923880;0.270598;,
  -0.295818;-0.923880;0.242772;,
  -0.353553;0.923880;0.146447;,
  -0.366205;-0.923880;0.111087;,
  -0.382683;0.923880;0.000000;,
  -0.380841;-0.923880;-0.037510;,
  -0.353553;0.923880;-0.146447;,
  -0.337497;-0.923880;-0.180396;,
  -0.270598;0.923880;-0.270598;,
  -0.242772;-0.923880;-0.295818;,
  -0.146447;0.923880;-0.353553;,
  -0.111087;-0.923880;-0.366205;,
  0.000000;0.923880;-0.382683;,
  0.037510;-0.923880;-0.380841;,
  0.146447;0.923880;-0.353553;,
  0.180396;-0.923880;-0.337497;,
  0.500000;0.707107;-0.500000;,
  0.295818;-0.923880;-0.242772;,
  0.000089;1.000000;-0.000037;,
  0.676659;-0.707107;-0.205262;,
  0.703702;0.707107;-0.069309;,
  0.000096;-1.000000;0.000000;,
  0.353553;0.923880;0.146447;,
  0.623612;-0.707107;0.333328;,
  0.270598;0.923880;0.270598;,
  0.242772;-0.923880;0.295818;,
  0.146447;0.923880;0.353553;,
  0.111087;-0.923880;0.366205;,
  0.000000;0.923880;0.382683;,
  -0.037510;-0.923880;0.380841;,
  -0.146447;0.923880;0.353553;,
  -0.180396;-0.923880;0.337497;,
  -0.270598;0.923880;0.270598;,
  -0.295818;-0.923880;0.242772;,
  -0.353553;0.923880;0.146447;,
  -0.366205;-0.923880;0.111087;,
  -0.382683;0.923880;0.000000;,
  -0.380841;-0.923880;-0.037510;,
  -0.353553;0.923880;-0.146447;,
  -0.337497;-0.923880;-0.180396;,
  -0.270598;0.923880;-0.270598;,
  -0.242772;-0.923880;-0.295818;,
  -0.146447;0.923880;-0.353553;,
  -0.111087;-0.923880;-0.366205;,
  0.000000;0.923880;-0.382683;,
  0.037510;-0.923880;-0.380841;,
  0.146447;0.923880;-0.353553;,
  0.180396;-0.923880;-0.337497;,
  0.500000;0.707107;-0.500000;,
  0.295818;-0.923880;-0.242772;,
  0.000089;1.000000;-0.000037;,
  0.676659;-0.707107;-0.205262;,
  0.703702;0.707107;-0.069309;,
  0.000096;-1.000000;0.000000;,
  0.353553;0.923880;0.146447;,
  0.623612;-0.707107;0.333328;,
  0.270598;0.923880;0.270598;,
  0.242772;-0.923880;0.295818;,
  0.146447;0.923880;0.353553;,
  0.111087;-0.923880;0.366205;,
  0.000000;0.923880;0.382683;,
  -0.037510;-0.923880;0.380841;,
  -0.146447;0.923880;0.353553;,
  -0.180396;-0.923880;0.337497;,
  -0.270598;0.923880;0.270598;,
  -0.295818;-0.923880;0.242772;,
  -0.353553;0.923880;0.146447;,
  -0.366205;-0.923880;0.111087;,
  -0.382683;0.923880;0.000000;,
  -0.380841;-0.923880;-0.037510;,
  -0.353553;0.923880;-0.146447;,
  -0.337497;-0.923880;-0.180396;,
  -0.270598;0.923880;-0.270598;,
  -0.242772;-0.923880;-0.295818;,
  -0.146447;0.923880;-0.353553;,
  -0.111087;-0.923880;-0.366205;,
  0.000000;0.923880;-0.382683;,
  0.037510;-0.923880;-0.380841;,
  0.146447;0.923880;-0.353553;,
  0.180396;-0.923880;-0.337497;,
  0.500000;0.707107;-0.500000;,
  0.295818;-0.923880;-0.242772;,
  0.000089;1.000000;-0.000037;,
  0.676659;-0.707107;-0.205262;,
  0.703702;0.707107;-0.069309;,
  0.000096;-1.000000;0.000000;,
  0.353553;0.923880;0.146447;,
  0.623612;-0.707107;0.333328;,
  0.270598;0.923880;0.270598;,
  0.242772;-0.923880;0.295818;,
  0.146447;0.923880;0.353553;,
  0.111087;-0.923880;0.366205;,
  0.000000;0.923880;0.382683;,
  -0.037510;-0.923880;0.380841;,
  -0.146447;0.923880;0.353553;,
  -0.180396;-0.923880;0.337497;,
  -0.270598;0.923880;0.270598;,
  -0.295818;-0.923880;0.242772;,
  -0.353553;0.923880;0.146447;,
  -0.366205;-0.923880;0.111087;,
  -0.382683;0.923880;0.000000;,
  -0.380841;-0.923880;-0.037510;,
  -0.353553;0.923880;-0.146447;,
  -0.337497;-0.923880;-0.180396;,
  -0.270598;0.923880;-0.270598;,
  -0.242772;-0.923880;-0.295818;,
  -0.146447;0.923880;-0.353553;,
  -0.111087;-0.923880;-0.366205;,
  0.000000;0.923880;-0.382683;,
  0.037510;-0.923880;-0.380841;,
  0.146447;0.923880;-0.353553;,
  0.180396;-0.923880;-0.337497;,
  0.500000;0.707107;-0.500000;,
  0.295818;-0.923880;-0.242772;,
  0.000089;1.000000;-0.000037;,
  0.676659;-0.707107;-0.205262;,
  0.000000;0.000000;1.000000;,
  0.000000;0.000000;1.000000;,
  0.000000;0.000000;-1.000000;,
  0.000000;0.000000;-1.000000;,
  -1.000000;0.000000;0.000000;,
  -1.000000;0.000000;0.000000;,
  1.000000;0.000000;0.000000;,
  1.000000;0.000000;0.000000;;
  508;
  3;0,0,0;,
  3;1,1,1;,
  3;2,2,2;,
  3;3,3,3;,
  3;4,4,4;,
  3;5,5,5;,
  3;6,6,6;,
  3;7,7,7;,
  3;8,8,8;,
  3;9,9,9;,
  3;10,10,10;,
  3;11,11,11;,
  3;12,12,12;,
  3;13,13,13;,
  3;14,14,14;,
  3;15,15,15;,
  3;16,16,16;,
  3;17,17,17;,
  3;18,18,18;,
  3;19,19,19;,
  3;21,20,22;,
  3;21,22,23;,
  3;23,22,24;,
  3;23,24,25;,
  3;25,24,26;,
  3;25,26,27;,
  3;27,26,28;,
  3;27,28,29;,
  3;29,28,30;,
  3;29,30,31;,
  3;31,30,32;,
  3;31,32,33;,
  3;33,32,34;,
  3;33,34,35;,
  3;35,34,36;,
  3;35,36,37;,
  3;37,36,38;,
  3;37,38,39;,
  3;39,38,40;,
  3;39,40,41;,
  3;41,40,42;,
  3;41,42,43;,
  3;43,42,44;,
  3;43,44,45;,
  3;45,44,46;,
  3;45,46,47;,
  3;47,46,48;,
  3;47,48,49;,
  3;49,48,50;,
  3;49,50,51;,
  3;51,50,20;,
  3;51,20,21;,
  3;50,48,46;,
  3;50,46,44;,
  3;50,44,42;,
  3;50,42,40;,
  3;50,40,38;,
  3;50,38,36;,
  3;50,36,34;,
  3;50,34,32;,
  3;50,32,30;,
  3;50,30,28;,
  3;50,28,26;,
  3;50,26,24;,
  3;50,24,22;,
  3;50,22,20;,
  3;21,23,25;,
  3;21,25,27;,
  3;21,27,29;,
  3;21,29,31;,
  3;21,31,33;,
  3;21,33,35;,
  3;21,35,37;,
  3;21,37,39;,
  3;21,39,41;,
  3;21,41,43;,
  3;21,43,45;,
  3;21,45,47;,
  3;21,47,49;,
  3;21,49,51;,
  3;53,52,54;,
  3;53,54,55;,
  3;55,54,56;,
  3;55,56,57;,
  3;57,56,58;,
  3;57,58,59;,
  3;59,58,60;,
  3;59,60,61;,
  3;61,60,62;,
  3;61,62,63;,
  3;63,62,64;,
  3;63,64,65;,
  3;65,64,66;,
  3;65,66,67;,
  3;67,66,68;,
  3;67,68,69;,
  3;69,68,70;,
  3;69,70,71;,
  3;71,70,72;,
  3;71,72,73;,
  3;73,72,74;,
  3;73,74,75;,
  3;75,74,76;,
  3;75,76,77;,
  3;77,76,78;,
  3;77,78,79;,
  3;79,78,80;,
  3;79,80,81;,
  3;81,80,82;,
  3;81,82,83;,
  3;83,82,52;,
  3;83,52,53;,
  3;82,80,78;,
  3;82,78,76;,
  3;82,76,74;,
  3;82,74,72;,
  3;82,72,70;,
  3;82,70,68;,
  3;82,68,66;,
  3;82,66,64;,
  3;82,64,62;,
  3;82,62,60;,
  3;82,60,58;,
  3;82,58,56;,
  3;82,56,54;,
  3;82,54,52;,
  3;53,55,57;,
  3;53,57,59;,
  3;53,59,61;,
  3;53,61,63;,
  3;53,63,65;,
  3;53,65,67;,
  3;53,67,69;,
  3;53,69,71;,
  3;53,71,73;,
  3;53,73,75;,
  3;53,75,77;,
  3;53,77,79;,
  3;53,79,81;,
  3;53,81,83;,
  3;85,84,86;,
  3;85,86,87;,
  3;87,86,88;,
  3;87,88,89;,
  3;89,88,90;,
  3;89,90,91;,
  3;91,90,92;,
  3;91,92,93;,
  3;93,92,94;,
  3;93,94,95;,
  3;95,94,96;,
  3;95,96,97;,
  3;97,96,98;,
  3;97,98,99;,
  3;99,98,100;,
  3;99,100,101;,
  3;101,100,102;,
  3;101,102,103;,
  3;103,102,104;,
  3;103,104,105;,
  3;105,104,106;,
  3;105,106,107;,
  3;107,106,108;,
  3;107,108,109;,
  3;109,108,110;,
  3;109,110,111;,
  3;111,110,112;,
  3;111,112,113;,
  3;113,112,114;,
  3;113,114,115;,
  3;115,114,84;,
  3;115,84,85;,
  3;114,112,110;,
  3;114,110,108;,
  3;114,108,106;,
  3;114,106,104;,
  3;114,104,102;,
  3;114,102,100;,
  3;114,100,98;,
  3;114,98,96;,
  3;114,96,94;,
  3;114,94,92;,
  3;114,92,90;,
  3;114,90,88;,
  3;114,88,86;,
  3;114,86,84;,
  3;85,87,89;,
  3;85,89,91;,
  3;85,91,93;,
  3;85,93,95;,
  3;85,95,97;,
  3;85,97,99;,
  3;85,99,101;,
  3;85,101,103;,
  3;85,103,105;,
  3;85,105,107;,
  3;85,107,109;,
  3;85,109,111;,
  3;85,111,113;,
  3;85,113,115;,
  3;117,116,118;,
  3;117,118,119;,
  3;119,118,120;,
  3;119,120,121;,
  3;121,120,122;,
  3;121,122,123;,
  3;123,122,124;,
  3;123,124,125;,
  3;125,124,126;,
  3;125,126,127;,
  3;127,126,128;,
  3;127,128,129;,
  3;129,128,130;,
  3;129,130,131;,
  3;131,130,132;,
  3;131,132,133;,
  3;133,132,134;,
  3;133,134,135;,
  3;135,134,136;,
  3;135,136,137;,
  3;137,136,138;,
  3;137,138,139;,
  3;139,138,140;,
  3;139,140,141;,
  3;141,140,142;,
  3;141,142,143;,
  3;143,142,144;,
  3;143,144,145;,
  3;145,144,146;,
  3;145,146,147;,
  3;147,146,116;,
  3;147,116,117;,
  3;146,144,142;,
  3;146,142,140;,
  3;146,140,138;,
  3;146,138,136;,
  3;146,136,134;,
  3;146,134,132;,
  3;146,132,130;,
  3;146,130,128;,
  3;146,128,126;,
  3;146,126,124;,
  3;146,124,122;,
  3;146,122,120;,
  3;146,120,118;,
  3;146,118,116;,
  3;117,119,121;,
  3;117,121,123;,
  3;117,123,125;,
  3;117,125,127;,
  3;117,127,129;,
  3;117,129,131;,
  3;117,131,133;,
  3;117,133,135;,
  3;117,135,137;,
  3;117,137,139;,
  3;117,139,141;,
  3;117,141,143;,
  3;117,143,145;,
  3;117,145,147;,
  3;149,148,150;,
  3;149,150,151;,
  3;151,150,152;,
  3;151,152,153;,
  3;153,152,154;,
  3;153,154,155;,
  3;155,154,156;,
  3;155,156,157;,
  3;157,156,158;,
  3;157,158,159;,
  3;159,158,160;,
  3;159,160,161;,
  3;161,160,162;,
  3;161,162,163;,
  3;163,162,164;,
  3;163,164,165;,
  3;165,164,166;,
  3;165,166,167;,
  3;167,166,168;,
  3;167,168,169;,
  3;169,168,170;,
  3;169,170,171;,
  3;171,170,172;,
  3;171,172,173;,
  3;173,172,174;,
  3;173,174,175;,
  3;175,174,176;,
  3;175,176,177;,
  3;177,176,178;,
  3;177,178,179;,
  3;179,178,148;,
  3;179,148,149;,
  3;178,176,174;,
  3;178,174,172;,
  3;178,172,170;,
  3;178,170,168;,
  3;178,168,166;,
  3;178,166,164;,
  3;178,164,162;,
  3;178,162,160;,
  3;178,160,158;,
  3;178,158,156;,
  3;178,156,154;,
  3;178,154,152;,
  3;178,152,150;,
  3;178,150,148;,
  3;149,151,153;,
  3;149,153,155;,
  3;149,155,157;,
  3;149,157,159;,
  3;149,159,161;,
  3;149,161,163;,
  3;149,163,165;,
  3;149,165,167;,
  3;149,167,169;,
  3;149,169,171;,
  3;149,171,173;,
  3;149,173,175;,
  3;149,175,177;,
  3;149,177,179;,
  3;181,180,182;,
  3;181,182,183;,
  3;183,182,184;,
  3;183,184,185;,
  3;185,184,186;,
  3;185,186,187;,
  3;187,186,188;,
  3;187,188,189;,
  3;189,188,190;,
  3;189,190,191;,
  3;191,190,192;,
  3;191,192,193;,
  3;193,192,194;,
  3;193,194,195;,
  3;195,194,196;,
  3;195,196,197;,
  3;197,196,198;,
  3;197,198,199;,
  3;199,198,200;,
  3;199,200,201;,
  3;201,200,202;,
  3;201,202,203;,
  3;203,202,204;,
  3;203,204,205;,
  3;205,204,206;,
  3;205,206,207;,
  3;207,206,208;,
  3;207,208,209;,
  3;209,208,210;,
  3;209,210,211;,
  3;211,210,180;,
  3;211,180,181;,
  3;210,208,206;,
  3;210,206,204;,
  3;210,204,202;,
  3;210,202,200;,
  3;210,200,198;,
  3;210,198,196;,
  3;210,196,194;,
  3;210,194,192;,
  3;210,192,190;,
  3;210,190,188;,
  3;210,188,186;,
  3;210,186,184;,
  3;210,184,182;,
  3;210,182,180;,
  3;181,183,185;,
  3;181,185,187;,
  3;181,187,189;,
  3;181,189,191;,
  3;181,191,193;,
  3;181,193,195;,
  3;181,195,197;,
  3;181,197,199;,
  3;181,199,201;,
  3;181,201,203;,
  3;181,203,205;,
  3;181,205,207;,
  3;181,207,209;,
  3;181,209,211;,
  3;213,212,214;,
  3;213,214,215;,
  3;215,214,216;,
  3;215,216,217;,
  3;217,216,218;,
  3;217,218,219;,
  3;219,218,220;,
  3;219,220,221;,
  3;221,220,222;,
  3;221,222,223;,
  3;223,222,224;,
  3;223,224,225;,
  3;225,224,226;,
  3;225,226,227;,
  3;227,226,228;,
  3;227,228,229;,
  3;229,228,230;,
  3;229,230,231;,
  3;231,230,232;,
  3;231,232,233;,
  3;233,232,234;,
  3;233,234,235;,
  3;235,234,236;,
  3;235,236,237;,
  3;237,236,238;,
  3;237,238,239;,
  3;239,238,240;,
  3;239,240,241;,
  3;241,240,242;,
  3;241,242,243;,
  3;243,242,212;,
  3;243,212,213;,
  3;242,240,238;,
  3;242,238,236;,
  3;242,236,234;,
  3;242,234,232;,
  3;242,232,230;,
  3;242,230,228;,
  3;242,228,226;,
  3;242,226,224;,
  3;242,224,222;,
  3;242,222,220;,
  3;242,220,218;,
  3;242,218,216;,
  3;242,216,214;,
  3;242,214,212;,
  3;213,215,217;,
  3;213,217,219;,
  3;213,219,221;,
  3;213,221,223;,
  3;213,223,225;,
  3;213,225,227;,
  3;213,227,229;,
  3;213,229,231;,
  3;213,231,233;,
  3;213,233,235;,
  3;213,235,237;,
  3;213,237,239;,
  3;213,239,241;,
  3;213,241,243;,
  3;245,244,246;,
  3;245,246,247;,
  3;247,246,248;,
  3;247,248,249;,
  3;249,248,250;,
  3;249,250,251;,
  3;251,250,252;,
  3;251,252,253;,
  3;253,252,254;,
  3;253,254,255;,
  3;255,254,256;,
  3;255,256,257;,
  3;257,256,258;,
  3;257,258,259;,
  3;259,258,260;,
  3;259,260,261;,
  3;261,260,262;,
  3;261,262,263;,
  3;263,262,264;,
  3;263,264,265;,
  3;265,264,266;,
  3;265,266,267;,
  3;267,266,268;,
  3;267,268,269;,
  3;269,268,270;,
  3;269,270,271;,
  3;271,270,272;,
  3;271,272,273;,
  3;273,272,274;,
  3;273,274,275;,
  3;275,274,244;,
  3;275,244,245;,
  3;274,272,270;,
  3;274,270,268;,
  3;274,268,266;,
  3;274,266,264;,
  3;274,264,262;,
  3;274,262,260;,
  3;274,260,258;,
  3;274,258,256;,
  3;274,256,254;,
  3;274,254,252;,
  3;274,252,250;,
  3;274,250,248;,
  3;274,248,246;,
  3;274,246,244;,
  3;245,247,249;,
  3;245,249,251;,
  3;245,251,253;,
  3;245,253,255;,
  3;245,255,257;,
  3;245,257,259;,
  3;245,259,261;,
  3;245,261,263;,
  3;245,263,265;,
  3;245,265,267;,
  3;245,267,269;,
  3;245,269,271;,
  3;245,271,273;,
  3;245,273,275;,
  3;276,276,276;,
  3;277,277,277;,
  3;278,278,278;,
  3;279,279,279;,
  3;280,280,280;,
  3;281,281,281;,
  3;282,282,282;,
  3;283,283,283;;
 }
}