xof 0303txt 0032
template Vector {
 <3d82ab5e-62da-11cf-ab39-0020af71e433>
 FLOAT x;
 FLOAT y;
 FLOAT z;
}

template MeshFace {
 <3d82ab5f-62da-11cf-ab39-0020af71e433>
 DWORD nFaceVertexIndices;
 array DWORD faceVertexIndices[nFaceVertexIndices];
}

template Mesh {
 <3d82ab44-62da-11cf-ab39-0020af71e433>
 DWORD nVertices;
 array Vector vertices[nVertices];
 DWORD nFaces;
 array MeshFace faces[nFaces];
 [...]
}

template ColorRGBA {
 <35ff44e0-6c7c-11cf-8f52-0040333594a3>
 FLOAT red;
 FLOAT green;
 FLOAT blue;
 FLOAT alpha;
}

template ColorRGB {
 <d3e16e81-7835-11cf-8f52-0040333594a3>
 FLOAT red;
 FLOAT green;
 FLOAT blue;
}

template Material {
 <3d82ab4d-62da-11cf-ab39-0020af71e433>
 ColorRGBA faceColor;
 FLOAT power;
 ColorRGB specularColor;
 ColorRGB emissiveColor;
 [...]
}

template MeshMaterialList {
 <f6f23f42-7686-11cf-8f52-0040333594a3>
 DWORD nMaterials;
 DWORD nFaceIndexes;
 array DWORD faceIndexes[nFaceIndexes];
 [Material <3d82ab4d-62da-11cf-ab39-0020af71e433>]
}

template Coords2d {
 <f6f23f44-7686-11cf-8f52-0040333594a3>
 FLOAT u;
 FLOAT v;
}

template MeshTextureCoords {
 <f6f23f40-7686-11cf-8f52-0040333594a3>
 DWORD nTextureCoords;
 array Coords2d textureCoords[nTextureCoords];
}

template MeshNormals {
 <f6f23f43-7686-11cf-8f52-0040333594a3>
 DWORD nNormals;
 array Vector normals[nNormals];
 DWORD nFaceNormals;
 array MeshFace faceNormals[nFaceNormals];
}


Mesh  {
 56;
 2.600000;-0.500000;0.000000;,
 2.700000;-20.499998;0.000000;,
 2.531491;-0.500000;0.344415;,
 2.623879;-20.499998;0.382683;,
 2.336396;-0.500000;0.636396;,
 2.407107;-20.499998;0.707107;,
 2.044415;-0.500000;0.831491;,
 2.082683;-20.499998;0.923879;,
 1.700000;-0.500000;0.900000;,
 1.700000;-20.499998;1.000000;,
 1.355585;-0.500000;0.831491;,
 1.317317;-20.499998;0.923879;,
 1.063604;-0.500000;0.636396;,
 0.992893;-20.499998;0.707107;,
 0.868508;-0.500000;0.344415;,
 0.776120;-20.499998;0.382683;,
 0.800000;-0.500000;0.000000;,
 0.700000;-20.499998;0.000000;,
 0.868508;-0.500000;-0.344415;,
 0.776120;-20.499998;-0.382683;,
 1.063604;-0.500000;-0.636396;,
 0.992893;-20.499998;-0.707107;,
 1.355585;-0.500000;-0.831491;,
 1.317317;-20.499998;-0.923879;,
 1.700000;-0.500000;-0.900000;,
 1.700000;-20.499998;-1.000000;,
 2.044415;-0.500000;-0.831491;,
 2.082683;-20.499998;-0.923879;,
 2.336396;-0.500000;-0.636396;,
 2.407107;-20.499998;-0.707107;,
 2.531491;-0.500000;-0.344415;,
 2.623879;-20.499998;-0.382683;,
 -0.800000;0.000000;-0.900000;,
 4.200000;0.000000;-0.900000;,
 -0.800000;-0.800000;-0.900000;,
 4.200000;-0.800000;-0.900000;,
 -0.600000;-1.000000;-0.900000;,
 4.000000;-1.000000;-0.900000;,
 -1.000000;0.000000;-0.700000;,
 4.400000;0.000000;-0.700000;,
 -1.000000;-1.000000;-0.700000;,
 4.400000;-1.000000;-0.700000;,
 -0.800000;-1.200000;-0.700000;,
 4.200000;-1.200000;-0.700000;,
 -1.000000;0.000000;0.700000;,
 4.400000;0.000000;0.700000;,
 -1.000000;-1.000000;0.700000;,
 4.400000;-1.000000;0.700000;,
 -0.800000;-1.200000;0.700000;,
 4.200000;-1.200000;0.700000;,
 -0.800000;0.000000;0.900000;,
 4.200000;0.000000;0.900000;,
 -0.800000;-0.800000;0.900000;,
 4.200000;-0.800000;0.900000;,
 -0.600000;-1.000000;0.900000;,
 4.000000;-1.000000;0.900000;;
 148;
 3;1,0,2;,
 3;1,2,3;,
 3;3,2,4;,
 3;3,4,5;,
 3;5,4,6;,
 3;5,6,7;,
 3;7,6,8;,
 3;7,8,9;,
 3;9,8,10;,
 3;9,10,11;,
 3;11,10,12;,
 3;11,12,13;,
 3;13,12,14;,
 3;13,14,15;,
 3;15,14,16;,
 3;15,16,17;,
 3;17,16,18;,
 3;17,18,19;,
 3;19,18,20;,
 3;19,20,21;,
 3;21,20,22;,
 3;21,22,23;,
 3;23,22,24;,
 3;23,24,25;,
 3;25,24,26;,
 3;25,26,27;,
 3;27,26,28;,
 3;27,28,29;,
 3;29,28,30;,
 3;29,30,31;,
 3;31,30,0;,
 3;31,0,1;,
 3;30,28,26;,
 3;30,26,24;,
 3;30,24,22;,
 3;30,22,20;,
 3;30,20,18;,
 3;30,18,16;,
 3;30,16,14;,
 3;30,14,12;,
 3;30,12,10;,
 3;30,10,8;,
 3;30,8,6;,
 3;30,6,4;,
 3;30,4,2;,
 3;30,2,0;,
 3;1,3,5;,
 3;1,5,7;,
 3;1,7,9;,
 3;1,9,11;,
 3;1,11,13;,
 3;1,13,15;,
 3;1,15,17;,
 3;1,17,19;,
 3;1,19,21;,
 3;1,21,23;,
 3;1,23,25;,
 3;1,25,27;,
 3;1,27,29;,
 3;1,29,31;,
 3;32,34,36;,
 3;32,36,37;,
 3;32,37,35;,
 3;32,35,33;,
 3;33,35,37;,
 3;33,37,36;,
 3;33,36,34;,
 3;33,34,32;,
 3;32,34,40;,
 3;32,40,38;,
 3;38,40,34;,
 3;38,34,32;,
 3;34,36,42;,
 3;34,42,40;,
 3;40,42,36;,
 3;40,36,34;,
 3;33,35,41;,
 3;33,41,39;,
 3;39,41,35;,
 3;39,35,33;,
 3;35,37,43;,
 3;35,43,41;,
 3;41,43,37;,
 3;41,37,35;,
 3;36,37,43;,
 3;36,43,42;,
 3;42,43,37;,
 3;42,37,36;,
 3;38,40,46;,
 3;38,46,44;,
 3;44,46,40;,
 3;44,40,38;,
 3;40,42,48;,
 3;40,48,46;,
 3;46,48,42;,
 3;46,42,40;,
 3;39,41,47;,
 3;39,47,45;,
 3;45,47,41;,
 3;45,41,39;,
 3;41,43,49;,
 3;41,49,47;,
 3;47,49,43;,
 3;47,43,41;,
 3;42,43,49;,
 3;42,49,48;,
 3;48,49,43;,
 3;48,43,42;,
 3;44,46,52;,
 3;44,52,50;,
 3;50,52,46;,
 3;50,46,44;,
 3;46,48,54;,
 3;46,54,52;,
 3;52,54,48;,
 3;52,48,46;,
 3;45,47,53;,
 3;45,53,51;,
 3;51,53,47;,
 3;51,47,45;,
 3;47,49,55;,
 3;47,55,53;,
 3;53,55,49;,
 3;53,49,47;,
 3;48,49,55;,
 3;48,55,54;,
 3;54,55,49;,
 3;54,49,48;,
 3;50,52,54;,
 3;50,54,55;,
 3;50,55,53;,
 3;50,53,51;,
 3;51,53,55;,
 3;51,55,54;,
 3;51,54,52;,
 3;51,52,50;,
 3;32,38,44;,
 3;32,44,50;,
 3;32,50,51;,
 3;32,51,45;,
 3;32,45,39;,
 3;32,39,33;,
 3;33,39,45;,
 3;33,45,51;,
 3;33,51,50;,
 3;33,50,44;,
 3;33,44,38;,
 3;33,38,32;;

 MeshMaterialList  {
  2;
  148;
  0,
  0,
  0,
  0,
  0,
  0,
  0,
  0,
  0,
  0,
  0,
  0,
  0,
  0,
  0,
  0,
  0,
  0,
  0,
  0,
  0,
  0,
  0,
  0,
  0,
  0,
  0,
  0,
  0,
  0,
  0,
  0,
  0,
  0,
  0,
  0,
  0,
  0,
  0,
  0,
  0,
  0,
  0,
  0,
  0,
  0,
  0,
  0,
  0,
  0,
  0,
  0,
  0,
  0,
  0,
  0,
  0,
  0,
  0,
  0,
  1,
  1,
  1,
  1,
  1,
  1,
  1,
  1,
  1,
  1,
  1,
  1,
  1,
  1,
  1,
  1,
  1,
  1,
  1,
  1,
  1,
  1,
  1,
  1,
  1,
  1,
  1,
  1,
  1,
  1,
  1,
  1,
  1,
  1,
  1,
  1,
  1,
  1,
  1,
  1,
  1,
  1,
  1,
  1,
  1,
  1,
  1,
  1,
  1,
  1,
  1,
  1,
  1,
  1,
  1,
  1,
  1,
  1,
  1,
  1,
  1,
  1,
  1,
  1,
  1,
  1,
  1,
  1,
  1,
  1,
  1,
  1,
  1,
  1,
  1,
  1,
  1,
  1,
  1,
  1,
  1,
  1,
  1,
  1,
  1,
  1,
  1,
  1;

  Material  {
   0.643137;0.643137;0.666667;1.000000;;
   0.000000;
   0.000000;0.000000;0.000000;;
   0.000000;0.000000;0.000000;;
  }

  Material  {
   0.643137;0.643137;0.666667;1.000000;;
   0.000000;
   0.000000;0.000000;0.000000;;
   0.000000;0.000000;0.000000;;
  }
 }

 MeshTextureCoords  {
  56;
  0.000000;0.000000;,
  0.000000;0.000000;,
  0.000000;0.000000;,
  0.000000;0.000000;,
  0.000000;0.000000;,
  0.000000;0.000000;,
  0.000000;0.000000;,
  0.000000;0.000000;,
  0.000000;0.000000;,
  0.000000;0.000000;,
  0.000000;0.000000;,
  0.000000;0.000000;,
  0.000000;0.000000;,
  0.000000;0.000000;,
  0.000000;0.000000;,
  0.000000;0.000000;,
  0.000000;0.000000;,
  0.000000;0.000000;,
  0.000000;0.000000;,
  0.000000;0.000000;,
  0.000000;0.000000;,
  0.000000;0.000000;,
  0.000000;0.000000;,
  0.000000;0.000000;,
  0.000000;0.000000;,
  0.000000;0.000000;,
  0.000000;0.000000;,
  0.000000;0.000000;,
  0.000000;0.000000;,
  0.000000;0.000000;,
  0.000000;0.000000;,
  0.000000;0.000000;,
  0.000000;0.000000;,
  0.000000;0.000000;,
  0.000000;0.000000;,
  0.000000;0.000000;,
  0.000000;0.000000;,
  0.000000;0.000000;,
  0.000000;0.000000;,
  0.000000;0.000000;,
  0.000000;0.000000;,
  0.000000;0.000000;,
  0.000000;0.000000;,
  0.000000;0.000000;,
  0.000000;0.000000;,
  0.000000;0.000000;,
  0.000000;0.000000;,
  0.000000;0.000000;,
  0.000000;0.000000;,
  0.000000;0.000000;,
  0.000000;0.000000;,
  0.000000;0.000000;,
  0.000000;0.000000;,
  0.000000;0.000000;,
  0.000000;0.000000;,
  0.000000;0.000000;;
 }

 MeshNormals  {
  120;
  0.701949;0.708864;-0.069136;,
  0.000096;-1.000000;0.000000;,
  0.352486;0.924357;0.146005;,
  0.625162;-0.705345;0.334156;,
  0.269781;0.924357;0.269781;,
  0.243501;-0.923403;0.296706;,
  0.146005;0.924357;0.352486;,
  0.111421;-0.923403;0.367305;,
  0.000000;0.924357;0.381528;,
  -0.037622;-0.923403;0.381984;,
  -0.146005;0.924357;0.352486;,
  -0.180937;-0.923403;0.338510;,
  -0.269781;0.924357;0.269781;,
  -0.296706;-0.923403;0.243501;,
  -0.352486;0.924357;0.146005;,
  -0.367305;-0.923403;0.111421;,
  -0.381528;0.924357;0.000000;,
  -0.381984;-0.923403;-0.037622;,
  -0.352486;0.924357;-0.146005;,
  -0.338510;-0.923403;-0.180937;,
  -0.269781;0.924357;-0.269781;,
  -0.243501;-0.923403;-0.296706;,
  -0.146005;0.924357;-0.352486;,
  -0.111421;-0.923403;-0.367305;,
  -0.000000;0.924357;-0.381528;,
  0.037622;-0.923403;-0.381984;,
  0.146005;0.924357;-0.352486;,
  0.180937;-0.923403;-0.338510;,
  0.498748;0.708872;-0.498748;,
  0.296706;-0.923403;-0.243501;,
  0.000088;1.000000;-0.000037;,
  0.678340;-0.705345;-0.205772;,
  0.000000;0.000000;1.000000;,
  0.000000;0.000000;1.000000;,
  0.000000;0.000000;1.000000;,
  0.000000;0.000000;1.000000;,
  0.000000;0.000000;-1.000000;,
  0.000000;0.000000;-1.000000;,
  0.000000;0.000000;-1.000000;,
  0.000000;0.000000;-1.000000;,
  -0.707107;0.000000;-0.707107;,
  -0.707107;0.000000;-0.707107;,
  0.707107;0.000000;0.707107;,
  0.707107;0.000000;0.707107;,
  -0.408248;-0.408248;-0.816497;,
  -0.408248;-0.408248;-0.816497;,
  0.408248;0.408248;0.816497;,
  0.408248;0.408248;0.816497;,
  -0.707106;0.000000;0.707107;,
  -0.707106;0.000000;0.707107;,
  0.707106;0.000000;-0.707107;,
  0.707106;0.000000;-0.707107;,
  -0.408249;0.408248;0.816496;,
  -0.408248;0.408248;0.816497;,
  0.408248;-0.408249;-0.816496;,
  0.408248;-0.408248;-0.816497;,
  0.000000;-0.707107;-0.707107;,
  0.000000;-0.707107;-0.707107;,
  0.000000;0.707107;0.707107;,
  0.000000;0.707107;0.707107;,
  -1.000000;0.000000;0.000000;,
  -1.000000;0.000000;0.000000;,
  1.000000;0.000000;0.000000;,
  1.000000;0.000000;0.000000;,
  -0.707107;-0.707107;0.000000;,
  -0.707107;-0.707107;0.000000;,
  0.707107;0.707107;0.000000;,
  0.707107;0.707107;0.000000;,
  -1.000000;0.000000;0.000000;,
  -1.000000;0.000000;0.000000;,
  1.000000;0.000000;0.000000;,
  1.000000;0.000000;0.000000;,
  -0.707106;0.707107;0.000000;,
  -0.707106;0.707107;0.000000;,
  0.707106;-0.707107;0.000000;,
  0.707106;-0.707107;0.000000;,
  0.000000;-1.000000;0.000000;,
  0.000000;-1.000000;0.000000;,
  0.000000;1.000000;0.000000;,
  0.000000;1.000000;0.000000;,
  -0.707107;0.000000;0.707107;,
  -0.707107;0.000000;0.707107;,
  0.707107;0.000000;-0.707107;,
  0.707107;0.000000;-0.707107;,
  -0.408248;-0.408248;0.816497;,
  -0.408248;-0.408248;0.816497;,
  0.408248;0.408248;-0.816497;,
  0.408248;0.408248;-0.816497;,
  -0.707106;0.000000;-0.707107;,
  -0.707106;0.000000;-0.707107;,
  0.707106;0.000000;0.707107;,
  0.707106;0.000000;0.707107;,
  -0.408248;0.408249;-0.816496;,
  -0.408248;0.408248;-0.816497;,
  0.408249;-0.408248;0.816496;,
  0.408248;-0.408248;0.816497;,
  0.000000;-0.707107;0.707107;,
  0.000000;-0.707107;0.707107;,
  0.000000;0.707107;-0.707107;,
  0.000000;0.707107;-0.707107;,
  0.000000;0.000000;1.000000;,
  0.000000;0.000000;1.000000;,
  0.000000;0.000000;1.000000;,
  0.000000;0.000000;1.000000;,
  0.000000;0.000000;-1.000000;,
  0.000000;0.000000;-1.000000;,
  0.000000;0.000000;-1.000000;,
  0.000000;0.000000;-1.000000;,
  0.000000;1.000000;0.000000;,
  0.000000;1.000000;0.000000;,
  0.000000;1.000000;0.000000;,
  0.000000;1.000000;0.000000;,
  0.000000;1.000000;0.000000;,
  0.000000;1.000000;0.000000;,
  0.000000;-1.000000;0.000000;,
  0.000000;-1.000000;0.000000;,
  0.000000;-1.000000;0.000000;,
  0.000000;-1.000000;0.000000;,
  0.000000;-1.000000;0.000000;,
  0.000000;-1.000000;0.000000;;
  148;
  3;1,0,2;,
  3;1,2,3;,
  3;3,2,4;,
  3;3,4,5;,
  3;5,4,6;,
  3;5,6,7;,
  3;7,6,8;,
  3;7,8,9;,
  3;9,8,10;,
  3;9,10,11;,
  3;11,10,12;,
  3;11,12,13;,
  3;13,12,14;,
  3;13,14,15;,
  3;15,14,16;,
  3;15,16,17;,
  3;17,16,18;,
  3;17,18,19;,
  3;19,18,20;,
  3;19,20,21;,
  3;21,20,22;,
  3;21,22,23;,
  3;23,22,24;,
  3;23,24,25;,
  3;25,24,26;,
  3;25,26,27;,
  3;27,26,28;,
  3;27,28,29;,
  3;29,28,30;,
  3;29,30,31;,
  3;31,30,0;,
  3;31,0,1;,
  3;30,28,26;,
  3;30,26,24;,
  3;30,24,22;,
  3;30,22,20;,
  3;30,20,18;,
  3;30,18,16;,
  3;30,16,14;,
  3;30,14,12;,
  3;30,12,10;,
  3;30,10,8;,
  3;30,8,6;,
  3;30,6,4;,
  3;30,4,2;,
  3;30,2,0;,
  3;1,3,5;,
  3;1,5,7;,
  3;1,7,9;,
  3;1,9,11;,
  3;1,11,13;,
  3;1,13,15;,
  3;1,15,17;,
  3;1,17,19;,
  3;1,19,21;,
  3;1,21,23;,
  3;1,23,25;,
  3;1,25,27;,
  3;1,27,29;,
  3;1,29,31;,
  3;32,32,32;,
  3;33,33,33;,
  3;34,34,34;,
  3;35,35,35;,
  3;36,36,36;,
  3;37,37,37;,
  3;38,38,38;,
  3;39,39,39;,
  3;40,40,40;,
  3;41,41,41;,
  3;42,42,42;,
  3;43,43,43;,
  3;44,44,44;,
  3;45,45,45;,
  3;46,46,46;,
  3;47,47,47;,
  3;48,48,48;,
  3;49,49,49;,
  3;50,50,50;,
  3;51,51,51;,
  3;52,52,52;,
  3;53,53,53;,
  3;54,54,54;,
  3;55,55,55;,
  3;56,56,56;,
  3;57,57,57;,
  3;58,58,58;,
  3;59,59,59;,
  3;60,60,60;,
  3;61,61,61;,
  3;62,62,62;,
  3;63,63,63;,
  3;64,64,64;,
  3;65,65,65;,
  3;66,66,66;,
  3;67,67,67;,
  3;68,68,68;,
  3;69,69,69;,
  3;70,70,70;,
  3;71,71,71;,
  3;72,72,72;,
  3;73,73,73;,
  3;74,74,74;,
  3;75,75,75;,
  3;76,76,76;,
  3;77,77,77;,
  3;78,78,78;,
  3;79,79,79;,
  3;80,80,80;,
  3;81,81,81;,
  3;82,82,82;,
  3;83,83,83;,
  3;84,84,84;,
  3;85,85,85;,
  3;86,86,86;,
  3;87,87,87;,
  3;88,88,88;,
  3;89,89,89;,
  3;90,90,90;,
  3;91,91,91;,
  3;92,92,92;,
  3;93,93,93;,
  3;94,94,94;,
  3;95,95,95;,
  3;96,96,96;,
  3;97,97,97;,
  3;98,98,98;,
  3;99,99,99;,
  3;100,100,100;,
  3;101,101,101;,
  3;102,102,102;,
  3;103,103,103;,
  3;104,104,104;,
  3;105,105,105;,
  3;106,106,106;,
  3;107,107,107;,
  3;108,108,108;,
  3;109,109,109;,
  3;110,110,110;,
  3;111,111,111;,
  3;112,112,112;,
  3;113,113,113;,
  3;114,114,114;,
  3;115,115,115;,
  3;116,116,116;,
  3;117,117,117;,
  3;118,118,118;,
  3;119,119,119;;
 }
}