xof 0303txt 0032
template Vector {
 <3d82ab5e-62da-11cf-ab39-0020af71e433>
 FLOAT x;
 FLOAT y;
 FLOAT z;
}

template MeshFace {
 <3d82ab5f-62da-11cf-ab39-0020af71e433>
 DWORD nFaceVertexIndices;
 array DWORD faceVertexIndices[nFaceVertexIndices];
}

template Mesh {
 <3d82ab44-62da-11cf-ab39-0020af71e433>
 DWORD nVertices;
 array Vector vertices[nVertices];
 DWORD nFaces;
 array MeshFace faces[nFaces];
 [...]
}

template ColorRGBA {
 <35ff44e0-6c7c-11cf-8f52-0040333594a3>
 FLOAT red;
 FLOAT green;
 FLOAT blue;
 FLOAT alpha;
}

template ColorRGB {
 <d3e16e81-7835-11cf-8f52-0040333594a3>
 FLOAT red;
 FLOAT green;
 FLOAT blue;
}

template Material {
 <3d82ab4d-62da-11cf-ab39-0020af71e433>
 ColorRGBA faceColor;
 FLOAT power;
 ColorRGB specularColor;
 ColorRGB emissiveColor;
 [...]
}

template MeshMaterialList {
 <f6f23f42-7686-11cf-8f52-0040333594a3>
 DWORD nMaterials;
 DWORD nFaceIndexes;
 array DWORD faceIndexes[nFaceIndexes];
 [Material <3d82ab4d-62da-11cf-ab39-0020af71e433>]
}

template TextureFilename {
 <a42790e1-7810-11cf-8f52-0040333594a3>
 STRING filename;
}

template Coords2d {
 <f6f23f44-7686-11cf-8f52-0040333594a3>
 FLOAT u;
 FLOAT v;
}

template MeshTextureCoords {
 <f6f23f40-7686-11cf-8f52-0040333594a3>
 DWORD nTextureCoords;
 array Coords2d textureCoords[nTextureCoords];
}

template MeshNormals {
 <f6f23f43-7686-11cf-8f52-0040333594a3>
 DWORD nNormals;
 array Vector normals[nNormals];
 DWORD nFaceNormals;
 array MeshFace faceNormals[nFaceNormals];
}


Mesh  {
 240;
 -1.150000;2.300000;4.500000;,
 -1.150000;0.000000;4.500000;,
 -1.161418;2.300000;4.557402;,
 -1.161418;0.000000;4.557402;,
 -1.193934;2.300000;4.606066;,
 -1.193934;0.000000;4.606066;,
 -1.242597;2.300000;4.638581;,
 -1.242597;0.000000;4.638581;,
 -1.300000;2.300000;4.650000;,
 -1.300000;0.000000;4.650000;,
 -1.357402;2.300000;4.638581;,
 -1.357402;0.000000;4.638581;,
 -1.406066;2.300000;4.606066;,
 -1.406066;0.000000;4.606066;,
 -1.438582;2.300000;4.557402;,
 -1.438582;0.000000;4.557402;,
 -1.450000;2.300000;4.500000;,
 -1.450000;0.000000;4.500000;,
 -1.438582;2.300000;4.442597;,
 -1.438582;0.000000;4.442597;,
 -1.406066;2.300000;4.393933;,
 -1.406066;0.000000;4.393933;,
 -1.357402;2.300000;4.361418;,
 -1.357402;0.000000;4.361418;,
 -1.300000;2.300000;4.349999;,
 -1.300000;0.000000;4.349999;,
 -1.242597;2.300000;4.361418;,
 -1.242597;0.000000;4.361418;,
 -1.193934;2.300000;4.393933;,
 -1.193934;0.000000;4.393933;,
 -1.161418;2.300000;4.442597;,
 -1.161418;0.000000;4.442597;,
 1.450000;2.300000;4.500000;,
 1.450000;0.000000;4.500000;,
 1.438582;2.300000;4.557402;,
 1.438582;0.000000;4.557402;,
 1.406066;2.300000;4.606066;,
 1.406066;0.000000;4.606066;,
 1.357402;2.300000;4.638581;,
 1.357402;0.000000;4.638581;,
 1.300000;2.300000;4.650000;,
 1.300000;0.000000;4.650000;,
 1.242597;2.300000;4.638581;,
 1.242597;0.000000;4.638581;,
 1.193934;2.300000;4.606066;,
 1.193934;0.000000;4.606066;,
 1.161418;2.300000;4.557402;,
 1.161418;0.000000;4.557402;,
 1.150000;2.300000;4.500000;,
 1.150000;0.000000;4.500000;,
 1.161418;2.300000;4.442597;,
 1.161418;0.000000;4.442597;,
 1.193934;2.300000;4.393933;,
 1.193934;0.000000;4.393933;,
 1.242597;2.300000;4.361418;,
 1.242597;0.000000;4.361418;,
 1.300000;2.300000;4.349999;,
 1.300000;0.000000;4.349999;,
 1.357402;2.300000;4.361418;,
 1.357402;0.000000;4.361418;,
 1.406066;2.300000;4.393933;,
 1.406066;0.000000;4.393933;,
 1.438582;2.300000;4.442597;,
 1.438582;0.000000;4.442597;,
 0.200000;4.599999;9.499999;,
 0.200000;0.000000;9.499999;,
 0.184776;4.599999;9.576536;,
 0.184776;0.000000;9.576536;,
 0.141421;4.599999;9.641420;,
 0.141421;0.000000;9.641420;,
 0.076537;4.599999;9.684775;,
 0.076537;0.000000;9.684775;,
 0.000000;4.599999;9.699999;,
 0.000000;0.000000;9.699999;,
 -0.076537;4.599999;9.684775;,
 -0.076537;0.000000;9.684775;,
 -0.141421;4.599999;9.641420;,
 -0.141421;0.000000;9.641420;,
 -0.184776;4.599999;9.576536;,
 -0.184776;0.000000;9.576536;,
 -0.200000;4.599999;9.499999;,
 -0.200000;0.000000;9.499999;,
 -0.184776;4.599999;9.423462;,
 -0.184776;0.000000;9.423462;,
 -0.141421;4.599999;9.358578;,
 -0.141421;0.000000;9.358578;,
 -0.076537;4.599999;9.315223;,
 -0.076537;0.000000;9.315223;,
 -0.000000;4.599999;9.299999;,
 -0.000000;0.000000;9.299999;,
 0.076537;4.599999;9.315223;,
 0.076537;0.000000;9.315223;,
 0.141421;4.599999;9.358578;,
 0.141421;0.000000;9.358578;,
 0.184776;4.599999;9.423462;,
 0.184776;0.000000;9.423462;,
 -1.450000;-0.199000;0.000000;,
 -1.450000;0.001000;0.000000;,
 -1.300000;-0.199000;0.000000;,
 -1.300000;0.001000;0.000000;,
 -1.150000;-0.199000;0.000000;,
 -1.150000;0.001000;0.000000;,
 -1.450000;2.101000;4.000000;,
 -1.450000;2.301000;4.000000;,
 -1.300000;2.101000;4.000000;,
 -1.300000;2.301000;4.000000;,
 -1.150000;2.101000;4.000000;,
 -1.150000;2.301000;4.000000;,
 -1.450000;2.101000;5.000000;,
 -1.450000;2.301000;5.000000;,
 -1.300000;2.101000;5.000000;,
 -1.300000;2.301000;5.000000;,
 -1.150000;2.101000;5.000000;,
 -1.150000;2.301000;5.000000;,
 -1.450000;4.401000;8.999999;,
 -1.450000;4.601000;8.999999;,
 -1.300000;4.401000;8.999999;,
 -1.300000;4.601000;8.999999;,
 -1.150000;4.401000;8.999999;,
 -1.150000;4.601000;8.999999;,
 1.150000;-0.199000;0.000000;,
 1.150000;0.001000;0.000000;,
 1.300000;-0.199000;0.000000;,
 1.300000;0.001000;0.000000;,
 1.450000;-0.199000;0.000000;,
 1.450000;0.001000;0.000000;,
 1.150000;2.101000;4.000000;,
 1.150000;2.301000;4.000000;,
 1.300000;2.101000;4.000000;,
 1.300000;2.301000;4.000000;,
 1.450000;2.101000;4.000000;,
 1.450000;2.301000;4.000000;,
 1.150000;2.101000;5.000000;,
 1.150000;2.301000;5.000000;,
 1.300000;2.101000;5.000000;,
 1.300000;2.301000;5.000000;,
 1.450000;2.101000;5.000000;,
 1.450000;2.301000;5.000000;,
 1.150000;4.401000;8.999999;,
 1.150000;4.601000;8.999999;,
 1.300000;4.401000;8.999999;,
 1.300000;4.601000;8.999999;,
 1.450000;4.401000;8.999999;,
 1.450000;4.601000;8.999999;,
 -1.450000;0.001000;0.000000;,
 -1.450000;0.201000;0.000000;,
 -1.150000;0.001000;0.000000;,
 -1.150000;0.201000;0.000000;,
 -1.450000;2.301000;4.000000;,
 -1.450000;2.501000;4.000000;,
 -1.150000;2.301000;4.000000;,
 -1.150000;2.501000;4.000000;,
 -1.450000;2.301000;5.000000;,
 -1.450000;2.501000;5.000000;,
 -1.150000;2.301000;5.000000;,
 -1.150000;2.501000;5.000000;,
 -1.450000;4.600999;8.999999;,
 -1.450000;4.801000;8.999999;,
 -1.150000;4.600999;8.999999;,
 -1.150000;4.801000;8.999999;,
 1.150000;0.001000;0.000000;,
 1.150000;0.201000;0.000000;,
 1.450000;0.001000;0.000000;,
 1.450000;0.201000;0.000000;,
 1.150000;2.301000;4.000000;,
 1.150000;2.501000;4.000000;,
 1.450000;2.301000;4.000000;,
 1.450000;2.501000;4.000000;,
 1.150000;2.301000;5.000000;,
 1.150000;2.501000;5.000000;,
 1.450000;2.301000;5.000000;,
 1.450000;2.501000;5.000000;,
 1.150000;4.600999;8.999999;,
 1.150000;4.801000;8.999999;,
 1.450000;4.600999;8.999999;,
 1.450000;4.801000;8.999999;,
 -1.300000;2.300000;1.000000;,
 -1.300000;2.975000;1.000000;,
 -1.300000;2.300000;3.700000;,
 -1.300000;4.527999;3.700000;,
 1.300000;2.300000;1.000000;,
 1.300000;2.975000;1.000000;,
 1.300000;2.300000;3.700000;,
 1.300000;4.527999;3.700000;,
 -1.300000;2.300000;3.700000;,
 -1.300000;4.527999;3.700000;,
 -1.300000;2.300000;4.000000;,
 -1.300000;4.699999;4.000000;,
 -1.300000;2.300000;5.000000;,
 -1.300000;4.699999;5.000000;,
 -1.300000;4.599999;8.999999;,
 -1.300000;7.000000;8.999999;,
 1.300000;2.000000;3.700000;,
 1.300000;4.527999;3.700000;,
 1.300000;2.300000;4.000000;,
 1.300000;4.699999;4.000000;,
 1.300000;2.300000;5.000000;,
 1.300000;4.699999;5.000000;,
 1.300000;4.599999;8.999999;,
 1.300000;7.000000;8.999999;,
 -1.250000;3.000000;0.950000;,
 -1.250000;0.600000;0.950000;,
 -1.350000;0.600000;0.950000;,
 -1.350000;3.000000;0.950000;,
 -1.250000;3.000000;1.050000;,
 -1.250000;0.600000;1.050000;,
 -1.350000;0.600000;1.050000;,
 -1.350000;3.000000;1.050000;,
 1.350000;3.000000;0.950000;,
 1.350000;0.600000;0.950000;,
 1.250000;0.600000;0.950000;,
 1.250000;3.000000;0.950000;,
 1.350000;3.000000;1.050000;,
 1.350000;0.600000;1.050000;,
 1.250000;0.600000;1.050000;,
 1.250000;3.000000;1.050000;,
 -1.150000;0.000000;0.000000;,
 -1.150000;2.300000;4.000000;,
 1.150000;0.000000;0.000000;,
 1.150000;2.300000;4.000000;,
 -1.150000;2.300000;5.000000;,
 -1.150000;4.600000;9.000000;,
 1.150000;2.300000;5.000000;,
 1.150000;4.600000;9.000000;,
 -1.150000;0.000000;0.000000;,
 -1.150000;2.300000;4.000000;,
 1.150000;0.000000;0.000000;,
 1.150000;2.300000;4.000000;,
 -1.150000;2.300000;5.000000;,
 -1.150000;4.600000;9.000000;,
 1.150000;2.300000;5.000000;,
 1.150000;4.600000;9.000000;,
 -1.300000;2.550000;0.130000;,
 -1.300000;4.700000;4.000000;,
 1.300000;2.550000;0.130000;,
 1.300000;4.700000;4.000000;,
 -1.300000;4.700000;5.000000;,
 -1.300000;7.000000;9.000000;,
 1.300000;4.700000;5.000000;,
 1.300000;7.000000;9.000000;;
 426;
 3;1,0,2;,
 3;1,2,3;,
 3;3,2,4;,
 3;3,4,5;,
 3;5,4,6;,
 3;5,6,7;,
 3;7,6,8;,
 3;7,8,9;,
 3;9,8,10;,
 3;9,10,11;,
 3;11,10,12;,
 3;11,12,13;,
 3;13,12,14;,
 3;13,14,15;,
 3;15,14,16;,
 3;15,16,17;,
 3;17,16,18;,
 3;17,18,19;,
 3;19,18,20;,
 3;19,20,21;,
 3;21,20,22;,
 3;21,22,23;,
 3;23,22,24;,
 3;23,24,25;,
 3;25,24,26;,
 3;25,26,27;,
 3;27,26,28;,
 3;27,28,29;,
 3;29,28,30;,
 3;29,30,31;,
 3;31,30,0;,
 3;31,0,1;,
 3;30,28,26;,
 3;30,26,24;,
 3;30,24,22;,
 3;30,22,20;,
 3;30,20,18;,
 3;30,18,16;,
 3;30,16,14;,
 3;30,14,12;,
 3;30,12,10;,
 3;30,10,8;,
 3;30,8,6;,
 3;30,6,4;,
 3;30,4,2;,
 3;30,2,0;,
 3;1,3,5;,
 3;1,5,7;,
 3;1,7,9;,
 3;1,9,11;,
 3;1,11,13;,
 3;1,13,15;,
 3;1,15,17;,
 3;1,17,19;,
 3;1,19,21;,
 3;1,21,23;,
 3;1,23,25;,
 3;1,25,27;,
 3;1,27,29;,
 3;1,29,31;,
 3;33,32,34;,
 3;33,34,35;,
 3;35,34,36;,
 3;35,36,37;,
 3;37,36,38;,
 3;37,38,39;,
 3;39,38,40;,
 3;39,40,41;,
 3;41,40,42;,
 3;41,42,43;,
 3;43,42,44;,
 3;43,44,45;,
 3;45,44,46;,
 3;45,46,47;,
 3;47,46,48;,
 3;47,48,49;,
 3;49,48,50;,
 3;49,50,51;,
 3;51,50,52;,
 3;51,52,53;,
 3;53,52,54;,
 3;53,54,55;,
 3;55,54,56;,
 3;55,56,57;,
 3;57,56,58;,
 3;57,58,59;,
 3;59,58,60;,
 3;59,60,61;,
 3;61,60,62;,
 3;61,62,63;,
 3;63,62,32;,
 3;63,32,33;,
 3;62,60,58;,
 3;62,58,56;,
 3;62,56,54;,
 3;62,54,52;,
 3;62,52,50;,
 3;62,50,48;,
 3;62,48,46;,
 3;62,46,44;,
 3;62,44,42;,
 3;62,42,40;,
 3;62,40,38;,
 3;62,38,36;,
 3;62,36,34;,
 3;62,34,32;,
 3;33,35,37;,
 3;33,37,39;,
 3;33,39,41;,
 3;33,41,43;,
 3;33,43,45;,
 3;33,45,47;,
 3;33,47,49;,
 3;33,49,51;,
 3;33,51,53;,
 3;33,53,55;,
 3;33,55,57;,
 3;33,57,59;,
 3;33,59,61;,
 3;33,61,63;,
 3;65,64,66;,
 3;65,66,67;,
 3;67,66,68;,
 3;67,68,69;,
 3;69,68,70;,
 3;69,70,71;,
 3;71,70,72;,
 3;71,72,73;,
 3;73,72,74;,
 3;73,74,75;,
 3;75,74,76;,
 3;75,76,77;,
 3;77,76,78;,
 3;77,78,79;,
 3;79,78,80;,
 3;79,80,81;,
 3;81,80,82;,
 3;81,82,83;,
 3;83,82,84;,
 3;83,84,85;,
 3;85,84,86;,
 3;85,86,87;,
 3;87,86,88;,
 3;87,88,89;,
 3;89,88,90;,
 3;89,90,91;,
 3;91,90,92;,
 3;91,92,93;,
 3;93,92,94;,
 3;93,94,95;,
 3;95,94,64;,
 3;95,64,65;,
 3;94,92,90;,
 3;94,90,88;,
 3;94,88,86;,
 3;94,86,84;,
 3;94,84,82;,
 3;94,82,80;,
 3;94,80,78;,
 3;94,78,76;,
 3;94,76,74;,
 3;94,74,72;,
 3;94,72,70;,
 3;94,70,68;,
 3;94,68,66;,
 3;94,66,64;,
 3;65,67,69;,
 3;65,69,71;,
 3;65,71,73;,
 3;65,73,75;,
 3;65,75,77;,
 3;65,77,79;,
 3;65,79,81;,
 3;65,81,83;,
 3;65,83,85;,
 3;65,85,87;,
 3;65,87,89;,
 3;65,89,91;,
 3;65,91,93;,
 3;65,93,95;,
 3;96,100,106;,
 3;96,106,102;,
 3;102,106,100;,
 3;102,100,96;,
 3;97,101,107;,
 3;97,107,103;,
 3;103,107,101;,
 3;103,101,97;,
 3;98,99,105;,
 3;98,105,104;,
 3;104,105,99;,
 3;104,99,98;,
 3;102,106,112;,
 3;102,112,108;,
 3;108,112,106;,
 3;108,106,102;,
 3;103,107,113;,
 3;103,113,109;,
 3;109,113,107;,
 3;109,107,103;,
 3;104,105,111;,
 3;104,111,110;,
 3;110,111,105;,
 3;110,105,104;,
 3;108,112,118;,
 3;108,118,114;,
 3;114,118,112;,
 3;114,112,108;,
 3;109,113,119;,
 3;109,119,115;,
 3;115,119,113;,
 3;115,113,109;,
 3;110,111,117;,
 3;110,117,116;,
 3;116,117,111;,
 3;116,111,110;,
 3;120,124,130;,
 3;120,130,126;,
 3;126,130,124;,
 3;126,124,120;,
 3;121,125,131;,
 3;121,131,127;,
 3;127,131,125;,
 3;127,125,121;,
 3;122,123,129;,
 3;122,129,128;,
 3;128,129,123;,
 3;128,123,122;,
 3;126,130,136;,
 3;126,136,132;,
 3;132,136,130;,
 3;132,130,126;,
 3;127,131,137;,
 3;127,137,133;,
 3;133,137,131;,
 3;133,131,127;,
 3;128,129,135;,
 3;128,135,134;,
 3;134,135,129;,
 3;134,129,128;,
 3;132,136,142;,
 3;132,142,138;,
 3;138,142,136;,
 3;138,136,132;,
 3;133,137,143;,
 3;133,143,139;,
 3;139,143,137;,
 3;139,137,133;,
 3;134,135,141;,
 3;134,141,140;,
 3;140,141,135;,
 3;140,135,134;,
 3;144,145,147;,
 3;144,147,146;,
 3;146,147,145;,
 3;146,145,144;,
 3;144,146,150;,
 3;144,150,148;,
 3;148,150,146;,
 3;148,146,144;,
 3;145,147,151;,
 3;145,151,149;,
 3;149,151,147;,
 3;149,147,145;,
 3;144,145,149;,
 3;144,149,148;,
 3;148,149,145;,
 3;148,145,144;,
 3;146,147,151;,
 3;146,151,150;,
 3;150,151,147;,
 3;150,147,146;,
 3;148,150,154;,
 3;148,154,152;,
 3;152,154,150;,
 3;152,150,148;,
 3;149,151,155;,
 3;149,155,153;,
 3;153,155,151;,
 3;153,151,149;,
 3;148,149,153;,
 3;148,153,152;,
 3;152,153,149;,
 3;152,149,148;,
 3;150,151,155;,
 3;150,155,154;,
 3;154,155,151;,
 3;154,151,150;,
 3;152,154,158;,
 3;152,158,156;,
 3;156,158,154;,
 3;156,154,152;,
 3;153,155,159;,
 3;153,159,157;,
 3;157,159,155;,
 3;157,155,153;,
 3;152,153,157;,
 3;152,157,156;,
 3;156,157,153;,
 3;156,153,152;,
 3;154,155,159;,
 3;154,159,158;,
 3;158,159,155;,
 3;158,155,154;,
 3;160,161,163;,
 3;160,163,162;,
 3;162,163,161;,
 3;162,161,160;,
 3;160,162,166;,
 3;160,166,164;,
 3;164,166,162;,
 3;164,162,160;,
 3;161,163,167;,
 3;161,167,165;,
 3;165,167,163;,
 3;165,163,161;,
 3;160,161,165;,
 3;160,165,164;,
 3;164,165,161;,
 3;164,161,160;,
 3;162,163,167;,
 3;162,167,166;,
 3;166,167,163;,
 3;166,163,162;,
 3;164,166,170;,
 3;164,170,168;,
 3;168,170,166;,
 3;168,166,164;,
 3;165,167,171;,
 3;165,171,169;,
 3;169,171,167;,
 3;169,167,165;,
 3;164,165,169;,
 3;164,169,168;,
 3;168,169,165;,
 3;168,165,164;,
 3;166,167,171;,
 3;166,171,170;,
 3;170,171,167;,
 3;170,167,166;,
 3;168,170,174;,
 3;168,174,172;,
 3;172,174,170;,
 3;172,170,168;,
 3;169,171,175;,
 3;169,175,173;,
 3;173,175,171;,
 3;173,171,169;,
 3;168,169,173;,
 3;168,173,172;,
 3;172,173,169;,
 3;172,169,168;,
 3;170,171,175;,
 3;170,175,174;,
 3;174,175,171;,
 3;174,171,170;,
 3;176,177,179;,
 3;176,179,178;,
 3;178,179,177;,
 3;178,177,176;,
 3;180,181,183;,
 3;180,183,182;,
 3;182,183,181;,
 3;182,181,180;,
 3;184,185,187;,
 3;184,187,186;,
 3;186,187,185;,
 3;186,185,184;,
 3;186,187,189;,
 3;186,189,188;,
 3;188,189,187;,
 3;188,187,186;,
 3;188,189,191;,
 3;188,191,190;,
 3;190,191,189;,
 3;190,189,188;,
 3;192,193,195;,
 3;192,195,194;,
 3;194,195,193;,
 3;194,193,192;,
 3;194,195,197;,
 3;194,197,196;,
 3;196,197,195;,
 3;196,195,194;,
 3;196,197,199;,
 3;196,199,198;,
 3;198,199,197;,
 3;198,197,196;,
 3;200,201,202;,
 3;200,202,203;,
 3;203,202,206;,
 3;203,206,207;,
 3;207,206,205;,
 3;207,205,204;,
 3;204,205,201;,
 3;204,201,200;,
 3;200,203,207;,
 3;200,207,204;,
 3;201,205,206;,
 3;201,206,202;,
 3;208,209,210;,
 3;208,210,211;,
 3;211,210,214;,
 3;211,214,215;,
 3;215,214,213;,
 3;215,213,212;,
 3;212,213,209;,
 3;212,209,208;,
 3;208,211,215;,
 3;208,215,212;,
 3;209,213,214;,
 3;209,214,210;,
 3;216,217,219;,
 3;216,219,218;,
 3;220,221,223;,
 3;220,223,222;,
 3;224,226,227;,
 3;224,227,225;,
 3;228,230,231;,
 3;228,231,229;,
 3;232,233,235;,
 3;232,235,234;,
 3;233,236,238;,
 3;233,238,234;,
 3;236,237,239;,
 3;236,239,238;;

 MeshMaterialList  {
  16;
  426;
  0,
  0,
  0,
  0,
  0,
  0,
  0,
  0,
  0,
  0,
  0,
  0,
  0,
  0,
  0,
  0,
  0,
  0,
  0,
  0,
  0,
  0,
  0,
  0,
  0,
  0,
  0,
  0,
  0,
  0,
  0,
  0,
  0,
  0,
  0,
  0,
  0,
  0,
  0,
  0,
  0,
  0,
  0,
  0,
  0,
  0,
  0,
  0,
  0,
  0,
  0,
  0,
  0,
  0,
  0,
  0,
  0,
  0,
  0,
  0,
  1,
  1,
  1,
  1,
  1,
  1,
  1,
  1,
  1,
  1,
  1,
  1,
  1,
  1,
  1,
  1,
  1,
  1,
  1,
  1,
  1,
  1,
  1,
  1,
  1,
  1,
  1,
  1,
  1,
  1,
  1,
  1,
  1,
  1,
  1,
  1,
  1,
  1,
  1,
  1,
  1,
  1,
  1,
  1,
  1,
  1,
  1,
  1,
  1,
  1,
  1,
  1,
  1,
  1,
  1,
  1,
  1,
  1,
  1,
  1,
  2,
  2,
  2,
  2,
  2,
  2,
  2,
  2,
  2,
  2,
  2,
  2,
  2,
  2,
  2,
  2,
  2,
  2,
  2,
  2,
  2,
  2,
  2,
  2,
  2,
  2,
  2,
  2,
  2,
  2,
  2,
  2,
  2,
  2,
  2,
  2,
  2,
  2,
  2,
  2,
  2,
  2,
  2,
  2,
  2,
  2,
  2,
  2,
  2,
  2,
  2,
  2,
  2,
  2,
  2,
  2,
  2,
  2,
  2,
  2,
  3,
  3,
  3,
  3,
  3,
  3,
  3,
  3,
  3,
  3,
  3,
  3,
  3,
  3,
  3,
  3,
  3,
  3,
  3,
  3,
  3,
  3,
  3,
  3,
  3,
  3,
  3,
  3,
  3,
  3,
  3,
  3,
  3,
  3,
  3,
  3,
  4,
  4,
  4,
  4,
  4,
  4,
  4,
  4,
  4,
  4,
  4,
  4,
  4,
  4,
  4,
  4,
  4,
  4,
  4,
  4,
  4,
  4,
  4,
  4,
  4,
  4,
  4,
  4,
  4,
  4,
  4,
  4,
  4,
  4,
  4,
  4,
  5,
  5,
  5,
  5,
  5,
  5,
  5,
  5,
  5,
  5,
  5,
  5,
  5,
  5,
  5,
  5,
  5,
  5,
  5,
  5,
  5,
  5,
  5,
  5,
  5,
  5,
  5,
  5,
  5,
  5,
  5,
  5,
  5,
  5,
  5,
  5,
  5,
  5,
  5,
  5,
  5,
  5,
  5,
  5,
  5,
  5,
  5,
  5,
  5,
  5,
  5,
  5,
  6,
  6,
  6,
  6,
  6,
  6,
  6,
  6,
  6,
  6,
  6,
  6,
  6,
  6,
  6,
  6,
  6,
  6,
  6,
  6,
  6,
  6,
  6,
  6,
  6,
  6,
  6,
  6,
  6,
  6,
  6,
  6,
  6,
  6,
  6,
  6,
  6,
  6,
  6,
  6,
  6,
  6,
  6,
  6,
  6,
  6,
  6,
  6,
  6,
  6,
  6,
  6,
  7,
  7,
  7,
  7,
  8,
  8,
  8,
  8,
  9,
  9,
  9,
  9,
  9,
  9,
  9,
  9,
  9,
  9,
  9,
  9,
  10,
  10,
  10,
  10,
  10,
  10,
  10,
  10,
  10,
  10,
  10,
  10,
  11,
  11,
  11,
  11,
  11,
  11,
  11,
  11,
  11,
  11,
  11,
  11,
  12,
  12,
  12,
  12,
  12,
  12,
  12,
  12,
  12,
  12,
  12,
  12,
  13,
  13,
  13,
  13,
  14,
  14,
  14,
  14,
  15,
  15,
  15,
  15,
  15,
  15;

  Material  {
   0.352941;0.411765;0.411765;1.000000;;
   0.000000;
   0.000000;0.000000;0.000000;;
   0.000000;0.000000;0.000000;;
  }

  Material  {
   0.352941;0.411765;0.411765;1.000000;;
   0.000000;
   0.000000;0.000000;0.000000;;
   0.000000;0.000000;0.000000;;
  }

  Material  {
   0.352941;0.411765;0.411765;1.000000;;
   0.000000;
   0.000000;0.000000;0.000000;;
   0.000000;0.000000;0.000000;;
  }

  Material  {
   0.352941;0.411765;0.411765;1.000000;;
   0.000000;
   0.000000;0.000000;0.000000;;
   0.000000;0.000000;0.000000;;
  }

  Material  {
   0.352941;0.411765;0.411765;1.000000;;
   0.000000;
   0.000000;0.000000;0.000000;;
   0.000000;0.000000;0.000000;;
  }

  Material  {
   0.568627;0.568627;0.549020;1.000000;;
   0.000000;
   0.000000;0.000000;0.000000;;
   0.000000;0.000000;0.000000;;
  }

  Material  {
   0.568627;0.568627;0.549020;1.000000;;
   0.000000;
   0.000000;0.000000;0.000000;;
   0.000000;0.000000;0.000000;;
  }

  Material  {
   0.568627;0.568627;0.549020;1.000000;;
   0.000000;
   0.000000;0.000000;0.000000;;
   0.000000;0.000000;0.000000;;
  }

  Material  {
   0.568627;0.568627;0.549020;1.000000;;
   0.000000;
   0.000000;0.000000;0.000000;;
   0.000000;0.000000;0.000000;;
  }

  Material  {
   0.666667;0.666667;0.666667;1.000000;;
   0.000000;
   0.000000;0.000000;0.000000;;
   0.000000;0.000000;0.000000;;
  }

  Material  {
   0.666667;0.666667;0.666667;1.000000;;
   0.000000;
   0.000000;0.000000;0.000000;;
   0.000000;0.000000;0.000000;;
  }

  Material  {
   0.450980;0.333333;0.223529;1.000000;;
   0.000000;
   0.000000;0.000000;0.000000;;
   0.000000;0.000000;0.000000;;
  }

  Material  {
   0.450980;0.333333;0.223529;1.000000;;
   0.000000;
   0.000000;0.000000;0.000000;;
   0.000000;0.000000;0.000000;;
  }

  Material  {
   1.000000;1.000000;1.000000;1.000000;;
   0.000000;
   0.000000;0.000000;0.000000;;
   0.000000;0.000000;0.000000;;

   TextureFilename  {
    "Kaidan.dds";
   }
  }

  Material  {
   1.000000;1.000000;1.000000;1.000000;;
   0.000000;
   0.000000;0.000000;0.000000;;
   0.000000;0.000000;0.000000;;

   TextureFilename  {
    "KaidanB.dds";
   }
  }

  Material  {
   1.000000;1.000000;1.000000;1.000000;;
   0.000000;
   0.000000;0.000000;0.000000;;
   0.000000;0.000000;0.000000;;

   TextureFilename  {
    "Roof_CC06k.dds";
   }
  }
 }

 MeshTextureCoords  {
  240;
  0.000000;0.000000;,
  0.000000;0.000000;,
  0.000000;0.000000;,
  0.000000;0.000000;,
  0.000000;0.000000;,
  0.000000;0.000000;,
  0.000000;0.000000;,
  0.000000;0.000000;,
  0.000000;0.000000;,
  0.000000;0.000000;,
  0.000000;0.000000;,
  0.000000;0.000000;,
  0.000000;0.000000;,
  0.000000;0.000000;,
  0.000000;0.000000;,
  0.000000;0.000000;,
  0.000000;0.000000;,
  0.000000;0.000000;,
  0.000000;0.000000;,
  0.000000;0.000000;,
  0.000000;0.000000;,
  0.000000;0.000000;,
  0.000000;0.000000;,
  0.000000;0.000000;,
  0.000000;0.000000;,
  0.000000;0.000000;,
  0.000000;0.000000;,
  0.000000;0.000000;,
  0.000000;0.000000;,
  0.000000;0.000000;,
  0.000000;0.000000;,
  0.000000;0.000000;,
  0.000000;0.000000;,
  0.000000;0.000000;,
  0.000000;0.000000;,
  0.000000;0.000000;,
  0.000000;0.000000;,
  0.000000;0.000000;,
  0.000000;0.000000;,
  0.000000;0.000000;,
  0.000000;0.000000;,
  0.000000;0.000000;,
  0.000000;0.000000;,
  0.000000;0.000000;,
  0.000000;0.000000;,
  0.000000;0.000000;,
  0.000000;0.000000;,
  0.000000;0.000000;,
  0.000000;0.000000;,
  0.000000;0.000000;,
  0.000000;0.000000;,
  0.000000;0.000000;,
  0.000000;0.000000;,
  0.000000;0.000000;,
  0.000000;0.000000;,
  0.000000;0.000000;,
  0.000000;0.000000;,
  0.000000;0.000000;,
  0.000000;0.000000;,
  0.000000;0.000000;,
  0.000000;0.000000;,
  0.000000;0.000000;,
  0.000000;0.000000;,
  0.000000;0.000000;,
  0.000000;0.000000;,
  0.000000;0.000000;,
  0.000000;0.000000;,
  0.000000;0.000000;,
  0.000000;0.000000;,
  0.000000;0.000000;,
  0.000000;0.000000;,
  0.000000;0.000000;,
  0.000000;0.000000;,
  0.000000;0.000000;,
  0.000000;0.000000;,
  0.000000;0.000000;,
  0.000000;0.000000;,
  0.000000;0.000000;,
  0.000000;0.000000;,
  0.000000;0.000000;,
  0.000000;0.000000;,
  0.000000;0.000000;,
  0.000000;0.000000;,
  0.000000;0.000000;,
  0.000000;0.000000;,
  0.000000;0.000000;,
  0.000000;0.000000;,
  0.000000;0.000000;,
  0.000000;0.000000;,
  0.000000;0.000000;,
  0.000000;0.000000;,
  0.000000;0.000000;,
  0.000000;0.000000;,
  0.000000;0.000000;,
  0.000000;0.000000;,
  0.000000;0.000000;,
  0.000000;0.000000;,
  0.000000;0.000000;,
  0.000000;0.000000;,
  0.000000;0.000000;,
  0.000000;0.000000;,
  0.000000;0.000000;,
  0.000000;0.000000;,
  0.000000;0.000000;,
  0.000000;0.000000;,
  0.000000;0.000000;,
  0.000000;0.000000;,
  0.000000;0.000000;,
  0.000000;0.000000;,
  0.000000;0.000000;,
  0.000000;0.000000;,
  0.000000;0.000000;,
  0.000000;0.000000;,
  0.000000;0.000000;,
  0.000000;0.000000;,
  0.000000;0.000000;,
  0.000000;0.000000;,
  0.000000;0.000000;,
  0.000000;0.000000;,
  0.000000;0.000000;,
  0.000000;0.000000;,
  0.000000;0.000000;,
  0.000000;0.000000;,
  0.000000;0.000000;,
  0.000000;0.000000;,
  0.000000;0.000000;,
  0.000000;0.000000;,
  0.000000;0.000000;,
  0.000000;0.000000;,
  0.000000;0.000000;,
  0.000000;0.000000;,
  0.000000;0.000000;,
  0.000000;0.000000;,
  0.000000;0.000000;,
  0.000000;0.000000;,
  0.000000;0.000000;,
  0.000000;0.000000;,
  0.000000;0.000000;,
  0.000000;0.000000;,
  0.000000;0.000000;,
  0.000000;0.000000;,
  0.000000;0.000000;,
  0.000000;0.000000;,
  0.000000;0.000000;,
  0.000000;0.000000;,
  0.000000;0.000000;,
  0.000000;0.000000;,
  0.000000;0.000000;,
  0.000000;0.000000;,
  0.000000;0.000000;,
  0.000000;0.000000;,
  0.000000;0.000000;,
  0.000000;0.000000;,
  0.000000;0.000000;,
  0.000000;0.000000;,
  0.000000;0.000000;,
  0.000000;0.000000;,
  0.000000;0.000000;,
  0.000000;0.000000;,
  0.000000;0.000000;,
  0.000000;0.000000;,
  0.000000;0.000000;,
  0.000000;0.000000;,
  0.000000;0.000000;,
  0.000000;0.000000;,
  0.000000;0.000000;,
  0.000000;0.000000;,
  0.000000;0.000000;,
  0.000000;0.000000;,
  0.000000;0.000000;,
  0.000000;0.000000;,
  0.000000;0.000000;,
  0.000000;0.000000;,
  0.000000;0.000000;,
  0.000000;0.000000;,
  0.000000;0.000000;,
  0.000000;0.000000;,
  0.000000;0.000000;,
  0.000000;0.000000;,
  0.000000;0.000000;,
  0.000000;0.000000;,
  0.000000;0.000000;,
  0.000000;0.000000;,
  0.000000;0.000000;,
  0.000000;0.000000;,
  0.000000;0.000000;,
  0.000000;0.000000;,
  0.000000;0.000000;,
  0.000000;0.000000;,
  0.000000;0.000000;,
  0.000000;0.000000;,
  0.000000;0.000000;,
  0.000000;0.000000;,
  0.000000;0.000000;,
  0.000000;0.000000;,
  0.000000;0.000000;,
  0.000000;0.000000;,
  0.000000;0.000000;,
  0.000000;0.000000;,
  0.000000;0.000000;,
  0.000000;0.000000;,
  0.000000;0.000000;,
  0.000000;0.000000;,
  0.000000;0.000000;,
  0.000000;0.000000;,
  0.000000;0.000000;,
  0.000000;0.000000;,
  0.000000;0.000000;,
  0.000000;0.000000;,
  0.000000;0.000000;,
  0.000000;0.000000;,
  0.000000;0.000000;,
  0.000000;0.000000;,
  0.000000;0.000000;,
  0.000000;0.000000;,
  0.000000;0.000000;,
  0.000000;0.000000;,
  0.000000;1.000000;,
  1.000000;0.000000;,
  1.000000;1.000000;,
  0.000000;0.000000;,
  0.000000;1.000000;,
  1.000000;0.000000;,
  1.000000;1.000000;,
  0.000000;0.000000;,
  0.000000;2.000000;,
  1.000000;0.000000;,
  1.000000;2.000000;,
  0.000000;0.000000;,
  0.000000;2.000000;,
  1.000000;0.000000;,
  1.000000;2.000000;,
  0.000000;1.000000;,
  0.000000;0.700000;,
  1.000000;1.000000;,
  1.000000;0.700000;,
  0.000000;0.600000;,
  0.000000;0.000000;,
  1.000000;0.600000;,
  1.000000;0.000000;;
 }

 MeshNormals  {
  342;
  0.703702;0.707107;-0.069309;,
  0.000096;-1.000000;0.000000;,
  0.353553;0.923880;0.146447;,
  0.623612;-0.707107;0.333328;,
  0.270598;0.923879;0.270598;,
  0.242772;-0.923880;0.295818;,
  0.146447;0.923879;0.353553;,
  0.111087;-0.923880;0.366205;,
  0.000000;0.923879;0.382683;,
  -0.037510;-0.923879;0.380841;,
  -0.146447;0.923880;0.353553;,
  -0.180396;-0.923880;0.337497;,
  -0.270598;0.923880;0.270598;,
  -0.295818;-0.923880;0.242772;,
  -0.353553;0.923880;0.146447;,
  -0.366205;-0.923880;0.111087;,
  -0.382683;0.923880;0.000000;,
  -0.380841;-0.923880;-0.037510;,
  -0.353553;0.923880;-0.146447;,
  -0.337497;-0.923880;-0.180396;,
  -0.270598;0.923880;-0.270598;,
  -0.242772;-0.923880;-0.295818;,
  -0.146447;0.923880;-0.353553;,
  -0.111087;-0.923879;-0.366205;,
  -0.000000;0.923880;-0.382683;,
  0.037510;-0.923879;-0.380841;,
  0.146447;0.923880;-0.353553;,
  0.180396;-0.923880;-0.337497;,
  0.500000;0.707107;-0.500000;,
  0.295818;-0.923880;-0.242772;,
  0.000089;1.000000;-0.000037;,
  0.676659;-0.707107;-0.205262;,
  0.703702;0.707107;-0.069309;,
  0.000096;-1.000000;0.000000;,
  0.353553;0.923880;0.146447;,
  0.623612;-0.707107;0.333328;,
  0.270598;0.923879;0.270598;,
  0.242772;-0.923880;0.295818;,
  0.146447;0.923879;0.353553;,
  0.111087;-0.923880;0.366205;,
  0.000000;0.923879;0.382683;,
  -0.037510;-0.923879;0.380841;,
  -0.146447;0.923880;0.353553;,
  -0.180396;-0.923880;0.337497;,
  -0.270598;0.923880;0.270598;,
  -0.295818;-0.923880;0.242772;,
  -0.353553;0.923880;0.146447;,
  -0.366205;-0.923880;0.111087;,
  -0.382683;0.923880;0.000000;,
  -0.380841;-0.923880;-0.037510;,
  -0.353553;0.923880;-0.146447;,
  -0.337497;-0.923880;-0.180396;,
  -0.270598;0.923880;-0.270598;,
  -0.242772;-0.923880;-0.295818;,
  -0.146447;0.923880;-0.353553;,
  -0.111087;-0.923879;-0.366205;,
  -0.000000;0.923880;-0.382683;,
  0.037510;-0.923879;-0.380841;,
  0.146447;0.923880;-0.353553;,
  0.180396;-0.923880;-0.337497;,
  0.500000;0.707107;-0.500000;,
  0.295818;-0.923880;-0.242772;,
  0.000089;1.000000;-0.000037;,
  0.676659;-0.707107;-0.205262;,
  0.703702;0.707107;-0.069309;,
  0.000096;-1.000000;-0.000000;,
  0.353553;0.923880;0.146447;,
  0.623613;-0.707107;0.333328;,
  0.270598;0.923880;0.270598;,
  0.242772;-0.923879;0.295818;,
  0.146447;0.923880;0.353553;,
  0.111087;-0.923880;0.366205;,
  -0.000000;0.923880;0.382683;,
  -0.037510;-0.923879;0.380841;,
  -0.146447;0.923879;0.353553;,
  -0.180396;-0.923880;0.337497;,
  -0.270598;0.923879;0.270598;,
  -0.295818;-0.923879;0.242772;,
  -0.353553;0.923880;0.146447;,
  -0.366205;-0.923880;0.111087;,
  -0.382683;0.923879;-0.000000;,
  -0.380841;-0.923879;-0.037510;,
  -0.353553;0.923879;-0.146447;,
  -0.337497;-0.923880;-0.180396;,
  -0.270598;0.923880;-0.270598;,
  -0.242772;-0.923879;-0.295818;,
  -0.146447;0.923880;-0.353553;,
  -0.111087;-0.923880;-0.366205;,
  0.000000;0.923879;-0.382683;,
  0.037510;-0.923879;-0.380841;,
  0.146447;0.923879;-0.353553;,
  0.180396;-0.923880;-0.337497;,
  0.500000;0.707107;-0.500000;,
  0.295818;-0.923880;-0.242772;,
  0.000089;1.000000;-0.000037;,
  0.676659;-0.707107;-0.205262;,
  0.000000;-0.866906;0.498471;,
  0.000000;-0.866906;0.498471;,
  0.000000;0.866906;-0.498471;,
  0.000000;0.866906;-0.498471;,
  0.000000;-0.866906;0.498471;,
  0.000000;-0.866906;0.498471;,
  0.000000;0.866906;-0.498471;,
  0.000000;0.866906;-0.498471;,
  1.000000;0.000000;0.000000;,
  1.000000;0.000000;0.000000;,
  -1.000000;0.000000;0.000000;,
  -1.000000;0.000000;0.000000;,
  0.000000;-1.000000;0.000000;,
  0.000000;-1.000000;0.000000;,
  0.000000;1.000000;0.000000;,
  0.000000;1.000000;0.000000;,
  0.000000;-1.000000;0.000000;,
  0.000000;-1.000000;0.000000;,
  0.000000;1.000000;0.000000;,
  0.000000;1.000000;0.000000;,
  1.000000;0.000000;0.000000;,
  1.000000;0.000000;0.000000;,
  -1.000000;0.000000;0.000000;,
  -1.000000;0.000000;0.000000;,
  0.000000;-0.866906;0.498471;,
  0.000000;-0.866906;0.498471;,
  0.000000;0.866906;-0.498471;,
  0.000000;0.866906;-0.498471;,
  0.000000;-0.866906;0.498471;,
  0.000000;-0.866906;0.498471;,
  0.000000;0.866906;-0.498471;,
  0.000000;0.866906;-0.498471;,
  1.000000;0.000000;0.000000;,
  1.000000;0.000000;0.000000;,
  -1.000000;0.000000;0.000000;,
  -1.000000;0.000000;0.000000;,
  0.000000;-0.866906;0.498471;,
  0.000000;-0.866906;0.498471;,
  0.000000;0.866906;-0.498471;,
  0.000000;0.866906;-0.498471;,
  0.000000;-0.866906;0.498471;,
  0.000000;-0.866906;0.498471;,
  0.000000;0.866906;-0.498471;,
  0.000000;0.866906;-0.498471;,
  1.000000;0.000000;0.000000;,
  1.000000;0.000000;0.000000;,
  -1.000000;0.000000;0.000000;,
  -1.000000;0.000000;0.000000;,
  0.000000;-1.000000;0.000000;,
  0.000000;-1.000000;0.000000;,
  0.000000;1.000000;0.000000;,
  0.000000;1.000000;0.000000;,
  0.000000;-1.000000;0.000000;,
  0.000000;-1.000000;0.000000;,
  0.000000;1.000000;0.000000;,
  0.000000;1.000000;0.000000;,
  1.000000;0.000000;0.000000;,
  1.000000;0.000000;0.000000;,
  -1.000000;0.000000;0.000000;,
  -1.000000;0.000000;0.000000;,
  0.000000;-0.866906;0.498471;,
  0.000000;-0.866906;0.498471;,
  0.000000;0.866906;-0.498471;,
  0.000000;0.866906;-0.498471;,
  0.000000;-0.866906;0.498471;,
  0.000000;-0.866906;0.498471;,
  0.000000;0.866906;-0.498471;,
  0.000000;0.866906;-0.498471;,
  1.000000;0.000000;0.000000;,
  1.000000;0.000000;0.000000;,
  -1.000000;0.000000;0.000000;,
  -1.000000;0.000000;0.000000;,
  0.000000;0.000000;-1.000000;,
  0.000000;0.000000;-1.000000;,
  0.000000;0.000000;1.000000;,
  0.000000;0.000000;1.000000;,
  0.000000;-0.866906;0.498471;,
  0.000000;-0.866906;0.498471;,
  0.000000;0.866906;-0.498471;,
  0.000000;0.866906;-0.498471;,
  0.000000;-0.866906;0.498471;,
  0.000000;-0.866906;0.498471;,
  0.000000;0.866906;-0.498471;,
  0.000000;0.866906;-0.498471;,
  1.000000;0.000000;0.000000;,
  1.000000;0.000000;0.000000;,
  -1.000000;0.000000;0.000000;,
  -1.000000;0.000000;0.000000;,
  1.000000;0.000000;0.000000;,
  1.000000;0.000000;0.000000;,
  -1.000000;0.000000;0.000000;,
  -1.000000;0.000000;0.000000;,
  0.000000;-1.000000;0.000000;,
  0.000000;-1.000000;0.000000;,
  0.000000;1.000000;0.000000;,
  0.000000;1.000000;0.000000;,
  0.000000;-1.000000;0.000000;,
  0.000000;-1.000000;0.000000;,
  0.000000;1.000000;0.000000;,
  0.000000;1.000000;0.000000;,
  1.000000;0.000000;0.000000;,
  1.000000;0.000000;0.000000;,
  -1.000000;0.000000;0.000000;,
  -1.000000;0.000000;0.000000;,
  1.000000;0.000000;0.000000;,
  1.000000;0.000000;0.000000;,
  -1.000000;0.000000;0.000000;,
  -1.000000;0.000000;0.000000;,
  0.000000;-0.866906;0.498471;,
  0.000000;-0.866906;0.498471;,
  0.000000;0.866906;-0.498471;,
  0.000000;0.866906;-0.498471;,
  0.000000;-0.866906;0.498471;,
  0.000000;-0.866906;0.498471;,
  0.000000;0.866906;-0.498471;,
  0.000000;0.866906;-0.498471;,
  1.000000;0.000000;0.000000;,
  1.000000;0.000000;0.000000;,
  -1.000000;0.000000;0.000000;,
  -1.000000;0.000000;0.000000;,
  1.000000;0.000000;0.000000;,
  1.000000;0.000000;0.000000;,
  -1.000000;0.000000;0.000000;,
  -1.000000;0.000000;0.000000;,
  0.000000;0.000000;-1.000000;,
  0.000000;0.000000;-1.000000;,
  0.000000;0.000000;1.000000;,
  0.000000;0.000000;1.000000;,
  0.000000;-0.866906;0.498471;,
  0.000000;-0.866906;0.498471;,
  0.000000;0.866906;-0.498471;,
  0.000000;0.866906;-0.498471;,
  0.000000;-0.866906;0.498471;,
  0.000000;-0.866906;0.498471;,
  0.000000;0.866906;-0.498471;,
  0.000000;0.866906;-0.498471;,
  1.000000;0.000000;0.000000;,
  1.000000;0.000000;0.000000;,
  -1.000000;0.000000;0.000000;,
  -1.000000;0.000000;0.000000;,
  1.000000;0.000000;0.000000;,
  1.000000;0.000000;0.000000;,
  -1.000000;0.000000;0.000000;,
  -1.000000;0.000000;0.000000;,
  0.000000;-1.000000;0.000000;,
  0.000000;-1.000000;0.000000;,
  0.000000;1.000000;0.000000;,
  0.000000;1.000000;0.000000;,
  0.000000;-1.000000;0.000000;,
  0.000000;-1.000000;0.000000;,
  0.000000;1.000000;0.000000;,
  0.000000;1.000000;0.000000;,
  1.000000;0.000000;0.000000;,
  1.000000;0.000000;0.000000;,
  -1.000000;0.000000;0.000000;,
  -1.000000;0.000000;0.000000;,
  1.000000;0.000000;0.000000;,
  1.000000;0.000000;0.000000;,
  -1.000000;0.000000;0.000000;,
  -1.000000;0.000000;0.000000;,
  0.000000;-0.866906;0.498471;,
  0.000000;-0.866906;0.498471;,
  0.000000;0.866906;-0.498471;,
  0.000000;0.866906;-0.498471;,
  0.000000;-0.866906;0.498471;,
  0.000000;-0.866906;0.498471;,
  0.000000;0.866906;-0.498471;,
  0.000000;0.866906;-0.498471;,
  1.000000;0.000000;0.000000;,
  1.000000;0.000000;0.000000;,
  -1.000000;0.000000;0.000000;,
  -1.000000;0.000000;0.000000;,
  1.000000;0.000000;0.000000;,
  1.000000;0.000000;0.000000;,
  -1.000000;0.000000;0.000000;,
  -1.000000;0.000000;0.000000;,
  1.000000;0.000000;0.000000;,
  1.000000;0.000000;0.000000;,
  -1.000000;0.000000;0.000000;,
  -1.000000;0.000000;0.000000;,
  1.000000;0.000000;0.000000;,
  1.000000;0.000000;0.000000;,
  -1.000000;0.000000;0.000000;,
  -1.000000;0.000000;0.000000;,
  1.000000;0.000000;0.000000;,
  1.000000;0.000000;0.000000;,
  -1.000000;0.000000;0.000000;,
  -1.000000;0.000000;0.000000;,
  1.000000;0.000000;0.000000;,
  1.000000;0.000000;0.000000;,
  -1.000000;0.000000;0.000000;,
  -1.000000;0.000000;0.000000;,
  1.000000;0.000000;0.000000;,
  1.000000;0.000000;0.000000;,
  -1.000000;0.000000;0.000000;,
  -1.000000;0.000000;0.000000;,
  1.000000;0.000000;0.000000;,
  1.000000;0.000000;0.000000;,
  -1.000000;0.000000;0.000000;,
  -1.000000;0.000000;0.000000;,
  1.000000;0.000000;0.000000;,
  1.000000;0.000000;0.000000;,
  -1.000000;0.000000;0.000000;,
  -1.000000;0.000000;0.000000;,
  1.000000;0.000000;0.000000;,
  1.000000;0.000000;0.000000;,
  -1.000000;0.000000;0.000000;,
  -1.000000;0.000000;0.000000;,
  0.000000;0.000000;-1.000000;,
  0.000000;0.000000;-1.000000;,
  -1.000000;0.000000;0.000000;,
  -1.000000;0.000000;0.000000;,
  0.000000;0.000000;1.000000;,
  0.000000;0.000000;1.000000;,
  1.000000;0.000000;0.000000;,
  1.000000;0.000000;0.000000;,
  0.000000;1.000000;0.000000;,
  0.000000;1.000000;0.000000;,
  0.000000;-1.000000;0.000000;,
  0.000000;-1.000000;0.000000;,
  0.000000;0.000000;-1.000000;,
  0.000000;0.000000;-1.000000;,
  -1.000000;0.000000;0.000000;,
  -1.000000;0.000000;0.000000;,
  0.000000;0.000000;1.000000;,
  0.000000;0.000000;1.000000;,
  1.000000;0.000000;0.000000;,
  1.000000;0.000000;0.000000;,
  0.000000;1.000000;0.000000;,
  0.000000;1.000000;0.000000;,
  0.000000;-1.000000;0.000000;,
  0.000000;-1.000000;0.000000;,
  0.000000;0.866906;-0.498471;,
  0.000000;0.866906;-0.498471;,
  0.000000;0.866906;-0.498471;,
  0.000000;0.866906;-0.498471;,
  0.000000;-0.866906;0.498471;,
  0.000000;-0.866906;0.498471;,
  0.000000;-0.866906;0.498471;,
  0.000000;-0.866906;0.498471;,
  0.000000;0.874157;-0.485643;,
  0.501982;0.567590;-0.652576;,
  0.000000;1.000000;0.000000;,
  0.224701;0.779868;-0.584222;,
  0.000000;0.866906;-0.498471;,
  0.000000;0.866906;-0.498471;;
  426;
  3;1,0,2;,
  3;1,2,3;,
  3;3,2,4;,
  3;3,4,5;,
  3;5,4,6;,
  3;5,6,7;,
  3;7,6,8;,
  3;7,8,9;,
  3;9,8,10;,
  3;9,10,11;,
  3;11,10,12;,
  3;11,12,13;,
  3;13,12,14;,
  3;13,14,15;,
  3;15,14,16;,
  3;15,16,17;,
  3;17,16,18;,
  3;17,18,19;,
  3;19,18,20;,
  3;19,20,21;,
  3;21,20,22;,
  3;21,22,23;,
  3;23,22,24;,
  3;23,24,25;,
  3;25,24,26;,
  3;25,26,27;,
  3;27,26,28;,
  3;27,28,29;,
  3;29,28,30;,
  3;29,30,31;,
  3;31,30,0;,
  3;31,0,1;,
  3;30,28,26;,
  3;30,26,24;,
  3;30,24,22;,
  3;30,22,20;,
  3;30,20,18;,
  3;30,18,16;,
  3;30,16,14;,
  3;30,14,12;,
  3;30,12,10;,
  3;30,10,8;,
  3;30,8,6;,
  3;30,6,4;,
  3;30,4,2;,
  3;30,2,0;,
  3;1,3,5;,
  3;1,5,7;,
  3;1,7,9;,
  3;1,9,11;,
  3;1,11,13;,
  3;1,13,15;,
  3;1,15,17;,
  3;1,17,19;,
  3;1,19,21;,
  3;1,21,23;,
  3;1,23,25;,
  3;1,25,27;,
  3;1,27,29;,
  3;1,29,31;,
  3;33,32,34;,
  3;33,34,35;,
  3;35,34,36;,
  3;35,36,37;,
  3;37,36,38;,
  3;37,38,39;,
  3;39,38,40;,
  3;39,40,41;,
  3;41,40,42;,
  3;41,42,43;,
  3;43,42,44;,
  3;43,44,45;,
  3;45,44,46;,
  3;45,46,47;,
  3;47,46,48;,
  3;47,48,49;,
  3;49,48,50;,
  3;49,50,51;,
  3;51,50,52;,
  3;51,52,53;,
  3;53,52,54;,
  3;53,54,55;,
  3;55,54,56;,
  3;55,56,57;,
  3;57,56,58;,
  3;57,58,59;,
  3;59,58,60;,
  3;59,60,61;,
  3;61,60,62;,
  3;61,62,63;,
  3;63,62,32;,
  3;63,32,33;,
  3;62,60,58;,
  3;62,58,56;,
  3;62,56,54;,
  3;62,54,52;,
  3;62,52,50;,
  3;62,50,48;,
  3;62,48,46;,
  3;62,46,44;,
  3;62,44,42;,
  3;62,42,40;,
  3;62,40,38;,
  3;62,38,36;,
  3;62,36,34;,
  3;62,34,32;,
  3;33,35,37;,
  3;33,37,39;,
  3;33,39,41;,
  3;33,41,43;,
  3;33,43,45;,
  3;33,45,47;,
  3;33,47,49;,
  3;33,49,51;,
  3;33,51,53;,
  3;33,53,55;,
  3;33,55,57;,
  3;33,57,59;,
  3;33,59,61;,
  3;33,61,63;,
  3;65,64,66;,
  3;65,66,67;,
  3;67,66,68;,
  3;67,68,69;,
  3;69,68,70;,
  3;69,70,71;,
  3;71,70,72;,
  3;71,72,73;,
  3;73,72,74;,
  3;73,74,75;,
  3;75,74,76;,
  3;75,76,77;,
  3;77,76,78;,
  3;77,78,79;,
  3;79,78,80;,
  3;79,80,81;,
  3;81,80,82;,
  3;81,82,83;,
  3;83,82,84;,
  3;83,84,85;,
  3;85,84,86;,
  3;85,86,87;,
  3;87,86,88;,
  3;87,88,89;,
  3;89,88,90;,
  3;89,90,91;,
  3;91,90,92;,
  3;91,92,93;,
  3;93,92,94;,
  3;93,94,95;,
  3;95,94,64;,
  3;95,64,65;,
  3;94,92,90;,
  3;94,90,88;,
  3;94,88,86;,
  3;94,86,84;,
  3;94,84,82;,
  3;94,82,80;,
  3;94,80,78;,
  3;94,78,76;,
  3;94,76,74;,
  3;94,74,72;,
  3;94,72,70;,
  3;94,70,68;,
  3;94,68,66;,
  3;94,66,64;,
  3;65,67,69;,
  3;65,69,71;,
  3;65,71,73;,
  3;65,73,75;,
  3;65,75,77;,
  3;65,77,79;,
  3;65,79,81;,
  3;65,81,83;,
  3;65,83,85;,
  3;65,85,87;,
  3;65,87,89;,
  3;65,89,91;,
  3;65,91,93;,
  3;65,93,95;,
  3;96,96,96;,
  3;97,97,97;,
  3;98,98,98;,
  3;99,99,99;,
  3;100,100,100;,
  3;101,101,101;,
  3;102,102,102;,
  3;103,103,103;,
  3;104,104,104;,
  3;105,105,105;,
  3;106,106,106;,
  3;107,107,107;,
  3;108,108,108;,
  3;109,109,109;,
  3;110,110,110;,
  3;111,111,111;,
  3;112,112,112;,
  3;113,113,113;,
  3;114,114,114;,
  3;115,115,115;,
  3;116,116,116;,
  3;117,117,117;,
  3;118,118,118;,
  3;119,119,119;,
  3;120,120,120;,
  3;121,121,121;,
  3;122,122,122;,
  3;123,123,123;,
  3;124,124,124;,
  3;125,125,125;,
  3;126,126,126;,
  3;127,127,127;,
  3;128,128,128;,
  3;129,129,129;,
  3;130,130,130;,
  3;131,131,131;,
  3;132,132,132;,
  3;133,133,133;,
  3;134,134,134;,
  3;135,135,135;,
  3;136,136,136;,
  3;137,137,137;,
  3;138,138,138;,
  3;139,139,139;,
  3;140,140,140;,
  3;141,141,141;,
  3;142,142,142;,
  3;143,143,143;,
  3;144,144,144;,
  3;145,145,145;,
  3;146,146,146;,
  3;147,147,147;,
  3;148,148,148;,
  3;149,149,149;,
  3;150,150,150;,
  3;151,151,151;,
  3;152,152,152;,
  3;153,153,153;,
  3;154,154,154;,
  3;155,155,155;,
  3;156,156,156;,
  3;157,157,157;,
  3;158,158,158;,
  3;159,159,159;,
  3;160,160,160;,
  3;161,161,161;,
  3;162,162,162;,
  3;163,163,163;,
  3;164,164,164;,
  3;165,165,165;,
  3;166,166,166;,
  3;167,167,167;,
  3;168,168,168;,
  3;169,169,169;,
  3;170,170,170;,
  3;171,171,171;,
  3;172,172,172;,
  3;173,173,173;,
  3;174,174,174;,
  3;175,175,175;,
  3;176,176,176;,
  3;177,177,177;,
  3;178,178,178;,
  3;179,179,179;,
  3;180,180,180;,
  3;181,181,181;,
  3;182,182,182;,
  3;183,183,183;,
  3;184,184,184;,
  3;185,185,185;,
  3;186,186,186;,
  3;187,187,187;,
  3;188,188,188;,
  3;189,189,189;,
  3;190,190,190;,
  3;191,191,191;,
  3;192,192,192;,
  3;193,193,193;,
  3;194,194,194;,
  3;195,195,195;,
  3;196,196,196;,
  3;197,197,197;,
  3;198,198,198;,
  3;199,199,199;,
  3;200,200,200;,
  3;201,201,201;,
  3;202,202,202;,
  3;203,203,203;,
  3;204,204,204;,
  3;205,205,205;,
  3;206,206,206;,
  3;207,207,207;,
  3;208,208,208;,
  3;209,209,209;,
  3;210,210,210;,
  3;211,211,211;,
  3;212,212,212;,
  3;213,213,213;,
  3;214,214,214;,
  3;215,215,215;,
  3;216,216,216;,
  3;217,217,217;,
  3;218,218,218;,
  3;219,219,219;,
  3;220,220,220;,
  3;221,221,221;,
  3;222,222,222;,
  3;223,223,223;,
  3;224,224,224;,
  3;225,225,225;,
  3;226,226,226;,
  3;227,227,227;,
  3;228,228,228;,
  3;229,229,229;,
  3;230,230,230;,
  3;231,231,231;,
  3;232,232,232;,
  3;233,233,233;,
  3;234,234,234;,
  3;235,235,235;,
  3;236,236,236;,
  3;237,237,237;,
  3;238,238,238;,
  3;239,239,239;,
  3;240,240,240;,
  3;241,241,241;,
  3;242,242,242;,
  3;243,243,243;,
  3;244,244,244;,
  3;245,245,245;,
  3;246,246,246;,
  3;247,247,247;,
  3;248,248,248;,
  3;249,249,249;,
  3;250,250,250;,
  3;251,251,251;,
  3;252,252,252;,
  3;253,253,253;,
  3;254,254,254;,
  3;255,255,255;,
  3;256,256,256;,
  3;257,257,257;,
  3;258,258,258;,
  3;259,259,259;,
  3;260,260,260;,
  3;261,261,261;,
  3;262,262,262;,
  3;263,263,263;,
  3;264,264,264;,
  3;265,265,265;,
  3;266,266,266;,
  3;267,267,267;,
  3;268,268,268;,
  3;269,269,269;,
  3;270,270,270;,
  3;271,271,271;,
  3;272,272,272;,
  3;273,273,273;,
  3;274,274,274;,
  3;275,275,275;,
  3;276,276,276;,
  3;277,277,277;,
  3;278,278,278;,
  3;279,279,279;,
  3;280,280,280;,
  3;281,281,281;,
  3;282,282,282;,
  3;283,283,283;,
  3;284,284,284;,
  3;285,285,285;,
  3;286,286,286;,
  3;287,287,287;,
  3;288,288,288;,
  3;289,289,289;,
  3;290,290,290;,
  3;291,291,291;,
  3;292,292,292;,
  3;293,293,293;,
  3;294,294,294;,
  3;295,295,295;,
  3;296,296,296;,
  3;297,297,297;,
  3;298,298,298;,
  3;299,299,299;,
  3;300,300,300;,
  3;301,301,301;,
  3;302,302,302;,
  3;303,303,303;,
  3;304,304,304;,
  3;305,305,305;,
  3;306,306,306;,
  3;307,307,307;,
  3;308,308,308;,
  3;309,309,309;,
  3;310,310,310;,
  3;311,311,311;,
  3;312,312,312;,
  3;313,313,313;,
  3;314,314,314;,
  3;315,315,315;,
  3;316,316,316;,
  3;317,317,317;,
  3;318,318,318;,
  3;319,319,319;,
  3;320,320,320;,
  3;321,321,321;,
  3;322,322,322;,
  3;323,323,323;,
  3;324,324,324;,
  3;325,325,325;,
  3;326,326,326;,
  3;327,327,327;,
  3;328,328,328;,
  3;329,329,329;,
  3;330,330,330;,
  3;331,331,331;,
  3;332,332,332;,
  3;333,333,333;,
  3;334,334,334;,
  3;335,335,335;,
  3;336,336,336;,
  3;337,337,337;,
  3;338,338,338;,
  3;339,339,339;,
  3;340,340,340;,
  3;341,341,341;;
 }
}