xof 0303txt 0032
template Vector {
 <3d82ab5e-62da-11cf-ab39-0020af71e433>
 FLOAT x;
 FLOAT y;
 FLOAT z;
}

template MeshFace {
 <3d82ab5f-62da-11cf-ab39-0020af71e433>
 DWORD nFaceVertexIndices;
 array DWORD faceVertexIndices[nFaceVertexIndices];
}

template Mesh {
 <3d82ab44-62da-11cf-ab39-0020af71e433>
 DWORD nVertices;
 array Vector vertices[nVertices];
 DWORD nFaces;
 array MeshFace faces[nFaces];
 [...]
}

template ColorRGBA {
 <35ff44e0-6c7c-11cf-8f52-0040333594a3>
 FLOAT red;
 FLOAT green;
 FLOAT blue;
 FLOAT alpha;
}

template ColorRGB {
 <d3e16e81-7835-11cf-8f52-0040333594a3>
 FLOAT red;
 FLOAT green;
 FLOAT blue;
}

template Material {
 <3d82ab4d-62da-11cf-ab39-0020af71e433>
 ColorRGBA faceColor;
 FLOAT power;
 ColorRGB specularColor;
 ColorRGB emissiveColor;
 [...]
}

template MeshMaterialList {
 <f6f23f42-7686-11cf-8f52-0040333594a3>
 DWORD nMaterials;
 DWORD nFaceIndexes;
 array DWORD faceIndexes[nFaceIndexes];
 [Material <3d82ab4d-62da-11cf-ab39-0020af71e433>]
}

template TextureFilename {
 <a42790e1-7810-11cf-8f52-0040333594a3>
 STRING filename;
}

template Coords2d {
 <f6f23f44-7686-11cf-8f52-0040333594a3>
 FLOAT u;
 FLOAT v;
}

template MeshTextureCoords {
 <f6f23f40-7686-11cf-8f52-0040333594a3>
 DWORD nTextureCoords;
 array Coords2d textureCoords[nTextureCoords];
}

template MeshNormals {
 <f6f23f43-7686-11cf-8f52-0040333594a3>
 DWORD nNormals;
 array Vector normals[nNormals];
 DWORD nFaceNormals;
 array MeshFace faceNormals[nFaceNormals];
}


Mesh  {
 26;
 3.450000;4.599999;0.000000;,
 3.450000;7.000000;0.000000;,
 3.450000;4.599999;4.000000;,
 3.450000;7.000000;4.000000;,
 18.849998;4.599999;0.000000;,
 18.849998;7.000000;0.000000;,
 18.849998;4.599999;4.000000;,
 18.849998;7.000000;4.000000;,
 3.450000;8.149999;2.000000;,
 18.849998;8.149999;2.000000;,
 6.050000;4.599999;0.000000;,
 6.050000;7.000000;0.000000;,
 16.249998;4.599999;0.000000;,
 16.249998;7.000000;0.000000;,
 6.050000;4.599999;4.000000;,
 6.050000;7.000000;4.000000;,
 16.249998;4.599999;4.000000;,
 16.249998;7.000000;4.000000;,
 3.450000;4.599999;0.000000;,
 18.849998;4.599999;0.000000;,
 3.450000;4.599999;4.000000;,
 18.849998;4.599999;4.000000;,
 3.450000;6.941999;-0.100000;,
 3.450000;8.149999;2.000000;,
 18.849998;6.941999;-0.100000;,
 18.849998;8.149999;2.000000;;
 26;
 3;0,2,3;,
 3;0,3,1;,
 3;1,3,2;,
 3;1,2,0;,
 3;4,6,7;,
 3;4,7,5;,
 3;5,7,6;,
 3;5,6,4;,
 3;1,3,8;,
 3;8,3,1;,
 3;5,7,9;,
 3;9,7,5;,
 3;10,12,13;,
 3;10,13,11;,
 3;11,13,12;,
 3;11,12,10;,
 3;14,16,17;,
 3;14,17,15;,
 3;15,17,16;,
 3;15,16,14;,
 3;18,20,21;,
 3;18,21,19;,
 3;19,21,20;,
 3;19,20,18;,
 3;22,23,25;,
 3;22,25,24;;

 MeshMaterialList  {
  4;
  26;
  0,
  0,
  0,
  0,
  0,
  0,
  0,
  0,
  0,
  0,
  0,
  0,
  1,
  1,
  1,
  1,
  1,
  1,
  1,
  1,
  2,
  2,
  2,
  2,
  3,
  3;

  Material  {
   0.666667;0.666667;0.666667;1.000000;;
   0.000000;
   0.000000;0.000000;0.000000;;
   0.000000;0.000000;0.000000;;
  }

  Material  {
   0.666667;0.666667;0.666667;1.000000;;
   0.000000;
   0.000000;0.000000;0.000000;;
   0.000000;0.000000;0.000000;;

   TextureFilename  {
    "Kosen_CC06b.dds";
   }
  }

  Material  {
   0.352941;0.411765;0.411765;1.000000;;
   0.000000;
   0.000000;0.000000;0.000000;;
   0.000000;0.000000;0.000000;;
  }

  Material  {
   1.000000;1.000000;1.000000;1.000000;;
   0.000000;
   0.000000;0.000000;0.000000;;
   0.000000;0.000000;0.000000;;

   TextureFilename  {
    "Roof_CC06k.dds";
   }
  }
 }

 MeshTextureCoords  {
  26;
  0.000000;0.000000;,
  0.000000;0.000000;,
  0.000000;0.000000;,
  0.000000;0.000000;,
  0.000000;0.000000;,
  0.000000;0.000000;,
  0.000000;0.000000;,
  0.000000;0.000000;,
  0.000000;0.000000;,
  0.000000;0.000000;,
  0.000000;1.000000;,
  0.000000;0.000000;,
  5.000000;1.000000;,
  5.000000;0.000000;,
  0.000000;1.000000;,
  0.000000;0.000000;,
  5.000000;1.000000;,
  5.000000;0.000000;,
  0.000000;0.000000;,
  0.000000;0.000000;,
  0.000000;0.000000;,
  0.000000;0.000000;,
  0.000000;1.000000;,
  0.000000;0.000000;,
  7.000000;1.000000;,
  7.000000;0.000000;;
 }

 MeshNormals  {
  26;
  -1.000000;0.000000;0.000000;,
  -1.000000;0.000000;0.000000;,
  1.000000;0.000000;0.000000;,
  1.000000;0.000000;0.000000;,
  -1.000000;0.000000;0.000000;,
  -1.000000;0.000000;0.000000;,
  1.000000;0.000000;0.000000;,
  1.000000;0.000000;0.000000;,
  -1.000000;0.000000;0.000000;,
  1.000000;0.000000;0.000000;,
  -1.000000;0.000000;0.000000;,
  1.000000;0.000000;0.000000;,
  0.000000;0.000000;1.000000;,
  0.000000;0.000000;1.000000;,
  0.000000;0.000000;-1.000000;,
  0.000000;0.000000;-1.000000;,
  0.000000;0.000000;1.000000;,
  0.000000;0.000000;1.000000;,
  0.000000;0.000000;-1.000000;,
  0.000000;0.000000;-1.000000;,
  0.000000;1.000000;0.000000;,
  0.000000;1.000000;0.000000;,
  0.000000;-1.000000;0.000000;,
  0.000000;-1.000000;0.000000;,
  0.000000;0.866817;-0.498626;,
  0.000000;0.866817;-0.498626;;
  26;
  3;0,0,0;,
  3;1,1,1;,
  3;2,2,2;,
  3;3,3,3;,
  3;4,4,4;,
  3;5,5,5;,
  3;6,6,6;,
  3;7,7,7;,
  3;8,8,8;,
  3;9,9,9;,
  3;10,10,10;,
  3;11,11,11;,
  3;12,12,12;,
  3;13,13,13;,
  3;14,14,14;,
  3;15,15,15;,
  3;16,16,16;,
  3;17,17,17;,
  3;18,18,18;,
  3;19,19,19;,
  3;20,20,20;,
  3;21,21,21;,
  3;22,22,22;,
  3;23,23,23;,
  3;24,24,24;,
  3;25,25,25;;
 }
}