xof 0303txt 0032
template Vector {
 <3d82ab5e-62da-11cf-ab39-0020af71e433>
 FLOAT x;
 FLOAT y;
 FLOAT z;
}

template MeshFace {
 <3d82ab5f-62da-11cf-ab39-0020af71e433>
 DWORD nFaceVertexIndices;
 array DWORD faceVertexIndices[nFaceVertexIndices];
}

template Mesh {
 <3d82ab44-62da-11cf-ab39-0020af71e433>
 DWORD nVertices;
 array Vector vertices[nVertices];
 DWORD nFaces;
 array MeshFace faces[nFaces];
 [...]
}

template ColorRGBA {
 <35ff44e0-6c7c-11cf-8f52-0040333594a3>
 FLOAT red;
 FLOAT green;
 FLOAT blue;
 FLOAT alpha;
}

template ColorRGB {
 <d3e16e81-7835-11cf-8f52-0040333594a3>
 FLOAT red;
 FLOAT green;
 FLOAT blue;
}

template Material {
 <3d82ab4d-62da-11cf-ab39-0020af71e433>
 ColorRGBA faceColor;
 FLOAT power;
 ColorRGB specularColor;
 ColorRGB emissiveColor;
 [...]
}

template MeshMaterialList {
 <f6f23f42-7686-11cf-8f52-0040333594a3>
 DWORD nMaterials;
 DWORD nFaceIndexes;
 array DWORD faceIndexes[nFaceIndexes];
 [Material <3d82ab4d-62da-11cf-ab39-0020af71e433>]
}

template TextureFilename {
 <a42790e1-7810-11cf-8f52-0040333594a3>
 STRING filename;
}

template Coords2d {
 <f6f23f44-7686-11cf-8f52-0040333594a3>
 FLOAT u;
 FLOAT v;
}

template MeshTextureCoords {
 <f6f23f40-7686-11cf-8f52-0040333594a3>
 DWORD nTextureCoords;
 array Coords2d textureCoords[nTextureCoords];
}

template MeshNormals {
 <f6f23f43-7686-11cf-8f52-0040333594a3>
 DWORD nNormals;
 array Vector normals[nNormals];
 DWORD nFaceNormals;
 array MeshFace faceNormals[nFaceNormals];
}


Mesh  {
 68;
 3.200000;2.600000;4.974999;,
 3.200000;0.000000;4.974999;,
 3.000000;0.000000;4.974999;,
 3.000000;2.600000;4.974999;,
 3.200000;2.600000;5.025000;,
 3.200000;0.000000;5.025000;,
 3.000000;0.000000;5.025000;,
 3.000000;2.600000;5.025000;,
 3.200000;2.600000;19.974998;,
 3.200000;0.000000;19.974998;,
 3.000000;0.000000;19.974998;,
 3.000000;2.600000;19.974998;,
 3.200000;2.600000;20.024998;,
 3.200000;0.000000;20.024998;,
 3.000000;0.000000;20.024998;,
 3.000000;2.600000;20.024998;,
 3.180000;2.500000;0.000000;,
 3.180000;2.200000;0.000000;,
 3.020000;2.200000;0.000000;,
 3.020000;2.500000;0.000000;,
 3.180000;2.500000;24.999998;,
 3.180000;2.200000;24.999998;,
 3.020000;2.200000;24.999998;,
 3.020000;2.500000;24.999998;,
 2.100000;2.850000;0.000000;,
 2.100000;2.750000;0.000000;,
 2.000000;2.750000;0.000000;,
 2.000000;2.850000;0.000000;,
 2.100000;2.850000;24.999998;,
 2.100000;2.750000;24.999998;,
 2.000000;2.750000;24.999998;,
 2.000000;2.850000;24.999998;,
 2.000000;2.850000;0.000000;,
 2.000000;2.750000;0.000000;,
 3.100000;2.600000;0.000000;,
 3.100000;2.500000;0.000000;,
 2.000000;2.850000;5.000000;,
 2.000000;2.750000;5.000000;,
 3.100000;2.600000;5.000000;,
 3.100000;2.500000;5.000000;,
 2.000000;2.850000;9.999999;,
 2.000000;2.750000;9.999999;,
 3.100000;2.600000;9.999999;,
 3.100000;2.500000;9.999999;,
 2.000000;2.850000;14.999999;,
 2.000000;2.750000;14.999999;,
 3.100000;2.600000;14.999999;,
 3.100000;2.500000;14.999999;,
 2.000000;2.850000;19.999998;,
 2.000000;2.750000;19.999998;,
 3.100000;2.600000;19.999998;,
 3.100000;2.500000;19.999998;,
 2.000000;2.850000;24.999998;,
 2.000000;2.750000;24.999998;,
 3.100000;2.600000;24.999998;,
 3.100000;2.500000;24.999998;,
 1.800000;2.360000;0.000000;,
 1.800000;2.360000;25.000000;,
 1.800000;2.950000;0.000000;,
 1.800000;2.950000;25.000000;,
 3.100000;2.550000;0.000000;,
 3.100000;2.550000;25.000000;,
 1.800000;2.360000;0.000000;,
 1.800000;2.360000;25.000000;,
 1.800000;2.950000;0.000000;,
 1.800000;2.950000;25.000000;,
 3.300000;2.550000;0.000000;,
 3.300000;2.550000;25.000000;;
 68;
 3;0,1,2;,
 3;0,2,3;,
 3;3,2,6;,
 3;3,6,7;,
 3;7,6,5;,
 3;7,5,4;,
 3;4,5,1;,
 3;4,1,0;,
 3;0,3,7;,
 3;0,7,4;,
 3;1,5,6;,
 3;1,6,2;,
 3;8,9,10;,
 3;8,10,11;,
 3;11,10,14;,
 3;11,14,15;,
 3;15,14,13;,
 3;15,13,12;,
 3;12,13,9;,
 3;12,9,8;,
 3;8,11,15;,
 3;8,15,12;,
 3;9,13,14;,
 3;9,14,10;,
 3;16,17,18;,
 3;16,18,19;,
 3;19,18,22;,
 3;19,22,23;,
 3;23,22,21;,
 3;23,21,20;,
 3;20,21,17;,
 3;20,17,16;,
 3;16,19,23;,
 3;16,23,20;,
 3;17,21,22;,
 3;17,22,18;,
 3;24,25,26;,
 3;24,26,27;,
 3;27,26,30;,
 3;27,30,31;,
 3;31,30,29;,
 3;31,29,28;,
 3;28,29,25;,
 3;28,25,24;,
 3;24,27,31;,
 3;24,31,28;,
 3;25,29,30;,
 3;25,30,26;,
 3;32,34,35;,
 3;32,35,33;,
 3;36,38,39;,
 3;36,39,37;,
 3;40,42,43;,
 3;40,43,41;,
 3;44,46,47;,
 3;44,47,45;,
 3;48,50,51;,
 3;48,51,49;,
 3;52,54,55;,
 3;52,55,53;,
 3;56,57,59;,
 3;56,59,58;,
 3;58,59,61;,
 3;58,61,60;,
 3;62,64,65;,
 3;62,65,63;,
 3;64,66,67;,
 3;64,67,65;;

 MeshMaterialList  {
  12;
  68;
  0,
  0,
  0,
  0,
  0,
  0,
  0,
  0,
  0,
  0,
  0,
  0,
  1,
  1,
  1,
  1,
  1,
  1,
  1,
  1,
  1,
  1,
  1,
  1,
  2,
  2,
  2,
  2,
  2,
  2,
  2,
  2,
  2,
  2,
  2,
  2,
  3,
  3,
  3,
  3,
  3,
  3,
  3,
  3,
  3,
  3,
  3,
  3,
  4,
  4,
  5,
  5,
  6,
  6,
  7,
  7,
  8,
  8,
  9,
  9,
  10,
  10,
  10,
  10,
  11,
  11,
  11,
  11;

  Material  {
   0.450980;0.333333;0.223529;1.000000;;
   0.000000;
   0.000000;0.000000;0.000000;;
   0.000000;0.000000;0.000000;;
  }

  Material  {
   0.450980;0.333333;0.223529;1.000000;;
   0.000000;
   0.000000;0.000000;0.000000;;
   0.000000;0.000000;0.000000;;
  }

  Material  {
   0.450980;0.333333;0.223529;1.000000;;
   0.000000;
   0.000000;0.000000;0.000000;;
   0.000000;0.000000;0.000000;;
  }

  Material  {
   0.450980;0.333333;0.223529;1.000000;;
   0.000000;
   0.000000;0.000000;0.000000;;
   0.000000;0.000000;0.000000;;
  }

  Material  {
   0.450980;0.333333;0.223529;1.000000;;
   0.000000;
   0.000000;0.000000;0.000000;;
   0.000000;0.000000;0.000000;;
  }

  Material  {
   0.450980;0.333333;0.223529;1.000000;;
   0.000000;
   0.000000;0.000000;0.000000;;
   0.000000;0.000000;0.000000;;
  }

  Material  {
   0.450980;0.333333;0.223529;1.000000;;
   0.000000;
   0.000000;0.000000;0.000000;;
   0.000000;0.000000;0.000000;;
  }

  Material  {
   0.450980;0.333333;0.223529;1.000000;;
   0.000000;
   0.000000;0.000000;0.000000;;
   0.000000;0.000000;0.000000;;
  }

  Material  {
   0.450980;0.333333;0.223529;1.000000;;
   0.000000;
   0.000000;0.000000;0.000000;;
   0.000000;0.000000;0.000000;;
  }

  Material  {
   0.450980;0.333333;0.223529;1.000000;;
   0.000000;
   0.000000;0.000000;0.000000;;
   0.000000;0.000000;0.000000;;
  }

  Material  {
   0.549020;0.568627;0.549020;1.000000;;
   0.000000;
   0.000000;0.000000;0.000000;;
   0.000000;0.000000;0.000000;;

   TextureFilename  {
    "Roof_CC06k.dds";
   }
  }

  Material  {
   0.549020;0.568627;0.549020;1.000000;;
   0.000000;
   0.000000;0.000000;0.000000;;
   0.000000;0.000000;0.000000;;

   TextureFilename  {
    "Roof_CC06kb.dds";
   }
  }
 }

 MeshTextureCoords  {
  68;
  0.000000;0.000000;,
  0.000000;0.000000;,
  0.000000;0.000000;,
  0.000000;0.000000;,
  0.000000;0.000000;,
  0.000000;0.000000;,
  0.000000;0.000000;,
  0.000000;0.000000;,
  0.000000;0.000000;,
  0.000000;0.000000;,
  0.000000;0.000000;,
  0.000000;0.000000;,
  0.000000;0.000000;,
  0.000000;0.000000;,
  0.000000;0.000000;,
  0.000000;0.000000;,
  0.000000;0.000000;,
  0.000000;0.000000;,
  0.000000;0.000000;,
  0.000000;0.000000;,
  0.000000;0.000000;,
  0.000000;0.000000;,
  0.000000;0.000000;,
  0.000000;0.000000;,
  0.000000;0.000000;,
  0.000000;0.000000;,
  0.000000;0.000000;,
  0.000000;0.000000;,
  0.000000;0.000000;,
  0.000000;0.000000;,
  0.000000;0.000000;,
  0.000000;0.000000;,
  0.000000;0.000000;,
  0.000000;0.000000;,
  0.000000;0.000000;,
  0.000000;0.000000;,
  0.000000;0.000000;,
  0.000000;0.000000;,
  0.000000;0.000000;,
  0.000000;0.000000;,
  0.000000;0.000000;,
  0.000000;0.000000;,
  0.000000;0.000000;,
  0.000000;0.000000;,
  0.000000;0.000000;,
  0.000000;0.000000;,
  0.000000;0.000000;,
  0.000000;0.000000;,
  0.000000;0.000000;,
  0.000000;0.000000;,
  0.000000;0.000000;,
  0.000000;0.000000;,
  0.000000;0.000000;,
  0.000000;0.000000;,
  0.000000;0.000000;,
  0.000000;0.000000;,
  0.000000;1.000000;,
  9.000000;1.000000;,
  0.000000;0.800000;,
  9.000000;0.800000;,
  0.000000;0.000000;,
  9.000000;0.000000;,
  0.000000;1.000000;,
  9.000000;1.000000;,
  0.000000;0.800000;,
  9.000000;0.800000;,
  0.000000;0.000000;,
  9.000000;0.000000;;
 }

 MeshNormals  {
  68;
  0.000000;0.000000;-1.000000;,
  0.000000;0.000000;-1.000000;,
  -1.000000;0.000000;0.000000;,
  -1.000000;0.000000;0.000000;,
  0.000000;0.000000;1.000000;,
  0.000000;0.000000;1.000000;,
  1.000000;0.000000;0.000000;,
  1.000000;0.000000;0.000000;,
  0.000000;1.000000;0.000000;,
  0.000000;1.000000;0.000000;,
  0.000000;-1.000000;0.000000;,
  0.000000;-1.000000;0.000000;,
  0.000000;0.000000;-1.000000;,
  0.000000;0.000000;-1.000000;,
  -1.000000;0.000000;0.000000;,
  -1.000000;0.000000;0.000000;,
  0.000000;0.000000;1.000000;,
  0.000000;0.000000;1.000000;,
  1.000000;0.000000;0.000000;,
  1.000000;0.000000;0.000000;,
  0.000000;1.000000;0.000000;,
  0.000000;1.000000;0.000000;,
  0.000000;-1.000000;0.000000;,
  0.000000;-1.000000;0.000000;,
  0.000000;0.000000;-1.000000;,
  0.000000;0.000000;-1.000000;,
  -1.000000;0.000000;0.000000;,
  -1.000000;0.000000;0.000000;,
  0.000000;0.000000;1.000000;,
  0.000000;0.000000;1.000000;,
  1.000000;0.000000;0.000000;,
  1.000000;0.000000;0.000000;,
  0.000000;1.000000;0.000000;,
  0.000000;1.000000;0.000000;,
  0.000000;-1.000000;0.000000;,
  0.000000;-1.000000;0.000000;,
  0.000000;0.000000;-1.000000;,
  0.000000;0.000000;-1.000000;,
  -1.000000;0.000000;0.000000;,
  -1.000000;0.000000;0.000000;,
  0.000000;0.000000;1.000000;,
  0.000000;0.000000;1.000000;,
  1.000000;0.000000;0.000000;,
  1.000000;0.000000;0.000000;,
  0.000000;1.000000;0.000000;,
  0.000000;1.000000;0.000000;,
  0.000000;-1.000000;0.000000;,
  0.000000;-1.000000;0.000000;,
  0.000000;0.000000;-1.000000;,
  0.000000;0.000000;-1.000000;,
  0.000000;0.000000;-1.000000;,
  0.000000;0.000000;-1.000000;,
  0.000000;0.000000;-1.000000;,
  0.000000;0.000000;-1.000000;,
  0.000000;0.000000;-1.000000;,
  0.000000;0.000000;-1.000000;,
  0.000000;0.000000;-1.000000;,
  0.000000;0.000000;-1.000000;,
  0.000000;0.000000;-1.000000;,
  0.000000;0.000000;-1.000000;,
  -1.000000;0.000000;0.000000;,
  -1.000000;0.000000;0.000000;,
  0.294086;0.955779;0.000000;,
  0.294086;0.955779;0.000000;,
  1.000000;0.000000;0.000000;,
  1.000000;0.000000;0.000000;,
  -0.257663;-0.966235;0.000000;,
  -0.257663;-0.966235;0.000000;;
  68;
  3;0,0,0;,
  3;1,1,1;,
  3;2,2,2;,
  3;3,3,3;,
  3;4,4,4;,
  3;5,5,5;,
  3;6,6,6;,
  3;7,7,7;,
  3;8,8,8;,
  3;9,9,9;,
  3;10,10,10;,
  3;11,11,11;,
  3;12,12,12;,
  3;13,13,13;,
  3;14,14,14;,
  3;15,15,15;,
  3;16,16,16;,
  3;17,17,17;,
  3;18,18,18;,
  3;19,19,19;,
  3;20,20,20;,
  3;21,21,21;,
  3;22,22,22;,
  3;23,23,23;,
  3;24,24,24;,
  3;25,25,25;,
  3;26,26,26;,
  3;27,27,27;,
  3;28,28,28;,
  3;29,29,29;,
  3;30,30,30;,
  3;31,31,31;,
  3;32,32,32;,
  3;33,33,33;,
  3;34,34,34;,
  3;35,35,35;,
  3;36,36,36;,
  3;37,37,37;,
  3;38,38,38;,
  3;39,39,39;,
  3;40,40,40;,
  3;41,41,41;,
  3;42,42,42;,
  3;43,43,43;,
  3;44,44,44;,
  3;45,45,45;,
  3;46,46,46;,
  3;47,47,47;,
  3;48,48,48;,
  3;49,49,49;,
  3;50,50,50;,
  3;51,51,51;,
  3;52,52,52;,
  3;53,53,53;,
  3;54,54,54;,
  3;55,55,55;,
  3;56,56,56;,
  3;57,57,57;,
  3;58,58,58;,
  3;59,59,59;,
  3;60,60,60;,
  3;61,61,61;,
  3;62,62,62;,
  3;63,63,63;,
  3;64,64,64;,
  3;65,65,65;,
  3;66,66,66;,
  3;67,67,67;;
 }
}