xof 0303txt 0032
template Vector {
 <3d82ab5e-62da-11cf-ab39-0020af71e433>
 FLOAT x;
 FLOAT y;
 FLOAT z;
}

template MeshFace {
 <3d82ab5f-62da-11cf-ab39-0020af71e433>
 DWORD nFaceVertexIndices;
 array DWORD faceVertexIndices[nFaceVertexIndices];
}

template Mesh {
 <3d82ab44-62da-11cf-ab39-0020af71e433>
 DWORD nVertices;
 array Vector vertices[nVertices];
 DWORD nFaces;
 array MeshFace faces[nFaces];
 [...]
}

template ColorRGBA {
 <35ff44e0-6c7c-11cf-8f52-0040333594a3>
 FLOAT red;
 FLOAT green;
 FLOAT blue;
 FLOAT alpha;
}

template ColorRGB {
 <d3e16e81-7835-11cf-8f52-0040333594a3>
 FLOAT red;
 FLOAT green;
 FLOAT blue;
}

template Material {
 <3d82ab4d-62da-11cf-ab39-0020af71e433>
 ColorRGBA faceColor;
 FLOAT power;
 ColorRGB specularColor;
 ColorRGB emissiveColor;
 [...]
}

template MeshMaterialList {
 <f6f23f42-7686-11cf-8f52-0040333594a3>
 DWORD nMaterials;
 DWORD nFaceIndexes;
 array DWORD faceIndexes[nFaceIndexes];
 [Material <3d82ab4d-62da-11cf-ab39-0020af71e433>]
}

template TextureFilename {
 <a42790e1-7810-11cf-8f52-0040333594a3>
 STRING filename;
}

template Coords2d {
 <f6f23f44-7686-11cf-8f52-0040333594a3>
 FLOAT u;
 FLOAT v;
}

template MeshTextureCoords {
 <f6f23f40-7686-11cf-8f52-0040333594a3>
 DWORD nTextureCoords;
 array Coords2d textureCoords[nTextureCoords];
}

template MeshNormals {
 <f6f23f43-7686-11cf-8f52-0040333594a3>
 DWORD nNormals;
 array Vector normals[nNormals];
 DWORD nFaceNormals;
 array MeshFace faceNormals[nFaceNormals];
}


Mesh  {
 32;
 -1.950000;2.600000;1.000000;,
 -1.950000;0.000000;1.000000;,
 0.000000;2.600000;1.000000;,
 0.000000;0.000000;1.000000;,
 1.950000;2.600000;1.000000;,
 1.950000;0.000000;1.000000;,
 -1.950000;2.600000;5.000000;,
 -1.950000;0.000000;5.000000;,
 0.000000;2.600000;5.000000;,
 0.000000;0.000000;5.000000;,
 1.950000;2.600000;5.000000;,
 1.950000;0.000000;5.000000;,
 0.000000;2.600000;0.000000;,
 -1.950000;2.100000;0.000000;,
 -1.950000;1.900000;0.000000;,
 -1.050000;2.200000;0.000000;,
 -1.050000;1.400000;0.000000;,
 0.000000;2.600000;6.000000;,
 -1.950000;2.100000;6.000000;,
 -1.950000;1.900000;6.000000;,
 -1.050000;2.200000;6.000000;,
 -1.050000;1.400000;6.000000;,
 0.000000;2.600000;0.000000;,
 1.950000;2.100000;0.000000;,
 1.950000;1.900000;0.000000;,
 1.050000;2.200000;0.000000;,
 1.050000;1.400000;0.000000;,
 0.000000;2.600000;6.000000;,
 1.950000;2.100000;6.000000;,
 1.950000;1.900000;6.000000;,
 1.050000;2.200000;6.000000;,
 1.050000;1.400000;6.000000;;
 40;
 3;0,1,3;,
 3;0,3,2;,
 3;2,3,1;,
 3;2,1,0;,
 3;2,3,5;,
 3;2,5,4;,
 3;4,5,3;,
 3;4,3,2;,
 3;6,7,9;,
 3;6,9,8;,
 3;8,9,7;,
 3;8,7,6;,
 3;8,9,11;,
 3;8,11,10;,
 3;10,11,9;,
 3;10,9,8;,
 3;12,13,18;,
 3;12,18,17;,
 3;17,18,13;,
 3;17,13,12;,
 3;13,14,19;,
 3;13,19,18;,
 3;18,19,14;,
 3;18,14,13;,
 3;15,16,21;,
 3;15,21,20;,
 3;20,21,16;,
 3;20,16,15;,
 3;22,23,28;,
 3;22,28,27;,
 3;27,28,23;,
 3;27,23,22;,
 3;23,24,29;,
 3;23,29,28;,
 3;28,29,24;,
 3;28,24,23;,
 3;25,26,31;,
 3;25,31,30;,
 3;30,31,26;,
 3;30,26,25;;

 MeshMaterialList  {
  2;
  40;
  0,
  0,
  0,
  0,
  0,
  0,
  0,
  0,
  0,
  0,
  0,
  0,
  0,
  0,
  0,
  0,
  1,
  1,
  1,
  1,
  1,
  1,
  1,
  1,
  1,
  1,
  1,
  1,
  1,
  1,
  1,
  1,
  1,
  1,
  1,
  1,
  1,
  1,
  1,
  1;

  Material  {
   1.000000;1.000000;1.000000;1.000000;;
   0.000000;
   0.000000;0.000000;0.000000;;
   0.000000;0.000000;0.000000;;

   TextureFilename  {
    "Sta_CC03_Roof21.dds";
   }
  }

  Material  {
   1.000000;1.000000;1.000000;1.000000;;
   0.000000;
   0.000000;0.000000;0.000000;;
   0.000000;0.000000;0.000000;;

   TextureFilename  {
    "Sta_CC03_Roof22.dds";
   }
  }
 }

 MeshTextureCoords  {
  32;
  1.000000;0.000000;,
  1.000000;1.000000;,
  0.000000;0.000000;,
  0.000000;1.000000;,
  1.000000;0.000000;,
  1.000000;1.000000;,
  1.000000;0.000000;,
  1.000000;1.000000;,
  0.000000;0.000000;,
  0.000000;1.000000;,
  1.000000;0.000000;,
  1.000000;1.000000;,
  1.000000;0.000000;,
  1.000000;0.280000;,
  1.000000;0.450000;,
  1.000000;0.450000;,
  1.000000;1.000000;,
  0.000000;0.000000;,
  0.000000;0.280000;,
  0.000000;0.450000;,
  0.000000;0.450000;,
  0.000000;1.000000;,
  1.000000;0.000000;,
  1.000000;0.280000;,
  1.000000;0.450000;,
  1.000000;0.450000;,
  1.000000;1.000000;,
  0.000000;0.000000;,
  0.000000;0.280000;,
  0.000000;0.450000;,
  0.000000;0.450000;,
  0.000000;1.000000;;
 }

 MeshNormals  {
  40;
  0.000000;0.000000;1.000000;,
  0.000000;0.000000;1.000000;,
  0.000000;0.000000;-1.000000;,
  0.000000;0.000000;-1.000000;,
  0.000000;0.000000;1.000000;,
  0.000000;0.000000;1.000000;,
  0.000000;0.000000;-1.000000;,
  0.000000;0.000000;-1.000000;,
  0.000000;0.000000;1.000000;,
  0.000000;0.000000;1.000000;,
  0.000000;0.000000;-1.000000;,
  0.000000;0.000000;-1.000000;,
  0.000000;0.000000;1.000000;,
  0.000000;0.000000;1.000000;,
  0.000000;0.000000;-1.000000;,
  0.000000;0.000000;-1.000000;,
  -0.248375;0.968664;0.000000;,
  -0.248375;0.968664;0.000000;,
  0.248375;-0.968664;0.000000;,
  0.248375;-0.968664;0.000000;,
  -1.000000;0.000000;0.000000;,
  -1.000000;0.000000;0.000000;,
  1.000000;0.000000;0.000000;,
  1.000000;0.000000;0.000000;,
  -1.000000;0.000000;0.000000;,
  -1.000000;0.000000;0.000000;,
  1.000000;0.000000;0.000000;,
  1.000000;0.000000;0.000000;,
  -0.248375;-0.968664;0.000000;,
  -0.248375;-0.968664;0.000000;,
  0.248375;0.968664;0.000000;,
  0.248375;0.968664;0.000000;,
  -1.000000;0.000000;0.000000;,
  -1.000000;0.000000;0.000000;,
  1.000000;0.000000;0.000000;,
  1.000000;0.000000;0.000000;,
  -1.000000;0.000000;0.000000;,
  -1.000000;0.000000;0.000000;,
  1.000000;0.000000;0.000000;,
  1.000000;0.000000;0.000000;;
  40;
  3;0,0,0;,
  3;1,1,1;,
  3;2,2,2;,
  3;3,3,3;,
  3;4,4,4;,
  3;5,5,5;,
  3;6,6,6;,
  3;7,7,7;,
  3;8,8,8;,
  3;9,9,9;,
  3;10,10,10;,
  3;11,11,11;,
  3;12,12,12;,
  3;13,13,13;,
  3;14,14,14;,
  3;15,15,15;,
  3;16,16,16;,
  3;17,17,17;,
  3;18,18,18;,
  3;19,19,19;,
  3;20,20,20;,
  3;21,21,21;,
  3;22,22,22;,
  3;23,23,23;,
  3;24,24,24;,
  3;25,25,25;,
  3;26,26,26;,
  3;27,27,27;,
  3;28,28,28;,
  3;29,29,29;,
  3;30,30,30;,
  3;31,31,31;,
  3;32,32,32;,
  3;33,33,33;,
  3;34,34,34;,
  3;35,35,35;,
  3;36,36,36;,
  3;37,37,37;,
  3;38,38,38;,
  3;39,39,39;;
 }
}