xof 0303txt 0032
template Vector {
 <3d82ab5e-62da-11cf-ab39-0020af71e433>
 FLOAT x;
 FLOAT y;
 FLOAT z;
}

template MeshFace {
 <3d82ab5f-62da-11cf-ab39-0020af71e433>
 DWORD nFaceVertexIndices;
 array DWORD faceVertexIndices[nFaceVertexIndices];
}

template Mesh {
 <3d82ab44-62da-11cf-ab39-0020af71e433>
 DWORD nVertices;
 array Vector vertices[nVertices];
 DWORD nFaces;
 array MeshFace faces[nFaces];
 [...]
}

template ColorRGBA {
 <35ff44e0-6c7c-11cf-8f52-0040333594a3>
 FLOAT red;
 FLOAT green;
 FLOAT blue;
 FLOAT alpha;
}

template ColorRGB {
 <d3e16e81-7835-11cf-8f52-0040333594a3>
 FLOAT red;
 FLOAT green;
 FLOAT blue;
}

template Material {
 <3d82ab4d-62da-11cf-ab39-0020af71e433>
 ColorRGBA faceColor;
 FLOAT power;
 ColorRGB specularColor;
 ColorRGB emissiveColor;
 [...]
}

template MeshMaterialList {
 <f6f23f42-7686-11cf-8f52-0040333594a3>
 DWORD nMaterials;
 DWORD nFaceIndexes;
 array DWORD faceIndexes[nFaceIndexes];
 [Material <3d82ab4d-62da-11cf-ab39-0020af71e433>]
}

template TextureFilename {
 <a42790e1-7810-11cf-8f52-0040333594a3>
 STRING filename;
}

template Coords2d {
 <f6f23f44-7686-11cf-8f52-0040333594a3>
 FLOAT u;
 FLOAT v;
}

template MeshTextureCoords {
 <f6f23f40-7686-11cf-8f52-0040333594a3>
 DWORD nTextureCoords;
 array Coords2d textureCoords[nTextureCoords];
}

template MeshNormals {
 <f6f23f43-7686-11cf-8f52-0040333594a3>
 DWORD nNormals;
 array Vector normals[nNormals];
 DWORD nFaceNormals;
 array MeshFace faceNormals[nFaceNormals];
}


Mesh  {
 190;
 -4.000000;7.500000;0.000000;,
 -4.000000;6.000000;0.000000;,
 1.000000;7.500000;0.000000;,
 1.000000;6.000000;0.000000;,
 6.000000;7.500000;0.000000;,
 6.000000;6.000000;0.000000;,
 5.200000;2.450000;6.300000;,
 5.200000;0.950000;6.300000;,
 5.200000;5.000000;3.800000;,
 5.200000;3.500000;3.800000;,
 5.200000;5.000000;3.300000;,
 5.200000;3.500000;3.300000;,
 5.200000;7.500000;0.800000;,
 5.200000;6.000000;0.800000;,
 6.000000;2.450000;6.300000;,
 6.000000;0.950000;6.300000;,
 6.000000;5.000000;3.800000;,
 6.000000;3.500000;3.800000;,
 6.000000;5.000000;3.300000;,
 6.000000;3.500000;3.300000;,
 6.000000;7.500000;0.800000;,
 6.000000;6.000000;0.800000;,
 6.000000;7.500000;0.000000;,
 6.000000;6.000000;0.000000;,
 -3.200000;1.400000;7.400000;,
 -3.200000;-0.100000;7.400000;,
 -3.200000;5.000000;3.800000;,
 -3.200000;3.500000;3.800000;,
 -3.200000;5.000000;3.300000;,
 -3.200000;3.500000;3.300000;,
 -3.200000;7.500000;0.800000;,
 -3.200000;6.000000;0.800000;,
 -4.000000;1.400000;7.400000;,
 -4.000000;-0.100000;7.400000;,
 -4.000000;5.000000;3.800000;,
 -4.000000;3.500000;3.800000;,
 -4.000000;5.000000;3.300000;,
 -4.000000;3.500000;3.300000;,
 -4.000000;7.500000;0.800000;,
 -4.000000;6.000000;0.800000;,
 -4.000000;7.500000;0.000000;,
 -4.000000;6.000000;0.000000;,
 5.200000;0.950000;6.300000;,
 6.000000;0.950000;6.300000;,
 5.200000;3.500000;3.800000;,
 6.000000;3.500000;3.800000;,
 5.200000;3.500000;3.300000;,
 6.000000;3.500000;3.300000;,
 5.200000;6.000000;0.800000;,
 6.000000;6.000000;0.800000;,
 -3.200000;-0.100000;7.400000;,
 -4.000000;-0.100000;7.400000;,
 -3.200000;3.500000;3.800000;,
 -4.000000;3.500000;3.800000;,
 -3.200000;3.500000;3.300000;,
 -4.000000;3.500000;3.300000;,
 -3.200000;6.000000;0.800000;,
 -4.000000;6.000000;0.800000;,
 -4.000000;6.000000;0.000000;,
 6.000000;6.000000;0.000000;,
 -4.000000;6.000000;0.800000;,
 6.000000;6.000000;0.800000;,
 -3.350000;6.250000;0.400000;,
 -3.350000;-0.250000;0.400000;,
 -3.369030;6.250000;0.495671;,
 -3.369030;-0.250000;0.495671;,
 -3.423223;6.250000;0.576777;,
 -3.423223;-0.250000;0.576777;,
 -3.504329;6.250000;0.630970;,
 -3.504329;-0.250000;0.630970;,
 -3.600000;6.250000;0.650000;,
 -3.600000;-0.250000;0.650000;,
 -3.695671;6.250000;0.630970;,
 -3.695671;-0.250000;0.630970;,
 -3.776776;6.250000;0.576777;,
 -3.776776;-0.250000;0.576777;,
 -3.830970;6.250000;0.495671;,
 -3.830970;-0.250000;0.495671;,
 -3.850000;6.250000;0.400000;,
 -3.850000;-0.250000;0.400000;,
 -3.830970;6.250000;0.304329;,
 -3.830970;-0.250000;0.304329;,
 -3.776776;6.250000;0.223223;,
 -3.776776;-0.250000;0.223223;,
 -3.695671;6.250000;0.169030;,
 -3.695671;-0.250000;0.169030;,
 -3.600000;6.250000;0.150000;,
 -3.600000;-0.250000;0.150000;,
 -3.504329;6.250000;0.169030;,
 -3.504329;-0.250000;0.169030;,
 -3.423223;6.250000;0.223223;,
 -3.423223;-0.250000;0.223223;,
 -3.369030;6.250000;0.304329;,
 -3.369030;-0.250000;0.304329;,
 5.849999;6.250000;0.400000;,
 5.849999;-0.250000;0.400000;,
 5.830969;6.250000;0.495671;,
 5.830969;-0.250000;0.495671;,
 5.776776;6.250000;0.576777;,
 5.776776;-0.250000;0.576777;,
 5.695670;6.250000;0.630970;,
 5.695670;-0.250000;0.630970;,
 5.599999;6.250000;0.650000;,
 5.599999;-0.250000;0.650000;,
 5.504329;6.250000;0.630970;,
 5.504329;-0.250000;0.630970;,
 5.423223;6.250000;0.576777;,
 5.423223;-0.250000;0.576777;,
 5.369030;6.250000;0.495671;,
 5.369030;-0.250000;0.495671;,
 5.349999;6.250000;0.400000;,
 5.349999;-0.250000;0.400000;,
 5.369030;6.250000;0.304329;,
 5.369030;-0.250000;0.304329;,
 5.423223;6.250000;0.223223;,
 5.423223;-0.250000;0.223223;,
 5.504329;6.250000;0.169030;,
 5.504329;-0.250000;0.169030;,
 5.599999;6.250000;0.150000;,
 5.599999;-0.250000;0.150000;,
 5.695670;6.250000;0.169030;,
 5.695670;-0.250000;0.169030;,
 5.776776;6.250000;0.223223;,
 5.776776;-0.250000;0.223223;,
 5.830969;6.250000;0.304329;,
 5.830969;-0.250000;0.304329;,
 -3.400000;4.000000;3.550000;,
 -3.400000;0.000000;3.550000;,
 -3.415224;4.000000;3.626536;,
 -3.415224;0.000000;3.626536;,
 -3.458578;4.000000;3.691421;,
 -3.458578;0.000000;3.691421;,
 -3.523463;4.000000;3.734776;,
 -3.523463;0.000000;3.734776;,
 -3.600000;4.000000;3.750000;,
 -3.600000;0.000000;3.750000;,
 -3.676536;4.000000;3.734776;,
 -3.676536;0.000000;3.734776;,
 -3.741421;4.000000;3.691421;,
 -3.741421;0.000000;3.691421;,
 -3.784775;4.000000;3.626536;,
 -3.784775;0.000000;3.626536;,
 -3.800000;4.000000;3.550000;,
 -3.800000;0.000000;3.550000;,
 -3.784775;4.000000;3.473463;,
 -3.784775;0.000000;3.473463;,
 -3.741421;4.000000;3.408578;,
 -3.741421;0.000000;3.408578;,
 -3.676536;4.000000;3.365224;,
 -3.676536;0.000000;3.365224;,
 -3.600000;4.000000;3.350000;,
 -3.600000;0.000000;3.350000;,
 -3.523463;4.000000;3.365224;,
 -3.523463;0.000000;3.365224;,
 -3.458578;4.000000;3.408578;,
 -3.458578;0.000000;3.408578;,
 -3.415224;4.000000;3.473463;,
 -3.415224;0.000000;3.473463;,
 5.799999;4.000000;3.550000;,
 5.799999;0.000000;3.550000;,
 5.784775;4.000000;3.626536;,
 5.784775;0.000000;3.626536;,
 5.741421;4.000000;3.691421;,
 5.741421;0.000000;3.691421;,
 5.676536;4.000000;3.734776;,
 5.676536;0.000000;3.734776;,
 5.599999;4.000000;3.750000;,
 5.599999;0.000000;3.750000;,
 5.523463;4.000000;3.734776;,
 5.523463;0.000000;3.734776;,
 5.458578;4.000000;3.691421;,
 5.458578;0.000000;3.691421;,
 5.415224;4.000000;3.626536;,
 5.415224;0.000000;3.626536;,
 5.400000;4.000000;3.550000;,
 5.400000;0.000000;3.550000;,
 5.415224;4.000000;3.473463;,
 5.415224;0.000000;3.473463;,
 5.458578;4.000000;3.408578;,
 5.458578;0.000000;3.408578;,
 5.523463;4.000000;3.365224;,
 5.523463;0.000000;3.365224;,
 5.599999;4.000000;3.350000;,
 5.599999;0.000000;3.350000;,
 5.676536;4.000000;3.365224;,
 5.676536;0.000000;3.365224;,
 5.741421;4.000000;3.408578;,
 5.741421;0.000000;3.408578;,
 5.784775;4.000000;3.473463;,
 5.784775;0.000000;3.473463;;
 332;
 3;0,1,3;,
 3;0,3,2;,
 3;2,3,1;,
 3;2,1,0;,
 3;2,3,5;,
 3;2,5,4;,
 3;4,5,3;,
 3;4,3,2;,
 3;6,7,9;,
 3;6,9,8;,
 3;8,9,7;,
 3;8,7,6;,
 3;8,9,11;,
 3;8,11,10;,
 3;10,11,9;,
 3;10,9,8;,
 3;10,11,13;,
 3;10,13,12;,
 3;12,13,11;,
 3;12,11,10;,
 3;14,15,17;,
 3;14,17,16;,
 3;16,17,15;,
 3;16,15,14;,
 3;16,17,19;,
 3;16,19,18;,
 3;18,19,17;,
 3;18,17,16;,
 3;18,19,21;,
 3;18,21,20;,
 3;20,21,19;,
 3;20,19,18;,
 3;20,21,23;,
 3;20,23,22;,
 3;22,23,21;,
 3;22,21,20;,
 3;24,25,27;,
 3;24,27,26;,
 3;26,27,25;,
 3;26,25,24;,
 3;26,27,29;,
 3;26,29,28;,
 3;28,29,27;,
 3;28,27,26;,
 3;28,29,31;,
 3;28,31,30;,
 3;30,31,29;,
 3;30,29,28;,
 3;32,33,35;,
 3;32,35,34;,
 3;34,35,33;,
 3;34,33,32;,
 3;34,35,37;,
 3;34,37,36;,
 3;36,37,35;,
 3;36,35,34;,
 3;36,37,39;,
 3;36,39,38;,
 3;38,39,37;,
 3;38,37,36;,
 3;38,39,41;,
 3;38,41,40;,
 3;40,41,39;,
 3;40,39,38;,
 3;42,43,45;,
 3;42,45,44;,
 3;44,45,43;,
 3;44,43,42;,
 3;44,45,47;,
 3;44,47,46;,
 3;46,47,45;,
 3;46,45,44;,
 3;46,47,49;,
 3;46,49,48;,
 3;48,49,47;,
 3;48,47,46;,
 3;50,51,53;,
 3;50,53,52;,
 3;52,53,51;,
 3;52,51,50;,
 3;52,53,55;,
 3;52,55,54;,
 3;54,55,53;,
 3;54,53,52;,
 3;54,55,57;,
 3;54,57,56;,
 3;56,57,55;,
 3;56,55,54;,
 3;58,59,61;,
 3;58,61,60;,
 3;60,61,59;,
 3;60,59,58;,
 3;63,62,64;,
 3;63,64,65;,
 3;65,64,66;,
 3;65,66,67;,
 3;67,66,68;,
 3;67,68,69;,
 3;69,68,70;,
 3;69,70,71;,
 3;71,70,72;,
 3;71,72,73;,
 3;73,72,74;,
 3;73,74,75;,
 3;75,74,76;,
 3;75,76,77;,
 3;77,76,78;,
 3;77,78,79;,
 3;79,78,80;,
 3;79,80,81;,
 3;81,80,82;,
 3;81,82,83;,
 3;83,82,84;,
 3;83,84,85;,
 3;85,84,86;,
 3;85,86,87;,
 3;87,86,88;,
 3;87,88,89;,
 3;89,88,90;,
 3;89,90,91;,
 3;91,90,92;,
 3;91,92,93;,
 3;93,92,62;,
 3;93,62,63;,
 3;92,90,88;,
 3;92,88,86;,
 3;92,86,84;,
 3;92,84,82;,
 3;92,82,80;,
 3;92,80,78;,
 3;92,78,76;,
 3;92,76,74;,
 3;92,74,72;,
 3;92,72,70;,
 3;92,70,68;,
 3;92,68,66;,
 3;92,66,64;,
 3;92,64,62;,
 3;63,65,67;,
 3;63,67,69;,
 3;63,69,71;,
 3;63,71,73;,
 3;63,73,75;,
 3;63,75,77;,
 3;63,77,79;,
 3;63,79,81;,
 3;63,81,83;,
 3;63,83,85;,
 3;63,85,87;,
 3;63,87,89;,
 3;63,89,91;,
 3;63,91,93;,
 3;95,94,96;,
 3;95,96,97;,
 3;97,96,98;,
 3;97,98,99;,
 3;99,98,100;,
 3;99,100,101;,
 3;101,100,102;,
 3;101,102,103;,
 3;103,102,104;,
 3;103,104,105;,
 3;105,104,106;,
 3;105,106,107;,
 3;107,106,108;,
 3;107,108,109;,
 3;109,108,110;,
 3;109,110,111;,
 3;111,110,112;,
 3;111,112,113;,
 3;113,112,114;,
 3;113,114,115;,
 3;115,114,116;,
 3;115,116,117;,
 3;117,116,118;,
 3;117,118,119;,
 3;119,118,120;,
 3;119,120,121;,
 3;121,120,122;,
 3;121,122,123;,
 3;123,122,124;,
 3;123,124,125;,
 3;125,124,94;,
 3;125,94,95;,
 3;124,122,120;,
 3;124,120,118;,
 3;124,118,116;,
 3;124,116,114;,
 3;124,114,112;,
 3;124,112,110;,
 3;124,110,108;,
 3;124,108,106;,
 3;124,106,104;,
 3;124,104,102;,
 3;124,102,100;,
 3;124,100,98;,
 3;124,98,96;,
 3;124,96,94;,
 3;95,97,99;,
 3;95,99,101;,
 3;95,101,103;,
 3;95,103,105;,
 3;95,105,107;,
 3;95,107,109;,
 3;95,109,111;,
 3;95,111,113;,
 3;95,113,115;,
 3;95,115,117;,
 3;95,117,119;,
 3;95,119,121;,
 3;95,121,123;,
 3;95,123,125;,
 3;127,126,128;,
 3;127,128,129;,
 3;129,128,130;,
 3;129,130,131;,
 3;131,130,132;,
 3;131,132,133;,
 3;133,132,134;,
 3;133,134,135;,
 3;135,134,136;,
 3;135,136,137;,
 3;137,136,138;,
 3;137,138,139;,
 3;139,138,140;,
 3;139,140,141;,
 3;141,140,142;,
 3;141,142,143;,
 3;143,142,144;,
 3;143,144,145;,
 3;145,144,146;,
 3;145,146,147;,
 3;147,146,148;,
 3;147,148,149;,
 3;149,148,150;,
 3;149,150,151;,
 3;151,150,152;,
 3;151,152,153;,
 3;153,152,154;,
 3;153,154,155;,
 3;155,154,156;,
 3;155,156,157;,
 3;157,156,126;,
 3;157,126,127;,
 3;156,154,152;,
 3;156,152,150;,
 3;156,150,148;,
 3;156,148,146;,
 3;156,146,144;,
 3;156,144,142;,
 3;156,142,140;,
 3;156,140,138;,
 3;156,138,136;,
 3;156,136,134;,
 3;156,134,132;,
 3;156,132,130;,
 3;156,130,128;,
 3;156,128,126;,
 3;127,129,131;,
 3;127,131,133;,
 3;127,133,135;,
 3;127,135,137;,
 3;127,137,139;,
 3;127,139,141;,
 3;127,141,143;,
 3;127,143,145;,
 3;127,145,147;,
 3;127,147,149;,
 3;127,149,151;,
 3;127,151,153;,
 3;127,153,155;,
 3;127,155,157;,
 3;159,158,160;,
 3;159,160,161;,
 3;161,160,162;,
 3;161,162,163;,
 3;163,162,164;,
 3;163,164,165;,
 3;165,164,166;,
 3;165,166,167;,
 3;167,166,168;,
 3;167,168,169;,
 3;169,168,170;,
 3;169,170,171;,
 3;171,170,172;,
 3;171,172,173;,
 3;173,172,174;,
 3;173,174,175;,
 3;175,174,176;,
 3;175,176,177;,
 3;177,176,178;,
 3;177,178,179;,
 3;179,178,180;,
 3;179,180,181;,
 3;181,180,182;,
 3;181,182,183;,
 3;183,182,184;,
 3;183,184,185;,
 3;185,184,186;,
 3;185,186,187;,
 3;187,186,188;,
 3;187,188,189;,
 3;189,188,158;,
 3;189,158,159;,
 3;188,186,184;,
 3;188,184,182;,
 3;188,182,180;,
 3;188,180,178;,
 3;188,178,176;,
 3;188,176,174;,
 3;188,174,172;,
 3;188,172,170;,
 3;188,170,168;,
 3;188,168,166;,
 3;188,166,164;,
 3;188,164,162;,
 3;188,162,160;,
 3;188,160,158;,
 3;159,161,163;,
 3;159,163,165;,
 3;159,165,167;,
 3;159,167,169;,
 3;159,169,171;,
 3;159,171,173;,
 3;159,173,175;,
 3;159,175,177;,
 3;159,177,179;,
 3;159,179,181;,
 3;159,181,183;,
 3;159,183,185;,
 3;159,185,187;,
 3;159,187,189;;

 MeshMaterialList  {
  8;
  332;
  0,
  0,
  0,
  0,
  0,
  0,
  0,
  0,
  1,
  1,
  1,
  1,
  1,
  1,
  1,
  1,
  1,
  1,
  1,
  1,
  1,
  1,
  1,
  1,
  1,
  1,
  1,
  1,
  1,
  1,
  1,
  1,
  1,
  1,
  1,
  1,
  1,
  1,
  1,
  1,
  1,
  1,
  1,
  1,
  1,
  1,
  1,
  1,
  1,
  1,
  1,
  1,
  1,
  1,
  1,
  1,
  1,
  1,
  1,
  1,
  1,
  1,
  1,
  1,
  2,
  2,
  2,
  2,
  2,
  2,
  2,
  2,
  2,
  2,
  2,
  2,
  2,
  2,
  2,
  2,
  2,
  2,
  2,
  2,
  2,
  2,
  2,
  2,
  3,
  3,
  3,
  3,
  4,
  4,
  4,
  4,
  4,
  4,
  4,
  4,
  4,
  4,
  4,
  4,
  4,
  4,
  4,
  4,
  4,
  4,
  4,
  4,
  4,
  4,
  4,
  4,
  4,
  4,
  4,
  4,
  4,
  4,
  4,
  4,
  4,
  4,
  4,
  4,
  4,
  4,
  4,
  4,
  4,
  4,
  4,
  4,
  4,
  4,
  4,
  4,
  4,
  4,
  4,
  4,
  4,
  4,
  4,
  4,
  4,
  4,
  4,
  4,
  5,
  5,
  5,
  5,
  5,
  5,
  5,
  5,
  5,
  5,
  5,
  5,
  5,
  5,
  5,
  5,
  5,
  5,
  5,
  5,
  5,
  5,
  5,
  5,
  5,
  5,
  5,
  5,
  5,
  5,
  5,
  5,
  5,
  5,
  5,
  5,
  5,
  5,
  5,
  5,
  5,
  5,
  5,
  5,
  5,
  5,
  5,
  5,
  5,
  5,
  5,
  5,
  5,
  5,
  5,
  5,
  5,
  5,
  5,
  5,
  6,
  6,
  6,
  6,
  6,
  6,
  6,
  6,
  6,
  6,
  6,
  6,
  6,
  6,
  6,
  6,
  6,
  6,
  6,
  6,
  6,
  6,
  6,
  6,
  6,
  6,
  6,
  6,
  6,
  6,
  6,
  6,
  6,
  6,
  6,
  6,
  6,
  6,
  6,
  6,
  6,
  6,
  6,
  6,
  6,
  6,
  6,
  6,
  6,
  6,
  6,
  6,
  6,
  6,
  6,
  6,
  6,
  6,
  6,
  6,
  7,
  7,
  7,
  7,
  7,
  7,
  7,
  7,
  7,
  7,
  7,
  7,
  7,
  7,
  7,
  7,
  7,
  7,
  7,
  7,
  7,
  7,
  7,
  7,
  7,
  7,
  7,
  7,
  7,
  7,
  7,
  7,
  7,
  7,
  7,
  7,
  7,
  7,
  7,
  7,
  7,
  7,
  7,
  7,
  7,
  7,
  7,
  7,
  7,
  7,
  7,
  7,
  7,
  7,
  7,
  7,
  7,
  7,
  7,
  7;

  Material  {
   1.000000;1.000000;1.000000;1.000000;;
   0.000000;
   0.000000;0.000000;0.000000;;
   0.000000;0.000000;0.000000;;

   TextureFilename  {
    "Sta_CC03_Hodokyo1.dds";
   }
  }

  Material  {
   1.000000;1.000000;1.000000;1.000000;;
   0.000000;
   0.000000;0.000000;0.000000;;
   0.000000;0.000000;0.000000;;

   TextureFilename  {
    "Sta_CC03_Hodokyo2.dds";
   }
  }

  Material  {
   1.000000;1.000000;1.000000;1.000000;;
   0.000000;
   0.000000;0.000000;0.000000;;
   0.000000;0.000000;0.000000;;

   TextureFilename  {
    "Sta_CC03_Hodokyo3.dds";
   }
  }

  Material  {
   0.360784;0.360784;0.360784;1.000000;;
   0.000000;
   0.000000;0.000000;0.000000;;
   0.000000;0.000000;0.000000;;
  }

  Material  {
   0.862745;0.862745;0.862745;1.000000;;
   0.000000;
   0.000000;0.000000;0.000000;;
   0.000000;0.000000;0.000000;;
  }

  Material  {
   0.862745;0.862745;0.862745;1.000000;;
   0.000000;
   0.000000;0.000000;0.000000;;
   0.000000;0.000000;0.000000;;
  }

  Material  {
   0.862745;0.862745;0.862745;1.000000;;
   0.000000;
   0.000000;0.000000;0.000000;;
   0.000000;0.000000;0.000000;;
  }

  Material  {
   0.862745;0.862745;0.862745;1.000000;;
   0.000000;
   0.000000;0.000000;0.000000;;
   0.000000;0.000000;0.000000;;
  }
 }

 MeshTextureCoords  {
  190;
  1.000000;0.000000;,
  1.000000;1.000000;,
  0.000000;0.000000;,
  0.000000;1.000000;,
  1.000000;0.000000;,
  1.000000;1.000000;,
  0.000000;0.000000;,
  0.000000;1.000000;,
  5.000000;0.000000;,
  5.000000;1.000000;,
  6.000000;0.000000;,
  6.000000;1.000000;,
  11.000000;0.000000;,
  11.000000;1.000000;,
  0.000000;0.000000;,
  0.000000;1.000000;,
  5.000000;0.000000;,
  5.000000;1.000000;,
  6.000000;0.000000;,
  6.000000;1.000000;,
  11.000000;0.000000;,
  11.000000;1.000000;,
  12.000000;0.000000;,
  12.000000;1.000000;,
  0.000000;0.000000;,
  0.000000;1.000000;,
  5.000000;0.000000;,
  5.000000;1.000000;,
  6.000000;0.000000;,
  6.000000;1.000000;,
  11.000000;0.000000;,
  11.000000;1.000000;,
  0.000000;0.000000;,
  0.000000;1.000000;,
  5.000000;0.000000;,
  5.000000;1.000000;,
  6.000000;0.000000;,
  6.000000;1.000000;,
  11.000000;0.000000;,
  11.000000;1.000000;,
  12.000000;0.000000;,
  12.000000;1.000000;,
  0.000000;0.000000;,
  1.000000;0.000000;,
  0.000000;5.000000;,
  1.000000;5.000000;,
  0.000000;6.000000;,
  1.000000;6.000000;,
  0.000000;11.000000;,
  1.000000;11.000000;,
  0.000000;0.000000;,
  1.000000;0.000000;,
  0.000000;5.000000;,
  1.000000;5.000000;,
  0.000000;6.000000;,
  1.000000;6.000000;,
  0.000000;11.000000;,
  1.000000;11.000000;,
  0.000000;0.000000;,
  0.000000;0.000000;,
  0.000000;0.000000;,
  0.000000;0.000000;,
  0.000000;0.000000;,
  0.000000;0.000000;,
  0.000000;0.000000;,
  0.000000;0.000000;,
  0.000000;0.000000;,
  0.000000;0.000000;,
  0.000000;0.000000;,
  0.000000;0.000000;,
  0.000000;0.000000;,
  0.000000;0.000000;,
  0.000000;0.000000;,
  0.000000;0.000000;,
  0.000000;0.000000;,
  0.000000;0.000000;,
  0.000000;0.000000;,
  0.000000;0.000000;,
  0.000000;0.000000;,
  0.000000;0.000000;,
  0.000000;0.000000;,
  0.000000;0.000000;,
  0.000000;0.000000;,
  0.000000;0.000000;,
  0.000000;0.000000;,
  0.000000;0.000000;,
  0.000000;0.000000;,
  0.000000;0.000000;,
  0.000000;0.000000;,
  0.000000;0.000000;,
  0.000000;0.000000;,
  0.000000;0.000000;,
  0.000000;0.000000;,
  0.000000;0.000000;,
  0.000000;0.000000;,
  0.000000;0.000000;,
  0.000000;0.000000;,
  0.000000;0.000000;,
  0.000000;0.000000;,
  0.000000;0.000000;,
  0.000000;0.000000;,
  0.000000;0.000000;,
  0.000000;0.000000;,
  0.000000;0.000000;,
  0.000000;0.000000;,
  0.000000;0.000000;,
  0.000000;0.000000;,
  0.000000;0.000000;,
  0.000000;0.000000;,
  0.000000;0.000000;,
  0.000000;0.000000;,
  0.000000;0.000000;,
  0.000000;0.000000;,
  0.000000;0.000000;,
  0.000000;0.000000;,
  0.000000;0.000000;,
  0.000000;0.000000;,
  0.000000;0.000000;,
  0.000000;0.000000;,
  0.000000;0.000000;,
  0.000000;0.000000;,
  0.000000;0.000000;,
  0.000000;0.000000;,
  0.000000;0.000000;,
  0.000000;0.000000;,
  0.000000;0.000000;,
  0.000000;0.000000;,
  0.000000;0.000000;,
  0.000000;0.000000;,
  0.000000;0.000000;,
  0.000000;0.000000;,
  0.000000;0.000000;,
  0.000000;0.000000;,
  0.000000;0.000000;,
  0.000000;0.000000;,
  0.000000;0.000000;,
  0.000000;0.000000;,
  0.000000;0.000000;,
  0.000000;0.000000;,
  0.000000;0.000000;,
  0.000000;0.000000;,
  0.000000;0.000000;,
  0.000000;0.000000;,
  0.000000;0.000000;,
  0.000000;0.000000;,
  0.000000;0.000000;,
  0.000000;0.000000;,
  0.000000;0.000000;,
  0.000000;0.000000;,
  0.000000;0.000000;,
  0.000000;0.000000;,
  0.000000;0.000000;,
  0.000000;0.000000;,
  0.000000;0.000000;,
  0.000000;0.000000;,
  0.000000;0.000000;,
  0.000000;0.000000;,
  0.000000;0.000000;,
  0.000000;0.000000;,
  0.000000;0.000000;,
  0.000000;0.000000;,
  0.000000;0.000000;,
  0.000000;0.000000;,
  0.000000;0.000000;,
  0.000000;0.000000;,
  0.000000;0.000000;,
  0.000000;0.000000;,
  0.000000;0.000000;,
  0.000000;0.000000;,
  0.000000;0.000000;,
  0.000000;0.000000;,
  0.000000;0.000000;,
  0.000000;0.000000;,
  0.000000;0.000000;,
  0.000000;0.000000;,
  0.000000;0.000000;,
  0.000000;0.000000;,
  0.000000;0.000000;,
  0.000000;0.000000;,
  0.000000;0.000000;,
  0.000000;0.000000;,
  0.000000;0.000000;,
  0.000000;0.000000;,
  0.000000;0.000000;,
  0.000000;0.000000;,
  0.000000;0.000000;,
  0.000000;0.000000;,
  0.000000;0.000000;,
  0.000000;0.000000;,
  0.000000;0.000000;;
 }

 MeshNormals  {
  220;
  0.000000;0.000000;1.000000;,
  0.000000;0.000000;1.000000;,
  0.000000;0.000000;-1.000000;,
  0.000000;0.000000;-1.000000;,
  0.000000;0.000000;1.000000;,
  0.000000;0.000000;1.000000;,
  0.000000;0.000000;-1.000000;,
  0.000000;0.000000;-1.000000;,
  1.000000;0.000000;0.000000;,
  1.000000;0.000000;0.000000;,
  -1.000000;0.000000;0.000000;,
  -1.000000;0.000000;0.000000;,
  1.000000;0.000000;0.000000;,
  1.000000;0.000000;0.000000;,
  -1.000000;0.000000;0.000000;,
  -1.000000;0.000000;0.000000;,
  1.000000;0.000000;0.000000;,
  1.000000;0.000000;0.000000;,
  -1.000000;0.000000;0.000000;,
  -1.000000;0.000000;0.000000;,
  1.000000;0.000000;0.000000;,
  1.000000;0.000000;0.000000;,
  -1.000000;0.000000;0.000000;,
  -1.000000;0.000000;0.000000;,
  1.000000;0.000000;0.000000;,
  1.000000;0.000000;0.000000;,
  -1.000000;0.000000;0.000000;,
  -1.000000;0.000000;0.000000;,
  1.000000;0.000000;0.000000;,
  1.000000;0.000000;0.000000;,
  -1.000000;0.000000;0.000000;,
  -1.000000;0.000000;0.000000;,
  1.000000;0.000000;0.000000;,
  1.000000;0.000000;0.000000;,
  -1.000000;0.000000;0.000000;,
  -1.000000;0.000000;0.000000;,
  1.000000;0.000000;0.000000;,
  1.000000;0.000000;0.000000;,
  -1.000000;0.000000;0.000000;,
  -1.000000;0.000000;0.000000;,
  1.000000;0.000000;0.000000;,
  1.000000;0.000000;0.000000;,
  -1.000000;0.000000;0.000000;,
  -1.000000;0.000000;0.000000;,
  1.000000;0.000000;0.000000;,
  1.000000;0.000000;0.000000;,
  -1.000000;0.000000;0.000000;,
  -1.000000;0.000000;0.000000;,
  1.000000;0.000000;0.000000;,
  1.000000;0.000000;0.000000;,
  -1.000000;0.000000;0.000000;,
  -1.000000;0.000000;0.000000;,
  1.000000;0.000000;0.000000;,
  1.000000;0.000000;0.000000;,
  -1.000000;0.000000;0.000000;,
  -1.000000;0.000000;0.000000;,
  1.000000;0.000000;0.000000;,
  1.000000;0.000000;0.000000;,
  -1.000000;0.000000;0.000000;,
  -1.000000;0.000000;0.000000;,
  1.000000;0.000000;0.000000;,
  1.000000;0.000000;0.000000;,
  -1.000000;0.000000;0.000000;,
  -1.000000;0.000000;0.000000;,
  0.000000;0.700071;0.714073;,
  0.000000;0.700071;0.714073;,
  0.000000;-0.700071;-0.714073;,
  0.000000;-0.700071;-0.714073;,
  0.000000;1.000000;0.000000;,
  0.000000;1.000000;0.000000;,
  0.000000;-1.000000;0.000000;,
  0.000000;-1.000000;0.000000;,
  0.000000;0.707107;0.707107;,
  0.000000;0.707107;0.707107;,
  0.000000;-0.707107;-0.707107;,
  0.000000;-0.707107;-0.707107;,
  0.000000;-0.707107;-0.707107;,
  0.000000;-0.707107;-0.707107;,
  0.000000;0.707107;0.707107;,
  0.000000;0.707107;0.707107;,
  0.000000;-1.000000;0.000000;,
  0.000000;-1.000000;0.000000;,
  0.000000;1.000000;0.000000;,
  0.000000;1.000000;0.000000;,
  0.000000;-0.707107;-0.707107;,
  0.000000;-0.707107;-0.707107;,
  0.000000;0.707107;0.707107;,
  0.000000;0.707107;0.707107;,
  0.000000;-1.000000;0.000000;,
  0.000000;-1.000000;0.000000;,
  0.000000;1.000000;0.000000;,
  0.000000;1.000000;0.000000;,
  0.703702;0.707107;-0.069309;,
  0.000096;-1.000000;0.000000;,
  0.353553;0.923880;0.146447;,
  0.623612;-0.707107;0.333328;,
  0.270598;0.923880;0.270598;,
  0.242772;-0.923880;0.295818;,
  0.146447;0.923880;0.353553;,
  0.111087;-0.923880;0.366205;,
  0.000000;0.923880;0.382683;,
  -0.037510;-0.923880;0.380841;,
  -0.146447;0.923880;0.353553;,
  -0.180396;-0.923880;0.337497;,
  -0.270598;0.923880;0.270598;,
  -0.295818;-0.923880;0.242772;,
  -0.353553;0.923880;0.146447;,
  -0.366205;-0.923880;0.111087;,
  -0.382683;0.923880;0.000000;,
  -0.380841;-0.923880;-0.037510;,
  -0.353553;0.923880;-0.146447;,
  -0.337497;-0.923880;-0.180396;,
  -0.270598;0.923880;-0.270598;,
  -0.242772;-0.923880;-0.295818;,
  -0.146447;0.923880;-0.353553;,
  -0.111087;-0.923880;-0.366205;,
  0.000000;0.923880;-0.382683;,
  0.037510;-0.923880;-0.380841;,
  0.146447;0.923880;-0.353553;,
  0.180396;-0.923880;-0.337497;,
  0.500000;0.707107;-0.500000;,
  0.295818;-0.923880;-0.242772;,
  0.000089;1.000000;-0.000037;,
  0.676659;-0.707107;-0.205262;,
  0.703702;0.707107;-0.069309;,
  0.000096;-1.000000;0.000000;,
  0.353553;0.923880;0.146447;,
  0.623612;-0.707107;0.333328;,
  0.270598;0.923880;0.270598;,
  0.242772;-0.923880;0.295818;,
  0.146447;0.923880;0.353553;,
  0.111087;-0.923880;0.366205;,
  0.000000;0.923880;0.382683;,
  -0.037510;-0.923880;0.380841;,
  -0.146447;0.923880;0.353553;,
  -0.180396;-0.923880;0.337497;,
  -0.270598;0.923880;0.270598;,
  -0.295818;-0.923880;0.242772;,
  -0.353553;0.923880;0.146447;,
  -0.366205;-0.923880;0.111087;,
  -0.382683;0.923880;0.000000;,
  -0.380841;-0.923880;-0.037510;,
  -0.353553;0.923880;-0.146447;,
  -0.337497;-0.923880;-0.180396;,
  -0.270598;0.923880;-0.270598;,
  -0.242772;-0.923880;-0.295818;,
  -0.146447;0.923880;-0.353553;,
  -0.111087;-0.923880;-0.366205;,
  0.000000;0.923880;-0.382683;,
  0.037510;-0.923880;-0.380841;,
  0.146447;0.923880;-0.353553;,
  0.180396;-0.923880;-0.337497;,
  0.500000;0.707107;-0.500000;,
  0.295818;-0.923880;-0.242772;,
  0.000089;1.000000;-0.000037;,
  0.676659;-0.707107;-0.205262;,
  0.703702;0.707107;-0.069309;,
  0.000096;-1.000000;0.000000;,
  0.353553;0.923880;0.146447;,
  0.623613;-0.707107;0.333328;,
  0.270598;0.923880;0.270598;,
  0.242772;-0.923880;0.295818;,
  0.146447;0.923880;0.353553;,
  0.111087;-0.923880;0.366205;,
  0.000000;0.923880;0.382683;,
  -0.037510;-0.923880;0.380841;,
  -0.146447;0.923879;0.353553;,
  -0.180396;-0.923880;0.337497;,
  -0.270598;0.923879;0.270598;,
  -0.295818;-0.923880;0.242772;,
  -0.353553;0.923880;0.146447;,
  -0.366205;-0.923880;0.111087;,
  -0.382683;0.923879;0.000000;,
  -0.380841;-0.923880;-0.037510;,
  -0.353553;0.923879;-0.146447;,
  -0.337497;-0.923880;-0.180396;,
  -0.270598;0.923880;-0.270598;,
  -0.242772;-0.923880;-0.295818;,
  -0.146447;0.923879;-0.353553;,
  -0.111087;-0.923880;-0.366205;,
  0.000000;0.923879;-0.382683;,
  0.037510;-0.923880;-0.380841;,
  0.146447;0.923879;-0.353553;,
  0.180396;-0.923880;-0.337497;,
  0.500000;0.707107;-0.500000;,
  0.295818;-0.923880;-0.242772;,
  0.000089;1.000000;-0.000037;,
  0.676659;-0.707107;-0.205262;,
  0.703702;0.707107;-0.069309;,
  0.000096;-1.000000;0.000000;,
  0.353553;0.923880;0.146447;,
  0.623613;-0.707107;0.333328;,
  0.270598;0.923880;0.270598;,
  0.242772;-0.923880;0.295818;,
  0.146447;0.923880;0.353553;,
  0.111087;-0.923880;0.366205;,
  0.000000;0.923880;0.382683;,
  -0.037510;-0.923880;0.380841;,
  -0.146447;0.923879;0.353553;,
  -0.180396;-0.923880;0.337497;,
  -0.270598;0.923879;0.270598;,
  -0.295818;-0.923880;0.242772;,
  -0.353553;0.923880;0.146447;,
  -0.366205;-0.923880;0.111087;,
  -0.382683;0.923879;0.000000;,
  -0.380841;-0.923880;-0.037510;,
  -0.353553;0.923879;-0.146447;,
  -0.337497;-0.923880;-0.180396;,
  -0.270598;0.923880;-0.270598;,
  -0.242772;-0.923880;-0.295818;,
  -0.146447;0.923879;-0.353553;,
  -0.111087;-0.923880;-0.366205;,
  0.000000;0.923879;-0.382683;,
  0.037510;-0.923880;-0.380841;,
  0.146447;0.923879;-0.353553;,
  0.180396;-0.923880;-0.337497;,
  0.500000;0.707107;-0.500000;,
  0.295818;-0.923880;-0.242772;,
  0.000089;1.000000;-0.000037;,
  0.676659;-0.707107;-0.205262;;
  332;
  3;0,0,0;,
  3;1,1,1;,
  3;2,2,2;,
  3;3,3,3;,
  3;4,4,4;,
  3;5,5,5;,
  3;6,6,6;,
  3;7,7,7;,
  3;8,8,8;,
  3;9,9,9;,
  3;10,10,10;,
  3;11,11,11;,
  3;12,12,12;,
  3;13,13,13;,
  3;14,14,14;,
  3;15,15,15;,
  3;16,16,16;,
  3;17,17,17;,
  3;18,18,18;,
  3;19,19,19;,
  3;20,20,20;,
  3;21,21,21;,
  3;22,22,22;,
  3;23,23,23;,
  3;24,24,24;,
  3;25,25,25;,
  3;26,26,26;,
  3;27,27,27;,
  3;28,28,28;,
  3;29,29,29;,
  3;30,30,30;,
  3;31,31,31;,
  3;32,32,32;,
  3;33,33,33;,
  3;34,34,34;,
  3;35,35,35;,
  3;36,36,36;,
  3;37,37,37;,
  3;38,38,38;,
  3;39,39,39;,
  3;40,40,40;,
  3;41,41,41;,
  3;42,42,42;,
  3;43,43,43;,
  3;44,44,44;,
  3;45,45,45;,
  3;46,46,46;,
  3;47,47,47;,
  3;48,48,48;,
  3;49,49,49;,
  3;50,50,50;,
  3;51,51,51;,
  3;52,52,52;,
  3;53,53,53;,
  3;54,54,54;,
  3;55,55,55;,
  3;56,56,56;,
  3;57,57,57;,
  3;58,58,58;,
  3;59,59,59;,
  3;60,60,60;,
  3;61,61,61;,
  3;62,62,62;,
  3;63,63,63;,
  3;64,64,64;,
  3;65,65,65;,
  3;66,66,66;,
  3;67,67,67;,
  3;68,68,68;,
  3;69,69,69;,
  3;70,70,70;,
  3;71,71,71;,
  3;72,72,72;,
  3;73,73,73;,
  3;74,74,74;,
  3;75,75,75;,
  3;76,76,76;,
  3;77,77,77;,
  3;78,78,78;,
  3;79,79,79;,
  3;80,80,80;,
  3;81,81,81;,
  3;82,82,82;,
  3;83,83,83;,
  3;84,84,84;,
  3;85,85,85;,
  3;86,86,86;,
  3;87,87,87;,
  3;88,88,88;,
  3;89,89,89;,
  3;90,90,90;,
  3;91,91,91;,
  3;93,92,94;,
  3;93,94,95;,
  3;95,94,96;,
  3;95,96,97;,
  3;97,96,98;,
  3;97,98,99;,
  3;99,98,100;,
  3;99,100,101;,
  3;101,100,102;,
  3;101,102,103;,
  3;103,102,104;,
  3;103,104,105;,
  3;105,104,106;,
  3;105,106,107;,
  3;107,106,108;,
  3;107,108,109;,
  3;109,108,110;,
  3;109,110,111;,
  3;111,110,112;,
  3;111,112,113;,
  3;113,112,114;,
  3;113,114,115;,
  3;115,114,116;,
  3;115,116,117;,
  3;117,116,118;,
  3;117,118,119;,
  3;119,118,120;,
  3;119,120,121;,
  3;121,120,122;,
  3;121,122,123;,
  3;123,122,92;,
  3;123,92,93;,
  3;122,120,118;,
  3;122,118,116;,
  3;122,116,114;,
  3;122,114,112;,
  3;122,112,110;,
  3;122,110,108;,
  3;122,108,106;,
  3;122,106,104;,
  3;122,104,102;,
  3;122,102,100;,
  3;122,100,98;,
  3;122,98,96;,
  3;122,96,94;,
  3;122,94,92;,
  3;93,95,97;,
  3;93,97,99;,
  3;93,99,101;,
  3;93,101,103;,
  3;93,103,105;,
  3;93,105,107;,
  3;93,107,109;,
  3;93,109,111;,
  3;93,111,113;,
  3;93,113,115;,
  3;93,115,117;,
  3;93,117,119;,
  3;93,119,121;,
  3;93,121,123;,
  3;125,124,126;,
  3;125,126,127;,
  3;127,126,128;,
  3;127,128,129;,
  3;129,128,130;,
  3;129,130,131;,
  3;131,130,132;,
  3;131,132,133;,
  3;133,132,134;,
  3;133,134,135;,
  3;135,134,136;,
  3;135,136,137;,
  3;137,136,138;,
  3;137,138,139;,
  3;139,138,140;,
  3;139,140,141;,
  3;141,140,142;,
  3;141,142,143;,
  3;143,142,144;,
  3;143,144,145;,
  3;145,144,146;,
  3;145,146,147;,
  3;147,146,148;,
  3;147,148,149;,
  3;149,148,150;,
  3;149,150,151;,
  3;151,150,152;,
  3;151,152,153;,
  3;153,152,154;,
  3;153,154,155;,
  3;155,154,124;,
  3;155,124,125;,
  3;154,152,150;,
  3;154,150,148;,
  3;154,148,146;,
  3;154,146,144;,
  3;154,144,142;,
  3;154,142,140;,
  3;154,140,138;,
  3;154,138,136;,
  3;154,136,134;,
  3;154,134,132;,
  3;154,132,130;,
  3;154,130,128;,
  3;154,128,126;,
  3;154,126,124;,
  3;125,127,129;,
  3;125,129,131;,
  3;125,131,133;,
  3;125,133,135;,
  3;125,135,137;,
  3;125,137,139;,
  3;125,139,141;,
  3;125,141,143;,
  3;125,143,145;,
  3;125,145,147;,
  3;125,147,149;,
  3;125,149,151;,
  3;125,151,153;,
  3;125,153,155;,
  3;157,156,158;,
  3;157,158,159;,
  3;159,158,160;,
  3;159,160,161;,
  3;161,160,162;,
  3;161,162,163;,
  3;163,162,164;,
  3;163,164,165;,
  3;165,164,166;,
  3;165,166,167;,
  3;167,166,168;,
  3;167,168,169;,
  3;169,168,170;,
  3;169,170,171;,
  3;171,170,172;,
  3;171,172,173;,
  3;173,172,174;,
  3;173,174,175;,
  3;175,174,176;,
  3;175,176,177;,
  3;177,176,178;,
  3;177,178,179;,
  3;179,178,180;,
  3;179,180,181;,
  3;181,180,182;,
  3;181,182,183;,
  3;183,182,184;,
  3;183,184,185;,
  3;185,184,186;,
  3;185,186,187;,
  3;187,186,156;,
  3;187,156,157;,
  3;186,184,182;,
  3;186,182,180;,
  3;186,180,178;,
  3;186,178,176;,
  3;186,176,174;,
  3;186,174,172;,
  3;186,172,170;,
  3;186,170,168;,
  3;186,168,166;,
  3;186,166,164;,
  3;186,164,162;,
  3;186,162,160;,
  3;186,160,158;,
  3;186,158,156;,
  3;157,159,161;,
  3;157,161,163;,
  3;157,163,165;,
  3;157,165,167;,
  3;157,167,169;,
  3;157,169,171;,
  3;157,171,173;,
  3;157,173,175;,
  3;157,175,177;,
  3;157,177,179;,
  3;157,179,181;,
  3;157,181,183;,
  3;157,183,185;,
  3;157,185,187;,
  3;189,188,190;,
  3;189,190,191;,
  3;191,190,192;,
  3;191,192,193;,
  3;193,192,194;,
  3;193,194,195;,
  3;195,194,196;,
  3;195,196,197;,
  3;197,196,198;,
  3;197,198,199;,
  3;199,198,200;,
  3;199,200,201;,
  3;201,200,202;,
  3;201,202,203;,
  3;203,202,204;,
  3;203,204,205;,
  3;205,204,206;,
  3;205,206,207;,
  3;207,206,208;,
  3;207,208,209;,
  3;209,208,210;,
  3;209,210,211;,
  3;211,210,212;,
  3;211,212,213;,
  3;213,212,214;,
  3;213,214,215;,
  3;215,214,216;,
  3;215,216,217;,
  3;217,216,218;,
  3;217,218,219;,
  3;219,218,188;,
  3;219,188,189;,
  3;218,216,214;,
  3;218,214,212;,
  3;218,212,210;,
  3;218,210,208;,
  3;218,208,206;,
  3;218,206,204;,
  3;218,204,202;,
  3;218,202,200;,
  3;218,200,198;,
  3;218,198,196;,
  3;218,196,194;,
  3;218,194,192;,
  3;218,192,190;,
  3;218,190,188;,
  3;189,191,193;,
  3;189,193,195;,
  3;189,195,197;,
  3;189,197,199;,
  3;189,199,201;,
  3;189,201,203;,
  3;189,203,205;,
  3;189,205,207;,
  3;189,207,209;,
  3;189,209,211;,
  3;189,211,213;,
  3;189,213,215;,
  3;189,215,217;,
  3;189,217,219;;
 }
}