xof 0303txt 0032
template Vector {
 <3d82ab5e-62da-11cf-ab39-0020af71e433>
 FLOAT x;
 FLOAT y;
 FLOAT z;
}

template MeshFace {
 <3d82ab5f-62da-11cf-ab39-0020af71e433>
 DWORD nFaceVertexIndices;
 array DWORD faceVertexIndices[nFaceVertexIndices];
}

template Mesh {
 <3d82ab44-62da-11cf-ab39-0020af71e433>
 DWORD nVertices;
 array Vector vertices[nVertices];
 DWORD nFaces;
 array MeshFace faces[nFaces];
 [...]
}

template MeshNormals {
 <f6f23f43-7686-11cf-8f52-0040333594a3>
 DWORD nNormals;
 array Vector normals[nNormals];
 DWORD nFaceNormals;
 array MeshFace faceNormals[nFaceNormals];
}

template Coords2d {
 <f6f23f44-7686-11cf-8f52-0040333594a3>
 FLOAT u;
 FLOAT v;
}

template MeshTextureCoords {
 <f6f23f40-7686-11cf-8f52-0040333594a3>
 DWORD nTextureCoords;
 array Coords2d textureCoords[nTextureCoords];
}

template ColorRGBA {
 <35ff44e0-6c7c-11cf-8f52-0040333594a3>
 FLOAT red;
 FLOAT green;
 FLOAT blue;
 FLOAT alpha;
}

template ColorRGB {
 <d3e16e81-7835-11cf-8f52-0040333594a3>
 FLOAT red;
 FLOAT green;
 FLOAT blue;
}

template Material {
 <3d82ab4d-62da-11cf-ab39-0020af71e433>
 ColorRGBA faceColor;
 FLOAT power;
 ColorRGB specularColor;
 ColorRGB emissiveColor;
 [...]
}

template MeshMaterialList {
 <f6f23f42-7686-11cf-8f52-0040333594a3>
 DWORD nMaterials;
 DWORD nFaceIndexes;
 array DWORD faceIndexes[nFaceIndexes];
 [Material <3d82ab4d-62da-11cf-ab39-0020af71e433>]
}

template TextureFilename {
 <a42790e1-7810-11cf-8f52-0040333594a3>
 STRING filename;
}


Mesh {
 252;
 0.299200;1.057460;-9.998901;,
 0.000000;1.057460;-9.998901;,
 0.000000;1.057460;-9.903899;,
 0.299200;1.057460;-9.903899;,
 0.000000;1.018120;-9.998901;,
 0.351790;1.018120;-9.998901;,
 0.351790;1.018120;-9.903899;,
 0.000000;1.018120;-9.903899;,
 0.384390;1.045490;-9.998901;,
 0.384390;1.045490;-9.903899;,
 0.333440;1.071480;-9.998901;,
 0.333440;1.071480;-9.903899;,
 0.342620;1.096470;-9.998901;,
 0.342620;1.096470;-9.903899;,
 0.405170;1.094190;-9.998901;,
 0.405170;1.094190;-9.903899;,
 0.405170;2.921960;-9.998901;,
 0.405170;2.921960;-9.903899;,
 0.342620;2.892310;-9.998901;,
 0.342620;2.892310;-9.903899;,
 0.388690;3.003810;-9.998901;,
 0.388690;3.003810;-9.903899;,
 0.333440;2.959130;-9.998901;,
 0.333440;2.959130;-9.903899;,
 0.331200;3.069900;-9.998901;,
 0.331200;3.069900;-9.903899;,
 0.299200;2.999120;-9.998901;,
 0.299200;2.999120;-9.903899;,
 0.278490;3.089690;-9.998901;,
 0.278490;3.089690;-9.903899;,
 0.250290;3.017480;-9.998901;,
 0.250290;3.017480;-9.903899;,
 0.000000;3.089690;-9.998901;,
 0.000000;3.089690;-9.903899;,
 0.000000;3.017480;-9.998901;,
 0.000000;3.017480;-9.903899;,
 -0.299200;1.057460;-9.998901;,
 -0.299200;1.057460;-9.903899;,
 -0.351790;1.018120;-9.903899;,
 -0.351790;1.018120;-9.998901;,
 -0.384390;1.045490;-9.903899;,
 -0.384390;1.045490;-9.998901;,
 -0.333440;1.071480;-9.998901;,
 -0.333440;1.071480;-9.903899;,
 -0.342620;1.096470;-9.998901;,
 -0.342620;1.096470;-9.903899;,
 -0.405170;1.094190;-9.903899;,
 -0.405170;1.094190;-9.998901;,
 -0.405170;2.921960;-9.903899;,
 -0.405170;2.921960;-9.998901;,
 -0.342620;2.892310;-9.998901;,
 -0.342620;2.892310;-9.903899;,
 -0.388690;3.003810;-9.903899;,
 -0.388690;3.003810;-9.998901;,
 -0.333440;2.959130;-9.998901;,
 -0.333440;2.959130;-9.903899;,
 -0.331200;3.069900;-9.903899;,
 -0.331200;3.069900;-9.998901;,
 -0.299200;2.999120;-9.998901;,
 -0.299200;2.999120;-9.903899;,
 -0.278490;3.089690;-9.903899;,
 -0.278490;3.089690;-9.998901;,
 -0.250290;3.017480;-9.998901;,
 -0.250290;3.017480;-9.903899;,
 0.145090;3.148830;-9.915498;,
 0.234060;3.148830;-9.915498;,
 0.234060;3.087840;-9.915498;,
 0.145090;3.087840;-9.915498;,
 0.223900;3.168570;-9.915498;,
 0.155250;3.168570;-9.915498;,
 0.173330;3.184360;-9.915498;,
 0.205820;3.184360;-9.915498;,
 -0.164990;3.148830;-9.915498;,
 -0.164990;3.087840;-9.915498;,
 -0.253970;3.087840;-9.915498;,
 -0.253970;3.148830;-9.915498;,
 -0.243800;3.168570;-9.915498;,
 -0.175150;3.168570;-9.915498;,
 -0.225720;3.184360;-9.915498;,
 -0.193230;3.184360;-9.915498;,
 0.445870;1.400400;-9.919910;,
 0.459900;2.104230;-9.919910;,
 0.455090;2.569160;-9.919910;,
 0.435190;2.864380;-9.919910;,
 0.277590;3.097080;-9.919910;,
 0.000000;3.114950;-9.919910;,
 0.000000;3.041370;-9.919910;,
 0.314690;3.041370;-9.919910;,
 0.405350;3.035630;-9.919910;,
 0.353870;3.080030;-9.919910;,
 0.354850;2.916090;-9.919910;,
 0.374950;2.408460;-9.919910;,
 0.000000;1.058230;-9.919910;,
 0.000000;1.041950;-9.919910;,
 0.385220;1.041950;-9.919910;,
 0.353280;1.058230;-9.919910;,
 0.414020;1.097290;-9.919910;,
 0.433790;1.226110;-9.919910;,
 -0.445870;1.395740;-9.919910;,
 -0.435190;2.864380;-9.919910;,
 -0.455090;2.569160;-9.919910;,
 -0.459900;2.104230;-9.919910;,
 -0.277590;3.097080;-9.919910;,
 -0.314690;3.041370;-9.919910;,
 -0.405350;3.035630;-9.919910;,
 -0.354850;2.916090;-9.919910;,
 -0.353870;3.080030;-9.919910;,
 -0.374950;2.408460;-9.919910;,
 -0.353280;1.058230;-9.919910;,
 -0.385220;1.041950;-9.919910;,
 -0.414020;1.097290;-9.919910;,
 -0.433790;1.226110;-9.919910;,
 0.455090;2.569160;-9.969909;,
 0.435190;2.864380;-9.969909;,
 0.459900;2.104230;-9.969909;,
 0.445870;1.400400;-9.969909;,
 0.000000;3.041370;-9.969909;,
 0.314690;3.041370;-9.969909;,
 0.277590;3.097080;-9.969909;,
 0.000000;3.114950;-9.969909;,
 0.354850;2.916090;-9.969909;,
 0.405350;3.035630;-9.969909;,
 0.353870;3.080030;-9.969909;,
 0.374950;2.408460;-9.969909;,
 0.353280;1.058230;-9.969909;,
 0.000000;1.058230;-9.969909;,
 0.000000;1.041950;-9.969909;,
 0.385220;1.041950;-9.969909;,
 0.414020;1.097290;-9.969909;,
 0.433790;1.226110;-9.969909;,
 -0.459900;2.104230;-9.969909;,
 -0.445870;1.395740;-9.969909;,
 -0.455090;2.569160;-9.969909;,
 -0.435190;2.864380;-9.969909;,
 -0.277590;3.097080;-9.969909;,
 -0.314690;3.041370;-9.969909;,
 -0.353870;3.080030;-9.969909;,
 -0.405350;3.035630;-9.969909;,
 -0.354850;2.916090;-9.969909;,
 -0.374950;2.408460;-9.969909;,
 -0.385220;1.041950;-9.969909;,
 -0.353280;1.058230;-9.969909;,
 -0.414020;1.097290;-9.969909;,
 -0.433790;1.226110;-9.969909;,
 0.000000;1.018120;-9.998901;,
 0.000000;1.057460;-9.998901;,
 0.299200;1.057460;-9.998901;,
 0.351790;1.018120;-9.998901;,
 0.333440;1.071480;-9.998901;,
 0.384390;1.045490;-9.998901;,
 0.342620;1.096470;-9.998901;,
 0.405170;1.094190;-9.998901;,
 0.342620;2.892310;-9.998901;,
 0.405170;2.921960;-9.998901;,
 0.333440;2.959130;-9.998901;,
 0.388690;3.003810;-9.998901;,
 0.299200;2.999120;-9.998901;,
 0.331200;3.069900;-9.998901;,
 0.250290;3.017480;-9.998901;,
 0.278490;3.089690;-9.998901;,
 0.000000;3.017480;-9.998901;,
 0.000000;3.089690;-9.998901;,
 -0.351790;1.018120;-9.998901;,
 -0.299200;1.057460;-9.998901;,
 -0.333440;1.071480;-9.998901;,
 -0.384390;1.045490;-9.998901;,
 -0.405170;1.094190;-9.998901;,
 -0.342620;1.096470;-9.998901;,
 -0.342620;2.892310;-9.998901;,
 -0.405170;2.921960;-9.998901;,
 -0.333440;2.959130;-9.998901;,
 -0.388690;3.003810;-9.998901;,
 -0.299200;2.999120;-9.998901;,
 -0.331200;3.069900;-9.998901;,
 -0.250290;3.017480;-9.998901;,
 -0.278490;3.089690;-9.998901;,
 0.435190;2.864380;-9.919910;,
 0.455090;2.569160;-9.919910;,
 0.459900;2.104230;-9.919910;,
 0.445870;1.400400;-9.919910;,
 0.445870;1.400400;-9.969909;,
 0.435190;2.864380;-9.969909;,
 0.455090;2.569160;-9.969909;,
 0.459900;2.104230;-9.969909;,
 0.314690;3.041370;-9.919910;,
 0.000000;3.041370;-9.919910;,
 0.000000;3.114950;-9.919910;,
 0.277590;3.097080;-9.919910;,
 0.277590;3.097080;-9.969909;,
 0.314690;3.041370;-9.969909;,
 0.000000;3.041370;-9.969909;,
 0.000000;3.114950;-9.969909;,
 0.314690;3.041370;-9.969909;,
 0.354850;2.916090;-9.919910;,
 0.314690;3.041370;-9.919910;,
 0.353870;3.080030;-9.919910;,
 0.405350;3.035630;-9.919910;,
 0.405350;3.035630;-9.969909;,
 0.354850;2.916090;-9.969909;,
 0.353870;3.080030;-9.969909;,
 0.374950;2.408460;-9.919910;,
 0.374950;2.408460;-9.969909;,
 0.000000;1.058230;-9.919910;,
 0.353280;1.058230;-9.919910;,
 0.385220;1.041950;-9.919910;,
 0.000000;1.041950;-9.919910;,
 0.000000;1.058230;-9.969909;,
 0.353280;1.058230;-9.969909;,
 0.385220;1.041950;-9.969909;,
 0.000000;1.041950;-9.969909;,
 0.385220;1.041950;-9.969909;,
 0.414020;1.097290;-9.919910;,
 0.385220;1.041950;-9.919910;,
 0.414020;1.097290;-9.969909;,
 0.433790;1.226110;-9.919910;,
 0.433790;1.226110;-9.969909;,
 0.353280;1.058230;-9.969909;,
 0.353280;1.058230;-9.919910;,
 -0.445870;1.395740;-9.919910;,
 -0.459900;2.104230;-9.919910;,
 -0.455090;2.569160;-9.919910;,
 -0.435190;2.864380;-9.919910;,
 -0.445870;1.395740;-9.969909;,
 -0.459900;2.104230;-9.969909;,
 -0.455090;2.569160;-9.969909;,
 -0.435190;2.864380;-9.969909;,
 -0.277590;3.097080;-9.919910;,
 -0.314690;3.041370;-9.919910;,
 -0.277590;3.097080;-9.969909;,
 -0.314690;3.041370;-9.969909;,
 -0.405350;3.035630;-9.919910;,
 -0.353870;3.080030;-9.919910;,
 -0.314690;3.041370;-9.969909;,
 -0.314690;3.041370;-9.919910;,
 -0.354850;2.916090;-9.919910;,
 -0.405350;3.035630;-9.969909;,
 -0.353870;3.080030;-9.969909;,
 -0.354850;2.916090;-9.969909;,
 -0.374950;2.408460;-9.919910;,
 -0.374950;2.408460;-9.969909;,
 -0.385220;1.041950;-9.919910;,
 -0.353280;1.058230;-9.919910;,
 -0.385220;1.041950;-9.969909;,
 -0.353280;1.058230;-9.969909;,
 -0.385220;1.041950;-9.969909;,
 -0.385220;1.041950;-9.919910;,
 -0.414020;1.097290;-9.919910;,
 -0.414020;1.097290;-9.969909;,
 -0.433790;1.226110;-9.919910;,
 -0.433790;1.226110;-9.969909;,
 -0.353280;1.058230;-9.969909;,
 -0.353280;1.058230;-9.919910;;
 236;
 3;0,1,2;,
 3;0,2,3;,
 3;4,5,6;,
 3;4,6,7;,
 3;144,145,146;,
 3;144,146,147;,
 3;5,8,9;,
 3;5,9,6;,
 3;10,0,3;,
 3;10,3,11;,
 3;148,149,147;,
 3;148,147,146;,
 3;12,10,11;,
 3;12,11,13;,
 3;8,14,15;,
 3;8,15,9;,
 3;148,150,151;,
 3;148,151,149;,
 3;14,16,17;,
 3;14,17,15;,
 3;18,12,13;,
 3;18,13,19;,
 3;152,153,151;,
 3;152,151,150;,
 3;16,20,21;,
 3;16,21,17;,
 3;22,18,19;,
 3;22,19,23;,
 3;154,155,153;,
 3;154,153,152;,
 3;20,24,25;,
 3;20,25,21;,
 3;26,22,23;,
 3;26,23,27;,
 3;156,157,155;,
 3;156,155,154;,
 3;24,28,29;,
 3;24,29,25;,
 3;30,26,27;,
 3;30,27,31;,
 3;158,159,157;,
 3;158,157,156;,
 3;28,32,33;,
 3;28,33,29;,
 3;34,30,31;,
 3;34,31,35;,
 3;160,161,159;,
 3;160,159,158;,
 3;36,37,2;,
 3;36,2,1;,
 3;4,7,38;,
 3;4,38,39;,
 3;144,162,163;,
 3;144,163,145;,
 3;39,38,40;,
 3;39,40,41;,
 3;42,43,37;,
 3;42,37,36;,
 3;164,163,162;,
 3;164,162,165;,
 3;44,45,43;,
 3;44,43,42;,
 3;41,40,46;,
 3;41,46,47;,
 3;164,165,166;,
 3;164,166,167;,
 3;47,46,48;,
 3;47,48,49;,
 3;50,51,45;,
 3;50,45,44;,
 3;168,167,166;,
 3;168,166,169;,
 3;49,48,52;,
 3;49,52,53;,
 3;54,55,51;,
 3;54,51,50;,
 3;170,168,169;,
 3;170,169,171;,
 3;53,52,56;,
 3;53,56,57;,
 3;58,59,55;,
 3;58,55,54;,
 3;172,170,171;,
 3;172,171,173;,
 3;57,56,60;,
 3;57,60,61;,
 3;62,63,59;,
 3;62,59,58;,
 3;174,172,173;,
 3;174,173,175;,
 3;61,60,33;,
 3;61,33,32;,
 3;34,35,63;,
 3;34,63,62;,
 3;160,174,175;,
 3;160,175,161;,
 3;64,65,66;,
 3;64,66,67;,
 3;68,65,64;,
 3;68,64,69;,
 3;68,69,70;,
 3;68,70,71;,
 3;72,73,74;,
 3;72,74,75;,
 3;76,77,72;,
 3;76,72,75;,
 3;76,78,79;,
 3;76,79,77;,
 3;80,81,82;,
 3;80,82,83;,
 3;84,85,86;,
 3;84,86,87;,
 3;88,89,87;,
 3;88,87,90;,
 3;83,88,90;,
 3;83,90,91;,
 3;89,84,87;,
 3;92,93,94;,
 3;92,94,95;,
 3;94,96,95;,
 3;96,97,95;,
 3;97,80,95;,
 3;95,80,91;,
 3;80,83,91;,
 3;98,99,100;,
 3;98,100,101;,
 3;102,103,86;,
 3;102,86,85;,
 3;104,105,103;,
 3;104,103,106;,
 3;99,107,105;,
 3;99,105,104;,
 3;106,103,102;,
 3;92,108,109;,
 3;92,109,93;,
 3;109,108,110;,
 3;110,108,111;,
 3;111,108,98;,
 3;108,107,98;,
 3;98,107,99;,
 3;112,113,176;,
 3;112,176,177;,
 3;114,112,177;,
 3;114,177,178;,
 3;115,114,178;,
 3;115,178,179;,
 3;180,181,182;,
 3;180,182,183;,
 3;116,117,184;,
 3;116,184,185;,
 3;118,119,186;,
 3;118,186,187;,
 3;188,189,190;,
 3;188,190,191;,
 3;192,120,193;,
 3;192,193,194;,
 3;121,122,195;,
 3;121,195,196;,
 3;197,198,189;,
 3;197,189,199;,
 3;120,123,200;,
 3;120,200,193;,
 3;113,121,196;,
 3;113,196,176;,
 3;181,201,198;,
 3;181,198,197;,
 3;122,118,187;,
 3;122,187,195;,
 3;199,189,188;,
 3;124,125,202;,
 3;124,202,203;,
 3;126,127,204;,
 3;126,204,205;,
 3;206,207,208;,
 3;206,208,209;,
 3;210,128,211;,
 3;210,211,212;,
 3;208,207,213;,
 3;128,129,214;,
 3;128,214,211;,
 3;213,207,215;,
 3;129,115,179;,
 3;129,179,214;,
 3;215,207,180;,
 3;123,216,217;,
 3;123,217,200;,
 3;207,201,180;,
 3;180,201,181;,
 3;130,131,218;,
 3;130,218,219;,
 3;132,130,219;,
 3;132,219,220;,
 3;133,132,220;,
 3;133,220,221;,
 3;222,223,224;,
 3;222,224,225;,
 3;119,134,226;,
 3;119,226,186;,
 3;135,116,185;,
 3;135,185,227;,
 3;228,191,190;,
 3;228,190,229;,
 3;136,137,230;,
 3;136,230,231;,
 3;138,232,233;,
 3;138,233,234;,
 3;235,236,229;,
 3;235,229,237;,
 3;137,133,221;,
 3;137,221,230;,
 3;139,138,234;,
 3;139,234,238;,
 3;225,235,237;,
 3;225,237,239;,
 3;134,136,231;,
 3;134,231,226;,
 3;236,228,229;,
 3;140,126,205;,
 3;140,205,240;,
 3;125,141,241;,
 3;125,241,202;,
 3;206,209,242;,
 3;206,242,243;,
 3;142,244,245;,
 3;142,245,246;,
 3;242,247,243;,
 3;143,142,246;,
 3;143,246,248;,
 3;247,249,243;,
 3;131,143,248;,
 3;131,248,218;,
 3;249,222,243;,
 3;250,139,238;,
 3;250,238,251;,
 3;243,222,239;,
 3;222,225,239;;

 MeshNormals {
  252;
  -0.193088;0.981181;0.000000;,
  0.000000;1.000000;0.000000;,
  0.000000;1.000000;0.000000;,
  -0.193088;0.981181;0.000000;,
  0.000000;-1.000000;0.000000;,
  0.342177;-0.939636;0.000000;,
  0.342177;-0.939636;0.000000;,
  0.000000;-1.000000;0.000000;,
  0.803413;-0.595422;0.000000;,
  0.803413;-0.595422;0.000000;,
  -0.719953;0.694023;0.000000;,
  -0.719953;0.694023;0.000000;,
  -0.984557;0.175064;0.000000;,
  -0.984557;0.175064;0.000000;,
  0.979742;-0.200262;0.000000;,
  0.979742;-0.200262;0.000000;,
  0.995072;0.099150;0.000000;,
  0.995072;0.099150;0.000000;,
  -0.997672;-0.068191;0.000000;,
  -0.997672;-0.068191;0.000000;,
  0.897270;0.441483;0.000000;,
  0.897270;0.441483;0.000000;,
  -0.912172;-0.409808;0.000000;,
  -0.912172;-0.409808;0.000000;,
  0.570408;0.821361;0.000000;,
  0.570408;0.821361;0.000000;,
  -0.573632;-0.819113;0.000000;,
  -0.573632;-0.819113;0.000000;,
  0.178579;0.983926;0.000000;,
  0.178579;0.983926;0.000000;,
  -0.178572;-0.983927;0.000000;,
  -0.178572;-0.983927;0.000000;,
  0.000000;1.000000;0.000000;,
  0.000000;1.000000;0.000000;,
  0.000000;-1.000000;0.000000;,
  0.000000;-1.000000;0.000000;,
  0.193088;0.981181;0.000000;,
  0.193088;0.981181;0.000000;,
  -0.342177;-0.939636;0.000000;,
  -0.342177;-0.939636;0.000000;,
  -0.803413;-0.595422;0.000000;,
  -0.803413;-0.595422;0.000000;,
  0.719953;0.694023;0.000000;,
  0.719953;0.694023;0.000000;,
  0.984557;0.175064;0.000000;,
  0.984557;0.175064;0.000000;,
  -0.979742;-0.200262;0.000000;,
  -0.979742;-0.200262;0.000000;,
  -0.995072;0.099150;0.000000;,
  -0.995072;0.099150;0.000000;,
  0.997672;-0.068191;0.000000;,
  0.997672;-0.068191;0.000000;,
  -0.897270;0.441483;0.000000;,
  -0.897270;0.441483;0.000000;,
  0.912172;-0.409808;0.000000;,
  0.912172;-0.409808;0.000000;,
  -0.570408;0.821361;0.000000;,
  -0.570408;0.821361;0.000000;,
  0.573632;-0.819113;0.000000;,
  0.573632;-0.819113;0.000000;,
  -0.178579;0.983926;0.000000;,
  -0.178579;0.983926;0.000000;,
  0.178572;-0.983927;0.000000;,
  0.178572;-0.983927;0.000000;,
  0.000000;0.000000;-1.000000;,
  0.000000;0.000000;-1.000000;,
  0.000000;0.000000;-1.000000;,
  0.000000;0.000000;-1.000000;,
  0.000000;0.000000;-1.000000;,
  0.000000;0.000000;-1.000000;,
  0.000000;0.000000;-1.000000;,
  0.000000;0.000000;-1.000000;,
  0.000000;0.000000;-1.000000;,
  0.000000;0.000000;-1.000000;,
  0.000000;0.000000;-1.000000;,
  0.000000;0.000000;-1.000000;,
  0.000000;0.000000;-1.000000;,
  0.000000;0.000000;-1.000000;,
  0.000000;0.000000;-1.000000;,
  0.000000;0.000000;-1.000000;,
  0.000000;0.000000;1.000000;,
  0.000000;0.000000;1.000000;,
  0.000000;0.000000;1.000000;,
  0.000000;0.000000;1.000000;,
  0.000000;0.000000;1.000000;,
  0.000000;0.000000;1.000000;,
  0.000000;0.000000;1.000000;,
  0.000000;0.000000;1.000000;,
  0.000000;0.000000;1.000000;,
  0.000000;0.000000;1.000000;,
  0.000000;0.000000;1.000000;,
  0.000000;0.000000;1.000000;,
  0.000000;0.000000;1.000000;,
  0.000000;0.000000;1.000000;,
  0.000000;0.000000;1.000000;,
  0.000000;0.000000;1.000000;,
  0.000000;0.000000;1.000000;,
  0.000000;0.000000;1.000000;,
  0.000000;0.000000;1.000000;,
  0.000000;0.000000;1.000000;,
  0.000000;0.000000;1.000000;,
  0.000000;0.000000;1.000000;,
  0.000000;0.000000;1.000000;,
  0.000000;0.000000;1.000000;,
  0.000000;0.000000;1.000000;,
  0.000000;0.000000;1.000000;,
  0.000000;0.000000;1.000000;,
  0.000000;0.000000;1.000000;,
  0.000000;0.000000;1.000000;,
  0.000000;0.000000;1.000000;,
  0.000000;0.000000;1.000000;,
  0.000000;0.000000;1.000000;,
  0.999246;0.038819;0.000000;,
  0.992818;0.119635;0.000000;,
  0.999988;-0.004799;0.000000;,
  0.999007;-0.044552;0.000000;,
  0.000000;-1.000000;0.000000;,
  0.000004;-1.000000;0.000000;,
  0.141611;0.989922;0.000000;,
  0.000000;1.000000;0.000000;,
  -0.984744;-0.174008;0.000000;,
  0.869895;0.493237;0.000000;,
  0.449138;0.893462;0.000000;,
  -0.999931;-0.011766;0.000000;,
  0.000000;1.000000;0.000000;,
  0.000000;1.000000;0.000000;,
  0.000000;-1.000000;0.000000;,
  0.000000;-1.000000;0.000000;,
  0.950464;-0.310835;0.000000;,
  0.993875;-0.110505;0.000000;,
  -0.999989;-0.004733;0.000000;,
  -0.998967;-0.045434;0.000000;,
  -0.999246;0.038819;0.000000;,
  -0.992818;0.119635;0.000000;,
  -0.141611;0.989922;0.000000;,
  -0.000004;-1.000000;0.000000;,
  -0.449138;0.893462;0.000000;,
  -0.869895;0.493237;0.000000;,
  0.984744;-0.174008;0.000000;,
  0.999931;-0.011766;0.000000;,
  0.000000;-1.000000;0.000000;,
  0.000000;1.000000;0.000000;,
  -0.950464;-0.310835;0.000000;,
  -0.993770;-0.111448;0.000000;,
  0.000000;0.000000;-1.000000;,
  0.000000;0.000000;-1.000000;,
  0.000000;0.000000;-1.000000;,
  0.000000;0.000000;-1.000000;,
  0.000000;0.000000;-1.000000;,
  0.000000;0.000000;-1.000000;,
  0.000000;0.000000;-1.000000;,
  0.000000;0.000000;-1.000000;,
  0.000000;0.000000;-1.000000;,
  0.000000;0.000000;-1.000000;,
  0.000000;0.000000;-1.000000;,
  0.000000;0.000000;-1.000000;,
  0.000000;0.000000;-1.000000;,
  0.000000;0.000000;-1.000000;,
  0.000000;0.000000;-1.000000;,
  0.000000;0.000000;-1.000000;,
  0.000000;0.000000;-1.000000;,
  0.000000;0.000000;-1.000000;,
  0.000000;0.000000;-1.000000;,
  0.000000;0.000000;-1.000000;,
  0.000000;0.000000;-1.000000;,
  0.000000;0.000000;-1.000000;,
  0.000000;0.000000;-1.000000;,
  0.000000;0.000000;-1.000000;,
  0.000000;0.000000;-1.000000;,
  0.000000;0.000000;-1.000000;,
  0.000000;0.000000;-1.000000;,
  0.000000;0.000000;-1.000000;,
  0.000000;0.000000;-1.000000;,
  0.000000;0.000000;-1.000000;,
  0.000000;0.000000;-1.000000;,
  0.000000;0.000000;-1.000000;,
  0.992818;0.119635;0.000000;,
  0.999246;0.038819;0.000000;,
  0.999988;-0.004799;0.000000;,
  0.999007;-0.044552;0.000000;,
  0.000000;0.000000;-1.000000;,
  0.000000;0.000000;-1.000000;,
  0.000000;0.000000;-1.000000;,
  0.000000;0.000000;-1.000000;,
  0.000004;-1.000000;0.000000;,
  0.000000;-1.000000;0.000000;,
  0.000000;1.000000;0.000000;,
  0.141611;0.989922;0.000000;,
  0.000000;0.000000;-1.000000;,
  0.000000;0.000000;-1.000000;,
  0.000000;0.000000;-1.000000;,
  0.000000;0.000000;-1.000000;,
  -0.952268;-0.305263;0.000000;,
  -0.984744;-0.174008;0.000000;,
  -0.952268;-0.305263;0.000000;,
  0.449138;0.893462;0.000000;,
  0.869895;0.493237;0.000000;,
  0.000000;0.000000;-1.000000;,
  0.000000;0.000000;-1.000000;,
  0.000000;0.000000;-1.000000;,
  -0.999931;-0.011766;0.000000;,
  0.000000;0.000000;-1.000000;,
  0.000000;1.000000;0.000000;,
  0.000000;1.000000;0.000000;,
  0.000000;-1.000000;0.000000;,
  0.000000;-1.000000;0.000000;,
  0.000000;0.000000;-1.000000;,
  0.000000;0.000000;-1.000000;,
  0.000000;0.000000;-1.000000;,
  0.000000;0.000000;-1.000000;,
  0.887050;-0.461674;0.000000;,
  0.950464;-0.310835;0.000000;,
  0.887050;-0.461674;0.000000;,
  0.000000;0.000000;-1.000000;,
  0.993875;-0.110505;0.000000;,
  0.000000;0.000000;-1.000000;,
  -0.999871;0.016048;0.000000;,
  -0.999871;0.016048;0.000000;,
  -0.998967;-0.045434;0.000000;,
  -0.999989;-0.004733;0.000000;,
  -0.999246;0.038819;0.000000;,
  -0.992818;0.119635;0.000000;,
  0.000000;0.000000;-1.000000;,
  0.000000;0.000000;-1.000000;,
  0.000000;0.000000;-1.000000;,
  0.000000;0.000000;-1.000000;,
  -0.141611;0.989922;0.000000;,
  -0.000004;-1.000000;0.000000;,
  0.000000;0.000000;-1.000000;,
  0.000000;0.000000;-1.000000;,
  -0.869895;0.493237;0.000000;,
  -0.449138;0.893462;0.000000;,
  0.952268;-0.305263;0.000000;,
  0.952268;-0.305263;0.000000;,
  0.984744;-0.174008;0.000000;,
  0.000000;0.000000;-1.000000;,
  0.000000;0.000000;-1.000000;,
  0.000000;0.000000;-1.000000;,
  0.999931;-0.011766;0.000000;,
  0.000000;0.000000;-1.000000;,
  0.000000;-1.000000;0.000000;,
  0.000000;1.000000;0.000000;,
  0.000000;0.000000;-1.000000;,
  0.000000;0.000000;-1.000000;,
  -0.887050;-0.461674;0.000000;,
  -0.887050;-0.461674;0.000000;,
  -0.950464;-0.310835;0.000000;,
  0.000000;0.000000;-1.000000;,
  -0.993770;-0.111448;0.000000;,
  0.000000;0.000000;-1.000000;,
  0.999871;0.016048;0.000000;,
  0.999871;0.016048;0.000000;;
  236;
  3;0,1,2;,
  3;0,2,3;,
  3;4,5,6;,
  3;4,6,7;,
  3;144,145,146;,
  3;144,146,147;,
  3;5,8,9;,
  3;5,9,6;,
  3;10,0,3;,
  3;10,3,11;,
  3;148,149,147;,
  3;148,147,146;,
  3;12,10,11;,
  3;12,11,13;,
  3;8,14,15;,
  3;8,15,9;,
  3;148,150,151;,
  3;148,151,149;,
  3;14,16,17;,
  3;14,17,15;,
  3;18,12,13;,
  3;18,13,19;,
  3;152,153,151;,
  3;152,151,150;,
  3;16,20,21;,
  3;16,21,17;,
  3;22,18,19;,
  3;22,19,23;,
  3;154,155,153;,
  3;154,153,152;,
  3;20,24,25;,
  3;20,25,21;,
  3;26,22,23;,
  3;26,23,27;,
  3;156,157,155;,
  3;156,155,154;,
  3;24,28,29;,
  3;24,29,25;,
  3;30,26,27;,
  3;30,27,31;,
  3;158,159,157;,
  3;158,157,156;,
  3;28,32,33;,
  3;28,33,29;,
  3;34,30,31;,
  3;34,31,35;,
  3;160,161,159;,
  3;160,159,158;,
  3;36,37,2;,
  3;36,2,1;,
  3;4,7,38;,
  3;4,38,39;,
  3;144,162,163;,
  3;144,163,145;,
  3;39,38,40;,
  3;39,40,41;,
  3;42,43,37;,
  3;42,37,36;,
  3;164,163,162;,
  3;164,162,165;,
  3;44,45,43;,
  3;44,43,42;,
  3;41,40,46;,
  3;41,46,47;,
  3;164,165,166;,
  3;164,166,167;,
  3;47,46,48;,
  3;47,48,49;,
  3;50,51,45;,
  3;50,45,44;,
  3;168,167,166;,
  3;168,166,169;,
  3;49,48,52;,
  3;49,52,53;,
  3;54,55,51;,
  3;54,51,50;,
  3;170,168,169;,
  3;170,169,171;,
  3;53,52,56;,
  3;53,56,57;,
  3;58,59,55;,
  3;58,55,54;,
  3;172,170,171;,
  3;172,171,173;,
  3;57,56,60;,
  3;57,60,61;,
  3;62,63,59;,
  3;62,59,58;,
  3;174,172,173;,
  3;174,173,175;,
  3;61,60,33;,
  3;61,33,32;,
  3;34,35,63;,
  3;34,63,62;,
  3;160,174,175;,
  3;160,175,161;,
  3;64,65,66;,
  3;64,66,67;,
  3;68,65,64;,
  3;68,64,69;,
  3;68,69,70;,
  3;68,70,71;,
  3;72,73,74;,
  3;72,74,75;,
  3;76,77,72;,
  3;76,72,75;,
  3;76,78,79;,
  3;76,79,77;,
  3;80,81,82;,
  3;80,82,83;,
  3;84,85,86;,
  3;84,86,87;,
  3;88,89,87;,
  3;88,87,90;,
  3;83,88,90;,
  3;83,90,91;,
  3;89,84,87;,
  3;92,93,94;,
  3;92,94,95;,
  3;94,96,95;,
  3;96,97,95;,
  3;97,80,95;,
  3;95,80,91;,
  3;80,83,91;,
  3;98,99,100;,
  3;98,100,101;,
  3;102,103,86;,
  3;102,86,85;,
  3;104,105,103;,
  3;104,103,106;,
  3;99,107,105;,
  3;99,105,104;,
  3;106,103,102;,
  3;92,108,109;,
  3;92,109,93;,
  3;109,108,110;,
  3;110,108,111;,
  3;111,108,98;,
  3;108,107,98;,
  3;98,107,99;,
  3;112,113,176;,
  3;112,176,177;,
  3;114,112,177;,
  3;114,177,178;,
  3;115,114,178;,
  3;115,178,179;,
  3;180,181,182;,
  3;180,182,183;,
  3;116,117,184;,
  3;116,184,185;,
  3;118,119,186;,
  3;118,186,187;,
  3;188,189,190;,
  3;188,190,191;,
  3;192,120,193;,
  3;192,193,194;,
  3;121,122,195;,
  3;121,195,196;,
  3;197,198,189;,
  3;197,189,199;,
  3;120,123,200;,
  3;120,200,193;,
  3;113,121,196;,
  3;113,196,176;,
  3;181,201,198;,
  3;181,198,197;,
  3;122,118,187;,
  3;122,187,195;,
  3;199,189,188;,
  3;124,125,202;,
  3;124,202,203;,
  3;126,127,204;,
  3;126,204,205;,
  3;206,207,208;,
  3;206,208,209;,
  3;210,128,211;,
  3;210,211,212;,
  3;208,207,213;,
  3;128,129,214;,
  3;128,214,211;,
  3;213,207,215;,
  3;129,115,179;,
  3;129,179,214;,
  3;215,207,180;,
  3;123,216,217;,
  3;123,217,200;,
  3;207,201,180;,
  3;180,201,181;,
  3;130,131,218;,
  3;130,218,219;,
  3;132,130,219;,
  3;132,219,220;,
  3;133,132,220;,
  3;133,220,221;,
  3;222,223,224;,
  3;222,224,225;,
  3;119,134,226;,
  3;119,226,186;,
  3;135,116,185;,
  3;135,185,227;,
  3;228,191,190;,
  3;228,190,229;,
  3;136,137,230;,
  3;136,230,231;,
  3;138,232,233;,
  3;138,233,234;,
  3;235,236,229;,
  3;235,229,237;,
  3;137,133,221;,
  3;137,221,230;,
  3;139,138,234;,
  3;139,234,238;,
  3;225,235,237;,
  3;225,237,239;,
  3;134,136,231;,
  3;134,231,226;,
  3;236,228,229;,
  3;140,126,205;,
  3;140,205,240;,
  3;125,141,241;,
  3;125,241,202;,
  3;206,209,242;,
  3;206,242,243;,
  3;142,244,245;,
  3;142,245,246;,
  3;242,247,243;,
  3;143,142,246;,
  3;143,246,248;,
  3;247,249,243;,
  3;131,143,248;,
  3;131,248,218;,
  3;249,222,243;,
  3;250,139,238;,
  3;250,238,251;,
  3;243,222,239;,
  3;222,225,239;;
 }

 MeshTextureCoords {
  252;
  0.182300;0.955520;,
  0.500000;0.955520;,
  0.500000;0.955520;,
  0.182300;0.955520;,
  0.500000;0.973680;,
  0.126460;0.973680;,
  0.126460;0.973680;,
  0.500000;0.973680;,
  0.091850;0.961050;,
  0.091850;0.961050;,
  0.145950;0.949050;,
  0.145950;0.949050;,
  0.136200;0.937520;,
  0.136200;0.937520;,
  0.069790;0.938570;,
  0.069790;0.938570;,
  0.069790;0.126410;,
  0.069790;0.126410;,
  0.136200;0.140100;,
  0.136200;0.140100;,
  0.087290;0.088620;,
  0.087290;0.088620;,
  0.145950;0.109250;,
  0.145950;0.109250;,
  0.148330;0.058110;,
  0.148330;0.058110;,
  0.182300;0.090790;,
  0.182300;0.090790;,
  0.204300;0.048980;,
  0.204300;0.048980;,
  0.234240;0.082310;,
  0.234240;0.082310;,
  0.500000;0.048980;,
  0.500000;0.048980;,
  0.500000;0.082310;,
  0.500000;0.082310;,
  0.817700;0.955520;,
  0.817700;0.955520;,
  0.873540;0.973680;,
  0.873540;0.973680;,
  0.908150;0.961050;,
  0.908150;0.961050;,
  0.854050;0.949050;,
  0.854050;0.949050;,
  0.863800;0.937520;,
  0.863800;0.937520;,
  0.930210;0.938570;,
  0.930210;0.938570;,
  0.930210;0.126410;,
  0.930210;0.126410;,
  0.863800;0.140100;,
  0.863800;0.140100;,
  0.912710;0.088620;,
  0.912710;0.088620;,
  0.854050;0.109250;,
  0.854050;0.109250;,
  0.851670;0.058110;,
  0.851670;0.058110;,
  0.817700;0.090790;,
  0.817700;0.090790;,
  0.795700;0.048980;,
  0.795700;0.048980;,
  0.765760;0.082310;,
  0.765760;0.082310;,
  0.345950;0.021670;,
  0.251470;0.021670;,
  0.251470;0.043520;,
  0.345950;0.043520;,
  0.262260;0.012560;,
  0.335160;0.012560;,
  0.315960;0.005280;,
  0.281460;0.005280;,
  0.675190;0.021670;,
  0.675190;0.043520;,
  0.769660;0.043520;,
  0.769660;0.021670;,
  0.758870;0.012560;,
  0.685980;0.012560;,
  0.739670;0.005280;,
  0.705180;0.005280;,
  0.026570;0.797210;,
  0.011680;0.502090;,
  0.016780;0.289280;,
  0.037910;0.152990;,
  0.205250;0.045560;,
  0.500000;0.037320;,
  0.500000;0.071280;,
  0.165860;0.071280;,
  0.069600;0.073930;,
  0.124260;0.053440;,
  0.123220;0.129120;,
  0.101870;0.361640;,
  0.500000;0.955170;,
  0.500000;0.962680;,
  0.090970;0.962680;,
  0.124880;0.955170;,
  0.060390;0.937140;,
  0.039400;0.877670;,
  0.973430;0.797210;,
  0.962090;0.152990;,
  0.983220;0.289280;,
  0.988320;0.502090;,
  0.794750;0.045560;,
  0.834140;0.071280;,
  0.930400;0.073930;,
  0.876780;0.129120;,
  0.875740;0.053440;,
  0.898130;0.361640;,
  0.875120;0.955170;,
  0.909030;0.962680;,
  0.939610;0.937140;,
  0.960600;0.877670;,
  0.016780;0.289280;,
  0.037910;0.152990;,
  0.011680;0.502090;,
  0.026570;0.797210;,
  0.500000;0.071280;,
  0.165860;0.071280;,
  0.205250;0.045560;,
  0.500000;0.037320;,
  0.123220;0.129120;,
  0.069600;0.073930;,
  0.124260;0.053440;,
  0.101870;0.361640;,
  0.124880;0.955170;,
  0.500000;0.955170;,
  0.500000;0.962680;,
  0.090970;0.962680;,
  0.060390;0.937140;,
  0.039400;0.877670;,
  0.988320;0.502090;,
  0.973430;0.797210;,
  0.983220;0.289280;,
  0.962090;0.152990;,
  0.794750;0.045560;,
  0.834140;0.071280;,
  0.875740;0.053440;,
  0.930400;0.073930;,
  0.876780;0.129120;,
  0.898130;0.361640;,
  0.909030;0.962680;,
  0.875120;0.955170;,
  0.939610;0.937140;,
  0.960600;0.877670;,
  0.500000;0.973680;,
  0.500000;0.955520;,
  0.182300;0.955520;,
  0.126460;0.973680;,
  0.145950;0.949050;,
  0.091850;0.961050;,
  0.136200;0.937520;,
  0.069790;0.938570;,
  0.136200;0.140100;,
  0.069790;0.126410;,
  0.145950;0.109250;,
  0.087290;0.088620;,
  0.182300;0.090790;,
  0.148330;0.058110;,
  0.234240;0.082310;,
  0.204300;0.048980;,
  0.500000;0.082310;,
  0.500000;0.048980;,
  0.873540;0.973680;,
  0.817700;0.955520;,
  0.854050;0.949050;,
  0.908150;0.961050;,
  0.930210;0.938570;,
  0.863800;0.937520;,
  0.863800;0.140100;,
  0.930210;0.126410;,
  0.854050;0.109250;,
  0.912710;0.088620;,
  0.817700;0.090790;,
  0.851670;0.058110;,
  0.765760;0.082310;,
  0.795700;0.048980;,
  0.037910;0.152990;,
  0.016780;0.289280;,
  0.011680;0.502090;,
  0.026570;0.797210;,
  0.026570;0.797210;,
  0.037910;0.152990;,
  0.016780;0.289280;,
  0.011680;0.502090;,
  0.165860;0.071280;,
  0.500000;0.071280;,
  0.500000;0.037320;,
  0.205250;0.045560;,
  0.205250;0.045560;,
  0.165860;0.071280;,
  0.500000;0.071280;,
  0.500000;0.037320;,
  0.165860;0.071280;,
  0.123220;0.129120;,
  0.165860;0.071280;,
  0.124260;0.053440;,
  0.069600;0.073930;,
  0.069600;0.073930;,
  0.123220;0.129120;,
  0.124260;0.053440;,
  0.101870;0.361640;,
  0.101870;0.361640;,
  0.500000;0.955170;,
  0.124880;0.955170;,
  0.090970;0.962680;,
  0.500000;0.962680;,
  0.500000;0.955170;,
  0.124880;0.955170;,
  0.090970;0.962680;,
  0.500000;0.962680;,
  0.090970;0.962680;,
  0.060390;0.937140;,
  0.090970;0.962680;,
  0.060390;0.937140;,
  0.039400;0.877670;,
  0.039400;0.877670;,
  0.124880;0.955170;,
  0.124880;0.955170;,
  0.973430;0.797210;,
  0.988320;0.502090;,
  0.983220;0.289280;,
  0.962090;0.152990;,
  0.973430;0.797210;,
  0.988320;0.502090;,
  0.983220;0.289280;,
  0.962090;0.152990;,
  0.794750;0.045560;,
  0.834140;0.071280;,
  0.794750;0.045560;,
  0.834140;0.071280;,
  0.930400;0.073930;,
  0.875740;0.053440;,
  0.834140;0.071280;,
  0.834140;0.071280;,
  0.876780;0.129120;,
  0.930400;0.073930;,
  0.875740;0.053440;,
  0.876780;0.129120;,
  0.898130;0.361640;,
  0.898130;0.361640;,
  0.909030;0.962680;,
  0.875120;0.955170;,
  0.909030;0.962680;,
  0.875120;0.955170;,
  0.909030;0.962680;,
  0.909030;0.962680;,
  0.939610;0.937140;,
  0.939610;0.937140;,
  0.960600;0.877670;,
  0.960600;0.877670;,
  0.875120;0.955170;,
  0.875120;0.955170;;
 }

 MeshMaterialList {
  1;
  236;
  0,
  0,
  0,
  0,
  0,
  0,
  0,
  0,
  0,
  0,
  0,
  0,
  0,
  0,
  0,
  0,
  0,
  0,
  0,
  0,
  0,
  0,
  0,
  0,
  0,
  0,
  0,
  0,
  0,
  0,
  0,
  0,
  0,
  0,
  0,
  0,
  0,
  0,
  0,
  0,
  0,
  0,
  0,
  0,
  0,
  0,
  0,
  0,
  0,
  0,
  0,
  0,
  0,
  0,
  0,
  0,
  0,
  0,
  0,
  0,
  0,
  0,
  0,
  0,
  0,
  0,
  0,
  0,
  0,
  0,
  0,
  0,
  0,
  0,
  0,
  0,
  0,
  0,
  0,
  0,
  0,
  0,
  0,
  0,
  0,
  0,
  0,
  0,
  0,
  0,
  0,
  0,
  0,
  0,
  0,
  0,
  0,
  0,
  0,
  0,
  0,
  0,
  0,
  0,
  0,
  0,
  0,
  0,
  0,
  0,
  0,
  0,
  0,
  0,
  0,
  0,
  0,
  0,
  0,
  0,
  0,
  0,
  0,
  0,
  0,
  0,
  0,
  0,
  0,
  0,
  0,
  0,
  0,
  0,
  0,
  0,
  0,
  0,
  0,
  0,
  0,
  0,
  0,
  0,
  0,
  0,
  0,
  0,
  0,
  0,
  0,
  0,
  0,
  0,
  0,
  0,
  0,
  0,
  0,
  0,
  0,
  0,
  0,
  0,
  0,
  0,
  0,
  0,
  0,
  0,
  0,
  0,
  0,
  0,
  0,
  0,
  0,
  0,
  0,
  0,
  0,
  0,
  0,
  0,
  0,
  0,
  0,
  0,
  0,
  0,
  0,
  0,
  0,
  0,
  0,
  0,
  0,
  0,
  0,
  0,
  0,
  0,
  0,
  0,
  0,
  0,
  0,
  0,
  0,
  0,
  0,
  0,
  0,
  0,
  0,
  0,
  0,
  0,
  0,
  0,
  0,
  0,
  0,
  0,
  0,
  0,
  0,
  0,
  0,
  0,
  0,
  0,
  0,
  0,
  0,
  0;

  Material {
   0.800000;0.800000;0.800000;1.000000;;
   5.000000;
   0.000000;0.000000;0.000000;;
   0.000000;0.000000;0.000000;;

   TextureFilename {
    "horo2.png";
   }
  }
 }
}