xof 0303txt 0032
template Vector {
 <3d82ab5e-62da-11cf-ab39-0020af71e433>
 FLOAT x;
 FLOAT y;
 FLOAT z;
}

template MeshFace {
 <3d82ab5f-62da-11cf-ab39-0020af71e433>
 DWORD nFaceVertexIndices;
 array DWORD faceVertexIndices[nFaceVertexIndices];
}

template Mesh {
 <3d82ab44-62da-11cf-ab39-0020af71e433>
 DWORD nVertices;
 array Vector vertices[nVertices];
 DWORD nFaces;
 array MeshFace faces[nFaces];
 [...]
}

template ColorRGBA {
 <35ff44e0-6c7c-11cf-8f52-0040333594a3>
 FLOAT red;
 FLOAT green;
 FLOAT blue;
 FLOAT alpha;
}

template ColorRGB {
 <d3e16e81-7835-11cf-8f52-0040333594a3>
 FLOAT red;
 FLOAT green;
 FLOAT blue;
}

template Material {
 <3d82ab4d-62da-11cf-ab39-0020af71e433>
 ColorRGBA faceColor;
 FLOAT power;
 ColorRGB specularColor;
 ColorRGB emissiveColor;
 [...]
}

template MeshMaterialList {
 <f6f23f42-7686-11cf-8f52-0040333594a3>
 DWORD nMaterials;
 DWORD nFaceIndexes;
 array DWORD faceIndexes[nFaceIndexes];
 [Material <3d82ab4d-62da-11cf-ab39-0020af71e433>]
}

template TextureFilename {
 <a42790e1-7810-11cf-8f52-0040333594a3>
 STRING filename;
}

template Coords2d {
 <f6f23f44-7686-11cf-8f52-0040333594a3>
 FLOAT u;
 FLOAT v;
}

template MeshTextureCoords {
 <f6f23f40-7686-11cf-8f52-0040333594a3>
 DWORD nTextureCoords;
 array Coords2d textureCoords[nTextureCoords];
}

template MeshNormals {
 <f6f23f43-7686-11cf-8f52-0040333594a3>
 DWORD nNormals;
 array Vector normals[nNormals];
 DWORD nFaceNormals;
 array MeshFace faceNormals[nFaceNormals];
}


Mesh  {
 106;
 1.500000;1.100000;13.000000;,
 1.500000;4.500000;13.000000;,
 9.350000;1.100000;13.000000;,
 9.350000;4.500000;13.000000;,
 1.500000;1.100000;10.000000;,
 1.500000;4.500000;10.000000;,
 9.350000;1.100000;10.000000;,
 9.350000;4.500000;10.000000;,
 1.500000;1.100000;7.000000;,
 1.500000;4.500000;7.000000;,
 9.350000;1.100000;7.000000;,
 9.350000;4.500000;7.000000;,
 1.500000;1.100000;3.000000;,
 1.500000;4.500000;3.000000;,
 9.350000;1.100000;3.000000;,
 9.350000;4.500000;3.000000;,
 1.500000;1.100000;0.000000;,
 1.500000;4.500000;0.000000;,
 9.350000;1.100000;0.000000;,
 9.350000;4.500000;0.000000;,
 1.500000;1.100000;-3.000000;,
 1.500000;4.500000;-3.000000;,
 9.350000;1.100000;-3.000000;,
 9.350000;4.500000;-3.000000;,
 1.500000;1.100000;-7.000000;,
 1.500000;4.500000;-7.000000;,
 9.350000;1.100000;-7.000000;,
 9.350000;4.500000;-7.000000;,
 1.500000;1.100000;-10.000000;,
 1.500000;4.500000;-10.000000;,
 9.350000;1.100000;-10.000000;,
 9.350000;4.500000;-10.000000;,
 1.500000;1.100000;-14.000000;,
 1.500000;4.500000;-14.000000;,
 9.350000;1.100000;-14.000000;,
 9.350000;4.500000;-14.000000;,
 1.500000;1.100000;-17.000000;,
 1.500000;4.500000;-17.000000;,
 9.350000;1.100000;-17.000000;,
 9.350000;4.500000;-17.000000;,
 1.500000;3.000000;-17.010000;,
 1.500000;6.000000;-17.010000;,
 8.500000;3.000000;-17.010000;,
 8.500000;6.000000;-17.010000;,
 1.500000;4.350000;13.000000;,
 1.500000;4.700000;13.000000;,
 6.000000;5.950000;13.000000;,
 1.500000;4.350000;-17.010000;,
 1.500000;4.700000;-17.010000;,
 6.000000;5.950000;-17.010000;,
 6.000000;5.750000;13.000000;,
 9.350000;4.500000;13.000000;,
 6.000000;5.750000;-17.010000;,
 9.350000;4.500000;-17.010000;,
 8.250000;1.100000;10.000000;,
 8.250000;4.500000;10.000000;,
 8.250000;1.100000;-17.010000;,
 8.250000;4.500000;-17.010000;,
 8.240000;2.100000;9.200000;,
 8.240000;3.000000;9.200000;,
 8.240000;2.100000;7.800000;,
 8.240000;3.000000;7.800000;,
 8.240000;1.100000;7.000000;,
 8.240000;3.600000;7.000000;,
 8.240000;1.100000;3.000000;,
 8.240000;3.600000;3.000000;,
 8.240000;2.100000;2.800000;,
 8.240000;3.300000;2.800000;,
 8.240000;2.100000;1.300000;,
 8.240000;3.300000;1.300000;,
 8.240000;1.100000;1.200000;,
 8.240000;3.200000;1.200000;,
 8.240000;1.100000;0.300000;,
 8.240000;3.200000;0.300000;,
 8.240000;2.100000;-1.200000;,
 8.240000;4.000000;-1.200000;,
 8.240000;2.100000;-3.000000;,
 8.240000;4.000000;-3.000000;,
 8.240000;1.100000;-3.200000;,
 8.240000;3.200000;-3.200000;,
 8.240000;1.100000;-5.000000;,
 8.240000;3.200000;-5.000000;,
 8.240000;3.100000;-5.200000;,
 8.240000;4.000000;-5.200000;,
 8.240000;3.100000;-7.000000;,
 8.240000;4.000000;-7.000000;,
 8.240000;3.100000;-7.200000;,
 8.240000;4.000000;-7.200000;,
 8.240000;3.100000;-9.900000;,
 8.240000;4.000000;-9.900000;,
 8.240000;2.100000;-12.200000;,
 8.240000;3.300000;-12.200000;,
 8.240000;2.100000;-15.800000;,
 8.240000;3.300000;-15.800000;,
 8.200000;1.800000;-17.020000;,
 8.200000;7.200000;-17.020000;,
 18.200001;1.800000;-17.020000;,
 18.200001;7.200000;-17.020000;,
 8.200000;5.250000;-17.020000;,
 8.200000;5.250000;5.000000;,
 13.200000;7.100000;-17.020000;,
 13.200000;7.100000;5.000000;,
 8.200000;1.100000;-17.020000;,
 8.200000;1.100000;-33.000000;,
 8.200000;2.800000;-17.020000;,
 8.200000;2.800000;-33.000000;;
 54;
 3;0,1,3;,
 3;0,3,2;,
 3;4,5,7;,
 3;4,7,6;,
 3;8,9,11;,
 3;8,11,10;,
 3;12,13,15;,
 3;12,15,14;,
 3;16,17,19;,
 3;16,19,18;,
 3;20,21,23;,
 3;20,23,22;,
 3;24,25,27;,
 3;24,27,26;,
 3;28,29,31;,
 3;28,31,30;,
 3;32,33,35;,
 3;32,35,34;,
 3;36,37,39;,
 3;36,39,38;,
 3;40,41,43;,
 3;40,43,42;,
 3;44,45,48;,
 3;44,48,47;,
 3;45,46,49;,
 3;45,49,48;,
 3;51,50,52;,
 3;51,52,53;,
 3;54,55,57;,
 3;54,57,56;,
 3;58,59,61;,
 3;58,61,60;,
 3;62,63,65;,
 3;62,65,64;,
 3;66,67,69;,
 3;66,69,68;,
 3;70,71,73;,
 3;70,73,72;,
 3;74,75,77;,
 3;74,77,76;,
 3;78,79,81;,
 3;78,81,80;,
 3;82,83,85;,
 3;82,85,84;,
 3;86,87,89;,
 3;86,89,88;,
 3;90,91,93;,
 3;90,93,92;,
 3;94,95,97;,
 3;94,97,96;,
 3;98,99,101;,
 3;98,101,100;,
 3;104,105,103;,
 3;104,103,102;;

 MeshMaterialList  {
  26;
  54;
  0,
  0,
  1,
  1,
  2,
  2,
  3,
  3,
  4,
  4,
  5,
  5,
  6,
  6,
  7,
  7,
  8,
  8,
  9,
  9,
  10,
  10,
  11,
  11,
  11,
  11,
  12,
  12,
  13,
  13,
  14,
  14,
  15,
  15,
  16,
  16,
  17,
  17,
  18,
  18,
  19,
  19,
  20,
  20,
  21,
  21,
  22,
  22,
  23,
  23,
  24,
  24,
  25,
  25;

  Material  {
   1.000000;1.000000;1.000000;1.000000;;
   0.000000;
   0.000000;0.000000;0.000000;;
   0.000000;0.000000;0.000000;;

   TextureFilename  {
    "EkisyaPier1.png";
   }
  }

  Material  {
   1.000000;1.000000;1.000000;1.000000;;
   0.000000;
   0.000000;0.000000;0.000000;;
   0.000000;0.000000;0.000000;;

   TextureFilename  {
    "EkisyaPier1.png";
   }
  }

  Material  {
   1.000000;1.000000;1.000000;1.000000;;
   0.000000;
   0.000000;0.000000;0.000000;;
   0.000000;0.000000;0.000000;;

   TextureFilename  {
    "EkisyaPier1.png";
   }
  }

  Material  {
   1.000000;1.000000;1.000000;1.000000;;
   0.000000;
   0.000000;0.000000;0.000000;;
   0.000000;0.000000;0.000000;;

   TextureFilename  {
    "EkisyaPier1.png";
   }
  }

  Material  {
   1.000000;1.000000;1.000000;1.000000;;
   0.000000;
   0.000000;0.000000;0.000000;;
   0.000000;0.000000;0.000000;;

   TextureFilename  {
    "EkisyaPier1.png";
   }
  }

  Material  {
   1.000000;1.000000;1.000000;1.000000;;
   0.000000;
   0.000000;0.000000;0.000000;;
   0.000000;0.000000;0.000000;;

   TextureFilename  {
    "EkisyaPier1.png";
   }
  }

  Material  {
   1.000000;1.000000;1.000000;1.000000;;
   0.000000;
   0.000000;0.000000;0.000000;;
   0.000000;0.000000;0.000000;;

   TextureFilename  {
    "EkisyaPier1.png";
   }
  }

  Material  {
   1.000000;1.000000;1.000000;1.000000;;
   0.000000;
   0.000000;0.000000;0.000000;;
   0.000000;0.000000;0.000000;;

   TextureFilename  {
    "EkisyaPier1.png";
   }
  }

  Material  {
   1.000000;1.000000;1.000000;1.000000;;
   0.000000;
   0.000000;0.000000;0.000000;;
   0.000000;0.000000;0.000000;;

   TextureFilename  {
    "EkisyaPier1.png";
   }
  }

  Material  {
   1.000000;1.000000;1.000000;1.000000;;
   0.000000;
   0.000000;0.000000;0.000000;;
   0.000000;0.000000;0.000000;;

   TextureFilename  {
    "EkisyaPier1.png";
   }
  }

  Material  {
   1.000000;1.000000;1.000000;1.000000;;
   0.000000;
   0.000000;0.000000;0.000000;;
   0.000000;0.000000;0.000000;;

   TextureFilename  {
    "EkisyaRoof1.png";
   }
  }

  Material  {
   1.000000;1.000000;1.000000;1.000000;;
   0.000000;
   0.000000;0.000000;0.000000;;
   0.000000;0.000000;0.000000;;

   TextureFilename  {
    "EkisyaRoof2.png";
   }
  }

  Material  {
   1.000000;1.000000;1.000000;1.000000;;
   0.000000;
   0.000000;0.000000;0.000000;;
   0.000000;0.000000;0.000000;;

   TextureFilename  {
    "EkisyaRoof3.png";
   }
  }

  Material  {
   1.000000;1.000000;1.000000;1.000000;;
   0.000000;
   0.000000;0.000000;0.000000;;
   0.000000;0.000000;0.000000;;

   TextureFilename  {
    "EkisyaWall1.png";
   }
  }

  Material  {
   1.000000;1.000000;1.000000;1.000000;;
   0.000000;
   0.000000;0.000000;0.000000;;
   0.000000;0.000000;0.000000;;

   TextureFilename  {
    "Zikoku.png";
   }
  }

  Material  {
   1.000000;1.000000;1.000000;1.000000;;
   0.000000;
   0.000000;0.000000;0.000000;;
   0.000000;0.000000;0.000000;;

   TextureFilename  {
    "Iriguchi.png";
   }
  }

  Material  {
   1.000000;1.000000;1.000000;1.000000;;
   0.000000;
   0.000000;0.000000;0.000000;;
   0.000000;0.000000;0.000000;;

   TextureFilename  {
    "Window1.png";
   }
  }

  Material  {
   1.000000;1.000000;1.000000;1.000000;;
   0.000000;
   0.000000;0.000000;0.000000;;
   0.000000;0.000000;0.000000;;

   TextureFilename  {
    "Door1.png";
   }
  }

  Material  {
   1.000000;1.000000;1.000000;1.000000;;
   0.000000;
   0.000000;0.000000;0.000000;;
   0.000000;0.000000;0.000000;;

   TextureFilename  {
    "Window1.png";
   }
  }

  Material  {
   1.000000;1.000000;1.000000;1.000000;;
   0.000000;
   0.000000;0.000000;0.000000;;
   0.000000;0.000000;0.000000;;

   TextureFilename  {
    "Door1.png";
   }
  }

  Material  {
   1.000000;1.000000;1.000000;1.000000;;
   0.000000;
   0.000000;0.000000;0.000000;;
   0.000000;0.000000;0.000000;;

   TextureFilename  {
    "Window1.png";
   }
  }

  Material  {
   1.000000;1.000000;1.000000;1.000000;;
   0.000000;
   0.000000;0.000000;0.000000;;
   0.000000;0.000000;0.000000;;

   TextureFilename  {
    "Window1.png";
   }
  }

  Material  {
   1.000000;1.000000;1.000000;1.000000;;
   0.000000;
   0.000000;0.000000;0.000000;;
   0.000000;0.000000;0.000000;;

   TextureFilename  {
    "Window1.png";
   }
  }

  Material  {
   1.000000;1.000000;1.000000;1.000000;;
   0.000000;
   0.000000;0.000000;0.000000;;
   0.000000;0.000000;0.000000;;

   TextureFilename  {
    "EkisyaRoof5.png";
   }
  }

  Material  {
   1.000000;1.000000;1.000000;1.000000;;
   0.000000;
   0.000000;0.000000;0.000000;;
   0.000000;0.000000;0.000000;;

   TextureFilename  {
    "EkisyaRoof4.png";
   }
  }

  Material  {
   1.000000;1.000000;1.000000;1.000000;;
   0.000000;
   0.000000;0.000000;0.000000;;
   0.000000;0.000000;0.000000;;

   TextureFilename  {
    "WhiteWall.png";
   }
  }
 }

 MeshTextureCoords  {
  106;
  0.000000;1.000000;,
  0.000000;0.000000;,
  1.000000;1.000000;,
  1.000000;0.000000;,
  0.000000;1.000000;,
  0.000000;0.000000;,
  1.000000;1.000000;,
  1.000000;0.000000;,
  0.000000;1.000000;,
  0.000000;0.000000;,
  1.000000;1.000000;,
  1.000000;0.000000;,
  0.000000;1.000000;,
  0.000000;0.000000;,
  1.000000;1.000000;,
  1.000000;0.000000;,
  0.000000;1.000000;,
  0.000000;0.000000;,
  1.000000;1.000000;,
  1.000000;0.000000;,
  0.000000;1.000000;,
  0.000000;0.000000;,
  1.000000;1.000000;,
  1.000000;0.000000;,
  0.000000;1.000000;,
  0.000000;0.000000;,
  1.000000;1.000000;,
  1.000000;0.000000;,
  0.000000;1.000000;,
  0.000000;0.000000;,
  1.000000;1.000000;,
  1.000000;0.000000;,
  0.000000;1.000000;,
  0.000000;0.000000;,
  1.000000;1.000000;,
  1.000000;0.000000;,
  0.000000;1.000000;,
  0.000000;0.000000;,
  1.000000;1.000000;,
  1.000000;0.000000;,
  0.000000;1.000000;,
  0.000000;0.000000;,
  1.000000;1.000000;,
  1.000000;0.000000;,
  0.000000;1.000000;,
  0.000000;0.562500;,
  0.000000;0.000000;,
  4.000000;1.000000;,
  4.000000;0.562500;,
  4.000000;0.000000;,
  0.000000;8.000000;,
  2.000000;8.000000;,
  0.000000;-0.100000;,
  2.000000;-0.100000;,
  0.000000;1.000000;,
  0.000000;0.000000;,
  1.000000;1.000000;,
  1.000000;0.000000;,
  0.000000;1.000000;,
  0.000000;0.000000;,
  1.000000;1.000000;,
  1.000000;0.000000;,
  0.000000;1.000000;,
  0.000000;0.000000;,
  1.000000;1.000000;,
  1.000000;0.000000;,
  0.000000;1.000000;,
  0.000000;0.000000;,
  2.000000;1.000000;,
  2.000000;0.000000;,
  0.000000;1.000000;,
  0.000000;0.000000;,
  1.000000;1.000000;,
  1.000000;0.000000;,
  0.000000;2.000000;,
  0.000000;0.000000;,
  2.000000;2.000000;,
  2.000000;0.000000;,
  0.000000;1.000000;,
  0.000000;0.000000;,
  2.000000;1.000000;,
  2.000000;0.000000;,
  0.000000;1.000000;,
  0.000000;0.000000;,
  2.000000;1.000000;,
  2.000000;0.000000;,
  0.000000;1.000000;,
  0.000000;0.000000;,
  4.000000;1.000000;,
  4.000000;0.000000;,
  0.000000;1.000000;,
  0.000000;0.000000;,
  4.000000;1.000000;,
  4.000000;0.000000;,
  0.000000;1.000000;,
  0.000000;0.000000;,
  1.000000;1.000000;,
  1.000000;0.000000;,
  0.000000;1.000000;,
  0.000000;0.000000;,
  1.000000;1.000000;,
  1.000000;0.000000;,
  0.000000;1.000000;,
  6.500000;1.000000;,
  0.000000;0.000000;,
  6.500000;0.000000;;
 }

 MeshNormals  {
  54;
  0.000000;0.000000;-1.000000;,
  0.000000;0.000000;-1.000000;,
  0.000000;0.000000;-1.000000;,
  0.000000;0.000000;-1.000000;,
  0.000000;0.000000;-1.000000;,
  0.000000;0.000000;-1.000000;,
  0.000000;0.000000;-1.000000;,
  0.000000;0.000000;-1.000000;,
  0.000000;0.000000;-1.000000;,
  0.000000;0.000000;-1.000000;,
  0.000000;0.000000;-1.000000;,
  0.000000;0.000000;-1.000000;,
  0.000000;0.000000;-1.000000;,
  0.000000;0.000000;-1.000000;,
  0.000000;0.000000;-1.000000;,
  0.000000;0.000000;-1.000000;,
  0.000000;0.000000;-1.000000;,
  0.000000;0.000000;-1.000000;,
  0.000000;0.000000;-1.000000;,
  0.000000;0.000000;-1.000000;,
  0.000000;0.000000;-1.000000;,
  0.000000;0.000000;-1.000000;,
  -1.000000;0.000000;0.000000;,
  -1.000000;0.000000;0.000000;,
  -0.267644;0.963518;0.000000;,
  -0.267644;0.963518;0.000000;,
  -0.349590;-0.936903;0.000000;,
  -0.349590;-0.936903;0.000000;,
  -1.000000;0.000000;0.000000;,
  -1.000000;0.000000;0.000000;,
  -1.000000;0.000000;0.000000;,
  -1.000000;0.000000;0.000000;,
  -1.000000;0.000000;0.000000;,
  -1.000000;0.000000;0.000000;,
  -1.000000;0.000000;0.000000;,
  -1.000000;0.000000;0.000000;,
  -1.000000;0.000000;0.000000;,
  -1.000000;0.000000;0.000000;,
  -1.000000;0.000000;0.000000;,
  -1.000000;0.000000;0.000000;,
  -1.000000;0.000000;0.000000;,
  -1.000000;0.000000;0.000000;,
  -1.000000;0.000000;0.000000;,
  -1.000000;0.000000;0.000000;,
  -1.000000;0.000000;0.000000;,
  -1.000000;0.000000;0.000000;,
  -1.000000;0.000000;0.000000;,
  -1.000000;0.000000;0.000000;,
  0.000000;0.000000;-1.000000;,
  0.000000;0.000000;-1.000000;,
  -0.347009;0.937862;0.000000;,
  -0.347009;0.937862;0.000000;,
  -1.000000;0.000000;0.000000;,
  -1.000000;0.000000;0.000000;;
  54;
  3;0,0,0;,
  3;1,1,1;,
  3;2,2,2;,
  3;3,3,3;,
  3;4,4,4;,
  3;5,5,5;,
  3;6,6,6;,
  3;7,7,7;,
  3;8,8,8;,
  3;9,9,9;,
  3;10,10,10;,
  3;11,11,11;,
  3;12,12,12;,
  3;13,13,13;,
  3;14,14,14;,
  3;15,15,15;,
  3;16,16,16;,
  3;17,17,17;,
  3;18,18,18;,
  3;19,19,19;,
  3;20,20,20;,
  3;21,21,21;,
  3;22,22,22;,
  3;23,23,23;,
  3;24,24,24;,
  3;25,25,25;,
  3;26,26,26;,
  3;27,27,27;,
  3;28,28,28;,
  3;29,29,29;,
  3;30,30,30;,
  3;31,31,31;,
  3;32,32,32;,
  3;33,33,33;,
  3;34,34,34;,
  3;35,35,35;,
  3;36,36,36;,
  3;37,37,37;,
  3;38,38,38;,
  3;39,39,39;,
  3;40,40,40;,
  3;41,41,41;,
  3;42,42,42;,
  3;43,43,43;,
  3;44,44,44;,
  3;45,45,45;,
  3;46,46,46;,
  3;47,47,47;,
  3;48,48,48;,
  3;49,49,49;,
  3;50,50,50;,
  3;51,51,51;,
  3;52,52,52;,
  3;53,53,53;;
 }
}