xof 0303txt 0032
template Vector {
 <3d82ab5e-62da-11cf-ab39-0020af71e433>
 FLOAT x;
 FLOAT y;
 FLOAT z;
}

template MeshFace {
 <3d82ab5f-62da-11cf-ab39-0020af71e433>
 DWORD nFaceVertexIndices;
 array DWORD faceVertexIndices[nFaceVertexIndices];
}

template Mesh {
 <3d82ab44-62da-11cf-ab39-0020af71e433>
 DWORD nVertices;
 array Vector vertices[nVertices];
 DWORD nFaces;
 array MeshFace faces[nFaces];
 [...]
}

template ColorRGBA {
 <35ff44e0-6c7c-11cf-8f52-0040333594a3>
 FLOAT red;
 FLOAT green;
 FLOAT blue;
 FLOAT alpha;
}

template ColorRGB {
 <d3e16e81-7835-11cf-8f52-0040333594a3>
 FLOAT red;
 FLOAT green;
 FLOAT blue;
}

template Material {
 <3d82ab4d-62da-11cf-ab39-0020af71e433>
 ColorRGBA faceColor;
 FLOAT power;
 ColorRGB specularColor;
 ColorRGB emissiveColor;
 [...]
}

template MeshMaterialList {
 <f6f23f42-7686-11cf-8f52-0040333594a3>
 DWORD nMaterials;
 DWORD nFaceIndexes;
 array DWORD faceIndexes[nFaceIndexes];
 [Material <3d82ab4d-62da-11cf-ab39-0020af71e433>]
}

template TextureFilename {
 <a42790e1-7810-11cf-8f52-0040333594a3>
 STRING filename;
}

template Coords2d {
 <f6f23f44-7686-11cf-8f52-0040333594a3>
 FLOAT u;
 FLOAT v;
}

template MeshTextureCoords {
 <f6f23f40-7686-11cf-8f52-0040333594a3>
 DWORD nTextureCoords;
 array Coords2d textureCoords[nTextureCoords];
}

template MeshNormals {
 <f6f23f43-7686-11cf-8f52-0040333594a3>
 DWORD nNormals;
 array Vector normals[nNormals];
 DWORD nFaceNormals;
 array MeshFace faceNormals[nFaceNormals];
}


Mesh  {
 32;
 1.500000;-0.450000;0.000000;,
 1.500000;1.100000;0.000000;,
 2.700000;1.100000;0.000000;,
 1.500000;-0.450000;8.900000;,
 1.500000;1.100000;8.900000;,
 2.700000;1.100000;8.900000;,
 1.500000;-0.450000;8.900000;,
 1.500000;0.920000;8.900000;,
 1.900000;0.920000;8.900000;,
 1.500000;-1.820000;14.900000;,
 1.500000;-0.450000;14.900000;,
 1.900000;-0.450000;14.900000;,
 2.700000;1.100000;0.000000;,
 2.700000;1.100000;8.900000;,
 7.300000;1.100000;0.000000;,
 7.300000;1.100000;8.900000;,
 1.900000;0.920000;8.900000;,
 1.900000;-0.450000;14.900000;,
 7.300000;0.920000;8.900000;,
 7.300000;-0.450000;14.900000;,
 7.300000;1.100000;0.000000;,
 7.300000;2.600000;0.000000;,
 7.300000;1.100000;8.800000;,
 7.300000;2.600000;8.800000;,
 1.900000;1.100000;8.800000;,
 1.900000;2.600000;8.800000;,
 7.300000;1.250000;0.000000;,
 7.300000;2.500000;0.000000;,
 7.300000;1.250000;8.800000;,
 7.300000;2.500000;8.800000;,
 1.900000;1.250000;8.800000;,
 1.900000;2.500000;8.800000;;
 20;
 3;3,4,1;,
 3;3,1,0;,
 3;4,5,2;,
 3;4,2,1;,
 3;9,10,7;,
 3;9,7,6;,
 3;10,11,8;,
 3;10,8,7;,
 3;12,13,15;,
 3;12,15,14;,
 3;16,17,19;,
 3;16,19,18;,
 3;22,23,21;,
 3;22,21,20;,
 3;24,25,23;,
 3;24,23,22;,
 3;28,29,27;,
 3;28,27,26;,
 3;30,31,29;,
 3;30,29,28;;

 MeshMaterialList  {
  6;
  20;
  0,
  0,
  0,
  0,
  1,
  1,
  1,
  1,
  2,
  2,
  3,
  3,
  4,
  4,
  4,
  4,
  5,
  5,
  5,
  5;

  Material  {
   1.000000;1.000000;1.000000;1.000000;;
   0.000000;
   0.000000;0.000000;0.000000;;
   0.000000;0.000000;0.000000;;

   TextureFilename  {
    "FormSide3.png";
   }
  }

  Material  {
   1.000000;1.000000;1.000000;1.000000;;
   0.000000;
   0.000000;0.000000;0.000000;;
   0.000000;0.000000;0.000000;;

   TextureFilename  {
    "FormSide1.png";
   }
  }

  Material  {
   1.000000;1.000000;1.000000;1.000000;;
   0.000000;
   0.000000;0.000000;0.000000;;
   0.000000;0.000000;0.000000;;

   TextureFilename  {
    "FormC3.png";
   }
  }

  Material  {
   1.000000;1.000000;1.000000;1.000000;;
   0.000000;
   0.000000;0.000000;0.000000;;
   0.000000;0.000000;0.000000;;

   TextureFilename  {
    "FormC1.png";
   }
  }

  Material  {
   1.000000;1.000000;1.000000;1.000000;;
   0.000000;
   0.000000;0.000000;0.000000;;
   0.000000;0.000000;0.000000;;

   TextureFilename  {
    "Saku1.png";
   }
  }

  Material  {
   0.250980;0.250980;0.250980;0.501961;;
   0.000000;
   0.000000;0.000000;0.000000;;
   0.000000;0.000000;0.000000;;
  }
 }

 MeshTextureCoords  {
  32;
  0.000000;1.000000;,
  0.000000;0.250000;,
  0.000000;0.020000;,
  1.112500;1.000000;,
  1.112500;0.250000;,
  1.112500;0.020000;,
  1.112500;1.000000;,
  1.112500;0.093750;,
  1.112500;0.000000;,
  1.862500;1.000000;,
  1.862500;0.093750;,
  1.862500;0.000000;,
  0.000000;0.000000;,
  0.000000;0.356000;,
  1.000000;0.000000;,
  1.000000;0.356000;,
  0.000000;0.000000;,
  0.000000;1.000000;,
  1.000000;0.000000;,
  1.000000;1.000000;,
  0.000000;1.000000;,
  0.000000;0.000000;,
  2.015000;1.000000;,
  2.015000;0.000000;,
  3.015000;1.000000;,
  3.015000;0.000000;,
  0.000000;0.000000;,
  0.000000;0.000000;,
  0.000000;0.000000;,
  0.000000;0.000000;,
  0.000000;0.000000;,
  0.000000;0.000000;;
 }

 MeshNormals  {
  20;
  -1.000000;0.000000;0.000000;,
  -1.000000;0.000000;0.000000;,
  0.000000;1.000000;0.000000;,
  0.000000;1.000000;0.000000;,
  -1.000000;0.000000;0.000000;,
  -1.000000;0.000000;0.000000;,
  0.000000;0.974909;0.222604;,
  0.000000;0.974909;0.222604;,
  0.000000;1.000000;0.000000;,
  0.000000;1.000000;0.000000;,
  0.000000;0.974909;0.222604;,
  0.000000;0.974909;0.222604;,
  -1.000000;0.000000;0.000000;,
  -1.000000;0.000000;0.000000;,
  0.000000;0.000000;-1.000000;,
  0.000000;0.000000;-1.000000;,
  -1.000000;0.000000;0.000000;,
  -1.000000;0.000000;0.000000;,
  0.000000;0.000000;-1.000000;,
  0.000000;0.000000;-1.000000;;
  20;
  3;0,0,0;,
  3;1,1,1;,
  3;2,2,2;,
  3;3,3,3;,
  3;4,4,4;,
  3;5,5,5;,
  3;6,6,6;,
  3;7,7,7;,
  3;8,8,8;,
  3;9,9,9;,
  3;10,10,10;,
  3;11,11,11;,
  3;12,12,12;,
  3;13,13,13;,
  3;14,14,14;,
  3;15,15,15;,
  3;16,16,16;,
  3;17,17,17;,
  3;18,18,18;,
  3;19,19,19;;
 }
}