xof 0303txt 0032
template Vector {
 <3d82ab5e-62da-11cf-ab39-0020af71e433>
 FLOAT x;
 FLOAT y;
 FLOAT z;
}

template MeshFace {
 <3d82ab5f-62da-11cf-ab39-0020af71e433>
 DWORD nFaceVertexIndices;
 array DWORD faceVertexIndices[nFaceVertexIndices];
}

template Mesh {
 <3d82ab44-62da-11cf-ab39-0020af71e433>
 DWORD nVertices;
 array Vector vertices[nVertices];
 DWORD nFaces;
 array MeshFace faces[nFaces];
 [...]
}

template ColorRGBA {
 <35ff44e0-6c7c-11cf-8f52-0040333594a3>
 FLOAT red;
 FLOAT green;
 FLOAT blue;
 FLOAT alpha;
}

template ColorRGB {
 <d3e16e81-7835-11cf-8f52-0040333594a3>
 FLOAT red;
 FLOAT green;
 FLOAT blue;
}

template Material {
 <3d82ab4d-62da-11cf-ab39-0020af71e433>
 ColorRGBA faceColor;
 FLOAT power;
 ColorRGB specularColor;
 ColorRGB emissiveColor;
 [...]
}

template MeshMaterialList {
 <f6f23f42-7686-11cf-8f52-0040333594a3>
 DWORD nMaterials;
 DWORD nFaceIndexes;
 array DWORD faceIndexes[nFaceIndexes];
 [Material <3d82ab4d-62da-11cf-ab39-0020af71e433>]
}

template TextureFilename {
 <a42790e1-7810-11cf-8f52-0040333594a3>
 STRING filename;
}

template Coords2d {
 <f6f23f44-7686-11cf-8f52-0040333594a3>
 FLOAT u;
 FLOAT v;
}

template MeshTextureCoords {
 <f6f23f40-7686-11cf-8f52-0040333594a3>
 DWORD nTextureCoords;
 array Coords2d textureCoords[nTextureCoords];
}

template MeshNormals {
 <f6f23f43-7686-11cf-8f52-0040333594a3>
 DWORD nNormals;
 array Vector normals[nNormals];
 DWORD nFaceNormals;
 array MeshFace faceNormals[nFaceNormals];
}


Mesh  {
 30;
 1.500000;-0.450000;0.000000;,
 1.500000;0.920000;0.000000;,
 2.700000;0.920000;0.000000;,
 1.500000;-0.450000;10.000000;,
 1.500000;1.100000;10.000000;,
 2.700000;1.100000;10.000000;,
 1.500000;-0.450000;10.000000;,
 1.500000;1.100000;10.000000;,
 2.700000;1.100000;10.000000;,
 1.500000;-0.450000;25.010000;,
 1.500000;1.100000;25.010000;,
 2.700000;1.100000;25.010000;,
 9.560800;-0.450000;0.000000;,
 9.560800;0.920000;0.000000;,
 8.360800;0.920000;0.000000;,
 9.560800;-0.450000;10.000000;,
 9.560800;1.100000;10.000000;,
 8.360800;1.100000;10.000000;,
 9.560800;-0.450000;10.000000;,
 9.560800;1.100000;10.000000;,
 8.360800;1.100000;10.000000;,
 9.560800;-0.450000;25.010000;,
 9.560800;1.100000;25.010000;,
 8.360800;1.100000;25.010000;,
 2.700000;0.920000;0.000000;,
 2.700000;1.100000;10.000000;,
 2.700000;1.100000;25.010000;,
 8.360800;0.920000;0.000000;,
 8.360800;1.100000;10.000000;,
 8.360800;1.100000;25.010000;;
 20;
 3;3,4,1;,
 3;3,1,0;,
 3;4,5,2;,
 3;4,2,1;,
 3;9,10,7;,
 3;9,7,6;,
 3;10,11,8;,
 3;10,8,7;,
 3;12,13,16;,
 3;12,16,15;,
 3;13,14,17;,
 3;13,17,16;,
 3;18,19,22;,
 3;18,22,21;,
 3;19,20,23;,
 3;19,23,22;,
 3;24,25,28;,
 3;24,28,27;,
 3;25,26,29;,
 3;25,29,28;;

 MeshMaterialList  {
  5;
  20;
  0,
  0,
  0,
  0,
  1,
  1,
  1,
  1,
  2,
  2,
  2,
  2,
  3,
  3,
  3,
  3,
  4,
  4,
  4,
  4;

  Material  {
   1.000000;1.000000;1.000000;1.000000;;
   0.000000;
   0.000000;0.000000;0.000000;;
   0.000000;0.000000;0.000000;;

   TextureFilename  {
    "FormSide2.png";
   }
  }

  Material  {
   1.000000;1.000000;1.000000;1.000000;;
   0.000000;
   0.000000;0.000000;0.000000;;
   0.000000;0.000000;0.000000;;

   TextureFilename  {
    "FormSide3.png";
   }
  }

  Material  {
   1.000000;1.000000;1.000000;1.000000;;
   0.000000;
   0.000000;0.000000;0.000000;;
   0.000000;0.000000;0.000000;;

   TextureFilename  {
    "FormSide2.png";
   }
  }

  Material  {
   1.000000;1.000000;1.000000;1.000000;;
   0.000000;
   0.000000;0.000000;0.000000;;
   0.000000;0.000000;0.000000;;

   TextureFilename  {
    "FormSide3.png";
   }
  }

  Material  {
   1.000000;1.000000;1.000000;1.000000;;
   0.000000;
   0.000000;0.000000;0.000000;;
   0.000000;0.000000;0.000000;;

   TextureFilename  {
    "FormC3.png";
   }
  }
 }

 MeshTextureCoords  {
  30;
  0.000000;1.000000;,
  0.000000;0.250000;,
  0.000000;0.020000;,
  1.250000;1.000000;,
  1.250000;0.250000;,
  1.250000;0.020000;,
  1.250000;1.000000;,
  1.250000;0.250000;,
  1.250000;0.020000;,
  3.125000;1.000000;,
  3.125000;0.250000;,
  3.125000;0.020000;,
  0.000000;1.000000;,
  0.000000;0.250000;,
  0.000000;0.020000;,
  1.250000;1.000000;,
  1.250000;0.250000;,
  1.250000;0.020000;,
  1.250000;1.000000;,
  1.250000;0.250000;,
  1.250000;0.020000;,
  3.125000;1.000000;,
  3.125000;0.250000;,
  3.125000;0.020000;,
  0.000000;1.000000;,
  0.000000;0.400000;,
  0.000000;0.000000;,
  1.000000;1.000000;,
  1.000000;0.400000;,
  1.000000;0.000000;;
 }

 MeshNormals  {
  20;
  -1.000000;0.000000;0.000000;,
  -1.000000;0.000000;0.000000;,
  0.000000;0.999838;-0.017997;,
  0.000000;0.999838;-0.017997;,
  -1.000000;0.000000;0.000000;,
  -1.000000;0.000000;0.000000;,
  0.000000;1.000000;0.000000;,
  0.000000;1.000000;0.000000;,
  1.000000;0.000000;0.000000;,
  1.000000;0.000000;0.000000;,
  0.000000;0.999838;-0.017997;,
  0.000000;0.999838;-0.017997;,
  1.000000;0.000000;0.000000;,
  1.000000;0.000000;0.000000;,
  0.000000;1.000000;0.000000;,
  0.000000;1.000000;0.000000;,
  0.000000;0.999838;-0.017997;,
  0.000000;0.999838;-0.017997;,
  0.000000;1.000000;0.000000;,
  0.000000;1.000000;0.000000;;
  20;
  3;0,0,0;,
  3;1,1,1;,
  3;2,2,2;,
  3;3,3,3;,
  3;4,4,4;,
  3;5,5,5;,
  3;6,6,6;,
  3;7,7,7;,
  3;8,8,8;,
  3;9,9,9;,
  3;10,10,10;,
  3;11,11,11;,
  3;12,12,12;,
  3;13,13,13;,
  3;14,14,14;,
  3;15,15,15;,
  3;16,16,16;,
  3;17,17,17;,
  3;18,18,18;,
  3;19,19,19;;
 }
}