xof 0303txt 0032
template Vector {
 <3d82ab5e-62da-11cf-ab39-0020af71e433>
 FLOAT x;
 FLOAT y;
 FLOAT z;
}

template MeshFace {
 <3d82ab5f-62da-11cf-ab39-0020af71e433>
 DWORD nFaceVertexIndices;
 array DWORD faceVertexIndices[nFaceVertexIndices];
}

template Mesh {
 <3d82ab44-62da-11cf-ab39-0020af71e433>
 DWORD nVertices;
 array Vector vertices[nVertices];
 DWORD nFaces;
 array MeshFace faces[nFaces];
 [...]
}

template ColorRGBA {
 <35ff44e0-6c7c-11cf-8f52-0040333594a3>
 FLOAT red;
 FLOAT green;
 FLOAT blue;
 FLOAT alpha;
}

template ColorRGB {
 <d3e16e81-7835-11cf-8f52-0040333594a3>
 FLOAT red;
 FLOAT green;
 FLOAT blue;
}

template Material {
 <3d82ab4d-62da-11cf-ab39-0020af71e433>
 ColorRGBA faceColor;
 FLOAT power;
 ColorRGB specularColor;
 ColorRGB emissiveColor;
 [...]
}

template MeshMaterialList {
 <f6f23f42-7686-11cf-8f52-0040333594a3>
 DWORD nMaterials;
 DWORD nFaceIndexes;
 array DWORD faceIndexes[nFaceIndexes];
 [Material <3d82ab4d-62da-11cf-ab39-0020af71e433>]
}

template TextureFilename {
 <a42790e1-7810-11cf-8f52-0040333594a3>
 STRING filename;
}

template Coords2d {
 <f6f23f44-7686-11cf-8f52-0040333594a3>
 FLOAT u;
 FLOAT v;
}

template MeshTextureCoords {
 <f6f23f40-7686-11cf-8f52-0040333594a3>
 DWORD nTextureCoords;
 array Coords2d textureCoords[nTextureCoords];
}

template MeshNormals {
 <f6f23f43-7686-11cf-8f52-0040333594a3>
 DWORD nNormals;
 array Vector normals[nNormals];
 DWORD nFaceNormals;
 array MeshFace faceNormals[nFaceNormals];
}


Mesh  {
 66;
 1.500000;-0.450000;-0.050000;,
 1.500000;0.991820;-0.050000;,
 2.700000;0.991820;-0.050000;,
 1.486124;-0.450000;4.000000;,
 1.486124;0.920000;4.000000;,
 2.686124;0.920000;4.000000;,
 1.486124;-0.450000;4.000000;,
 1.486124;0.920000;4.000000;,
 1.886124;0.920000;4.000000;,
 1.482800;-0.450000;4.970000;,
 1.482800;0.920000;4.970000;,
 1.882800;0.920000;4.970000;,
 1.474200;-0.450000;9.990000;,
 1.474200;0.920000;9.990000;,
 1.874200;0.920000;9.990000;,
 1.474200;-0.450000;11.300000;,
 1.474200;0.920000;11.300000;,
 1.874200;0.920000;11.300000;,
 1.478123;-1.820000;17.299999;,
 1.478123;-0.450000;17.299999;,
 1.878123;-0.450000;17.299999;,
 8.925400;-0.450000;0.000000;,
 8.925400;0.991820;0.000000;,
 7.725400;0.991820;0.000000;,
 8.817800;-0.450000;4.000000;,
 8.817800;0.920000;4.000000;,
 7.617800;0.920000;4.000000;,
 8.817800;-0.450000;4.000000;,
 8.817800;0.920000;4.000000;,
 8.417800;0.920000;4.000000;,
 8.621430;-0.450000;11.300000;,
 8.621430;0.920000;11.300000;,
 8.221430;0.920000;11.300000;,
 8.460030;-1.820000;17.299999;,
 8.460030;-0.450000;17.299999;,
 8.060030;-0.450000;17.299999;,
 2.700000;0.991820;-0.050000;,
 2.686124;0.920000;4.000000;,
 7.725400;0.991820;0.000000;,
 7.617800;0.920000;4.000000;,
 1.886124;0.920000;4.000000;,
 1.882800;0.920000;4.970000;,
 1.874200;0.920000;9.990000;,
 1.874200;0.920000;11.300000;,
 2.400000;0.920000;4.000000;,
 2.400000;0.920000;11.300000;,
 8.417800;0.920000;4.000000;,
 8.221430;0.920000;11.300000;,
 7.917800;0.920000;4.000000;,
 7.721430;0.920000;11.300000;,
 2.400000;0.920000;4.000000;,
 2.400000;0.920000;11.300000;,
 7.917800;0.920000;4.000000;,
 7.721430;0.920000;11.300000;,
 1.874200;0.920000;11.300000;,
 1.878123;-0.450000;17.299999;,
 8.221430;0.920000;11.300000;,
 8.060030;-0.450000;17.299999;,
 1.900000;0.920000;11.300000;,
 1.900000;2.420000;11.300000;,
 8.221430;0.920000;11.300000;,
 8.221430;2.420000;11.300000;,
 1.920000;1.100000;11.310000;,
 1.920000;2.350000;11.310000;,
 8.201430;1.100000;11.310000;,
 8.201430;2.350000;11.310000;;
 48;
 3;3,4,1;,
 3;3,1,0;,
 3;4,5,2;,
 3;4,2,1;,
 3;9,10,7;,
 3;9,7,6;,
 3;10,11,8;,
 3;10,8,7;,
 3;12,13,10;,
 3;12,10,9;,
 3;13,14,11;,
 3;13,11,10;,
 3;15,16,13;,
 3;15,13,12;,
 3;16,17,14;,
 3;16,14,13;,
 3;18,19,16;,
 3;18,16,15;,
 3;19,20,17;,
 3;19,17,16;,
 3;21,22,25;,
 3;21,25,24;,
 3;22,23,26;,
 3;22,26,25;,
 3;27,28,31;,
 3;27,31,30;,
 3;28,29,32;,
 3;28,32,31;,
 3;30,31,34;,
 3;30,34,33;,
 3;31,32,35;,
 3;31,35,34;,
 3;36,37,39;,
 3;36,39,38;,
 3;40,41,42;,
 3;40,42,43;,
 3;40,43,45;,
 3;40,45,44;,
 3;48,49,47;,
 3;48,47,46;,
 3;50,51,53;,
 3;50,53,52;,
 3;54,55,57;,
 3;54,57,56;,
 3;58,59,61;,
 3;58,61,60;,
 3;62,63,65;,
 3;62,65,64;;

 MeshMaterialList  {
  11;
  48;
  0,
  0,
  0,
  0,
  1,
  1,
  1,
  1,
  1,
  1,
  1,
  1,
  1,
  1,
  1,
  1,
  1,
  1,
  1,
  1,
  2,
  2,
  2,
  2,
  3,
  3,
  3,
  3,
  3,
  3,
  3,
  3,
  4,
  4,
  5,
  5,
  5,
  5,
  6,
  6,
  7,
  7,
  8,
  8,
  9,
  9,
  10,
  10;

  Material  {
   1.000000;1.000000;1.000000;1.000000;;
   0.000000;
   0.000000;0.000000;0.000000;;
   0.000000;0.000000;0.000000;;

   TextureFilename  {
    "FormSide2.png";
   }
  }

  Material  {
   1.000000;1.000000;1.000000;1.000000;;
   0.000000;
   0.000000;0.000000;0.000000;;
   0.000000;0.000000;0.000000;;

   TextureFilename  {
    "FormSide1.png";
   }
  }

  Material  {
   1.000000;1.000000;1.000000;1.000000;;
   0.000000;
   0.000000;0.000000;0.000000;;
   0.000000;0.000000;0.000000;;

   TextureFilename  {
    "FormSide2.png";
   }
  }

  Material  {
   1.000000;1.000000;1.000000;1.000000;;
   0.000000;
   0.000000;0.000000;0.000000;;
   0.000000;0.000000;0.000000;;

   TextureFilename  {
    "FormSide1.png";
   }
  }

  Material  {
   1.000000;1.000000;1.000000;1.000000;;
   0.000000;
   0.000000;0.000000;0.000000;;
   0.000000;0.000000;0.000000;;

   TextureFilename  {
    "FormC3.png";
   }
  }

  Material  {
   1.000000;1.000000;1.000000;1.000000;;
   0.000000;
   0.000000;0.000000;0.000000;;
   0.000000;0.000000;0.000000;;

   TextureFilename  {
    "FormC2.png";
   }
  }

  Material  {
   1.000000;1.000000;1.000000;1.000000;;
   0.000000;
   0.000000;0.000000;0.000000;;
   0.000000;0.000000;0.000000;;

   TextureFilename  {
    "FormC2.png";
   }
  }

  Material  {
   1.000000;1.000000;1.000000;1.000000;;
   0.000000;
   0.000000;0.000000;0.000000;;
   0.000000;0.000000;0.000000;;

   TextureFilename  {
    "FormC2.png";
   }
  }

  Material  {
   1.000000;1.000000;1.000000;1.000000;;
   0.000000;
   0.000000;0.000000;0.000000;;
   0.000000;0.000000;0.000000;;

   TextureFilename  {
    "FormC1.png";
   }
  }

  Material  {
   1.000000;1.000000;1.000000;1.000000;;
   0.000000;
   0.000000;0.000000;0.000000;;
   0.000000;0.000000;0.000000;;

   TextureFilename  {
    "Saku1.png";
   }
  }

  Material  {
   0.250980;0.250980;0.250980;0.501961;;
   0.000000;
   0.000000;0.000000;0.000000;;
   0.000000;0.000000;0.000000;;
  }
 }

 MeshTextureCoords  {
  66;
  -0.006250;1.000000;,
  -0.006250;0.250000;,
  -0.006250;0.020000;,
  0.500000;1.000000;,
  0.500000;0.250000;,
  0.500000;0.020000;,
  0.500000;1.000000;,
  0.500000;0.093750;,
  0.500000;0.000000;,
  0.621250;1.000000;,
  0.621250;0.093750;,
  0.621250;0.000000;,
  1.248750;1.000000;,
  1.248750;0.093750;,
  1.248750;0.000000;,
  1.412500;1.000000;,
  1.412500;0.093750;,
  1.412500;0.000000;,
  2.162500;1.000000;,
  2.162500;0.093750;,
  2.162500;0.000000;,
  0.000000;1.000000;,
  0.000000;0.250000;,
  0.000000;0.020000;,
  0.500000;1.000000;,
  0.500000;0.250000;,
  0.500000;0.020000;,
  0.000000;1.000000;,
  0.000000;0.093750;,
  0.000000;0.000000;,
  1.412500;1.000000;,
  1.412500;0.093750;,
  1.412500;0.000000;,
  2.162500;1.000000;,
  2.162500;0.093750;,
  2.162500;0.000000;,
  0.000000;0.000000;,
  0.000000;0.161677;,
  1.000000;0.000000;,
  1.000000;0.161677;,
  0.000000;0.900000;,
  0.132877;0.900000;,
  0.820548;0.900000;,
  1.000000;0.900000;,
  0.000000;0.000000;,
  1.000000;0.000000;,
  0.000000;0.900000;,
  1.000000;0.900000;,
  0.000000;0.000000;,
  1.000000;0.000000;,
  1.000000;0.200000;,
  0.000000;0.200000;,
  1.000000;0.900000;,
  0.000000;0.900000;,
  0.000000;1.000000;,
  0.000000;0.000000;,
  1.000000;1.000000;,
  1.000000;0.000000;,
  1.025000;1.000000;,
  1.025000;0.000000;,
  0.006000;1.000000;,
  0.006000;0.000000;,
  0.000000;0.000000;,
  0.000000;0.000000;,
  0.000000;0.000000;,
  0.000000;0.000000;;
 }

 MeshNormals  {
  48;
  -0.999994;0.000000;-0.003426;,
  -0.999994;0.000000;-0.003426;,
  0.000000;0.999843;0.017731;,
  0.000000;0.999843;0.017731;,
  -0.999994;0.000000;-0.003426;,
  -0.999994;0.000000;-0.003426;,
  0.000000;1.000000;0.000000;,
  0.000000;1.000000;0.000000;,
  -0.999999;0.000000;-0.001713;,
  -0.999999;0.000000;-0.001713;,
  0.000000;1.000000;0.000000;,
  0.000000;1.000000;0.000000;,
  -1.000000;0.000000;0.000000;,
  -1.000000;0.000000;0.000000;,
  0.000000;1.000000;0.000000;,
  0.000000;1.000000;0.000000;,
  -1.000000;0.000000;0.000654;,
  -1.000000;0.000000;0.000654;,
  0.000000;0.974909;0.222604;,
  0.000000;0.974909;0.222604;,
  0.999638;0.000000;0.026890;,
  0.999638;0.000000;0.026890;,
  0.000000;0.999839;0.017952;,
  0.000000;0.999839;0.017952;,
  0.999638;0.000000;0.026890;,
  0.999638;0.000000;0.026890;,
  0.000000;1.000000;0.000000;,
  0.000000;1.000000;0.000000;,
  0.999638;0.000000;0.026890;,
  0.999638;0.000000;0.026890;,
  0.000000;0.974909;0.222604;,
  0.000000;0.974909;0.222604;,
  0.000000;0.999843;0.017731;,
  -0.000179;0.999839;0.017947;,
  0.000000;1.000000;0.000000;,
  0.000000;1.000000;0.000000;,
  0.000000;1.000000;0.000000;,
  0.000000;1.000000;0.000000;,
  0.000000;1.000000;0.000000;,
  0.000000;1.000000;0.000000;,
  0.000000;1.000000;0.000000;,
  0.000000;1.000000;0.000000;,
  0.000000;0.974909;0.222604;,
  0.000000;0.974909;0.222604;,
  0.000000;0.000000;-1.000000;,
  0.000000;0.000000;-1.000000;,
  0.000000;0.000000;-1.000000;,
  0.000000;0.000000;-1.000000;;
  48;
  3;0,0,0;,
  3;1,1,1;,
  3;2,2,2;,
  3;3,3,3;,
  3;4,4,4;,
  3;5,5,5;,
  3;6,6,6;,
  3;7,7,7;,
  3;8,8,8;,
  3;9,9,9;,
  3;10,10,10;,
  3;11,11,11;,
  3;12,12,12;,
  3;13,13,13;,
  3;14,14,14;,
  3;15,15,15;,
  3;16,16,16;,
  3;17,17,17;,
  3;18,18,18;,
  3;19,19,19;,
  3;20,20,20;,
  3;21,21,21;,
  3;22,22,22;,
  3;23,23,23;,
  3;24,24,24;,
  3;25,25,25;,
  3;26,26,26;,
  3;27,27,27;,
  3;28,28,28;,
  3;29,29,29;,
  3;30,30,30;,
  3;31,31,31;,
  3;32,32,32;,
  3;33,33,33;,
  3;34,34,34;,
  3;35,35,35;,
  3;36,36,36;,
  3;37,37,37;,
  3;38,38,38;,
  3;39,39,39;,
  3;40,40,40;,
  3;41,41,41;,
  3;42,42,42;,
  3;43,43,43;,
  3;44,44,44;,
  3;45,45,45;,
  3;46,46,46;,
  3;47,47,47;;
 }
}