xof 0303txt 0032
template Vector {
 <3d82ab5e-62da-11cf-ab39-0020af71e433>
 FLOAT x;
 FLOAT y;
 FLOAT z;
}

template MeshFace {
 <3d82ab5f-62da-11cf-ab39-0020af71e433>
 DWORD nFaceVertexIndices;
 array DWORD faceVertexIndices[nFaceVertexIndices];
}

template Mesh {
 <3d82ab44-62da-11cf-ab39-0020af71e433>
 DWORD nVertices;
 array Vector vertices[nVertices];
 DWORD nFaces;
 array MeshFace faces[nFaces];
 [...]
}

template ColorRGBA {
 <35ff44e0-6c7c-11cf-8f52-0040333594a3>
 FLOAT red;
 FLOAT green;
 FLOAT blue;
 FLOAT alpha;
}

template ColorRGB {
 <d3e16e81-7835-11cf-8f52-0040333594a3>
 FLOAT red;
 FLOAT green;
 FLOAT blue;
}

template Material {
 <3d82ab4d-62da-11cf-ab39-0020af71e433>
 ColorRGBA faceColor;
 FLOAT power;
 ColorRGB specularColor;
 ColorRGB emissiveColor;
 [...]
}

template MeshMaterialList {
 <f6f23f42-7686-11cf-8f52-0040333594a3>
 DWORD nMaterials;
 DWORD nFaceIndexes;
 array DWORD faceIndexes[nFaceIndexes];
 [Material <3d82ab4d-62da-11cf-ab39-0020af71e433>]
}

template TextureFilename {
 <a42790e1-7810-11cf-8f52-0040333594a3>
 STRING filename;
}

template Coords2d {
 <f6f23f44-7686-11cf-8f52-0040333594a3>
 FLOAT u;
 FLOAT v;
}

template MeshTextureCoords {
 <f6f23f40-7686-11cf-8f52-0040333594a3>
 DWORD nTextureCoords;
 array Coords2d textureCoords[nTextureCoords];
}

template MeshNormals {
 <f6f23f43-7686-11cf-8f52-0040333594a3>
 DWORD nNormals;
 array Vector normals[nNormals];
 DWORD nFaceNormals;
 array MeshFace faceNormals[nFaceNormals];
}


Mesh  {
 46;
 1.500000;-0.450000;-0.050000;,
 1.500000;1.100000;-0.050000;,
 2.700000;1.100000;-0.050000;,
 1.477100;-0.450000;4.970000;,
 1.477100;1.100000;4.970000;,
 2.677100;1.100000;4.970000;,
 1.465600;-0.450000;9.990000;,
 1.465600;1.100000;9.990000;,
 2.665600;1.100000;9.990000;,
 1.465600;-0.450000;15.010000;,
 1.465600;1.100000;15.010000;,
 2.665600;1.100000;15.010000;,
 1.474740;-0.450000;19.000000;,
 1.474740;1.100000;19.000000;,
 2.674741;1.100000;19.000000;,
 1.474740;-0.450000;19.000000;,
 1.474740;1.100000;19.000000;,
 2.674741;1.100000;19.000000;,
 1.477100;-0.450000;20.030001;,
 1.477100;1.081460;20.030001;,
 2.677100;1.081460;20.030001;,
 1.500000;-0.450000;25.010000;,
 1.500000;0.991820;25.010000;,
 2.700000;0.991820;25.010000;,
 9.349300;-0.450000;0.000000;,
 9.349300;1.100000;0.000000;,
 8.149300;1.100000;0.000000;,
 9.027113;-0.450000;19.000000;,
 9.027113;1.100000;19.000000;,
 7.827113;1.100000;19.000000;,
 9.027113;-0.450000;19.000000;,
 9.027113;1.100000;19.000000;,
 7.827113;1.100000;19.000000;,
 8.925200;-0.450000;25.010000;,
 8.925200;0.991820;25.010000;,
 7.725200;0.991820;25.010000;,
 2.700000;1.100000;-0.050000;,
 2.677100;1.100000;4.970000;,
 2.665600;1.100000;9.990000;,
 2.665600;1.100000;15.010000;,
 2.674741;1.100000;19.000000;,
 2.677100;1.081460;20.030001;,
 2.700000;0.991820;25.010000;,
 8.149300;1.100000;0.000000;,
 7.827113;1.100000;19.000000;,
 7.725200;0.991820;25.010000;;
 40;
 3;3,4,1;,
 3;3,1,0;,
 3;4,5,2;,
 3;4,2,1;,
 3;6,7,4;,
 3;6,4,3;,
 3;7,8,5;,
 3;7,5,4;,
 3;9,10,7;,
 3;9,7,6;,
 3;10,11,8;,
 3;10,8,7;,
 3;12,13,10;,
 3;12,10,9;,
 3;13,14,11;,
 3;13,11,10;,
 3;18,19,16;,
 3;18,16,15;,
 3;19,20,17;,
 3;19,17,16;,
 3;21,22,19;,
 3;21,19,18;,
 3;22,23,20;,
 3;22,20,19;,
 3;24,25,28;,
 3;24,28,27;,
 3;25,26,29;,
 3;25,29,28;,
 3;30,31,34;,
 3;30,34,33;,
 3;31,32,35;,
 3;31,35,34;,
 3;36,37,38;,
 3;36,38,39;,
 3;36,39,40;,
 3;36,40,44;,
 3;36,44,43;,
 3;40,41,42;,
 3;40,42,45;,
 3;40,45,44;;

 MeshMaterialList  {
  5;
  40;
  0,
  0,
  0,
  0,
  0,
  0,
  0,
  0,
  0,
  0,
  0,
  0,
  0,
  0,
  0,
  0,
  1,
  1,
  1,
  1,
  1,
  1,
  1,
  1,
  2,
  2,
  2,
  2,
  3,
  3,
  3,
  3,
  4,
  4,
  4,
  4,
  4,
  4,
  4,
  4;

  Material  {
   1.000000;1.000000;1.000000;1.000000;;
   0.000000;
   0.000000;0.000000;0.000000;;
   0.000000;0.000000;0.000000;;

   TextureFilename  {
    "FormSide3.png";
   }
  }

  Material  {
   1.000000;1.000000;1.000000;1.000000;;
   0.000000;
   0.000000;0.000000;0.000000;;
   0.000000;0.000000;0.000000;;

   TextureFilename  {
    "FormSide2.png";
   }
  }

  Material  {
   1.000000;1.000000;1.000000;1.000000;;
   0.000000;
   0.000000;0.000000;0.000000;;
   0.000000;0.000000;0.000000;;

   TextureFilename  {
    "FormSide3.png";
   }
  }

  Material  {
   1.000000;1.000000;1.000000;1.000000;;
   0.000000;
   0.000000;0.000000;0.000000;;
   0.000000;0.000000;0.000000;;

   TextureFilename  {
    "FormSide2.png";
   }
  }

  Material  {
   1.000000;1.000000;1.000000;1.000000;;
   0.000000;
   0.000000;0.000000;0.000000;;
   0.000000;0.000000;0.000000;;

   TextureFilename  {
    "FormC3.png";
   }
  }
 }

 MeshTextureCoords  {
  46;
  -0.006250;1.000000;,
  -0.006250;0.250000;,
  -0.006250;0.020000;,
  0.621250;1.000000;,
  0.621250;0.250000;,
  0.621250;0.020000;,
  1.248750;1.000000;,
  1.248750;0.250000;,
  1.248750;0.020000;,
  1.876250;1.000000;,
  1.876250;0.250000;,
  1.876250;0.020000;,
  2.375000;1.000000;,
  2.375000;0.250000;,
  2.375000;0.020000;,
  2.375000;1.000000;,
  2.375000;0.250000;,
  2.375000;0.020000;,
  2.503750;1.000000;,
  2.503750;0.250000;,
  2.503750;0.020000;,
  3.126250;1.000000;,
  3.126250;0.250000;,
  3.126250;0.020000;,
  0.000000;1.000000;,
  0.000000;0.250000;,
  0.000000;0.020000;,
  2.375000;1.000000;,
  2.375000;0.250000;,
  2.375000;0.020000;,
  2.375000;1.000000;,
  2.375000;0.250000;,
  2.375000;0.020000;,
  3.125000;1.000000;,
  3.125000;0.250000;,
  3.125000;0.020000;,
  0.000000;0.000000;,
  0.000000;0.200319;,
  0.000000;0.400638;,
  0.000000;0.600958;,
  0.000000;0.760176;,
  0.000000;0.801277;,
  0.000000;1.000000;,
  1.000000;0.001995;,
  1.000000;0.760176;,
  1.000000;1.000000;;
 }

 MeshNormals  {
  40;
  -0.999989;0.000000;-0.004562;,
  -0.999989;0.000000;-0.004562;,
  0.000000;1.000000;0.000000;,
  0.000000;1.000000;0.000000;,
  -0.999997;0.000000;-0.002291;,
  -0.999997;0.000000;-0.002291;,
  0.000000;1.000000;0.000000;,
  0.000000;1.000000;0.000000;,
  -1.000000;0.000000;0.000000;,
  -1.000000;0.000000;0.000000;,
  0.000000;1.000000;0.000000;,
  0.000000;1.000000;0.000000;,
  -0.999997;0.000000;0.002291;,
  -0.999997;0.000000;0.002291;,
  0.000000;1.000000;0.000000;,
  0.000000;1.000000;0.000000;,
  -0.999997;0.000000;0.002291;,
  -0.999997;0.000000;0.002291;,
  0.000000;0.999838;0.017997;,
  0.000000;0.999838;0.017997;,
  -0.999989;0.000000;0.004598;,
  -0.999989;0.000000;0.004598;,
  0.000000;0.999838;0.017997;,
  0.000000;0.999838;0.017997;,
  0.999856;0.000000;0.016955;,
  0.999856;0.000000;0.016955;,
  0.000000;1.000000;0.000000;,
  0.000000;1.000000;0.000000;,
  0.999856;0.000000;0.016955;,
  0.999856;0.000000;0.016955;,
  0.000000;0.999838;0.017997;,
  0.000000;0.999838;0.017997;,
  0.000000;1.000000;0.000000;,
  0.000000;1.000000;0.000000;,
  0.000000;1.000000;0.000000;,
  0.000000;1.000000;0.000000;,
  0.000000;1.000000;0.000000;,
  -0.000003;0.999838;0.017997;,
  0.000000;0.999838;0.017997;,
  0.000000;0.999838;0.017997;;
  40;
  3;0,0,0;,
  3;1,1,1;,
  3;2,2,2;,
  3;3,3,3;,
  3;4,4,4;,
  3;5,5,5;,
  3;6,6,6;,
  3;7,7,7;,
  3;8,8,8;,
  3;9,9,9;,
  3;10,10,10;,
  3;11,11,11;,
  3;12,12,12;,
  3;13,13,13;,
  3;14,14,14;,
  3;15,15,15;,
  3;16,16,16;,
  3;17,17,17;,
  3;18,18,18;,
  3;19,19,19;,
  3;20,20,20;,
  3;21,21,21;,
  3;22,22,22;,
  3;23,23,23;,
  3;24,24,24;,
  3;25,25,25;,
  3;26,26,26;,
  3;27,27,27;,
  3;28,28,28;,
  3;29,29,29;,
  3;30,30,30;,
  3;31,31,31;,
  3;32,32,32;,
  3;33,33,33;,
  3;34,34,34;,
  3;35,35,35;,
  3;36,36,36;,
  3;37,37,37;,
  3;38,38,38;,
  3;39,39,39;;
 }
}