xof 0303txt 0032
template Vector {
 <3d82ab5e-62da-11cf-ab39-0020af71e433>
 FLOAT x;
 FLOAT y;
 FLOAT z;
}

template MeshFace {
 <3d82ab5f-62da-11cf-ab39-0020af71e433>
 DWORD nFaceVertexIndices;
 array DWORD faceVertexIndices[nFaceVertexIndices];
}

template Mesh {
 <3d82ab44-62da-11cf-ab39-0020af71e433>
 DWORD nVertices;
 array Vector vertices[nVertices];
 DWORD nFaces;
 array MeshFace faces[nFaces];
 [...]
}

template ColorRGBA {
 <35ff44e0-6c7c-11cf-8f52-0040333594a3>
 FLOAT red;
 FLOAT green;
 FLOAT blue;
 FLOAT alpha;
}

template ColorRGB {
 <d3e16e81-7835-11cf-8f52-0040333594a3>
 FLOAT red;
 FLOAT green;
 FLOAT blue;
}

template Material {
 <3d82ab4d-62da-11cf-ab39-0020af71e433>
 ColorRGBA faceColor;
 FLOAT power;
 ColorRGB specularColor;
 ColorRGB emissiveColor;
 [...]
}

template MeshMaterialList {
 <f6f23f42-7686-11cf-8f52-0040333594a3>
 DWORD nMaterials;
 DWORD nFaceIndexes;
 array DWORD faceIndexes[nFaceIndexes];
 [Material <3d82ab4d-62da-11cf-ab39-0020af71e433>]
}

template TextureFilename {
 <a42790e1-7810-11cf-8f52-0040333594a3>
 STRING filename;
}

template Coords2d {
 <f6f23f44-7686-11cf-8f52-0040333594a3>
 FLOAT u;
 FLOAT v;
}

template MeshTextureCoords {
 <f6f23f40-7686-11cf-8f52-0040333594a3>
 DWORD nTextureCoords;
 array Coords2d textureCoords[nTextureCoords];
}

template MeshNormals {
 <f6f23f43-7686-11cf-8f52-0040333594a3>
 DWORD nNormals;
 array Vector normals[nNormals];
 DWORD nFaceNormals;
 array MeshFace faceNormals[nFaceNormals];
}


Mesh  {
 33;
 1.500000;-1.820000;-6.000000;,
 1.500000;-0.450000;-6.000000;,
 1.900000;-0.450000;-6.000000;,
 1.500000;-0.450000;0.000000;,
 1.500000;0.920000;0.000000;,
 1.900000;0.920000;0.000000;,
 1.500000;-0.450000;17.500000;,
 1.500000;0.920000;17.500000;,
 1.900000;0.920000;17.500000;,
 1.900000;-0.450000;-6.000000;,
 1.900000;0.920000;0.000000;,
 7.300000;-0.450000;-6.000000;,
 7.300000;0.920000;0.000000;,
 1.900000;0.920000;0.000000;,
 1.900000;0.920000;17.500000;,
 2.400000;0.920000;0.000000;,
 2.400000;0.920000;17.500000;,
 2.400000;0.920000;0.000000;,
 2.400000;0.920000;17.500000;,
 7.300000;0.920000;0.000000;,
 7.300000;0.920000;17.500000;,
 1.900000;0.920000;0.000000;,
 1.900000;2.420000;0.000000;,
 7.300000;0.920000;0.000000;,
 7.300000;2.420000;0.000000;,
 7.300000;0.920000;0.000000;,
 7.300000;2.320000;0.000000;,
 7.300000;0.920000;17.500000;,
 7.300000;2.320000;17.500000;,
 1.920000;1.100000;0.000000;,
 1.920000;2.350000;0.000000;,
 7.280000;1.100000;0.000000;,
 7.280000;2.350000;0.000000;;
 20;
 3;3,4,1;,
 3;3,1,0;,
 3;4,5,2;,
 3;4,2,1;,
 3;6,7,4;,
 3;6,4,3;,
 3;7,8,5;,
 3;7,5,4;,
 3;9,10,12;,
 3;9,12,11;,
 3;13,14,16;,
 3;13,16,15;,
 3;17,18,20;,
 3;17,20,19;,
 3;21,22,24;,
 3;21,24,23;,
 3;27,28,26;,
 3;27,26,25;,
 3;29,30,32;,
 3;29,32,31;;

 MeshMaterialList  {
  7;
  20;
  0,
  0,
  0,
  0,
  0,
  0,
  0,
  0,
  1,
  1,
  2,
  2,
  3,
  3,
  4,
  4,
  5,
  5,
  6,
  6;

  Material  {
   1.000000;1.000000;1.000000;1.000000;;
   0.000000;
   0.000000;0.000000;0.000000;;
   0.000000;0.000000;0.000000;;

   TextureFilename  {
    "FormSide1.png";
   }
  }

  Material  {
   1.000000;1.000000;1.000000;1.000000;;
   0.000000;
   0.000000;0.000000;0.000000;;
   0.000000;0.000000;0.000000;;

   TextureFilename  {
    "FormC1.png";
   }
  }

  Material  {
   1.000000;1.000000;1.000000;1.000000;;
   0.000000;
   0.000000;0.000000;0.000000;;
   0.000000;0.000000;0.000000;;

   TextureFilename  {
    "FormC2.png";
   }
  }

  Material  {
   1.000000;1.000000;1.000000;1.000000;;
   0.000000;
   0.000000;0.000000;0.000000;;
   0.000000;0.000000;0.000000;;

   TextureFilename  {
    "FormC2.png";
   }
  }

  Material  {
   1.000000;1.000000;1.000000;1.000000;;
   0.000000;
   0.000000;0.000000;0.000000;;
   0.000000;0.000000;0.000000;;

   TextureFilename  {
    "Saku1.png";
   }
  }

  Material  {
   1.000000;1.000000;1.000000;1.000000;;
   0.000000;
   0.000000;0.000000;0.000000;;
   0.000000;0.000000;0.000000;;

   TextureFilename  {
    "Saku2.png";
   }
  }

  Material  {
   0.250980;0.250980;0.250980;0.501961;;
   0.000000;
   0.000000;0.000000;0.000000;;
   0.000000;0.000000;0.000000;;
  }
 }

 MeshTextureCoords  {
  33;
  0.000000;1.000000;,
  0.000000;0.093750;,
  0.000000;0.000000;,
  0.750000;1.000000;,
  0.750000;0.093750;,
  0.750000;0.000000;,
  2.937500;1.000000;,
  2.937500;0.093750;,
  2.937500;0.000000;,
  0.000000;1.000000;,
  0.000000;0.000000;,
  1.000000;1.000000;,
  1.000000;0.000000;,
  1.000000;1.000000;,
  0.000000;1.000000;,
  1.000000;0.000000;,
  0.000000;0.000000;,
  1.000000;0.200000;,
  0.000000;0.200000;,
  1.000000;0.900000;,
  0.000000;0.900000;,
  1.025000;1.000000;,
  1.025000;0.000000;,
  0.006000;1.000000;,
  0.006000;0.000000;,
  4.025000;1.000000;,
  4.025000;0.040000;,
  0.006000;1.000000;,
  0.006000;0.040000;,
  0.000000;0.000000;,
  0.000000;0.000000;,
  0.000000;0.000000;,
  0.000000;0.000000;;
 }

 MeshNormals  {
  20;
  -1.000000;0.000000;0.000000;,
  -1.000000;0.000000;0.000000;,
  0.000000;0.974909;-0.222604;,
  0.000000;0.974909;-0.222604;,
  -1.000000;0.000000;0.000000;,
  -1.000000;0.000000;0.000000;,
  0.000000;1.000000;0.000000;,
  0.000000;1.000000;0.000000;,
  0.000000;0.974909;-0.222604;,
  0.000000;0.974909;-0.222604;,
  0.000000;1.000000;0.000000;,
  0.000000;1.000000;0.000000;,
  0.000000;1.000000;0.000000;,
  0.000000;1.000000;0.000000;,
  0.000000;0.000000;-1.000000;,
  0.000000;0.000000;-1.000000;,
  -1.000000;0.000000;0.000000;,
  -1.000000;0.000000;0.000000;,
  0.000000;0.000000;-1.000000;,
  0.000000;0.000000;-1.000000;;
  20;
  3;0,0,0;,
  3;1,1,1;,
  3;2,2,2;,
  3;3,3,3;,
  3;4,4,4;,
  3;5,5,5;,
  3;6,6,6;,
  3;7,7,7;,
  3;8,8,8;,
  3;9,9,9;,
  3;10,10,10;,
  3;11,11,11;,
  3;12,12,12;,
  3;13,13,13;,
  3;14,14,14;,
  3;15,15,15;,
  3;16,16,16;,
  3;17,17,17;,
  3;18,18,18;,
  3;19,19,19;;
 }
}