xof 0303txt 0032
template Vector {
 <3d82ab5e-62da-11cf-ab39-0020af71e433>
 FLOAT x;
 FLOAT y;
 FLOAT z;
}

template MeshFace {
 <3d82ab5f-62da-11cf-ab39-0020af71e433>
 DWORD nFaceVertexIndices;
 array DWORD faceVertexIndices[nFaceVertexIndices];
}

template Mesh {
 <3d82ab44-62da-11cf-ab39-0020af71e433>
 DWORD nVertices;
 array Vector vertices[nVertices];
 DWORD nFaces;
 array MeshFace faces[nFaces];
 [...]
}

template ColorRGBA {
 <35ff44e0-6c7c-11cf-8f52-0040333594a3>
 FLOAT red;
 FLOAT green;
 FLOAT blue;
 FLOAT alpha;
}

template ColorRGB {
 <d3e16e81-7835-11cf-8f52-0040333594a3>
 FLOAT red;
 FLOAT green;
 FLOAT blue;
}

template Material {
 <3d82ab4d-62da-11cf-ab39-0020af71e433>
 ColorRGBA faceColor;
 FLOAT power;
 ColorRGB specularColor;
 ColorRGB emissiveColor;
 [...]
}

template MeshMaterialList {
 <f6f23f42-7686-11cf-8f52-0040333594a3>
 DWORD nMaterials;
 DWORD nFaceIndexes;
 array DWORD faceIndexes[nFaceIndexes];
 [Material <3d82ab4d-62da-11cf-ab39-0020af71e433>]
}

template TextureFilename {
 <a42790e1-7810-11cf-8f52-0040333594a3>
 STRING filename;
}

template Coords2d {
 <f6f23f44-7686-11cf-8f52-0040333594a3>
 FLOAT u;
 FLOAT v;
}

template MeshTextureCoords {
 <f6f23f40-7686-11cf-8f52-0040333594a3>
 DWORD nTextureCoords;
 array Coords2d textureCoords[nTextureCoords];
}

template MeshNormals {
 <f6f23f43-7686-11cf-8f52-0040333594a3>
 DWORD nNormals;
 array Vector normals[nNormals];
 DWORD nFaceNormals;
 array MeshFace faceNormals[nFaceNormals];
}


Mesh  {
 46;
 1.478900;-1.820000;11.500000;,
 1.482400;-0.450000;11.500000;,
 1.882400;-0.450000;11.500000;,
 1.482400;-0.450000;17.500000;,
 1.482400;0.920000;17.500000;,
 1.882400;0.920000;17.500000;,
 1.486000;-0.450000;20.030001;,
 1.486000;0.920000;20.030001;,
 1.886000;0.920000;20.030001;,
 1.500000;-0.450000;25.049999;,
 1.500000;0.920000;25.049999;,
 1.900000;0.920000;25.049999;,
 9.513700;-1.820000;11.500000;,
 9.513700;-0.450000;11.500000;,
 9.113700;-0.450000;11.500000;,
 9.534500;-0.450000;17.500000;,
 9.534500;0.920000;17.500000;,
 9.134500;0.920000;17.500000;,
 9.560500;-0.450000;25.049999;,
 9.560500;0.920000;25.049999;,
 9.160500;0.920000;25.049999;,
 1.882400;-0.450000;11.500000;,
 1.882400;0.920000;17.500000;,
 9.113700;-0.450000;11.500000;,
 9.134500;0.920000;17.500000;,
 1.882400;0.920000;17.500000;,
 1.886000;0.920000;20.030001;,
 1.900000;0.920000;25.049999;,
 2.400000;0.920000;17.500000;,
 2.400000;0.920000;25.049999;,
 9.134500;0.920000;17.500000;,
 9.160500;0.920000;25.049999;,
 8.660800;0.920000;17.500000;,
 8.660800;0.920000;25.049999;,
 2.400000;0.920000;17.500000;,
 2.400000;0.920000;25.049999;,
 8.660800;0.920000;17.500000;,
 8.660800;0.920000;25.049999;,
 1.900000;0.920000;17.500000;,
 1.900000;2.420000;17.500000;,
 9.160800;0.920000;17.500000;,
 9.160800;2.420000;17.500000;,
 1.920000;1.100000;17.510000;,
 1.920000;2.350000;17.510000;,
 9.140800;1.100000;17.510000;,
 9.140800;2.350000;17.510000;;
 33;
 3;3,4,1;,
 3;3,1,0;,
 3;4,5,2;,
 3;4,2,1;,
 3;6,7,4;,
 3;6,4,3;,
 3;7,8,5;,
 3;7,5,4;,
 3;9,10,7;,
 3;9,7,6;,
 3;10,11,8;,
 3;10,8,7;,
 3;12,13,16;,
 3;12,16,15;,
 3;13,14,17;,
 3;13,17,16;,
 3;15,16,19;,
 3;15,19,18;,
 3;16,17,20;,
 3;16,20,19;,
 3;21,22,24;,
 3;21,24,23;,
 3;25,26,27;,
 3;25,27,29;,
 3;25,29,28;,
 3;32,33,31;,
 3;32,31,30;,
 3;34,35,37;,
 3;34,37,36;,
 3;38,39,41;,
 3;38,41,40;,
 3;42,43,45;,
 3;42,45,44;;

 MeshMaterialList  {
  8;
  33;
  0,
  0,
  0,
  0,
  0,
  0,
  0,
  0,
  0,
  0,
  0,
  0,
  1,
  1,
  1,
  1,
  1,
  1,
  1,
  1,
  2,
  2,
  3,
  3,
  3,
  4,
  4,
  5,
  5,
  6,
  6,
  7,
  7;

  Material  {
   1.000000;1.000000;1.000000;1.000000;;
   0.000000;
   0.000000;0.000000;0.000000;;
   0.000000;0.000000;0.000000;;

   TextureFilename  {
    "FormSide1.png";
   }
  }

  Material  {
   1.000000;1.000000;1.000000;1.000000;;
   0.000000;
   0.000000;0.000000;0.000000;;
   0.000000;0.000000;0.000000;;

   TextureFilename  {
    "FormSide1.png";
   }
  }

  Material  {
   1.000000;1.000000;1.000000;1.000000;;
   0.000000;
   0.000000;0.000000;0.000000;;
   0.000000;0.000000;0.000000;;

   TextureFilename  {
    "FormC1.png";
   }
  }

  Material  {
   1.000000;1.000000;1.000000;1.000000;;
   0.000000;
   0.000000;0.000000;0.000000;;
   0.000000;0.000000;0.000000;;

   TextureFilename  {
    "FormC2.png";
   }
  }

  Material  {
   1.000000;1.000000;1.000000;1.000000;;
   0.000000;
   0.000000;0.000000;0.000000;;
   0.000000;0.000000;0.000000;;

   TextureFilename  {
    "FormC2.png";
   }
  }

  Material  {
   1.000000;1.000000;1.000000;1.000000;;
   0.000000;
   0.000000;0.000000;0.000000;;
   0.000000;0.000000;0.000000;;

   TextureFilename  {
    "FormC2.png";
   }
  }

  Material  {
   1.000000;1.000000;1.000000;1.000000;;
   0.000000;
   0.000000;0.000000;0.000000;;
   0.000000;0.000000;0.000000;;

   TextureFilename  {
    "Saku1.png";
   }
  }

  Material  {
   0.250980;0.250980;0.250980;0.501961;;
   0.000000;
   0.000000;0.000000;0.000000;;
   0.000000;0.000000;0.000000;;
  }
 }

 MeshTextureCoords  {
  46;
  1.437500;1.000000;,
  1.437500;0.093750;,
  1.437500;0.000000;,
  2.187500;1.000000;,
  2.187500;0.093750;,
  2.187500;0.000000;,
  2.503750;1.000000;,
  2.503750;0.093750;,
  2.503750;0.000000;,
  3.131250;1.000000;,
  3.131250;0.093750;,
  3.131250;0.000000;,
  0.000000;1.000000;,
  0.000000;0.093750;,
  0.000000;0.000000;,
  0.750000;1.000000;,
  0.750000;0.093750;,
  0.750000;0.000000;,
  1.687500;1.000000;,
  1.687500;0.093750;,
  1.687500;0.000000;,
  0.000000;1.000000;,
  0.000000;0.000000;,
  1.000000;1.000000;,
  1.000000;0.000000;,
  1.000000;0.900000;,
  0.335099;0.900000;,
  0.000000;0.900000;,
  1.000000;0.000000;,
  0.000000;0.000000;,
  1.000000;0.900000;,
  0.000000;0.900000;,
  1.000000;0.000000;,
  0.000000;0.000000;,
  1.000000;0.200000;,
  0.000000;0.200000;,
  1.000000;0.900000;,
  0.000000;0.900000;,
  1.025000;1.000000;,
  1.025000;0.000000;,
  0.006000;1.000000;,
  0.006000;0.000000;,
  0.000000;0.000000;,
  0.000000;0.000000;,
  0.000000;0.000000;,
  0.000000;0.000000;;
 }

 MeshNormals  {
  33;
  -1.000000;0.000000;0.000000;,
  -0.999997;0.002555;0.000000;,
  0.000000;0.974909;-0.222604;,
  0.000000;0.974909;-0.222604;,
  -0.999999;0.000000;0.001423;,
  -0.999999;0.000000;0.001423;,
  0.000000;1.000000;0.000000;,
  0.000000;1.000000;0.000000;,
  -0.999996;0.000000;0.002789;,
  -0.999996;0.000000;0.002789;,
  0.000000;1.000000;0.000000;,
  0.000000;1.000000;0.000000;,
  0.999994;0.000000;-0.003467;,
  0.999994;0.000000;-0.003467;,
  0.000000;0.974909;-0.222604;,
  0.000000;0.974909;-0.222604;,
  0.999994;0.000000;-0.003444;,
  0.999994;0.000000;-0.003444;,
  0.000000;1.000000;0.000000;,
  0.000000;1.000000;0.000000;,
  0.000000;0.974909;-0.222604;,
  0.000000;0.974909;-0.222604;,
  0.000000;1.000000;0.000000;,
  0.000000;1.000000;0.000000;,
  0.000000;1.000000;0.000000;,
  0.000000;1.000000;0.000000;,
  0.000000;1.000000;0.000000;,
  0.000000;1.000000;0.000000;,
  0.000000;1.000000;0.000000;,
  0.000000;0.000000;-1.000000;,
  0.000000;0.000000;-1.000000;,
  0.000000;0.000000;-1.000000;,
  0.000000;0.000000;-1.000000;;
  33;
  3;0,0,0;,
  3;1,1,1;,
  3;2,2,2;,
  3;3,3,3;,
  3;4,4,4;,
  3;5,5,5;,
  3;6,6,6;,
  3;7,7,7;,
  3;8,8,8;,
  3;9,9,9;,
  3;10,10,10;,
  3;11,11,11;,
  3;12,12,12;,
  3;13,13,13;,
  3;14,14,14;,
  3;15,15,15;,
  3;16,16,16;,
  3;17,17,17;,
  3;18,18,18;,
  3;19,19,19;,
  3;20,20,20;,
  3;21,21,21;,
  3;22,22,22;,
  3;23,23,23;,
  3;24,24,24;,
  3;25,25,25;,
  3;26,26,26;,
  3;27,27,27;,
  3;28,28,28;,
  3;29,29,29;,
  3;30,30,30;,
  3;31,31,31;,
  3;32,32,32;;
 }
}