xof 0303txt 0032
template Vector {
 <3d82ab5e-62da-11cf-ab39-0020af71e433>
 FLOAT x;
 FLOAT y;
 FLOAT z;
}

template MeshFace {
 <3d82ab5f-62da-11cf-ab39-0020af71e433>
 DWORD nFaceVertexIndices;
 array DWORD faceVertexIndices[nFaceVertexIndices];
}

template Mesh {
 <3d82ab44-62da-11cf-ab39-0020af71e433>
 DWORD nVertices;
 array Vector vertices[nVertices];
 DWORD nFaces;
 array MeshFace faces[nFaces];
 [...]
}

template ColorRGBA {
 <35ff44e0-6c7c-11cf-8f52-0040333594a3>
 FLOAT red;
 FLOAT green;
 FLOAT blue;
 FLOAT alpha;
}

template ColorRGB {
 <d3e16e81-7835-11cf-8f52-0040333594a3>
 FLOAT red;
 FLOAT green;
 FLOAT blue;
}

template Material {
 <3d82ab4d-62da-11cf-ab39-0020af71e433>
 ColorRGBA faceColor;
 FLOAT power;
 ColorRGB specularColor;
 ColorRGB emissiveColor;
 [...]
}

template MeshMaterialList {
 <f6f23f42-7686-11cf-8f52-0040333594a3>
 DWORD nMaterials;
 DWORD nFaceIndexes;
 array DWORD faceIndexes[nFaceIndexes];
 [Material <3d82ab4d-62da-11cf-ab39-0020af71e433>]
}

template TextureFilename {
 <a42790e1-7810-11cf-8f52-0040333594a3>
 STRING filename;
}

template Coords2d {
 <f6f23f44-7686-11cf-8f52-0040333594a3>
 FLOAT u;
 FLOAT v;
}

template MeshTextureCoords {
 <f6f23f40-7686-11cf-8f52-0040333594a3>
 DWORD nTextureCoords;
 array Coords2d textureCoords[nTextureCoords];
}

template MeshNormals {
 <f6f23f43-7686-11cf-8f52-0040333594a3>
 DWORD nNormals;
 array Vector normals[nNormals];
 DWORD nFaceNormals;
 array MeshFace faceNormals[nFaceNormals];
}


Mesh  {
 164;
 3.750000;1.400000;-24.000000;,
 3.750000;0.900000;-24.000000;,
 7.250000;0.900000;-24.000000;,
 3.750000;3.150000;-21.025000;,
 3.750000;2.650000;-21.025000;,
 7.250000;2.650000;-21.025000;,
 3.750000;3.150000;-20.125000;,
 3.750000;2.650000;-20.125000;,
 7.250000;2.650000;-20.125000;,
 3.750000;6.500000;-14.430000;,
 3.750000;6.000000;-14.430000;,
 7.250000;6.000000;-14.430000;,
 3.750000;6.500000;-11.430000;,
 3.750000;6.000000;-11.430000;,
 3.750000;1.400000;-24.000000;,
 3.750000;3.150000;-21.025000;,
 3.750000;3.150000;-20.125000;,
 3.750000;6.500000;-14.430000;,
 3.750000;6.500000;-11.430000;,
 3.750000;3.500000;-24.000000;,
 3.750000;8.600000;-14.430000;,
 3.750000;8.600000;-11.430000;,
 3.950000;0.900000;-24.000000;,
 3.950000;2.650000;-21.025000;,
 3.950000;2.650000;-20.125000;,
 3.950000;6.000000;-14.430000;,
 3.950000;6.000000;-11.430000;,
 3.950000;3.500000;-24.000000;,
 3.950000;8.600000;-14.430000;,
 3.950000;8.600000;-11.430000;,
 7.050000;0.900000;-24.000000;,
 7.050000;2.650000;-21.025000;,
 7.050000;2.650000;-20.125000;,
 7.050000;6.000000;-14.430000;,
 7.050000;3.500000;-24.000000;,
 7.050000;8.600000;-14.430000;,
 7.250000;1.400000;-24.000000;,
 7.250000;0.900000;-24.000000;,
 7.250000;3.150000;-21.025000;,
 7.250000;2.650000;-21.025000;,
 7.250000;3.150000;-20.125000;,
 7.250000;2.650000;-20.125000;,
 7.250000;6.500000;-14.430000;,
 7.250000;6.000000;-14.430000;,
 7.250000;6.500000;-11.430000;,
 7.250000;6.000000;-11.430000;,
 7.250000;1.400000;-24.000000;,
 7.250000;3.150000;-21.025000;,
 7.250000;3.150000;-20.125000;,
 7.250000;6.500000;-14.430000;,
 7.250000;3.500000;-24.000000;,
 7.250000;8.600000;-14.430000;,
 3.750000;0.900000;-24.000000;,
 3.750000;4.500000;-24.000000;,
 3.950000;0.900000;-24.000000;,
 3.950000;4.500000;-24.000000;,
 7.050000;0.900000;-24.000000;,
 7.050000;4.500000;-24.000000;,
 7.250000;0.900000;-24.000000;,
 7.250000;4.500000;-24.000000;,
 3.750000;3.500000;-24.000000;,
 3.750000;8.600000;-14.430000;,
 3.950000;3.500000;-24.000000;,
 3.950000;8.600000;-14.430000;,
 7.050000;3.500000;-24.000000;,
 7.050000;8.600000;-14.430000;,
 7.250000;3.500000;-24.000000;,
 7.250000;8.600000;-14.430000;,
 3.750000;3.500000;-24.000000;,
 3.750000;4.500000;-24.000000;,
 7.250000;4.500000;-24.000000;,
 3.750000;8.600000;-14.430000;,
 3.750000;9.600000;-14.430000;,
 7.250000;9.600000;-14.430000;,
 7.250000;3.500000;-24.000000;,
 7.250000;4.500000;-24.000000;,
 7.250000;8.600000;-14.430000;,
 7.250000;9.600000;-14.430000;,
 5.300000;1.100000;-20.625000;,
 5.300000;2.650000;-20.625000;,
 5.700000;2.650000;-20.625000;,
 5.700000;1.100000;-20.625000;,
 5.100000;1.100000;-12.930000;,
 5.100000;6.000000;-12.930000;,
 5.900000;6.000000;-12.930000;,
 5.900000;1.100000;-12.930000;,
 18.500000;1.400000;-24.000000;,
 18.500000;0.900000;-24.000000;,
 22.000000;0.900000;-24.000000;,
 18.500000;3.150000;-21.025000;,
 18.500000;2.650000;-21.025000;,
 22.000000;2.650000;-21.025000;,
 18.500000;3.150000;-20.125000;,
 18.500000;2.650000;-20.125000;,
 22.000000;2.650000;-20.125000;,
 18.500000;6.500000;-14.430000;,
 18.500000;6.000000;-14.430000;,
 22.000000;6.000000;-14.430000;,
 18.500000;1.400000;-24.000000;,
 18.500000;3.150000;-21.025000;,
 18.500000;3.150000;-20.125000;,
 18.500000;6.500000;-14.430000;,
 18.500000;3.500000;-24.000000;,
 18.500000;8.600000;-14.430000;,
 21.799999;0.900000;-24.000000;,
 21.799999;2.650000;-21.025000;,
 21.799999;2.650000;-20.125000;,
 21.799999;6.000000;-14.430000;,
 21.799999;6.000000;-11.430000;,
 21.799999;3.500000;-24.000000;,
 21.799999;8.600000;-14.430000;,
 21.799999;8.600000;-11.430000;,
 18.500000;0.900000;-24.000000;,
 18.500000;4.500000;-24.000000;,
 18.700001;0.900000;-24.000000;,
 18.700001;4.500000;-24.000000;,
 21.799999;0.900000;-24.000000;,
 21.799999;4.500000;-24.000000;,
 22.000000;0.900000;-24.000000;,
 22.000000;4.500000;-24.000000;,
 18.500000;3.500000;-24.000000;,
 18.500000;8.600000;-14.430000;,
 18.700001;3.500000;-24.000000;,
 18.700001;8.600000;-14.430000;,
 21.799999;3.500000;-24.000000;,
 21.799999;8.600000;-14.430000;,
 22.000000;3.500000;-24.000000;,
 22.000000;8.600000;-14.430000;,
 18.500000;3.500000;-24.000000;,
 18.500000;4.500000;-24.000000;,
 22.000000;4.500000;-24.000000;,
 18.500000;8.600000;-14.430000;,
 18.500000;9.600000;-14.430000;,
 22.000000;9.600000;-14.430000;,
 20.049999;1.100000;-20.625000;,
 20.049999;2.650000;-20.625000;,
 20.450001;2.650000;-20.625000;,
 20.450001;1.100000;-20.625000;,
 19.850000;1.100000;-12.930000;,
 19.850000;6.000000;-12.930000;,
 20.650000;6.000000;-12.930000;,
 20.650000;1.100000;-12.930000;,
 7.250000;6.000000;-14.430000;,
 7.250000;9.600000;-14.430000;,
 18.500000;6.000000;-14.430000;,
 18.500000;9.600000;-14.430000;,
 3.750000;9.600000;-14.430000;,
 3.750000;10.480000;-12.930000;,
 3.750000;9.600000;-11.430000;,
 3.750000;6.000000;-11.430000;,
 3.750000;6.000000;-14.430000;,
 22.000000;9.600000;-14.430000;,
 22.000000;10.480000;-12.930000;,
 22.000000;9.600000;-11.430000;,
 22.000000;6.000000;-11.430000;,
 22.000000;6.000000;-14.430000;,
 2.329100;3.520000;-24.750000;,
 2.329100;3.580000;-24.750000;,
 3.750000;3.520000;-24.000000;,
 3.750000;3.580000;-24.000000;,
 8.274500;3.520000;-24.750000;,
 8.274500;3.580000;-24.750000;,
 7.250000;3.520000;-24.000000;,
 7.250000;3.580000;-24.000000;;
 110;
 3;0,1,4;,
 3;0,4,3;,
 3;4,5,2;,
 3;4,2,1;,
 3;3,4,7;,
 3;3,7,6;,
 3;7,8,5;,
 3;7,5,4;,
 3;6,7,10;,
 3;6,10,9;,
 3;10,11,8;,
 3;10,8,7;,
 3;13,12,9;,
 3;13,9,10;,
 3;14,15,19;,
 3;15,16,20;,
 3;15,20,19;,
 3;16,17,20;,
 3;17,18,21;,
 3;17,21,20;,
 3;27,23,22;,
 3;27,28,24;,
 3;27,24,23;,
 3;28,25,24;,
 3;28,29,26;,
 3;28,26,25;,
 3;30,31,34;,
 3;31,32,35;,
 3;31,35,34;,
 3;32,33,35;,
 3;38,39,37;,
 3;38,37,36;,
 3;40,41,39;,
 3;40,39,38;,
 3;42,43,41;,
 3;42,41,40;,
 3;48,49,45;,
 3;48,45,44;,
 3;49,47,46;,
 3;49,46,45;,
 3;50,51,53;,
 3;50,53,52;,
 3;54,55,57;,
 3;54,57,56;,
 3;58,59,61;,
 3;58,61,60;,
 3;62,63,65;,
 3;62,65,64;,
 3;69,70,67;,
 3;69,67,66;,
 3;70,71,68;,
 3;70,68,67;,
 3;72,73,75;,
 3;72,75,74;,
 3;76,77,78;,
 3;76,78,79;,
 3;80,81,82;,
 3;80,82,83;,
 3;84,85,88;,
 3;84,88,87;,
 3;88,89,86;,
 3;88,86,85;,
 3;87,88,91;,
 3;87,91,90;,
 3;91,92,89;,
 3;91,89,88;,
 3;90,91,94;,
 3;90,94,93;,
 3;94,95,92;,
 3;94,92,91;,
 3;96,97,100;,
 3;97,98,101;,
 3;97,101,100;,
 3;98,99,101;,
 3;102,103,107;,
 3;103,104,108;,
 3;103,108,107;,
 3;104,105,108;,
 3;105,106,109;,
 3;105,109,108;,
 3;110,111,113;,
 3;110,113,112;,
 3;114,115,117;,
 3;114,117,116;,
 3;118,119,121;,
 3;118,121,120;,
 3;122,123,125;,
 3;122,125,124;,
 3;129,130,127;,
 3;129,127,126;,
 3;130,131,128;,
 3;130,128,127;,
 3;132,133,134;,
 3;132,134,135;,
 3;136,137,138;,
 3;136,138,139;,
 3;140,141,143;,
 3;140,143,142;,
 3;144,145,150;,
 3;144,150,149;,
 3;146,145,150;,
 3;146,150,151;,
 3;147,146,151;,
 3;147,151,152;,
 3;147,148,153;,
 3;147,153,152;,
 3;154,155,157;,
 3;154,157,156;,
 3;160,161,159;,
 3;160,159,158;;

 MeshMaterialList  {
  28;
  110;
  0,
  0,
  0,
  0,
  0,
  0,
  0,
  0,
  0,
  0,
  0,
  0,
  0,
  0,
  1,
  1,
  1,
  1,
  1,
  1,
  2,
  2,
  2,
  2,
  2,
  2,
  3,
  3,
  3,
  3,
  4,
  4,
  4,
  4,
  4,
  4,
  5,
  5,
  5,
  5,
  6,
  6,
  7,
  7,
  8,
  8,
  9,
  9,
  10,
  10,
  10,
  10,
  11,
  11,
  12,
  12,
  13,
  13,
  14,
  14,
  14,
  14,
  14,
  14,
  14,
  14,
  14,
  14,
  14,
  14,
  15,
  15,
  15,
  15,
  16,
  16,
  16,
  16,
  16,
  16,
  17,
  17,
  18,
  18,
  19,
  19,
  20,
  20,
  21,
  21,
  21,
  21,
  22,
  22,
  23,
  23,
  24,
  24,
  25,
  25,
  25,
  25,
  25,
  25,
  25,
  25,
  26,
  26,
  27,
  27;

  Material  {
   1.000000;1.000000;1.000000;1.000000;;
   0.000000;
   0.000000;0.000000;0.000000;;
   0.000000;0.000000;0.000000;;

   TextureFilename  {
    "KosenWall2A.png";
   }
  }

  Material  {
   1.000000;1.000000;1.000000;1.000000;;
   0.000000;
   0.000000;0.000000;0.000000;;
   0.000000;0.000000;0.000000;;

   TextureFilename  {
    "KosenWall1A.png";
   }
  }

  Material  {
   1.000000;1.000000;1.000000;1.000000;;
   0.000000;
   0.000000;0.000000;0.000000;;
   0.000000;0.000000;0.000000;;

   TextureFilename  {
    "KosenWall3A.png";
   }
  }

  Material  {
   1.000000;1.000000;1.000000;1.000000;;
   0.000000;
   0.000000;0.000000;0.000000;;
   0.000000;0.000000;0.000000;;

   TextureFilename  {
    "KosenWall3A.png";
   }
  }

  Material  {
   1.000000;1.000000;1.000000;1.000000;;
   0.000000;
   0.000000;0.000000;0.000000;;
   0.000000;0.000000;0.000000;;

   TextureFilename  {
    "KosenWall2A.png";
   }
  }

  Material  {
   1.000000;1.000000;1.000000;1.000000;;
   0.000000;
   0.000000;0.000000;0.000000;;
   0.000000;0.000000;0.000000;;

   TextureFilename  {
    "KosenWall1A.png";
   }
  }

  Material  {
   1.000000;1.000000;1.000000;1.000000;;
   0.000000;
   0.000000;0.000000;0.000000;;
   0.000000;0.000000;0.000000;;

   TextureFilename  {
    "Iron2A.png";
   }
  }

  Material  {
   1.000000;1.000000;1.000000;1.000000;;
   0.000000;
   0.000000;0.000000;0.000000;;
   0.000000;0.000000;0.000000;;

   TextureFilename  {
    "Iron2A.png";
   }
  }

  Material  {
   1.000000;1.000000;1.000000;1.000000;;
   0.000000;
   0.000000;0.000000;0.000000;;
   0.000000;0.000000;0.000000;;

   TextureFilename  {
    "Iron3A.png";
   }
  }

  Material  {
   1.000000;1.000000;1.000000;1.000000;;
   0.000000;
   0.000000;0.000000;0.000000;;
   0.000000;0.000000;0.000000;;

   TextureFilename  {
    "Iron3A.png";
   }
  }

  Material  {
   1.000000;1.000000;1.000000;1.000000;;
   0.000000;
   0.000000;0.000000;0.000000;;
   0.000000;0.000000;0.000000;;

   TextureFilename  {
    "KosenRoof1A.png";
   }
  }

  Material  {
   1.000000;1.000000;1.000000;1.000000;;
   0.000000;
   0.000000;0.000000;0.000000;;
   0.000000;0.000000;0.000000;;

   TextureFilename  {
    "KosenRoof1A.png";
   }
  }

  Material  {
   1.000000;1.000000;1.000000;1.000000;;
   0.000000;
   0.000000;0.000000;0.000000;;
   0.000000;0.000000;0.000000;;

   TextureFilename  {
    "KosenPier1A.png";
   }
  }

  Material  {
   1.000000;1.000000;1.000000;1.000000;;
   0.000000;
   0.000000;0.000000;0.000000;;
   0.000000;0.000000;0.000000;;

   TextureFilename  {
    "KosenPier1A.png";
   }
  }

  Material  {
   1.000000;1.000000;1.000000;1.000000;;
   0.000000;
   0.000000;0.000000;0.000000;;
   0.000000;0.000000;0.000000;;

   TextureFilename  {
    "KosenWall2A.png";
   }
  }

  Material  {
   1.000000;1.000000;1.000000;1.000000;;
   0.000000;
   0.000000;0.000000;0.000000;;
   0.000000;0.000000;0.000000;;

   TextureFilename  {
    "KosenWall1A.png";
   }
  }

  Material  {
   1.000000;1.000000;1.000000;1.000000;;
   0.000000;
   0.000000;0.000000;0.000000;;
   0.000000;0.000000;0.000000;;

   TextureFilename  {
    "KosenWall3A.png";
   }
  }

  Material  {
   1.000000;1.000000;1.000000;1.000000;;
   0.000000;
   0.000000;0.000000;0.000000;;
   0.000000;0.000000;0.000000;;

   TextureFilename  {
    "Iron2A.png";
   }
  }

  Material  {
   1.000000;1.000000;1.000000;1.000000;;
   0.000000;
   0.000000;0.000000;0.000000;;
   0.000000;0.000000;0.000000;;

   TextureFilename  {
    "Iron2A.png";
   }
  }

  Material  {
   1.000000;1.000000;1.000000;1.000000;;
   0.000000;
   0.000000;0.000000;0.000000;;
   0.000000;0.000000;0.000000;;

   TextureFilename  {
    "Iron3A.png";
   }
  }

  Material  {
   1.000000;1.000000;1.000000;1.000000;;
   0.000000;
   0.000000;0.000000;0.000000;;
   0.000000;0.000000;0.000000;;

   TextureFilename  {
    "Iron3A.png";
   }
  }

  Material  {
   1.000000;1.000000;1.000000;1.000000;;
   0.000000;
   0.000000;0.000000;0.000000;;
   0.000000;0.000000;0.000000;;

   TextureFilename  {
    "KosenRoof1A.png";
   }
  }

  Material  {
   1.000000;1.000000;1.000000;1.000000;;
   0.000000;
   0.000000;0.000000;0.000000;;
   0.000000;0.000000;0.000000;;

   TextureFilename  {
    "KosenPier1A.png";
   }
  }

  Material  {
   1.000000;1.000000;1.000000;1.000000;;
   0.000000;
   0.000000;0.000000;0.000000;;
   0.000000;0.000000;0.000000;;

   TextureFilename  {
    "KosenPier1A.png";
   }
  }

  Material  {
   1.000000;1.000000;1.000000;1.000000;;
   0.000000;
   0.000000;0.000000;0.000000;;
   0.000000;0.000000;0.000000;;

   TextureFilename  {
    "KosenWall1A.png";
   }
  }

  Material  {
   1.000000;1.000000;1.000000;1.000000;;
   0.000000;
   0.000000;0.000000;0.000000;;
   0.000000;0.000000;0.000000;;

   TextureFilename  {
    "KosenWall4A.png";
   }
  }

  Material  {
   0.392157;0.392157;0.392157;1.000000;;
   0.000000;
   0.000000;0.000000;0.000000;;
   0.000000;0.000000;0.000000;;
  }

  Material  {
   0.392157;0.392157;0.392157;1.000000;;
   0.000000;
   0.000000;0.000000;0.000000;;
   0.000000;0.000000;0.000000;;
  }
 }

 MeshTextureCoords  {
  164;
  0.000000;0.000000;,
  0.000000;0.780000;,
  0.000000;1.000000;,
  0.700000;0.000000;,
  0.700000;0.780000;,
  0.700000;1.000000;,
  0.700000;0.000000;,
  0.700000;0.780000;,
  0.700000;1.000000;,
  1.500000;0.000000;,
  1.500000;0.780000;,
  1.500000;1.000000;,
  1.500000;0.000000;,
  1.500000;0.780000;,
  0.000000;0.812500;,
  1.244000;0.812500;,
  1.660000;0.812500;,
  4.000000;0.812500;,
  5.000000;0.312500;,
  0.000000;0.312500;,
  4.000000;0.312500;,
  5.000000;0.312500;,
  0.000000;0.656000;,
  0.100000;0.656000;,
  0.200000;0.656000;,
  0.300000;0.656000;,
  0.400000;0.656000;,
  0.000000;0.297000;,
  0.300000;0.297000;,
  0.400000;0.297000;,
  0.000000;0.656000;,
  0.100000;0.656000;,
  0.200000;0.656000;,
  0.300000;0.656000;,
  0.000000;0.297000;,
  0.300000;0.297000;,
  0.000000;0.000000;,
  0.000000;0.780000;,
  0.700000;0.000000;,
  0.700000;0.780000;,
  0.700000;0.000000;,
  0.700000;0.780000;,
  1.500000;0.000000;,
  1.500000;0.780000;,
  1.500000;0.000000;,
  1.500000;0.780000;,
  0.000000;0.812500;,
  1.244000;0.812500;,
  1.660000;0.812500;,
  4.000000;0.812500;,
  0.000000;0.312500;,
  4.000000;0.312500;,
  0.000000;1.000000;,
  0.000000;0.000000;,
  1.000000;1.000000;,
  1.000000;0.000000;,
  0.000000;1.000000;,
  0.000000;0.000000;,
  1.000000;1.000000;,
  1.000000;0.000000;,
  0.000000;1.000000;,
  0.000000;0.000000;,
  1.000000;1.000000;,
  1.000000;0.000000;,
  1.000000;1.000000;,
  1.000000;0.000000;,
  0.000000;1.000000;,
  0.000000;0.000000;,
  0.000000;1.000000;,
  0.000000;0.500000;,
  0.000000;0.008000;,
  6.100000;1.000000;,
  6.100000;0.500000;,
  6.100000;0.008000;,
  0.000000;1.000000;,
  0.000000;0.500000;,
  6.100000;1.000000;,
  6.100000;0.500000;,
  0.000000;1.000000;,
  0.000000;0.000000;,
  1.000000;0.000000;,
  1.000000;1.000000;,
  0.000000;1.000000;,
  0.000000;0.000000;,
  1.000000;0.000000;,
  1.000000;1.000000;,
  0.000000;0.000000;,
  0.000000;0.780000;,
  0.000000;1.000000;,
  0.700000;0.000000;,
  0.700000;0.780000;,
  0.700000;1.000000;,
  0.700000;0.000000;,
  0.700000;0.780000;,
  0.700000;1.000000;,
  1.500000;0.000000;,
  1.500000;0.780000;,
  1.500000;1.000000;,
  0.000000;0.812500;,
  1.244000;0.812500;,
  1.660000;0.812500;,
  4.000000;0.812500;,
  0.000000;0.312500;,
  4.000000;0.312500;,
  0.000000;0.656000;,
  0.100000;0.656000;,
  0.200000;0.656000;,
  0.300000;0.656000;,
  0.400000;0.656000;,
  0.000000;0.297000;,
  0.300000;0.297000;,
  0.400000;0.297000;,
  0.000000;1.000000;,
  0.000000;0.000000;,
  1.000000;1.000000;,
  1.000000;0.000000;,
  0.000000;1.000000;,
  0.000000;0.000000;,
  1.000000;1.000000;,
  1.000000;0.000000;,
  0.000000;1.000000;,
  0.000000;0.000000;,
  1.000000;1.000000;,
  1.000000;0.000000;,
  1.000000;1.000000;,
  1.000000;0.000000;,
  0.000000;1.000000;,
  0.000000;0.000000;,
  0.000000;1.000000;,
  0.000000;0.500000;,
  0.000000;0.008000;,
  6.100000;1.000000;,
  6.100000;0.500000;,
  6.100000;0.008000;,
  0.000000;1.000000;,
  0.000000;0.000000;,
  1.000000;0.000000;,
  1.000000;1.000000;,
  0.000000;1.000000;,
  0.000000;0.000000;,
  1.000000;0.000000;,
  1.000000;1.000000;,
  0.000000;1.000000;,
  0.000000;0.000000;,
  3.000000;1.000000;,
  3.000000;0.000000;,
  0.000000;0.000000;,
  0.000000;0.156250;,
  0.000000;0.312500;,
  0.000000;0.781250;,
  0.000000;1.000000;,
  6.000000;0.000000;,
  6.000000;0.156250;,
  6.000000;0.312500;,
  6.000000;0.781250;,
  6.000000;1.000000;,
  0.000000;0.000000;,
  0.000000;0.000000;,
  0.000000;0.000000;,
  0.000000;0.000000;,
  0.000000;0.000000;,
  0.000000;0.000000;,
  0.000000;0.000000;,
  0.000000;0.000000;;
 }

 MeshNormals  {
  110;
  -1.000000;0.000000;0.000000;,
  -1.000000;0.000000;0.000000;,
  0.000000;0.861934;-0.507020;,
  0.000000;0.861934;-0.507020;,
  -1.000000;0.000000;0.000000;,
  -1.000000;0.000000;0.000000;,
  0.000000;1.000000;0.000000;,
  0.000000;1.000000;0.000000;,
  -1.000000;0.000000;0.000000;,
  -1.000000;0.000000;0.000000;,
  0.000000;0.861934;-0.507020;,
  0.000000;0.861934;-0.507020;,
  -1.000000;0.000000;0.000000;,
  -1.000000;0.000000;0.000000;,
  -1.000000;0.000000;0.000000;,
  -1.000000;0.000000;0.000000;,
  -1.000000;0.000000;0.000000;,
  -1.000000;0.000000;0.000000;,
  -1.000000;0.000000;0.000000;,
  -1.000000;0.000000;0.000000;,
  1.000000;0.000000;0.000000;,
  1.000000;0.000000;0.000000;,
  1.000000;0.000000;0.000000;,
  1.000000;0.000000;0.000000;,
  1.000000;0.000000;0.000000;,
  1.000000;0.000000;0.000000;,
  -1.000000;0.000000;0.000000;,
  -1.000000;0.000000;0.000000;,
  -1.000000;0.000000;0.000000;,
  -1.000000;0.000000;0.000000;,
  1.000000;0.000000;0.000000;,
  1.000000;0.000000;0.000000;,
  1.000000;0.000000;0.000000;,
  1.000000;0.000000;0.000000;,
  1.000000;0.000000;0.000000;,
  1.000000;0.000000;0.000000;,
  1.000000;0.000000;0.000000;,
  1.000000;0.000000;0.000000;,
  1.000000;0.000000;0.000000;,
  1.000000;0.000000;0.000000;,
  0.000000;0.000000;-1.000000;,
  0.000000;0.000000;-1.000000;,
  0.000000;0.000000;-1.000000;,
  0.000000;0.000000;-1.000000;,
  0.000000;0.882506;-0.470301;,
  0.000000;0.882506;-0.470301;,
  0.000000;0.882506;-0.470301;,
  0.000000;0.882506;-0.470301;,
  -1.000000;0.000000;0.000000;,
  -1.000000;0.000000;0.000000;,
  0.000000;0.882506;-0.470301;,
  0.000000;0.882506;-0.470301;,
  1.000000;0.000000;0.000000;,
  1.000000;0.000000;0.000000;,
  0.000000;0.000000;-1.000000;,
  0.000000;0.000000;-1.000000;,
  0.000000;0.000000;-1.000000;,
  0.000000;0.000000;-1.000000;,
  -1.000000;0.000000;0.000000;,
  -1.000000;0.000000;0.000000;,
  0.000000;0.861934;-0.507020;,
  0.000000;0.861934;-0.507020;,
  -1.000000;0.000000;0.000000;,
  -1.000000;0.000000;0.000000;,
  0.000000;1.000000;0.000000;,
  0.000000;1.000000;0.000000;,
  -1.000000;0.000000;0.000000;,
  -1.000000;0.000000;0.000000;,
  0.000000;0.861934;-0.507020;,
  0.000000;0.861934;-0.507020;,
  -1.000000;0.000000;0.000000;,
  -1.000000;0.000000;0.000000;,
  -1.000000;0.000000;0.000000;,
  -1.000000;0.000000;0.000000;,
  -1.000000;0.000000;0.000000;,
  -1.000000;0.000000;0.000000;,
  -1.000000;0.000000;0.000000;,
  -1.000000;0.000000;0.000000;,
  -1.000000;0.000000;0.000000;,
  -1.000000;0.000000;0.000000;,
  0.000000;0.000000;-1.000000;,
  0.000000;0.000000;-1.000000;,
  0.000000;0.000000;-1.000000;,
  0.000000;0.000000;-1.000000;,
  0.000000;0.882506;-0.470301;,
  0.000000;0.882506;-0.470301;,
  0.000000;0.882506;-0.470301;,
  0.000000;0.882506;-0.470301;,
  -1.000000;0.000000;0.000000;,
  -1.000000;0.000000;0.000000;,
  0.000000;0.882506;-0.470301;,
  0.000000;0.882506;-0.470301;,
  0.000000;0.000000;-1.000000;,
  0.000000;0.000000;-1.000000;,
  0.000000;0.000000;-1.000000;,
  0.000000;0.000000;-1.000000;,
  0.000000;0.000000;-1.000000;,
  0.000000;0.000000;-1.000000;,
  0.000000;0.862525;-0.506014;,
  0.000000;0.862525;-0.506014;,
  0.000000;-0.862525;-0.506014;,
  0.000000;-0.862525;-0.506014;,
  0.000000;0.000000;-1.000000;,
  0.000000;0.000000;-1.000000;,
  0.000000;-1.000000;0.000000;,
  0.000000;-1.000000;0.000000;,
  0.466798;0.000000;-0.884364;,
  0.466798;0.000000;-0.884364;,
  -0.590698;0.000000;-0.806893;,
  -0.590698;0.000000;-0.806893;;
  110;
  3;0,0,0;,
  3;1,1,1;,
  3;2,2,2;,
  3;3,3,3;,
  3;4,4,4;,
  3;5,5,5;,
  3;6,6,6;,
  3;7,7,7;,
  3;8,8,8;,
  3;9,9,9;,
  3;10,10,10;,
  3;11,11,11;,
  3;12,12,12;,
  3;13,13,13;,
  3;14,14,14;,
  3;15,15,15;,
  3;16,16,16;,
  3;17,17,17;,
  3;18,18,18;,
  3;19,19,19;,
  3;20,20,20;,
  3;21,21,21;,
  3;22,22,22;,
  3;23,23,23;,
  3;24,24,24;,
  3;25,25,25;,
  3;26,26,26;,
  3;27,27,27;,
  3;28,28,28;,
  3;29,29,29;,
  3;30,30,30;,
  3;31,31,31;,
  3;32,32,32;,
  3;33,33,33;,
  3;34,34,34;,
  3;35,35,35;,
  3;36,36,36;,
  3;37,37,37;,
  3;38,38,38;,
  3;39,39,39;,
  3;40,40,40;,
  3;41,41,41;,
  3;42,42,42;,
  3;43,43,43;,
  3;44,44,44;,
  3;45,45,45;,
  3;46,46,46;,
  3;47,47,47;,
  3;48,48,48;,
  3;49,49,49;,
  3;50,50,50;,
  3;51,51,51;,
  3;52,52,52;,
  3;53,53,53;,
  3;54,54,54;,
  3;55,55,55;,
  3;56,56,56;,
  3;57,57,57;,
  3;58,58,58;,
  3;59,59,59;,
  3;60,60,60;,
  3;61,61,61;,
  3;62,62,62;,
  3;63,63,63;,
  3;64,64,64;,
  3;65,65,65;,
  3;66,66,66;,
  3;67,67,67;,
  3;68,68,68;,
  3;69,69,69;,
  3;70,70,70;,
  3;71,71,71;,
  3;72,72,72;,
  3;73,73,73;,
  3;74,74,74;,
  3;75,75,75;,
  3;76,76,76;,
  3;77,77,77;,
  3;78,78,78;,
  3;79,79,79;,
  3;80,80,80;,
  3;81,81,81;,
  3;82,82,82;,
  3;83,83,83;,
  3;84,84,84;,
  3;85,85,85;,
  3;86,86,86;,
  3;87,87,87;,
  3;88,88,88;,
  3;89,89,89;,
  3;90,90,90;,
  3;91,91,91;,
  3;92,92,92;,
  3;93,93,93;,
  3;94,94,94;,
  3;95,95,95;,
  3;96,96,96;,
  3;97,97,97;,
  3;98,98,98;,
  3;99,99,99;,
  3;100,100,100;,
  3;101,101,101;,
  3;102,102,102;,
  3;103,103,103;,
  3;104,104,104;,
  3;105,105,105;,
  3;106,106,106;,
  3;107,107,107;,
  3;108,108,108;,
  3;109,109,109;;
 }
}