xof 0303txt 0032
template Vector {
 <3d82ab5e-62da-11cf-ab39-0020af71e433>
 FLOAT x;
 FLOAT y;
 FLOAT z;
}

template MeshFace {
 <3d82ab5f-62da-11cf-ab39-0020af71e433>
 DWORD nFaceVertexIndices;
 array DWORD faceVertexIndices[nFaceVertexIndices];
}

template Mesh {
 <3d82ab44-62da-11cf-ab39-0020af71e433>
 DWORD nVertices;
 array Vector vertices[nVertices];
 DWORD nFaces;
 array MeshFace faces[nFaces];
 [...]
}

template ColorRGBA {
 <35ff44e0-6c7c-11cf-8f52-0040333594a3>
 FLOAT red;
 FLOAT green;
 FLOAT blue;
 FLOAT alpha;
}

template ColorRGB {
 <d3e16e81-7835-11cf-8f52-0040333594a3>
 FLOAT red;
 FLOAT green;
 FLOAT blue;
}

template Material {
 <3d82ab4d-62da-11cf-ab39-0020af71e433>
 ColorRGBA faceColor;
 FLOAT power;
 ColorRGB specularColor;
 ColorRGB emissiveColor;
 [...]
}

template MeshMaterialList {
 <f6f23f42-7686-11cf-8f52-0040333594a3>
 DWORD nMaterials;
 DWORD nFaceIndexes;
 array DWORD faceIndexes[nFaceIndexes];
 [Material <3d82ab4d-62da-11cf-ab39-0020af71e433>]
}

template TextureFilename {
 <a42790e1-7810-11cf-8f52-0040333594a3>
 STRING filename;
}

template Coords2d {
 <f6f23f44-7686-11cf-8f52-0040333594a3>
 FLOAT u;
 FLOAT v;
}

template MeshTextureCoords {
 <f6f23f40-7686-11cf-8f52-0040333594a3>
 DWORD nTextureCoords;
 array Coords2d textureCoords[nTextureCoords];
}

template MeshNormals {
 <f6f23f43-7686-11cf-8f52-0040333594a3>
 DWORD nNormals;
 array Vector normals[nNormals];
 DWORD nFaceNormals;
 array MeshFace faceNormals[nFaceNormals];
}


Mesh  {
 48;
 3.700000;1.100000;-2.000000;,
 3.700000;5.550000;-2.000000;,
 4.000000;1.100000;-2.000000;,
 4.000000;5.550000;-2.000000;,
 3.700000;1.100000;-10.000000;,
 3.700000;5.550000;-10.000000;,
 4.000000;1.100000;-10.000000;,
 4.000000;5.550000;-10.000000;,
 3.700000;5.250000;-2.000000;,
 3.700000;5.550000;-2.000000;,
 3.700000;5.250000;-10.000000;,
 3.700000;5.550000;-10.000000;,
 1.500000;5.857960;1.000000;,
 1.500000;5.857960;-12.000000;,
 3.850000;5.500000;1.000000;,
 3.850000;5.500000;-12.000000;,
 7.300000;6.075500;1.000000;,
 7.300000;6.075500;-12.000000;,
 1.500000;5.108000;-12.000000;,
 1.500000;5.108000;1.000000;,
 1.500000;5.908000;-12.000000;,
 1.500000;5.908000;1.000000;,
 7.300000;5.275500;-12.000000;,
 7.300000;5.275500;1.000000;,
 7.300000;6.075500;-12.000000;,
 7.300000;6.075500;1.000000;,
 1.500000;5.108000;-12.000000;,
 1.500000;5.908000;-12.000000;,
 1.750000;5.108000;-12.000000;,
 1.750000;5.620000;-12.000000;,
 3.850000;5.300000;-12.000000;,
 3.850000;5.550000;-12.000000;,
 7.050000;5.275500;-12.000000;,
 7.050000;5.787000;-12.000000;,
 7.300000;5.275500;-12.000000;,
 7.300000;6.075500;-12.000000;,
 3.850000;4.500000;0.800000;,
 3.850000;5.500000;0.800000;,
 7.300000;4.500000;0.800000;,
 7.300000;6.075500;0.800000;,
 1.500000;4.700000;-11.990000;,
 1.500000;5.908000;-11.990000;,
 3.850000;5.300000;-11.990000;,
 3.850000;5.550000;-11.990000;,
 4.000000;4.100000;-10.000000;,
 4.000000;4.500000;-10.000000;,
 4.400000;4.100000;-10.000000;,
 4.400000;4.500000;-10.000000;;
 28;
 3;0,1,3;,
 3;0,3,2;,
 3;4,5,7;,
 3;4,7,6;,
 3;8,9,11;,
 3;8,11,10;,
 3;12,13,15;,
 3;12,15,14;,
 3;14,15,17;,
 3;14,17,16;,
 3;18,19,21;,
 3;18,21,20;,
 3;22,23,25;,
 3;22,25,24;,
 3;26,27,29;,
 3;26,29,28;,
 3;29,27,31;,
 3;29,31,30;,
 3;30,31,35;,
 3;30,35,33;,
 3;32,33,35;,
 3;32,35,34;,
 3;36,37,39;,
 3;36,39,38;,
 3;40,41,43;,
 3;40,43,42;,
 3;44,45,47;,
 3;44,47,46;;

 MeshMaterialList  {
  10;
  28;
  0,
  0,
  1,
  1,
  2,
  2,
  3,
  3,
  3,
  3,
  4,
  4,
  5,
  5,
  6,
  6,
  6,
  6,
  6,
  6,
  6,
  6,
  7,
  7,
  8,
  8,
  9,
  9;

  Material  {
   1.000000;1.000000;1.000000;1.000000;;
   0.000000;
   0.000000;0.000000;0.000000;;
   0.000000;0.000000;0.000000;;

   TextureFilename  {
    "Iron1.png";
   }
  }

  Material  {
   1.000000;1.000000;1.000000;1.000000;;
   0.000000;
   0.000000;0.000000;0.000000;;
   0.000000;0.000000;0.000000;;

   TextureFilename  {
    "Iron1.png";
   }
  }

  Material  {
   1.000000;1.000000;1.000000;1.000000;;
   0.000000;
   0.000000;0.000000;0.000000;;
   0.000000;0.000000;0.000000;;

   TextureFilename  {
    "Iron1.png";
   }
  }

  Material  {
   1.000000;1.000000;1.000000;1.000000;;
   0.000000;
   0.000000;0.000000;0.000000;;
   0.000000;0.000000;0.000000;;

   TextureFilename  {
    "Roof2.png";
   }
  }

  Material  {
   1.000000;1.000000;1.000000;1.000000;;
   0.000000;
   0.000000;0.000000;0.000000;;
   0.000000;0.000000;0.000000;;

   TextureFilename  {
    "Roof3.png";
   }
  }

  Material  {
   1.000000;1.000000;1.000000;1.000000;;
   0.000000;
   0.000000;0.000000;0.000000;;
   0.000000;0.000000;0.000000;;

   TextureFilename  {
    "Roof3.png";
   }
  }

  Material  {
   1.000000;1.000000;1.000000;1.000000;;
   0.000000;
   0.000000;0.000000;0.000000;;
   0.000000;0.000000;0.000000;;

   TextureFilename  {
    "Roof4.png";
   }
  }

  Material  {
   1.000000;1.000000;1.000000;1.000000;;
   0.000000;
   0.000000;0.000000;0.000000;;
   0.000000;0.000000;0.000000;;

   TextureFilename  {
    "Plate1.png";
   }
  }

  Material  {
   1.000000;1.000000;1.000000;1.000000;;
   0.000000;
   0.000000;0.000000;0.000000;;
   0.000000;0.000000;0.000000;;

   TextureFilename  {
    "Plate2.png";
   }
  }

  Material  {
   1.000000;1.000000;1.000000;1.000000;;
   0.000000;
   0.000000;0.000000;0.000000;;
   0.000000;0.000000;0.000000;;

   TextureFilename  {
    "NO1.png";
   }
  }
 }

 MeshTextureCoords  {
  48;
  0.000000;0.500000;,
  0.000000;0.100000;,
  1.000000;0.500000;,
  1.000000;0.100000;,
  0.000000;0.500000;,
  0.000000;0.100000;,
  1.000000;0.500000;,
  1.000000;0.100000;,
  0.000000;0.100000;,
  1.000000;0.100000;,
  0.000000;0.200000;,
  1.000000;0.200000;,
  0.000000;6.300000;,
  0.000000;-0.300000;,
  2.000000;6.300000;,
  2.000000;-0.300000;,
  4.000000;6.300000;,
  4.000000;-0.300000;,
  10.000000;0.500000;,
  0.000000;0.500000;,
  10.000000;0.000000;,
  0.000000;0.000000;,
  10.000000;1.000000;,
  0.000000;1.000000;,
  10.000000;0.500000;,
  0.000000;0.500000;,
  0.000000;0.000000;,
  0.000000;0.000000;,
  0.500000;1.000000;,
  0.500000;1.000000;,
  1.000000;1.000000;,
  1.000000;0.000000;,
  1.500000;1.000000;,
  1.500000;1.000000;,
  2.000000;0.000000;,
  2.000000;0.000000;,
  0.000000;0.000000;,
  0.000000;1.000000;,
  1.000000;1.000000;,
  1.000000;0.000000;,
  0.000000;1.000000;,
  0.000000;0.000000;,
  1.000000;1.000000;,
  1.000000;0.000000;,
  0.000000;1.000000;,
  0.000000;0.000000;,
  1.000000;1.000000;,
  1.000000;0.000000;;
 }

 MeshNormals  {
  28;
  0.000000;0.000000;-1.000000;,
  0.000000;0.000000;-1.000000;,
  0.000000;0.000000;-1.000000;,
  0.000000;0.000000;-1.000000;,
  -1.000000;0.000000;0.000000;,
  -1.000000;0.000000;0.000000;,
  -0.150587;-0.988597;0.000000;,
  -0.150587;-0.988597;0.000000;,
  0.164538;-0.986371;0.000000;,
  0.164538;-0.986371;0.000000;,
  -1.000000;0.000000;0.000000;,
  -1.000000;0.000000;0.000000;,
  -1.000000;0.000000;0.000000;,
  -1.000000;0.000000;0.000000;,
  0.000000;0.000000;-1.000000;,
  0.000000;0.000000;-1.000000;,
  0.000000;0.000000;-1.000000;,
  0.000000;0.000000;-1.000000;,
  0.000000;0.000000;-1.000000;,
  0.000000;0.000000;-1.000000;,
  0.000000;0.000000;-1.000000;,
  0.000000;0.000000;-1.000000;,
  0.000000;0.000000;-1.000000;,
  0.000000;0.000000;-1.000000;,
  0.000000;0.000000;-1.000000;,
  0.000000;0.000000;-1.000000;,
  0.000000;0.000000;-1.000000;,
  0.000000;0.000000;-1.000000;;
  28;
  3;0,0,0;,
  3;1,1,1;,
  3;2,2,2;,
  3;3,3,3;,
  3;4,4,4;,
  3;5,5,5;,
  3;6,6,6;,
  3;7,7,7;,
  3;8,8,8;,
  3;9,9,9;,
  3;10,10,10;,
  3;11,11,11;,
  3;12,12,12;,
  3;13,13,13;,
  3;14,14,14;,
  3;15,15,15;,
  3;16,16,16;,
  3;17,17,17;,
  3;18,18,18;,
  3;19,19,19;,
  3;20,20,20;,
  3;21,21,21;,
  3;22,22,22;,
  3;23,23,23;,
  3;24,24,24;,
  3;25,25,25;,
  3;26,26,26;,
  3;27,27,27;;
 }
}