xof 0303txt 0032
template Vector {
 <3d82ab5e-62da-11cf-ab39-0020af71e433>
 FLOAT x;
 FLOAT y;
 FLOAT z;
}

template MeshFace {
 <3d82ab5f-62da-11cf-ab39-0020af71e433>
 DWORD nFaceVertexIndices;
 array DWORD faceVertexIndices[nFaceVertexIndices];
}

template Mesh {
 <3d82ab44-62da-11cf-ab39-0020af71e433>
 DWORD nVertices;
 array Vector vertices[nVertices];
 DWORD nFaces;
 array MeshFace faces[nFaces];
 [...]
}

template ColorRGBA {
 <35ff44e0-6c7c-11cf-8f52-0040333594a3>
 FLOAT red;
 FLOAT green;
 FLOAT blue;
 FLOAT alpha;
}

template ColorRGB {
 <d3e16e81-7835-11cf-8f52-0040333594a3>
 FLOAT red;
 FLOAT green;
 FLOAT blue;
}

template Material {
 <3d82ab4d-62da-11cf-ab39-0020af71e433>
 ColorRGBA faceColor;
 FLOAT power;
 ColorRGB specularColor;
 ColorRGB emissiveColor;
 [...]
}

template MeshMaterialList {
 <f6f23f42-7686-11cf-8f52-0040333594a3>
 DWORD nMaterials;
 DWORD nFaceIndexes;
 array DWORD faceIndexes[nFaceIndexes];
 [Material <3d82ab4d-62da-11cf-ab39-0020af71e433>]
}

template TextureFilename {
 <a42790e1-7810-11cf-8f52-0040333594a3>
 STRING filename;
}

template Coords2d {
 <f6f23f44-7686-11cf-8f52-0040333594a3>
 FLOAT u;
 FLOAT v;
}

template MeshTextureCoords {
 <f6f23f40-7686-11cf-8f52-0040333594a3>
 DWORD nTextureCoords;
 array Coords2d textureCoords[nTextureCoords];
}

template MeshNormals {
 <f6f23f43-7686-11cf-8f52-0040333594a3>
 DWORD nNormals;
 array Vector normals[nNormals];
 DWORD nFaceNormals;
 array MeshFace faceNormals[nFaceNormals];
}


Mesh  {
 40;
 8.250000;1.100000;-5.100000;,
 8.250000;2.600000;-5.100000;,
 7.300000;1.100000;-5.100000;,
 7.300000;2.600000;-5.100000;,
 7.300000;1.100000;3.000000;,
 7.300000;2.600000;3.000000;,
 8.250000;1.100000;3.000000;,
 8.250000;2.600000;3.000000;,
 8.250000;1.250000;-5.100000;,
 8.250000;2.550000;-5.100000;,
 7.300000;1.250000;-5.100000;,
 7.300000;2.550000;-5.100000;,
 7.300000;1.250000;3.000000;,
 7.300000;2.550000;3.000000;,
 8.250000;1.250000;3.000000;,
 8.250000;2.550000;3.000000;,
 8.250000;1.100000;10.000000;,
 8.250000;2.600000;10.000000;,
 7.300000;1.100000;10.000000;,
 7.300000;2.600000;10.000000;,
 7.300000;1.100000;12.000000;,
 7.300000;2.600000;12.000000;,
 11.500000;1.100000;14.400000;,
 11.500000;2.600000;14.400000;,
 8.250000;1.250000;10.000000;,
 8.250000;2.550000;10.000000;,
 7.300000;1.250000;10.000000;,
 7.300000;2.550000;10.000000;,
 7.300000;1.250000;12.000000;,
 7.300000;2.550000;12.000000;,
 11.500000;1.250000;14.400000;,
 11.500000;2.550000;14.400000;,
 11.500000;1.100000;23.000000;,
 11.500000;2.600000;23.000000;,
 9.300000;1.100000;24.950001;,
 9.300000;2.600000;24.950001;,
 11.500000;1.250000;23.000000;,
 11.500000;2.550000;23.000000;,
 9.300000;1.250000;24.950001;,
 9.300000;2.550000;24.950001;;
 28;
 3;2,3,1;,
 3;2,1,0;,
 3;4,5,3;,
 3;4,3,2;,
 3;4,5,7;,
 3;4,7,6;,
 3;10,11,9;,
 3;10,9,8;,
 3;12,13,11;,
 3;12,11,10;,
 3;12,13,15;,
 3;12,15,14;,
 3;18,19,17;,
 3;18,17,16;,
 3;20,21,19;,
 3;20,19,18;,
 3;20,21,23;,
 3;20,23,22;,
 3;26,27,25;,
 3;26,25,24;,
 3;28,29,27;,
 3;28,27,26;,
 3;28,29,31;,
 3;28,31,30;,
 3;34,35,33;,
 3;34,33,32;,
 3;38,39,37;,
 3;38,37,36;;

 MeshMaterialList  {
  6;
  28;
  0,
  0,
  0,
  0,
  0,
  0,
  1,
  1,
  1,
  1,
  1,
  1,
  2,
  2,
  2,
  2,
  2,
  2,
  3,
  3,
  3,
  3,
  3,
  3,
  4,
  4,
  5,
  5;

  Material  {
   1.000000;1.000000;1.000000;1.000000;;
   0.000000;
   0.000000;0.000000;0.000000;;
   0.000000;0.000000;0.000000;;

   TextureFilename  {
    "Saku1.png";
   }
  }

  Material  {
   0.250980;0.250980;0.250980;0.501961;;
   0.000000;
   0.000000;0.000000;0.000000;;
   0.000000;0.000000;0.000000;;
  }

  Material  {
   1.000000;1.000000;1.000000;1.000000;;
   0.000000;
   0.000000;0.000000;0.000000;;
   0.000000;0.000000;0.000000;;

   TextureFilename  {
    "Saku1.png";
   }
  }

  Material  {
   0.250980;0.250980;0.250980;0.501961;;
   0.000000;
   0.000000;0.000000;0.000000;;
   0.000000;0.000000;0.000000;;
  }

  Material  {
   1.000000;1.000000;1.000000;1.000000;;
   0.000000;
   0.000000;0.000000;0.000000;;
   0.000000;0.000000;0.000000;;

   TextureFilename  {
    "Saku1.png";
   }
  }

  Material  {
   0.250980;0.250980;0.250980;0.501961;;
   0.000000;
   0.000000;0.000000;0.000000;;
   0.000000;0.000000;0.000000;;
  }
 }

 MeshTextureCoords  {
  40;
  0.010000;1.000000;,
  0.010000;0.000000;,
  0.265000;1.000000;,
  0.265000;0.000000;,
  2.265000;1.000000;,
  2.265000;0.000000;,
  2.525000;1.000000;,
  2.525000;0.000000;,
  0.000000;0.000000;,
  0.000000;0.000000;,
  0.000000;0.000000;,
  0.000000;0.000000;,
  0.000000;0.000000;,
  0.000000;0.000000;,
  0.000000;0.000000;,
  0.000000;0.000000;,
  0.010000;1.000000;,
  0.010000;0.000000;,
  0.265000;1.000000;,
  0.265000;0.000000;,
  0.765000;1.000000;,
  0.765000;0.000000;,
  1.525000;1.000000;,
  1.525000;0.000000;,
  0.000000;0.000000;,
  0.000000;0.000000;,
  0.000000;0.000000;,
  0.000000;0.000000;,
  0.000000;0.000000;,
  0.000000;0.000000;,
  0.000000;0.000000;,
  0.000000;0.000000;,
  0.010000;1.000000;,
  0.010000;0.000000;,
  0.515000;1.000000;,
  0.515000;0.000000;,
  0.000000;0.000000;,
  0.000000;0.000000;,
  0.000000;0.000000;,
  0.000000;0.000000;;
 }

 MeshNormals  {
  28;
  0.000000;0.000000;-1.000000;,
  0.000000;0.000000;-1.000000;,
  -1.000000;0.000000;0.000000;,
  -1.000000;0.000000;0.000000;,
  0.000000;0.000000;-1.000000;,
  0.000000;0.000000;-1.000000;,
  0.000000;0.000000;-1.000000;,
  0.000000;0.000000;-1.000000;,
  -1.000000;0.000000;0.000000;,
  -1.000000;0.000000;0.000000;,
  0.000000;0.000000;-1.000000;,
  0.000000;0.000000;-1.000000;,
  0.000000;0.000000;-1.000000;,
  0.000000;0.000000;-1.000000;,
  -1.000000;0.000000;0.000000;,
  -1.000000;0.000000;0.000000;,
  0.496139;0.000000;-0.868243;,
  0.496139;0.000000;-0.868243;,
  0.000000;0.000000;-1.000000;,
  0.000000;0.000000;-1.000000;,
  -1.000000;0.000000;0.000000;,
  -1.000000;0.000000;0.000000;,
  0.496139;0.000000;-0.868243;,
  0.496139;0.000000;-0.868243;,
  -0.663308;0.000000;-0.748347;,
  -0.663308;0.000000;-0.748347;,
  -0.663308;0.000000;-0.748347;,
  -0.663308;0.000000;-0.748347;;
  28;
  3;0,0,0;,
  3;1,1,1;,
  3;2,2,2;,
  3;3,3,3;,
  3;4,4,4;,
  3;5,5,5;,
  3;6,6,6;,
  3;7,7,7;,
  3;8,8,8;,
  3;9,9,9;,
  3;10,10,10;,
  3;11,11,11;,
  3;12,12,12;,
  3;13,13,13;,
  3;14,14,14;,
  3;15,15,15;,
  3;16,16,16;,
  3;17,17,17;,
  3;18,18,18;,
  3;19,19,19;,
  3;20,20,20;,
  3;21,21,21;,
  3;22,22,22;,
  3;23,23,23;,
  3;24,24,24;,
  3;25,25,25;,
  3;26,26,26;,
  3;27,27,27;;
 }
}