xof 0303txt 0032
template Vector {
 <3d82ab5e-62da-11cf-ab39-0020af71e433>
 FLOAT x;
 FLOAT y;
 FLOAT z;
}

template MeshFace {
 <3d82ab5f-62da-11cf-ab39-0020af71e433>
 DWORD nFaceVertexIndices;
 array DWORD faceVertexIndices[nFaceVertexIndices];
}

template Mesh {
 <3d82ab44-62da-11cf-ab39-0020af71e433>
 DWORD nVertices;
 array Vector vertices[nVertices];
 DWORD nFaces;
 array MeshFace faces[nFaces];
 [...]
}

template ColorRGBA {
 <35ff44e0-6c7c-11cf-8f52-0040333594a3>
 FLOAT red;
 FLOAT green;
 FLOAT blue;
 FLOAT alpha;
}

template ColorRGB {
 <d3e16e81-7835-11cf-8f52-0040333594a3>
 FLOAT red;
 FLOAT green;
 FLOAT blue;
}

template Material {
 <3d82ab4d-62da-11cf-ab39-0020af71e433>
 ColorRGBA faceColor;
 FLOAT power;
 ColorRGB specularColor;
 ColorRGB emissiveColor;
 [...]
}

template MeshMaterialList {
 <f6f23f42-7686-11cf-8f52-0040333594a3>
 DWORD nMaterials;
 DWORD nFaceIndexes;
 array DWORD faceIndexes[nFaceIndexes];
 [Material <3d82ab4d-62da-11cf-ab39-0020af71e433>]
}

template TextureFilename {
 <a42790e1-7810-11cf-8f52-0040333594a3>
 STRING filename;
}

template Coords2d {
 <f6f23f44-7686-11cf-8f52-0040333594a3>
 FLOAT u;
 FLOAT v;
}

template MeshTextureCoords {
 <f6f23f40-7686-11cf-8f52-0040333594a3>
 DWORD nTextureCoords;
 array Coords2d textureCoords[nTextureCoords];
}

template MeshNormals {
 <f6f23f43-7686-11cf-8f52-0040333594a3>
 DWORD nNormals;
 array Vector normals[nNormals];
 DWORD nFaceNormals;
 array MeshFace faceNormals[nFaceNormals];
}


Mesh  {
 38;
 7.300000;1.100000;23.000000;,
 7.300000;5.050000;23.000000;,
 7.300000;1.100000;15.500000;,
 7.300000;5.050000;15.500000;,
 11.300000;1.100000;15.500000;,
 11.300000;5.050000;15.500000;,
 6.800000;4.600000;23.500000;,
 6.800000;4.600000;15.000000;,
 6.800000;4.800000;23.500000;,
 6.800000;4.800000;15.000000;,
 9.300000;5.800000;23.500000;,
 9.300000;5.800000;15.000000;,
 7.500000;4.600000;23.500000;,
 6.800000;4.600000;23.500000;,
 7.500000;4.600000;15.000000;,
 6.800000;4.600000;15.000000;,
 7.500000;4.800000;15.000000;,
 6.800000;4.800000;15.000000;,
 9.300000;5.500000;15.000000;,
 9.300000;5.800000;15.000000;,
 7.290000;1.100000;20.500000;,
 7.290000;3.900000;20.500000;,
 7.290000;1.100000;22.000000;,
 7.290000;3.900000;22.000000;,
 9.300000;1.100000;15.490000;,
 9.300000;3.900000;15.490000;,
 10.800000;1.100000;15.490000;,
 10.800000;3.900000;15.490000;,
 7.290000;3.100000;16.799999;,
 7.290000;4.100000;16.799999;,
 7.290000;3.100000;19.299999;,
 7.290000;4.100000;19.299999;,
 9.300000;1.100000;14.300000;,
 9.300000;3.500000;14.300000;,
 11.300000;1.100000;14.300000;,
 11.300000;3.500000;14.300000;,
 11.300000;1.100000;15.500000;,
 11.300000;3.500000;15.500000;;
 24;
 3;0,1,3;,
 3;0,3,2;,
 3;2,3,5;,
 3;2,5,4;,
 3;8,9,7;,
 3;8,7,6;,
 3;10,11,9;,
 3;10,9,8;,
 3;12,13,15;,
 3;12,15,14;,
 3;14,15,17;,
 3;14,17,16;,
 3;16,17,19;,
 3;16,19,18;,
 3;22,23,21;,
 3;22,21,20;,
 3;24,25,27;,
 3;24,27,26;,
 3;30,31,29;,
 3;30,29,28;,
 3;32,33,35;,
 3;32,35,34;,
 3;36,37,35;,
 3;36,35,34;;

 MeshMaterialList  {
  7;
  24;
  0,
  0,
  0,
  0,
  1,
  1,
  1,
  1,
  2,
  2,
  2,
  2,
  2,
  2,
  3,
  3,
  4,
  4,
  5,
  5,
  6,
  6,
  6,
  6;

  Material  {
   1.000000;1.000000;1.000000;1.000000;;
   0.000000;
   0.000000;0.000000;0.000000;;
   0.000000;0.000000;0.000000;;

   TextureFilename  {
    "WCWall1.png";
   }
  }

  Material  {
   1.000000;1.000000;1.000000;1.000000;;
   0.000000;
   0.000000;0.000000;0.000000;;
   0.000000;0.000000;0.000000;;

   TextureFilename  {
    "WCRoof1.png";
   }
  }

  Material  {
   1.000000;1.000000;1.000000;1.000000;;
   0.000000;
   0.000000;0.000000;0.000000;;
   0.000000;0.000000;0.000000;;

   TextureFilename  {
    "WCWall2.png";
   }
  }

  Material  {
   1.000000;1.000000;1.000000;1.000000;;
   0.000000;
   0.000000;0.000000;0.000000;;
   0.000000;0.000000;0.000000;;

   TextureFilename  {
    "WCIn.png";
   }
  }

  Material  {
   1.000000;1.000000;1.000000;1.000000;;
   0.000000;
   0.000000;0.000000;0.000000;;
   0.000000;0.000000;0.000000;;

   TextureFilename  {
    "WCIn.png";
   }
  }

  Material  {
   1.000000;1.000000;1.000000;1.000000;;
   0.000000;
   0.000000;0.000000;0.000000;;
   0.000000;0.000000;0.000000;;

   TextureFilename  {
    "WCWindow1.png";
   }
  }

  Material  {
   1.000000;1.000000;1.000000;1.000000;;
   0.000000;
   0.000000;0.000000;0.000000;;
   0.000000;0.000000;0.000000;;

   TextureFilename  {
    "WCWall3.png";
   }
  }
 }

 MeshTextureCoords  {
  38;
  0.000000;1.000000;,
  0.000000;0.000000;,
  0.500000;1.000000;,
  0.500000;0.000000;,
  1.000000;1.000000;,
  1.000000;0.000000;,
  0.000000;1.000000;,
  1.000000;1.000000;,
  0.000000;0.781250;,
  1.000000;0.781250;,
  0.000000;0.000000;,
  1.000000;0.000000;,
  0.000000;0.000000;,
  0.000000;0.000000;,
  0.000000;0.000000;,
  0.000000;0.000000;,
  0.000000;0.000000;,
  0.000000;0.000000;,
  0.000000;0.000000;,
  0.000000;0.000000;,
  1.000000;1.000000;,
  1.000000;0.000000;,
  0.000000;1.000000;,
  0.000000;0.000000;,
  1.000000;1.000000;,
  1.000000;0.000000;,
  0.000000;1.000000;,
  0.000000;0.000000;,
  1.000000;1.000000;,
  1.000000;0.000000;,
  0.000000;1.000000;,
  0.000000;0.000000;,
  0.000000;1.000000;,
  0.000000;0.000000;,
  1.500000;1.000000;,
  1.500000;0.000000;,
  2.500000;1.000000;,
  2.500000;0.000000;;
 }

 MeshNormals  {
  24;
  -1.000000;0.000000;0.000000;,
  -1.000000;0.000000;0.000000;,
  0.000000;0.000000;-1.000000;,
  0.000000;0.000000;-1.000000;,
  -1.000000;0.000000;0.000000;,
  -1.000000;0.000000;0.000000;,
  -0.371391;0.928477;0.000000;,
  -0.371391;0.928477;0.000000;,
  0.000000;-1.000000;0.000000;,
  0.000000;-1.000000;0.000000;,
  0.000000;0.000000;-1.000000;,
  0.000000;0.000000;-1.000000;,
  0.000000;0.000000;-1.000000;,
  0.000000;0.000000;-1.000000;,
  -1.000000;0.000000;0.000000;,
  -1.000000;0.000000;0.000000;,
  0.000000;0.000000;-1.000000;,
  0.000000;0.000000;-1.000000;,
  -1.000000;0.000000;0.000000;,
  -1.000000;0.000000;0.000000;,
  0.000000;0.000000;-1.000000;,
  0.000000;0.000000;-1.000000;,
  -1.000000;0.000000;0.000000;,
  -1.000000;0.000000;0.000000;;
  24;
  3;0,0,0;,
  3;1,1,1;,
  3;2,2,2;,
  3;3,3,3;,
  3;4,4,4;,
  3;5,5,5;,
  3;6,6,6;,
  3;7,7,7;,
  3;8,8,8;,
  3;9,9,9;,
  3;10,10,10;,
  3;11,11,11;,
  3;12,12,12;,
  3;13,13,13;,
  3;14,14,14;,
  3;15,15,15;,
  3;16,16,16;,
  3;17,17,17;,
  3;18,18,18;,
  3;19,19,19;,
  3;20,20,20;,
  3;21,21,21;,
  3;22,22,22;,
  3;23,23,23;;
 }
}