xof 0303txt 0032
template Vector {
 <3d82ab5e-62da-11cf-ab39-0020af71e433>
 FLOAT x;
 FLOAT y;
 FLOAT z;
}

template MeshFace {
 <3d82ab5f-62da-11cf-ab39-0020af71e433>
 DWORD nFaceVertexIndices;
 array DWORD faceVertexIndices[nFaceVertexIndices];
}

template Mesh {
 <3d82ab44-62da-11cf-ab39-0020af71e433>
 DWORD nVertices;
 array Vector vertices[nVertices];
 DWORD nFaces;
 array MeshFace faces[nFaces];
 [...]
}

template ColorRGBA {
 <35ff44e0-6c7c-11cf-8f52-0040333594a3>
 FLOAT red;
 FLOAT green;
 FLOAT blue;
 FLOAT alpha;
}

template ColorRGB {
 <d3e16e81-7835-11cf-8f52-0040333594a3>
 FLOAT red;
 FLOAT green;
 FLOAT blue;
}

template Material {
 <3d82ab4d-62da-11cf-ab39-0020af71e433>
 ColorRGBA faceColor;
 FLOAT power;
 ColorRGB specularColor;
 ColorRGB emissiveColor;
 [...]
}

template MeshMaterialList {
 <f6f23f42-7686-11cf-8f52-0040333594a3>
 DWORD nMaterials;
 DWORD nFaceIndexes;
 array DWORD faceIndexes[nFaceIndexes];
 [Material <3d82ab4d-62da-11cf-ab39-0020af71e433>]
}

template TextureFilename {
 <a42790e1-7810-11cf-8f52-0040333594a3>
 STRING filename;
}

template Coords2d {
 <f6f23f44-7686-11cf-8f52-0040333594a3>
 FLOAT u;
 FLOAT v;
}

template MeshTextureCoords {
 <f6f23f40-7686-11cf-8f52-0040333594a3>
 DWORD nTextureCoords;
 array Coords2d textureCoords[nTextureCoords];
}

template MeshNormals {
 <f6f23f43-7686-11cf-8f52-0040333594a3>
 DWORD nNormals;
 array Vector normals[nNormals];
 DWORD nFaceNormals;
 array MeshFace faceNormals[nFaceNormals];
}


Mesh  {
 222;
 -250.000000;6.550000;10.000000;,
 -250.000000;3.000000;10.000000;,
 -250.000000;3.000000;22.000000;,
 -145.000000;6.550000;10.000000;,
 -145.000000;3.000000;10.000000;,
 -145.000000;3.000000;22.000000;,
 -105.000000;7.550000;10.000000;,
 -105.000000;4.000000;10.000000;,
 -105.000000;4.000000;22.000000;,
 -25.000000;10.550000;10.000000;,
 -25.000000;7.000000;10.000000;,
 -25.000000;7.000000;22.000000;,
 -25.000000;13.000000;10.000000;,
 -25.000000;7.000000;10.000000;,
 -25.000000;7.000000;22.000000;,
 20.000000;14.250000;10.000000;,
 20.000000;8.250000;10.000000;,
 20.000000;8.250000;22.000000;,
 60.000000;14.500000;10.000000;,
 60.000000;8.500000;10.000000;,
 60.000000;8.500000;22.000000;,
 75.000000;14.500000;10.000000;,
 75.000000;8.500000;10.000000;,
 75.000000;8.500000;22.000000;,
 75.000000;12.050000;10.000000;,
 75.000000;8.500000;10.000000;,
 75.000000;8.500000;22.000000;,
 100.000000;12.050000;10.000000;,
 100.000000;8.500000;10.000000;,
 100.000000;8.500000;22.000000;,
 100.000000;14.500000;10.000000;,
 100.000000;8.500000;10.000000;,
 100.000000;8.500000;22.000000;,
 150.000000;13.500000;10.000000;,
 150.000000;7.500000;10.000000;,
 150.000000;7.500000;22.000000;,
 150.000000;11.050000;10.000000;,
 150.000000;7.500000;10.000000;,
 150.000000;7.500000;22.000000;,
 350.000000;3.050000;10.000000;,
 350.000000;-0.500000;10.000000;,
 350.000000;-0.500000;22.000000;,
 -226.000000;3.000000;10.000000;,
 -226.000000;1.500000;10.000000;,
 -226.000000;0.500000;14.500000;,
 -226.000000;-6.000000;14.500000;,
 -224.000000;3.000000;10.000000;,
 -224.000000;1.500000;10.000000;,
 -224.000000;0.500000;14.500000;,
 -224.000000;-6.000000;14.500000;,
 -224.000000;-6.000000;17.500000;,
 -224.000000;0.500000;17.500000;,
 -224.000000;1.500000;22.000000;,
 -224.000000;3.000000;22.000000;,
 -186.000000;3.000000;10.000000;,
 -186.000000;1.500000;10.000000;,
 -186.000000;0.500000;14.500000;,
 -186.000000;-6.000000;14.500000;,
 -184.000000;3.000000;10.000000;,
 -184.000000;1.500000;10.000000;,
 -184.000000;0.500000;14.500000;,
 -184.000000;-6.000000;14.500000;,
 -184.000000;-6.000000;17.500000;,
 -184.000000;0.500000;17.500000;,
 -184.000000;1.500000;22.000000;,
 -184.000000;3.000000;22.000000;,
 -146.000000;3.000000;10.000000;,
 -146.000000;1.500000;10.000000;,
 -146.000000;0.500000;14.500000;,
 -146.000000;-6.000000;14.500000;,
 -144.000000;3.000000;10.000000;,
 -144.000000;1.500000;10.000000;,
 -144.000000;0.500000;14.500000;,
 -144.000000;-6.000000;14.500000;,
 -144.000000;-6.000000;17.500000;,
 -144.000000;0.500000;17.500000;,
 -144.000000;1.500000;22.000000;,
 -144.000000;3.000000;22.000000;,
 -106.000000;4.000000;10.000000;,
 -106.000000;2.500000;10.000000;,
 -106.000000;1.500000;14.500000;,
 -106.000000;-6.000000;14.500000;,
 -104.000000;4.000000;10.000000;,
 -104.000000;2.500000;10.000000;,
 -104.000000;1.500000;14.500000;,
 -104.000000;-6.000000;14.500000;,
 -104.000000;-6.000000;17.500000;,
 -104.000000;1.500000;17.500000;,
 -104.000000;2.500000;22.000000;,
 -104.000000;4.000000;22.000000;,
 -66.000000;5.500000;10.000000;,
 -66.000000;4.000000;10.000000;,
 -66.000000;3.000000;14.500000;,
 -66.000000;-6.000000;14.500000;,
 -64.000000;5.500000;10.000000;,
 -64.000000;4.000000;10.000000;,
 -64.000000;3.000000;14.500000;,
 -64.000000;-6.000000;14.500000;,
 -64.000000;-6.000000;17.500000;,
 -64.000000;3.000000;17.500000;,
 -64.000000;4.000000;22.000000;,
 -64.000000;5.500000;22.000000;,
 -26.000000;7.000000;10.000000;,
 -26.000000;5.500000;10.000000;,
 -26.000000;4.500000;14.500000;,
 -26.000000;-6.000000;14.500000;,
 -24.000000;7.000000;10.000000;,
 -24.000000;5.500000;10.000000;,
 -24.000000;4.500000;14.500000;,
 -24.000000;-6.000000;14.500000;,
 -24.000000;-6.000000;17.500000;,
 -24.000000;4.500000;17.500000;,
 -24.000000;5.500000;22.000000;,
 -24.000000;7.000000;22.000000;,
 -26.000000;-6.000000;17.500000;,
 -26.000000;4.500000;17.500000;,
 -26.000000;5.500000;22.000000;,
 -26.000000;7.000000;22.000000;,
 21.000000;8.250000;10.000000;,
 21.000000;6.750000;10.000000;,
 21.000000;5.750000;14.500000;,
 21.000000;-6.000000;14.500000;,
 21.000000;6.750000;22.000000;,
 21.000000;5.750000;26.500000;,
 21.000000;-6.000000;26.500000;,
 19.000000;8.250000;10.000000;,
 19.000000;6.750000;10.000000;,
 19.000000;5.750000;14.500000;,
 19.000000;-6.000000;14.500000;,
 19.000000;-6.000000;17.500000;,
 19.000000;5.750000;17.500000;,
 19.000000;6.750000;22.000000;,
 19.000000;5.750000;26.500000;,
 19.000000;-6.000000;26.500000;,
 19.000000;-6.000000;29.500000;,
 19.000000;5.750000;29.500000;,
 19.000000;6.750000;34.000000;,
 19.000000;8.250000;34.000000;,
 61.000000;8.500000;10.000000;,
 61.000000;7.000000;10.000000;,
 61.000000;6.000000;14.500000;,
 61.000000;-6.000000;14.500000;,
 59.000000;8.500000;10.000000;,
 59.000000;7.000000;10.000000;,
 59.000000;6.000000;14.500000;,
 59.000000;-6.000000;14.500000;,
 59.000000;-6.000000;17.500000;,
 59.000000;6.000000;17.500000;,
 59.000000;7.000000;22.000000;,
 59.000000;8.500000;22.000000;,
 101.000000;8.500000;10.000000;,
 101.000000;7.000000;10.000000;,
 101.000000;6.000000;14.500000;,
 101.000000;-6.000000;14.500000;,
 99.000000;8.500000;10.000000;,
 99.000000;7.000000;10.000000;,
 99.000000;6.000000;14.500000;,
 99.000000;-6.000000;14.500000;,
 99.000000;-6.000000;17.500000;,
 99.000000;6.000000;17.500000;,
 99.000000;7.000000;22.000000;,
 99.000000;8.500000;22.000000;,
 151.000000;7.500000;10.000000;,
 151.000000;6.000000;10.000000;,
 151.000000;5.000000;14.500000;,
 151.000000;-6.000000;14.500000;,
 149.000000;7.500000;10.000000;,
 149.000000;6.000000;10.000000;,
 149.000000;5.000000;14.500000;,
 149.000000;-6.000000;14.500000;,
 149.000000;-6.000000;17.500000;,
 149.000000;5.000000;17.500000;,
 149.000000;6.000000;22.000000;,
 149.000000;7.500000;22.000000;,
 191.000000;5.900000;10.000000;,
 191.000000;4.400000;10.000000;,
 191.000000;3.400000;14.500000;,
 191.000000;-6.000000;14.500000;,
 189.000000;5.900000;10.000000;,
 189.000000;4.400000;10.000000;,
 189.000000;3.400000;14.500000;,
 189.000000;-6.000000;14.500000;,
 189.000000;-6.000000;17.500000;,
 189.000000;3.400000;17.500000;,
 189.000000;4.400000;22.000000;,
 189.000000;5.900000;22.000000;,
 231.000000;4.300000;10.000000;,
 231.000000;2.800000;10.000000;,
 231.000000;1.800000;14.500000;,
 231.000000;-6.000000;14.500000;,
 229.000000;4.300000;10.000000;,
 229.000000;2.800000;10.000000;,
 229.000000;1.800000;14.500000;,
 229.000000;-6.000000;14.500000;,
 229.000000;-6.000000;17.500000;,
 229.000000;1.800000;17.500000;,
 229.000000;2.800000;22.000000;,
 229.000000;4.300000;22.000000;,
 271.000000;2.700000;10.000000;,
 271.000000;1.200000;10.000000;,
 271.000000;0.200000;14.500000;,
 271.000000;-6.000000;14.500000;,
 269.000000;2.700000;10.000000;,
 269.000000;1.200000;10.000000;,
 269.000000;0.200000;14.500000;,
 269.000000;-6.000000;14.500000;,
 269.000000;-6.000000;17.500000;,
 269.000000;0.200000;17.500000;,
 269.000000;1.200000;22.000000;,
 269.000000;2.700000;22.000000;,
 311.000000;1.100000;10.000000;,
 311.000000;-0.400000;10.000000;,
 311.000000;-1.400000;14.500000;,
 311.000000;-6.000000;14.500000;,
 309.000000;1.100000;10.000000;,
 309.000000;-0.400000;10.000000;,
 309.000000;-1.400000;14.500000;,
 309.000000;-6.000000;14.500000;,
 309.000000;-6.000000;17.500000;,
 309.000000;-1.400000;17.500000;,
 309.000000;-0.400000;22.000000;,
 309.000000;1.100000;22.000000;;
 219;
 3;1,0,3;,
 3;1,3,4;,
 3;2,1,4;,
 3;2,4,5;,
 3;4,3,6;,
 3;4,6,7;,
 3;5,4,7;,
 3;5,7,8;,
 3;7,6,9;,
 3;7,9,10;,
 3;8,7,10;,
 3;8,10,11;,
 3;13,12,15;,
 3;13,15,16;,
 3;14,13,16;,
 3;14,16,17;,
 3;16,15,18;,
 3;16,18,19;,
 3;17,16,19;,
 3;17,19,20;,
 3;19,18,21;,
 3;19,21,22;,
 3;20,19,22;,
 3;20,22,23;,
 3;25,24,27;,
 3;25,27,28;,
 3;26,25,28;,
 3;26,28,29;,
 3;31,30,33;,
 3;31,33,34;,
 3;32,31,34;,
 3;32,34,35;,
 3;37,36,39;,
 3;37,39,40;,
 3;38,37,40;,
 3;38,40,41;,
 3;43,42,46;,
 3;43,46,47;,
 3;44,43,47;,
 3;44,47,48;,
 3;45,44,48;,
 3;45,48,49;,
 3;48,47,46;,
 3;48,46,53;,
 3;48,53,52;,
 3;48,52,51;,
 3;49,48,51;,
 3;49,51,50;,
 3;55,54,58;,
 3;55,58,59;,
 3;56,55,59;,
 3;56,59,60;,
 3;57,56,60;,
 3;57,60,61;,
 3;60,59,58;,
 3;60,58,65;,
 3;60,65,64;,
 3;60,64,63;,
 3;61,60,63;,
 3;61,63,62;,
 3;67,66,70;,
 3;67,70,71;,
 3;68,67,71;,
 3;68,71,72;,
 3;69,68,72;,
 3;69,72,73;,
 3;72,71,70;,
 3;72,70,77;,
 3;72,77,76;,
 3;72,76,75;,
 3;73,72,75;,
 3;73,75,74;,
 3;79,78,82;,
 3;79,82,83;,
 3;80,79,83;,
 3;80,83,84;,
 3;81,80,84;,
 3;81,84,85;,
 3;84,83,82;,
 3;84,82,89;,
 3;84,89,88;,
 3;84,88,87;,
 3;85,84,87;,
 3;85,87,86;,
 3;91,90,94;,
 3;91,94,95;,
 3;92,91,95;,
 3;92,95,96;,
 3;93,92,96;,
 3;93,96,97;,
 3;96,95,94;,
 3;96,94,101;,
 3;96,101,100;,
 3;96,100,99;,
 3;97,96,99;,
 3;97,99,98;,
 3;103,102,106;,
 3;103,106,107;,
 3;104,103,107;,
 3;104,107,108;,
 3;105,104,108;,
 3;105,108,109;,
 3;108,107,106;,
 3;108,106,113;,
 3;108,113,112;,
 3;108,112,111;,
 3;109,108,111;,
 3;109,111,110;,
 3;115,116,117;,
 3;115,117,102;,
 3;115,102,103;,
 3;115,103,104;,
 3;114,115,104;,
 3;114,104,105;,
 3;126,125,118;,
 3;126,118,119;,
 3;127,126,119;,
 3;127,119,120;,
 3;128,127,120;,
 3;128,120,121;,
 3;129,130,127;,
 3;129,127,128;,
 3;130,131,125;,
 3;130,125,126;,
 3;130,126,127;,
 3;131,132,135;,
 3;131,135,136;,
 3;131,136,137;,
 3;131,137,125;,
 3;132,133,134;,
 3;132,134,135;,
 3;133,132,123;,
 3;133,123,124;,
 3;132,131,122;,
 3;132,122,123;,
 3;143,142,138;,
 3;143,138,139;,
 3;144,143,139;,
 3;144,139,140;,
 3;145,144,140;,
 3;145,140,141;,
 3;147,148,149;,
 3;147,149,142;,
 3;147,142,143;,
 3;147,143,144;,
 3;146,147,144;,
 3;146,144,145;,
 3;155,154,150;,
 3;155,150,151;,
 3;156,155,151;,
 3;156,151,152;,
 3;157,156,152;,
 3;157,152,153;,
 3;159,160,161;,
 3;159,161,154;,
 3;159,154,155;,
 3;159,155,156;,
 3;158,159,156;,
 3;158,156,157;,
 3;167,166,162;,
 3;167,162,163;,
 3;168,167,163;,
 3;168,163,164;,
 3;169,168,164;,
 3;169,164,165;,
 3;171,172,173;,
 3;171,173,166;,
 3;171,166,167;,
 3;171,167,168;,
 3;170,171,168;,
 3;170,168,169;,
 3;179,178,174;,
 3;179,174,175;,
 3;180,179,175;,
 3;180,175,176;,
 3;181,180,176;,
 3;181,176,177;,
 3;183,184,185;,
 3;183,185,178;,
 3;183,178,179;,
 3;183,179,180;,
 3;182,183,180;,
 3;182,180,181;,
 3;191,190,186;,
 3;191,186,187;,
 3;192,191,187;,
 3;192,187,188;,
 3;193,192,188;,
 3;193,188,189;,
 3;195,196,197;,
 3;195,197,190;,
 3;195,190,191;,
 3;195,191,192;,
 3;194,195,192;,
 3;194,192,193;,
 3;203,202,198;,
 3;203,198,199;,
 3;204,203,199;,
 3;204,199,200;,
 3;205,204,200;,
 3;205,200,201;,
 3;207,208,209;,
 3;207,209,202;,
 3;207,202,203;,
 3;207,203,204;,
 3;206,207,204;,
 3;206,204,205;,
 3;215,214,210;,
 3;215,210,211;,
 3;216,215,211;,
 3;216,211,212;,
 3;217,216,212;,
 3;217,212,213;,
 3;219,220,221;,
 3;219,221,214;,
 3;219,214,215;,
 3;219,215,216;,
 3;218,219,216;,
 3;218,216,217;;

 MeshMaterialList  {
  19;
  219;
  0,
  0,
  0,
  0,
  0,
  0,
  0,
  0,
  0,
  0,
  0,
  0,
  1,
  1,
  1,
  1,
  1,
  1,
  1,
  1,
  1,
  1,
  1,
  1,
  2,
  2,
  2,
  2,
  3,
  3,
  3,
  3,
  4,
  4,
  4,
  4,
  5,
  5,
  5,
  5,
  5,
  5,
  5,
  5,
  5,
  5,
  5,
  5,
  6,
  6,
  6,
  6,
  6,
  6,
  6,
  6,
  6,
  6,
  6,
  6,
  7,
  7,
  7,
  7,
  7,
  7,
  7,
  7,
  7,
  7,
  7,
  7,
  8,
  8,
  8,
  8,
  8,
  8,
  8,
  8,
  8,
  8,
  8,
  8,
  9,
  9,
  9,
  9,
  9,
  9,
  9,
  9,
  9,
  9,
  9,
  9,
  10,
  10,
  10,
  10,
  10,
  10,
  10,
  10,
  10,
  10,
  10,
  10,
  10,
  10,
  10,
  10,
  10,
  10,
  11,
  11,
  11,
  11,
  11,
  11,
  11,
  11,
  11,
  11,
  11,
  11,
  11,
  11,
  11,
  11,
  11,
  11,
  11,
  11,
  11,
  12,
  12,
  12,
  12,
  12,
  12,
  12,
  12,
  12,
  12,
  12,
  12,
  13,
  13,
  13,
  13,
  13,
  13,
  13,
  13,
  13,
  13,
  13,
  13,
  14,
  14,
  14,
  14,
  14,
  14,
  14,
  14,
  14,
  14,
  14,
  14,
  15,
  15,
  15,
  15,
  15,
  15,
  15,
  15,
  15,
  15,
  15,
  15,
  16,
  16,
  16,
  16,
  16,
  16,
  16,
  16,
  16,
  16,
  16,
  16,
  17,
  17,
  17,
  17,
  17,
  17,
  17,
  17,
  17,
  17,
  17,
  17,
  18,
  18,
  18,
  18,
  18,
  18,
  18,
  18,
  18,
  18,
  18,
  18;

  Material  {
   1.000000;1.000000;1.000000;1.000000;;
   0.000000;
   0.000000;0.000000;0.000000;;
   0.000000;0.000000;0.000000;;

   TextureFilename  {
    "KozakaiBP_Saku1.png";
   }
  }

  Material  {
   1.000000;1.000000;1.000000;1.000000;;
   0.000000;
   0.000000;0.000000;0.000000;;
   0.000000;0.000000;0.000000;;

   TextureFilename  {
    "KozakaiBP_Saku1.png";
   }
  }

  Material  {
   1.000000;1.000000;1.000000;1.000000;;
   0.000000;
   0.000000;0.000000;0.000000;;
   0.000000;0.000000;0.000000;;

   TextureFilename  {
    "KozakaiBP_Saku1.png";
   }
  }

  Material  {
   1.000000;1.000000;1.000000;1.000000;;
   0.000000;
   0.000000;0.000000;0.000000;;
   0.000000;0.000000;0.000000;;

   TextureFilename  {
    "KozakaiBP_Saku1.png";
   }
  }

  Material  {
   1.000000;1.000000;1.000000;1.000000;;
   0.000000;
   0.000000;0.000000;0.000000;;
   0.000000;0.000000;0.000000;;

   TextureFilename  {
    "KozakaiBP_Saku1.png";
   }
  }

  Material  {
   1.000000;1.000000;1.000000;1.000000;;
   0.000000;
   0.000000;0.000000;0.000000;;
   0.000000;0.000000;0.000000;;

   TextureFilename  {
    "KozakaiBP_Pier1.png";
   }
  }

  Material  {
   1.000000;1.000000;1.000000;1.000000;;
   0.000000;
   0.000000;0.000000;0.000000;;
   0.000000;0.000000;0.000000;;

   TextureFilename  {
    "KozakaiBP_Pier1.png";
   }
  }

  Material  {
   1.000000;1.000000;1.000000;1.000000;;
   0.000000;
   0.000000;0.000000;0.000000;;
   0.000000;0.000000;0.000000;;

   TextureFilename  {
    "KozakaiBP_Pier1.png";
   }
  }

  Material  {
   1.000000;1.000000;1.000000;1.000000;;
   0.000000;
   0.000000;0.000000;0.000000;;
   0.000000;0.000000;0.000000;;

   TextureFilename  {
    "KozakaiBP_Pier1.png";
   }
  }

  Material  {
   1.000000;1.000000;1.000000;1.000000;;
   0.000000;
   0.000000;0.000000;0.000000;;
   0.000000;0.000000;0.000000;;

   TextureFilename  {
    "KozakaiBP_Pier1.png";
   }
  }

  Material  {
   1.000000;1.000000;1.000000;1.000000;;
   0.000000;
   0.000000;0.000000;0.000000;;
   0.000000;0.000000;0.000000;;

   TextureFilename  {
    "KozakaiBP_Pier1.png";
   }
  }

  Material  {
   1.000000;1.000000;1.000000;1.000000;;
   0.000000;
   0.000000;0.000000;0.000000;;
   0.000000;0.000000;0.000000;;

   TextureFilename  {
    "KozakaiBP_Pier1.png";
   }
  }

  Material  {
   1.000000;1.000000;1.000000;1.000000;;
   0.000000;
   0.000000;0.000000;0.000000;;
   0.000000;0.000000;0.000000;;

   TextureFilename  {
    "KozakaiBP_Pier1.png";
   }
  }

  Material  {
   1.000000;1.000000;1.000000;1.000000;;
   0.000000;
   0.000000;0.000000;0.000000;;
   0.000000;0.000000;0.000000;;

   TextureFilename  {
    "KozakaiBP_Pier1.png";
   }
  }

  Material  {
   1.000000;1.000000;1.000000;1.000000;;
   0.000000;
   0.000000;0.000000;0.000000;;
   0.000000;0.000000;0.000000;;

   TextureFilename  {
    "KozakaiBP_Pier1.png";
   }
  }

  Material  {
   1.000000;1.000000;1.000000;1.000000;;
   0.000000;
   0.000000;0.000000;0.000000;;
   0.000000;0.000000;0.000000;;

   TextureFilename  {
    "KozakaiBP_Pier1.png";
   }
  }

  Material  {
   1.000000;1.000000;1.000000;1.000000;;
   0.000000;
   0.000000;0.000000;0.000000;;
   0.000000;0.000000;0.000000;;

   TextureFilename  {
    "KozakaiBP_Pier1.png";
   }
  }

  Material  {
   1.000000;1.000000;1.000000;1.000000;;
   0.000000;
   0.000000;0.000000;0.000000;;
   0.000000;0.000000;0.000000;;

   TextureFilename  {
    "KozakaiBP_Pier1.png";
   }
  }

  Material  {
   1.000000;1.000000;1.000000;1.000000;;
   0.000000;
   0.000000;0.000000;0.000000;;
   0.000000;0.000000;0.000000;;

   TextureFilename  {
    "KozakaiBP_Pier1.png";
   }
  }
 }

 MeshTextureCoords  {
  222;
  0.100000;0.300000;,
  0.100000;0.734375;,
  0.100000;1.000000;,
  0.120000;0.300000;,
  0.120000;0.734375;,
  0.120000;1.000000;,
  0.140000;0.300000;,
  0.140000;0.734375;,
  0.140000;1.000000;,
  0.160000;0.300000;,
  0.160000;0.734375;,
  0.160000;1.000000;,
  0.000000;0.000000;,
  0.000000;0.734375;,
  0.000000;1.000000;,
  5.625000;0.000000;,
  5.625000;0.734375;,
  5.625000;1.000000;,
  10.625000;0.000000;,
  10.625000;0.734375;,
  10.625000;1.000000;,
  12.500000;0.000000;,
  12.500000;0.734375;,
  12.500000;1.000000;,
  0.100000;0.300000;,
  0.100000;0.734375;,
  0.100000;1.000000;,
  0.120000;0.300000;,
  0.120000;0.734375;,
  0.120000;1.000000;,
  0.000000;0.000000;,
  0.000000;0.734375;,
  0.000000;1.000000;,
  6.250000;0.000000;,
  6.250000;0.734375;,
  6.250000;1.000000;,
  0.100000;0.300000;,
  0.100000;0.734375;,
  0.100000;1.000000;,
  0.120000;0.300000;,
  0.120000;0.734375;,
  0.120000;1.000000;,
  0.000000;0.000000;,
  0.000000;0.125000;,
  0.000000;0.203125;,
  0.000000;1.000000;,
  0.500000;0.000000;,
  0.500000;0.125000;,
  0.500000;0.203125;,
  0.500000;1.000000;,
  1.000000;1.000000;,
  1.000000;0.203125;,
  1.000000;0.125000;,
  1.000000;0.000000;,
  0.000000;0.000000;,
  0.000000;0.125000;,
  0.000000;0.203125;,
  0.000000;1.000000;,
  0.500000;0.000000;,
  0.500000;0.125000;,
  0.500000;0.203125;,
  0.500000;1.000000;,
  1.000000;1.000000;,
  1.000000;0.203125;,
  1.000000;0.125000;,
  1.000000;0.000000;,
  0.000000;0.000000;,
  0.000000;0.125000;,
  0.000000;0.203125;,
  0.000000;1.000000;,
  0.500000;0.000000;,
  0.500000;0.125000;,
  0.500000;0.203125;,
  0.500000;1.000000;,
  1.000000;1.000000;,
  1.000000;0.203125;,
  1.000000;0.125000;,
  1.000000;0.000000;,
  0.000000;0.000000;,
  0.000000;0.125000;,
  0.000000;0.203125;,
  0.000000;1.000000;,
  0.500000;0.000000;,
  0.500000;0.125000;,
  0.500000;0.203125;,
  0.500000;1.000000;,
  1.000000;1.000000;,
  1.000000;0.203125;,
  1.000000;0.125000;,
  1.000000;0.000000;,
  0.000000;0.000000;,
  0.000000;0.125000;,
  0.000000;0.203125;,
  0.000000;1.000000;,
  0.500000;0.000000;,
  0.500000;0.125000;,
  0.500000;0.203125;,
  0.500000;1.000000;,
  1.000000;1.000000;,
  1.000000;0.203125;,
  1.000000;0.125000;,
  1.000000;0.000000;,
  0.000000;0.000000;,
  0.000000;0.125000;,
  0.000000;0.203125;,
  0.000000;1.000000;,
  0.500000;0.000000;,
  0.500000;0.125000;,
  0.500000;0.203125;,
  0.500000;1.000000;,
  1.000000;1.000000;,
  1.000000;0.203125;,
  1.000000;0.125000;,
  1.000000;0.000000;,
  -0.500000;1.000000;,
  -0.500000;0.203125;,
  -0.500000;0.125000;,
  -0.500000;0.000000;,
  0.000000;0.000000;,
  0.000000;0.125000;,
  0.000000;0.203125;,
  0.000000;1.000000;,
  0.500000;0.125000;,
  0.500000;0.203125;,
  0.500000;1.000000;,
  0.500000;0.000000;,
  1.000000;0.125000;,
  1.000000;0.203125;,
  1.000000;1.000000;,
  1.000000;1.000000;,
  1.000000;0.203125;,
  1.000000;0.125000;,
  1.000000;0.203125;,
  1.000000;1.000000;,
  1.000000;1.000000;,
  1.000000;0.203125;,
  1.000000;0.125000;,
  1.000000;0.000000;,
  0.000000;0.000000;,
  0.000000;0.125000;,
  0.000000;0.203125;,
  0.000000;1.000000;,
  0.500000;0.000000;,
  0.500000;0.125000;,
  0.500000;0.203125;,
  0.500000;1.000000;,
  1.000000;1.000000;,
  1.000000;0.203125;,
  1.000000;0.125000;,
  1.000000;0.000000;,
  0.000000;0.000000;,
  0.000000;0.125000;,
  0.000000;0.203125;,
  0.000000;1.000000;,
  0.500000;0.000000;,
  0.500000;0.125000;,
  0.500000;0.203125;,
  0.500000;1.000000;,
  1.000000;1.000000;,
  1.000000;0.203125;,
  1.000000;0.125000;,
  1.000000;0.000000;,
  0.000000;0.000000;,
  0.000000;0.125000;,
  0.000000;0.203125;,
  0.000000;1.000000;,
  0.500000;0.000000;,
  0.500000;0.125000;,
  0.500000;0.203125;,
  0.500000;1.000000;,
  1.000000;1.000000;,
  1.000000;0.203125;,
  1.000000;0.125000;,
  1.000000;0.000000;,
  0.000000;0.000000;,
  0.000000;0.125000;,
  0.000000;0.203125;,
  0.000000;1.000000;,
  0.500000;0.000000;,
  0.500000;0.125000;,
  0.500000;0.203125;,
  0.500000;1.000000;,
  1.000000;1.000000;,
  1.000000;0.203125;,
  1.000000;0.125000;,
  1.000000;0.000000;,
  0.000000;0.000000;,
  0.000000;0.125000;,
  0.000000;0.203125;,
  0.000000;1.000000;,
  0.500000;0.000000;,
  0.500000;0.125000;,
  0.500000;0.203125;,
  0.500000;1.000000;,
  1.000000;1.000000;,
  1.000000;0.203125;,
  1.000000;0.125000;,
  1.000000;0.000000;,
  0.000000;0.000000;,
  0.000000;0.125000;,
  0.000000;0.203125;,
  0.000000;1.000000;,
  0.500000;0.000000;,
  0.500000;0.125000;,
  0.500000;0.203125;,
  0.500000;1.000000;,
  1.000000;1.000000;,
  1.000000;0.203125;,
  1.000000;0.125000;,
  1.000000;0.000000;,
  0.000000;0.000000;,
  0.000000;0.125000;,
  0.000000;0.203125;,
  0.000000;1.000000;,
  0.500000;0.000000;,
  0.500000;0.125000;,
  0.500000;0.203125;,
  0.500000;1.000000;,
  1.000000;1.000000;,
  1.000000;0.203125;,
  1.000000;0.125000;,
  1.000000;0.000000;;
 }

 MeshNormals  {
  219;
  0.000000;0.000000;-1.000000;,
  0.000000;0.000000;-1.000000;,
  0.000000;-1.000000;0.000000;,
  0.000000;-1.000000;0.000000;,
  0.000000;0.000000;-1.000000;,
  0.000000;0.000000;-1.000000;,
  0.024992;-0.999688;0.000000;,
  0.024992;-0.999688;0.000000;,
  0.000000;0.000000;-1.000000;,
  0.000000;0.000000;-1.000000;,
  0.037474;-0.999298;0.000000;,
  0.037474;-0.999298;0.000000;,
  0.000000;0.000000;-1.000000;,
  0.000000;0.000000;-1.000000;,
  0.027767;-0.999614;0.000000;,
  0.027767;-0.999614;0.000000;,
  0.000000;0.000000;-1.000000;,
  0.000000;0.000000;-1.000000;,
  0.006250;-0.999980;0.000000;,
  0.006250;-0.999980;0.000000;,
  0.000000;0.000000;-1.000000;,
  0.000000;0.000000;-1.000000;,
  0.000000;-1.000000;0.000000;,
  0.000000;-1.000000;0.000000;,
  0.000000;0.000000;-1.000000;,
  0.000000;0.000000;-1.000000;,
  0.000000;-1.000000;0.000000;,
  0.000000;-1.000000;0.000000;,
  0.000000;0.000000;-1.000000;,
  0.000000;0.000000;-1.000000;,
  -0.019996;-0.999800;0.000000;,
  -0.019996;-0.999800;0.000000;,
  0.000000;0.000000;-1.000000;,
  0.000000;0.000000;-1.000000;,
  -0.039968;-0.999201;0.000000;,
  -0.039968;-0.999201;0.000000;,
  0.000000;0.000000;-1.000000;,
  0.000000;0.000000;-1.000000;,
  0.000000;-0.976187;-0.216930;,
  0.000000;-0.976187;-0.216930;,
  0.000000;0.000000;-1.000000;,
  0.000000;0.000000;-1.000000;,
  1.000000;0.000000;0.000000;,
  1.000000;0.000000;0.000000;,
  1.000000;0.000000;0.000000;,
  1.000000;0.000000;0.000000;,
  1.000000;0.000000;0.000000;,
  1.000000;0.000000;0.000000;,
  0.000000;0.000000;-1.000000;,
  0.000000;0.000000;-1.000000;,
  0.000000;-0.976187;-0.216930;,
  0.000000;-0.976187;-0.216930;,
  0.000000;0.000000;-1.000000;,
  0.000000;0.000000;-1.000000;,
  1.000000;0.000000;0.000000;,
  1.000000;0.000000;0.000000;,
  1.000000;0.000000;0.000000;,
  1.000000;0.000000;0.000000;,
  1.000000;0.000000;0.000000;,
  1.000000;0.000000;0.000000;,
  0.000000;0.000000;-1.000000;,
  0.000000;0.000000;-1.000000;,
  0.000000;-0.976187;-0.216930;,
  0.000000;-0.976187;-0.216930;,
  0.000000;0.000000;-1.000000;,
  0.000000;0.000000;-1.000000;,
  1.000000;0.000000;0.000000;,
  1.000000;0.000000;0.000000;,
  1.000000;0.000000;0.000000;,
  1.000000;0.000000;0.000000;,
  1.000000;0.000000;0.000000;,
  1.000000;0.000000;0.000000;,
  0.000000;0.000000;-1.000000;,
  0.000000;0.000000;-1.000000;,
  0.000000;-0.976187;-0.216930;,
  0.000000;-0.976187;-0.216930;,
  0.000000;0.000000;-1.000000;,
  0.000000;0.000000;-1.000000;,
  1.000000;0.000000;0.000000;,
  1.000000;0.000000;0.000000;,
  1.000000;0.000000;0.000000;,
  1.000000;0.000000;0.000000;,
  1.000000;0.000000;0.000000;,
  1.000000;0.000000;0.000000;,
  0.000000;0.000000;-1.000000;,
  0.000000;0.000000;-1.000000;,
  0.000000;-0.976187;-0.216930;,
  0.000000;-0.976187;-0.216930;,
  0.000000;0.000000;-1.000000;,
  0.000000;0.000000;-1.000000;,
  1.000000;0.000000;0.000000;,
  1.000000;0.000000;0.000000;,
  1.000000;0.000000;0.000000;,
  1.000000;0.000000;0.000000;,
  1.000000;0.000000;0.000000;,
  1.000000;0.000000;0.000000;,
  0.000000;0.000000;-1.000000;,
  0.000000;0.000000;-1.000000;,
  0.000000;-0.976187;-0.216930;,
  0.000000;-0.976187;-0.216930;,
  0.000000;0.000000;-1.000000;,
  0.000000;0.000000;-1.000000;,
  1.000000;0.000000;0.000000;,
  1.000000;0.000000;0.000000;,
  1.000000;0.000000;0.000000;,
  1.000000;0.000000;0.000000;,
  1.000000;0.000000;0.000000;,
  1.000000;0.000000;0.000000;,
  -1.000000;0.000000;0.000000;,
  -1.000000;0.000000;0.000000;,
  -1.000000;0.000000;0.000000;,
  -1.000000;0.000000;0.000000;,
  -1.000000;0.000000;0.000000;,
  -1.000000;0.000000;0.000000;,
  0.000000;0.000000;-1.000000;,
  0.000000;0.000000;-1.000000;,
  0.000000;-0.976187;-0.216930;,
  0.000000;-0.976187;-0.216930;,
  0.000000;0.000000;-1.000000;,
  0.000000;0.000000;-1.000000;,
  -1.000000;0.000000;0.000000;,
  -1.000000;0.000000;0.000000;,
  -1.000000;0.000000;0.000000;,
  -1.000000;0.000000;0.000000;,
  -1.000000;0.000000;0.000000;,
  -1.000000;0.000000;0.000000;,
  -1.000000;0.000000;0.000000;,
  -1.000000;0.000000;0.000000;,
  -1.000000;0.000000;0.000000;,
  -1.000000;0.000000;0.000000;,
  -1.000000;0.000000;0.000000;,
  0.000000;0.000000;-1.000000;,
  0.000000;0.000000;-1.000000;,
  0.000000;-0.976187;-0.216930;,
  0.000000;-0.976187;-0.216930;,
  0.000000;0.000000;-1.000000;,
  0.000000;0.000000;-1.000000;,
  0.000000;-0.976187;-0.216930;,
  0.000000;-0.976187;-0.216930;,
  0.000000;0.000000;-1.000000;,
  0.000000;0.000000;-1.000000;,
  -1.000000;0.000000;0.000000;,
  -1.000000;0.000000;0.000000;,
  -1.000000;0.000000;0.000000;,
  -1.000000;0.000000;0.000000;,
  -1.000000;0.000000;0.000000;,
  -1.000000;0.000000;0.000000;,
  0.000000;0.000000;-1.000000;,
  0.000000;0.000000;-1.000000;,
  0.000000;-0.976187;-0.216930;,
  0.000000;-0.976187;-0.216930;,
  0.000000;0.000000;-1.000000;,
  0.000000;0.000000;-1.000000;,
  -1.000000;0.000000;0.000000;,
  -1.000000;0.000000;0.000000;,
  -1.000000;0.000000;0.000000;,
  -1.000000;0.000000;0.000000;,
  -1.000000;0.000000;0.000000;,
  -1.000000;0.000000;0.000000;,
  0.000000;0.000000;-1.000000;,
  0.000000;0.000000;-1.000000;,
  0.000000;-0.976187;-0.216930;,
  0.000000;-0.976187;-0.216930;,
  0.000000;0.000000;-1.000000;,
  0.000000;0.000000;-1.000000;,
  -1.000000;0.000000;0.000000;,
  -1.000000;0.000000;0.000000;,
  -1.000000;0.000000;0.000000;,
  -1.000000;0.000000;0.000000;,
  -1.000000;0.000000;0.000000;,
  -1.000000;0.000000;0.000000;,
  0.000000;0.000000;-1.000000;,
  0.000000;0.000000;-1.000000;,
  0.000000;-0.976187;-0.216930;,
  0.000000;-0.976187;-0.216930;,
  0.000000;0.000000;-1.000000;,
  0.000000;0.000000;-1.000000;,
  -1.000000;0.000000;0.000000;,
  -1.000000;0.000000;0.000000;,
  -1.000000;0.000000;0.000000;,
  -1.000000;0.000000;0.000000;,
  -1.000000;0.000000;0.000000;,
  -1.000000;0.000000;0.000000;,
  0.000000;0.000000;-1.000000;,
  0.000000;0.000000;-1.000000;,
  0.000000;-0.976187;-0.216930;,
  0.000000;-0.976187;-0.216930;,
  0.000000;0.000000;-1.000000;,
  0.000000;0.000000;-1.000000;,
  -1.000000;0.000000;0.000000;,
  -1.000000;0.000000;0.000000;,
  -1.000000;0.000000;0.000000;,
  -1.000000;0.000000;0.000000;,
  -1.000000;0.000000;0.000000;,
  -1.000000;0.000000;0.000000;,
  0.000000;0.000000;-1.000000;,
  0.000000;0.000000;-1.000000;,
  0.000000;-0.976187;-0.216930;,
  0.000000;-0.976187;-0.216930;,
  0.000000;0.000000;-1.000000;,
  0.000000;0.000000;-1.000000;,
  -1.000000;0.000000;0.000000;,
  -1.000000;0.000000;0.000000;,
  -1.000000;0.000000;0.000000;,
  -1.000000;0.000000;0.000000;,
  -1.000000;0.000000;0.000000;,
  -1.000000;0.000000;0.000000;,
  0.000000;0.000000;-1.000000;,
  0.000000;0.000000;-1.000000;,
  0.000000;-0.976187;-0.216930;,
  0.000000;-0.976187;-0.216930;,
  0.000000;0.000000;-1.000000;,
  0.000000;0.000000;-1.000000;,
  -1.000000;0.000000;0.000000;,
  -1.000000;0.000000;0.000000;,
  -1.000000;0.000000;0.000000;,
  -1.000000;0.000000;0.000000;,
  -1.000000;0.000000;0.000000;,
  -1.000000;0.000000;0.000000;;
  219;
  3;0,0,0;,
  3;1,1,1;,
  3;2,2,2;,
  3;3,3,3;,
  3;4,4,4;,
  3;5,5,5;,
  3;6,6,6;,
  3;7,7,7;,
  3;8,8,8;,
  3;9,9,9;,
  3;10,10,10;,
  3;11,11,11;,
  3;12,12,12;,
  3;13,13,13;,
  3;14,14,14;,
  3;15,15,15;,
  3;16,16,16;,
  3;17,17,17;,
  3;18,18,18;,
  3;19,19,19;,
  3;20,20,20;,
  3;21,21,21;,
  3;22,22,22;,
  3;23,23,23;,
  3;24,24,24;,
  3;25,25,25;,
  3;26,26,26;,
  3;27,27,27;,
  3;28,28,28;,
  3;29,29,29;,
  3;30,30,30;,
  3;31,31,31;,
  3;32,32,32;,
  3;33,33,33;,
  3;34,34,34;,
  3;35,35,35;,
  3;36,36,36;,
  3;37,37,37;,
  3;38,38,38;,
  3;39,39,39;,
  3;40,40,40;,
  3;41,41,41;,
  3;42,42,42;,
  3;43,43,43;,
  3;44,44,44;,
  3;45,45,45;,
  3;46,46,46;,
  3;47,47,47;,
  3;48,48,48;,
  3;49,49,49;,
  3;50,50,50;,
  3;51,51,51;,
  3;52,52,52;,
  3;53,53,53;,
  3;54,54,54;,
  3;55,55,55;,
  3;56,56,56;,
  3;57,57,57;,
  3;58,58,58;,
  3;59,59,59;,
  3;60,60,60;,
  3;61,61,61;,
  3;62,62,62;,
  3;63,63,63;,
  3;64,64,64;,
  3;65,65,65;,
  3;66,66,66;,
  3;67,67,67;,
  3;68,68,68;,
  3;69,69,69;,
  3;70,70,70;,
  3;71,71,71;,
  3;72,72,72;,
  3;73,73,73;,
  3;74,74,74;,
  3;75,75,75;,
  3;76,76,76;,
  3;77,77,77;,
  3;78,78,78;,
  3;79,79,79;,
  3;80,80,80;,
  3;81,81,81;,
  3;82,82,82;,
  3;83,83,83;,
  3;84,84,84;,
  3;85,85,85;,
  3;86,86,86;,
  3;87,87,87;,
  3;88,88,88;,
  3;89,89,89;,
  3;90,90,90;,
  3;91,91,91;,
  3;92,92,92;,
  3;93,93,93;,
  3;94,94,94;,
  3;95,95,95;,
  3;96,96,96;,
  3;97,97,97;,
  3;98,98,98;,
  3;99,99,99;,
  3;100,100,100;,
  3;101,101,101;,
  3;102,102,102;,
  3;103,103,103;,
  3;104,104,104;,
  3;105,105,105;,
  3;106,106,106;,
  3;107,107,107;,
  3;108,108,108;,
  3;109,109,109;,
  3;110,110,110;,
  3;111,111,111;,
  3;112,112,112;,
  3;113,113,113;,
  3;114,114,114;,
  3;115,115,115;,
  3;116,116,116;,
  3;117,117,117;,
  3;118,118,118;,
  3;119,119,119;,
  3;120,120,120;,
  3;121,121,121;,
  3;122,122,122;,
  3;123,123,123;,
  3;124,124,124;,
  3;125,125,125;,
  3;126,126,126;,
  3;127,127,127;,
  3;128,128,128;,
  3;129,129,129;,
  3;130,130,130;,
  3;131,131,131;,
  3;132,132,132;,
  3;133,133,133;,
  3;134,134,134;,
  3;135,135,135;,
  3;136,136,136;,
  3;137,137,137;,
  3;138,138,138;,
  3;139,139,139;,
  3;140,140,140;,
  3;141,141,141;,
  3;142,142,142;,
  3;143,143,143;,
  3;144,144,144;,
  3;145,145,145;,
  3;146,146,146;,
  3;147,147,147;,
  3;148,148,148;,
  3;149,149,149;,
  3;150,150,150;,
  3;151,151,151;,
  3;152,152,152;,
  3;153,153,153;,
  3;154,154,154;,
  3;155,155,155;,
  3;156,156,156;,
  3;157,157,157;,
  3;158,158,158;,
  3;159,159,159;,
  3;160,160,160;,
  3;161,161,161;,
  3;162,162,162;,
  3;163,163,163;,
  3;164,164,164;,
  3;165,165,165;,
  3;166,166,166;,
  3;167,167,167;,
  3;168,168,168;,
  3;169,169,169;,
  3;170,170,170;,
  3;171,171,171;,
  3;172,172,172;,
  3;173,173,173;,
  3;174,174,174;,
  3;175,175,175;,
  3;176,176,176;,
  3;177,177,177;,
  3;178,178,178;,
  3;179,179,179;,
  3;180,180,180;,
  3;181,181,181;,
  3;182,182,182;,
  3;183,183,183;,
  3;184,184,184;,
  3;185,185,185;,
  3;186,186,186;,
  3;187,187,187;,
  3;188,188,188;,
  3;189,189,189;,
  3;190,190,190;,
  3;191,191,191;,
  3;192,192,192;,
  3;193,193,193;,
  3;194,194,194;,
  3;195,195,195;,
  3;196,196,196;,
  3;197,197,197;,
  3;198,198,198;,
  3;199,199,199;,
  3;200,200,200;,
  3;201,201,201;,
  3;202,202,202;,
  3;203,203,203;,
  3;204,204,204;,
  3;205,205,205;,
  3;206,206,206;,
  3;207,207,207;,
  3;208,208,208;,
  3;209,209,209;,
  3;210,210,210;,
  3;211,211,211;,
  3;212,212,212;,
  3;213,213,213;,
  3;214,214,214;,
  3;215,215,215;,
  3;216,216,216;,
  3;217,217,217;,
  3;218,218,218;;
 }
}