xof 0303txt 0032
template Vector {
 <3d82ab5e-62da-11cf-ab39-0020af71e433>
 FLOAT x;
 FLOAT y;
 FLOAT z;
}

template MeshFace {
 <3d82ab5f-62da-11cf-ab39-0020af71e433>
 DWORD nFaceVertexIndices;
 array DWORD faceVertexIndices[nFaceVertexIndices];
}

template Mesh {
 <3d82ab44-62da-11cf-ab39-0020af71e433>
 DWORD nVertices;
 array Vector vertices[nVertices];
 DWORD nFaces;
 array MeshFace faces[nFaces];
 [...]
}

template ColorRGBA {
 <35ff44e0-6c7c-11cf-8f52-0040333594a3>
 FLOAT red;
 FLOAT green;
 FLOAT blue;
 FLOAT alpha;
}

template ColorRGB {
 <d3e16e81-7835-11cf-8f52-0040333594a3>
 FLOAT red;
 FLOAT green;
 FLOAT blue;
}

template Material {
 <3d82ab4d-62da-11cf-ab39-0020af71e433>
 ColorRGBA faceColor;
 FLOAT power;
 ColorRGB specularColor;
 ColorRGB emissiveColor;
 [...]
}

template MeshMaterialList {
 <f6f23f42-7686-11cf-8f52-0040333594a3>
 DWORD nMaterials;
 DWORD nFaceIndexes;
 array DWORD faceIndexes[nFaceIndexes];
 [Material <3d82ab4d-62da-11cf-ab39-0020af71e433>]
}

template TextureFilename {
 <a42790e1-7810-11cf-8f52-0040333594a3>
 STRING filename;
}

template Coords2d {
 <f6f23f44-7686-11cf-8f52-0040333594a3>
 FLOAT u;
 FLOAT v;
}

template MeshTextureCoords {
 <f6f23f40-7686-11cf-8f52-0040333594a3>
 DWORD nTextureCoords;
 array Coords2d textureCoords[nTextureCoords];
}

template MeshNormals {
 <f6f23f43-7686-11cf-8f52-0040333594a3>
 DWORD nNormals;
 array Vector normals[nNormals];
 DWORD nFaceNormals;
 array MeshFace faceNormals[nFaceNormals];
}


Mesh  {
 91;
 -100.000000;10.500000;10.000000;,
 -100.000000;6.400000;10.000000;,
 -100.000000;6.400000;22.000000;,
 -75.000000;11.300000;10.000000;,
 -75.000000;7.200000;10.000000;,
 -75.000000;7.200000;22.000000;,
 -50.000000;11.800000;10.000000;,
 -50.000000;7.700000;10.000000;,
 -50.000000;7.700000;22.000000;,
 -15.000000;12.000000;10.000000;,
 -15.000000;7.900000;10.000000;,
 -15.000000;7.900000;22.000000;,
 -15.000000;12.000000;10.000000;,
 -15.000000;7.000000;10.000000;,
 -15.000000;7.000000;22.000000;,
 35.000000;12.000000;10.000000;,
 35.000000;7.000000;10.000000;,
 35.000000;7.000000;22.000000;,
 -99.000000;2.000000;10.000000;,
 -106.000000;2.000000;3.000000;,
 -106.000000;9.000000;10.000000;,
 -116.000000;-6.000000;-4.000000;,
 -165.000000;-6.000000;-3.000000;,
 -165.000000;7.000000;10.000000;,
 -116.000000;-6.000000;-4.000000;,
 -106.000000;2.000000;3.000000;,
 -99.000000;2.000000;10.000000;,
 -99.000000;-6.000000;10.000000;,
 -106.000000;-6.000000;10.000000;,
 -99.000000;-6.000000;10.000000;,
 -99.000000;-6.000000;22.000000;,
 -106.000000;6.430000;10.000000;,
 -100.000000;6.430000;10.000000;,
 -99.000000;6.430000;10.000000;,
 -99.000000;6.430000;22.000000;,
 -106.000000;10.500000;10.000000;,
 -100.000000;10.500000;10.000000;,
 -76.000000;7.220000;10.000000;,
 -76.000000;5.720000;10.000000;,
 -76.000000;4.720000;14.500000;,
 -76.000000;-6.000000;14.500000;,
 -74.000000;7.220000;10.000000;,
 -74.000000;5.720000;10.000000;,
 -74.000000;4.720000;14.500000;,
 -74.000000;-6.000000;14.500000;,
 -74.000000;-6.000000;17.500000;,
 -74.000000;4.720000;17.500000;,
 -74.000000;5.720000;22.000000;,
 -74.000000;7.220000;22.000000;,
 -51.000000;7.720000;10.000000;,
 -51.000000;6.220000;10.000000;,
 -51.000000;5.220000;14.500000;,
 -51.000000;-6.000000;14.500000;,
 -49.000000;7.720000;10.000000;,
 -49.000000;6.220000;10.000000;,
 -49.000000;5.220000;14.500000;,
 -49.000000;-6.000000;14.500000;,
 -49.000000;-6.000000;17.500000;,
 -49.000000;5.220000;17.500000;,
 -49.000000;6.220000;22.000000;,
 -49.000000;7.720000;22.000000;,
 -16.000000;7.900000;10.010000;,
 -16.000000;5.900000;10.010000;,
 -16.000000;4.900000;14.500000;,
 -16.000000;-6.000000;14.500000;,
 -14.000000;7.900000;10.010000;,
 -14.000000;5.900000;10.010000;,
 -14.000000;4.900000;14.500000;,
 -14.000000;-6.000000;14.500000;,
 -14.000000;-6.000000;17.500000;,
 -14.000000;4.900000;17.500000;,
 -14.000000;5.900000;22.000000;,
 -14.000000;7.900000;22.000000;,
 110.000000;-6.000000;10.010000;,
 33.500000;-6.000000;10.010000;,
 33.500000;-6.000000;22.000000;,
 110.000000;10.000000;10.010000;,
 40.000000;10.000000;10.010000;,
 35.000000;10.000000;10.010000;,
 33.500000;10.000000;10.010000;,
 33.500000;10.000000;22.000000;,
 40.000000;12.000000;10.010000;,
 35.000000;12.000000;10.010000;,
 -165.000000;7.000000;10.000000;,
 -165.000000;8.200000;10.000000;,
 -106.000000;9.000000;10.000000;,
 -106.000000;10.200000;10.000000;,
 40.000000;10.000000;10.000000;,
 40.000000;11.200000;10.000000;,
 110.000000;10.000000;10.000000;,
 110.000000;11.200000;10.000000;;
 77;
 3;1,0,3;,
 3;1,3,4;,
 3;2,1,4;,
 3;2,4,5;,
 3;4,3,6;,
 3;4,6,7;,
 3;5,4,7;,
 3;5,7,8;,
 3;7,6,9;,
 3;7,9,10;,
 3;8,7,10;,
 3;8,10,11;,
 3;13,12,15;,
 3;13,15,16;,
 3;14,13,16;,
 3;14,16,17;,
 3;19,20,18;,
 3;22,23,20;,
 3;22,20,19;,
 3;22,19,21;,
 3;24,25,26;,
 3;24,26,27;,
 3;28,31,32;,
 3;28,32,33;,
 3;28,33,29;,
 3;29,33,34;,
 3;29,34,30;,
 3;31,35,36;,
 3;31,36,32;,
 3;38,37,41;,
 3;38,41,42;,
 3;39,38,42;,
 3;39,42,43;,
 3;40,39,43;,
 3;40,43,44;,
 3;43,42,41;,
 3;43,41,48;,
 3;43,48,47;,
 3;43,47,46;,
 3;44,43,46;,
 3;44,46,45;,
 3;50,49,53;,
 3;50,53,54;,
 3;51,50,54;,
 3;51,54,55;,
 3;52,51,55;,
 3;52,55,56;,
 3;55,54,53;,
 3;55,53,60;,
 3;55,60,59;,
 3;55,59,58;,
 3;56,55,58;,
 3;56,58,57;,
 3;62,61,65;,
 3;62,65,66;,
 3;63,62,66;,
 3;63,66,67;,
 3;64,63,67;,
 3;64,67,68;,
 3;67,66,65;,
 3;67,65,72;,
 3;67,72,71;,
 3;67,71,70;,
 3;68,67,70;,
 3;68,70,69;,
 3;74,79,78;,
 3;74,78,77;,
 3;74,77,76;,
 3;74,76,73;,
 3;75,80,79;,
 3;75,79,74;,
 3;78,82,81;,
 3;78,81,77;,
 3;83,84,86;,
 3;83,86,85;,
 3;87,88,90;,
 3;87,90,89;;

 MeshMaterialList  {
  11;
  77;
  0,
  0,
  0,
  0,
  0,
  0,
  0,
  0,
  0,
  0,
  0,
  0,
  1,
  1,
  1,
  1,
  2,
  2,
  2,
  2,
  3,
  3,
  4,
  4,
  4,
  4,
  4,
  4,
  4,
  5,
  5,
  5,
  5,
  5,
  5,
  5,
  5,
  5,
  5,
  5,
  5,
  6,
  6,
  6,
  6,
  6,
  6,
  6,
  6,
  6,
  6,
  6,
  6,
  7,
  7,
  7,
  7,
  7,
  7,
  7,
  7,
  7,
  7,
  7,
  7,
  8,
  8,
  8,
  8,
  8,
  8,
  8,
  8,
  9,
  9,
  10,
  10;

  Material  {
   1.000000;1.000000;1.000000;1.000000;;
   0.000000;
   0.000000;0.000000;0.000000;;
   0.000000;0.000000;0.000000;;

   TextureFilename  {
    "r31_Saku1.png";
   }
  }

  Material  {
   1.000000;1.000000;1.000000;1.000000;;
   0.000000;
   0.000000;0.000000;0.000000;;
   0.000000;0.000000;0.000000;;

   TextureFilename  {
    "R23_Saku5.png";
   }
  }

  Material  {
   0.627451;1.000000;0.627451;1.000000;;
   0.000000;
   0.000000;0.000000;0.000000;;
   0.000000;0.000000;0.000000;;

   TextureFilename  {
    "Grass1.png";
   }
  }

  Material  {
   1.000000;1.000000;1.000000;1.000000;;
   0.000000;
   0.000000;0.000000;0.000000;;
   0.000000;0.000000;0.000000;;

   TextureFilename  {
    "R23_Pier2.png";
   }
  }

  Material  {
   1.000000;1.000000;1.000000;1.000000;;
   0.000000;
   0.000000;0.000000;0.000000;;
   0.000000;0.000000;0.000000;;

   TextureFilename  {
    "R23_Pier2.png";
   }
  }

  Material  {
   1.000000;1.000000;1.000000;1.000000;;
   0.000000;
   0.000000;0.000000;0.000000;;
   0.000000;0.000000;0.000000;;

   TextureFilename  {
    "KozakaiBP_Pier1.png";
   }
  }

  Material  {
   1.000000;1.000000;1.000000;1.000000;;
   0.000000;
   0.000000;0.000000;0.000000;;
   0.000000;0.000000;0.000000;;

   TextureFilename  {
    "KozakaiBP_Pier1.png";
   }
  }

  Material  {
   1.000000;1.000000;1.000000;1.000000;;
   0.000000;
   0.000000;0.000000;0.000000;;
   0.000000;0.000000;0.000000;;

   TextureFilename  {
    "KozakaiBP_Pier1.png";
   }
  }

  Material  {
   1.000000;1.000000;1.000000;1.000000;;
   0.000000;
   0.000000;0.000000;0.000000;;
   0.000000;0.000000;0.000000;;

   TextureFilename  {
    "R23_Pier2.png";
   }
  }

  Material  {
   1.000000;1.000000;1.000000;1.000000;;
   0.000000;
   0.000000;0.000000;0.000000;;
   0.000000;0.000000;0.000000;;

   TextureFilename  {
    "Saku2.png";
   }
  }

  Material  {
   1.000000;1.000000;1.000000;1.000000;;
   0.000000;
   0.000000;0.000000;0.000000;;
   0.000000;0.000000;0.000000;;

   TextureFilename  {
    "Saku2.png";
   }
  }
 }

 MeshTextureCoords  {
  91;
  0.100000;0.000000;,
  0.100000;0.500000;,
  0.100000;1.000000;,
  0.120000;0.000000;,
  0.120000;0.500000;,
  0.120000;1.000000;,
  0.140000;0.000000;,
  0.140000;0.500000;,
  0.140000;1.000000;,
  0.160000;0.000000;,
  0.160000;0.500000;,
  0.160000;1.000000;,
  0.000000;0.000000;,
  0.000000;0.859000;,
  0.000000;1.000000;,
  10.000000;0.000000;,
  10.000000;0.859000;,
  10.000000;1.000000;,
  1.000000;0.533333;,
  0.893939;0.533333;,
  0.893939;1.000000;,
  0.742424;0.000000;,
  0.000000;0.000000;,
  0.000000;0.866667;,
  0.000000;0.000000;,
  0.588235;1.000000;,
  1.000000;1.000000;,
  1.000000;0.000000;,
  0.000000;1.000000;,
  0.500000;1.000000;,
  1.000000;1.000000;,
  0.000000;0.100000;,
  0.400000;0.100000;,
  0.500000;0.100000;,
  1.000000;0.100000;,
  0.000000;0.000000;,
  0.400000;0.000000;,
  0.000000;0.000000;,
  0.000000;0.125000;,
  0.000000;0.203125;,
  0.000000;1.000000;,
  0.500000;0.000000;,
  0.500000;0.125000;,
  0.500000;0.203125;,
  0.500000;1.000000;,
  1.000000;1.000000;,
  1.000000;0.203125;,
  1.000000;0.125000;,
  1.000000;0.000000;,
  0.000000;0.000000;,
  0.000000;0.125000;,
  0.000000;0.203125;,
  0.000000;1.000000;,
  0.500000;0.000000;,
  0.500000;0.125000;,
  0.500000;0.203125;,
  0.500000;1.000000;,
  1.000000;1.000000;,
  1.000000;0.203125;,
  1.000000;0.125000;,
  1.000000;0.000000;,
  0.000000;0.000000;,
  0.000000;0.125000;,
  0.000000;0.203125;,
  0.000000;1.000000;,
  0.500000;0.000000;,
  0.500000;0.125000;,
  0.500000;0.203125;,
  0.500000;1.000000;,
  1.000000;1.000000;,
  1.000000;0.203125;,
  1.000000;0.125000;,
  1.000000;0.000000;,
  0.000000;0.000000;,
  0.000000;0.125000;,
  0.000000;0.203125;,
  0.000000;1.000000;,
  0.500000;0.000000;,
  0.500000;0.125000;,
  0.500000;0.203125;,
  0.500000;1.000000;,
  1.000000;1.000000;,
  1.000000;0.203125;,
  0.000000;1.000000;,
  0.000000;0.000000;,
  25.000000;1.000000;,
  25.000000;0.000000;,
  0.000000;1.000000;,
  0.000000;0.000000;,
  25.000000;1.000000;,
  25.000000;0.000000;;
 }

 MeshNormals  {
  77;
  0.000000;0.000000;-1.000000;,
  0.000000;0.000000;-1.000000;,
  0.031984;-0.999488;0.000000;,
  0.031984;-0.999488;0.000000;,
  0.000000;0.000000;-1.000000;,
  0.000000;0.000000;-1.000000;,
  0.019996;-0.999800;0.000000;,
  0.019996;-0.999800;0.000000;,
  0.000000;0.000000;-1.000000;,
  0.000000;0.000000;-1.000000;,
  0.005714;-0.999984;0.000000;,
  0.005714;-0.999984;0.000000;,
  0.000000;0.000000;-1.000000;,
  0.000000;0.000000;-1.000000;,
  0.000000;-1.000000;0.000000;,
  0.000000;-1.000000;0.000000;,
  0.577350;0.577350;-0.577350;,
  -0.023963;0.706904;-0.706904;,
  -0.023963;0.706904;-0.706904;,
  -0.015164;0.669097;-0.743020;,
  0.683486;-0.256307;-0.683486;,
  0.635707;0.000000;-0.771930;,
  0.000000;0.000000;-1.000000;,
  0.000000;0.000000;-1.000000;,
  0.000000;0.000000;-1.000000;,
  1.000000;0.000000;0.000000;,
  1.000000;0.000000;0.000000;,
  0.000000;0.000000;-1.000000;,
  0.000000;0.000000;-1.000000;,
  0.000000;0.000000;-1.000000;,
  0.000000;0.000000;-1.000000;,
  0.000000;-0.976187;-0.216930;,
  0.000000;-0.976187;-0.216930;,
  0.000000;0.000000;-1.000000;,
  0.000000;0.000000;-1.000000;,
  1.000000;0.000000;0.000000;,
  1.000000;0.000000;0.000000;,
  1.000000;0.000000;0.000000;,
  1.000000;0.000000;0.000000;,
  1.000000;0.000000;0.000000;,
  1.000000;0.000000;0.000000;,
  0.000000;0.000000;-1.000000;,
  0.000000;0.000000;-1.000000;,
  0.000000;-0.976187;-0.216930;,
  0.000000;-0.976187;-0.216930;,
  0.000000;0.000000;-1.000000;,
  0.000000;0.000000;-1.000000;,
  1.000000;0.000000;0.000000;,
  1.000000;0.000000;0.000000;,
  1.000000;0.000000;0.000000;,
  1.000000;0.000000;0.000000;,
  1.000000;0.000000;0.000000;,
  1.000000;0.000000;0.000000;,
  0.000000;0.000000;-1.000000;,
  0.000000;0.000000;-1.000000;,
  0.000000;-0.976085;-0.217391;,
  0.000000;-0.976085;-0.217391;,
  0.000000;0.000000;-1.000000;,
  0.000000;0.000000;-1.000000;,
  1.000000;0.000000;0.000000;,
  1.000000;0.000000;0.000000;,
  1.000000;0.000000;0.000000;,
  1.000000;0.000000;0.000000;,
  1.000000;0.000000;0.000000;,
  1.000000;0.000000;0.000000;,
  0.000000;0.000000;-1.000000;,
  0.000000;0.000000;-1.000000;,
  0.000000;0.000000;-1.000000;,
  0.000000;0.000000;-1.000000;,
  -1.000000;0.000000;0.000000;,
  -1.000000;0.000000;0.000000;,
  0.000000;0.000000;-1.000000;,
  0.000000;0.000000;-1.000000;,
  0.000000;0.000000;-1.000000;,
  0.000000;0.000000;-1.000000;,
  0.000000;0.000000;-1.000000;,
  0.000000;0.000000;-1.000000;;
  77;
  3;0,0,0;,
  3;1,1,1;,
  3;2,2,2;,
  3;3,3,3;,
  3;4,4,4;,
  3;5,5,5;,
  3;6,6,6;,
  3;7,7,7;,
  3;8,8,8;,
  3;9,9,9;,
  3;10,10,10;,
  3;11,11,11;,
  3;12,12,12;,
  3;13,13,13;,
  3;14,14,14;,
  3;15,15,15;,
  3;16,16,16;,
  3;17,17,17;,
  3;18,18,18;,
  3;19,19,19;,
  3;20,20,20;,
  3;21,21,21;,
  3;22,22,22;,
  3;23,23,23;,
  3;24,24,24;,
  3;25,25,25;,
  3;26,26,26;,
  3;27,27,27;,
  3;28,28,28;,
  3;29,29,29;,
  3;30,30,30;,
  3;31,31,31;,
  3;32,32,32;,
  3;33,33,33;,
  3;34,34,34;,
  3;35,35,35;,
  3;36,36,36;,
  3;37,37,37;,
  3;38,38,38;,
  3;39,39,39;,
  3;40,40,40;,
  3;41,41,41;,
  3;42,42,42;,
  3;43,43,43;,
  3;44,44,44;,
  3;45,45,45;,
  3;46,46,46;,
  3;47,47,47;,
  3;48,48,48;,
  3;49,49,49;,
  3;50,50,50;,
  3;51,51,51;,
  3;52,52,52;,
  3;53,53,53;,
  3;54,54,54;,
  3;55,55,55;,
  3;56,56,56;,
  3;57,57,57;,
  3;58,58,58;,
  3;59,59,59;,
  3;60,60,60;,
  3;61,61,61;,
  3;62,62,62;,
  3;63,63,63;,
  3;64,64,64;,
  3;65,65,65;,
  3;66,66,66;,
  3;67,67,67;,
  3;68,68,68;,
  3;69,69,69;,
  3;70,70,70;,
  3;71,71,71;,
  3;72,72,72;,
  3;73,73,73;,
  3;74,74,74;,
  3;75,75,75;,
  3;76,76,76;;
 }
}