xof 0303txt 0032
template Vector {
 <3d82ab5e-62da-11cf-ab39-0020af71e433>
 FLOAT x;
 FLOAT y;
 FLOAT z;
}

template MeshFace {
 <3d82ab5f-62da-11cf-ab39-0020af71e433>
 DWORD nFaceVertexIndices;
 array DWORD faceVertexIndices[nFaceVertexIndices];
}

template Mesh {
 <3d82ab44-62da-11cf-ab39-0020af71e433>
 DWORD nVertices;
 array Vector vertices[nVertices];
 DWORD nFaces;
 array MeshFace faces[nFaces];
 [...]
}

template ColorRGBA {
 <35ff44e0-6c7c-11cf-8f52-0040333594a3>
 FLOAT red;
 FLOAT green;
 FLOAT blue;
 FLOAT alpha;
}

template ColorRGB {
 <d3e16e81-7835-11cf-8f52-0040333594a3>
 FLOAT red;
 FLOAT green;
 FLOAT blue;
}

template Material {
 <3d82ab4d-62da-11cf-ab39-0020af71e433>
 ColorRGBA faceColor;
 FLOAT power;
 ColorRGB specularColor;
 ColorRGB emissiveColor;
 [...]
}

template MeshMaterialList {
 <f6f23f42-7686-11cf-8f52-0040333594a3>
 DWORD nMaterials;
 DWORD nFaceIndexes;
 array DWORD faceIndexes[nFaceIndexes];
 [Material <3d82ab4d-62da-11cf-ab39-0020af71e433>]
}

template TextureFilename {
 <a42790e1-7810-11cf-8f52-0040333594a3>
 STRING filename;
}

template Coords2d {
 <f6f23f44-7686-11cf-8f52-0040333594a3>
 FLOAT u;
 FLOAT v;
}

template MeshTextureCoords {
 <f6f23f40-7686-11cf-8f52-0040333594a3>
 DWORD nTextureCoords;
 array Coords2d textureCoords[nTextureCoords];
}

template MeshNormals {
 <f6f23f43-7686-11cf-8f52-0040333594a3>
 DWORD nNormals;
 array Vector normals[nNormals];
 DWORD nFaceNormals;
 array MeshFace faceNormals[nFaceNormals];
}


Mesh  {
 58;
 -10.700000;5.400000;10.000000;,
 -10.700000;5.400000;7.000000;,
 -10.700000;6.600000;7.000000;,
 -3.700000;5.800000;10.000000;,
 -3.700000;5.800000;7.000000;,
 -3.700000;7.000000;7.000000;,
 7.500000;5.800000;10.000000;,
 7.500000;5.800000;7.000000;,
 7.500000;7.000000;7.000000;,
 14.500000;5.400000;10.000000;,
 14.500000;5.400000;7.000000;,
 14.500000;6.600000;7.000000;,
 -10.700000;6.600000;7.000000;,
 -10.700000;7.800000;7.000000;,
 -3.700000;7.000000;7.000000;,
 -3.700000;8.200000;7.000000;,
 7.500000;7.000000;7.000000;,
 7.500000;8.200000;7.000000;,
 14.500000;6.600000;7.000000;,
 14.500000;7.800000;7.000000;,
 -10.700000;6.600000;10.000000;,
 -10.700000;7.800000;10.000000;,
 -3.700000;7.000000;10.000000;,
 -3.700000;8.200000;10.000000;,
 7.500000;7.000000;10.000000;,
 7.500000;8.200000;10.000000;,
 14.500000;6.600000;10.000000;,
 14.500000;7.800000;10.000000;,
 -3.200000;5.800000;18.000000;,
 -3.200000;5.800000;11.000000;,
 -3.200000;7.000000;11.000000;,
 7.000000;5.800000;18.000000;,
 7.000000;5.800000;11.000000;,
 7.000000;7.000000;11.000000;,
 -10.700000;-2.000000;11.000000;,
 -3.200000;-2.000000;11.000000;,
 -3.200000;4.900000;11.000000;,
 -2.300000;4.900000;11.000000;,
 -2.300000;5.800000;11.000000;,
 -3.200000;5.800000;11.000000;,
 -3.200000;7.000000;11.000000;,
 -10.700000;6.500000;11.000000;,
 -3.200000;-2.000000;18.000000;,
 -3.200000;4.900000;18.000000;,
 -2.300000;4.900000;18.000000;,
 -2.300000;5.800000;18.000000;,
 14.500000;-2.000000;11.000000;,
 7.000000;-2.000000;11.000000;,
 7.000000;4.900000;11.000000;,
 6.100000;4.900000;11.000000;,
 6.100000;5.800000;11.000000;,
 7.000000;5.800000;11.000000;,
 7.000000;7.000000;11.000000;,
 14.500000;6.500000;11.000000;,
 7.000000;-2.000000;18.000000;,
 7.000000;4.900000;18.000000;,
 6.100000;4.900000;18.000000;,
 6.100000;5.800000;18.000000;;
 52;
 3;0,1,4;,
 3;0,4,3;,
 3;1,2,5;,
 3;1,5,4;,
 3;3,4,7;,
 3;3,7,6;,
 3;4,5,8;,
 3;4,8,7;,
 3;6,7,10;,
 3;6,10,9;,
 3;7,8,11;,
 3;7,11,10;,
 3;12,13,15;,
 3;12,15,14;,
 3;14,15,17;,
 3;14,17,16;,
 3;16,17,19;,
 3;16,19,18;,
 3;20,21,23;,
 3;20,23,22;,
 3;22,23,25;,
 3;22,25,24;,
 3;24,25,27;,
 3;24,27,26;,
 3;28,29,32;,
 3;28,32,31;,
 3;29,30,33;,
 3;29,33,32;,
 3;41,40,39;,
 3;41,39,36;,
 3;41,36,35;,
 3;41,35,34;,
 3;39,38,37;,
 3;39,37,36;,
 3;35,36,43;,
 3;35,43,42;,
 3;36,37,44;,
 3;36,44,43;,
 3;37,38,45;,
 3;37,45,44;,
 3;46,47,48;,
 3;46,48,51;,
 3;46,51,52;,
 3;46,52,53;,
 3;48,49,50;,
 3;48,50,51;,
 3;54,55,48;,
 3;54,48,47;,
 3;55,56,49;,
 3;55,49,48;,
 3;56,57,50;,
 3;56,50,49;;

 MeshMaterialList  {
  6;
  52;
  0,
  0,
  0,
  0,
  0,
  0,
  0,
  0,
  0,
  0,
  0,
  0,
  1,
  1,
  1,
  1,
  1,
  1,
  2,
  2,
  2,
  2,
  2,
  2,
  3,
  3,
  3,
  3,
  4,
  4,
  4,
  4,
  4,
  4,
  4,
  4,
  4,
  4,
  4,
  4,
  5,
  5,
  5,
  5,
  5,
  5,
  5,
  5,
  5,
  5,
  5,
  5;

  Material  {
   1.000000;1.000000;1.000000;1.000000;;
   0.000000;
   0.000000;0.000000;0.000000;;
   0.000000;0.000000;0.000000;;

   TextureFilename  {
    "r327_Iron1.png";
   }
  }

  Material  {
   1.000000;1.000000;1.000000;1.000000;;
   0.000000;
   0.000000;0.000000;0.000000;;
   0.000000;0.000000;0.000000;;

   TextureFilename  {
    "r327_Saku1.png";
   }
  }

  Material  {
   1.000000;1.000000;1.000000;1.000000;;
   0.000000;
   0.000000;0.000000;0.000000;;
   0.000000;0.000000;0.000000;;

   TextureFilename  {
    "r327_Saku1.png";
   }
  }

  Material  {
   1.000000;1.000000;1.000000;1.000000;;
   0.000000;
   0.000000;0.000000;0.000000;;
   0.000000;0.000000;0.000000;;

   TextureFilename  {
    "r327_Saku2.png";
   }
  }

  Material  {
   1.000000;1.000000;1.000000;1.000000;;
   0.000000;
   0.000000;0.000000;0.000000;;
   0.000000;0.000000;0.000000;;

   TextureFilename  {
    "R23_Pier2.png";
   }
  }

  Material  {
   1.000000;1.000000;1.000000;1.000000;;
   0.000000;
   0.000000;0.000000;0.000000;;
   0.000000;0.000000;0.000000;;

   TextureFilename  {
    "R23_Pier2.png";
   }
  }
 }

 MeshTextureCoords  {
  58;
  0.000000;1.000000;,
  0.000000;0.906250;,
  0.000000;0.000000;,
  0.300000;1.000000;,
  0.300000;0.906250;,
  0.300000;0.000000;,
  0.700000;1.000000;,
  0.700000;0.906250;,
  0.700000;0.000000;,
  1.000000;1.000000;,
  1.000000;0.906250;,
  1.000000;0.000000;,
  0.000000;1.000000;,
  0.000000;0.000000;,
  7.000000;1.000000;,
  7.000000;0.000000;,
  18.100000;1.000000;,
  18.100000;0.000000;,
  25.200001;1.000000;,
  25.200001;0.000000;,
  0.000000;1.000000;,
  0.000000;0.000000;,
  7.000000;1.000000;,
  7.000000;0.000000;,
  18.100000;1.000000;,
  18.100000;0.000000;,
  25.200001;1.000000;,
  25.200001;0.000000;,
  0.000000;1.000000;,
  0.000000;0.562500;,
  0.000000;0.000000;,
  1.000000;1.000000;,
  1.000000;0.562500;,
  1.000000;0.000000;,
  0.000000;1.000000;,
  0.892857;1.000000;,
  0.892857;0.233333;,
  1.000000;0.233333;,
  1.000000;0.133333;,
  0.892857;0.133333;,
  0.892857;0.000000;,
  0.000000;0.055556;,
  1.892857;1.000000;,
  1.892857;0.233333;,
  2.000000;0.233333;,
  2.000000;0.133333;,
  1.000000;1.000000;,
  0.107143;1.000000;,
  0.107143;0.233333;,
  0.000000;0.233333;,
  0.000000;0.133333;,
  0.107143;0.133333;,
  0.107143;0.000000;,
  1.000000;0.055556;,
  1.107143;1.000000;,
  1.107143;0.233333;,
  1.000000;0.233333;,
  1.000000;0.133333;;
 }

 MeshNormals  {
  52;
  0.057050;-0.998371;0.000000;,
  0.057050;-0.998371;0.000000;,
  0.000000;0.000000;-1.000000;,
  0.000000;0.000000;-1.000000;,
  0.000000;-1.000000;0.000000;,
  0.000000;-1.000000;0.000000;,
  0.000000;0.000000;-1.000000;,
  0.000000;0.000000;-1.000000;,
  -0.057050;-0.998371;0.000000;,
  -0.057050;-0.998371;0.000000;,
  0.000000;0.000000;-1.000000;,
  0.000000;0.000000;-1.000000;,
  0.000000;0.000000;-1.000000;,
  0.000000;0.000000;-1.000000;,
  0.000000;0.000000;-1.000000;,
  0.000000;0.000000;-1.000000;,
  0.000000;0.000000;-1.000000;,
  0.000000;0.000000;-1.000000;,
  0.000000;0.000000;-1.000000;,
  0.000000;0.000000;-1.000000;,
  0.000000;0.000000;-1.000000;,
  0.000000;0.000000;-1.000000;,
  0.000000;0.000000;-1.000000;,
  0.000000;0.000000;-1.000000;,
  0.000000;-1.000000;0.000000;,
  0.000000;-1.000000;0.000000;,
  0.000000;0.000000;-1.000000;,
  0.000000;0.000000;-1.000000;,
  0.000000;0.000000;-1.000000;,
  0.000000;0.000000;-1.000000;,
  0.000000;0.000000;-1.000000;,
  0.000000;0.000000;-1.000000;,
  0.000000;0.000000;-1.000000;,
  0.000000;0.000000;-1.000000;,
  1.000000;0.000000;0.000000;,
  1.000000;0.000000;0.000000;,
  0.000000;-1.000000;0.000000;,
  0.000000;-1.000000;0.000000;,
  1.000000;0.000000;0.000000;,
  1.000000;0.000000;0.000000;,
  0.000000;0.000000;-1.000000;,
  0.000000;0.000000;-1.000000;,
  0.000000;0.000000;-1.000000;,
  0.000000;0.000000;-1.000000;,
  0.000000;0.000000;-1.000000;,
  0.000000;0.000000;-1.000000;,
  -1.000000;0.000000;0.000000;,
  -1.000000;0.000000;0.000000;,
  0.000000;-1.000000;0.000000;,
  0.000000;-1.000000;0.000000;,
  -1.000000;0.000000;0.000000;,
  -1.000000;0.000000;0.000000;;
  52;
  3;0,0,0;,
  3;1,1,1;,
  3;2,2,2;,
  3;3,3,3;,
  3;4,4,4;,
  3;5,5,5;,
  3;6,6,6;,
  3;7,7,7;,
  3;8,8,8;,
  3;9,9,9;,
  3;10,10,10;,
  3;11,11,11;,
  3;12,12,12;,
  3;13,13,13;,
  3;14,14,14;,
  3;15,15,15;,
  3;16,16,16;,
  3;17,17,17;,
  3;18,18,18;,
  3;19,19,19;,
  3;20,20,20;,
  3;21,21,21;,
  3;22,22,22;,
  3;23,23,23;,
  3;24,24,24;,
  3;25,25,25;,
  3;26,26,26;,
  3;27,27,27;,
  3;28,28,28;,
  3;29,29,29;,
  3;30,30,30;,
  3;31,31,31;,
  3;32,32,32;,
  3;33,33,33;,
  3;34,34,34;,
  3;35,35,35;,
  3;36,36,36;,
  3;37,37,37;,
  3;38,38,38;,
  3;39,39,39;,
  3;40,40,40;,
  3;41,41,41;,
  3;42,42,42;,
  3;43,43,43;,
  3;44,44,44;,
  3;45,45,45;,
  3;46,46,46;,
  3;47,47,47;,
  3;48,48,48;,
  3;49,49,49;,
  3;50,50,50;,
  3;51,51,51;;
 }
}