xof 0303txt 0032
template Vector {
 <3d82ab5e-62da-11cf-ab39-0020af71e433>
 FLOAT x;
 FLOAT y;
 FLOAT z;
}

template MeshFace {
 <3d82ab5f-62da-11cf-ab39-0020af71e433>
 DWORD nFaceVertexIndices;
 array DWORD faceVertexIndices[nFaceVertexIndices];
}

template Mesh {
 <3d82ab44-62da-11cf-ab39-0020af71e433>
 DWORD nVertices;
 array Vector vertices[nVertices];
 DWORD nFaces;
 array MeshFace faces[nFaces];
 [...]
}

template ColorRGBA {
 <35ff44e0-6c7c-11cf-8f52-0040333594a3>
 FLOAT red;
 FLOAT green;
 FLOAT blue;
 FLOAT alpha;
}

template ColorRGB {
 <d3e16e81-7835-11cf-8f52-0040333594a3>
 FLOAT red;
 FLOAT green;
 FLOAT blue;
}

template Material {
 <3d82ab4d-62da-11cf-ab39-0020af71e433>
 ColorRGBA faceColor;
 FLOAT power;
 ColorRGB specularColor;
 ColorRGB emissiveColor;
 [...]
}

template MeshMaterialList {
 <f6f23f42-7686-11cf-8f52-0040333594a3>
 DWORD nMaterials;
 DWORD nFaceIndexes;
 array DWORD faceIndexes[nFaceIndexes];
 [Material <3d82ab4d-62da-11cf-ab39-0020af71e433>]
}

template TextureFilename {
 <a42790e1-7810-11cf-8f52-0040333594a3>
 STRING filename;
}

template Coords2d {
 <f6f23f44-7686-11cf-8f52-0040333594a3>
 FLOAT u;
 FLOAT v;
}

template MeshTextureCoords {
 <f6f23f40-7686-11cf-8f52-0040333594a3>
 DWORD nTextureCoords;
 array Coords2d textureCoords[nTextureCoords];
}

template MeshNormals {
 <f6f23f43-7686-11cf-8f52-0040333594a3>
 DWORD nNormals;
 array Vector normals[nNormals];
 DWORD nFaceNormals;
 array MeshFace faceNormals[nFaceNormals];
}


Mesh  {
 191;
 -250.000000;1.000000;10.000000;,
 -250.000000;-2.000000;10.000000;,
 -250.000000;-2.000000;20.000000;,
 -200.000000;2.000000;10.000000;,
 -200.000000;-1.000000;10.000000;,
 -200.000000;-1.000000;20.000000;,
 -70.000000;8.000000;10.000000;,
 -70.000000;5.000000;10.000000;,
 -70.000000;5.000000;20.000000;,
 -20.000000;9.000000;10.000000;,
 -20.000000;6.000000;10.000000;,
 -20.000000;6.000000;20.000000;,
 20.000000;9.000000;10.000000;,
 20.000000;6.000000;10.000000;,
 20.000000;6.000000;20.000000;,
 70.000000;8.000000;10.000000;,
 70.000000;5.000000;10.000000;,
 70.000000;5.000000;20.000000;,
 200.000000;2.000000;10.000000;,
 200.000000;-1.000000;10.000000;,
 200.000000;-1.000000;20.000000;,
 250.000000;1.000000;10.000000;,
 250.000000;-2.000000;10.000000;,
 250.000000;-2.000000;20.000000;,
 -20.000000;9.000000;7.000000;,
 -20.000000;6.000000;7.000000;,
 -20.000000;6.000000;23.000000;,
 20.000000;9.000000;7.000000;,
 20.000000;6.000000;7.000000;,
 20.000000;6.000000;23.000000;,
 -120.000000;1.000000;7.010000;,
 -120.000000;-2.000000;7.010000;,
 -120.000000;-2.000000;10.000000;,
 -72.000000;5.775000;7.010000;,
 -72.000000;2.775000;7.010000;,
 -72.000000;2.775000;10.000000;,
 -68.000000;5.775000;7.010000;,
 -68.000000;2.775000;7.010000;,
 -68.000000;2.775000;10.000000;,
 -20.000000;10.550000;7.010000;,
 -20.000000;7.550000;7.010000;,
 -20.000000;7.550000;10.000000;,
 -15.000000;10.550000;7.010000;,
 -15.000000;7.550000;7.010000;,
 -15.000000;7.550000;10.000000;,
 20.000000;10.550000;7.000000;,
 20.000000;7.550000;7.000000;,
 20.000000;7.550000;10.000000;,
 68.000000;5.775000;7.000000;,
 68.000000;2.775000;7.000000;,
 68.000000;2.775000;10.000000;,
 72.000000;5.775000;7.000000;,
 72.000000;2.775000;7.000000;,
 72.000000;2.775000;10.000000;,
 120.000000;1.000000;7.000000;,
 120.000000;-2.000000;7.000000;,
 120.000000;-2.000000;10.000000;,
 -15.000000;9.000000;7.000000;,
 -15.000000;12.000000;7.000000;,
 20.000000;9.000000;7.000000;,
 20.000000;12.000000;7.000000;,
 -20.000000;9.000000;23.000000;,
 -20.000000;12.000000;23.000000;,
 15.000000;9.000000;23.000000;,
 15.000000;12.000000;23.000000;,
 -250.000000;-2.000000;10.000000;,
 -200.000000;-2.000000;10.000000;,
 -200.000000;-1.000000;10.000000;,
 -150.000000;-2.000000;10.000000;,
 -150.000000;1.307700;10.000000;,
 -150.000000;-2.000000;20.000000;,
 -150.000000;1.307700;20.000000;,
 -121.000000;2.750000;10.000000;,
 -121.000000;1.250000;10.000000;,
 -121.000000;-0.250000;11.500000;,
 -121.000000;-2.000000;11.500000;,
 -119.000000;2.750000;10.000000;,
 -119.000000;1.250000;10.000000;,
 -119.000000;-0.250000;11.500000;,
 -119.000000;-2.000000;11.500000;,
 -119.000000;-2.000000;18.500000;,
 -119.000000;-0.250000;18.500000;,
 -119.000000;1.250000;20.000000;,
 -119.000000;2.750000;20.000000;,
 -71.000000;5.050000;10.000000;,
 -71.000000;3.550000;10.000000;,
 -71.000000;2.050000;11.500000;,
 -71.000000;-2.000000;11.500000;,
 -69.000000;5.050000;10.000000;,
 -69.000000;3.550000;10.000000;,
 -69.000000;2.050000;11.500000;,
 -69.000000;-2.000000;11.500000;,
 -69.000000;-2.000000;18.500000;,
 -69.000000;2.050000;18.500000;,
 -69.000000;3.550000;20.000000;,
 -69.000000;5.050000;20.000000;,
 -21.000000;7.550000;7.010000;,
 -21.000000;4.550000;7.010000;,
 -21.000000;3.050000;10.010000;,
 -21.000000;-2.000000;10.010000;,
 -19.000000;7.550000;7.010000;,
 -19.000000;4.550000;7.010000;,
 -19.000000;3.050000;10.010000;,
 -19.000000;-2.000000;10.010000;,
 -19.000000;-2.000000;20.010000;,
 -19.000000;3.050000;20.010000;,
 -19.000000;4.550000;23.010000;,
 -19.000000;7.550000;23.010000;,
 21.000000;7.550000;7.010000;,
 21.000000;5.050000;7.010000;,
 21.000000;3.550000;10.010000;,
 21.000000;-2.000000;10.010000;,
 21.000000;-2.000000;20.010000;,
 21.000000;3.550000;20.010000;,
 21.000000;5.050000;23.010000;,
 21.000000;7.550000;23.010000;,
 19.000000;7.550000;7.010000;,
 19.000000;5.050000;7.010000;,
 19.000000;3.550000;10.010000;,
 19.000000;-2.000000;10.010000;,
 19.000000;-2.000000;20.010000;,
 19.000000;3.550000;20.010000;,
 19.000000;5.050000;23.010000;,
 19.000000;7.550000;23.010000;,
 71.000000;5.050000;10.010000;,
 71.000000;3.550000;10.010000;,
 71.000000;2.050000;11.510000;,
 71.000000;-2.000000;11.510000;,
 71.000000;-2.000000;18.500000;,
 71.000000;2.050000;18.500000;,
 71.000000;3.550000;20.000000;,
 71.000000;5.050000;20.000000;,
 69.000000;5.050000;10.010000;,
 69.000000;3.550000;10.010000;,
 69.000000;2.050000;11.510000;,
 69.000000;-2.000000;11.510000;,
 69.000000;-2.000000;18.500000;,
 69.000000;2.050000;18.500000;,
 69.000000;3.550000;20.000000;,
 69.000000;5.050000;20.000000;,
 121.000000;2.750000;10.010000;,
 121.000000;1.250000;10.010000;,
 121.000000;-0.250000;11.510000;,
 121.000000;-2.000000;11.510000;,
 121.000000;-2.000000;18.500000;,
 121.000000;-0.250000;18.500000;,
 121.000000;1.250000;20.000000;,
 121.000000;2.750000;20.000000;,
 119.000000;2.750000;10.010000;,
 119.000000;1.250000;10.010000;,
 119.000000;-0.250000;11.510000;,
 119.000000;-2.000000;11.510000;,
 119.000000;-2.000000;18.500000;,
 119.000000;-0.250000;18.500000;,
 119.000000;1.250000;20.000000;,
 119.000000;2.750000;20.000000;,
 250.000000;-2.000000;10.000000;,
 200.000000;-2.000000;10.000000;,
 200.000000;-1.000000;10.000000;,
 150.000000;-2.000000;10.000000;,
 150.000000;1.307700;10.000000;,
 150.000000;-2.000000;20.000000;,
 150.000000;1.307700;20.000000;,
 -70.699997;2.775000;6.700000;,
 -70.699997;2.075000;6.700000;,
 -70.699997;1.375000;7.400000;,
 -70.699997;-2.000000;7.400000;,
 -69.300003;2.775000;6.700000;,
 -69.300003;2.075000;6.700000;,
 -69.300003;1.375000;7.400000;,
 -69.300003;-2.000000;7.400000;,
 -69.300003;-2.000000;9.600000;,
 -69.300003;1.375000;9.600000;,
 -69.300003;2.075000;10.300000;,
 -69.300003;2.775000;10.300000;,
 70.699997;2.775000;6.700000;,
 70.699997;2.075000;6.700000;,
 70.699997;1.375000;7.400000;,
 70.699997;-2.000000;7.400000;,
 70.699997;-2.000000;9.600000;,
 70.699997;1.375000;9.600000;,
 70.699997;2.075000;10.300000;,
 70.699997;2.775000;10.300000;,
 69.300003;2.775000;6.700000;,
 69.300003;2.075000;6.700000;,
 69.300003;1.375000;7.400000;,
 69.300003;-2.000000;7.400000;,
 69.300003;-2.000000;9.600000;,
 69.300003;1.375000;9.600000;,
 69.300003;2.075000;10.300000;,
 69.300003;2.775000;10.300000;;
 190;
 3;1,0,3;,
 3;1,3,4;,
 3;2,1,4;,
 3;2,4,5;,
 3;4,3,6;,
 3;4,6,7;,
 3;5,4,7;,
 3;5,7,8;,
 3;7,6,9;,
 3;7,9,10;,
 3;8,7,10;,
 3;8,10,11;,
 3;13,12,15;,
 3;13,15,16;,
 3;14,13,16;,
 3;14,16,17;,
 3;16,15,18;,
 3;16,18,19;,
 3;17,16,19;,
 3;17,19,20;,
 3;19,18,21;,
 3;19,21,22;,
 3;20,19,22;,
 3;20,22,23;,
 3;25,24,27;,
 3;25,27,28;,
 3;26,25,28;,
 3;26,28,29;,
 3;31,30,33;,
 3;31,33,34;,
 3;32,31,34;,
 3;32,34,35;,
 3;34,33,36;,
 3;34,36,37;,
 3;35,34,37;,
 3;35,37,38;,
 3;37,36,39;,
 3;37,39,40;,
 3;38,37,40;,
 3;38,40,41;,
 3;40,39,42;,
 3;40,42,43;,
 3;41,40,43;,
 3;41,43,44;,
 3;46,45,48;,
 3;46,48,49;,
 3;47,46,49;,
 3;47,49,50;,
 3;49,48,51;,
 3;49,51,52;,
 3;50,49,52;,
 3;50,52,53;,
 3;52,51,54;,
 3;52,54,55;,
 3;53,52,55;,
 3;53,55,56;,
 3;57,58,60;,
 3;57,60,59;,
 3;61,62,64;,
 3;61,64,63;,
 3;65,67,66;,
 3;66,67,69;,
 3;66,69,68;,
 3;68,69,71;,
 3;68,71,70;,
 3;73,72,76;,
 3;73,76,77;,
 3;74,73,77;,
 3;74,77,78;,
 3;75,74,78;,
 3;75,78,79;,
 3;78,77,76;,
 3;78,76,83;,
 3;78,83,82;,
 3;78,82,81;,
 3;79,78,81;,
 3;79,81,80;,
 3;85,84,88;,
 3;85,88,89;,
 3;86,85,89;,
 3;86,89,90;,
 3;87,86,90;,
 3;87,90,91;,
 3;90,89,88;,
 3;90,88,95;,
 3;90,95,94;,
 3;90,94,93;,
 3;91,90,93;,
 3;91,93,92;,
 3;97,96,100;,
 3;97,100,101;,
 3;98,97,101;,
 3;98,101,102;,
 3;99,98,102;,
 3;99,102,103;,
 3;102,101,100;,
 3;102,100,107;,
 3;102,107,106;,
 3;102,106,105;,
 3;103,102,105;,
 3;103,105,104;,
 3;110,109,108;,
 3;110,108,115;,
 3;110,115,114;,
 3;110,114,113;,
 3;111,110,113;,
 3;111,113,112;,
 3;116,117,118;,
 3;116,118,121;,
 3;116,121,122;,
 3;116,122,123;,
 3;118,119,120;,
 3;118,120,121;,
 3;108,109,117;,
 3;108,117,116;,
 3;109,110,118;,
 3;109,118,117;,
 3;110,111,119;,
 3;110,119,118;,
 3;126,125,124;,
 3;126,124,131;,
 3;126,131,130;,
 3;126,130,129;,
 3;127,126,129;,
 3;127,129,128;,
 3;132,133,134;,
 3;132,134,137;,
 3;132,137,138;,
 3;132,138,139;,
 3;134,135,136;,
 3;134,136,137;,
 3;124,125,133;,
 3;124,133,132;,
 3;125,126,134;,
 3;125,134,133;,
 3;126,127,135;,
 3;126,135,134;,
 3;142,141,140;,
 3;142,140,147;,
 3;142,147,146;,
 3;142,146,145;,
 3;143,142,145;,
 3;143,145,144;,
 3;148,149,150;,
 3;148,150,153;,
 3;148,153,154;,
 3;148,154,155;,
 3;150,151,152;,
 3;150,152,153;,
 3;140,141,149;,
 3;140,149,148;,
 3;141,142,150;,
 3;141,150,149;,
 3;142,143,151;,
 3;142,151,150;,
 3;157,158,156;,
 3;159,160,158;,
 3;159,158,157;,
 3;161,162,160;,
 3;161,160,159;,
 3;164,163,167;,
 3;164,167,168;,
 3;165,164,168;,
 3;165,168,169;,
 3;166,165,169;,
 3;166,169,170;,
 3;169,168,167;,
 3;169,167,174;,
 3;169,174,173;,
 3;169,173,172;,
 3;170,169,172;,
 3;170,172,171;,
 3;177,176,175;,
 3;177,175,182;,
 3;177,182,181;,
 3;177,181,180;,
 3;178,177,180;,
 3;178,180,179;,
 3;183,184,185;,
 3;183,185,188;,
 3;183,188,189;,
 3;183,189,190;,
 3;185,186,187;,
 3;185,187,188;,
 3;175,176,184;,
 3;175,184,183;,
 3;176,177,185;,
 3;176,185,184;,
 3;177,178,186;,
 3;177,186,185;;

 MeshMaterialList  {
  16;
  190;
  0,
  0,
  0,
  0,
  0,
  0,
  0,
  0,
  0,
  0,
  0,
  0,
  0,
  0,
  0,
  0,
  0,
  0,
  0,
  0,
  0,
  0,
  0,
  0,
  1,
  1,
  1,
  1,
  2,
  2,
  2,
  2,
  2,
  2,
  2,
  2,
  2,
  2,
  2,
  2,
  2,
  2,
  2,
  2,
  3,
  3,
  3,
  3,
  3,
  3,
  3,
  3,
  3,
  3,
  3,
  3,
  4,
  4,
  5,
  5,
  6,
  6,
  6,
  6,
  6,
  7,
  7,
  7,
  7,
  7,
  7,
  7,
  7,
  7,
  7,
  7,
  7,
  8,
  8,
  8,
  8,
  8,
  8,
  8,
  8,
  8,
  8,
  8,
  8,
  9,
  9,
  9,
  9,
  9,
  9,
  9,
  9,
  9,
  9,
  9,
  9,
  10,
  10,
  10,
  10,
  10,
  10,
  10,
  10,
  10,
  10,
  10,
  10,
  10,
  10,
  10,
  10,
  10,
  10,
  11,
  11,
  11,
  11,
  11,
  11,
  11,
  11,
  11,
  11,
  11,
  11,
  11,
  11,
  11,
  11,
  11,
  11,
  12,
  12,
  12,
  12,
  12,
  12,
  12,
  12,
  12,
  12,
  12,
  12,
  12,
  12,
  12,
  12,
  12,
  12,
  13,
  13,
  13,
  13,
  13,
  14,
  14,
  14,
  14,
  14,
  14,
  14,
  14,
  14,
  14,
  14,
  14,
  15,
  15,
  15,
  15,
  15,
  15,
  15,
  15,
  15,
  15,
  15,
  15,
  15,
  15,
  15,
  15,
  15,
  15;

  Material  {
   1.000000;1.000000;1.000000;1.000000;;
   0.000000;
   0.000000;0.000000;0.000000;;
   0.000000;0.000000;0.000000;;

   TextureFilename  {
    "r31_Saku1.png";
   }
  }

  Material  {
   1.000000;1.000000;1.000000;1.000000;;
   0.000000;
   0.000000;0.000000;0.000000;;
   0.000000;0.000000;0.000000;;

   TextureFilename  {
    "r78_Saku1.png";
   }
  }

  Material  {
   1.000000;1.000000;1.000000;1.000000;;
   0.000000;
   0.000000;0.000000;0.000000;;
   0.000000;0.000000;0.000000;;

   TextureFilename  {
    "r78_Saku2.png";
   }
  }

  Material  {
   1.000000;1.000000;1.000000;1.000000;;
   0.000000;
   0.000000;0.000000;0.000000;;
   0.000000;0.000000;0.000000;;

   TextureFilename  {
    "r78_Saku2.png";
   }
  }

  Material  {
   1.000000;1.000000;1.000000;1.000000;;
   0.000000;
   0.000000;0.000000;0.000000;;
   0.000000;0.000000;0.000000;;

   TextureFilename  {
    "r31_Saku2.png";
   }
  }

  Material  {
   1.000000;1.000000;1.000000;1.000000;;
   0.000000;
   0.000000;0.000000;0.000000;;
   0.000000;0.000000;0.000000;;

   TextureFilename  {
    "r31_Saku2.png";
   }
  }

  Material  {
   1.000000;1.000000;1.000000;1.000000;;
   0.000000;
   0.000000;0.000000;0.000000;;
   0.000000;0.000000;0.000000;;

   TextureFilename  {
    "r31_Pier1.png";
   }
  }

  Material  {
   1.000000;1.000000;1.000000;1.000000;;
   0.000000;
   0.000000;0.000000;0.000000;;
   0.000000;0.000000;0.000000;;

   TextureFilename  {
    "r31_Pier1.png";
   }
  }

  Material  {
   1.000000;1.000000;1.000000;1.000000;;
   0.000000;
   0.000000;0.000000;0.000000;;
   0.000000;0.000000;0.000000;;

   TextureFilename  {
    "r31_Pier1.png";
   }
  }

  Material  {
   1.000000;1.000000;1.000000;1.000000;;
   0.000000;
   0.000000;0.000000;0.000000;;
   0.000000;0.000000;0.000000;;

   TextureFilename  {
    "r31_Pier1.png";
   }
  }

  Material  {
   1.000000;1.000000;1.000000;1.000000;;
   0.000000;
   0.000000;0.000000;0.000000;;
   0.000000;0.000000;0.000000;;

   TextureFilename  {
    "r31_Pier1.png";
   }
  }

  Material  {
   1.000000;1.000000;1.000000;1.000000;;
   0.000000;
   0.000000;0.000000;0.000000;;
   0.000000;0.000000;0.000000;;

   TextureFilename  {
    "r31_Pier1.png";
   }
  }

  Material  {
   1.000000;1.000000;1.000000;1.000000;;
   0.000000;
   0.000000;0.000000;0.000000;;
   0.000000;0.000000;0.000000;;

   TextureFilename  {
    "r31_Pier1.png";
   }
  }

  Material  {
   1.000000;1.000000;1.000000;1.000000;;
   0.000000;
   0.000000;0.000000;0.000000;;
   0.000000;0.000000;0.000000;;

   TextureFilename  {
    "r31_Pier1.png";
   }
  }

  Material  {
   1.000000;1.000000;1.000000;1.000000;;
   0.000000;
   0.000000;0.000000;0.000000;;
   0.000000;0.000000;0.000000;;

   TextureFilename  {
    "r31_Pier1.png";
   }
  }

  Material  {
   1.000000;1.000000;1.000000;1.000000;;
   0.000000;
   0.000000;0.000000;0.000000;;
   0.000000;0.000000;0.000000;;

   TextureFilename  {
    "r31_Pier1.png";
   }
  }
 }

 MeshTextureCoords  {
  191;
  0.000000;0.000000;,
  0.000000;0.484375;,
  0.000000;1.000000;,
  0.100000;0.000000;,
  0.100000;0.484375;,
  0.100000;1.000000;,
  0.200000;0.000000;,
  0.200000;0.484375;,
  0.200000;1.000000;,
  0.300000;0.000000;,
  0.300000;0.484375;,
  0.300000;1.000000;,
  0.400000;0.000000;,
  0.400000;0.484375;,
  0.400000;1.000000;,
  0.500000;0.000000;,
  0.500000;0.484375;,
  0.500000;1.000000;,
  0.600000;0.000000;,
  0.600000;0.484375;,
  0.600000;1.000000;,
  0.700000;0.000000;,
  0.700000;0.484375;,
  0.700000;1.000000;,
  0.000000;0.000000;,
  0.000000;0.812500;,
  0.000000;1.000000;,
  0.100000;0.000000;,
  0.100000;0.812500;,
  0.100000;1.000000;,
  0.000000;0.000000;,
  0.000000;0.812500;,
  0.000000;1.000000;,
  10.000000;0.000000;,
  10.000000;0.812500;,
  10.000000;1.000000;,
  11.000000;0.000000;,
  11.000000;0.812500;,
  11.000000;1.000000;,
  21.000000;0.000000;,
  21.000000;0.812500;,
  21.000000;1.000000;,
  22.000000;0.000000;,
  22.000000;0.812500;,
  22.000000;1.000000;,
  0.000000;0.000000;,
  0.000000;0.812500;,
  0.000000;1.000000;,
  10.000000;0.000000;,
  10.000000;0.812500;,
  10.000000;1.000000;,
  11.000000;0.000000;,
  11.000000;0.812500;,
  11.000000;1.000000;,
  21.000000;0.000000;,
  21.000000;0.812500;,
  21.000000;1.000000;,
  0.000000;1.000000;,
  0.000000;0.000000;,
  15.100000;1.000000;,
  15.100000;0.000000;,
  0.000000;1.000000;,
  0.000000;0.000000;,
  15.100000;1.000000;,
  15.100000;0.000000;,
  0.000000;0.000000;,
  0.000000;0.500000;,
  0.100000;0.500000;,
  0.000000;1.000000;,
  0.330770;1.000000;,
  0.000000;1.000000;,
  0.330770;1.000000;,
  0.000000;0.000000;,
  0.000000;0.315789;,
  0.075000;0.631579;,
  0.075000;1.000000;,
  0.000000;0.000000;,
  0.000000;0.315789;,
  0.075000;0.631579;,
  0.075000;1.000000;,
  0.425000;1.000000;,
  0.425000;0.631579;,
  0.500000;0.315789;,
  0.500000;0.000000;,
  0.000000;0.000000;,
  0.000000;0.212766;,
  0.075000;0.425532;,
  0.075000;1.000000;,
  0.000000;0.000000;,
  0.000000;0.212766;,
  0.075000;0.425532;,
  0.075000;1.000000;,
  0.425000;1.000000;,
  0.425000;0.425532;,
  0.500000;0.212766;,
  0.500000;0.000000;,
  0.000000;0.000000;,
  0.000000;0.314136;,
  0.093750;0.471204;,
  0.093750;1.000000;,
  0.000000;0.000000;,
  0.000000;0.314136;,
  0.093750;0.471204;,
  0.093750;1.000000;,
  0.406250;1.000000;,
  0.406250;0.471204;,
  0.500000;0.314136;,
  0.500000;0.000000;,
  0.000000;0.000000;,
  0.000000;0.187500;,
  0.093750;0.375000;,
  0.093750;1.000000;,
  0.406250;1.000000;,
  0.406250;0.375000;,
  0.500000;0.187500;,
  0.500000;0.000000;,
  0.000000;0.000000;,
  0.000000;0.187500;,
  0.093750;0.375000;,
  0.093750;1.000000;,
  0.406250;1.000000;,
  0.406250;0.375000;,
  0.500000;0.187500;,
  0.500000;0.000000;,
  0.000000;0.000000;,
  0.000000;0.212766;,
  0.075075;0.425532;,
  0.075075;1.000000;,
  0.424925;1.000000;,
  0.424925;0.425532;,
  0.500000;0.212766;,
  0.500000;0.000000;,
  0.000000;0.000000;,
  0.000000;0.212766;,
  0.075075;0.425532;,
  0.075075;1.000000;,
  0.424925;1.000000;,
  0.424925;0.425532;,
  0.500000;0.212766;,
  0.500000;0.000000;,
  0.000000;0.000000;,
  0.000000;0.315789;,
  0.075075;0.631579;,
  0.075075;1.000000;,
  0.424925;1.000000;,
  0.424925;0.631579;,
  0.500000;0.315789;,
  0.500000;0.000000;,
  0.000000;0.000000;,
  0.000000;0.315789;,
  0.075075;0.631579;,
  0.075075;1.000000;,
  0.424925;1.000000;,
  0.424925;0.631579;,
  0.500000;0.315789;,
  0.500000;0.000000;,
  0.000000;0.000000;,
  0.250000;0.000000;,
  0.250000;0.111111;,
  0.500000;0.000000;,
  0.500000;1.000000;,
  1.000000;0.000000;,
  1.000000;1.000000;,
  0.000000;0.000000;,
  0.000000;0.146597;,
  0.097222;0.293194;,
  0.097222;1.000000;,
  0.000000;0.000000;,
  0.000000;0.146597;,
  0.097222;0.293194;,
  0.097222;1.000000;,
  0.402778;1.000000;,
  0.402778;0.293194;,
  0.500000;0.146597;,
  0.500000;0.000000;,
  0.000000;0.000000;,
  0.000000;0.146597;,
  0.097222;0.293194;,
  0.097222;1.000000;,
  0.402778;1.000000;,
  0.402778;0.293194;,
  0.500000;0.146597;,
  0.500000;0.000000;,
  0.000000;0.000000;,
  0.000000;0.146597;,
  0.097222;0.293194;,
  0.097222;1.000000;,
  0.402778;1.000000;,
  0.402778;0.293194;,
  0.500000;0.146597;,
  0.500000;0.000000;;
 }

 MeshNormals  {
  190;
  0.000000;0.000000;-1.000000;,
  0.000000;0.000000;-1.000000;,
  0.019996;-0.999800;0.000000;,
  0.019996;-0.999800;0.000000;,
  0.000000;0.000000;-1.000000;,
  0.000000;0.000000;-1.000000;,
  0.046105;-0.998937;0.000000;,
  0.046105;-0.998937;0.000000;,
  0.000000;0.000000;-1.000000;,
  0.000000;0.000000;-1.000000;,
  0.019996;-0.999800;0.000000;,
  0.019996;-0.999800;0.000000;,
  0.000000;0.000000;-1.000000;,
  0.000000;0.000000;-1.000000;,
  -0.019996;-0.999800;0.000000;,
  -0.019996;-0.999800;0.000000;,
  0.000000;0.000000;-1.000000;,
  0.000000;0.000000;-1.000000;,
  -0.046105;-0.998937;0.000000;,
  -0.046105;-0.998937;0.000000;,
  0.000000;0.000000;-1.000000;,
  0.000000;0.000000;-1.000000;,
  -0.019996;-0.999800;0.000000;,
  -0.019996;-0.999800;0.000000;,
  0.000000;0.000000;-1.000000;,
  0.000000;0.000000;-1.000000;,
  0.000000;-1.000000;0.000000;,
  0.000000;-1.000000;0.000000;,
  0.000000;0.000000;-1.000000;,
  0.000000;0.000000;-1.000000;,
  0.098991;-0.995088;0.000000;,
  0.098991;-0.995088;0.000000;,
  0.000000;0.000000;-1.000000;,
  0.000000;0.000000;-1.000000;,
  0.000000;-1.000000;0.000000;,
  0.000000;-1.000000;0.000000;,
  0.000000;0.000000;-1.000000;,
  0.000000;0.000000;-1.000000;,
  0.098991;-0.995088;0.000000;,
  0.098991;-0.995088;0.000000;,
  0.000000;0.000000;-1.000000;,
  0.000000;0.000000;-1.000000;,
  0.000000;-1.000000;0.000000;,
  0.000000;-1.000000;0.000000;,
  0.000000;0.000000;-1.000000;,
  0.000000;0.000000;-1.000000;,
  -0.098991;-0.995088;0.000000;,
  -0.098991;-0.995088;0.000000;,
  0.000000;0.000000;-1.000000;,
  0.000000;0.000000;-1.000000;,
  0.000000;-1.000000;0.000000;,
  0.000000;-1.000000;0.000000;,
  0.000000;0.000000;-1.000000;,
  0.000000;0.000000;-1.000000;,
  -0.098991;-0.995088;0.000000;,
  -0.098991;-0.995088;0.000000;,
  0.000000;0.000000;-1.000000;,
  0.000000;0.000000;-1.000000;,
  0.000000;0.000000;-1.000000;,
  0.000000;0.000000;-1.000000;,
  0.000000;0.000000;-1.000000;,
  0.000000;0.000000;-1.000000;,
  0.000000;0.000000;-1.000000;,
  1.000000;0.000000;0.000000;,
  1.000000;0.000000;0.000000;,
  0.000000;0.000000;-1.000000;,
  0.000000;0.000000;-1.000000;,
  0.000000;-0.707107;-0.707107;,
  0.000000;-0.707107;-0.707107;,
  0.000000;0.000000;-1.000000;,
  0.000000;0.000000;-1.000000;,
  1.000000;0.000000;0.000000;,
  1.000000;0.000000;0.000000;,
  1.000000;0.000000;0.000000;,
  1.000000;0.000000;0.000000;,
  1.000000;0.000000;0.000000;,
  1.000000;0.000000;0.000000;,
  0.000000;0.000000;-1.000000;,
  0.000000;0.000000;-1.000000;,
  0.000000;-0.707107;-0.707107;,
  0.000000;-0.707107;-0.707107;,
  0.000000;0.000000;-1.000000;,
  0.000000;0.000000;-1.000000;,
  1.000000;0.000000;0.000000;,
  1.000000;0.000000;0.000000;,
  1.000000;0.000000;0.000000;,
  1.000000;0.000000;0.000000;,
  1.000000;0.000000;0.000000;,
  1.000000;0.000000;0.000000;,
  0.000000;0.000000;-1.000000;,
  0.000000;0.000000;-1.000000;,
  0.000000;-0.894427;-0.447214;,
  0.000000;-0.894427;-0.447214;,
  0.000000;0.000000;-1.000000;,
  0.000000;0.000000;-1.000000;,
  1.000000;0.000000;0.000000;,
  1.000000;0.000000;0.000000;,
  1.000000;0.000000;0.000000;,
  1.000000;0.000000;0.000000;,
  1.000000;0.000000;0.000000;,
  1.000000;0.000000;0.000000;,
  1.000000;0.000000;0.000000;,
  1.000000;0.000000;0.000000;,
  1.000000;0.000000;0.000000;,
  1.000000;0.000000;0.000000;,
  1.000000;0.000000;0.000000;,
  1.000000;0.000000;0.000000;,
  -1.000000;0.000000;0.000000;,
  -1.000000;0.000000;0.000000;,
  -1.000000;0.000000;0.000000;,
  -1.000000;0.000000;0.000000;,
  -1.000000;0.000000;0.000000;,
  -1.000000;0.000000;0.000000;,
  0.000000;0.000000;-1.000000;,
  0.000000;0.000000;-1.000000;,
  0.000000;-0.894427;-0.447214;,
  0.000000;-0.894427;-0.447214;,
  0.000000;0.000000;-1.000000;,
  0.000000;0.000000;-1.000000;,
  1.000000;0.000000;0.000000;,
  1.000000;0.000000;0.000000;,
  1.000000;0.000000;0.000000;,
  1.000000;0.000000;0.000000;,
  1.000000;0.000000;0.000000;,
  1.000000;0.000000;0.000000;,
  -1.000000;0.000000;0.000000;,
  -1.000000;0.000000;0.000000;,
  -1.000000;0.000000;0.000000;,
  -1.000000;0.000000;0.000000;,
  -1.000000;0.000000;0.000000;,
  -1.000000;0.000000;0.000000;,
  0.000000;0.000000;-1.000000;,
  0.000000;0.000000;-1.000000;,
  0.000000;-0.707107;-0.707107;,
  0.000000;-0.707107;-0.707107;,
  0.000000;0.000000;-1.000000;,
  0.000000;0.000000;-1.000000;,
  1.000000;0.000000;0.000000;,
  1.000000;0.000000;0.000000;,
  1.000000;0.000000;0.000000;,
  1.000000;0.000000;0.000000;,
  1.000000;0.000000;0.000000;,
  1.000000;0.000000;0.000000;,
  -1.000000;0.000000;0.000000;,
  -1.000000;0.000000;0.000000;,
  -1.000000;0.000000;0.000000;,
  -1.000000;0.000000;0.000000;,
  -1.000000;0.000000;0.000000;,
  -1.000000;0.000000;0.000000;,
  0.000000;0.000000;-1.000000;,
  0.000000;0.000000;-1.000000;,
  0.000000;-0.707107;-0.707107;,
  0.000000;-0.707107;-0.707107;,
  0.000000;0.000000;-1.000000;,
  0.000000;0.000000;-1.000000;,
  0.000000;0.000000;-1.000000;,
  0.000000;0.000000;-1.000000;,
  0.000000;0.000000;-1.000000;,
  -1.000000;0.000000;0.000000;,
  -1.000000;0.000000;0.000000;,
  0.000000;0.000000;-1.000000;,
  0.000000;0.000000;-1.000000;,
  0.000000;-0.707107;-0.707107;,
  0.000000;-0.707107;-0.707107;,
  0.000000;0.000000;-1.000000;,
  0.000000;0.000000;-1.000000;,
  1.000000;0.000000;0.000000;,
  1.000000;0.000000;0.000000;,
  1.000000;0.000000;0.000000;,
  1.000000;0.000000;0.000000;,
  1.000000;0.000000;0.000000;,
  1.000000;0.000000;0.000000;,
  1.000000;0.000000;0.000000;,
  1.000000;0.000000;0.000000;,
  1.000000;0.000000;0.000000;,
  1.000000;0.000000;0.000000;,
  1.000000;0.000000;0.000000;,
  1.000000;0.000000;0.000000;,
  -1.000000;0.000000;0.000000;,
  -1.000000;0.000000;0.000000;,
  -1.000000;0.000000;0.000000;,
  -1.000000;0.000000;0.000000;,
  -1.000000;0.000000;0.000000;,
  -1.000000;0.000000;0.000000;,
  0.000000;0.000000;-1.000000;,
  0.000000;0.000000;-1.000000;,
  0.000000;-0.707107;-0.707107;,
  0.000000;-0.707107;-0.707107;,
  0.000000;0.000000;-1.000000;,
  0.000000;0.000000;-1.000000;;
  190;
  3;0,0,0;,
  3;1,1,1;,
  3;2,2,2;,
  3;3,3,3;,
  3;4,4,4;,
  3;5,5,5;,
  3;6,6,6;,
  3;7,7,7;,
  3;8,8,8;,
  3;9,9,9;,
  3;10,10,10;,
  3;11,11,11;,
  3;12,12,12;,
  3;13,13,13;,
  3;14,14,14;,
  3;15,15,15;,
  3;16,16,16;,
  3;17,17,17;,
  3;18,18,18;,
  3;19,19,19;,
  3;20,20,20;,
  3;21,21,21;,
  3;22,22,22;,
  3;23,23,23;,
  3;24,24,24;,
  3;25,25,25;,
  3;26,26,26;,
  3;27,27,27;,
  3;28,28,28;,
  3;29,29,29;,
  3;30,30,30;,
  3;31,31,31;,
  3;32,32,32;,
  3;33,33,33;,
  3;34,34,34;,
  3;35,35,35;,
  3;36,36,36;,
  3;37,37,37;,
  3;38,38,38;,
  3;39,39,39;,
  3;40,40,40;,
  3;41,41,41;,
  3;42,42,42;,
  3;43,43,43;,
  3;44,44,44;,
  3;45,45,45;,
  3;46,46,46;,
  3;47,47,47;,
  3;48,48,48;,
  3;49,49,49;,
  3;50,50,50;,
  3;51,51,51;,
  3;52,52,52;,
  3;53,53,53;,
  3;54,54,54;,
  3;55,55,55;,
  3;56,56,56;,
  3;57,57,57;,
  3;58,58,58;,
  3;59,59,59;,
  3;60,60,60;,
  3;61,61,61;,
  3;62,62,62;,
  3;63,63,63;,
  3;64,64,64;,
  3;65,65,65;,
  3;66,66,66;,
  3;67,67,67;,
  3;68,68,68;,
  3;69,69,69;,
  3;70,70,70;,
  3;71,71,71;,
  3;72,72,72;,
  3;73,73,73;,
  3;74,74,74;,
  3;75,75,75;,
  3;76,76,76;,
  3;77,77,77;,
  3;78,78,78;,
  3;79,79,79;,
  3;80,80,80;,
  3;81,81,81;,
  3;82,82,82;,
  3;83,83,83;,
  3;84,84,84;,
  3;85,85,85;,
  3;86,86,86;,
  3;87,87,87;,
  3;88,88,88;,
  3;89,89,89;,
  3;90,90,90;,
  3;91,91,91;,
  3;92,92,92;,
  3;93,93,93;,
  3;94,94,94;,
  3;95,95,95;,
  3;96,96,96;,
  3;97,97,97;,
  3;98,98,98;,
  3;99,99,99;,
  3;100,100,100;,
  3;101,101,101;,
  3;102,102,102;,
  3;103,103,103;,
  3;104,104,104;,
  3;105,105,105;,
  3;106,106,106;,
  3;107,107,107;,
  3;108,108,108;,
  3;109,109,109;,
  3;110,110,110;,
  3;111,111,111;,
  3;112,112,112;,
  3;113,113,113;,
  3;114,114,114;,
  3;115,115,115;,
  3;116,116,116;,
  3;117,117,117;,
  3;118,118,118;,
  3;119,119,119;,
  3;120,120,120;,
  3;121,121,121;,
  3;122,122,122;,
  3;123,123,123;,
  3;124,124,124;,
  3;125,125,125;,
  3;126,126,126;,
  3;127,127,127;,
  3;128,128,128;,
  3;129,129,129;,
  3;130,130,130;,
  3;131,131,131;,
  3;132,132,132;,
  3;133,133,133;,
  3;134,134,134;,
  3;135,135,135;,
  3;136,136,136;,
  3;137,137,137;,
  3;138,138,138;,
  3;139,139,139;,
  3;140,140,140;,
  3;141,141,141;,
  3;142,142,142;,
  3;143,143,143;,
  3;144,144,144;,
  3;145,145,145;,
  3;146,146,146;,
  3;147,147,147;,
  3;148,148,148;,
  3;149,149,149;,
  3;150,150,150;,
  3;151,151,151;,
  3;152,152,152;,
  3;153,153,153;,
  3;154,154,154;,
  3;155,155,155;,
  3;156,156,156;,
  3;157,157,157;,
  3;158,158,158;,
  3;159,159,159;,
  3;160,160,160;,
  3;161,161,161;,
  3;162,162,162;,
  3;163,163,163;,
  3;164,164,164;,
  3;165,165,165;,
  3;166,166,166;,
  3;167,167,167;,
  3;168,168,168;,
  3;169,169,169;,
  3;170,170,170;,
  3;171,171,171;,
  3;172,172,172;,
  3;173,173,173;,
  3;174,174,174;,
  3;175,175,175;,
  3;176,176,176;,
  3;177,177,177;,
  3;178,178,178;,
  3;179,179,179;,
  3;180,180,180;,
  3;181,181,181;,
  3;182,182,182;,
  3;183,183,183;,
  3;184,184,184;,
  3;185,185,185;,
  3;186,186,186;,
  3;187,187,187;,
  3;188,188,188;,
  3;189,189,189;;
 }
}