xof 0303txt 0032
template Vector {
 <3d82ab5e-62da-11cf-ab39-0020af71e433>
 FLOAT x;
 FLOAT y;
 FLOAT z;
}

template MeshFace {
 <3d82ab5f-62da-11cf-ab39-0020af71e433>
 DWORD nFaceVertexIndices;
 array DWORD faceVertexIndices[nFaceVertexIndices];
}

template Mesh {
 <3d82ab44-62da-11cf-ab39-0020af71e433>
 DWORD nVertices;
 array Vector vertices[nVertices];
 DWORD nFaces;
 array MeshFace faces[nFaces];
 [...]
}

template ColorRGBA {
 <35ff44e0-6c7c-11cf-8f52-0040333594a3>
 FLOAT red;
 FLOAT green;
 FLOAT blue;
 FLOAT alpha;
}

template ColorRGB {
 <d3e16e81-7835-11cf-8f52-0040333594a3>
 FLOAT red;
 FLOAT green;
 FLOAT blue;
}

template Material {
 <3d82ab4d-62da-11cf-ab39-0020af71e433>
 ColorRGBA faceColor;
 FLOAT power;
 ColorRGB specularColor;
 ColorRGB emissiveColor;
 [...]
}

template MeshMaterialList {
 <f6f23f42-7686-11cf-8f52-0040333594a3>
 DWORD nMaterials;
 DWORD nFaceIndexes;
 array DWORD faceIndexes[nFaceIndexes];
 [Material <3d82ab4d-62da-11cf-ab39-0020af71e433>]
}

template TextureFilename {
 <a42790e1-7810-11cf-8f52-0040333594a3>
 STRING filename;
}

template Coords2d {
 <f6f23f44-7686-11cf-8f52-0040333594a3>
 FLOAT u;
 FLOAT v;
}

template MeshTextureCoords {
 <f6f23f40-7686-11cf-8f52-0040333594a3>
 DWORD nTextureCoords;
 array Coords2d textureCoords[nTextureCoords];
}

template MeshNormals {
 <f6f23f43-7686-11cf-8f52-0040333594a3>
 DWORD nNormals;
 array Vector normals[nNormals];
 DWORD nFaceNormals;
 array MeshFace faceNormals[nFaceNormals];
}


Mesh  {
 285;
 34.000000;9.500000;-19.000000;,
 34.000000;6.000000;-19.000000;,
 34.000000;6.000000;-6.000000;,
 48.000000;9.250000;-19.000000;,
 48.000000;5.750000;-19.000000;,
 48.000000;5.750000;-6.000000;,
 62.000000;8.750000;-19.000000;,
 62.000000;5.250000;-19.000000;,
 62.000000;5.250000;-6.000000;,
 132.000000;4.500000;-19.000000;,
 132.000000;1.000000;-19.000000;,
 132.000000;1.000000;-6.000000;,
 -20.000000;9.500000;-19.000000;,
 -20.000000;6.000000;-19.000000;,
 -20.000000;6.000000;-6.000000;,
 -32.000000;9.750000;-19.000000;,
 -32.000000;6.250000;-19.000000;,
 -32.000000;6.250000;-6.000000;,
 -53.000000;9.750000;-19.000000;,
 -53.000000;6.250000;-19.000000;,
 -53.000000;6.250000;-6.000000;,
 -74.000000;9.500000;-19.000000;,
 -74.000000;6.000000;-19.000000;,
 -74.000000;6.000000;-6.000000;,
 -116.000000;8.500000;-19.000000;,
 -116.000000;5.000000;-19.000000;,
 -116.000000;5.000000;-6.000000;,
 34.000000;8.300000;-20.000000;,
 34.000000;11.000000;-20.000000;,
 34.884003;3.900000;-27.621023;,
 34.884003;6.600000;-27.621023;,
 35.115997;3.900000;-29.621023;,
 35.115997;6.600000;-29.621023;,
 36.000000;-0.500000;-37.242046;,
 36.000000;2.200000;-37.242046;,
 37.000000;8.300000;-19.000000;,
 37.000000;11.000000;-19.000000;,
 37.000000;8.300000;-20.000000;,
 37.000000;11.000000;-20.000000;,
 37.884003;3.900000;-27.621023;,
 37.884003;6.600000;-27.621023;,
 38.115997;3.900000;-29.621023;,
 38.115997;6.600000;-29.621023;,
 39.000000;-0.500000;-37.242046;,
 39.000000;2.200000;-37.242046;,
 34.000000;8.700000;-20.000000;,
 37.000000;8.700000;-20.000000;,
 34.884003;4.300000;-27.621023;,
 37.884003;4.300000;-27.621023;,
 35.115997;4.300000;-29.621023;,
 38.115997;4.300000;-29.621023;,
 36.000000;-0.100000;-37.242046;,
 39.000000;-0.100000;-37.242046;,
 36.000000;-0.450000;-28.621023;,
 36.000000;4.300000;-28.621023;,
 37.000000;-0.450000;-28.621023;,
 37.000000;4.300000;-28.621023;,
 34.000000;8.300000;-5.000000;,
 34.000000;11.000000;-5.000000;,
 34.000000;3.900000;2.621024;,
 34.000000;6.600000;2.621024;,
 34.000000;3.900000;4.621024;,
 34.000000;6.600000;4.621024;,
 34.000000;-0.500000;12.242047;,
 34.000000;2.200000;12.242047;,
 34.000000;8.300000;-5.000000;,
 37.000000;8.300000;-5.000000;,
 34.000000;3.900000;2.621024;,
 37.000000;3.900000;2.621024;,
 34.000000;3.900000;4.621024;,
 37.000000;3.900000;4.621024;,
 34.000000;-0.500000;12.242047;,
 37.000000;-0.500000;12.242047;,
 35.000000;-0.450000;3.621024;,
 35.000000;3.900000;3.621024;,
 36.000000;-0.450000;3.621024;,
 36.000000;3.900000;3.621024;,
 47.250000;-0.450000;-17.500000;,
 47.250000;4.770000;-17.500000;,
 48.750000;-0.450000;-17.500000;,
 48.750000;4.770000;-17.500000;,
 47.250000;-0.450000;-14.500000;,
 47.250000;4.770000;-14.500000;,
 48.750000;-0.450000;-14.500000;,
 48.750000;4.770000;-14.500000;,
 47.250000;-0.450000;-11.500000;,
 47.250000;4.770000;-11.500000;,
 48.750000;-0.450000;-11.500000;,
 48.750000;4.770000;-11.500000;,
 47.250000;-0.450000;-8.500000;,
 47.250000;4.770000;-8.500000;,
 48.750000;-0.450000;-8.500000;,
 48.750000;4.770000;-8.500000;,
 48.750000;4.770000;-17.500000;,
 48.750000;5.070000;-19.000000;,
 48.750000;5.770000;-19.000000;,
 47.250000;5.070000;-19.000000;,
 47.250000;5.770000;-19.000000;,
 47.250000;4.770000;-17.500000;,
 47.250000;4.770000;-8.500000;,
 47.250000;5.070000;-7.000000;,
 47.250000;5.770000;-7.000000;,
 48.750000;4.770000;-8.500000;,
 61.250000;-0.450000;-17.500000;,
 61.250000;4.270000;-17.500000;,
 62.750000;-0.450000;-17.500000;,
 62.750000;4.270000;-17.500000;,
 61.250000;-0.450000;-14.500000;,
 61.250000;4.270000;-14.500000;,
 62.750000;-0.450000;-14.500000;,
 62.750000;4.270000;-14.500000;,
 61.250000;-0.450000;-11.500000;,
 61.250000;4.270000;-11.500000;,
 62.750000;-0.450000;-11.500000;,
 62.750000;4.270000;-11.500000;,
 61.250000;-0.450000;-8.500000;,
 61.250000;4.270000;-8.500000;,
 62.750000;-0.450000;-8.500000;,
 62.750000;4.270000;-8.500000;,
 62.750000;4.270000;-17.500000;,
 62.750000;4.570000;-19.000000;,
 62.750000;5.270000;-19.000000;,
 61.250000;4.570000;-19.000000;,
 61.250000;5.270000;-19.000000;,
 61.250000;4.270000;-17.500000;,
 61.250000;4.270000;-8.500000;,
 61.250000;4.570000;-7.000000;,
 61.250000;5.270000;-7.000000;,
 62.750000;4.270000;-8.500000;,
 82.250000;-0.450000;-17.500000;,
 82.250000;3.070000;-17.500000;,
 83.750000;-0.450000;-17.500000;,
 83.750000;3.070000;-17.500000;,
 82.250000;-0.450000;-14.500000;,
 82.250000;3.070000;-14.500000;,
 83.750000;-0.450000;-14.500000;,
 83.750000;3.070000;-14.500000;,
 82.250000;-0.450000;-11.500000;,
 82.250000;3.070000;-11.500000;,
 83.750000;-0.450000;-11.500000;,
 83.750000;3.070000;-11.500000;,
 82.250000;-0.450000;-8.500000;,
 82.250000;3.070000;-8.500000;,
 83.750000;-0.450000;-8.500000;,
 83.750000;3.070000;-8.500000;,
 83.750000;3.070000;-17.500000;,
 83.750000;3.370000;-19.000000;,
 83.750000;4.070000;-19.000000;,
 82.250000;3.370000;-19.000000;,
 82.250000;4.070000;-19.000000;,
 82.250000;3.070000;-17.500000;,
 82.250000;3.070000;-8.500000;,
 82.250000;3.370000;-7.000000;,
 82.250000;4.070000;-7.000000;,
 83.750000;3.070000;-8.500000;,
 103.250000;-0.450000;-17.500000;,
 103.250000;1.770000;-17.500000;,
 104.750000;-0.450000;-17.500000;,
 104.750000;1.770000;-17.500000;,
 103.250000;-0.450000;-14.500000;,
 103.250000;1.770000;-14.500000;,
 104.750000;-0.450000;-14.500000;,
 104.750000;1.770000;-14.500000;,
 103.250000;-0.450000;-11.500000;,
 103.250000;1.770000;-11.500000;,
 104.750000;-0.450000;-11.500000;,
 104.750000;1.770000;-11.500000;,
 103.250000;-0.450000;-8.500000;,
 103.250000;1.770000;-8.500000;,
 104.750000;-0.450000;-8.500000;,
 104.750000;1.770000;-8.500000;,
 104.750000;1.770000;-17.500000;,
 104.750000;2.070000;-19.000000;,
 104.750000;2.770000;-19.000000;,
 103.250000;2.070000;-19.000000;,
 103.250000;2.770000;-19.000000;,
 103.250000;1.770000;-17.500000;,
 103.250000;1.770000;-8.500000;,
 103.250000;2.070000;-7.000000;,
 103.250000;2.770000;-7.000000;,
 104.750000;1.770000;-8.500000;,
 -32.750000;-0.450000;-17.500000;,
 -32.750000;5.250000;-17.500000;,
 -31.250000;-0.450000;-17.500000;,
 -31.250000;5.250000;-17.500000;,
 -32.750000;-0.450000;-14.500000;,
 -32.750000;5.250000;-14.500000;,
 -31.250000;-0.450000;-14.500000;,
 -31.250000;5.250000;-14.500000;,
 -32.750000;-0.450000;-11.500000;,
 -32.750000;5.250000;-11.500000;,
 -31.250000;-0.450000;-11.500000;,
 -31.250000;5.250000;-11.500000;,
 -32.750000;-0.450000;-8.500000;,
 -32.750000;5.250000;-8.500000;,
 -31.250000;-0.450000;-8.500000;,
 -31.250000;5.250000;-8.500000;,
 -32.750000;5.250000;-17.500000;,
 -32.750000;5.550000;-19.000000;,
 -32.750000;6.250000;-19.000000;,
 -31.250000;5.550000;-19.000000;,
 -31.250000;6.250000;-19.000000;,
 -31.250000;5.250000;-17.500000;,
 -31.250000;5.250000;-8.500000;,
 -31.250000;5.550000;-7.000000;,
 -31.250000;6.250000;-7.000000;,
 -32.750000;5.250000;-8.500000;,
 -53.750000;-0.450000;-17.500000;,
 -53.750000;5.250000;-17.500000;,
 -52.250000;-0.450000;-17.500000;,
 -52.250000;5.250000;-17.500000;,
 -53.750000;-0.450000;-14.500000;,
 -53.750000;5.250000;-14.500000;,
 -52.250000;-0.450000;-14.500000;,
 -52.250000;5.250000;-14.500000;,
 -53.750000;-0.450000;-11.500000;,
 -53.750000;5.250000;-11.500000;,
 -52.250000;-0.450000;-11.500000;,
 -52.250000;5.250000;-11.500000;,
 -53.750000;-0.450000;-8.500000;,
 -53.750000;5.250000;-8.500000;,
 -52.250000;-0.450000;-8.500000;,
 -52.250000;5.250000;-8.500000;,
 -53.750000;5.250000;-17.500000;,
 -53.750000;5.550000;-19.000000;,
 -53.750000;6.250000;-19.000000;,
 -52.250000;5.550000;-19.000000;,
 -52.250000;6.250000;-19.000000;,
 -52.250000;5.250000;-17.500000;,
 -52.250000;5.250000;-8.500000;,
 -52.250000;5.550000;-7.000000;,
 -52.250000;6.250000;-7.000000;,
 -53.750000;5.250000;-8.500000;,
 -74.750000;-0.450000;-17.500000;,
 -74.750000;5.070000;-17.500000;,
 -73.250000;-0.450000;-17.500000;,
 -73.250000;5.070000;-17.500000;,
 -74.750000;-0.450000;-14.500000;,
 -74.750000;5.070000;-14.500000;,
 -73.250000;-0.450000;-14.500000;,
 -73.250000;5.070000;-14.500000;,
 -74.750000;-0.450000;-11.500000;,
 -74.750000;5.070000;-11.500000;,
 -73.250000;-0.450000;-11.500000;,
 -73.250000;5.070000;-11.500000;,
 -74.750000;-0.450000;-8.500000;,
 -74.750000;5.070000;-8.500000;,
 -73.250000;-0.450000;-8.500000;,
 -73.250000;5.070000;-8.500000;,
 -74.750000;5.070000;-17.500000;,
 -74.750000;5.370000;-19.000000;,
 -74.750000;6.070000;-19.000000;,
 -73.250000;5.370000;-19.000000;,
 -73.250000;6.070000;-19.000000;,
 -73.250000;5.070000;-17.500000;,
 -73.250000;5.070000;-8.500000;,
 -73.250000;5.370000;-7.000000;,
 -73.250000;6.070000;-7.000000;,
 -74.750000;5.070000;-8.500000;,
 -95.750000;-0.450000;-17.500000;,
 -95.750000;4.570000;-17.500000;,
 -94.250000;-0.450000;-17.500000;,
 -94.250000;4.570000;-17.500000;,
 -95.750000;-0.450000;-14.500000;,
 -95.750000;4.570000;-14.500000;,
 -94.250000;-0.450000;-14.500000;,
 -94.250000;4.570000;-14.500000;,
 -95.750000;-0.450000;-11.500000;,
 -95.750000;4.570000;-11.500000;,
 -94.250000;-0.450000;-11.500000;,
 -94.250000;4.570000;-11.500000;,
 -95.750000;-0.450000;-8.500000;,
 -95.750000;4.570000;-8.500000;,
 -94.250000;-0.450000;-8.500000;,
 -94.250000;4.570000;-8.500000;,
 -95.750000;4.570000;-17.500000;,
 -95.750000;4.870000;-19.000000;,
 -95.750000;5.570000;-19.000000;,
 -94.250000;4.870000;-19.000000;,
 -94.250000;5.570000;-19.000000;,
 -94.250000;4.570000;-17.500000;,
 -94.250000;4.570000;-8.500000;,
 -94.250000;4.870000;-7.000000;,
 -94.250000;5.570000;-7.000000;,
 -95.750000;4.570000;-8.500000;;
 208;
 3;1,0,3;,
 3;1,3,4;,
 3;2,1,4;,
 3;2,4,5;,
 3;4,3,6;,
 3;4,6,7;,
 3;5,4,7;,
 3;5,7,8;,
 3;7,6,9;,
 3;7,9,10;,
 3;8,7,10;,
 3;8,10,11;,
 3;16,15,12;,
 3;16,12,13;,
 3;17,16,13;,
 3;17,13,14;,
 3;19,18,15;,
 3;19,15,16;,
 3;20,19,16;,
 3;20,16,17;,
 3;22,21,18;,
 3;22,18,19;,
 3;23,22,19;,
 3;23,19,20;,
 3;25,24,21;,
 3;25,21,22;,
 3;26,25,22;,
 3;26,22,23;,
 3;27,28,30;,
 3;27,30,29;,
 3;29,30,32;,
 3;29,32,31;,
 3;31,32,34;,
 3;31,34,33;,
 3;35,36,38;,
 3;35,38,37;,
 3;37,38,40;,
 3;37,40,39;,
 3;39,40,42;,
 3;39,42,41;,
 3;41,42,44;,
 3;41,44,43;,
 3;45,46,48;,
 3;45,48,47;,
 3;47,48,50;,
 3;47,50,49;,
 3;49,50,52;,
 3;49,52,51;,
 3;53,54,56;,
 3;53,56,55;,
 3;59,60,58;,
 3;59,58,57;,
 3;61,62,60;,
 3;61,60,59;,
 3;63,64,62;,
 3;63,62,61;,
 3;65,66,68;,
 3;65,68,67;,
 3;67,68,70;,
 3;67,70,69;,
 3;69,70,72;,
 3;69,72,71;,
 3;73,74,76;,
 3;73,76,75;,
 3;77,78,80;,
 3;77,80,79;,
 3;81,82,84;,
 3;81,84,83;,
 3;85,86,88;,
 3;85,88,87;,
 3;89,90,92;,
 3;89,92,91;,
 3;98,96,94;,
 3;98,94,93;,
 3;96,97,95;,
 3;96,95,94;,
 3;99,100,101;,
 3;99,101,97;,
 3;99,97,96;,
 3;99,96,98;,
 3;102,99,98;,
 3;102,98,93;,
 3;103,104,106;,
 3;103,106,105;,
 3;107,108,110;,
 3;107,110,109;,
 3;111,112,114;,
 3;111,114,113;,
 3;115,116,118;,
 3;115,118,117;,
 3;124,122,120;,
 3;124,120,119;,
 3;122,123,121;,
 3;122,121,120;,
 3;125,126,127;,
 3;125,127,123;,
 3;125,123,122;,
 3;125,122,124;,
 3;128,125,124;,
 3;128,124,119;,
 3;129,130,132;,
 3;129,132,131;,
 3;133,134,136;,
 3;133,136,135;,
 3;137,138,140;,
 3;137,140,139;,
 3;141,142,144;,
 3;141,144,143;,
 3;150,148,146;,
 3;150,146,145;,
 3;148,149,147;,
 3;148,147,146;,
 3;151,152,153;,
 3;151,153,149;,
 3;151,149,148;,
 3;151,148,150;,
 3;154,151,150;,
 3;154,150,145;,
 3;155,156,158;,
 3;155,158,157;,
 3;159,160,162;,
 3;159,162,161;,
 3;163,164,166;,
 3;163,166,165;,
 3;167,168,170;,
 3;167,170,169;,
 3;176,174,172;,
 3;176,172,171;,
 3;174,175,173;,
 3;174,173,172;,
 3;177,178,179;,
 3;177,179,175;,
 3;177,175,174;,
 3;177,174,176;,
 3;180,177,176;,
 3;180,176,171;,
 3;181,182,184;,
 3;181,184,183;,
 3;185,186,188;,
 3;185,188,187;,
 3;189,190,192;,
 3;189,192,191;,
 3;193,194,196;,
 3;193,196,195;,
 3;197,198,200;,
 3;197,200,202;,
 3;198,199,201;,
 3;198,201,200;,
 3;202,200,201;,
 3;202,201,205;,
 3;202,205,204;,
 3;202,204,203;,
 3;197,202,203;,
 3;197,203,206;,
 3;207,208,210;,
 3;207,210,209;,
 3;211,212,214;,
 3;211,214,213;,
 3;215,216,218;,
 3;215,218,217;,
 3;219,220,222;,
 3;219,222,221;,
 3;223,224,226;,
 3;223,226,228;,
 3;224,225,227;,
 3;224,227,226;,
 3;228,226,227;,
 3;228,227,231;,
 3;228,231,230;,
 3;228,230,229;,
 3;223,228,229;,
 3;223,229,232;,
 3;233,234,236;,
 3;233,236,235;,
 3;237,238,240;,
 3;237,240,239;,
 3;241,242,244;,
 3;241,244,243;,
 3;245,246,248;,
 3;245,248,247;,
 3;249,250,252;,
 3;249,252,254;,
 3;250,251,253;,
 3;250,253,252;,
 3;254,252,253;,
 3;254,253,257;,
 3;254,257,256;,
 3;254,256,255;,
 3;249,254,255;,
 3;249,255,258;,
 3;259,260,262;,
 3;259,262,261;,
 3;263,264,266;,
 3;263,266,265;,
 3;267,268,270;,
 3;267,270,269;,
 3;271,272,274;,
 3;271,274,273;,
 3;275,276,278;,
 3;275,278,280;,
 3;276,277,279;,
 3;276,279,278;,
 3;280,278,279;,
 3;280,279,283;,
 3;280,283,282;,
 3;280,282,281;,
 3;275,280,281;,
 3;275,281,284;;

 MeshMaterialList  {
  49;
  208;
  0,
  0,
  0,
  0,
  0,
  0,
  0,
  0,
  0,
  0,
  0,
  0,
  1,
  1,
  1,
  1,
  1,
  1,
  1,
  1,
  1,
  1,
  1,
  1,
  1,
  1,
  1,
  1,
  2,
  2,
  2,
  2,
  2,
  2,
  3,
  3,
  3,
  3,
  3,
  3,
  3,
  3,
  4,
  4,
  4,
  4,
  4,
  4,
  5,
  5,
  6,
  6,
  6,
  6,
  6,
  6,
  7,
  7,
  7,
  7,
  7,
  7,
  8,
  8,
  9,
  9,
  10,
  10,
  11,
  11,
  12,
  12,
  13,
  13,
  13,
  13,
  13,
  13,
  13,
  13,
  13,
  13,
  14,
  14,
  15,
  15,
  16,
  16,
  17,
  17,
  18,
  18,
  18,
  18,
  18,
  18,
  18,
  18,
  18,
  18,
  19,
  19,
  20,
  20,
  21,
  21,
  22,
  22,
  23,
  23,
  23,
  23,
  23,
  23,
  23,
  23,
  23,
  23,
  24,
  24,
  25,
  25,
  26,
  26,
  27,
  27,
  28,
  28,
  28,
  28,
  28,
  28,
  28,
  28,
  28,
  28,
  29,
  29,
  30,
  30,
  31,
  31,
  32,
  32,
  33,
  33,
  33,
  33,
  33,
  33,
  33,
  33,
  33,
  33,
  34,
  34,
  35,
  35,
  36,
  36,
  37,
  37,
  38,
  38,
  38,
  38,
  38,
  38,
  38,
  38,
  38,
  38,
  39,
  39,
  40,
  40,
  41,
  41,
  42,
  42,
  43,
  43,
  43,
  43,
  43,
  43,
  43,
  43,
  43,
  43,
  44,
  44,
  45,
  45,
  46,
  46,
  47,
  47,
  48,
  48,
  48,
  48,
  48,
  48,
  48,
  48,
  48,
  48;

  Material  {
   1.000000;1.000000;1.000000;1.000000;;
   0.000000;
   0.000000;0.000000;0.000000;;
   0.000000;0.000000;0.000000;;

   TextureFilename  {
    "Toyohashi_BridgeSaku2.png";
   }
  }

  Material  {
   1.000000;1.000000;1.000000;1.000000;;
   0.000000;
   0.000000;0.000000;0.000000;;
   0.000000;0.000000;0.000000;;

   TextureFilename  {
    "Toyohashi_BridgeSaku2.png";
   }
  }

  Material  {
   1.000000;1.000000;1.000000;1.000000;;
   0.000000;
   0.000000;0.000000;0.000000;;
   0.000000;0.000000;0.000000;;

   TextureFilename  {
    "Toyohashi_BridgeSaku3.png";
   }
  }

  Material  {
   1.000000;1.000000;1.000000;1.000000;;
   0.000000;
   0.000000;0.000000;0.000000;;
   0.000000;0.000000;0.000000;;

   TextureFilename  {
    "Toyohashi_BridgeSaku3.png";
   }
  }

  Material  {
   1.000000;1.000000;1.000000;1.000000;;
   0.000000;
   0.000000;0.000000;0.000000;;
   0.000000;0.000000;0.000000;;

   TextureFilename  {
    "Toyohashi_BridgeStair1.png";
   }
  }

  Material  {
   1.000000;1.000000;1.000000;1.000000;;
   0.000000;
   0.000000;0.000000;0.000000;;
   0.000000;0.000000;0.000000;;

   TextureFilename  {
    "Toyohashi_BridgePier4.png";
   }
  }

  Material  {
   1.000000;1.000000;1.000000;1.000000;;
   0.000000;
   0.000000;0.000000;0.000000;;
   0.000000;0.000000;0.000000;;

   TextureFilename  {
    "Toyohashi_BridgeSaku3.png";
   }
  }

  Material  {
   0.250980;0.250980;0.250980;1.000000;;
   0.000000;
   0.000000;0.000000;0.000000;;
   0.000000;0.000000;0.000000;;

   TextureFilename  {
    "Toyohashi_BridgeStair1.png";
   }
  }

  Material  {
   1.000000;1.000000;1.000000;1.000000;;
   0.000000;
   0.000000;0.000000;0.000000;;
   0.000000;0.000000;0.000000;;

   TextureFilename  {
    "Toyohashi_BridgePier4.png";
   }
  }

  Material  {
   1.000000;1.000000;1.000000;1.000000;;
   0.000000;
   0.000000;0.000000;0.000000;;
   0.000000;0.000000;0.000000;;

   TextureFilename  {
    "Toyohashi_BridgePier3.png";
   }
  }

  Material  {
   1.000000;1.000000;1.000000;1.000000;;
   0.000000;
   0.000000;0.000000;0.000000;;
   0.000000;0.000000;0.000000;;

   TextureFilename  {
    "Toyohashi_BridgePier3.png";
   }
  }

  Material  {
   1.000000;1.000000;1.000000;1.000000;;
   0.000000;
   0.000000;0.000000;0.000000;;
   0.000000;0.000000;0.000000;;

   TextureFilename  {
    "Toyohashi_BridgePier3.png";
   }
  }

  Material  {
   1.000000;1.000000;1.000000;1.000000;;
   0.000000;
   0.000000;0.000000;0.000000;;
   0.000000;0.000000;0.000000;;

   TextureFilename  {
    "Toyohashi_BridgePier3.png";
   }
  }

  Material  {
   1.000000;1.000000;1.000000;1.000000;;
   0.000000;
   0.000000;0.000000;0.000000;;
   0.000000;0.000000;0.000000;;

   TextureFilename  {
    "Toyohashi_BridgePier3.png";
   }
  }

  Material  {
   1.000000;1.000000;1.000000;1.000000;;
   0.000000;
   0.000000;0.000000;0.000000;;
   0.000000;0.000000;0.000000;;

   TextureFilename  {
    "Toyohashi_BridgePier3.png";
   }
  }

  Material  {
   1.000000;1.000000;1.000000;1.000000;;
   0.000000;
   0.000000;0.000000;0.000000;;
   0.000000;0.000000;0.000000;;

   TextureFilename  {
    "Toyohashi_BridgePier3.png";
   }
  }

  Material  {
   1.000000;1.000000;1.000000;1.000000;;
   0.000000;
   0.000000;0.000000;0.000000;;
   0.000000;0.000000;0.000000;;

   TextureFilename  {
    "Toyohashi_BridgePier3.png";
   }
  }

  Material  {
   1.000000;1.000000;1.000000;1.000000;;
   0.000000;
   0.000000;0.000000;0.000000;;
   0.000000;0.000000;0.000000;;

   TextureFilename  {
    "Toyohashi_BridgePier3.png";
   }
  }

  Material  {
   1.000000;1.000000;1.000000;1.000000;;
   0.000000;
   0.000000;0.000000;0.000000;;
   0.000000;0.000000;0.000000;;

   TextureFilename  {
    "Toyohashi_BridgePier3.png";
   }
  }

  Material  {
   1.000000;1.000000;1.000000;1.000000;;
   0.000000;
   0.000000;0.000000;0.000000;;
   0.000000;0.000000;0.000000;;

   TextureFilename  {
    "Toyohashi_BridgePier3.png";
   }
  }

  Material  {
   1.000000;1.000000;1.000000;1.000000;;
   0.000000;
   0.000000;0.000000;0.000000;;
   0.000000;0.000000;0.000000;;

   TextureFilename  {
    "Toyohashi_BridgePier3.png";
   }
  }

  Material  {
   1.000000;1.000000;1.000000;1.000000;;
   0.000000;
   0.000000;0.000000;0.000000;;
   0.000000;0.000000;0.000000;;

   TextureFilename  {
    "Toyohashi_BridgePier3.png";
   }
  }

  Material  {
   1.000000;1.000000;1.000000;1.000000;;
   0.000000;
   0.000000;0.000000;0.000000;;
   0.000000;0.000000;0.000000;;

   TextureFilename  {
    "Toyohashi_BridgePier3.png";
   }
  }

  Material  {
   1.000000;1.000000;1.000000;1.000000;;
   0.000000;
   0.000000;0.000000;0.000000;;
   0.000000;0.000000;0.000000;;

   TextureFilename  {
    "Toyohashi_BridgePier3.png";
   }
  }

  Material  {
   1.000000;1.000000;1.000000;1.000000;;
   0.000000;
   0.000000;0.000000;0.000000;;
   0.000000;0.000000;0.000000;;

   TextureFilename  {
    "Toyohashi_BridgePier3.png";
   }
  }

  Material  {
   1.000000;1.000000;1.000000;1.000000;;
   0.000000;
   0.000000;0.000000;0.000000;;
   0.000000;0.000000;0.000000;;

   TextureFilename  {
    "Toyohashi_BridgePier3.png";
   }
  }

  Material  {
   1.000000;1.000000;1.000000;1.000000;;
   0.000000;
   0.000000;0.000000;0.000000;;
   0.000000;0.000000;0.000000;;

   TextureFilename  {
    "Toyohashi_BridgePier3.png";
   }
  }

  Material  {
   1.000000;1.000000;1.000000;1.000000;;
   0.000000;
   0.000000;0.000000;0.000000;;
   0.000000;0.000000;0.000000;;

   TextureFilename  {
    "Toyohashi_BridgePier3.png";
   }
  }

  Material  {
   1.000000;1.000000;1.000000;1.000000;;
   0.000000;
   0.000000;0.000000;0.000000;;
   0.000000;0.000000;0.000000;;

   TextureFilename  {
    "Toyohashi_BridgePier3.png";
   }
  }

  Material  {
   1.000000;1.000000;1.000000;1.000000;;
   0.000000;
   0.000000;0.000000;0.000000;;
   0.000000;0.000000;0.000000;;

   TextureFilename  {
    "Toyohashi_BridgePier3.png";
   }
  }

  Material  {
   1.000000;1.000000;1.000000;1.000000;;
   0.000000;
   0.000000;0.000000;0.000000;;
   0.000000;0.000000;0.000000;;

   TextureFilename  {
    "Toyohashi_BridgePier3.png";
   }
  }

  Material  {
   1.000000;1.000000;1.000000;1.000000;;
   0.000000;
   0.000000;0.000000;0.000000;;
   0.000000;0.000000;0.000000;;

   TextureFilename  {
    "Toyohashi_BridgePier3.png";
   }
  }

  Material  {
   1.000000;1.000000;1.000000;1.000000;;
   0.000000;
   0.000000;0.000000;0.000000;;
   0.000000;0.000000;0.000000;;

   TextureFilename  {
    "Toyohashi_BridgePier3.png";
   }
  }

  Material  {
   1.000000;1.000000;1.000000;1.000000;;
   0.000000;
   0.000000;0.000000;0.000000;;
   0.000000;0.000000;0.000000;;

   TextureFilename  {
    "Toyohashi_BridgePier3.png";
   }
  }

  Material  {
   1.000000;1.000000;1.000000;1.000000;;
   0.000000;
   0.000000;0.000000;0.000000;;
   0.000000;0.000000;0.000000;;

   TextureFilename  {
    "Toyohashi_BridgePier3.png";
   }
  }

  Material  {
   1.000000;1.000000;1.000000;1.000000;;
   0.000000;
   0.000000;0.000000;0.000000;;
   0.000000;0.000000;0.000000;;

   TextureFilename  {
    "Toyohashi_BridgePier3.png";
   }
  }

  Material  {
   1.000000;1.000000;1.000000;1.000000;;
   0.000000;
   0.000000;0.000000;0.000000;;
   0.000000;0.000000;0.000000;;

   TextureFilename  {
    "Toyohashi_BridgePier3.png";
   }
  }

  Material  {
   1.000000;1.000000;1.000000;1.000000;;
   0.000000;
   0.000000;0.000000;0.000000;;
   0.000000;0.000000;0.000000;;

   TextureFilename  {
    "Toyohashi_BridgePier3.png";
   }
  }

  Material  {
   1.000000;1.000000;1.000000;1.000000;;
   0.000000;
   0.000000;0.000000;0.000000;;
   0.000000;0.000000;0.000000;;

   TextureFilename  {
    "Toyohashi_BridgePier3.png";
   }
  }

  Material  {
   1.000000;1.000000;1.000000;1.000000;;
   0.000000;
   0.000000;0.000000;0.000000;;
   0.000000;0.000000;0.000000;;

   TextureFilename  {
    "Toyohashi_BridgePier3.png";
   }
  }

  Material  {
   1.000000;1.000000;1.000000;1.000000;;
   0.000000;
   0.000000;0.000000;0.000000;;
   0.000000;0.000000;0.000000;;

   TextureFilename  {
    "Toyohashi_BridgePier3.png";
   }
  }

  Material  {
   1.000000;1.000000;1.000000;1.000000;;
   0.000000;
   0.000000;0.000000;0.000000;;
   0.000000;0.000000;0.000000;;

   TextureFilename  {
    "Toyohashi_BridgePier3.png";
   }
  }

  Material  {
   1.000000;1.000000;1.000000;1.000000;;
   0.000000;
   0.000000;0.000000;0.000000;;
   0.000000;0.000000;0.000000;;

   TextureFilename  {
    "Toyohashi_BridgePier3.png";
   }
  }

  Material  {
   1.000000;1.000000;1.000000;1.000000;;
   0.000000;
   0.000000;0.000000;0.000000;;
   0.000000;0.000000;0.000000;;

   TextureFilename  {
    "Toyohashi_BridgePier3.png";
   }
  }

  Material  {
   1.000000;1.000000;1.000000;1.000000;;
   0.000000;
   0.000000;0.000000;0.000000;;
   0.000000;0.000000;0.000000;;

   TextureFilename  {
    "Toyohashi_BridgePier3.png";
   }
  }

  Material  {
   1.000000;1.000000;1.000000;1.000000;;
   0.000000;
   0.000000;0.000000;0.000000;;
   0.000000;0.000000;0.000000;;

   TextureFilename  {
    "Toyohashi_BridgePier3.png";
   }
  }

  Material  {
   1.000000;1.000000;1.000000;1.000000;;
   0.000000;
   0.000000;0.000000;0.000000;;
   0.000000;0.000000;0.000000;;

   TextureFilename  {
    "Toyohashi_BridgePier3.png";
   }
  }

  Material  {
   1.000000;1.000000;1.000000;1.000000;;
   0.000000;
   0.000000;0.000000;0.000000;;
   0.000000;0.000000;0.000000;;

   TextureFilename  {
    "Toyohashi_BridgePier3.png";
   }
  }

  Material  {
   1.000000;1.000000;1.000000;1.000000;;
   0.000000;
   0.000000;0.000000;0.000000;;
   0.000000;0.000000;0.000000;;

   TextureFilename  {
    "Toyohashi_BridgePier3.png";
   }
  }
 }

 MeshTextureCoords  {
  285;
  0.060000;0.000000;,
  0.060000;0.844000;,
  0.060000;1.000000;,
  3.560000;0.000000;,
  3.560000;0.844000;,
  3.560000;1.000000;,
  7.060000;0.000000;,
  7.060000;0.844000;,
  7.060000;1.000000;,
  24.559999;0.000000;,
  24.559999;0.844000;,
  24.559999;1.000000;,
  0.060000;0.000000;,
  0.060000;0.844000;,
  0.060000;1.000000;,
  3.060000;0.000000;,
  3.060000;0.844000;,
  3.060000;1.000000;,
  8.310000;0.000000;,
  8.310000;0.844000;,
  8.310000;1.000000;,
  13.560000;0.000000;,
  13.560000;0.844000;,
  13.560000;1.000000;,
  24.059999;0.000000;,
  24.059999;0.844000;,
  24.059999;1.000000;,
  0.000000;1.000000;,
  0.000000;0.000000;,
  2.000000;1.000000;,
  2.000000;0.000000;,
  2.500000;1.000000;,
  2.500000;0.000000;,
  4.500000;1.000000;,
  4.500000;0.000000;,
  0.250000;1.000000;,
  0.250000;0.000000;,
  0.500000;1.000000;,
  0.500000;0.000000;,
  2.500000;1.000000;,
  2.500000;0.000000;,
  3.000000;1.000000;,
  3.000000;0.000000;,
  5.000000;1.000000;,
  5.000000;0.000000;,
  0.000000;0.000000;,
  1.000000;0.000000;,
  0.000000;2.000000;,
  1.000000;2.000000;,
  0.000000;2.000000;,
  1.000000;2.000000;,
  0.000000;4.000000;,
  1.000000;4.000000;,
  0.000000;1.000000;,
  0.000000;0.000000;,
  1.000000;1.000000;,
  1.000000;0.000000;,
  0.000000;1.000000;,
  0.000000;0.000000;,
  2.000000;1.000000;,
  2.000000;0.000000;,
  2.500000;1.000000;,
  2.500000;0.000000;,
  4.500000;1.000000;,
  4.500000;0.000000;,
  0.000000;0.000000;,
  1.000000;0.000000;,
  0.000000;2.000000;,
  1.000000;2.000000;,
  0.000000;2.000000;,
  1.000000;2.000000;,
  0.000000;4.000000;,
  1.000000;4.000000;,
  0.000000;1.000000;,
  0.000000;0.050000;,
  1.000000;1.000000;,
  1.000000;0.050000;,
  0.000000;1.000000;,
  0.000000;0.200000;,
  1.000000;1.000000;,
  1.000000;0.200000;,
  0.000000;0.600000;,
  0.000000;0.100000;,
  1.000000;0.600000;,
  1.000000;0.100000;,
  0.000000;0.500000;,
  0.000000;0.100000;,
  1.000000;0.500000;,
  1.000000;0.100000;,
  0.000000;0.400000;,
  0.000000;0.100000;,
  1.000000;0.400000;,
  1.000000;0.100000;,
  0.000000;0.000000;,
  0.000000;0.000000;,
  0.000000;0.000000;,
  0.000000;0.000000;,
  0.900000;0.100000;,
  0.900000;0.100000;,
  0.900000;0.100000;,
  0.900000;0.100000;,
  0.900000;0.100000;,
  0.000000;0.000000;,
  0.000000;1.000000;,
  0.000000;0.200000;,
  1.000000;1.000000;,
  1.000000;0.200000;,
  0.000000;0.600000;,
  0.000000;0.100000;,
  1.000000;0.600000;,
  1.000000;0.100000;,
  0.000000;0.500000;,
  0.000000;0.100000;,
  1.000000;0.500000;,
  1.000000;0.100000;,
  0.000000;0.400000;,
  0.000000;0.100000;,
  1.000000;0.400000;,
  1.000000;0.100000;,
  0.000000;0.000000;,
  0.000000;0.000000;,
  0.000000;0.000000;,
  0.000000;0.000000;,
  0.900000;0.100000;,
  0.900000;0.100000;,
  0.900000;0.100000;,
  0.900000;0.100000;,
  0.900000;0.100000;,
  0.000000;0.000000;,
  0.000000;1.000000;,
  0.000000;0.200000;,
  1.000000;1.000000;,
  1.000000;0.200000;,
  0.000000;0.600000;,
  0.000000;0.100000;,
  1.000000;0.600000;,
  1.000000;0.100000;,
  0.000000;0.500000;,
  0.000000;0.100000;,
  1.000000;0.500000;,
  1.000000;0.100000;,
  0.000000;0.400000;,
  0.000000;0.100000;,
  1.000000;0.400000;,
  1.000000;0.100000;,
  0.000000;0.000000;,
  0.000000;0.000000;,
  0.000000;0.000000;,
  0.000000;0.000000;,
  0.900000;0.100000;,
  0.900000;0.100000;,
  0.900000;0.100000;,
  0.900000;0.100000;,
  0.900000;0.100000;,
  0.000000;0.000000;,
  0.000000;1.000000;,
  0.000000;0.200000;,
  1.000000;1.000000;,
  1.000000;0.200000;,
  0.000000;0.600000;,
  0.000000;0.100000;,
  1.000000;0.600000;,
  1.000000;0.100000;,
  0.000000;0.500000;,
  0.000000;0.100000;,
  1.000000;0.500000;,
  1.000000;0.100000;,
  0.000000;0.400000;,
  0.000000;0.100000;,
  1.000000;0.400000;,
  1.000000;0.100000;,
  0.000000;0.000000;,
  0.000000;0.000000;,
  0.000000;0.000000;,
  0.000000;0.000000;,
  0.900000;0.100000;,
  0.900000;0.100000;,
  0.900000;0.100000;,
  0.900000;0.100000;,
  0.900000;0.100000;,
  0.000000;0.000000;,
  0.000000;1.000000;,
  0.000000;0.200000;,
  1.000000;1.000000;,
  1.000000;0.200000;,
  0.000000;0.600000;,
  0.000000;0.100000;,
  1.000000;0.600000;,
  1.000000;0.100000;,
  0.000000;0.500000;,
  0.000000;0.100000;,
  1.000000;0.500000;,
  1.000000;0.100000;,
  0.000000;0.400000;,
  0.000000;0.100000;,
  1.000000;0.400000;,
  1.000000;0.100000;,
  0.000000;0.000000;,
  0.000000;0.000000;,
  0.000000;0.000000;,
  0.000000;0.000000;,
  0.900000;0.100000;,
  0.900000;0.100000;,
  0.900000;0.100000;,
  0.900000;0.100000;,
  0.900000;0.100000;,
  0.000000;0.000000;,
  0.000000;1.000000;,
  0.000000;0.200000;,
  1.000000;1.000000;,
  1.000000;0.200000;,
  0.000000;0.600000;,
  0.000000;0.100000;,
  1.000000;0.600000;,
  1.000000;0.100000;,
  0.000000;0.500000;,
  0.000000;0.100000;,
  1.000000;0.500000;,
  1.000000;0.100000;,
  0.000000;0.400000;,
  0.000000;0.100000;,
  1.000000;0.400000;,
  1.000000;0.100000;,
  0.000000;0.000000;,
  0.000000;0.000000;,
  0.000000;0.000000;,
  0.000000;0.000000;,
  0.900000;0.100000;,
  0.900000;0.100000;,
  0.900000;0.100000;,
  0.900000;0.100000;,
  0.900000;0.100000;,
  0.000000;0.000000;,
  0.000000;1.000000;,
  0.000000;0.200000;,
  1.000000;1.000000;,
  1.000000;0.200000;,
  0.000000;0.600000;,
  0.000000;0.100000;,
  1.000000;0.600000;,
  1.000000;0.100000;,
  0.000000;0.500000;,
  0.000000;0.100000;,
  1.000000;0.500000;,
  1.000000;0.100000;,
  0.000000;0.400000;,
  0.000000;0.100000;,
  1.000000;0.400000;,
  1.000000;0.100000;,
  0.000000;0.000000;,
  0.000000;0.000000;,
  0.000000;0.000000;,
  0.000000;0.000000;,
  0.900000;0.100000;,
  0.900000;0.100000;,
  0.900000;0.100000;,
  0.900000;0.100000;,
  0.900000;0.100000;,
  0.000000;0.000000;,
  0.000000;1.000000;,
  0.000000;0.200000;,
  1.000000;1.000000;,
  1.000000;0.200000;,
  0.000000;0.600000;,
  0.000000;0.100000;,
  1.000000;0.600000;,
  1.000000;0.100000;,
  0.000000;0.500000;,
  0.000000;0.100000;,
  1.000000;0.500000;,
  1.000000;0.100000;,
  0.000000;0.400000;,
  0.000000;0.100000;,
  1.000000;0.400000;,
  1.000000;0.100000;,
  0.000000;0.000000;,
  0.000000;0.000000;,
  0.000000;0.000000;,
  0.000000;0.000000;,
  0.900000;0.100000;,
  0.900000;0.100000;,
  0.900000;0.100000;,
  0.900000;0.100000;,
  0.900000;0.100000;,
  0.000000;0.000000;;
 }

 MeshNormals  {
  208;
  0.000000;0.000000;-1.000000;,
  0.000000;0.000000;-1.000000;,
  -0.017854;-0.999841;0.000000;,
  -0.017854;-0.999841;0.000000;,
  0.000000;0.000000;-1.000000;,
  0.000000;0.000000;-1.000000;,
  -0.035692;-0.999363;0.000000;,
  -0.035692;-0.999363;0.000000;,
  0.000000;0.000000;-1.000000;,
  0.000000;0.000000;-1.000000;,
  -0.060603;-0.998162;0.000000;,
  -0.060603;-0.998162;0.000000;,
  0.000000;0.000000;-1.000000;,
  0.000000;0.000000;-1.000000;,
  -0.020829;-0.999783;0.000000;,
  -0.020829;-0.999783;0.000000;,
  0.000000;0.000000;-1.000000;,
  0.000000;0.000000;-1.000000;,
  0.000000;-1.000000;0.000000;,
  0.000000;-1.000000;0.000000;,
  0.000000;0.000000;-1.000000;,
  0.000000;0.000000;-1.000000;,
  0.011904;-0.999929;0.000000;,
  0.011904;-0.999929;0.000000;,
  0.000000;0.000000;-1.000000;,
  0.000000;0.000000;-1.000000;,
  0.023803;-0.999717;0.000000;,
  0.023803;-0.999717;0.000000;,
  -0.993340;0.000000;-0.115223;,
  -0.993340;0.000000;-0.115223;,
  -0.993339;0.000000;-0.115225;,
  -0.993339;0.000000;-0.115225;,
  -0.993340;0.000000;-0.115223;,
  -0.993340;0.000000;-0.115223;,
  -1.000000;0.000000;0.000000;,
  -1.000000;0.000000;0.000000;,
  -0.993340;0.000000;-0.115223;,
  -0.993340;0.000000;-0.115223;,
  -0.993339;0.000000;-0.115225;,
  -0.993339;0.000000;-0.115225;,
  -0.993340;0.000000;-0.115223;,
  -0.993340;0.000000;-0.115223;,
  0.000000;0.866025;-0.500000;,
  0.000000;0.866025;-0.500000;,
  0.000000;1.000000;0.000000;,
  0.000000;1.000000;0.000000;,
  0.000000;0.866025;-0.500000;,
  0.000000;0.866025;-0.500000;,
  0.000000;0.000000;-1.000000;,
  0.000000;0.000000;-1.000000;,
  -1.000000;0.000000;0.000000;,
  -1.000000;0.000000;0.000000;,
  -1.000000;0.000000;0.000000;,
  -1.000000;0.000000;0.000000;,
  -1.000000;0.000000;0.000000;,
  -1.000000;0.000000;0.000000;,
  0.000000;-0.866025;-0.500000;,
  0.000000;-0.866025;-0.500000;,
  0.000000;-1.000000;0.000000;,
  0.000000;-1.000000;0.000000;,
  0.000000;-0.866025;-0.500000;,
  0.000000;-0.866025;-0.500000;,
  0.000000;0.000000;-1.000000;,
  0.000000;0.000000;-1.000000;,
  0.000000;0.000000;-1.000000;,
  0.000000;0.000000;-1.000000;,
  0.000000;0.000000;-1.000000;,
  0.000000;0.000000;-1.000000;,
  0.000000;0.000000;-1.000000;,
  0.000000;0.000000;-1.000000;,
  0.000000;0.000000;-1.000000;,
  0.000000;0.000000;-1.000000;,
  0.000000;-0.980581;-0.196116;,
  0.000000;-0.980581;-0.196116;,
  0.000000;0.000000;-1.000000;,
  0.000000;0.000000;-1.000000;,
  -1.000000;0.000000;0.000000;,
  -1.000000;0.000000;0.000000;,
  -1.000000;0.000000;0.000000;,
  -1.000000;0.000000;0.000000;,
  0.000000;-1.000000;0.000000;,
  0.000000;-1.000000;0.000000;,
  0.000000;0.000000;-1.000000;,
  0.000000;0.000000;-1.000000;,
  0.000000;0.000000;-1.000000;,
  0.000000;0.000000;-1.000000;,
  0.000000;0.000000;-1.000000;,
  0.000000;0.000000;-1.000000;,
  0.000000;0.000000;-1.000000;,
  0.000000;0.000000;-1.000000;,
  0.000000;-0.980581;-0.196116;,
  0.000000;-0.980581;-0.196116;,
  0.000000;0.000000;-1.000000;,
  0.000000;0.000000;-1.000000;,
  -1.000000;0.000000;0.000000;,
  -1.000000;0.000000;0.000000;,
  -1.000000;0.000000;0.000000;,
  -1.000000;0.000000;0.000000;,
  0.000000;-1.000000;0.000000;,
  0.000000;-1.000000;0.000000;,
  0.000000;0.000000;-1.000000;,
  0.000000;0.000000;-1.000000;,
  0.000000;0.000000;-1.000000;,
  0.000000;0.000000;-1.000000;,
  0.000000;0.000000;-1.000000;,
  0.000000;0.000000;-1.000000;,
  0.000000;0.000000;-1.000000;,
  0.000000;0.000000;-1.000000;,
  0.000000;-0.980581;-0.196116;,
  0.000000;-0.980581;-0.196116;,
  0.000000;0.000000;-1.000000;,
  0.000000;0.000000;-1.000000;,
  -1.000000;0.000000;0.000000;,
  -1.000000;0.000000;0.000000;,
  -1.000000;0.000000;0.000000;,
  -1.000000;0.000000;0.000000;,
  0.000000;-1.000000;0.000000;,
  0.000000;-1.000000;0.000000;,
  0.000000;0.000000;-1.000000;,
  0.000000;0.000000;-1.000000;,
  0.000000;0.000000;-1.000000;,
  0.000000;0.000000;-1.000000;,
  0.000000;0.000000;-1.000000;,
  0.000000;0.000000;-1.000000;,
  0.000000;0.000000;-1.000000;,
  0.000000;0.000000;-1.000000;,
  0.000000;-0.980581;-0.196116;,
  0.000000;-0.980581;-0.196116;,
  0.000000;0.000000;-1.000000;,
  0.000000;0.000000;-1.000000;,
  -1.000000;0.000000;0.000000;,
  -1.000000;0.000000;0.000000;,
  -1.000000;0.000000;0.000000;,
  -1.000000;0.000000;0.000000;,
  0.000000;-1.000000;0.000000;,
  0.000000;-1.000000;0.000000;,
  0.000000;0.000000;-1.000000;,
  0.000000;0.000000;-1.000000;,
  0.000000;0.000000;-1.000000;,
  0.000000;0.000000;-1.000000;,
  0.000000;0.000000;-1.000000;,
  0.000000;0.000000;-1.000000;,
  0.000000;0.000000;-1.000000;,
  0.000000;0.000000;-1.000000;,
  0.000000;-0.980581;-0.196116;,
  0.000000;-0.980581;-0.196116;,
  0.000000;0.000000;-1.000000;,
  0.000000;0.000000;-1.000000;,
  1.000000;0.000000;0.000000;,
  1.000000;0.000000;0.000000;,
  1.000000;0.000000;0.000000;,
  1.000000;0.000000;0.000000;,
  0.000000;-1.000000;0.000000;,
  0.000000;-1.000000;0.000000;,
  0.000000;0.000000;-1.000000;,
  0.000000;0.000000;-1.000000;,
  0.000000;0.000000;-1.000000;,
  0.000000;0.000000;-1.000000;,
  0.000000;0.000000;-1.000000;,
  0.000000;0.000000;-1.000000;,
  0.000000;0.000000;-1.000000;,
  0.000000;0.000000;-1.000000;,
  0.000000;-0.980581;-0.196116;,
  0.000000;-0.980581;-0.196116;,
  0.000000;0.000000;-1.000000;,
  0.000000;0.000000;-1.000000;,
  1.000000;0.000000;0.000000;,
  1.000000;0.000000;0.000000;,
  1.000000;0.000000;0.000000;,
  1.000000;0.000000;0.000000;,
  0.000000;-1.000000;0.000000;,
  0.000000;-1.000000;0.000000;,
  0.000000;0.000000;-1.000000;,
  0.000000;0.000000;-1.000000;,
  0.000000;0.000000;-1.000000;,
  0.000000;0.000000;-1.000000;,
  0.000000;0.000000;-1.000000;,
  0.000000;0.000000;-1.000000;,
  0.000000;0.000000;-1.000000;,
  0.000000;0.000000;-1.000000;,
  0.000000;-0.980581;-0.196116;,
  0.000000;-0.980581;-0.196116;,
  0.000000;0.000000;-1.000000;,
  0.000000;0.000000;-1.000000;,
  1.000000;0.000000;0.000000;,
  1.000000;0.000000;0.000000;,
  1.000000;0.000000;0.000000;,
  1.000000;0.000000;0.000000;,
  0.000000;-1.000000;0.000000;,
  0.000000;-1.000000;0.000000;,
  0.000000;0.000000;-1.000000;,
  0.000000;0.000000;-1.000000;,
  0.000000;0.000000;-1.000000;,
  0.000000;0.000000;-1.000000;,
  0.000000;0.000000;-1.000000;,
  0.000000;0.000000;-1.000000;,
  0.000000;0.000000;-1.000000;,
  0.000000;0.000000;-1.000000;,
  0.000000;-0.980581;-0.196116;,
  0.000000;-0.980581;-0.196116;,
  0.000000;0.000000;-1.000000;,
  0.000000;0.000000;-1.000000;,
  1.000000;0.000000;0.000000;,
  1.000000;0.000000;0.000000;,
  1.000000;0.000000;0.000000;,
  1.000000;0.000000;0.000000;,
  0.000000;-1.000000;0.000000;,
  0.000000;-1.000000;0.000000;;
  208;
  3;0,0,0;,
  3;1,1,1;,
  3;2,2,2;,
  3;3,3,3;,
  3;4,4,4;,
  3;5,5,5;,
  3;6,6,6;,
  3;7,7,7;,
  3;8,8,8;,
  3;9,9,9;,
  3;10,10,10;,
  3;11,11,11;,
  3;12,12,12;,
  3;13,13,13;,
  3;14,14,14;,
  3;15,15,15;,
  3;16,16,16;,
  3;17,17,17;,
  3;18,18,18;,
  3;19,19,19;,
  3;20,20,20;,
  3;21,21,21;,
  3;22,22,22;,
  3;23,23,23;,
  3;24,24,24;,
  3;25,25,25;,
  3;26,26,26;,
  3;27,27,27;,
  3;28,28,28;,
  3;29,29,29;,
  3;30,30,30;,
  3;31,31,31;,
  3;32,32,32;,
  3;33,33,33;,
  3;34,34,34;,
  3;35,35,35;,
  3;36,36,36;,
  3;37,37,37;,
  3;38,38,38;,
  3;39,39,39;,
  3;40,40,40;,
  3;41,41,41;,
  3;42,42,42;,
  3;43,43,43;,
  3;44,44,44;,
  3;45,45,45;,
  3;46,46,46;,
  3;47,47,47;,
  3;48,48,48;,
  3;49,49,49;,
  3;50,50,50;,
  3;51,51,51;,
  3;52,52,52;,
  3;53,53,53;,
  3;54,54,54;,
  3;55,55,55;,
  3;56,56,56;,
  3;57,57,57;,
  3;58,58,58;,
  3;59,59,59;,
  3;60,60,60;,
  3;61,61,61;,
  3;62,62,62;,
  3;63,63,63;,
  3;64,64,64;,
  3;65,65,65;,
  3;66,66,66;,
  3;67,67,67;,
  3;68,68,68;,
  3;69,69,69;,
  3;70,70,70;,
  3;71,71,71;,
  3;72,72,72;,
  3;73,73,73;,
  3;74,74,74;,
  3;75,75,75;,
  3;76,76,76;,
  3;77,77,77;,
  3;78,78,78;,
  3;79,79,79;,
  3;80,80,80;,
  3;81,81,81;,
  3;82,82,82;,
  3;83,83,83;,
  3;84,84,84;,
  3;85,85,85;,
  3;86,86,86;,
  3;87,87,87;,
  3;88,88,88;,
  3;89,89,89;,
  3;90,90,90;,
  3;91,91,91;,
  3;92,92,92;,
  3;93,93,93;,
  3;94,94,94;,
  3;95,95,95;,
  3;96,96,96;,
  3;97,97,97;,
  3;98,98,98;,
  3;99,99,99;,
  3;100,100,100;,
  3;101,101,101;,
  3;102,102,102;,
  3;103,103,103;,
  3;104,104,104;,
  3;105,105,105;,
  3;106,106,106;,
  3;107,107,107;,
  3;108,108,108;,
  3;109,109,109;,
  3;110,110,110;,
  3;111,111,111;,
  3;112,112,112;,
  3;113,113,113;,
  3;114,114,114;,
  3;115,115,115;,
  3;116,116,116;,
  3;117,117,117;,
  3;118,118,118;,
  3;119,119,119;,
  3;120,120,120;,
  3;121,121,121;,
  3;122,122,122;,
  3;123,123,123;,
  3;124,124,124;,
  3;125,125,125;,
  3;126,126,126;,
  3;127,127,127;,
  3;128,128,128;,
  3;129,129,129;,
  3;130,130,130;,
  3;131,131,131;,
  3;132,132,132;,
  3;133,133,133;,
  3;134,134,134;,
  3;135,135,135;,
  3;136,136,136;,
  3;137,137,137;,
  3;138,138,138;,
  3;139,139,139;,
  3;140,140,140;,
  3;141,141,141;,
  3;142,142,142;,
  3;143,143,143;,
  3;144,144,144;,
  3;145,145,145;,
  3;146,146,146;,
  3;147,147,147;,
  3;148,148,148;,
  3;149,149,149;,
  3;150,150,150;,
  3;151,151,151;,
  3;152,152,152;,
  3;153,153,153;,
  3;154,154,154;,
  3;155,155,155;,
  3;156,156,156;,
  3;157,157,157;,
  3;158,158,158;,
  3;159,159,159;,
  3;160,160,160;,
  3;161,161,161;,
  3;162,162,162;,
  3;163,163,163;,
  3;164,164,164;,
  3;165,165,165;,
  3;166,166,166;,
  3;167,167,167;,
  3;168,168,168;,
  3;169,169,169;,
  3;170,170,170;,
  3;171,171,171;,
  3;172,172,172;,
  3;173,173,173;,
  3;174,174,174;,
  3;175,175,175;,
  3;176,176,176;,
  3;177,177,177;,
  3;178,178,178;,
  3;179,179,179;,
  3;180,180,180;,
  3;181,181,181;,
  3;182,182,182;,
  3;183,183,183;,
  3;184,184,184;,
  3;185,185,185;,
  3;186,186,186;,
  3;187,187,187;,
  3;188,188,188;,
  3;189,189,189;,
  3;190,190,190;,
  3;191,191,191;,
  3;192,192,192;,
  3;193,193,193;,
  3;194,194,194;,
  3;195,195,195;,
  3;196,196,196;,
  3;197,197,197;,
  3;198,198,198;,
  3;199,199,199;,
  3;200,200,200;,
  3;201,201,201;,
  3;202,202,202;,
  3;203,203,203;,
  3;204,204,204;,
  3;205,205,205;,
  3;206,206,206;,
  3;207,207,207;;
 }
}