xof 0303txt 0032
template Vector {
 <3d82ab5e-62da-11cf-ab39-0020af71e433>
 FLOAT x;
 FLOAT y;
 FLOAT z;
}

template MeshFace {
 <3d82ab5f-62da-11cf-ab39-0020af71e433>
 DWORD nFaceVertexIndices;
 array DWORD faceVertexIndices[nFaceVertexIndices];
}

template Mesh {
 <3d82ab44-62da-11cf-ab39-0020af71e433>
 DWORD nVertices;
 array Vector vertices[nVertices];
 DWORD nFaces;
 array MeshFace faces[nFaces];
 [...]
}

template ColorRGBA {
 <35ff44e0-6c7c-11cf-8f52-0040333594a3>
 FLOAT red;
 FLOAT green;
 FLOAT blue;
 FLOAT alpha;
}

template ColorRGB {
 <d3e16e81-7835-11cf-8f52-0040333594a3>
 FLOAT red;
 FLOAT green;
 FLOAT blue;
}

template Material {
 <3d82ab4d-62da-11cf-ab39-0020af71e433>
 ColorRGBA faceColor;
 FLOAT power;
 ColorRGB specularColor;
 ColorRGB emissiveColor;
 [...]
}

template MeshMaterialList {
 <f6f23f42-7686-11cf-8f52-0040333594a3>
 DWORD nMaterials;
 DWORD nFaceIndexes;
 array DWORD faceIndexes[nFaceIndexes];
 [Material <3d82ab4d-62da-11cf-ab39-0020af71e433>]
}

template TextureFilename {
 <a42790e1-7810-11cf-8f52-0040333594a3>
 STRING filename;
}

template Coords2d {
 <f6f23f44-7686-11cf-8f52-0040333594a3>
 FLOAT u;
 FLOAT v;
}

template MeshTextureCoords {
 <f6f23f40-7686-11cf-8f52-0040333594a3>
 DWORD nTextureCoords;
 array Coords2d textureCoords[nTextureCoords];
}

template MeshNormals {
 <f6f23f43-7686-11cf-8f52-0040333594a3>
 DWORD nNormals;
 array Vector normals[nNormals];
 DWORD nFaceNormals;
 array MeshFace faceNormals[nFaceNormals];
}


Mesh  {
 296;
 -20.000000;9.000000;5.000000;,
 -20.000000;6.500000;5.000000;,
 -20.000000;6.500000;7.000000;,
 -20.000000;6.000000;7.000000;,
 -20.000000;6.000000;18.000000;,
 34.000000;9.000000;5.000000;,
 34.000000;6.500000;5.000000;,
 34.000000;6.500000;7.000000;,
 34.000000;6.000000;7.000000;,
 34.000000;6.000000;18.000000;,
 -20.000000;9.000000;5.000000;,
 -20.000000;11.000000;5.000000;,
 34.000000;9.000000;5.000000;,
 34.000000;11.000000;5.000000;,
 -20.000000;9.000000;5.010000;,
 -20.000000;11.000000;5.010000;,
 34.000000;9.000000;5.010000;,
 34.000000;11.000000;5.010000;,
 -18.306999;6.500000;7.000000;,
 -19.000000;6.500000;7.000000;,
 -13.745933;14.400000;7.000000;,
 -14.092343;15.000000;7.000000;,
 28.245934;14.400000;7.000000;,
 28.592342;15.000000;7.000000;,
 32.806999;6.500000;7.000000;,
 33.500000;6.500000;7.000000;,
 -13.945933;6.500000;7.010000;,
 -13.945933;15.000000;7.010000;,
 -13.545933;6.500000;7.010000;,
 -13.545933;15.000000;7.010000;,
 -13.399523;15.000000;7.010000;,
 -13.745933;14.400000;7.010000;,
 -8.491866;6.500000;7.010000;,
 -9.184866;6.500000;7.010000;,
 -8.691866;6.500000;7.010000;,
 -8.691866;15.000000;7.010000;,
 -8.291865;6.500000;7.010000;,
 -8.291865;15.000000;7.010000;,
 -7.798866;6.500000;7.010000;,
 -8.491866;6.500000;7.010000;,
 -3.237799;14.400000;7.010000;,
 -3.584209;15.000000;7.010000;,
 -3.437799;6.500000;7.010000;,
 -3.437799;15.000000;7.010000;,
 -3.037799;6.500000;7.010000;,
 -3.037799;15.000000;7.010000;,
 -2.891388;15.000000;7.010000;,
 -3.237799;14.400000;7.010000;,
 2.016268;6.500000;7.010000;,
 1.323269;6.500000;7.010000;,
 1.816269;6.500000;7.010000;,
 1.816269;15.000000;7.010000;,
 2.216269;6.500000;7.010000;,
 2.216269;15.000000;7.010000;,
 2.709269;6.500000;7.010000;,
 2.016268;6.500000;7.010000;,
 7.270336;14.400000;7.010000;,
 6.923925;15.000000;7.010000;,
 7.070336;6.500000;7.010000;,
 7.070336;15.000000;7.010000;,
 7.470335;6.500000;7.010000;,
 7.470335;15.000000;7.010000;,
 7.616746;15.000000;7.010000;,
 7.270336;14.400000;7.010000;,
 12.524403;6.500000;7.010000;,
 11.831403;6.500000;7.010000;,
 12.324403;6.500000;7.010000;,
 12.324403;15.000000;7.010000;,
 12.724402;6.500000;7.010000;,
 12.724402;15.000000;7.010000;,
 13.217402;6.500000;7.010000;,
 12.524403;6.500000;7.010000;,
 17.778469;14.400000;7.010000;,
 17.432060;15.000000;7.010000;,
 17.578470;6.500000;7.010000;,
 17.578470;15.000000;7.010000;,
 17.978470;6.500000;7.010000;,
 17.978470;15.000000;7.010000;,
 18.124880;15.000000;7.010000;,
 17.778469;14.400000;7.010000;,
 23.032537;6.500000;7.010000;,
 22.339537;6.500000;7.010000;,
 22.832537;6.500000;7.010000;,
 22.832537;15.000000;7.010000;,
 23.232536;6.500000;7.010000;,
 23.232536;15.000000;7.010000;,
 23.725536;6.500000;7.010000;,
 23.032537;6.500000;7.010000;,
 28.286604;14.400000;7.010000;,
 27.940193;15.000000;7.010000;,
 28.086605;6.500000;7.010000;,
 28.086605;15.000000;7.010000;,
 28.486605;6.500000;7.010000;,
 28.486605;15.000000;7.010000;,
 -18.306999;6.500000;18.000000;,
 -19.000000;6.500000;18.000000;,
 -13.745933;14.400000;18.000000;,
 -14.092343;15.000000;18.000000;,
 28.245934;14.400000;18.000000;,
 28.592342;15.000000;18.000000;,
 32.806999;6.500000;18.000000;,
 33.500000;6.500000;18.000000;,
 -13.945933;6.500000;18.010000;,
 -13.945933;15.000000;18.010000;,
 -13.545933;6.500000;18.010000;,
 -13.545933;15.000000;18.010000;,
 -13.399523;15.000000;18.010000;,
 -13.745933;14.400000;18.010000;,
 -8.491866;6.500000;18.010000;,
 -9.184866;6.500000;18.010000;,
 -8.691866;6.500000;18.010000;,
 -8.691866;15.000000;18.010000;,
 -8.291865;6.500000;18.010000;,
 -8.291865;15.000000;18.010000;,
 -7.798866;6.500000;18.010000;,
 -8.491866;6.500000;18.010000;,
 -3.237799;14.400000;18.010000;,
 -3.584209;15.000000;18.010000;,
 -3.437799;6.500000;18.010000;,
 -3.437799;15.000000;18.010000;,
 -3.037799;6.500000;18.010000;,
 -3.037799;15.000000;18.010000;,
 -2.891388;15.000000;18.010000;,
 -3.237799;14.400000;18.010000;,
 2.016268;6.500000;18.010000;,
 1.323269;6.500000;18.010000;,
 1.816269;6.500000;18.010000;,
 1.816269;15.000000;18.010000;,
 2.216269;6.500000;18.010000;,
 2.216269;15.000000;18.010000;,
 2.709269;6.500000;18.010000;,
 2.016268;6.500000;18.010000;,
 7.270336;14.400000;18.010000;,
 6.923925;15.000000;18.010000;,
 7.070336;6.500000;18.010000;,
 7.070336;15.000000;18.010000;,
 7.470335;6.500000;18.010000;,
 7.470335;15.000000;18.010000;,
 7.616746;15.000000;18.010000;,
 7.270336;14.400000;18.010000;,
 12.524403;6.500000;18.010000;,
 11.831403;6.500000;18.010000;,
 12.324403;6.500000;18.010000;,
 12.324403;15.000000;18.010000;,
 12.724402;6.500000;18.010000;,
 12.724402;15.000000;18.010000;,
 13.217402;6.500000;18.010000;,
 12.524403;6.500000;18.010000;,
 17.778469;14.400000;18.010000;,
 17.432060;15.000000;18.010000;,
 17.578470;6.500000;18.010000;,
 17.578470;15.000000;18.010000;,
 17.978470;6.500000;18.010000;,
 17.978470;15.000000;18.010000;,
 18.124880;15.000000;18.010000;,
 17.778469;14.400000;18.010000;,
 23.032537;6.500000;18.010000;,
 22.339537;6.500000;18.010000;,
 22.832537;6.500000;18.010000;,
 22.832537;15.000000;18.010000;,
 23.232536;6.500000;18.010000;,
 23.232536;15.000000;18.010000;,
 23.725536;6.500000;18.010000;,
 23.032537;6.500000;18.010000;,
 28.286604;14.400000;18.010000;,
 27.940193;15.000000;18.010000;,
 28.086605;6.500000;18.010000;,
 28.086605;15.000000;18.010000;,
 28.486605;6.500000;18.010000;,
 28.486605;15.000000;18.010000;,
 -13.745933;14.400000;7.010000;,
 -13.745933;15.000000;7.010000;,
 -8.491866;14.400000;18.010000;,
 -8.491866;15.000000;18.010000;,
 -3.237799;14.400000;7.010000;,
 -3.237799;15.000000;7.010000;,
 2.016268;14.400000;18.010000;,
 2.016268;15.000000;18.010000;,
 7.270336;14.400000;7.010000;,
 7.270336;15.000000;7.010000;,
 12.524403;14.400000;18.010000;,
 12.524403;15.000000;18.010000;,
 17.778469;14.400000;7.010000;,
 17.778469;15.000000;7.010000;,
 23.032537;14.400000;18.010000;,
 23.032537;15.000000;18.010000;,
 28.286604;14.400000;7.010000;,
 28.286604;15.000000;7.010000;,
 28.286604;14.400000;18.010000;,
 28.286604;15.000000;18.010000;,
 23.032537;14.400000;7.010000;,
 23.032537;15.000000;7.010000;,
 17.778469;14.400000;18.010000;,
 17.778469;15.000000;18.010000;,
 12.524403;14.400000;7.010000;,
 12.524403;15.000000;7.010000;,
 7.270336;14.400000;18.010000;,
 7.270336;15.000000;18.010000;,
 2.016268;14.400000;7.010000;,
 2.016268;15.000000;7.010000;,
 -3.237799;14.400000;18.010000;,
 -3.237799;15.000000;18.010000;,
 -8.491866;14.400000;7.010000;,
 -8.491866;15.000000;7.010000;,
 -13.745933;14.400000;18.010000;,
 -13.745933;15.000000;18.010000;,
 -8.491866;13.000000;7.010000;,
 -8.491866;15.000000;7.010000;,
 -8.491866;13.000000;18.010000;,
 -8.491866;15.000000;18.010000;,
 -3.237799;13.000000;7.010000;,
 -3.237799;15.000000;7.010000;,
 -3.237799;13.000000;18.010000;,
 -3.237799;15.000000;18.010000;,
 2.016268;13.000000;7.010000;,
 2.016268;15.000000;7.010000;,
 2.016268;13.000000;18.010000;,
 2.016268;15.000000;18.010000;,
 7.270336;13.000000;7.010000;,
 7.270336;15.000000;7.010000;,
 7.270336;13.000000;18.010000;,
 7.270336;15.000000;18.010000;,
 12.524403;13.000000;7.010000;,
 12.524403;15.000000;7.010000;,
 12.524403;13.000000;18.010000;,
 12.524403;15.000000;18.010000;,
 17.778469;13.000000;7.010000;,
 17.778469;15.000000;7.010000;,
 17.778469;13.000000;18.010000;,
 17.778469;15.000000;18.010000;,
 23.032537;13.000000;7.010000;,
 23.032537;15.000000;7.010000;,
 23.032537;13.000000;18.010000;,
 23.032537;15.000000;18.010000;,
 -14.092343;15.000000;7.000000;,
 -15.247044;13.000000;7.000000;,
 -14.092343;15.000000;18.000000;,
 -15.247044;13.000000;18.000000;,
 28.592342;15.000000;7.000000;,
 29.747044;13.000000;7.000000;,
 28.592342;15.000000;18.000000;,
 29.747044;13.000000;18.000000;,
 -21.500000;-0.450000;6.000000;,
 -21.500000;1.000000;6.000000;,
 -21.500000;4.500000;5.000000;,
 -21.500000;5.000000;5.000000;,
 -20.000000;-0.450000;5.000000;,
 -20.000000;1.000000;5.000000;,
 -18.500000;-0.450000;6.000000;,
 -18.500000;1.000000;6.000000;,
 -18.500000;4.500000;5.000000;,
 -18.500000;5.000000;5.000000;,
 -18.500000;-0.450000;19.000000;,
 -18.500000;1.000000;19.000000;,
 -18.500000;4.500000;20.000000;,
 -18.500000;5.000000;20.000000;,
 -21.500000;5.000000;5.000000;,
 -21.500000;6.500000;5.000000;,
 -18.500000;5.000000;5.000000;,
 -18.500000;6.500000;5.000000;,
 -18.500000;5.000000;20.000000;,
 -18.500000;6.500000;20.000000;,
 -18.500000;4.500000;6.000000;,
 -18.500000;6.000000;6.000000;,
 -18.000000;5.000000;6.000000;,
 -18.000000;6.000000;6.000000;,
 -18.500000;4.500000;19.000000;,
 -18.000000;5.000000;19.000000;,
 -18.000000;6.000000;19.000000;,
 35.500000;-0.450000;6.000000;,
 35.500000;1.000000;6.000000;,
 35.500000;4.500000;5.000000;,
 35.500000;5.000000;5.000000;,
 34.000000;-0.450000;5.000000;,
 34.000000;1.000000;5.000000;,
 32.500000;-0.450000;6.000000;,
 32.500000;1.000000;6.000000;,
 32.500000;4.500000;5.000000;,
 32.500000;5.000000;5.000000;,
 32.500000;-0.450000;19.000000;,
 32.500000;1.000000;19.000000;,
 32.500000;4.500000;20.000000;,
 32.500000;5.000000;20.000000;,
 35.500000;5.000000;5.000000;,
 35.500000;6.500000;5.000000;,
 32.500000;5.000000;5.000000;,
 32.500000;6.500000;5.000000;,
 32.500000;5.000000;20.000000;,
 32.500000;6.500000;20.000000;,
 32.500000;4.500000;6.000000;,
 32.500000;6.000000;6.000000;,
 32.000000;5.000000;6.000000;,
 32.000000;6.000000;6.000000;,
 32.500000;4.500000;19.000000;,
 32.000000;5.000000;19.000000;,
 32.000000;6.000000;19.000000;;
 242;
 3;1,0,5;,
 3;1,5,6;,
 3;2,1,6;,
 3;2,6,7;,
 3;3,2,7;,
 3;3,7,8;,
 3;4,3,8;,
 3;4,8,9;,
 3;10,11,13;,
 3;10,13,12;,
 3;14,15,17;,
 3;14,17,16;,
 3;18,19,21;,
 3;18,21,20;,
 3;20,21,23;,
 3;20,23,22;,
 3;22,23,25;,
 3;22,25,24;,
 3;26,27,29;,
 3;26,29,28;,
 3;32,33,31;,
 3;32,31,30;,
 3;34,35,37;,
 3;34,37,36;,
 3;38,39,41;,
 3;38,41,40;,
 3;42,43,45;,
 3;42,45,44;,
 3;48,49,47;,
 3;48,47,46;,
 3;50,51,53;,
 3;50,53,52;,
 3;54,55,57;,
 3;54,57,56;,
 3;58,59,61;,
 3;58,61,60;,
 3;64,65,63;,
 3;64,63,62;,
 3;66,67,69;,
 3;66,69,68;,
 3;70,71,73;,
 3;70,73,72;,
 3;74,75,77;,
 3;74,77,76;,
 3;80,81,79;,
 3;80,79,78;,
 3;82,83,85;,
 3;82,85,84;,
 3;86,87,89;,
 3;86,89,88;,
 3;90,91,93;,
 3;90,93,92;,
 3;94,95,97;,
 3;94,97,96;,
 3;96,97,99;,
 3;96,99,98;,
 3;98,99,101;,
 3;98,101,100;,
 3;102,103,105;,
 3;102,105,104;,
 3;108,109,107;,
 3;108,107,106;,
 3;110,111,113;,
 3;110,113,112;,
 3;114,115,117;,
 3;114,117,116;,
 3;118,119,121;,
 3;118,121,120;,
 3;124,125,123;,
 3;124,123,122;,
 3;126,127,129;,
 3;126,129,128;,
 3;130,131,133;,
 3;130,133,132;,
 3;134,135,137;,
 3;134,137,136;,
 3;140,141,139;,
 3;140,139,138;,
 3;142,143,145;,
 3;142,145,144;,
 3;146,147,149;,
 3;146,149,148;,
 3;150,151,153;,
 3;150,153,152;,
 3;156,157,155;,
 3;156,155,154;,
 3;158,159,161;,
 3;158,161,160;,
 3;162,163,165;,
 3;162,165,164;,
 3;166,167,169;,
 3;166,169,168;,
 3;170,171,173;,
 3;170,173,172;,
 3;172,173,171;,
 3;172,171,170;,
 3;172,173,175;,
 3;172,175,174;,
 3;174,175,173;,
 3;174,173,172;,
 3;174,175,177;,
 3;174,177,176;,
 3;176,177,175;,
 3;176,175,174;,
 3;176,177,179;,
 3;176,179,178;,
 3;178,179,177;,
 3;178,177,176;,
 3;178,179,181;,
 3;178,181,180;,
 3;180,181,179;,
 3;180,179,178;,
 3;180,181,183;,
 3;180,183,182;,
 3;182,183,181;,
 3;182,181,180;,
 3;182,183,185;,
 3;182,185,184;,
 3;184,185,183;,
 3;184,183,182;,
 3;184,185,187;,
 3;184,187,186;,
 3;186,187,185;,
 3;186,185,184;,
 3;188,189,191;,
 3;188,191,190;,
 3;190,191,189;,
 3;190,189,188;,
 3;190,191,193;,
 3;190,193,192;,
 3;192,193,191;,
 3;192,191,190;,
 3;192,193,195;,
 3;192,195,194;,
 3;194,195,193;,
 3;194,193,192;,
 3;194,195,197;,
 3;194,197,196;,
 3;196,197,195;,
 3;196,195,194;,
 3;196,197,199;,
 3;196,199,198;,
 3;198,199,197;,
 3;198,197,196;,
 3;198,199,201;,
 3;198,201,200;,
 3;200,201,199;,
 3;200,199,198;,
 3;200,201,203;,
 3;200,203,202;,
 3;202,203,201;,
 3;202,201,200;,
 3;202,203,205;,
 3;202,205,204;,
 3;204,205,203;,
 3;204,203,202;,
 3;206,207,209;,
 3;206,209,208;,
 3;208,209,207;,
 3;208,207,206;,
 3;210,211,213;,
 3;210,213,212;,
 3;212,213,211;,
 3;212,211,210;,
 3;214,215,217;,
 3;214,217,216;,
 3;216,217,215;,
 3;216,215,214;,
 3;218,219,221;,
 3;218,221,220;,
 3;220,221,219;,
 3;220,219,218;,
 3;222,223,225;,
 3;222,225,224;,
 3;224,225,223;,
 3;224,223,222;,
 3;226,227,229;,
 3;226,229,228;,
 3;228,229,227;,
 3;228,227,226;,
 3;230,231,233;,
 3;230,233,232;,
 3;232,233,231;,
 3;232,231,230;,
 3;234,235,237;,
 3;234,237,236;,
 3;236,237,235;,
 3;236,235,234;,
 3;238,239,241;,
 3;238,241,240;,
 3;240,241,239;,
 3;240,239,238;,
 3;242,243,247;,
 3;242,247,246;,
 3;243,244,247;,
 3;246,247,249;,
 3;246,249,248;,
 3;247,250,249;,
 3;247,244,250;,
 3;244,245,251;,
 3;244,251,250;,
 3;248,249,250;,
 3;248,250,251;,
 3;248,251,255;,
 3;248,255,254;,
 3;248,254,253;,
 3;248,253,252;,
 3;256,257,259;,
 3;256,259,258;,
 3;258,259,261;,
 3;258,261,260;,
 3;262,263,265;,
 3;262,265,264;,
 3;262,264,267;,
 3;262,267,266;,
 3;264,265,268;,
 3;264,268,267;,
 3;273,274,270;,
 3;273,270,269;,
 3;274,271,270;,
 3;275,276,274;,
 3;275,274,273;,
 3;276,277,274;,
 3;277,271,274;,
 3;277,278,272;,
 3;277,272,271;,
 3;279,280,281;,
 3;279,281,282;,
 3;279,282,278;,
 3;279,278,277;,
 3;279,277,276;,
 3;279,276,275;,
 3;285,286,284;,
 3;285,284,283;,
 3;287,288,286;,
 3;287,286,285;,
 3;291,292,290;,
 3;291,290,289;,
 3;293,294,291;,
 3;293,291,289;,
 3;294,295,292;,
 3;294,292,291;;

 MeshMaterialList  {
  56;
  242;
  0,
  0,
  0,
  0,
  0,
  0,
  0,
  0,
  1,
  1,
  2,
  2,
  3,
  3,
  3,
  3,
  3,
  3,
  4,
  4,
  5,
  5,
  6,
  6,
  7,
  7,
  8,
  8,
  9,
  9,
  10,
  10,
  11,
  11,
  12,
  12,
  13,
  13,
  14,
  14,
  15,
  15,
  16,
  16,
  17,
  17,
  18,
  18,
  19,
  19,
  20,
  20,
  21,
  21,
  21,
  21,
  21,
  21,
  22,
  22,
  23,
  23,
  24,
  24,
  25,
  25,
  26,
  26,
  27,
  27,
  28,
  28,
  29,
  29,
  30,
  30,
  31,
  31,
  32,
  32,
  33,
  33,
  34,
  34,
  35,
  35,
  36,
  36,
  37,
  37,
  38,
  38,
  39,
  39,
  39,
  39,
  39,
  39,
  39,
  39,
  39,
  39,
  39,
  39,
  39,
  39,
  39,
  39,
  39,
  39,
  39,
  39,
  39,
  39,
  39,
  39,
  39,
  39,
  39,
  39,
  39,
  39,
  39,
  39,
  40,
  40,
  40,
  40,
  40,
  40,
  40,
  40,
  40,
  40,
  40,
  40,
  40,
  40,
  40,
  40,
  40,
  40,
  40,
  40,
  40,
  40,
  40,
  40,
  40,
  40,
  40,
  40,
  40,
  40,
  40,
  40,
  41,
  41,
  41,
  41,
  42,
  42,
  42,
  42,
  43,
  43,
  43,
  43,
  44,
  44,
  44,
  44,
  45,
  45,
  45,
  45,
  46,
  46,
  46,
  46,
  47,
  47,
  47,
  47,
  48,
  48,
  48,
  48,
  49,
  49,
  49,
  49,
  50,
  50,
  50,
  50,
  50,
  50,
  50,
  50,
  50,
  50,
  50,
  50,
  50,
  50,
  50,
  51,
  51,
  51,
  51,
  52,
  52,
  52,
  52,
  52,
  52,
  53,
  53,
  53,
  53,
  53,
  53,
  53,
  53,
  53,
  53,
  53,
  53,
  53,
  53,
  53,
  54,
  54,
  54,
  54,
  55,
  55,
  55,
  55,
  55,
  55;

  Material  {
   1.000000;1.000000;1.000000;1.000000;;
   0.000000;
   0.000000;0.000000;0.000000;;
   0.000000;0.000000;0.000000;;

   TextureFilename  {
    "Toyohashi_BridgeIron1.png";
   }
  }

  Material  {
   1.000000;1.000000;1.000000;1.000000;;
   0.000000;
   0.000000;0.000000;0.000000;;
   0.000000;0.000000;0.000000;;

   TextureFilename  {
    "Toyohashi_BridgeSaku1.png";
   }
  }

  Material  {
   0.431373;0.392157;0.313726;0.501961;;
   0.000000;
   0.000000;0.000000;0.000000;;
   0.000000;0.000000;0.000000;;
  }

  Material  {
   1.000000;1.000000;1.000000;1.000000;;
   0.000000;
   0.000000;0.000000;0.000000;;
   0.000000;0.000000;0.000000;;

   TextureFilename  {
    "Toyohashi_BridgeIron2.png";
   }
  }

  Material  {
   1.000000;1.000000;1.000000;1.000000;;
   0.000000;
   0.000000;0.000000;0.000000;;
   0.000000;0.000000;0.000000;;

   TextureFilename  {
    "Toyohashi_BridgeIron3.png";
   }
  }

  Material  {
   1.000000;1.000000;1.000000;1.000000;;
   0.000000;
   0.000000;0.000000;0.000000;;
   0.000000;0.000000;0.000000;;

   TextureFilename  {
    "Toyohashi_BridgeIron2.png";
   }
  }

  Material  {
   1.000000;1.000000;1.000000;1.000000;;
   0.000000;
   0.000000;0.000000;0.000000;;
   0.000000;0.000000;0.000000;;

   TextureFilename  {
    "Toyohashi_BridgeIron3.png";
   }
  }

  Material  {
   1.000000;1.000000;1.000000;1.000000;;
   0.000000;
   0.000000;0.000000;0.000000;;
   0.000000;0.000000;0.000000;;

   TextureFilename  {
    "Toyohashi_BridgeIron2.png";
   }
  }

  Material  {
   1.000000;1.000000;1.000000;1.000000;;
   0.000000;
   0.000000;0.000000;0.000000;;
   0.000000;0.000000;0.000000;;

   TextureFilename  {
    "Toyohashi_BridgeIron3.png";
   }
  }

  Material  {
   1.000000;1.000000;1.000000;1.000000;;
   0.000000;
   0.000000;0.000000;0.000000;;
   0.000000;0.000000;0.000000;;

   TextureFilename  {
    "Toyohashi_BridgeIron2.png";
   }
  }

  Material  {
   1.000000;1.000000;1.000000;1.000000;;
   0.000000;
   0.000000;0.000000;0.000000;;
   0.000000;0.000000;0.000000;;

   TextureFilename  {
    "Toyohashi_BridgeIron3.png";
   }
  }

  Material  {
   1.000000;1.000000;1.000000;1.000000;;
   0.000000;
   0.000000;0.000000;0.000000;;
   0.000000;0.000000;0.000000;;

   TextureFilename  {
    "Toyohashi_BridgeIron2.png";
   }
  }

  Material  {
   1.000000;1.000000;1.000000;1.000000;;
   0.000000;
   0.000000;0.000000;0.000000;;
   0.000000;0.000000;0.000000;;

   TextureFilename  {
    "Toyohashi_BridgeIron3.png";
   }
  }

  Material  {
   1.000000;1.000000;1.000000;1.000000;;
   0.000000;
   0.000000;0.000000;0.000000;;
   0.000000;0.000000;0.000000;;

   TextureFilename  {
    "Toyohashi_BridgeIron2.png";
   }
  }

  Material  {
   1.000000;1.000000;1.000000;1.000000;;
   0.000000;
   0.000000;0.000000;0.000000;;
   0.000000;0.000000;0.000000;;

   TextureFilename  {
    "Toyohashi_BridgeIron3.png";
   }
  }

  Material  {
   1.000000;1.000000;1.000000;1.000000;;
   0.000000;
   0.000000;0.000000;0.000000;;
   0.000000;0.000000;0.000000;;

   TextureFilename  {
    "Toyohashi_BridgeIron2.png";
   }
  }

  Material  {
   1.000000;1.000000;1.000000;1.000000;;
   0.000000;
   0.000000;0.000000;0.000000;;
   0.000000;0.000000;0.000000;;

   TextureFilename  {
    "Toyohashi_BridgeIron3.png";
   }
  }

  Material  {
   1.000000;1.000000;1.000000;1.000000;;
   0.000000;
   0.000000;0.000000;0.000000;;
   0.000000;0.000000;0.000000;;

   TextureFilename  {
    "Toyohashi_BridgeIron2.png";
   }
  }

  Material  {
   1.000000;1.000000;1.000000;1.000000;;
   0.000000;
   0.000000;0.000000;0.000000;;
   0.000000;0.000000;0.000000;;

   TextureFilename  {
    "Toyohashi_BridgeIron3.png";
   }
  }

  Material  {
   1.000000;1.000000;1.000000;1.000000;;
   0.000000;
   0.000000;0.000000;0.000000;;
   0.000000;0.000000;0.000000;;

   TextureFilename  {
    "Toyohashi_BridgeIron2.png";
   }
  }

  Material  {
   1.000000;1.000000;1.000000;1.000000;;
   0.000000;
   0.000000;0.000000;0.000000;;
   0.000000;0.000000;0.000000;;

   TextureFilename  {
    "Toyohashi_BridgeIron3.png";
   }
  }

  Material  {
   1.000000;1.000000;1.000000;1.000000;;
   0.000000;
   0.000000;0.000000;0.000000;;
   0.000000;0.000000;0.000000;;

   TextureFilename  {
    "Toyohashi_BridgeIron2.png";
   }
  }

  Material  {
   1.000000;1.000000;1.000000;1.000000;;
   0.000000;
   0.000000;0.000000;0.000000;;
   0.000000;0.000000;0.000000;;

   TextureFilename  {
    "Toyohashi_BridgeIron3.png";
   }
  }

  Material  {
   1.000000;1.000000;1.000000;1.000000;;
   0.000000;
   0.000000;0.000000;0.000000;;
   0.000000;0.000000;0.000000;;

   TextureFilename  {
    "Toyohashi_BridgeIron2.png";
   }
  }

  Material  {
   1.000000;1.000000;1.000000;1.000000;;
   0.000000;
   0.000000;0.000000;0.000000;;
   0.000000;0.000000;0.000000;;

   TextureFilename  {
    "Toyohashi_BridgeIron3.png";
   }
  }

  Material  {
   1.000000;1.000000;1.000000;1.000000;;
   0.000000;
   0.000000;0.000000;0.000000;;
   0.000000;0.000000;0.000000;;

   TextureFilename  {
    "Toyohashi_BridgeIron2.png";
   }
  }

  Material  {
   1.000000;1.000000;1.000000;1.000000;;
   0.000000;
   0.000000;0.000000;0.000000;;
   0.000000;0.000000;0.000000;;

   TextureFilename  {
    "Toyohashi_BridgeIron3.png";
   }
  }

  Material  {
   1.000000;1.000000;1.000000;1.000000;;
   0.000000;
   0.000000;0.000000;0.000000;;
   0.000000;0.000000;0.000000;;

   TextureFilename  {
    "Toyohashi_BridgeIron2.png";
   }
  }

  Material  {
   1.000000;1.000000;1.000000;1.000000;;
   0.000000;
   0.000000;0.000000;0.000000;;
   0.000000;0.000000;0.000000;;

   TextureFilename  {
    "Toyohashi_BridgeIron3.png";
   }
  }

  Material  {
   1.000000;1.000000;1.000000;1.000000;;
   0.000000;
   0.000000;0.000000;0.000000;;
   0.000000;0.000000;0.000000;;

   TextureFilename  {
    "Toyohashi_BridgeIron2.png";
   }
  }

  Material  {
   1.000000;1.000000;1.000000;1.000000;;
   0.000000;
   0.000000;0.000000;0.000000;;
   0.000000;0.000000;0.000000;;

   TextureFilename  {
    "Toyohashi_BridgeIron3.png";
   }
  }

  Material  {
   1.000000;1.000000;1.000000;1.000000;;
   0.000000;
   0.000000;0.000000;0.000000;;
   0.000000;0.000000;0.000000;;

   TextureFilename  {
    "Toyohashi_BridgeIron2.png";
   }
  }

  Material  {
   1.000000;1.000000;1.000000;1.000000;;
   0.000000;
   0.000000;0.000000;0.000000;;
   0.000000;0.000000;0.000000;;

   TextureFilename  {
    "Toyohashi_BridgeIron3.png";
   }
  }

  Material  {
   1.000000;1.000000;1.000000;1.000000;;
   0.000000;
   0.000000;0.000000;0.000000;;
   0.000000;0.000000;0.000000;;

   TextureFilename  {
    "Toyohashi_BridgeIron2.png";
   }
  }

  Material  {
   1.000000;1.000000;1.000000;1.000000;;
   0.000000;
   0.000000;0.000000;0.000000;;
   0.000000;0.000000;0.000000;;

   TextureFilename  {
    "Toyohashi_BridgeIron3.png";
   }
  }

  Material  {
   1.000000;1.000000;1.000000;1.000000;;
   0.000000;
   0.000000;0.000000;0.000000;;
   0.000000;0.000000;0.000000;;

   TextureFilename  {
    "Toyohashi_BridgeIron2.png";
   }
  }

  Material  {
   1.000000;1.000000;1.000000;1.000000;;
   0.000000;
   0.000000;0.000000;0.000000;;
   0.000000;0.000000;0.000000;;

   TextureFilename  {
    "Toyohashi_BridgeIron3.png";
   }
  }

  Material  {
   1.000000;1.000000;1.000000;1.000000;;
   0.000000;
   0.000000;0.000000;0.000000;;
   0.000000;0.000000;0.000000;;

   TextureFilename  {
    "Toyohashi_BridgeIron2.png";
   }
  }

  Material  {
   1.000000;1.000000;1.000000;1.000000;;
   0.000000;
   0.000000;0.000000;0.000000;;
   0.000000;0.000000;0.000000;;

   TextureFilename  {
    "Toyohashi_BridgeIron3.png";
   }
  }

  Material  {
   1.000000;1.000000;1.000000;1.000000;;
   0.000000;
   0.000000;0.000000;0.000000;;
   0.000000;0.000000;0.000000;;

   TextureFilename  {
    "Toyohashi_BridgeIron3.png";
   }
  }

  Material  {
   1.000000;1.000000;1.000000;1.000000;;
   0.000000;
   0.000000;0.000000;0.000000;;
   0.000000;0.000000;0.000000;;

   TextureFilename  {
    "Toyohashi_BridgeIron3.png";
   }
  }

  Material  {
   1.000000;1.000000;1.000000;1.000000;;
   0.000000;
   0.000000;0.000000;0.000000;;
   0.000000;0.000000;0.000000;;

   TextureFilename  {
    "Toyohashi_BridgeIron3.png";
   }
  }

  Material  {
   1.000000;1.000000;1.000000;1.000000;;
   0.000000;
   0.000000;0.000000;0.000000;;
   0.000000;0.000000;0.000000;;

   TextureFilename  {
    "Toyohashi_BridgeIron3.png";
   }
  }

  Material  {
   1.000000;1.000000;1.000000;1.000000;;
   0.000000;
   0.000000;0.000000;0.000000;;
   0.000000;0.000000;0.000000;;

   TextureFilename  {
    "Toyohashi_BridgeIron3.png";
   }
  }

  Material  {
   1.000000;1.000000;1.000000;1.000000;;
   0.000000;
   0.000000;0.000000;0.000000;;
   0.000000;0.000000;0.000000;;

   TextureFilename  {
    "Toyohashi_BridgeIron3.png";
   }
  }

  Material  {
   1.000000;1.000000;1.000000;1.000000;;
   0.000000;
   0.000000;0.000000;0.000000;;
   0.000000;0.000000;0.000000;;

   TextureFilename  {
    "Toyohashi_BridgeIron3.png";
   }
  }

  Material  {
   1.000000;1.000000;1.000000;1.000000;;
   0.000000;
   0.000000;0.000000;0.000000;;
   0.000000;0.000000;0.000000;;

   TextureFilename  {
    "Toyohashi_BridgeIron3.png";
   }
  }

  Material  {
   1.000000;1.000000;1.000000;1.000000;;
   0.000000;
   0.000000;0.000000;0.000000;;
   0.000000;0.000000;0.000000;;

   TextureFilename  {
    "Toyohashi_BridgeIron3.png";
   }
  }

  Material  {
   1.000000;1.000000;1.000000;1.000000;;
   0.000000;
   0.000000;0.000000;0.000000;;
   0.000000;0.000000;0.000000;;

   TextureFilename  {
    "Toyohashi_BridgeIron3.png";
   }
  }

  Material  {
   1.000000;1.000000;1.000000;1.000000;;
   0.000000;
   0.000000;0.000000;0.000000;;
   0.000000;0.000000;0.000000;;

   TextureFilename  {
    "Toyohashi_BridgeIron3.png";
   }
  }

  Material  {
   1.000000;1.000000;1.000000;1.000000;;
   0.000000;
   0.000000;0.000000;0.000000;;
   0.000000;0.000000;0.000000;;

   TextureFilename  {
    "Toyohashi_BridgePier1.png";
   }
  }

  Material  {
   1.000000;1.000000;1.000000;1.000000;;
   0.000000;
   0.000000;0.000000;0.000000;;
   0.000000;0.000000;0.000000;;

   TextureFilename  {
    "Toyohashi_BridgePier2.png";
   }
  }

  Material  {
   1.000000;1.000000;1.000000;1.000000;;
   0.000000;
   0.000000;0.000000;0.000000;;
   0.000000;0.000000;0.000000;;

   TextureFilename  {
    "Toyohashi_BridgePier2.png";
   }
  }

  Material  {
   1.000000;1.000000;1.000000;1.000000;;
   0.000000;
   0.000000;0.000000;0.000000;;
   0.000000;0.000000;0.000000;;

   TextureFilename  {
    "Toyohashi_BridgePier1.png";
   }
  }

  Material  {
   1.000000;1.000000;1.000000;1.000000;;
   0.000000;
   0.000000;0.000000;0.000000;;
   0.000000;0.000000;0.000000;;

   TextureFilename  {
    "Toyohashi_BridgePier2.png";
   }
  }

  Material  {
   1.000000;1.000000;1.000000;1.000000;;
   0.000000;
   0.000000;0.000000;0.000000;;
   0.000000;0.000000;0.000000;;

   TextureFilename  {
    "Toyohashi_BridgePier2.png";
   }
  }
 }

 MeshTextureCoords  {
  296;
  0.000000;0.000000;,
  0.000000;0.765000;,
  0.000000;0.781000;,
  0.000000;0.969000;,
  0.000000;1.000000;,
  1.000000;0.000000;,
  1.000000;0.765000;,
  1.000000;0.781000;,
  1.000000;0.969000;,
  1.000000;1.000000;,
  0.000000;1.000000;,
  0.000000;0.030000;,
  10.023000;1.000000;,
  10.023000;0.030000;,
  0.000000;0.000000;,
  0.000000;0.000000;,
  0.000000;0.000000;,
  0.000000;0.000000;,
  0.000000;1.000000;,
  0.000000;0.000000;,
  0.100000;1.000000;,
  0.100000;0.000000;,
  0.200000;1.000000;,
  0.200000;0.000000;,
  0.300000;1.000000;,
  0.300000;0.000000;,
  10.000000;0.000000;,
  0.000000;0.000000;,
  10.000000;1.000000;,
  0.000000;1.000000;,
  0.000000;1.000000;,
  0.000000;0.000000;,
  0.100000;1.000000;,
  0.100000;0.000000;,
  10.000000;0.000000;,
  0.000000;0.000000;,
  10.000000;1.000000;,
  0.000000;1.000000;,
  0.000000;1.000000;,
  0.000000;0.000000;,
  0.100000;1.000000;,
  0.100000;0.000000;,
  10.000000;0.000000;,
  0.000000;0.000000;,
  10.000000;1.000000;,
  0.000000;1.000000;,
  0.000000;1.000000;,
  0.000000;0.000000;,
  0.100000;1.000000;,
  0.100000;0.000000;,
  10.000000;0.000000;,
  0.000000;0.000000;,
  10.000000;1.000000;,
  0.000000;1.000000;,
  0.000000;1.000000;,
  0.000000;0.000000;,
  0.100000;1.000000;,
  0.100000;0.000000;,
  10.000000;0.000000;,
  0.000000;0.000000;,
  10.000000;1.000000;,
  0.000000;1.000000;,
  0.000000;1.000000;,
  0.000000;0.000000;,
  0.100000;1.000000;,
  0.100000;0.000000;,
  10.000000;0.000000;,
  0.000000;0.000000;,
  10.000000;1.000000;,
  0.000000;1.000000;,
  0.000000;1.000000;,
  0.000000;0.000000;,
  0.100000;1.000000;,
  0.100000;0.000000;,
  10.000000;0.000000;,
  0.000000;0.000000;,
  10.000000;1.000000;,
  0.000000;1.000000;,
  0.000000;1.000000;,
  0.000000;0.000000;,
  0.100000;1.000000;,
  0.100000;0.000000;,
  10.000000;0.000000;,
  0.000000;0.000000;,
  10.000000;1.000000;,
  0.000000;1.000000;,
  0.000000;1.000000;,
  0.000000;0.000000;,
  0.100000;1.000000;,
  0.100000;0.000000;,
  10.000000;0.000000;,
  0.000000;0.000000;,
  10.000000;1.000000;,
  0.000000;1.000000;,
  0.000000;1.000000;,
  0.000000;0.000000;,
  0.100000;1.000000;,
  0.100000;0.000000;,
  0.200000;1.000000;,
  0.200000;0.000000;,
  0.300000;1.000000;,
  0.300000;0.000000;,
  10.000000;0.000000;,
  0.000000;0.000000;,
  10.000000;1.000000;,
  0.000000;1.000000;,
  0.000000;1.000000;,
  0.000000;0.000000;,
  0.100000;1.000000;,
  0.100000;0.000000;,
  10.000000;0.000000;,
  0.000000;0.000000;,
  10.000000;1.000000;,
  0.000000;1.000000;,
  0.000000;1.000000;,
  0.000000;0.000000;,
  0.100000;1.000000;,
  0.100000;0.000000;,
  10.000000;0.000000;,
  0.000000;0.000000;,
  10.000000;1.000000;,
  0.000000;1.000000;,
  0.000000;1.000000;,
  0.000000;0.000000;,
  0.100000;1.000000;,
  0.100000;0.000000;,
  10.000000;0.000000;,
  0.000000;0.000000;,
  10.000000;1.000000;,
  0.000000;1.000000;,
  0.000000;1.000000;,
  0.000000;0.000000;,
  0.100000;1.000000;,
  0.100000;0.000000;,
  10.000000;0.000000;,
  0.000000;0.000000;,
  10.000000;1.000000;,
  0.000000;1.000000;,
  0.000000;1.000000;,
  0.000000;0.000000;,
  0.100000;1.000000;,
  0.100000;0.000000;,
  10.000000;0.000000;,
  0.000000;0.000000;,
  10.000000;1.000000;,
  0.000000;1.000000;,
  0.000000;1.000000;,
  0.000000;0.000000;,
  0.100000;1.000000;,
  0.100000;0.000000;,
  10.000000;0.000000;,
  0.000000;0.000000;,
  10.000000;1.000000;,
  0.000000;1.000000;,
  0.000000;1.000000;,
  0.000000;0.000000;,
  0.100000;1.000000;,
  0.100000;0.000000;,
  10.000000;0.000000;,
  0.000000;0.000000;,
  10.000000;1.000000;,
  0.000000;1.000000;,
  0.000000;1.000000;,
  0.000000;0.000000;,
  0.100000;1.000000;,
  0.100000;0.000000;,
  10.000000;0.000000;,
  0.000000;0.000000;,
  10.000000;1.000000;,
  0.000000;1.000000;,
  0.000000;1.000000;,
  0.000000;0.000000;,
  10.000000;1.000000;,
  10.000000;0.000000;,
  20.000000;1.000000;,
  20.000000;0.000000;,
  30.000000;1.000000;,
  30.000000;0.000000;,
  40.000000;1.000000;,
  40.000000;0.000000;,
  50.000000;1.000000;,
  50.000000;0.000000;,
  60.000000;1.000000;,
  60.000000;0.000000;,
  70.000000;1.000000;,
  70.000000;0.000000;,
  80.000000;1.000000;,
  80.000000;0.000000;,
  0.000000;1.000000;,
  0.000000;0.000000;,
  10.000000;1.000000;,
  10.000000;0.000000;,
  20.000000;1.000000;,
  20.000000;0.000000;,
  30.000000;1.000000;,
  30.000000;0.000000;,
  40.000000;1.000000;,
  40.000000;0.000000;,
  50.000000;1.000000;,
  50.000000;0.000000;,
  60.000000;1.000000;,
  60.000000;0.000000;,
  70.000000;1.000000;,
  70.000000;0.000000;,
  80.000000;1.000000;,
  80.000000;0.000000;,
  0.000000;0.750000;,
  0.000000;0.300000;,
  5.000000;0.750000;,
  5.000000;0.300000;,
  0.000000;0.750000;,
  0.000000;0.300000;,
  5.000000;0.750000;,
  5.000000;0.300000;,
  0.000000;0.750000;,
  0.000000;0.300000;,
  5.000000;0.750000;,
  5.000000;0.300000;,
  0.000000;0.750000;,
  0.000000;0.300000;,
  5.000000;0.750000;,
  5.000000;0.300000;,
  0.000000;0.750000;,
  0.000000;0.300000;,
  5.000000;0.750000;,
  5.000000;0.300000;,
  0.000000;0.750000;,
  0.000000;0.300000;,
  5.000000;0.750000;,
  5.000000;0.300000;,
  0.000000;0.750000;,
  0.000000;0.300000;,
  5.000000;0.750000;,
  5.000000;0.300000;,
  0.000000;0.750000;,
  0.000000;0.300000;,
  5.000000;0.750000;,
  5.000000;0.300000;,
  0.000000;0.750000;,
  0.000000;0.300000;,
  5.000000;0.750000;,
  5.000000;0.300000;,
  0.000000;0.000000;,
  0.000000;0.000000;,
  0.000000;0.000000;,
  0.000000;0.000000;,
  0.000000;0.000000;,
  0.000000;0.000000;,
  0.000000;0.000000;,
  0.000000;0.000000;,
  0.000000;0.000000;,
  0.000000;0.000000;,
  0.000000;0.000000;,
  0.000000;0.000000;,
  0.000000;0.000000;,
  0.000000;0.000000;,
  0.000000;1.000000;,
  0.000000;0.000000;,
  0.500000;1.000000;,
  0.500000;0.000000;,
  1.000000;1.000000;,
  1.000000;0.000000;,
  0.000000;1.000000;,
  0.000000;0.000000;,
  0.250000;1.000000;,
  0.250000;0.000000;,
  1.000000;1.000000;,
  0.750000;1.000000;,
  0.750000;0.000000;,
  0.000000;0.000000;,
  0.000000;0.000000;,
  0.000000;0.000000;,
  0.000000;0.000000;,
  0.000000;0.000000;,
  0.000000;0.000000;,
  0.000000;0.000000;,
  0.000000;0.000000;,
  0.000000;0.000000;,
  0.000000;0.000000;,
  0.000000;0.000000;,
  0.000000;0.000000;,
  0.000000;0.000000;,
  0.000000;0.000000;,
  0.000000;1.000000;,
  0.000000;0.000000;,
  0.500000;1.000000;,
  0.500000;0.000000;,
  1.000000;1.000000;,
  1.000000;0.000000;,
  0.000000;1.000000;,
  0.000000;0.000000;,
  0.250000;1.000000;,
  0.250000;0.000000;,
  1.000000;1.000000;,
  0.750000;1.000000;,
  0.750000;0.000000;;
 }

 MeshNormals  {
  242;
  0.000000;0.000000;-1.000000;,
  0.000000;0.000000;-1.000000;,
  0.000000;-1.000000;0.000000;,
  0.000000;-1.000000;0.000000;,
  0.000000;0.000000;-1.000000;,
  0.000000;0.000000;-1.000000;,
  0.000000;-1.000000;0.000000;,
  0.000000;-1.000000;0.000000;,
  0.000000;0.000000;-1.000000;,
  0.000000;0.000000;-1.000000;,
  0.000000;0.000000;-1.000000;,
  0.000000;0.000000;-1.000000;,
  0.000000;0.000000;-1.000000;,
  0.000000;0.000000;-1.000000;,
  0.000000;0.000000;-1.000000;,
  0.000000;0.000000;-1.000000;,
  0.000000;0.000000;-1.000000;,
  0.000000;0.000000;-1.000000;,
  0.000000;0.000000;-1.000000;,
  0.000000;0.000000;-1.000000;,
  0.000000;0.000000;-1.000000;,
  0.000000;0.000000;-1.000000;,
  0.000000;0.000000;-1.000000;,
  0.000000;0.000000;-1.000000;,
  0.000000;0.000000;-1.000000;,
  0.000000;0.000000;-1.000000;,
  0.000000;0.000000;-1.000000;,
  0.000000;0.000000;-1.000000;,
  0.000000;0.000000;-1.000000;,
  0.000000;0.000000;-1.000000;,
  0.000000;0.000000;-1.000000;,
  0.000000;0.000000;-1.000000;,
  0.000000;0.000000;-1.000000;,
  0.000000;0.000000;-1.000000;,
  0.000000;0.000000;-1.000000;,
  0.000000;0.000000;-1.000000;,
  0.000000;0.000000;-1.000000;,
  0.000000;0.000000;-1.000000;,
  0.000000;0.000000;-1.000000;,
  0.000000;0.000000;-1.000000;,
  0.000000;0.000000;-1.000000;,
  0.000000;0.000000;-1.000000;,
  0.000000;0.000000;-1.000000;,
  0.000000;0.000000;-1.000000;,
  0.000000;0.000000;-1.000000;,
  0.000000;0.000000;-1.000000;,
  0.000000;0.000000;-1.000000;,
  0.000000;0.000000;-1.000000;,
  0.000000;0.000000;-1.000000;,
  0.000000;0.000000;-1.000000;,
  0.000000;0.000000;-1.000000;,
  0.000000;0.000000;-1.000000;,
  0.000000;0.000000;-1.000000;,
  0.000000;0.000000;-1.000000;,
  0.000000;0.000000;-1.000000;,
  0.000000;0.000000;-1.000000;,
  0.000000;0.000000;-1.000000;,
  0.000000;0.000000;-1.000000;,
  0.000000;0.000000;-1.000000;,
  0.000000;0.000000;-1.000000;,
  0.000000;0.000000;-1.000000;,
  0.000000;0.000000;-1.000000;,
  0.000000;0.000000;-1.000000;,
  0.000000;0.000000;-1.000000;,
  0.000000;0.000000;-1.000000;,
  0.000000;0.000000;-1.000000;,
  0.000000;0.000000;-1.000000;,
  0.000000;0.000000;-1.000000;,
  0.000000;0.000000;-1.000000;,
  0.000000;0.000000;-1.000000;,
  0.000000;0.000000;-1.000000;,
  0.000000;0.000000;-1.000000;,
  0.000000;0.000000;-1.000000;,
  0.000000;0.000000;-1.000000;,
  0.000000;0.000000;-1.000000;,
  0.000000;0.000000;-1.000000;,
  0.000000;0.000000;-1.000000;,
  0.000000;0.000000;-1.000000;,
  0.000000;0.000000;-1.000000;,
  0.000000;0.000000;-1.000000;,
  0.000000;0.000000;-1.000000;,
  0.000000;0.000000;-1.000000;,
  0.000000;0.000000;-1.000000;,
  0.000000;0.000000;-1.000000;,
  0.000000;0.000000;-1.000000;,
  0.000000;0.000000;-1.000000;,
  0.000000;0.000000;-1.000000;,
  0.000000;0.000000;-1.000000;,
  0.000000;0.000000;-1.000000;,
  0.000000;0.000000;-1.000000;,
  0.000000;0.000000;-1.000000;,
  0.000000;0.000000;-1.000000;,
  0.902351;0.000000;-0.431001;,
  0.902351;0.000000;-0.431001;,
  -0.902351;0.000000;0.431001;,
  -0.902351;0.000000;0.431001;,
  -0.902351;0.000000;-0.431001;,
  -0.902351;0.000000;-0.431001;,
  0.902351;0.000000;0.431001;,
  0.902351;0.000000;0.431001;,
  0.902351;0.000000;-0.431001;,
  0.902351;0.000000;-0.431001;,
  -0.902351;0.000000;0.431001;,
  -0.902351;0.000000;0.431001;,
  -0.902351;0.000000;-0.431001;,
  -0.902351;0.000000;-0.431001;,
  0.902351;0.000000;0.431001;,
  0.902351;0.000000;0.431001;,
  0.902351;0.000000;-0.431001;,
  0.902351;0.000000;-0.431001;,
  -0.902351;0.000000;0.431001;,
  -0.902351;0.000000;0.431001;,
  -0.902351;0.000000;-0.431001;,
  -0.902351;0.000000;-0.431001;,
  0.902351;0.000000;0.431001;,
  0.902351;0.000000;0.431001;,
  0.902351;0.000000;-0.431001;,
  0.902351;0.000000;-0.431001;,
  -0.902351;0.000000;0.431001;,
  -0.902351;0.000000;0.431001;,
  -0.902351;0.000000;-0.431001;,
  -0.902351;0.000000;-0.431001;,
  0.902351;0.000000;0.431001;,
  0.902351;0.000000;0.431001;,
  -0.902351;0.000000;0.431001;,
  -0.902351;0.000000;0.431001;,
  0.902351;0.000000;-0.431001;,
  0.902351;0.000000;-0.431001;,
  0.902351;0.000000;0.431001;,
  0.902351;0.000000;0.431001;,
  -0.902351;0.000000;-0.431001;,
  -0.902351;0.000000;-0.431001;,
  -0.902351;0.000000;0.431001;,
  -0.902351;0.000000;0.431001;,
  0.902351;0.000000;-0.431001;,
  0.902351;0.000000;-0.431001;,
  0.902351;0.000000;0.431001;,
  0.902351;0.000000;0.431001;,
  -0.902351;0.000000;-0.431001;,
  -0.902351;0.000000;-0.431001;,
  -0.902351;0.000000;0.431001;,
  -0.902351;0.000000;0.431001;,
  0.902351;0.000000;-0.431001;,
  0.902351;0.000000;-0.431001;,
  0.902351;0.000000;0.431001;,
  0.902351;0.000000;0.431001;,
  -0.902351;0.000000;-0.431001;,
  -0.902351;0.000000;-0.431001;,
  -0.902351;0.000000;0.431001;,
  -0.902351;0.000000;0.431001;,
  0.902351;0.000000;-0.431001;,
  0.902351;0.000000;-0.431001;,
  0.902351;0.000000;0.431001;,
  0.902351;0.000000;0.431001;,
  -0.902351;0.000000;-0.431001;,
  -0.902351;0.000000;-0.431001;,
  1.000000;0.000000;0.000000;,
  1.000000;0.000000;0.000000;,
  -1.000000;0.000000;0.000000;,
  -1.000000;0.000000;0.000000;,
  1.000000;0.000000;0.000000;,
  1.000000;0.000000;0.000000;,
  -1.000000;0.000000;0.000000;,
  -1.000000;0.000000;0.000000;,
  1.000000;0.000000;0.000000;,
  1.000000;0.000000;0.000000;,
  -1.000000;0.000000;0.000000;,
  -1.000000;0.000000;0.000000;,
  1.000000;0.000000;0.000000;,
  1.000000;0.000000;0.000000;,
  -1.000000;0.000000;0.000000;,
  -1.000000;0.000000;0.000000;,
  1.000000;0.000000;0.000000;,
  1.000000;0.000000;0.000000;,
  -1.000000;0.000000;0.000000;,
  -1.000000;0.000000;0.000000;,
  1.000000;0.000000;0.000000;,
  1.000000;0.000000;0.000000;,
  -1.000000;0.000000;0.000000;,
  -1.000000;0.000000;0.000000;,
  1.000000;0.000000;0.000000;,
  1.000000;0.000000;0.000000;,
  -1.000000;0.000000;0.000000;,
  -1.000000;0.000000;0.000000;,
  -0.866026;0.500000;0.000000;,
  -0.866026;0.500000;0.000000;,
  0.866026;-0.500000;0.000000;,
  0.866026;-0.500000;0.000000;,
  -0.866025;-0.500000;0.000000;,
  -0.866025;-0.500000;0.000000;,
  0.866025;0.500000;0.000000;,
  0.866025;0.500000;0.000000;,
  -0.554700;0.000000;-0.832050;,
  -0.554700;0.000000;-0.832050;,
  -0.539660;-0.231283;-0.809491;,
  0.554700;0.000000;-0.832050;,
  0.554700;0.000000;-0.832050;,
  0.539660;-0.231283;-0.809491;,
  0.000000;0.000000;-1.000000;,
  0.000000;0.000000;-1.000000;,
  0.000000;0.000000;-1.000000;,
  -1.000000;0.000000;0.000000;,
  1.000000;0.000000;0.000000;,
  1.000000;0.000000;0.000000;,
  1.000000;0.000000;0.000000;,
  1.000000;0.000000;0.000000;,
  1.000000;0.000000;0.000000;,
  0.000000;0.000000;-1.000000;,
  0.000000;0.000000;-1.000000;,
  1.000000;0.000000;0.000000;,
  1.000000;0.000000;0.000000;,
  0.000000;0.000000;-1.000000;,
  0.000000;0.000000;-1.000000;,
  0.707107;-0.707107;0.000000;,
  0.707107;-0.707107;0.000000;,
  1.000000;0.000000;0.000000;,
  1.000000;0.000000;0.000000;,
  0.554700;0.000000;-0.832050;,
  0.554700;0.000000;-0.832050;,
  0.539660;-0.231283;-0.809491;,
  -0.554700;0.000000;-0.832050;,
  -0.554700;0.000000;-0.832050;,
  -0.539660;-0.231283;-0.809491;,
  0.000000;0.000000;-1.000000;,
  0.000000;0.000000;-1.000000;,
  0.000000;0.000000;-1.000000;,
  1.000000;0.000000;0.000000;,
  -1.000000;0.000000;0.000000;,
  -1.000000;0.000000;0.000000;,
  -1.000000;0.000000;0.000000;,
  -1.000000;0.000000;0.000000;,
  -1.000000;0.000000;0.000000;,
  0.000000;0.000000;-1.000000;,
  0.000000;0.000000;-1.000000;,
  -1.000000;0.000000;0.000000;,
  -1.000000;0.000000;0.000000;,
  0.000000;0.000000;-1.000000;,
  0.000000;0.000000;-1.000000;,
  -0.707107;-0.707107;0.000000;,
  -0.707107;-0.707107;0.000000;,
  -1.000000;0.000000;0.000000;,
  -1.000000;0.000000;0.000000;;
  242;
  3;0,0,0;,
  3;1,1,1;,
  3;2,2,2;,
  3;3,3,3;,
  3;4,4,4;,
  3;5,5,5;,
  3;6,6,6;,
  3;7,7,7;,
  3;8,8,8;,
  3;9,9,9;,
  3;10,10,10;,
  3;11,11,11;,
  3;12,12,12;,
  3;13,13,13;,
  3;14,14,14;,
  3;15,15,15;,
  3;16,16,16;,
  3;17,17,17;,
  3;18,18,18;,
  3;19,19,19;,
  3;20,20,20;,
  3;21,21,21;,
  3;22,22,22;,
  3;23,23,23;,
  3;24,24,24;,
  3;25,25,25;,
  3;26,26,26;,
  3;27,27,27;,
  3;28,28,28;,
  3;29,29,29;,
  3;30,30,30;,
  3;31,31,31;,
  3;32,32,32;,
  3;33,33,33;,
  3;34,34,34;,
  3;35,35,35;,
  3;36,36,36;,
  3;37,37,37;,
  3;38,38,38;,
  3;39,39,39;,
  3;40,40,40;,
  3;41,41,41;,
  3;42,42,42;,
  3;43,43,43;,
  3;44,44,44;,
  3;45,45,45;,
  3;46,46,46;,
  3;47,47,47;,
  3;48,48,48;,
  3;49,49,49;,
  3;50,50,50;,
  3;51,51,51;,
  3;52,52,52;,
  3;53,53,53;,
  3;54,54,54;,
  3;55,55,55;,
  3;56,56,56;,
  3;57,57,57;,
  3;58,58,58;,
  3;59,59,59;,
  3;60,60,60;,
  3;61,61,61;,
  3;62,62,62;,
  3;63,63,63;,
  3;64,64,64;,
  3;65,65,65;,
  3;66,66,66;,
  3;67,67,67;,
  3;68,68,68;,
  3;69,69,69;,
  3;70,70,70;,
  3;71,71,71;,
  3;72,72,72;,
  3;73,73,73;,
  3;74,74,74;,
  3;75,75,75;,
  3;76,76,76;,
  3;77,77,77;,
  3;78,78,78;,
  3;79,79,79;,
  3;80,80,80;,
  3;81,81,81;,
  3;82,82,82;,
  3;83,83,83;,
  3;84,84,84;,
  3;85,85,85;,
  3;86,86,86;,
  3;87,87,87;,
  3;88,88,88;,
  3;89,89,89;,
  3;90,90,90;,
  3;91,91,91;,
  3;92,92,92;,
  3;93,93,93;,
  3;94,94,94;,
  3;95,95,95;,
  3;96,96,96;,
  3;97,97,97;,
  3;98,98,98;,
  3;99,99,99;,
  3;100,100,100;,
  3;101,101,101;,
  3;102,102,102;,
  3;103,103,103;,
  3;104,104,104;,
  3;105,105,105;,
  3;106,106,106;,
  3;107,107,107;,
  3;108,108,108;,
  3;109,109,109;,
  3;110,110,110;,
  3;111,111,111;,
  3;112,112,112;,
  3;113,113,113;,
  3;114,114,114;,
  3;115,115,115;,
  3;116,116,116;,
  3;117,117,117;,
  3;118,118,118;,
  3;119,119,119;,
  3;120,120,120;,
  3;121,121,121;,
  3;122,122,122;,
  3;123,123,123;,
  3;124,124,124;,
  3;125,125,125;,
  3;126,126,126;,
  3;127,127,127;,
  3;128,128,128;,
  3;129,129,129;,
  3;130,130,130;,
  3;131,131,131;,
  3;132,132,132;,
  3;133,133,133;,
  3;134,134,134;,
  3;135,135,135;,
  3;136,136,136;,
  3;137,137,137;,
  3;138,138,138;,
  3;139,139,139;,
  3;140,140,140;,
  3;141,141,141;,
  3;142,142,142;,
  3;143,143,143;,
  3;144,144,144;,
  3;145,145,145;,
  3;146,146,146;,
  3;147,147,147;,
  3;148,148,148;,
  3;149,149,149;,
  3;150,150,150;,
  3;151,151,151;,
  3;152,152,152;,
  3;153,153,153;,
  3;154,154,154;,
  3;155,155,155;,
  3;156,156,156;,
  3;157,157,157;,
  3;158,158,158;,
  3;159,159,159;,
  3;160,160,160;,
  3;161,161,161;,
  3;162,162,162;,
  3;163,163,163;,
  3;164,164,164;,
  3;165,165,165;,
  3;166,166,166;,
  3;167,167,167;,
  3;168,168,168;,
  3;169,169,169;,
  3;170,170,170;,
  3;171,171,171;,
  3;172,172,172;,
  3;173,173,173;,
  3;174,174,174;,
  3;175,175,175;,
  3;176,176,176;,
  3;177,177,177;,
  3;178,178,178;,
  3;179,179,179;,
  3;180,180,180;,
  3;181,181,181;,
  3;182,182,182;,
  3;183,183,183;,
  3;184,184,184;,
  3;185,185,185;,
  3;186,186,186;,
  3;187,187,187;,
  3;188,188,188;,
  3;189,189,189;,
  3;190,190,190;,
  3;191,191,191;,
  3;192,192,192;,
  3;193,193,193;,
  3;194,194,194;,
  3;195,195,195;,
  3;196,196,196;,
  3;197,197,197;,
  3;198,198,198;,
  3;199,199,199;,
  3;200,200,200;,
  3;201,201,201;,
  3;202,202,202;,
  3;203,203,203;,
  3;204,204,204;,
  3;205,205,205;,
  3;206,206,206;,
  3;207,207,207;,
  3;208,208,208;,
  3;209,209,209;,
  3;210,210,210;,
  3;211,211,211;,
  3;212,212,212;,
  3;213,213,213;,
  3;214,214,214;,
  3;215,215,215;,
  3;216,216,216;,
  3;217,217,217;,
  3;218,218,218;,
  3;219,219,219;,
  3;220,220,220;,
  3;221,221,221;,
  3;222,222,222;,
  3;223,223,223;,
  3;224,224,224;,
  3;225,225,225;,
  3;226,226,226;,
  3;227,227,227;,
  3;228,228,228;,
  3;229,229,229;,
  3;230,230,230;,
  3;231,231,231;,
  3;232,232,232;,
  3;233,233,233;,
  3;234,234,234;,
  3;235,235,235;,
  3;236,236,236;,
  3;237,237,237;,
  3;238,238,238;,
  3;239,239,239;,
  3;240,240,240;,
  3;241,241,241;;
 }
}