xof 0303txt 0032
template Vector {
 <3d82ab5e-62da-11cf-ab39-0020af71e433>
 FLOAT x;
 FLOAT y;
 FLOAT z;
}

template MeshFace {
 <3d82ab5f-62da-11cf-ab39-0020af71e433>
 DWORD nFaceVertexIndices;
 array DWORD faceVertexIndices[nFaceVertexIndices];
}

template Mesh {
 <3d82ab44-62da-11cf-ab39-0020af71e433>
 DWORD nVertices;
 array Vector vertices[nVertices];
 DWORD nFaces;
 array MeshFace faces[nFaces];
 [...]
}

template MeshNormals {
 <f6f23f43-7686-11cf-8f52-0040333594a3>
 DWORD nNormals;
 array Vector normals[nNormals];
 DWORD nFaceNormals;
 array MeshFace faceNormals[nFaceNormals];
}

template Coords2d {
 <f6f23f44-7686-11cf-8f52-0040333594a3>
 FLOAT u;
 FLOAT v;
}

template MeshTextureCoords {
 <f6f23f40-7686-11cf-8f52-0040333594a3>
 DWORD nTextureCoords;
 array Coords2d textureCoords[nTextureCoords];
}

template ColorRGBA {
 <35ff44e0-6c7c-11cf-8f52-0040333594a3>
 FLOAT red;
 FLOAT green;
 FLOAT blue;
 FLOAT alpha;
}

template ColorRGB {
 <d3e16e81-7835-11cf-8f52-0040333594a3>
 FLOAT red;
 FLOAT green;
 FLOAT blue;
}

template Material {
 <3d82ab4d-62da-11cf-ab39-0020af71e433>
 ColorRGBA faceColor;
 FLOAT power;
 ColorRGB specularColor;
 ColorRGB emissiveColor;
 [...]
}

template MeshMaterialList {
 <f6f23f42-7686-11cf-8f52-0040333594a3>
 DWORD nMaterials;
 DWORD nFaceIndexes;
 array DWORD faceIndexes[nFaceIndexes];
 [Material <3d82ab4d-62da-11cf-ab39-0020af71e433>]
}

template TextureFilename {
 <a42790e1-7810-11cf-8f52-0040333594a3>
 STRING filename;
}


Mesh {
 40;
 0.080000;5.296853;0.000000;,
 0.059999;5.296853;0.060000;,
 0.000000;5.296853;0.080000;,
 -0.059999;5.296853;0.060000;,
 -0.080000;5.296853;0.000000;,
 -0.080000;-1.503147;0.000000;,
 -0.059999;-1.503147;0.060000;,
 0.000000;-1.503147;0.080000;,
 0.059999;-1.503147;0.060000;,
 0.080000;-1.503147;0.000000;,
 0.059999;5.296853;0.060000;,
 0.059999;-1.503147;0.060000;,
 0.000000;5.296853;0.080000;,
 0.000000;-1.503147;0.080000;,
 -0.059999;5.296853;0.060000;,
 -0.059999;-1.503147;0.060000;,
 0.080000;5.296853;0.000000;,
 0.060000;5.296853;-0.060000;,
 0.000000;5.296853;-0.080000;,
 -0.060000;5.296853;-0.060000;,
 -0.080000;5.296853;0.000000;,
 -0.080000;-1.503147;0.000000;,
 -0.060000;-1.503147;-0.060000;,
 0.000000;-1.503147;-0.080000;,
 0.060000;-1.503147;-0.060000;,
 0.080000;-1.503147;0.000000;,
 0.060000;5.296853;-0.060000;,
 0.060000;-1.503147;-0.060000;,
 0.000000;5.296853;-0.080000;,
 0.000000;-1.503147;-0.080000;,
 -0.060000;5.296853;-0.060000;,
 -0.060000;-1.503147;-0.060000;,
 0.150000;5.696852;0.000000;,
 -0.150000;5.696852;0.000000;,
 -0.150000;5.296853;0.000000;,
 0.150000;5.296853;0.000000;,
 0.150000;5.696852;0.000000;,
 -0.150000;5.696852;0.000000;,
 -0.150000;5.296853;0.000000;,
 0.150000;5.296853;0.000000;;
 20;
 3;0,1,8;,
 3;0,8,9;,
 3;10,2,7;,
 3;10,7,11;,
 3;12,3,6;,
 3;12,6,13;,
 3;14,4,5;,
 3;14,5,15;,
 3;16,24,17;,
 3;16,25,24;,
 3;26,23,18;,
 3;26,27,23;,
 3;28,22,19;,
 3;28,29,22;,
 3;30,21,20;,
 3;30,31,21;,
 3;32,33,34;,
 3;32,34,35;,
 3;36,38,37;,
 3;36,39,38;;

 MeshNormals {
  40;
  0.948683;0.000000;0.316228;,
  0.948683;0.000000;0.316228;,
  0.316228;0.000000;0.948683;,
  -0.316228;0.000000;0.948683;,
  -0.948683;0.000000;0.316228;,
  -0.948683;0.000000;0.316228;,
  -0.316228;0.000000;0.948683;,
  0.316228;0.000000;0.948683;,
  0.948683;0.000000;0.316228;,
  0.948683;0.000000;0.316228;,
  0.316228;0.000000;0.948683;,
  0.316228;0.000000;0.948683;,
  -0.316228;0.000000;0.948683;,
  -0.316228;0.000000;0.948683;,
  -0.948683;0.000000;0.316228;,
  -0.948683;0.000000;0.316228;,
  0.948683;0.000000;-0.316228;,
  0.948683;0.000000;-0.316228;,
  0.316228;0.000000;-0.948683;,
  -0.316228;0.000000;-0.948683;,
  -0.948683;0.000000;-0.316228;,
  -0.948683;0.000000;-0.316228;,
  -0.316228;0.000000;-0.948683;,
  0.316228;0.000000;-0.948683;,
  0.948683;0.000000;-0.316228;,
  0.948683;0.000000;-0.316228;,
  0.316228;0.000000;-0.948683;,
  0.316228;0.000000;-0.948683;,
  -0.316228;0.000000;-0.948683;,
  -0.316228;0.000000;-0.948683;,
  -0.948683;0.000000;-0.316228;,
  -0.948683;0.000000;-0.316228;,
  0.000000;0.000000;1.000000;,
  0.000000;0.000000;1.000000;,
  0.000000;0.000000;1.000000;,
  0.000000;0.000000;1.000000;,
  0.000000;0.000000;-1.000000;,
  0.000000;0.000000;-1.000000;,
  0.000000;0.000000;-1.000000;,
  0.000000;0.000000;-1.000000;;
  20;
  3;0,1,8;,
  3;0,8,9;,
  3;10,2,7;,
  3;10,7,11;,
  3;12,3,6;,
  3;12,6,13;,
  3;14,4,5;,
  3;14,5,15;,
  3;16,24,17;,
  3;16,25,24;,
  3;26,23,18;,
  3;26,27,23;,
  3;28,22,19;,
  3;28,29,22;,
  3;30,21,20;,
  3;30,31,21;,
  3;32,33,34;,
  3;32,34,35;,
  3;36,38,37;,
  3;36,39,38;;
 }

 MeshTextureCoords {
  40;
  0.000000;0.000000;,
  0.200000;0.000000;,
  0.500000;0.000000;,
  0.800000;0.000000;,
  1.000000;0.000000;,
  1.000000;1.000000;,
  0.800000;1.000000;,
  0.500000;1.000000;,
  0.200000;1.000000;,
  0.000000;1.000000;,
  0.200000;0.000000;,
  0.200000;1.000000;,
  0.500000;0.000000;,
  0.500000;1.000000;,
  0.800000;0.000000;,
  0.800000;1.000000;,
  0.000000;0.000000;,
  0.200000;0.000000;,
  0.500000;0.000000;,
  0.800000;0.000000;,
  1.000000;0.000000;,
  1.000000;1.000000;,
  0.800000;1.000000;,
  0.500000;1.000000;,
  0.200000;1.000000;,
  0.000000;1.000000;,
  0.200000;0.000000;,
  0.200000;1.000000;,
  0.500000;0.000000;,
  0.500000;1.000000;,
  0.800000;0.000000;,
  0.800000;1.000000;,
  0.000000;0.017929;,
  1.000000;0.017929;,
  1.000000;1.000000;,
  0.000000;1.000000;,
  0.000000;0.017929;,
  1.000000;0.017929;,
  1.000000;1.000000;,
  0.000000;1.000000;;
 }

 MeshMaterialList {
  2;
  20;
  0,
  0,
  0,
  0,
  0,
  0,
  0,
  0,
  0,
  0,
  0,
  0,
  0,
  0,
  0,
  0,
  1,
  1,
  1,
  1;

  Material {
   1.000000;1.000000;1.000000;1.000000;;
   0.000000;
   0.000000;0.000000;0.000000;;
   0.000000;0.000000;0.000000;;

   TextureFilename {
    "pole4.dds";
   }
  }

  Material {
   1.000000;1.000000;1.000000;1.000000;;
   0.000000;
   0.000000;0.000000;0.000000;;
   0.000000;0.000000;0.000000;;

   TextureFilename {
    "pole4_top.dds";
   }
  }
 }
}