xof 0303txt 0032
template Vector {
 <3d82ab5e-62da-11cf-ab39-0020af71e433>
 FLOAT x;
 FLOAT y;
 FLOAT z;
}

template MeshFace {
 <3d82ab5f-62da-11cf-ab39-0020af71e433>
 DWORD nFaceVertexIndices;
 array DWORD faceVertexIndices[nFaceVertexIndices];
}

template Mesh {
 <3d82ab44-62da-11cf-ab39-0020af71e433>
 DWORD nVertices;
 array Vector vertices[nVertices];
 DWORD nFaces;
 array MeshFace faces[nFaces];
 [...]
}

template ColorRGBA {
 <35ff44e0-6c7c-11cf-8f52-0040333594a3>
 FLOAT red;
 FLOAT green;
 FLOAT blue;
 FLOAT alpha;
}

template ColorRGB {
 <d3e16e81-7835-11cf-8f52-0040333594a3>
 FLOAT red;
 FLOAT green;
 FLOAT blue;
}

template Material {
 <3d82ab4d-62da-11cf-ab39-0020af71e433>
 ColorRGBA faceColor;
 FLOAT power;
 ColorRGB specularColor;
 ColorRGB emissiveColor;
 [...]
}

template MeshMaterialList {
 <f6f23f42-7686-11cf-8f52-0040333594a3>
 DWORD nMaterials;
 DWORD nFaceIndexes;
 array DWORD faceIndexes[nFaceIndexes];
 [Material <3d82ab4d-62da-11cf-ab39-0020af71e433>]
}

template TextureFilename {
 <a42790e1-7810-11cf-8f52-0040333594a3>
 STRING filename;
}

template Coords2d {
 <f6f23f44-7686-11cf-8f52-0040333594a3>
 FLOAT u;
 FLOAT v;
}

template MeshTextureCoords {
 <f6f23f40-7686-11cf-8f52-0040333594a3>
 DWORD nTextureCoords;
 array Coords2d textureCoords[nTextureCoords];
}

template MeshNormals {
 <f6f23f43-7686-11cf-8f52-0040333594a3>
 DWORD nNormals;
 array Vector normals[nNormals];
 DWORD nFaceNormals;
 array MeshFace faceNormals[nFaceNormals];
}


Mesh  {
 10;
 -0.080000;5.300000;0.000000;,
 -0.060000;5.300000;-0.060000;,
 0.000000;5.300000;-0.080000;,
 0.060000;5.300000;-0.060000;,
 0.080000;5.300000;0.000000;,
 0.080000;-1.500000;0.000000;,
 0.060000;-1.500000;-0.060000;,
 0.000000;-1.500000;-0.080000;,
 -0.060000;-1.500000;-0.060000;,
 -0.080000;-1.500000;0.000000;;
 8;
 3;0,1,8;,
 3;0,8,9;,
 3;1,2,7;,
 3;1,7,8;,
 3;2,3,6;,
 3;2,6,7;,
 3;3,4,5;,
 3;3,5,6;;

 MeshMaterialList  {
  1;
  8;
  0,
  0,
  0,
  0,
  0,
  0,
  0,
  0;

  Material  {
   1.000000;1.000000;1.000000;1.000000;;
   0.000000;
   0.000000;0.000000;0.000000;;
   0.000000;0.000000;0.000000;;

   TextureFilename  {
    "pole2.dds";
   }
  }
 }

 MeshTextureCoords  {
  10;
  0.000000;0.000000;,
  0.200000;0.000000;,
  0.500000;0.000000;,
  0.800000;0.000000;,
  1.000000;0.000000;,
  1.000000;1.000000;,
  0.800000;1.000000;,
  0.500000;1.000000;,
  0.200000;1.000000;,
  0.000000;1.000000;;
 }

 MeshNormals  {
  8;
  -0.948683;0.000000;-0.316228;,
  -0.948683;0.000000;-0.316228;,
  -0.316228;0.000000;-0.948683;,
  -0.316228;0.000000;-0.948683;,
  0.316228;0.000000;-0.948683;,
  0.316228;0.000000;-0.948683;,
  0.948683;0.000000;-0.316228;,
  0.948683;0.000000;-0.316228;;
  8;
  3;0,0,0;,
  3;1,1,1;,
  3;2,2,2;,
  3;3,3,3;,
  3;4,4,4;,
  3;5,5,5;,
  3;6,6,6;,
  3;7,7,7;;
 }
}