xof 0303txt 0032
template Vector {
 <3d82ab5e-62da-11cf-ab39-0020af71e433>
 FLOAT x;
 FLOAT y;
 FLOAT z;
}

template MeshFace {
 <3d82ab5f-62da-11cf-ab39-0020af71e433>
 DWORD nFaceVertexIndices;
 array DWORD faceVertexIndices[nFaceVertexIndices];
}

template Mesh {
 <3d82ab44-62da-11cf-ab39-0020af71e433>
 DWORD nVertices;
 array Vector vertices[nVertices];
 DWORD nFaces;
 array MeshFace faces[nFaces];
 [...]
}

template ColorRGBA {
 <35ff44e0-6c7c-11cf-8f52-0040333594a3>
 FLOAT red;
 FLOAT green;
 FLOAT blue;
 FLOAT alpha;
}

template ColorRGB {
 <d3e16e81-7835-11cf-8f52-0040333594a3>
 FLOAT red;
 FLOAT green;
 FLOAT blue;
}

template Material {
 <3d82ab4d-62da-11cf-ab39-0020af71e433>
 ColorRGBA faceColor;
 FLOAT power;
 ColorRGB specularColor;
 ColorRGB emissiveColor;
 [...]
}

template MeshMaterialList {
 <f6f23f42-7686-11cf-8f52-0040333594a3>
 DWORD nMaterials;
 DWORD nFaceIndexes;
 array DWORD faceIndexes[nFaceIndexes];
 [Material <3d82ab4d-62da-11cf-ab39-0020af71e433>]
}

template TextureFilename {
 <a42790e1-7810-11cf-8f52-0040333594a3>
 STRING filename;
}

template Coords2d {
 <f6f23f44-7686-11cf-8f52-0040333594a3>
 FLOAT u;
 FLOAT v;
}

template MeshTextureCoords {
 <f6f23f40-7686-11cf-8f52-0040333594a3>
 DWORD nTextureCoords;
 array Coords2d textureCoords[nTextureCoords];
}

template MeshNormals {
 <f6f23f43-7686-11cf-8f52-0040333594a3>
 DWORD nNormals;
 array Vector normals[nNormals];
 DWORD nFaceNormals;
 array MeshFace faceNormals[nFaceNormals];
}


Mesh  {
 49;
 -25.000000;-1.000000;-10.000000;,
 -25.000000;1.000000;-5.000000;,
 -25.000000;5.000000;0.000000;,
 -25.000000;8.000000;5.000000;,
 -28.000000;20.000000;15.000000;,
 -15.000000;-1.000000;-10.000000;,
 -15.000000;3.000000;-5.000000;,
 -15.000000;7.000000;0.000000;,
 -15.000000;6.000000;5.000000;,
 -15.000000;17.000000;10.000000;,
 -8.000000;-1.000000;-10.000000;,
 -8.000000;3.000000;-5.000000;,
 -10.000000;7.000000;0.000000;,
 -10.000000;7.000000;5.000000;,
 -10.000000;16.000000;10.000000;,
 -3.000000;-1.000000;-10.000000;,
 -3.000000;-1.000000;0.000000;,
 -8.000000;7.500000;0.000000;,
 -8.000000;8.000000;5.000000;,
 -8.000000;16.200001;10.000000;,
 1.100000;7.500000;0.000000;,
 1.100000;9.000000;5.000000;,
 1.100000;16.500000;10.000000;,
 5.300000;7.500000;0.000000;,
 5.300000;10.000000;5.000000;,
 5.300000;16.000000;10.000000;,
 9.500000;7.500000;0.000000;,
 9.500000;11.000000;5.000000;,
 9.500000;15.700000;10.000000;,
 14.663800;-1.000000;-10.000000;,
 14.663800;-1.000000;0.000000;,
 14.663800;7.500000;0.000000;,
 14.663800;12.000000;5.000000;,
 14.663800;17.200001;10.000000;,
 18.700001;-1.000000;-10.000000;,
 18.700001;3.000000;-5.000000;,
 18.700001;6.000000;0.000000;,
 18.700001;13.000000;5.000000;,
 18.700001;18.000000;10.000000;,
 23.700001;-1.000000;-10.000000;,
 23.700001;1.000000;-5.000000;,
 23.700001;7.000000;0.000000;,
 23.700001;14.000000;5.000000;,
 23.700001;19.500000;10.000000;,
 33.700001;-1.000000;-10.000000;,
 33.700001;-1.000000;-5.000000;,
 33.700001;8.000000;5.000000;,
 33.700001;15.000000;10.000000;,
 36.200001;25.000000;20.000000;;
 64;
 3;0,1,6;,
 3;0,6,5;,
 3;1,2,7;,
 3;1,7,6;,
 3;2,3,8;,
 3;2,8,7;,
 3;3,4,9;,
 3;3,9,8;,
 3;5,6,11;,
 3;5,11,10;,
 3;6,7,12;,
 3;6,12,11;,
 3;7,8,13;,
 3;7,13,12;,
 3;8,9,14;,
 3;8,14,13;,
 3;10,11,16;,
 3;10,16,15;,
 3;11,12,17;,
 3;11,17,16;,
 3;12,13,18;,
 3;12,18,17;,
 3;13,14,19;,
 3;13,19,18;,
 3;17,18,21;,
 3;17,21,20;,
 3;18,19,22;,
 3;18,22,21;,
 3;20,21,24;,
 3;20,24,23;,
 3;21,22,25;,
 3;21,25,24;,
 3;23,24,27;,
 3;23,27,26;,
 3;24,25,28;,
 3;24,28,27;,
 3;26,27,32;,
 3;26,32,31;,
 3;27,28,33;,
 3;27,33,32;,
 3;29,30,35;,
 3;29,35,34;,
 3;30,31,36;,
 3;30,36,35;,
 3;31,32,37;,
 3;31,37,36;,
 3;32,33,38;,
 3;32,38,37;,
 3;34,35,40;,
 3;34,40,39;,
 3;35,36,41;,
 3;35,41,40;,
 3;36,37,42;,
 3;36,42,41;,
 3;37,38,43;,
 3;37,43,42;,
 3;39,40,45;,
 3;39,45,44;,
 3;40,41,46;,
 3;40,46,45;,
 3;41,42,47;,
 3;41,47,46;,
 3;42,43,48;,
 3;42,48,47;;

 MeshMaterialList  {
  1;
  64;
  0,
  0,
  0,
  0,
  0,
  0,
  0,
  0,
  0,
  0,
  0,
  0,
  0,
  0,
  0,
  0,
  0,
  0,
  0,
  0,
  0,
  0,
  0,
  0,
  0,
  0,
  0,
  0,
  0,
  0,
  0,
  0,
  0,
  0,
  0,
  0,
  0,
  0,
  0,
  0,
  0,
  0,
  0,
  0,
  0,
  0,
  0,
  0,
  0,
  0,
  0,
  0,
  0,
  0,
  0,
  0,
  0,
  0,
  0,
  0,
  0,
  0,
  0,
  0;

  Material  {
   1.000000;1.000000;1.000000;1.000000;;
   0.000000;
   0.000000;0.000000;0.000000;;
   0.000000;0.000000;0.000000;;

   TextureFilename  {
    "Grass.png";
   }
  }
 }

 MeshTextureCoords  {
  49;
  -0.700000;1.000000;,
  -0.700000;0.750000;,
  -0.700000;0.500000;,
  -0.700000;0.250000;,
  -0.700000;0.000000;,
  0.100000;1.000000;,
  0.100000;0.750000;,
  0.100000;0.500000;,
  0.100000;0.250000;,
  0.100000;0.000000;,
  0.200000;1.000000;,
  0.200000;0.750000;,
  0.200000;0.500000;,
  0.200000;0.250000;,
  0.200000;0.000000;,
  0.300000;1.000000;,
  0.300000;0.750000;,
  0.300000;0.500000;,
  0.300000;0.250000;,
  0.300000;0.000000;,
  0.400000;0.500000;,
  0.400000;0.250000;,
  0.400000;0.000000;,
  0.500000;0.500000;,
  0.500000;0.250000;,
  0.500000;0.000000;,
  0.600000;0.500000;,
  0.600000;0.250000;,
  0.600000;0.000000;,
  0.700000;1.000000;,
  0.700000;0.750000;,
  0.700000;0.500000;,
  0.700000;0.250000;,
  0.700000;0.000000;,
  0.800000;1.000000;,
  0.800000;0.750000;,
  0.800000;0.500000;,
  0.800000;0.250000;,
  0.800000;0.000000;,
  0.900000;1.000000;,
  0.900000;0.750000;,
  0.900000;0.500000;,
  0.900000;0.250000;,
  0.900000;0.000000;,
  1.000000;1.000000;,
  1.000000;0.750000;,
  1.000000;0.500000;,
  1.000000;0.250000;,
  1.000000;0.000000;;
 }

 MeshNormals  {
  64;
  -0.182574;0.912871;-0.365148;,
  0.000000;0.780869;-0.624695;,
  -0.154303;0.771517;-0.617213;,
  -0.154303;0.771517;-0.617213;,
  0.169031;0.845154;-0.507093;,
  -0.192450;0.962250;0.192450;,
  -0.158701;0.608355;-0.777636;,
  0.082479;0.412393;-0.907265;,
  0.000000;0.780869;-0.624695;,
  0.000000;0.780869;-0.624695;,
  0.000000;0.780869;-0.624695;,
  0.000000;0.780869;-0.624695;,
  -0.192450;0.962250;0.192450;,
  0.000000;1.000000;0.000000;,
  0.082479;0.412393;-0.907265;,
  -0.096674;0.483368;-0.870063;,
  0.780720;0.487950;-0.390360;,
  0.000000;1.000000;0.000000;,
  -0.182696;0.730784;-0.657706;,
  0.784151;0.461266;-0.415139;,
  -0.447214;0.894427;0.000000;,
  -0.241402;0.965609;-0.096561;,
  -0.048507;0.485071;-0.873128;,
  -0.251909;0.503818;-0.826262;,
  -0.108697;0.989141;-0.098914;,
  0.000000;0.957826;-0.287348;,
  -0.017160;0.520531;-0.853670;,
  -0.060843;0.553673;-0.830509;,
  -0.222345;0.933850;-0.280155;,
  0.000000;0.894427;-0.447214;,
  0.065892;0.553495;-0.830242;,
  -0.150684;0.632875;-0.759450;,
  -0.208288;0.874810;-0.437405;,
  0.000000;0.819232;-0.573462;,
  0.045680;0.639516;-0.767419;,
  -0.170930;0.717905;-0.674830;,
  -0.156689;0.809113;-0.566379;,
  0.000000;0.743294;-0.668965;,
  -0.207067;0.712836;-0.670066;,
  -0.133032;0.686948;-0.714426;,
  -0.703914;0.710285;0.000000;,
  0.000000;0.780869;-0.624695;,
  0.000000;0.000000;-1.000000;,
  -0.829838;0.478485;-0.287091;,
  -0.181111;0.731002;-0.657902;,
  0.211140;0.568135;-0.795389;,
  -0.136100;0.686659;-0.714126;,
  -0.172563;0.696499;-0.696499;,
  0.298142;0.745356;-0.596285;,
  0.000000;0.928477;-0.371391;,
  -0.169031;0.845154;-0.507093;,
  0.248069;0.620174;-0.744208;,
  -0.115470;0.577350;-0.808290;,
  -0.115470;0.577350;-0.808290;,
  -0.207514;0.691714;-0.691714;,
  -0.133333;0.666667;-0.733333;,
  0.182574;0.912871;-0.365148;,
  0.000000;1.000000;0.000000;,
  0.304855;0.609711;-0.731653;,
  0.147043;0.735215;-0.661693;,
  0.329293;0.548821;-0.768350;,
  0.329293;0.548821;-0.768350;,
  0.283806;0.645014;-0.709515;,
  0.292021;0.638797;-0.711802;;
  64;
  3;0,0,0;,
  3;1,1,1;,
  3;2,2,2;,
  3;3,3,3;,
  3;4,4,4;,
  3;5,5,5;,
  3;6,6,6;,
  3;7,7,7;,
  3;8,8,8;,
  3;9,9,9;,
  3;10,10,10;,
  3;11,11,11;,
  3;12,12,12;,
  3;13,13,13;,
  3;14,14,14;,
  3;15,15,15;,
  3;16,16,16;,
  3;17,17,17;,
  3;18,18,18;,
  3;19,19,19;,
  3;20,20,20;,
  3;21,21,21;,
  3;22,22,22;,
  3;23,23,23;,
  3;24,24,24;,
  3;25,25,25;,
  3;26,26,26;,
  3;27,27,27;,
  3;28,28,28;,
  3;29,29,29;,
  3;30,30,30;,
  3;31,31,31;,
  3;32,32,32;,
  3;33,33,33;,
  3;34,34,34;,
  3;35,35,35;,
  3;36,36,36;,
  3;37,37,37;,
  3;38,38,38;,
  3;39,39,39;,
  3;40,40,40;,
  3;41,41,41;,
  3;42,42,42;,
  3;43,43,43;,
  3;44,44,44;,
  3;45,45,45;,
  3;46,46,46;,
  3;47,47,47;,
  3;48,48,48;,
  3;49,49,49;,
  3;50,50,50;,
  3;51,51,51;,
  3;52,52,52;,
  3;53,53,53;,
  3;54,54,54;,
  3;55,55,55;,
  3;56,56,56;,
  3;57,57,57;,
  3;58,58,58;,
  3;59,59,59;,
  3;60,60,60;,
  3;61,61,61;,
  3;62,62,62;,
  3;63,63,63;;
 }
}