xof 0303txt 0032
template Vector {
 <3d82ab5e-62da-11cf-ab39-0020af71e433>
 FLOAT x;
 FLOAT y;
 FLOAT z;
}

template MeshFace {
 <3d82ab5f-62da-11cf-ab39-0020af71e433>
 DWORD nFaceVertexIndices;
 array DWORD faceVertexIndices[nFaceVertexIndices];
}

template Mesh {
 <3d82ab44-62da-11cf-ab39-0020af71e433>
 DWORD nVertices;
 array Vector vertices[nVertices];
 DWORD nFaces;
 array MeshFace faces[nFaces];
 [...]
}

template ColorRGBA {
 <35ff44e0-6c7c-11cf-8f52-0040333594a3>
 FLOAT red;
 FLOAT green;
 FLOAT blue;
 FLOAT alpha;
}

template ColorRGB {
 <d3e16e81-7835-11cf-8f52-0040333594a3>
 FLOAT red;
 FLOAT green;
 FLOAT blue;
}

template Material {
 <3d82ab4d-62da-11cf-ab39-0020af71e433>
 ColorRGBA faceColor;
 FLOAT power;
 ColorRGB specularColor;
 ColorRGB emissiveColor;
 [...]
}

template MeshMaterialList {
 <f6f23f42-7686-11cf-8f52-0040333594a3>
 DWORD nMaterials;
 DWORD nFaceIndexes;
 array DWORD faceIndexes[nFaceIndexes];
 [Material <3d82ab4d-62da-11cf-ab39-0020af71e433>]
}

template TextureFilename {
 <a42790e1-7810-11cf-8f52-0040333594a3>
 STRING filename;
}

template Coords2d {
 <f6f23f44-7686-11cf-8f52-0040333594a3>
 FLOAT u;
 FLOAT v;
}

template MeshTextureCoords {
 <f6f23f40-7686-11cf-8f52-0040333594a3>
 DWORD nTextureCoords;
 array Coords2d textureCoords[nTextureCoords];
}

template MeshNormals {
 <f6f23f43-7686-11cf-8f52-0040333594a3>
 DWORD nNormals;
 array Vector normals[nNormals];
 DWORD nFaceNormals;
 array MeshFace faceNormals[nFaceNormals];
}


Mesh  {
 308;
 3.630000;4.000000;-0.040000;,
 3.770000;4.000000;-0.040000;,
 3.630000;1.000000;-0.040000;,
 3.770000;1.000000;-0.040000;,
 3.630000;4.000000;0.040000;,
 3.770000;4.000000;0.040000;,
 3.630000;1.000000;0.040000;,
 3.770000;1.000000;0.040000;,
 7.630000;4.000000;-0.040000;,
 7.770000;4.000000;-0.040000;,
 7.630000;1.000000;-0.040000;,
 7.770000;1.000000;-0.040000;,
 7.630000;4.000000;0.040000;,
 7.770000;4.000000;0.040000;,
 7.630000;1.000000;0.040000;,
 7.770000;1.000000;0.040000;,
 2.600000;3.900000;-0.040000;,
 2.600000;3.800000;-0.040000;,
 5.699999;4.400000;-0.040000;,
 5.699999;4.300000;-0.040000;,
 8.799999;3.900000;-0.040000;,
 8.799999;3.800000;-0.040000;,
 2.600000;3.900000;0.040000;,
 2.600000;3.800000;0.040000;,
 5.699999;4.400000;0.040000;,
 5.699999;4.300000;0.040000;,
 8.799999;3.900000;0.040000;,
 8.799999;3.800000;0.040000;,
 3.780000;3.500000;-0.040000;,
 3.920000;3.500000;-0.040000;,
 3.780000;1.000000;-0.040000;,
 3.920000;1.000000;-0.040000;,
 3.780000;3.500000;0.040000;,
 3.920000;3.500000;0.040000;,
 3.780000;1.000000;0.040000;,
 3.920000;1.000000;0.040000;,
 7.480000;3.500000;-0.040000;,
 7.619999;3.500000;-0.040000;,
 7.480000;1.000000;-0.040000;,
 7.619999;1.000000;-0.040000;,
 7.480000;3.500000;0.040000;,
 7.619999;3.500000;0.040000;,
 7.480000;1.000000;0.040000;,
 7.619999;1.000000;0.040000;,
 3.780000;3.500000;-0.040000;,
 3.920000;3.500000;-0.040000;,
 4.255000;4.050000;-0.040000;,
 4.255000;3.910000;-0.040000;,
 3.780000;3.500000;0.040000;,
 3.920000;3.500000;0.040000;,
 4.255000;4.050000;0.040000;,
 4.255000;3.910000;0.040000;,
 7.480000;3.500000;-0.040000;,
 7.619999;3.500000;-0.040000;,
 7.155000;4.050000;-0.040000;,
 7.155000;3.910000;-0.040000;,
 7.480000;3.500000;0.040000;,
 7.619999;3.500000;0.040000;,
 7.155000;4.050000;0.040000;,
 7.155000;3.910000;0.040000;,
 4.255000;4.050000;-0.040000;,
 4.255000;3.910000;-0.040000;,
 5.000000;4.190000;-0.040000;,
 5.000000;4.090000;-0.040000;,
 4.255000;4.050000;0.040000;,
 4.255000;3.910000;0.040000;,
 5.000000;4.190000;0.040000;,
 5.000000;4.090000;0.040000;,
 6.400000;4.190000;-0.040000;,
 6.400000;4.090000;-0.040000;,
 7.155000;4.050000;-0.040000;,
 7.155000;3.910000;-0.040000;,
 6.400000;4.190000;0.040000;,
 6.400000;4.090000;0.040000;,
 7.155000;4.050000;0.040000;,
 7.155000;3.910000;0.040000;,
 3.630000;4.000000;4.960000;,
 3.770000;4.000000;4.960000;,
 3.630000;3.520000;4.960000;,
 3.770000;3.520000;4.960000;,
 3.630000;4.000000;5.039999;,
 3.770000;4.000000;5.039999;,
 3.630000;3.520000;5.039999;,
 3.770000;3.520000;5.039999;,
 7.630000;4.000000;4.960000;,
 7.770000;4.000000;4.960000;,
 7.630000;3.520000;4.960000;,
 7.770000;3.520000;4.960000;,
 7.630000;4.000000;5.039999;,
 7.770000;4.000000;5.039999;,
 7.630000;3.520000;5.039999;,
 7.770000;3.520000;5.039999;,
 2.600000;3.900000;4.960000;,
 2.600000;3.800000;4.960000;,
 5.699999;4.400000;4.960000;,
 5.699999;4.300000;4.960000;,
 8.799999;3.900000;4.960000;,
 8.799999;3.800000;4.960000;,
 2.600000;3.900000;5.039999;,
 2.600000;3.800000;5.039999;,
 5.699999;4.400000;5.039999;,
 5.699999;4.300000;5.039999;,
 8.799999;3.900000;5.039999;,
 8.799999;3.800000;5.039999;,
 3.630000;4.000000;4.960000;,
 3.770000;3.900000;4.960000;,
 5.000000;4.190000;4.960000;,
 5.000000;4.090000;4.960000;,
 3.630000;4.000000;5.039999;,
 3.770000;3.900000;5.039999;,
 5.000000;4.190000;5.039999;,
 5.000000;4.090000;5.039999;,
 6.400000;4.190000;4.960000;,
 6.400000;4.090000;4.960000;,
 7.630000;4.000000;4.960000;,
 7.770000;3.900000;4.960000;,
 6.400000;4.190000;5.039999;,
 6.400000;4.090000;5.039999;,
 7.630000;4.000000;5.039999;,
 7.770000;3.900000;5.039999;,
 3.675000;3.620000;0.000000;,
 3.675000;3.620000;9.999999;,
 3.675000;3.520000;0.000000;,
 3.675000;3.520000;9.999999;,
 3.725000;3.620000;0.000000;,
 3.725000;3.620000;9.999999;,
 3.725000;3.520000;0.000000;,
 3.725000;3.520000;9.999999;,
 3.675000;4.000000;0.000000;,
 3.675000;4.000000;9.999999;,
 3.675000;3.900000;0.000000;,
 3.675000;3.900000;9.999999;,
 3.725000;4.000000;0.000000;,
 3.725000;4.000000;9.999999;,
 3.725000;3.900000;0.000000;,
 3.725000;3.900000;9.999999;,
 7.675000;3.620000;0.000000;,
 7.675000;3.620000;9.999999;,
 7.675000;3.520000;0.000000;,
 7.675000;3.520000;9.999999;,
 7.724999;3.620000;0.000000;,
 7.724999;3.620000;9.999999;,
 7.724999;3.520000;0.000000;,
 7.724999;3.520000;9.999999;,
 7.675000;4.000000;0.000000;,
 7.675000;4.000000;9.999999;,
 7.675000;3.900000;0.000000;,
 7.675000;3.900000;9.999999;,
 7.724999;4.000000;0.000000;,
 7.724999;4.000000;9.999999;,
 7.724999;3.900000;0.000000;,
 7.724999;3.900000;9.999999;,
 3.700000;3.900000;0.000000;,
 3.700000;3.900000;0.040000;,
 3.700000;3.620000;0.573000;,
 3.700000;3.620000;0.613000;,
 3.700000;3.620000;0.613000;,
 3.700000;3.620000;0.653000;,
 3.700000;3.900000;1.210000;,
 3.700000;3.900000;1.250000;,
 3.700000;3.900000;1.250000;,
 3.700000;3.900000;1.290000;,
 3.700000;3.620000;1.823000;,
 3.700000;3.620000;1.863000;,
 3.700000;3.620000;1.863000;,
 3.700000;3.620000;1.903000;,
 3.700000;3.900000;2.460000;,
 3.700000;3.900000;2.500000;,
 3.700000;3.900000;2.500000;,
 3.700000;3.900000;2.540000;,
 3.700000;3.620000;3.073000;,
 3.700000;3.620000;3.113000;,
 3.700000;3.620000;3.113000;,
 3.700000;3.620000;3.153000;,
 3.700000;3.900000;3.710000;,
 3.700000;3.900000;3.750000;,
 3.700000;3.900000;3.750000;,
 3.700000;3.900000;3.790000;,
 3.700000;3.620000;4.322999;,
 3.700000;3.620000;4.362999;,
 3.700000;3.620000;4.362999;,
 3.700000;3.620000;4.402999;,
 3.700000;3.900000;4.960000;,
 3.700000;3.900000;5.000000;,
 3.700000;3.900000;5.000000;,
 3.700000;3.900000;5.039999;,
 3.700000;3.620000;5.572999;,
 3.700000;3.620000;5.612999;,
 3.700000;3.620000;5.612999;,
 3.700000;3.620000;5.652999;,
 3.700000;3.900000;6.210000;,
 3.700000;3.900000;6.250000;,
 3.700000;3.900000;6.250000;,
 3.700000;3.900000;6.289999;,
 3.700000;3.620000;6.822999;,
 3.700000;3.620000;6.862999;,
 3.700000;3.620000;6.862999;,
 3.700000;3.620000;6.902999;,
 3.700000;3.900000;7.460000;,
 3.700000;3.900000;7.500000;,
 3.700000;3.900000;7.500000;,
 3.700000;3.900000;7.539999;,
 3.700000;3.620000;8.072999;,
 3.700000;3.620000;8.112999;,
 3.700000;3.620000;8.112999;,
 3.700000;3.620000;8.152999;,
 3.700000;3.900000;8.709999;,
 3.700000;3.900000;8.749999;,
 3.700000;3.900000;8.749999;,
 3.700000;3.900000;8.789999;,
 3.700000;3.620000;9.322999;,
 3.700000;3.620000;9.362999;,
 3.700000;3.620000;9.362999;,
 3.700000;3.620000;9.402999;,
 3.700000;3.900000;9.959999;,
 3.700000;3.900000;9.999999;,
 7.699999;3.900000;0.000000;,
 7.699999;3.900000;0.040000;,
 7.699999;3.620000;0.573000;,
 7.699999;3.620000;0.613000;,
 7.699999;3.620000;0.613000;,
 7.699999;3.620000;0.653000;,
 7.699999;3.900000;1.210000;,
 7.699999;3.900000;1.250000;,
 7.699999;3.900000;1.250000;,
 7.699999;3.900000;1.290000;,
 7.699999;3.620000;1.823000;,
 7.699999;3.620000;1.863000;,
 7.699999;3.620000;1.863000;,
 7.699999;3.620000;1.903000;,
 7.699999;3.900000;2.460000;,
 7.699999;3.900000;2.500000;,
 7.699999;3.900000;2.500000;,
 7.699999;3.900000;2.540000;,
 7.699999;3.620000;3.073000;,
 7.699999;3.620000;3.113000;,
 7.699999;3.620000;3.113000;,
 7.699999;3.620000;3.153000;,
 7.699999;3.900000;3.710000;,
 7.699999;3.900000;3.750000;,
 7.699999;3.900000;3.750000;,
 7.699999;3.900000;3.790000;,
 7.699999;3.620000;4.322999;,
 7.699999;3.620000;4.362999;,
 7.699999;3.620000;4.362999;,
 7.699999;3.620000;4.402999;,
 7.699999;3.900000;4.960000;,
 7.699999;3.900000;5.000000;,
 7.699999;3.900000;5.000000;,
 7.699999;3.900000;5.039999;,
 7.699999;3.620000;5.572999;,
 7.699999;3.620000;5.612999;,
 7.699999;3.620000;5.612999;,
 7.699999;3.620000;5.652999;,
 7.699999;3.900000;6.210000;,
 7.699999;3.900000;6.250000;,
 7.699999;3.900000;6.250000;,
 7.699999;3.900000;6.289999;,
 7.699999;3.620000;6.822999;,
 7.699999;3.620000;6.862999;,
 7.699999;3.620000;6.862999;,
 7.699999;3.620000;6.902999;,
 7.699999;3.900000;7.460000;,
 7.699999;3.900000;7.500000;,
 7.699999;3.900000;7.500000;,
 7.699999;3.900000;7.539999;,
 7.699999;3.620000;8.072999;,
 7.699999;3.620000;8.112999;,
 7.699999;3.620000;8.112999;,
 7.699999;3.620000;8.152999;,
 7.699999;3.900000;8.709999;,
 7.699999;3.900000;8.749999;,
 7.699999;3.900000;8.749999;,
 7.699999;3.900000;8.789999;,
 7.699999;3.620000;9.322999;,
 7.699999;3.620000;9.362999;,
 7.699999;3.620000;9.362999;,
 7.699999;3.620000;9.402999;,
 7.699999;3.900000;9.959999;,
 7.699999;3.900000;9.999999;,
 2.599000;3.800000;0.000000;,
 2.599000;3.800000;9.999999;,
 2.599000;3.950000;0.000000;,
 2.599000;3.950000;9.999999;,
 5.650000;4.449999;0.000000;,
 5.650000;4.449999;9.999999;,
 5.699999;4.449999;0.000000;,
 5.699999;4.449999;9.999999;,
 5.750000;4.449999;0.000000;,
 5.750000;4.449999;9.999999;,
 8.800999;3.950000;0.000000;,
 8.800999;3.950000;9.999999;,
 8.800999;3.800000;0.000000;,
 8.800999;3.800000;9.999999;,
 2.601000;3.800000;0.000000;,
 2.601000;3.800000;9.999999;,
 2.601000;3.949000;0.000000;,
 2.601000;3.949000;9.999999;,
 5.651000;4.448999;0.000000;,
 5.651000;4.448999;9.999999;,
 5.699999;4.448999;0.000000;,
 5.699999;4.448999;9.999999;,
 5.749000;4.448999;0.000000;,
 5.749000;4.448999;9.999999;,
 8.798999;3.949000;0.000000;,
 8.798999;3.949000;9.999999;,
 8.798999;3.800000;0.000000;,
 8.798999;3.800000;9.999999;;
 544;
 3;0,1,3;,
 3;0,3,2;,
 3;2,3,1;,
 3;2,1,0;,
 3;4,0,2;,
 3;4,2,6;,
 3;6,2,0;,
 3;6,0,4;,
 3;5,4,6;,
 3;5,6,7;,
 3;7,6,4;,
 3;7,4,5;,
 3;1,5,7;,
 3;1,7,2;,
 3;2,7,5;,
 3;2,5,1;,
 3;8,9,11;,
 3;8,11,10;,
 3;10,11,9;,
 3;10,9,8;,
 3;12,8,10;,
 3;12,10,14;,
 3;14,10,8;,
 3;14,8,12;,
 3;13,12,14;,
 3;13,14,15;,
 3;15,14,12;,
 3;15,12,13;,
 3;9,13,15;,
 3;9,15,10;,
 3;10,15,13;,
 3;10,13,9;,
 3;16,18,19;,
 3;16,19,17;,
 3;17,19,18;,
 3;17,18,16;,
 3;18,20,21;,
 3;18,21,19;,
 3;19,21,20;,
 3;19,20,18;,
 3;22,24,25;,
 3;22,25,23;,
 3;23,25,24;,
 3;23,24,22;,
 3;24,26,27;,
 3;24,27,25;,
 3;25,27,26;,
 3;25,26,24;,
 3;16,17,19;,
 3;16,19,18;,
 3;18,19,17;,
 3;18,17,16;,
 3;17,19,25;,
 3;17,25,23;,
 3;23,25,19;,
 3;23,19,17;,
 3;19,21,27;,
 3;19,27,25;,
 3;25,27,21;,
 3;25,21,19;,
 3;16,17,23;,
 3;16,23,22;,
 3;22,23,17;,
 3;22,17,16;,
 3;21,20,26;,
 3;21,26,27;,
 3;27,26,20;,
 3;27,20,21;,
 3;28,29,31;,
 3;28,31,30;,
 3;30,31,29;,
 3;30,29,28;,
 3;32,28,30;,
 3;32,30,34;,
 3;34,30,28;,
 3;34,28,32;,
 3;33,32,34;,
 3;33,34,35;,
 3;35,34,32;,
 3;35,32,33;,
 3;29,33,35;,
 3;29,35,30;,
 3;30,35,33;,
 3;30,33,29;,
 3;36,37,39;,
 3;36,39,38;,
 3;38,39,37;,
 3;38,37,36;,
 3;40,36,38;,
 3;40,38,42;,
 3;42,38,36;,
 3;42,36,40;,
 3;41,40,42;,
 3;41,42,43;,
 3;43,42,40;,
 3;43,40,41;,
 3;37,41,43;,
 3;37,43,38;,
 3;38,43,41;,
 3;38,41,37;,
 3;44,45,47;,
 3;44,47,46;,
 3;46,47,45;,
 3;46,45,44;,
 3;48,44,46;,
 3;48,46,50;,
 3;50,46,44;,
 3;50,44,48;,
 3;49,48,50;,
 3;49,50,51;,
 3;51,50,48;,
 3;51,48,49;,
 3;45,49,51;,
 3;45,51,46;,
 3;46,51,49;,
 3;46,49,45;,
 3;52,53,55;,
 3;52,55,54;,
 3;54,55,53;,
 3;54,53,52;,
 3;56,52,54;,
 3;56,54,58;,
 3;58,54,52;,
 3;58,52,56;,
 3;57,56,58;,
 3;57,58,59;,
 3;59,58,56;,
 3;59,56,57;,
 3;53,57,59;,
 3;53,59,54;,
 3;54,59,57;,
 3;54,57,53;,
 3;60,61,63;,
 3;60,63,62;,
 3;62,63,61;,
 3;62,61,60;,
 3;64,60,62;,
 3;64,62,66;,
 3;66,62,60;,
 3;66,60,64;,
 3;65,64,66;,
 3;65,66,67;,
 3;67,66,64;,
 3;67,64,65;,
 3;61,65,67;,
 3;61,67,62;,
 3;62,67,65;,
 3;62,65,61;,
 3;68,69,71;,
 3;68,71,70;,
 3;70,71,69;,
 3;70,69,68;,
 3;70,68,70;,
 3;70,70,74;,
 3;74,70,68;,
 3;74,68,70;,
 3;73,72,74;,
 3;73,74,75;,
 3;75,74,72;,
 3;75,72,73;,
 3;69,73,75;,
 3;69,75,70;,
 3;70,75,73;,
 3;70,73,69;,
 3;63,62,68;,
 3;63,68,69;,
 3;69,68,62;,
 3;69,62,63;,
 3;67,66,72;,
 3;67,72,73;,
 3;73,72,66;,
 3;73,66,67;,
 3;63,69,73;,
 3;63,73,67;,
 3;67,73,69;,
 3;67,69,63;,
 3;76,77,79;,
 3;76,79,78;,
 3;78,79,77;,
 3;78,77,76;,
 3;80,76,78;,
 3;80,78,82;,
 3;82,78,76;,
 3;82,76,80;,
 3;81,80,82;,
 3;81,82,83;,
 3;83,82,80;,
 3;83,80,81;,
 3;77,81,83;,
 3;77,83,78;,
 3;78,83,81;,
 3;78,81,77;,
 3;84,85,87;,
 3;84,87,86;,
 3;86,87,85;,
 3;86,85,84;,
 3;88,84,86;,
 3;88,86,90;,
 3;90,86,84;,
 3;90,84,88;,
 3;89,88,90;,
 3;89,90,91;,
 3;91,90,88;,
 3;91,88,89;,
 3;85,89,91;,
 3;85,91,86;,
 3;86,91,89;,
 3;86,89,85;,
 3;92,94,95;,
 3;92,95,93;,
 3;93,95,94;,
 3;93,94,92;,
 3;94,96,97;,
 3;94,97,95;,
 3;95,97,96;,
 3;95,96,94;,
 3;98,100,101;,
 3;98,101,99;,
 3;99,101,100;,
 3;99,100,98;,
 3;100,102,103;,
 3;100,103,101;,
 3;101,103,102;,
 3;101,102,100;,
 3;92,93,95;,
 3;92,95,94;,
 3;94,95,93;,
 3;94,93,92;,
 3;93,95,101;,
 3;93,101,99;,
 3;99,101,95;,
 3;99,95,93;,
 3;95,97,103;,
 3;95,103,101;,
 3;101,103,97;,
 3;101,97,95;,
 3;92,93,99;,
 3;92,99,98;,
 3;98,99,93;,
 3;98,93,92;,
 3;97,96,102;,
 3;97,102,103;,
 3;103,102,96;,
 3;103,96,97;,
 3;104,105,107;,
 3;104,107,106;,
 3;106,107,105;,
 3;106,105,104;,
 3;108,104,106;,
 3;108,106,110;,
 3;110,106,104;,
 3;110,104,108;,
 3;109,108,110;,
 3;109,110,111;,
 3;111,110,108;,
 3;111,108,109;,
 3;105,109,111;,
 3;105,111,106;,
 3;106,111,109;,
 3;106,109,105;,
 3;112,113,115;,
 3;112,115,114;,
 3;114,115,113;,
 3;114,113,112;,
 3;114,112,114;,
 3;114,114,118;,
 3;118,114,112;,
 3;118,112,114;,
 3;117,116,118;,
 3;117,118,119;,
 3;119,118,116;,
 3;119,116,117;,
 3;113,117,119;,
 3;113,119,114;,
 3;114,119,117;,
 3;114,117,113;,
 3;107,106,112;,
 3;107,112,113;,
 3;113,112,106;,
 3;113,106,107;,
 3;111,110,116;,
 3;111,116,117;,
 3;117,116,110;,
 3;117,110,111;,
 3;107,113,117;,
 3;107,117,111;,
 3;111,117,113;,
 3;111,113,107;,
 3;120,121,123;,
 3;120,123,122;,
 3;122,123,121;,
 3;122,121,120;,
 3;124,120,122;,
 3;124,122,126;,
 3;126,122,120;,
 3;126,120,124;,
 3;125,124,126;,
 3;125,126,127;,
 3;127,126,124;,
 3;127,124,125;,
 3;121,125,127;,
 3;121,127,122;,
 3;122,127,125;,
 3;122,125,121;,
 3;122,123,127;,
 3;122,127,126;,
 3;126,127,123;,
 3;126,123,122;,
 3;128,129,131;,
 3;128,131,130;,
 3;130,131,129;,
 3;130,129,128;,
 3;132,128,130;,
 3;132,130,134;,
 3;134,130,128;,
 3;134,128,132;,
 3;133,132,134;,
 3;133,134,135;,
 3;135,134,132;,
 3;135,132,133;,
 3;129,133,135;,
 3;129,135,130;,
 3;130,135,133;,
 3;130,133,129;,
 3;130,131,135;,
 3;130,135,134;,
 3;134,135,131;,
 3;134,131,130;,
 3;136,137,139;,
 3;136,139,138;,
 3;138,139,137;,
 3;138,137,136;,
 3;140,136,138;,
 3;140,138,142;,
 3;142,138,136;,
 3;142,136,140;,
 3;141,140,142;,
 3;141,142,143;,
 3;143,142,140;,
 3;143,140,141;,
 3;137,141,143;,
 3;137,143,138;,
 3;138,143,141;,
 3;138,141,137;,
 3;138,139,143;,
 3;138,143,142;,
 3;142,143,139;,
 3;142,139,138;,
 3;144,145,147;,
 3;144,147,146;,
 3;146,147,145;,
 3;146,145,144;,
 3;148,144,146;,
 3;148,146,150;,
 3;150,146,144;,
 3;150,144,148;,
 3;149,148,150;,
 3;149,150,151;,
 3;151,150,148;,
 3;151,148,149;,
 3;145,149,151;,
 3;145,151,146;,
 3;146,151,149;,
 3;146,149,145;,
 3;144,147,151;,
 3;144,151,150;,
 3;150,151,147;,
 3;150,147,144;,
 3;152,153,155;,
 3;152,155,154;,
 3;154,155,153;,
 3;154,153,152;,
 3;156,157,159;,
 3;156,159,158;,
 3;158,159,157;,
 3;158,157,156;,
 3;160,161,163;,
 3;160,163,162;,
 3;162,163,161;,
 3;162,161,160;,
 3;164,165,167;,
 3;164,167,166;,
 3;166,167,165;,
 3;166,165,164;,
 3;168,169,171;,
 3;168,171,170;,
 3;170,171,169;,
 3;170,169,168;,
 3;172,173,175;,
 3;172,175,174;,
 3;174,175,173;,
 3;174,173,172;,
 3;176,177,179;,
 3;176,179,178;,
 3;178,179,177;,
 3;178,177,176;,
 3;180,181,183;,
 3;180,183,182;,
 3;182,183,181;,
 3;182,181,180;,
 3;184,185,187;,
 3;184,187,186;,
 3;186,187,185;,
 3;186,185,184;,
 3;188,189,191;,
 3;188,191,190;,
 3;190,191,189;,
 3;190,189,188;,
 3;192,193,195;,
 3;192,195,194;,
 3;194,195,193;,
 3;194,193,192;,
 3;196,197,199;,
 3;196,199,198;,
 3;198,199,197;,
 3;198,197,196;,
 3;200,201,203;,
 3;200,203,202;,
 3;202,203,201;,
 3;202,201,200;,
 3;204,205,207;,
 3;204,207,206;,
 3;206,207,205;,
 3;206,205,204;,
 3;208,209,211;,
 3;208,211,210;,
 3;210,211,209;,
 3;210,209,208;,
 3;212,213,215;,
 3;212,215,214;,
 3;214,215,213;,
 3;214,213,212;,
 3;216,217,219;,
 3;216,219,218;,
 3;218,219,217;,
 3;218,217,216;,
 3;220,221,223;,
 3;220,223,222;,
 3;222,223,221;,
 3;222,221,220;,
 3;224,225,227;,
 3;224,227,226;,
 3;226,227,225;,
 3;226,225,224;,
 3;228,229,231;,
 3;228,231,230;,
 3;230,231,229;,
 3;230,229,228;,
 3;232,233,235;,
 3;232,235,234;,
 3;234,235,233;,
 3;234,233,232;,
 3;236,237,239;,
 3;236,239,238;,
 3;238,239,237;,
 3;238,237,236;,
 3;240,241,243;,
 3;240,243,242;,
 3;242,243,241;,
 3;242,241,240;,
 3;244,245,247;,
 3;244,247,246;,
 3;246,247,245;,
 3;246,245,244;,
 3;248,249,251;,
 3;248,251,250;,
 3;250,251,249;,
 3;250,249,248;,
 3;252,253,255;,
 3;252,255,254;,
 3;254,255,253;,
 3;254,253,252;,
 3;256,257,259;,
 3;256,259,258;,
 3;258,259,257;,
 3;258,257,256;,
 3;260,261,263;,
 3;260,263,262;,
 3;262,263,261;,
 3;262,261,260;,
 3;264,265,267;,
 3;264,267,266;,
 3;266,267,265;,
 3;266,265,264;,
 3;268,269,271;,
 3;268,271,270;,
 3;270,271,269;,
 3;270,269,268;,
 3;272,273,275;,
 3;272,275,274;,
 3;274,275,273;,
 3;274,273,272;,
 3;276,277,279;,
 3;276,279,278;,
 3;278,279,277;,
 3;278,277,276;,
 3;280,281,283;,
 3;280,283,282;,
 3;282,283,281;,
 3;282,281,280;,
 3;282,283,285;,
 3;282,285,284;,
 3;284,285,283;,
 3;284,283,282;,
 3;284,285,287;,
 3;284,287,286;,
 3;286,287,285;,
 3;286,285,284;,
 3;286,287,289;,
 3;286,289,288;,
 3;288,289,287;,
 3;288,287,286;,
 3;288,289,291;,
 3;288,291,290;,
 3;290,291,289;,
 3;290,289,288;,
 3;290,291,293;,
 3;290,293,292;,
 3;292,293,291;,
 3;292,291,290;,
 3;294,295,297;,
 3;294,297,296;,
 3;296,297,295;,
 3;296,295,294;,
 3;296,297,299;,
 3;296,299,298;,
 3;298,299,297;,
 3;298,297,296;,
 3;298,299,301;,
 3;298,301,300;,
 3;300,301,299;,
 3;300,299,298;,
 3;300,301,303;,
 3;300,303,302;,
 3;302,303,301;,
 3;302,301,300;,
 3;302,303,305;,
 3;302,305,304;,
 3;304,305,303;,
 3;304,303,302;,
 3;304,305,307;,
 3;304,307,306;,
 3;306,307,305;,
 3;306,305,304;;

 MeshMaterialList  {
  5;
  544;
  0,
  0,
  0,
  0,
  0,
  0,
  0,
  0,
  0,
  0,
  0,
  0,
  0,
  0,
  0,
  0,
  0,
  0,
  0,
  0,
  0,
  0,
  0,
  0,
  0,
  0,
  0,
  0,
  0,
  0,
  0,
  0,
  0,
  0,
  0,
  0,
  0,
  0,
  0,
  0,
  0,
  0,
  0,
  0,
  0,
  0,
  0,
  0,
  0,
  0,
  0,
  0,
  0,
  0,
  0,
  0,
  0,
  0,
  0,
  0,
  0,
  0,
  0,
  0,
  0,
  0,
  0,
  0,
  0,
  0,
  0,
  0,
  0,
  0,
  0,
  0,
  0,
  0,
  0,
  0,
  0,
  0,
  0,
  0,
  0,
  0,
  0,
  0,
  0,
  0,
  0,
  0,
  0,
  0,
  0,
  0,
  0,
  0,
  0,
  0,
  0,
  0,
  0,
  0,
  0,
  0,
  0,
  0,
  0,
  0,
  0,
  0,
  0,
  0,
  0,
  0,
  0,
  0,
  0,
  0,
  0,
  0,
  0,
  0,
  0,
  0,
  0,
  0,
  0,
  0,
  0,
  0,
  0,
  0,
  0,
  0,
  0,
  0,
  0,
  0,
  0,
  0,
  0,
  0,
  0,
  0,
  0,
  0,
  0,
  0,
  0,
  0,
  0,
  0,
  0,
  0,
  0,
  0,
  0,
  0,
  0,
  0,
  0,
  0,
  0,
  0,
  0,
  0,
  0,
  0,
  0,
  0,
  0,
  0,
  0,
  0,
  0,
  0,
  0,
  0,
  0,
  0,
  0,
  0,
  0,
  0,
  0,
  0,
  0,
  0,
  0,
  0,
  0,
  0,
  0,
  0,
  0,
  0,
  0,
  0,
  0,
  0,
  0,
  0,
  0,
  0,
  0,
  0,
  0,
  0,
  0,
  0,
  0,
  0,
  0,
  0,
  0,
  0,
  0,
  0,
  0,
  0,
  0,
  0,
  0,
  0,
  0,
  0,
  0,
  0,
  0,
  0,
  0,
  0,
  0,
  0,
  0,
  0,
  0,
  0,
  0,
  0,
  0,
  0,
  0,
  0,
  0,
  0,
  0,
  0,
  0,
  0,
  0,
  0,
  0,
  0,
  0,
  0,
  0,
  0,
  0,
  0,
  0,
  0,
  0,
  0,
  0,
  0,
  0,
  0,
  0,
  0,
  0,
  0,
  0,
  0,
  0,
  0,
  0,
  0,
  0,
  0,
  0,
  0,
  0,
  0,
  0,
  0,
  1,
  1,
  1,
  1,
  1,
  1,
  1,
  1,
  1,
  1,
  1,
  1,
  1,
  1,
  1,
  1,
  1,
  1,
  1,
  1,
  1,
  1,
  1,
  1,
  1,
  1,
  1,
  1,
  1,
  1,
  1,
  1,
  1,
  1,
  1,
  1,
  1,
  1,
  1,
  1,
  1,
  1,
  1,
  1,
  1,
  1,
  1,
  1,
  1,
  1,
  1,
  1,
  1,
  1,
  1,
  1,
  1,
  1,
  1,
  1,
  1,
  1,
  1,
  1,
  1,
  1,
  1,
  1,
  1,
  1,
  1,
  1,
  1,
  1,
  1,
  1,
  1,
  1,
  1,
  1,
  2,
  2,
  2,
  2,
  2,
  2,
  2,
  2,
  2,
  2,
  2,
  2,
  2,
  2,
  2,
  2,
  2,
  2,
  2,
  2,
  2,
  2,
  2,
  2,
  2,
  2,
  2,
  2,
  2,
  2,
  2,
  2,
  2,
  2,
  2,
  2,
  2,
  2,
  2,
  2,
  2,
  2,
  2,
  2,
  2,
  2,
  2,
  2,
  2,
  2,
  2,
  2,
  2,
  2,
  2,
  2,
  2,
  2,
  2,
  2,
  2,
  2,
  2,
  2,
  2,
  2,
  2,
  2,
  2,
  2,
  2,
  2,
  2,
  2,
  2,
  2,
  2,
  2,
  2,
  2,
  2,
  2,
  2,
  2,
  2,
  2,
  2,
  2,
  2,
  2,
  2,
  2,
  2,
  2,
  2,
  2,
  2,
  2,
  2,
  2,
  2,
  2,
  2,
  2,
  2,
  2,
  2,
  2,
  2,
  2,
  2,
  2,
  2,
  2,
  2,
  2,
  2,
  2,
  2,
  2,
  2,
  2,
  2,
  2,
  2,
  2,
  2,
  2,
  3,
  3,
  3,
  3,
  3,
  3,
  3,
  3,
  3,
  3,
  3,
  3,
  3,
  3,
  3,
  3,
  3,
  3,
  3,
  3,
  3,
  3,
  3,
  3,
  4,
  4,
  4,
  4,
  4,
  4,
  4,
  4,
  4,
  4,
  4,
  4,
  4,
  4,
  4,
  4,
  4,
  4,
  4,
  4,
  4,
  4,
  4,
  4;

  Material  {
   0.784314;0.784314;0.784314;1.000000;;
   0.000000;
   0.000000;0.000000;0.000000;;
   0.000000;0.000000;0.000000;;
  }

  Material  {
   0.784314;0.784314;0.784314;1.000000;;
   0.000000;
   0.000000;0.000000;0.000000;;
   0.000000;0.000000;0.000000;;
  }

  Material  {
   0.784314;0.784314;0.784314;1.000000;;
   0.000000;
   0.000000;0.000000;0.000000;;
   0.000000;0.000000;0.000000;;
  }

  Material  {
   1.000000;1.000000;1.000000;1.000000;;
   0.000000;
   0.000000;0.000000;0.000000;;
   0.000000;0.000000;0.000000;;

   TextureFilename  {
    "numazu_yane.dds";
   }
  }

  Material  {
   0.000000;0.000000;0.000000;0.250980;;
   0.000000;
   0.000000;0.000000;0.000000;;
   0.000000;0.000000;0.000000;;
  }
 }

 MeshTextureCoords  {
  308;
  0.000000;0.000000;,
  0.000000;0.000000;,
  0.000000;0.000000;,
  0.000000;0.000000;,
  0.000000;0.000000;,
  0.000000;0.000000;,
  0.000000;0.000000;,
  0.000000;0.000000;,
  0.000000;0.000000;,
  0.000000;0.000000;,
  0.000000;0.000000;,
  0.000000;0.000000;,
  0.000000;0.000000;,
  0.000000;0.000000;,
  0.000000;0.000000;,
  0.000000;0.000000;,
  0.000000;0.000000;,
  0.000000;0.000000;,
  0.000000;0.000000;,
  0.000000;0.000000;,
  0.000000;0.000000;,
  0.000000;0.000000;,
  0.000000;0.000000;,
  0.000000;0.000000;,
  0.000000;0.000000;,
  0.000000;0.000000;,
  0.000000;0.000000;,
  0.000000;0.000000;,
  0.000000;0.000000;,
  0.000000;0.000000;,
  0.000000;0.000000;,
  0.000000;0.000000;,
  0.000000;0.000000;,
  0.000000;0.000000;,
  0.000000;0.000000;,
  0.000000;0.000000;,
  0.000000;0.000000;,
  0.000000;0.000000;,
  0.000000;0.000000;,
  0.000000;0.000000;,
  0.000000;0.000000;,
  0.000000;0.000000;,
  0.000000;0.000000;,
  0.000000;0.000000;,
  0.000000;0.000000;,
  0.000000;0.000000;,
  0.000000;0.000000;,
  0.000000;0.000000;,
  0.000000;0.000000;,
  0.000000;0.000000;,
  0.000000;0.000000;,
  0.000000;0.000000;,
  0.000000;0.000000;,
  0.000000;0.000000;,
  0.000000;0.000000;,
  0.000000;0.000000;,
  0.000000;0.000000;,
  0.000000;0.000000;,
  0.000000;0.000000;,
  0.000000;0.000000;,
  0.000000;0.000000;,
  0.000000;0.000000;,
  0.000000;0.000000;,
  0.000000;0.000000;,
  0.000000;0.000000;,
  0.000000;0.000000;,
  0.000000;0.000000;,
  0.000000;0.000000;,
  0.000000;0.000000;,
  0.000000;0.000000;,
  0.000000;0.000000;,
  0.000000;0.000000;,
  0.000000;0.000000;,
  0.000000;0.000000;,
  0.000000;0.000000;,
  0.000000;0.000000;,
  0.000000;0.000000;,
  0.000000;0.000000;,
  0.000000;0.000000;,
  0.000000;0.000000;,
  0.000000;0.000000;,
  0.000000;0.000000;,
  0.000000;0.000000;,
  0.000000;0.000000;,
  0.000000;0.000000;,
  0.000000;0.000000;,
  0.000000;0.000000;,
  0.000000;0.000000;,
  0.000000;0.000000;,
  0.000000;0.000000;,
  0.000000;0.000000;,
  0.000000;0.000000;,
  0.000000;0.000000;,
  0.000000;0.000000;,
  0.000000;0.000000;,
  0.000000;0.000000;,
  0.000000;0.000000;,
  0.000000;0.000000;,
  0.000000;0.000000;,
  0.000000;0.000000;,
  0.000000;0.000000;,
  0.000000;0.000000;,
  0.000000;0.000000;,
  0.000000;0.000000;,
  0.000000;0.000000;,
  0.000000;0.000000;,
  0.000000;0.000000;,
  0.000000;0.000000;,
  0.000000;0.000000;,
  0.000000;0.000000;,
  0.000000;0.000000;,
  0.000000;0.000000;,
  0.000000;0.000000;,
  0.000000;0.000000;,
  0.000000;0.000000;,
  0.000000;0.000000;,
  0.000000;0.000000;,
  0.000000;0.000000;,
  0.000000;0.000000;,
  0.000000;0.000000;,
  0.000000;0.000000;,
  0.000000;0.000000;,
  0.000000;0.000000;,
  0.000000;0.000000;,
  0.000000;0.000000;,
  0.000000;0.000000;,
  0.000000;0.000000;,
  0.000000;0.000000;,
  0.000000;0.000000;,
  0.000000;0.000000;,
  0.000000;0.000000;,
  0.000000;0.000000;,
  0.000000;0.000000;,
  0.000000;0.000000;,
  0.000000;0.000000;,
  0.000000;0.000000;,
  0.000000;0.000000;,
  0.000000;0.000000;,
  0.000000;0.000000;,
  0.000000;0.000000;,
  0.000000;0.000000;,
  0.000000;0.000000;,
  0.000000;0.000000;,
  0.000000;0.000000;,
  0.000000;0.000000;,
  0.000000;0.000000;,
  0.000000;0.000000;,
  0.000000;0.000000;,
  0.000000;0.000000;,
  0.000000;0.000000;,
  0.000000;0.000000;,
  0.000000;0.000000;,
  0.000000;0.000000;,
  0.000000;0.000000;,
  0.000000;0.000000;,
  0.000000;0.000000;,
  0.000000;0.000000;,
  0.000000;0.000000;,
  0.000000;0.000000;,
  0.000000;0.000000;,
  0.000000;0.000000;,
  0.000000;0.000000;,
  0.000000;0.000000;,
  0.000000;0.000000;,
  0.000000;0.000000;,
  0.000000;0.000000;,
  0.000000;0.000000;,
  0.000000;0.000000;,
  0.000000;0.000000;,
  0.000000;0.000000;,
  0.000000;0.000000;,
  0.000000;0.000000;,
  0.000000;0.000000;,
  0.000000;0.000000;,
  0.000000;0.000000;,
  0.000000;0.000000;,
  0.000000;0.000000;,
  0.000000;0.000000;,
  0.000000;0.000000;,
  0.000000;0.000000;,
  0.000000;0.000000;,
  0.000000;0.000000;,
  0.000000;0.000000;,
  0.000000;0.000000;,
  0.000000;0.000000;,
  0.000000;0.000000;,
  0.000000;0.000000;,
  0.000000;0.000000;,
  0.000000;0.000000;,
  0.000000;0.000000;,
  0.000000;0.000000;,
  0.000000;0.000000;,
  0.000000;0.000000;,
  0.000000;0.000000;,
  0.000000;0.000000;,
  0.000000;0.000000;,
  0.000000;0.000000;,
  0.000000;0.000000;,
  0.000000;0.000000;,
  0.000000;0.000000;,
  0.000000;0.000000;,
  0.000000;0.000000;,
  0.000000;0.000000;,
  0.000000;0.000000;,
  0.000000;0.000000;,
  0.000000;0.000000;,
  0.000000;0.000000;,
  0.000000;0.000000;,
  0.000000;0.000000;,
  0.000000;0.000000;,
  0.000000;0.000000;,
  0.000000;0.000000;,
  0.000000;0.000000;,
  0.000000;0.000000;,
  0.000000;0.000000;,
  0.000000;0.000000;,
  0.000000;0.000000;,
  0.000000;0.000000;,
  0.000000;0.000000;,
  0.000000;0.000000;,
  0.000000;0.000000;,
  0.000000;0.000000;,
  0.000000;0.000000;,
  0.000000;0.000000;,
  0.000000;0.000000;,
  0.000000;0.000000;,
  0.000000;0.000000;,
  0.000000;0.000000;,
  0.000000;0.000000;,
  0.000000;0.000000;,
  0.000000;0.000000;,
  0.000000;0.000000;,
  0.000000;0.000000;,
  0.000000;0.000000;,
  0.000000;0.000000;,
  0.000000;0.000000;,
  0.000000;0.000000;,
  0.000000;0.000000;,
  0.000000;0.000000;,
  0.000000;0.000000;,
  0.000000;0.000000;,
  0.000000;0.000000;,
  0.000000;0.000000;,
  0.000000;0.000000;,
  0.000000;0.000000;,
  0.000000;0.000000;,
  0.000000;0.000000;,
  0.000000;0.000000;,
  0.000000;0.000000;,
  0.000000;0.000000;,
  0.000000;0.000000;,
  0.000000;0.000000;,
  0.000000;0.000000;,
  0.000000;0.000000;,
  0.000000;0.000000;,
  0.000000;0.000000;,
  0.000000;0.000000;,
  0.000000;0.000000;,
  0.000000;0.000000;,
  0.000000;0.000000;,
  0.000000;0.000000;,
  0.000000;0.000000;,
  0.000000;0.000000;,
  0.000000;0.000000;,
  0.000000;0.000000;,
  0.000000;0.000000;,
  0.000000;0.000000;,
  0.000000;0.000000;,
  0.000000;0.000000;,
  0.000000;0.000000;,
  0.000000;0.000000;,
  0.000000;0.000000;,
  0.000000;0.000000;,
  0.000000;0.000000;,
  0.000000;0.000000;,
  0.000000;0.000000;,
  0.000000;0.000000;,
  0.000000;0.000000;,
  0.000000;0.000000;,
  0.000000;0.000000;,
  0.000000;1.000000;,
  3.000000;1.000000;,
  0.000000;0.800000;,
  3.000000;0.800000;,
  0.000000;0.050000;,
  3.000000;0.050000;,
  0.000000;0.000000;,
  3.000000;0.000000;,
  0.000000;0.050000;,
  3.000000;0.050000;,
  0.000000;0.800000;,
  3.000000;0.800000;,
  0.000000;1.000000;,
  3.000000;1.000000;,
  0.000000;0.000000;,
  0.000000;0.000000;,
  0.000000;0.000000;,
  0.000000;0.000000;,
  0.000000;0.000000;,
  0.000000;0.000000;,
  0.000000;0.000000;,
  0.000000;0.000000;,
  0.000000;0.000000;,
  0.000000;0.000000;,
  0.000000;0.000000;,
  0.000000;0.000000;,
  0.000000;0.000000;,
  0.000000;0.000000;;
 }

 MeshNormals  {
  544;
  0.000000;0.000000;-1.000000;,
  0.000000;0.000000;-1.000000;,
  0.000000;0.000000;1.000000;,
  0.000000;0.000000;1.000000;,
  -1.000000;0.000000;0.000000;,
  -1.000000;0.000000;0.000000;,
  1.000000;0.000000;0.000000;,
  1.000000;0.000000;0.000000;,
  0.000000;0.000000;1.000000;,
  0.000000;0.000000;1.000000;,
  0.000000;0.000000;-1.000000;,
  0.000000;0.000000;-1.000000;,
  1.000000;0.000000;0.000000;,
  0.496006;-0.023147;-0.868010;,
  -0.496139;0.000000;0.868243;,
  -0.998913;0.046616;0.000000;,
  0.000000;0.000000;-1.000000;,
  0.000000;0.000000;-1.000000;,
  0.000000;0.000000;1.000000;,
  0.000000;0.000000;1.000000;,
  -1.000000;0.000000;0.000000;,
  -1.000000;0.000000;0.000000;,
  1.000000;0.000000;0.000000;,
  1.000000;0.000000;0.000000;,
  0.000000;0.000000;1.000000;,
  0.000000;0.000000;1.000000;,
  0.000000;0.000000;-1.000000;,
  0.000000;0.000000;-1.000000;,
  1.000000;0.000000;0.000000;,
  0.496006;-0.023147;-0.868010;,
  -0.496139;0.000000;0.868243;,
  -0.998913;0.046616;0.000000;,
  0.000000;0.000000;-1.000000;,
  0.000000;0.000000;-1.000000;,
  0.000000;0.000000;1.000000;,
  0.000000;0.000000;1.000000;,
  0.000000;0.000000;-1.000000;,
  0.000000;0.000000;-1.000000;,
  0.000000;0.000000;1.000000;,
  0.000000;0.000000;1.000000;,
  0.000000;0.000000;-1.000000;,
  0.000000;0.000000;-1.000000;,
  0.000000;0.000000;1.000000;,
  0.000000;0.000000;1.000000;,
  0.000000;0.000000;-1.000000;,
  0.000000;0.000000;-1.000000;,
  0.000000;0.000000;1.000000;,
  0.000000;0.000000;1.000000;,
  0.000000;0.000000;1.000000;,
  0.000000;0.000000;1.000000;,
  0.000000;0.000000;-1.000000;,
  0.000000;0.000000;-1.000000;,
  0.159232;-0.987241;0.000000;,
  0.159232;-0.987241;0.000000;,
  -0.159232;0.987241;0.000000;,
  -0.159232;0.987241;0.000000;,
  -0.159232;-0.987241;0.000000;,
  -0.159232;-0.987241;0.000000;,
  0.159232;0.987241;0.000000;,
  0.159232;0.987241;0.000000;,
  -1.000000;0.000000;0.000000;,
  -1.000000;0.000000;0.000000;,
  1.000000;0.000000;0.000000;,
  1.000000;0.000000;0.000000;,
  1.000000;0.000000;0.000000;,
  1.000000;0.000000;0.000000;,
  -1.000000;0.000000;0.000000;,
  -1.000000;0.000000;0.000000;,
  0.000000;0.000000;-1.000000;,
  0.000000;0.000000;-1.000000;,
  0.000000;0.000000;1.000000;,
  0.000000;0.000000;1.000000;,
  -1.000000;0.000000;0.000000;,
  -1.000000;0.000000;0.000000;,
  1.000000;0.000000;0.000000;,
  1.000000;0.000000;0.000000;,
  0.000000;0.000000;1.000000;,
  0.000000;0.000000;1.000000;,
  0.000000;0.000000;-1.000000;,
  0.000000;0.000000;-1.000000;,
  1.000000;0.000000;0.000000;,
  0.495947;-0.027773;-0.867908;,
  -0.496139;0.000000;0.868243;,
  -0.998436;0.055912;0.000000;,
  0.000000;0.000000;-1.000000;,
  0.000000;0.000000;-1.000000;,
  0.000000;0.000000;1.000000;,
  0.000000;0.000000;1.000000;,
  -1.000000;0.000000;0.000000;,
  -1.000000;0.000000;0.000000;,
  1.000000;0.000000;0.000000;,
  1.000000;0.000000;0.000000;,
  0.000000;0.000000;1.000000;,
  0.000000;0.000000;1.000000;,
  0.000000;0.000000;-1.000000;,
  0.000000;0.000000;-1.000000;,
  1.000000;0.000000;0.000000;,
  0.495948;-0.027773;-0.867908;,
  -0.496139;0.000000;0.868243;,
  -0.998436;0.055912;0.000000;,
  0.000000;0.000000;1.000000;,
  0.000000;0.000000;1.000000;,
  0.000000;0.000000;-1.000000;,
  0.000000;0.000000;-1.000000;,
  0.756823;-0.653620;0.000000;,
  0.756823;-0.653620;0.000000;,
  -0.756823;0.653620;0.000000;,
  -0.756823;0.653620;0.000000;,
  0.000000;0.000000;-1.000000;,
  0.000000;0.000000;-1.000000;,
  0.000000;0.000000;1.000000;,
  0.000000;0.000000;1.000000;,
  -0.774378;0.632723;0.000000;,
  -0.631552;0.384673;0.673178;,
  0.519023;-0.424080;-0.742140;,
  0.854049;-0.520193;0.000000;,
  0.000000;0.000000;1.000000;,
  0.000000;0.000000;-1.000000;,
  0.000000;0.000000;1.000000;,
  0.000000;0.000000;-1.000000;,
  0.860927;0.508729;0.000000;,
  0.860927;0.508729;0.000000;,
  -0.860927;-0.508729;0.000000;,
  -0.860927;-0.508729;0.000000;,
  0.000000;0.000000;-1.000000;,
  0.000000;0.000000;1.000000;,
  0.000000;0.000000;-1.000000;,
  0.000000;0.000000;1.000000;,
  -0.661355;-0.750073;0.000000;,
  -0.506120;-0.427901;-0.748828;,
  0.400785;0.454548;0.795460;,
  0.763650;0.645631;0.000000;,
  0.000000;0.000000;1.000000;,
  0.000000;0.000000;1.000000;,
  0.000000;0.000000;-1.000000;,
  0.000000;0.000000;-1.000000;,
  0.184687;-0.982797;0.000000;,
  0.184687;-0.982797;0.000000;,
  -0.184687;0.982797;0.000000;,
  -0.184687;0.982797;0.000000;,
  0.000000;0.000000;-1.000000;,
  0.000000;0.000000;-1.000000;,
  0.000000;0.000000;1.000000;,
  0.000000;0.000000;1.000000;,
  -0.234853;0.972031;0.000000;,
  -0.228570;0.608158;0.760197;,
  0.149243;-0.617699;-0.772123;,
  0.351812;-0.936071;0.000000;,
  0.000000;0.000000;1.000000;,
  0.000000;0.000000;1.000000;,
  0.000000;0.000000;-1.000000;,
  0.000000;0.000000;-1.000000;,
  0.000000;0.000000;0.000000;,
  0.000000;0.000000;0.000000;,
  0.182322;0.983239;0.000000;,
  -0.182322;-0.983239;0.000000;,
  0.000000;0.000000;-1.000000;,
  0.000000;0.000000;-1.000000;,
  0.000000;0.000000;1.000000;,
  0.000000;0.000000;1.000000;,
  0.231911;0.972737;0.000000;,
  0.026276;0.495967;0.867943;,
  -0.117466;-0.492704;-0.862232;,
  -0.052906;-0.998600;0.000000;,
  0.000000;0.000000;-1.000000;,
  0.000000;0.000000;-1.000000;,
  0.000000;0.000000;1.000000;,
  0.000000;0.000000;1.000000;,
  0.000000;0.000000;-1.000000;,
  0.000000;0.000000;-1.000000;,
  0.000000;0.000000;1.000000;,
  0.000000;0.000000;1.000000;,
  0.000000;-1.000000;0.000000;,
  0.000000;-1.000000;0.000000;,
  0.000000;1.000000;0.000000;,
  0.000000;1.000000;0.000000;,
  0.000000;0.000000;-1.000000;,
  0.000000;0.000000;-1.000000;,
  0.000000;0.000000;1.000000;,
  0.000000;0.000000;1.000000;,
  -1.000000;0.000000;0.000000;,
  -1.000000;0.000000;0.000000;,
  1.000000;0.000000;0.000000;,
  1.000000;0.000000;0.000000;,
  0.000000;0.000000;1.000000;,
  0.000000;0.000000;1.000000;,
  0.000000;0.000000;-1.000000;,
  0.000000;0.000000;-1.000000;,
  1.000000;0.000000;0.000000;,
  0.491024;-0.143215;-0.859293;,
  -0.496139;0.000000;0.868243;,
  -0.960000;0.280000;0.000000;,
  0.000000;0.000000;-1.000000;,
  0.000000;0.000000;-1.000000;,
  0.000000;0.000000;1.000000;,
  0.000000;0.000000;1.000000;,
  -1.000000;0.000000;0.000000;,
  -1.000000;0.000000;0.000000;,
  1.000000;0.000000;0.000000;,
  1.000000;0.000000;0.000000;,
  0.000000;0.000000;1.000000;,
  0.000000;0.000000;1.000000;,
  0.000000;0.000000;-1.000000;,
  0.000000;0.000000;-1.000000;,
  1.000000;0.000000;0.000000;,
  0.491024;-0.143215;-0.859293;,
  -0.496139;0.000000;0.868243;,
  -0.960000;0.280000;0.000000;,
  0.000000;0.000000;-1.000000;,
  0.000000;0.000000;-1.000000;,
  0.000000;0.000000;1.000000;,
  0.000000;0.000000;1.000000;,
  0.000000;0.000000;-1.000000;,
  0.000000;0.000000;-1.000000;,
  0.000000;0.000000;1.000000;,
  0.000000;0.000000;1.000000;,
  0.000000;0.000000;-1.000000;,
  0.000000;0.000000;-1.000000;,
  0.000000;0.000000;1.000000;,
  0.000000;0.000000;1.000000;,
  0.000000;0.000000;-1.000000;,
  0.000000;0.000000;-1.000000;,
  0.000000;0.000000;1.000000;,
  0.000000;0.000000;1.000000;,
  0.000000;0.000000;1.000000;,
  0.000000;0.000000;1.000000;,
  0.000000;0.000000;-1.000000;,
  0.000000;0.000000;-1.000000;,
  0.159232;-0.987241;0.000000;,
  0.159232;-0.987241;0.000000;,
  -0.159232;0.987241;0.000000;,
  -0.159232;0.987241;0.000000;,
  -0.159232;-0.987241;0.000000;,
  -0.159232;-0.987241;0.000000;,
  0.159232;0.987241;0.000000;,
  0.159232;0.987241;0.000000;,
  -1.000000;0.000000;0.000000;,
  -1.000000;0.000000;0.000000;,
  1.000000;0.000000;0.000000;,
  1.000000;0.000000;0.000000;,
  1.000000;0.000000;0.000000;,
  1.000000;0.000000;0.000000;,
  -1.000000;0.000000;0.000000;,
  -1.000000;0.000000;0.000000;,
  0.000000;0.000000;1.000000;,
  0.000000;0.000000;1.000000;,
  0.000000;0.000000;-1.000000;,
  0.000000;0.000000;-1.000000;,
  0.137371;-0.990520;0.000000;,
  0.137371;-0.990520;0.000000;,
  -0.137371;0.990520;0.000000;,
  -0.137371;0.990520;0.000000;,
  0.000000;0.000000;-1.000000;,
  0.000000;0.000000;-1.000000;,
  0.000000;0.000000;1.000000;,
  0.000000;0.000000;1.000000;,
  -0.152661;0.988279;0.000000;,
  -0.145714;0.618028;0.772534;,
  0.096051;-0.621807;-0.777258;,
  0.229480;-0.973313;0.000000;,
  0.000000;0.000000;1.000000;,
  0.000000;0.000000;1.000000;,
  0.000000;0.000000;-1.000000;,
  0.000000;0.000000;-1.000000;,
  0.000000;0.000000;0.000000;,
  0.000000;0.000000;0.000000;,
  0.152661;0.988279;0.000000;,
  -0.152661;-0.988279;0.000000;,
  0.000000;0.000000;-1.000000;,
  0.000000;0.000000;-1.000000;,
  0.000000;0.000000;1.000000;,
  0.000000;0.000000;1.000000;,
  0.137371;0.990520;0.000000;,
  0.048628;0.664583;0.745630;,
  -0.097245;-0.701192;-0.706310;,
  -0.072976;-0.997334;0.000000;,
  0.000000;0.000000;-1.000000;,
  0.000000;0.000000;-1.000000;,
  0.000000;0.000000;1.000000;,
  0.000000;0.000000;1.000000;,
  0.000000;0.000000;-1.000000;,
  0.000000;0.000000;-1.000000;,
  0.000000;0.000000;1.000000;,
  0.000000;0.000000;1.000000;,
  0.000000;-1.000000;0.000000;,
  0.000000;-1.000000;0.000000;,
  0.000000;1.000000;0.000000;,
  0.000000;1.000000;0.000000;,
  1.000000;0.000000;0.000000;,
  1.000000;0.000000;0.000000;,
  -1.000000;0.000000;0.000000;,
  -1.000000;0.000000;0.000000;,
  0.000000;0.000000;1.000000;,
  0.000000;0.000000;1.000000;,
  0.000000;0.000000;-1.000000;,
  0.000000;0.000000;-1.000000;,
  -1.000000;0.000000;0.000000;,
  -1.000000;0.000000;0.000000;,
  1.000000;0.000000;0.000000;,
  1.000000;0.000000;0.000000;,
  0.000000;0.000000;-1.000000;,
  0.894418;0.447209;-0.004472;,
  -0.999987;0.000000;0.005000;,
  0.000000;-0.999950;0.009999;,
  0.000000;1.000000;0.000000;,
  0.000000;1.000000;0.000000;,
  0.000000;-1.000000;0.000000;,
  0.000000;-1.000000;0.000000;,
  1.000000;0.000000;0.000000;,
  1.000000;0.000000;0.000000;,
  -1.000000;0.000000;0.000000;,
  -1.000000;0.000000;0.000000;,
  0.000000;0.000000;1.000000;,
  0.000000;0.000000;1.000000;,
  0.000000;0.000000;-1.000000;,
  0.000000;0.000000;-1.000000;,
  -1.000000;0.000000;0.000000;,
  -1.000000;0.000000;0.000000;,
  1.000000;0.000000;0.000000;,
  1.000000;0.000000;0.000000;,
  0.000000;0.000000;-1.000000;,
  0.894418;0.447209;-0.004472;,
  -0.999987;0.000000;0.005000;,
  0.000000;-0.999950;0.009999;,
  0.000000;1.000000;0.000000;,
  0.000000;1.000000;0.000000;,
  0.000000;-1.000000;0.000000;,
  0.000000;-1.000000;0.000000;,
  1.000000;0.000000;0.000000;,
  1.000000;0.000000;0.000000;,
  -1.000000;0.000000;0.000000;,
  -1.000000;0.000000;0.000000;,
  0.000000;0.000000;1.000000;,
  0.000000;0.000000;1.000000;,
  0.000000;0.000000;-1.000000;,
  0.000000;0.000000;-1.000000;,
  -1.000000;0.000000;0.000000;,
  -1.000000;0.000000;0.000000;,
  1.000000;0.000000;0.000000;,
  1.000000;0.000000;0.000000;,
  0.000000;0.000000;-1.000000;,
  0.894419;0.447207;-0.004472;,
  -0.999987;0.000000;0.005000;,
  0.000000;-0.999950;0.009999;,
  0.000000;1.000000;0.000000;,
  0.000000;1.000000;0.000000;,
  0.000000;-1.000000;0.000000;,
  0.000000;-1.000000;0.000000;,
  1.000000;0.000000;0.000000;,
  1.000000;0.000000;0.000000;,
  -1.000000;0.000000;0.000000;,
  -1.000000;0.000000;0.000000;,
  0.000000;0.000000;1.000000;,
  0.000000;0.000000;1.000000;,
  0.000000;0.000000;-1.000000;,
  0.000000;0.000000;-1.000000;,
  -1.000000;0.000000;0.000000;,
  -1.000000;0.000000;0.000000;,
  1.000000;0.000000;0.000000;,
  1.000000;0.000000;0.000000;,
  0.000000;0.000000;-1.000000;,
  0.894419;0.447207;-0.004472;,
  -0.999987;0.000000;0.005000;,
  0.000000;-0.999950;0.009999;,
  0.000000;0.999950;0.009999;,
  0.894428;0.447212;0.000000;,
  0.000000;-1.000000;0.000000;,
  -0.894419;-0.447207;-0.004472;,
  1.000000;0.000000;0.000000;,
  1.000000;0.000000;0.000000;,
  -1.000000;0.000000;0.000000;,
  -1.000000;0.000000;0.000000;,
  -1.000000;0.000000;0.000000;,
  -1.000000;0.000000;0.000000;,
  1.000000;0.000000;0.000000;,
  1.000000;0.000000;0.000000;,
  1.000000;0.000000;0.000000;,
  1.000000;0.000000;0.000000;,
  -1.000000;0.000000;0.000000;,
  -1.000000;0.000000;0.000000;,
  -1.000000;0.000000;0.000000;,
  -1.000000;0.000000;0.000000;,
  1.000000;0.000000;0.000000;,
  1.000000;0.000000;0.000000;,
  1.000000;0.000000;0.000000;,
  1.000000;0.000000;0.000000;,
  -1.000000;0.000000;0.000000;,
  -1.000000;0.000000;0.000000;,
  -1.000000;0.000000;0.000000;,
  -1.000000;0.000000;0.000000;,
  1.000000;0.000000;0.000000;,
  1.000000;0.000000;0.000000;,
  1.000000;0.000000;0.000000;,
  1.000000;0.000000;0.000000;,
  -1.000000;0.000000;0.000000;,
  -1.000000;0.000000;0.000000;,
  -1.000000;0.000000;0.000000;,
  -1.000000;0.000000;0.000000;,
  1.000000;0.000000;0.000000;,
  1.000000;0.000000;0.000000;,
  1.000000;0.000000;0.000000;,
  1.000000;0.000000;0.000000;,
  -1.000000;0.000000;0.000000;,
  -1.000000;0.000000;0.000000;,
  -1.000000;0.000000;0.000000;,
  -1.000000;0.000000;0.000000;,
  1.000000;0.000000;0.000000;,
  1.000000;0.000000;0.000000;,
  1.000000;0.000000;0.000000;,
  1.000000;0.000000;0.000000;,
  -1.000000;0.000000;0.000000;,
  -1.000000;0.000000;0.000000;,
  -1.000000;0.000000;0.000000;,
  -1.000000;0.000000;0.000000;,
  1.000000;0.000000;0.000000;,
  1.000000;0.000000;0.000000;,
  1.000000;0.000000;0.000000;,
  1.000000;0.000000;0.000000;,
  -1.000000;0.000000;0.000000;,
  -1.000000;0.000000;0.000000;,
  -1.000000;0.000000;0.000000;,
  -1.000000;0.000000;0.000000;,
  1.000000;0.000000;0.000000;,
  1.000000;0.000000;0.000000;,
  1.000000;0.000000;0.000000;,
  1.000000;0.000000;0.000000;,
  -1.000000;0.000000;0.000000;,
  -1.000000;0.000000;0.000000;,
  -1.000000;0.000000;0.000000;,
  -1.000000;0.000000;0.000000;,
  1.000000;0.000000;0.000000;,
  1.000000;0.000000;0.000000;,
  1.000000;0.000000;0.000000;,
  1.000000;0.000000;0.000000;,
  -1.000000;0.000000;0.000000;,
  -1.000000;0.000000;0.000000;,
  -1.000000;0.000000;0.000000;,
  -1.000000;0.000000;0.000000;,
  1.000000;0.000000;0.000000;,
  1.000000;0.000000;0.000000;,
  1.000000;0.000000;0.000000;,
  1.000000;0.000000;0.000000;,
  -1.000000;0.000000;0.000000;,
  -1.000000;0.000000;0.000000;,
  -1.000000;0.000000;0.000000;,
  -1.000000;0.000000;0.000000;,
  1.000000;0.000000;0.000000;,
  1.000000;0.000000;0.000000;,
  1.000000;0.000000;0.000000;,
  1.000000;0.000000;0.000000;,
  -1.000000;0.000000;0.000000;,
  -1.000000;0.000000;0.000000;,
  -1.000000;0.000000;0.000000;,
  -1.000000;0.000000;0.000000;,
  1.000000;0.000000;0.000000;,
  1.000000;0.000000;0.000000;,
  1.000000;0.000000;0.000000;,
  1.000000;0.000000;0.000000;,
  -1.000000;0.000000;0.000000;,
  -1.000000;0.000000;0.000000;,
  -1.000000;0.000000;0.000000;,
  -1.000000;0.000000;0.000000;,
  1.000000;0.000000;0.000000;,
  1.000000;0.000000;0.000000;,
  1.000000;0.000000;0.000000;,
  1.000000;0.000000;0.000000;,
  -1.000000;0.000000;0.000000;,
  -1.000000;0.000000;0.000000;,
  -1.000000;0.000000;0.000000;,
  -1.000000;0.000000;0.000000;,
  1.000000;0.000000;0.000000;,
  1.000000;0.000000;0.000000;,
  1.000000;0.000000;0.000000;,
  1.000000;0.000000;0.000000;,
  -1.000000;0.000000;0.000000;,
  -1.000000;0.000000;0.000000;,
  -1.000000;0.000000;0.000000;,
  -1.000000;0.000000;0.000000;,
  1.000000;0.000000;0.000000;,
  1.000000;0.000000;0.000000;,
  1.000000;0.000000;0.000000;,
  1.000000;0.000000;0.000000;,
  -1.000000;0.000000;0.000000;,
  -1.000000;0.000000;0.000000;,
  -1.000000;0.000000;0.000000;,
  -1.000000;0.000000;0.000000;,
  1.000000;0.000000;0.000000;,
  1.000000;0.000000;0.000000;,
  1.000000;0.000000;0.000000;,
  1.000000;0.000000;0.000000;,
  -1.000000;0.000000;0.000000;,
  -1.000000;0.000000;0.000000;,
  -1.000000;0.000000;0.000000;,
  -1.000000;0.000000;0.000000;,
  1.000000;0.000000;0.000000;,
  1.000000;0.000000;0.000000;,
  -1.000000;0.000000;0.000000;,
  -1.000000;0.000000;0.000000;,
  1.000000;0.000000;0.000000;,
  1.000000;0.000000;0.000000;,
  -0.161723;0.986836;0.000000;,
  -0.161723;0.986836;0.000000;,
  0.161723;-0.986836;0.000000;,
  0.161723;-0.986836;0.000000;,
  0.000000;1.000000;0.000000;,
  0.000000;1.000000;0.000000;,
  0.000000;-1.000000;0.000000;,
  0.000000;-1.000000;0.000000;,
  0.000000;1.000000;0.000000;,
  0.000000;1.000000;0.000000;,
  0.000000;-1.000000;0.000000;,
  0.000000;-1.000000;0.000000;,
  0.161723;0.986836;0.000000;,
  0.161723;0.986836;0.000000;,
  -0.161723;-0.986836;0.000000;,
  -0.161723;-0.986836;0.000000;,
  1.000000;0.000000;0.000000;,
  1.000000;0.000000;0.000000;,
  -1.000000;0.000000;0.000000;,
  -1.000000;0.000000;0.000000;,
  -1.000000;0.000000;0.000000;,
  -1.000000;0.000000;0.000000;,
  1.000000;0.000000;0.000000;,
  1.000000;0.000000;0.000000;,
  -0.161775;0.986828;0.000000;,
  -0.161775;0.986828;0.000000;,
  0.161775;-0.986828;0.000000;,
  0.161775;-0.986828;0.000000;,
  0.000000;1.000000;0.000000;,
  0.000000;1.000000;0.000000;,
  0.000000;-1.000000;0.000000;,
  0.000000;-1.000000;0.000000;,
  0.000000;1.000000;0.000000;,
  0.000000;1.000000;0.000000;,
  0.000000;-1.000000;0.000000;,
  0.000000;-1.000000;0.000000;,
  0.161775;0.986828;0.000000;,
  0.161775;0.986828;0.000000;,
  -0.161775;-0.986828;0.000000;,
  -0.161775;-0.986828;0.000000;,
  1.000000;0.000000;0.000000;,
  1.000000;0.000000;0.000000;,
  -1.000000;0.000000;0.000000;,
  -1.000000;0.000000;0.000000;;
  544;
  3;0,0,0;,
  3;1,1,1;,
  3;2,2,2;,
  3;3,3,3;,
  3;4,4,4;,
  3;5,5,5;,
  3;6,6,6;,
  3;7,7,7;,
  3;8,8,8;,
  3;9,9,9;,
  3;10,10,10;,
  3;11,11,11;,
  3;12,12,12;,
  3;13,13,13;,
  3;14,14,14;,
  3;15,15,15;,
  3;16,16,16;,
  3;17,17,17;,
  3;18,18,18;,
  3;19,19,19;,
  3;20,20,20;,
  3;21,21,21;,
  3;22,22,22;,
  3;23,23,23;,
  3;24,24,24;,
  3;25,25,25;,
  3;26,26,26;,
  3;27,27,27;,
  3;28,28,28;,
  3;29,29,29;,
  3;30,30,30;,
  3;31,31,31;,
  3;32,32,32;,
  3;33,33,33;,
  3;34,34,34;,
  3;35,35,35;,
  3;36,36,36;,
  3;37,37,37;,
  3;38,38,38;,
  3;39,39,39;,
  3;40,40,40;,
  3;41,41,41;,
  3;42,42,42;,
  3;43,43,43;,
  3;44,44,44;,
  3;45,45,45;,
  3;46,46,46;,
  3;47,47,47;,
  3;48,48,48;,
  3;49,49,49;,
  3;50,50,50;,
  3;51,51,51;,
  3;52,52,52;,
  3;53,53,53;,
  3;54,54,54;,
  3;55,55,55;,
  3;56,56,56;,
  3;57,57,57;,
  3;58,58,58;,
  3;59,59,59;,
  3;60,60,60;,
  3;61,61,61;,
  3;62,62,62;,
  3;63,63,63;,
  3;64,64,64;,
  3;65,65,65;,
  3;66,66,66;,
  3;67,67,67;,
  3;68,68,68;,
  3;69,69,69;,
  3;70,70,70;,
  3;71,71,71;,
  3;72,72,72;,
  3;73,73,73;,
  3;74,74,74;,
  3;75,75,75;,
  3;76,76,76;,
  3;77,77,77;,
  3;78,78,78;,
  3;79,79,79;,
  3;80,80,80;,
  3;81,81,81;,
  3;82,82,82;,
  3;83,83,83;,
  3;84,84,84;,
  3;85,85,85;,
  3;86,86,86;,
  3;87,87,87;,
  3;88,88,88;,
  3;89,89,89;,
  3;90,90,90;,
  3;91,91,91;,
  3;92,92,92;,
  3;93,93,93;,
  3;94,94,94;,
  3;95,95,95;,
  3;96,96,96;,
  3;97,97,97;,
  3;98,98,98;,
  3;99,99,99;,
  3;100,100,100;,
  3;101,101,101;,
  3;102,102,102;,
  3;103,103,103;,
  3;104,104,104;,
  3;105,105,105;,
  3;106,106,106;,
  3;107,107,107;,
  3;108,108,108;,
  3;109,109,109;,
  3;110,110,110;,
  3;111,111,111;,
  3;112,112,112;,
  3;113,113,113;,
  3;114,114,114;,
  3;115,115,115;,
  3;116,116,116;,
  3;117,117,117;,
  3;118,118,118;,
  3;119,119,119;,
  3;120,120,120;,
  3;121,121,121;,
  3;122,122,122;,
  3;123,123,123;,
  3;124,124,124;,
  3;125,125,125;,
  3;126,126,126;,
  3;127,127,127;,
  3;128,128,128;,
  3;129,129,129;,
  3;130,130,130;,
  3;131,131,131;,
  3;132,132,132;,
  3;133,133,133;,
  3;134,134,134;,
  3;135,135,135;,
  3;136,136,136;,
  3;137,137,137;,
  3;138,138,138;,
  3;139,139,139;,
  3;140,140,140;,
  3;141,141,141;,
  3;142,142,142;,
  3;143,143,143;,
  3;144,144,144;,
  3;145,145,145;,
  3;146,146,146;,
  3;147,147,147;,
  3;148,148,148;,
  3;149,149,149;,
  3;150,150,150;,
  3;151,151,151;,
  3;152,152,152;,
  3;153,153,153;,
  3;154,154,154;,
  3;155,155,155;,
  3;156,156,156;,
  3;157,157,157;,
  3;158,158,158;,
  3;159,159,159;,
  3;160,160,160;,
  3;161,161,161;,
  3;162,162,162;,
  3;163,163,163;,
  3;164,164,164;,
  3;165,165,165;,
  3;166,166,166;,
  3;167,167,167;,
  3;168,168,168;,
  3;169,169,169;,
  3;170,170,170;,
  3;171,171,171;,
  3;172,172,172;,
  3;173,173,173;,
  3;174,174,174;,
  3;175,175,175;,
  3;176,176,176;,
  3;177,177,177;,
  3;178,178,178;,
  3;179,179,179;,
  3;180,180,180;,
  3;181,181,181;,
  3;182,182,182;,
  3;183,183,183;,
  3;184,184,184;,
  3;185,185,185;,
  3;186,186,186;,
  3;187,187,187;,
  3;188,188,188;,
  3;189,189,189;,
  3;190,190,190;,
  3;191,191,191;,
  3;192,192,192;,
  3;193,193,193;,
  3;194,194,194;,
  3;195,195,195;,
  3;196,196,196;,
  3;197,197,197;,
  3;198,198,198;,
  3;199,199,199;,
  3;200,200,200;,
  3;201,201,201;,
  3;202,202,202;,
  3;203,203,203;,
  3;204,204,204;,
  3;205,205,205;,
  3;206,206,206;,
  3;207,207,207;,
  3;208,208,208;,
  3;209,209,209;,
  3;210,210,210;,
  3;211,211,211;,
  3;212,212,212;,
  3;213,213,213;,
  3;214,214,214;,
  3;215,215,215;,
  3;216,216,216;,
  3;217,217,217;,
  3;218,218,218;,
  3;219,219,219;,
  3;220,220,220;,
  3;221,221,221;,
  3;222,222,222;,
  3;223,223,223;,
  3;224,224,224;,
  3;225,225,225;,
  3;226,226,226;,
  3;227,227,227;,
  3;228,228,228;,
  3;229,229,229;,
  3;230,230,230;,
  3;231,231,231;,
  3;232,232,232;,
  3;233,233,233;,
  3;234,234,234;,
  3;235,235,235;,
  3;236,236,236;,
  3;237,237,237;,
  3;238,238,238;,
  3;239,239,239;,
  3;240,240,240;,
  3;241,241,241;,
  3;242,242,242;,
  3;243,243,243;,
  3;244,244,244;,
  3;245,245,245;,
  3;246,246,246;,
  3;247,247,247;,
  3;248,248,248;,
  3;249,249,249;,
  3;250,250,250;,
  3;251,251,251;,
  3;252,252,252;,
  3;253,253,253;,
  3;254,254,254;,
  3;255,255,255;,
  3;256,256,256;,
  3;257,257,257;,
  3;258,258,258;,
  3;259,259,259;,
  3;260,260,260;,
  3;261,261,261;,
  3;262,262,262;,
  3;263,263,263;,
  3;264,264,264;,
  3;265,265,265;,
  3;266,266,266;,
  3;267,267,267;,
  3;268,268,268;,
  3;269,269,269;,
  3;270,270,270;,
  3;271,271,271;,
  3;272,272,272;,
  3;273,273,273;,
  3;274,274,274;,
  3;275,275,275;,
  3;276,276,276;,
  3;277,277,277;,
  3;278,278,278;,
  3;279,279,279;,
  3;280,280,280;,
  3;281,281,281;,
  3;282,282,282;,
  3;283,283,283;,
  3;284,284,284;,
  3;285,285,285;,
  3;286,286,286;,
  3;287,287,287;,
  3;288,288,288;,
  3;289,289,289;,
  3;290,290,290;,
  3;291,291,291;,
  3;292,292,292;,
  3;293,293,293;,
  3;294,294,294;,
  3;295,295,295;,
  3;296,296,296;,
  3;297,297,297;,
  3;298,298,298;,
  3;299,299,299;,
  3;300,300,300;,
  3;301,301,301;,
  3;302,302,302;,
  3;303,303,303;,
  3;304,304,304;,
  3;305,305,305;,
  3;306,306,306;,
  3;307,307,307;,
  3;308,308,308;,
  3;309,309,309;,
  3;310,310,310;,
  3;311,311,311;,
  3;312,312,312;,
  3;313,313,313;,
  3;314,314,314;,
  3;315,315,315;,
  3;316,316,316;,
  3;317,317,317;,
  3;318,318,318;,
  3;319,319,319;,
  3;320,320,320;,
  3;321,321,321;,
  3;322,322,322;,
  3;323,323,323;,
  3;324,324,324;,
  3;325,325,325;,
  3;326,326,326;,
  3;327,327,327;,
  3;328,328,328;,
  3;329,329,329;,
  3;330,330,330;,
  3;331,331,331;,
  3;332,332,332;,
  3;333,333,333;,
  3;334,334,334;,
  3;335,335,335;,
  3;336,336,336;,
  3;337,337,337;,
  3;338,338,338;,
  3;339,339,339;,
  3;340,340,340;,
  3;341,341,341;,
  3;342,342,342;,
  3;343,343,343;,
  3;344,344,344;,
  3;345,345,345;,
  3;346,346,346;,
  3;347,347,347;,
  3;348,348,348;,
  3;349,349,349;,
  3;350,350,350;,
  3;351,351,351;,
  3;352,352,352;,
  3;353,353,353;,
  3;354,354,354;,
  3;355,355,355;,
  3;356,356,356;,
  3;357,357,357;,
  3;358,358,358;,
  3;359,359,359;,
  3;360,360,360;,
  3;361,361,361;,
  3;362,362,362;,
  3;363,363,363;,
  3;364,364,364;,
  3;365,365,365;,
  3;366,366,366;,
  3;367,367,367;,
  3;368,368,368;,
  3;369,369,369;,
  3;370,370,370;,
  3;371,371,371;,
  3;372,372,372;,
  3;373,373,373;,
  3;374,374,374;,
  3;375,375,375;,
  3;376,376,376;,
  3;377,377,377;,
  3;378,378,378;,
  3;379,379,379;,
  3;380,380,380;,
  3;381,381,381;,
  3;382,382,382;,
  3;383,383,383;,
  3;384,384,384;,
  3;385,385,385;,
  3;386,386,386;,
  3;387,387,387;,
  3;388,388,388;,
  3;389,389,389;,
  3;390,390,390;,
  3;391,391,391;,
  3;392,392,392;,
  3;393,393,393;,
  3;394,394,394;,
  3;395,395,395;,
  3;396,396,396;,
  3;397,397,397;,
  3;398,398,398;,
  3;399,399,399;,
  3;400,400,400;,
  3;401,401,401;,
  3;402,402,402;,
  3;403,403,403;,
  3;404,404,404;,
  3;405,405,405;,
  3;406,406,406;,
  3;407,407,407;,
  3;408,408,408;,
  3;409,409,409;,
  3;410,410,410;,
  3;411,411,411;,
  3;412,412,412;,
  3;413,413,413;,
  3;414,414,414;,
  3;415,415,415;,
  3;416,416,416;,
  3;417,417,417;,
  3;418,418,418;,
  3;419,419,419;,
  3;420,420,420;,
  3;421,421,421;,
  3;422,422,422;,
  3;423,423,423;,
  3;424,424,424;,
  3;425,425,425;,
  3;426,426,426;,
  3;427,427,427;,
  3;428,428,428;,
  3;429,429,429;,
  3;430,430,430;,
  3;431,431,431;,
  3;432,432,432;,
  3;433,433,433;,
  3;434,434,434;,
  3;435,435,435;,
  3;436,436,436;,
  3;437,437,437;,
  3;438,438,438;,
  3;439,439,439;,
  3;440,440,440;,
  3;441,441,441;,
  3;442,442,442;,
  3;443,443,443;,
  3;444,444,444;,
  3;445,445,445;,
  3;446,446,446;,
  3;447,447,447;,
  3;448,448,448;,
  3;449,449,449;,
  3;450,450,450;,
  3;451,451,451;,
  3;452,452,452;,
  3;453,453,453;,
  3;454,454,454;,
  3;455,455,455;,
  3;456,456,456;,
  3;457,457,457;,
  3;458,458,458;,
  3;459,459,459;,
  3;460,460,460;,
  3;461,461,461;,
  3;462,462,462;,
  3;463,463,463;,
  3;464,464,464;,
  3;465,465,465;,
  3;466,466,466;,
  3;467,467,467;,
  3;468,468,468;,
  3;469,469,469;,
  3;470,470,470;,
  3;471,471,471;,
  3;472,472,472;,
  3;473,473,473;,
  3;474,474,474;,
  3;475,475,475;,
  3;476,476,476;,
  3;477,477,477;,
  3;478,478,478;,
  3;479,479,479;,
  3;480,480,480;,
  3;481,481,481;,
  3;482,482,482;,
  3;483,483,483;,
  3;484,484,484;,
  3;485,485,485;,
  3;486,486,486;,
  3;487,487,487;,
  3;488,488,488;,
  3;489,489,489;,
  3;490,490,490;,
  3;491,491,491;,
  3;492,492,492;,
  3;493,493,493;,
  3;494,494,494;,
  3;495,495,495;,
  3;496,496,496;,
  3;497,497,497;,
  3;498,498,498;,
  3;499,499,499;,
  3;500,500,500;,
  3;501,501,501;,
  3;502,502,502;,
  3;503,503,503;,
  3;504,504,504;,
  3;505,505,505;,
  3;506,506,506;,
  3;507,507,507;,
  3;508,508,508;,
  3;509,509,509;,
  3;510,510,510;,
  3;511,511,511;,
  3;512,512,512;,
  3;513,513,513;,
  3;514,514,514;,
  3;515,515,515;,
  3;516,516,516;,
  3;517,517,517;,
  3;518,518,518;,
  3;519,519,519;,
  3;520,520,520;,
  3;521,521,521;,
  3;522,522,522;,
  3;523,523,523;,
  3;524,524,524;,
  3;525,525,525;,
  3;526,526,526;,
  3;527,527,527;,
  3;528,528,528;,
  3;529,529,529;,
  3;530,530,530;,
  3;531,531,531;,
  3;532,532,532;,
  3;533,533,533;,
  3;534,534,534;,
  3;535,535,535;,
  3;536,536,536;,
  3;537,537,537;,
  3;538,538,538;,
  3;539,539,539;,
  3;540,540,540;,
  3;541,541,541;,
  3;542,542,542;,
  3;543,543,543;;
 }
}