xof 0303txt 0032
template Vector {
 <3d82ab5e-62da-11cf-ab39-0020af71e433>
 FLOAT x;
 FLOAT y;
 FLOAT z;
}

template MeshFace {
 <3d82ab5f-62da-11cf-ab39-0020af71e433>
 DWORD nFaceVertexIndices;
 array DWORD faceVertexIndices[nFaceVertexIndices];
}

template Mesh {
 <3d82ab44-62da-11cf-ab39-0020af71e433>
 DWORD nVertices;
 array Vector vertices[nVertices];
 DWORD nFaces;
 array MeshFace faces[nFaces];
 [...]
}

template ColorRGBA {
 <35ff44e0-6c7c-11cf-8f52-0040333594a3>
 FLOAT red;
 FLOAT green;
 FLOAT blue;
 FLOAT alpha;
}

template ColorRGB {
 <d3e16e81-7835-11cf-8f52-0040333594a3>
 FLOAT red;
 FLOAT green;
 FLOAT blue;
}

template Material {
 <3d82ab4d-62da-11cf-ab39-0020af71e433>
 ColorRGBA faceColor;
 FLOAT power;
 ColorRGB specularColor;
 ColorRGB emissiveColor;
 [...]
}

template MeshMaterialList {
 <f6f23f42-7686-11cf-8f52-0040333594a3>
 DWORD nMaterials;
 DWORD nFaceIndexes;
 array DWORD faceIndexes[nFaceIndexes];
 [Material <3d82ab4d-62da-11cf-ab39-0020af71e433>]
}

template TextureFilename {
 <a42790e1-7810-11cf-8f52-0040333594a3>
 STRING filename;
}

template Coords2d {
 <f6f23f44-7686-11cf-8f52-0040333594a3>
 FLOAT u;
 FLOAT v;
}

template MeshTextureCoords {
 <f6f23f40-7686-11cf-8f52-0040333594a3>
 DWORD nTextureCoords;
 array Coords2d textureCoords[nTextureCoords];
}

template MeshNormals {
 <f6f23f43-7686-11cf-8f52-0040333594a3>
 DWORD nNormals;
 array Vector normals[nNormals];
 DWORD nFaceNormals;
 array MeshFace faceNormals[nFaceNormals];
}


Mesh  {
 182;
 -23.700001;9.300000;1.500000;,
 -23.700001;8.300000;0.000000;,
 81.500000;9.300000;1.500000;,
 81.500000;8.300000;0.000000;,
 -23.700001;8.300000;0.000000;,
 -23.700001;3.300000;-7.500000;,
 -17.700001;8.300000;0.000000;,
 -17.700001;3.300000;-7.500000;,
 -8.700000;8.300000;0.000000;,
 -8.700000;3.300000;-7.500000;,
 -2.700000;8.300000;0.000000;,
 -2.700000;3.300000;-7.500000;,
 6.500000;8.300000;0.000000;,
 6.500000;3.300000;-7.500000;,
 12.500000;8.300000;0.000000;,
 12.500000;3.300000;-7.500000;,
 25.500000;8.300000;0.000000;,
 25.500000;3.300000;-7.500000;,
 29.500000;8.300000;0.000000;,
 29.500000;3.300000;-7.500000;,
 77.500000;8.300000;0.000000;,
 77.500000;2.300000;-9.000000;,
 81.500000;8.300000;0.000000;,
 81.500000;2.300000;-9.000000;,
 -20.700001;6.000000;0.000000;,
 -20.700001;6.000000;3.000000;,
 57.500000;6.000000;0.000000;,
 57.500000;6.000000;3.000000;,
 -17.700001;8.000000;0.000000;,
 -17.700001;6.000000;0.000000;,
 -8.700000;8.000000;0.000000;,
 -8.700000;6.000000;0.000000;,
 -2.700000;8.000000;0.000000;,
 -2.700000;6.000000;0.000000;,
 1.900000;8.000000;0.000000;,
 1.900000;6.000000;0.000000;,
 6.500000;8.000000;0.000000;,
 6.500000;6.000000;0.000000;,
 12.500000;8.000000;0.000000;,
 12.500000;6.000000;0.000000;,
 19.000000;8.000000;0.000000;,
 19.000000;6.000000;0.000000;,
 25.500000;8.000000;0.000000;,
 25.500000;6.000000;0.000000;,
 29.500000;8.000000;0.000000;,
 29.500000;6.000000;0.000000;,
 35.500000;8.000000;0.000000;,
 35.500000;6.000000;0.000000;,
 41.500000;8.000000;0.000000;,
 41.500000;6.000000;0.000000;,
 48.500000;8.000000;0.000000;,
 48.500000;6.000000;0.000000;,
 57.500000;8.000000;0.000000;,
 57.500000;6.000000;0.000000;,
 67.500000;8.000000;0.000000;,
 67.500000;6.000000;0.000000;,
 77.500000;8.000000;0.000000;,
 77.500000;6.000000;0.000000;,
 -20.700001;8.300000;0.000000;,
 -20.700001;8.000000;0.000000;,
 81.500000;8.300000;0.000000;,
 81.500000;8.000000;0.000000;,
 -23.700001;3.400000;-7.500000;,
 -23.700001;1.100000;-7.500000;,
 -23.700001;8.300000;0.000000;,
 -23.700001;6.000000;0.000000;,
 -17.700001;3.400000;-7.500000;,
 -17.700001;1.100000;-7.500000;,
 -17.700001;8.300000;0.000000;,
 -17.700001;6.000000;0.000000;,
 -8.700000;3.400000;-7.500000;,
 -8.700000;1.100000;-7.500000;,
 -8.700000;8.300000;0.000000;,
 -8.700000;6.000000;0.000000;,
 -2.700000;3.400000;-7.500000;,
 -2.700000;1.100000;-7.500000;,
 -2.700000;8.300000;0.000000;,
 -2.700000;6.000000;0.000000;,
 6.500000;3.400000;-7.500000;,
 6.500000;1.100000;-7.500000;,
 6.500000;8.300000;0.000000;,
 6.500000;6.000000;0.000000;,
 12.500000;3.400000;-7.500000;,
 12.500000;1.100000;-7.500000;,
 12.500000;8.300000;0.000000;,
 12.500000;6.000000;0.000000;,
 25.500000;3.400000;-7.500000;,
 25.500000;1.100000;-7.500000;,
 25.500000;8.300000;0.000000;,
 25.500000;6.000000;0.000000;,
 29.500000;3.400000;-7.500000;,
 29.500000;1.100000;-7.500000;,
 29.500000;8.300000;0.000000;,
 29.500000;6.000000;0.000000;,
 77.500000;2.300000;-9.000000;,
 77.500000;0.000000;-9.000000;,
 77.500000;8.300000;0.000000;,
 77.500000;6.000000;0.000000;,
 81.500000;2.300000;-9.000000;,
 81.500000;0.000000;-9.000000;,
 81.500000;8.300000;0.000000;,
 81.500000;6.000000;0.000000;,
 73.500000;8.300000;-5.500000;,
 73.500000;6.000000;-5.500000;,
 57.500000;8.300000;0.000000;,
 57.500000;6.000000;0.000000;,
 -23.700001;6.100000;0.000000;,
 -23.700001;1.100000;-7.500000;,
 -17.700001;6.100000;0.000000;,
 -17.700001;1.100000;-7.500000;,
 -8.700000;6.100000;0.000000;,
 -8.700000;1.100000;-7.500000;,
 -2.700000;6.100000;0.000000;,
 -2.700000;1.100000;-7.500000;,
 6.500000;6.100000;0.000000;,
 6.500000;1.100000;-7.500000;,
 12.500000;6.100000;0.000000;,
 12.500000;1.100000;-7.500000;,
 25.500000;6.100000;0.000000;,
 25.500000;1.100000;-7.500000;,
 29.500000;6.100000;0.000000;,
 29.500000;1.100000;-7.500000;,
 -14.700000;8.699999;-3.000000;,
 -14.700000;1.100000;-3.000000;,
 -17.699999;1.100000;-3.000000;,
 -17.699999;8.699999;-3.000000;,
 -14.700000;8.699999;0.000000;,
 -14.700000;1.100000;0.000000;,
 -17.699999;1.100000;0.000000;,
 -17.699999;8.699999;0.000000;,
 -3.700000;8.699999;3.001000;,
 -3.700000;1.100000;3.001000;,
 -7.699999;1.100000;3.001000;,
 -7.699999;8.699999;3.001000;,
 -3.700000;8.699999;6.000999;,
 -3.700000;1.100000;6.000999;,
 -7.699999;1.100000;6.000999;,
 -7.699999;8.699999;6.000999;,
 11.499999;8.699999;3.001000;,
 11.499999;1.100000;3.001000;,
 7.500000;1.100000;3.001000;,
 7.500000;8.699999;3.001000;,
 11.499999;8.699999;6.000999;,
 11.499999;1.100000;6.000999;,
 7.500000;1.100000;6.000999;,
 7.500000;8.699999;6.000999;,
 29.499998;8.699999;3.001000;,
 29.499998;1.100000;3.001000;,
 25.499998;1.100000;3.001000;,
 25.499998;8.699999;3.001000;,
 29.499998;8.699999;6.000999;,
 29.499998;1.100000;6.000999;,
 25.499998;1.100000;6.000999;,
 25.499998;8.699999;6.000999;,
 76.499992;8.699999;-8.499999;,
 76.499992;0.000000;-8.499999;,
 73.499992;0.000000;-8.499999;,
 73.499992;8.699999;-8.499999;,
 76.499992;8.699999;-5.500000;,
 76.499992;0.000000;-5.500000;,
 73.499992;0.000000;-5.500000;,
 73.499992;8.699999;-5.500000;,
 -19.700001;4.100000;3.000000;,
 -19.700001;1.100000;3.000000;,
 -15.700000;4.100000;3.000000;,
 -15.700000;1.100000;3.000000;,
 -7.700000;4.100000;3.000000;,
 -7.700000;1.100000;3.000000;,
 -3.700000;4.100000;3.000000;,
 -3.700000;1.100000;3.000000;,
 7.500000;4.100000;3.000000;,
 7.500000;1.100000;3.000000;,
 11.500000;4.100000;3.000000;,
 11.500000;1.100000;3.000000;,
 25.500000;4.100000;3.000000;,
 25.500000;1.100000;3.000000;,
 29.500000;4.100000;3.000000;,
 29.500000;1.100000;3.000000;,
 57.500000;3.000000;3.000000;,
 57.500000;0.000000;3.000000;,
 61.500000;3.000000;3.000000;,
 61.500000;0.000000;3.000000;;
 180;
 3;0,2,3;,
 3;0,3,1;,
 3;1,3,2;,
 3;1,2,0;,
 3;4,6,7;,
 3;4,7,5;,
 3;5,7,6;,
 3;5,6,4;,
 3;8,10,11;,
 3;8,11,9;,
 3;9,11,10;,
 3;9,10,8;,
 3;12,14,15;,
 3;12,15,13;,
 3;13,15,14;,
 3;13,14,12;,
 3;16,18,19;,
 3;16,19,17;,
 3;17,19,18;,
 3;17,18,16;,
 3;20,22,23;,
 3;20,23,21;,
 3;21,23,22;,
 3;21,22,20;,
 3;24,26,27;,
 3;24,27,25;,
 3;28,30,31;,
 3;28,31,29;,
 3;32,34,35;,
 3;32,35,33;,
 3;34,36,37;,
 3;34,37,35;,
 3;38,40,41;,
 3;38,41,39;,
 3;40,42,43;,
 3;40,43,41;,
 3;44,46,47;,
 3;44,47,45;,
 3;46,48,49;,
 3;46,49,47;,
 3;48,50,51;,
 3;48,51,49;,
 3;50,52,53;,
 3;50,53,51;,
 3;52,54,55;,
 3;52,55,53;,
 3;54,56,57;,
 3;54,57,55;,
 3;58,60,61;,
 3;58,61,59;,
 3;59,61,60;,
 3;59,60,58;,
 3;62,64,65;,
 3;62,65,63;,
 3;63,65,64;,
 3;63,64,62;,
 3;66,68,69;,
 3;66,69,67;,
 3;67,69,68;,
 3;67,68,66;,
 3;70,72,73;,
 3;70,73,71;,
 3;71,73,72;,
 3;71,72,70;,
 3;74,76,77;,
 3;74,77,75;,
 3;75,77,76;,
 3;75,76,74;,
 3;78,80,81;,
 3;78,81,79;,
 3;79,81,80;,
 3;79,80,78;,
 3;82,84,85;,
 3;82,85,83;,
 3;83,85,84;,
 3;83,84,82;,
 3;86,88,89;,
 3;86,89,87;,
 3;87,89,88;,
 3;87,88,86;,
 3;90,92,93;,
 3;90,93,91;,
 3;91,93,92;,
 3;91,92,90;,
 3;94,96,97;,
 3;94,97,95;,
 3;95,97,96;,
 3;95,96,94;,
 3;98,100,101;,
 3;98,101,99;,
 3;99,101,100;,
 3;99,100,98;,
 3;102,104,105;,
 3;102,105,103;,
 3;103,105,104;,
 3;103,104,102;,
 3;106,108,109;,
 3;106,109,107;,
 3;107,109,108;,
 3;107,108,106;,
 3;110,112,113;,
 3;110,113,111;,
 3;111,113,112;,
 3;111,112,110;,
 3;114,116,117;,
 3;114,117,115;,
 3;115,117,116;,
 3;115,116,114;,
 3;118,120,121;,
 3;118,121,119;,
 3;119,121,120;,
 3;119,120,118;,
 3;122,123,124;,
 3;122,124,125;,
 3;125,124,128;,
 3;125,128,129;,
 3;129,128,127;,
 3;129,127,126;,
 3;126,127,123;,
 3;126,123,122;,
 3;122,125,129;,
 3;122,129,126;,
 3;123,127,128;,
 3;123,128,124;,
 3;130,131,132;,
 3;130,132,133;,
 3;133,132,136;,
 3;133,136,137;,
 3;137,136,135;,
 3;137,135,134;,
 3;134,135,131;,
 3;134,131,130;,
 3;130,133,137;,
 3;130,137,134;,
 3;131,135,136;,
 3;131,136,132;,
 3;138,139,140;,
 3;138,140,141;,
 3;141,140,144;,
 3;141,144,145;,
 3;145,144,143;,
 3;145,143,142;,
 3;142,143,139;,
 3;142,139,138;,
 3;138,141,145;,
 3;138,145,142;,
 3;139,143,144;,
 3;139,144,140;,
 3;146,147,148;,
 3;146,148,149;,
 3;149,148,152;,
 3;149,152,153;,
 3;153,152,151;,
 3;153,151,150;,
 3;150,151,147;,
 3;150,147,146;,
 3;146,149,153;,
 3;146,153,150;,
 3;147,151,152;,
 3;147,152,148;,
 3;154,155,156;,
 3;154,156,157;,
 3;157,156,160;,
 3;157,160,161;,
 3;161,160,159;,
 3;161,159,158;,
 3;158,159,155;,
 3;158,155,154;,
 3;154,157,161;,
 3;154,161,158;,
 3;155,159,160;,
 3;155,160,156;,
 3;162,163,165;,
 3;162,165,164;,
 3;166,168,169;,
 3;166,169,167;,
 3;170,172,173;,
 3;170,173,171;,
 3;174,176,177;,
 3;174,177,175;;

 MeshMaterialList  {
  12;
  180;
  0,
  0,
  0,
  0,
  0,
  0,
  0,
  0,
  0,
  0,
  0,
  0,
  0,
  0,
  0,
  0,
  0,
  0,
  0,
  0,
  0,
  0,
  0,
  0,
  1,
  1,
  2,
  2,
  2,
  2,
  2,
  2,
  2,
  2,
  2,
  2,
  2,
  2,
  2,
  2,
  2,
  2,
  2,
  2,
  2,
  2,
  2,
  2,
  3,
  3,
  3,
  3,
  4,
  4,
  4,
  4,
  4,
  4,
  4,
  4,
  4,
  4,
  4,
  4,
  4,
  4,
  4,
  4,
  4,
  4,
  4,
  4,
  4,
  4,
  4,
  4,
  4,
  4,
  4,
  4,
  4,
  4,
  4,
  4,
  4,
  4,
  4,
  4,
  4,
  4,
  4,
  4,
  4,
  4,
  4,
  4,
  5,
  5,
  5,
  5,
  5,
  5,
  5,
  5,
  5,
  5,
  5,
  5,
  5,
  5,
  5,
  5,
  6,
  6,
  6,
  6,
  6,
  6,
  6,
  6,
  6,
  6,
  6,
  6,
  7,
  7,
  7,
  7,
  7,
  7,
  7,
  7,
  7,
  7,
  7,
  7,
  8,
  8,
  8,
  8,
  8,
  8,
  8,
  8,
  8,
  8,
  8,
  8,
  9,
  9,
  9,
  9,
  9,
  9,
  9,
  9,
  9,
  9,
  9,
  9,
  10,
  10,
  10,
  10,
  10,
  10,
  10,
  10,
  10,
  10,
  10,
  10,
  11,
  11,
  11,
  11,
  11,
  11,
  11,
  11;

  Material  {
   0.360784;0.360784;0.360784;1.000000;;
   0.000000;
   0.000000;0.000000;0.000000;;
   0.000000;0.000000;0.000000;;
  }

  Material  {
   1.000000;1.000000;1.000000;1.000000;;
   0.000000;
   0.000000;0.000000;0.000000;;
   0.000000;0.000000;0.000000;;

   TextureFilename  {
    "CA03_tsuro2.dds";
   }
  }

  Material  {
   1.000000;1.000000;1.000000;1.000000;;
   0.000000;
   0.000000;0.000000;0.000000;;
   0.000000;0.000000;0.000000;;

   TextureFilename  {
    "CA03_tsuro1.dds";
   }
  }

  Material  {
   0.725490;0.725490;0.647059;1.000000;;
   0.000000;
   0.000000;0.000000;0.000000;;
   0.000000;0.000000;0.000000;;
  }

  Material  {
   1.000000;1.000000;1.000000;1.000000;;
   0.000000;
   0.000000;0.000000;0.000000;;
   0.000000;0.000000;0.000000;;

   TextureFilename  {
    "CA03_tsuro3.dds";
   }
  }

  Material  {
   0.360784;0.360784;0.360784;1.000000;;
   0.000000;
   0.000000;0.000000;0.000000;;
   0.000000;0.000000;0.000000;;

   TextureFilename  {
    "Kaidan.dds";
   }
  }

  Material  {
   0.745098;0.745098;0.705882;1.000000;;
   0.000000;
   0.000000;0.000000;0.000000;;
   0.000000;0.000000;0.000000;;
  }

  Material  {
   0.509804;0.490196;0.392157;1.000000;;
   0.000000;
   0.000000;0.000000;0.000000;;
   0.000000;0.000000;0.000000;;
  }

  Material  {
   0.509804;0.490196;0.392157;1.000000;;
   0.000000;
   0.000000;0.000000;0.000000;;
   0.000000;0.000000;0.000000;;
  }

  Material  {
   0.509804;0.490196;0.392157;1.000000;;
   0.000000;
   0.000000;0.000000;0.000000;;
   0.000000;0.000000;0.000000;;
  }

  Material  {
   0.745098;0.745098;0.705882;1.000000;;
   0.000000;
   0.000000;0.000000;0.000000;;
   0.000000;0.000000;0.000000;;
  }

  Material  {
   1.000000;1.000000;1.000000;1.000000;;
   0.000000;
   0.000000;0.000000;0.000000;;
   0.000000;0.000000;0.000000;;

   TextureFilename  {
    "CA03_EV.dds";
   }
  }
 }

 MeshTextureCoords  {
  182;
  0.000000;0.000000;,
  0.000000;0.000000;,
  0.000000;0.000000;,
  0.000000;0.000000;,
  0.000000;0.000000;,
  0.000000;0.000000;,
  0.000000;0.000000;,
  0.000000;0.000000;,
  0.000000;0.000000;,
  0.000000;0.000000;,
  0.000000;0.000000;,
  0.000000;0.000000;,
  0.000000;0.000000;,
  0.000000;0.000000;,
  0.000000;0.000000;,
  0.000000;0.000000;,
  0.000000;0.000000;,
  0.000000;0.000000;,
  0.000000;0.000000;,
  0.000000;0.000000;,
  0.000000;0.000000;,
  0.000000;0.000000;,
  0.000000;0.000000;,
  0.000000;0.000000;,
  0.000000;0.000000;,
  0.000000;1.000000;,
  30.000000;0.000000;,
  30.000000;1.000000;,
  1.000000;0.000000;,
  1.000000;1.000000;,
  0.000000;0.000000;,
  0.000000;1.000000;,
  0.000000;0.000000;,
  0.000000;1.000000;,
  1.000000;0.000000;,
  1.000000;1.000000;,
  0.000000;0.000000;,
  0.000000;1.000000;,
  0.000000;0.000000;,
  0.000000;1.000000;,
  1.000000;0.000000;,
  1.000000;1.000000;,
  0.000000;0.000000;,
  0.000000;1.000000;,
  0.000000;0.000000;,
  0.000000;1.000000;,
  1.000000;0.000000;,
  1.000000;1.000000;,
  0.000000;0.000000;,
  0.000000;1.000000;,
  1.000000;0.000000;,
  1.000000;1.000000;,
  0.000000;0.000000;,
  0.000000;1.000000;,
  1.000000;0.000000;,
  1.000000;1.000000;,
  0.000000;0.000000;,
  0.000000;1.000000;,
  0.000000;0.000000;,
  0.000000;0.000000;,
  0.000000;0.000000;,
  0.000000;0.000000;,
  0.000000;0.000000;,
  0.000000;1.000000;,
  5.000000;0.000000;,
  5.000000;1.000000;,
  0.000000;0.000000;,
  0.000000;1.000000;,
  5.000000;0.000000;,
  5.000000;1.000000;,
  0.000000;0.000000;,
  0.000000;1.000000;,
  5.000000;0.000000;,
  5.000000;1.000000;,
  0.000000;0.000000;,
  0.000000;1.000000;,
  5.000000;0.000000;,
  5.000000;1.000000;,
  0.000000;0.000000;,
  0.000000;1.000000;,
  5.000000;0.000000;,
  5.000000;1.000000;,
  0.000000;0.000000;,
  0.000000;1.000000;,
  5.000000;0.000000;,
  5.000000;1.000000;,
  0.000000;0.000000;,
  0.000000;1.000000;,
  5.000000;0.000000;,
  5.000000;1.000000;,
  0.000000;0.000000;,
  0.000000;1.000000;,
  5.000000;0.000000;,
  5.000000;1.000000;,
  0.000000;0.000000;,
  0.000000;1.000000;,
  6.000000;0.000000;,
  6.000000;1.000000;,
  0.000000;0.000000;,
  0.000000;1.000000;,
  6.000000;0.000000;,
  6.000000;1.000000;,
  0.000000;0.000000;,
  0.000000;1.000000;,
  6.000000;0.000000;,
  6.000000;1.000000;,
  0.000000;0.000000;,
  0.000000;1.000000;,
  1.000000;0.000000;,
  1.000000;1.000000;,
  0.000000;0.000000;,
  0.000000;1.000000;,
  1.000000;0.000000;,
  1.000000;1.000000;,
  0.000000;0.000000;,
  0.000000;1.000000;,
  1.000000;0.000000;,
  1.000000;1.000000;,
  0.000000;0.000000;,
  0.000000;1.000000;,
  1.000000;0.000000;,
  1.000000;1.000000;,
  0.000000;0.000000;,
  0.000000;0.000000;,
  0.000000;0.000000;,
  0.000000;0.000000;,
  0.000000;0.000000;,
  0.000000;0.000000;,
  0.000000;0.000000;,
  0.000000;0.000000;,
  0.000000;0.000000;,
  0.000000;0.000000;,
  0.000000;0.000000;,
  0.000000;0.000000;,
  0.000000;0.000000;,
  0.000000;0.000000;,
  0.000000;0.000000;,
  0.000000;0.000000;,
  0.000000;0.000000;,
  0.000000;0.000000;,
  0.000000;0.000000;,
  0.000000;0.000000;,
  0.000000;0.000000;,
  0.000000;0.000000;,
  0.000000;0.000000;,
  0.000000;0.000000;,
  0.000000;0.000000;,
  0.000000;0.000000;,
  0.000000;0.000000;,
  0.000000;0.000000;,
  0.000000;0.000000;,
  0.000000;0.000000;,
  0.000000;0.000000;,
  0.000000;0.000000;,
  0.000000;0.000000;,
  0.000000;0.000000;,
  0.000000;0.000000;,
  0.000000;0.000000;,
  0.000000;0.000000;,
  0.000000;0.000000;,
  0.000000;0.000000;,
  0.000000;0.000000;,
  0.000000;0.000000;,
  0.000000;1.000000;,
  1.000000;0.000000;,
  1.000000;1.000000;,
  0.000000;0.000000;,
  0.000000;1.000000;,
  1.000000;0.000000;,
  1.000000;1.000000;,
  0.000000;0.000000;,
  0.000000;1.000000;,
  1.000000;0.000000;,
  1.000000;1.000000;,
  0.000000;0.000000;,
  0.000000;1.000000;,
  1.000000;0.000000;,
  1.000000;1.000000;,
  0.000000;0.000000;,
  0.000000;0.000000;,
  0.000000;0.000000;,
  0.000000;0.000000;;
 }

 MeshNormals  {
  180;
  0.000000;0.832050;-0.554700;,
  0.000000;0.832050;-0.554700;,
  0.000000;-0.832050;0.554700;,
  0.000000;-0.832050;0.554700;,
  0.000000;0.832050;-0.554700;,
  0.000000;0.832050;-0.554700;,
  0.000000;-0.832050;0.554700;,
  0.000000;-0.832050;0.554700;,
  0.000000;0.832050;-0.554700;,
  0.000000;0.832050;-0.554700;,
  0.000000;-0.832050;0.554700;,
  0.000000;-0.832050;0.554700;,
  0.000000;0.832050;-0.554700;,
  0.000000;0.832050;-0.554700;,
  0.000000;-0.832050;0.554700;,
  0.000000;-0.832050;0.554700;,
  0.000000;0.832050;-0.554700;,
  0.000000;0.832050;-0.554700;,
  0.000000;-0.832050;0.554700;,
  0.000000;-0.832050;0.554700;,
  0.000000;0.832050;-0.554700;,
  0.000000;0.832050;-0.554700;,
  0.000000;-0.832050;0.554700;,
  0.000000;-0.832050;0.554700;,
  0.000000;-1.000000;0.000000;,
  0.000000;-1.000000;0.000000;,
  0.000000;0.000000;-1.000000;,
  0.000000;0.000000;-1.000000;,
  0.000000;0.000000;-1.000000;,
  0.000000;0.000000;-1.000000;,
  0.000000;0.000000;-1.000000;,
  0.000000;0.000000;-1.000000;,
  0.000000;0.000000;-1.000000;,
  0.000000;0.000000;-1.000000;,
  0.000000;0.000000;-1.000000;,
  0.000000;0.000000;-1.000000;,
  0.000000;0.000000;-1.000000;,
  0.000000;0.000000;-1.000000;,
  0.000000;0.000000;-1.000000;,
  0.000000;0.000000;-1.000000;,
  0.000000;0.000000;-1.000000;,
  0.000000;0.000000;-1.000000;,
  0.000000;0.000000;-1.000000;,
  0.000000;0.000000;-1.000000;,
  0.000000;0.000000;-1.000000;,
  0.000000;0.000000;-1.000000;,
  0.000000;0.000000;-1.000000;,
  0.000000;0.000000;-1.000000;,
  0.000000;0.000000;-1.000000;,
  0.000000;0.000000;-1.000000;,
  0.000000;0.000000;1.000000;,
  0.000000;0.000000;1.000000;,
  1.000000;0.000000;0.000000;,
  1.000000;0.000000;0.000000;,
  -1.000000;0.000000;0.000000;,
  -1.000000;0.000000;0.000000;,
  1.000000;0.000000;0.000000;,
  1.000000;0.000000;0.000000;,
  -1.000000;0.000000;0.000000;,
  -1.000000;0.000000;0.000000;,
  1.000000;0.000000;0.000000;,
  1.000000;0.000000;0.000000;,
  -1.000000;0.000000;0.000000;,
  -1.000000;0.000000;0.000000;,
  1.000000;0.000000;0.000000;,
  1.000000;0.000000;0.000000;,
  -1.000000;0.000000;0.000000;,
  -1.000000;0.000000;0.000000;,
  1.000000;0.000000;0.000000;,
  1.000000;0.000000;0.000000;,
  -1.000000;0.000000;0.000000;,
  -1.000000;0.000000;0.000000;,
  1.000000;0.000000;0.000000;,
  1.000000;0.000000;0.000000;,
  -1.000000;0.000000;0.000000;,
  -1.000000;0.000000;0.000000;,
  1.000000;0.000000;0.000000;,
  1.000000;0.000000;0.000000;,
  -1.000000;0.000000;0.000000;,
  -1.000000;0.000000;0.000000;,
  1.000000;0.000000;0.000000;,
  1.000000;0.000000;0.000000;,
  -1.000000;0.000000;0.000000;,
  -1.000000;0.000000;0.000000;,
  1.000000;0.000000;0.000000;,
  1.000000;0.000000;0.000000;,
  -1.000000;0.000000;0.000000;,
  -1.000000;0.000000;0.000000;,
  1.000000;0.000000;0.000000;,
  1.000000;0.000000;0.000000;,
  -1.000000;0.000000;0.000000;,
  -1.000000;0.000000;0.000000;,
  0.325080;0.000000;0.945687;,
  0.325080;0.000000;0.945687;,
  -0.325080;0.000000;-0.945687;,
  -0.325080;0.000000;-0.945687;,
  0.000000;0.832050;-0.554700;,
  0.000000;0.832050;-0.554700;,
  0.000000;-0.832050;0.554700;,
  0.000000;-0.832050;0.554700;,
  0.000000;0.832050;-0.554700;,
  0.000000;0.832050;-0.554700;,
  0.000000;-0.832050;0.554700;,
  0.000000;-0.832050;0.554700;,
  0.000000;0.832050;-0.554700;,
  0.000000;0.832050;-0.554700;,
  0.000000;-0.832050;0.554700;,
  0.000000;-0.832050;0.554700;,
  0.000000;0.832050;-0.554700;,
  0.000000;0.832050;-0.554700;,
  0.000000;-0.832050;0.554700;,
  0.000000;-0.832050;0.554700;,
  0.000000;0.000000;-1.000000;,
  0.000000;0.000000;-1.000000;,
  -1.000000;0.000000;0.000000;,
  -1.000000;0.000000;0.000000;,
  0.000000;0.000000;1.000000;,
  0.000000;0.000000;1.000000;,
  1.000000;0.000000;0.000000;,
  1.000000;0.000000;0.000000;,
  0.000000;1.000000;0.000000;,
  0.000000;1.000000;0.000000;,
  0.000000;-1.000000;0.000000;,
  0.000000;-1.000000;0.000000;,
  0.000000;0.000000;-1.000000;,
  0.000000;0.000000;-1.000000;,
  -1.000000;0.000000;0.000000;,
  -1.000000;0.000000;0.000000;,
  0.000000;0.000000;1.000000;,
  0.000000;0.000000;1.000000;,
  1.000000;0.000000;0.000000;,
  1.000000;0.000000;0.000000;,
  0.000000;1.000000;0.000000;,
  0.000000;1.000000;0.000000;,
  0.000000;-1.000000;0.000000;,
  0.000000;-1.000000;0.000000;,
  0.000000;0.000000;-1.000000;,
  0.000000;0.000000;-1.000000;,
  -1.000000;0.000000;0.000000;,
  -1.000000;0.000000;0.000000;,
  0.000000;0.000000;1.000000;,
  0.000000;0.000000;1.000000;,
  1.000000;0.000000;0.000000;,
  1.000000;0.000000;0.000000;,
  0.000000;1.000000;0.000000;,
  0.000000;1.000000;0.000000;,
  0.000000;-1.000000;0.000000;,
  0.000000;-1.000000;0.000000;,
  0.000000;0.000000;-1.000000;,
  0.000000;0.000000;-1.000000;,
  -1.000000;0.000000;0.000000;,
  -1.000000;0.000000;0.000000;,
  0.000000;0.000000;1.000000;,
  0.000000;0.000000;1.000000;,
  1.000000;0.000000;0.000000;,
  1.000000;0.000000;0.000000;,
  0.000000;1.000000;0.000000;,
  0.000000;1.000000;0.000000;,
  0.000000;-1.000000;0.000000;,
  0.000000;-1.000000;0.000000;,
  0.000000;0.000000;-1.000000;,
  0.000000;0.000000;-1.000000;,
  -1.000000;0.000000;0.000000;,
  -1.000000;0.000000;0.000000;,
  0.000000;0.000000;1.000000;,
  0.000000;0.000000;1.000000;,
  1.000000;0.000000;0.000000;,
  1.000000;0.000000;0.000000;,
  0.000000;1.000000;0.000000;,
  0.000000;1.000000;0.000000;,
  0.000000;-1.000000;0.000000;,
  0.000000;-1.000000;0.000000;,
  0.000000;0.000000;1.000000;,
  0.000000;0.000000;1.000000;,
  0.000000;0.000000;-1.000000;,
  0.000000;0.000000;-1.000000;,
  0.000000;0.000000;-1.000000;,
  0.000000;0.000000;-1.000000;,
  0.000000;0.000000;-1.000000;,
  0.000000;0.000000;-1.000000;;
  180;
  3;0,0,0;,
  3;1,1,1;,
  3;2,2,2;,
  3;3,3,3;,
  3;4,4,4;,
  3;5,5,5;,
  3;6,6,6;,
  3;7,7,7;,
  3;8,8,8;,
  3;9,9,9;,
  3;10,10,10;,
  3;11,11,11;,
  3;12,12,12;,
  3;13,13,13;,
  3;14,14,14;,
  3;15,15,15;,
  3;16,16,16;,
  3;17,17,17;,
  3;18,18,18;,
  3;19,19,19;,
  3;20,20,20;,
  3;21,21,21;,
  3;22,22,22;,
  3;23,23,23;,
  3;24,24,24;,
  3;25,25,25;,
  3;26,26,26;,
  3;27,27,27;,
  3;28,28,28;,
  3;29,29,29;,
  3;30,30,30;,
  3;31,31,31;,
  3;32,32,32;,
  3;33,33,33;,
  3;34,34,34;,
  3;35,35,35;,
  3;36,36,36;,
  3;37,37,37;,
  3;38,38,38;,
  3;39,39,39;,
  3;40,40,40;,
  3;41,41,41;,
  3;42,42,42;,
  3;43,43,43;,
  3;44,44,44;,
  3;45,45,45;,
  3;46,46,46;,
  3;47,47,47;,
  3;48,48,48;,
  3;49,49,49;,
  3;50,50,50;,
  3;51,51,51;,
  3;52,52,52;,
  3;53,53,53;,
  3;54,54,54;,
  3;55,55,55;,
  3;56,56,56;,
  3;57,57,57;,
  3;58,58,58;,
  3;59,59,59;,
  3;60,60,60;,
  3;61,61,61;,
  3;62,62,62;,
  3;63,63,63;,
  3;64,64,64;,
  3;65,65,65;,
  3;66,66,66;,
  3;67,67,67;,
  3;68,68,68;,
  3;69,69,69;,
  3;70,70,70;,
  3;71,71,71;,
  3;72,72,72;,
  3;73,73,73;,
  3;74,74,74;,
  3;75,75,75;,
  3;76,76,76;,
  3;77,77,77;,
  3;78,78,78;,
  3;79,79,79;,
  3;80,80,80;,
  3;81,81,81;,
  3;82,82,82;,
  3;83,83,83;,
  3;84,84,84;,
  3;85,85,85;,
  3;86,86,86;,
  3;87,87,87;,
  3;88,88,88;,
  3;89,89,89;,
  3;90,90,90;,
  3;91,91,91;,
  3;92,92,92;,
  3;93,93,93;,
  3;94,94,94;,
  3;95,95,95;,
  3;96,96,96;,
  3;97,97,97;,
  3;98,98,98;,
  3;99,99,99;,
  3;100,100,100;,
  3;101,101,101;,
  3;102,102,102;,
  3;103,103,103;,
  3;104,104,104;,
  3;105,105,105;,
  3;106,106,106;,
  3;107,107,107;,
  3;108,108,108;,
  3;109,109,109;,
  3;110,110,110;,
  3;111,111,111;,
  3;112,112,112;,
  3;113,113,113;,
  3;114,114,114;,
  3;115,115,115;,
  3;116,116,116;,
  3;117,117,117;,
  3;118,118,118;,
  3;119,119,119;,
  3;120,120,120;,
  3;121,121,121;,
  3;122,122,122;,
  3;123,123,123;,
  3;124,124,124;,
  3;125,125,125;,
  3;126,126,126;,
  3;127,127,127;,
  3;128,128,128;,
  3;129,129,129;,
  3;130,130,130;,
  3;131,131,131;,
  3;132,132,132;,
  3;133,133,133;,
  3;134,134,134;,
  3;135,135,135;,
  3;136,136,136;,
  3;137,137,137;,
  3;138,138,138;,
  3;139,139,139;,
  3;140,140,140;,
  3;141,141,141;,
  3;142,142,142;,
  3;143,143,143;,
  3;144,144,144;,
  3;145,145,145;,
  3;146,146,146;,
  3;147,147,147;,
  3;148,148,148;,
  3;149,149,149;,
  3;150,150,150;,
  3;151,151,151;,
  3;152,152,152;,
  3;153,153,153;,
  3;154,154,154;,
  3;155,155,155;,
  3;156,156,156;,
  3;157,157,157;,
  3;158,158,158;,
  3;159,159,159;,
  3;160,160,160;,
  3;161,161,161;,
  3;162,162,162;,
  3;163,163,163;,
  3;164,164,164;,
  3;165,165,165;,
  3;166,166,166;,
  3;167,167,167;,
  3;168,168,168;,
  3;169,169,169;,
  3;170,170,170;,
  3;171,171,171;,
  3;172,172,172;,
  3;173,173,173;,
  3;174,174,174;,
  3;175,175,175;,
  3;176,176,176;,
  3;177,177,177;,
  3;178,178,178;,
  3;179,179,179;;
 }
}