xof 0303txt 0032
template Vector {
 <3d82ab5e-62da-11cf-ab39-0020af71e433>
 FLOAT x;
 FLOAT y;
 FLOAT z;
}

template MeshFace {
 <3d82ab5f-62da-11cf-ab39-0020af71e433>
 DWORD nFaceVertexIndices;
 array DWORD faceVertexIndices[nFaceVertexIndices];
}

template Mesh {
 <3d82ab44-62da-11cf-ab39-0020af71e433>
 DWORD nVertices;
 array Vector vertices[nVertices];
 DWORD nFaces;
 array MeshFace faces[nFaces];
 [...]
}

template ColorRGBA {
 <35ff44e0-6c7c-11cf-8f52-0040333594a3>
 FLOAT red;
 FLOAT green;
 FLOAT blue;
 FLOAT alpha;
}

template ColorRGB {
 <d3e16e81-7835-11cf-8f52-0040333594a3>
 FLOAT red;
 FLOAT green;
 FLOAT blue;
}

template Material {
 <3d82ab4d-62da-11cf-ab39-0020af71e433>
 ColorRGBA faceColor;
 FLOAT power;
 ColorRGB specularColor;
 ColorRGB emissiveColor;
 [...]
}

template MeshMaterialList {
 <f6f23f42-7686-11cf-8f52-0040333594a3>
 DWORD nMaterials;
 DWORD nFaceIndexes;
 array DWORD faceIndexes[nFaceIndexes];
 [Material <3d82ab4d-62da-11cf-ab39-0020af71e433>]
}

template TextureFilename {
 <a42790e1-7810-11cf-8f52-0040333594a3>
 STRING filename;
}

template Coords2d {
 <f6f23f44-7686-11cf-8f52-0040333594a3>
 FLOAT u;
 FLOAT v;
}

template MeshTextureCoords {
 <f6f23f40-7686-11cf-8f52-0040333594a3>
 DWORD nTextureCoords;
 array Coords2d textureCoords[nTextureCoords];
}

template MeshNormals {
 <f6f23f43-7686-11cf-8f52-0040333594a3>
 DWORD nNormals;
 array Vector normals[nNormals];
 DWORD nFaceNormals;
 array MeshFace faceNormals[nFaceNormals];
}


Mesh  {
 300;
 3.630000;4.000000;0.960000;,
 3.770000;4.000000;0.960000;,
 3.630000;1.000000;0.960000;,
 3.770000;1.000000;0.960000;,
 3.630000;4.000000;1.040000;,
 3.770000;4.000000;1.040000;,
 3.630000;1.000000;1.040000;,
 3.770000;1.000000;1.040000;,
 7.630000;4.000000;0.960000;,
 7.770000;4.000000;0.960000;,
 7.630000;1.000000;0.960000;,
 7.770000;1.000000;0.960000;,
 7.630000;4.000000;1.040000;,
 7.770000;4.000000;1.040000;,
 7.630000;1.000000;1.040000;,
 7.770000;1.000000;1.040000;,
 3.100000;3.700000;0.960000;,
 3.200000;3.700000;0.960000;,
 3.630000;3.000000;0.960000;,
 3.630000;3.150000;0.960000;,
 3.100000;3.700000;1.040000;,
 3.200000;3.700000;1.040000;,
 3.630000;3.000000;1.040000;,
 3.630000;3.150000;1.040000;,
 4.756999;4.307000;0.960000;,
 4.625999;4.263999;0.960000;,
 3.770000;3.000000;0.960000;,
 3.770000;3.132000;0.960000;,
 4.756999;4.307000;1.040000;,
 4.625999;4.263999;1.040000;,
 3.770000;3.000000;1.040000;,
 3.770000;3.132000;1.040000;,
 4.849999;4.338000;0.960000;,
 4.949999;4.369999;0.960000;,
 5.650000;3.980000;0.960000;,
 5.650000;3.880000;0.960000;,
 4.849999;4.338000;1.040000;,
 4.949999;4.369999;1.040000;,
 5.650000;3.980000;1.040000;,
 5.650000;3.880000;1.040000;,
 8.299999;3.700000;0.960000;,
 8.199999;3.700000;0.960000;,
 7.770000;3.000000;0.960000;,
 7.770000;3.150000;0.960000;,
 8.299999;3.700000;1.040000;,
 8.199999;3.700000;1.040000;,
 7.770000;3.000000;1.040000;,
 7.770000;3.150000;1.040000;,
 6.643000;4.307000;0.960000;,
 6.774000;4.263999;0.960000;,
 7.630000;3.000000;0.960000;,
 7.630000;3.132000;0.960000;,
 6.643000;4.307000;1.040000;,
 6.774000;4.263999;1.040000;,
 7.630000;3.000000;1.040000;,
 7.630000;3.132000;1.040000;,
 6.550000;4.338000;0.960000;,
 6.449999;4.369999;0.960000;,
 5.750000;3.980000;0.960000;,
 5.750000;3.880000;0.960000;,
 6.550000;4.338000;1.040000;,
 6.449999;4.369999;1.040000;,
 5.750000;3.980000;1.040000;,
 5.750000;3.880000;1.040000;,
 2.800000;3.780000;0.910000;,
 8.599999;3.780000;0.910000;,
 2.800000;3.620000;0.910000;,
 8.599999;3.620000;0.910000;,
 2.800000;3.780000;0.960000;,
 8.599999;3.780000;0.960000;,
 2.800000;3.620000;0.960000;,
 8.599999;3.620000;0.960000;,
 2.800000;3.780000;1.040000;,
 8.599999;3.780000;1.040000;,
 2.800000;3.620000;1.040000;,
 8.599999;3.620000;1.040000;,
 2.800000;3.780000;1.090000;,
 8.599999;3.780000;1.090000;,
 2.800000;3.620000;1.090000;,
 8.599999;3.620000;1.090000;,
 5.650000;4.699999;0.960000;,
 5.650000;4.599999;0.960000;,
 3.000000;3.780000;0.960000;,
 3.150000;3.780000;0.960000;,
 5.650000;4.699999;1.040000;,
 5.650000;4.599999;1.040000;,
 3.000000;3.780000;1.040000;,
 3.150000;3.780000;1.040000;,
 5.750000;4.699999;0.960000;,
 5.750000;4.599999;0.960000;,
 8.399999;3.780000;0.960000;,
 8.249999;3.780000;0.960000;,
 5.750000;4.699999;1.040000;,
 5.750000;4.599999;1.040000;,
 8.399999;3.780000;1.040000;,
 8.249999;3.780000;1.040000;,
 5.650000;4.699999;0.960000;,
 5.750000;4.699999;0.960000;,
 5.650000;3.600000;0.960000;,
 5.750000;3.600000;0.960000;,
 5.650000;4.699999;1.040000;,
 5.750000;4.699999;1.040000;,
 5.650000;3.600000;1.040000;,
 5.750000;3.600000;1.040000;,
 3.630000;4.000000;0.380000;,
 3.770000;4.000000;0.380000;,
 3.630000;2.880000;0.960000;,
 3.770000;2.880000;0.960000;,
 3.630000;4.000000;0.460000;,
 3.770000;4.000000;0.460000;,
 3.630000;3.000000;0.960000;,
 3.770000;3.000000;0.960000;,
 3.630000;4.000000;1.620000;,
 3.770000;4.000000;1.620000;,
 3.630000;2.880000;1.040000;,
 3.770000;2.880000;1.040000;,
 3.630000;4.000000;1.540000;,
 3.770000;4.000000;1.540000;,
 3.630000;3.000000;1.040000;,
 3.770000;3.000000;1.040000;,
 7.630000;4.000000;0.380000;,
 7.770000;4.000000;0.380000;,
 7.630000;2.880000;0.960000;,
 7.770000;2.880000;0.960000;,
 7.630000;4.000000;0.460000;,
 7.770000;4.000000;0.460000;,
 7.630000;3.000000;0.960000;,
 7.770000;3.000000;0.960000;,
 7.630000;4.000000;1.620000;,
 7.770000;4.000000;1.620000;,
 7.630000;2.880000;1.040000;,
 7.770000;2.880000;1.040000;,
 7.630000;4.000000;1.540000;,
 7.770000;4.000000;1.540000;,
 7.630000;3.000000;1.040000;,
 7.770000;3.000000;1.040000;,
 3.630000;4.000000;4.960000;,
 3.770000;4.000000;4.960000;,
 3.630000;3.520000;4.960000;,
 3.770000;3.520000;4.960000;,
 3.630000;4.000000;5.039999;,
 3.770000;4.000000;5.039999;,
 3.630000;3.520000;5.039999;,
 3.770000;3.520000;5.039999;,
 7.630000;4.000000;4.960000;,
 7.770000;4.000000;4.960000;,
 7.630000;3.510000;4.960000;,
 7.770000;3.520000;4.960000;,
 7.630000;4.000000;5.039999;,
 7.770000;4.000000;5.039999;,
 7.630000;3.520000;5.039999;,
 7.770000;3.520000;5.039999;,
 4.756999;4.307000;4.960000;,
 4.625999;4.263999;4.960000;,
 4.300000;3.700000;4.960000;,
 4.199999;3.700000;4.960000;,
 4.756999;4.307000;5.039999;,
 4.625999;4.263999;5.039999;,
 4.300000;3.700000;5.039999;,
 4.199999;3.700000;5.039999;,
 4.849999;4.338000;4.960000;,
 4.949999;4.369999;4.960000;,
 5.650000;3.980000;4.960000;,
 5.650000;3.880000;4.960000;,
 4.849999;4.338000;5.039999;,
 4.949999;4.369999;5.039999;,
 5.650000;3.980000;5.039999;,
 5.650000;3.880000;5.039999;,
 6.643000;4.307000;4.960000;,
 6.774000;4.263999;4.960000;,
 7.000000;3.700000;4.960000;,
 7.099999;3.700000;4.960000;,
 6.643000;4.307000;5.039999;,
 6.774000;4.263999;5.039999;,
 7.000000;3.700000;5.039999;,
 7.099999;3.700000;5.039999;,
 6.550000;4.338000;4.960000;,
 6.449999;4.369999;4.960000;,
 5.750000;3.980000;4.960000;,
 5.750000;3.880000;4.960000;,
 6.550000;4.338000;5.039999;,
 6.449999;4.369999;5.039999;,
 5.750000;3.980000;5.039999;,
 5.750000;3.880000;5.039999;,
 2.800000;3.780000;4.909999;,
 8.599999;3.780000;4.909999;,
 2.800000;3.620000;4.909999;,
 8.599999;3.620000;4.909999;,
 2.800000;3.780000;4.960000;,
 8.599999;3.780000;4.960000;,
 2.800000;3.620000;4.960000;,
 8.599999;3.620000;4.960000;,
 2.800000;3.780000;5.039999;,
 8.599999;3.780000;5.039999;,
 2.800000;3.620000;5.039999;,
 8.599999;3.620000;5.039999;,
 2.800000;3.780000;5.090000;,
 8.599999;3.780000;5.090000;,
 2.800000;3.620000;5.090000;,
 8.599999;3.620000;5.090000;,
 5.650000;4.699999;4.960000;,
 5.650000;4.599999;4.960000;,
 3.000000;3.780000;4.960000;,
 3.150000;3.780000;4.960000;,
 5.650000;4.699999;5.039999;,
 5.650000;4.599999;5.039999;,
 3.000000;3.780000;5.039999;,
 3.150000;3.780000;5.039999;,
 5.750000;4.699999;4.960000;,
 5.750000;4.599999;4.960000;,
 8.399999;3.780000;4.960000;,
 8.249999;3.780000;4.960000;,
 5.750000;4.699999;5.039999;,
 5.750000;4.599999;5.039999;,
 8.399999;3.780000;5.039999;,
 8.249999;3.780000;5.039999;,
 5.650000;4.699999;4.960000;,
 5.750000;4.699999;4.960000;,
 5.650000;3.600000;4.960000;,
 5.750000;3.600000;4.960000;,
 5.650000;4.699999;5.039999;,
 5.750000;4.699999;5.039999;,
 5.650000;3.600000;5.039999;,
 5.750000;3.600000;5.039999;,
 5.599999;3.880000;0.000000;,
 5.599999;3.880000;9.999999;,
 5.599999;3.780000;0.000000;,
 5.599999;3.780000;9.999999;,
 5.650000;3.880000;0.000000;,
 5.650000;3.880000;9.999999;,
 5.650000;3.780000;0.000000;,
 5.650000;3.780000;9.999999;,
 3.579000;3.620000;0.000000;,
 3.579000;3.620000;9.999999;,
 3.579000;3.520000;0.000000;,
 3.579000;3.520000;9.999999;,
 3.629000;3.620000;0.000000;,
 3.629000;3.620000;9.999999;,
 3.629000;3.520000;0.000000;,
 3.629000;3.520000;9.999999;,
 3.771000;3.620000;0.000000;,
 3.771000;3.620000;9.999999;,
 3.771000;3.520000;0.000000;,
 3.771000;3.520000;9.999999;,
 3.821000;3.620000;0.000000;,
 3.821000;3.620000;9.999999;,
 3.821000;3.520000;0.000000;,
 3.821000;3.520000;9.999999;,
 5.799999;3.880000;0.000000;,
 5.799999;3.880000;9.999998;,
 5.799999;3.779999;0.000000;,
 5.799999;3.779999;9.999998;,
 5.749999;3.880000;0.000000;,
 5.749999;3.880000;9.999998;,
 5.749999;3.779999;0.000000;,
 5.749999;3.779999;9.999998;,
 7.820999;3.620000;0.000000;,
 7.820999;3.620000;9.999998;,
 7.820999;3.520000;0.000000;,
 7.820999;3.520000;9.999998;,
 7.770998;3.620000;0.000000;,
 7.770998;3.620000;9.999998;,
 7.770998;3.520000;0.000000;,
 7.770998;3.520000;9.999998;,
 7.628998;3.620000;0.000000;,
 7.628998;3.620000;9.999998;,
 7.628998;3.520000;0.000000;,
 7.628998;3.520000;9.999998;,
 7.578998;3.620000;0.000000;,
 7.578998;3.620000;9.999998;,
 7.578998;3.520000;0.000000;,
 7.578998;3.520000;9.999998;,
 2.599000;3.620000;0.000000;,
 2.599000;3.620000;9.999999;,
 2.599000;3.780000;0.000000;,
 2.599000;3.780000;9.999999;,
 5.650000;4.800000;0.000000;,
 5.650000;4.800000;9.999999;,
 5.699999;4.800000;0.000000;,
 5.699999;4.800000;9.999999;,
 5.750000;4.800000;0.000000;,
 5.750000;4.800000;9.999999;,
 8.800999;3.780000;0.000000;,
 8.800999;3.780000;9.999999;,
 8.800999;3.620000;0.000000;,
 8.800999;3.620000;9.999999;,
 2.601000;3.620000;0.000000;,
 2.601000;3.620000;9.999999;,
 2.601000;3.779000;0.000000;,
 2.601000;3.779000;9.999999;,
 5.651000;4.798999;0.000000;,
 5.651000;4.798999;9.999999;,
 5.699999;4.798999;0.000000;,
 5.699999;4.798999;9.999999;,
 5.749000;4.798999;0.000000;,
 5.749000;4.798999;9.999999;,
 8.798999;3.779000;0.000000;,
 8.798999;3.779000;9.999999;,
 8.798999;3.620000;0.000000;,
 8.798999;3.620000;9.999999;;
 560;
 3;0,1,3;,
 3;0,3,2;,
 3;2,3,1;,
 3;2,1,0;,
 3;4,0,2;,
 3;4,2,6;,
 3;6,2,0;,
 3;6,0,4;,
 3;5,4,6;,
 3;5,6,7;,
 3;7,6,4;,
 3;7,4,5;,
 3;1,5,7;,
 3;1,7,2;,
 3;2,7,5;,
 3;2,5,1;,
 3;8,9,11;,
 3;8,11,10;,
 3;10,11,9;,
 3;10,9,8;,
 3;12,8,10;,
 3;12,10,14;,
 3;14,10,8;,
 3;14,8,12;,
 3;13,12,14;,
 3;13,14,15;,
 3;15,14,12;,
 3;15,12,13;,
 3;9,13,15;,
 3;9,15,10;,
 3;10,15,13;,
 3;10,13,9;,
 3;16,17,19;,
 3;16,19,16;,
 3;16,19,17;,
 3;16,17,16;,
 3;20,16,18;,
 3;20,18,22;,
 3;22,18,16;,
 3;22,16,20;,
 3;27,24,26;,
 3;27,26,27;,
 3;27,26,24;,
 3;27,24,27;,
 3;24,28,30;,
 3;24,30,26;,
 3;26,30,28;,
 3;26,28,24;,
 3;33,32,34;,
 3;33,34,35;,
 3;35,34,32;,
 3;35,32,33;,
 3;32,36,38;,
 3;32,38,34;,
 3;34,38,36;,
 3;34,36,32;,
 3;40,41,43;,
 3;40,43,42;,
 3;42,43,41;,
 3;42,41,40;,
 3;44,40,42;,
 3;44,42,46;,
 3;46,42,40;,
 3;46,40,44;,
 3;49,48,50;,
 3;49,50,51;,
 3;51,50,48;,
 3;51,48,49;,
 3;48,52,54;,
 3;48,54,50;,
 3;50,54,52;,
 3;50,52,48;,
 3;57,56,58;,
 3;57,58,59;,
 3;59,58,56;,
 3;59,56,57;,
 3;56,60,62;,
 3;56,62,58;,
 3;58,62,60;,
 3;58,60,56;,
 3;20,21,23;,
 3;20,23,22;,
 3;22,23,21;,
 3;22,21,20;,
 3;28,29,31;,
 3;28,31,30;,
 3;30,31,29;,
 3;30,29,28;,
 3;36,37,39;,
 3;36,39,38;,
 3;38,39,37;,
 3;38,37,36;,
 3;44,45,47;,
 3;44,47,46;,
 3;46,47,45;,
 3;46,45,44;,
 3;52,53,55;,
 3;52,55,54;,
 3;54,55,53;,
 3;54,53,52;,
 3;60,61,63;,
 3;60,63,62;,
 3;62,63,61;,
 3;62,61,60;,
 3;64,65,67;,
 3;64,67,66;,
 3;66,67,65;,
 3;66,65,64;,
 3;76,77,79;,
 3;76,79,78;,
 3;78,79,77;,
 3;78,77,76;,
 3;66,67,71;,
 3;66,71,70;,
 3;70,71,67;,
 3;70,67,66;,
 3;74,75,79;,
 3;74,79,78;,
 3;78,79,75;,
 3;78,75,74;,
 3;68,69,71;,
 3;68,71,70;,
 3;70,71,69;,
 3;70,69,68;,
 3;72,73,75;,
 3;72,75,74;,
 3;74,75,73;,
 3;74,73,72;,
 3;80,81,83;,
 3;80,83,82;,
 3;82,83,81;,
 3;82,81,80;,
 3;84,80,82;,
 3;84,82,86;,
 3;86,82,80;,
 3;86,80,84;,
 3;85,84,86;,
 3;85,86,87;,
 3;87,86,84;,
 3;87,84,85;,
 3;81,85,87;,
 3;81,87,82;,
 3;82,87,85;,
 3;82,85,81;,
 3;88,89,91;,
 3;88,91,90;,
 3;90,91,89;,
 3;90,89,88;,
 3;92,88,90;,
 3;92,90,94;,
 3;94,90,88;,
 3;94,88,92;,
 3;93,92,94;,
 3;93,94,95;,
 3;95,94,92;,
 3;95,92,93;,
 3;89,93,95;,
 3;89,95,90;,
 3;90,95,93;,
 3;90,93,89;,
 3;96,97,99;,
 3;96,99,98;,
 3;98,99,97;,
 3;98,97,96;,
 3;100,96,98;,
 3;100,98,102;,
 3;102,98,96;,
 3;102,96,100;,
 3;101,100,102;,
 3;101,102,103;,
 3;103,102,100;,
 3;103,100,101;,
 3;97,101,103;,
 3;97,103,98;,
 3;98,103,101;,
 3;98,101,97;,
 3;104,105,107;,
 3;104,107,106;,
 3;106,107,105;,
 3;106,105,104;,
 3;108,104,106;,
 3;108,106,110;,
 3;110,106,104;,
 3;110,104,108;,
 3;105,109,111;,
 3;105,111,107;,
 3;107,111,109;,
 3;107,109,105;,
 3;108,109,111;,
 3;108,111,110;,
 3;110,111,109;,
 3;110,109,108;,
 3;112,113,115;,
 3;112,115,114;,
 3;114,115,113;,
 3;114,113,112;,
 3;116,112,114;,
 3;116,114,118;,
 3;118,114,112;,
 3;118,112,116;,
 3;113,117,119;,
 3;113,119,115;,
 3;115,119,117;,
 3;115,117,113;,
 3;114,117,119;,
 3;114,119,118;,
 3;118,119,117;,
 3;118,117,114;,
 3;120,121,123;,
 3;120,123,122;,
 3;122,123,121;,
 3;122,121,120;,
 3;124,120,122;,
 3;124,122,126;,
 3;126,122,120;,
 3;126,120,124;,
 3;121,125,127;,
 3;121,127,123;,
 3;123,127,125;,
 3;123,125,121;,
 3;124,125,127;,
 3;124,127,126;,
 3;126,127,125;,
 3;126,125,124;,
 3;128,129,131;,
 3;128,131,130;,
 3;130,131,129;,
 3;130,129,128;,
 3;132,128,130;,
 3;132,130,134;,
 3;134,130,128;,
 3;134,128,132;,
 3;129,133,135;,
 3;129,135,131;,
 3;131,135,133;,
 3;131,133,129;,
 3;130,133,135;,
 3;130,135,134;,
 3;134,135,133;,
 3;134,133,130;,
 3;136,137,139;,
 3;136,139,138;,
 3;138,139,137;,
 3;138,137,136;,
 3;140,136,138;,
 3;140,138,142;,
 3;142,138,136;,
 3;142,136,140;,
 3;141,140,142;,
 3;141,142,143;,
 3;143,142,140;,
 3;143,140,141;,
 3;137,141,143;,
 3;137,143,138;,
 3;138,143,141;,
 3;138,141,137;,
 3;144,145,147;,
 3;144,147,146;,
 3;146,147,145;,
 3;146,145,144;,
 3;148,146,146;,
 3;148,146,150;,
 3;150,146,146;,
 3;150,146,148;,
 3;149,148,150;,
 3;149,150,151;,
 3;151,150,148;,
 3;151,148,149;,
 3;145,149,151;,
 3;145,151,146;,
 3;146,151,149;,
 3;146,149,145;,
 3;153,152,154;,
 3;153,154,155;,
 3;155,154,152;,
 3;155,152,153;,
 3;152,154,158;,
 3;152,158,156;,
 3;156,158,154;,
 3;156,154,152;,
 3;161,160,162;,
 3;161,162,163;,
 3;163,162,160;,
 3;163,160,161;,
 3;160,164,166;,
 3;160,166,162;,
 3;162,166,164;,
 3;162,164,160;,
 3;169,168,170;,
 3;169,170,171;,
 3;171,170,168;,
 3;171,168,169;,
 3;168,172,174;,
 3;168,174,170;,
 3;170,174,172;,
 3;170,172,168;,
 3;177,176,178;,
 3;177,178,179;,
 3;179,178,176;,
 3;179,176,177;,
 3;176,180,182;,
 3;176,182,178;,
 3;178,182,180;,
 3;178,180,176;,
 3;156,157,159;,
 3;156,159,158;,
 3;158,159,157;,
 3;158,157,156;,
 3;164,165,167;,
 3;164,167,166;,
 3;166,167,165;,
 3;166,165,164;,
 3;172,173,175;,
 3;172,175,174;,
 3;174,175,173;,
 3;174,173,172;,
 3;180,181,183;,
 3;180,183,182;,
 3;182,183,181;,
 3;182,181,180;,
 3;184,185,187;,
 3;184,187,186;,
 3;186,187,185;,
 3;186,185,184;,
 3;196,197,199;,
 3;196,199,198;,
 3;198,199,197;,
 3;198,197,196;,
 3;186,187,191;,
 3;186,191,190;,
 3;190,191,187;,
 3;190,187,186;,
 3;194,195,199;,
 3;194,199,198;,
 3;198,199,195;,
 3;198,195,194;,
 3;188,189,191;,
 3;188,191,190;,
 3;190,191,189;,
 3;190,189,188;,
 3;192,193,195;,
 3;192,195,194;,
 3;194,195,193;,
 3;194,193,192;,
 3;200,201,203;,
 3;200,203,202;,
 3;202,203,201;,
 3;202,201,200;,
 3;204,200,202;,
 3;204,202,206;,
 3;206,202,200;,
 3;206,200,204;,
 3;205,204,206;,
 3;205,206,207;,
 3;207,206,204;,
 3;207,204,205;,
 3;201,205,207;,
 3;201,207,202;,
 3;202,207,205;,
 3;202,205,201;,
 3;208,209,211;,
 3;208,211,210;,
 3;210,211,209;,
 3;210,209,208;,
 3;212,208,210;,
 3;212,210,214;,
 3;214,210,208;,
 3;214,208,212;,
 3;213,212,214;,
 3;213,214,215;,
 3;215,214,212;,
 3;215,212,213;,
 3;209,213,215;,
 3;209,215,210;,
 3;210,215,213;,
 3;210,213,209;,
 3;216,217,219;,
 3;216,219,218;,
 3;218,219,217;,
 3;218,217,216;,
 3;220,216,218;,
 3;220,218,222;,
 3;222,218,216;,
 3;222,216,220;,
 3;221,220,222;,
 3;221,222,223;,
 3;223,222,220;,
 3;223,220,221;,
 3;217,221,223;,
 3;217,223,218;,
 3;218,223,221;,
 3;218,221,217;,
 3;224,225,227;,
 3;224,227,226;,
 3;226,227,225;,
 3;226,225,224;,
 3;228,224,226;,
 3;228,226,230;,
 3;230,226,224;,
 3;230,224,228;,
 3;229,228,230;,
 3;229,230,231;,
 3;231,230,228;,
 3;231,228,229;,
 3;225,229,231;,
 3;225,231,226;,
 3;226,231,229;,
 3;226,229,225;,
 3;226,227,231;,
 3;226,231,230;,
 3;230,231,227;,
 3;230,227,226;,
 3;232,233,235;,
 3;232,235,234;,
 3;234,235,233;,
 3;234,233,232;,
 3;236,232,234;,
 3;236,234,238;,
 3;238,234,232;,
 3;238,232,236;,
 3;237,236,238;,
 3;237,238,239;,
 3;239,238,236;,
 3;239,236,237;,
 3;233,237,239;,
 3;233,239,234;,
 3;234,239,237;,
 3;234,237,233;,
 3;234,235,239;,
 3;234,239,238;,
 3;238,239,235;,
 3;238,235,234;,
 3;240,241,243;,
 3;240,243,242;,
 3;242,243,241;,
 3;242,241,240;,
 3;244,240,242;,
 3;244,242,246;,
 3;246,242,240;,
 3;246,240,244;,
 3;245,244,246;,
 3;245,246,247;,
 3;247,246,244;,
 3;247,244,245;,
 3;241,245,247;,
 3;241,247,242;,
 3;242,247,245;,
 3;242,245,241;,
 3;242,243,247;,
 3;242,247,246;,
 3;246,247,243;,
 3;246,243,242;,
 3;248,249,251;,
 3;248,251,250;,
 3;250,251,249;,
 3;250,249,248;,
 3;252,248,250;,
 3;252,250,254;,
 3;254,250,248;,
 3;254,248,252;,
 3;253,252,254;,
 3;253,254,255;,
 3;255,254,252;,
 3;255,252,253;,
 3;249,253,255;,
 3;249,255,250;,
 3;250,255,253;,
 3;250,253,249;,
 3;250,251,255;,
 3;250,255,254;,
 3;254,255,251;,
 3;254,251,250;,
 3;256,257,259;,
 3;256,259,258;,
 3;258,259,257;,
 3;258,257,256;,
 3;260,256,258;,
 3;260,258,262;,
 3;262,258,256;,
 3;262,256,260;,
 3;261,260,262;,
 3;261,262,263;,
 3;263,262,260;,
 3;263,260,261;,
 3;257,261,263;,
 3;257,263,258;,
 3;258,263,261;,
 3;258,261,257;,
 3;258,259,263;,
 3;258,263,262;,
 3;262,263,259;,
 3;262,259,258;,
 3;264,265,267;,
 3;264,267,266;,
 3;266,267,265;,
 3;266,265,264;,
 3;268,264,266;,
 3;268,266,270;,
 3;270,266,264;,
 3;270,264,268;,
 3;269,268,270;,
 3;269,270,271;,
 3;271,270,268;,
 3;271,268,269;,
 3;265,269,271;,
 3;265,271,266;,
 3;266,271,269;,
 3;266,269,265;,
 3;266,267,271;,
 3;266,271,270;,
 3;270,271,267;,
 3;270,267,266;,
 3;272,273,275;,
 3;272,275,274;,
 3;274,275,273;,
 3;274,273,272;,
 3;274,275,277;,
 3;274,277,276;,
 3;276,277,275;,
 3;276,275,274;,
 3;276,277,279;,
 3;276,279,278;,
 3;278,279,277;,
 3;278,277,276;,
 3;278,279,281;,
 3;278,281,280;,
 3;280,281,279;,
 3;280,279,278;,
 3;280,281,283;,
 3;280,283,282;,
 3;282,283,281;,
 3;282,281,280;,
 3;282,283,285;,
 3;282,285,284;,
 3;284,285,283;,
 3;284,283,282;,
 3;286,287,289;,
 3;286,289,288;,
 3;288,289,287;,
 3;288,287,286;,
 3;288,289,291;,
 3;288,291,290;,
 3;290,291,289;,
 3;290,289,288;,
 3;290,291,293;,
 3;290,293,292;,
 3;292,293,291;,
 3;292,291,290;,
 3;292,293,295;,
 3;292,295,294;,
 3;294,295,293;,
 3;294,293,292;,
 3;294,295,297;,
 3;294,297,296;,
 3;296,297,295;,
 3;296,295,294;,
 3;296,297,299;,
 3;296,299,298;,
 3;298,299,297;,
 3;298,297,296;;

 MeshMaterialList  {
  5;
  560;
  0,
  0,
  0,
  0,
  0,
  0,
  0,
  0,
  0,
  0,
  0,
  0,
  0,
  0,
  0,
  0,
  0,
  0,
  0,
  0,
  0,
  0,
  0,
  0,
  0,
  0,
  0,
  0,
  0,
  0,
  0,
  0,
  0,
  0,
  0,
  0,
  0,
  0,
  0,
  0,
  0,
  0,
  0,
  0,
  0,
  0,
  0,
  0,
  0,
  0,
  0,
  0,
  0,
  0,
  0,
  0,
  0,
  0,
  0,
  0,
  0,
  0,
  0,
  0,
  0,
  0,
  0,
  0,
  0,
  0,
  0,
  0,
  0,
  0,
  0,
  0,
  0,
  0,
  0,
  0,
  0,
  0,
  0,
  0,
  0,
  0,
  0,
  0,
  0,
  0,
  0,
  0,
  0,
  0,
  0,
  0,
  0,
  0,
  0,
  0,
  0,
  0,
  0,
  0,
  0,
  0,
  0,
  0,
  0,
  0,
  0,
  0,
  0,
  0,
  0,
  0,
  0,
  0,
  0,
  0,
  0,
  0,
  0,
  0,
  0,
  0,
  0,
  0,
  0,
  0,
  0,
  0,
  0,
  0,
  0,
  0,
  0,
  0,
  0,
  0,
  0,
  0,
  0,
  0,
  0,
  0,
  0,
  0,
  0,
  0,
  0,
  0,
  0,
  0,
  0,
  0,
  0,
  0,
  0,
  0,
  0,
  0,
  0,
  0,
  0,
  0,
  0,
  0,
  0,
  0,
  0,
  0,
  0,
  0,
  0,
  0,
  0,
  0,
  0,
  0,
  0,
  0,
  0,
  0,
  0,
  0,
  0,
  0,
  0,
  0,
  0,
  0,
  0,
  0,
  0,
  0,
  0,
  0,
  0,
  0,
  0,
  0,
  0,
  0,
  0,
  0,
  0,
  0,
  0,
  0,
  0,
  0,
  0,
  0,
  0,
  0,
  0,
  0,
  0,
  0,
  0,
  0,
  0,
  0,
  0,
  0,
  0,
  0,
  0,
  0,
  0,
  0,
  0,
  0,
  0,
  0,
  0,
  0,
  0,
  0,
  0,
  0,
  0,
  0,
  0,
  0,
  0,
  0,
  0,
  0,
  0,
  0,
  0,
  0,
  0,
  0,
  0,
  0,
  0,
  0,
  0,
  0,
  0,
  0,
  0,
  0,
  0,
  0,
  0,
  0,
  0,
  0,
  0,
  0,
  0,
  0,
  0,
  0,
  0,
  0,
  0,
  0,
  0,
  0,
  0,
  0,
  0,
  0,
  0,
  0,
  0,
  0,
  0,
  0,
  0,
  0,
  0,
  0,
  0,
  0,
  0,
  0,
  0,
  0,
  0,
  0,
  0,
  0,
  0,
  0,
  0,
  0,
  0,
  0,
  0,
  0,
  0,
  0,
  0,
  0,
  0,
  0,
  0,
  0,
  0,
  0,
  0,
  0,
  0,
  0,
  0,
  0,
  0,
  0,
  0,
  0,
  0,
  0,
  0,
  0,
  0,
  0,
  0,
  0,
  0,
  0,
  0,
  0,
  0,
  0,
  0,
  0,
  0,
  0,
  0,
  0,
  0,
  0,
  0,
  0,
  0,
  0,
  0,
  0,
  0,
  0,
  0,
  0,
  0,
  0,
  0,
  0,
  0,
  0,
  0,
  0,
  0,
  0,
  0,
  0,
  0,
  0,
  0,
  0,
  0,
  0,
  0,
  0,
  0,
  0,
  0,
  0,
  1,
  1,
  1,
  1,
  1,
  1,
  1,
  1,
  1,
  1,
  1,
  1,
  1,
  1,
  1,
  1,
  1,
  1,
  1,
  1,
  1,
  1,
  1,
  1,
  1,
  1,
  1,
  1,
  1,
  1,
  1,
  1,
  1,
  1,
  1,
  1,
  1,
  1,
  1,
  1,
  1,
  1,
  1,
  1,
  1,
  1,
  1,
  1,
  1,
  1,
  1,
  1,
  1,
  1,
  1,
  1,
  1,
  1,
  1,
  1,
  2,
  2,
  2,
  2,
  2,
  2,
  2,
  2,
  2,
  2,
  2,
  2,
  2,
  2,
  2,
  2,
  2,
  2,
  2,
  2,
  2,
  2,
  2,
  2,
  2,
  2,
  2,
  2,
  2,
  2,
  2,
  2,
  2,
  2,
  2,
  2,
  2,
  2,
  2,
  2,
  2,
  2,
  2,
  2,
  2,
  2,
  2,
  2,
  2,
  2,
  2,
  2,
  2,
  2,
  2,
  2,
  2,
  2,
  2,
  2,
  3,
  3,
  3,
  3,
  3,
  3,
  3,
  3,
  3,
  3,
  3,
  3,
  3,
  3,
  3,
  3,
  3,
  3,
  3,
  3,
  3,
  3,
  3,
  3,
  4,
  4,
  4,
  4,
  4,
  4,
  4,
  4,
  4,
  4,
  4,
  4,
  4,
  4,
  4,
  4,
  4,
  4,
  4,
  4,
  4,
  4,
  4,
  4;

  Material  {
   1.000000;1.000000;1.000000;1.000000;;
   0.000000;
   0.000000;0.000000;0.000000;;
   0.000000;0.000000;0.000000;;

   TextureFilename  {
    "numazu_mokuzai.dds";
   }
  }

  Material  {
   1.000000;1.000000;1.000000;1.000000;;
   0.000000;
   0.000000;0.000000;0.000000;;
   0.000000;0.000000;0.000000;;

   TextureFilename  {
    "numazu_mokuzai.dds";
   }
  }

  Material  {
   1.000000;1.000000;1.000000;1.000000;;
   0.000000;
   0.000000;0.000000;0.000000;;
   0.000000;0.000000;0.000000;;

   TextureFilename  {
    "numazu_mokuzai.dds";
   }
  }

  Material  {
   1.000000;1.000000;1.000000;1.000000;;
   0.000000;
   0.000000;0.000000;0.000000;;
   0.000000;0.000000;0.000000;;

   TextureFilename  {
    "numazu_yane.dds";
   }
  }

  Material  {
   0.000000;0.000000;0.000000;0.250980;;
   0.000000;
   0.000000;0.000000;0.000000;;
   0.000000;0.000000;0.000000;;
  }
 }

 MeshTextureCoords  {
  300;
  0.000000;0.000000;,
  1.000000;0.000000;,
  0.000000;1.000000;,
  1.000000;1.000000;,
  1.000000;0.000000;,
  0.000000;0.000000;,
  1.000000;1.000000;,
  0.000000;1.000000;,
  0.000000;0.000000;,
  1.000000;0.000000;,
  0.000000;1.000000;,
  1.000000;1.000000;,
  1.000000;0.000000;,
  0.000000;0.000000;,
  1.000000;1.000000;,
  0.000000;1.000000;,
  0.000000;0.000000;,
  1.000000;0.000000;,
  0.000000;1.000000;,
  1.000000;1.000000;,
  1.000000;0.000000;,
  0.000000;0.000000;,
  1.000000;1.000000;,
  0.000000;1.000000;,
  0.000000;0.000000;,
  1.000000;0.000000;,
  0.000000;1.000000;,
  1.000000;1.000000;,
  1.000000;0.000000;,
  0.000000;0.000000;,
  1.000000;1.000000;,
  0.000000;1.000000;,
  0.000000;0.000000;,
  1.000000;0.000000;,
  0.000000;1.000000;,
  1.000000;1.000000;,
  1.000000;0.000000;,
  0.000000;0.000000;,
  1.000000;1.000000;,
  0.000000;1.000000;,
  0.000000;0.000000;,
  1.000000;0.000000;,
  0.000000;1.000000;,
  1.000000;1.000000;,
  1.000000;0.000000;,
  0.000000;0.000000;,
  1.000000;1.000000;,
  0.000000;1.000000;,
  0.000000;0.000000;,
  1.000000;0.000000;,
  0.000000;1.000000;,
  1.000000;1.000000;,
  1.000000;0.000000;,
  0.000000;0.000000;,
  1.000000;1.000000;,
  0.000000;1.000000;,
  0.000000;0.000000;,
  1.000000;0.000000;,
  0.000000;1.000000;,
  1.000000;1.000000;,
  1.000000;0.000000;,
  0.000000;0.000000;,
  1.000000;1.000000;,
  0.000000;1.000000;,
  0.000000;0.000000;,
  1.000000;0.000000;,
  0.000000;0.800000;,
  1.000000;0.800000;,
  0.000000;1.000000;,
  1.000000;1.000000;,
  0.000000;0.200000;,
  1.000000;0.200000;,
  0.000000;0.000000;,
  1.000000;0.000000;,
  0.000000;0.800000;,
  1.000000;0.800000;,
  0.000000;1.000000;,
  1.000000;1.000000;,
  0.000000;0.200000;,
  1.000000;0.200000;,
  0.000000;0.000000;,
  1.000000;0.000000;,
  0.000000;1.000000;,
  1.000000;1.000000;,
  1.000000;0.000000;,
  0.000000;0.000000;,
  1.000000;1.000000;,
  0.000000;1.000000;,
  0.000000;0.000000;,
  1.000000;0.000000;,
  0.000000;1.000000;,
  1.000000;1.000000;,
  1.000000;0.000000;,
  0.000000;0.000000;,
  1.000000;1.000000;,
  0.000000;1.000000;,
  0.000000;0.000000;,
  1.000000;0.000000;,
  0.000000;1.000000;,
  1.000000;1.000000;,
  1.000000;0.000000;,
  0.000000;0.000000;,
  1.000000;1.000000;,
  0.000000;1.000000;,
  0.000000;0.000000;,
  0.500000;0.000000;,
  0.000000;1.000000;,
  0.500000;1.000000;,
  0.500000;0.000000;,
  1.000000;0.000000;,
  0.500000;1.000000;,
  1.000000;1.000000;,
  0.000000;0.000000;,
  0.500000;0.000000;,
  0.000000;1.000000;,
  0.500000;1.000000;,
  0.500000;0.000000;,
  1.000000;0.000000;,
  0.500000;1.000000;,
  1.000000;1.000000;,
  0.000000;0.000000;,
  0.500000;0.000000;,
  0.000000;1.000000;,
  0.500000;1.000000;,
  0.500000;0.000000;,
  1.000000;0.000000;,
  0.500000;1.000000;,
  1.000000;1.000000;,
  0.000000;0.000000;,
  0.500000;0.000000;,
  0.000000;1.000000;,
  0.500000;1.000000;,
  0.500000;0.000000;,
  1.000000;0.000000;,
  0.500000;1.000000;,
  1.000000;1.000000;,
  0.700000;0.000000;,
  1.000000;0.000000;,
  0.700000;1.000000;,
  1.000000;1.000000;,
  1.000000;0.000000;,
  0.700000;0.000000;,
  1.000000;1.000000;,
  0.700000;1.000000;,
  0.700000;0.000000;,
  1.000000;0.000000;,
  0.700000;1.000000;,
  1.000000;1.000000;,
  1.000000;0.000000;,
  0.700000;0.000000;,
  1.000000;1.000000;,
  0.700000;1.000000;,
  0.000000;0.000000;,
  1.000000;0.000000;,
  0.000000;1.000000;,
  1.000000;1.000000;,
  1.000000;0.000000;,
  0.000000;0.000000;,
  1.000000;1.000000;,
  0.000000;1.000000;,
  0.000000;0.000000;,
  1.000000;0.000000;,
  0.000000;1.000000;,
  1.000000;1.000000;,
  1.000000;0.000000;,
  0.000000;0.000000;,
  1.000000;1.000000;,
  0.000000;1.000000;,
  0.000000;0.000000;,
  1.000000;0.000000;,
  0.000000;1.000000;,
  1.000000;1.000000;,
  1.000000;0.000000;,
  0.000000;0.000000;,
  1.000000;1.000000;,
  0.000000;1.000000;,
  0.000000;0.000000;,
  1.000000;0.000000;,
  0.000000;1.000000;,
  1.000000;1.000000;,
  1.000000;0.000000;,
  0.000000;0.000000;,
  1.000000;1.000000;,
  0.000000;1.000000;,
  0.000000;0.000000;,
  1.000000;0.000000;,
  0.000000;0.800000;,
  1.000000;0.800000;,
  0.000000;1.000000;,
  1.000000;1.000000;,
  0.000000;0.200000;,
  1.000000;0.200000;,
  0.000000;0.000000;,
  1.000000;0.000000;,
  0.000000;0.800000;,
  1.000000;0.800000;,
  0.000000;1.000000;,
  1.000000;1.000000;,
  0.000000;0.200000;,
  1.000000;0.200000;,
  0.000000;0.000000;,
  1.000000;0.000000;,
  0.000000;1.000000;,
  1.000000;1.000000;,
  1.000000;0.000000;,
  0.000000;0.000000;,
  1.000000;1.000000;,
  0.000000;1.000000;,
  0.000000;0.000000;,
  1.000000;0.000000;,
  0.000000;1.000000;,
  1.000000;1.000000;,
  1.000000;0.000000;,
  0.000000;0.000000;,
  1.000000;1.000000;,
  0.000000;1.000000;,
  0.000000;0.000000;,
  0.000000;0.000000;,
  0.000000;0.000000;,
  0.000000;0.000000;,
  0.000000;0.000000;,
  0.000000;0.000000;,
  0.000000;0.000000;,
  0.000000;0.000000;,
  0.000000;0.000000;,
  5.000000;0.000000;,
  0.000000;1.000000;,
  5.000000;1.000000;,
  5.000000;0.000000;,
  0.000000;0.000000;,
  5.000000;1.000000;,
  0.000000;1.000000;,
  0.000000;0.000000;,
  5.000000;0.000000;,
  0.000000;1.000000;,
  5.000000;1.000000;,
  5.000000;0.000000;,
  0.000000;0.000000;,
  5.000000;1.000000;,
  0.000000;1.000000;,
  0.000000;0.000000;,
  5.000000;0.000000;,
  0.000000;1.000000;,
  5.000000;1.000000;,
  5.000000;0.000000;,
  0.000000;0.000000;,
  5.000000;1.000000;,
  0.000000;1.000000;,
  0.000000;0.000000;,
  5.000000;0.000000;,
  0.000000;1.000000;,
  5.000000;1.000000;,
  5.000000;0.000000;,
  0.000000;0.000000;,
  5.000000;1.000000;,
  0.000000;1.000000;,
  0.000000;0.000000;,
  5.000000;0.000000;,
  0.000000;1.000000;,
  5.000000;1.000000;,
  5.000000;0.000000;,
  0.000000;0.000000;,
  5.000000;1.000000;,
  0.000000;1.000000;,
  0.000000;0.000000;,
  5.000000;0.000000;,
  0.000000;1.000000;,
  5.000000;1.000000;,
  5.000000;0.000000;,
  0.000000;0.000000;,
  5.000000;1.000000;,
  0.000000;1.000000;,
  0.000000;1.000000;,
  3.000000;1.000000;,
  0.000000;0.800000;,
  3.000000;0.800000;,
  0.000000;0.050000;,
  3.000000;0.050000;,
  0.000000;0.000000;,
  3.000000;0.000000;,
  0.000000;0.050000;,
  3.000000;0.050000;,
  0.000000;0.800000;,
  3.000000;0.800000;,
  0.000000;1.000000;,
  3.000000;1.000000;,
  0.000000;0.000000;,
  0.000000;0.000000;,
  0.000000;0.000000;,
  0.000000;0.000000;,
  0.000000;0.000000;,
  0.000000;0.000000;,
  0.000000;0.000000;,
  0.000000;0.000000;,
  0.000000;0.000000;,
  0.000000;0.000000;,
  0.000000;0.000000;,
  0.000000;0.000000;,
  0.000000;0.000000;,
  0.000000;0.000000;;
 }

 MeshNormals  {
  560;
  0.000000;0.000000;-1.000000;,
  0.000000;0.000000;-1.000000;,
  0.000000;0.000000;1.000000;,
  0.000000;0.000000;1.000000;,
  -1.000000;0.000000;0.000000;,
  -1.000000;0.000000;0.000000;,
  1.000000;0.000000;0.000000;,
  1.000000;0.000000;0.000000;,
  0.000000;0.000000;1.000000;,
  0.000000;0.000000;1.000000;,
  0.000000;0.000000;-1.000000;,
  0.000000;0.000000;-1.000000;,
  1.000000;0.000000;0.000000;,
  0.496006;-0.023147;-0.868011;,
  -0.496139;0.000000;0.868243;,
  -0.998913;0.046616;0.000000;,
  0.000000;0.000000;-1.000000;,
  0.000000;0.000000;-1.000000;,
  0.000000;0.000000;1.000000;,
  0.000000;0.000000;1.000000;,
  -1.000000;0.000000;0.000000;,
  -1.000000;0.000000;0.000000;,
  1.000000;0.000000;0.000000;,
  1.000000;0.000000;0.000000;,
  0.000000;0.000000;1.000000;,
  0.000000;0.000000;1.000000;,
  0.000000;0.000000;-1.000000;,
  0.000000;0.000000;-1.000000;,
  1.000000;0.000000;0.000000;,
  0.496006;-0.023147;-0.868011;,
  -0.496139;0.000000;0.868243;,
  -0.998913;0.046616;0.000000;,
  0.000000;0.000000;-1.000000;,
  0.000000;0.000000;0.000000;,
  0.000000;0.000000;1.000000;,
  0.000000;0.000000;0.000000;,
  -0.797258;-0.603639;0.000000;,
  -0.797258;-0.603639;0.000000;,
  0.797258;0.603639;0.000000;,
  0.797258;0.603639;0.000000;,
  0.000000;0.000000;-1.000000;,
  0.000000;0.000000;0.000000;,
  0.000000;0.000000;1.000000;,
  0.000000;0.000000;0.000000;,
  0.798017;-0.602634;0.000000;,
  0.798017;-0.602634;0.000000;,
  -0.798017;0.602634;0.000000;,
  -0.798017;0.602634;0.000000;,
  0.000000;0.000000;1.000000;,
  0.000000;0.000000;-1.000000;,
  0.000000;0.000000;1.000000;,
  0.000000;0.000000;-1.000000;,
  0.408466;0.912773;0.000000;,
  0.408466;0.912773;0.000000;,
  -0.408466;-0.912773;0.000000;,
  -0.408466;-0.912773;0.000000;,
  0.000000;0.000000;1.000000;,
  0.000000;0.000000;1.000000;,
  0.000000;0.000000;-1.000000;,
  0.000000;0.000000;-1.000000;,
  -0.797258;0.603638;0.000000;,
  -0.797258;0.603638;0.000000;,
  0.797258;-0.603638;0.000000;,
  0.797258;-0.603638;0.000000;,
  0.000000;0.000000;1.000000;,
  0.000000;0.000000;1.000000;,
  0.000000;0.000000;-1.000000;,
  0.000000;0.000000;-1.000000;,
  0.798017;0.602634;0.000000;,
  0.798017;0.602634;0.000000;,
  -0.798017;-0.602634;0.000000;,
  -0.798017;-0.602634;0.000000;,
  0.000000;0.000000;-1.000000;,
  0.000000;0.000000;1.000000;,
  0.000000;0.000000;-1.000000;,
  0.000000;0.000000;1.000000;,
  0.408466;-0.912773;0.000000;,
  0.408466;-0.912773;0.000000;,
  -0.408466;0.912773;0.000000;,
  -0.408466;0.912773;0.000000;,
  0.000000;0.000000;-1.000000;,
  0.000000;0.000000;-1.000000;,
  0.000000;0.000000;1.000000;,
  0.000000;0.000000;1.000000;,
  0.000000;0.000000;1.000000;,
  0.000000;0.000000;1.000000;,
  0.000000;0.000000;-1.000000;,
  0.000000;0.000000;-1.000000;,
  0.000000;0.000000;-1.000000;,
  0.000000;0.000000;1.000000;,
  0.000000;0.000000;-1.000000;,
  0.000000;0.000000;1.000000;,
  0.000000;0.000000;1.000000;,
  0.000000;0.000000;1.000000;,
  0.000000;0.000000;-1.000000;,
  0.000000;0.000000;-1.000000;,
  0.000000;0.000000;-1.000000;,
  0.000000;0.000000;-1.000000;,
  0.000000;0.000000;1.000000;,
  0.000000;0.000000;1.000000;,
  0.000000;0.000000;1.000000;,
  0.000000;0.000000;-1.000000;,
  0.000000;0.000000;1.000000;,
  0.000000;0.000000;-1.000000;,
  0.000000;0.000000;-1.000000;,
  0.000000;0.000000;-1.000000;,
  0.000000;0.000000;1.000000;,
  0.000000;0.000000;1.000000;,
  0.000000;0.000000;-1.000000;,
  0.000000;0.000000;-1.000000;,
  0.000000;0.000000;1.000000;,
  0.000000;0.000000;1.000000;,
  0.000000;-1.000000;0.000000;,
  0.000000;-1.000000;0.000000;,
  0.000000;1.000000;0.000000;,
  0.000000;1.000000;0.000000;,
  0.000000;-1.000000;0.000000;,
  0.000000;-1.000000;0.000000;,
  0.000000;1.000000;0.000000;,
  0.000000;1.000000;0.000000;,
  0.000000;0.000000;-1.000000;,
  0.000000;0.000000;-1.000000;,
  0.000000;0.000000;1.000000;,
  0.000000;0.000000;1.000000;,
  0.000000;0.000000;-1.000000;,
  0.000000;0.000000;-1.000000;,
  0.000000;0.000000;1.000000;,
  0.000000;0.000000;1.000000;,
  0.000000;0.000000;-1.000000;,
  0.000000;0.000000;-1.000000;,
  0.000000;0.000000;1.000000;,
  0.000000;0.000000;1.000000;,
  -0.327967;0.944689;0.000000;,
  -0.327967;0.944689;0.000000;,
  0.327967;-0.944689;0.000000;,
  0.327967;-0.944689;0.000000;,
  0.000000;0.000000;1.000000;,
  0.000000;0.000000;1.000000;,
  0.000000;0.000000;-1.000000;,
  0.000000;0.000000;-1.000000;,
  0.311663;-0.950193;0.000000;,
  0.258548;-0.835550;-0.484777;,
  -0.269087;0.820386;0.504538;,
  -0.295605;0.955310;0.000000;,
  0.000000;0.000000;1.000000;,
  0.000000;0.000000;1.000000;,
  0.000000;0.000000;-1.000000;,
  0.000000;0.000000;-1.000000;,
  -0.327967;-0.944689;0.000000;,
  -0.327967;-0.944689;0.000000;,
  0.327967;0.944689;0.000000;,
  0.327967;0.944689;0.000000;,
  0.000000;0.000000;-1.000000;,
  0.000000;0.000000;-1.000000;,
  0.000000;0.000000;1.000000;,
  0.000000;0.000000;1.000000;,
  0.311663;0.950193;0.000000;,
  0.258548;0.835551;0.484776;,
  -0.269087;-0.820387;-0.504537;,
  -0.295605;-0.955310;0.000000;,
  0.000000;0.000000;-1.000000;,
  0.000000;0.000000;-1.000000;,
  0.000000;0.000000;1.000000;,
  0.000000;0.000000;1.000000;,
  -1.000000;0.000000;0.000000;,
  -1.000000;0.000000;0.000000;,
  1.000000;0.000000;0.000000;,
  1.000000;0.000000;0.000000;,
  0.000000;0.000000;1.000000;,
  0.000000;0.000000;1.000000;,
  0.000000;0.000000;-1.000000;,
  0.000000;0.000000;-1.000000;,
  1.000000;0.000000;0.000000;,
  0.623690;-0.056699;-0.779613;,
  -0.624695;0.000000;0.780869;,
  -0.995893;0.090536;0.000000;,
  0.000000;-0.459854;-0.887994;,
  0.000000;-0.459854;-0.887994;,
  0.000000;0.459854;0.887994;,
  0.000000;0.459854;0.887994;,
  -1.000000;0.000000;0.000000;,
  -1.000000;0.000000;0.000000;,
  1.000000;0.000000;0.000000;,
  1.000000;0.000000;0.000000;,
  1.000000;0.000000;0.000000;,
  1.000000;0.000000;0.000000;,
  -1.000000;0.000000;0.000000;,
  -1.000000;0.000000;0.000000;,
  0.000000;-0.447214;-0.894427;,
  0.000000;-0.447214;-0.894427;,
  0.000000;0.447214;0.894427;,
  0.000000;0.447214;0.894427;,
  0.000000;0.459854;-0.887994;,
  0.000000;0.459854;-0.887994;,
  0.000000;-0.459854;0.887994;,
  0.000000;-0.459854;0.887994;,
  1.000000;0.000000;0.000000;,
  1.000000;0.000000;0.000000;,
  -1.000000;0.000000;0.000000;,
  -1.000000;0.000000;0.000000;,
  -1.000000;0.000000;0.000000;,
  -1.000000;0.000000;0.000000;,
  1.000000;0.000000;0.000000;,
  1.000000;0.000000;0.000000;,
  -0.357930;0.417585;-0.835170;,
  0.000000;0.000000;1.000000;,
  0.000000;-0.447214;0.894427;,
  0.962964;0.000000;-0.269630;,
  0.000000;-0.459854;-0.887994;,
  0.000000;-0.459854;-0.887994;,
  0.000000;0.459854;0.887994;,
  0.000000;0.459854;0.887994;,
  -1.000000;0.000000;0.000000;,
  -1.000000;0.000000;0.000000;,
  1.000000;0.000000;0.000000;,
  1.000000;0.000000;0.000000;,
  1.000000;0.000000;0.000000;,
  1.000000;0.000000;0.000000;,
  -1.000000;0.000000;0.000000;,
  -1.000000;0.000000;0.000000;,
  0.000000;-0.447214;-0.894427;,
  0.000000;-0.447214;-0.894427;,
  0.000000;0.447214;0.894427;,
  0.000000;0.447214;0.894427;,
  0.000000;0.459854;-0.887994;,
  0.000000;0.459854;-0.887994;,
  0.000000;-0.459854;0.887994;,
  0.000000;-0.459854;0.887994;,
  1.000000;0.000000;0.000000;,
  1.000000;0.000000;0.000000;,
  -1.000000;0.000000;0.000000;,
  -1.000000;0.000000;0.000000;,
  -1.000000;0.000000;0.000000;,
  -1.000000;0.000000;0.000000;,
  1.000000;0.000000;0.000000;,
  1.000000;0.000000;0.000000;,
  -0.357930;0.417585;-0.835170;,
  0.000000;0.000000;1.000000;,
  0.000000;-0.447214;0.894427;,
  0.962964;0.000000;-0.269630;,
  0.000000;0.000000;-1.000000;,
  0.000000;0.000000;-1.000000;,
  0.000000;0.000000;1.000000;,
  0.000000;0.000000;1.000000;,
  -1.000000;0.000000;0.000000;,
  -1.000000;0.000000;0.000000;,
  1.000000;0.000000;0.000000;,
  1.000000;0.000000;0.000000;,
  0.000000;0.000000;1.000000;,
  0.000000;0.000000;1.000000;,
  0.000000;0.000000;-1.000000;,
  0.000000;0.000000;-1.000000;,
  1.000000;0.000000;0.000000;,
  0.491024;-0.143215;-0.859293;,
  -0.496139;0.000000;0.868243;,
  -0.960000;0.280000;0.000000;,
  0.000000;0.000000;-1.000000;,
  0.000000;0.000000;-1.000000;,
  0.000000;0.000000;1.000000;,
  0.000000;0.000000;1.000000;,
  0.000000;0.000000;0.000000;,
  -1.000000;0.000000;0.000000;,
  0.000000;0.000000;0.000000;,
  1.000000;0.000000;0.000000;,
  0.000000;0.000000;1.000000;,
  0.000000;0.000000;1.000000;,
  0.000000;0.000000;-1.000000;,
  0.000000;0.000000;-1.000000;,
  1.000000;0.000000;0.000000;,
  0.498729;-0.142494;-0.854965;,
  -0.496139;0.000000;0.868243;,
  -0.961524;0.274721;0.000000;,
  0.000000;0.000000;-1.000000;,
  0.000000;0.000000;-1.000000;,
  0.000000;0.000000;1.000000;,
  0.000000;0.000000;1.000000;,
  -0.798893;0.601473;0.000000;,
  -0.798893;0.601473;0.000000;,
  0.798893;-0.601473;0.000000;,
  0.798893;-0.601473;0.000000;,
  0.000000;0.000000;1.000000;,
  0.000000;0.000000;-1.000000;,
  0.000000;0.000000;1.000000;,
  0.000000;0.000000;-1.000000;,
  0.408466;0.912773;0.000000;,
  0.408466;0.912773;0.000000;,
  -0.408466;-0.912773;0.000000;,
  -0.408466;-0.912773;0.000000;,
  0.000000;0.000000;1.000000;,
  0.000000;0.000000;1.000000;,
  0.000000;0.000000;-1.000000;,
  0.000000;0.000000;-1.000000;,
  0.861971;0.506958;0.000000;,
  0.861971;0.506958;0.000000;,
  -0.861971;-0.506958;0.000000;,
  -0.861971;-0.506958;0.000000;,
  0.000000;0.000000;-1.000000;,
  0.000000;0.000000;1.000000;,
  0.000000;0.000000;-1.000000;,
  0.000000;0.000000;1.000000;,
  0.408466;-0.912773;0.000000;,
  0.408466;-0.912773;0.000000;,
  -0.408466;0.912773;0.000000;,
  -0.408466;0.912773;0.000000;,
  0.000000;0.000000;1.000000;,
  0.000000;0.000000;1.000000;,
  0.000000;0.000000;-1.000000;,
  0.000000;0.000000;-1.000000;,
  0.000000;0.000000;-1.000000;,
  0.000000;0.000000;1.000000;,
  0.000000;0.000000;-1.000000;,
  0.000000;0.000000;1.000000;,
  0.000000;0.000000;-1.000000;,
  0.000000;0.000000;-1.000000;,
  0.000000;0.000000;1.000000;,
  0.000000;0.000000;1.000000;,
  0.000000;0.000000;1.000000;,
  0.000000;0.000000;-1.000000;,
  0.000000;0.000000;1.000000;,
  0.000000;0.000000;-1.000000;,
  0.000000;0.000000;-1.000000;,
  0.000000;0.000000;-1.000000;,
  0.000000;0.000000;1.000000;,
  0.000000;0.000000;1.000000;,
  0.000000;0.000000;-1.000000;,
  0.000000;0.000000;-1.000000;,
  0.000000;0.000000;1.000000;,
  0.000000;0.000000;1.000000;,
  0.000000;-1.000000;0.000000;,
  0.000000;-1.000000;0.000000;,
  0.000000;1.000000;0.000000;,
  0.000000;1.000000;0.000000;,
  0.000000;-1.000000;0.000000;,
  0.000000;-1.000000;0.000000;,
  0.000000;1.000000;0.000000;,
  0.000000;1.000000;0.000000;,
  0.000000;0.000000;-1.000000;,
  0.000000;0.000000;-1.000000;,
  0.000000;0.000000;1.000000;,
  0.000000;0.000000;1.000000;,
  0.000000;0.000000;-1.000000;,
  0.000000;0.000000;-1.000000;,
  0.000000;0.000000;1.000000;,
  0.000000;0.000000;1.000000;,
  0.000000;0.000000;-1.000000;,
  0.000000;0.000000;-1.000000;,
  0.000000;0.000000;1.000000;,
  0.000000;0.000000;1.000000;,
  -0.327967;0.944689;0.000000;,
  -0.327967;0.944689;0.000000;,
  0.327967;-0.944689;0.000000;,
  0.327967;-0.944689;0.000000;,
  0.000000;0.000000;1.000000;,
  0.000000;0.000000;1.000000;,
  0.000000;0.000000;-1.000000;,
  0.000000;0.000000;-1.000000;,
  0.311663;-0.950193;0.000000;,
  0.258548;-0.835550;-0.484777;,
  -0.269087;0.820386;0.504538;,
  -0.295605;0.955310;0.000000;,
  0.000000;0.000000;1.000000;,
  0.000000;0.000000;1.000000;,
  0.000000;0.000000;-1.000000;,
  0.000000;0.000000;-1.000000;,
  -0.327967;-0.944689;0.000000;,
  -0.327967;-0.944689;0.000000;,
  0.327967;0.944689;0.000000;,
  0.327967;0.944689;0.000000;,
  0.000000;0.000000;-1.000000;,
  0.000000;0.000000;-1.000000;,
  0.000000;0.000000;1.000000;,
  0.000000;0.000000;1.000000;,
  0.311663;0.950193;0.000000;,
  0.258548;0.835551;0.484776;,
  -0.269087;-0.820387;-0.504537;,
  -0.295605;-0.955310;0.000000;,
  0.000000;0.000000;-1.000000;,
  0.000000;0.000000;-1.000000;,
  0.000000;0.000000;1.000000;,
  0.000000;0.000000;1.000000;,
  -1.000000;0.000000;0.000000;,
  -1.000000;0.000000;0.000000;,
  1.000000;0.000000;0.000000;,
  1.000000;0.000000;0.000000;,
  0.000000;0.000000;1.000000;,
  0.000000;0.000000;1.000000;,
  0.000000;0.000000;-1.000000;,
  0.000000;0.000000;-1.000000;,
  1.000000;0.000000;0.000000;,
  0.623690;-0.056699;-0.779613;,
  -0.624695;0.000000;0.780869;,
  -0.995893;0.090536;0.000000;,
  1.000000;0.000000;0.000000;,
  1.000000;0.000000;0.000000;,
  -1.000000;0.000000;0.000000;,
  -1.000000;0.000000;0.000000;,
  0.000000;0.000000;1.000000;,
  0.000000;0.000000;1.000000;,
  0.000000;0.000000;-1.000000;,
  0.000000;0.000000;-1.000000;,
  -1.000000;0.000000;0.000000;,
  -1.000000;0.000000;0.000000;,
  1.000000;0.000000;0.000000;,
  1.000000;0.000000;0.000000;,
  0.000000;0.000000;-1.000000;,
  0.894418;0.447210;-0.004472;,
  -0.999987;0.000000;0.005000;,
  0.000000;-0.999950;0.010000;,
  0.000000;1.000000;0.000000;,
  0.000000;1.000000;0.000000;,
  0.000000;-1.000000;0.000000;,
  0.000000;-1.000000;0.000000;,
  1.000000;0.000000;0.000000;,
  1.000000;0.000000;0.000000;,
  -1.000000;0.000000;0.000000;,
  -1.000000;0.000000;0.000000;,
  0.000000;0.000000;1.000000;,
  0.000000;0.000000;1.000000;,
  0.000000;0.000000;-1.000000;,
  0.000000;0.000000;-1.000000;,
  -1.000000;0.000000;0.000000;,
  -1.000000;0.000000;0.000000;,
  1.000000;0.000000;0.000000;,
  1.000000;0.000000;0.000000;,
  0.000000;0.000000;-1.000000;,
  0.894418;0.447209;-0.004472;,
  -0.999987;0.000000;0.005000;,
  0.000000;-0.999950;0.009999;,
  0.000000;1.000000;0.000000;,
  0.000000;1.000000;0.000000;,
  0.000000;-1.000000;0.000000;,
  0.000000;-1.000000;0.000000;,
  1.000000;0.000000;0.000000;,
  1.000000;0.000000;0.000000;,
  -1.000000;0.000000;0.000000;,
  -1.000000;0.000000;0.000000;,
  0.000000;0.000000;1.000000;,
  0.000000;0.000000;1.000000;,
  0.000000;0.000000;-1.000000;,
  0.000000;0.000000;-1.000000;,
  -1.000000;0.000000;0.000000;,
  -1.000000;0.000000;0.000000;,
  1.000000;0.000000;0.000000;,
  1.000000;0.000000;0.000000;,
  0.000000;0.000000;-1.000000;,
  0.894418;0.447209;-0.004472;,
  -0.999987;0.000000;0.005000;,
  0.000000;-0.999950;0.009999;,
  0.000000;1.000000;0.000000;,
  0.000000;1.000000;0.000000;,
  0.000000;-1.000000;0.000000;,
  0.000000;-1.000000;0.000000;,
  1.000000;0.000000;0.000000;,
  1.000000;0.000000;0.000000;,
  -1.000000;0.000000;0.000000;,
  -1.000000;0.000000;0.000000;,
  0.000000;0.000000;-1.000000;,
  0.000000;0.000000;-1.000000;,
  0.000000;0.000000;1.000000;,
  0.000000;0.000000;1.000000;,
  -1.000000;0.000000;0.000000;,
  -1.000000;0.000000;0.000000;,
  1.000000;0.000000;0.000000;,
  1.000000;0.000000;0.000000;,
  0.000000;0.000000;1.000000;,
  0.894418;-0.447210;0.004472;,
  -0.999987;0.000000;-0.005000;,
  0.000000;0.999950;-0.010000;,
  0.000000;-1.000000;0.000000;,
  0.000000;-1.000000;0.000000;,
  0.000000;1.000000;0.000000;,
  0.000000;1.000000;0.000000;,
  1.000000;0.000000;0.000000;,
  1.000000;0.000000;0.000000;,
  -1.000000;0.000000;0.000000;,
  -1.000000;0.000000;0.000000;,
  0.000000;0.000000;-1.000000;,
  0.000000;0.000000;-1.000000;,
  0.000000;0.000000;1.000000;,
  0.000000;0.000000;1.000000;,
  -1.000000;0.000000;0.000000;,
  -1.000000;0.000000;0.000000;,
  1.000000;0.000000;0.000000;,
  1.000000;0.000000;0.000000;,
  0.000000;0.000000;1.000000;,
  0.894417;-0.447211;0.004472;,
  -0.999987;0.000000;-0.005000;,
  0.000000;0.999950;-0.009999;,
  0.000000;-1.000000;0.000000;,
  0.000000;-1.000000;0.000000;,
  0.000000;1.000000;0.000000;,
  0.000000;1.000000;0.000000;,
  1.000000;0.000000;0.000000;,
  1.000000;0.000000;0.000000;,
  -1.000000;0.000000;0.000000;,
  -1.000000;0.000000;0.000000;,
  0.000000;0.000000;-1.000000;,
  0.000000;0.000000;-1.000000;,
  0.000000;0.000000;1.000000;,
  0.000000;0.000000;1.000000;,
  -1.000000;0.000000;0.000000;,
  -1.000000;0.000000;0.000000;,
  1.000000;0.000000;0.000000;,
  1.000000;0.000000;0.000000;,
  0.000000;0.000000;1.000000;,
  0.894417;-0.447211;0.004472;,
  -0.999987;0.000000;-0.005000;,
  0.000000;0.999950;-0.009999;,
  0.000000;-1.000000;0.000000;,
  0.000000;-1.000000;0.000000;,
  0.000000;1.000000;0.000000;,
  0.000000;1.000000;0.000000;,
  -1.000000;0.000000;0.000000;,
  -1.000000;0.000000;0.000000;,
  1.000000;0.000000;0.000000;,
  1.000000;0.000000;0.000000;,
  -0.317067;0.948403;0.000000;,
  -0.317067;0.948403;0.000000;,
  0.317067;-0.948403;0.000000;,
  0.317067;-0.948403;0.000000;,
  0.000000;1.000000;0.000000;,
  0.000000;1.000000;0.000000;,
  0.000000;-1.000000;0.000000;,
  0.000000;-1.000000;0.000000;,
  0.000000;1.000000;0.000000;,
  0.000000;1.000000;0.000000;,
  0.000000;-1.000000;0.000000;,
  0.000000;-1.000000;0.000000;,
  0.317067;0.948403;0.000000;,
  0.317067;0.948403;0.000000;,
  -0.317067;-0.948403;0.000000;,
  -0.317067;-0.948403;0.000000;,
  1.000000;0.000000;0.000000;,
  1.000000;0.000000;0.000000;,
  -1.000000;0.000000;0.000000;,
  -1.000000;0.000000;0.000000;,
  -1.000000;0.000000;0.000000;,
  -1.000000;0.000000;0.000000;,
  1.000000;0.000000;0.000000;,
  1.000000;0.000000;0.000000;,
  -0.317160;0.948372;0.000000;,
  -0.317160;0.948372;0.000000;,
  0.317160;-0.948372;0.000000;,
  0.317160;-0.948372;0.000000;,
  0.000000;1.000000;0.000000;,
  0.000000;1.000000;0.000000;,
  0.000000;-1.000000;0.000000;,
  0.000000;-1.000000;0.000000;,
  0.000000;1.000000;0.000000;,
  0.000000;1.000000;0.000000;,
  0.000000;-1.000000;0.000000;,
  0.000000;-1.000000;0.000000;,
  0.317160;0.948372;0.000000;,
  0.317160;0.948372;0.000000;,
  -0.317160;-0.948372;0.000000;,
  -0.317160;-0.948372;0.000000;,
  1.000000;0.000000;0.000000;,
  1.000000;0.000000;0.000000;,
  -1.000000;0.000000;0.000000;,
  -1.000000;0.000000;0.000000;;
  560;
  3;0,0,0;,
  3;1,1,1;,
  3;2,2,2;,
  3;3,3,3;,
  3;4,4,4;,
  3;5,5,5;,
  3;6,6,6;,
  3;7,7,7;,
  3;8,8,8;,
  3;9,9,9;,
  3;10,10,10;,
  3;11,11,11;,
  3;12,12,12;,
  3;13,13,13;,
  3;14,14,14;,
  3;15,15,15;,
  3;16,16,16;,
  3;17,17,17;,
  3;18,18,18;,
  3;19,19,19;,
  3;20,20,20;,
  3;21,21,21;,
  3;22,22,22;,
  3;23,23,23;,
  3;24,24,24;,
  3;25,25,25;,
  3;26,26,26;,
  3;27,27,27;,
  3;28,28,28;,
  3;29,29,29;,
  3;30,30,30;,
  3;31,31,31;,
  3;32,32,32;,
  3;33,33,33;,
  3;34,34,34;,
  3;35,35,35;,
  3;36,36,36;,
  3;37,37,37;,
  3;38,38,38;,
  3;39,39,39;,
  3;40,40,40;,
  3;41,41,41;,
  3;42,42,42;,
  3;43,43,43;,
  3;44,44,44;,
  3;45,45,45;,
  3;46,46,46;,
  3;47,47,47;,
  3;48,48,48;,
  3;49,49,49;,
  3;50,50,50;,
  3;51,51,51;,
  3;52,52,52;,
  3;53,53,53;,
  3;54,54,54;,
  3;55,55,55;,
  3;56,56,56;,
  3;57,57,57;,
  3;58,58,58;,
  3;59,59,59;,
  3;60,60,60;,
  3;61,61,61;,
  3;62,62,62;,
  3;63,63,63;,
  3;64,64,64;,
  3;65,65,65;,
  3;66,66,66;,
  3;67,67,67;,
  3;68,68,68;,
  3;69,69,69;,
  3;70,70,70;,
  3;71,71,71;,
  3;72,72,72;,
  3;73,73,73;,
  3;74,74,74;,
  3;75,75,75;,
  3;76,76,76;,
  3;77,77,77;,
  3;78,78,78;,
  3;79,79,79;,
  3;80,80,80;,
  3;81,81,81;,
  3;82,82,82;,
  3;83,83,83;,
  3;84,84,84;,
  3;85,85,85;,
  3;86,86,86;,
  3;87,87,87;,
  3;88,88,88;,
  3;89,89,89;,
  3;90,90,90;,
  3;91,91,91;,
  3;92,92,92;,
  3;93,93,93;,
  3;94,94,94;,
  3;95,95,95;,
  3;96,96,96;,
  3;97,97,97;,
  3;98,98,98;,
  3;99,99,99;,
  3;100,100,100;,
  3;101,101,101;,
  3;102,102,102;,
  3;103,103,103;,
  3;104,104,104;,
  3;105,105,105;,
  3;106,106,106;,
  3;107,107,107;,
  3;108,108,108;,
  3;109,109,109;,
  3;110,110,110;,
  3;111,111,111;,
  3;112,112,112;,
  3;113,113,113;,
  3;114,114,114;,
  3;115,115,115;,
  3;116,116,116;,
  3;117,117,117;,
  3;118,118,118;,
  3;119,119,119;,
  3;120,120,120;,
  3;121,121,121;,
  3;122,122,122;,
  3;123,123,123;,
  3;124,124,124;,
  3;125,125,125;,
  3;126,126,126;,
  3;127,127,127;,
  3;128,128,128;,
  3;129,129,129;,
  3;130,130,130;,
  3;131,131,131;,
  3;132,132,132;,
  3;133,133,133;,
  3;134,134,134;,
  3;135,135,135;,
  3;136,136,136;,
  3;137,137,137;,
  3;138,138,138;,
  3;139,139,139;,
  3;140,140,140;,
  3;141,141,141;,
  3;142,142,142;,
  3;143,143,143;,
  3;144,144,144;,
  3;145,145,145;,
  3;146,146,146;,
  3;147,147,147;,
  3;148,148,148;,
  3;149,149,149;,
  3;150,150,150;,
  3;151,151,151;,
  3;152,152,152;,
  3;153,153,153;,
  3;154,154,154;,
  3;155,155,155;,
  3;156,156,156;,
  3;157,157,157;,
  3;158,158,158;,
  3;159,159,159;,
  3;160,160,160;,
  3;161,161,161;,
  3;162,162,162;,
  3;163,163,163;,
  3;164,164,164;,
  3;165,165,165;,
  3;166,166,166;,
  3;167,167,167;,
  3;168,168,168;,
  3;169,169,169;,
  3;170,170,170;,
  3;171,171,171;,
  3;172,172,172;,
  3;173,173,173;,
  3;174,174,174;,
  3;175,175,175;,
  3;176,176,176;,
  3;177,177,177;,
  3;178,178,178;,
  3;179,179,179;,
  3;180,180,180;,
  3;181,181,181;,
  3;182,182,182;,
  3;183,183,183;,
  3;184,184,184;,
  3;185,185,185;,
  3;186,186,186;,
  3;187,187,187;,
  3;188,188,188;,
  3;189,189,189;,
  3;190,190,190;,
  3;191,191,191;,
  3;192,192,192;,
  3;193,193,193;,
  3;194,194,194;,
  3;195,195,195;,
  3;196,196,196;,
  3;197,197,197;,
  3;198,198,198;,
  3;199,199,199;,
  3;200,200,200;,
  3;201,201,201;,
  3;202,202,202;,
  3;203,203,203;,
  3;204,204,204;,
  3;205,205,205;,
  3;206,206,206;,
  3;207,207,207;,
  3;208,208,208;,
  3;209,209,209;,
  3;210,210,210;,
  3;211,211,211;,
  3;212,212,212;,
  3;213,213,213;,
  3;214,214,214;,
  3;215,215,215;,
  3;216,216,216;,
  3;217,217,217;,
  3;218,218,218;,
  3;219,219,219;,
  3;220,220,220;,
  3;221,221,221;,
  3;222,222,222;,
  3;223,223,223;,
  3;224,224,224;,
  3;225,225,225;,
  3;226,226,226;,
  3;227,227,227;,
  3;228,228,228;,
  3;229,229,229;,
  3;230,230,230;,
  3;231,231,231;,
  3;232,232,232;,
  3;233,233,233;,
  3;234,234,234;,
  3;235,235,235;,
  3;236,236,236;,
  3;237,237,237;,
  3;238,238,238;,
  3;239,239,239;,
  3;240,240,240;,
  3;241,241,241;,
  3;242,242,242;,
  3;243,243,243;,
  3;244,244,244;,
  3;245,245,245;,
  3;246,246,246;,
  3;247,247,247;,
  3;248,248,248;,
  3;249,249,249;,
  3;250,250,250;,
  3;251,251,251;,
  3;252,252,252;,
  3;253,253,253;,
  3;254,254,254;,
  3;255,255,255;,
  3;256,256,256;,
  3;257,257,257;,
  3;258,258,258;,
  3;259,259,259;,
  3;260,260,260;,
  3;261,261,261;,
  3;262,262,262;,
  3;263,263,263;,
  3;264,264,264;,
  3;265,265,265;,
  3;266,266,266;,
  3;267,267,267;,
  3;268,268,268;,
  3;269,269,269;,
  3;270,270,270;,
  3;271,271,271;,
  3;272,272,272;,
  3;273,273,273;,
  3;274,274,274;,
  3;275,275,275;,
  3;276,276,276;,
  3;277,277,277;,
  3;278,278,278;,
  3;279,279,279;,
  3;280,280,280;,
  3;281,281,281;,
  3;282,282,282;,
  3;283,283,283;,
  3;284,284,284;,
  3;285,285,285;,
  3;286,286,286;,
  3;287,287,287;,
  3;288,288,288;,
  3;289,289,289;,
  3;290,290,290;,
  3;291,291,291;,
  3;292,292,292;,
  3;293,293,293;,
  3;294,294,294;,
  3;295,295,295;,
  3;296,296,296;,
  3;297,297,297;,
  3;298,298,298;,
  3;299,299,299;,
  3;300,300,300;,
  3;301,301,301;,
  3;302,302,302;,
  3;303,303,303;,
  3;304,304,304;,
  3;305,305,305;,
  3;306,306,306;,
  3;307,307,307;,
  3;308,308,308;,
  3;309,309,309;,
  3;310,310,310;,
  3;311,311,311;,
  3;312,312,312;,
  3;313,313,313;,
  3;314,314,314;,
  3;315,315,315;,
  3;316,316,316;,
  3;317,317,317;,
  3;318,318,318;,
  3;319,319,319;,
  3;320,320,320;,
  3;321,321,321;,
  3;322,322,322;,
  3;323,323,323;,
  3;324,324,324;,
  3;325,325,325;,
  3;326,326,326;,
  3;327,327,327;,
  3;328,328,328;,
  3;329,329,329;,
  3;330,330,330;,
  3;331,331,331;,
  3;332,332,332;,
  3;333,333,333;,
  3;334,334,334;,
  3;335,335,335;,
  3;336,336,336;,
  3;337,337,337;,
  3;338,338,338;,
  3;339,339,339;,
  3;340,340,340;,
  3;341,341,341;,
  3;342,342,342;,
  3;343,343,343;,
  3;344,344,344;,
  3;345,345,345;,
  3;346,346,346;,
  3;347,347,347;,
  3;348,348,348;,
  3;349,349,349;,
  3;350,350,350;,
  3;351,351,351;,
  3;352,352,352;,
  3;353,353,353;,
  3;354,354,354;,
  3;355,355,355;,
  3;356,356,356;,
  3;357,357,357;,
  3;358,358,358;,
  3;359,359,359;,
  3;360,360,360;,
  3;361,361,361;,
  3;362,362,362;,
  3;363,363,363;,
  3;364,364,364;,
  3;365,365,365;,
  3;366,366,366;,
  3;367,367,367;,
  3;368,368,368;,
  3;369,369,369;,
  3;370,370,370;,
  3;371,371,371;,
  3;372,372,372;,
  3;373,373,373;,
  3;374,374,374;,
  3;375,375,375;,
  3;376,376,376;,
  3;377,377,377;,
  3;378,378,378;,
  3;379,379,379;,
  3;380,380,380;,
  3;381,381,381;,
  3;382,382,382;,
  3;383,383,383;,
  3;384,384,384;,
  3;385,385,385;,
  3;386,386,386;,
  3;387,387,387;,
  3;388,388,388;,
  3;389,389,389;,
  3;390,390,390;,
  3;391,391,391;,
  3;392,392,392;,
  3;393,393,393;,
  3;394,394,394;,
  3;395,395,395;,
  3;396,396,396;,
  3;397,397,397;,
  3;398,398,398;,
  3;399,399,399;,
  3;400,400,400;,
  3;401,401,401;,
  3;402,402,402;,
  3;403,403,403;,
  3;404,404,404;,
  3;405,405,405;,
  3;406,406,406;,
  3;407,407,407;,
  3;408,408,408;,
  3;409,409,409;,
  3;410,410,410;,
  3;411,411,411;,
  3;412,412,412;,
  3;413,413,413;,
  3;414,414,414;,
  3;415,415,415;,
  3;416,416,416;,
  3;417,417,417;,
  3;418,418,418;,
  3;419,419,419;,
  3;420,420,420;,
  3;421,421,421;,
  3;422,422,422;,
  3;423,423,423;,
  3;424,424,424;,
  3;425,425,425;,
  3;426,426,426;,
  3;427,427,427;,
  3;428,428,428;,
  3;429,429,429;,
  3;430,430,430;,
  3;431,431,431;,
  3;432,432,432;,
  3;433,433,433;,
  3;434,434,434;,
  3;435,435,435;,
  3;436,436,436;,
  3;437,437,437;,
  3;438,438,438;,
  3;439,439,439;,
  3;440,440,440;,
  3;441,441,441;,
  3;442,442,442;,
  3;443,443,443;,
  3;444,444,444;,
  3;445,445,445;,
  3;446,446,446;,
  3;447,447,447;,
  3;448,448,448;,
  3;449,449,449;,
  3;450,450,450;,
  3;451,451,451;,
  3;452,452,452;,
  3;453,453,453;,
  3;454,454,454;,
  3;455,455,455;,
  3;456,456,456;,
  3;457,457,457;,
  3;458,458,458;,
  3;459,459,459;,
  3;460,460,460;,
  3;461,461,461;,
  3;462,462,462;,
  3;463,463,463;,
  3;464,464,464;,
  3;465,465,465;,
  3;466,466,466;,
  3;467,467,467;,
  3;468,468,468;,
  3;469,469,469;,
  3;470,470,470;,
  3;471,471,471;,
  3;472,472,472;,
  3;473,473,473;,
  3;474,474,474;,
  3;475,475,475;,
  3;476,476,476;,
  3;477,477,477;,
  3;478,478,478;,
  3;479,479,479;,
  3;480,480,480;,
  3;481,481,481;,
  3;482,482,482;,
  3;483,483,483;,
  3;484,484,484;,
  3;485,485,485;,
  3;486,486,486;,
  3;487,487,487;,
  3;488,488,488;,
  3;489,489,489;,
  3;490,490,490;,
  3;491,491,491;,
  3;492,492,492;,
  3;493,493,493;,
  3;494,494,494;,
  3;495,495,495;,
  3;496,496,496;,
  3;497,497,497;,
  3;498,498,498;,
  3;499,499,499;,
  3;500,500,500;,
  3;501,501,501;,
  3;502,502,502;,
  3;503,503,503;,
  3;504,504,504;,
  3;505,505,505;,
  3;506,506,506;,
  3;507,507,507;,
  3;508,508,508;,
  3;509,509,509;,
  3;510,510,510;,
  3;511,511,511;,
  3;512,512,512;,
  3;513,513,513;,
  3;514,514,514;,
  3;515,515,515;,
  3;516,516,516;,
  3;517,517,517;,
  3;518,518,518;,
  3;519,519,519;,
  3;520,520,520;,
  3;521,521,521;,
  3;522,522,522;,
  3;523,523,523;,
  3;524,524,524;,
  3;525,525,525;,
  3;526,526,526;,
  3;527,527,527;,
  3;528,528,528;,
  3;529,529,529;,
  3;530,530,530;,
  3;531,531,531;,
  3;532,532,532;,
  3;533,533,533;,
  3;534,534,534;,
  3;535,535,535;,
  3;536,536,536;,
  3;537,537,537;,
  3;538,538,538;,
  3;539,539,539;,
  3;540,540,540;,
  3;541,541,541;,
  3;542,542,542;,
  3;543,543,543;,
  3;544,544,544;,
  3;545,545,545;,
  3;546,546,546;,
  3;547,547,547;,
  3;548,548,548;,
  3;549,549,549;,
  3;550,550,550;,
  3;551,551,551;,
  3;552,552,552;,
  3;553,553,553;,
  3;554,554,554;,
  3;555,555,555;,
  3;556,556,556;,
  3;557,557,557;,
  3;558,558,558;,
  3;559,559,559;;
 }
}