xof 0303txt 0032
template Vector {
 <3d82ab5e-62da-11cf-ab39-0020af71e433>
 FLOAT x;
 FLOAT y;
 FLOAT z;
}

template MeshFace {
 <3d82ab5f-62da-11cf-ab39-0020af71e433>
 DWORD nFaceVertexIndices;
 array DWORD faceVertexIndices[nFaceVertexIndices];
}

template Mesh {
 <3d82ab44-62da-11cf-ab39-0020af71e433>
 DWORD nVertices;
 array Vector vertices[nVertices];
 DWORD nFaces;
 array MeshFace faces[nFaces];
 [...]
}

template ColorRGBA {
 <35ff44e0-6c7c-11cf-8f52-0040333594a3>
 FLOAT red;
 FLOAT green;
 FLOAT blue;
 FLOAT alpha;
}

template ColorRGB {
 <d3e16e81-7835-11cf-8f52-0040333594a3>
 FLOAT red;
 FLOAT green;
 FLOAT blue;
}

template Material {
 <3d82ab4d-62da-11cf-ab39-0020af71e433>
 ColorRGBA faceColor;
 FLOAT power;
 ColorRGB specularColor;
 ColorRGB emissiveColor;
 [...]
}

template MeshMaterialList {
 <f6f23f42-7686-11cf-8f52-0040333594a3>
 DWORD nMaterials;
 DWORD nFaceIndexes;
 array DWORD faceIndexes[nFaceIndexes];
 [Material <3d82ab4d-62da-11cf-ab39-0020af71e433>]
}

template TextureFilename {
 <a42790e1-7810-11cf-8f52-0040333594a3>
 STRING filename;
}

template Coords2d {
 <f6f23f44-7686-11cf-8f52-0040333594a3>
 FLOAT u;
 FLOAT v;
}

template MeshTextureCoords {
 <f6f23f40-7686-11cf-8f52-0040333594a3>
 DWORD nTextureCoords;
 array Coords2d textureCoords[nTextureCoords];
}

template MeshNormals {
 <f6f23f43-7686-11cf-8f52-0040333594a3>
 DWORD nNormals;
 array Vector normals[nNormals];
 DWORD nFaceNormals;
 array MeshFace faceNormals[nFaceNormals];
}


Mesh  {
 121;
 1.500000;-0.300000;0.000000;,
 1.500000;1.100000;0.000000;,
 3.500000;1.100000;0.000000;,
 1.500000;-0.300000;2.000000;,
 1.500000;1.100000;2.000000;,
 3.500000;1.100000;2.000000;,
 1.509000;-0.300000;6.000000;,
 1.509000;1.100000;6.000000;,
 3.500000;1.100000;6.000000;,
 1.523000;-0.300000;8.000000;,
 1.523000;1.100000;8.000000;,
 3.500000;1.100000;8.000000;,
 1.531000;-0.300000;9.000000;,
 1.531000;1.100000;9.000000;,
 3.500000;1.100000;9.000000;,
 1.543000;-0.300000;10.000000;,
 1.543000;1.100000;10.000000;,
 3.500000;1.100000;10.000000;,
 1.553000;-0.300000;11.000000;,
 1.553000;1.100000;11.000000;,
 3.500000;1.100000;11.000000;,
 1.566000;-0.300000;12.000000;,
 1.566000;1.100000;12.000000;,
 3.500000;1.100000;12.000000;,
 1.581000;-0.300000;13.000000;,
 1.581000;1.100000;13.000000;,
 3.500000;1.100000;13.000000;,
 1.597000;-0.300000;14.000000;,
 1.597000;1.100000;14.000000;,
 3.500000;1.100000;14.000000;,
 1.614000;-0.300000;15.000000;,
 1.614000;1.100000;15.000000;,
 3.500000;1.100000;15.000000;,
 1.633000;-0.300000;16.000000;,
 1.633000;1.100000;16.000000;,
 3.500000;1.100000;16.000000;,
 1.653000;-0.300000;17.000000;,
 1.653000;1.100000;17.000000;,
 3.500000;1.100000;17.000000;,
 1.669000;-0.300000;18.000000;,
 1.669000;1.100000;18.000000;,
 3.500000;1.100000;18.000000;,
 1.680000;-0.300000;19.000000;,
 1.680000;1.100000;19.000000;,
 3.500000;1.100000;19.000000;,
 1.682000;-0.300000;20.000000;,
 1.682000;1.100000;20.000000;,
 3.500000;1.100000;20.000000;,
 1.679000;-0.300000;21.000000;,
 1.679000;1.100000;21.000000;,
 3.500000;1.100000;21.000000;,
 1.669000;-0.300000;22.000000;,
 1.669000;1.100000;22.000000;,
 3.500000;1.100000;22.000000;,
 1.654000;-0.300000;23.000000;,
 1.654000;1.100000;23.000000;,
 3.500000;1.100000;23.000000;,
 1.632000;-0.300000;24.000000;,
 1.632000;1.100000;24.000000;,
 3.500000;1.100000;24.000000;,
 1.605000;-0.300000;25.000000;,
 1.605000;1.100000;25.000000;,
 3.500000;1.100000;25.000000;,
 1.571000;-0.300000;26.000000;,
 1.571000;1.100000;26.000000;,
 3.500000;1.100000;26.000000;,
 1.531000;-0.300000;27.000000;,
 1.531000;1.100000;27.000000;,
 3.500000;1.100000;27.000000;,
 1.500000;-0.300000;28.000000;,
 1.500000;1.100000;28.000000;,
 3.500000;1.100000;28.000000;,
 1.500000;-0.300000;30.100000;,
 1.500000;1.100000;30.100000;,
 3.500000;1.100000;30.100000;,
 1.550000;1.101000;2.000000;,
 1.750000;1.101000;2.000000;,
 1.559000;1.101000;6.000000;,
 1.750000;1.101000;6.000000;,
 1.573000;1.101000;8.000000;,
 1.773000;1.101000;8.000000;,
 1.581000;1.101000;9.000000;,
 1.781000;1.101000;9.000000;,
 1.593000;1.101000;10.000000;,
 1.793000;1.101000;10.000000;,
 1.603000;1.101000;11.000000;,
 1.803000;1.101000;11.000000;,
 1.616000;1.101000;12.000000;,
 1.816000;1.101000;12.000000;,
 1.631000;1.101000;13.000000;,
 1.831000;1.101000;13.000000;,
 1.647000;1.101000;14.000000;,
 1.847000;1.101000;14.000000;,
 1.664000;1.101000;15.000000;,
 1.864000;1.101000;15.000000;,
 1.683000;1.101000;16.000000;,
 1.883000;1.101000;16.000000;,
 1.703000;1.101000;17.000000;,
 1.903000;1.101000;17.000000;,
 1.719000;1.101000;18.000000;,
 1.919000;1.101000;18.000000;,
 1.730000;1.101000;19.000000;,
 1.930000;1.101000;19.000000;,
 1.732000;1.101000;20.000000;,
 1.932000;1.101000;20.000000;,
 1.729000;1.101000;21.000000;,
 1.929000;1.101000;21.000000;,
 1.719000;1.101000;22.000000;,
 1.919000;1.101000;22.000000;,
 1.704000;1.101000;23.000000;,
 1.904000;1.101000;23.000000;,
 1.682000;1.101000;24.000000;,
 1.882000;1.101000;24.000000;,
 1.655000;1.101000;25.000000;,
 1.855000;1.101000;25.000000;,
 1.621000;1.101000;26.000000;,
 1.821000;1.101000;26.000000;,
 1.581000;1.101000;27.000000;,
 1.781000;1.101000;27.000000;,
 1.550000;1.101000;28.000000;,
 1.750000;1.101000;28.000000;;
 140;
 3;0,3,4;,
 3;0,4,1;,
 3;1,4,5;,
 3;1,5,2;,
 3;3,6,7;,
 3;3,7,4;,
 3;4,7,8;,
 3;4,8,5;,
 3;6,9,10;,
 3;6,10,7;,
 3;7,10,11;,
 3;7,11,8;,
 3;9,12,13;,
 3;9,13,10;,
 3;10,13,14;,
 3;10,14,11;,
 3;12,15,16;,
 3;12,16,13;,
 3;13,16,17;,
 3;13,17,14;,
 3;15,18,19;,
 3;15,19,16;,
 3;16,19,20;,
 3;16,20,17;,
 3;18,21,22;,
 3;18,22,19;,
 3;19,22,23;,
 3;19,23,20;,
 3;21,24,25;,
 3;21,25,22;,
 3;22,25,26;,
 3;22,26,23;,
 3;24,27,28;,
 3;24,28,25;,
 3;25,28,29;,
 3;25,29,26;,
 3;27,30,31;,
 3;27,31,28;,
 3;28,31,32;,
 3;28,32,29;,
 3;30,33,34;,
 3;30,34,31;,
 3;31,34,35;,
 3;31,35,32;,
 3;33,36,37;,
 3;33,37,34;,
 3;34,37,38;,
 3;34,38,35;,
 3;36,39,40;,
 3;36,40,37;,
 3;37,40,41;,
 3;37,41,38;,
 3;39,42,43;,
 3;39,43,40;,
 3;40,43,44;,
 3;40,44,41;,
 3;42,45,46;,
 3;42,46,43;,
 3;43,46,47;,
 3;43,47,44;,
 3;45,48,49;,
 3;45,49,46;,
 3;46,49,50;,
 3;46,50,47;,
 3;48,51,52;,
 3;48,52,49;,
 3;49,52,53;,
 3;49,53,50;,
 3;51,54,55;,
 3;51,55,52;,
 3;52,55,56;,
 3;52,56,53;,
 3;54,57,58;,
 3;54,58,55;,
 3;55,58,59;,
 3;55,59,56;,
 3;57,60,61;,
 3;57,61,58;,
 3;58,61,62;,
 3;58,62,59;,
 3;60,63,64;,
 3;60,64,61;,
 3;61,64,65;,
 3;61,65,62;,
 3;63,66,67;,
 3;63,67,64;,
 3;64,67,68;,
 3;64,68,65;,
 3;66,69,70;,
 3;66,70,67;,
 3;67,70,71;,
 3;67,71,68;,
 3;69,72,73;,
 3;69,73,70;,
 3;70,73,74;,
 3;70,74,71;,
 3;75,77,78;,
 3;75,78,76;,
 3;77,79,80;,
 3;77,80,78;,
 3;79,81,82;,
 3;79,82,80;,
 3;81,83,84;,
 3;81,84,82;,
 3;83,85,86;,
 3;83,86,84;,
 3;85,87,88;,
 3;85,88,86;,
 3;87,89,90;,
 3;87,90,88;,
 3;89,91,92;,
 3;89,92,90;,
 3;91,93,94;,
 3;91,94,92;,
 3;93,95,96;,
 3;93,96,94;,
 3;95,97,98;,
 3;95,98,96;,
 3;97,99,100;,
 3;97,100,98;,
 3;99,101,102;,
 3;99,102,100;,
 3;101,103,104;,
 3;101,104,102;,
 3;103,105,106;,
 3;103,106,104;,
 3;105,107,108;,
 3;105,108,106;,
 3;107,109,110;,
 3;107,110,108;,
 3;109,111,112;,
 3;109,112,110;,
 3;111,113,114;,
 3;111,114,112;,
 3;113,115,116;,
 3;113,116,114;,
 3;115,117,118;,
 3;115,118,116;,
 3;117,119,120;,
 3;117,120,118;;

 MeshMaterialList  {
  2;
  140;
  0,
  0,
  0,
  0,
  0,
  0,
  0,
  0,
  0,
  0,
  0,
  0,
  0,
  0,
  0,
  0,
  0,
  0,
  0,
  0,
  0,
  0,
  0,
  0,
  0,
  0,
  0,
  0,
  0,
  0,
  0,
  0,
  0,
  0,
  0,
  0,
  0,
  0,
  0,
  0,
  0,
  0,
  0,
  0,
  0,
  0,
  0,
  0,
  0,
  0,
  0,
  0,
  0,
  0,
  0,
  0,
  0,
  0,
  0,
  0,
  0,
  0,
  0,
  0,
  0,
  0,
  0,
  0,
  0,
  0,
  0,
  0,
  0,
  0,
  0,
  0,
  0,
  0,
  0,
  0,
  0,
  0,
  0,
  0,
  0,
  0,
  0,
  0,
  0,
  0,
  0,
  0,
  0,
  0,
  0,
  0,
  1,
  1,
  1,
  1,
  1,
  1,
  1,
  1,
  1,
  1,
  1,
  1,
  1,
  1,
  1,
  1,
  1,
  1,
  1,
  1,
  1,
  1,
  1,
  1,
  1,
  1,
  1,
  1,
  1,
  1,
  1,
  1,
  1,
  1,
  1,
  1,
  1,
  1,
  1,
  1,
  1,
  1,
  1,
  1;

  Material  {
   1.000000;1.000000;1.000000;1.000000;;
   0.000000;
   0.000000;0.000000;0.000000;;
   0.000000;0.000000;0.000000;;

   TextureFilename  {
    "Form_CC08.dds";
   }
  }

  Material  {
   1.000000;0.313726;0.000000;1.000000;;
   0.000000;
   0.000000;0.000000;0.000000;;
   0.000000;0.000000;0.000000;;
  }
 }

 MeshTextureCoords  {
  121;
  0.000000;0.000000;,
  0.500000;0.000000;,
  1.000000;0.000000;,
  0.000000;0.400000;,
  0.500000;0.400000;,
  1.000000;0.400000;,
  0.000000;1.200000;,
  0.500000;1.200000;,
  1.000000;1.200000;,
  0.000000;1.600000;,
  0.500000;1.600000;,
  1.000000;1.600000;,
  0.000000;1.800000;,
  0.500000;1.800000;,
  1.000000;1.800000;,
  0.000000;2.000000;,
  0.500000;2.000000;,
  1.000000;2.000000;,
  0.000000;2.200000;,
  0.500000;2.200000;,
  1.000000;2.200000;,
  0.000000;2.400000;,
  0.500000;2.400000;,
  1.000000;2.400000;,
  0.000000;2.600000;,
  0.500000;2.600000;,
  1.000000;2.600000;,
  0.000000;2.800000;,
  0.500000;2.800000;,
  1.000000;2.800000;,
  0.000000;3.000000;,
  0.500000;3.000000;,
  1.000000;3.000000;,
  0.000000;3.200000;,
  0.500000;3.200000;,
  1.000000;3.200000;,
  0.000000;3.400000;,
  0.500000;3.400000;,
  1.000000;3.400000;,
  0.000000;3.600000;,
  0.500000;3.600000;,
  1.000000;3.600000;,
  0.000000;3.800000;,
  0.500000;3.800000;,
  1.000000;3.800000;,
  0.000000;4.000000;,
  0.500000;4.000000;,
  1.000000;4.000000;,
  0.000000;4.200000;,
  0.500000;4.200000;,
  1.000000;4.200000;,
  0.000000;4.400000;,
  0.500000;4.400000;,
  1.000000;4.400000;,
  0.000000;4.600000;,
  0.500000;4.600000;,
  1.000000;4.600000;,
  0.000000;4.800000;,
  0.500000;4.800000;,
  1.000000;4.800000;,
  0.000000;5.000000;,
  0.500000;5.000000;,
  1.000000;5.000000;,
  0.000000;5.200000;,
  0.500000;5.200000;,
  1.000000;5.200000;,
  0.000000;5.400000;,
  0.500000;5.400000;,
  1.000000;5.400000;,
  0.000000;5.600000;,
  0.500000;5.600000;,
  1.000000;5.600000;,
  0.000000;6.000000;,
  0.500000;6.000000;,
  1.000000;6.000000;,
  0.000000;0.000000;,
  0.000000;0.000000;,
  0.000000;0.000000;,
  0.000000;0.000000;,
  0.000000;0.000000;,
  0.000000;0.000000;,
  0.000000;0.000000;,
  0.000000;0.000000;,
  0.000000;0.000000;,
  0.000000;0.000000;,
  0.000000;0.000000;,
  0.000000;0.000000;,
  0.000000;0.000000;,
  0.000000;0.000000;,
  0.000000;0.000000;,
  0.000000;0.000000;,
  0.000000;0.000000;,
  0.000000;0.000000;,
  0.000000;0.000000;,
  0.000000;0.000000;,
  0.000000;0.000000;,
  0.000000;0.000000;,
  0.000000;0.000000;,
  0.000000;0.000000;,
  0.000000;0.000000;,
  0.000000;0.000000;,
  0.000000;0.000000;,
  0.000000;0.000000;,
  0.000000;0.000000;,
  0.000000;0.000000;,
  0.000000;0.000000;,
  0.000000;0.000000;,
  0.000000;0.000000;,
  0.000000;0.000000;,
  0.000000;0.000000;,
  0.000000;0.000000;,
  0.000000;0.000000;,
  0.000000;0.000000;,
  0.000000;0.000000;,
  0.000000;0.000000;,
  0.000000;0.000000;,
  0.000000;0.000000;,
  0.000000;0.000000;,
  0.000000;0.000000;,
  0.000000;0.000000;,
  0.000000;0.000000;;
 }

 MeshNormals  {
  140;
  -1.000000;0.000000;0.000000;,
  -1.000000;0.000000;0.000000;,
  0.000000;1.000000;0.000000;,
  0.000000;1.000000;0.000000;,
  -0.999997;0.000000;0.002250;,
  -0.999997;0.000000;0.002250;,
  0.000000;1.000000;0.000000;,
  0.000000;1.000000;0.000000;,
  -0.999976;0.000000;0.007000;,
  -0.999976;0.000000;0.007000;,
  0.000000;1.000000;0.000000;,
  0.000000;1.000000;0.000000;,
  -0.999968;0.000000;0.008000;,
  -0.999968;0.000000;0.008000;,
  0.000000;1.000000;0.000000;,
  0.000000;1.000000;0.000000;,
  -0.999928;0.000000;0.011999;,
  -0.999928;0.000000;0.011999;,
  0.000000;1.000000;0.000000;,
  0.000000;1.000000;0.000000;,
  -0.999950;0.000000;0.009999;,
  -0.999950;0.000000;0.009999;,
  0.000000;1.000000;0.000000;,
  0.000000;1.000000;0.000000;,
  -0.999915;0.000000;0.012999;,
  -0.999915;0.000000;0.012999;,
  0.000000;1.000000;0.000000;,
  0.000000;1.000000;0.000000;,
  -0.999888;0.000000;0.014998;,
  -0.999888;0.000000;0.014998;,
  0.000000;1.000000;0.000000;,
  0.000000;1.000000;0.000000;,
  -0.999872;0.000000;0.015998;,
  -0.999872;0.000000;0.015998;,
  0.000000;1.000000;0.000000;,
  0.000000;1.000000;0.000000;,
  -0.999855;0.000000;0.016998;,
  -0.999855;0.000000;0.016998;,
  0.000000;1.000000;0.000000;,
  0.000000;1.000000;0.000000;,
  -0.999820;0.000000;0.018997;,
  -0.999820;0.000000;0.018997;,
  0.000000;1.000000;0.000000;,
  0.000000;1.000000;0.000000;,
  -0.999800;0.000000;0.019996;,
  -0.999800;0.000000;0.019996;,
  0.000000;1.000000;0.000000;,
  0.000000;1.000000;0.000000;,
  -0.999872;0.000000;0.015998;,
  -0.999872;0.000000;0.015998;,
  0.000000;1.000000;0.000000;,
  0.000000;1.000000;0.000000;,
  -0.999939;0.000000;0.010999;,
  -0.999939;0.000000;0.010999;,
  0.000000;1.000000;0.000000;,
  0.000000;1.000000;0.000000;,
  -0.999998;0.000000;0.002000;,
  -0.999998;0.000000;0.002000;,
  0.000000;1.000000;0.000000;,
  0.000000;1.000000;0.000000;,
  -0.999996;0.000000;-0.003000;,
  -0.999996;0.000000;-0.003000;,
  0.000000;1.000000;0.000000;,
  0.000000;1.000000;0.000000;,
  -0.999950;0.000000;-0.009999;,
  -0.999950;0.000000;-0.009999;,
  0.000000;1.000000;0.000000;,
  0.000000;1.000000;0.000000;,
  -0.999888;0.000000;-0.014998;,
  -0.999888;0.000000;-0.014998;,
  0.000000;1.000000;0.000000;,
  0.000000;1.000000;0.000000;,
  -0.999758;0.000000;-0.021995;,
  -0.999758;0.000000;-0.021995;,
  0.000000;1.000000;0.000000;,
  0.000000;1.000000;0.000000;,
  -0.999636;0.000000;-0.026990;,
  -0.999636;0.000000;-0.026990;,
  0.000000;1.000000;0.000000;,
  0.000000;1.000000;0.000000;,
  -0.999422;0.000000;-0.033980;,
  -0.999422;0.000000;-0.033980;,
  0.000000;1.000000;0.000000;,
  0.000000;1.000000;0.000000;,
  -0.999201;0.000000;-0.039968;,
  -0.999201;0.000000;-0.039968;,
  0.000000;1.000000;0.000000;,
  0.000000;1.000000;0.000000;,
  -0.999520;0.000000;-0.030985;,
  -0.999520;0.000000;-0.030985;,
  0.000000;1.000000;0.000000;,
  0.000000;1.000000;0.000000;,
  -1.000000;0.000000;0.000000;,
  -1.000000;0.000000;0.000000;,
  0.000000;1.000000;0.000000;,
  0.000000;1.000000;0.000000;,
  0.000000;1.000000;0.000000;,
  0.000000;1.000000;0.000000;,
  0.000000;1.000000;0.000000;,
  0.000000;1.000000;0.000000;,
  0.000000;1.000000;0.000000;,
  0.000000;1.000000;0.000000;,
  0.000000;1.000000;0.000000;,
  0.000000;1.000000;0.000000;,
  0.000000;1.000000;0.000000;,
  0.000000;1.000000;0.000000;,
  0.000000;1.000000;0.000000;,
  0.000000;1.000000;0.000000;,
  0.000000;1.000000;0.000000;,
  0.000000;1.000000;0.000000;,
  0.000000;1.000000;0.000000;,
  0.000000;1.000000;0.000000;,
  0.000000;1.000000;0.000000;,
  0.000000;1.000000;0.000000;,
  0.000000;1.000000;0.000000;,
  0.000000;1.000000;0.000000;,
  0.000000;1.000000;0.000000;,
  0.000000;1.000000;0.000000;,
  0.000000;1.000000;0.000000;,
  0.000000;1.000000;0.000000;,
  0.000000;1.000000;0.000000;,
  0.000000;1.000000;0.000000;,
  0.000000;1.000000;0.000000;,
  0.000000;1.000000;0.000000;,
  0.000000;1.000000;0.000000;,
  0.000000;1.000000;0.000000;,
  0.000000;1.000000;0.000000;,
  0.000000;1.000000;0.000000;,
  0.000000;1.000000;0.000000;,
  0.000000;1.000000;0.000000;,
  0.000000;1.000000;0.000000;,
  0.000000;1.000000;0.000000;,
  0.000000;1.000000;0.000000;,
  0.000000;1.000000;0.000000;,
  0.000000;1.000000;0.000000;,
  0.000000;1.000000;0.000000;,
  0.000000;1.000000;0.000000;,
  0.000000;1.000000;0.000000;,
  0.000000;1.000000;0.000000;,
  0.000000;1.000000;0.000000;;
  140;
  3;0,0,0;,
  3;1,1,1;,
  3;2,2,2;,
  3;3,3,3;,
  3;4,4,4;,
  3;5,5,5;,
  3;6,6,6;,
  3;7,7,7;,
  3;8,8,8;,
  3;9,9,9;,
  3;10,10,10;,
  3;11,11,11;,
  3;12,12,12;,
  3;13,13,13;,
  3;14,14,14;,
  3;15,15,15;,
  3;16,16,16;,
  3;17,17,17;,
  3;18,18,18;,
  3;19,19,19;,
  3;20,20,20;,
  3;21,21,21;,
  3;22,22,22;,
  3;23,23,23;,
  3;24,24,24;,
  3;25,25,25;,
  3;26,26,26;,
  3;27,27,27;,
  3;28,28,28;,
  3;29,29,29;,
  3;30,30,30;,
  3;31,31,31;,
  3;32,32,32;,
  3;33,33,33;,
  3;34,34,34;,
  3;35,35,35;,
  3;36,36,36;,
  3;37,37,37;,
  3;38,38,38;,
  3;39,39,39;,
  3;40,40,40;,
  3;41,41,41;,
  3;42,42,42;,
  3;43,43,43;,
  3;44,44,44;,
  3;45,45,45;,
  3;46,46,46;,
  3;47,47,47;,
  3;48,48,48;,
  3;49,49,49;,
  3;50,50,50;,
  3;51,51,51;,
  3;52,52,52;,
  3;53,53,53;,
  3;54,54,54;,
  3;55,55,55;,
  3;56,56,56;,
  3;57,57,57;,
  3;58,58,58;,
  3;59,59,59;,
  3;60,60,60;,
  3;61,61,61;,
  3;62,62,62;,
  3;63,63,63;,
  3;64,64,64;,
  3;65,65,65;,
  3;66,66,66;,
  3;67,67,67;,
  3;68,68,68;,
  3;69,69,69;,
  3;70,70,70;,
  3;71,71,71;,
  3;72,72,72;,
  3;73,73,73;,
  3;74,74,74;,
  3;75,75,75;,
  3;76,76,76;,
  3;77,77,77;,
  3;78,78,78;,
  3;79,79,79;,
  3;80,80,80;,
  3;81,81,81;,
  3;82,82,82;,
  3;83,83,83;,
  3;84,84,84;,
  3;85,85,85;,
  3;86,86,86;,
  3;87,87,87;,
  3;88,88,88;,
  3;89,89,89;,
  3;90,90,90;,
  3;91,91,91;,
  3;92,92,92;,
  3;93,93,93;,
  3;94,94,94;,
  3;95,95,95;,
  3;96,96,96;,
  3;97,97,97;,
  3;98,98,98;,
  3;99,99,99;,
  3;100,100,100;,
  3;101,101,101;,
  3;102,102,102;,
  3;103,103,103;,
  3;104,104,104;,
  3;105,105,105;,
  3;106,106,106;,
  3;107,107,107;,
  3;108,108,108;,
  3;109,109,109;,
  3;110,110,110;,
  3;111,111,111;,
  3;112,112,112;,
  3;113,113,113;,
  3;114,114,114;,
  3;115,115,115;,
  3;116,116,116;,
  3;117,117,117;,
  3;118,118,118;,
  3;119,119,119;,
  3;120,120,120;,
  3;121,121,121;,
  3;122,122,122;,
  3;123,123,123;,
  3;124,124,124;,
  3;125,125,125;,
  3;126,126,126;,
  3;127,127,127;,
  3;128,128,128;,
  3;129,129,129;,
  3;130,130,130;,
  3;131,131,131;,
  3;132,132,132;,
  3;133,133,133;,
  3;134,134,134;,
  3;135,135,135;,
  3;136,136,136;,
  3;137,137,137;,
  3;138,138,138;,
  3;139,139,139;;
 }
}