xof 0303txt 0032
template Vector {
 <3d82ab5e-62da-11cf-ab39-0020af71e433>
 FLOAT x;
 FLOAT y;
 FLOAT z;
}

template MeshFace {
 <3d82ab5f-62da-11cf-ab39-0020af71e433>
 DWORD nFaceVertexIndices;
 array DWORD faceVertexIndices[nFaceVertexIndices];
}

template Mesh {
 <3d82ab44-62da-11cf-ab39-0020af71e433>
 DWORD nVertices;
 array Vector vertices[nVertices];
 DWORD nFaces;
 array MeshFace faces[nFaces];
 [...]
}

template ColorRGBA {
 <35ff44e0-6c7c-11cf-8f52-0040333594a3>
 FLOAT red;
 FLOAT green;
 FLOAT blue;
 FLOAT alpha;
}

template ColorRGB {
 <d3e16e81-7835-11cf-8f52-0040333594a3>
 FLOAT red;
 FLOAT green;
 FLOAT blue;
}

template Material {
 <3d82ab4d-62da-11cf-ab39-0020af71e433>
 ColorRGBA faceColor;
 FLOAT power;
 ColorRGB specularColor;
 ColorRGB emissiveColor;
 [...]
}

template MeshMaterialList {
 <f6f23f42-7686-11cf-8f52-0040333594a3>
 DWORD nMaterials;
 DWORD nFaceIndexes;
 array DWORD faceIndexes[nFaceIndexes];
 [Material <3d82ab4d-62da-11cf-ab39-0020af71e433>]
}

template TextureFilename {
 <a42790e1-7810-11cf-8f52-0040333594a3>
 STRING filename;
}

template Coords2d {
 <f6f23f44-7686-11cf-8f52-0040333594a3>
 FLOAT u;
 FLOAT v;
}

template MeshTextureCoords {
 <f6f23f40-7686-11cf-8f52-0040333594a3>
 DWORD nTextureCoords;
 array Coords2d textureCoords[nTextureCoords];
}

template MeshNormals {
 <f6f23f43-7686-11cf-8f52-0040333594a3>
 DWORD nNormals;
 array Vector normals[nNormals];
 DWORD nFaceNormals;
 array MeshFace faceNormals[nFaceNormals];
}


Mesh  {
 34;
 -1.500000;-0.450000;-0.050000;,
 -1.500000;1.100000;-0.050000;,
 -2.700000;1.100000;-0.050000;,
 -1.525200;-0.450000;4.970000;,
 -1.525200;1.100000;4.970000;,
 -2.725200;1.100000;4.970000;,
 -1.537800;-0.450000;9.990000;,
 -1.537800;1.100000;9.990000;,
 -2.737800;1.100000;9.990000;,
 -1.537800;-0.450000;15.010000;,
 -1.537800;1.100000;15.010000;,
 -2.737800;1.100000;15.010000;,
 -1.525200;-0.450000;20.030001;,
 -1.525200;1.100000;20.030001;,
 -2.725200;1.100000;20.030001;,
 -1.500000;-0.450000;25.049999;,
 -1.500000;1.100000;25.049999;,
 -2.700000;1.100000;25.049999;,
 -2.700000;1.100000;-0.050000;,
 -2.725200;1.100000;4.970000;,
 -2.737800;1.100000;9.990000;,
 -2.737800;1.100000;15.010000;,
 -2.725200;1.100000;20.030001;,
 -2.700000;1.100000;25.049999;,
 -7.100000;1.100000;-0.050000;,
 -6.700000;1.100000;25.049999;,
 -7.100000;1.100000;0.000000;,
 -7.100000;2.900000;0.000000;,
 -6.700000;1.100000;25.000000;,
 -6.700000;2.900000;25.000000;,
 -7.100000;1.100000;0.000000;,
 -7.100000;2.900000;0.000000;,
 -6.700000;1.100000;25.000000;,
 -6.700000;2.900000;25.000000;;
 30;
 3;0,1,4;,
 3;0,4,3;,
 3;1,2,5;,
 3;1,5,4;,
 3;3,4,7;,
 3;3,7,6;,
 3;4,5,8;,
 3;4,8,7;,
 3;6,7,10;,
 3;6,10,9;,
 3;7,8,11;,
 3;7,11,10;,
 3;9,10,13;,
 3;9,13,12;,
 3;10,11,14;,
 3;10,14,13;,
 3;12,13,16;,
 3;12,16,15;,
 3;13,14,17;,
 3;13,17,16;,
 3;18,24,19;,
 3;19,24,20;,
 3;20,24,25;,
 3;20,25,21;,
 3;21,25,22;,
 3;22,25,23;,
 3;26,27,29;,
 3;26,29,28;,
 3;30,31,33;,
 3;30,33,32;;

 MeshMaterialList  {
  4;
  30;
  0,
  0,
  0,
  0,
  0,
  0,
  0,
  0,
  0,
  0,
  0,
  0,
  0,
  0,
  0,
  0,
  0,
  0,
  0,
  0,
  1,
  1,
  1,
  1,
  1,
  1,
  2,
  2,
  3,
  3;

  Material  {
   1.000000;1.000000;1.000000;1.000000;;
   0.000000;
   0.000000;0.000000;0.000000;;
   0.000000;0.000000;0.000000;;

   TextureFilename  {
    "FormSide2.png";
   }
  }

  Material  {
   1.000000;1.000000;1.000000;1.000000;;
   0.000000;
   0.000000;0.000000;0.000000;;
   0.000000;0.000000;0.000000;;

   TextureFilename  {
    "FormC.png";
   }
  }

  Material  {
   1.000000;1.000000;1.000000;1.000000;;
   0.000000;
   0.000000;0.000000;0.000000;;
   0.000000;0.000000;0.000000;;

   TextureFilename  {
    "Saku1.png";
   }
  }

  Material  {
   0.250980;0.250980;0.250980;0.250980;;
   0.000000;
   0.000000;0.000000;0.000000;;
   0.000000;0.000000;0.000000;;
  }
 }

 MeshTextureCoords  {
  34;
  0.000000;0.900000;,
  0.000000;0.350000;,
  0.000000;0.000000;,
  0.500000;0.900000;,
  0.500000;0.350000;,
  0.500000;0.000000;,
  1.000000;0.900000;,
  1.000000;0.350000;,
  1.000000;0.000000;,
  1.500000;0.900000;,
  1.500000;0.350000;,
  1.500000;0.000000;,
  2.000000;0.900000;,
  2.000000;0.350000;,
  2.000000;0.000000;,
  2.500000;0.900000;,
  2.500000;0.350000;,
  2.500000;0.000000;,
  0.000000;0.000000;,
  0.000000;0.500000;,
  0.000000;1.000000;,
  0.000000;1.500000;,
  0.000000;2.000000;,
  0.000000;2.500000;,
  0.600000;0.000000;,
  0.600000;2.500000;,
  0.000000;0.000000;,
  0.000000;0.100000;,
  2.500000;0.000000;,
  2.500000;0.100000;,
  0.000000;0.000000;,
  0.000000;0.000000;,
  0.000000;0.000000;,
  0.000000;0.000000;;
 }

 MeshNormals  {
  30;
  0.999987;0.000000;0.005020;,
  0.999987;0.000000;0.005020;,
  0.000000;1.000000;0.000000;,
  0.000000;1.000000;0.000000;,
  0.999997;0.000000;0.002510;,
  0.999997;0.000000;0.002510;,
  0.000000;1.000000;0.000000;,
  0.000000;1.000000;0.000000;,
  1.000000;0.000000;0.000000;,
  1.000000;0.000000;0.000000;,
  0.000000;1.000000;0.000000;,
  0.000000;1.000000;0.000000;,
  0.999997;0.000000;-0.002510;,
  0.999997;0.000000;-0.002510;,
  0.000000;1.000000;0.000000;,
  0.000000;1.000000;0.000000;,
  0.999987;0.000000;-0.005020;,
  0.999987;0.000000;-0.005020;,
  0.000000;1.000000;0.000000;,
  0.000000;1.000000;0.000000;,
  0.000000;1.000000;0.000000;,
  0.000000;1.000000;0.000000;,
  0.000000;1.000000;0.000000;,
  0.000000;1.000000;0.000000;,
  0.000000;1.000000;0.000000;,
  0.000000;1.000000;0.000000;,
  0.999872;0.000000;-0.015998;,
  0.999872;0.000000;-0.015998;,
  0.999872;0.000000;-0.015998;,
  0.999872;0.000000;-0.015998;;
  30;
  3;0,0,0;,
  3;1,1,1;,
  3;2,2,2;,
  3;3,3,3;,
  3;4,4,4;,
  3;5,5,5;,
  3;6,6,6;,
  3;7,7,7;,
  3;8,8,8;,
  3;9,9,9;,
  3;10,10,10;,
  3;11,11,11;,
  3;12,12,12;,
  3;13,13,13;,
  3;14,14,14;,
  3;15,15,15;,
  3;16,16,16;,
  3;17,17,17;,
  3;18,18,18;,
  3;19,19,19;,
  3;20,20,20;,
  3;21,21,21;,
  3;22,22,22;,
  3;23,23,23;,
  3;24,24,24;,
  3;25,25,25;,
  3;26,26,26;,
  3;27,27,27;,
  3;28,28,28;,
  3;29,29,29;;
 }
}