xof 0303txt 0032
template Vector {
 <3d82ab5e-62da-11cf-ab39-0020af71e433>
 FLOAT x;
 FLOAT y;
 FLOAT z;
}

template MeshFace {
 <3d82ab5f-62da-11cf-ab39-0020af71e433>
 DWORD nFaceVertexIndices;
 array DWORD faceVertexIndices[nFaceVertexIndices];
}

template Mesh {
 <3d82ab44-62da-11cf-ab39-0020af71e433>
 DWORD nVertices;
 array Vector vertices[nVertices];
 DWORD nFaces;
 array MeshFace faces[nFaces];
 [...]
}

template ColorRGBA {
 <35ff44e0-6c7c-11cf-8f52-0040333594a3>
 FLOAT red;
 FLOAT green;
 FLOAT blue;
 FLOAT alpha;
}

template ColorRGB {
 <d3e16e81-7835-11cf-8f52-0040333594a3>
 FLOAT red;
 FLOAT green;
 FLOAT blue;
}

template Material {
 <3d82ab4d-62da-11cf-ab39-0020af71e433>
 ColorRGBA faceColor;
 FLOAT power;
 ColorRGB specularColor;
 ColorRGB emissiveColor;
 [...]
}

template MeshMaterialList {
 <f6f23f42-7686-11cf-8f52-0040333594a3>
 DWORD nMaterials;
 DWORD nFaceIndexes;
 array DWORD faceIndexes[nFaceIndexes];
 [Material <3d82ab4d-62da-11cf-ab39-0020af71e433>]
}

template TextureFilename {
 <a42790e1-7810-11cf-8f52-0040333594a3>
 STRING filename;
}

template Coords2d {
 <f6f23f44-7686-11cf-8f52-0040333594a3>
 FLOAT u;
 FLOAT v;
}

template MeshTextureCoords {
 <f6f23f40-7686-11cf-8f52-0040333594a3>
 DWORD nTextureCoords;
 array Coords2d textureCoords[nTextureCoords];
}

template MeshNormals {
 <f6f23f43-7686-11cf-8f52-0040333594a3>
 DWORD nNormals;
 array Vector normals[nNormals];
 DWORD nFaceNormals;
 array MeshFace faceNormals[nFaceNormals];
}


Mesh  {
 28;
 5.300000;-0.450000;20.000000;,
 5.300000;1.100000;20.000000;,
 6.500000;1.100000;20.000000;,
 5.300000;-0.450000;25.000000;,
 5.300000;1.100000;25.000000;,
 6.500000;1.100000;25.000000;,
 5.300000;-0.450000;20.000000;,
 5.300000;1.100000;20.000000;,
 10.300000;1.100000;20.000000;,
 10.300000;-0.450000;20.000000;,
 6.500000;1.100000;20.000000;,
 10.300000;1.100000;20.000000;,
 6.500000;1.100000;25.000000;,
 10.500000;1.100000;25.000000;,
 5.900000;1.100000;20.000000;,
 5.900000;2.300000;20.000000;,
 10.300000;1.100000;20.000000;,
 10.300000;2.300000;20.000000;,
 10.300000;2.900000;20.000000;,
 10.500000;1.100000;25.000000;,
 10.500000;2.900000;25.000000;,
 5.900000;1.100000;20.000000;,
 5.900000;2.300000;20.000000;,
 10.300000;1.100000;20.000000;,
 10.300000;2.300000;20.000000;,
 10.300000;2.900000;20.000000;,
 10.500000;1.100000;25.000000;,
 10.500000;2.900000;25.000000;;
 16;
 3;3,4,1;,
 3;3,1,0;,
 3;4,5,2;,
 3;4,2,1;,
 3;6,7,8;,
 3;6,8,9;,
 3;12,13,11;,
 3;12,11,10;,
 3;14,15,17;,
 3;14,17,16;,
 3;19,20,18;,
 3;19,18,16;,
 3;21,22,24;,
 3;21,24,23;,
 3;26,27,25;,
 3;26,25,23;;

 MeshMaterialList  {
  5;
  16;
  0,
  0,
  0,
  0,
  1,
  1,
  2,
  2,
  3,
  3,
  3,
  3,
  4,
  4,
  4,
  4;

  Material  {
   1.000000;1.000000;1.000000;1.000000;;
   0.000000;
   0.000000;0.000000;0.000000;;
   0.000000;0.000000;0.000000;;

   TextureFilename  {
    "FormSide1.png";
   }
  }

  Material  {
   1.000000;1.000000;1.000000;1.000000;;
   0.000000;
   0.000000;0.000000;0.000000;;
   0.000000;0.000000;0.000000;;

   TextureFilename  {
    "FormSide1.png";
   }
  }

  Material  {
   1.000000;1.000000;1.000000;1.000000;;
   0.000000;
   0.000000;0.000000;0.000000;;
   0.000000;0.000000;0.000000;;

   TextureFilename  {
    "FormC.png";
   }
  }

  Material  {
   1.000000;1.000000;1.000000;1.000000;;
   0.000000;
   0.000000;0.000000;0.000000;;
   0.000000;0.000000;0.000000;;

   TextureFilename  {
    "Saku1.png";
   }
  }

  Material  {
   0.250980;0.250980;0.250980;0.250980;;
   0.000000;
   0.000000;0.000000;0.000000;;
   0.000000;0.000000;0.000000;;
  }
 }

 MeshTextureCoords  {
  28;
  2.000000;1.000000;,
  2.000000;0.350000;,
  2.000000;0.000000;,
  2.500000;1.000000;,
  2.500000;0.350000;,
  2.500000;0.000000;,
  0.000000;1.000000;,
  0.000000;0.350000;,
  0.500000;0.350000;,
  0.500000;1.000000;,
  0.000000;2.000000;,
  0.380000;2.000000;,
  0.000000;2.500000;,
  0.400000;2.500000;,
  1.510000;0.000000;,
  1.510000;0.050000;,
  2.000000;0.000000;,
  2.000000;0.050000;,
  2.000000;0.100000;,
  2.500000;0.000000;,
  2.500000;0.100000;,
  0.000000;0.000000;,
  0.000000;0.000000;,
  0.000000;0.000000;,
  0.000000;0.000000;,
  0.000000;0.000000;,
  0.000000;0.000000;,
  0.000000;0.000000;;
 }

 MeshNormals  {
  16;
  -1.000000;0.000000;0.000000;,
  -1.000000;0.000000;0.000000;,
  0.000000;1.000000;0.000000;,
  0.000000;1.000000;0.000000;,
  0.000000;0.000000;-1.000000;,
  0.000000;0.000000;-1.000000;,
  0.000000;1.000000;0.000000;,
  0.000000;1.000000;0.000000;,
  0.000000;0.000000;-1.000000;,
  0.000000;0.000000;-1.000000;,
  -0.999201;0.000000;0.039968;,
  -0.999201;0.000000;0.039968;,
  0.000000;0.000000;-1.000000;,
  0.000000;0.000000;-1.000000;,
  -0.999201;0.000000;0.039968;,
  -0.999201;0.000000;0.039968;;
  16;
  3;0,0,0;,
  3;1,1,1;,
  3;2,2,2;,
  3;3,3,3;,
  3;4,4,4;,
  3;5,5,5;,
  3;6,6,6;,
  3;7,7,7;,
  3;8,8,8;,
  3;9,9,9;,
  3;10,10,10;,
  3;11,11,11;,
  3;12,12,12;,
  3;13,13,13;,
  3;14,14,14;,
  3;15,15,15;;
 }
}