xof 0303txt 0032
template Vector {
 <3d82ab5e-62da-11cf-ab39-0020af71e433>
 FLOAT x;
 FLOAT y;
 FLOAT z;
}

template MeshFace {
 <3d82ab5f-62da-11cf-ab39-0020af71e433>
 DWORD nFaceVertexIndices;
 array DWORD faceVertexIndices[nFaceVertexIndices];
}

template Mesh {
 <3d82ab44-62da-11cf-ab39-0020af71e433>
 DWORD nVertices;
 array Vector vertices[nVertices];
 DWORD nFaces;
 array MeshFace faces[nFaces];
 [...]
}

template ColorRGBA {
 <35ff44e0-6c7c-11cf-8f52-0040333594a3>
 FLOAT red;
 FLOAT green;
 FLOAT blue;
 FLOAT alpha;
}

template ColorRGB {
 <d3e16e81-7835-11cf-8f52-0040333594a3>
 FLOAT red;
 FLOAT green;
 FLOAT blue;
}

template Material {
 <3d82ab4d-62da-11cf-ab39-0020af71e433>
 ColorRGBA faceColor;
 FLOAT power;
 ColorRGB specularColor;
 ColorRGB emissiveColor;
 [...]
}

template MeshMaterialList {
 <f6f23f42-7686-11cf-8f52-0040333594a3>
 DWORD nMaterials;
 DWORD nFaceIndexes;
 array DWORD faceIndexes[nFaceIndexes];
 [Material <3d82ab4d-62da-11cf-ab39-0020af71e433>]
}

template TextureFilename {
 <a42790e1-7810-11cf-8f52-0040333594a3>
 STRING filename;
}

template Coords2d {
 <f6f23f44-7686-11cf-8f52-0040333594a3>
 FLOAT u;
 FLOAT v;
}

template MeshTextureCoords {
 <f6f23f40-7686-11cf-8f52-0040333594a3>
 DWORD nTextureCoords;
 array Coords2d textureCoords[nTextureCoords];
}

template MeshNormals {
 <f6f23f43-7686-11cf-8f52-0040333594a3>
 DWORD nNormals;
 array Vector normals[nNormals];
 DWORD nFaceNormals;
 array MeshFace faceNormals[nFaceNormals];
}


Mesh  {
 84;
 -1.500000;-0.450000;-0.050000;,
 -1.500000;1.100000;-0.050000;,
 -2.700000;1.100000;-0.050000;,
 -1.525200;-0.450000;4.970000;,
 -1.525200;1.100000;4.970000;,
 -2.725200;1.100000;4.970000;,
 -1.537800;-0.450000;9.990000;,
 -1.537800;1.100000;9.990000;,
 -2.737800;1.100000;9.990000;,
 -1.537800;-0.450000;15.010000;,
 -1.537800;1.100000;15.010000;,
 -2.737800;1.100000;15.010000;,
 -1.525200;-0.450000;20.030001;,
 -1.525200;1.100000;20.030001;,
 -2.725200;1.100000;20.030001;,
 -1.500000;-0.450000;25.049999;,
 -1.500000;1.100000;25.049999;,
 -2.700000;1.100000;25.049999;,
 -2.700000;1.100000;-0.050000;,
 -2.725200;1.100000;4.970000;,
 -2.737800;1.100000;9.990000;,
 -2.737800;1.100000;15.010000;,
 -2.725200;1.100000;20.030001;,
 -2.700000;1.100000;25.049999;,
 -8.700000;1.100000;-0.050000;,
 -8.300000;1.100000;25.049999;,
 -8.700000;1.100000;0.000000;,
 -8.700000;2.900000;0.000000;,
 -8.300000;1.100000;25.000000;,
 -8.300000;2.900000;25.000000;,
 -8.700000;1.100000;0.000000;,
 -8.700000;2.900000;0.000000;,
 -8.300000;1.100000;25.000000;,
 -8.300000;2.900000;25.000000;,
 -8.588000;1.100000;7.000000;,
 -8.588000;2.900000;7.000000;,
 -5.088000;1.100000;7.000000;,
 -5.088000;2.900000;7.000000;,
 -4.960000;1.100000;15.000000;,
 -4.960000;2.900000;15.000000;,
 -8.460000;1.100000;15.000000;,
 -8.460000;2.900000;15.000000;,
 -8.588000;1.100000;7.000000;,
 -8.588000;2.900000;7.000000;,
 -5.088000;1.100000;7.000000;,
 -5.088000;2.900000;7.000000;,
 -4.960000;1.100000;15.000000;,
 -4.960000;2.900000;15.000000;,
 -8.460000;1.100000;15.000000;,
 -8.460000;2.900000;15.000000;,
 5.300000;-0.450000;-0.050000;,
 5.300000;1.100000;-0.050000;,
 6.500000;1.100000;-0.050000;,
 5.274800;-0.450000;4.970000;,
 5.274800;1.100000;4.970000;,
 6.474800;1.100000;4.970000;,
 5.262200;-0.450000;9.990000;,
 5.262200;1.100000;9.990000;,
 6.462200;1.100000;9.990000;,
 5.262200;-0.450000;15.010000;,
 5.262200;1.100000;15.010000;,
 6.462200;1.100000;15.010000;,
 5.274800;-0.450000;20.030001;,
 5.274800;1.100000;20.030001;,
 6.474800;1.100000;20.030001;,
 5.300000;-0.450000;25.500000;,
 5.300000;1.100000;25.500000;,
 6.500000;1.100000;25.500000;,
 6.500000;1.100000;-0.050000;,
 6.474800;1.100000;4.970000;,
 6.462200;1.100000;9.990000;,
 6.462200;1.100000;15.010000;,
 6.474800;1.100000;20.030001;,
 6.500000;1.100000;25.500000;,
 12.500000;1.100000;-0.050000;,
 12.100000;1.100000;25.500000;,
 12.500000;1.100000;0.000000;,
 12.500000;2.900000;0.000000;,
 12.100000;1.100000;25.000000;,
 12.100000;2.900000;25.000000;,
 12.500000;1.100000;0.000000;,
 12.500000;2.900000;0.000000;,
 12.100000;1.100000;25.000000;,
 12.100000;2.900000;25.000000;;
 72;
 3;0,1,4;,
 3;0,4,3;,
 3;1,2,5;,
 3;1,5,4;,
 3;3,4,7;,
 3;3,7,6;,
 3;4,5,8;,
 3;4,8,7;,
 3;6,7,10;,
 3;6,10,9;,
 3;7,8,11;,
 3;7,11,10;,
 3;9,10,13;,
 3;9,13,12;,
 3;10,11,14;,
 3;10,14,13;,
 3;12,13,16;,
 3;12,16,15;,
 3;13,14,17;,
 3;13,17,16;,
 3;18,24,19;,
 3;19,24,20;,
 3;20,24,25;,
 3;20,25,21;,
 3;21,25,22;,
 3;22,25,23;,
 3;26,27,29;,
 3;26,29,28;,
 3;30,31,33;,
 3;30,33,32;,
 3;34,35,37;,
 3;34,37,36;,
 3;36,37,39;,
 3;36,39,38;,
 3;40,41,39;,
 3;40,39,38;,
 3;42,43,45;,
 3;42,45,44;,
 3;44,45,47;,
 3;44,47,46;,
 3;48,49,47;,
 3;48,47,46;,
 3;53,54,51;,
 3;53,51,50;,
 3;54,55,52;,
 3;54,52,51;,
 3;56,57,54;,
 3;56,54,53;,
 3;57,58,55;,
 3;57,55,54;,
 3;59,60,57;,
 3;59,57,56;,
 3;60,61,58;,
 3;60,58,57;,
 3;62,63,60;,
 3;62,60,59;,
 3;63,64,61;,
 3;63,61,60;,
 3;65,66,63;,
 3;65,63,62;,
 3;66,67,64;,
 3;66,64,63;,
 3;68,69,74;,
 3;69,70,74;,
 3;70,71,75;,
 3;70,75,74;,
 3;71,72,75;,
 3;72,73,75;,
 3;78,79,77;,
 3;78,77,76;,
 3;82,83,81;,
 3;82,81,80;;

 MeshMaterialList  {
  10;
  72;
  0,
  0,
  0,
  0,
  0,
  0,
  0,
  0,
  0,
  0,
  0,
  0,
  0,
  0,
  0,
  0,
  0,
  0,
  0,
  0,
  1,
  1,
  1,
  1,
  1,
  1,
  2,
  2,
  3,
  3,
  4,
  4,
  4,
  4,
  4,
  4,
  5,
  5,
  5,
  5,
  5,
  5,
  6,
  6,
  6,
  6,
  6,
  6,
  6,
  6,
  6,
  6,
  6,
  6,
  6,
  6,
  6,
  6,
  6,
  6,
  6,
  6,
  7,
  7,
  7,
  7,
  7,
  7,
  8,
  8,
  9,
  9;

  Material  {
   1.000000;1.000000;1.000000;1.000000;;
   0.000000;
   0.000000;0.000000;0.000000;;
   0.000000;0.000000;0.000000;;

   TextureFilename  {
    "FormSide2.png";
   }
  }

  Material  {
   1.000000;1.000000;1.000000;1.000000;;
   0.000000;
   0.000000;0.000000;0.000000;;
   0.000000;0.000000;0.000000;;

   TextureFilename  {
    "FormC.png";
   }
  }

  Material  {
   1.000000;1.000000;1.000000;1.000000;;
   0.000000;
   0.000000;0.000000;0.000000;;
   0.000000;0.000000;0.000000;;

   TextureFilename  {
    "Saku1.png";
   }
  }

  Material  {
   0.250980;0.250980;0.250980;0.250980;;
   0.000000;
   0.000000;0.000000;0.000000;;
   0.000000;0.000000;0.000000;;
  }

  Material  {
   1.000000;1.000000;1.000000;1.000000;;
   0.000000;
   0.000000;0.000000;0.000000;;
   0.000000;0.000000;0.000000;;

   TextureFilename  {
    "Saku1.png";
   }
  }

  Material  {
   0.250980;0.250980;0.250980;0.250980;;
   0.000000;
   0.000000;0.000000;0.000000;;
   0.000000;0.000000;0.000000;;
  }

  Material  {
   1.000000;1.000000;1.000000;1.000000;;
   0.000000;
   0.000000;0.000000;0.000000;;
   0.000000;0.000000;0.000000;;

   TextureFilename  {
    "FormSide2.png";
   }
  }

  Material  {
   1.000000;1.000000;1.000000;1.000000;;
   0.000000;
   0.000000;0.000000;0.000000;;
   0.000000;0.000000;0.000000;;

   TextureFilename  {
    "FormC.png";
   }
  }

  Material  {
   1.000000;1.000000;1.000000;1.000000;;
   0.000000;
   0.000000;0.000000;0.000000;;
   0.000000;0.000000;0.000000;;

   TextureFilename  {
    "Saku1.png";
   }
  }

  Material  {
   0.250980;0.250980;0.250980;0.250980;;
   0.000000;
   0.000000;0.000000;0.000000;;
   0.000000;0.000000;0.000000;;
  }
 }

 MeshTextureCoords  {
  84;
  0.000000;0.900000;,
  0.000000;0.350000;,
  0.000000;0.000000;,
  0.500000;0.900000;,
  0.500000;0.350000;,
  0.500000;0.000000;,
  1.000000;0.900000;,
  1.000000;0.350000;,
  1.000000;0.000000;,
  1.500000;0.900000;,
  1.500000;0.350000;,
  1.500000;0.000000;,
  2.000000;0.900000;,
  2.000000;0.350000;,
  2.000000;0.000000;,
  2.500000;0.900000;,
  2.500000;0.350000;,
  2.500000;0.000000;,
  0.000000;0.000000;,
  0.000000;0.500000;,
  0.000000;1.000000;,
  0.000000;1.500000;,
  0.000000;2.000000;,
  0.000000;2.500000;,
  0.600000;0.000000;,
  0.600000;2.500000;,
  0.000000;0.000000;,
  0.000000;0.100000;,
  2.500000;0.000000;,
  2.500000;0.100000;,
  0.000000;0.000000;,
  0.000000;0.000000;,
  0.000000;0.000000;,
  0.000000;0.000000;,
  0.000000;0.000000;,
  0.000000;0.100000;,
  0.500000;0.000000;,
  0.500000;0.100000;,
  1.500000;0.000000;,
  1.500000;0.100000;,
  2.000000;0.000000;,
  2.000000;0.100000;,
  0.000000;0.000000;,
  0.000000;0.000000;,
  0.000000;0.000000;,
  0.000000;0.000000;,
  0.000000;0.000000;,
  0.000000;0.000000;,
  0.000000;0.000000;,
  0.000000;0.000000;,
  0.000000;1.000000;,
  0.000000;0.350000;,
  0.000000;0.000000;,
  0.500000;1.000000;,
  0.500000;0.350000;,
  0.500000;0.000000;,
  1.000000;1.000000;,
  1.000000;0.350000;,
  1.000000;0.000000;,
  1.500000;1.000000;,
  1.500000;0.350000;,
  1.500000;0.000000;,
  2.000000;1.000000;,
  2.000000;0.350000;,
  2.000000;0.000000;,
  2.500000;1.000000;,
  2.500000;0.350000;,
  2.500000;0.000000;,
  0.000000;0.000000;,
  0.000000;0.500000;,
  0.000000;1.000000;,
  0.000000;1.500000;,
  0.000000;2.000000;,
  0.000000;2.500000;,
  0.600000;0.000000;,
  0.600000;2.500000;,
  0.000000;0.000000;,
  0.000000;0.100000;,
  2.500000;0.000000;,
  2.500000;0.100000;,
  0.000000;0.000000;,
  0.000000;0.000000;,
  0.000000;0.000000;,
  0.000000;0.000000;;
 }

 MeshNormals  {
  72;
  0.999987;0.000000;0.005020;,
  0.999987;0.000000;0.005020;,
  0.000000;1.000000;0.000000;,
  0.000000;1.000000;0.000000;,
  0.999997;0.000000;0.002510;,
  0.999997;0.000000;0.002510;,
  0.000000;1.000000;0.000000;,
  0.000000;1.000000;0.000000;,
  1.000000;0.000000;0.000000;,
  1.000000;0.000000;0.000000;,
  0.000000;1.000000;0.000000;,
  0.000000;1.000000;0.000000;,
  0.999997;0.000000;-0.002510;,
  0.999997;0.000000;-0.002510;,
  0.000000;1.000000;0.000000;,
  0.000000;1.000000;0.000000;,
  0.999987;0.000000;-0.005020;,
  0.999987;0.000000;-0.005020;,
  0.000000;1.000000;0.000000;,
  0.000000;1.000000;0.000000;,
  0.000000;1.000000;0.000000;,
  0.000000;1.000000;0.000000;,
  0.000000;1.000000;0.000000;,
  0.000000;1.000000;0.000000;,
  0.000000;1.000000;0.000000;,
  0.000000;1.000000;0.000000;,
  0.999872;0.000000;-0.015998;,
  0.999872;0.000000;-0.015998;,
  0.999872;0.000000;-0.015998;,
  0.999872;0.000000;-0.015998;,
  0.000000;0.000000;-1.000000;,
  0.000000;0.000000;-1.000000;,
  0.999872;0.000000;-0.015998;,
  0.999872;0.000000;-0.015998;,
  0.000000;0.000000;-1.000000;,
  0.000000;0.000000;-1.000000;,
  0.000000;0.000000;-1.000000;,
  0.000000;0.000000;-1.000000;,
  0.999872;0.000000;-0.015998;,
  0.999872;0.000000;-0.015998;,
  0.000000;0.000000;-1.000000;,
  0.000000;0.000000;-1.000000;,
  -0.999987;0.000000;-0.005020;,
  -0.999987;0.000000;-0.005020;,
  0.000000;1.000000;0.000000;,
  0.000000;1.000000;0.000000;,
  -0.999997;0.000000;-0.002510;,
  -0.999997;0.000000;-0.002510;,
  0.000000;1.000000;0.000000;,
  0.000000;1.000000;0.000000;,
  -1.000000;0.000000;0.000000;,
  -1.000000;0.000000;0.000000;,
  0.000000;1.000000;0.000000;,
  0.000000;1.000000;0.000000;,
  -0.999997;0.000000;0.002510;,
  -0.999997;0.000000;0.002510;,
  0.000000;1.000000;0.000000;,
  0.000000;1.000000;0.000000;,
  -0.999989;0.000000;0.004607;,
  -0.999989;0.000000;0.004607;,
  0.000000;1.000000;0.000000;,
  0.000000;1.000000;0.000000;,
  0.000000;1.000000;0.000000;,
  0.000000;1.000000;0.000000;,
  0.000000;1.000000;0.000000;,
  0.000000;1.000000;0.000000;,
  0.000000;1.000000;0.000000;,
  0.000000;1.000000;0.000000;,
  -0.999872;0.000000;-0.015998;,
  -0.999872;0.000000;-0.015998;,
  -0.999872;0.000000;-0.015998;,
  -0.999872;0.000000;-0.015998;;
  72;
  3;0,0,0;,
  3;1,1,1;,
  3;2,2,2;,
  3;3,3,3;,
  3;4,4,4;,
  3;5,5,5;,
  3;6,6,6;,
  3;7,7,7;,
  3;8,8,8;,
  3;9,9,9;,
  3;10,10,10;,
  3;11,11,11;,
  3;12,12,12;,
  3;13,13,13;,
  3;14,14,14;,
  3;15,15,15;,
  3;16,16,16;,
  3;17,17,17;,
  3;18,18,18;,
  3;19,19,19;,
  3;20,20,20;,
  3;21,21,21;,
  3;22,22,22;,
  3;23,23,23;,
  3;24,24,24;,
  3;25,25,25;,
  3;26,26,26;,
  3;27,27,27;,
  3;28,28,28;,
  3;29,29,29;,
  3;30,30,30;,
  3;31,31,31;,
  3;32,32,32;,
  3;33,33,33;,
  3;34,34,34;,
  3;35,35,35;,
  3;36,36,36;,
  3;37,37,37;,
  3;38,38,38;,
  3;39,39,39;,
  3;40,40,40;,
  3;41,41,41;,
  3;42,42,42;,
  3;43,43,43;,
  3;44,44,44;,
  3;45,45,45;,
  3;46,46,46;,
  3;47,47,47;,
  3;48,48,48;,
  3;49,49,49;,
  3;50,50,50;,
  3;51,51,51;,
  3;52,52,52;,
  3;53,53,53;,
  3;54,54,54;,
  3;55,55,55;,
  3;56,56,56;,
  3;57,57,57;,
  3;58,58,58;,
  3;59,59,59;,
  3;60,60,60;,
  3;61,61,61;,
  3;62,62,62;,
  3;63,63,63;,
  3;64,64,64;,
  3;65,65,65;,
  3;66,66,66;,
  3;67,67,67;,
  3;68,68,68;,
  3;69,69,69;,
  3;70,70,70;,
  3;71,71,71;;
 }
}