xof 0303txt 0032
template Vector {
 <3d82ab5e-62da-11cf-ab39-0020af71e433>
 FLOAT x;
 FLOAT y;
 FLOAT z;
}

template MeshFace {
 <3d82ab5f-62da-11cf-ab39-0020af71e433>
 DWORD nFaceVertexIndices;
 array DWORD faceVertexIndices[nFaceVertexIndices];
}

template Mesh {
 <3d82ab44-62da-11cf-ab39-0020af71e433>
 DWORD nVertices;
 array Vector vertices[nVertices];
 DWORD nFaces;
 array MeshFace faces[nFaces];
 [...]
}

template ColorRGBA {
 <35ff44e0-6c7c-11cf-8f52-0040333594a3>
 FLOAT red;
 FLOAT green;
 FLOAT blue;
 FLOAT alpha;
}

template ColorRGB {
 <d3e16e81-7835-11cf-8f52-0040333594a3>
 FLOAT red;
 FLOAT green;
 FLOAT blue;
}

template Material {
 <3d82ab4d-62da-11cf-ab39-0020af71e433>
 ColorRGBA faceColor;
 FLOAT power;
 ColorRGB specularColor;
 ColorRGB emissiveColor;
 [...]
}

template MeshMaterialList {
 <f6f23f42-7686-11cf-8f52-0040333594a3>
 DWORD nMaterials;
 DWORD nFaceIndexes;
 array DWORD faceIndexes[nFaceIndexes];
 [Material <3d82ab4d-62da-11cf-ab39-0020af71e433>]
}

template TextureFilename {
 <a42790e1-7810-11cf-8f52-0040333594a3>
 STRING filename;
}

template Coords2d {
 <f6f23f44-7686-11cf-8f52-0040333594a3>
 FLOAT u;
 FLOAT v;
}

template MeshTextureCoords {
 <f6f23f40-7686-11cf-8f52-0040333594a3>
 DWORD nTextureCoords;
 array Coords2d textureCoords[nTextureCoords];
}

template MeshNormals {
 <f6f23f43-7686-11cf-8f52-0040333594a3>
 DWORD nNormals;
 array Vector normals[nNormals];
 DWORD nFaceNormals;
 array MeshFace faceNormals[nFaceNormals];
}


Mesh  {
 170;
 -7.200000;0.920000;-17.100000;,
 -7.200000;2.900000;-17.100000;,
 -6.800000;0.920000;-17.100000;,
 -6.800000;2.900000;-17.100000;,
 -6.800000;0.920000;-16.500000;,
 -6.800000;2.900000;-16.500000;,
 -7.300000;0.920000;-22.299999;,
 -7.300000;6.000000;-22.299999;,
 -6.700000;0.920000;-22.299999;,
 -6.700000;6.000000;-22.299999;,
 -6.700000;0.920000;-21.700001;,
 -6.700000;6.000000;-21.700001;,
 -3.700000;0.920000;-17.100000;,
 -3.700000;2.900000;-17.100000;,
 -3.300000;0.920000;-17.100000;,
 -3.300000;2.900000;-17.100000;,
 -3.300000;0.920000;-16.500000;,
 -3.300000;2.900000;-16.500000;,
 -3.800000;0.920000;-22.299999;,
 -3.800000;6.000000;-22.299999;,
 -3.200000;0.920000;-22.299999;,
 -3.200000;6.000000;-22.299999;,
 -3.200000;0.920000;-21.700001;,
 -3.200000;6.000000;-21.700001;,
 7.700000;0.920000;-17.100000;,
 7.700000;2.900000;-17.100000;,
 7.300000;0.920000;-17.100000;,
 7.300000;2.900000;-17.100000;,
 7.300000;0.920000;-16.500000;,
 7.300000;2.900000;-16.500000;,
 7.800000;0.920000;-22.299999;,
 7.800000;6.000000;-22.299999;,
 7.200000;0.920000;-22.299999;,
 7.200000;6.000000;-22.299999;,
 7.200000;0.920000;-21.700001;,
 7.200000;6.000000;-21.700001;,
 11.200000;0.920000;-17.100000;,
 11.200000;2.900000;-17.100000;,
 10.800000;0.920000;-17.100000;,
 10.800000;2.900000;-17.100000;,
 10.800000;0.920000;-16.500000;,
 10.800000;2.900000;-16.500000;,
 11.300000;0.920000;-22.299999;,
 11.300000;6.000000;-22.299999;,
 10.700000;0.920000;-22.299999;,
 10.700000;6.000000;-22.299999;,
 10.700000;0.920000;-21.700001;,
 10.700000;6.000000;-21.700001;,
 -3.200000;5.400000;-22.600000;,
 -3.200000;6.000000;-22.600000;,
 -2.900000;5.700000;-22.600000;,
 -2.900000;6.000000;-22.600000;,
 -3.200000;5.400000;-21.700001;,
 -2.900000;5.700000;-21.700001;,
 -2.900000;6.000000;-21.700001;,
 7.200000;5.400000;-22.600000;,
 7.200000;6.000000;-22.600000;,
 6.900000;5.700000;-22.600000;,
 6.900000;6.000000;-22.600000;,
 7.200000;5.400000;-21.700001;,
 6.900000;5.700000;-21.700001;,
 6.900000;6.000000;-21.700001;,
 -7.290000;5.200000;-24.700001;,
 -6.710000;5.200000;-24.700001;,
 -6.710000;6.000000;-24.700001;,
 -7.290000;5.350000;-24.200001;,
 -6.710000;5.350000;-24.200001;,
 -7.290000;5.350000;-22.799999;,
 -6.710000;5.350000;-22.799999;,
 -7.290000;5.200000;-22.299999;,
 -6.710000;5.200000;-22.299999;,
 -6.710000;6.000000;-22.299999;,
 -3.790000;5.200000;-24.700001;,
 -3.210000;5.200000;-24.700001;,
 -3.210000;6.000000;-24.700001;,
 -3.790000;5.350000;-24.200001;,
 -3.210000;5.350000;-24.200001;,
 -3.790000;5.350000;-22.799999;,
 -3.210000;5.350000;-22.799999;,
 -3.790000;5.200000;-22.299999;,
 -3.210000;5.200000;-22.299999;,
 -3.210000;6.000000;-22.299999;,
 7.790000;5.200000;-24.700001;,
 7.210000;5.200000;-24.700001;,
 7.210000;6.000000;-24.700001;,
 7.790000;5.350000;-24.200001;,
 7.210000;5.350000;-24.200001;,
 7.790000;5.350000;-22.799999;,
 7.210000;5.350000;-22.799999;,
 7.790000;5.200000;-22.299999;,
 7.210000;5.200000;-22.299999;,
 7.210000;6.000000;-22.299999;,
 11.290000;5.200000;-24.700001;,
 10.710000;5.200000;-24.700001;,
 10.710000;6.000000;-24.700001;,
 11.290000;5.350000;-24.200001;,
 10.710000;5.350000;-24.200001;,
 11.290000;5.350000;-22.799999;,
 10.710000;5.350000;-22.799999;,
 11.290000;5.200000;-22.299999;,
 10.710000;5.200000;-22.299999;,
 10.710000;6.000000;-22.299999;,
 -6.700000;5.200000;-21.709999;,
 -6.700000;5.200000;-22.290001;,
 -6.700000;6.000000;-22.290001;,
 -6.200000;5.350000;-21.709999;,
 -6.200000;5.350000;-22.290001;,
 -4.300000;5.350000;-21.709999;,
 -4.300000;5.350000;-22.290001;,
 -3.800000;5.200000;-21.709999;,
 -3.800000;5.200000;-22.290001;,
 -3.800000;6.000000;-22.290001;,
 7.800000;5.200000;-21.709999;,
 7.800000;5.200000;-22.290001;,
 7.800000;6.000000;-22.290001;,
 8.300000;5.350000;-21.709999;,
 8.300000;5.350000;-22.290001;,
 10.200000;5.350000;-21.709999;,
 10.200000;5.350000;-22.290001;,
 10.700000;5.200000;-21.709999;,
 10.700000;5.200000;-22.290001;,
 10.700000;6.000000;-22.290001;,
 -7.300000;6.000000;-25.000000;,
 -7.300000;6.000000;-21.700001;,
 11.300000;6.000000;-21.700001;,
 11.300000;6.000000;-25.000000;,
 -7.200000;5.500000;-21.700001;,
 -3.300000;5.500000;-21.700001;,
 -3.300000;6.066000;-21.700001;,
 -7.200000;2.844000;-17.100000;,
 -3.300000;2.844000;-17.100000;,
 -3.300000;3.413000;-17.100000;,
 -7.200000;2.844000;-16.500000;,
 -3.300000;2.844000;-16.500000;,
 -3.300000;3.413000;-16.500000;,
 -7.200000;0.534000;-12.500000;,
 -3.300000;0.534000;-12.500000;,
 -3.300000;1.100000;-12.500000;,
 -3.350000;6.066000;-21.700001;,
 -3.350000;9.066000;-21.700001;,
 -3.350000;0.754000;-12.500000;,
 -3.350000;3.754000;-12.500000;,
 -3.300000;9.066000;-21.700001;,
 -3.300000;9.366000;-21.700001;,
 -7.200000;9.366000;-21.700001;,
 -3.300000;3.754000;-12.500000;,
 -3.300000;4.054000;-12.500000;,
 -7.200000;4.054000;-12.500000;,
 11.200000;5.500000;-21.700001;,
 7.300000;5.500000;-21.700001;,
 7.300000;6.066000;-21.700001;,
 11.200000;2.844000;-17.100000;,
 7.300000;2.844000;-17.100000;,
 7.300000;3.413000;-17.100000;,
 11.200000;2.844000;-16.500000;,
 7.300000;2.844000;-16.500000;,
 7.300000;3.413000;-16.500000;,
 11.200000;0.534000;-12.500000;,
 7.300000;0.534000;-12.500000;,
 7.300000;1.100000;-12.500000;,
 7.350000;6.066000;-21.700001;,
 7.350000;9.066000;-21.700001;,
 7.350000;0.754000;-12.500000;,
 7.350000;3.754000;-12.500000;,
 7.300000;9.066000;-21.700001;,
 7.300000;9.366000;-21.700001;,
 11.200000;9.366000;-21.700001;,
 7.300000;3.754000;-12.500000;,
 7.300000;4.054000;-12.500000;,
 11.200000;4.054000;-12.500000;;
 142;
 3;0,1,3;,
 3;0,3,2;,
 3;2,3,5;,
 3;2,5,4;,
 3;6,7,9;,
 3;6,9,8;,
 3;8,9,11;,
 3;8,11,10;,
 3;12,13,15;,
 3;12,15,14;,
 3;14,15,17;,
 3;14,17,16;,
 3;18,19,21;,
 3;18,21,20;,
 3;20,21,23;,
 3;20,23,22;,
 3;26,27,25;,
 3;26,25,24;,
 3;28,29,27;,
 3;28,27,26;,
 3;32,33,31;,
 3;32,31,30;,
 3;34,35,33;,
 3;34,33,32;,
 3;38,39,37;,
 3;38,37,36;,
 3;40,41,39;,
 3;40,39,38;,
 3;44,45,43;,
 3;44,43,42;,
 3;46,47,45;,
 3;46,45,44;,
 3;48,49,51;,
 3;48,51,50;,
 3;48,50,53;,
 3;48,53,52;,
 3;50,51,54;,
 3;50,54,53;,
 3;57,58,56;,
 3;57,56,55;,
 3;59,60,57;,
 3;59,57,55;,
 3;60,61,58;,
 3;60,58,57;,
 3;62,63,66;,
 3;62,66,65;,
 3;65,66,68;,
 3;65,68,67;,
 3;67,68,70;,
 3;67,70,69;,
 3;63,64,66;,
 3;66,64,71;,
 3;66,71,68;,
 3;70,68,71;,
 3;72,73,76;,
 3;72,76,75;,
 3;75,76,78;,
 3;75,78,77;,
 3;77,78,80;,
 3;77,80,79;,
 3;73,74,76;,
 3;76,74,81;,
 3;76,81,78;,
 3;80,78,81;,
 3;85,86,83;,
 3;85,83,82;,
 3;87,88,86;,
 3;87,86,85;,
 3;89,90,88;,
 3;89,88,87;,
 3;86,84,83;,
 3;88,91,84;,
 3;88,84,86;,
 3;91,88,90;,
 3;95,96,93;,
 3;95,93,92;,
 3;97,98,96;,
 3;97,96,95;,
 3;99,100,98;,
 3;99,98,97;,
 3;96,94,93;,
 3;98,101,94;,
 3;98,94,96;,
 3;101,98,100;,
 3;102,103,106;,
 3;102,106,105;,
 3;105,106,108;,
 3;105,108,107;,
 3;107,108,110;,
 3;107,110,109;,
 3;103,104,106;,
 3;106,104,111;,
 3;106,111,108;,
 3;110,108,111;,
 3;112,113,116;,
 3;112,116,115;,
 3;115,116,118;,
 3;115,118,117;,
 3;117,118,120;,
 3;117,120,119;,
 3;113,114,116;,
 3;116,114,121;,
 3;116,121,118;,
 3;120,118,121;,
 3;125,124,123;,
 3;125,123,122;,
 3;126,127,130;,
 3;126,130,129;,
 3;127,128,131;,
 3;127,131,130;,
 3;129,130,133;,
 3;129,133,132;,
 3;130,131,134;,
 3;130,134,133;,
 3;132,133,136;,
 3;132,136,135;,
 3;133,134,137;,
 3;133,137,136;,
 3;138,139,141;,
 3;138,141,140;,
 3;142,143,146;,
 3;142,146,145;,
 3;146,147,144;,
 3;146,144,143;,
 3;151,152,149;,
 3;151,149,148;,
 3;152,153,150;,
 3;152,150,149;,
 3;154,155,152;,
 3;154,152,151;,
 3;155,156,153;,
 3;155,153,152;,
 3;157,158,155;,
 3;157,155,154;,
 3;158,159,156;,
 3;158,156,155;,
 3;162,163,161;,
 3;162,161,160;,
 3;167,168,165;,
 3;167,165,164;,
 3;165,166,169;,
 3;165,169,168;;

 MeshMaterialList  {
  23;
  142;
  0,
  0,
  0,
  0,
  1,
  1,
  1,
  1,
  2,
  2,
  2,
  2,
  3,
  3,
  3,
  3,
  4,
  4,
  4,
  4,
  5,
  5,
  5,
  5,
  6,
  6,
  6,
  6,
  7,
  7,
  7,
  7,
  8,
  8,
  8,
  8,
  8,
  8,
  9,
  9,
  9,
  9,
  9,
  9,
  10,
  10,
  10,
  10,
  10,
  10,
  10,
  10,
  10,
  10,
  11,
  11,
  11,
  11,
  11,
  11,
  11,
  11,
  11,
  11,
  12,
  12,
  12,
  12,
  12,
  12,
  12,
  12,
  12,
  12,
  13,
  13,
  13,
  13,
  13,
  13,
  13,
  13,
  13,
  13,
  14,
  14,
  14,
  14,
  14,
  14,
  14,
  14,
  14,
  14,
  15,
  15,
  15,
  15,
  15,
  15,
  15,
  15,
  15,
  15,
  16,
  16,
  17,
  17,
  17,
  17,
  17,
  17,
  17,
  17,
  17,
  17,
  17,
  17,
  18,
  18,
  19,
  19,
  19,
  19,
  20,
  20,
  20,
  20,
  20,
  20,
  20,
  20,
  20,
  20,
  20,
  20,
  21,
  21,
  22,
  22,
  22,
  22;

  Material  {
   0.352941;0.352941;0.352941;1.000000;;
   0.000000;
   0.000000;0.000000;0.000000;;
   0.000000;0.000000;0.000000;;

   TextureFilename  {
    "Concrete2.png";
   }
  }

  Material  {
   1.000000;1.000000;1.000000;1.000000;;
   0.000000;
   0.000000;0.000000;0.000000;;
   0.000000;0.000000;0.000000;;

   TextureFilename  {
    "Concrete2.png";
   }
  }

  Material  {
   1.000000;1.000000;1.000000;1.000000;;
   0.000000;
   0.000000;0.000000;0.000000;;
   0.000000;0.000000;0.000000;;

   TextureFilename  {
    "Concrete2.png";
   }
  }

  Material  {
   1.000000;1.000000;1.000000;1.000000;;
   0.000000;
   0.000000;0.000000;0.000000;;
   0.000000;0.000000;0.000000;;

   TextureFilename  {
    "Concrete2.png";
   }
  }

  Material  {
   1.000000;1.000000;1.000000;1.000000;;
   0.000000;
   0.000000;0.000000;0.000000;;
   0.000000;0.000000;0.000000;;

   TextureFilename  {
    "Concrete2.png";
   }
  }

  Material  {
   1.000000;1.000000;1.000000;1.000000;;
   0.000000;
   0.000000;0.000000;0.000000;;
   0.000000;0.000000;0.000000;;

   TextureFilename  {
    "Concrete2.png";
   }
  }

  Material  {
   0.352941;0.352941;0.352941;1.000000;;
   0.000000;
   0.000000;0.000000;0.000000;;
   0.000000;0.000000;0.000000;;

   TextureFilename  {
    "Concrete2.png";
   }
  }

  Material  {
   1.000000;1.000000;1.000000;1.000000;;
   0.000000;
   0.000000;0.000000;0.000000;;
   0.000000;0.000000;0.000000;;

   TextureFilename  {
    "Concrete2.png";
   }
  }

  Material  {
   1.000000;1.000000;1.000000;1.000000;;
   0.000000;
   0.000000;0.000000;0.000000;;
   0.000000;0.000000;0.000000;;

   TextureFilename  {
    "Concrete2.png";
   }
  }

  Material  {
   1.000000;1.000000;1.000000;1.000000;;
   0.000000;
   0.000000;0.000000;0.000000;;
   0.000000;0.000000;0.000000;;

   TextureFilename  {
    "Concrete2.png";
   }
  }

  Material  {
   1.000000;1.000000;1.000000;1.000000;;
   0.000000;
   0.000000;0.000000;0.000000;;
   0.000000;0.000000;0.000000;;

   TextureFilename  {
    "Concrete2.png";
   }
  }

  Material  {
   1.000000;1.000000;1.000000;1.000000;;
   0.000000;
   0.000000;0.000000;0.000000;;
   0.000000;0.000000;0.000000;;

   TextureFilename  {
    "Concrete2.png";
   }
  }

  Material  {
   1.000000;1.000000;1.000000;1.000000;;
   0.000000;
   0.000000;0.000000;0.000000;;
   0.000000;0.000000;0.000000;;

   TextureFilename  {
    "Concrete2.png";
   }
  }

  Material  {
   1.000000;1.000000;1.000000;1.000000;;
   0.000000;
   0.000000;0.000000;0.000000;;
   0.000000;0.000000;0.000000;;

   TextureFilename  {
    "Concrete2.png";
   }
  }

  Material  {
   1.000000;1.000000;1.000000;1.000000;;
   0.000000;
   0.000000;0.000000;0.000000;;
   0.000000;0.000000;0.000000;;

   TextureFilename  {
    "Concrete2.png";
   }
  }

  Material  {
   1.000000;1.000000;1.000000;1.000000;;
   0.000000;
   0.000000;0.000000;0.000000;;
   0.000000;0.000000;0.000000;;

   TextureFilename  {
    "Concrete2.png";
   }
  }

  Material  {
   1.000000;1.000000;1.000000;1.000000;;
   0.000000;
   0.000000;0.000000;0.000000;;
   0.000000;0.000000;0.000000;;

   TextureFilename  {
    "Conc.png";
   }
  }

  Material  {
   1.000000;1.000000;1.000000;1.000000;;
   0.000000;
   0.000000;0.000000;0.000000;;
   0.000000;0.000000;0.000000;;

   TextureFilename  {
    "Wall2.png";
   }
  }

  Material  {
   1.000000;1.000000;1.000000;1.000000;;
   0.000000;
   0.000000;0.000000;0.000000;;
   0.000000;0.000000;0.000000;;

   TextureFilename  {
    "Wall3.png";
   }
  }

  Material  {
   1.000000;1.000000;1.000000;1.000000;;
   0.000000;
   0.000000;0.000000;0.000000;;
   0.000000;0.000000;0.000000;;

   TextureFilename  {
    "Roof3.png";
   }
  }

  Material  {
   1.000000;1.000000;1.000000;1.000000;;
   0.000000;
   0.000000;0.000000;0.000000;;
   0.000000;0.000000;0.000000;;

   TextureFilename  {
    "Wall2.png";
   }
  }

  Material  {
   1.000000;1.000000;1.000000;1.000000;;
   0.000000;
   0.000000;0.000000;0.000000;;
   0.000000;0.000000;0.000000;;

   TextureFilename  {
    "Wall3.png";
   }
  }

  Material  {
   1.000000;1.000000;1.000000;1.000000;;
   0.000000;
   0.000000;0.000000;0.000000;;
   0.000000;0.000000;0.000000;;

   TextureFilename  {
    "Roof3.png";
   }
  }
 }

 MeshTextureCoords  {
  170;
  1.000000;1.000000;,
  1.000000;0.610000;,
  0.500000;1.000000;,
  0.500000;0.610000;,
  0.000000;1.000000;,
  0.000000;0.610000;,
  0.100000;1.000000;,
  0.100000;0.000000;,
  0.200000;1.000000;,
  0.200000;0.000000;,
  0.300000;1.000000;,
  0.300000;0.000000;,
  0.000000;1.000000;,
  0.000000;0.610000;,
  0.500000;1.000000;,
  0.500000;0.610000;,
  1.000000;1.000000;,
  1.000000;0.610000;,
  0.000000;1.000000;,
  0.000000;0.000000;,
  0.500000;1.000000;,
  0.500000;0.000000;,
  1.000000;1.000000;,
  1.000000;0.000000;,
  0.000000;1.000000;,
  0.000000;0.610000;,
  0.500000;1.000000;,
  0.500000;0.610000;,
  1.000000;1.000000;,
  1.000000;0.610000;,
  0.000000;1.000000;,
  0.000000;0.000000;,
  0.500000;1.000000;,
  0.500000;0.000000;,
  1.000000;1.000000;,
  1.000000;0.000000;,
  1.000000;1.000000;,
  1.000000;0.610000;,
  0.500000;1.000000;,
  0.500000;0.610000;,
  0.000000;1.000000;,
  0.000000;0.610000;,
  0.100000;1.000000;,
  0.100000;0.000000;,
  0.200000;1.000000;,
  0.200000;0.000000;,
  0.300000;1.000000;,
  0.300000;0.000000;,
  0.100000;0.000000;,
  0.100000;0.080000;,
  0.150000;0.040000;,
  0.150000;0.080000;,
  0.000000;0.000000;,
  0.050000;0.040000;,
  0.050000;0.080000;,
  0.100000;0.000000;,
  0.100000;0.080000;,
  0.150000;0.040000;,
  0.150000;0.080000;,
  0.000000;0.000000;,
  0.050000;0.040000;,
  0.050000;0.080000;,
  0.100000;0.000000;,
  0.200000;0.000000;,
  0.300000;0.000000;,
  0.100000;0.100000;,
  0.200000;0.100000;,
  0.100000;0.300000;,
  0.200000;0.300000;,
  0.100000;0.400000;,
  0.200000;0.400000;,
  0.300000;0.400000;,
  0.100000;0.000000;,
  0.200000;0.000000;,
  0.300000;0.000000;,
  0.100000;0.100000;,
  0.200000;0.100000;,
  0.100000;0.300000;,
  0.200000;0.300000;,
  0.100000;0.400000;,
  0.200000;0.400000;,
  0.300000;0.400000;,
  0.100000;0.000000;,
  0.200000;0.000000;,
  0.300000;0.000000;,
  0.100000;0.100000;,
  0.200000;0.100000;,
  0.100000;0.300000;,
  0.200000;0.300000;,
  0.100000;0.400000;,
  0.200000;0.400000;,
  0.300000;0.400000;,
  0.100000;0.000000;,
  0.200000;0.000000;,
  0.300000;0.000000;,
  0.100000;0.100000;,
  0.200000;0.100000;,
  0.100000;0.300000;,
  0.200000;0.300000;,
  0.100000;0.400000;,
  0.200000;0.400000;,
  0.300000;0.400000;,
  0.100000;0.000000;,
  0.200000;0.000000;,
  0.300000;0.000000;,
  0.100000;0.100000;,
  0.200000;0.100000;,
  0.100000;0.300000;,
  0.200000;0.300000;,
  0.100000;0.400000;,
  0.200000;0.400000;,
  0.300000;0.400000;,
  0.100000;0.000000;,
  0.200000;0.000000;,
  0.300000;0.000000;,
  0.100000;0.100000;,
  0.200000;0.100000;,
  0.100000;0.300000;,
  0.200000;0.300000;,
  0.100000;0.400000;,
  0.200000;0.400000;,
  0.300000;0.400000;,
  1.000000;0.000000;,
  1.000000;1.375000;,
  0.000000;1.375000;,
  0.000000;0.000000;,
  1.000000;0.000000;,
  0.187500;0.000000;,
  0.000000;0.000000;,
  1.000000;0.400000;,
  0.187500;0.400000;,
  0.000000;0.400000;,
  1.000000;0.600000;,
  0.187500;0.600000;,
  0.000000;0.600000;,
  1.000000;1.000000;,
  0.187500;1.000000;,
  0.000000;1.000000;,
  1.000000;1.000000;,
  1.000000;0.000000;,
  0.000000;1.000000;,
  0.000000;0.000000;,
  1.000000;1.000000;,
  1.000000;0.890000;,
  1.000000;0.000000;,
  0.000000;1.000000;,
  0.000000;0.890000;,
  0.000000;0.000000;,
  1.000000;0.000000;,
  0.187500;0.000000;,
  0.000000;0.000000;,
  1.000000;0.400000;,
  0.187500;0.400000;,
  0.000000;0.400000;,
  1.000000;0.600000;,
  0.187500;0.600000;,
  0.000000;0.600000;,
  1.000000;1.000000;,
  0.187500;1.000000;,
  0.000000;1.000000;,
  1.000000;1.000000;,
  1.000000;0.000000;,
  0.000000;1.000000;,
  0.000000;0.000000;,
  1.000000;1.000000;,
  1.000000;0.890000;,
  1.000000;0.000000;,
  0.000000;1.000000;,
  0.000000;0.890000;,
  0.000000;0.000000;;
 }

 MeshNormals  {
  142;
  0.000000;0.000000;-1.000000;,
  0.000000;0.000000;-1.000000;,
  1.000000;0.000000;0.000000;,
  1.000000;0.000000;0.000000;,
  0.000000;0.000000;-1.000000;,
  0.000000;0.000000;-1.000000;,
  1.000000;0.000000;0.000000;,
  1.000000;0.000000;0.000000;,
  0.000000;0.000000;-1.000000;,
  0.000000;0.000000;-1.000000;,
  1.000000;0.000000;0.000000;,
  1.000000;0.000000;0.000000;,
  0.000000;0.000000;-1.000000;,
  0.000000;0.000000;-1.000000;,
  1.000000;0.000000;0.000000;,
  1.000000;0.000000;0.000000;,
  0.000000;0.000000;-1.000000;,
  0.000000;0.000000;-1.000000;,
  -1.000000;0.000000;0.000000;,
  -1.000000;0.000000;0.000000;,
  0.000000;0.000000;-1.000000;,
  0.000000;0.000000;-1.000000;,
  -1.000000;0.000000;0.000000;,
  -1.000000;0.000000;0.000000;,
  0.000000;0.000000;-1.000000;,
  0.000000;0.000000;-1.000000;,
  -1.000000;0.000000;0.000000;,
  -1.000000;0.000000;0.000000;,
  0.000000;0.000000;-1.000000;,
  0.000000;0.000000;-1.000000;,
  -1.000000;0.000000;0.000000;,
  -1.000000;0.000000;0.000000;,
  0.000000;0.000000;-1.000000;,
  0.000000;0.000000;-1.000000;,
  0.707107;-0.707107;0.000000;,
  0.707107;-0.707107;0.000000;,
  1.000000;0.000000;0.000000;,
  1.000000;0.000000;0.000000;,
  0.000000;0.000000;-1.000000;,
  0.000000;0.000000;-1.000000;,
  -0.707107;-0.707107;0.000000;,
  -0.707107;-0.707107;0.000000;,
  -1.000000;0.000000;0.000000;,
  -1.000000;0.000000;0.000000;,
  0.000000;-0.957826;0.287348;,
  0.000000;-0.957826;0.287348;,
  0.000000;-1.000000;0.000000;,
  0.000000;-1.000000;0.000000;,
  0.000000;-0.957826;-0.287348;,
  0.000000;-0.957826;-0.287348;,
  1.000000;0.000000;0.000000;,
  1.000000;0.000000;0.000000;,
  1.000000;0.000000;0.000000;,
  1.000000;0.000000;0.000000;,
  0.000000;-0.957826;0.287348;,
  0.000000;-0.957826;0.287348;,
  0.000000;-1.000000;0.000000;,
  0.000000;-1.000000;0.000000;,
  0.000000;-0.957826;-0.287348;,
  0.000000;-0.957826;-0.287348;,
  1.000000;0.000000;0.000000;,
  1.000000;0.000000;0.000000;,
  1.000000;0.000000;0.000000;,
  1.000000;0.000000;0.000000;,
  0.000000;-0.957826;0.287348;,
  0.000000;-0.957826;0.287348;,
  0.000000;-1.000000;0.000000;,
  0.000000;-1.000000;0.000000;,
  0.000000;-0.957826;-0.287348;,
  0.000000;-0.957826;-0.287348;,
  -1.000000;0.000000;0.000000;,
  -1.000000;0.000000;0.000000;,
  -1.000000;0.000000;0.000000;,
  -1.000000;0.000000;0.000000;,
  0.000000;-0.957826;0.287348;,
  0.000000;-0.957826;0.287348;,
  0.000000;-1.000000;0.000000;,
  0.000000;-1.000000;0.000000;,
  0.000000;-0.957826;-0.287348;,
  0.000000;-0.957826;-0.287348;,
  -1.000000;0.000000;0.000000;,
  -1.000000;0.000000;0.000000;,
  -1.000000;0.000000;0.000000;,
  -1.000000;0.000000;0.000000;,
  0.287348;-0.957826;0.000000;,
  0.287348;-0.957826;0.000000;,
  0.000000;-1.000000;0.000000;,
  0.000000;-1.000000;0.000000;,
  -0.287348;-0.957826;0.000000;,
  -0.287348;-0.957826;0.000000;,
  0.000000;0.000000;-1.000000;,
  0.000000;0.000000;-1.000000;,
  0.000000;0.000000;-1.000000;,
  0.000000;0.000000;-1.000000;,
  0.287348;-0.957826;0.000000;,
  0.287348;-0.957826;0.000000;,
  0.000000;-1.000000;0.000000;,
  0.000000;-1.000000;0.000000;,
  -0.287348;-0.957826;0.000000;,
  -0.287348;-0.957826;0.000000;,
  0.000000;0.000000;-1.000000;,
  0.000000;0.000000;-1.000000;,
  0.000000;0.000000;-1.000000;,
  0.000000;0.000000;-1.000000;,
  0.000000;-1.000000;0.000000;,
  0.000000;-1.000000;0.000000;,
  0.000000;-0.866010;-0.500027;,
  0.000000;-0.866010;-0.500027;,
  1.000000;0.000000;0.000000;,
  1.000000;0.000000;0.000000;,
  0.000000;-1.000000;0.000000;,
  0.000000;-1.000000;0.000000;,
  1.000000;0.000000;0.000000;,
  1.000000;0.000000;0.000000;,
  0.000000;-0.865969;-0.500097;,
  0.000000;-0.865969;-0.500097;,
  1.000000;0.000000;0.000000;,
  1.000000;0.000000;0.000000;,
  1.000000;0.000000;0.000000;,
  1.000000;0.000000;0.000000;,
  1.000000;0.000000;0.000000;,
  1.000000;0.000000;0.000000;,
  0.000000;-0.866010;-0.500027;,
  0.000000;-0.866010;-0.500027;,
  0.000000;-0.866010;-0.500027;,
  0.000000;-0.866010;-0.500027;,
  -1.000000;0.000000;0.000000;,
  -1.000000;0.000000;0.000000;,
  0.000000;-1.000000;0.000000;,
  0.000000;-1.000000;0.000000;,
  -1.000000;0.000000;0.000000;,
  -1.000000;0.000000;0.000000;,
  0.000000;-0.865969;-0.500097;,
  0.000000;-0.865969;-0.500097;,
  -1.000000;0.000000;0.000000;,
  -1.000000;0.000000;0.000000;,
  -1.000000;0.000000;0.000000;,
  -1.000000;0.000000;0.000000;,
  -1.000000;0.000000;0.000000;,
  -1.000000;0.000000;0.000000;,
  0.000000;-0.866010;-0.500027;,
  0.000000;-0.866010;-0.500027;;
  142;
  3;0,0,0;,
  3;1,1,1;,
  3;2,2,2;,
  3;3,3,3;,
  3;4,4,4;,
  3;5,5,5;,
  3;6,6,6;,
  3;7,7,7;,
  3;8,8,8;,
  3;9,9,9;,
  3;10,10,10;,
  3;11,11,11;,
  3;12,12,12;,
  3;13,13,13;,
  3;14,14,14;,
  3;15,15,15;,
  3;16,16,16;,
  3;17,17,17;,
  3;18,18,18;,
  3;19,19,19;,
  3;20,20,20;,
  3;21,21,21;,
  3;22,22,22;,
  3;23,23,23;,
  3;24,24,24;,
  3;25,25,25;,
  3;26,26,26;,
  3;27,27,27;,
  3;28,28,28;,
  3;29,29,29;,
  3;30,30,30;,
  3;31,31,31;,
  3;32,32,32;,
  3;33,33,33;,
  3;34,34,34;,
  3;35,35,35;,
  3;36,36,36;,
  3;37,37,37;,
  3;38,38,38;,
  3;39,39,39;,
  3;40,40,40;,
  3;41,41,41;,
  3;42,42,42;,
  3;43,43,43;,
  3;44,44,44;,
  3;45,45,45;,
  3;46,46,46;,
  3;47,47,47;,
  3;48,48,48;,
  3;49,49,49;,
  3;50,50,50;,
  3;51,51,51;,
  3;52,52,52;,
  3;53,53,53;,
  3;54,54,54;,
  3;55,55,55;,
  3;56,56,56;,
  3;57,57,57;,
  3;58,58,58;,
  3;59,59,59;,
  3;60,60,60;,
  3;61,61,61;,
  3;62,62,62;,
  3;63,63,63;,
  3;64,64,64;,
  3;65,65,65;,
  3;66,66,66;,
  3;67,67,67;,
  3;68,68,68;,
  3;69,69,69;,
  3;70,70,70;,
  3;71,71,71;,
  3;72,72,72;,
  3;73,73,73;,
  3;74,74,74;,
  3;75,75,75;,
  3;76,76,76;,
  3;77,77,77;,
  3;78,78,78;,
  3;79,79,79;,
  3;80,80,80;,
  3;81,81,81;,
  3;82,82,82;,
  3;83,83,83;,
  3;84,84,84;,
  3;85,85,85;,
  3;86,86,86;,
  3;87,87,87;,
  3;88,88,88;,
  3;89,89,89;,
  3;90,90,90;,
  3;91,91,91;,
  3;92,92,92;,
  3;93,93,93;,
  3;94,94,94;,
  3;95,95,95;,
  3;96,96,96;,
  3;97,97,97;,
  3;98,98,98;,
  3;99,99,99;,
  3;100,100,100;,
  3;101,101,101;,
  3;102,102,102;,
  3;103,103,103;,
  3;104,104,104;,
  3;105,105,105;,
  3;106,106,106;,
  3;107,107,107;,
  3;108,108,108;,
  3;109,109,109;,
  3;110,110,110;,
  3;111,111,111;,
  3;112,112,112;,
  3;113,113,113;,
  3;114,114,114;,
  3;115,115,115;,
  3;116,116,116;,
  3;117,117,117;,
  3;118,118,118;,
  3;119,119,119;,
  3;120,120,120;,
  3;121,121,121;,
  3;122,122,122;,
  3;123,123,123;,
  3;124,124,124;,
  3;125,125,125;,
  3;126,126,126;,
  3;127,127,127;,
  3;128,128,128;,
  3;129,129,129;,
  3;130,130,130;,
  3;131,131,131;,
  3;132,132,132;,
  3;133,133,133;,
  3;134,134,134;,
  3;135,135,135;,
  3;136,136,136;,
  3;137,137,137;,
  3;138,138,138;,
  3;139,139,139;,
  3;140,140,140;,
  3;141,141,141;;
 }
}