xof 0303txt 0032
template Vector {
 <3d82ab5e-62da-11cf-ab39-0020af71e433>
 FLOAT x;
 FLOAT y;
 FLOAT z;
}

template MeshFace {
 <3d82ab5f-62da-11cf-ab39-0020af71e433>
 DWORD nFaceVertexIndices;
 array DWORD faceVertexIndices[nFaceVertexIndices];
}

template Mesh {
 <3d82ab44-62da-11cf-ab39-0020af71e433>
 DWORD nVertices;
 array Vector vertices[nVertices];
 DWORD nFaces;
 array MeshFace faces[nFaces];
 [...]
}

template ColorRGBA {
 <35ff44e0-6c7c-11cf-8f52-0040333594a3>
 FLOAT red;
 FLOAT green;
 FLOAT blue;
 FLOAT alpha;
}

template ColorRGB {
 <d3e16e81-7835-11cf-8f52-0040333594a3>
 FLOAT red;
 FLOAT green;
 FLOAT blue;
}

template Material {
 <3d82ab4d-62da-11cf-ab39-0020af71e433>
 ColorRGBA faceColor;
 FLOAT power;
 ColorRGB specularColor;
 ColorRGB emissiveColor;
 [...]
}

template MeshMaterialList {
 <f6f23f42-7686-11cf-8f52-0040333594a3>
 DWORD nMaterials;
 DWORD nFaceIndexes;
 array DWORD faceIndexes[nFaceIndexes];
 [Material <3d82ab4d-62da-11cf-ab39-0020af71e433>]
}

template TextureFilename {
 <a42790e1-7810-11cf-8f52-0040333594a3>
 STRING filename;
}

template Coords2d {
 <f6f23f44-7686-11cf-8f52-0040333594a3>
 FLOAT u;
 FLOAT v;
}

template MeshTextureCoords {
 <f6f23f40-7686-11cf-8f52-0040333594a3>
 DWORD nTextureCoords;
 array Coords2d textureCoords[nTextureCoords];
}

template MeshNormals {
 <f6f23f43-7686-11cf-8f52-0040333594a3>
 DWORD nNormals;
 array Vector normals[nNormals];
 DWORD nFaceNormals;
 array MeshFace faceNormals[nFaceNormals];
}


Mesh  {
 330;
 -7.300000;0.920000;-0.300000;,
 -7.300000;6.000000;-0.300000;,
 -6.700000;0.920000;-0.300000;,
 -6.700000;6.000000;-0.300000;,
 -6.700000;0.920000;0.300000;,
 -6.700000;6.000000;0.300000;,
 -7.300000;0.920000;-7.300000;,
 -7.300000;6.000000;-7.300000;,
 -6.700000;0.920000;-7.300000;,
 -6.700000;6.000000;-7.300000;,
 -6.700000;0.920000;-6.700000;,
 -6.700000;6.000000;-6.700000;,
 -7.300000;0.920000;-10.300000;,
 -7.300000;9.200000;-10.300000;,
 -6.700000;0.920000;-10.300000;,
 -6.700000;9.200000;-10.300000;,
 -6.700000;0.920000;-9.700000;,
 -6.700000;9.200000;-9.700000;,
 -3.800000;0.920000;-0.300000;,
 -3.800000;6.000000;-0.300000;,
 -3.200000;0.920000;-0.300000;,
 -3.200000;6.000000;-0.300000;,
 -3.200000;0.920000;0.300000;,
 -3.200000;6.000000;0.300000;,
 -3.800000;0.920000;-7.300000;,
 -3.800000;6.000000;-7.300000;,
 -3.200000;0.920000;-7.300000;,
 -3.200000;6.000000;-7.300000;,
 -3.200000;0.920000;-6.700000;,
 -3.200000;6.000000;-6.700000;,
 -3.800000;0.920000;-10.300000;,
 -3.800000;9.200000;-10.300000;,
 -3.200000;0.920000;-10.300000;,
 -3.200000;9.200000;-10.300000;,
 -3.200000;0.920000;-9.700000;,
 -3.200000;9.200000;-9.700000;,
 7.800000;0.920000;-0.300000;,
 7.800000;6.000000;-0.300000;,
 7.200000;0.920000;-0.300000;,
 7.200000;6.000000;-0.300000;,
 7.200000;0.920000;0.300000;,
 7.200000;6.000000;0.300000;,
 7.800000;0.920000;-7.300000;,
 7.800000;6.000000;-7.300000;,
 7.200000;0.920000;-7.300000;,
 7.200000;6.000000;-7.300000;,
 7.200000;0.920000;-6.700000;,
 7.200000;6.000000;-6.700000;,
 7.800000;0.920000;-10.300000;,
 7.800000;9.200000;-10.300000;,
 7.200000;0.920000;-10.300000;,
 7.200000;9.200000;-10.300000;,
 7.200000;0.920000;-9.700000;,
 7.200000;9.200000;-9.700000;,
 11.300000;0.920000;-0.300000;,
 11.300000;6.000000;-0.300000;,
 10.700000;0.920000;-0.300000;,
 10.700000;6.000000;-0.300000;,
 10.700000;0.920000;0.300000;,
 10.700000;6.000000;0.300000;,
 11.300000;0.920000;-7.300000;,
 11.300000;6.000000;-7.300000;,
 10.700000;0.920000;-7.300000;,
 10.700000;6.000000;-7.300000;,
 10.700000;0.920000;-6.700000;,
 10.700000;6.000000;-6.700000;,
 11.300000;0.920000;-10.300000;,
 11.300000;9.200000;-10.300000;,
 10.700000;0.920000;-10.300000;,
 10.700000;9.200000;-10.300000;,
 10.700000;0.920000;-9.700000;,
 10.700000;9.200000;-9.700000;,
 -3.200000;5.400000;-0.300000;,
 -3.200000;6.000000;-0.300000;,
 -2.900000;5.700000;-0.300000;,
 -2.900000;6.000000;-0.300000;,
 -3.200000;5.400000;0.600000;,
 -2.900000;5.700000;0.600000;,
 -2.900000;6.000000;0.600000;,
 -3.200000;5.400000;-7.600000;,
 -3.200000;6.000000;-7.600000;,
 -2.900000;5.700000;-7.600000;,
 -2.900000;6.000000;-7.600000;,
 -3.200000;5.400000;-6.700000;,
 -2.900000;5.700000;-6.700000;,
 -2.900000;6.000000;-6.700000;,
 -3.200000;5.400000;-10.300000;,
 -3.200000;6.000000;-10.300000;,
 -2.900000;5.700000;-10.300000;,
 -2.900000;6.000000;-10.300000;,
 -3.200000;5.400000;-9.400000;,
 -2.900000;5.700000;-9.400000;,
 -2.900000;6.000000;-9.400000;,
 7.200000;5.400000;-0.300000;,
 7.200000;6.000000;-0.300000;,
 6.900000;5.700000;-0.300000;,
 6.900000;6.000000;-0.300000;,
 7.200000;5.400000;0.600000;,
 6.900000;5.700000;0.600000;,
 6.900000;6.000000;0.600000;,
 7.200000;5.400000;-7.600000;,
 7.200000;6.000000;-7.600000;,
 6.900000;5.700000;-7.600000;,
 6.900000;6.000000;-7.600000;,
 7.200000;5.400000;-6.700000;,
 6.900000;5.700000;-6.700000;,
 6.900000;6.000000;-6.700000;,
 7.200000;5.400000;-10.300000;,
 7.200000;6.000000;-10.300000;,
 6.900000;5.700000;-10.300000;,
 6.900000;6.000000;-10.300000;,
 7.200000;5.400000;-9.400000;,
 6.900000;5.700000;-9.400000;,
 6.900000;6.000000;-9.400000;,
 -7.290000;5.200000;-6.700000;,
 -6.710000;5.200000;-6.700000;,
 -6.710000;6.000000;-6.700000;,
 -7.290000;5.350000;-6.200000;,
 -6.710000;5.350000;-6.200000;,
 -7.290000;5.350000;-0.800000;,
 -6.710000;5.350000;-0.800000;,
 -7.290000;5.200000;-0.300000;,
 -6.710000;5.200000;-0.300000;,
 -6.710000;6.000000;-0.300000;,
 -7.290000;5.200000;-9.700000;,
 -6.710000;5.200000;-9.700000;,
 -6.710000;6.000000;-9.700000;,
 -7.290000;5.350000;-9.200000;,
 -6.710000;5.350000;-9.200000;,
 -7.290000;5.350000;-7.800000;,
 -6.710000;5.350000;-7.800000;,
 -7.290000;5.200000;-7.300000;,
 -6.710000;5.200000;-7.300000;,
 -6.710000;6.000000;-7.300000;,
 -3.790000;5.200000;-6.700000;,
 -3.210000;5.200000;-6.700000;,
 -3.210000;6.000000;-6.700000;,
 -3.790000;5.350000;-6.200000;,
 -3.210000;5.350000;-6.200000;,
 -3.790000;5.350000;-0.800000;,
 -3.210000;5.350000;-0.800000;,
 -3.790000;5.200000;-0.300000;,
 -3.210000;5.200000;-0.300000;,
 -3.210000;6.000000;-0.300000;,
 -3.790000;5.200000;-9.700000;,
 -3.210000;5.200000;-9.700000;,
 -3.210000;6.000000;-9.700000;,
 -3.790000;5.350000;-9.200000;,
 -3.210000;5.350000;-9.200000;,
 -3.790000;5.350000;-7.800000;,
 -3.210000;5.350000;-7.800000;,
 -3.790000;5.200000;-7.300000;,
 -3.210000;5.200000;-7.300000;,
 -3.210000;6.000000;-7.300000;,
 7.790000;5.200000;-6.700000;,
 7.210000;5.200000;-6.700000;,
 7.210000;6.000000;-6.700000;,
 7.790000;5.350000;-6.200000;,
 7.210000;5.350000;-6.200000;,
 7.790000;5.350000;-0.800000;,
 7.210000;5.350000;-0.800000;,
 7.790000;5.200000;-0.300000;,
 7.210000;5.200000;-0.300000;,
 7.210000;6.000000;-0.300000;,
 7.790000;5.200000;-9.700000;,
 7.210000;5.200000;-9.700000;,
 7.210000;6.000000;-9.700000;,
 7.790000;5.350000;-9.200000;,
 7.210000;5.350000;-9.200000;,
 7.790000;5.350000;-7.800000;,
 7.210000;5.350000;-7.800000;,
 7.790000;5.200000;-7.300000;,
 7.210000;5.200000;-7.300000;,
 7.210000;6.000000;-7.300000;,
 11.290000;5.200000;-6.700000;,
 10.710000;5.200000;-6.700000;,
 10.710000;6.000000;-6.700000;,
 11.290000;5.350000;-6.200000;,
 10.710000;5.350000;-6.200000;,
 11.290000;5.350000;-0.800000;,
 10.710000;5.350000;-0.800000;,
 11.290000;5.200000;-0.300000;,
 10.710000;5.200000;-0.300000;,
 10.710000;6.000000;-0.300000;,
 11.290000;5.200000;-9.700000;,
 10.710000;5.200000;-9.700000;,
 10.710000;6.000000;-9.700000;,
 11.290000;5.350000;-9.200000;,
 10.710000;5.350000;-9.200000;,
 11.290000;5.350000;-7.800000;,
 10.710000;5.350000;-7.800000;,
 11.290000;5.200000;-7.300000;,
 10.710000;5.200000;-7.300000;,
 10.710000;6.000000;-7.300000;,
 -6.700000;5.200000;0.290000;,
 -6.700000;5.200000;-0.290000;,
 -6.700000;6.000000;-0.290000;,
 -6.200000;5.350000;0.290000;,
 -6.200000;5.350000;-0.290000;,
 -4.300000;5.350000;0.290000;,
 -4.300000;5.350000;-0.290000;,
 -3.800000;5.200000;0.290000;,
 -3.800000;5.200000;-0.290000;,
 -3.800000;6.000000;-0.290000;,
 -6.700000;5.200000;-6.710000;,
 -6.700000;5.200000;-7.290000;,
 -6.700000;6.000000;-7.290000;,
 -6.200000;5.350000;-6.710000;,
 -6.200000;5.350000;-7.290000;,
 -4.300000;5.350000;-6.710000;,
 -4.300000;5.350000;-7.290000;,
 -3.800000;5.200000;-6.710000;,
 -3.800000;5.200000;-7.290000;,
 -3.800000;6.000000;-7.290000;,
 -6.700000;5.200000;-9.710000;,
 -6.700000;5.200000;-10.290000;,
 -6.700000;6.300000;-10.290000;,
 -6.200000;5.350000;-9.710000;,
 -6.200000;5.350000;-10.290000;,
 -4.300000;5.350000;-9.710000;,
 -4.300000;5.350000;-10.290000;,
 -3.800000;5.200000;-9.710000;,
 -3.800000;5.200000;-10.290000;,
 -3.800000;6.300000;-10.290000;,
 7.800000;5.200000;0.290000;,
 7.800000;5.200000;-0.290000;,
 7.800000;6.000000;-0.290000;,
 8.300000;5.350000;0.290000;,
 8.300000;5.350000;-0.290000;,
 10.200000;5.350000;0.290000;,
 10.200000;5.350000;-0.290000;,
 10.700000;5.200000;0.290000;,
 10.700000;5.200000;-0.290000;,
 10.700000;6.000000;-0.290000;,
 7.800000;5.200000;-6.710000;,
 7.800000;5.200000;-7.290000;,
 7.800000;6.000000;-7.290000;,
 8.300000;5.350000;-6.710000;,
 8.300000;5.350000;-7.290000;,
 10.200000;5.350000;-6.710000;,
 10.200000;5.350000;-7.290000;,
 10.700000;5.200000;-6.710000;,
 10.700000;5.200000;-7.290000;,
 10.700000;6.000000;-7.290000;,
 7.800000;5.200000;-9.710000;,
 7.800000;5.200000;-10.290000;,
 7.800000;6.300000;-10.290000;,
 8.300000;5.350000;-9.710000;,
 8.300000;5.350000;-10.290000;,
 10.200000;5.350000;-9.710000;,
 10.200000;5.350000;-10.290000;,
 10.700000;5.200000;-9.710000;,
 10.700000;5.200000;-10.290000;,
 10.700000;6.300000;-10.290000;,
 -6.700000;3.500000;-7.000000;,
 -6.700000;3.500000;-7.050000;,
 -6.700000;4.200000;-7.050000;,
 -3.800000;3.500000;-7.000000;,
 -3.800000;3.500000;-7.050000;,
 -3.800000;4.200000;-7.050000;,
 -3.500000;3.500000;-6.700000;,
 -3.450000;3.500000;-6.700000;,
 -3.450000;4.200000;-6.700000;,
 -3.500000;3.500000;-0.300000;,
 -3.450000;3.500000;-0.300000;,
 -3.450000;4.200000;-0.300000;,
 -6.700000;0.920000;-7.000000;,
 -6.700000;3.500000;-7.000000;,
 -3.500000;0.920000;-7.000000;,
 -3.500000;3.500000;-7.000000;,
 -3.500000;0.920000;0.000000;,
 -3.500000;3.500000;0.000000;,
 -6.200000;2.700000;-7.010000;,
 -6.200000;3.500000;-7.010000;,
 -4.700000;2.700000;-7.010000;,
 -4.700000;3.500000;-7.010000;,
 -3.450000;2.700000;-6.600000;,
 -3.450000;3.500000;-6.600000;,
 -3.450000;2.700000;-5.100000;,
 -3.450000;3.500000;-5.100000;,
 -3.450000;2.700000;-4.200000;,
 -3.450000;3.500000;-4.200000;,
 -3.450000;2.700000;-2.700000;,
 -3.450000;3.500000;-2.700000;,
 -3.450000;2.700000;-1.800000;,
 -3.450000;3.500000;-1.800000;,
 -3.450000;2.700000;-0.300000;,
 -3.450000;3.500000;-0.300000;,
 -7.300000;6.000000;-10.290000;,
 -7.300000;6.000000;0.000000;,
 11.300000;6.000000;0.000000;,
 11.300000;6.000000;-10.290000;,
 -3.200000;6.000000;-10.290000;,
 -3.200000;6.300000;-10.290000;,
 7.200000;6.300000;-10.290000;,
 7.200000;6.000000;-10.290000;,
 -6.700000;6.300000;-10.200000;,
 -6.700000;8.800000;-10.200000;,
 10.700000;8.800000;-10.200000;,
 10.700000;6.300000;-10.200000;,
 -6.700000;8.800000;-10.100000;,
 -6.700000;8.800000;-10.300000;,
 -6.700000;9.200000;-10.300000;,
 10.700000;9.200000;-10.300000;,
 10.700000;8.800000;-10.300000;,
 10.700000;8.800000;-10.100000;,
 -3.200000;7.300000;-10.220000;,
 -3.200000;8.800000;-10.220000;,
 7.200000;7.300000;-10.220000;,
 7.200000;8.800000;-10.220000;,
 -8.300000;9.200000;3.300000;,
 -8.300000;9.200000;-10.700000;,
 12.300000;9.200000;-10.700000;,
 12.300000;9.200000;3.300000;,
 -8.300000;9.200000;3.300000;,
 -8.600000;9.200000;3.300000;,
 -8.600000;9.700000;3.300000;,
 -8.300000;9.200000;-10.700000;,
 -8.600000;9.200000;-10.900000;,
 -8.600000;9.700000;-10.900000;,
 12.300000;9.200000;-10.700000;,
 12.600000;9.200000;-10.900000;,
 12.600000;9.700000;-10.900000;,
 12.300000;9.200000;3.300000;,
 12.600000;9.200000;3.300000;,
 12.600000;9.700000;3.300000;,
 0.300000;6.300000;-10.400000;,
 0.300000;7.240000;-10.400000;,
 3.700000;7.240000;-10.400000;,
 3.700000;6.300000;-10.400000;;
 272;
 3;0,1,3;,
 3;0,3,2;,
 3;2,3,5;,
 3;2,5,4;,
 3;6,7,9;,
 3;6,9,8;,
 3;8,9,11;,
 3;8,11,10;,
 3;12,13,15;,
 3;12,15,14;,
 3;14,15,17;,
 3;14,17,16;,
 3;18,19,21;,
 3;18,21,20;,
 3;20,21,23;,
 3;20,23,22;,
 3;24,25,27;,
 3;24,27,26;,
 3;26,27,29;,
 3;26,29,28;,
 3;30,31,33;,
 3;30,33,32;,
 3;32,33,35;,
 3;32,35,34;,
 3;38,39,37;,
 3;38,37,36;,
 3;40,41,39;,
 3;40,39,38;,
 3;44,45,43;,
 3;44,43,42;,
 3;46,47,45;,
 3;46,45,44;,
 3;50,51,49;,
 3;50,49,48;,
 3;52,53,51;,
 3;52,51,50;,
 3;56,57,55;,
 3;56,55,54;,
 3;58,59,57;,
 3;58,57,56;,
 3;62,63,61;,
 3;62,61,60;,
 3;64,65,63;,
 3;64,63,62;,
 3;68,69,67;,
 3;68,67,66;,
 3;70,71,69;,
 3;70,69,68;,
 3;72,73,75;,
 3;72,75,74;,
 3;72,74,77;,
 3;72,77,76;,
 3;74,75,78;,
 3;74,78,77;,
 3;79,80,82;,
 3;79,82,81;,
 3;79,81,84;,
 3;79,84,83;,
 3;81,82,85;,
 3;81,85,84;,
 3;87,89,88;,
 3;87,88,86;,
 3;88,91,90;,
 3;88,90,86;,
 3;89,92,91;,
 3;89,91,88;,
 3;95,96,94;,
 3;95,94,93;,
 3;97,98,95;,
 3;97,95,93;,
 3;98,99,96;,
 3;98,96,95;,
 3;102,103,101;,
 3;102,101,100;,
 3;104,105,102;,
 3;104,102,100;,
 3;105,106,103;,
 3;105,103,102;,
 3;109,110,108;,
 3;109,108,107;,
 3;111,112,109;,
 3;111,109,107;,
 3;112,113,110;,
 3;112,110,109;,
 3;114,115,118;,
 3;114,118,117;,
 3;117,118,120;,
 3;117,120,119;,
 3;119,120,122;,
 3;119,122,121;,
 3;115,116,118;,
 3;118,116,123;,
 3;118,123,120;,
 3;122,120,123;,
 3;124,125,128;,
 3;124,128,127;,
 3;127,128,130;,
 3;127,130,129;,
 3;129,130,132;,
 3;129,132,131;,
 3;125,126,128;,
 3;128,126,133;,
 3;128,133,130;,
 3;132,130,133;,
 3;134,135,138;,
 3;134,138,137;,
 3;137,138,140;,
 3;137,140,139;,
 3;139,140,142;,
 3;139,142,141;,
 3;135,136,138;,
 3;138,136,143;,
 3;138,143,140;,
 3;142,140,143;,
 3;144,145,148;,
 3;144,148,147;,
 3;147,148,150;,
 3;147,150,149;,
 3;149,150,152;,
 3;149,152,151;,
 3;145,146,148;,
 3;148,146,153;,
 3;148,153,150;,
 3;152,150,153;,
 3;157,158,155;,
 3;157,155,154;,
 3;159,160,158;,
 3;159,158,157;,
 3;161,162,160;,
 3;161,160,159;,
 3;158,156,155;,
 3;160,163,156;,
 3;160,156,158;,
 3;163,160,162;,
 3;167,168,165;,
 3;167,165,164;,
 3;169,170,168;,
 3;169,168,167;,
 3;171,172,170;,
 3;171,170,169;,
 3;168,166,165;,
 3;170,173,166;,
 3;170,166,168;,
 3;173,170,172;,
 3;177,178,175;,
 3;177,175,174;,
 3;179,180,178;,
 3;179,178,177;,
 3;181,182,180;,
 3;181,180,179;,
 3;178,176,175;,
 3;180,183,176;,
 3;180,176,178;,
 3;183,180,182;,
 3;187,188,185;,
 3;187,185,184;,
 3;189,190,188;,
 3;189,188,187;,
 3;191,192,190;,
 3;191,190,189;,
 3;188,186,185;,
 3;190,193,186;,
 3;190,186,188;,
 3;193,190,192;,
 3;194,195,198;,
 3;194,198,197;,
 3;197,198,200;,
 3;197,200,199;,
 3;199,200,202;,
 3;199,202,201;,
 3;195,196,198;,
 3;198,196,203;,
 3;198,203,200;,
 3;202,200,203;,
 3;204,205,208;,
 3;204,208,207;,
 3;207,208,210;,
 3;207,210,209;,
 3;209,210,212;,
 3;209,212,211;,
 3;205,206,208;,
 3;208,206,213;,
 3;208,213,210;,
 3;212,210,213;,
 3;214,215,218;,
 3;214,218,217;,
 3;217,218,220;,
 3;217,220,219;,
 3;219,220,222;,
 3;219,222,221;,
 3;215,216,218;,
 3;218,216,223;,
 3;218,223,220;,
 3;222,220,223;,
 3;224,225,228;,
 3;224,228,227;,
 3;227,228,230;,
 3;227,230,229;,
 3;229,230,232;,
 3;229,232,231;,
 3;225,226,228;,
 3;228,226,233;,
 3;228,233,230;,
 3;232,230,233;,
 3;234,235,238;,
 3;234,238,237;,
 3;237,238,240;,
 3;237,240,239;,
 3;239,240,242;,
 3;239,242,241;,
 3;235,236,238;,
 3;238,236,243;,
 3;238,243,240;,
 3;242,240,243;,
 3;244,245,248;,
 3;244,248,247;,
 3;247,248,250;,
 3;247,250,249;,
 3;249,250,252;,
 3;249,252,251;,
 3;245,246,248;,
 3;248,246,253;,
 3;248,253,250;,
 3;252,250,253;,
 3;254,255,258;,
 3;254,258,257;,
 3;255,256,259;,
 3;255,259,258;,
 3;260,261,264;,
 3;260,264,263;,
 3;261,262,265;,
 3;261,265,264;,
 3;266,267,269;,
 3;266,269,268;,
 3;268,269,271;,
 3;268,271,270;,
 3;272,273,275;,
 3;272,275,274;,
 3;276,277,279;,
 3;276,279,278;,
 3;280,281,283;,
 3;280,283,282;,
 3;284,285,287;,
 3;284,287,286;,
 3;291,290,289;,
 3;291,289,288;,
 3;292,293,294;,
 3;292,294,295;,
 3;296,297,298;,
 3;296,298,299;,
 3;300,301,304;,
 3;300,304,305;,
 3;301,302,303;,
 3;301,303,304;,
 3;306,307,309;,
 3;306,309,308;,
 3;310,311,312;,
 3;310,312,313;,
 3;314,315,318;,
 3;314,318,317;,
 3;315,316,319;,
 3;315,319,318;,
 3;317,318,321;,
 3;317,321,320;,
 3;318,319,322;,
 3;318,322,321;,
 3;320,321,324;,
 3;320,324,323;,
 3;321,322,325;,
 3;321,325,324;,
 3;326,327,328;,
 3;326,328,329;;

 MeshMaterialList  {
  47;
  272;
  0,
  0,
  0,
  0,
  1,
  1,
  1,
  1,
  2,
  2,
  2,
  2,
  3,
  3,
  3,
  3,
  4,
  4,
  4,
  4,
  5,
  5,
  5,
  5,
  6,
  6,
  6,
  6,
  7,
  7,
  7,
  7,
  8,
  8,
  8,
  8,
  9,
  9,
  9,
  9,
  10,
  10,
  10,
  10,
  11,
  11,
  11,
  11,
  12,
  12,
  12,
  12,
  12,
  12,
  13,
  13,
  13,
  13,
  13,
  13,
  14,
  14,
  14,
  14,
  14,
  14,
  15,
  15,
  15,
  15,
  15,
  15,
  16,
  16,
  16,
  16,
  16,
  16,
  17,
  17,
  17,
  17,
  17,
  17,
  18,
  18,
  18,
  18,
  18,
  18,
  18,
  18,
  18,
  18,
  19,
  19,
  19,
  19,
  19,
  19,
  19,
  19,
  19,
  19,
  20,
  20,
  20,
  20,
  20,
  20,
  20,
  20,
  20,
  20,
  21,
  21,
  21,
  21,
  21,
  21,
  21,
  21,
  21,
  21,
  22,
  22,
  22,
  22,
  22,
  22,
  22,
  22,
  22,
  22,
  23,
  23,
  23,
  23,
  23,
  23,
  23,
  23,
  23,
  23,
  24,
  24,
  24,
  24,
  24,
  24,
  24,
  24,
  24,
  24,
  25,
  25,
  25,
  25,
  25,
  25,
  25,
  25,
  25,
  25,
  26,
  26,
  26,
  26,
  26,
  26,
  26,
  26,
  26,
  26,
  27,
  27,
  27,
  27,
  27,
  27,
  27,
  27,
  27,
  27,
  28,
  28,
  28,
  28,
  28,
  28,
  28,
  28,
  28,
  28,
  29,
  29,
  29,
  29,
  29,
  29,
  29,
  29,
  29,
  29,
  30,
  30,
  30,
  30,
  30,
  30,
  30,
  30,
  30,
  30,
  31,
  31,
  31,
  31,
  31,
  31,
  31,
  31,
  31,
  31,
  32,
  32,
  32,
  32,
  33,
  33,
  33,
  33,
  34,
  34,
  34,
  34,
  35,
  35,
  36,
  36,
  37,
  37,
  38,
  38,
  39,
  39,
  40,
  40,
  41,
  41,
  42,
  42,
  42,
  42,
  43,
  43,
  44,
  44,
  45,
  45,
  45,
  45,
  45,
  45,
  45,
  45,
  45,
  45,
  45,
  45,
  46,
  46;

  Material  {
   1.000000;1.000000;1.000000;1.000000;;
   0.000000;
   0.000000;0.000000;0.000000;;
   0.000000;0.000000;0.000000;;

   TextureFilename  {
    "Concrete2.png";
   }
  }

  Material  {
   1.000000;1.000000;1.000000;1.000000;;
   0.000000;
   0.000000;0.000000;0.000000;;
   0.000000;0.000000;0.000000;;

   TextureFilename  {
    "Concrete2.png";
   }
  }

  Material  {
   0.882353;0.882353;0.882353;1.000000;;
   0.000000;
   0.000000;0.000000;0.000000;;
   0.000000;0.000000;0.000000;;

   TextureFilename  {
    "Concrete2.png";
   }
  }

  Material  {
   1.000000;1.000000;1.000000;1.000000;;
   0.000000;
   0.000000;0.000000;0.000000;;
   0.000000;0.000000;0.000000;;

   TextureFilename  {
    "Concrete2.png";
   }
  }

  Material  {
   1.000000;1.000000;1.000000;1.000000;;
   0.000000;
   0.000000;0.000000;0.000000;;
   0.000000;0.000000;0.000000;;

   TextureFilename  {
    "Concrete2.png";
   }
  }

  Material  {
   0.882353;0.882353;0.882353;1.000000;;
   0.000000;
   0.000000;0.000000;0.000000;;
   0.000000;0.000000;0.000000;;

   TextureFilename  {
    "Concrete2.png";
   }
  }

  Material  {
   1.000000;1.000000;1.000000;1.000000;;
   0.000000;
   0.000000;0.000000;0.000000;;
   0.000000;0.000000;0.000000;;

   TextureFilename  {
    "Concrete2.png";
   }
  }

  Material  {
   1.000000;1.000000;1.000000;1.000000;;
   0.000000;
   0.000000;0.000000;0.000000;;
   0.000000;0.000000;0.000000;;

   TextureFilename  {
    "Concrete2.png";
   }
  }

  Material  {
   0.882353;0.882353;0.882353;1.000000;;
   0.000000;
   0.000000;0.000000;0.000000;;
   0.000000;0.000000;0.000000;;

   TextureFilename  {
    "Concrete2.png";
   }
  }

  Material  {
   1.000000;1.000000;1.000000;1.000000;;
   0.000000;
   0.000000;0.000000;0.000000;;
   0.000000;0.000000;0.000000;;

   TextureFilename  {
    "Concrete2.png";
   }
  }

  Material  {
   1.000000;1.000000;1.000000;1.000000;;
   0.000000;
   0.000000;0.000000;0.000000;;
   0.000000;0.000000;0.000000;;

   TextureFilename  {
    "Concrete2.png";
   }
  }

  Material  {
   0.882353;0.882353;0.882353;1.000000;;
   0.000000;
   0.000000;0.000000;0.000000;;
   0.000000;0.000000;0.000000;;

   TextureFilename  {
    "Concrete2.png";
   }
  }

  Material  {
   1.000000;1.000000;1.000000;1.000000;;
   0.000000;
   0.000000;0.000000;0.000000;;
   0.000000;0.000000;0.000000;;

   TextureFilename  {
    "Concrete2.png";
   }
  }

  Material  {
   1.000000;1.000000;1.000000;1.000000;;
   0.000000;
   0.000000;0.000000;0.000000;;
   0.000000;0.000000;0.000000;;

   TextureFilename  {
    "Concrete2.png";
   }
  }

  Material  {
   0.882353;0.882353;0.882353;1.000000;;
   0.000000;
   0.000000;0.000000;0.000000;;
   0.000000;0.000000;0.000000;;

   TextureFilename  {
    "Concrete2.png";
   }
  }

  Material  {
   1.000000;1.000000;1.000000;1.000000;;
   0.000000;
   0.000000;0.000000;0.000000;;
   0.000000;0.000000;0.000000;;

   TextureFilename  {
    "Concrete2.png";
   }
  }

  Material  {
   1.000000;1.000000;1.000000;1.000000;;
   0.000000;
   0.000000;0.000000;0.000000;;
   0.000000;0.000000;0.000000;;

   TextureFilename  {
    "Concrete2.png";
   }
  }

  Material  {
   0.882353;0.882353;0.882353;1.000000;;
   0.000000;
   0.000000;0.000000;0.000000;;
   0.000000;0.000000;0.000000;;

   TextureFilename  {
    "Concrete2.png";
   }
  }

  Material  {
   1.000000;1.000000;1.000000;1.000000;;
   0.000000;
   0.000000;0.000000;0.000000;;
   0.000000;0.000000;0.000000;;

   TextureFilename  {
    "Concrete2.png";
   }
  }

  Material  {
   1.000000;1.000000;1.000000;1.000000;;
   0.000000;
   0.000000;0.000000;0.000000;;
   0.000000;0.000000;0.000000;;

   TextureFilename  {
    "Concrete2.png";
   }
  }

  Material  {
   1.000000;1.000000;1.000000;1.000000;;
   0.000000;
   0.000000;0.000000;0.000000;;
   0.000000;0.000000;0.000000;;

   TextureFilename  {
    "Concrete2.png";
   }
  }

  Material  {
   1.000000;1.000000;1.000000;1.000000;;
   0.000000;
   0.000000;0.000000;0.000000;;
   0.000000;0.000000;0.000000;;

   TextureFilename  {
    "Concrete2.png";
   }
  }

  Material  {
   1.000000;1.000000;1.000000;1.000000;;
   0.000000;
   0.000000;0.000000;0.000000;;
   0.000000;0.000000;0.000000;;

   TextureFilename  {
    "Concrete2.png";
   }
  }

  Material  {
   1.000000;1.000000;1.000000;1.000000;;
   0.000000;
   0.000000;0.000000;0.000000;;
   0.000000;0.000000;0.000000;;

   TextureFilename  {
    "Concrete2.png";
   }
  }

  Material  {
   1.000000;1.000000;1.000000;1.000000;;
   0.000000;
   0.000000;0.000000;0.000000;;
   0.000000;0.000000;0.000000;;

   TextureFilename  {
    "Concrete2.png";
   }
  }

  Material  {
   1.000000;1.000000;1.000000;1.000000;;
   0.000000;
   0.000000;0.000000;0.000000;;
   0.000000;0.000000;0.000000;;

   TextureFilename  {
    "Concrete2.png";
   }
  }

  Material  {
   1.000000;1.000000;1.000000;1.000000;;
   0.000000;
   0.000000;0.000000;0.000000;;
   0.000000;0.000000;0.000000;;

   TextureFilename  {
    "Concrete2.png";
   }
  }

  Material  {
   1.000000;1.000000;1.000000;1.000000;;
   0.000000;
   0.000000;0.000000;0.000000;;
   0.000000;0.000000;0.000000;;

   TextureFilename  {
    "Concrete2.png";
   }
  }

  Material  {
   0.882353;0.882353;0.882353;1.000000;;
   0.000000;
   0.000000;0.000000;0.000000;;
   0.000000;0.000000;0.000000;;

   TextureFilename  {
    "Concrete2.png";
   }
  }

  Material  {
   1.000000;1.000000;1.000000;1.000000;;
   0.000000;
   0.000000;0.000000;0.000000;;
   0.000000;0.000000;0.000000;;

   TextureFilename  {
    "Concrete2.png";
   }
  }

  Material  {
   1.000000;1.000000;1.000000;1.000000;;
   0.000000;
   0.000000;0.000000;0.000000;;
   0.000000;0.000000;0.000000;;

   TextureFilename  {
    "Concrete2.png";
   }
  }

  Material  {
   0.882353;0.882353;0.882353;1.000000;;
   0.000000;
   0.000000;0.000000;0.000000;;
   0.000000;0.000000;0.000000;;

   TextureFilename  {
    "Concrete2.png";
   }
  }

  Material  {
   0.882353;0.882353;0.882353;1.000000;;
   0.000000;
   0.000000;0.000000;0.000000;;
   0.000000;0.000000;0.000000;;

   TextureFilename  {
    "Concrete2.png";
   }
  }

  Material  {
   0.882353;0.882353;0.882353;1.000000;;
   0.000000;
   0.000000;0.000000;0.000000;;
   0.000000;0.000000;0.000000;;

   TextureFilename  {
    "Concrete2.png";
   }
  }

  Material  {
   1.000000;1.000000;1.000000;1.000000;;
   0.000000;
   0.000000;0.000000;0.000000;;
   0.000000;0.000000;0.000000;;

   TextureFilename  {
    "Wall4.png";
   }
  }

  Material  {
   1.000000;1.000000;1.000000;1.000000;;
   0.000000;
   0.000000;0.000000;0.000000;;
   0.000000;0.000000;0.000000;;

   TextureFilename  {
    "Window2.png";
   }
  }

  Material  {
   1.000000;1.000000;1.000000;1.000000;;
   0.000000;
   0.000000;0.000000;0.000000;;
   0.000000;0.000000;0.000000;;

   TextureFilename  {
    "Window2.png";
   }
  }

  Material  {
   1.000000;1.000000;1.000000;1.000000;;
   0.000000;
   0.000000;0.000000;0.000000;;
   0.000000;0.000000;0.000000;;

   TextureFilename  {
    "Window2.png";
   }
  }

  Material  {
   1.000000;1.000000;1.000000;1.000000;;
   0.000000;
   0.000000;0.000000;0.000000;;
   0.000000;0.000000;0.000000;;

   TextureFilename  {
    "Window2.png";
   }
  }

  Material  {
   1.000000;1.000000;1.000000;1.000000;;
   0.000000;
   0.000000;0.000000;0.000000;;
   0.000000;0.000000;0.000000;;

   TextureFilename  {
    "Conc.png";
   }
  }

  Material  {
   0.882353;0.882353;0.882353;1.000000;;
   0.000000;
   0.000000;0.000000;0.000000;;
   0.000000;0.000000;0.000000;;

   TextureFilename  {
    "Concrete2.png";
   }
  }

  Material  {
   0.882353;0.882353;0.882353;1.000000;;
   0.000000;
   0.000000;0.000000;0.000000;;
   0.000000;0.000000;0.000000;;

   TextureFilename  {
    "Wall.png";
   }
  }

  Material  {
   0.882353;0.882353;0.882353;1.000000;;
   0.000000;
   0.000000;0.000000;0.000000;;
   0.000000;0.000000;0.000000;;

   TextureFilename  {
    "Concrete2.png";
   }
  }

  Material  {
   1.000000;1.000000;1.000000;1.000000;;
   0.000000;
   0.000000;0.000000;0.000000;;
   0.000000;0.000000;0.000000;;

   TextureFilename  {
    "Window1.png";
   }
  }

  Material  {
   1.000000;1.000000;1.000000;1.000000;;
   0.000000;
   0.000000;0.000000;0.000000;;
   0.000000;0.000000;0.000000;;

   TextureFilename  {
    "Wall1.png";
   }
  }

  Material  {
   0.588235;0.588235;0.588235;1.000000;;
   0.000000;
   0.000000;0.000000;0.000000;;
   0.000000;0.000000;0.000000;;

   TextureFilename  {
    "Roof4.png";
   }
  }

  Material  {
   1.000000;1.000000;1.000000;1.000000;;
   0.000000;
   0.000000;0.000000;0.000000;;
   0.000000;0.000000;0.000000;;

   TextureFilename  {
    "Kanban1.png";
   }
  }
 }

 MeshTextureCoords  {
  330;
  0.100000;1.000000;,
  0.100000;0.000000;,
  0.200000;1.000000;,
  0.200000;0.000000;,
  0.300000;1.000000;,
  0.300000;0.000000;,
  0.100000;1.000000;,
  0.100000;0.000000;,
  0.200000;1.000000;,
  0.200000;0.000000;,
  0.300000;1.000000;,
  0.300000;0.000000;,
  1.000000;1.000000;,
  1.000000;0.000000;,
  0.500000;1.000000;,
  0.500000;0.000000;,
  0.000000;1.000000;,
  0.000000;0.000000;,
  0.100000;1.000000;,
  0.100000;0.000000;,
  0.200000;1.000000;,
  0.200000;0.000000;,
  0.300000;1.000000;,
  0.300000;0.000000;,
  0.100000;1.000000;,
  0.100000;0.000000;,
  0.200000;1.000000;,
  0.200000;0.000000;,
  0.300000;1.000000;,
  0.300000;0.000000;,
  1.000000;1.000000;,
  1.000000;0.000000;,
  0.500000;1.000000;,
  0.500000;0.000000;,
  0.000000;1.000000;,
  0.000000;0.000000;,
  0.100000;1.000000;,
  0.100000;0.000000;,
  0.200000;1.000000;,
  0.200000;0.000000;,
  0.300000;1.000000;,
  0.300000;0.000000;,
  0.100000;1.000000;,
  0.100000;0.000000;,
  0.200000;1.000000;,
  0.200000;0.000000;,
  0.300000;1.000000;,
  0.300000;0.000000;,
  1.000000;1.000000;,
  1.000000;0.000000;,
  0.500000;1.000000;,
  0.500000;0.000000;,
  0.000000;1.000000;,
  0.000000;0.000000;,
  0.100000;1.000000;,
  0.100000;0.000000;,
  0.200000;1.000000;,
  0.200000;0.000000;,
  0.300000;1.000000;,
  0.300000;0.000000;,
  0.100000;1.000000;,
  0.100000;0.000000;,
  0.200000;1.000000;,
  0.200000;0.000000;,
  0.300000;1.000000;,
  0.300000;0.000000;,
  1.000000;1.000000;,
  1.000000;0.000000;,
  0.500000;1.000000;,
  0.500000;0.000000;,
  0.000000;1.000000;,
  0.000000;0.000000;,
  0.100000;0.000000;,
  0.100000;0.080000;,
  0.150000;0.040000;,
  0.150000;0.080000;,
  0.000000;0.000000;,
  0.050000;0.040000;,
  0.050000;0.080000;,
  0.100000;0.000000;,
  0.100000;0.080000;,
  0.150000;0.040000;,
  0.150000;0.080000;,
  0.000000;0.000000;,
  0.050000;0.040000;,
  0.050000;0.080000;,
  0.500000;0.000000;,
  0.800000;0.300000;,
  0.500000;0.100000;,
  0.500000;0.200000;,
  0.400000;0.000000;,
  0.400000;0.100000;,
  0.400000;0.200000;,
  0.100000;0.000000;,
  0.100000;0.080000;,
  0.150000;0.040000;,
  0.150000;0.080000;,
  0.000000;0.000000;,
  0.050000;0.040000;,
  0.050000;0.080000;,
  0.100000;0.000000;,
  0.100000;0.080000;,
  0.150000;0.040000;,
  0.150000;0.080000;,
  0.000000;0.000000;,
  0.050000;0.040000;,
  0.050000;0.080000;,
  0.500000;0.000000;,
  0.800000;0.300000;,
  0.500000;0.100000;,
  0.500000;0.200000;,
  0.400000;0.000000;,
  0.400000;0.100000;,
  0.400000;0.200000;,
  0.100000;0.000000;,
  0.200000;0.000000;,
  0.300000;0.000000;,
  0.100000;0.100000;,
  0.200000;0.100000;,
  0.100000;0.300000;,
  0.200000;0.300000;,
  0.100000;0.400000;,
  0.200000;0.400000;,
  0.300000;0.400000;,
  0.100000;0.000000;,
  0.200000;0.000000;,
  0.300000;0.000000;,
  0.100000;0.100000;,
  0.200000;0.100000;,
  0.100000;0.300000;,
  0.200000;0.300000;,
  0.100000;0.400000;,
  0.200000;0.400000;,
  0.300000;0.400000;,
  0.100000;0.000000;,
  0.200000;0.000000;,
  0.300000;0.000000;,
  0.100000;0.100000;,
  0.200000;0.100000;,
  0.100000;0.300000;,
  0.200000;0.300000;,
  0.100000;0.400000;,
  0.200000;0.400000;,
  0.300000;0.400000;,
  0.100000;0.000000;,
  0.200000;0.000000;,
  0.300000;0.000000;,
  0.100000;0.100000;,
  0.200000;0.100000;,
  0.100000;0.300000;,
  0.200000;0.300000;,
  0.100000;0.400000;,
  0.200000;0.400000;,
  0.300000;0.400000;,
  0.100000;0.000000;,
  0.200000;0.000000;,
  0.300000;0.000000;,
  0.100000;0.100000;,
  0.200000;0.100000;,
  0.100000;0.300000;,
  0.200000;0.300000;,
  0.100000;0.400000;,
  0.200000;0.400000;,
  0.300000;0.400000;,
  0.100000;0.000000;,
  0.200000;0.000000;,
  0.300000;0.000000;,
  0.100000;0.100000;,
  0.200000;0.100000;,
  0.100000;0.300000;,
  0.200000;0.300000;,
  0.100000;0.400000;,
  0.200000;0.400000;,
  0.300000;0.400000;,
  0.100000;0.000000;,
  0.200000;0.000000;,
  0.300000;0.000000;,
  0.100000;0.100000;,
  0.200000;0.100000;,
  0.100000;0.300000;,
  0.200000;0.300000;,
  0.100000;0.400000;,
  0.200000;0.400000;,
  0.300000;0.400000;,
  0.100000;0.000000;,
  0.200000;0.000000;,
  0.300000;0.000000;,
  0.100000;0.100000;,
  0.200000;0.100000;,
  0.100000;0.300000;,
  0.200000;0.300000;,
  0.100000;0.400000;,
  0.200000;0.400000;,
  0.300000;0.400000;,
  0.100000;0.000000;,
  0.200000;0.000000;,
  0.300000;0.000000;,
  0.100000;0.100000;,
  0.200000;0.100000;,
  0.100000;0.300000;,
  0.200000;0.300000;,
  0.100000;0.400000;,
  0.200000;0.400000;,
  0.300000;0.400000;,
  0.100000;0.000000;,
  0.200000;0.000000;,
  0.300000;0.000000;,
  0.100000;0.100000;,
  0.200000;0.100000;,
  0.100000;0.300000;,
  0.200000;0.300000;,
  0.100000;0.400000;,
  0.200000;0.400000;,
  0.300000;0.400000;,
  0.400000;0.000000;,
  0.500000;0.000000;,
  0.600000;0.000000;,
  0.400000;0.100000;,
  0.500000;0.100000;,
  0.400000;0.300000;,
  0.500000;0.300000;,
  0.400000;0.400000;,
  0.500000;0.400000;,
  0.600000;0.400000;,
  0.100000;0.000000;,
  0.200000;0.000000;,
  0.300000;0.000000;,
  0.100000;0.100000;,
  0.200000;0.100000;,
  0.100000;0.300000;,
  0.200000;0.300000;,
  0.100000;0.400000;,
  0.200000;0.400000;,
  0.300000;0.400000;,
  0.100000;0.000000;,
  0.200000;0.000000;,
  0.300000;0.000000;,
  0.100000;0.100000;,
  0.200000;0.100000;,
  0.100000;0.300000;,
  0.200000;0.300000;,
  0.100000;0.400000;,
  0.200000;0.400000;,
  0.300000;0.400000;,
  0.400000;0.000000;,
  0.500000;0.000000;,
  0.600000;0.000000;,
  0.400000;0.100000;,
  0.500000;0.100000;,
  0.400000;0.300000;,
  0.500000;0.300000;,
  0.400000;0.400000;,
  0.500000;0.400000;,
  0.600000;0.400000;,
  0.100000;0.000000;,
  0.100000;0.000000;,
  0.100000;0.000000;,
  0.200000;0.100000;,
  0.200000;0.100000;,
  0.200000;0.100000;,
  0.100000;0.000000;,
  0.100000;0.000000;,
  0.100000;0.000000;,
  0.200000;0.100000;,
  0.200000;0.100000;,
  0.200000;0.100000;,
  2.000000;0.000000;,
  0.000000;0.000000;,
  2.000000;1.250000;,
  0.000000;1.250000;,
  2.000000;4.250000;,
  0.000000;4.250000;,
  1.000000;1.000000;,
  1.000000;0.000000;,
  0.000000;1.000000;,
  0.000000;0.000000;,
  0.000000;1.000000;,
  0.000000;0.000000;,
  1.000000;1.000000;,
  1.000000;0.000000;,
  0.000000;1.000000;,
  0.000000;0.000000;,
  1.000000;1.000000;,
  1.000000;0.000000;,
  0.000000;1.000000;,
  0.000000;0.000000;,
  1.000000;1.000000;,
  1.000000;0.000000;,
  1.000000;4.300000;,
  1.000000;0.000000;,
  0.000000;0.000000;,
  0.000000;4.300000;,
  0.500000;0.000000;,
  1.000000;0.000000;,
  1.000000;1.000000;,
  0.500000;1.000000;,
  0.000000;0.100000;,
  0.000000;0.000000;,
  0.100000;0.000000;,
  0.100000;0.100000;,
  0.400000;0.000000;,
  0.500000;0.000000;,
  0.600000;0.000000;,
  0.600000;1.000000;,
  0.500000;1.000000;,
  0.400000;1.000000;,
  0.000000;1.000000;,
  0.000000;0.000000;,
  6.000000;1.000000;,
  6.000000;0.000000;,
  0.000000;0.000000;,
  0.000000;0.100000;,
  0.100000;0.100000;,
  0.100000;0.000000;,
  0.000000;1.000000;,
  0.000000;0.687500;,
  0.000000;0.000000;,
  0.100000;1.000000;,
  0.100000;0.687500;,
  0.100000;0.000000;,
  0.200000;1.000000;,
  0.200000;0.687500;,
  0.200000;0.000000;,
  0.300000;1.000000;,
  0.300000;0.687500;,
  0.300000;0.000000;,
  0.000000;1.000000;,
  0.000000;0.000000;,
  1.000000;0.000000;,
  1.000000;1.000000;;
 }

 MeshNormals  {
  272;
  0.000000;0.000000;-1.000000;,
  0.000000;0.000000;-1.000000;,
  1.000000;0.000000;0.000000;,
  1.000000;0.000000;0.000000;,
  0.000000;0.000000;-1.000000;,
  0.000000;0.000000;-1.000000;,
  1.000000;0.000000;0.000000;,
  1.000000;0.000000;0.000000;,
  0.000000;0.000000;-1.000000;,
  0.000000;0.000000;-1.000000;,
  1.000000;0.000000;0.000000;,
  1.000000;0.000000;0.000000;,
  0.000000;0.000000;-1.000000;,
  0.000000;0.000000;-1.000000;,
  1.000000;0.000000;0.000000;,
  1.000000;0.000000;0.000000;,
  0.000000;0.000000;-1.000000;,
  0.000000;0.000000;-1.000000;,
  1.000000;0.000000;0.000000;,
  1.000000;0.000000;0.000000;,
  0.000000;0.000000;-1.000000;,
  0.000000;0.000000;-1.000000;,
  1.000000;0.000000;0.000000;,
  1.000000;0.000000;0.000000;,
  0.000000;0.000000;-1.000000;,
  0.000000;0.000000;-1.000000;,
  -1.000000;0.000000;0.000000;,
  -1.000000;0.000000;0.000000;,
  0.000000;0.000000;-1.000000;,
  0.000000;0.000000;-1.000000;,
  -1.000000;0.000000;0.000000;,
  -1.000000;0.000000;0.000000;,
  0.000000;0.000000;-1.000000;,
  0.000000;0.000000;-1.000000;,
  -1.000000;0.000000;0.000000;,
  -1.000000;0.000000;0.000000;,
  0.000000;0.000000;-1.000000;,
  0.000000;0.000000;-1.000000;,
  -1.000000;0.000000;0.000000;,
  -1.000000;0.000000;0.000000;,
  0.000000;0.000000;-1.000000;,
  0.000000;0.000000;-1.000000;,
  -1.000000;0.000000;0.000000;,
  -1.000000;0.000000;0.000000;,
  0.000000;0.000000;-1.000000;,
  0.000000;0.000000;-1.000000;,
  -1.000000;0.000000;0.000000;,
  -1.000000;0.000000;0.000000;,
  0.000000;0.000000;-1.000000;,
  0.000000;0.000000;-1.000000;,
  0.707106;-0.707107;0.000000;,
  0.707106;-0.707107;0.000000;,
  1.000000;0.000000;0.000000;,
  1.000000;0.000000;0.000000;,
  0.000000;0.000000;-1.000000;,
  0.000000;0.000000;-1.000000;,
  0.707106;-0.707107;0.000000;,
  0.707106;-0.707107;0.000000;,
  1.000000;0.000000;0.000000;,
  1.000000;0.000000;0.000000;,
  0.000000;0.000000;-1.000000;,
  0.000000;0.000000;-1.000000;,
  0.707106;-0.707107;0.000000;,
  0.707106;-0.707107;0.000000;,
  1.000000;0.000000;0.000000;,
  1.000000;0.000000;0.000000;,
  0.000000;0.000000;-1.000000;,
  0.000000;0.000000;-1.000000;,
  -0.707107;-0.707107;0.000000;,
  -0.707107;-0.707107;0.000000;,
  -1.000000;0.000000;0.000000;,
  -1.000000;0.000000;0.000000;,
  0.000000;0.000000;-1.000000;,
  0.000000;0.000000;-1.000000;,
  -0.707107;-0.707107;0.000000;,
  -0.707107;-0.707107;0.000000;,
  -1.000000;0.000000;0.000000;,
  -1.000000;0.000000;0.000000;,
  0.000000;0.000000;-1.000000;,
  0.000000;0.000000;-1.000000;,
  -0.707107;-0.707107;0.000000;,
  -0.707107;-0.707107;0.000000;,
  -1.000000;0.000000;0.000000;,
  -1.000000;0.000000;0.000000;,
  0.000000;-0.957826;0.287348;,
  0.000000;-0.957826;0.287348;,
  0.000000;-1.000000;0.000000;,
  0.000000;-1.000000;0.000000;,
  0.000000;-0.957826;-0.287348;,
  0.000000;-0.957826;-0.287348;,
  1.000000;0.000000;0.000000;,
  1.000000;0.000000;0.000000;,
  1.000000;0.000000;0.000000;,
  1.000000;0.000000;0.000000;,
  0.000000;-0.957826;0.287348;,
  0.000000;-0.957826;0.287348;,
  0.000000;-1.000000;0.000000;,
  0.000000;-1.000000;0.000000;,
  0.000000;-0.957826;-0.287348;,
  0.000000;-0.957826;-0.287348;,
  1.000000;0.000000;0.000000;,
  1.000000;0.000000;0.000000;,
  1.000000;0.000000;0.000000;,
  1.000000;0.000000;0.000000;,
  0.000000;-0.957826;0.287348;,
  0.000000;-0.957826;0.287348;,
  0.000000;-1.000000;0.000000;,
  0.000000;-1.000000;0.000000;,
  0.000000;-0.957826;-0.287348;,
  0.000000;-0.957826;-0.287348;,
  1.000000;0.000000;0.000000;,
  1.000000;0.000000;0.000000;,
  1.000000;0.000000;0.000000;,
  1.000000;0.000000;0.000000;,
  0.000000;-0.957826;0.287348;,
  0.000000;-0.957826;0.287348;,
  0.000000;-1.000000;0.000000;,
  0.000000;-1.000000;0.000000;,
  0.000000;-0.957826;-0.287348;,
  0.000000;-0.957826;-0.287348;,
  1.000000;0.000000;0.000000;,
  1.000000;0.000000;0.000000;,
  1.000000;0.000000;0.000000;,
  1.000000;0.000000;0.000000;,
  0.000000;-0.957826;0.287348;,
  0.000000;-0.957826;0.287348;,
  0.000000;-1.000000;0.000000;,
  0.000000;-1.000000;0.000000;,
  0.000000;-0.957826;-0.287348;,
  0.000000;-0.957826;-0.287348;,
  -1.000000;0.000000;0.000000;,
  -1.000000;0.000000;0.000000;,
  -1.000000;0.000000;0.000000;,
  -1.000000;0.000000;0.000000;,
  0.000000;-0.957826;0.287348;,
  0.000000;-0.957826;0.287348;,
  0.000000;-1.000000;0.000000;,
  0.000000;-1.000000;0.000000;,
  0.000000;-0.957826;-0.287348;,
  0.000000;-0.957826;-0.287348;,
  -1.000000;0.000000;0.000000;,
  -1.000000;0.000000;0.000000;,
  -1.000000;0.000000;0.000000;,
  -1.000000;0.000000;0.000000;,
  0.000000;-0.957826;0.287348;,
  0.000000;-0.957826;0.287348;,
  0.000000;-1.000000;0.000000;,
  0.000000;-1.000000;0.000000;,
  0.000000;-0.957826;-0.287348;,
  0.000000;-0.957826;-0.287348;,
  -1.000000;0.000000;0.000000;,
  -1.000000;0.000000;0.000000;,
  -1.000000;0.000000;0.000000;,
  -1.000000;0.000000;0.000000;,
  0.000000;-0.957826;0.287348;,
  0.000000;-0.957826;0.287348;,
  0.000000;-1.000000;0.000000;,
  0.000000;-1.000000;0.000000;,
  0.000000;-0.957826;-0.287348;,
  0.000000;-0.957826;-0.287348;,
  -1.000000;0.000000;0.000000;,
  -1.000000;0.000000;0.000000;,
  -1.000000;0.000000;0.000000;,
  -1.000000;0.000000;0.000000;,
  0.287348;-0.957826;0.000000;,
  0.287348;-0.957826;0.000000;,
  0.000000;-1.000000;0.000000;,
  0.000000;-1.000000;0.000000;,
  -0.287348;-0.957826;0.000000;,
  -0.287348;-0.957826;0.000000;,
  0.000000;0.000000;-1.000000;,
  0.000000;0.000000;-1.000000;,
  0.000000;0.000000;-1.000000;,
  0.000000;0.000000;-1.000000;,
  0.287348;-0.957826;0.000000;,
  0.287348;-0.957826;0.000000;,
  0.000000;-1.000000;0.000000;,
  0.000000;-1.000000;0.000000;,
  -0.287348;-0.957826;0.000000;,
  -0.287348;-0.957826;0.000000;,
  0.000000;0.000000;-1.000000;,
  0.000000;0.000000;-1.000000;,
  0.000000;0.000000;-1.000000;,
  0.000000;0.000000;-1.000000;,
  0.287348;-0.957826;0.000000;,
  0.287348;-0.957826;0.000000;,
  0.000000;-1.000000;0.000000;,
  0.000000;-1.000000;0.000000;,
  -0.287348;-0.957826;0.000000;,
  -0.287348;-0.957826;0.000000;,
  0.000000;0.000000;-1.000000;,
  0.000000;0.000000;-1.000000;,
  0.000000;0.000000;-1.000000;,
  0.000000;0.000000;-1.000000;,
  0.287348;-0.957826;0.000000;,
  0.287348;-0.957826;0.000000;,
  0.000000;-1.000000;0.000000;,
  0.000000;-1.000000;0.000000;,
  -0.287348;-0.957826;0.000000;,
  -0.287348;-0.957826;0.000000;,
  0.000000;0.000000;-1.000000;,
  0.000000;0.000000;-1.000000;,
  0.000000;0.000000;-1.000000;,
  0.000000;0.000000;-1.000000;,
  0.287348;-0.957826;0.000000;,
  0.287348;-0.957826;0.000000;,
  0.000000;-1.000000;0.000000;,
  0.000000;-1.000000;0.000000;,
  -0.287348;-0.957826;0.000000;,
  -0.287348;-0.957826;0.000000;,
  0.000000;0.000000;-1.000000;,
  0.000000;0.000000;-1.000000;,
  0.000000;0.000000;-1.000000;,
  0.000000;0.000000;-1.000000;,
  0.287348;-0.957826;0.000000;,
  0.287348;-0.957826;0.000000;,
  0.000000;-1.000000;0.000000;,
  0.000000;-1.000000;0.000000;,
  -0.287348;-0.957826;0.000000;,
  -0.287348;-0.957826;0.000000;,
  0.000000;0.000000;-1.000000;,
  0.000000;0.000000;-1.000000;,
  0.000000;0.000000;-1.000000;,
  0.000000;0.000000;-1.000000;,
  0.000000;-1.000000;0.000000;,
  0.000000;-1.000000;0.000000;,
  0.000000;0.000000;-1.000000;,
  0.000000;0.000000;-1.000000;,
  0.000000;-1.000000;0.000000;,
  0.000000;-1.000000;0.000000;,
  1.000000;0.000000;0.000000;,
  1.000000;0.000000;0.000000;,
  0.000000;0.000000;-1.000000;,
  0.000000;0.000000;-1.000000;,
  1.000000;0.000000;0.000000;,
  1.000000;0.000000;0.000000;,
  0.000000;0.000000;-1.000000;,
  0.000000;0.000000;-1.000000;,
  1.000000;0.000000;0.000000;,
  1.000000;0.000000;0.000000;,
  1.000000;0.000000;0.000000;,
  1.000000;0.000000;0.000000;,
  1.000000;0.000000;0.000000;,
  1.000000;0.000000;0.000000;,
  0.000000;-1.000000;0.000000;,
  0.000000;-1.000000;0.000000;,
  0.000000;0.000000;-1.000000;,
  0.000000;0.000000;-1.000000;,
  0.000000;0.000000;-1.000000;,
  0.000000;0.000000;-1.000000;,
  0.000000;-1.000000;0.000000;,
  0.000000;-1.000000;0.000000;,
  0.000000;0.000000;-1.000000;,
  0.000000;0.000000;-1.000000;,
  0.000000;0.000000;-1.000000;,
  0.000000;0.000000;-1.000000;,
  0.000000;-1.000000;0.000000;,
  0.000000;-1.000000;0.000000;,
  0.000000;-1.000000;0.000000;,
  0.000000;-1.000000;0.000000;,
  -1.000000;0.000000;0.000000;,
  -1.000000;0.000000;0.000000;,
  0.000000;-1.000000;0.000000;,
  0.000000;-1.000000;0.000000;,
  0.000000;0.000000;-1.000000;,
  0.000000;0.000000;-1.000000;,
  0.000000;-1.000000;0.000000;,
  0.000000;-1.000000;0.000000;,
  1.000000;0.000000;0.000000;,
  1.000000;0.000000;0.000000;,
  0.000000;0.000000;-1.000000;,
  0.000000;0.000000;-1.000000;;
  272;
  3;0,0,0;,
  3;1,1,1;,
  3;2,2,2;,
  3;3,3,3;,
  3;4,4,4;,
  3;5,5,5;,
  3;6,6,6;,
  3;7,7,7;,
  3;8,8,8;,
  3;9,9,9;,
  3;10,10,10;,
  3;11,11,11;,
  3;12,12,12;,
  3;13,13,13;,
  3;14,14,14;,
  3;15,15,15;,
  3;16,16,16;,
  3;17,17,17;,
  3;18,18,18;,
  3;19,19,19;,
  3;20,20,20;,
  3;21,21,21;,
  3;22,22,22;,
  3;23,23,23;,
  3;24,24,24;,
  3;25,25,25;,
  3;26,26,26;,
  3;27,27,27;,
  3;28,28,28;,
  3;29,29,29;,
  3;30,30,30;,
  3;31,31,31;,
  3;32,32,32;,
  3;33,33,33;,
  3;34,34,34;,
  3;35,35,35;,
  3;36,36,36;,
  3;37,37,37;,
  3;38,38,38;,
  3;39,39,39;,
  3;40,40,40;,
  3;41,41,41;,
  3;42,42,42;,
  3;43,43,43;,
  3;44,44,44;,
  3;45,45,45;,
  3;46,46,46;,
  3;47,47,47;,
  3;48,48,48;,
  3;49,49,49;,
  3;50,50,50;,
  3;51,51,51;,
  3;52,52,52;,
  3;53,53,53;,
  3;54,54,54;,
  3;55,55,55;,
  3;56,56,56;,
  3;57,57,57;,
  3;58,58,58;,
  3;59,59,59;,
  3;60,60,60;,
  3;61,61,61;,
  3;62,62,62;,
  3;63,63,63;,
  3;64,64,64;,
  3;65,65,65;,
  3;66,66,66;,
  3;67,67,67;,
  3;68,68,68;,
  3;69,69,69;,
  3;70,70,70;,
  3;71,71,71;,
  3;72,72,72;,
  3;73,73,73;,
  3;74,74,74;,
  3;75,75,75;,
  3;76,76,76;,
  3;77,77,77;,
  3;78,78,78;,
  3;79,79,79;,
  3;80,80,80;,
  3;81,81,81;,
  3;82,82,82;,
  3;83,83,83;,
  3;84,84,84;,
  3;85,85,85;,
  3;86,86,86;,
  3;87,87,87;,
  3;88,88,88;,
  3;89,89,89;,
  3;90,90,90;,
  3;91,91,91;,
  3;92,92,92;,
  3;93,93,93;,
  3;94,94,94;,
  3;95,95,95;,
  3;96,96,96;,
  3;97,97,97;,
  3;98,98,98;,
  3;99,99,99;,
  3;100,100,100;,
  3;101,101,101;,
  3;102,102,102;,
  3;103,103,103;,
  3;104,104,104;,
  3;105,105,105;,
  3;106,106,106;,
  3;107,107,107;,
  3;108,108,108;,
  3;109,109,109;,
  3;110,110,110;,
  3;111,111,111;,
  3;112,112,112;,
  3;113,113,113;,
  3;114,114,114;,
  3;115,115,115;,
  3;116,116,116;,
  3;117,117,117;,
  3;118,118,118;,
  3;119,119,119;,
  3;120,120,120;,
  3;121,121,121;,
  3;122,122,122;,
  3;123,123,123;,
  3;124,124,124;,
  3;125,125,125;,
  3;126,126,126;,
  3;127,127,127;,
  3;128,128,128;,
  3;129,129,129;,
  3;130,130,130;,
  3;131,131,131;,
  3;132,132,132;,
  3;133,133,133;,
  3;134,134,134;,
  3;135,135,135;,
  3;136,136,136;,
  3;137,137,137;,
  3;138,138,138;,
  3;139,139,139;,
  3;140,140,140;,
  3;141,141,141;,
  3;142,142,142;,
  3;143,143,143;,
  3;144,144,144;,
  3;145,145,145;,
  3;146,146,146;,
  3;147,147,147;,
  3;148,148,148;,
  3;149,149,149;,
  3;150,150,150;,
  3;151,151,151;,
  3;152,152,152;,
  3;153,153,153;,
  3;154,154,154;,
  3;155,155,155;,
  3;156,156,156;,
  3;157,157,157;,
  3;158,158,158;,
  3;159,159,159;,
  3;160,160,160;,
  3;161,161,161;,
  3;162,162,162;,
  3;163,163,163;,
  3;164,164,164;,
  3;165,165,165;,
  3;166,166,166;,
  3;167,167,167;,
  3;168,168,168;,
  3;169,169,169;,
  3;170,170,170;,
  3;171,171,171;,
  3;172,172,172;,
  3;173,173,173;,
  3;174,174,174;,
  3;175,175,175;,
  3;176,176,176;,
  3;177,177,177;,
  3;178,178,178;,
  3;179,179,179;,
  3;180,180,180;,
  3;181,181,181;,
  3;182,182,182;,
  3;183,183,183;,
  3;184,184,184;,
  3;185,185,185;,
  3;186,186,186;,
  3;187,187,187;,
  3;188,188,188;,
  3;189,189,189;,
  3;190,190,190;,
  3;191,191,191;,
  3;192,192,192;,
  3;193,193,193;,
  3;194,194,194;,
  3;195,195,195;,
  3;196,196,196;,
  3;197,197,197;,
  3;198,198,198;,
  3;199,199,199;,
  3;200,200,200;,
  3;201,201,201;,
  3;202,202,202;,
  3;203,203,203;,
  3;204,204,204;,
  3;205,205,205;,
  3;206,206,206;,
  3;207,207,207;,
  3;208,208,208;,
  3;209,209,209;,
  3;210,210,210;,
  3;211,211,211;,
  3;212,212,212;,
  3;213,213,213;,
  3;214,214,214;,
  3;215,215,215;,
  3;216,216,216;,
  3;217,217,217;,
  3;218,218,218;,
  3;219,219,219;,
  3;220,220,220;,
  3;221,221,221;,
  3;222,222,222;,
  3;223,223,223;,
  3;224,224,224;,
  3;225,225,225;,
  3;226,226,226;,
  3;227,227,227;,
  3;228,228,228;,
  3;229,229,229;,
  3;230,230,230;,
  3;231,231,231;,
  3;232,232,232;,
  3;233,233,233;,
  3;234,234,234;,
  3;235,235,235;,
  3;236,236,236;,
  3;237,237,237;,
  3;238,238,238;,
  3;239,239,239;,
  3;240,240,240;,
  3;241,241,241;,
  3;242,242,242;,
  3;243,243,243;,
  3;244,244,244;,
  3;245,245,245;,
  3;246,246,246;,
  3;247,247,247;,
  3;248,248,248;,
  3;249,249,249;,
  3;250,250,250;,
  3;251,251,251;,
  3;252,252,252;,
  3;253,253,253;,
  3;254,254,254;,
  3;255,255,255;,
  3;256,256,256;,
  3;257,257,257;,
  3;258,258,258;,
  3;259,259,259;,
  3;260,260,260;,
  3;261,261,261;,
  3;262,262,262;,
  3;263,263,263;,
  3;264,264,264;,
  3;265,265,265;,
  3;266,266,266;,
  3;267,267,267;,
  3;268,268,268;,
  3;269,269,269;,
  3;270,270,270;,
  3;271,271,271;;
 }
}