﻿BveTs Map 2.00

//////////////////////////////////////////////////////////////////////////
// S01_K01
// 東海道線 特急 熱海(CA00)[2] ～ 三島(CA02)[1]
//////////////////////////////////////////////////////////////////////////

// 路線基本ファイル
	include 'map_s01\Map_S01.txt';

// ATS-S

//////////////////////////////////////////////////////////////////////////
// 閉塞初期値代入
$SecA = 3996;
$SecB = 3996;
$Slope2=0;
//////////////////////////////////////////////////////////////////////////


//////////////////////////////////////////////////////////////////////////
$Atami=2000; // 104570
	include 'map_s01\CA00_K02.txt';
	include 'map_s01\CA00_CA02.txt';

$Mishima=$Atami+16170; // 120740
	include 'map_s01\CA02_K01.txt';
	include 'map_s01\CA02_CA03.txt';

//////////////////////////////////////////////////////////////////////////
// 駅ファイル
	Station.Load('map_s01\Sub_S01K11_Stations.txt');
// 停止目標
	include 'map_s01\Sub_S01K11_Stops.txt';
// 閉塞
	// - ATS-PTプラグイン用
	//include 'map_s01\Sub_S01K11_BeaconsPT.txt';
	// - SWP2プラグイン用
	include 'map_s01\Sub_S01K11_BeaconsSWP.txt';
// 曲線
	//include 'map_s01\Sub_S01K11_Curve.txt';
// 他列車
	include 'map_s01\Sub_S01K11_Trains.txt';



// (C)Harupi
