xof 0303txt 0032
template Vector {
 <3d82ab5e-62da-11cf-ab39-0020af71e433>
 FLOAT x;
 FLOAT y;
 FLOAT z;
}

template MeshFace {
 <3d82ab5f-62da-11cf-ab39-0020af71e433>
 DWORD nFaceVertexIndices;
 array DWORD faceVertexIndices[nFaceVertexIndices];
}

template Mesh {
 <3d82ab44-62da-11cf-ab39-0020af71e433>
 DWORD nVertices;
 array Vector vertices[nVertices];
 DWORD nFaces;
 array MeshFace faces[nFaces];
 [...]
}

template ColorRGBA {
 <35ff44e0-6c7c-11cf-8f52-0040333594a3>
 FLOAT red;
 FLOAT green;
 FLOAT blue;
 FLOAT alpha;
}

template ColorRGB {
 <d3e16e81-7835-11cf-8f52-0040333594a3>
 FLOAT red;
 FLOAT green;
 FLOAT blue;
}

template Material {
 <3d82ab4d-62da-11cf-ab39-0020af71e433>
 ColorRGBA faceColor;
 FLOAT power;
 ColorRGB specularColor;
 ColorRGB emissiveColor;
 [...]
}

template MeshMaterialList {
 <f6f23f42-7686-11cf-8f52-0040333594a3>
 DWORD nMaterials;
 DWORD nFaceIndexes;
 array DWORD faceIndexes[nFaceIndexes];
 [Material <3d82ab4d-62da-11cf-ab39-0020af71e433>]
}

template Coords2d {
 <f6f23f44-7686-11cf-8f52-0040333594a3>
 FLOAT u;
 FLOAT v;
}

template MeshTextureCoords {
 <f6f23f40-7686-11cf-8f52-0040333594a3>
 DWORD nTextureCoords;
 array Coords2d textureCoords[nTextureCoords];
}

template MeshNormals {
 <f6f23f43-7686-11cf-8f52-0040333594a3>
 DWORD nNormals;
 array Vector normals[nNormals];
 DWORD nFaceNormals;
 array MeshFace faceNormals[nFaceNormals];
}


Mesh  {
 236;
 -3.800000;-0.300000;0.000000;,
 3.800000;-0.300000;0.000000;,
 -3.800000;-0.300000;1.050000;,
 3.800000;-0.300000;1.050000;,
 -3.830000;0.300000;0.000000;,
 -3.770000;0.300000;0.000000;,
 -3.830000;0.300000;1.000000;,
 -3.770000;0.300000;1.000000;,
 -3.770000;0.270000;0.000000;,
 -3.770000;-0.330000;0.000000;,
 -3.772283;0.270000;0.011481;,
 -3.772283;-0.330000;0.011481;,
 -3.778786;0.270000;0.021213;,
 -3.778786;-0.330000;0.021213;,
 -3.788519;0.270000;0.027716;,
 -3.788519;-0.330000;0.027716;,
 -3.800000;0.270000;0.030000;,
 -3.800000;-0.330000;0.030000;,
 -3.811480;0.270000;0.027716;,
 -3.811480;-0.330000;0.027716;,
 -3.821213;0.270000;0.021213;,
 -3.821213;-0.330000;0.021213;,
 -3.827716;0.270000;0.011481;,
 -3.827716;-0.330000;0.011481;,
 -3.830000;0.270000;0.000000;,
 -3.830000;-0.330000;0.000000;,
 -3.827716;0.270000;-0.011481;,
 -3.827716;-0.330000;-0.011481;,
 -3.821213;0.270000;-0.021213;,
 -3.821213;-0.330000;-0.021213;,
 -3.811480;0.270000;-0.027716;,
 -3.811480;-0.330000;-0.027716;,
 -3.800000;0.270000;-0.030000;,
 -3.800000;-0.330000;-0.030000;,
 -3.788519;0.270000;-0.027716;,
 -3.788519;-0.330000;-0.027716;,
 -3.778786;0.270000;-0.021213;,
 -3.778786;-0.330000;-0.021213;,
 -3.772283;0.270000;-0.011481;,
 -3.772283;-0.330000;-0.011481;,
 -3.770000;0.270000;1.000000;,
 -3.770000;-0.330000;1.000000;,
 -3.772283;0.270000;1.011480;,
 -3.772283;-0.330000;1.011480;,
 -3.778786;0.270000;1.021213;,
 -3.778786;-0.330000;1.021213;,
 -3.788519;0.270000;1.027716;,
 -3.788519;-0.330000;1.027716;,
 -3.800000;0.270000;1.030000;,
 -3.800000;-0.330000;1.030000;,
 -3.811480;0.270000;1.027716;,
 -3.811480;-0.330000;1.027716;,
 -3.821213;0.270000;1.021213;,
 -3.821213;-0.330000;1.021213;,
 -3.827716;0.270000;1.011480;,
 -3.827716;-0.330000;1.011480;,
 -3.830000;0.270000;1.000000;,
 -3.830000;-0.330000;1.000000;,
 -3.827716;0.270000;0.988519;,
 -3.827716;-0.330000;0.988519;,
 -3.821213;0.270000;0.978787;,
 -3.821213;-0.330000;0.978787;,
 -3.811480;0.270000;0.972284;,
 -3.811480;-0.330000;0.972284;,
 -3.800000;0.270000;0.970000;,
 -3.800000;-0.330000;0.970000;,
 -3.788519;0.270000;0.972284;,
 -3.788519;-0.330000;0.972284;,
 -3.778786;0.270000;0.978787;,
 -3.778786;-0.330000;0.978787;,
 -3.772283;0.270000;0.988519;,
 -3.772283;-0.330000;0.988519;,
 3.770000;0.300000;0.000000;,
 3.830000;0.300000;0.000000;,
 3.770000;0.300000;1.000000;,
 3.930000;0.300000;1.000000;,
 3.830000;0.270000;0.000000;,
 3.830000;-0.330000;0.000000;,
 3.827716;0.270000;0.011481;,
 3.827716;-0.330000;0.011481;,
 3.821213;0.270000;0.021213;,
 3.821213;-0.330000;0.021213;,
 3.811480;0.270000;0.027716;,
 3.811480;-0.330000;0.027716;,
 3.800000;0.270000;0.030000;,
 3.800000;-0.330000;0.030000;,
 3.788519;0.270000;0.027716;,
 3.788519;-0.330000;0.027716;,
 3.778786;0.270000;0.021213;,
 3.778786;-0.330000;0.021213;,
 3.772283;0.270000;0.011481;,
 3.772283;-0.330000;0.011481;,
 3.770000;0.270000;0.000000;,
 3.770000;-0.330000;0.000000;,
 3.772283;0.270000;-0.011481;,
 3.772283;-0.330000;-0.011481;,
 3.778786;0.270000;-0.021213;,
 3.778786;-0.330000;-0.021213;,
 3.788519;0.270000;-0.027716;,
 3.788519;-0.330000;-0.027716;,
 3.800000;0.270000;-0.030000;,
 3.800000;-0.330000;-0.030000;,
 3.811480;0.270000;-0.027716;,
 3.811480;-0.330000;-0.027716;,
 3.821213;0.270000;-0.021213;,
 3.821213;-0.330000;-0.021213;,
 3.827716;0.270000;-0.011481;,
 3.827716;-0.330000;-0.011481;,
 3.830000;0.270000;1.000000;,
 3.830000;-0.330000;1.000000;,
 3.827716;0.270000;1.011480;,
 3.827716;-0.330000;1.011480;,
 3.821213;0.270000;1.021213;,
 3.821213;-0.330000;1.021213;,
 3.811480;0.270000;1.027716;,
 3.811480;-0.330000;1.027716;,
 3.800000;0.270000;1.030000;,
 3.800000;-0.330000;1.030000;,
 3.788519;0.270000;1.027716;,
 3.788519;-0.330000;1.027716;,
 3.778786;0.270000;1.021213;,
 3.778786;-0.330000;1.021213;,
 3.772283;0.270000;1.011480;,
 3.772283;-0.330000;1.011480;,
 3.770000;0.270000;1.000000;,
 3.770000;-0.330000;1.000000;,
 3.772283;0.270000;0.988519;,
 3.772283;-0.330000;0.988519;,
 3.778786;0.270000;0.978787;,
 3.778786;-0.330000;0.978787;,
 3.788519;0.270000;0.972284;,
 3.788519;-0.330000;0.972284;,
 3.800000;0.270000;0.970000;,
 3.800000;-0.330000;0.970000;,
 3.811480;0.270000;0.972284;,
 3.811480;-0.330000;0.972284;,
 3.821213;0.270000;0.978787;,
 3.821213;-0.330000;0.978787;,
 3.827716;0.270000;0.988519;,
 3.827716;-0.330000;0.988519;,
 -2.160000;0.000000;0.000000;,
 -2.160000;-0.260000;0.000000;,
 -2.240000;-0.260000;0.000000;,
 -2.240000;0.000000;0.000000;,
 -2.160000;0.000000;1.010000;,
 -2.160000;-0.260000;1.010000;,
 -2.240000;-0.260000;1.010000;,
 -2.240000;0.000000;1.010000;,
 -1.560000;0.000000;0.000000;,
 -1.560000;-0.260000;0.000000;,
 -1.640000;-0.260000;0.000000;,
 -1.640000;0.000000;0.000000;,
 -1.560000;0.000000;1.010000;,
 -1.560000;-0.260000;1.010000;,
 -1.640000;-0.260000;1.010000;,
 -1.640000;0.000000;1.010000;,
 1.640000;0.000000;0.000000;,
 1.640000;-0.260000;0.000000;,
 1.560000;-0.260000;0.000000;,
 1.560000;0.000000;0.000000;,
 1.640000;0.000000;1.010000;,
 1.640000;-0.260000;1.010000;,
 1.560000;-0.260000;1.010000;,
 1.560000;0.000000;1.010000;,
 2.240000;0.000000;0.000000;,
 2.240000;-0.260000;0.000000;,
 2.160000;-0.260000;0.000000;,
 2.160000;0.000000;0.000000;,
 2.240000;0.000000;1.010000;,
 2.240000;-0.260000;1.010000;,
 2.160000;-0.260000;1.010000;,
 2.160000;0.000000;1.010000;,
 -1.137000;-0.174000;0.070000;,
 -1.137000;-0.344000;0.070000;,
 -2.663000;-0.344000;0.070000;,
 -2.663000;-0.174000;0.070000;,
 -1.137000;-0.174000;0.180000;,
 -1.137000;-0.344000;0.180000;,
 -2.663000;-0.344000;0.180000;,
 -2.663000;-0.174000;0.180000;,
 -1.137000;-0.174000;0.320000;,
 -1.137000;-0.344000;0.320000;,
 -2.663000;-0.344000;0.320000;,
 -2.663000;-0.174000;0.320000;,
 -1.137000;-0.174000;0.430000;,
 -1.137000;-0.344000;0.430000;,
 -2.663000;-0.344000;0.430000;,
 -2.663000;-0.174000;0.430000;,
 -1.137000;-0.174000;0.570000;,
 -1.137000;-0.344000;0.570000;,
 -2.663000;-0.344000;0.570000;,
 -2.663000;-0.174000;0.570000;,
 -1.137000;-0.174000;0.680000;,
 -1.137000;-0.344000;0.680000;,
 -2.663000;-0.344000;0.680000;,
 -2.663000;-0.174000;0.680000;,
 -1.137000;-0.174000;0.820000;,
 -1.137000;-0.344000;0.820000;,
 -2.663000;-0.344000;0.820000;,
 -2.663000;-0.174000;0.820000;,
 -1.137000;-0.174000;0.930000;,
 -1.137000;-0.344000;0.930000;,
 -2.663000;-0.344000;0.930000;,
 -2.663000;-0.174000;0.930000;,
 2.663000;-0.174000;0.070000;,
 2.663000;-0.344000;0.070000;,
 1.137000;-0.344000;0.070000;,
 1.137000;-0.174000;0.070000;,
 2.663000;-0.174000;0.180000;,
 2.663000;-0.344000;0.180000;,
 1.137000;-0.344000;0.180000;,
 1.137000;-0.174000;0.180000;,
 2.663000;-0.174000;0.320000;,
 2.663000;-0.344000;0.320000;,
 1.137000;-0.344000;0.320000;,
 1.137000;-0.174000;0.320000;,
 2.663000;-0.174000;0.430000;,
 2.663000;-0.344000;0.430000;,
 1.137000;-0.344000;0.430000;,
 1.137000;-0.174000;0.430000;,
 2.663000;-0.174000;0.570000;,
 2.663000;-0.344000;0.570000;,
 1.137000;-0.344000;0.570000;,
 1.137000;-0.174000;0.570000;,
 2.663000;-0.174000;0.680000;,
 2.663000;-0.344000;0.680000;,
 1.137000;-0.344000;0.680000;,
 1.137000;-0.174000;0.680000;,
 2.663000;-0.174000;0.820000;,
 2.663000;-0.344000;0.820000;,
 1.137000;-0.344000;0.820000;,
 1.137000;-0.174000;0.820000;,
 2.663000;-0.174000;0.930000;,
 2.663000;-0.344000;0.930000;,
 1.137000;-0.344000;0.930000;,
 1.137000;-0.174000;0.930000;;
 396;
 3;0,1,3;,
 3;0,3,2;,
 3;2,3,1;,
 3;2,1,0;,
 3;4,5,7;,
 3;4,7,6;,
 3;6,7,5;,
 3;6,5,4;,
 3;9,8,10;,
 3;9,10,11;,
 3;11,10,12;,
 3;11,12,13;,
 3;13,12,14;,
 3;13,14,15;,
 3;15,14,16;,
 3;15,16,17;,
 3;17,16,18;,
 3;17,18,19;,
 3;19,18,20;,
 3;19,20,21;,
 3;21,20,22;,
 3;21,22,23;,
 3;23,22,24;,
 3;23,24,25;,
 3;25,24,26;,
 3;25,26,27;,
 3;27,26,28;,
 3;27,28,29;,
 3;29,28,30;,
 3;29,30,31;,
 3;31,30,32;,
 3;31,32,33;,
 3;33,32,34;,
 3;33,34,35;,
 3;35,34,36;,
 3;35,36,37;,
 3;37,36,38;,
 3;37,38,39;,
 3;39,38,8;,
 3;39,8,9;,
 3;38,36,34;,
 3;38,34,32;,
 3;38,32,30;,
 3;38,30,28;,
 3;38,28,26;,
 3;38,26,24;,
 3;38,24,22;,
 3;38,22,20;,
 3;38,20,18;,
 3;38,18,16;,
 3;38,16,14;,
 3;38,14,12;,
 3;38,12,10;,
 3;38,10,8;,
 3;9,11,13;,
 3;9,13,15;,
 3;9,15,17;,
 3;9,17,19;,
 3;9,19,21;,
 3;9,21,23;,
 3;9,23,25;,
 3;9,25,27;,
 3;9,27,29;,
 3;9,29,31;,
 3;9,31,33;,
 3;9,33,35;,
 3;9,35,37;,
 3;9,37,39;,
 3;41,40,42;,
 3;41,42,43;,
 3;43,42,44;,
 3;43,44,45;,
 3;45,44,46;,
 3;45,46,47;,
 3;47,46,48;,
 3;47,48,49;,
 3;49,48,50;,
 3;49,50,51;,
 3;51,50,52;,
 3;51,52,53;,
 3;53,52,54;,
 3;53,54,55;,
 3;55,54,56;,
 3;55,56,57;,
 3;57,56,58;,
 3;57,58,59;,
 3;59,58,60;,
 3;59,60,61;,
 3;61,60,62;,
 3;61,62,63;,
 3;63,62,64;,
 3;63,64,65;,
 3;65,64,66;,
 3;65,66,67;,
 3;67,66,68;,
 3;67,68,69;,
 3;69,68,70;,
 3;69,70,71;,
 3;71,70,40;,
 3;71,40,41;,
 3;70,68,66;,
 3;70,66,64;,
 3;70,64,62;,
 3;70,62,60;,
 3;70,60,58;,
 3;70,58,56;,
 3;70,56,54;,
 3;70,54,52;,
 3;70,52,50;,
 3;70,50,48;,
 3;70,48,46;,
 3;70,46,44;,
 3;70,44,42;,
 3;70,42,40;,
 3;41,43,45;,
 3;41,45,47;,
 3;41,47,49;,
 3;41,49,51;,
 3;41,51,53;,
 3;41,53,55;,
 3;41,55,57;,
 3;41,57,59;,
 3;41,59,61;,
 3;41,61,63;,
 3;41,63,65;,
 3;41,65,67;,
 3;41,67,69;,
 3;41,69,71;,
 3;72,73,75;,
 3;72,75,74;,
 3;74,75,73;,
 3;74,73,72;,
 3;77,76,78;,
 3;77,78,79;,
 3;79,78,80;,
 3;79,80,81;,
 3;81,80,82;,
 3;81,82,83;,
 3;83,82,84;,
 3;83,84,85;,
 3;85,84,86;,
 3;85,86,87;,
 3;87,86,88;,
 3;87,88,89;,
 3;89,88,90;,
 3;89,90,91;,
 3;91,90,92;,
 3;91,92,93;,
 3;93,92,94;,
 3;93,94,95;,
 3;95,94,96;,
 3;95,96,97;,
 3;97,96,98;,
 3;97,98,99;,
 3;99,98,100;,
 3;99,100,101;,
 3;101,100,102;,
 3;101,102,103;,
 3;103,102,104;,
 3;103,104,105;,
 3;105,104,106;,
 3;105,106,107;,
 3;107,106,76;,
 3;107,76,77;,
 3;106,104,102;,
 3;106,102,100;,
 3;106,100,98;,
 3;106,98,96;,
 3;106,96,94;,
 3;106,94,92;,
 3;106,92,90;,
 3;106,90,88;,
 3;106,88,86;,
 3;106,86,84;,
 3;106,84,82;,
 3;106,82,80;,
 3;106,80,78;,
 3;106,78,76;,
 3;77,79,81;,
 3;77,81,83;,
 3;77,83,85;,
 3;77,85,87;,
 3;77,87,89;,
 3;77,89,91;,
 3;77,91,93;,
 3;77,93,95;,
 3;77,95,97;,
 3;77,97,99;,
 3;77,99,101;,
 3;77,101,103;,
 3;77,103,105;,
 3;77,105,107;,
 3;109,108,110;,
 3;109,110,111;,
 3;111,110,112;,
 3;111,112,113;,
 3;113,112,114;,
 3;113,114,115;,
 3;115,114,116;,
 3;115,116,117;,
 3;117,116,118;,
 3;117,118,119;,
 3;119,118,120;,
 3;119,120,121;,
 3;121,120,122;,
 3;121,122,123;,
 3;123,122,124;,
 3;123,124,125;,
 3;125,124,126;,
 3;125,126,127;,
 3;127,126,128;,
 3;127,128,129;,
 3;129,128,130;,
 3;129,130,131;,
 3;131,130,132;,
 3;131,132,133;,
 3;133,132,134;,
 3;133,134,135;,
 3;135,134,136;,
 3;135,136,137;,
 3;137,136,138;,
 3;137,138,139;,
 3;139,138,108;,
 3;139,108,109;,
 3;138,136,134;,
 3;138,134,132;,
 3;138,132,130;,
 3;138,130,128;,
 3;138,128,126;,
 3;138,126,124;,
 3;138,124,122;,
 3;138,122,120;,
 3;138,120,118;,
 3;138,118,116;,
 3;138,116,114;,
 3;138,114,112;,
 3;138,112,110;,
 3;138,110,108;,
 3;109,111,113;,
 3;109,113,115;,
 3;109,115,117;,
 3;109,117,119;,
 3;109,119,121;,
 3;109,121,123;,
 3;109,123,125;,
 3;109,125,127;,
 3;109,127,129;,
 3;109,129,131;,
 3;109,131,133;,
 3;109,133,135;,
 3;109,135,137;,
 3;109,137,139;,
 3;140,141,142;,
 3;140,142,143;,
 3;143,142,146;,
 3;143,146,147;,
 3;147,146,145;,
 3;147,145,144;,
 3;144,145,141;,
 3;144,141,140;,
 3;140,143,147;,
 3;140,147,144;,
 3;141,145,146;,
 3;141,146,142;,
 3;148,149,150;,
 3;148,150,151;,
 3;151,150,154;,
 3;151,154,155;,
 3;155,154,153;,
 3;155,153,152;,
 3;152,153,149;,
 3;152,149,148;,
 3;148,151,155;,
 3;148,155,152;,
 3;149,153,154;,
 3;149,154,150;,
 3;156,157,158;,
 3;156,158,159;,
 3;159,158,162;,
 3;159,162,163;,
 3;163,162,161;,
 3;163,161,160;,
 3;160,161,157;,
 3;160,157,156;,
 3;156,159,163;,
 3;156,163,160;,
 3;157,161,162;,
 3;157,162,158;,
 3;164,165,166;,
 3;164,166,167;,
 3;167,166,170;,
 3;167,170,171;,
 3;171,170,169;,
 3;171,169,168;,
 3;168,169,165;,
 3;168,165,164;,
 3;164,167,171;,
 3;164,171,168;,
 3;165,169,170;,
 3;165,170,166;,
 3;172,173,174;,
 3;172,174,175;,
 3;175,174,178;,
 3;175,178,179;,
 3;179,178,177;,
 3;179,177,176;,
 3;176,177,173;,
 3;176,173,172;,
 3;172,175,179;,
 3;172,179,176;,
 3;173,177,178;,
 3;173,178,174;,
 3;180,181,182;,
 3;180,182,183;,
 3;183,182,186;,
 3;183,186,187;,
 3;187,186,185;,
 3;187,185,184;,
 3;184,185,181;,
 3;184,181,180;,
 3;180,183,187;,
 3;180,187,184;,
 3;181,185,186;,
 3;181,186,182;,
 3;188,189,190;,
 3;188,190,191;,
 3;191,190,194;,
 3;191,194,195;,
 3;195,194,193;,
 3;195,193,192;,
 3;192,193,189;,
 3;192,189,188;,
 3;188,191,195;,
 3;188,195,192;,
 3;189,193,194;,
 3;189,194,190;,
 3;196,197,198;,
 3;196,198,199;,
 3;199,198,202;,
 3;199,202,203;,
 3;203,202,201;,
 3;203,201,200;,
 3;200,201,197;,
 3;200,197,196;,
 3;196,199,203;,
 3;196,203,200;,
 3;197,201,202;,
 3;197,202,198;,
 3;204,205,206;,
 3;204,206,207;,
 3;207,206,210;,
 3;207,210,211;,
 3;211,210,209;,
 3;211,209,208;,
 3;208,209,205;,
 3;208,205,204;,
 3;204,207,211;,
 3;204,211,208;,
 3;205,209,210;,
 3;205,210,206;,
 3;212,213,214;,
 3;212,214,215;,
 3;215,214,218;,
 3;215,218,219;,
 3;219,218,217;,
 3;219,217,216;,
 3;216,217,213;,
 3;216,213,212;,
 3;212,215,219;,
 3;212,219,216;,
 3;213,217,218;,
 3;213,218,214;,
 3;220,221,222;,
 3;220,222,223;,
 3;223,222,226;,
 3;223,226,227;,
 3;227,226,225;,
 3;227,225,224;,
 3;224,225,221;,
 3;224,221,220;,
 3;220,223,227;,
 3;220,227,224;,
 3;221,225,226;,
 3;221,226,222;,
 3;228,229,230;,
 3;228,230,231;,
 3;231,230,234;,
 3;231,234,235;,
 3;235,234,233;,
 3;235,233,232;,
 3;232,233,229;,
 3;232,229,228;,
 3;228,231,235;,
 3;228,235,232;,
 3;229,233,234;,
 3;229,234,230;;

 MeshMaterialList  {
  19;
  396;
  0,
  0,
  0,
  0,
  1,
  1,
  1,
  1,
  2,
  2,
  2,
  2,
  2,
  2,
  2,
  2,
  2,
  2,
  2,
  2,
  2,
  2,
  2,
  2,
  2,
  2,
  2,
  2,
  2,
  2,
  2,
  2,
  2,
  2,
  2,
  2,
  2,
  2,
  2,
  2,
  2,
  2,
  2,
  2,
  2,
  2,
  2,
  2,
  2,
  2,
  2,
  2,
  2,
  2,
  2,
  2,
  2,
  2,
  2,
  2,
  2,
  2,
  2,
  2,
  2,
  2,
  2,
  2,
  3,
  3,
  3,
  3,
  3,
  3,
  3,
  3,
  3,
  3,
  3,
  3,
  3,
  3,
  3,
  3,
  3,
  3,
  3,
  3,
  3,
  3,
  3,
  3,
  3,
  3,
  3,
  3,
  3,
  3,
  3,
  3,
  3,
  3,
  3,
  3,
  3,
  3,
  3,
  3,
  3,
  3,
  3,
  3,
  3,
  3,
  3,
  3,
  3,
  3,
  3,
  3,
  3,
  3,
  3,
  3,
  3,
  3,
  3,
  3,
  4,
  4,
  4,
  4,
  5,
  5,
  5,
  5,
  5,
  5,
  5,
  5,
  5,
  5,
  5,
  5,
  5,
  5,
  5,
  5,
  5,
  5,
  5,
  5,
  5,
  5,
  5,
  5,
  5,
  5,
  5,
  5,
  5,
  5,
  5,
  5,
  5,
  5,
  5,
  5,
  5,
  5,
  5,
  5,
  5,
  5,
  5,
  5,
  5,
  5,
  5,
  5,
  5,
  5,
  5,
  5,
  5,
  5,
  5,
  5,
  5,
  5,
  5,
  5,
  6,
  6,
  6,
  6,
  6,
  6,
  6,
  6,
  6,
  6,
  6,
  6,
  6,
  6,
  6,
  6,
  6,
  6,
  6,
  6,
  6,
  6,
  6,
  6,
  6,
  6,
  6,
  6,
  6,
  6,
  6,
  6,
  6,
  6,
  6,
  6,
  6,
  6,
  6,
  6,
  6,
  6,
  6,
  6,
  6,
  6,
  6,
  6,
  6,
  6,
  6,
  6,
  6,
  6,
  6,
  6,
  6,
  6,
  6,
  6,
  7,
  7,
  7,
  7,
  7,
  7,
  7,
  7,
  7,
  7,
  7,
  7,
  8,
  8,
  8,
  8,
  8,
  8,
  8,
  8,
  8,
  8,
  8,
  8,
  9,
  9,
  9,
  9,
  9,
  9,
  9,
  9,
  9,
  9,
  9,
  9,
  10,
  10,
  10,
  10,
  10,
  10,
  10,
  10,
  10,
  10,
  10,
  10,
  11,
  11,
  11,
  11,
  11,
  11,
  11,
  11,
  11,
  11,
  11,
  11,
  12,
  12,
  12,
  12,
  12,
  12,
  12,
  12,
  12,
  12,
  12,
  12,
  13,
  13,
  13,
  13,
  13,
  13,
  13,
  13,
  13,
  13,
  13,
  13,
  14,
  14,
  14,
  14,
  14,
  14,
  14,
  14,
  14,
  14,
  14,
  14,
  15,
  15,
  15,
  15,
  15,
  15,
  15,
  15,
  15,
  15,
  15,
  15,
  16,
  16,
  16,
  16,
  16,
  16,
  16,
  16,
  16,
  16,
  16,
  16,
  17,
  17,
  17,
  17,
  17,
  17,
  17,
  17,
  17,
  17,
  17,
  17,
  18,
  18,
  18,
  18,
  18,
  18,
  18,
  18,
  18,
  18,
  18,
  18;

  Material  {
   0.345098;0.313726;0.141176;1.000000;;
   0.000000;
   0.000000;0.000000;0.000000;;
   0.000000;0.000000;0.000000;;
  }

  Material  {
   0.000000;0.501961;0.000000;1.000000;;
   0.000000;
   0.000000;0.000000;0.000000;;
   0.000000;0.000000;0.000000;;
  }

  Material  {
   0.000000;0.501961;0.000000;1.000000;;
   0.000000;
   0.000000;0.000000;0.000000;;
   0.000000;0.000000;0.000000;;
  }

  Material  {
   0.000000;0.501961;0.000000;1.000000;;
   0.000000;
   0.000000;0.000000;0.000000;;
   0.000000;0.000000;0.000000;;
  }

  Material  {
   0.000000;0.501961;0.000000;1.000000;;
   0.000000;
   0.000000;0.000000;0.000000;;
   0.000000;0.000000;0.000000;;
  }

  Material  {
   0.000000;0.501961;0.000000;1.000000;;
   0.000000;
   0.000000;0.000000;0.000000;;
   0.000000;0.000000;0.000000;;
  }

  Material  {
   0.000000;0.501961;0.000000;1.000000;;
   0.000000;
   0.000000;0.000000;0.000000;;
   0.000000;0.000000;0.000000;;
  }

  Material  {
   0.435294;0.094118;0.094118;1.000000;;
   0.000000;
   0.000000;0.000000;0.000000;;
   0.000000;0.000000;0.000000;;
  }

  Material  {
   0.435294;0.094118;0.094118;1.000000;;
   0.000000;
   0.000000;0.000000;0.000000;;
   0.000000;0.000000;0.000000;;
  }

  Material  {
   0.435294;0.094118;0.094118;1.000000;;
   0.000000;
   0.000000;0.000000;0.000000;;
   0.000000;0.000000;0.000000;;
  }

  Material  {
   0.435294;0.094118;0.094118;1.000000;;
   0.000000;
   0.000000;0.000000;0.000000;;
   0.000000;0.000000;0.000000;;
  }

  Material  {
   0.482353;0.113725;0.113725;1.000000;;
   0.000000;
   0.000000;0.000000;0.000000;;
   0.000000;0.000000;0.000000;;
  }

  Material  {
   0.482353;0.113725;0.113725;1.000000;;
   0.000000;
   0.000000;0.000000;0.000000;;
   0.000000;0.000000;0.000000;;
  }

  Material  {
   0.482353;0.113725;0.113725;1.000000;;
   0.000000;
   0.000000;0.000000;0.000000;;
   0.000000;0.000000;0.000000;;
  }

  Material  {
   0.482353;0.113725;0.113725;1.000000;;
   0.000000;
   0.000000;0.000000;0.000000;;
   0.000000;0.000000;0.000000;;
  }

  Material  {
   0.482353;0.113725;0.113725;1.000000;;
   0.000000;
   0.000000;0.000000;0.000000;;
   0.000000;0.000000;0.000000;;
  }

  Material  {
   0.482353;0.113725;0.113725;1.000000;;
   0.000000;
   0.000000;0.000000;0.000000;;
   0.000000;0.000000;0.000000;;
  }

  Material  {
   0.482353;0.113725;0.113725;1.000000;;
   0.000000;
   0.000000;0.000000;0.000000;;
   0.000000;0.000000;0.000000;;
  }

  Material  {
   0.482353;0.113725;0.113725;1.000000;;
   0.000000;
   0.000000;0.000000;0.000000;;
   0.000000;0.000000;0.000000;;
  }
 }

 MeshTextureCoords  {
  236;
  0.000000;0.000000;,
  0.000000;0.000000;,
  0.000000;0.000000;,
  0.000000;0.000000;,
  0.000000;0.000000;,
  0.000000;0.000000;,
  0.000000;0.000000;,
  0.000000;0.000000;,
  0.000000;0.000000;,
  0.000000;0.000000;,
  0.000000;0.000000;,
  0.000000;0.000000;,
  0.000000;0.000000;,
  0.000000;0.000000;,
  0.000000;0.000000;,
  0.000000;0.000000;,
  0.000000;0.000000;,
  0.000000;0.000000;,
  0.000000;0.000000;,
  0.000000;0.000000;,
  0.000000;0.000000;,
  0.000000;0.000000;,
  0.000000;0.000000;,
  0.000000;0.000000;,
  0.000000;0.000000;,
  0.000000;0.000000;,
  0.000000;0.000000;,
  0.000000;0.000000;,
  0.000000;0.000000;,
  0.000000;0.000000;,
  0.000000;0.000000;,
  0.000000;0.000000;,
  0.000000;0.000000;,
  0.000000;0.000000;,
  0.000000;0.000000;,
  0.000000;0.000000;,
  0.000000;0.000000;,
  0.000000;0.000000;,
  0.000000;0.000000;,
  0.000000;0.000000;,
  0.000000;0.000000;,
  0.000000;0.000000;,
  0.000000;0.000000;,
  0.000000;0.000000;,
  0.000000;0.000000;,
  0.000000;0.000000;,
  0.000000;0.000000;,
  0.000000;0.000000;,
  0.000000;0.000000;,
  0.000000;0.000000;,
  0.000000;0.000000;,
  0.000000;0.000000;,
  0.000000;0.000000;,
  0.000000;0.000000;,
  0.000000;0.000000;,
  0.000000;0.000000;,
  0.000000;0.000000;,
  0.000000;0.000000;,
  0.000000;0.000000;,
  0.000000;0.000000;,
  0.000000;0.000000;,
  0.000000;0.000000;,
  0.000000;0.000000;,
  0.000000;0.000000;,
  0.000000;0.000000;,
  0.000000;0.000000;,
  0.000000;0.000000;,
  0.000000;0.000000;,
  0.000000;0.000000;,
  0.000000;0.000000;,
  0.000000;0.000000;,
  0.000000;0.000000;,
  0.000000;0.000000;,
  0.000000;0.000000;,
  0.000000;0.000000;,
  0.000000;0.000000;,
  0.000000;0.000000;,
  0.000000;0.000000;,
  0.000000;0.000000;,
  0.000000;0.000000;,
  0.000000;0.000000;,
  0.000000;0.000000;,
  0.000000;0.000000;,
  0.000000;0.000000;,
  0.000000;0.000000;,
  0.000000;0.000000;,
  0.000000;0.000000;,
  0.000000;0.000000;,
  0.000000;0.000000;,
  0.000000;0.000000;,
  0.000000;0.000000;,
  0.000000;0.000000;,
  0.000000;0.000000;,
  0.000000;0.000000;,
  0.000000;0.000000;,
  0.000000;0.000000;,
  0.000000;0.000000;,
  0.000000;0.000000;,
  0.000000;0.000000;,
  0.000000;0.000000;,
  0.000000;0.000000;,
  0.000000;0.000000;,
  0.000000;0.000000;,
  0.000000;0.000000;,
  0.000000;0.000000;,
  0.000000;0.000000;,
  0.000000;0.000000;,
  0.000000;0.000000;,
  0.000000;0.000000;,
  0.000000;0.000000;,
  0.000000;0.000000;,
  0.000000;0.000000;,
  0.000000;0.000000;,
  0.000000;0.000000;,
  0.000000;0.000000;,
  0.000000;0.000000;,
  0.000000;0.000000;,
  0.000000;0.000000;,
  0.000000;0.000000;,
  0.000000;0.000000;,
  0.000000;0.000000;,
  0.000000;0.000000;,
  0.000000;0.000000;,
  0.000000;0.000000;,
  0.000000;0.000000;,
  0.000000;0.000000;,
  0.000000;0.000000;,
  0.000000;0.000000;,
  0.000000;0.000000;,
  0.000000;0.000000;,
  0.000000;0.000000;,
  0.000000;0.000000;,
  0.000000;0.000000;,
  0.000000;0.000000;,
  0.000000;0.000000;,
  0.000000;0.000000;,
  0.000000;0.000000;,
  0.000000;0.000000;,
  0.000000;0.000000;,
  0.000000;0.000000;,
  0.000000;0.000000;,
  0.000000;0.000000;,
  0.000000;0.000000;,
  0.000000;0.000000;,
  0.000000;0.000000;,
  0.000000;0.000000;,
  0.000000;0.000000;,
  0.000000;0.000000;,
  0.000000;0.000000;,
  0.000000;0.000000;,
  0.000000;0.000000;,
  0.000000;0.000000;,
  0.000000;0.000000;,
  0.000000;0.000000;,
  0.000000;0.000000;,
  0.000000;0.000000;,
  0.000000;0.000000;,
  0.000000;0.000000;,
  0.000000;0.000000;,
  0.000000;0.000000;,
  0.000000;0.000000;,
  0.000000;0.000000;,
  0.000000;0.000000;,
  0.000000;0.000000;,
  0.000000;0.000000;,
  0.000000;0.000000;,
  0.000000;0.000000;,
  0.000000;0.000000;,
  0.000000;0.000000;,
  0.000000;0.000000;,
  0.000000;0.000000;,
  0.000000;0.000000;,
  0.000000;0.000000;,
  0.000000;0.000000;,
  0.000000;0.000000;,
  0.000000;0.000000;,
  0.000000;0.000000;,
  0.000000;0.000000;,
  0.000000;0.000000;,
  0.000000;0.000000;,
  0.000000;0.000000;,
  0.000000;0.000000;,
  0.000000;0.000000;,
  0.000000;0.000000;,
  0.000000;0.000000;,
  0.000000;0.000000;,
  0.000000;0.000000;,
  0.000000;0.000000;,
  0.000000;0.000000;,
  0.000000;0.000000;,
  0.000000;0.000000;,
  0.000000;0.000000;,
  0.000000;0.000000;,
  0.000000;0.000000;,
  0.000000;0.000000;,
  0.000000;0.000000;,
  0.000000;0.000000;,
  0.000000;0.000000;,
  0.000000;0.000000;,
  0.000000;0.000000;,
  0.000000;0.000000;,
  0.000000;0.000000;,
  0.000000;0.000000;,
  0.000000;0.000000;,
  0.000000;0.000000;,
  0.000000;0.000000;,
  0.000000;0.000000;,
  0.000000;0.000000;,
  0.000000;0.000000;,
  0.000000;0.000000;,
  0.000000;0.000000;,
  0.000000;0.000000;,
  0.000000;0.000000;,
  0.000000;0.000000;,
  0.000000;0.000000;,
  0.000000;0.000000;,
  0.000000;0.000000;,
  0.000000;0.000000;,
  0.000000;0.000000;,
  0.000000;0.000000;,
  0.000000;0.000000;,
  0.000000;0.000000;,
  0.000000;0.000000;,
  0.000000;0.000000;,
  0.000000;0.000000;,
  0.000000;0.000000;,
  0.000000;0.000000;,
  0.000000;0.000000;,
  0.000000;0.000000;,
  0.000000;0.000000;,
  0.000000;0.000000;,
  0.000000;0.000000;,
  0.000000;0.000000;,
  0.000000;0.000000;,
  0.000000;0.000000;,
  0.000000;0.000000;;
 }

 MeshNormals  {
  284;
  0.000000;-1.000000;0.000000;,
  0.000000;-1.000000;0.000000;,
  0.000000;1.000000;0.000000;,
  0.000000;1.000000;0.000000;,
  0.000000;-1.000000;0.000000;,
  0.000000;-1.000000;0.000000;,
  0.000000;1.000000;0.000000;,
  0.000000;1.000000;0.000000;,
  0.703702;0.707107;-0.069309;,
  0.000096;-1.000000;0.000000;,
  0.353553;0.923880;0.146447;,
  0.623612;-0.707107;0.333328;,
  0.270598;0.923880;0.270598;,
  0.242772;-0.923880;0.295818;,
  0.146447;0.923880;0.353553;,
  0.111087;-0.923880;0.366205;,
  0.000000;0.923880;0.382683;,
  -0.037510;-0.923880;0.380841;,
  -0.146447;0.923880;0.353553;,
  -0.180396;-0.923880;0.337497;,
  -0.270598;0.923880;0.270598;,
  -0.295818;-0.923880;0.242772;,
  -0.353553;0.923880;0.146447;,
  -0.366205;-0.923880;0.111087;,
  -0.382683;0.923880;0.000000;,
  -0.380841;-0.923880;-0.037510;,
  -0.353553;0.923880;-0.146447;,
  -0.337497;-0.923880;-0.180396;,
  -0.270598;0.923880;-0.270598;,
  -0.242772;-0.923879;-0.295818;,
  -0.146447;0.923880;-0.353553;,
  -0.111087;-0.923880;-0.366205;,
  0.000000;0.923880;-0.382683;,
  0.037510;-0.923880;-0.380841;,
  0.146447;0.923880;-0.353553;,
  0.180396;-0.923880;-0.337497;,
  0.500000;0.707107;-0.500000;,
  0.295818;-0.923880;-0.242772;,
  0.000089;1.000000;-0.000037;,
  0.676659;-0.707107;-0.205262;,
  0.703702;0.707107;-0.069309;,
  0.000096;-1.000000;0.000000;,
  0.353553;0.923880;0.146447;,
  0.623612;-0.707107;0.333328;,
  0.270598;0.923880;0.270598;,
  0.242772;-0.923880;0.295818;,
  0.146447;0.923880;0.353553;,
  0.111087;-0.923880;0.366205;,
  0.000000;0.923880;0.382683;,
  -0.037510;-0.923880;0.380841;,
  -0.146447;0.923880;0.353553;,
  -0.180396;-0.923880;0.337497;,
  -0.270598;0.923880;0.270598;,
  -0.295818;-0.923880;0.242772;,
  -0.353553;0.923880;0.146447;,
  -0.366205;-0.923880;0.111087;,
  -0.382683;0.923880;0.000000;,
  -0.380841;-0.923880;-0.037510;,
  -0.353553;0.923880;-0.146447;,
  -0.337497;-0.923880;-0.180396;,
  -0.270598;0.923880;-0.270598;,
  -0.242772;-0.923879;-0.295818;,
  -0.146447;0.923880;-0.353553;,
  -0.111087;-0.923880;-0.366205;,
  0.000000;0.923880;-0.382683;,
  0.037510;-0.923880;-0.380841;,
  0.146447;0.923880;-0.353553;,
  0.180396;-0.923880;-0.337497;,
  0.500000;0.707107;-0.500000;,
  0.295818;-0.923880;-0.242772;,
  0.000089;1.000000;-0.000037;,
  0.676659;-0.707107;-0.205262;,
  0.000000;-1.000000;0.000000;,
  0.000000;-1.000000;0.000000;,
  0.000000;1.000000;0.000000;,
  0.000000;1.000000;0.000000;,
  0.703702;0.707107;-0.069309;,
  0.000096;-1.000000;0.000000;,
  0.353553;0.923880;0.146447;,
  0.623612;-0.707107;0.333328;,
  0.270598;0.923880;0.270598;,
  0.242772;-0.923880;0.295818;,
  0.146447;0.923880;0.353553;,
  0.111087;-0.923880;0.366205;,
  0.000000;0.923880;0.382683;,
  -0.037510;-0.923880;0.380841;,
  -0.146447;0.923880;0.353553;,
  -0.180396;-0.923880;0.337497;,
  -0.270598;0.923880;0.270598;,
  -0.295818;-0.923880;0.242772;,
  -0.353553;0.923880;0.146447;,
  -0.366205;-0.923880;0.111087;,
  -0.382683;0.923880;0.000000;,
  -0.380841;-0.923880;-0.037510;,
  -0.353553;0.923880;-0.146447;,
  -0.337497;-0.923880;-0.180396;,
  -0.270598;0.923880;-0.270598;,
  -0.242772;-0.923879;-0.295818;,
  -0.146447;0.923880;-0.353553;,
  -0.111087;-0.923880;-0.366205;,
  0.000000;0.923880;-0.382683;,
  0.037510;-0.923880;-0.380841;,
  0.146447;0.923880;-0.353553;,
  0.180396;-0.923880;-0.337497;,
  0.500000;0.707107;-0.500000;,
  0.295818;-0.923880;-0.242772;,
  0.000089;1.000000;-0.000037;,
  0.676659;-0.707107;-0.205262;,
  0.703702;0.707107;-0.069309;,
  0.000096;-1.000000;0.000000;,
  0.353553;0.923880;0.146447;,
  0.623612;-0.707107;0.333328;,
  0.270598;0.923880;0.270598;,
  0.242772;-0.923880;0.295818;,
  0.146447;0.923880;0.353553;,
  0.111087;-0.923880;0.366205;,
  0.000000;0.923880;0.382683;,
  -0.037510;-0.923880;0.380841;,
  -0.146447;0.923880;0.353553;,
  -0.180396;-0.923880;0.337497;,
  -0.270598;0.923880;0.270598;,
  -0.295818;-0.923880;0.242772;,
  -0.353553;0.923880;0.146447;,
  -0.366205;-0.923880;0.111087;,
  -0.382683;0.923880;0.000000;,
  -0.380841;-0.923880;-0.037510;,
  -0.353553;0.923880;-0.146447;,
  -0.337497;-0.923880;-0.180396;,
  -0.270598;0.923880;-0.270598;,
  -0.242772;-0.923879;-0.295818;,
  -0.146447;0.923880;-0.353553;,
  -0.111087;-0.923880;-0.366205;,
  0.000000;0.923880;-0.382683;,
  0.037510;-0.923880;-0.380841;,
  0.146447;0.923880;-0.353553;,
  0.180396;-0.923880;-0.337497;,
  0.500000;0.707107;-0.500000;,
  0.295818;-0.923880;-0.242772;,
  0.000089;1.000000;-0.000037;,
  0.676659;-0.707107;-0.205262;,
  0.000000;0.000000;-1.000000;,
  0.000000;0.000000;-1.000000;,
  -1.000000;0.000000;0.000000;,
  -1.000000;0.000000;0.000000;,
  0.000000;0.000000;1.000000;,
  0.000000;0.000000;1.000000;,
  1.000000;0.000000;0.000000;,
  1.000000;0.000000;0.000000;,
  0.000000;1.000000;0.000000;,
  0.000000;1.000000;0.000000;,
  0.000000;-1.000000;0.000000;,
  0.000000;-1.000000;0.000000;,
  0.000000;0.000000;-1.000000;,
  0.000000;0.000000;-1.000000;,
  -1.000000;0.000000;0.000000;,
  -1.000000;0.000000;0.000000;,
  0.000000;0.000000;1.000000;,
  0.000000;0.000000;1.000000;,
  1.000000;0.000000;0.000000;,
  1.000000;0.000000;0.000000;,
  0.000000;1.000000;0.000000;,
  0.000000;1.000000;0.000000;,
  0.000000;-1.000000;0.000000;,
  0.000000;-1.000000;0.000000;,
  0.000000;0.000000;-1.000000;,
  0.000000;0.000000;-1.000000;,
  -1.000000;0.000000;0.000000;,
  -1.000000;0.000000;0.000000;,
  0.000000;0.000000;1.000000;,
  0.000000;0.000000;1.000000;,
  1.000000;0.000000;0.000000;,
  1.000000;0.000000;0.000000;,
  0.000000;1.000000;0.000000;,
  0.000000;1.000000;0.000000;,
  0.000000;-1.000000;0.000000;,
  0.000000;-1.000000;0.000000;,
  0.000000;0.000000;-1.000000;,
  0.000000;0.000000;-1.000000;,
  -1.000000;0.000000;0.000000;,
  -1.000000;0.000000;0.000000;,
  0.000000;0.000000;1.000000;,
  0.000000;0.000000;1.000000;,
  1.000000;0.000000;0.000000;,
  1.000000;0.000000;0.000000;,
  0.000000;1.000000;0.000000;,
  0.000000;1.000000;0.000000;,
  0.000000;-1.000000;0.000000;,
  0.000000;-1.000000;0.000000;,
  0.000000;0.000000;-1.000000;,
  0.000000;0.000000;-1.000000;,
  -1.000000;0.000000;0.000000;,
  -1.000000;0.000000;0.000000;,
  0.000000;0.000000;1.000000;,
  0.000000;0.000000;1.000000;,
  1.000000;0.000000;0.000000;,
  1.000000;0.000000;0.000000;,
  0.000000;1.000000;0.000000;,
  0.000000;1.000000;0.000000;,
  0.000000;-1.000000;0.000000;,
  0.000000;-1.000000;0.000000;,
  0.000000;0.000000;-1.000000;,
  0.000000;0.000000;-1.000000;,
  -1.000000;0.000000;0.000000;,
  -1.000000;0.000000;0.000000;,
  0.000000;0.000000;1.000000;,
  0.000000;0.000000;1.000000;,
  1.000000;0.000000;0.000000;,
  1.000000;0.000000;0.000000;,
  0.000000;1.000000;0.000000;,
  0.000000;1.000000;0.000000;,
  0.000000;-1.000000;0.000000;,
  0.000000;-1.000000;0.000000;,
  0.000000;0.000000;-1.000000;,
  0.000000;0.000000;-1.000000;,
  -1.000000;0.000000;0.000000;,
  -1.000000;0.000000;0.000000;,
  0.000000;0.000000;1.000000;,
  0.000000;0.000000;1.000000;,
  1.000000;0.000000;0.000000;,
  1.000000;0.000000;0.000000;,
  0.000000;1.000000;0.000000;,
  0.000000;1.000000;0.000000;,
  0.000000;-1.000000;0.000000;,
  0.000000;-1.000000;0.000000;,
  0.000000;0.000000;-1.000000;,
  0.000000;0.000000;-1.000000;,
  -1.000000;0.000000;0.000000;,
  -1.000000;0.000000;0.000000;,
  0.000000;0.000000;1.000000;,
  0.000000;0.000000;1.000000;,
  1.000000;0.000000;0.000000;,
  1.000000;0.000000;0.000000;,
  0.000000;1.000000;0.000000;,
  0.000000;1.000000;0.000000;,
  0.000000;-1.000000;0.000000;,
  0.000000;-1.000000;0.000000;,
  0.000000;0.000000;-1.000000;,
  0.000000;0.000000;-1.000000;,
  -1.000000;0.000000;0.000000;,
  -1.000000;0.000000;0.000000;,
  0.000000;0.000000;1.000000;,
  0.000000;0.000000;1.000000;,
  1.000000;0.000000;0.000000;,
  1.000000;0.000000;0.000000;,
  0.000000;1.000000;0.000000;,
  0.000000;1.000000;0.000000;,
  0.000000;-1.000000;0.000000;,
  0.000000;-1.000000;0.000000;,
  0.000000;0.000000;-1.000000;,
  0.000000;0.000000;-1.000000;,
  -1.000000;0.000000;0.000000;,
  -1.000000;0.000000;0.000000;,
  0.000000;0.000000;1.000000;,
  0.000000;0.000000;1.000000;,
  1.000000;0.000000;0.000000;,
  1.000000;0.000000;0.000000;,
  0.000000;1.000000;0.000000;,
  0.000000;1.000000;0.000000;,
  0.000000;-1.000000;0.000000;,
  0.000000;-1.000000;0.000000;,
  0.000000;0.000000;-1.000000;,
  0.000000;0.000000;-1.000000;,
  -1.000000;0.000000;0.000000;,
  -1.000000;0.000000;0.000000;,
  0.000000;0.000000;1.000000;,
  0.000000;0.000000;1.000000;,
  1.000000;0.000000;0.000000;,
  1.000000;0.000000;0.000000;,
  0.000000;1.000000;0.000000;,
  0.000000;1.000000;0.000000;,
  0.000000;-1.000000;0.000000;,
  0.000000;-1.000000;0.000000;,
  0.000000;0.000000;-1.000000;,
  0.000000;0.000000;-1.000000;,
  -1.000000;0.000000;0.000000;,
  -1.000000;0.000000;0.000000;,
  0.000000;0.000000;1.000000;,
  0.000000;0.000000;1.000000;,
  1.000000;0.000000;0.000000;,
  1.000000;0.000000;0.000000;,
  0.000000;1.000000;0.000000;,
  0.000000;1.000000;0.000000;,
  0.000000;-1.000000;0.000000;,
  0.000000;-1.000000;0.000000;;
  396;
  3;0,0,0;,
  3;1,1,1;,
  3;2,2,2;,
  3;3,3,3;,
  3;4,4,4;,
  3;5,5,5;,
  3;6,6,6;,
  3;7,7,7;,
  3;9,8,10;,
  3;9,10,11;,
  3;11,10,12;,
  3;11,12,13;,
  3;13,12,14;,
  3;13,14,15;,
  3;15,14,16;,
  3;15,16,17;,
  3;17,16,18;,
  3;17,18,19;,
  3;19,18,20;,
  3;19,20,21;,
  3;21,20,22;,
  3;21,22,23;,
  3;23,22,24;,
  3;23,24,25;,
  3;25,24,26;,
  3;25,26,27;,
  3;27,26,28;,
  3;27,28,29;,
  3;29,28,30;,
  3;29,30,31;,
  3;31,30,32;,
  3;31,32,33;,
  3;33,32,34;,
  3;33,34,35;,
  3;35,34,36;,
  3;35,36,37;,
  3;37,36,38;,
  3;37,38,39;,
  3;39,38,8;,
  3;39,8,9;,
  3;38,36,34;,
  3;38,34,32;,
  3;38,32,30;,
  3;38,30,28;,
  3;38,28,26;,
  3;38,26,24;,
  3;38,24,22;,
  3;38,22,20;,
  3;38,20,18;,
  3;38,18,16;,
  3;38,16,14;,
  3;38,14,12;,
  3;38,12,10;,
  3;38,10,8;,
  3;9,11,13;,
  3;9,13,15;,
  3;9,15,17;,
  3;9,17,19;,
  3;9,19,21;,
  3;9,21,23;,
  3;9,23,25;,
  3;9,25,27;,
  3;9,27,29;,
  3;9,29,31;,
  3;9,31,33;,
  3;9,33,35;,
  3;9,35,37;,
  3;9,37,39;,
  3;41,40,42;,
  3;41,42,43;,
  3;43,42,44;,
  3;43,44,45;,
  3;45,44,46;,
  3;45,46,47;,
  3;47,46,48;,
  3;47,48,49;,
  3;49,48,50;,
  3;49,50,51;,
  3;51,50,52;,
  3;51,52,53;,
  3;53,52,54;,
  3;53,54,55;,
  3;55,54,56;,
  3;55,56,57;,
  3;57,56,58;,
  3;57,58,59;,
  3;59,58,60;,
  3;59,60,61;,
  3;61,60,62;,
  3;61,62,63;,
  3;63,62,64;,
  3;63,64,65;,
  3;65,64,66;,
  3;65,66,67;,
  3;67,66,68;,
  3;67,68,69;,
  3;69,68,70;,
  3;69,70,71;,
  3;71,70,40;,
  3;71,40,41;,
  3;70,68,66;,
  3;70,66,64;,
  3;70,64,62;,
  3;70,62,60;,
  3;70,60,58;,
  3;70,58,56;,
  3;70,56,54;,
  3;70,54,52;,
  3;70,52,50;,
  3;70,50,48;,
  3;70,48,46;,
  3;70,46,44;,
  3;70,44,42;,
  3;70,42,40;,
  3;41,43,45;,
  3;41,45,47;,
  3;41,47,49;,
  3;41,49,51;,
  3;41,51,53;,
  3;41,53,55;,
  3;41,55,57;,
  3;41,57,59;,
  3;41,59,61;,
  3;41,61,63;,
  3;41,63,65;,
  3;41,65,67;,
  3;41,67,69;,
  3;41,69,71;,
  3;72,72,72;,
  3;73,73,73;,
  3;74,74,74;,
  3;75,75,75;,
  3;77,76,78;,
  3;77,78,79;,
  3;79,78,80;,
  3;79,80,81;,
  3;81,80,82;,
  3;81,82,83;,
  3;83,82,84;,
  3;83,84,85;,
  3;85,84,86;,
  3;85,86,87;,
  3;87,86,88;,
  3;87,88,89;,
  3;89,88,90;,
  3;89,90,91;,
  3;91,90,92;,
  3;91,92,93;,
  3;93,92,94;,
  3;93,94,95;,
  3;95,94,96;,
  3;95,96,97;,
  3;97,96,98;,
  3;97,98,99;,
  3;99,98,100;,
  3;99,100,101;,
  3;101,100,102;,
  3;101,102,103;,
  3;103,102,104;,
  3;103,104,105;,
  3;105,104,106;,
  3;105,106,107;,
  3;107,106,76;,
  3;107,76,77;,
  3;106,104,102;,
  3;106,102,100;,
  3;106,100,98;,
  3;106,98,96;,
  3;106,96,94;,
  3;106,94,92;,
  3;106,92,90;,
  3;106,90,88;,
  3;106,88,86;,
  3;106,86,84;,
  3;106,84,82;,
  3;106,82,80;,
  3;106,80,78;,
  3;106,78,76;,
  3;77,79,81;,
  3;77,81,83;,
  3;77,83,85;,
  3;77,85,87;,
  3;77,87,89;,
  3;77,89,91;,
  3;77,91,93;,
  3;77,93,95;,
  3;77,95,97;,
  3;77,97,99;,
  3;77,99,101;,
  3;77,101,103;,
  3;77,103,105;,
  3;77,105,107;,
  3;109,108,110;,
  3;109,110,111;,
  3;111,110,112;,
  3;111,112,113;,
  3;113,112,114;,
  3;113,114,115;,
  3;115,114,116;,
  3;115,116,117;,
  3;117,116,118;,
  3;117,118,119;,
  3;119,118,120;,
  3;119,120,121;,
  3;121,120,122;,
  3;121,122,123;,
  3;123,122,124;,
  3;123,124,125;,
  3;125,124,126;,
  3;125,126,127;,
  3;127,126,128;,
  3;127,128,129;,
  3;129,128,130;,
  3;129,130,131;,
  3;131,130,132;,
  3;131,132,133;,
  3;133,132,134;,
  3;133,134,135;,
  3;135,134,136;,
  3;135,136,137;,
  3;137,136,138;,
  3;137,138,139;,
  3;139,138,108;,
  3;139,108,109;,
  3;138,136,134;,
  3;138,134,132;,
  3;138,132,130;,
  3;138,130,128;,
  3;138,128,126;,
  3;138,126,124;,
  3;138,124,122;,
  3;138,122,120;,
  3;138,120,118;,
  3;138,118,116;,
  3;138,116,114;,
  3;138,114,112;,
  3;138,112,110;,
  3;138,110,108;,
  3;109,111,113;,
  3;109,113,115;,
  3;109,115,117;,
  3;109,117,119;,
  3;109,119,121;,
  3;109,121,123;,
  3;109,123,125;,
  3;109,125,127;,
  3;109,127,129;,
  3;109,129,131;,
  3;109,131,133;,
  3;109,133,135;,
  3;109,135,137;,
  3;109,137,139;,
  3;140,140,140;,
  3;141,141,141;,
  3;142,142,142;,
  3;143,143,143;,
  3;144,144,144;,
  3;145,145,145;,
  3;146,146,146;,
  3;147,147,147;,
  3;148,148,148;,
  3;149,149,149;,
  3;150,150,150;,
  3;151,151,151;,
  3;152,152,152;,
  3;153,153,153;,
  3;154,154,154;,
  3;155,155,155;,
  3;156,156,156;,
  3;157,157,157;,
  3;158,158,158;,
  3;159,159,159;,
  3;160,160,160;,
  3;161,161,161;,
  3;162,162,162;,
  3;163,163,163;,
  3;164,164,164;,
  3;165,165,165;,
  3;166,166,166;,
  3;167,167,167;,
  3;168,168,168;,
  3;169,169,169;,
  3;170,170,170;,
  3;171,171,171;,
  3;172,172,172;,
  3;173,173,173;,
  3;174,174,174;,
  3;175,175,175;,
  3;176,176,176;,
  3;177,177,177;,
  3;178,178,178;,
  3;179,179,179;,
  3;180,180,180;,
  3;181,181,181;,
  3;182,182,182;,
  3;183,183,183;,
  3;184,184,184;,
  3;185,185,185;,
  3;186,186,186;,
  3;187,187,187;,
  3;188,188,188;,
  3;189,189,189;,
  3;190,190,190;,
  3;191,191,191;,
  3;192,192,192;,
  3;193,193,193;,
  3;194,194,194;,
  3;195,195,195;,
  3;196,196,196;,
  3;197,197,197;,
  3;198,198,198;,
  3;199,199,199;,
  3;200,200,200;,
  3;201,201,201;,
  3;202,202,202;,
  3;203,203,203;,
  3;204,204,204;,
  3;205,205,205;,
  3;206,206,206;,
  3;207,207,207;,
  3;208,208,208;,
  3;209,209,209;,
  3;210,210,210;,
  3;211,211,211;,
  3;212,212,212;,
  3;213,213,213;,
  3;214,214,214;,
  3;215,215,215;,
  3;216,216,216;,
  3;217,217,217;,
  3;218,218,218;,
  3;219,219,219;,
  3;220,220,220;,
  3;221,221,221;,
  3;222,222,222;,
  3;223,223,223;,
  3;224,224,224;,
  3;225,225,225;,
  3;226,226,226;,
  3;227,227,227;,
  3;228,228,228;,
  3;229,229,229;,
  3;230,230,230;,
  3;231,231,231;,
  3;232,232,232;,
  3;233,233,233;,
  3;234,234,234;,
  3;235,235,235;,
  3;236,236,236;,
  3;237,237,237;,
  3;238,238,238;,
  3;239,239,239;,
  3;240,240,240;,
  3;241,241,241;,
  3;242,242,242;,
  3;243,243,243;,
  3;244,244,244;,
  3;245,245,245;,
  3;246,246,246;,
  3;247,247,247;,
  3;248,248,248;,
  3;249,249,249;,
  3;250,250,250;,
  3;251,251,251;,
  3;252,252,252;,
  3;253,253,253;,
  3;254,254,254;,
  3;255,255,255;,
  3;256,256,256;,
  3;257,257,257;,
  3;258,258,258;,
  3;259,259,259;,
  3;260,260,260;,
  3;261,261,261;,
  3;262,262,262;,
  3;263,263,263;,
  3;264,264,264;,
  3;265,265,265;,
  3;266,266,266;,
  3;267,267,267;,
  3;268,268,268;,
  3;269,269,269;,
  3;270,270,270;,
  3;271,271,271;,
  3;272,272,272;,
  3;273,273,273;,
  3;274,274,274;,
  3;275,275,275;,
  3;276,276,276;,
  3;277,277,277;,
  3;278,278,278;,
  3;279,279,279;,
  3;280,280,280;,
  3;281,281,281;,
  3;282,282,282;,
  3;283,283,283;;
 }
}