xof 0303txt 0032
template Vector {
 <3d82ab5e-62da-11cf-ab39-0020af71e433>
 FLOAT x;
 FLOAT y;
 FLOAT z;
}

template MeshFace {
 <3d82ab5f-62da-11cf-ab39-0020af71e433>
 DWORD nFaceVertexIndices;
 array DWORD faceVertexIndices[nFaceVertexIndices];
}

template Mesh {
 <3d82ab44-62da-11cf-ab39-0020af71e433>
 DWORD nVertices;
 array Vector vertices[nVertices];
 DWORD nFaces;
 array MeshFace faces[nFaces];
 [...]
}

template ColorRGBA {
 <35ff44e0-6c7c-11cf-8f52-0040333594a3>
 FLOAT red;
 FLOAT green;
 FLOAT blue;
 FLOAT alpha;
}

template ColorRGB {
 <d3e16e81-7835-11cf-8f52-0040333594a3>
 FLOAT red;
 FLOAT green;
 FLOAT blue;
}

template Material {
 <3d82ab4d-62da-11cf-ab39-0020af71e433>
 ColorRGBA faceColor;
 FLOAT power;
 ColorRGB specularColor;
 ColorRGB emissiveColor;
 [...]
}

template MeshMaterialList {
 <f6f23f42-7686-11cf-8f52-0040333594a3>
 DWORD nMaterials;
 DWORD nFaceIndexes;
 array DWORD faceIndexes[nFaceIndexes];
 [Material <3d82ab4d-62da-11cf-ab39-0020af71e433>]
}

template Coords2d {
 <f6f23f44-7686-11cf-8f52-0040333594a3>
 FLOAT u;
 FLOAT v;
}

template MeshTextureCoords {
 <f6f23f40-7686-11cf-8f52-0040333594a3>
 DWORD nTextureCoords;
 array Coords2d textureCoords[nTextureCoords];
}

template MeshNormals {
 <f6f23f43-7686-11cf-8f52-0040333594a3>
 DWORD nNormals;
 array Vector normals[nNormals];
 DWORD nFaceNormals;
 array MeshFace faceNormals[nFaceNormals];
}


Mesh  {
 512;
 2.100000;0.300000;-3.400000;,
 2.100000;-0.700000;-3.400000;,
 1.700000;-0.700000;-3.400000;,
 1.700000;0.300000;-3.400000;,
 2.100000;0.300000;0.000000;,
 2.100000;-0.700000;0.000000;,
 1.700000;-0.700000;0.000000;,
 1.700000;0.300000;0.000000;,
 -5.500000;0.300000;-3.400000;,
 -5.500000;-0.700000;-3.400000;,
 -5.899999;-0.700000;-3.400000;,
 -5.899999;0.300000;-3.400000;,
 -5.500000;0.300000;0.000000;,
 -5.500000;-0.700000;0.000000;,
 -5.899999;-0.700000;0.000000;,
 -5.899999;0.300000;0.000000;,
 2.000000;5.000000;-3.200000;,
 2.000000;0.000000;-3.200000;,
 1.800000;0.000000;-3.200000;,
 1.800000;5.000000;-3.200000;,
 2.000000;5.000000;-3.000000;,
 2.000000;0.000000;-3.000000;,
 1.800000;0.000000;-3.000000;,
 1.800000;5.000000;-3.000000;,
 2.000000;5.000000;-2.500000;,
 2.000000;0.000000;-2.500000;,
 1.800000;0.000000;-2.500000;,
 1.800000;5.000000;-2.500000;,
 2.000000;5.000000;-2.300000;,
 2.000000;0.000000;-2.300000;,
 1.800000;0.000000;-2.300000;,
 1.800000;5.000000;-2.300000;,
 2.000000;5.000000;-1.800000;,
 2.000000;0.000000;-1.800000;,
 1.800000;0.000000;-1.800000;,
 1.800000;5.000000;-1.800000;,
 2.000000;5.000000;-1.600000;,
 2.000000;0.000000;-1.600000;,
 1.800000;0.000000;-1.600000;,
 1.800000;5.000000;-1.600000;,
 2.000000;5.000000;-1.100000;,
 2.000000;0.000000;-1.100000;,
 1.800000;0.000000;-1.100000;,
 1.800000;5.000000;-1.100000;,
 2.000000;5.000000;-0.900000;,
 2.000000;0.000000;-0.900000;,
 1.800000;0.000000;-0.900000;,
 1.800000;5.000000;-0.900000;,
 2.000000;5.000000;-0.400000;,
 2.000000;0.000000;-0.400000;,
 1.800000;0.000000;-0.400000;,
 1.800000;5.000000;-0.400000;,
 2.000000;5.000000;-0.200000;,
 2.000000;0.000000;-0.200000;,
 1.800000;0.000000;-0.200000;,
 1.800000;5.000000;-0.200000;,
 2.000000;3.600000;-3.100000;,
 2.000000;3.400000;-3.100000;,
 1.800000;3.400000;-3.100000;,
 1.800000;3.600000;-3.100000;,
 2.000000;3.600000;-0.300000;,
 2.000000;3.400000;-0.300000;,
 1.800000;3.400000;-0.300000;,
 1.800000;3.600000;-0.300000;,
 1.800000;3.400000;-2.400000;,
 1.800000;3.600000;-2.400000;,
 1.200000;5.000000;-2.400000;,
 1.200000;5.199999;-2.400000;,
 2.000000;3.400000;-2.400000;,
 2.000000;3.600000;-2.400000;,
 2.600000;5.000000;-2.400000;,
 2.600000;5.199999;-2.400000;,
 1.800000;3.400000;-1.700000;,
 1.800000;3.600000;-1.700000;,
 1.200000;5.000000;-1.700000;,
 1.200000;5.199999;-1.700000;,
 2.000000;3.400000;-1.700000;,
 2.000000;3.600000;-1.700000;,
 2.600000;5.000000;-1.700000;,
 2.600000;5.199999;-1.700000;,
 1.800000;3.400000;-1.000000;,
 1.800000;3.600000;-1.000000;,
 1.200000;5.000000;-1.000000;,
 1.200000;5.199999;-1.000000;,
 2.000000;3.400000;-1.000000;,
 2.000000;3.600000;-1.000000;,
 2.600000;5.000000;-1.000000;,
 2.600000;5.199999;-1.000000;,
 1.800000;3.400000;-0.300000;,
 1.800000;3.600000;-0.300000;,
 1.200000;5.000000;-0.300000;,
 1.200000;5.199999;-0.300000;,
 2.000000;3.400000;-0.300000;,
 2.000000;3.600000;-0.300000;,
 2.600000;5.000000;-0.300000;,
 2.600000;5.199999;-0.300000;,
 1.900000;0.500000;-0.400000;,
 1.900000;0.300000;-0.400000;,
 1.900000;3.200000;-3.000000;,
 1.900000;3.400000;-3.000000;,
 1.900000;0.500000;-3.000000;,
 1.900000;0.300000;-3.000000;,
 1.900000;3.200000;-0.400000;,
 1.900000;3.400000;-0.400000;,
 -5.599999;5.000000;-3.200000;,
 -5.599999;0.000000;-3.200000;,
 -5.799999;0.000000;-3.200000;,
 -5.799999;5.000000;-3.200000;,
 -5.599999;5.000000;-3.000000;,
 -5.599999;0.000000;-3.000000;,
 -5.799999;0.000000;-3.000000;,
 -5.799999;5.000000;-3.000000;,
 -5.599999;5.000000;-2.500000;,
 -5.599999;0.000000;-2.500000;,
 -5.799999;0.000000;-2.500000;,
 -5.799999;5.000000;-2.500000;,
 -5.599999;5.000000;-2.300000;,
 -5.599999;0.000000;-2.300000;,
 -5.799999;0.000000;-2.300000;,
 -5.799999;5.000000;-2.300000;,
 -5.599999;5.000000;-1.800000;,
 -5.599999;0.000000;-1.800000;,
 -5.799999;0.000000;-1.800000;,
 -5.799999;5.000000;-1.800000;,
 -5.599999;5.000000;-1.600000;,
 -5.599999;0.000000;-1.600000;,
 -5.799999;0.000000;-1.600000;,
 -5.799999;5.000000;-1.600000;,
 -5.599999;5.000000;-1.100000;,
 -5.599999;0.000000;-1.100000;,
 -5.799999;0.000000;-1.100000;,
 -5.799999;5.000000;-1.100000;,
 -5.599999;5.000000;-0.900000;,
 -5.599999;0.000000;-0.900000;,
 -5.799999;0.000000;-0.900000;,
 -5.799999;5.000000;-0.900000;,
 -5.599999;5.000000;-0.400000;,
 -5.599999;0.000000;-0.400000;,
 -5.799999;0.000000;-0.400000;,
 -5.799999;5.000000;-0.400000;,
 -5.599999;5.000000;-0.200000;,
 -5.599999;0.000000;-0.200000;,
 -5.799999;0.000000;-0.200000;,
 -5.799999;5.000000;-0.200000;,
 -5.599999;3.600000;-3.100000;,
 -5.599999;3.400000;-3.100000;,
 -5.799999;3.400000;-3.100000;,
 -5.799999;3.600000;-3.100000;,
 -5.599999;3.600000;-0.300000;,
 -5.599999;3.400000;-0.300000;,
 -5.799999;3.400000;-0.300000;,
 -5.799999;3.600000;-0.300000;,
 -5.799999;3.400000;-2.400000;,
 -5.799999;3.600000;-2.400000;,
 -6.399999;5.000000;-2.400000;,
 -6.399999;5.199999;-2.400000;,
 -5.599999;3.400000;-2.400000;,
 -5.599999;3.600000;-2.400000;,
 -5.000000;5.000000;-2.400000;,
 -5.000000;5.199999;-2.400000;,
 -5.799999;3.400000;-1.700000;,
 -5.799999;3.600000;-1.700000;,
 -6.399999;5.000000;-1.700000;,
 -6.399999;5.199999;-1.700000;,
 -5.599999;3.400000;-1.700000;,
 -5.599999;3.600000;-1.700000;,
 -5.000000;5.000000;-1.700000;,
 -5.000000;5.199999;-1.700000;,
 -5.799999;3.400000;-1.000000;,
 -5.799999;3.600000;-1.000000;,
 -6.399999;5.000000;-1.000000;,
 -6.399999;5.199999;-1.000000;,
 -5.599999;3.400000;-1.000000;,
 -5.599999;3.600000;-1.000000;,
 -5.000000;5.000000;-1.000000;,
 -5.000000;5.199999;-1.000000;,
 -5.799999;3.400000;-0.300000;,
 -5.799999;3.600000;-0.300000;,
 -6.399999;5.000000;-0.300000;,
 -6.399999;5.199999;-0.300000;,
 -5.599999;3.400000;-0.300000;,
 -5.599999;3.600000;-0.300000;,
 -5.000000;5.000000;-0.300000;,
 -5.000000;5.199999;-0.300000;,
 -5.699999;0.500000;-0.400000;,
 -5.699999;0.300000;-0.400000;,
 -5.699999;3.200000;-3.000000;,
 -5.699999;3.400000;-3.000000;,
 -5.699999;0.500000;-3.000000;,
 -5.699999;0.300000;-3.000000;,
 -5.699999;3.200000;-0.400000;,
 -5.699999;3.400000;-0.400000;,
 -13.000000;5.000000;-3.250000;,
 -13.000000;5.000000;-2.950000;,
 -13.000000;5.400000;-3.250000;,
 -13.000000;5.400000;-2.950000;,
 7.000000;5.000000;-3.250000;,
 7.000000;5.000000;-2.950000;,
 7.000000;5.400000;-3.250000;,
 7.000000;5.400000;-2.950000;,
 7.000000;5.199999;-2.650000;,
 7.000000;5.000000;-2.650000;,
 -12.999999;5.000000;-2.650000;,
 -12.999999;5.199999;-2.650000;,
 7.000000;5.199999;-0.050000;,
 7.000000;5.000000;-0.050000;,
 -12.999999;5.000000;-0.050000;,
 -12.999999;5.199999;-0.050000;,
 7.000000;5.300000;-0.250000;,
 7.000000;5.199999;-0.250000;,
 -12.999999;5.199999;-0.250000;,
 -12.999999;5.300000;-0.250000;,
 7.000000;5.300000;-0.050000;,
 7.000000;5.199999;-0.050000;,
 -12.999999;5.199999;-0.050000;,
 -12.999999;5.300000;-0.050000;,
 7.000000;5.300000;-2.650000;,
 7.000000;5.199999;-2.650000;,
 -12.999999;5.199999;-2.650000;,
 -12.999999;5.300000;-2.650000;,
 7.000000;5.300000;-2.450000;,
 7.000000;5.199999;-2.450000;,
 -12.999999;5.199999;-2.450000;,
 -12.999999;5.300000;-2.450000;,
 0.040000;6.300000;-2.640000;,
 0.040000;5.300000;-2.640000;,
 -0.040000;5.300000;-2.640000;,
 -0.040000;6.300000;-2.640000;,
 0.040000;6.300000;-2.560000;,
 0.040000;5.300000;-2.560000;,
 -0.040000;5.300000;-2.560000;,
 -0.040000;6.300000;-2.560000;,
 1.540000;6.300000;-2.640000;,
 1.540000;5.300000;-2.640000;,
 1.460000;5.300000;-2.640000;,
 1.460000;6.300000;-2.640000;,
 1.540000;6.300000;-2.560000;,
 1.540000;5.300000;-2.560000;,
 1.460000;5.300000;-2.560000;,
 1.460000;6.300000;-2.560000;,
 3.040000;6.300000;-2.640000;,
 3.040000;5.300000;-2.640000;,
 2.960000;5.300000;-2.640000;,
 2.960000;6.300000;-2.640000;,
 3.040000;6.300000;-2.560000;,
 3.040000;5.300000;-2.560000;,
 2.960000;5.300000;-2.560000;,
 2.960000;6.300000;-2.560000;,
 4.539999;6.300000;-2.640000;,
 4.539999;5.300000;-2.640000;,
 4.460000;5.300000;-2.640000;,
 4.460000;6.300000;-2.640000;,
 4.539999;6.300000;-2.560000;,
 4.539999;5.300000;-2.560000;,
 4.460000;5.300000;-2.560000;,
 4.460000;6.300000;-2.560000;,
 6.039999;6.300000;-2.640000;,
 6.039999;5.300000;-2.640000;,
 5.960000;5.300000;-2.640000;,
 5.960000;6.300000;-2.640000;,
 6.039999;6.300000;-2.560000;,
 6.039999;5.300000;-2.560000;,
 5.960000;5.300000;-2.560000;,
 5.960000;6.300000;-2.560000;,
 -1.460000;6.300000;-2.640000;,
 -1.460000;5.300000;-2.640000;,
 -1.540000;5.300000;-2.640000;,
 -1.540000;6.300000;-2.640000;,
 -1.460000;6.300000;-2.560000;,
 -1.460000;5.300000;-2.560000;,
 -1.540000;5.300000;-2.560000;,
 -1.540000;6.300000;-2.560000;,
 -2.960000;6.300000;-2.640000;,
 -2.960000;5.300000;-2.640000;,
 -3.040000;5.300000;-2.640000;,
 -3.040000;6.300000;-2.640000;,
 -2.960000;6.300000;-2.560000;,
 -2.960000;5.300000;-2.560000;,
 -3.040000;5.300000;-2.560000;,
 -3.040000;6.300000;-2.560000;,
 -4.460000;6.300000;-2.640000;,
 -4.460000;5.300000;-2.640000;,
 -4.539999;5.300000;-2.640000;,
 -4.539999;6.300000;-2.640000;,
 -4.460000;6.300000;-2.560000;,
 -4.460000;5.300000;-2.560000;,
 -4.539999;5.300000;-2.560000;,
 -4.539999;6.300000;-2.560000;,
 -5.960000;6.300000;-2.640000;,
 -5.960000;5.300000;-2.640000;,
 -6.039999;5.300000;-2.640000;,
 -6.039999;6.300000;-2.640000;,
 -5.960000;6.300000;-2.560000;,
 -5.960000;5.300000;-2.560000;,
 -6.039999;5.300000;-2.560000;,
 -6.039999;6.300000;-2.560000;,
 -7.460000;6.300000;-2.640000;,
 -7.460000;5.300000;-2.640000;,
 -7.539999;5.300000;-2.640000;,
 -7.539999;6.300000;-2.640000;,
 -7.460000;6.300000;-2.560000;,
 -7.460000;5.300000;-2.560000;,
 -7.539999;5.300000;-2.560000;,
 -7.539999;6.300000;-2.560000;,
 -8.959999;6.300000;-2.640000;,
 -8.959999;5.300000;-2.640000;,
 -9.039999;5.300000;-2.640000;,
 -9.039999;6.300000;-2.640000;,
 -8.959999;6.300000;-2.560000;,
 -8.959999;5.300000;-2.560000;,
 -9.039999;5.300000;-2.560000;,
 -9.039999;6.300000;-2.560000;,
 -10.459999;6.300000;-2.640000;,
 -10.459999;5.300000;-2.640000;,
 -10.539999;5.300000;-2.640000;,
 -10.539999;6.300000;-2.640000;,
 -10.459999;6.300000;-2.560000;,
 -10.459999;5.300000;-2.560000;,
 -10.539999;5.300000;-2.560000;,
 -10.539999;6.300000;-2.560000;,
 -11.959999;6.300000;-2.640000;,
 -11.959999;5.300000;-2.640000;,
 -12.039999;5.300000;-2.640000;,
 -12.039999;6.300000;-2.640000;,
 -11.959999;6.300000;-2.560000;,
 -11.959999;5.300000;-2.560000;,
 -12.039999;5.300000;-2.560000;,
 -12.039999;6.300000;-2.560000;,
 7.000000;6.300000;-2.640000;,
 7.000000;6.239999;-2.640000;,
 -12.999999;6.239999;-2.640000;,
 -12.999999;6.300000;-2.640000;,
 7.000000;6.300000;-2.560000;,
 7.000000;6.239999;-2.560000;,
 -12.999999;6.239999;-2.560000;,
 -12.999999;6.300000;-2.560000;,
 7.000000;6.059999;-2.640000;,
 7.000000;5.940000;-2.640000;,
 -12.999999;5.940000;-2.640000;,
 -12.999999;6.059999;-2.640000;,
 7.000000;6.059999;-2.560000;,
 7.000000;5.940000;-2.560000;,
 -12.999999;5.940000;-2.560000;,
 -12.999999;6.059999;-2.560000;,
 7.000000;5.820000;-2.640000;,
 7.000000;5.780000;-2.640000;,
 -12.999999;5.780000;-2.640000;,
 -12.999999;5.820000;-2.640000;,
 7.000000;5.820000;-2.560000;,
 7.000000;5.780000;-2.560000;,
 -12.999999;5.780000;-2.560000;,
 -12.999999;5.820000;-2.560000;,
 7.000000;5.619999;-2.640000;,
 7.000000;5.579999;-2.640000;,
 -12.999999;5.579999;-2.640000;,
 -12.999999;5.619999;-2.640000;,
 7.000000;5.619999;-2.560000;,
 7.000000;5.579999;-2.560000;,
 -12.999999;5.579999;-2.560000;,
 -12.999999;5.619999;-2.560000;,
 7.000000;5.420000;-2.640000;,
 7.000000;5.380000;-2.640000;,
 -12.999999;5.380000;-2.640000;,
 -12.999999;5.420000;-2.640000;,
 7.000000;5.420000;-2.560000;,
 7.000000;5.380000;-2.560000;,
 -12.999999;5.380000;-2.560000;,
 -12.999999;5.420000;-2.560000;,
 0.040000;6.300000;-0.170000;,
 0.040000;5.300000;-0.170000;,
 -0.040000;5.300000;-0.170000;,
 -0.040000;6.300000;-0.170000;,
 0.040000;6.300000;-0.090000;,
 0.040000;5.300000;-0.090000;,
 -0.040000;5.300000;-0.090000;,
 -0.040000;6.300000;-0.090000;,
 1.540000;6.300000;-0.170000;,
 1.540000;5.300000;-0.170000;,
 1.460000;5.300000;-0.170000;,
 1.460000;6.300000;-0.170000;,
 1.540000;6.300000;-0.090000;,
 1.540000;5.300000;-0.090000;,
 1.460000;5.300000;-0.090000;,
 1.460000;6.300000;-0.090000;,
 3.040000;6.300000;-0.170000;,
 3.040000;5.300000;-0.170000;,
 2.960000;5.300000;-0.170000;,
 2.960000;6.300000;-0.170000;,
 3.040000;6.300000;-0.090000;,
 3.040000;5.300000;-0.090000;,
 2.960000;5.300000;-0.090000;,
 2.960000;6.300000;-0.090000;,
 4.539999;6.300000;-0.170000;,
 4.539999;5.300000;-0.170000;,
 4.460000;5.300000;-0.170000;,
 4.460000;6.300000;-0.170000;,
 4.539999;6.300000;-0.090000;,
 4.539999;5.300000;-0.090000;,
 4.460000;5.300000;-0.090000;,
 4.460000;6.300000;-0.090000;,
 6.039999;6.300000;-0.170000;,
 6.039999;5.300000;-0.170000;,
 5.960000;5.300000;-0.170000;,
 5.960000;6.300000;-0.170000;,
 6.039999;6.300000;-0.090000;,
 6.039999;5.300000;-0.090000;,
 5.960000;5.300000;-0.090000;,
 5.960000;6.300000;-0.090000;,
 -1.460000;6.300000;-0.170000;,
 -1.460000;5.300000;-0.170000;,
 -1.540000;5.300000;-0.170000;,
 -1.540000;6.300000;-0.170000;,
 -1.460000;6.300000;-0.090000;,
 -1.460000;5.300000;-0.090000;,
 -1.540000;5.300000;-0.090000;,
 -1.540000;6.300000;-0.090000;,
 -2.960000;6.300000;-0.170000;,
 -2.960000;5.300000;-0.170000;,
 -3.040000;5.300000;-0.170000;,
 -3.040000;6.300000;-0.170000;,
 -2.960000;6.300000;-0.090000;,
 -2.960000;5.300000;-0.090000;,
 -3.040000;5.300000;-0.090000;,
 -3.040000;6.300000;-0.090000;,
 -4.460000;6.300000;-0.170000;,
 -4.460000;5.300000;-0.170000;,
 -4.539999;5.300000;-0.170000;,
 -4.539999;6.300000;-0.170000;,
 -4.460000;6.300000;-0.090000;,
 -4.460000;5.300000;-0.090000;,
 -4.539999;5.300000;-0.090000;,
 -4.539999;6.300000;-0.090000;,
 -5.960000;6.300000;-0.170000;,
 -5.960000;5.300000;-0.170000;,
 -6.039999;5.300000;-0.170000;,
 -6.039999;6.300000;-0.170000;,
 -5.960000;6.300000;-0.090000;,
 -5.960000;5.300000;-0.090000;,
 -6.039999;5.300000;-0.090000;,
 -6.039999;6.300000;-0.090000;,
 -7.460000;6.300000;-0.170000;,
 -7.460000;5.300000;-0.170000;,
 -7.539999;5.300000;-0.170000;,
 -7.539999;6.300000;-0.170000;,
 -7.460000;6.300000;-0.090000;,
 -7.460000;5.300000;-0.090000;,
 -7.539999;5.300000;-0.090000;,
 -7.539999;6.300000;-0.090000;,
 -8.959999;6.300000;-0.170000;,
 -8.959999;5.300000;-0.170000;,
 -9.039999;5.300000;-0.170000;,
 -9.039999;6.300000;-0.170000;,
 -8.959999;6.300000;-0.090000;,
 -8.959999;5.300000;-0.090000;,
 -9.039999;5.300000;-0.090000;,
 -9.039999;6.300000;-0.090000;,
 -10.459999;6.300000;-0.170000;,
 -10.459999;5.300000;-0.170000;,
 -10.539999;5.300000;-0.170000;,
 -10.539999;6.300000;-0.170000;,
 -10.459999;6.300000;-0.090000;,
 -10.459999;5.300000;-0.090000;,
 -10.539999;5.300000;-0.090000;,
 -10.539999;6.300000;-0.090000;,
 -11.959999;6.300000;-0.170000;,
 -11.959999;5.300000;-0.170000;,
 -12.039999;5.300000;-0.170000;,
 -12.039999;6.300000;-0.170000;,
 -11.959999;6.300000;-0.090000;,
 -11.959999;5.300000;-0.090000;,
 -12.039999;5.300000;-0.090000;,
 -12.039999;6.300000;-0.090000;,
 7.000000;6.300000;-0.170000;,
 7.000000;6.239999;-0.170000;,
 -12.999999;6.239999;-0.170000;,
 -12.999999;6.300000;-0.170000;,
 7.000000;6.300000;-0.090000;,
 7.000000;6.239999;-0.090000;,
 -12.999999;6.239999;-0.090000;,
 -12.999999;6.300000;-0.090000;,
 7.000000;6.059999;-0.170000;,
 7.000000;5.940000;-0.170000;,
 -12.999999;5.940000;-0.170000;,
 -12.999999;6.059999;-0.170000;,
 7.000000;6.059999;-0.090000;,
 7.000000;5.940000;-0.090000;,
 -12.999999;5.940000;-0.090000;,
 -12.999999;6.059999;-0.090000;,
 7.000000;5.820000;-0.170000;,
 7.000000;5.780000;-0.170000;,
 -12.999999;5.780000;-0.170000;,
 -12.999999;5.820000;-0.170000;,
 7.000000;5.820000;-0.090000;,
 7.000000;5.780000;-0.090000;,
 -12.999999;5.780000;-0.090000;,
 -12.999999;5.820000;-0.090000;,
 7.000000;5.619999;-0.170000;,
 7.000000;5.579999;-0.170000;,
 -12.999999;5.579999;-0.170000;,
 -12.999999;5.619999;-0.170000;,
 7.000000;5.619999;-0.090000;,
 7.000000;5.579999;-0.090000;,
 -12.999999;5.579999;-0.090000;,
 -12.999999;5.619999;-0.090000;,
 7.000000;5.420000;-0.170000;,
 7.000000;5.380000;-0.170000;,
 -12.999999;5.380000;-0.170000;,
 -12.999999;5.420000;-0.170000;,
 7.000000;5.420000;-0.090000;,
 7.000000;5.380000;-0.090000;,
 -12.999999;5.380000;-0.090000;,
 -12.999999;5.420000;-0.090000;;
 728;
 3;0,1,2;,
 3;0,2,3;,
 3;3,2,6;,
 3;3,6,7;,
 3;7,6,5;,
 3;7,5,4;,
 3;4,5,1;,
 3;4,1,0;,
 3;0,3,7;,
 3;0,7,4;,
 3;1,5,6;,
 3;1,6,2;,
 3;8,9,10;,
 3;8,10,11;,
 3;11,10,14;,
 3;11,14,15;,
 3;15,14,13;,
 3;15,13,12;,
 3;12,13,9;,
 3;12,9,8;,
 3;8,11,15;,
 3;8,15,12;,
 3;9,13,14;,
 3;9,14,10;,
 3;16,17,18;,
 3;16,18,19;,
 3;19,18,22;,
 3;19,22,23;,
 3;23,22,21;,
 3;23,21,20;,
 3;20,21,17;,
 3;20,17,16;,
 3;16,19,23;,
 3;16,23,20;,
 3;17,21,22;,
 3;17,22,18;,
 3;24,25,26;,
 3;24,26,27;,
 3;27,26,30;,
 3;27,30,31;,
 3;31,30,29;,
 3;31,29,28;,
 3;28,29,25;,
 3;28,25,24;,
 3;24,27,31;,
 3;24,31,28;,
 3;25,29,30;,
 3;25,30,26;,
 3;32,33,34;,
 3;32,34,35;,
 3;35,34,38;,
 3;35,38,39;,
 3;39,38,37;,
 3;39,37,36;,
 3;36,37,33;,
 3;36,33,32;,
 3;32,35,39;,
 3;32,39,36;,
 3;33,37,38;,
 3;33,38,34;,
 3;40,41,42;,
 3;40,42,43;,
 3;43,42,46;,
 3;43,46,47;,
 3;47,46,45;,
 3;47,45,44;,
 3;44,45,41;,
 3;44,41,40;,
 3;40,43,47;,
 3;40,47,44;,
 3;41,45,46;,
 3;41,46,42;,
 3;48,49,50;,
 3;48,50,51;,
 3;51,50,54;,
 3;51,54,55;,
 3;55,54,53;,
 3;55,53,52;,
 3;52,53,49;,
 3;52,49,48;,
 3;48,51,55;,
 3;48,55,52;,
 3;49,53,54;,
 3;49,54,50;,
 3;56,57,58;,
 3;56,58,59;,
 3;59,58,62;,
 3;59,62,63;,
 3;63,62,61;,
 3;63,61,60;,
 3;60,61,57;,
 3;60,57,56;,
 3;56,59,63;,
 3;56,63,60;,
 3;57,61,62;,
 3;57,62,58;,
 3;64,65,67;,
 3;64,67,66;,
 3;66,67,65;,
 3;66,65,64;,
 3;68,69,71;,
 3;68,71,70;,
 3;70,71,69;,
 3;70,69,68;,
 3;72,73,75;,
 3;72,75,74;,
 3;74,75,73;,
 3;74,73,72;,
 3;76,77,79;,
 3;76,79,78;,
 3;78,79,77;,
 3;78,77,76;,
 3;80,81,83;,
 3;80,83,82;,
 3;82,83,81;,
 3;82,81,80;,
 3;84,85,87;,
 3;84,87,86;,
 3;86,87,85;,
 3;86,85,84;,
 3;88,89,91;,
 3;88,91,90;,
 3;90,91,89;,
 3;90,89,88;,
 3;92,93,95;,
 3;92,95,94;,
 3;94,95,93;,
 3;94,93,92;,
 3;96,97,99;,
 3;96,99,98;,
 3;98,99,97;,
 3;98,97,96;,
 3;100,101,103;,
 3;100,103,102;,
 3;102,103,101;,
 3;102,101,100;,
 3;104,105,106;,
 3;104,106,107;,
 3;107,106,110;,
 3;107,110,111;,
 3;111,110,109;,
 3;111,109,108;,
 3;108,109,105;,
 3;108,105,104;,
 3;104,107,111;,
 3;104,111,108;,
 3;105,109,110;,
 3;105,110,106;,
 3;112,113,114;,
 3;112,114,115;,
 3;115,114,118;,
 3;115,118,119;,
 3;119,118,117;,
 3;119,117,116;,
 3;116,117,113;,
 3;116,113,112;,
 3;112,115,119;,
 3;112,119,116;,
 3;113,117,118;,
 3;113,118,114;,
 3;120,121,122;,
 3;120,122,123;,
 3;123,122,126;,
 3;123,126,127;,
 3;127,126,125;,
 3;127,125,124;,
 3;124,125,121;,
 3;124,121,120;,
 3;120,123,127;,
 3;120,127,124;,
 3;121,125,126;,
 3;121,126,122;,
 3;128,129,130;,
 3;128,130,131;,
 3;131,130,134;,
 3;131,134,135;,
 3;135,134,133;,
 3;135,133,132;,
 3;132,133,129;,
 3;132,129,128;,
 3;128,131,135;,
 3;128,135,132;,
 3;129,133,134;,
 3;129,134,130;,
 3;136,137,138;,
 3;136,138,139;,
 3;139,138,142;,
 3;139,142,143;,
 3;143,142,141;,
 3;143,141,140;,
 3;140,141,137;,
 3;140,137,136;,
 3;136,139,143;,
 3;136,143,140;,
 3;137,141,142;,
 3;137,142,138;,
 3;144,145,146;,
 3;144,146,147;,
 3;147,146,150;,
 3;147,150,151;,
 3;151,150,149;,
 3;151,149,148;,
 3;148,149,145;,
 3;148,145,144;,
 3;144,147,151;,
 3;144,151,148;,
 3;145,149,150;,
 3;145,150,146;,
 3;152,153,155;,
 3;152,155,154;,
 3;154,155,153;,
 3;154,153,152;,
 3;156,157,159;,
 3;156,159,158;,
 3;158,159,157;,
 3;158,157,156;,
 3;160,161,163;,
 3;160,163,162;,
 3;162,163,161;,
 3;162,161,160;,
 3;164,165,167;,
 3;164,167,166;,
 3;166,167,165;,
 3;166,165,164;,
 3;168,169,171;,
 3;168,171,170;,
 3;170,171,169;,
 3;170,169,168;,
 3;172,173,175;,
 3;172,175,174;,
 3;174,175,173;,
 3;174,173,172;,
 3;176,177,179;,
 3;176,179,178;,
 3;178,179,177;,
 3;178,177,176;,
 3;180,181,183;,
 3;180,183,182;,
 3;182,183,181;,
 3;182,181,180;,
 3;184,185,187;,
 3;184,187,186;,
 3;186,187,185;,
 3;186,185,184;,
 3;188,189,191;,
 3;188,191,190;,
 3;190,191,189;,
 3;190,189,188;,
 3;192,194,198;,
 3;192,198,196;,
 3;196,198,194;,
 3;196,194,192;,
 3;193,192,196;,
 3;193,196,197;,
 3;197,196,192;,
 3;197,192,193;,
 3;195,193,197;,
 3;195,197,199;,
 3;199,197,193;,
 3;199,193,195;,
 3;200,201,202;,
 3;200,202,203;,
 3;203,202,206;,
 3;203,206,207;,
 3;207,206,205;,
 3;207,205,204;,
 3;204,205,201;,
 3;204,201,200;,
 3;200,203,207;,
 3;200,207,204;,
 3;201,205,206;,
 3;201,206,202;,
 3;208,209,210;,
 3;208,210,211;,
 3;211,210,214;,
 3;211,214,215;,
 3;215,214,213;,
 3;215,213,212;,
 3;212,213,209;,
 3;212,209,208;,
 3;208,211,215;,
 3;208,215,212;,
 3;209,213,214;,
 3;209,214,210;,
 3;216,217,218;,
 3;216,218,219;,
 3;219,218,222;,
 3;219,222,223;,
 3;223,222,221;,
 3;223,221,220;,
 3;220,221,217;,
 3;220,217,216;,
 3;216,219,223;,
 3;216,223,220;,
 3;217,221,222;,
 3;217,222,218;,
 3;224,225,226;,
 3;224,226,227;,
 3;227,226,230;,
 3;227,230,231;,
 3;231,230,229;,
 3;231,229,228;,
 3;228,229,225;,
 3;228,225,224;,
 3;224,227,231;,
 3;224,231,228;,
 3;225,229,230;,
 3;225,230,226;,
 3;232,233,234;,
 3;232,234,235;,
 3;235,234,238;,
 3;235,238,239;,
 3;239,238,237;,
 3;239,237,236;,
 3;236,237,233;,
 3;236,233,232;,
 3;232,235,239;,
 3;232,239,236;,
 3;233,237,238;,
 3;233,238,234;,
 3;240,241,242;,
 3;240,242,243;,
 3;243,242,246;,
 3;243,246,247;,
 3;247,246,245;,
 3;247,245,244;,
 3;244,245,241;,
 3;244,241,240;,
 3;240,243,247;,
 3;240,247,244;,
 3;241,245,246;,
 3;241,246,242;,
 3;248,249,250;,
 3;248,250,251;,
 3;251,250,254;,
 3;251,254,255;,
 3;255,254,253;,
 3;255,253,252;,
 3;252,253,249;,
 3;252,249,248;,
 3;248,251,255;,
 3;248,255,252;,
 3;249,253,254;,
 3;249,254,250;,
 3;256,257,258;,
 3;256,258,259;,
 3;259,258,262;,
 3;259,262,263;,
 3;263,262,261;,
 3;263,261,260;,
 3;260,261,257;,
 3;260,257,256;,
 3;256,259,263;,
 3;256,263,260;,
 3;257,261,262;,
 3;257,262,258;,
 3;264,265,266;,
 3;264,266,267;,
 3;267,266,270;,
 3;267,270,271;,
 3;271,270,269;,
 3;271,269,268;,
 3;268,269,265;,
 3;268,265,264;,
 3;264,267,271;,
 3;264,271,268;,
 3;265,269,270;,
 3;265,270,266;,
 3;272,273,274;,
 3;272,274,275;,
 3;275,274,278;,
 3;275,278,279;,
 3;279,278,277;,
 3;279,277,276;,
 3;276,277,273;,
 3;276,273,272;,
 3;272,275,279;,
 3;272,279,276;,
 3;273,277,278;,
 3;273,278,274;,
 3;280,281,282;,
 3;280,282,283;,
 3;283,282,286;,
 3;283,286,287;,
 3;287,286,285;,
 3;287,285,284;,
 3;284,285,281;,
 3;284,281,280;,
 3;280,283,287;,
 3;280,287,284;,
 3;281,285,286;,
 3;281,286,282;,
 3;288,289,290;,
 3;288,290,291;,
 3;291,290,294;,
 3;291,294,295;,
 3;295,294,293;,
 3;295,293,292;,
 3;292,293,289;,
 3;292,289,288;,
 3;288,291,295;,
 3;288,295,292;,
 3;289,293,294;,
 3;289,294,290;,
 3;296,297,298;,
 3;296,298,299;,
 3;299,298,302;,
 3;299,302,303;,
 3;303,302,301;,
 3;303,301,300;,
 3;300,301,297;,
 3;300,297,296;,
 3;296,299,303;,
 3;296,303,300;,
 3;297,301,302;,
 3;297,302,298;,
 3;304,305,306;,
 3;304,306,307;,
 3;307,306,310;,
 3;307,310,311;,
 3;311,310,309;,
 3;311,309,308;,
 3;308,309,305;,
 3;308,305,304;,
 3;304,307,311;,
 3;304,311,308;,
 3;305,309,310;,
 3;305,310,306;,
 3;312,313,314;,
 3;312,314,315;,
 3;315,314,318;,
 3;315,318,319;,
 3;319,318,317;,
 3;319,317,316;,
 3;316,317,313;,
 3;316,313,312;,
 3;312,315,319;,
 3;312,319,316;,
 3;313,317,318;,
 3;313,318,314;,
 3;320,321,322;,
 3;320,322,323;,
 3;323,322,326;,
 3;323,326,327;,
 3;327,326,325;,
 3;327,325,324;,
 3;324,325,321;,
 3;324,321,320;,
 3;320,323,327;,
 3;320,327,324;,
 3;321,325,326;,
 3;321,326,322;,
 3;328,329,330;,
 3;328,330,331;,
 3;331,330,334;,
 3;331,334,335;,
 3;335,334,333;,
 3;335,333,332;,
 3;332,333,329;,
 3;332,329,328;,
 3;328,331,335;,
 3;328,335,332;,
 3;329,333,334;,
 3;329,334,330;,
 3;336,337,338;,
 3;336,338,339;,
 3;339,338,342;,
 3;339,342,343;,
 3;343,342,341;,
 3;343,341,340;,
 3;340,341,337;,
 3;340,337,336;,
 3;336,339,343;,
 3;336,343,340;,
 3;337,341,342;,
 3;337,342,338;,
 3;344,345,346;,
 3;344,346,347;,
 3;347,346,350;,
 3;347,350,351;,
 3;351,350,349;,
 3;351,349,348;,
 3;348,349,345;,
 3;348,345,344;,
 3;344,347,351;,
 3;344,351,348;,
 3;345,349,350;,
 3;345,350,346;,
 3;352,353,354;,
 3;352,354,355;,
 3;355,354,358;,
 3;355,358,359;,
 3;359,358,357;,
 3;359,357,356;,
 3;356,357,353;,
 3;356,353,352;,
 3;352,355,359;,
 3;352,359,356;,
 3;353,357,358;,
 3;353,358,354;,
 3;360,361,362;,
 3;360,362,363;,
 3;363,362,366;,
 3;363,366,367;,
 3;367,366,365;,
 3;367,365,364;,
 3;364,365,361;,
 3;364,361,360;,
 3;360,363,367;,
 3;360,367,364;,
 3;361,365,366;,
 3;361,366,362;,
 3;368,369,370;,
 3;368,370,371;,
 3;371,370,374;,
 3;371,374,375;,
 3;375,374,373;,
 3;375,373,372;,
 3;372,373,369;,
 3;372,369,368;,
 3;368,371,375;,
 3;368,375,372;,
 3;369,373,374;,
 3;369,374,370;,
 3;376,377,378;,
 3;376,378,379;,
 3;379,378,382;,
 3;379,382,383;,
 3;383,382,381;,
 3;383,381,380;,
 3;380,381,377;,
 3;380,377,376;,
 3;376,379,383;,
 3;376,383,380;,
 3;377,381,382;,
 3;377,382,378;,
 3;384,385,386;,
 3;384,386,387;,
 3;387,386,390;,
 3;387,390,391;,
 3;391,390,389;,
 3;391,389,388;,
 3;388,389,385;,
 3;388,385,384;,
 3;384,387,391;,
 3;384,391,388;,
 3;385,389,390;,
 3;385,390,386;,
 3;392,393,394;,
 3;392,394,395;,
 3;395,394,398;,
 3;395,398,399;,
 3;399,398,397;,
 3;399,397,396;,
 3;396,397,393;,
 3;396,393,392;,
 3;392,395,399;,
 3;392,399,396;,
 3;393,397,398;,
 3;393,398,394;,
 3;400,401,402;,
 3;400,402,403;,
 3;403,402,406;,
 3;403,406,407;,
 3;407,406,405;,
 3;407,405,404;,
 3;404,405,401;,
 3;404,401,400;,
 3;400,403,407;,
 3;400,407,404;,
 3;401,405,406;,
 3;401,406,402;,
 3;408,409,410;,
 3;408,410,411;,
 3;411,410,414;,
 3;411,414,415;,
 3;415,414,413;,
 3;415,413,412;,
 3;412,413,409;,
 3;412,409,408;,
 3;408,411,415;,
 3;408,415,412;,
 3;409,413,414;,
 3;409,414,410;,
 3;416,417,418;,
 3;416,418,419;,
 3;419,418,422;,
 3;419,422,423;,
 3;423,422,421;,
 3;423,421,420;,
 3;420,421,417;,
 3;420,417,416;,
 3;416,419,423;,
 3;416,423,420;,
 3;417,421,422;,
 3;417,422,418;,
 3;424,425,426;,
 3;424,426,427;,
 3;427,426,430;,
 3;427,430,431;,
 3;431,430,429;,
 3;431,429,428;,
 3;428,429,425;,
 3;428,425,424;,
 3;424,427,431;,
 3;424,431,428;,
 3;425,429,430;,
 3;425,430,426;,
 3;432,433,434;,
 3;432,434,435;,
 3;435,434,438;,
 3;435,438,439;,
 3;439,438,437;,
 3;439,437,436;,
 3;436,437,433;,
 3;436,433,432;,
 3;432,435,439;,
 3;432,439,436;,
 3;433,437,438;,
 3;433,438,434;,
 3;440,441,442;,
 3;440,442,443;,
 3;443,442,446;,
 3;443,446,447;,
 3;447,446,445;,
 3;447,445,444;,
 3;444,445,441;,
 3;444,441,440;,
 3;440,443,447;,
 3;440,447,444;,
 3;441,445,446;,
 3;441,446,442;,
 3;448,449,450;,
 3;448,450,451;,
 3;451,450,454;,
 3;451,454,455;,
 3;455,454,453;,
 3;455,453,452;,
 3;452,453,449;,
 3;452,449,448;,
 3;448,451,455;,
 3;448,455,452;,
 3;449,453,454;,
 3;449,454,450;,
 3;456,457,458;,
 3;456,458,459;,
 3;459,458,462;,
 3;459,462,463;,
 3;463,462,461;,
 3;463,461,460;,
 3;460,461,457;,
 3;460,457,456;,
 3;456,459,463;,
 3;456,463,460;,
 3;457,461,462;,
 3;457,462,458;,
 3;464,465,466;,
 3;464,466,467;,
 3;467,466,470;,
 3;467,470,471;,
 3;471,470,469;,
 3;471,469,468;,
 3;468,469,465;,
 3;468,465,464;,
 3;464,467,471;,
 3;464,471,468;,
 3;465,469,470;,
 3;465,470,466;,
 3;472,473,474;,
 3;472,474,475;,
 3;475,474,478;,
 3;475,478,479;,
 3;479,478,477;,
 3;479,477,476;,
 3;476,477,473;,
 3;476,473,472;,
 3;472,475,479;,
 3;472,479,476;,
 3;473,477,478;,
 3;473,478,474;,
 3;480,481,482;,
 3;480,482,483;,
 3;483,482,486;,
 3;483,486,487;,
 3;487,486,485;,
 3;487,485,484;,
 3;484,485,481;,
 3;484,481,480;,
 3;480,483,487;,
 3;480,487,484;,
 3;481,485,486;,
 3;481,486,482;,
 3;488,489,490;,
 3;488,490,491;,
 3;491,490,494;,
 3;491,494,495;,
 3;495,494,493;,
 3;495,493,492;,
 3;492,493,489;,
 3;492,489,488;,
 3;488,491,495;,
 3;488,495,492;,
 3;489,493,494;,
 3;489,494,490;,
 3;496,497,498;,
 3;496,498,499;,
 3;499,498,502;,
 3;499,502,503;,
 3;503,502,501;,
 3;503,501,500;,
 3;500,501,497;,
 3;500,497,496;,
 3;496,499,503;,
 3;496,503,500;,
 3;497,501,502;,
 3;497,502,498;,
 3;504,505,506;,
 3;504,506,507;,
 3;507,506,510;,
 3;507,510,511;,
 3;511,510,509;,
 3;511,509,508;,
 3;508,509,505;,
 3;508,505,504;,
 3;504,507,511;,
 3;504,511,508;,
 3;505,509,510;,
 3;505,510,506;;

 MeshMaterialList  {
  64;
  728;
  0,
  0,
  0,
  0,
  0,
  0,
  0,
  0,
  0,
  0,
  0,
  0,
  1,
  1,
  1,
  1,
  1,
  1,
  1,
  1,
  1,
  1,
  1,
  1,
  2,
  2,
  2,
  2,
  2,
  2,
  2,
  2,
  2,
  2,
  2,
  2,
  3,
  3,
  3,
  3,
  3,
  3,
  3,
  3,
  3,
  3,
  3,
  3,
  4,
  4,
  4,
  4,
  4,
  4,
  4,
  4,
  4,
  4,
  4,
  4,
  5,
  5,
  5,
  5,
  5,
  5,
  5,
  5,
  5,
  5,
  5,
  5,
  6,
  6,
  6,
  6,
  6,
  6,
  6,
  6,
  6,
  6,
  6,
  6,
  7,
  7,
  7,
  7,
  7,
  7,
  7,
  7,
  7,
  7,
  7,
  7,
  8,
  8,
  8,
  8,
  8,
  8,
  8,
  8,
  9,
  9,
  9,
  9,
  9,
  9,
  9,
  9,
  10,
  10,
  10,
  10,
  10,
  10,
  10,
  10,
  11,
  11,
  11,
  11,
  11,
  11,
  11,
  11,
  12,
  12,
  12,
  12,
  12,
  12,
  12,
  12,
  13,
  13,
  13,
  13,
  13,
  13,
  13,
  13,
  13,
  13,
  13,
  13,
  14,
  14,
  14,
  14,
  14,
  14,
  14,
  14,
  14,
  14,
  14,
  14,
  15,
  15,
  15,
  15,
  15,
  15,
  15,
  15,
  15,
  15,
  15,
  15,
  16,
  16,
  16,
  16,
  16,
  16,
  16,
  16,
  16,
  16,
  16,
  16,
  17,
  17,
  17,
  17,
  17,
  17,
  17,
  17,
  17,
  17,
  17,
  17,
  18,
  18,
  18,
  18,
  18,
  18,
  18,
  18,
  18,
  18,
  18,
  18,
  19,
  19,
  19,
  19,
  19,
  19,
  19,
  19,
  20,
  20,
  20,
  20,
  20,
  20,
  20,
  20,
  21,
  21,
  21,
  21,
  21,
  21,
  21,
  21,
  22,
  22,
  22,
  22,
  22,
  22,
  22,
  22,
  23,
  23,
  23,
  23,
  23,
  23,
  23,
  23,
  24,
  24,
  24,
  24,
  24,
  24,
  24,
  24,
  24,
  24,
  24,
  24,
  25,
  25,
  25,
  25,
  25,
  25,
  25,
  25,
  25,
  25,
  25,
  25,
  26,
  26,
  26,
  26,
  26,
  26,
  26,
  26,
  26,
  26,
  26,
  26,
  27,
  27,
  27,
  27,
  27,
  27,
  27,
  27,
  27,
  27,
  27,
  27,
  28,
  28,
  28,
  28,
  28,
  28,
  28,
  28,
  28,
  28,
  28,
  28,
  29,
  29,
  29,
  29,
  29,
  29,
  29,
  29,
  29,
  29,
  29,
  29,
  30,
  30,
  30,
  30,
  30,
  30,
  30,
  30,
  30,
  30,
  30,
  30,
  31,
  31,
  31,
  31,
  31,
  31,
  31,
  31,
  31,
  31,
  31,
  31,
  32,
  32,
  32,
  32,
  32,
  32,
  32,
  32,
  32,
  32,
  32,
  32,
  33,
  33,
  33,
  33,
  33,
  33,
  33,
  33,
  33,
  33,
  33,
  33,
  34,
  34,
  34,
  34,
  34,
  34,
  34,
  34,
  34,
  34,
  34,
  34,
  35,
  35,
  35,
  35,
  35,
  35,
  35,
  35,
  35,
  35,
  35,
  35,
  36,
  36,
  36,
  36,
  36,
  36,
  36,
  36,
  36,
  36,
  36,
  36,
  37,
  37,
  37,
  37,
  37,
  37,
  37,
  37,
  37,
  37,
  37,
  37,
  38,
  38,
  38,
  38,
  38,
  38,
  38,
  38,
  38,
  38,
  38,
  38,
  39,
  39,
  39,
  39,
  39,
  39,
  39,
  39,
  39,
  39,
  39,
  39,
  40,
  40,
  40,
  40,
  40,
  40,
  40,
  40,
  40,
  40,
  40,
  40,
  41,
  41,
  41,
  41,
  41,
  41,
  41,
  41,
  41,
  41,
  41,
  41,
  42,
  42,
  42,
  42,
  42,
  42,
  42,
  42,
  42,
  42,
  42,
  42,
  43,
  43,
  43,
  43,
  43,
  43,
  43,
  43,
  43,
  43,
  43,
  43,
  44,
  44,
  44,
  44,
  44,
  44,
  44,
  44,
  44,
  44,
  44,
  44,
  45,
  45,
  45,
  45,
  45,
  45,
  45,
  45,
  45,
  45,
  45,
  45,
  46,
  46,
  46,
  46,
  46,
  46,
  46,
  46,
  46,
  46,
  46,
  46,
  47,
  47,
  47,
  47,
  47,
  47,
  47,
  47,
  47,
  47,
  47,
  47,
  48,
  48,
  48,
  48,
  48,
  48,
  48,
  48,
  48,
  48,
  48,
  48,
  49,
  49,
  49,
  49,
  49,
  49,
  49,
  49,
  49,
  49,
  49,
  49,
  50,
  50,
  50,
  50,
  50,
  50,
  50,
  50,
  50,
  50,
  50,
  50,
  51,
  51,
  51,
  51,
  51,
  51,
  51,
  51,
  51,
  51,
  51,
  51,
  52,
  52,
  52,
  52,
  52,
  52,
  52,
  52,
  52,
  52,
  52,
  52,
  53,
  53,
  53,
  53,
  53,
  53,
  53,
  53,
  53,
  53,
  53,
  53,
  54,
  54,
  54,
  54,
  54,
  54,
  54,
  54,
  54,
  54,
  54,
  54,
  55,
  55,
  55,
  55,
  55,
  55,
  55,
  55,
  55,
  55,
  55,
  55,
  56,
  56,
  56,
  56,
  56,
  56,
  56,
  56,
  56,
  56,
  56,
  56,
  57,
  57,
  57,
  57,
  57,
  57,
  57,
  57,
  57,
  57,
  57,
  57,
  58,
  58,
  58,
  58,
  58,
  58,
  58,
  58,
  58,
  58,
  58,
  58,
  59,
  59,
  59,
  59,
  59,
  59,
  59,
  59,
  59,
  59,
  59,
  59,
  60,
  60,
  60,
  60,
  60,
  60,
  60,
  60,
  60,
  60,
  60,
  60,
  61,
  61,
  61,
  61,
  61,
  61,
  61,
  61,
  61,
  61,
  61,
  61,
  62,
  62,
  62,
  62,
  62,
  62,
  62,
  62,
  62,
  62,
  62,
  62,
  63,
  63,
  63,
  63,
  63,
  63,
  63,
  63,
  63,
  63,
  63,
  63;

  Material  {
   0.749020;0.749020;0.815686;1.000000;;
   0.000000;
   0.000000;0.000000;0.000000;;
   0.000000;0.000000;0.000000;;
  }

  Material  {
   0.749020;0.749020;0.815686;1.000000;;
   0.000000;
   0.000000;0.000000;0.000000;;
   0.000000;0.000000;0.000000;;
  }

  Material  {
   0.000000;0.501961;0.000000;1.000000;;
   0.000000;
   0.000000;0.000000;0.000000;;
   0.000000;0.000000;0.000000;;
  }

  Material  {
   0.000000;0.501961;0.000000;1.000000;;
   0.000000;
   0.000000;0.000000;0.000000;;
   0.000000;0.000000;0.000000;;
  }

  Material  {
   0.000000;0.501961;0.000000;1.000000;;
   0.000000;
   0.000000;0.000000;0.000000;;
   0.000000;0.000000;0.000000;;
  }

  Material  {
   0.000000;0.501961;0.000000;1.000000;;
   0.000000;
   0.000000;0.000000;0.000000;;
   0.000000;0.000000;0.000000;;
  }

  Material  {
   0.000000;0.501961;0.000000;1.000000;;
   0.000000;
   0.000000;0.000000;0.000000;;
   0.000000;0.000000;0.000000;;
  }

  Material  {
   0.000000;0.501961;0.000000;1.000000;;
   0.000000;
   0.000000;0.000000;0.000000;;
   0.000000;0.000000;0.000000;;
  }

  Material  {
   0.000000;0.501961;0.000000;1.000000;;
   0.000000;
   0.000000;0.000000;0.000000;;
   0.000000;0.000000;0.000000;;
  }

  Material  {
   0.000000;0.501961;0.000000;1.000000;;
   0.000000;
   0.000000;0.000000;0.000000;;
   0.000000;0.000000;0.000000;;
  }

  Material  {
   0.000000;0.501961;0.000000;1.000000;;
   0.000000;
   0.000000;0.000000;0.000000;;
   0.000000;0.000000;0.000000;;
  }

  Material  {
   0.000000;0.501961;0.000000;1.000000;;
   0.000000;
   0.000000;0.000000;0.000000;;
   0.000000;0.000000;0.000000;;
  }

  Material  {
   0.000000;0.501961;0.000000;1.000000;;
   0.000000;
   0.000000;0.000000;0.000000;;
   0.000000;0.000000;0.000000;;
  }

  Material  {
   0.000000;0.501961;0.000000;1.000000;;
   0.000000;
   0.000000;0.000000;0.000000;;
   0.000000;0.000000;0.000000;;
  }

  Material  {
   0.000000;0.501961;0.000000;1.000000;;
   0.000000;
   0.000000;0.000000;0.000000;;
   0.000000;0.000000;0.000000;;
  }

  Material  {
   0.000000;0.501961;0.000000;1.000000;;
   0.000000;
   0.000000;0.000000;0.000000;;
   0.000000;0.000000;0.000000;;
  }

  Material  {
   0.000000;0.501961;0.000000;1.000000;;
   0.000000;
   0.000000;0.000000;0.000000;;
   0.000000;0.000000;0.000000;;
  }

  Material  {
   0.000000;0.501961;0.000000;1.000000;;
   0.000000;
   0.000000;0.000000;0.000000;;
   0.000000;0.000000;0.000000;;
  }

  Material  {
   0.000000;0.501961;0.000000;1.000000;;
   0.000000;
   0.000000;0.000000;0.000000;;
   0.000000;0.000000;0.000000;;
  }

  Material  {
   0.000000;0.501961;0.000000;1.000000;;
   0.000000;
   0.000000;0.000000;0.000000;;
   0.000000;0.000000;0.000000;;
  }

  Material  {
   0.000000;0.501961;0.000000;1.000000;;
   0.000000;
   0.000000;0.000000;0.000000;;
   0.000000;0.000000;0.000000;;
  }

  Material  {
   0.000000;0.501961;0.000000;1.000000;;
   0.000000;
   0.000000;0.000000;0.000000;;
   0.000000;0.000000;0.000000;;
  }

  Material  {
   0.000000;0.501961;0.000000;1.000000;;
   0.000000;
   0.000000;0.000000;0.000000;;
   0.000000;0.000000;0.000000;;
  }

  Material  {
   0.000000;0.501961;0.000000;1.000000;;
   0.000000;
   0.000000;0.000000;0.000000;;
   0.000000;0.000000;0.000000;;
  }

  Material  {
   0.000000;0.501961;0.000000;1.000000;;
   0.000000;
   0.000000;0.000000;0.000000;;
   0.000000;0.000000;0.000000;;
  }

  Material  {
   0.376471;0.376471;0.376471;1.000000;;
   0.000000;
   0.000000;0.000000;0.000000;;
   0.000000;0.000000;0.000000;;
  }

  Material  {
   0.376471;0.376471;0.376471;1.000000;;
   0.000000;
   0.000000;0.000000;0.000000;;
   0.000000;0.000000;0.000000;;
  }

  Material  {
   0.376471;0.376471;0.376471;1.000000;;
   0.000000;
   0.000000;0.000000;0.000000;;
   0.000000;0.000000;0.000000;;
  }

  Material  {
   0.000000;0.501961;0.000000;1.000000;;
   0.000000;
   0.000000;0.000000;0.000000;;
   0.000000;0.000000;0.000000;;
  }

  Material  {
   0.000000;0.501961;0.000000;1.000000;;
   0.000000;
   0.000000;0.000000;0.000000;;
   0.000000;0.000000;0.000000;;
  }

  Material  {
   0.000000;0.501961;0.000000;1.000000;;
   0.000000;
   0.000000;0.000000;0.000000;;
   0.000000;0.000000;0.000000;;
  }

  Material  {
   0.000000;0.501961;0.000000;1.000000;;
   0.000000;
   0.000000;0.000000;0.000000;;
   0.000000;0.000000;0.000000;;
  }

  Material  {
   0.000000;0.501961;0.000000;1.000000;;
   0.000000;
   0.000000;0.000000;0.000000;;
   0.000000;0.000000;0.000000;;
  }

  Material  {
   0.000000;0.501961;0.000000;1.000000;;
   0.000000;
   0.000000;0.000000;0.000000;;
   0.000000;0.000000;0.000000;;
  }

  Material  {
   0.000000;0.501961;0.000000;1.000000;;
   0.000000;
   0.000000;0.000000;0.000000;;
   0.000000;0.000000;0.000000;;
  }

  Material  {
   0.000000;0.501961;0.000000;1.000000;;
   0.000000;
   0.000000;0.000000;0.000000;;
   0.000000;0.000000;0.000000;;
  }

  Material  {
   0.000000;0.501961;0.000000;1.000000;;
   0.000000;
   0.000000;0.000000;0.000000;;
   0.000000;0.000000;0.000000;;
  }

  Material  {
   0.000000;0.501961;0.000000;1.000000;;
   0.000000;
   0.000000;0.000000;0.000000;;
   0.000000;0.000000;0.000000;;
  }

  Material  {
   0.000000;0.501961;0.000000;1.000000;;
   0.000000;
   0.000000;0.000000;0.000000;;
   0.000000;0.000000;0.000000;;
  }

  Material  {
   0.000000;0.501961;0.000000;1.000000;;
   0.000000;
   0.000000;0.000000;0.000000;;
   0.000000;0.000000;0.000000;;
  }

  Material  {
   0.000000;0.501961;0.000000;1.000000;;
   0.000000;
   0.000000;0.000000;0.000000;;
   0.000000;0.000000;0.000000;;
  }

  Material  {
   0.000000;0.501961;0.000000;1.000000;;
   0.000000;
   0.000000;0.000000;0.000000;;
   0.000000;0.000000;0.000000;;
  }

  Material  {
   0.000000;0.501961;0.000000;1.000000;;
   0.000000;
   0.000000;0.000000;0.000000;;
   0.000000;0.000000;0.000000;;
  }

  Material  {
   0.000000;0.501961;0.000000;1.000000;;
   0.000000;
   0.000000;0.000000;0.000000;;
   0.000000;0.000000;0.000000;;
  }

  Material  {
   0.000000;0.501961;0.000000;1.000000;;
   0.000000;
   0.000000;0.000000;0.000000;;
   0.000000;0.000000;0.000000;;
  }

  Material  {
   0.000000;0.501961;0.000000;1.000000;;
   0.000000;
   0.000000;0.000000;0.000000;;
   0.000000;0.000000;0.000000;;
  }

  Material  {
   0.000000;0.501961;0.000000;1.000000;;
   0.000000;
   0.000000;0.000000;0.000000;;
   0.000000;0.000000;0.000000;;
  }

  Material  {
   0.000000;0.501961;0.000000;1.000000;;
   0.000000;
   0.000000;0.000000;0.000000;;
   0.000000;0.000000;0.000000;;
  }

  Material  {
   0.000000;0.501961;0.000000;1.000000;;
   0.000000;
   0.000000;0.000000;0.000000;;
   0.000000;0.000000;0.000000;;
  }

  Material  {
   0.000000;0.501961;0.000000;1.000000;;
   0.000000;
   0.000000;0.000000;0.000000;;
   0.000000;0.000000;0.000000;;
  }

  Material  {
   0.000000;0.501961;0.000000;1.000000;;
   0.000000;
   0.000000;0.000000;0.000000;;
   0.000000;0.000000;0.000000;;
  }

  Material  {
   0.000000;0.501961;0.000000;1.000000;;
   0.000000;
   0.000000;0.000000;0.000000;;
   0.000000;0.000000;0.000000;;
  }

  Material  {
   0.000000;0.501961;0.000000;1.000000;;
   0.000000;
   0.000000;0.000000;0.000000;;
   0.000000;0.000000;0.000000;;
  }

  Material  {
   0.000000;0.501961;0.000000;1.000000;;
   0.000000;
   0.000000;0.000000;0.000000;;
   0.000000;0.000000;0.000000;;
  }

  Material  {
   0.000000;0.501961;0.000000;1.000000;;
   0.000000;
   0.000000;0.000000;0.000000;;
   0.000000;0.000000;0.000000;;
  }

  Material  {
   0.000000;0.501961;0.000000;1.000000;;
   0.000000;
   0.000000;0.000000;0.000000;;
   0.000000;0.000000;0.000000;;
  }

  Material  {
   0.000000;0.501961;0.000000;1.000000;;
   0.000000;
   0.000000;0.000000;0.000000;;
   0.000000;0.000000;0.000000;;
  }

  Material  {
   0.000000;0.501961;0.000000;1.000000;;
   0.000000;
   0.000000;0.000000;0.000000;;
   0.000000;0.000000;0.000000;;
  }

  Material  {
   0.000000;0.501961;0.000000;1.000000;;
   0.000000;
   0.000000;0.000000;0.000000;;
   0.000000;0.000000;0.000000;;
  }

  Material  {
   0.000000;0.501961;0.000000;1.000000;;
   0.000000;
   0.000000;0.000000;0.000000;;
   0.000000;0.000000;0.000000;;
  }

  Material  {
   0.000000;0.501961;0.000000;1.000000;;
   0.000000;
   0.000000;0.000000;0.000000;;
   0.000000;0.000000;0.000000;;
  }

  Material  {
   0.000000;0.501961;0.000000;1.000000;;
   0.000000;
   0.000000;0.000000;0.000000;;
   0.000000;0.000000;0.000000;;
  }

  Material  {
   0.000000;0.501961;0.000000;1.000000;;
   0.000000;
   0.000000;0.000000;0.000000;;
   0.000000;0.000000;0.000000;;
  }

  Material  {
   0.000000;0.501961;0.000000;1.000000;;
   0.000000;
   0.000000;0.000000;0.000000;;
   0.000000;0.000000;0.000000;;
  }
 }

 MeshTextureCoords  {
  512;
  0.000000;0.000000;,
  0.000000;0.000000;,
  0.000000;0.000000;,
  0.000000;0.000000;,
  0.000000;0.000000;,
  0.000000;0.000000;,
  0.000000;0.000000;,
  0.000000;0.000000;,
  0.000000;0.000000;,
  0.000000;0.000000;,
  0.000000;0.000000;,
  0.000000;0.000000;,
  0.000000;0.000000;,
  0.000000;0.000000;,
  0.000000;0.000000;,
  0.000000;0.000000;,
  0.000000;0.000000;,
  0.000000;0.000000;,
  0.000000;0.000000;,
  0.000000;0.000000;,
  0.000000;0.000000;,
  0.000000;0.000000;,
  0.000000;0.000000;,
  0.000000;0.000000;,
  0.000000;0.000000;,
  0.000000;0.000000;,
  0.000000;0.000000;,
  0.000000;0.000000;,
  0.000000;0.000000;,
  0.000000;0.000000;,
  0.000000;0.000000;,
  0.000000;0.000000;,
  0.000000;0.000000;,
  0.000000;0.000000;,
  0.000000;0.000000;,
  0.000000;0.000000;,
  0.000000;0.000000;,
  0.000000;0.000000;,
  0.000000;0.000000;,
  0.000000;0.000000;,
  0.000000;0.000000;,
  0.000000;0.000000;,
  0.000000;0.000000;,
  0.000000;0.000000;,
  0.000000;0.000000;,
  0.000000;0.000000;,
  0.000000;0.000000;,
  0.000000;0.000000;,
  0.000000;0.000000;,
  0.000000;0.000000;,
  0.000000;0.000000;,
  0.000000;0.000000;,
  0.000000;0.000000;,
  0.000000;0.000000;,
  0.000000;0.000000;,
  0.000000;0.000000;,
  0.000000;0.000000;,
  0.000000;0.000000;,
  0.000000;0.000000;,
  0.000000;0.000000;,
  0.000000;0.000000;,
  0.000000;0.000000;,
  0.000000;0.000000;,
  0.000000;0.000000;,
  0.000000;0.000000;,
  0.000000;0.000000;,
  0.000000;0.000000;,
  0.000000;0.000000;,
  0.000000;0.000000;,
  0.000000;0.000000;,
  0.000000;0.000000;,
  0.000000;0.000000;,
  0.000000;0.000000;,
  0.000000;0.000000;,
  0.000000;0.000000;,
  0.000000;0.000000;,
  0.000000;0.000000;,
  0.000000;0.000000;,
  0.000000;0.000000;,
  0.000000;0.000000;,
  0.000000;0.000000;,
  0.000000;0.000000;,
  0.000000;0.000000;,
  0.000000;0.000000;,
  0.000000;0.000000;,
  0.000000;0.000000;,
  0.000000;0.000000;,
  0.000000;0.000000;,
  0.000000;0.000000;,
  0.000000;0.000000;,
  0.000000;0.000000;,
  0.000000;0.000000;,
  0.000000;0.000000;,
  0.000000;0.000000;,
  0.000000;0.000000;,
  0.000000;0.000000;,
  0.000000;0.000000;,
  0.000000;0.000000;,
  0.000000;0.000000;,
  0.000000;0.000000;,
  0.000000;0.000000;,
  0.000000;0.000000;,
  0.000000;0.000000;,
  0.000000;0.000000;,
  0.000000;0.000000;,
  0.000000;0.000000;,
  0.000000;0.000000;,
  0.000000;0.000000;,
  0.000000;0.000000;,
  0.000000;0.000000;,
  0.000000;0.000000;,
  0.000000;0.000000;,
  0.000000;0.000000;,
  0.000000;0.000000;,
  0.000000;0.000000;,
  0.000000;0.000000;,
  0.000000;0.000000;,
  0.000000;0.000000;,
  0.000000;0.000000;,
  0.000000;0.000000;,
  0.000000;0.000000;,
  0.000000;0.000000;,
  0.000000;0.000000;,
  0.000000;0.000000;,
  0.000000;0.000000;,
  0.000000;0.000000;,
  0.000000;0.000000;,
  0.000000;0.000000;,
  0.000000;0.000000;,
  0.000000;0.000000;,
  0.000000;0.000000;,
  0.000000;0.000000;,
  0.000000;0.000000;,
  0.000000;0.000000;,
  0.000000;0.000000;,
  0.000000;0.000000;,
  0.000000;0.000000;,
  0.000000;0.000000;,
  0.000000;0.000000;,
  0.000000;0.000000;,
  0.000000;0.000000;,
  0.000000;0.000000;,
  0.000000;0.000000;,
  0.000000;0.000000;,
  0.000000;0.000000;,
  0.000000;0.000000;,
  0.000000;0.000000;,
  0.000000;0.000000;,
  0.000000;0.000000;,
  0.000000;0.000000;,
  0.000000;0.000000;,
  0.000000;0.000000;,
  0.000000;0.000000;,
  0.000000;0.000000;,
  0.000000;0.000000;,
  0.000000;0.000000;,
  0.000000;0.000000;,
  0.000000;0.000000;,
  0.000000;0.000000;,
  0.000000;0.000000;,
  0.000000;0.000000;,
  0.000000;0.000000;,
  0.000000;0.000000;,
  0.000000;0.000000;,
  0.000000;0.000000;,
  0.000000;0.000000;,
  0.000000;0.000000;,
  0.000000;0.000000;,
  0.000000;0.000000;,
  0.000000;0.000000;,
  0.000000;0.000000;,
  0.000000;0.000000;,
  0.000000;0.000000;,
  0.000000;0.000000;,
  0.000000;0.000000;,
  0.000000;0.000000;,
  0.000000;0.000000;,
  0.000000;0.000000;,
  0.000000;0.000000;,
  0.000000;0.000000;,
  0.000000;0.000000;,
  0.000000;0.000000;,
  0.000000;0.000000;,
  0.000000;0.000000;,
  0.000000;0.000000;,
  0.000000;0.000000;,
  0.000000;0.000000;,
  0.000000;0.000000;,
  0.000000;0.000000;,
  0.000000;0.000000;,
  0.000000;0.000000;,
  0.000000;0.000000;,
  0.000000;0.000000;,
  0.000000;0.000000;,
  0.000000;0.000000;,
  0.000000;0.000000;,
  0.000000;0.000000;,
  0.000000;0.000000;,
  0.000000;0.000000;,
  0.000000;0.000000;,
  0.000000;0.000000;,
  0.000000;0.000000;,
  0.000000;0.000000;,
  0.000000;0.000000;,
  0.000000;0.000000;,
  0.000000;0.000000;,
  0.000000;0.000000;,
  0.000000;0.000000;,
  0.000000;0.000000;,
  0.000000;0.000000;,
  0.000000;0.000000;,
  0.000000;0.000000;,
  0.000000;0.000000;,
  0.000000;0.000000;,
  0.000000;0.000000;,
  0.000000;0.000000;,
  0.000000;0.000000;,
  0.000000;0.000000;,
  0.000000;0.000000;,
  0.000000;0.000000;,
  0.000000;0.000000;,
  0.000000;0.000000;,
  0.000000;0.000000;,
  0.000000;0.000000;,
  0.000000;0.000000;,
  0.000000;0.000000;,
  0.000000;0.000000;,
  0.000000;0.000000;,
  0.000000;0.000000;,
  0.000000;0.000000;,
  0.000000;0.000000;,
  0.000000;0.000000;,
  0.000000;0.000000;,
  0.000000;0.000000;,
  0.000000;0.000000;,
  0.000000;0.000000;,
  0.000000;0.000000;,
  0.000000;0.000000;,
  0.000000;0.000000;,
  0.000000;0.000000;,
  0.000000;0.000000;,
  0.000000;0.000000;,
  0.000000;0.000000;,
  0.000000;0.000000;,
  0.000000;0.000000;,
  0.000000;0.000000;,
  0.000000;0.000000;,
  0.000000;0.000000;,
  0.000000;0.000000;,
  0.000000;0.000000;,
  0.000000;0.000000;,
  0.000000;0.000000;,
  0.000000;0.000000;,
  0.000000;0.000000;,
  0.000000;0.000000;,
  0.000000;0.000000;,
  0.000000;0.000000;,
  0.000000;0.000000;,
  0.000000;0.000000;,
  0.000000;0.000000;,
  0.000000;0.000000;,
  0.000000;0.000000;,
  0.000000;0.000000;,
  0.000000;0.000000;,
  0.000000;0.000000;,
  0.000000;0.000000;,
  0.000000;0.000000;,
  0.000000;0.000000;,
  0.000000;0.000000;,
  0.000000;0.000000;,
  0.000000;0.000000;,
  0.000000;0.000000;,
  0.000000;0.000000;,
  0.000000;0.000000;,
  0.000000;0.000000;,
  0.000000;0.000000;,
  0.000000;0.000000;,
  0.000000;0.000000;,
  0.000000;0.000000;,
  0.000000;0.000000;,
  0.000000;0.000000;,
  0.000000;0.000000;,
  0.000000;0.000000;,
  0.000000;0.000000;,
  0.000000;0.000000;,
  0.000000;0.000000;,
  0.000000;0.000000;,
  0.000000;0.000000;,
  0.000000;0.000000;,
  0.000000;0.000000;,
  0.000000;0.000000;,
  0.000000;0.000000;,
  0.000000;0.000000;,
  0.000000;0.000000;,
  0.000000;0.000000;,
  0.000000;0.000000;,
  0.000000;0.000000;,
  0.000000;0.000000;,
  0.000000;0.000000;,
  0.000000;0.000000;,
  0.000000;0.000000;,
  0.000000;0.000000;,
  0.000000;0.000000;,
  0.000000;0.000000;,
  0.000000;0.000000;,
  0.000000;0.000000;,
  0.000000;0.000000;,
  0.000000;0.000000;,
  0.000000;0.000000;,
  0.000000;0.000000;,
  0.000000;0.000000;,
  0.000000;0.000000;,
  0.000000;0.000000;,
  0.000000;0.000000;,
  0.000000;0.000000;,
  0.000000;0.000000;,
  0.000000;0.000000;,
  0.000000;0.000000;,
  0.000000;0.000000;,
  0.000000;0.000000;,
  0.000000;0.000000;,
  0.000000;0.000000;,
  0.000000;0.000000;,
  0.000000;0.000000;,
  0.000000;0.000000;,
  0.000000;0.000000;,
  0.000000;0.000000;,
  0.000000;0.000000;,
  0.000000;0.000000;,
  0.000000;0.000000;,
  0.000000;0.000000;,
  0.000000;0.000000;,
  0.000000;0.000000;,
  0.000000;0.000000;,
  0.000000;0.000000;,
  0.000000;0.000000;,
  0.000000;0.000000;,
  0.000000;0.000000;,
  0.000000;0.000000;,
  0.000000;0.000000;,
  0.000000;0.000000;,
  0.000000;0.000000;,
  0.000000;0.000000;,
  0.000000;0.000000;,
  0.000000;0.000000;,
  0.000000;0.000000;,
  0.000000;0.000000;,
  0.000000;0.000000;,
  0.000000;0.000000;,
  0.000000;0.000000;,
  0.000000;0.000000;,
  0.000000;0.000000;,
  0.000000;0.000000;,
  0.000000;0.000000;,
  0.000000;0.000000;,
  0.000000;0.000000;,
  0.000000;0.000000;,
  0.000000;0.000000;,
  0.000000;0.000000;,
  0.000000;0.000000;,
  0.000000;0.000000;,
  0.000000;0.000000;,
  0.000000;0.000000;,
  0.000000;0.000000;,
  0.000000;0.000000;,
  0.000000;0.000000;,
  0.000000;0.000000;,
  0.000000;0.000000;,
  0.000000;0.000000;,
  0.000000;0.000000;,
  0.000000;0.000000;,
  0.000000;0.000000;,
  0.000000;0.000000;,
  0.000000;0.000000;,
  0.000000;0.000000;,
  0.000000;0.000000;,
  0.000000;0.000000;,
  0.000000;0.000000;,
  0.000000;0.000000;,
  0.000000;0.000000;,
  0.000000;0.000000;,
  0.000000;0.000000;,
  0.000000;0.000000;,
  0.000000;0.000000;,
  0.000000;0.000000;,
  0.000000;0.000000;,
  0.000000;0.000000;,
  0.000000;0.000000;,
  0.000000;0.000000;,
  0.000000;0.000000;,
  0.000000;0.000000;,
  0.000000;0.000000;,
  0.000000;0.000000;,
  0.000000;0.000000;,
  0.000000;0.000000;,
  0.000000;0.000000;,
  0.000000;0.000000;,
  0.000000;0.000000;,
  0.000000;0.000000;,
  0.000000;0.000000;,
  0.000000;0.000000;,
  0.000000;0.000000;,
  0.000000;0.000000;,
  0.000000;0.000000;,
  0.000000;0.000000;,
  0.000000;0.000000;,
  0.000000;0.000000;,
  0.000000;0.000000;,
  0.000000;0.000000;,
  0.000000;0.000000;,
  0.000000;0.000000;,
  0.000000;0.000000;,
  0.000000;0.000000;,
  0.000000;0.000000;,
  0.000000;0.000000;,
  0.000000;0.000000;,
  0.000000;0.000000;,
  0.000000;0.000000;,
  0.000000;0.000000;,
  0.000000;0.000000;,
  0.000000;0.000000;,
  0.000000;0.000000;,
  0.000000;0.000000;,
  0.000000;0.000000;,
  0.000000;0.000000;,
  0.000000;0.000000;,
  0.000000;0.000000;,
  0.000000;0.000000;,
  0.000000;0.000000;,
  0.000000;0.000000;,
  0.000000;0.000000;,
  0.000000;0.000000;,
  0.000000;0.000000;,
  0.000000;0.000000;,
  0.000000;0.000000;,
  0.000000;0.000000;,
  0.000000;0.000000;,
  0.000000;0.000000;,
  0.000000;0.000000;,
  0.000000;0.000000;,
  0.000000;0.000000;,
  0.000000;0.000000;,
  0.000000;0.000000;,
  0.000000;0.000000;,
  0.000000;0.000000;,
  0.000000;0.000000;,
  0.000000;0.000000;,
  0.000000;0.000000;,
  0.000000;0.000000;,
  0.000000;0.000000;,
  0.000000;0.000000;,
  0.000000;0.000000;,
  0.000000;0.000000;,
  0.000000;0.000000;,
  0.000000;0.000000;,
  0.000000;0.000000;,
  0.000000;0.000000;,
  0.000000;0.000000;,
  0.000000;0.000000;,
  0.000000;0.000000;,
  0.000000;0.000000;,
  0.000000;0.000000;,
  0.000000;0.000000;,
  0.000000;0.000000;,
  0.000000;0.000000;,
  0.000000;0.000000;,
  0.000000;0.000000;,
  0.000000;0.000000;,
  0.000000;0.000000;,
  0.000000;0.000000;,
  0.000000;0.000000;,
  0.000000;0.000000;,
  0.000000;0.000000;,
  0.000000;0.000000;,
  0.000000;0.000000;,
  0.000000;0.000000;,
  0.000000;0.000000;,
  0.000000;0.000000;,
  0.000000;0.000000;,
  0.000000;0.000000;,
  0.000000;0.000000;,
  0.000000;0.000000;,
  0.000000;0.000000;,
  0.000000;0.000000;,
  0.000000;0.000000;,
  0.000000;0.000000;,
  0.000000;0.000000;,
  0.000000;0.000000;,
  0.000000;0.000000;,
  0.000000;0.000000;,
  0.000000;0.000000;,
  0.000000;0.000000;,
  0.000000;0.000000;,
  0.000000;0.000000;,
  0.000000;0.000000;,
  0.000000;0.000000;,
  0.000000;0.000000;,
  0.000000;0.000000;,
  0.000000;0.000000;,
  0.000000;0.000000;,
  0.000000;0.000000;,
  0.000000;0.000000;,
  0.000000;0.000000;,
  0.000000;0.000000;,
  0.000000;0.000000;,
  0.000000;0.000000;,
  0.000000;0.000000;,
  0.000000;0.000000;,
  0.000000;0.000000;,
  0.000000;0.000000;,
  0.000000;0.000000;,
  0.000000;0.000000;;
 }

 MeshNormals  {
  728;
  0.000000;0.000000;-1.000000;,
  0.000000;0.000000;-1.000000;,
  -1.000000;0.000000;0.000000;,
  -1.000000;0.000000;0.000000;,
  0.000000;0.000000;1.000000;,
  0.000000;0.000000;1.000000;,
  1.000000;0.000000;0.000000;,
  1.000000;0.000000;0.000000;,
  0.000000;1.000000;0.000000;,
  0.000000;1.000000;0.000000;,
  0.000000;-1.000000;0.000000;,
  0.000000;-1.000000;0.000000;,
  0.000000;0.000000;-1.000000;,
  0.000000;0.000000;-1.000000;,
  -1.000000;0.000000;0.000000;,
  -1.000000;0.000000;0.000000;,
  0.000000;0.000000;1.000000;,
  0.000000;0.000000;1.000000;,
  1.000000;0.000000;0.000000;,
  1.000000;0.000000;0.000000;,
  0.000000;1.000000;0.000000;,
  0.000000;1.000000;0.000000;,
  0.000000;-1.000000;0.000000;,
  0.000000;-1.000000;0.000000;,
  0.000000;0.000000;-1.000000;,
  0.000000;0.000000;-1.000000;,
  -1.000000;0.000000;0.000000;,
  -1.000000;0.000000;0.000000;,
  0.000000;0.000000;1.000000;,
  0.000000;0.000000;1.000000;,
  1.000000;0.000000;0.000000;,
  1.000000;0.000000;0.000000;,
  0.000000;1.000000;0.000000;,
  0.000000;1.000000;0.000000;,
  0.000000;-1.000000;0.000000;,
  0.000000;-1.000000;0.000000;,
  0.000000;0.000000;-1.000000;,
  0.000000;0.000000;-1.000000;,
  -1.000000;0.000000;0.000000;,
  -1.000000;0.000000;0.000000;,
  0.000000;0.000000;1.000000;,
  0.000000;0.000000;1.000000;,
  1.000000;0.000000;0.000000;,
  1.000000;0.000000;0.000000;,
  0.000000;1.000000;0.000000;,
  0.000000;1.000000;0.000000;,
  0.000000;-1.000000;0.000000;,
  0.000000;-1.000000;0.000000;,
  0.000000;0.000000;-1.000000;,
  0.000000;0.000000;-1.000000;,
  -1.000000;0.000000;0.000000;,
  -1.000000;0.000000;0.000000;,
  0.000000;0.000000;1.000000;,
  0.000000;0.000000;1.000000;,
  1.000000;0.000000;0.000000;,
  1.000000;0.000000;0.000000;,
  0.000000;1.000000;0.000000;,
  0.000000;1.000000;0.000000;,
  0.000000;-1.000000;0.000000;,
  0.000000;-1.000000;0.000000;,
  0.000000;0.000000;-1.000000;,
  0.000000;0.000000;-1.000000;,
  -1.000000;0.000000;0.000000;,
  -1.000000;0.000000;0.000000;,
  0.000000;0.000000;1.000000;,
  0.000000;0.000000;1.000000;,
  1.000000;0.000000;0.000000;,
  1.000000;0.000000;0.000000;,
  0.000000;1.000000;0.000000;,
  0.000000;1.000000;0.000000;,
  0.000000;-1.000000;0.000000;,
  0.000000;-1.000000;0.000000;,
  0.000000;0.000000;-1.000000;,
  0.000000;0.000000;-1.000000;,
  -1.000000;0.000000;0.000000;,
  -1.000000;0.000000;0.000000;,
  0.000000;0.000000;1.000000;,
  0.000000;0.000000;1.000000;,
  1.000000;0.000000;0.000000;,
  1.000000;0.000000;0.000000;,
  0.000000;1.000000;0.000000;,
  0.000000;1.000000;0.000000;,
  0.000000;-1.000000;0.000000;,
  0.000000;-1.000000;0.000000;,
  0.000000;0.000000;-1.000000;,
  0.000000;0.000000;-1.000000;,
  -1.000000;0.000000;0.000000;,
  -1.000000;0.000000;0.000000;,
  0.000000;0.000000;1.000000;,
  0.000000;0.000000;1.000000;,
  1.000000;0.000000;0.000000;,
  1.000000;0.000000;0.000000;,
  0.000000;1.000000;0.000000;,
  0.000000;1.000000;0.000000;,
  0.000000;-1.000000;0.000000;,
  0.000000;-1.000000;0.000000;,
  0.000000;0.000000;1.000000;,
  0.000000;0.000000;1.000000;,
  0.000000;0.000000;-1.000000;,
  0.000000;0.000000;-1.000000;,
  0.000000;0.000000;-1.000000;,
  0.000000;0.000000;-1.000000;,
  0.000000;0.000000;1.000000;,
  0.000000;0.000000;1.000000;,
  0.000000;0.000000;1.000000;,
  0.000000;0.000000;1.000000;,
  0.000000;0.000000;-1.000000;,
  0.000000;0.000000;-1.000000;,
  0.000000;0.000000;-1.000000;,
  0.000000;0.000000;-1.000000;,
  0.000000;0.000000;1.000000;,
  0.000000;0.000000;1.000000;,
  0.000000;0.000000;1.000000;,
  0.000000;0.000000;1.000000;,
  0.000000;0.000000;-1.000000;,
  0.000000;0.000000;-1.000000;,
  0.000000;0.000000;-1.000000;,
  0.000000;0.000000;-1.000000;,
  0.000000;0.000000;1.000000;,
  0.000000;0.000000;1.000000;,
  0.000000;0.000000;1.000000;,
  0.000000;0.000000;1.000000;,
  0.000000;0.000000;-1.000000;,
  0.000000;0.000000;-1.000000;,
  0.000000;0.000000;-1.000000;,
  0.000000;0.000000;-1.000000;,
  0.000000;0.000000;1.000000;,
  0.000000;0.000000;1.000000;,
  1.000000;0.000000;0.000000;,
  -1.000000;0.000000;0.000000;,
  1.000000;0.000000;0.000000;,
  -1.000000;0.000000;0.000000;,
  -1.000000;0.000000;0.000000;,
  1.000000;0.000000;0.000000;,
  -1.000000;0.000000;0.000000;,
  1.000000;0.000000;0.000000;,
  0.000000;0.000000;-1.000000;,
  0.000000;0.000000;-1.000000;,
  -1.000000;0.000000;0.000000;,
  -1.000000;0.000000;0.000000;,
  0.000000;0.000000;1.000000;,
  0.000000;0.000000;1.000000;,
  1.000000;0.000000;0.000000;,
  1.000000;0.000000;0.000000;,
  0.000000;1.000000;0.000000;,
  0.000000;1.000000;0.000000;,
  0.000000;-1.000000;0.000000;,
  0.000000;-1.000000;0.000000;,
  0.000000;0.000000;-1.000000;,
  0.000000;0.000000;-1.000000;,
  -1.000000;0.000000;0.000000;,
  -1.000000;0.000000;0.000000;,
  0.000000;0.000000;1.000000;,
  0.000000;0.000000;1.000000;,
  1.000000;0.000000;0.000000;,
  1.000000;0.000000;0.000000;,
  0.000000;1.000000;0.000000;,
  0.000000;1.000000;0.000000;,
  0.000000;-1.000000;0.000000;,
  0.000000;-1.000000;0.000000;,
  0.000000;0.000000;-1.000000;,
  0.000000;0.000000;-1.000000;,
  -1.000000;0.000000;0.000000;,
  -1.000000;0.000000;0.000000;,
  0.000000;0.000000;1.000000;,
  0.000000;0.000000;1.000000;,
  1.000000;0.000000;0.000000;,
  1.000000;0.000000;0.000000;,
  0.000000;1.000000;0.000000;,
  0.000000;1.000000;0.000000;,
  0.000000;-1.000000;0.000000;,
  0.000000;-1.000000;0.000000;,
  0.000000;0.000000;-1.000000;,
  0.000000;0.000000;-1.000000;,
  -1.000000;0.000000;0.000000;,
  -1.000000;0.000000;0.000000;,
  0.000000;0.000000;1.000000;,
  0.000000;0.000000;1.000000;,
  1.000000;0.000000;0.000000;,
  1.000000;0.000000;0.000000;,
  0.000000;1.000000;0.000000;,
  0.000000;1.000000;0.000000;,
  0.000000;-1.000000;0.000000;,
  0.000000;-1.000000;0.000000;,
  0.000000;0.000000;-1.000000;,
  0.000000;0.000000;-1.000000;,
  -1.000000;0.000000;0.000000;,
  -1.000000;0.000000;0.000000;,
  0.000000;0.000000;1.000000;,
  0.000000;0.000000;1.000000;,
  1.000000;0.000000;0.000000;,
  1.000000;0.000000;0.000000;,
  0.000000;1.000000;0.000000;,
  0.000000;1.000000;0.000000;,
  0.000000;-1.000000;0.000000;,
  0.000000;-1.000000;0.000000;,
  0.000000;0.000000;-1.000000;,
  0.000000;0.000000;-1.000000;,
  -1.000000;0.000000;0.000000;,
  -1.000000;0.000000;0.000000;,
  0.000000;0.000000;1.000000;,
  0.000000;0.000000;1.000000;,
  1.000000;0.000000;0.000000;,
  1.000000;0.000000;0.000000;,
  0.000000;1.000000;0.000000;,
  0.000000;1.000000;0.000000;,
  0.000000;-1.000000;0.000000;,
  0.000000;-1.000000;0.000000;,
  0.000000;0.000000;1.000000;,
  0.000000;0.000000;1.000000;,
  0.000000;0.000000;-1.000000;,
  0.000000;0.000000;-1.000000;,
  0.000000;0.000000;-1.000000;,
  0.000000;0.000000;-1.000000;,
  0.000000;0.000000;1.000000;,
  0.000000;0.000000;1.000000;,
  0.000000;0.000000;1.000000;,
  0.000000;0.000000;1.000000;,
  0.000000;0.000000;-1.000000;,
  0.000000;0.000000;-1.000000;,
  0.000000;0.000000;-1.000000;,
  0.000000;0.000000;-1.000000;,
  0.000000;0.000000;1.000000;,
  0.000000;0.000000;1.000000;,
  0.000000;0.000000;1.000000;,
  0.000000;0.000000;1.000000;,
  0.000000;0.000000;-1.000000;,
  0.000000;0.000000;-1.000000;,
  0.000000;0.000000;-1.000000;,
  0.000000;0.000000;-1.000000;,
  0.000000;0.000000;1.000000;,
  0.000000;0.000000;1.000000;,
  0.000000;0.000000;1.000000;,
  0.000000;0.000000;1.000000;,
  0.000000;0.000000;-1.000000;,
  0.000000;0.000000;-1.000000;,
  0.000000;0.000000;-1.000000;,
  0.000000;0.000000;-1.000000;,
  0.000000;0.000000;1.000000;,
  0.000000;0.000000;1.000000;,
  1.000000;0.000000;0.000000;,
  -1.000000;0.000000;0.000000;,
  1.000000;0.000000;0.000000;,
  -1.000000;0.000000;0.000000;,
  -1.000000;0.000000;0.000000;,
  1.000000;0.000000;0.000000;,
  -1.000000;0.000000;0.000000;,
  1.000000;0.000000;0.000000;,
  0.000000;0.000000;-1.000000;,
  0.000000;0.000000;-1.000000;,
  0.000000;0.000000;1.000000;,
  0.000000;0.000000;1.000000;,
  0.000000;-1.000000;0.000000;,
  0.000000;-1.000000;0.000000;,
  0.000000;1.000000;0.000000;,
  0.000000;1.000000;0.000000;,
  0.000000;0.000000;1.000000;,
  0.000000;0.000000;1.000000;,
  0.000000;0.000000;-1.000000;,
  0.000000;0.000000;-1.000000;,
  0.000000;0.000000;-1.000000;,
  0.000000;0.000000;-1.000000;,
  -1.000000;0.000000;0.000000;,
  -1.000000;0.000000;0.000000;,
  0.000000;0.000000;1.000000;,
  0.000000;0.000000;1.000000;,
  1.000000;0.000000;0.000000;,
  1.000000;0.000000;0.000000;,
  0.000000;1.000000;0.000000;,
  0.000000;1.000000;0.000000;,
  0.000000;-1.000000;0.000000;,
  0.000000;-1.000000;0.000000;,
  0.000000;0.000000;-1.000000;,
  0.000000;0.000000;-1.000000;,
  -1.000000;0.000000;0.000000;,
  -1.000000;0.000000;0.000000;,
  0.000000;0.000000;1.000000;,
  0.000000;0.000000;1.000000;,
  1.000000;0.000000;0.000000;,
  1.000000;0.000000;0.000000;,
  0.000000;1.000000;0.000000;,
  0.000000;1.000000;0.000000;,
  0.000000;-1.000000;0.000000;,
  0.000000;-1.000000;0.000000;,
  0.000000;0.000000;-1.000000;,
  0.000000;0.000000;-1.000000;,
  -1.000000;0.000000;0.000000;,
  -1.000000;0.000000;0.000000;,
  0.000000;0.000000;1.000000;,
  0.000000;0.000000;1.000000;,
  1.000000;0.000000;0.000000;,
  1.000000;0.000000;0.000000;,
  0.000000;1.000000;0.000000;,
  0.000000;1.000000;0.000000;,
  0.000000;-1.000000;0.000000;,
  0.000000;-1.000000;0.000000;,
  0.000000;0.000000;-1.000000;,
  0.000000;0.000000;-1.000000;,
  -1.000000;0.000000;0.000000;,
  -1.000000;0.000000;0.000000;,
  0.000000;0.000000;1.000000;,
  0.000000;0.000000;1.000000;,
  1.000000;0.000000;0.000000;,
  1.000000;0.000000;0.000000;,
  0.000000;1.000000;0.000000;,
  0.000000;1.000000;0.000000;,
  0.000000;-1.000000;0.000000;,
  0.000000;-1.000000;0.000000;,
  0.000000;0.000000;-1.000000;,
  0.000000;0.000000;-1.000000;,
  -1.000000;0.000000;0.000000;,
  -1.000000;0.000000;0.000000;,
  0.000000;0.000000;1.000000;,
  0.000000;0.000000;1.000000;,
  1.000000;0.000000;0.000000;,
  1.000000;0.000000;0.000000;,
  0.000000;1.000000;0.000000;,
  0.000000;1.000000;0.000000;,
  0.000000;-1.000000;0.000000;,
  0.000000;-1.000000;0.000000;,
  0.000000;0.000000;-1.000000;,
  0.000000;0.000000;-1.000000;,
  -1.000000;0.000000;0.000000;,
  -1.000000;0.000000;0.000000;,
  0.000000;0.000000;1.000000;,
  0.000000;0.000000;1.000000;,
  1.000000;0.000000;0.000000;,
  1.000000;0.000000;0.000000;,
  0.000000;1.000000;0.000000;,
  0.000000;1.000000;0.000000;,
  0.000000;-1.000000;0.000000;,
  0.000000;-1.000000;0.000000;,
  0.000000;0.000000;-1.000000;,
  0.000000;0.000000;-1.000000;,
  -1.000000;0.000000;0.000000;,
  -1.000000;0.000000;0.000000;,
  0.000000;0.000000;1.000000;,
  0.000000;0.000000;1.000000;,
  1.000000;0.000000;0.000000;,
  1.000000;0.000000;0.000000;,
  0.000000;1.000000;0.000000;,
  0.000000;1.000000;0.000000;,
  0.000000;-1.000000;0.000000;,
  0.000000;-1.000000;0.000000;,
  0.000000;0.000000;-1.000000;,
  0.000000;0.000000;-1.000000;,
  -1.000000;0.000000;0.000000;,
  -1.000000;0.000000;0.000000;,
  0.000000;0.000000;1.000000;,
  0.000000;0.000000;1.000000;,
  1.000000;0.000000;0.000000;,
  1.000000;0.000000;0.000000;,
  0.000000;1.000000;0.000000;,
  0.000000;1.000000;0.000000;,
  0.000000;-1.000000;0.000000;,
  0.000000;-1.000000;0.000000;,
  0.000000;0.000000;-1.000000;,
  0.000000;0.000000;-1.000000;,
  -1.000000;0.000000;0.000000;,
  -1.000000;0.000000;0.000000;,
  0.000000;0.000000;1.000000;,
  0.000000;0.000000;1.000000;,
  1.000000;0.000000;0.000000;,
  1.000000;0.000000;0.000000;,
  0.000000;1.000000;0.000000;,
  0.000000;1.000000;0.000000;,
  0.000000;-1.000000;0.000000;,
  0.000000;-1.000000;0.000000;,
  0.000000;0.000000;-1.000000;,
  0.000000;0.000000;-1.000000;,
  -1.000000;0.000000;0.000000;,
  -1.000000;0.000000;0.000000;,
  0.000000;0.000000;1.000000;,
  0.000000;0.000000;1.000000;,
  1.000000;0.000000;0.000000;,
  1.000000;0.000000;0.000000;,
  0.000000;1.000000;0.000000;,
  0.000000;1.000000;0.000000;,
  0.000000;-1.000000;0.000000;,
  0.000000;-1.000000;0.000000;,
  0.000000;0.000000;-1.000000;,
  0.000000;0.000000;-1.000000;,
  -1.000000;0.000000;0.000000;,
  -1.000000;0.000000;0.000000;,
  0.000000;0.000000;1.000000;,
  0.000000;0.000000;1.000000;,
  1.000000;0.000000;0.000000;,
  1.000000;0.000000;0.000000;,
  0.000000;1.000000;0.000000;,
  0.000000;1.000000;0.000000;,
  0.000000;-1.000000;0.000000;,
  0.000000;-1.000000;0.000000;,
  0.000000;0.000000;-1.000000;,
  0.000000;0.000000;-1.000000;,
  -1.000000;0.000000;0.000000;,
  -1.000000;0.000000;0.000000;,
  0.000000;0.000000;1.000000;,
  0.000000;0.000000;1.000000;,
  1.000000;0.000000;0.000000;,
  1.000000;0.000000;0.000000;,
  0.000000;1.000000;0.000000;,
  0.000000;1.000000;0.000000;,
  0.000000;-1.000000;0.000000;,
  0.000000;-1.000000;0.000000;,
  0.000000;0.000000;-1.000000;,
  0.000000;0.000000;-1.000000;,
  -1.000000;0.000000;0.000000;,
  -1.000000;0.000000;0.000000;,
  0.000000;0.000000;1.000000;,
  0.000000;0.000000;1.000000;,
  1.000000;0.000000;0.000000;,
  1.000000;0.000000;0.000000;,
  0.000000;1.000000;0.000000;,
  0.000000;1.000000;0.000000;,
  0.000000;-1.000000;0.000000;,
  0.000000;-1.000000;0.000000;,
  0.000000;0.000000;-1.000000;,
  0.000000;0.000000;-1.000000;,
  -1.000000;0.000000;0.000000;,
  -1.000000;0.000000;0.000000;,
  0.000000;0.000000;1.000000;,
  0.000000;0.000000;1.000000;,
  1.000000;0.000000;0.000000;,
  1.000000;0.000000;0.000000;,
  0.000000;1.000000;0.000000;,
  0.000000;1.000000;0.000000;,
  0.000000;-1.000000;0.000000;,
  0.000000;-1.000000;0.000000;,
  0.000000;0.000000;-1.000000;,
  0.000000;0.000000;-1.000000;,
  -1.000000;0.000000;0.000000;,
  -1.000000;0.000000;0.000000;,
  0.000000;0.000000;1.000000;,
  0.000000;0.000000;1.000000;,
  1.000000;0.000000;0.000000;,
  1.000000;0.000000;0.000000;,
  0.000000;1.000000;0.000000;,
  0.000000;1.000000;0.000000;,
  0.000000;-1.000000;0.000000;,
  0.000000;-1.000000;0.000000;,
  0.000000;0.000000;-1.000000;,
  0.000000;0.000000;-1.000000;,
  -1.000000;0.000000;0.000000;,
  -1.000000;0.000000;0.000000;,
  0.000000;0.000000;1.000000;,
  0.000000;0.000000;1.000000;,
  1.000000;0.000000;0.000000;,
  1.000000;0.000000;0.000000;,
  0.000000;1.000000;0.000000;,
  0.000000;1.000000;0.000000;,
  0.000000;-1.000000;0.000000;,
  0.000000;-1.000000;0.000000;,
  0.000000;0.000000;-1.000000;,
  0.000000;0.000000;-1.000000;,
  -1.000000;0.000000;0.000000;,
  -1.000000;0.000000;0.000000;,
  0.000000;0.000000;1.000000;,
  0.000000;0.000000;1.000000;,
  1.000000;0.000000;0.000000;,
  1.000000;0.000000;0.000000;,
  0.000000;1.000000;0.000000;,
  0.000000;1.000000;0.000000;,
  0.000000;-1.000000;0.000000;,
  0.000000;-1.000000;0.000000;,
  0.000000;0.000000;-1.000000;,
  0.000000;0.000000;-1.000000;,
  -1.000000;0.000000;0.000000;,
  -1.000000;0.000000;0.000000;,
  0.000000;0.000000;1.000000;,
  0.000000;0.000000;1.000000;,
  1.000000;0.000000;0.000000;,
  1.000000;0.000000;0.000000;,
  0.000000;1.000000;0.000000;,
  0.000000;1.000000;0.000000;,
  0.000000;-1.000000;0.000000;,
  0.000000;-1.000000;0.000000;,
  0.000000;0.000000;-1.000000;,
  0.000000;0.000000;-1.000000;,
  -1.000000;0.000000;0.000000;,
  -1.000000;0.000000;0.000000;,
  0.000000;0.000000;1.000000;,
  0.000000;0.000000;1.000000;,
  1.000000;0.000000;0.000000;,
  1.000000;0.000000;0.000000;,
  0.000000;1.000000;0.000000;,
  0.000000;1.000000;0.000000;,
  0.000000;-1.000000;0.000000;,
  0.000000;-1.000000;0.000000;,
  0.000000;0.000000;-1.000000;,
  0.000000;0.000000;-1.000000;,
  -1.000000;0.000000;0.000000;,
  -1.000000;0.000000;0.000000;,
  0.000000;0.000000;1.000000;,
  0.000000;0.000000;1.000000;,
  1.000000;0.000000;0.000000;,
  1.000000;0.000000;0.000000;,
  0.000000;1.000000;0.000000;,
  0.000000;1.000000;0.000000;,
  0.000000;-1.000000;0.000000;,
  0.000000;-1.000000;0.000000;,
  0.000000;0.000000;-1.000000;,
  0.000000;0.000000;-1.000000;,
  -1.000000;0.000000;0.000000;,
  -1.000000;0.000000;0.000000;,
  0.000000;0.000000;1.000000;,
  0.000000;0.000000;1.000000;,
  1.000000;0.000000;0.000000;,
  1.000000;0.000000;0.000000;,
  0.000000;1.000000;0.000000;,
  0.000000;1.000000;0.000000;,
  0.000000;-1.000000;0.000000;,
  0.000000;-1.000000;0.000000;,
  0.000000;0.000000;-1.000000;,
  0.000000;0.000000;-1.000000;,
  -1.000000;0.000000;0.000000;,
  -1.000000;0.000000;0.000000;,
  0.000000;0.000000;1.000000;,
  0.000000;0.000000;1.000000;,
  1.000000;0.000000;0.000000;,
  1.000000;0.000000;0.000000;,
  0.000000;1.000000;0.000000;,
  0.000000;1.000000;0.000000;,
  0.000000;-1.000000;0.000000;,
  0.000000;-1.000000;0.000000;,
  0.000000;0.000000;-1.000000;,
  0.000000;0.000000;-1.000000;,
  -1.000000;0.000000;0.000000;,
  -1.000000;0.000000;0.000000;,
  0.000000;0.000000;1.000000;,
  0.000000;0.000000;1.000000;,
  1.000000;0.000000;0.000000;,
  1.000000;0.000000;0.000000;,
  0.000000;1.000000;0.000000;,
  0.000000;1.000000;0.000000;,
  0.000000;-1.000000;0.000000;,
  0.000000;-1.000000;0.000000;,
  0.000000;0.000000;-1.000000;,
  0.000000;0.000000;-1.000000;,
  -1.000000;0.000000;0.000000;,
  -1.000000;0.000000;0.000000;,
  0.000000;0.000000;1.000000;,
  0.000000;0.000000;1.000000;,
  1.000000;0.000000;0.000000;,
  1.000000;0.000000;0.000000;,
  0.000000;1.000000;0.000000;,
  0.000000;1.000000;0.000000;,
  0.000000;-1.000000;0.000000;,
  0.000000;-1.000000;0.000000;,
  0.000000;0.000000;-1.000000;,
  0.000000;0.000000;-1.000000;,
  -1.000000;0.000000;0.000000;,
  -1.000000;0.000000;0.000000;,
  0.000000;0.000000;1.000000;,
  0.000000;0.000000;1.000000;,
  1.000000;0.000000;0.000000;,
  1.000000;0.000000;0.000000;,
  0.000000;1.000000;0.000000;,
  0.000000;1.000000;0.000000;,
  0.000000;-1.000000;0.000000;,
  0.000000;-1.000000;0.000000;,
  0.000000;0.000000;-1.000000;,
  0.000000;0.000000;-1.000000;,
  -1.000000;0.000000;0.000000;,
  -1.000000;0.000000;0.000000;,
  0.000000;0.000000;1.000000;,
  0.000000;0.000000;1.000000;,
  1.000000;0.000000;0.000000;,
  1.000000;0.000000;0.000000;,
  0.000000;1.000000;0.000000;,
  0.000000;1.000000;0.000000;,
  0.000000;-1.000000;0.000000;,
  0.000000;-1.000000;0.000000;,
  0.000000;0.000000;-1.000000;,
  0.000000;0.000000;-1.000000;,
  -1.000000;0.000000;0.000000;,
  -1.000000;0.000000;0.000000;,
  0.000000;0.000000;1.000000;,
  0.000000;0.000000;1.000000;,
  1.000000;0.000000;0.000000;,
  1.000000;0.000000;0.000000;,
  0.000000;1.000000;0.000000;,
  0.000000;1.000000;0.000000;,
  0.000000;-1.000000;0.000000;,
  0.000000;-1.000000;0.000000;,
  0.000000;0.000000;-1.000000;,
  0.000000;0.000000;-1.000000;,
  -1.000000;0.000000;0.000000;,
  -1.000000;0.000000;0.000000;,
  0.000000;0.000000;1.000000;,
  0.000000;0.000000;1.000000;,
  1.000000;0.000000;0.000000;,
  1.000000;0.000000;0.000000;,
  0.000000;1.000000;0.000000;,
  0.000000;1.000000;0.000000;,
  0.000000;-1.000000;0.000000;,
  0.000000;-1.000000;0.000000;,
  0.000000;0.000000;-1.000000;,
  0.000000;0.000000;-1.000000;,
  -1.000000;0.000000;0.000000;,
  -1.000000;0.000000;0.000000;,
  0.000000;0.000000;1.000000;,
  0.000000;0.000000;1.000000;,
  1.000000;0.000000;0.000000;,
  1.000000;0.000000;0.000000;,
  0.000000;1.000000;0.000000;,
  0.000000;1.000000;0.000000;,
  0.000000;-1.000000;0.000000;,
  0.000000;-1.000000;0.000000;,
  0.000000;0.000000;-1.000000;,
  0.000000;0.000000;-1.000000;,
  -1.000000;0.000000;0.000000;,
  -1.000000;0.000000;0.000000;,
  0.000000;0.000000;1.000000;,
  0.000000;0.000000;1.000000;,
  1.000000;0.000000;0.000000;,
  1.000000;0.000000;0.000000;,
  0.000000;1.000000;0.000000;,
  0.000000;1.000000;0.000000;,
  0.000000;-1.000000;0.000000;,
  0.000000;-1.000000;0.000000;,
  0.000000;0.000000;-1.000000;,
  0.000000;0.000000;-1.000000;,
  -1.000000;0.000000;0.000000;,
  -1.000000;0.000000;0.000000;,
  0.000000;0.000000;1.000000;,
  0.000000;0.000000;1.000000;,
  1.000000;0.000000;0.000000;,
  1.000000;0.000000;0.000000;,
  0.000000;1.000000;0.000000;,
  0.000000;1.000000;0.000000;,
  0.000000;-1.000000;0.000000;,
  0.000000;-1.000000;0.000000;,
  0.000000;0.000000;-1.000000;,
  0.000000;0.000000;-1.000000;,
  -1.000000;0.000000;0.000000;,
  -1.000000;0.000000;0.000000;,
  0.000000;0.000000;1.000000;,
  0.000000;0.000000;1.000000;,
  1.000000;0.000000;0.000000;,
  1.000000;0.000000;0.000000;,
  0.000000;1.000000;0.000000;,
  0.000000;1.000000;0.000000;,
  0.000000;-1.000000;0.000000;,
  0.000000;-1.000000;0.000000;,
  0.000000;0.000000;-1.000000;,
  0.000000;0.000000;-1.000000;,
  -1.000000;0.000000;0.000000;,
  -1.000000;0.000000;0.000000;,
  0.000000;0.000000;1.000000;,
  0.000000;0.000000;1.000000;,
  1.000000;0.000000;0.000000;,
  1.000000;0.000000;0.000000;,
  0.000000;1.000000;0.000000;,
  0.000000;1.000000;0.000000;,
  0.000000;-1.000000;0.000000;,
  0.000000;-1.000000;0.000000;,
  0.000000;0.000000;-1.000000;,
  0.000000;0.000000;-1.000000;,
  -1.000000;0.000000;0.000000;,
  -1.000000;0.000000;0.000000;,
  0.000000;0.000000;1.000000;,
  0.000000;0.000000;1.000000;,
  1.000000;0.000000;0.000000;,
  1.000000;0.000000;0.000000;,
  0.000000;1.000000;0.000000;,
  0.000000;1.000000;0.000000;,
  0.000000;-1.000000;0.000000;,
  0.000000;-1.000000;0.000000;,
  0.000000;0.000000;-1.000000;,
  0.000000;0.000000;-1.000000;,
  -1.000000;0.000000;0.000000;,
  -1.000000;0.000000;0.000000;,
  0.000000;0.000000;1.000000;,
  0.000000;0.000000;1.000000;,
  1.000000;0.000000;0.000000;,
  1.000000;0.000000;0.000000;,
  0.000000;1.000000;0.000000;,
  0.000000;1.000000;0.000000;,
  0.000000;-1.000000;0.000000;,
  0.000000;-1.000000;0.000000;,
  0.000000;0.000000;-1.000000;,
  0.000000;0.000000;-1.000000;,
  -1.000000;0.000000;0.000000;,
  -1.000000;0.000000;0.000000;,
  0.000000;0.000000;1.000000;,
  0.000000;0.000000;1.000000;,
  1.000000;0.000000;0.000000;,
  1.000000;0.000000;0.000000;,
  0.000000;1.000000;0.000000;,
  0.000000;1.000000;0.000000;,
  0.000000;-1.000000;0.000000;,
  0.000000;-1.000000;0.000000;,
  0.000000;0.000000;-1.000000;,
  0.000000;0.000000;-1.000000;,
  -1.000000;0.000000;0.000000;,
  -1.000000;0.000000;0.000000;,
  0.000000;0.000000;1.000000;,
  0.000000;0.000000;1.000000;,
  1.000000;0.000000;0.000000;,
  1.000000;0.000000;0.000000;,
  0.000000;1.000000;0.000000;,
  0.000000;1.000000;0.000000;,
  0.000000;-1.000000;0.000000;,
  0.000000;-1.000000;0.000000;,
  0.000000;0.000000;-1.000000;,
  0.000000;0.000000;-1.000000;,
  -1.000000;0.000000;0.000000;,
  -1.000000;0.000000;0.000000;,
  0.000000;0.000000;1.000000;,
  0.000000;0.000000;1.000000;,
  1.000000;0.000000;0.000000;,
  1.000000;0.000000;0.000000;,
  0.000000;1.000000;0.000000;,
  0.000000;1.000000;0.000000;,
  0.000000;-1.000000;0.000000;,
  0.000000;-1.000000;0.000000;,
  0.000000;0.000000;-1.000000;,
  0.000000;0.000000;-1.000000;,
  -1.000000;0.000000;0.000000;,
  -1.000000;0.000000;0.000000;,
  0.000000;0.000000;1.000000;,
  0.000000;0.000000;1.000000;,
  1.000000;0.000000;0.000000;,
  1.000000;0.000000;0.000000;,
  0.000000;1.000000;0.000000;,
  0.000000;1.000000;0.000000;,
  0.000000;-1.000000;0.000000;,
  0.000000;-1.000000;0.000000;;
  728;
  3;0,0,0;,
  3;1,1,1;,
  3;2,2,2;,
  3;3,3,3;,
  3;4,4,4;,
  3;5,5,5;,
  3;6,6,6;,
  3;7,7,7;,
  3;8,8,8;,
  3;9,9,9;,
  3;10,10,10;,
  3;11,11,11;,
  3;12,12,12;,
  3;13,13,13;,
  3;14,14,14;,
  3;15,15,15;,
  3;16,16,16;,
  3;17,17,17;,
  3;18,18,18;,
  3;19,19,19;,
  3;20,20,20;,
  3;21,21,21;,
  3;22,22,22;,
  3;23,23,23;,
  3;24,24,24;,
  3;25,25,25;,
  3;26,26,26;,
  3;27,27,27;,
  3;28,28,28;,
  3;29,29,29;,
  3;30,30,30;,
  3;31,31,31;,
  3;32,32,32;,
  3;33,33,33;,
  3;34,34,34;,
  3;35,35,35;,
  3;36,36,36;,
  3;37,37,37;,
  3;38,38,38;,
  3;39,39,39;,
  3;40,40,40;,
  3;41,41,41;,
  3;42,42,42;,
  3;43,43,43;,
  3;44,44,44;,
  3;45,45,45;,
  3;46,46,46;,
  3;47,47,47;,
  3;48,48,48;,
  3;49,49,49;,
  3;50,50,50;,
  3;51,51,51;,
  3;52,52,52;,
  3;53,53,53;,
  3;54,54,54;,
  3;55,55,55;,
  3;56,56,56;,
  3;57,57,57;,
  3;58,58,58;,
  3;59,59,59;,
  3;60,60,60;,
  3;61,61,61;,
  3;62,62,62;,
  3;63,63,63;,
  3;64,64,64;,
  3;65,65,65;,
  3;66,66,66;,
  3;67,67,67;,
  3;68,68,68;,
  3;69,69,69;,
  3;70,70,70;,
  3;71,71,71;,
  3;72,72,72;,
  3;73,73,73;,
  3;74,74,74;,
  3;75,75,75;,
  3;76,76,76;,
  3;77,77,77;,
  3;78,78,78;,
  3;79,79,79;,
  3;80,80,80;,
  3;81,81,81;,
  3;82,82,82;,
  3;83,83,83;,
  3;84,84,84;,
  3;85,85,85;,
  3;86,86,86;,
  3;87,87,87;,
  3;88,88,88;,
  3;89,89,89;,
  3;90,90,90;,
  3;91,91,91;,
  3;92,92,92;,
  3;93,93,93;,
  3;94,94,94;,
  3;95,95,95;,
  3;96,96,96;,
  3;97,97,97;,
  3;98,98,98;,
  3;99,99,99;,
  3;100,100,100;,
  3;101,101,101;,
  3;102,102,102;,
  3;103,103,103;,
  3;104,104,104;,
  3;105,105,105;,
  3;106,106,106;,
  3;107,107,107;,
  3;108,108,108;,
  3;109,109,109;,
  3;110,110,110;,
  3;111,111,111;,
  3;112,112,112;,
  3;113,113,113;,
  3;114,114,114;,
  3;115,115,115;,
  3;116,116,116;,
  3;117,117,117;,
  3;118,118,118;,
  3;119,119,119;,
  3;120,120,120;,
  3;121,121,121;,
  3;122,122,122;,
  3;123,123,123;,
  3;124,124,124;,
  3;125,125,125;,
  3;126,126,126;,
  3;127,127,127;,
  3;128,128,128;,
  3;129,129,129;,
  3;130,130,130;,
  3;131,131,131;,
  3;132,132,132;,
  3;133,133,133;,
  3;134,134,134;,
  3;135,135,135;,
  3;136,136,136;,
  3;137,137,137;,
  3;138,138,138;,
  3;139,139,139;,
  3;140,140,140;,
  3;141,141,141;,
  3;142,142,142;,
  3;143,143,143;,
  3;144,144,144;,
  3;145,145,145;,
  3;146,146,146;,
  3;147,147,147;,
  3;148,148,148;,
  3;149,149,149;,
  3;150,150,150;,
  3;151,151,151;,
  3;152,152,152;,
  3;153,153,153;,
  3;154,154,154;,
  3;155,155,155;,
  3;156,156,156;,
  3;157,157,157;,
  3;158,158,158;,
  3;159,159,159;,
  3;160,160,160;,
  3;161,161,161;,
  3;162,162,162;,
  3;163,163,163;,
  3;164,164,164;,
  3;165,165,165;,
  3;166,166,166;,
  3;167,167,167;,
  3;168,168,168;,
  3;169,169,169;,
  3;170,170,170;,
  3;171,171,171;,
  3;172,172,172;,
  3;173,173,173;,
  3;174,174,174;,
  3;175,175,175;,
  3;176,176,176;,
  3;177,177,177;,
  3;178,178,178;,
  3;179,179,179;,
  3;180,180,180;,
  3;181,181,181;,
  3;182,182,182;,
  3;183,183,183;,
  3;184,184,184;,
  3;185,185,185;,
  3;186,186,186;,
  3;187,187,187;,
  3;188,188,188;,
  3;189,189,189;,
  3;190,190,190;,
  3;191,191,191;,
  3;192,192,192;,
  3;193,193,193;,
  3;194,194,194;,
  3;195,195,195;,
  3;196,196,196;,
  3;197,197,197;,
  3;198,198,198;,
  3;199,199,199;,
  3;200,200,200;,
  3;201,201,201;,
  3;202,202,202;,
  3;203,203,203;,
  3;204,204,204;,
  3;205,205,205;,
  3;206,206,206;,
  3;207,207,207;,
  3;208,208,208;,
  3;209,209,209;,
  3;210,210,210;,
  3;211,211,211;,
  3;212,212,212;,
  3;213,213,213;,
  3;214,214,214;,
  3;215,215,215;,
  3;216,216,216;,
  3;217,217,217;,
  3;218,218,218;,
  3;219,219,219;,
  3;220,220,220;,
  3;221,221,221;,
  3;222,222,222;,
  3;223,223,223;,
  3;224,224,224;,
  3;225,225,225;,
  3;226,226,226;,
  3;227,227,227;,
  3;228,228,228;,
  3;229,229,229;,
  3;230,230,230;,
  3;231,231,231;,
  3;232,232,232;,
  3;233,233,233;,
  3;234,234,234;,
  3;235,235,235;,
  3;236,236,236;,
  3;237,237,237;,
  3;238,238,238;,
  3;239,239,239;,
  3;240,240,240;,
  3;241,241,241;,
  3;242,242,242;,
  3;243,243,243;,
  3;244,244,244;,
  3;245,245,245;,
  3;246,246,246;,
  3;247,247,247;,
  3;248,248,248;,
  3;249,249,249;,
  3;250,250,250;,
  3;251,251,251;,
  3;252,252,252;,
  3;253,253,253;,
  3;254,254,254;,
  3;255,255,255;,
  3;256,256,256;,
  3;257,257,257;,
  3;258,258,258;,
  3;259,259,259;,
  3;260,260,260;,
  3;261,261,261;,
  3;262,262,262;,
  3;263,263,263;,
  3;264,264,264;,
  3;265,265,265;,
  3;266,266,266;,
  3;267,267,267;,
  3;268,268,268;,
  3;269,269,269;,
  3;270,270,270;,
  3;271,271,271;,
  3;272,272,272;,
  3;273,273,273;,
  3;274,274,274;,
  3;275,275,275;,
  3;276,276,276;,
  3;277,277,277;,
  3;278,278,278;,
  3;279,279,279;,
  3;280,280,280;,
  3;281,281,281;,
  3;282,282,282;,
  3;283,283,283;,
  3;284,284,284;,
  3;285,285,285;,
  3;286,286,286;,
  3;287,287,287;,
  3;288,288,288;,
  3;289,289,289;,
  3;290,290,290;,
  3;291,291,291;,
  3;292,292,292;,
  3;293,293,293;,
  3;294,294,294;,
  3;295,295,295;,
  3;296,296,296;,
  3;297,297,297;,
  3;298,298,298;,
  3;299,299,299;,
  3;300,300,300;,
  3;301,301,301;,
  3;302,302,302;,
  3;303,303,303;,
  3;304,304,304;,
  3;305,305,305;,
  3;306,306,306;,
  3;307,307,307;,
  3;308,308,308;,
  3;309,309,309;,
  3;310,310,310;,
  3;311,311,311;,
  3;312,312,312;,
  3;313,313,313;,
  3;314,314,314;,
  3;315,315,315;,
  3;316,316,316;,
  3;317,317,317;,
  3;318,318,318;,
  3;319,319,319;,
  3;320,320,320;,
  3;321,321,321;,
  3;322,322,322;,
  3;323,323,323;,
  3;324,324,324;,
  3;325,325,325;,
  3;326,326,326;,
  3;327,327,327;,
  3;328,328,328;,
  3;329,329,329;,
  3;330,330,330;,
  3;331,331,331;,
  3;332,332,332;,
  3;333,333,333;,
  3;334,334,334;,
  3;335,335,335;,
  3;336,336,336;,
  3;337,337,337;,
  3;338,338,338;,
  3;339,339,339;,
  3;340,340,340;,
  3;341,341,341;,
  3;342,342,342;,
  3;343,343,343;,
  3;344,344,344;,
  3;345,345,345;,
  3;346,346,346;,
  3;347,347,347;,
  3;348,348,348;,
  3;349,349,349;,
  3;350,350,350;,
  3;351,351,351;,
  3;352,352,352;,
  3;353,353,353;,
  3;354,354,354;,
  3;355,355,355;,
  3;356,356,356;,
  3;357,357,357;,
  3;358,358,358;,
  3;359,359,359;,
  3;360,360,360;,
  3;361,361,361;,
  3;362,362,362;,
  3;363,363,363;,
  3;364,364,364;,
  3;365,365,365;,
  3;366,366,366;,
  3;367,367,367;,
  3;368,368,368;,
  3;369,369,369;,
  3;370,370,370;,
  3;371,371,371;,
  3;372,372,372;,
  3;373,373,373;,
  3;374,374,374;,
  3;375,375,375;,
  3;376,376,376;,
  3;377,377,377;,
  3;378,378,378;,
  3;379,379,379;,
  3;380,380,380;,
  3;381,381,381;,
  3;382,382,382;,
  3;383,383,383;,
  3;384,384,384;,
  3;385,385,385;,
  3;386,386,386;,
  3;387,387,387;,
  3;388,388,388;,
  3;389,389,389;,
  3;390,390,390;,
  3;391,391,391;,
  3;392,392,392;,
  3;393,393,393;,
  3;394,394,394;,
  3;395,395,395;,
  3;396,396,396;,
  3;397,397,397;,
  3;398,398,398;,
  3;399,399,399;,
  3;400,400,400;,
  3;401,401,401;,
  3;402,402,402;,
  3;403,403,403;,
  3;404,404,404;,
  3;405,405,405;,
  3;406,406,406;,
  3;407,407,407;,
  3;408,408,408;,
  3;409,409,409;,
  3;410,410,410;,
  3;411,411,411;,
  3;412,412,412;,
  3;413,413,413;,
  3;414,414,414;,
  3;415,415,415;,
  3;416,416,416;,
  3;417,417,417;,
  3;418,418,418;,
  3;419,419,419;,
  3;420,420,420;,
  3;421,421,421;,
  3;422,422,422;,
  3;423,423,423;,
  3;424,424,424;,
  3;425,425,425;,
  3;426,426,426;,
  3;427,427,427;,
  3;428,428,428;,
  3;429,429,429;,
  3;430,430,430;,
  3;431,431,431;,
  3;432,432,432;,
  3;433,433,433;,
  3;434,434,434;,
  3;435,435,435;,
  3;436,436,436;,
  3;437,437,437;,
  3;438,438,438;,
  3;439,439,439;,
  3;440,440,440;,
  3;441,441,441;,
  3;442,442,442;,
  3;443,443,443;,
  3;444,444,444;,
  3;445,445,445;,
  3;446,446,446;,
  3;447,447,447;,
  3;448,448,448;,
  3;449,449,449;,
  3;450,450,450;,
  3;451,451,451;,
  3;452,452,452;,
  3;453,453,453;,
  3;454,454,454;,
  3;455,455,455;,
  3;456,456,456;,
  3;457,457,457;,
  3;458,458,458;,
  3;459,459,459;,
  3;460,460,460;,
  3;461,461,461;,
  3;462,462,462;,
  3;463,463,463;,
  3;464,464,464;,
  3;465,465,465;,
  3;466,466,466;,
  3;467,467,467;,
  3;468,468,468;,
  3;469,469,469;,
  3;470,470,470;,
  3;471,471,471;,
  3;472,472,472;,
  3;473,473,473;,
  3;474,474,474;,
  3;475,475,475;,
  3;476,476,476;,
  3;477,477,477;,
  3;478,478,478;,
  3;479,479,479;,
  3;480,480,480;,
  3;481,481,481;,
  3;482,482,482;,
  3;483,483,483;,
  3;484,484,484;,
  3;485,485,485;,
  3;486,486,486;,
  3;487,487,487;,
  3;488,488,488;,
  3;489,489,489;,
  3;490,490,490;,
  3;491,491,491;,
  3;492,492,492;,
  3;493,493,493;,
  3;494,494,494;,
  3;495,495,495;,
  3;496,496,496;,
  3;497,497,497;,
  3;498,498,498;,
  3;499,499,499;,
  3;500,500,500;,
  3;501,501,501;,
  3;502,502,502;,
  3;503,503,503;,
  3;504,504,504;,
  3;505,505,505;,
  3;506,506,506;,
  3;507,507,507;,
  3;508,508,508;,
  3;509,509,509;,
  3;510,510,510;,
  3;511,511,511;,
  3;512,512,512;,
  3;513,513,513;,
  3;514,514,514;,
  3;515,515,515;,
  3;516,516,516;,
  3;517,517,517;,
  3;518,518,518;,
  3;519,519,519;,
  3;520,520,520;,
  3;521,521,521;,
  3;522,522,522;,
  3;523,523,523;,
  3;524,524,524;,
  3;525,525,525;,
  3;526,526,526;,
  3;527,527,527;,
  3;528,528,528;,
  3;529,529,529;,
  3;530,530,530;,
  3;531,531,531;,
  3;532,532,532;,
  3;533,533,533;,
  3;534,534,534;,
  3;535,535,535;,
  3;536,536,536;,
  3;537,537,537;,
  3;538,538,538;,
  3;539,539,539;,
  3;540,540,540;,
  3;541,541,541;,
  3;542,542,542;,
  3;543,543,543;,
  3;544,544,544;,
  3;545,545,545;,
  3;546,546,546;,
  3;547,547,547;,
  3;548,548,548;,
  3;549,549,549;,
  3;550,550,550;,
  3;551,551,551;,
  3;552,552,552;,
  3;553,553,553;,
  3;554,554,554;,
  3;555,555,555;,
  3;556,556,556;,
  3;557,557,557;,
  3;558,558,558;,
  3;559,559,559;,
  3;560,560,560;,
  3;561,561,561;,
  3;562,562,562;,
  3;563,563,563;,
  3;564,564,564;,
  3;565,565,565;,
  3;566,566,566;,
  3;567,567,567;,
  3;568,568,568;,
  3;569,569,569;,
  3;570,570,570;,
  3;571,571,571;,
  3;572,572,572;,
  3;573,573,573;,
  3;574,574,574;,
  3;575,575,575;,
  3;576,576,576;,
  3;577,577,577;,
  3;578,578,578;,
  3;579,579,579;,
  3;580,580,580;,
  3;581,581,581;,
  3;582,582,582;,
  3;583,583,583;,
  3;584,584,584;,
  3;585,585,585;,
  3;586,586,586;,
  3;587,587,587;,
  3;588,588,588;,
  3;589,589,589;,
  3;590,590,590;,
  3;591,591,591;,
  3;592,592,592;,
  3;593,593,593;,
  3;594,594,594;,
  3;595,595,595;,
  3;596,596,596;,
  3;597,597,597;,
  3;598,598,598;,
  3;599,599,599;,
  3;600,600,600;,
  3;601,601,601;,
  3;602,602,602;,
  3;603,603,603;,
  3;604,604,604;,
  3;605,605,605;,
  3;606,606,606;,
  3;607,607,607;,
  3;608,608,608;,
  3;609,609,609;,
  3;610,610,610;,
  3;611,611,611;,
  3;612,612,612;,
  3;613,613,613;,
  3;614,614,614;,
  3;615,615,615;,
  3;616,616,616;,
  3;617,617,617;,
  3;618,618,618;,
  3;619,619,619;,
  3;620,620,620;,
  3;621,621,621;,
  3;622,622,622;,
  3;623,623,623;,
  3;624,624,624;,
  3;625,625,625;,
  3;626,626,626;,
  3;627,627,627;,
  3;628,628,628;,
  3;629,629,629;,
  3;630,630,630;,
  3;631,631,631;,
  3;632,632,632;,
  3;633,633,633;,
  3;634,634,634;,
  3;635,635,635;,
  3;636,636,636;,
  3;637,637,637;,
  3;638,638,638;,
  3;639,639,639;,
  3;640,640,640;,
  3;641,641,641;,
  3;642,642,642;,
  3;643,643,643;,
  3;644,644,644;,
  3;645,645,645;,
  3;646,646,646;,
  3;647,647,647;,
  3;648,648,648;,
  3;649,649,649;,
  3;650,650,650;,
  3;651,651,651;,
  3;652,652,652;,
  3;653,653,653;,
  3;654,654,654;,
  3;655,655,655;,
  3;656,656,656;,
  3;657,657,657;,
  3;658,658,658;,
  3;659,659,659;,
  3;660,660,660;,
  3;661,661,661;,
  3;662,662,662;,
  3;663,663,663;,
  3;664,664,664;,
  3;665,665,665;,
  3;666,666,666;,
  3;667,667,667;,
  3;668,668,668;,
  3;669,669,669;,
  3;670,670,670;,
  3;671,671,671;,
  3;672,672,672;,
  3;673,673,673;,
  3;674,674,674;,
  3;675,675,675;,
  3;676,676,676;,
  3;677,677,677;,
  3;678,678,678;,
  3;679,679,679;,
  3;680,680,680;,
  3;681,681,681;,
  3;682,682,682;,
  3;683,683,683;,
  3;684,684,684;,
  3;685,685,685;,
  3;686,686,686;,
  3;687,687,687;,
  3;688,688,688;,
  3;689,689,689;,
  3;690,690,690;,
  3;691,691,691;,
  3;692,692,692;,
  3;693,693,693;,
  3;694,694,694;,
  3;695,695,695;,
  3;696,696,696;,
  3;697,697,697;,
  3;698,698,698;,
  3;699,699,699;,
  3;700,700,700;,
  3;701,701,701;,
  3;702,702,702;,
  3;703,703,703;,
  3;704,704,704;,
  3;705,705,705;,
  3;706,706,706;,
  3;707,707,707;,
  3;708,708,708;,
  3;709,709,709;,
  3;710,710,710;,
  3;711,711,711;,
  3;712,712,712;,
  3;713,713,713;,
  3;714,714,714;,
  3;715,715,715;,
  3;716,716,716;,
  3;717,717,717;,
  3;718,718,718;,
  3;719,719,719;,
  3;720,720,720;,
  3;721,721,721;,
  3;722,722,722;,
  3;723,723,723;,
  3;724,724,724;,
  3;725,725,725;,
  3;726,726,726;,
  3;727,727,727;;
 }
}