xof 0303txt 0032
template Vector {
 <3d82ab5e-62da-11cf-ab39-0020af71e433>
 FLOAT x;
 FLOAT y;
 FLOAT z;
}

template MeshFace {
 <3d82ab5f-62da-11cf-ab39-0020af71e433>
 DWORD nFaceVertexIndices;
 array DWORD faceVertexIndices[nFaceVertexIndices];
}

template Mesh {
 <3d82ab44-62da-11cf-ab39-0020af71e433>
 DWORD nVertices;
 array Vector vertices[nVertices];
 DWORD nFaces;
 array MeshFace faces[nFaces];
 [...]
}

template ColorRGBA {
 <35ff44e0-6c7c-11cf-8f52-0040333594a3>
 FLOAT red;
 FLOAT green;
 FLOAT blue;
 FLOAT alpha;
}

template ColorRGB {
 <d3e16e81-7835-11cf-8f52-0040333594a3>
 FLOAT red;
 FLOAT green;
 FLOAT blue;
}

template Material {
 <3d82ab4d-62da-11cf-ab39-0020af71e433>
 ColorRGBA faceColor;
 FLOAT power;
 ColorRGB specularColor;
 ColorRGB emissiveColor;
 [...]
}

template MeshMaterialList {
 <f6f23f42-7686-11cf-8f52-0040333594a3>
 DWORD nMaterials;
 DWORD nFaceIndexes;
 array DWORD faceIndexes[nFaceIndexes];
 [Material <3d82ab4d-62da-11cf-ab39-0020af71e433>]
}

template Coords2d {
 <f6f23f44-7686-11cf-8f52-0040333594a3>
 FLOAT u;
 FLOAT v;
}

template MeshTextureCoords {
 <f6f23f40-7686-11cf-8f52-0040333594a3>
 DWORD nTextureCoords;
 array Coords2d textureCoords[nTextureCoords];
}

template MeshNormals {
 <f6f23f43-7686-11cf-8f52-0040333594a3>
 DWORD nNormals;
 array Vector normals[nNormals];
 DWORD nFaceNormals;
 array MeshFace faceNormals[nFaceNormals];
}


Mesh  {
 56;
 -0.260000;-0.030000;-2.010000;,
 -0.260000;-0.230000;-2.010000;,
 -0.340000;-0.230000;-2.010000;,
 -0.340000;-0.030000;-2.010000;,
 -0.260000;-0.030000;0.000000;,
 -0.260000;-0.230000;0.000000;,
 -0.340000;-0.230000;0.000000;,
 -0.340000;-0.030000;0.000000;,
 0.340000;-0.030000;-2.010000;,
 0.340000;-0.230000;-2.010000;,
 0.260000;-0.230000;-2.010000;,
 0.260000;-0.030000;-2.010000;,
 0.340000;-0.030000;0.000000;,
 0.340000;-0.230000;0.000000;,
 0.260000;-0.230000;0.000000;,
 0.260000;-0.030000;0.000000;,
 1.000000;-0.174000;-0.255000;,
 1.000000;-0.344000;-0.255000;,
 -1.000000;-0.344000;-0.255000;,
 -1.000000;-0.174000;-0.255000;,
 1.000000;-0.174000;-0.145000;,
 1.000000;-0.344000;-0.145000;,
 -1.000000;-0.344000;-0.145000;,
 -1.000000;-0.174000;-0.145000;,
 1.000000;-0.174000;-0.655000;,
 1.000000;-0.344000;-0.655000;,
 -1.000000;-0.344000;-0.655000;,
 -1.000000;-0.174000;-0.655000;,
 1.000000;-0.174000;-0.545000;,
 1.000000;-0.344000;-0.545000;,
 -1.000000;-0.344000;-0.545000;,
 -1.000000;-0.174000;-0.545000;,
 1.000000;-0.174000;-1.055000;,
 1.000000;-0.344000;-1.055000;,
 -1.000000;-0.344000;-1.055000;,
 -1.000000;-0.174000;-1.055000;,
 1.000000;-0.174000;-0.945000;,
 1.000000;-0.344000;-0.945000;,
 -1.000000;-0.344000;-0.945000;,
 -1.000000;-0.174000;-0.945000;,
 1.000000;-0.174000;-1.455000;,
 1.000000;-0.344000;-1.455000;,
 -1.000000;-0.344000;-1.455000;,
 -1.000000;-0.174000;-1.455000;,
 1.000000;-0.174000;-1.345000;,
 1.000000;-0.344000;-1.345000;,
 -1.000000;-0.344000;-1.345000;,
 -1.000000;-0.174000;-1.345000;,
 1.000000;-0.174000;-1.855000;,
 1.000000;-0.344000;-1.855000;,
 -1.000000;-0.344000;-1.855000;,
 -1.000000;-0.174000;-1.855000;,
 1.000000;-0.174000;-1.745000;,
 1.000000;-0.344000;-1.745000;,
 -1.000000;-0.344000;-1.745000;,
 -1.000000;-0.174000;-1.745000;;
 84;
 3;0,1,2;,
 3;0,2,3;,
 3;3,2,6;,
 3;3,6,7;,
 3;7,6,5;,
 3;7,5,4;,
 3;4,5,1;,
 3;4,1,0;,
 3;0,3,7;,
 3;0,7,4;,
 3;1,5,6;,
 3;1,6,2;,
 3;8,9,10;,
 3;8,10,11;,
 3;11,10,14;,
 3;11,14,15;,
 3;15,14,13;,
 3;15,13,12;,
 3;12,13,9;,
 3;12,9,8;,
 3;8,11,15;,
 3;8,15,12;,
 3;9,13,14;,
 3;9,14,10;,
 3;16,17,18;,
 3;16,18,19;,
 3;19,18,22;,
 3;19,22,23;,
 3;23,22,21;,
 3;23,21,20;,
 3;20,21,17;,
 3;20,17,16;,
 3;16,19,23;,
 3;16,23,20;,
 3;17,21,22;,
 3;17,22,18;,
 3;24,25,26;,
 3;24,26,27;,
 3;27,26,30;,
 3;27,30,31;,
 3;31,30,29;,
 3;31,29,28;,
 3;28,29,25;,
 3;28,25,24;,
 3;24,27,31;,
 3;24,31,28;,
 3;25,29,30;,
 3;25,30,26;,
 3;32,33,34;,
 3;32,34,35;,
 3;35,34,38;,
 3;35,38,39;,
 3;39,38,37;,
 3;39,37,36;,
 3;36,37,33;,
 3;36,33,32;,
 3;32,35,39;,
 3;32,39,36;,
 3;33,37,38;,
 3;33,38,34;,
 3;40,41,42;,
 3;40,42,43;,
 3;43,42,46;,
 3;43,46,47;,
 3;47,46,45;,
 3;47,45,44;,
 3;44,45,41;,
 3;44,41,40;,
 3;40,43,47;,
 3;40,47,44;,
 3;41,45,46;,
 3;41,46,42;,
 3;48,49,50;,
 3;48,50,51;,
 3;51,50,54;,
 3;51,54,55;,
 3;55,54,53;,
 3;55,53,52;,
 3;52,53,49;,
 3;52,49,48;,
 3;48,51,55;,
 3;48,55,52;,
 3;49,53,54;,
 3;49,54,50;;

 MeshMaterialList  {
  7;
  84;
  0,
  0,
  0,
  0,
  0,
  0,
  0,
  0,
  0,
  0,
  0,
  0,
  1,
  1,
  1,
  1,
  1,
  1,
  1,
  1,
  1,
  1,
  1,
  1,
  2,
  2,
  2,
  2,
  2,
  2,
  2,
  2,
  2,
  2,
  2,
  2,
  3,
  3,
  3,
  3,
  3,
  3,
  3,
  3,
  3,
  3,
  3,
  3,
  4,
  4,
  4,
  4,
  4,
  4,
  4,
  4,
  4,
  4,
  4,
  4,
  5,
  5,
  5,
  5,
  5,
  5,
  5,
  5,
  5,
  5,
  5,
  5,
  6,
  6,
  6,
  6,
  6,
  6,
  6,
  6,
  6,
  6,
  6,
  6;

  Material  {
   0.352941;0.094118;0.094118;1.000000;;
   0.000000;
   0.000000;0.000000;0.000000;;
   0.000000;0.000000;0.000000;;
  }

  Material  {
   0.352941;0.094118;0.094118;1.000000;;
   0.000000;
   0.000000;0.000000;0.000000;;
   0.000000;0.000000;0.000000;;
  }

  Material  {
   0.482353;0.113725;0.113725;1.000000;;
   0.000000;
   0.000000;0.000000;0.000000;;
   0.000000;0.000000;0.000000;;
  }

  Material  {
   0.482353;0.113725;0.113725;1.000000;;
   0.000000;
   0.000000;0.000000;0.000000;;
   0.000000;0.000000;0.000000;;
  }

  Material  {
   0.482353;0.113725;0.113725;1.000000;;
   0.000000;
   0.000000;0.000000;0.000000;;
   0.000000;0.000000;0.000000;;
  }

  Material  {
   0.482353;0.113725;0.113725;1.000000;;
   0.000000;
   0.000000;0.000000;0.000000;;
   0.000000;0.000000;0.000000;;
  }

  Material  {
   0.482353;0.113725;0.113725;1.000000;;
   0.000000;
   0.000000;0.000000;0.000000;;
   0.000000;0.000000;0.000000;;
  }
 }

 MeshTextureCoords  {
  56;
  0.000000;0.000000;,
  0.000000;0.000000;,
  0.000000;0.000000;,
  0.000000;0.000000;,
  0.000000;0.000000;,
  0.000000;0.000000;,
  0.000000;0.000000;,
  0.000000;0.000000;,
  0.000000;0.000000;,
  0.000000;0.000000;,
  0.000000;0.000000;,
  0.000000;0.000000;,
  0.000000;0.000000;,
  0.000000;0.000000;,
  0.000000;0.000000;,
  0.000000;0.000000;,
  0.000000;0.000000;,
  0.000000;0.000000;,
  0.000000;0.000000;,
  0.000000;0.000000;,
  0.000000;0.000000;,
  0.000000;0.000000;,
  0.000000;0.000000;,
  0.000000;0.000000;,
  0.000000;0.000000;,
  0.000000;0.000000;,
  0.000000;0.000000;,
  0.000000;0.000000;,
  0.000000;0.000000;,
  0.000000;0.000000;,
  0.000000;0.000000;,
  0.000000;0.000000;,
  0.000000;0.000000;,
  0.000000;0.000000;,
  0.000000;0.000000;,
  0.000000;0.000000;,
  0.000000;0.000000;,
  0.000000;0.000000;,
  0.000000;0.000000;,
  0.000000;0.000000;,
  0.000000;0.000000;,
  0.000000;0.000000;,
  0.000000;0.000000;,
  0.000000;0.000000;,
  0.000000;0.000000;,
  0.000000;0.000000;,
  0.000000;0.000000;,
  0.000000;0.000000;,
  0.000000;0.000000;,
  0.000000;0.000000;,
  0.000000;0.000000;,
  0.000000;0.000000;,
  0.000000;0.000000;,
  0.000000;0.000000;,
  0.000000;0.000000;,
  0.000000;0.000000;;
 }

 MeshNormals  {
  84;
  0.000000;0.000000;-1.000000;,
  0.000000;0.000000;-1.000000;,
  -1.000000;0.000000;0.000000;,
  -1.000000;0.000000;0.000000;,
  0.000000;0.000000;1.000000;,
  0.000000;0.000000;1.000000;,
  1.000000;0.000000;0.000000;,
  1.000000;0.000000;0.000000;,
  0.000000;1.000000;0.000000;,
  0.000000;1.000000;0.000000;,
  0.000000;-1.000000;0.000000;,
  0.000000;-1.000000;0.000000;,
  0.000000;0.000000;-1.000000;,
  0.000000;0.000000;-1.000000;,
  -1.000000;0.000000;0.000000;,
  -1.000000;0.000000;0.000000;,
  0.000000;0.000000;1.000000;,
  0.000000;0.000000;1.000000;,
  1.000000;0.000000;0.000000;,
  1.000000;0.000000;0.000000;,
  0.000000;1.000000;0.000000;,
  0.000000;1.000000;0.000000;,
  0.000000;-1.000000;0.000000;,
  0.000000;-1.000000;0.000000;,
  0.000000;0.000000;-1.000000;,
  0.000000;0.000000;-1.000000;,
  -1.000000;0.000000;0.000000;,
  -1.000000;0.000000;0.000000;,
  0.000000;0.000000;1.000000;,
  0.000000;0.000000;1.000000;,
  1.000000;0.000000;0.000000;,
  1.000000;0.000000;0.000000;,
  0.000000;1.000000;0.000000;,
  0.000000;1.000000;0.000000;,
  0.000000;-1.000000;0.000000;,
  0.000000;-1.000000;0.000000;,
  0.000000;0.000000;-1.000000;,
  0.000000;0.000000;-1.000000;,
  -1.000000;0.000000;0.000000;,
  -1.000000;0.000000;0.000000;,
  0.000000;0.000000;1.000000;,
  0.000000;0.000000;1.000000;,
  1.000000;0.000000;0.000000;,
  1.000000;0.000000;0.000000;,
  0.000000;1.000000;0.000000;,
  0.000000;1.000000;0.000000;,
  0.000000;-1.000000;0.000000;,
  0.000000;-1.000000;0.000000;,
  0.000000;0.000000;-1.000000;,
  0.000000;0.000000;-1.000000;,
  -1.000000;0.000000;0.000000;,
  -1.000000;0.000000;0.000000;,
  0.000000;0.000000;1.000000;,
  0.000000;0.000000;1.000000;,
  1.000000;0.000000;0.000000;,
  1.000000;0.000000;0.000000;,
  0.000000;1.000000;0.000000;,
  0.000000;1.000000;0.000000;,
  0.000000;-1.000000;0.000000;,
  0.000000;-1.000000;0.000000;,
  0.000000;0.000000;-1.000000;,
  0.000000;0.000000;-1.000000;,
  -1.000000;0.000000;0.000000;,
  -1.000000;0.000000;0.000000;,
  0.000000;0.000000;1.000000;,
  0.000000;0.000000;1.000000;,
  1.000000;0.000000;0.000000;,
  1.000000;0.000000;0.000000;,
  0.000000;1.000000;0.000000;,
  0.000000;1.000000;0.000000;,
  0.000000;-1.000000;0.000000;,
  0.000000;-1.000000;0.000000;,
  0.000000;0.000000;-1.000000;,
  0.000000;0.000000;-1.000000;,
  -1.000000;0.000000;0.000000;,
  -1.000000;0.000000;0.000000;,
  0.000000;0.000000;1.000000;,
  0.000000;0.000000;1.000000;,
  1.000000;0.000000;0.000000;,
  1.000000;0.000000;0.000000;,
  0.000000;1.000000;0.000000;,
  0.000000;1.000000;0.000000;,
  0.000000;-1.000000;0.000000;,
  0.000000;-1.000000;0.000000;;
  84;
  3;0,0,0;,
  3;1,1,1;,
  3;2,2,2;,
  3;3,3,3;,
  3;4,4,4;,
  3;5,5,5;,
  3;6,6,6;,
  3;7,7,7;,
  3;8,8,8;,
  3;9,9,9;,
  3;10,10,10;,
  3;11,11,11;,
  3;12,12,12;,
  3;13,13,13;,
  3;14,14,14;,
  3;15,15,15;,
  3;16,16,16;,
  3;17,17,17;,
  3;18,18,18;,
  3;19,19,19;,
  3;20,20,20;,
  3;21,21,21;,
  3;22,22,22;,
  3;23,23,23;,
  3;24,24,24;,
  3;25,25,25;,
  3;26,26,26;,
  3;27,27,27;,
  3;28,28,28;,
  3;29,29,29;,
  3;30,30,30;,
  3;31,31,31;,
  3;32,32,32;,
  3;33,33,33;,
  3;34,34,34;,
  3;35,35,35;,
  3;36,36,36;,
  3;37,37,37;,
  3;38,38,38;,
  3;39,39,39;,
  3;40,40,40;,
  3;41,41,41;,
  3;42,42,42;,
  3;43,43,43;,
  3;44,44,44;,
  3;45,45,45;,
  3;46,46,46;,
  3;47,47,47;,
  3;48,48,48;,
  3;49,49,49;,
  3;50,50,50;,
  3;51,51,51;,
  3;52,52,52;,
  3;53,53,53;,
  3;54,54,54;,
  3;55,55,55;,
  3;56,56,56;,
  3;57,57,57;,
  3;58,58,58;,
  3;59,59,59;,
  3;60,60,60;,
  3;61,61,61;,
  3;62,62,62;,
  3;63,63,63;,
  3;64,64,64;,
  3;65,65,65;,
  3;66,66,66;,
  3;67,67,67;,
  3;68,68,68;,
  3;69,69,69;,
  3;70,70,70;,
  3;71,71,71;,
  3;72,72,72;,
  3;73,73,73;,
  3;74,74,74;,
  3;75,75,75;,
  3;76,76,76;,
  3;77,77,77;,
  3;78,78,78;,
  3;79,79,79;,
  3;80,80,80;,
  3;81,81,81;,
  3;82,82,82;,
  3;83,83,83;;
 }
}