xof 0303txt 0032
template Vector {
 <3d82ab5e-62da-11cf-ab39-0020af71e433>
 FLOAT x;
 FLOAT y;
 FLOAT z;
}

template MeshFace {
 <3d82ab5f-62da-11cf-ab39-0020af71e433>
 DWORD nFaceVertexIndices;
 array DWORD faceVertexIndices[nFaceVertexIndices];
}

template Mesh {
 <3d82ab44-62da-11cf-ab39-0020af71e433>
 DWORD nVertices;
 array Vector vertices[nVertices];
 DWORD nFaces;
 array MeshFace faces[nFaces];
 [...]
}

template ColorRGBA {
 <35ff44e0-6c7c-11cf-8f52-0040333594a3>
 FLOAT red;
 FLOAT green;
 FLOAT blue;
 FLOAT alpha;
}

template ColorRGB {
 <d3e16e81-7835-11cf-8f52-0040333594a3>
 FLOAT red;
 FLOAT green;
 FLOAT blue;
}

template Material {
 <3d82ab4d-62da-11cf-ab39-0020af71e433>
 ColorRGBA faceColor;
 FLOAT power;
 ColorRGB specularColor;
 ColorRGB emissiveColor;
 [...]
}

template MeshMaterialList {
 <f6f23f42-7686-11cf-8f52-0040333594a3>
 DWORD nMaterials;
 DWORD nFaceIndexes;
 array DWORD faceIndexes[nFaceIndexes];
 [Material <3d82ab4d-62da-11cf-ab39-0020af71e433>]
}

template Coords2d {
 <f6f23f44-7686-11cf-8f52-0040333594a3>
 FLOAT u;
 FLOAT v;
}

template MeshTextureCoords {
 <f6f23f40-7686-11cf-8f52-0040333594a3>
 DWORD nTextureCoords;
 array Coords2d textureCoords[nTextureCoords];
}

template MeshNormals {
 <f6f23f43-7686-11cf-8f52-0040333594a3>
 DWORD nNormals;
 array Vector normals[nNormals];
 DWORD nFaceNormals;
 array MeshFace faceNormals[nFaceNormals];
}


Mesh  {
 366;
 0.230000;-0.174000;0.000000;,
 0.230000;-0.344000;0.000000;,
 -0.230000;-0.344000;0.000000;,
 -0.230000;-0.174000;0.000000;,
 0.230000;-0.174000;5.020000;,
 0.230000;-0.344000;5.020000;,
 -0.230000;-0.344000;5.020000;,
 -0.230000;-0.174000;5.020000;,
 0.200000;-0.335000;0.625000;,
 0.200000;-0.415000;0.625000;,
 0.193185;-0.335000;0.676764;,
 0.193185;-0.415000;0.676764;,
 0.173205;-0.335000;0.725000;,
 0.173205;-0.415000;0.725000;,
 0.141421;-0.335000;0.766421;,
 0.141421;-0.415000;0.766421;,
 0.100000;-0.335000;0.798205;,
 0.100000;-0.415000;0.798205;,
 0.051764;-0.335000;0.818185;,
 0.051764;-0.415000;0.818185;,
 0.000000;-0.335000;0.825000;,
 0.000000;-0.415000;0.825000;,
 -0.051764;-0.335000;0.818185;,
 -0.051764;-0.415000;0.818185;,
 -0.100000;-0.335000;0.798205;,
 -0.100000;-0.415000;0.798205;,
 -0.141421;-0.335000;0.766421;,
 -0.141421;-0.415000;0.766421;,
 -0.173205;-0.335000;0.725000;,
 -0.173205;-0.415000;0.725000;,
 -0.193185;-0.335000;0.676764;,
 -0.193185;-0.415000;0.676764;,
 -0.200000;-0.335000;0.625000;,
 -0.200000;-0.415000;0.625000;,
 -0.193185;-0.335000;0.573236;,
 -0.193185;-0.415000;0.573236;,
 -0.173205;-0.335000;0.525000;,
 -0.173205;-0.415000;0.525000;,
 -0.141421;-0.335000;0.483579;,
 -0.141421;-0.415000;0.483579;,
 -0.100000;-0.335000;0.451795;,
 -0.100000;-0.415000;0.451795;,
 -0.051764;-0.335000;0.431815;,
 -0.051764;-0.415000;0.431815;,
 -0.000000;-0.335000;0.425000;,
 -0.000000;-0.415000;0.425000;,
 0.051764;-0.335000;0.431815;,
 0.051764;-0.415000;0.431815;,
 0.100000;-0.335000;0.451795;,
 0.100000;-0.415000;0.451795;,
 0.141421;-0.335000;0.483579;,
 0.141421;-0.415000;0.483579;,
 0.173205;-0.335000;0.525000;,
 0.173205;-0.415000;0.525000;,
 0.193185;-0.335000;0.573236;,
 0.193185;-0.415000;0.573236;,
 0.330000;-0.435000;0.385000;,
 0.330000;-0.475000;0.385000;,
 -0.330000;-0.475000;0.385000;,
 -0.330000;-0.435000;0.385000;,
 0.330000;-0.435000;0.865000;,
 0.330000;-0.475000;0.865000;,
 -0.330000;-0.475000;0.865000;,
 -0.330000;-0.435000;0.865000;,
 0.200000;-0.335000;1.875000;,
 0.200000;-0.415000;1.875000;,
 0.193185;-0.335000;1.926764;,
 0.193185;-0.415000;1.926764;,
 0.173205;-0.335000;1.975000;,
 0.173205;-0.415000;1.975000;,
 0.141421;-0.335000;2.016421;,
 0.141421;-0.415000;2.016421;,
 0.100000;-0.335000;2.048205;,
 0.100000;-0.415000;2.048205;,
 0.051764;-0.335000;2.068185;,
 0.051764;-0.415000;2.068185;,
 0.000000;-0.335000;2.075000;,
 0.000000;-0.415000;2.075000;,
 -0.051764;-0.335000;2.068185;,
 -0.051764;-0.415000;2.068185;,
 -0.100000;-0.335000;2.048205;,
 -0.100000;-0.415000;2.048205;,
 -0.141421;-0.335000;2.016421;,
 -0.141421;-0.415000;2.016421;,
 -0.173205;-0.335000;1.975000;,
 -0.173205;-0.415000;1.975000;,
 -0.193185;-0.335000;1.926764;,
 -0.193185;-0.415000;1.926764;,
 -0.200000;-0.335000;1.875000;,
 -0.200000;-0.415000;1.875000;,
 -0.193185;-0.335000;1.823236;,
 -0.193185;-0.415000;1.823236;,
 -0.173205;-0.335000;1.775000;,
 -0.173205;-0.415000;1.775000;,
 -0.141421;-0.335000;1.733579;,
 -0.141421;-0.415000;1.733579;,
 -0.100000;-0.335000;1.701795;,
 -0.100000;-0.415000;1.701795;,
 -0.051764;-0.335000;1.681815;,
 -0.051764;-0.415000;1.681815;,
 -0.000000;-0.335000;1.675000;,
 -0.000000;-0.415000;1.675000;,
 0.051764;-0.335000;1.681815;,
 0.051764;-0.415000;1.681815;,
 0.100000;-0.335000;1.701795;,
 0.100000;-0.415000;1.701795;,
 0.141421;-0.335000;1.733579;,
 0.141421;-0.415000;1.733579;,
 0.173205;-0.335000;1.775000;,
 0.173205;-0.415000;1.775000;,
 0.193185;-0.335000;1.823236;,
 0.193185;-0.415000;1.823236;,
 0.330000;-0.435000;1.635000;,
 0.330000;-0.475000;1.635000;,
 -0.330000;-0.475000;1.635000;,
 -0.330000;-0.435000;1.635000;,
 0.330000;-0.435000;2.115000;,
 0.330000;-0.475000;2.115000;,
 -0.330000;-0.475000;2.115000;,
 -0.330000;-0.435000;2.115000;,
 0.200000;-0.335000;3.125000;,
 0.200000;-0.415000;3.125000;,
 0.193185;-0.335000;3.176764;,
 0.193185;-0.415000;3.176764;,
 0.173205;-0.335000;3.225000;,
 0.173205;-0.415000;3.225000;,
 0.141421;-0.335000;3.266421;,
 0.141421;-0.415000;3.266421;,
 0.100000;-0.335000;3.298205;,
 0.100000;-0.415000;3.298205;,
 0.051764;-0.335000;3.318185;,
 0.051764;-0.415000;3.318185;,
 0.000000;-0.335000;3.325000;,
 0.000000;-0.415000;3.325000;,
 -0.051764;-0.335000;3.318185;,
 -0.051764;-0.415000;3.318185;,
 -0.100000;-0.335000;3.298205;,
 -0.100000;-0.415000;3.298205;,
 -0.141421;-0.335000;3.266421;,
 -0.141421;-0.415000;3.266421;,
 -0.173205;-0.335000;3.225000;,
 -0.173205;-0.415000;3.225000;,
 -0.193185;-0.335000;3.176764;,
 -0.193185;-0.415000;3.176764;,
 -0.200000;-0.335000;3.125000;,
 -0.200000;-0.415000;3.125000;,
 -0.193185;-0.335000;3.073236;,
 -0.193185;-0.415000;3.073236;,
 -0.173205;-0.335000;3.025000;,
 -0.173205;-0.415000;3.025000;,
 -0.141421;-0.335000;2.983578;,
 -0.141421;-0.415000;2.983578;,
 -0.100000;-0.335000;2.951795;,
 -0.100000;-0.415000;2.951795;,
 -0.051764;-0.335000;2.931815;,
 -0.051764;-0.415000;2.931815;,
 -0.000000;-0.335000;2.925000;,
 -0.000000;-0.415000;2.925000;,
 0.051764;-0.335000;2.931815;,
 0.051764;-0.415000;2.931815;,
 0.100000;-0.335000;2.951795;,
 0.100000;-0.415000;2.951795;,
 0.141421;-0.335000;2.983578;,
 0.141421;-0.415000;2.983578;,
 0.173205;-0.335000;3.025000;,
 0.173205;-0.415000;3.025000;,
 0.193185;-0.335000;3.073236;,
 0.193185;-0.415000;3.073236;,
 0.330000;-0.435000;2.885000;,
 0.330000;-0.475000;2.885000;,
 -0.330000;-0.475000;2.885000;,
 -0.330000;-0.435000;2.885000;,
 0.330000;-0.435000;3.365000;,
 0.330000;-0.475000;3.365000;,
 -0.330000;-0.475000;3.365000;,
 -0.330000;-0.435000;3.365000;,
 0.200000;-0.335000;4.375000;,
 0.200000;-0.415000;4.375000;,
 0.193185;-0.335000;4.426764;,
 0.193185;-0.415000;4.426764;,
 0.173205;-0.335000;4.474999;,
 0.173205;-0.415000;4.474999;,
 0.141421;-0.335000;4.516421;,
 0.141421;-0.415000;4.516421;,
 0.100000;-0.335000;4.548204;,
 0.100000;-0.415000;4.548204;,
 0.051764;-0.335000;4.568185;,
 0.051764;-0.415000;4.568185;,
 0.000000;-0.335000;4.574999;,
 0.000000;-0.415000;4.574999;,
 -0.051764;-0.335000;4.568185;,
 -0.051764;-0.415000;4.568185;,
 -0.100000;-0.335000;4.548204;,
 -0.100000;-0.415000;4.548204;,
 -0.141421;-0.335000;4.516421;,
 -0.141421;-0.415000;4.516421;,
 -0.173205;-0.335000;4.474999;,
 -0.173205;-0.415000;4.474999;,
 -0.193185;-0.335000;4.426764;,
 -0.193185;-0.415000;4.426764;,
 -0.200000;-0.335000;4.375000;,
 -0.200000;-0.415000;4.375000;,
 -0.193185;-0.335000;4.323236;,
 -0.193185;-0.415000;4.323236;,
 -0.173205;-0.335000;4.275000;,
 -0.173205;-0.415000;4.275000;,
 -0.141421;-0.335000;4.233578;,
 -0.141421;-0.415000;4.233578;,
 -0.100000;-0.335000;4.201795;,
 -0.100000;-0.415000;4.201795;,
 -0.051764;-0.335000;4.181814;,
 -0.051764;-0.415000;4.181814;,
 -0.000000;-0.335000;4.175000;,
 -0.000000;-0.415000;4.175000;,
 0.051764;-0.335000;4.181814;,
 0.051764;-0.415000;4.181814;,
 0.100000;-0.335000;4.201795;,
 0.100000;-0.415000;4.201795;,
 0.141421;-0.335000;4.233578;,
 0.141421;-0.415000;4.233578;,
 0.173205;-0.335000;4.275000;,
 0.173205;-0.415000;4.275000;,
 0.193185;-0.335000;4.323236;,
 0.193185;-0.415000;4.323236;,
 0.330000;-0.435000;4.135000;,
 0.330000;-0.475000;4.135000;,
 -0.330000;-0.475000;4.135000;,
 -0.330000;-0.435000;4.135000;,
 0.330000;-0.435000;4.614999;,
 0.330000;-0.475000;4.614999;,
 -0.330000;-0.475000;4.614999;,
 -0.330000;-0.435000;4.614999;,
 -0.060000;-0.173900;0.000000;,
 0.000000;-0.160000;0.000000;,
 0.060000;-0.173900;0.000000;,
 -0.060000;-0.173900;5.010000;,
 0.000000;-0.160000;5.010000;,
 0.060000;-0.173900;5.010000;,
 -0.050000;-0.134000;0.292500;,
 -0.050000;-0.174000;0.292500;,
 -0.150000;-0.174000;0.292500;,
 -0.150000;-0.134000;0.292500;,
 -0.050000;-0.134000;0.332500;,
 -0.050000;-0.174000;0.332500;,
 -0.150000;-0.174000;0.332500;,
 -0.150000;-0.134000;0.332500;,
 0.150000;-0.134000;0.292500;,
 0.150000;-0.174000;0.292500;,
 0.050000;-0.174000;0.292500;,
 0.050000;-0.134000;0.292500;,
 0.150000;-0.134000;0.332500;,
 0.150000;-0.174000;0.332500;,
 0.050000;-0.174000;0.332500;,
 0.050000;-0.134000;0.332500;,
 -0.050000;-0.134000;0.917500;,
 -0.050000;-0.174000;0.917500;,
 -0.150000;-0.174000;0.917500;,
 -0.150000;-0.134000;0.917500;,
 -0.050000;-0.134000;0.957500;,
 -0.050000;-0.174000;0.957500;,
 -0.150000;-0.174000;0.957500;,
 -0.150000;-0.134000;0.957500;,
 0.150000;-0.134000;0.917500;,
 0.150000;-0.174000;0.917500;,
 0.050000;-0.174000;0.917500;,
 0.050000;-0.134000;0.917500;,
 0.150000;-0.134000;0.957500;,
 0.150000;-0.174000;0.957500;,
 0.050000;-0.174000;0.957500;,
 0.050000;-0.134000;0.957500;,
 -0.050000;-0.134000;1.542500;,
 -0.050000;-0.174000;1.542500;,
 -0.150000;-0.174000;1.542500;,
 -0.150000;-0.134000;1.542500;,
 -0.050000;-0.134000;1.582500;,
 -0.050000;-0.174000;1.582500;,
 -0.150000;-0.174000;1.582500;,
 -0.150000;-0.134000;1.582500;,
 0.150000;-0.134000;1.542500;,
 0.150000;-0.174000;1.542500;,
 0.050000;-0.174000;1.542500;,
 0.050000;-0.134000;1.542500;,
 0.150000;-0.134000;1.582500;,
 0.150000;-0.174000;1.582500;,
 0.050000;-0.174000;1.582500;,
 0.050000;-0.134000;1.582500;,
 -0.050000;-0.134000;2.167500;,
 -0.050000;-0.174000;2.167500;,
 -0.150000;-0.174000;2.167500;,
 -0.150000;-0.134000;2.167500;,
 -0.050000;-0.134000;2.207500;,
 -0.050000;-0.174000;2.207500;,
 -0.150000;-0.174000;2.207500;,
 -0.150000;-0.134000;2.207500;,
 0.150000;-0.134000;2.167500;,
 0.150000;-0.174000;2.167500;,
 0.050000;-0.174000;2.167500;,
 0.050000;-0.134000;2.167500;,
 0.150000;-0.134000;2.207500;,
 0.150000;-0.174000;2.207500;,
 0.050000;-0.174000;2.207500;,
 0.050000;-0.134000;2.207500;,
 -0.050000;-0.134000;2.792500;,
 -0.050000;-0.174000;2.792500;,
 -0.150000;-0.174000;2.792500;,
 -0.150000;-0.134000;2.792500;,
 -0.050000;-0.134000;2.832500;,
 -0.050000;-0.174000;2.832500;,
 -0.150000;-0.174000;2.832500;,
 -0.150000;-0.134000;2.832500;,
 0.150000;-0.134000;2.792500;,
 0.150000;-0.174000;2.792500;,
 0.050000;-0.174000;2.792500;,
 0.050000;-0.134000;2.792500;,
 0.150000;-0.134000;2.832500;,
 0.150000;-0.174000;2.832500;,
 0.050000;-0.174000;2.832500;,
 0.050000;-0.134000;2.832500;,
 -0.050000;-0.134000;3.417500;,
 -0.050000;-0.174000;3.417500;,
 -0.150000;-0.174000;3.417500;,
 -0.150000;-0.134000;3.417500;,
 -0.050000;-0.134000;3.457500;,
 -0.050000;-0.174000;3.457500;,
 -0.150000;-0.174000;3.457500;,
 -0.150000;-0.134000;3.457500;,
 0.150000;-0.134000;3.417500;,
 0.150000;-0.174000;3.417500;,
 0.050000;-0.174000;3.417500;,
 0.050000;-0.134000;3.417500;,
 0.150000;-0.134000;3.457500;,
 0.150000;-0.174000;3.457500;,
 0.050000;-0.174000;3.457500;,
 0.050000;-0.134000;3.457500;,
 -0.050000;-0.134000;4.042500;,
 -0.050000;-0.174000;4.042500;,
 -0.150000;-0.174000;4.042500;,
 -0.150000;-0.134000;4.042500;,
 -0.050000;-0.134000;4.082500;,
 -0.050000;-0.174000;4.082500;,
 -0.150000;-0.174000;4.082500;,
 -0.150000;-0.134000;4.082500;,
 0.150000;-0.134000;4.042500;,
 0.150000;-0.174000;4.042500;,
 0.050000;-0.174000;4.042500;,
 0.050000;-0.134000;4.042500;,
 0.150000;-0.134000;4.082500;,
 0.150000;-0.174000;4.082500;,
 0.050000;-0.174000;4.082500;,
 0.050000;-0.134000;4.082500;,
 -0.050000;-0.134000;4.667500;,
 -0.050000;-0.174000;4.667500;,
 -0.150000;-0.174000;4.667500;,
 -0.150000;-0.134000;4.667500;,
 -0.050000;-0.134000;4.707500;,
 -0.050000;-0.174000;4.707500;,
 -0.150000;-0.174000;4.707500;,
 -0.150000;-0.134000;4.707500;,
 0.150000;-0.134000;4.667500;,
 0.150000;-0.174000;4.667500;,
 0.050000;-0.174000;4.667500;,
 0.050000;-0.134000;4.667500;,
 0.150000;-0.134000;4.707500;,
 0.150000;-0.174000;4.707500;,
 0.050000;-0.174000;4.707500;,
 0.050000;-0.134000;4.707500;;
 624;
 3;0,1,2;,
 3;0,2,3;,
 3;3,2,6;,
 3;3,6,7;,
 3;7,6,5;,
 3;7,5,4;,
 3;4,5,1;,
 3;4,1,0;,
 3;0,3,7;,
 3;0,7,4;,
 3;1,5,6;,
 3;1,6,2;,
 3;9,8,10;,
 3;9,10,11;,
 3;11,10,12;,
 3;11,12,13;,
 3;13,12,14;,
 3;13,14,15;,
 3;15,14,16;,
 3;15,16,17;,
 3;17,16,18;,
 3;17,18,19;,
 3;19,18,20;,
 3;19,20,21;,
 3;21,20,22;,
 3;21,22,23;,
 3;23,22,24;,
 3;23,24,25;,
 3;25,24,26;,
 3;25,26,27;,
 3;27,26,28;,
 3;27,28,29;,
 3;29,28,30;,
 3;29,30,31;,
 3;31,30,32;,
 3;31,32,33;,
 3;33,32,34;,
 3;33,34,35;,
 3;35,34,36;,
 3;35,36,37;,
 3;37,36,38;,
 3;37,38,39;,
 3;39,38,40;,
 3;39,40,41;,
 3;41,40,42;,
 3;41,42,43;,
 3;43,42,44;,
 3;43,44,45;,
 3;45,44,46;,
 3;45,46,47;,
 3;47,46,48;,
 3;47,48,49;,
 3;49,48,50;,
 3;49,50,51;,
 3;51,50,52;,
 3;51,52,53;,
 3;53,52,54;,
 3;53,54,55;,
 3;55,54,8;,
 3;55,8,9;,
 3;54,52,50;,
 3;54,50,48;,
 3;54,48,46;,
 3;54,46,44;,
 3;54,44,42;,
 3;54,42,40;,
 3;54,40,38;,
 3;54,38,36;,
 3;54,36,34;,
 3;54,34,32;,
 3;54,32,30;,
 3;54,30,28;,
 3;54,28,26;,
 3;54,26,24;,
 3;54,24,22;,
 3;54,22,20;,
 3;54,20,18;,
 3;54,18,16;,
 3;54,16,14;,
 3;54,14,12;,
 3;54,12,10;,
 3;54,10,8;,
 3;9,11,13;,
 3;9,13,15;,
 3;9,15,17;,
 3;9,17,19;,
 3;9,19,21;,
 3;9,21,23;,
 3;9,23,25;,
 3;9,25,27;,
 3;9,27,29;,
 3;9,29,31;,
 3;9,31,33;,
 3;9,33,35;,
 3;9,35,37;,
 3;9,37,39;,
 3;9,39,41;,
 3;9,41,43;,
 3;9,43,45;,
 3;9,45,47;,
 3;9,47,49;,
 3;9,49,51;,
 3;9,51,53;,
 3;9,53,55;,
 3;56,57,58;,
 3;56,58,59;,
 3;59,58,62;,
 3;59,62,63;,
 3;63,62,61;,
 3;63,61,60;,
 3;60,61,57;,
 3;60,57,56;,
 3;56,59,63;,
 3;56,63,60;,
 3;57,61,62;,
 3;57,62,58;,
 3;65,64,66;,
 3;65,66,67;,
 3;67,66,68;,
 3;67,68,69;,
 3;69,68,70;,
 3;69,70,71;,
 3;71,70,72;,
 3;71,72,73;,
 3;73,72,74;,
 3;73,74,75;,
 3;75,74,76;,
 3;75,76,77;,
 3;77,76,78;,
 3;77,78,79;,
 3;79,78,80;,
 3;79,80,81;,
 3;81,80,82;,
 3;81,82,83;,
 3;83,82,84;,
 3;83,84,85;,
 3;85,84,86;,
 3;85,86,87;,
 3;87,86,88;,
 3;87,88,89;,
 3;89,88,90;,
 3;89,90,91;,
 3;91,90,92;,
 3;91,92,93;,
 3;93,92,94;,
 3;93,94,95;,
 3;95,94,96;,
 3;95,96,97;,
 3;97,96,98;,
 3;97,98,99;,
 3;99,98,100;,
 3;99,100,101;,
 3;101,100,102;,
 3;101,102,103;,
 3;103,102,104;,
 3;103,104,105;,
 3;105,104,106;,
 3;105,106,107;,
 3;107,106,108;,
 3;107,108,109;,
 3;109,108,110;,
 3;109,110,111;,
 3;111,110,64;,
 3;111,64,65;,
 3;110,108,106;,
 3;110,106,104;,
 3;110,104,102;,
 3;110,102,100;,
 3;110,100,98;,
 3;110,98,96;,
 3;110,96,94;,
 3;110,94,92;,
 3;110,92,90;,
 3;110,90,88;,
 3;110,88,86;,
 3;110,86,84;,
 3;110,84,82;,
 3;110,82,80;,
 3;110,80,78;,
 3;110,78,76;,
 3;110,76,74;,
 3;110,74,72;,
 3;110,72,70;,
 3;110,70,68;,
 3;110,68,66;,
 3;110,66,64;,
 3;65,67,69;,
 3;65,69,71;,
 3;65,71,73;,
 3;65,73,75;,
 3;65,75,77;,
 3;65,77,79;,
 3;65,79,81;,
 3;65,81,83;,
 3;65,83,85;,
 3;65,85,87;,
 3;65,87,89;,
 3;65,89,91;,
 3;65,91,93;,
 3;65,93,95;,
 3;65,95,97;,
 3;65,97,99;,
 3;65,99,101;,
 3;65,101,103;,
 3;65,103,105;,
 3;65,105,107;,
 3;65,107,109;,
 3;65,109,111;,
 3;112,113,114;,
 3;112,114,115;,
 3;115,114,118;,
 3;115,118,119;,
 3;119,118,117;,
 3;119,117,116;,
 3;116,117,113;,
 3;116,113,112;,
 3;112,115,119;,
 3;112,119,116;,
 3;113,117,118;,
 3;113,118,114;,
 3;121,120,122;,
 3;121,122,123;,
 3;123,122,124;,
 3;123,124,125;,
 3;125,124,126;,
 3;125,126,127;,
 3;127,126,128;,
 3;127,128,129;,
 3;129,128,130;,
 3;129,130,131;,
 3;131,130,132;,
 3;131,132,133;,
 3;133,132,134;,
 3;133,134,135;,
 3;135,134,136;,
 3;135,136,137;,
 3;137,136,138;,
 3;137,138,139;,
 3;139,138,140;,
 3;139,140,141;,
 3;141,140,142;,
 3;141,142,143;,
 3;143,142,144;,
 3;143,144,145;,
 3;145,144,146;,
 3;145,146,147;,
 3;147,146,148;,
 3;147,148,149;,
 3;149,148,150;,
 3;149,150,151;,
 3;151,150,152;,
 3;151,152,153;,
 3;153,152,154;,
 3;153,154,155;,
 3;155,154,156;,
 3;155,156,157;,
 3;157,156,158;,
 3;157,158,159;,
 3;159,158,160;,
 3;159,160,161;,
 3;161,160,162;,
 3;161,162,163;,
 3;163,162,164;,
 3;163,164,165;,
 3;165,164,166;,
 3;165,166,167;,
 3;167,166,120;,
 3;167,120,121;,
 3;166,164,162;,
 3;166,162,160;,
 3;166,160,158;,
 3;166,158,156;,
 3;166,156,154;,
 3;166,154,152;,
 3;166,152,150;,
 3;166,150,148;,
 3;166,148,146;,
 3;166,146,144;,
 3;166,144,142;,
 3;166,142,140;,
 3;166,140,138;,
 3;166,138,136;,
 3;166,136,134;,
 3;166,134,132;,
 3;166,132,130;,
 3;166,130,128;,
 3;166,128,126;,
 3;166,126,124;,
 3;166,124,122;,
 3;166,122,120;,
 3;121,123,125;,
 3;121,125,127;,
 3;121,127,129;,
 3;121,129,131;,
 3;121,131,133;,
 3;121,133,135;,
 3;121,135,137;,
 3;121,137,139;,
 3;121,139,141;,
 3;121,141,143;,
 3;121,143,145;,
 3;121,145,147;,
 3;121,147,149;,
 3;121,149,151;,
 3;121,151,153;,
 3;121,153,155;,
 3;121,155,157;,
 3;121,157,159;,
 3;121,159,161;,
 3;121,161,163;,
 3;121,163,165;,
 3;121,165,167;,
 3;168,169,170;,
 3;168,170,171;,
 3;171,170,174;,
 3;171,174,175;,
 3;175,174,173;,
 3;175,173,172;,
 3;172,173,169;,
 3;172,169,168;,
 3;168,171,175;,
 3;168,175,172;,
 3;169,173,174;,
 3;169,174,170;,
 3;177,176,178;,
 3;177,178,179;,
 3;179,178,180;,
 3;179,180,181;,
 3;181,180,182;,
 3;181,182,183;,
 3;183,182,184;,
 3;183,184,185;,
 3;185,184,186;,
 3;185,186,187;,
 3;187,186,188;,
 3;187,188,189;,
 3;189,188,190;,
 3;189,190,191;,
 3;191,190,192;,
 3;191,192,193;,
 3;193,192,194;,
 3;193,194,195;,
 3;195,194,196;,
 3;195,196,197;,
 3;197,196,198;,
 3;197,198,199;,
 3;199,198,200;,
 3;199,200,201;,
 3;201,200,202;,
 3;201,202,203;,
 3;203,202,204;,
 3;203,204,205;,
 3;205,204,206;,
 3;205,206,207;,
 3;207,206,208;,
 3;207,208,209;,
 3;209,208,210;,
 3;209,210,211;,
 3;211,210,212;,
 3;211,212,213;,
 3;213,212,214;,
 3;213,214,215;,
 3;215,214,216;,
 3;215,216,217;,
 3;217,216,218;,
 3;217,218,219;,
 3;219,218,220;,
 3;219,220,221;,
 3;221,220,222;,
 3;221,222,223;,
 3;223,222,176;,
 3;223,176,177;,
 3;222,220,218;,
 3;222,218,216;,
 3;222,216,214;,
 3;222,214,212;,
 3;222,212,210;,
 3;222,210,208;,
 3;222,208,206;,
 3;222,206,204;,
 3;222,204,202;,
 3;222,202,200;,
 3;222,200,198;,
 3;222,198,196;,
 3;222,196,194;,
 3;222,194,192;,
 3;222,192,190;,
 3;222,190,188;,
 3;222,188,186;,
 3;222,186,184;,
 3;222,184,182;,
 3;222,182,180;,
 3;222,180,178;,
 3;222,178,176;,
 3;177,179,181;,
 3;177,181,183;,
 3;177,183,185;,
 3;177,185,187;,
 3;177,187,189;,
 3;177,189,191;,
 3;177,191,193;,
 3;177,193,195;,
 3;177,195,197;,
 3;177,197,199;,
 3;177,199,201;,
 3;177,201,203;,
 3;177,203,205;,
 3;177,205,207;,
 3;177,207,209;,
 3;177,209,211;,
 3;177,211,213;,
 3;177,213,215;,
 3;177,215,217;,
 3;177,217,219;,
 3;177,219,221;,
 3;177,221,223;,
 3;224,225,226;,
 3;224,226,227;,
 3;227,226,230;,
 3;227,230,231;,
 3;231,230,229;,
 3;231,229,228;,
 3;228,229,225;,
 3;228,225,224;,
 3;224,227,231;,
 3;224,231,228;,
 3;225,229,230;,
 3;225,230,226;,
 3;232,235,236;,
 3;232,236,233;,
 3;233,236,237;,
 3;233,237,234;,
 3;238,239,240;,
 3;238,240,241;,
 3;241,240,244;,
 3;241,244,245;,
 3;245,244,243;,
 3;245,243,242;,
 3;242,243,239;,
 3;242,239,238;,
 3;238,241,245;,
 3;238,245,242;,
 3;239,243,244;,
 3;239,244,240;,
 3;246,247,248;,
 3;246,248,249;,
 3;249,248,252;,
 3;249,252,253;,
 3;253,252,251;,
 3;253,251,250;,
 3;250,251,247;,
 3;250,247,246;,
 3;246,249,253;,
 3;246,253,250;,
 3;247,251,252;,
 3;247,252,248;,
 3;254,255,256;,
 3;254,256,257;,
 3;257,256,260;,
 3;257,260,261;,
 3;261,260,259;,
 3;261,259,258;,
 3;258,259,255;,
 3;258,255,254;,
 3;254,257,261;,
 3;254,261,258;,
 3;255,259,260;,
 3;255,260,256;,
 3;262,263,264;,
 3;262,264,265;,
 3;265,264,268;,
 3;265,268,269;,
 3;269,268,267;,
 3;269,267,266;,
 3;266,267,263;,
 3;266,263,262;,
 3;262,265,269;,
 3;262,269,266;,
 3;263,267,268;,
 3;263,268,264;,
 3;270,271,272;,
 3;270,272,273;,
 3;273,272,276;,
 3;273,276,277;,
 3;277,276,275;,
 3;277,275,274;,
 3;274,275,271;,
 3;274,271,270;,
 3;270,273,277;,
 3;270,277,274;,
 3;271,275,276;,
 3;271,276,272;,
 3;278,279,280;,
 3;278,280,281;,
 3;281,280,284;,
 3;281,284,285;,
 3;285,284,283;,
 3;285,283,282;,
 3;282,283,279;,
 3;282,279,278;,
 3;278,281,285;,
 3;278,285,282;,
 3;279,283,284;,
 3;279,284,280;,
 3;286,287,288;,
 3;286,288,289;,
 3;289,288,292;,
 3;289,292,293;,
 3;293,292,291;,
 3;293,291,290;,
 3;290,291,287;,
 3;290,287,286;,
 3;286,289,293;,
 3;286,293,290;,
 3;287,291,292;,
 3;287,292,288;,
 3;294,295,296;,
 3;294,296,297;,
 3;297,296,300;,
 3;297,300,301;,
 3;301,300,299;,
 3;301,299,298;,
 3;298,299,295;,
 3;298,295,294;,
 3;294,297,301;,
 3;294,301,298;,
 3;295,299,300;,
 3;295,300,296;,
 3;302,303,304;,
 3;302,304,305;,
 3;305,304,308;,
 3;305,308,309;,
 3;309,308,307;,
 3;309,307,306;,
 3;306,307,303;,
 3;306,303,302;,
 3;302,305,309;,
 3;302,309,306;,
 3;303,307,308;,
 3;303,308,304;,
 3;310,311,312;,
 3;310,312,313;,
 3;313,312,316;,
 3;313,316,317;,
 3;317,316,315;,
 3;317,315,314;,
 3;314,315,311;,
 3;314,311,310;,
 3;310,313,317;,
 3;310,317,314;,
 3;311,315,316;,
 3;311,316,312;,
 3;318,319,320;,
 3;318,320,321;,
 3;321,320,324;,
 3;321,324,325;,
 3;325,324,323;,
 3;325,323,322;,
 3;322,323,319;,
 3;322,319,318;,
 3;318,321,325;,
 3;318,325,322;,
 3;319,323,324;,
 3;319,324,320;,
 3;326,327,328;,
 3;326,328,329;,
 3;329,328,332;,
 3;329,332,333;,
 3;333,332,331;,
 3;333,331,330;,
 3;330,331,327;,
 3;330,327,326;,
 3;326,329,333;,
 3;326,333,330;,
 3;327,331,332;,
 3;327,332,328;,
 3;334,335,336;,
 3;334,336,337;,
 3;337,336,340;,
 3;337,340,341;,
 3;341,340,339;,
 3;341,339,338;,
 3;338,339,335;,
 3;338,335,334;,
 3;334,337,341;,
 3;334,341,338;,
 3;335,339,340;,
 3;335,340,336;,
 3;342,343,344;,
 3;342,344,345;,
 3;345,344,348;,
 3;345,348,349;,
 3;349,348,347;,
 3;349,347,346;,
 3;346,347,343;,
 3;346,343,342;,
 3;342,345,349;,
 3;342,349,346;,
 3;343,347,348;,
 3;343,348,344;,
 3;350,351,352;,
 3;350,352,353;,
 3;353,352,356;,
 3;353,356,357;,
 3;357,356,355;,
 3;357,355,354;,
 3;354,355,351;,
 3;354,351,350;,
 3;350,353,357;,
 3;350,357,354;,
 3;351,355,356;,
 3;351,356,352;,
 3;358,359,360;,
 3;358,360,361;,
 3;361,360,364;,
 3;361,364,365;,
 3;365,364,363;,
 3;365,363,362;,
 3;362,363,359;,
 3;362,359,358;,
 3;358,361,365;,
 3;358,365,362;,
 3;359,363,364;,
 3;359,364,360;;

 MeshMaterialList  {
  26;
  624;
  0,
  0,
  0,
  0,
  0,
  0,
  0,
  0,
  0,
  0,
  0,
  0,
  1,
  1,
  1,
  1,
  1,
  1,
  1,
  1,
  1,
  1,
  1,
  1,
  1,
  1,
  1,
  1,
  1,
  1,
  1,
  1,
  1,
  1,
  1,
  1,
  1,
  1,
  1,
  1,
  1,
  1,
  1,
  1,
  1,
  1,
  1,
  1,
  1,
  1,
  1,
  1,
  1,
  1,
  1,
  1,
  1,
  1,
  1,
  1,
  1,
  1,
  1,
  1,
  1,
  1,
  1,
  1,
  1,
  1,
  1,
  1,
  1,
  1,
  1,
  1,
  1,
  1,
  1,
  1,
  1,
  1,
  1,
  1,
  1,
  1,
  1,
  1,
  1,
  1,
  1,
  1,
  1,
  1,
  1,
  1,
  1,
  1,
  1,
  1,
  1,
  1,
  1,
  1,
  2,
  2,
  2,
  2,
  2,
  2,
  2,
  2,
  2,
  2,
  2,
  2,
  3,
  3,
  3,
  3,
  3,
  3,
  3,
  3,
  3,
  3,
  3,
  3,
  3,
  3,
  3,
  3,
  3,
  3,
  3,
  3,
  3,
  3,
  3,
  3,
  3,
  3,
  3,
  3,
  3,
  3,
  3,
  3,
  3,
  3,
  3,
  3,
  3,
  3,
  3,
  3,
  3,
  3,
  3,
  3,
  3,
  3,
  3,
  3,
  3,
  3,
  3,
  3,
  3,
  3,
  3,
  3,
  3,
  3,
  3,
  3,
  3,
  3,
  3,
  3,
  3,
  3,
  3,
  3,
  3,
  3,
  3,
  3,
  3,
  3,
  3,
  3,
  3,
  3,
  3,
  3,
  3,
  3,
  3,
  3,
  3,
  3,
  3,
  3,
  3,
  3,
  3,
  3,
  4,
  4,
  4,
  4,
  4,
  4,
  4,
  4,
  4,
  4,
  4,
  4,
  5,
  5,
  5,
  5,
  5,
  5,
  5,
  5,
  5,
  5,
  5,
  5,
  5,
  5,
  5,
  5,
  5,
  5,
  5,
  5,
  5,
  5,
  5,
  5,
  5,
  5,
  5,
  5,
  5,
  5,
  5,
  5,
  5,
  5,
  5,
  5,
  5,
  5,
  5,
  5,
  5,
  5,
  5,
  5,
  5,
  5,
  5,
  5,
  5,
  5,
  5,
  5,
  5,
  5,
  5,
  5,
  5,
  5,
  5,
  5,
  5,
  5,
  5,
  5,
  5,
  5,
  5,
  5,
  5,
  5,
  5,
  5,
  5,
  5,
  5,
  5,
  5,
  5,
  5,
  5,
  5,
  5,
  5,
  5,
  5,
  5,
  5,
  5,
  5,
  5,
  5,
  5,
  6,
  6,
  6,
  6,
  6,
  6,
  6,
  6,
  6,
  6,
  6,
  6,
  7,
  7,
  7,
  7,
  7,
  7,
  7,
  7,
  7,
  7,
  7,
  7,
  7,
  7,
  7,
  7,
  7,
  7,
  7,
  7,
  7,
  7,
  7,
  7,
  7,
  7,
  7,
  7,
  7,
  7,
  7,
  7,
  7,
  7,
  7,
  7,
  7,
  7,
  7,
  7,
  7,
  7,
  7,
  7,
  7,
  7,
  7,
  7,
  7,
  7,
  7,
  7,
  7,
  7,
  7,
  7,
  7,
  7,
  7,
  7,
  7,
  7,
  7,
  7,
  7,
  7,
  7,
  7,
  7,
  7,
  7,
  7,
  7,
  7,
  7,
  7,
  7,
  7,
  7,
  7,
  7,
  7,
  7,
  7,
  7,
  7,
  7,
  7,
  7,
  7,
  7,
  7,
  8,
  8,
  8,
  8,
  8,
  8,
  8,
  8,
  8,
  8,
  8,
  8,
  9,
  9,
  9,
  9,
  10,
  10,
  10,
  10,
  10,
  10,
  10,
  10,
  10,
  10,
  10,
  10,
  11,
  11,
  11,
  11,
  11,
  11,
  11,
  11,
  11,
  11,
  11,
  11,
  12,
  12,
  12,
  12,
  12,
  12,
  12,
  12,
  12,
  12,
  12,
  12,
  13,
  13,
  13,
  13,
  13,
  13,
  13,
  13,
  13,
  13,
  13,
  13,
  14,
  14,
  14,
  14,
  14,
  14,
  14,
  14,
  14,
  14,
  14,
  14,
  15,
  15,
  15,
  15,
  15,
  15,
  15,
  15,
  15,
  15,
  15,
  15,
  16,
  16,
  16,
  16,
  16,
  16,
  16,
  16,
  16,
  16,
  16,
  16,
  17,
  17,
  17,
  17,
  17,
  17,
  17,
  17,
  17,
  17,
  17,
  17,
  18,
  18,
  18,
  18,
  18,
  18,
  18,
  18,
  18,
  18,
  18,
  18,
  19,
  19,
  19,
  19,
  19,
  19,
  19,
  19,
  19,
  19,
  19,
  19,
  20,
  20,
  20,
  20,
  20,
  20,
  20,
  20,
  20,
  20,
  20,
  20,
  21,
  21,
  21,
  21,
  21,
  21,
  21,
  21,
  21,
  21,
  21,
  21,
  22,
  22,
  22,
  22,
  22,
  22,
  22,
  22,
  22,
  22,
  22,
  22,
  23,
  23,
  23,
  23,
  23,
  23,
  23,
  23,
  23,
  23,
  23,
  23,
  24,
  24,
  24,
  24,
  24,
  24,
  24,
  24,
  24,
  24,
  24,
  24,
  25,
  25,
  25,
  25,
  25,
  25,
  25,
  25,
  25,
  25,
  25,
  25;

  Material  {
   0.392157;0.392157;0.392157;1.000000;;
   0.000000;
   0.000000;0.000000;0.000000;;
   0.000000;0.000000;0.000000;;
  }

  Material  {
   0.074510;0.074510;0.109804;1.000000;;
   0.000000;
   0.000000;0.000000;0.000000;;
   0.000000;0.000000;0.000000;;
  }

  Material  {
   0.392157;0.392157;0.392157;1.000000;;
   0.000000;
   0.000000;0.000000;0.000000;;
   0.000000;0.000000;0.000000;;
  }

  Material  {
   0.074510;0.074510;0.109804;1.000000;;
   0.000000;
   0.000000;0.000000;0.000000;;
   0.000000;0.000000;0.000000;;
  }

  Material  {
   0.392157;0.392157;0.392157;1.000000;;
   0.000000;
   0.000000;0.000000;0.000000;;
   0.000000;0.000000;0.000000;;
  }

  Material  {
   0.074510;0.074510;0.109804;1.000000;;
   0.000000;
   0.000000;0.000000;0.000000;;
   0.000000;0.000000;0.000000;;
  }

  Material  {
   0.392157;0.392157;0.392157;1.000000;;
   0.000000;
   0.000000;0.000000;0.000000;;
   0.000000;0.000000;0.000000;;
  }

  Material  {
   0.074510;0.074510;0.109804;1.000000;;
   0.000000;
   0.000000;0.000000;0.000000;;
   0.000000;0.000000;0.000000;;
  }

  Material  {
   0.392157;0.392157;0.392157;1.000000;;
   0.000000;
   0.000000;0.000000;0.000000;;
   0.000000;0.000000;0.000000;;
  }

  Material  {
   0.298039;0.196078;0.223529;1.000000;;
   0.000000;
   0.000000;0.000000;0.000000;;
   0.000000;0.000000;0.000000;;
  }

  Material  {
   0.298039;0.117647;0.168627;1.000000;;
   0.000000;
   0.000000;0.000000;0.000000;;
   0.000000;0.000000;0.000000;;
  }

  Material  {
   0.298039;0.117647;0.168627;1.000000;;
   0.000000;
   0.000000;0.000000;0.000000;;
   0.000000;0.000000;0.000000;;
  }

  Material  {
   0.298039;0.117647;0.168627;1.000000;;
   0.000000;
   0.000000;0.000000;0.000000;;
   0.000000;0.000000;0.000000;;
  }

  Material  {
   0.298039;0.117647;0.168627;1.000000;;
   0.000000;
   0.000000;0.000000;0.000000;;
   0.000000;0.000000;0.000000;;
  }

  Material  {
   0.298039;0.117647;0.168627;1.000000;;
   0.000000;
   0.000000;0.000000;0.000000;;
   0.000000;0.000000;0.000000;;
  }

  Material  {
   0.298039;0.117647;0.168627;1.000000;;
   0.000000;
   0.000000;0.000000;0.000000;;
   0.000000;0.000000;0.000000;;
  }

  Material  {
   0.298039;0.117647;0.168627;1.000000;;
   0.000000;
   0.000000;0.000000;0.000000;;
   0.000000;0.000000;0.000000;;
  }

  Material  {
   0.298039;0.117647;0.168627;1.000000;;
   0.000000;
   0.000000;0.000000;0.000000;;
   0.000000;0.000000;0.000000;;
  }

  Material  {
   0.298039;0.117647;0.168627;1.000000;;
   0.000000;
   0.000000;0.000000;0.000000;;
   0.000000;0.000000;0.000000;;
  }

  Material  {
   0.298039;0.117647;0.168627;1.000000;;
   0.000000;
   0.000000;0.000000;0.000000;;
   0.000000;0.000000;0.000000;;
  }

  Material  {
   0.298039;0.117647;0.168627;1.000000;;
   0.000000;
   0.000000;0.000000;0.000000;;
   0.000000;0.000000;0.000000;;
  }

  Material  {
   0.298039;0.117647;0.168627;1.000000;;
   0.000000;
   0.000000;0.000000;0.000000;;
   0.000000;0.000000;0.000000;;
  }

  Material  {
   0.298039;0.117647;0.168627;1.000000;;
   0.000000;
   0.000000;0.000000;0.000000;;
   0.000000;0.000000;0.000000;;
  }

  Material  {
   0.298039;0.117647;0.168627;1.000000;;
   0.000000;
   0.000000;0.000000;0.000000;;
   0.000000;0.000000;0.000000;;
  }

  Material  {
   0.298039;0.117647;0.168627;1.000000;;
   0.000000;
   0.000000;0.000000;0.000000;;
   0.000000;0.000000;0.000000;;
  }

  Material  {
   0.298039;0.117647;0.168627;1.000000;;
   0.000000;
   0.000000;0.000000;0.000000;;
   0.000000;0.000000;0.000000;;
  }
 }

 MeshTextureCoords  {
  366;
  0.000000;0.000000;,
  0.000000;0.000000;,
  0.000000;0.000000;,
  0.000000;0.000000;,
  0.000000;0.000000;,
  0.000000;0.000000;,
  0.000000;0.000000;,
  0.000000;0.000000;,
  0.000000;0.000000;,
  0.000000;0.000000;,
  0.000000;0.000000;,
  0.000000;0.000000;,
  0.000000;0.000000;,
  0.000000;0.000000;,
  0.000000;0.000000;,
  0.000000;0.000000;,
  0.000000;0.000000;,
  0.000000;0.000000;,
  0.000000;0.000000;,
  0.000000;0.000000;,
  0.000000;0.000000;,
  0.000000;0.000000;,
  0.000000;0.000000;,
  0.000000;0.000000;,
  0.000000;0.000000;,
  0.000000;0.000000;,
  0.000000;0.000000;,
  0.000000;0.000000;,
  0.000000;0.000000;,
  0.000000;0.000000;,
  0.000000;0.000000;,
  0.000000;0.000000;,
  0.000000;0.000000;,
  0.000000;0.000000;,
  0.000000;0.000000;,
  0.000000;0.000000;,
  0.000000;0.000000;,
  0.000000;0.000000;,
  0.000000;0.000000;,
  0.000000;0.000000;,
  0.000000;0.000000;,
  0.000000;0.000000;,
  0.000000;0.000000;,
  0.000000;0.000000;,
  0.000000;0.000000;,
  0.000000;0.000000;,
  0.000000;0.000000;,
  0.000000;0.000000;,
  0.000000;0.000000;,
  0.000000;0.000000;,
  0.000000;0.000000;,
  0.000000;0.000000;,
  0.000000;0.000000;,
  0.000000;0.000000;,
  0.000000;0.000000;,
  0.000000;0.000000;,
  0.000000;0.000000;,
  0.000000;0.000000;,
  0.000000;0.000000;,
  0.000000;0.000000;,
  0.000000;0.000000;,
  0.000000;0.000000;,
  0.000000;0.000000;,
  0.000000;0.000000;,
  0.000000;0.000000;,
  0.000000;0.000000;,
  0.000000;0.000000;,
  0.000000;0.000000;,
  0.000000;0.000000;,
  0.000000;0.000000;,
  0.000000;0.000000;,
  0.000000;0.000000;,
  0.000000;0.000000;,
  0.000000;0.000000;,
  0.000000;0.000000;,
  0.000000;0.000000;,
  0.000000;0.000000;,
  0.000000;0.000000;,
  0.000000;0.000000;,
  0.000000;0.000000;,
  0.000000;0.000000;,
  0.000000;0.000000;,
  0.000000;0.000000;,
  0.000000;0.000000;,
  0.000000;0.000000;,
  0.000000;0.000000;,
  0.000000;0.000000;,
  0.000000;0.000000;,
  0.000000;0.000000;,
  0.000000;0.000000;,
  0.000000;0.000000;,
  0.000000;0.000000;,
  0.000000;0.000000;,
  0.000000;0.000000;,
  0.000000;0.000000;,
  0.000000;0.000000;,
  0.000000;0.000000;,
  0.000000;0.000000;,
  0.000000;0.000000;,
  0.000000;0.000000;,
  0.000000;0.000000;,
  0.000000;0.000000;,
  0.000000;0.000000;,
  0.000000;0.000000;,
  0.000000;0.000000;,
  0.000000;0.000000;,
  0.000000;0.000000;,
  0.000000;0.000000;,
  0.000000;0.000000;,
  0.000000;0.000000;,
  0.000000;0.000000;,
  0.000000;0.000000;,
  0.000000;0.000000;,
  0.000000;0.000000;,
  0.000000;0.000000;,
  0.000000;0.000000;,
  0.000000;0.000000;,
  0.000000;0.000000;,
  0.000000;0.000000;,
  0.000000;0.000000;,
  0.000000;0.000000;,
  0.000000;0.000000;,
  0.000000;0.000000;,
  0.000000;0.000000;,
  0.000000;0.000000;,
  0.000000;0.000000;,
  0.000000;0.000000;,
  0.000000;0.000000;,
  0.000000;0.000000;,
  0.000000;0.000000;,
  0.000000;0.000000;,
  0.000000;0.000000;,
  0.000000;0.000000;,
  0.000000;0.000000;,
  0.000000;0.000000;,
  0.000000;0.000000;,
  0.000000;0.000000;,
  0.000000;0.000000;,
  0.000000;0.000000;,
  0.000000;0.000000;,
  0.000000;0.000000;,
  0.000000;0.000000;,
  0.000000;0.000000;,
  0.000000;0.000000;,
  0.000000;0.000000;,
  0.000000;0.000000;,
  0.000000;0.000000;,
  0.000000;0.000000;,
  0.000000;0.000000;,
  0.000000;0.000000;,
  0.000000;0.000000;,
  0.000000;0.000000;,
  0.000000;0.000000;,
  0.000000;0.000000;,
  0.000000;0.000000;,
  0.000000;0.000000;,
  0.000000;0.000000;,
  0.000000;0.000000;,
  0.000000;0.000000;,
  0.000000;0.000000;,
  0.000000;0.000000;,
  0.000000;0.000000;,
  0.000000;0.000000;,
  0.000000;0.000000;,
  0.000000;0.000000;,
  0.000000;0.000000;,
  0.000000;0.000000;,
  0.000000;0.000000;,
  0.000000;0.000000;,
  0.000000;0.000000;,
  0.000000;0.000000;,
  0.000000;0.000000;,
  0.000000;0.000000;,
  0.000000;0.000000;,
  0.000000;0.000000;,
  0.000000;0.000000;,
  0.000000;0.000000;,
  0.000000;0.000000;,
  0.000000;0.000000;,
  0.000000;0.000000;,
  0.000000;0.000000;,
  0.000000;0.000000;,
  0.000000;0.000000;,
  0.000000;0.000000;,
  0.000000;0.000000;,
  0.000000;0.000000;,
  0.000000;0.000000;,
  0.000000;0.000000;,
  0.000000;0.000000;,
  0.000000;0.000000;,
  0.000000;0.000000;,
  0.000000;0.000000;,
  0.000000;0.000000;,
  0.000000;0.000000;,
  0.000000;0.000000;,
  0.000000;0.000000;,
  0.000000;0.000000;,
  0.000000;0.000000;,
  0.000000;0.000000;,
  0.000000;0.000000;,
  0.000000;0.000000;,
  0.000000;0.000000;,
  0.000000;0.000000;,
  0.000000;0.000000;,
  0.000000;0.000000;,
  0.000000;0.000000;,
  0.000000;0.000000;,
  0.000000;0.000000;,
  0.000000;0.000000;,
  0.000000;0.000000;,
  0.000000;0.000000;,
  0.000000;0.000000;,
  0.000000;0.000000;,
  0.000000;0.000000;,
  0.000000;0.000000;,
  0.000000;0.000000;,
  0.000000;0.000000;,
  0.000000;0.000000;,
  0.000000;0.000000;,
  0.000000;0.000000;,
  0.000000;0.000000;,
  0.000000;0.000000;,
  0.000000;0.000000;,
  0.000000;0.000000;,
  0.000000;0.000000;,
  0.000000;0.000000;,
  0.000000;0.000000;,
  0.000000;0.000000;,
  0.000000;0.000000;,
  0.000000;0.000000;,
  0.000000;0.000000;,
  0.000000;0.000000;,
  0.000000;0.000000;,
  0.000000;0.000000;,
  0.000000;0.000000;,
  0.000000;0.000000;,
  0.000000;0.000000;,
  0.000000;0.000000;,
  0.000000;0.000000;,
  0.000000;0.000000;,
  0.000000;0.000000;,
  0.000000;0.000000;,
  0.000000;0.000000;,
  0.000000;0.000000;,
  0.000000;0.000000;,
  0.000000;0.000000;,
  0.000000;0.000000;,
  0.000000;0.000000;,
  0.000000;0.000000;,
  0.000000;0.000000;,
  0.000000;0.000000;,
  0.000000;0.000000;,
  0.000000;0.000000;,
  0.000000;0.000000;,
  0.000000;0.000000;,
  0.000000;0.000000;,
  0.000000;0.000000;,
  0.000000;0.000000;,
  0.000000;0.000000;,
  0.000000;0.000000;,
  0.000000;0.000000;,
  0.000000;0.000000;,
  0.000000;0.000000;,
  0.000000;0.000000;,
  0.000000;0.000000;,
  0.000000;0.000000;,
  0.000000;0.000000;,
  0.000000;0.000000;,
  0.000000;0.000000;,
  0.000000;0.000000;,
  0.000000;0.000000;,
  0.000000;0.000000;,
  0.000000;0.000000;,
  0.000000;0.000000;,
  0.000000;0.000000;,
  0.000000;0.000000;,
  0.000000;0.000000;,
  0.000000;0.000000;,
  0.000000;0.000000;,
  0.000000;0.000000;,
  0.000000;0.000000;,
  0.000000;0.000000;,
  0.000000;0.000000;,
  0.000000;0.000000;,
  0.000000;0.000000;,
  0.000000;0.000000;,
  0.000000;0.000000;,
  0.000000;0.000000;,
  0.000000;0.000000;,
  0.000000;0.000000;,
  0.000000;0.000000;,
  0.000000;0.000000;,
  0.000000;0.000000;,
  0.000000;0.000000;,
  0.000000;0.000000;,
  0.000000;0.000000;,
  0.000000;0.000000;,
  0.000000;0.000000;,
  0.000000;0.000000;,
  0.000000;0.000000;,
  0.000000;0.000000;,
  0.000000;0.000000;,
  0.000000;0.000000;,
  0.000000;0.000000;,
  0.000000;0.000000;,
  0.000000;0.000000;,
  0.000000;0.000000;,
  0.000000;0.000000;,
  0.000000;0.000000;,
  0.000000;0.000000;,
  0.000000;0.000000;,
  0.000000;0.000000;,
  0.000000;0.000000;,
  0.000000;0.000000;,
  0.000000;0.000000;,
  0.000000;0.000000;,
  0.000000;0.000000;,
  0.000000;0.000000;,
  0.000000;0.000000;,
  0.000000;0.000000;,
  0.000000;0.000000;,
  0.000000;0.000000;,
  0.000000;0.000000;,
  0.000000;0.000000;,
  0.000000;0.000000;,
  0.000000;0.000000;,
  0.000000;0.000000;,
  0.000000;0.000000;,
  0.000000;0.000000;,
  0.000000;0.000000;,
  0.000000;0.000000;,
  0.000000;0.000000;,
  0.000000;0.000000;,
  0.000000;0.000000;,
  0.000000;0.000000;,
  0.000000;0.000000;,
  0.000000;0.000000;,
  0.000000;0.000000;,
  0.000000;0.000000;,
  0.000000;0.000000;,
  0.000000;0.000000;,
  0.000000;0.000000;,
  0.000000;0.000000;,
  0.000000;0.000000;,
  0.000000;0.000000;,
  0.000000;0.000000;,
  0.000000;0.000000;,
  0.000000;0.000000;,
  0.000000;0.000000;,
  0.000000;0.000000;,
  0.000000;0.000000;,
  0.000000;0.000000;,
  0.000000;0.000000;,
  0.000000;0.000000;,
  0.000000;0.000000;,
  0.000000;0.000000;,
  0.000000;0.000000;,
  0.000000;0.000000;,
  0.000000;0.000000;,
  0.000000;0.000000;,
  0.000000;0.000000;,
  0.000000;0.000000;,
  0.000000;0.000000;,
  0.000000;0.000000;,
  0.000000;0.000000;,
  0.000000;0.000000;;
 }

 MeshNormals  {
  448;
  0.000000;0.000000;-1.000000;,
  0.000000;0.000000;-1.000000;,
  -1.000000;0.000000;0.000000;,
  -1.000000;0.000000;0.000000;,
  0.000000;0.000000;1.000000;,
  0.000000;0.000000;1.000000;,
  1.000000;0.000000;0.000000;,
  1.000000;0.000000;0.000000;,
  0.000000;1.000000;0.000000;,
  0.000000;1.000000;0.000000;,
  0.000000;-1.000000;0.000000;,
  0.000000;-1.000000;0.000000;,
  0.705593;0.707107;-0.046247;,
  0.000000;-1.000000;-0.000000;,
  0.369644;0.923880;0.099046;,
  0.669581;-0.707107;0.227292;,
  0.331414;0.923880;0.191342;,
  0.318190;-0.923880;0.212608;,
  0.270598;0.923880;0.270598;,
  0.252321;-0.923880;0.287717;,
  0.191342;0.923880;0.331414;,
  0.169257;-0.923880;0.343218;,
  0.099046;0.923880;0.369644;,
  0.074658;-0.923880;0.375330;,
  -0.000000;0.923879;0.382683;,
  -0.025029;-0.923880;0.381864;,
  -0.099046;0.923880;0.369644;,
  -0.123010;-0.923880;0.362375;,
  -0.191342;0.923880;0.331414;,
  -0.212608;-0.923880;0.318190;,
  -0.270598;0.923880;0.270598;,
  -0.287717;-0.923880;0.252321;,
  -0.331414;0.923879;0.191342;,
  -0.343218;-0.923880;0.169257;,
  -0.369644;0.923880;0.099046;,
  -0.375330;-0.923880;0.074658;,
  -0.382683;0.923879;-0.000000;,
  -0.381864;-0.923880;-0.025029;,
  -0.369644;0.923880;-0.099046;,
  -0.362375;-0.923880;-0.123010;,
  -0.331414;0.923880;-0.191342;,
  -0.318190;-0.923880;-0.212608;,
  -0.270598;0.923880;-0.270598;,
  -0.252321;-0.923880;-0.287717;,
  -0.191342;0.923880;-0.331414;,
  -0.169257;-0.923880;-0.343218;,
  -0.099046;0.923880;-0.369644;,
  -0.074658;-0.923880;-0.375330;,
  0.000000;0.923880;-0.382683;,
  0.025029;-0.923880;-0.381864;,
  0.099046;0.923880;-0.369644;,
  0.123010;-0.923880;-0.362375;,
  0.191342;0.923880;-0.331414;,
  0.212608;-0.923880;-0.318190;,
  0.270598;0.923880;-0.270598;,
  0.287717;-0.923880;-0.252321;,
  0.612373;0.707107;-0.353553;,
  0.343218;-0.923880;-0.169257;,
  0.000000;1.000000;-0.000000;,
  0.693520;-0.707107;-0.137950;,
  0.000000;0.000000;-1.000000;,
  0.000000;0.000000;-1.000000;,
  -1.000000;0.000000;0.000000;,
  -1.000000;0.000000;0.000000;,
  0.000000;0.000000;1.000000;,
  0.000000;0.000000;1.000000;,
  1.000000;0.000000;0.000000;,
  1.000000;0.000000;0.000000;,
  0.000000;1.000000;0.000000;,
  0.000000;1.000000;0.000000;,
  0.000000;-1.000000;0.000000;,
  0.000000;-1.000000;0.000000;,
  0.705593;0.707107;-0.046247;,
  0.000000;-1.000000;-0.000000;,
  0.369644;0.923880;0.099046;,
  0.669581;-0.707107;0.227292;,
  0.331414;0.923880;0.191342;,
  0.318190;-0.923880;0.212608;,
  0.270598;0.923880;0.270598;,
  0.252321;-0.923880;0.287717;,
  0.191342;0.923880;0.331414;,
  0.169257;-0.923880;0.343218;,
  0.099046;0.923880;0.369644;,
  0.074658;-0.923880;0.375330;,
  -0.000000;0.923879;0.382683;,
  -0.025029;-0.923880;0.381864;,
  -0.099046;0.923880;0.369644;,
  -0.123010;-0.923880;0.362375;,
  -0.191342;0.923880;0.331414;,
  -0.212608;-0.923880;0.318190;,
  -0.270598;0.923880;0.270598;,
  -0.287717;-0.923880;0.252321;,
  -0.331414;0.923879;0.191342;,
  -0.343218;-0.923880;0.169257;,
  -0.369644;0.923880;0.099046;,
  -0.375330;-0.923880;0.074658;,
  -0.382683;0.923879;-0.000000;,
  -0.381864;-0.923880;-0.025029;,
  -0.369644;0.923880;-0.099046;,
  -0.362375;-0.923880;-0.123010;,
  -0.331414;0.923880;-0.191342;,
  -0.318190;-0.923880;-0.212608;,
  -0.270598;0.923880;-0.270598;,
  -0.252321;-0.923880;-0.287717;,
  -0.191342;0.923880;-0.331414;,
  -0.169257;-0.923880;-0.343218;,
  -0.099046;0.923880;-0.369644;,
  -0.074658;-0.923880;-0.375330;,
  0.000000;0.923880;-0.382683;,
  0.025029;-0.923880;-0.381864;,
  0.099046;0.923880;-0.369644;,
  0.123010;-0.923880;-0.362375;,
  0.191342;0.923880;-0.331414;,
  0.212608;-0.923880;-0.318190;,
  0.270598;0.923880;-0.270598;,
  0.287717;-0.923880;-0.252321;,
  0.612373;0.707107;-0.353553;,
  0.343218;-0.923880;-0.169257;,
  0.000000;1.000000;-0.000000;,
  0.693520;-0.707107;-0.137950;,
  0.000000;0.000000;-1.000000;,
  0.000000;0.000000;-1.000000;,
  -1.000000;0.000000;0.000000;,
  -1.000000;0.000000;0.000000;,
  0.000000;0.000000;1.000000;,
  0.000000;0.000000;1.000000;,
  1.000000;0.000000;0.000000;,
  1.000000;0.000000;0.000000;,
  0.000000;1.000000;0.000000;,
  0.000000;1.000000;0.000000;,
  0.000000;-1.000000;0.000000;,
  0.000000;-1.000000;0.000000;,
  0.705593;0.707107;-0.046247;,
  0.000000;-1.000000;-0.000000;,
  0.369644;0.923880;0.099046;,
  0.669581;-0.707107;0.227292;,
  0.331414;0.923880;0.191342;,
  0.318190;-0.923880;0.212608;,
  0.270598;0.923880;0.270598;,
  0.252321;-0.923880;0.287717;,
  0.191342;0.923880;0.331414;,
  0.169257;-0.923880;0.343218;,
  0.099046;0.923880;0.369644;,
  0.074658;-0.923880;0.375330;,
  -0.000000;0.923879;0.382683;,
  -0.025029;-0.923880;0.381864;,
  -0.099046;0.923880;0.369644;,
  -0.123010;-0.923880;0.362375;,
  -0.191342;0.923880;0.331414;,
  -0.212608;-0.923880;0.318190;,
  -0.270598;0.923880;0.270598;,
  -0.287717;-0.923880;0.252321;,
  -0.331414;0.923879;0.191342;,
  -0.343218;-0.923880;0.169257;,
  -0.369644;0.923880;0.099046;,
  -0.375330;-0.923880;0.074658;,
  -0.382683;0.923879;-0.000000;,
  -0.381864;-0.923880;-0.025029;,
  -0.369644;0.923880;-0.099046;,
  -0.362375;-0.923880;-0.123010;,
  -0.331414;0.923880;-0.191342;,
  -0.318190;-0.923880;-0.212608;,
  -0.270598;0.923880;-0.270598;,
  -0.252321;-0.923880;-0.287717;,
  -0.191342;0.923880;-0.331414;,
  -0.169257;-0.923880;-0.343218;,
  -0.099046;0.923880;-0.369644;,
  -0.074658;-0.923880;-0.375330;,
  0.000000;0.923880;-0.382683;,
  0.025029;-0.923880;-0.381864;,
  0.099046;0.923880;-0.369644;,
  0.123010;-0.923880;-0.362375;,
  0.191342;0.923880;-0.331414;,
  0.212608;-0.923880;-0.318190;,
  0.270598;0.923880;-0.270598;,
  0.287717;-0.923880;-0.252321;,
  0.612373;0.707107;-0.353553;,
  0.343218;-0.923880;-0.169257;,
  0.000000;1.000000;-0.000000;,
  0.693520;-0.707107;-0.137950;,
  0.000000;0.000000;-1.000000;,
  0.000000;0.000000;-1.000000;,
  -1.000000;0.000000;0.000000;,
  -1.000000;0.000000;0.000000;,
  0.000000;0.000000;1.000000;,
  0.000000;0.000000;1.000000;,
  1.000000;0.000000;0.000000;,
  1.000000;0.000000;0.000000;,
  0.000000;1.000000;0.000000;,
  0.000000;1.000000;0.000000;,
  0.000000;-1.000000;0.000000;,
  0.000000;-1.000000;0.000000;,
  0.705593;0.707107;-0.046247;,
  0.000000;-1.000000;-0.000000;,
  0.369644;0.923880;0.099046;,
  0.669581;-0.707107;0.227292;,
  0.331414;0.923880;0.191342;,
  0.318190;-0.923880;0.212608;,
  0.270598;0.923880;0.270598;,
  0.252321;-0.923880;0.287717;,
  0.191342;0.923880;0.331414;,
  0.169257;-0.923880;0.343218;,
  0.099046;0.923880;0.369644;,
  0.074658;-0.923880;0.375330;,
  -0.000000;0.923879;0.382683;,
  -0.025029;-0.923880;0.381864;,
  -0.099046;0.923880;0.369644;,
  -0.123010;-0.923880;0.362375;,
  -0.191342;0.923880;0.331414;,
  -0.212608;-0.923880;0.318190;,
  -0.270598;0.923880;0.270598;,
  -0.287717;-0.923880;0.252321;,
  -0.331414;0.923879;0.191342;,
  -0.343218;-0.923880;0.169257;,
  -0.369644;0.923880;0.099046;,
  -0.375330;-0.923880;0.074658;,
  -0.382683;0.923879;-0.000000;,
  -0.381864;-0.923880;-0.025029;,
  -0.369644;0.923880;-0.099046;,
  -0.362375;-0.923880;-0.123010;,
  -0.331414;0.923880;-0.191342;,
  -0.318190;-0.923880;-0.212608;,
  -0.270598;0.923880;-0.270598;,
  -0.252321;-0.923880;-0.287717;,
  -0.191342;0.923880;-0.331414;,
  -0.169257;-0.923880;-0.343218;,
  -0.099046;0.923880;-0.369644;,
  -0.074658;-0.923880;-0.375330;,
  0.000000;0.923880;-0.382683;,
  0.025029;-0.923880;-0.381864;,
  0.099046;0.923880;-0.369644;,
  0.123010;-0.923880;-0.362375;,
  0.191342;0.923880;-0.331414;,
  0.212608;-0.923880;-0.318190;,
  0.270598;0.923880;-0.270598;,
  0.287717;-0.923880;-0.252321;,
  0.612373;0.707107;-0.353553;,
  0.343218;-0.923880;-0.169257;,
  0.000000;1.000000;-0.000000;,
  0.693520;-0.707107;-0.137950;,
  0.000000;0.000000;-1.000000;,
  0.000000;0.000000;-1.000000;,
  -1.000000;0.000000;0.000000;,
  -1.000000;0.000000;0.000000;,
  0.000000;0.000000;1.000000;,
  0.000000;0.000000;1.000000;,
  1.000000;0.000000;0.000000;,
  1.000000;0.000000;0.000000;,
  0.000000;1.000000;0.000000;,
  0.000000;1.000000;0.000000;,
  0.000000;-1.000000;0.000000;,
  0.000000;-1.000000;0.000000;,
  -0.225689;0.974199;0.000000;,
  -0.225689;0.974199;0.000000;,
  0.225689;0.974199;0.000000;,
  0.225689;0.974199;0.000000;,
  0.000000;0.000000;-1.000000;,
  0.000000;0.000000;-1.000000;,
  -1.000000;0.000000;0.000000;,
  -1.000000;0.000000;0.000000;,
  0.000000;0.000000;1.000000;,
  0.000000;0.000000;1.000000;,
  1.000000;0.000000;0.000000;,
  1.000000;0.000000;0.000000;,
  0.000000;1.000000;0.000000;,
  0.000000;1.000000;0.000000;,
  0.000000;-1.000000;0.000000;,
  0.000000;-1.000000;0.000000;,
  0.000000;0.000000;-1.000000;,
  0.000000;0.000000;-1.000000;,
  -1.000000;0.000000;0.000000;,
  -1.000000;0.000000;0.000000;,
  0.000000;0.000000;1.000000;,
  0.000000;0.000000;1.000000;,
  1.000000;0.000000;0.000000;,
  1.000000;0.000000;0.000000;,
  0.000000;1.000000;0.000000;,
  0.000000;1.000000;0.000000;,
  0.000000;-1.000000;0.000000;,
  0.000000;-1.000000;0.000000;,
  0.000000;0.000000;-1.000000;,
  0.000000;0.000000;-1.000000;,
  -1.000000;0.000000;0.000000;,
  -1.000000;0.000000;0.000000;,
  0.000000;0.000000;1.000000;,
  0.000000;0.000000;1.000000;,
  1.000000;0.000000;0.000000;,
  1.000000;0.000000;0.000000;,
  0.000000;1.000000;0.000000;,
  0.000000;1.000000;0.000000;,
  0.000000;-1.000000;0.000000;,
  0.000000;-1.000000;0.000000;,
  0.000000;0.000000;-1.000000;,
  0.000000;0.000000;-1.000000;,
  -1.000000;0.000000;0.000000;,
  -1.000000;0.000000;0.000000;,
  0.000000;0.000000;1.000000;,
  0.000000;0.000000;1.000000;,
  1.000000;0.000000;0.000000;,
  1.000000;0.000000;0.000000;,
  0.000000;1.000000;0.000000;,
  0.000000;1.000000;0.000000;,
  0.000000;-1.000000;0.000000;,
  0.000000;-1.000000;0.000000;,
  0.000000;0.000000;-1.000000;,
  0.000000;0.000000;-1.000000;,
  -1.000000;0.000000;0.000000;,
  -1.000000;0.000000;0.000000;,
  0.000000;0.000000;1.000000;,
  0.000000;0.000000;1.000000;,
  1.000000;0.000000;0.000000;,
  1.000000;0.000000;0.000000;,
  0.000000;1.000000;0.000000;,
  0.000000;1.000000;0.000000;,
  0.000000;-1.000000;0.000000;,
  0.000000;-1.000000;0.000000;,
  0.000000;0.000000;-1.000000;,
  0.000000;0.000000;-1.000000;,
  -1.000000;0.000000;0.000000;,
  -1.000000;0.000000;0.000000;,
  0.000000;0.000000;1.000000;,
  0.000000;0.000000;1.000000;,
  1.000000;0.000000;0.000000;,
  1.000000;0.000000;0.000000;,
  0.000000;1.000000;0.000000;,
  0.000000;1.000000;0.000000;,
  0.000000;-1.000000;0.000000;,
  0.000000;-1.000000;0.000000;,
  0.000000;0.000000;-1.000000;,
  0.000000;0.000000;-1.000000;,
  -1.000000;0.000000;0.000000;,
  -1.000000;0.000000;0.000000;,
  0.000000;0.000000;1.000000;,
  0.000000;0.000000;1.000000;,
  1.000000;0.000000;0.000000;,
  1.000000;0.000000;0.000000;,
  0.000000;1.000000;0.000000;,
  0.000000;1.000000;0.000000;,
  0.000000;-1.000000;0.000000;,
  0.000000;-1.000000;0.000000;,
  0.000000;0.000000;-1.000000;,
  0.000000;0.000000;-1.000000;,
  -1.000000;0.000000;0.000000;,
  -1.000000;0.000000;0.000000;,
  0.000000;0.000000;1.000000;,
  0.000000;0.000000;1.000000;,
  1.000000;0.000000;0.000000;,
  1.000000;0.000000;0.000000;,
  0.000000;1.000000;0.000000;,
  0.000000;1.000000;0.000000;,
  0.000000;-1.000000;0.000000;,
  0.000000;-1.000000;0.000000;,
  0.000000;0.000000;-1.000000;,
  0.000000;0.000000;-1.000000;,
  -1.000000;0.000000;0.000000;,
  -1.000000;0.000000;0.000000;,
  0.000000;0.000000;1.000000;,
  0.000000;0.000000;1.000000;,
  1.000000;0.000000;0.000000;,
  1.000000;0.000000;0.000000;,
  0.000000;1.000000;0.000000;,
  0.000000;1.000000;0.000000;,
  0.000000;-1.000000;0.000000;,
  0.000000;-1.000000;0.000000;,
  0.000000;0.000000;-1.000000;,
  0.000000;0.000000;-1.000000;,
  -1.000000;0.000000;0.000000;,
  -1.000000;0.000000;0.000000;,
  0.000000;0.000000;1.000000;,
  0.000000;0.000000;1.000000;,
  1.000000;0.000000;0.000000;,
  1.000000;0.000000;0.000000;,
  0.000000;1.000000;0.000000;,
  0.000000;1.000000;0.000000;,
  0.000000;-1.000000;0.000000;,
  0.000000;-1.000000;0.000000;,
  0.000000;0.000000;-1.000000;,
  0.000000;0.000000;-1.000000;,
  -1.000000;0.000000;0.000000;,
  -1.000000;0.000000;0.000000;,
  0.000000;0.000000;1.000000;,
  0.000000;0.000000;1.000000;,
  1.000000;0.000000;0.000000;,
  1.000000;0.000000;0.000000;,
  0.000000;1.000000;0.000000;,
  0.000000;1.000000;0.000000;,
  0.000000;-1.000000;0.000000;,
  0.000000;-1.000000;0.000000;,
  0.000000;0.000000;-1.000000;,
  0.000000;0.000000;-1.000000;,
  -1.000000;0.000000;0.000000;,
  -1.000000;0.000000;0.000000;,
  0.000000;0.000000;1.000000;,
  0.000000;0.000000;1.000000;,
  1.000000;0.000000;0.000000;,
  1.000000;0.000000;0.000000;,
  0.000000;1.000000;0.000000;,
  0.000000;1.000000;0.000000;,
  0.000000;-1.000000;0.000000;,
  0.000000;-1.000000;0.000000;,
  0.000000;0.000000;-1.000000;,
  0.000000;0.000000;-1.000000;,
  -1.000000;0.000000;0.000000;,
  -1.000000;0.000000;0.000000;,
  0.000000;0.000000;1.000000;,
  0.000000;0.000000;1.000000;,
  1.000000;0.000000;0.000000;,
  1.000000;0.000000;0.000000;,
  0.000000;1.000000;0.000000;,
  0.000000;1.000000;0.000000;,
  0.000000;-1.000000;0.000000;,
  0.000000;-1.000000;0.000000;,
  0.000000;0.000000;-1.000000;,
  0.000000;0.000000;-1.000000;,
  -1.000000;0.000000;0.000000;,
  -1.000000;0.000000;0.000000;,
  0.000000;0.000000;1.000000;,
  0.000000;0.000000;1.000000;,
  1.000000;0.000000;0.000000;,
  1.000000;0.000000;0.000000;,
  0.000000;1.000000;0.000000;,
  0.000000;1.000000;0.000000;,
  0.000000;-1.000000;0.000000;,
  0.000000;-1.000000;0.000000;,
  0.000000;0.000000;-1.000000;,
  0.000000;0.000000;-1.000000;,
  -1.000000;0.000000;0.000000;,
  -1.000000;0.000000;0.000000;,
  0.000000;0.000000;1.000000;,
  0.000000;0.000000;1.000000;,
  1.000000;0.000000;0.000000;,
  1.000000;0.000000;0.000000;,
  0.000000;1.000000;0.000000;,
  0.000000;1.000000;0.000000;,
  0.000000;-1.000000;0.000000;,
  0.000000;-1.000000;0.000000;,
  0.000000;0.000000;-1.000000;,
  0.000000;0.000000;-1.000000;,
  -1.000000;0.000000;0.000000;,
  -1.000000;0.000000;0.000000;,
  0.000000;0.000000;1.000000;,
  0.000000;0.000000;1.000000;,
  1.000000;0.000000;0.000000;,
  1.000000;0.000000;0.000000;,
  0.000000;1.000000;0.000000;,
  0.000000;1.000000;0.000000;,
  0.000000;-1.000000;0.000000;,
  0.000000;-1.000000;0.000000;;
  624;
  3;0,0,0;,
  3;1,1,1;,
  3;2,2,2;,
  3;3,3,3;,
  3;4,4,4;,
  3;5,5,5;,
  3;6,6,6;,
  3;7,7,7;,
  3;8,8,8;,
  3;9,9,9;,
  3;10,10,10;,
  3;11,11,11;,
  3;13,12,14;,
  3;13,14,15;,
  3;15,14,16;,
  3;15,16,17;,
  3;17,16,18;,
  3;17,18,19;,
  3;19,18,20;,
  3;19,20,21;,
  3;21,20,22;,
  3;21,22,23;,
  3;23,22,24;,
  3;23,24,25;,
  3;25,24,26;,
  3;25,26,27;,
  3;27,26,28;,
  3;27,28,29;,
  3;29,28,30;,
  3;29,30,31;,
  3;31,30,32;,
  3;31,32,33;,
  3;33,32,34;,
  3;33,34,35;,
  3;35,34,36;,
  3;35,36,37;,
  3;37,36,38;,
  3;37,38,39;,
  3;39,38,40;,
  3;39,40,41;,
  3;41,40,42;,
  3;41,42,43;,
  3;43,42,44;,
  3;43,44,45;,
  3;45,44,46;,
  3;45,46,47;,
  3;47,46,48;,
  3;47,48,49;,
  3;49,48,50;,
  3;49,50,51;,
  3;51,50,52;,
  3;51,52,53;,
  3;53,52,54;,
  3;53,54,55;,
  3;55,54,56;,
  3;55,56,57;,
  3;57,56,58;,
  3;57,58,59;,
  3;59,58,12;,
  3;59,12,13;,
  3;58,56,54;,
  3;58,54,52;,
  3;58,52,50;,
  3;58,50,48;,
  3;58,48,46;,
  3;58,46,44;,
  3;58,44,42;,
  3;58,42,40;,
  3;58,40,38;,
  3;58,38,36;,
  3;58,36,34;,
  3;58,34,32;,
  3;58,32,30;,
  3;58,30,28;,
  3;58,28,26;,
  3;58,26,24;,
  3;58,24,22;,
  3;58,22,20;,
  3;58,20,18;,
  3;58,18,16;,
  3;58,16,14;,
  3;58,14,12;,
  3;13,15,17;,
  3;13,17,19;,
  3;13,19,21;,
  3;13,21,23;,
  3;13,23,25;,
  3;13,25,27;,
  3;13,27,29;,
  3;13,29,31;,
  3;13,31,33;,
  3;13,33,35;,
  3;13,35,37;,
  3;13,37,39;,
  3;13,39,41;,
  3;13,41,43;,
  3;13,43,45;,
  3;13,45,47;,
  3;13,47,49;,
  3;13,49,51;,
  3;13,51,53;,
  3;13,53,55;,
  3;13,55,57;,
  3;13,57,59;,
  3;60,60,60;,
  3;61,61,61;,
  3;62,62,62;,
  3;63,63,63;,
  3;64,64,64;,
  3;65,65,65;,
  3;66,66,66;,
  3;67,67,67;,
  3;68,68,68;,
  3;69,69,69;,
  3;70,70,70;,
  3;71,71,71;,
  3;73,72,74;,
  3;73,74,75;,
  3;75,74,76;,
  3;75,76,77;,
  3;77,76,78;,
  3;77,78,79;,
  3;79,78,80;,
  3;79,80,81;,
  3;81,80,82;,
  3;81,82,83;,
  3;83,82,84;,
  3;83,84,85;,
  3;85,84,86;,
  3;85,86,87;,
  3;87,86,88;,
  3;87,88,89;,
  3;89,88,90;,
  3;89,90,91;,
  3;91,90,92;,
  3;91,92,93;,
  3;93,92,94;,
  3;93,94,95;,
  3;95,94,96;,
  3;95,96,97;,
  3;97,96,98;,
  3;97,98,99;,
  3;99,98,100;,
  3;99,100,101;,
  3;101,100,102;,
  3;101,102,103;,
  3;103,102,104;,
  3;103,104,105;,
  3;105,104,106;,
  3;105,106,107;,
  3;107,106,108;,
  3;107,108,109;,
  3;109,108,110;,
  3;109,110,111;,
  3;111,110,112;,
  3;111,112,113;,
  3;113,112,114;,
  3;113,114,115;,
  3;115,114,116;,
  3;115,116,117;,
  3;117,116,118;,
  3;117,118,119;,
  3;119,118,72;,
  3;119,72,73;,
  3;118,116,114;,
  3;118,114,112;,
  3;118,112,110;,
  3;118,110,108;,
  3;118,108,106;,
  3;118,106,104;,
  3;118,104,102;,
  3;118,102,100;,
  3;118,100,98;,
  3;118,98,96;,
  3;118,96,94;,
  3;118,94,92;,
  3;118,92,90;,
  3;118,90,88;,
  3;118,88,86;,
  3;118,86,84;,
  3;118,84,82;,
  3;118,82,80;,
  3;118,80,78;,
  3;118,78,76;,
  3;118,76,74;,
  3;118,74,72;,
  3;73,75,77;,
  3;73,77,79;,
  3;73,79,81;,
  3;73,81,83;,
  3;73,83,85;,
  3;73,85,87;,
  3;73,87,89;,
  3;73,89,91;,
  3;73,91,93;,
  3;73,93,95;,
  3;73,95,97;,
  3;73,97,99;,
  3;73,99,101;,
  3;73,101,103;,
  3;73,103,105;,
  3;73,105,107;,
  3;73,107,109;,
  3;73,109,111;,
  3;73,111,113;,
  3;73,113,115;,
  3;73,115,117;,
  3;73,117,119;,
  3;120,120,120;,
  3;121,121,121;,
  3;122,122,122;,
  3;123,123,123;,
  3;124,124,124;,
  3;125,125,125;,
  3;126,126,126;,
  3;127,127,127;,
  3;128,128,128;,
  3;129,129,129;,
  3;130,130,130;,
  3;131,131,131;,
  3;133,132,134;,
  3;133,134,135;,
  3;135,134,136;,
  3;135,136,137;,
  3;137,136,138;,
  3;137,138,139;,
  3;139,138,140;,
  3;139,140,141;,
  3;141,140,142;,
  3;141,142,143;,
  3;143,142,144;,
  3;143,144,145;,
  3;145,144,146;,
  3;145,146,147;,
  3;147,146,148;,
  3;147,148,149;,
  3;149,148,150;,
  3;149,150,151;,
  3;151,150,152;,
  3;151,152,153;,
  3;153,152,154;,
  3;153,154,155;,
  3;155,154,156;,
  3;155,156,157;,
  3;157,156,158;,
  3;157,158,159;,
  3;159,158,160;,
  3;159,160,161;,
  3;161,160,162;,
  3;161,162,163;,
  3;163,162,164;,
  3;163,164,165;,
  3;165,164,166;,
  3;165,166,167;,
  3;167,166,168;,
  3;167,168,169;,
  3;169,168,170;,
  3;169,170,171;,
  3;171,170,172;,
  3;171,172,173;,
  3;173,172,174;,
  3;173,174,175;,
  3;175,174,176;,
  3;175,176,177;,
  3;177,176,178;,
  3;177,178,179;,
  3;179,178,132;,
  3;179,132,133;,
  3;178,176,174;,
  3;178,174,172;,
  3;178,172,170;,
  3;178,170,168;,
  3;178,168,166;,
  3;178,166,164;,
  3;178,164,162;,
  3;178,162,160;,
  3;178,160,158;,
  3;178,158,156;,
  3;178,156,154;,
  3;178,154,152;,
  3;178,152,150;,
  3;178,150,148;,
  3;178,148,146;,
  3;178,146,144;,
  3;178,144,142;,
  3;178,142,140;,
  3;178,140,138;,
  3;178,138,136;,
  3;178,136,134;,
  3;178,134,132;,
  3;133,135,137;,
  3;133,137,139;,
  3;133,139,141;,
  3;133,141,143;,
  3;133,143,145;,
  3;133,145,147;,
  3;133,147,149;,
  3;133,149,151;,
  3;133,151,153;,
  3;133,153,155;,
  3;133,155,157;,
  3;133,157,159;,
  3;133,159,161;,
  3;133,161,163;,
  3;133,163,165;,
  3;133,165,167;,
  3;133,167,169;,
  3;133,169,171;,
  3;133,171,173;,
  3;133,173,175;,
  3;133,175,177;,
  3;133,177,179;,
  3;180,180,180;,
  3;181,181,181;,
  3;182,182,182;,
  3;183,183,183;,
  3;184,184,184;,
  3;185,185,185;,
  3;186,186,186;,
  3;187,187,187;,
  3;188,188,188;,
  3;189,189,189;,
  3;190,190,190;,
  3;191,191,191;,
  3;193,192,194;,
  3;193,194,195;,
  3;195,194,196;,
  3;195,196,197;,
  3;197,196,198;,
  3;197,198,199;,
  3;199,198,200;,
  3;199,200,201;,
  3;201,200,202;,
  3;201,202,203;,
  3;203,202,204;,
  3;203,204,205;,
  3;205,204,206;,
  3;205,206,207;,
  3;207,206,208;,
  3;207,208,209;,
  3;209,208,210;,
  3;209,210,211;,
  3;211,210,212;,
  3;211,212,213;,
  3;213,212,214;,
  3;213,214,215;,
  3;215,214,216;,
  3;215,216,217;,
  3;217,216,218;,
  3;217,218,219;,
  3;219,218,220;,
  3;219,220,221;,
  3;221,220,222;,
  3;221,222,223;,
  3;223,222,224;,
  3;223,224,225;,
  3;225,224,226;,
  3;225,226,227;,
  3;227,226,228;,
  3;227,228,229;,
  3;229,228,230;,
  3;229,230,231;,
  3;231,230,232;,
  3;231,232,233;,
  3;233,232,234;,
  3;233,234,235;,
  3;235,234,236;,
  3;235,236,237;,
  3;237,236,238;,
  3;237,238,239;,
  3;239,238,192;,
  3;239,192,193;,
  3;238,236,234;,
  3;238,234,232;,
  3;238,232,230;,
  3;238,230,228;,
  3;238,228,226;,
  3;238,226,224;,
  3;238,224,222;,
  3;238,222,220;,
  3;238,220,218;,
  3;238,218,216;,
  3;238,216,214;,
  3;238,214,212;,
  3;238,212,210;,
  3;238,210,208;,
  3;238,208,206;,
  3;238,206,204;,
  3;238,204,202;,
  3;238,202,200;,
  3;238,200,198;,
  3;238,198,196;,
  3;238,196,194;,
  3;238,194,192;,
  3;193,195,197;,
  3;193,197,199;,
  3;193,199,201;,
  3;193,201,203;,
  3;193,203,205;,
  3;193,205,207;,
  3;193,207,209;,
  3;193,209,211;,
  3;193,211,213;,
  3;193,213,215;,
  3;193,215,217;,
  3;193,217,219;,
  3;193,219,221;,
  3;193,221,223;,
  3;193,223,225;,
  3;193,225,227;,
  3;193,227,229;,
  3;193,229,231;,
  3;193,231,233;,
  3;193,233,235;,
  3;193,235,237;,
  3;193,237,239;,
  3;240,240,240;,
  3;241,241,241;,
  3;242,242,242;,
  3;243,243,243;,
  3;244,244,244;,
  3;245,245,245;,
  3;246,246,246;,
  3;247,247,247;,
  3;248,248,248;,
  3;249,249,249;,
  3;250,250,250;,
  3;251,251,251;,
  3;252,252,252;,
  3;253,253,253;,
  3;254,254,254;,
  3;255,255,255;,
  3;256,256,256;,
  3;257,257,257;,
  3;258,258,258;,
  3;259,259,259;,
  3;260,260,260;,
  3;261,261,261;,
  3;262,262,262;,
  3;263,263,263;,
  3;264,264,264;,
  3;265,265,265;,
  3;266,266,266;,
  3;267,267,267;,
  3;268,268,268;,
  3;269,269,269;,
  3;270,270,270;,
  3;271,271,271;,
  3;272,272,272;,
  3;273,273,273;,
  3;274,274,274;,
  3;275,275,275;,
  3;276,276,276;,
  3;277,277,277;,
  3;278,278,278;,
  3;279,279,279;,
  3;280,280,280;,
  3;281,281,281;,
  3;282,282,282;,
  3;283,283,283;,
  3;284,284,284;,
  3;285,285,285;,
  3;286,286,286;,
  3;287,287,287;,
  3;288,288,288;,
  3;289,289,289;,
  3;290,290,290;,
  3;291,291,291;,
  3;292,292,292;,
  3;293,293,293;,
  3;294,294,294;,
  3;295,295,295;,
  3;296,296,296;,
  3;297,297,297;,
  3;298,298,298;,
  3;299,299,299;,
  3;300,300,300;,
  3;301,301,301;,
  3;302,302,302;,
  3;303,303,303;,
  3;304,304,304;,
  3;305,305,305;,
  3;306,306,306;,
  3;307,307,307;,
  3;308,308,308;,
  3;309,309,309;,
  3;310,310,310;,
  3;311,311,311;,
  3;312,312,312;,
  3;313,313,313;,
  3;314,314,314;,
  3;315,315,315;,
  3;316,316,316;,
  3;317,317,317;,
  3;318,318,318;,
  3;319,319,319;,
  3;320,320,320;,
  3;321,321,321;,
  3;322,322,322;,
  3;323,323,323;,
  3;324,324,324;,
  3;325,325,325;,
  3;326,326,326;,
  3;327,327,327;,
  3;328,328,328;,
  3;329,329,329;,
  3;330,330,330;,
  3;331,331,331;,
  3;332,332,332;,
  3;333,333,333;,
  3;334,334,334;,
  3;335,335,335;,
  3;336,336,336;,
  3;337,337,337;,
  3;338,338,338;,
  3;339,339,339;,
  3;340,340,340;,
  3;341,341,341;,
  3;342,342,342;,
  3;343,343,343;,
  3;344,344,344;,
  3;345,345,345;,
  3;346,346,346;,
  3;347,347,347;,
  3;348,348,348;,
  3;349,349,349;,
  3;350,350,350;,
  3;351,351,351;,
  3;352,352,352;,
  3;353,353,353;,
  3;354,354,354;,
  3;355,355,355;,
  3;356,356,356;,
  3;357,357,357;,
  3;358,358,358;,
  3;359,359,359;,
  3;360,360,360;,
  3;361,361,361;,
  3;362,362,362;,
  3;363,363,363;,
  3;364,364,364;,
  3;365,365,365;,
  3;366,366,366;,
  3;367,367,367;,
  3;368,368,368;,
  3;369,369,369;,
  3;370,370,370;,
  3;371,371,371;,
  3;372,372,372;,
  3;373,373,373;,
  3;374,374,374;,
  3;375,375,375;,
  3;376,376,376;,
  3;377,377,377;,
  3;378,378,378;,
  3;379,379,379;,
  3;380,380,380;,
  3;381,381,381;,
  3;382,382,382;,
  3;383,383,383;,
  3;384,384,384;,
  3;385,385,385;,
  3;386,386,386;,
  3;387,387,387;,
  3;388,388,388;,
  3;389,389,389;,
  3;390,390,390;,
  3;391,391,391;,
  3;392,392,392;,
  3;393,393,393;,
  3;394,394,394;,
  3;395,395,395;,
  3;396,396,396;,
  3;397,397,397;,
  3;398,398,398;,
  3;399,399,399;,
  3;400,400,400;,
  3;401,401,401;,
  3;402,402,402;,
  3;403,403,403;,
  3;404,404,404;,
  3;405,405,405;,
  3;406,406,406;,
  3;407,407,407;,
  3;408,408,408;,
  3;409,409,409;,
  3;410,410,410;,
  3;411,411,411;,
  3;412,412,412;,
  3;413,413,413;,
  3;414,414,414;,
  3;415,415,415;,
  3;416,416,416;,
  3;417,417,417;,
  3;418,418,418;,
  3;419,419,419;,
  3;420,420,420;,
  3;421,421,421;,
  3;422,422,422;,
  3;423,423,423;,
  3;424,424,424;,
  3;425,425,425;,
  3;426,426,426;,
  3;427,427,427;,
  3;428,428,428;,
  3;429,429,429;,
  3;430,430,430;,
  3;431,431,431;,
  3;432,432,432;,
  3;433,433,433;,
  3;434,434,434;,
  3;435,435,435;,
  3;436,436,436;,
  3;437,437,437;,
  3;438,438,438;,
  3;439,439,439;,
  3;440,440,440;,
  3;441,441,441;,
  3;442,442,442;,
  3;443,443,443;,
  3;444,444,444;,
  3;445,445,445;,
  3;446,446,446;,
  3;447,447,447;;
 }
}