xof 0303txt 0032
template Vector {
 <3d82ab5e-62da-11cf-ab39-0020af71e433>
 FLOAT x;
 FLOAT y;
 FLOAT z;
}

template MeshFace {
 <3d82ab5f-62da-11cf-ab39-0020af71e433>
 DWORD nFaceVertexIndices;
 array DWORD faceVertexIndices[nFaceVertexIndices];
}

template Mesh {
 <3d82ab44-62da-11cf-ab39-0020af71e433>
 DWORD nVertices;
 array Vector vertices[nVertices];
 DWORD nFaces;
 array MeshFace faces[nFaces];
 [...]
}

template ColorRGBA {
 <35ff44e0-6c7c-11cf-8f52-0040333594a3>
 FLOAT red;
 FLOAT green;
 FLOAT blue;
 FLOAT alpha;
}

template ColorRGB {
 <d3e16e81-7835-11cf-8f52-0040333594a3>
 FLOAT red;
 FLOAT green;
 FLOAT blue;
}

template Material {
 <3d82ab4d-62da-11cf-ab39-0020af71e433>
 ColorRGBA faceColor;
 FLOAT power;
 ColorRGB specularColor;
 ColorRGB emissiveColor;
 [...]
}

template MeshMaterialList {
 <f6f23f42-7686-11cf-8f52-0040333594a3>
 DWORD nMaterials;
 DWORD nFaceIndexes;
 array DWORD faceIndexes[nFaceIndexes];
 [Material <3d82ab4d-62da-11cf-ab39-0020af71e433>]
}

template Coords2d {
 <f6f23f44-7686-11cf-8f52-0040333594a3>
 FLOAT u;
 FLOAT v;
}

template MeshTextureCoords {
 <f6f23f40-7686-11cf-8f52-0040333594a3>
 DWORD nTextureCoords;
 array Coords2d textureCoords[nTextureCoords];
}

template MeshNormals {
 <f6f23f43-7686-11cf-8f52-0040333594a3>
 DWORD nNormals;
 array Vector normals[nNormals];
 DWORD nFaceNormals;
 array MeshFace faceNormals[nFaceNormals];
}


Mesh  {
 24;
 -0.700000;-0.287000;0.613000;,
 -0.700000;-0.259000;0.585000;,
 -0.700000;-0.231000;0.613000;,
 -0.700000;-0.219000;0.625000;,
 -0.700000;-0.231000;0.637000;,
 -0.700000;-0.259000;0.665000;,
 0.700000;-0.287000;0.613000;,
 0.700000;-0.259000;0.585000;,
 0.700000;-0.231000;0.613000;,
 0.700000;-0.219000;0.625000;,
 0.700000;-0.231000;0.637000;,
 0.700000;-0.259000;0.665000;,
 -0.700000;-0.287000;3.113000;,
 -0.700000;-0.259000;3.085000;,
 -0.700000;-0.231000;3.113000;,
 -0.700000;-0.219000;3.125000;,
 -0.700000;-0.231000;3.137000;,
 -0.700000;-0.259000;3.165000;,
 0.700000;-0.287000;3.113000;,
 0.700000;-0.259000;3.085000;,
 0.700000;-0.231000;3.113000;,
 0.700000;-0.219000;3.125000;,
 0.700000;-0.231000;3.137000;,
 0.700000;-0.259000;3.165000;;
 20;
 3;0,1,7;,
 3;0,7,6;,
 3;1,2,8;,
 3;1,8,7;,
 3;2,3,9;,
 3;2,9,8;,
 3;3,4,10;,
 3;3,10,9;,
 3;4,5,11;,
 3;4,11,10;,
 3;12,13,19;,
 3;12,19,18;,
 3;13,14,20;,
 3;13,20,19;,
 3;14,15,21;,
 3;14,21,20;,
 3;15,16,22;,
 3;15,22,21;,
 3;16,17,23;,
 3;16,23,22;;

 MeshMaterialList  {
  1;
  20;
  0,
  0,
  0,
  0,
  0,
  0,
  0,
  0,
  0,
  0,
  0,
  0,
  0,
  0,
  0,
  0,
  0,
  0,
  0,
  0;

  Material  {
   0.125490;0.125490;0.125490;1.000000;;
   0.000000;
   0.000000;0.000000;0.000000;;
   0.000000;0.000000;0.000000;;
  }
 }

 MeshTextureCoords  {
  24;
  0.000000;0.000000;,
  0.000000;0.000000;,
  0.000000;0.000000;,
  0.000000;0.000000;,
  0.000000;0.000000;,
  0.000000;0.000000;,
  0.000000;0.000000;,
  0.000000;0.000000;,
  0.000000;0.000000;,
  0.000000;0.000000;,
  0.000000;0.000000;,
  0.000000;0.000000;,
  0.000000;0.000000;,
  0.000000;0.000000;,
  0.000000;0.000000;,
  0.000000;0.000000;,
  0.000000;0.000000;,
  0.000000;0.000000;,
  0.000000;0.000000;,
  0.000000;0.000000;,
  0.000000;0.000000;,
  0.000000;0.000000;,
  0.000000;0.000000;,
  0.000000;0.000000;;
 }

 MeshNormals  {
  20;
  0.000000;-0.707107;-0.707107;,
  0.000000;-0.707107;-0.707107;,
  0.000000;0.707107;-0.707107;,
  0.000000;0.707107;-0.707107;,
  0.000000;0.707107;-0.707106;,
  0.000000;0.707107;-0.707106;,
  0.000000;0.707107;0.707106;,
  0.000000;0.707107;0.707106;,
  0.000000;0.707107;0.707107;,
  0.000000;0.707107;0.707107;,
  0.000000;-0.707105;-0.707108;,
  0.000000;-0.707105;-0.707108;,
  0.000000;0.707105;-0.707108;,
  0.000000;0.707105;-0.707108;,
  0.000000;0.707109;-0.707105;,
  0.000000;0.707109;-0.707105;,
  0.000000;0.707109;0.707105;,
  0.000000;0.707109;0.707105;,
  0.000000;0.707105;0.707108;,
  0.000000;0.707105;0.707108;;
  20;
  3;0,0,0;,
  3;1,1,1;,
  3;2,2,2;,
  3;3,3,3;,
  3;4,4,4;,
  3;5,5,5;,
  3;6,6,6;,
  3;7,7,7;,
  3;8,8,8;,
  3;9,9,9;,
  3;10,10,10;,
  3;11,11,11;,
  3;12,12,12;,
  3;13,13,13;,
  3;14,14,14;,
  3;15,15,15;,
  3;16,16,16;,
  3;17,17,17;,
  3;18,18,18;,
  3;19,19,19;;
 }
}