xof 0303txt 0032
template Vector {
 <3d82ab5e-62da-11cf-ab39-0020af71e433>
 FLOAT x;
 FLOAT y;
 FLOAT z;
}

template MeshFace {
 <3d82ab5f-62da-11cf-ab39-0020af71e433>
 DWORD nFaceVertexIndices;
 array DWORD faceVertexIndices[nFaceVertexIndices];
}

template Mesh {
 <3d82ab44-62da-11cf-ab39-0020af71e433>
 DWORD nVertices;
 array Vector vertices[nVertices];
 DWORD nFaces;
 array MeshFace faces[nFaces];
 [...]
}

template ColorRGBA {
 <35ff44e0-6c7c-11cf-8f52-0040333594a3>
 FLOAT red;
 FLOAT green;
 FLOAT blue;
 FLOAT alpha;
}

template ColorRGB {
 <d3e16e81-7835-11cf-8f52-0040333594a3>
 FLOAT red;
 FLOAT green;
 FLOAT blue;
}

template Material {
 <3d82ab4d-62da-11cf-ab39-0020af71e433>
 ColorRGBA faceColor;
 FLOAT power;
 ColorRGB specularColor;
 ColorRGB emissiveColor;
 [...]
}

template MeshMaterialList {
 <f6f23f42-7686-11cf-8f52-0040333594a3>
 DWORD nMaterials;
 DWORD nFaceIndexes;
 array DWORD faceIndexes[nFaceIndexes];
 [Material <3d82ab4d-62da-11cf-ab39-0020af71e433>]
}

template TextureFilename {
 <a42790e1-7810-11cf-8f52-0040333594a3>
 STRING filename;
}

template Coords2d {
 <f6f23f44-7686-11cf-8f52-0040333594a3>
 FLOAT u;
 FLOAT v;
}

template MeshTextureCoords {
 <f6f23f40-7686-11cf-8f52-0040333594a3>
 DWORD nTextureCoords;
 array Coords2d textureCoords[nTextureCoords];
}

template MeshNormals {
 <f6f23f43-7686-11cf-8f52-0040333594a3>
 DWORD nNormals;
 array Vector normals[nNormals];
 DWORD nFaceNormals;
 array MeshFace faceNormals[nFaceNormals];
}


Mesh  {
 150;
 1.450000;0.500000;-13.150000;,
 1.850000;0.700000;-12.150000;,
 1.450000;-0.700000;-13.150000;,
 1.850000;-0.700000;-12.150000;,
 -1.450000;0.500000;1.150000;,
 -1.850000;0.700000;0.150000;,
 -1.450000;-0.700000;1.150000;,
 -1.850000;-0.700000;0.150000;,
 1.450000;0.500000;0.150000;,
 1.850000;0.700000;1.150000;,
 1.450000;-0.700000;0.150000;,
 1.850000;-0.700000;1.150000;,
 -1.550000;8.699999;-12.149999;,
 -1.550000;-1.300000;-12.149999;,
 -1.850000;-1.300000;-12.149999;,
 -1.850000;8.699999;-12.149999;,
 -1.550000;8.699999;-11.849999;,
 -1.550000;-1.300000;-11.849999;,
 -1.850000;-1.300000;-11.849999;,
 -1.850000;8.699999;-11.849999;,
 1.850000;8.699999;-12.149999;,
 1.850000;-1.300000;-12.149999;,
 1.550000;-1.300000;-12.149999;,
 1.550000;8.699999;-12.149999;,
 1.850000;8.699999;-11.849999;,
 1.850000;-1.300000;-11.849999;,
 1.550000;-1.300000;-11.849999;,
 1.550000;8.699999;-11.849999;,
 -1.550000;8.699999;-0.150000;,
 -1.550000;-1.300000;-0.150000;,
 -1.850000;-1.300000;-0.150000;,
 -1.850000;8.699999;-0.150000;,
 -1.550000;8.699999;0.150000;,
 -1.550000;-1.300000;0.150000;,
 -1.850000;-1.300000;0.150000;,
 -1.850000;8.699999;0.150000;,
 1.850000;8.699999;-0.150000;,
 1.850000;-1.300000;-0.150000;,
 1.550000;-1.300000;-0.150000;,
 1.550000;8.699999;-0.150000;,
 1.850000;8.699999;0.150000;,
 1.850000;-1.300000;0.150000;,
 1.550000;-1.300000;0.150000;,
 1.550000;8.699999;0.150000;,
 1.100000;5.800000;-12.449999;,
 1.100000;5.000000;-12.449999;,
 -1.100000;5.000000;-12.449999;,
 -1.100000;5.800000;-12.449999;,
 1.100000;5.800000;-12.150000;,
 1.100000;5.000000;-12.150000;,
 -1.100000;5.000000;-12.150000;,
 -1.100000;5.800000;-12.150000;,
 1.300000;6.800000;-12.449999;,
 1.300000;5.800000;-12.449999;,
 -1.300000;5.800000;-12.449999;,
 -1.300000;6.800000;-12.449999;,
 1.300000;6.800000;-12.150000;,
 1.300000;5.800000;-12.150000;,
 -1.300000;5.800000;-12.150000;,
 -1.300000;6.800000;-12.150000;,
 1.800000;7.000000;-12.449999;,
 1.800000;6.800000;-12.449999;,
 -1.800000;6.800000;-12.449999;,
 -1.800000;7.000000;-12.449999;,
 1.800000;7.000000;-12.150000;,
 1.800000;6.800000;-12.150000;,
 -1.800000;6.800000;-12.150000;,
 -1.800000;7.000000;-12.150000;,
 1.100000;5.800000;0.150000;,
 1.100000;5.000000;0.150000;,
 -1.100000;5.000000;0.150000;,
 -1.100000;5.800000;0.150000;,
 1.100000;5.800000;0.450000;,
 1.100000;5.000000;0.450000;,
 -1.100000;5.000000;0.450000;,
 -1.100000;5.800000;0.450000;,
 1.300000;6.800000;0.150000;,
 1.300000;5.800000;0.150000;,
 -1.300000;5.800000;0.150000;,
 -1.300000;6.800000;0.150000;,
 1.300000;6.800000;0.450000;,
 1.300000;5.800000;0.450000;,
 -1.300000;5.800000;0.450000;,
 -1.300000;6.800000;0.450000;,
 1.800000;7.000000;0.150000;,
 1.800000;6.800000;0.150000;,
 -1.800000;6.800000;0.150000;,
 -1.800000;7.000000;0.150000;,
 1.800000;7.000000;0.450000;,
 1.800000;6.800000;0.450000;,
 -1.800000;6.800000;0.450000;,
 -1.800000;7.000000;0.450000;,
 -2.900000;1.800000;-11.000000;,
 -2.900000;-0.800000;-11.000000;,
 -2.900000;1.800000;-13.000000;,
 -2.900000;-0.800000;-13.000000;,
 -1.900000;1.900000;-11.000000;,
 -1.900000;-0.800000;-11.000000;,
 -1.900000;1.900000;-13.000000;,
 -1.900000;-0.800000;-13.000000;,
 -3.000000;1.790000;-11.000000;,
 -3.000000;1.790000;-13.000000;,
 -1.300000;1.500000;-12.799999;,
 -1.300000;0.500000;-12.799999;,
 -1.900000;0.500000;-12.799999;,
 -1.900000;1.500000;-12.799999;,
 -1.300000;1.500000;-12.400000;,
 -1.300000;0.500000;-12.400000;,
 -1.900000;0.500000;-12.400000;,
 -1.900000;1.500000;-12.400000;,
 -1.700000;7.900000;-12.000000;,
 -1.700000;5.700000;-12.000000;,
 1.700000;7.900000;-12.000000;,
 1.700000;5.700000;-12.000000;,
 -1.700000;7.900000;0.000000;,
 -1.700000;5.700000;0.000000;,
 1.700000;7.900000;0.000000;,
 1.700000;5.700000;0.000000;,
 -1.860000;9.200000;-12.500000;,
 -1.860000;9.200000;-11.500000;,
 -1.860000;8.200000;-12.500000;,
 -1.860000;8.200000;-11.500000;,
 -1.540000;9.200000;-12.500000;,
 -1.540000;9.200000;-11.500000;,
 -1.540000;8.200000;-12.500000;,
 -1.540000;8.200000;-11.500000;,
 1.540000;9.200000;-12.500000;,
 1.540000;9.200000;-11.500000;,
 1.540000;8.200000;-12.500000;,
 1.540000;8.200000;-11.500000;,
 1.860000;9.200000;-12.500000;,
 1.860000;9.200000;-11.500000;,
 1.860000;8.200000;-12.500000;,
 1.860000;8.200000;-11.500000;,
 -1.860000;9.200000;-0.500000;,
 -1.860000;9.200000;0.500000;,
 -1.860000;8.200000;-0.500000;,
 -1.860000;8.200000;0.500000;,
 -1.540000;9.200000;-0.500000;,
 -1.540000;9.200000;0.500000;,
 -1.540000;8.200000;-0.500000;,
 -1.540000;8.200000;0.500000;,
 1.540000;9.200000;-0.500000;,
 1.540000;9.200000;0.500000;,
 1.540000;8.200000;-0.500000;,
 1.540000;8.200000;0.500000;,
 1.860000;9.200000;-0.500000;,
 1.860000;9.200000;0.500000;,
 1.860000;8.200000;-0.500000;,
 1.860000;8.200000;0.500000;;
 188;
 3;0,1,3;,
 3;0,3,2;,
 3;2,3,1;,
 3;2,1,0;,
 3;4,5,7;,
 3;4,7,6;,
 3;6,7,5;,
 3;6,5,4;,
 3;8,9,11;,
 3;8,11,10;,
 3;10,11,9;,
 3;10,9,8;,
 3;12,13,14;,
 3;12,14,15;,
 3;15,14,18;,
 3;15,18,19;,
 3;19,18,17;,
 3;19,17,16;,
 3;16,17,13;,
 3;16,13,12;,
 3;12,15,19;,
 3;12,19,16;,
 3;13,17,18;,
 3;13,18,14;,
 3;20,21,22;,
 3;20,22,23;,
 3;23,22,26;,
 3;23,26,27;,
 3;27,26,25;,
 3;27,25,24;,
 3;24,25,21;,
 3;24,21,20;,
 3;20,23,27;,
 3;20,27,24;,
 3;21,25,26;,
 3;21,26,22;,
 3;28,29,30;,
 3;28,30,31;,
 3;31,30,34;,
 3;31,34,35;,
 3;35,34,33;,
 3;35,33,32;,
 3;32,33,29;,
 3;32,29,28;,
 3;28,31,35;,
 3;28,35,32;,
 3;29,33,34;,
 3;29,34,30;,
 3;36,37,38;,
 3;36,38,39;,
 3;39,38,42;,
 3;39,42,43;,
 3;43,42,41;,
 3;43,41,40;,
 3;40,41,37;,
 3;40,37,36;,
 3;36,39,43;,
 3;36,43,40;,
 3;37,41,42;,
 3;37,42,38;,
 3;44,45,46;,
 3;44,46,47;,
 3;47,46,50;,
 3;47,50,51;,
 3;51,50,49;,
 3;51,49,48;,
 3;48,49,45;,
 3;48,45,44;,
 3;44,47,51;,
 3;44,51,48;,
 3;45,49,50;,
 3;45,50,46;,
 3;52,53,54;,
 3;52,54,55;,
 3;55,54,58;,
 3;55,58,59;,
 3;59,58,57;,
 3;59,57,56;,
 3;56,57,53;,
 3;56,53,52;,
 3;52,55,59;,
 3;52,59,56;,
 3;53,57,58;,
 3;53,58,54;,
 3;60,61,62;,
 3;60,62,63;,
 3;63,62,66;,
 3;63,66,67;,
 3;67,66,65;,
 3;67,65,64;,
 3;64,65,61;,
 3;64,61,60;,
 3;60,63,67;,
 3;60,67,64;,
 3;61,65,66;,
 3;61,66,62;,
 3;68,69,70;,
 3;68,70,71;,
 3;71,70,74;,
 3;71,74,75;,
 3;75,74,73;,
 3;75,73,72;,
 3;72,73,69;,
 3;72,69,68;,
 3;68,71,75;,
 3;68,75,72;,
 3;69,73,74;,
 3;69,74,70;,
 3;76,77,78;,
 3;76,78,79;,
 3;79,78,82;,
 3;79,82,83;,
 3;83,82,81;,
 3;83,81,80;,
 3;80,81,77;,
 3;80,77,76;,
 3;76,79,83;,
 3;76,83,80;,
 3;77,81,82;,
 3;77,82,78;,
 3;84,85,86;,
 3;84,86,87;,
 3;87,86,90;,
 3;87,90,91;,
 3;91,90,89;,
 3;91,89,88;,
 3;88,89,85;,
 3;88,85,84;,
 3;84,87,91;,
 3;84,91,88;,
 3;85,89,90;,
 3;85,90,86;,
 3;92,94,95;,
 3;92,95,93;,
 3;94,98,99;,
 3;94,99,95;,
 3;98,96,97;,
 3;98,97,99;,
 3;100,96,98;,
 3;100,98,101;,
 3;102,103,104;,
 3;102,104,105;,
 3;105,104,108;,
 3;105,108,109;,
 3;109,108,107;,
 3;109,107,106;,
 3;106,107,103;,
 3;106,103,102;,
 3;102,105,109;,
 3;102,109,106;,
 3;103,107,108;,
 3;103,108,104;,
 3;110,112,113;,
 3;110,113,111;,
 3;114,116,117;,
 3;114,117,115;,
 3;118,120,121;,
 3;118,121,119;,
 3;119,121,120;,
 3;119,120,118;,
 3;122,124,125;,
 3;122,125,123;,
 3;123,125,124;,
 3;123,124,122;,
 3;126,128,129;,
 3;126,129,127;,
 3;127,129,128;,
 3;127,128,126;,
 3;130,132,133;,
 3;130,133,131;,
 3;131,133,132;,
 3;131,132,130;,
 3;134,136,137;,
 3;134,137,135;,
 3;135,137,136;,
 3;135,136,134;,
 3;138,140,141;,
 3;138,141,139;,
 3;139,141,140;,
 3;139,140,138;,
 3;142,144,145;,
 3;142,145,143;,
 3;143,145,144;,
 3;143,144,142;,
 3;146,148,149;,
 3;146,149,147;,
 3;147,149,148;,
 3;147,148,146;;

 MeshMaterialList  {
  15;
  188;
  0,
  0,
  0,
  0,
  0,
  0,
  0,
  0,
  0,
  0,
  0,
  0,
  1,
  1,
  1,
  1,
  1,
  1,
  1,
  1,
  1,
  1,
  1,
  1,
  2,
  2,
  2,
  2,
  2,
  2,
  2,
  2,
  2,
  2,
  2,
  2,
  3,
  3,
  3,
  3,
  3,
  3,
  3,
  3,
  3,
  3,
  3,
  3,
  4,
  4,
  4,
  4,
  4,
  4,
  4,
  4,
  4,
  4,
  4,
  4,
  5,
  5,
  5,
  5,
  5,
  5,
  5,
  5,
  5,
  5,
  5,
  5,
  6,
  6,
  6,
  6,
  6,
  6,
  6,
  6,
  6,
  6,
  6,
  6,
  7,
  7,
  7,
  7,
  7,
  7,
  7,
  7,
  7,
  7,
  7,
  7,
  8,
  8,
  8,
  8,
  8,
  8,
  8,
  8,
  8,
  8,
  8,
  8,
  9,
  9,
  9,
  9,
  9,
  9,
  9,
  9,
  9,
  9,
  9,
  9,
  10,
  10,
  10,
  10,
  10,
  10,
  10,
  10,
  10,
  10,
  10,
  10,
  11,
  11,
  11,
  11,
  11,
  11,
  11,
  11,
  12,
  12,
  12,
  12,
  12,
  12,
  12,
  12,
  12,
  12,
  12,
  12,
  13,
  13,
  13,
  13,
  14,
  14,
  14,
  14,
  14,
  14,
  14,
  14,
  14,
  14,
  14,
  14,
  14,
  14,
  14,
  14,
  14,
  14,
  14,
  14,
  14,
  14,
  14,
  14,
  14,
  14,
  14,
  14,
  14,
  14,
  14,
  14;

  Material  {
   0.000000;0.501961;0.000000;1.000000;;
   0.000000;
   0.000000;0.000000;0.000000;;
   0.000000;0.000000;0.000000;;
  }

  Material  {
   0.000000;0.501961;0.000000;1.000000;;
   0.000000;
   0.000000;0.000000;0.000000;;
   0.000000;0.000000;0.000000;;
  }

  Material  {
   0.000000;0.501961;0.000000;1.000000;;
   0.000000;
   0.000000;0.000000;0.000000;;
   0.000000;0.000000;0.000000;;
  }

  Material  {
   0.000000;0.501961;0.000000;1.000000;;
   0.000000;
   0.000000;0.000000;0.000000;;
   0.000000;0.000000;0.000000;;
  }

  Material  {
   0.000000;0.501961;0.000000;1.000000;;
   0.000000;
   0.000000;0.000000;0.000000;;
   0.000000;0.000000;0.000000;;
  }

  Material  {
   0.000000;0.501961;0.000000;1.000000;;
   0.000000;
   0.000000;0.000000;0.000000;;
   0.000000;0.000000;0.000000;;
  }

  Material  {
   0.000000;0.501961;0.000000;1.000000;;
   0.000000;
   0.000000;0.000000;0.000000;;
   0.000000;0.000000;0.000000;;
  }

  Material  {
   0.000000;0.501961;0.000000;1.000000;;
   0.000000;
   0.000000;0.000000;0.000000;;
   0.000000;0.000000;0.000000;;
  }

  Material  {
   0.000000;0.501961;0.000000;1.000000;;
   0.000000;
   0.000000;0.000000;0.000000;;
   0.000000;0.000000;0.000000;;
  }

  Material  {
   0.000000;0.501961;0.000000;1.000000;;
   0.000000;
   0.000000;0.000000;0.000000;;
   0.000000;0.000000;0.000000;;
  }

  Material  {
   0.000000;0.501961;0.000000;1.000000;;
   0.000000;
   0.000000;0.000000;0.000000;;
   0.000000;0.000000;0.000000;;
  }

  Material  {
   0.862745;0.862745;0.862745;1.000000;;
   0.000000;
   0.000000;0.000000;0.000000;;
   0.000000;0.000000;0.000000;;
  }

  Material  {
   0.862745;0.862745;0.862745;1.000000;;
   0.000000;
   0.000000;0.000000;0.000000;;
   0.000000;0.000000;0.000000;;
  }

  Material  {
   0.862745;0.862745;0.000000;1.000000;;
   0.000000;
   0.000000;0.000000;0.000000;;
   0.000000;0.000000;0.000000;;

   TextureFilename  {
    "tomoeita.dds";
   }
  }

  Material  {
   0.862745;0.862745;0.000000;1.000000;;
   0.000000;
   0.000000;0.000000;0.000000;;
   0.000000;0.000000;0.000000;;

   TextureFilename  {
    "haguruma.dds";
   }
  }
 }

 MeshTextureCoords  {
  150;
  0.000000;0.000000;,
  0.000000;0.000000;,
  0.000000;0.000000;,
  0.000000;0.000000;,
  0.000000;0.000000;,
  0.000000;0.000000;,
  0.000000;0.000000;,
  0.000000;0.000000;,
  0.000000;0.000000;,
  0.000000;0.000000;,
  0.000000;0.000000;,
  0.000000;0.000000;,
  0.000000;0.000000;,
  0.000000;0.000000;,
  0.000000;0.000000;,
  0.000000;0.000000;,
  0.000000;0.000000;,
  0.000000;0.000000;,
  0.000000;0.000000;,
  0.000000;0.000000;,
  0.000000;0.000000;,
  0.000000;0.000000;,
  0.000000;0.000000;,
  0.000000;0.000000;,
  0.000000;0.000000;,
  0.000000;0.000000;,
  0.000000;0.000000;,
  0.000000;0.000000;,
  0.000000;0.000000;,
  0.000000;0.000000;,
  0.000000;0.000000;,
  0.000000;0.000000;,
  0.000000;0.000000;,
  0.000000;0.000000;,
  0.000000;0.000000;,
  0.000000;0.000000;,
  0.000000;0.000000;,
  0.000000;0.000000;,
  0.000000;0.000000;,
  0.000000;0.000000;,
  0.000000;0.000000;,
  0.000000;0.000000;,
  0.000000;0.000000;,
  0.000000;0.000000;,
  0.000000;0.000000;,
  0.000000;0.000000;,
  0.000000;0.000000;,
  0.000000;0.000000;,
  0.000000;0.000000;,
  0.000000;0.000000;,
  0.000000;0.000000;,
  0.000000;0.000000;,
  0.000000;0.000000;,
  0.000000;0.000000;,
  0.000000;0.000000;,
  0.000000;0.000000;,
  0.000000;0.000000;,
  0.000000;0.000000;,
  0.000000;0.000000;,
  0.000000;0.000000;,
  0.000000;0.000000;,
  0.000000;0.000000;,
  0.000000;0.000000;,
  0.000000;0.000000;,
  0.000000;0.000000;,
  0.000000;0.000000;,
  0.000000;0.000000;,
  0.000000;0.000000;,
  0.000000;0.000000;,
  0.000000;0.000000;,
  0.000000;0.000000;,
  0.000000;0.000000;,
  0.000000;0.000000;,
  0.000000;0.000000;,
  0.000000;0.000000;,
  0.000000;0.000000;,
  0.000000;0.000000;,
  0.000000;0.000000;,
  0.000000;0.000000;,
  0.000000;0.000000;,
  0.000000;0.000000;,
  0.000000;0.000000;,
  0.000000;0.000000;,
  0.000000;0.000000;,
  0.000000;0.000000;,
  0.000000;0.000000;,
  0.000000;0.000000;,
  0.000000;0.000000;,
  0.000000;0.000000;,
  0.000000;0.000000;,
  0.000000;0.000000;,
  0.000000;0.000000;,
  0.000000;0.000000;,
  0.000000;0.000000;,
  0.000000;0.000000;,
  0.000000;0.000000;,
  0.000000;0.000000;,
  0.000000;0.000000;,
  0.000000;0.000000;,
  0.000000;0.000000;,
  0.000000;0.000000;,
  0.000000;0.000000;,
  0.000000;0.000000;,
  0.000000;0.000000;,
  0.000000;0.000000;,
  0.000000;0.000000;,
  0.000000;0.000000;,
  0.000000;0.000000;,
  0.000000;0.000000;,
  0.000000;0.000000;,
  0.000000;0.000000;,
  0.000000;1.000000;,
  1.000000;0.000000;,
  1.000000;1.000000;,
  0.000000;0.000000;,
  0.000000;1.000000;,
  1.000000;0.000000;,
  1.000000;1.000000;,
  0.000000;0.000000;,
  0.000000;1.000000;,
  1.000000;0.000000;,
  1.000000;1.000000;,
  0.000000;0.000000;,
  0.000000;1.000000;,
  1.000000;0.000000;,
  1.000000;1.000000;,
  0.000000;0.000000;,
  0.000000;1.000000;,
  1.000000;0.000000;,
  1.000000;1.000000;,
  0.000000;0.000000;,
  0.000000;1.000000;,
  1.000000;0.000000;,
  1.000000;1.000000;,
  0.000000;0.000000;,
  0.000000;1.000000;,
  1.000000;0.000000;,
  1.000000;1.000000;,
  0.000000;0.000000;,
  0.000000;1.000000;,
  1.000000;0.000000;,
  1.000000;1.000000;,
  0.000000;0.000000;,
  0.000000;1.000000;,
  1.000000;0.000000;,
  1.000000;1.000000;,
  0.000000;0.000000;,
  0.000000;1.000000;,
  1.000000;0.000000;,
  1.000000;1.000000;;
 }

 MeshNormals  {
  188;
  0.928477;0.000000;-0.371391;,
  0.928477;0.000000;-0.371391;,
  -0.928477;0.000000;0.371391;,
  -0.928477;0.000000;0.371391;,
  -0.928477;0.000000;0.371391;,
  -0.928477;0.000000;0.371391;,
  0.928477;0.000000;-0.371391;,
  0.928477;0.000000;-0.371391;,
  0.928477;0.000000;-0.371391;,
  0.928477;0.000000;-0.371391;,
  -0.928477;0.000000;0.371391;,
  -0.928477;0.000000;0.371391;,
  0.000000;0.000000;-1.000000;,
  0.000000;0.000000;-1.000000;,
  -1.000000;0.000000;0.000000;,
  -1.000000;0.000000;0.000000;,
  0.000000;0.000000;1.000000;,
  0.000000;0.000000;1.000000;,
  1.000000;0.000000;0.000000;,
  1.000000;0.000000;0.000000;,
  0.000000;1.000000;0.000000;,
  0.000000;1.000000;0.000000;,
  0.000000;-1.000000;0.000000;,
  0.000000;-1.000000;0.000000;,
  0.000000;0.000000;-1.000000;,
  0.000000;0.000000;-1.000000;,
  -1.000000;0.000000;0.000000;,
  -1.000000;0.000000;0.000000;,
  0.000000;0.000000;1.000000;,
  0.000000;0.000000;1.000000;,
  1.000000;0.000000;0.000000;,
  1.000000;0.000000;0.000000;,
  0.000000;1.000000;0.000000;,
  0.000000;1.000000;0.000000;,
  0.000000;-1.000000;0.000000;,
  0.000000;-1.000000;0.000000;,
  0.000000;0.000000;-1.000000;,
  0.000000;0.000000;-1.000000;,
  -1.000000;0.000000;0.000000;,
  -1.000000;0.000000;0.000000;,
  0.000000;0.000000;1.000000;,
  0.000000;0.000000;1.000000;,
  1.000000;0.000000;0.000000;,
  1.000000;0.000000;0.000000;,
  0.000000;1.000000;0.000000;,
  0.000000;1.000000;0.000000;,
  0.000000;-1.000000;0.000000;,
  0.000000;-1.000000;0.000000;,
  0.000000;0.000000;-1.000000;,
  0.000000;0.000000;-1.000000;,
  -1.000000;0.000000;0.000000;,
  -1.000000;0.000000;0.000000;,
  0.000000;0.000000;1.000000;,
  0.000000;0.000000;1.000000;,
  1.000000;0.000000;0.000000;,
  1.000000;0.000000;0.000000;,
  0.000000;1.000000;0.000000;,
  0.000000;1.000000;0.000000;,
  0.000000;-1.000000;0.000000;,
  0.000000;-1.000000;0.000000;,
  0.000000;0.000000;-1.000000;,
  0.000000;0.000000;-1.000000;,
  -1.000000;0.000000;0.000000;,
  -1.000000;0.000000;0.000000;,
  0.000000;0.000000;1.000000;,
  0.000000;0.000000;1.000000;,
  1.000000;0.000000;0.000000;,
  1.000000;0.000000;0.000000;,
  0.000000;1.000000;0.000000;,
  0.000000;1.000000;0.000000;,
  0.000000;-1.000000;0.000000;,
  0.000000;-1.000000;0.000000;,
  0.000000;0.000000;-1.000000;,
  0.000000;0.000000;-1.000000;,
  -1.000000;0.000000;0.000000;,
  -1.000000;0.000000;0.000000;,
  0.000000;0.000000;1.000000;,
  0.000000;0.000000;1.000000;,
  1.000000;0.000000;0.000000;,
  1.000000;0.000000;0.000000;,
  0.000000;1.000000;0.000000;,
  0.000000;1.000000;0.000000;,
  0.000000;-1.000000;0.000000;,
  0.000000;-1.000000;0.000000;,
  0.000000;0.000000;-1.000000;,
  0.000000;0.000000;-1.000000;,
  -1.000000;0.000000;0.000000;,
  -1.000000;0.000000;0.000000;,
  0.000000;0.000000;1.000000;,
  0.000000;0.000000;1.000000;,
  1.000000;0.000000;0.000000;,
  1.000000;0.000000;0.000000;,
  0.000000;1.000000;0.000000;,
  0.000000;1.000000;0.000000;,
  0.000000;-1.000000;0.000000;,
  0.000000;-1.000000;0.000000;,
  0.000000;0.000000;-1.000000;,
  0.000000;0.000000;-1.000000;,
  -1.000000;0.000000;0.000000;,
  -1.000000;0.000000;0.000000;,
  0.000000;0.000000;1.000000;,
  0.000000;0.000000;1.000000;,
  1.000000;0.000000;0.000000;,
  1.000000;0.000000;0.000000;,
  0.000000;1.000000;0.000000;,
  0.000000;1.000000;0.000000;,
  0.000000;-1.000000;0.000000;,
  0.000000;-1.000000;0.000000;,
  0.000000;0.000000;-1.000000;,
  0.000000;0.000000;-1.000000;,
  -1.000000;0.000000;0.000000;,
  -1.000000;0.000000;0.000000;,
  0.000000;0.000000;1.000000;,
  0.000000;0.000000;1.000000;,
  1.000000;0.000000;0.000000;,
  1.000000;0.000000;0.000000;,
  0.000000;1.000000;0.000000;,
  0.000000;1.000000;0.000000;,
  0.000000;-1.000000;0.000000;,
  0.000000;-1.000000;0.000000;,
  0.000000;0.000000;-1.000000;,
  0.000000;0.000000;-1.000000;,
  -1.000000;0.000000;0.000000;,
  -1.000000;0.000000;0.000000;,
  0.000000;0.000000;1.000000;,
  0.000000;0.000000;1.000000;,
  1.000000;0.000000;0.000000;,
  1.000000;0.000000;0.000000;,
  0.000000;1.000000;0.000000;,
  0.000000;1.000000;0.000000;,
  0.000000;-1.000000;0.000000;,
  0.000000;-1.000000;0.000000;,
  -1.000000;0.000000;0.000000;,
  -1.000000;0.000000;0.000000;,
  0.000000;0.000000;-1.000000;,
  0.000000;0.000000;-1.000000;,
  1.000000;0.000000;0.000000;,
  1.000000;0.000000;0.000000;,
  -0.099504;0.995037;0.000000;,
  -0.099504;0.995037;0.000000;,
  0.000000;0.000000;-1.000000;,
  0.000000;0.000000;-1.000000;,
  -1.000000;0.000000;0.000000;,
  -1.000000;0.000000;0.000000;,
  0.000000;0.000000;1.000000;,
  0.000000;0.000000;1.000000;,
  1.000000;0.000000;0.000000;,
  1.000000;0.000000;0.000000;,
  0.000000;1.000000;0.000000;,
  0.000000;1.000000;0.000000;,
  0.000000;-1.000000;0.000000;,
  0.000000;-1.000000;0.000000;,
  0.000000;0.000000;-1.000000;,
  0.000000;0.000000;-1.000000;,
  0.000000;0.000000;-1.000000;,
  0.000000;0.000000;-1.000000;,
  -1.000000;0.000000;0.000000;,
  -1.000000;0.000000;0.000000;,
  1.000000;0.000000;0.000000;,
  1.000000;0.000000;0.000000;,
  -1.000000;0.000000;0.000000;,
  -1.000000;0.000000;0.000000;,
  1.000000;0.000000;0.000000;,
  1.000000;0.000000;0.000000;,
  -1.000000;0.000000;0.000000;,
  -1.000000;0.000000;0.000000;,
  1.000000;0.000000;0.000000;,
  1.000000;0.000000;0.000000;,
  -1.000000;0.000000;0.000000;,
  -1.000000;0.000000;0.000000;,
  1.000000;0.000000;0.000000;,
  1.000000;0.000000;0.000000;,
  -1.000000;0.000000;0.000000;,
  -1.000000;0.000000;0.000000;,
  1.000000;0.000000;0.000000;,
  1.000000;0.000000;0.000000;,
  -1.000000;0.000000;0.000000;,
  -1.000000;0.000000;0.000000;,
  1.000000;0.000000;0.000000;,
  1.000000;0.000000;0.000000;,
  -1.000000;0.000000;0.000000;,
  -1.000000;0.000000;0.000000;,
  1.000000;0.000000;0.000000;,
  1.000000;0.000000;0.000000;,
  -1.000000;0.000000;0.000000;,
  -1.000000;0.000000;0.000000;,
  1.000000;0.000000;0.000000;,
  1.000000;0.000000;0.000000;;
  188;
  3;0,0,0;,
  3;1,1,1;,
  3;2,2,2;,
  3;3,3,3;,
  3;4,4,4;,
  3;5,5,5;,
  3;6,6,6;,
  3;7,7,7;,
  3;8,8,8;,
  3;9,9,9;,
  3;10,10,10;,
  3;11,11,11;,
  3;12,12,12;,
  3;13,13,13;,
  3;14,14,14;,
  3;15,15,15;,
  3;16,16,16;,
  3;17,17,17;,
  3;18,18,18;,
  3;19,19,19;,
  3;20,20,20;,
  3;21,21,21;,
  3;22,22,22;,
  3;23,23,23;,
  3;24,24,24;,
  3;25,25,25;,
  3;26,26,26;,
  3;27,27,27;,
  3;28,28,28;,
  3;29,29,29;,
  3;30,30,30;,
  3;31,31,31;,
  3;32,32,32;,
  3;33,33,33;,
  3;34,34,34;,
  3;35,35,35;,
  3;36,36,36;,
  3;37,37,37;,
  3;38,38,38;,
  3;39,39,39;,
  3;40,40,40;,
  3;41,41,41;,
  3;42,42,42;,
  3;43,43,43;,
  3;44,44,44;,
  3;45,45,45;,
  3;46,46,46;,
  3;47,47,47;,
  3;48,48,48;,
  3;49,49,49;,
  3;50,50,50;,
  3;51,51,51;,
  3;52,52,52;,
  3;53,53,53;,
  3;54,54,54;,
  3;55,55,55;,
  3;56,56,56;,
  3;57,57,57;,
  3;58,58,58;,
  3;59,59,59;,
  3;60,60,60;,
  3;61,61,61;,
  3;62,62,62;,
  3;63,63,63;,
  3;64,64,64;,
  3;65,65,65;,
  3;66,66,66;,
  3;67,67,67;,
  3;68,68,68;,
  3;69,69,69;,
  3;70,70,70;,
  3;71,71,71;,
  3;72,72,72;,
  3;73,73,73;,
  3;74,74,74;,
  3;75,75,75;,
  3;76,76,76;,
  3;77,77,77;,
  3;78,78,78;,
  3;79,79,79;,
  3;80,80,80;,
  3;81,81,81;,
  3;82,82,82;,
  3;83,83,83;,
  3;84,84,84;,
  3;85,85,85;,
  3;86,86,86;,
  3;87,87,87;,
  3;88,88,88;,
  3;89,89,89;,
  3;90,90,90;,
  3;91,91,91;,
  3;92,92,92;,
  3;93,93,93;,
  3;94,94,94;,
  3;95,95,95;,
  3;96,96,96;,
  3;97,97,97;,
  3;98,98,98;,
  3;99,99,99;,
  3;100,100,100;,
  3;101,101,101;,
  3;102,102,102;,
  3;103,103,103;,
  3;104,104,104;,
  3;105,105,105;,
  3;106,106,106;,
  3;107,107,107;,
  3;108,108,108;,
  3;109,109,109;,
  3;110,110,110;,
  3;111,111,111;,
  3;112,112,112;,
  3;113,113,113;,
  3;114,114,114;,
  3;115,115,115;,
  3;116,116,116;,
  3;117,117,117;,
  3;118,118,118;,
  3;119,119,119;,
  3;120,120,120;,
  3;121,121,121;,
  3;122,122,122;,
  3;123,123,123;,
  3;124,124,124;,
  3;125,125,125;,
  3;126,126,126;,
  3;127,127,127;,
  3;128,128,128;,
  3;129,129,129;,
  3;130,130,130;,
  3;131,131,131;,
  3;132,132,132;,
  3;133,133,133;,
  3;134,134,134;,
  3;135,135,135;,
  3;136,136,136;,
  3;137,137,137;,
  3;138,138,138;,
  3;139,139,139;,
  3;140,140,140;,
  3;141,141,141;,
  3;142,142,142;,
  3;143,143,143;,
  3;144,144,144;,
  3;145,145,145;,
  3;146,146,146;,
  3;147,147,147;,
  3;148,148,148;,
  3;149,149,149;,
  3;150,150,150;,
  3;151,151,151;,
  3;152,152,152;,
  3;153,153,153;,
  3;154,154,154;,
  3;155,155,155;,
  3;156,156,156;,
  3;157,157,157;,
  3;158,158,158;,
  3;159,159,159;,
  3;160,160,160;,
  3;161,161,161;,
  3;162,162,162;,
  3;163,163,163;,
  3;164,164,164;,
  3;165,165,165;,
  3;166,166,166;,
  3;167,167,167;,
  3;168,168,168;,
  3;169,169,169;,
  3;170,170,170;,
  3;171,171,171;,
  3;172,172,172;,
  3;173,173,173;,
  3;174,174,174;,
  3;175,175,175;,
  3;176,176,176;,
  3;177,177,177;,
  3;178,178,178;,
  3;179,179,179;,
  3;180,180,180;,
  3;181,181,181;,
  3;182,182,182;,
  3;183,183,183;,
  3;184,184,184;,
  3;185,185,185;,
  3;186,186,186;,
  3;187,187,187;;
 }
}