xof 0303txt 0032
template Vector {
 <3d82ab5e-62da-11cf-ab39-0020af71e433>
 FLOAT x;
 FLOAT y;
 FLOAT z;
}

template MeshFace {
 <3d82ab5f-62da-11cf-ab39-0020af71e433>
 DWORD nFaceVertexIndices;
 array DWORD faceVertexIndices[nFaceVertexIndices];
}

template Mesh {
 <3d82ab44-62da-11cf-ab39-0020af71e433>
 DWORD nVertices;
 array Vector vertices[nVertices];
 DWORD nFaces;
 array MeshFace faces[nFaces];
 [...]
}

template ColorRGBA {
 <35ff44e0-6c7c-11cf-8f52-0040333594a3>
 FLOAT red;
 FLOAT green;
 FLOAT blue;
 FLOAT alpha;
}

template ColorRGB {
 <d3e16e81-7835-11cf-8f52-0040333594a3>
 FLOAT red;
 FLOAT green;
 FLOAT blue;
}

template Material {
 <3d82ab4d-62da-11cf-ab39-0020af71e433>
 ColorRGBA faceColor;
 FLOAT power;
 ColorRGB specularColor;
 ColorRGB emissiveColor;
 [...]
}

template MeshMaterialList {
 <f6f23f42-7686-11cf-8f52-0040333594a3>
 DWORD nMaterials;
 DWORD nFaceIndexes;
 array DWORD faceIndexes[nFaceIndexes];
 [Material <3d82ab4d-62da-11cf-ab39-0020af71e433>]
}

template TextureFilename {
 <a42790e1-7810-11cf-8f52-0040333594a3>
 STRING filename;
}

template Coords2d {
 <f6f23f44-7686-11cf-8f52-0040333594a3>
 FLOAT u;
 FLOAT v;
}

template MeshTextureCoords {
 <f6f23f40-7686-11cf-8f52-0040333594a3>
 DWORD nTextureCoords;
 array Coords2d textureCoords[nTextureCoords];
}

template MeshNormals {
 <f6f23f43-7686-11cf-8f52-0040333594a3>
 DWORD nNormals;
 array Vector normals[nNormals];
 DWORD nFaceNormals;
 array MeshFace faceNormals[nFaceNormals];
}


Mesh  {
 56;
 1.500000;-0.450000;0.000000;,
 1.500000;0.920000;0.000000;,
 2.700000;0.920000;0.000000;,
 1.500000;-0.450000;5.200000;,
 1.500000;0.920000;5.200000;,
 2.700000;0.920000;5.200000;,
 1.500000;-0.450000;5.200000;,
 1.500000;0.920000;5.200000;,
 2.700000;0.920000;5.200000;,
 1.500000;-0.450000;15.200000;,
 1.500000;0.000000;15.200000;,
 2.700000;0.000000;15.200000;,
 1.500000;-0.450000;25.000000;,
 1.500000;0.000000;25.000000;,
 2.700000;0.000000;25.000000;,
 8.509600;-0.450000;0.000000;,
 8.509600;0.920000;0.000000;,
 7.309600;0.920000;0.000000;,
 8.509600;-0.450000;5.200000;,
 8.509600;0.920000;5.200000;,
 7.309600;0.920000;5.200000;,
 8.509600;-0.450000;5.200000;,
 8.509600;0.920000;5.200000;,
 7.309600;0.920000;5.200000;,
 8.509600;-0.450000;15.200000;,
 8.509600;0.000000;15.200000;,
 7.309600;0.000000;15.200000;,
 8.509600;-0.450000;25.000000;,
 8.509600;0.000000;25.000000;,
 7.309600;0.000000;25.000000;,
 2.700000;0.920000;0.000000;,
 2.700000;0.920000;5.200000;,
 2.700000;0.000000;15.200000;,
 2.700000;0.000000;25.000000;,
 7.309600;0.920000;0.000000;,
 7.309600;0.920000;5.200000;,
 7.309600;0.000000;15.200000;,
 7.309600;0.000000;25.000000;,
 2.100000;0.920000;5.200000;,
 2.100000;2.120000;5.200000;,
 4.300000;0.920000;5.200000;,
 4.300000;2.120000;5.200000;,
 5.709600;0.920000;5.200000;,
 5.709600;2.120000;5.200000;,
 7.909600;0.920000;5.200000;,
 7.909600;2.120000;5.200000;,
 2.100000;1.520000;5.190000;,
 2.100000;2.120000;5.190000;,
 2.670000;1.520000;5.190000;,
 2.670000;2.120000;5.190000;,
 1.490000;0.920000;0.000000;,
 1.490000;0.920000;5.200000;,
 1.490000;0.010000;0.000000;,
 1.490000;0.010000;15.200000;,
 0.403600;0.010000;0.000000;,
 0.403600;0.010000;5.663400;;
 40;
 3;3,4,1;,
 3;3,1,0;,
 3;4,5,2;,
 3;4,2,1;,
 3;9,10,7;,
 3;9,7,6;,
 3;10,11,8;,
 3;10,8,7;,
 3;12,13,10;,
 3;12,10,9;,
 3;13,14,11;,
 3;13,11,10;,
 3;15,16,19;,
 3;15,19,18;,
 3;16,17,20;,
 3;16,20,19;,
 3;21,22,25;,
 3;21,25,24;,
 3;22,23,26;,
 3;22,26,25;,
 3;24,25,28;,
 3;24,28,27;,
 3;25,26,29;,
 3;25,29,28;,
 3;30,31,35;,
 3;30,35,34;,
 3;31,32,36;,
 3;31,36,35;,
 3;32,33,37;,
 3;32,37,36;,
 3;38,39,41;,
 3;38,41,40;,
 3;42,43,45;,
 3;42,45,44;,
 3;46,47,49;,
 3;46,49,48;,
 3;52,53,51;,
 3;52,51,50;,
 3;54,55,53;,
 3;54,53,52;;

 MeshMaterialList  {
  9;
  40;
  0,
  0,
  0,
  0,
  1,
  1,
  1,
  1,
  1,
  1,
  1,
  1,
  2,
  2,
  2,
  2,
  3,
  3,
  3,
  3,
  3,
  3,
  3,
  3,
  4,
  4,
  4,
  4,
  4,
  4,
  5,
  5,
  6,
  6,
  7,
  7,
  8,
  8,
  8,
  8;

  Material  {
   1.000000;1.000000;1.000000;1.000000;;
   0.000000;
   0.000000;0.000000;0.000000;;
   0.000000;0.000000;0.000000;;

   TextureFilename  {
    "FormSide4.png";
   }
  }

  Material  {
   1.000000;1.000000;1.000000;1.000000;;
   0.000000;
   0.000000;0.000000;0.000000;;
   0.000000;0.000000;0.000000;;

   TextureFilename  {
    "FormSide4.png";
   }
  }

  Material  {
   1.000000;1.000000;1.000000;1.000000;;
   0.000000;
   0.000000;0.000000;0.000000;;
   0.000000;0.000000;0.000000;;

   TextureFilename  {
    "FormSide4.png";
   }
  }

  Material  {
   1.000000;1.000000;1.000000;1.000000;;
   0.000000;
   0.000000;0.000000;0.000000;;
   0.000000;0.000000;0.000000;;

   TextureFilename  {
    "FormSide4.png";
   }
  }

  Material  {
   1.000000;1.000000;1.000000;1.000000;;
   0.000000;
   0.000000;0.000000;0.000000;;
   0.000000;0.000000;0.000000;;

   TextureFilename  {
    "FormC1.png";
   }
  }

  Material  {
   1.000000;1.000000;1.000000;1.000000;;
   0.000000;
   0.000000;0.000000;0.000000;;
   0.000000;0.000000;0.000000;;

   TextureFilename  {
    "Saku1.png";
   }
  }

  Material  {
   1.000000;1.000000;1.000000;1.000000;;
   0.000000;
   0.000000;0.000000;0.000000;;
   0.000000;0.000000;0.000000;;

   TextureFilename  {
    "Saku1.png";
   }
  }

  Material  {
   1.000000;1.000000;1.000000;1.000000;;
   0.000000;
   0.000000;0.000000;0.000000;;
   0.000000;0.000000;0.000000;;

   TextureFilename  {
    "Limit35.png";
   }
  }

  Material  {
   0.125490;0.125490;0.125490;0.250980;;
   0.000000;
   0.000000;0.000000;0.000000;;
   0.000000;0.000000;0.000000;;
  }
 }

 MeshTextureCoords  {
  56;
  0.000000;1.000000;,
  0.000000;0.180000;,
  0.000000;0.000000;,
  0.650000;1.000000;,
  0.650000;0.180000;,
  0.650000;0.000000;,
  0.000000;1.000000;,
  0.000000;0.180000;,
  0.000000;0.000000;,
  1.250000;0.440000;,
  1.250000;0.180000;,
  1.250000;0.000000;,
  1.875000;0.440000;,
  1.875000;0.180000;,
  1.875000;0.000000;,
  0.000000;1.000000;,
  0.000000;0.180000;,
  0.000000;0.000000;,
  0.650000;1.000000;,
  0.650000;0.180000;,
  0.650000;0.000000;,
  0.000000;1.000000;,
  0.000000;0.180000;,
  0.000000;0.000000;,
  1.250000;0.440000;,
  1.250000;0.180000;,
  1.250000;0.000000;,
  1.875000;0.440000;,
  1.875000;0.180000;,
  1.875000;0.000000;,
  0.000000;0.000000;,
  0.400000;0.000000;,
  0.800000;0.000000;,
  1.000000;0.000000;,
  0.000000;1.000000;,
  0.400000;1.000000;,
  0.800000;1.000000;,
  1.000000;1.000000;,
  -0.050000;1.000000;,
  -0.050000;0.000000;,
  0.980000;1.000000;,
  0.980000;0.000000;,
  -0.050000;1.000000;,
  -0.050000;0.000000;,
  0.980000;1.000000;,
  0.980000;0.000000;,
  0.000000;1.000000;,
  0.000000;0.000000;,
  1.000000;1.000000;,
  1.000000;0.000000;,
  0.000000;0.000000;,
  0.000000;0.000000;,
  0.000000;0.000000;,
  0.000000;0.000000;,
  0.000000;0.000000;,
  0.000000;0.000000;;
 }

 MeshNormals  {
  40;
  -1.000000;0.000000;0.000000;,
  -1.000000;0.000000;0.000000;,
  0.000000;1.000000;0.000000;,
  0.000000;1.000000;0.000000;,
  -1.000000;0.000000;0.000000;,
  -1.000000;0.000000;0.000000;,
  0.000000;0.995795;0.091613;,
  0.000000;0.995795;0.091613;,
  -1.000000;0.000000;0.000000;,
  -1.000000;0.000000;0.000000;,
  0.000000;1.000000;0.000000;,
  0.000000;1.000000;0.000000;,
  1.000000;0.000000;0.000000;,
  1.000000;0.000000;0.000000;,
  0.000000;1.000000;0.000000;,
  0.000000;1.000000;0.000000;,
  1.000000;0.000000;0.000000;,
  1.000000;0.000000;0.000000;,
  0.000000;0.995795;0.091613;,
  0.000000;0.995795;0.091613;,
  1.000000;0.000000;0.000000;,
  1.000000;0.000000;0.000000;,
  0.000000;1.000000;0.000000;,
  0.000000;1.000000;0.000000;,
  0.000000;1.000000;0.000000;,
  0.000000;1.000000;0.000000;,
  0.000000;0.995795;0.091613;,
  0.000000;0.995795;0.091613;,
  0.000000;1.000000;0.000000;,
  0.000000;1.000000;0.000000;,
  0.000000;0.000000;-1.000000;,
  0.000000;0.000000;-1.000000;,
  0.000000;0.000000;-1.000000;,
  0.000000;0.000000;-1.000000;,
  0.000000;0.000000;-1.000000;,
  0.000000;0.000000;-1.000000;,
  -1.000000;0.000000;0.000000;,
  -1.000000;0.000000;0.000000;,
  0.000000;1.000000;0.000000;,
  0.000000;1.000000;0.000000;;
  40;
  3;0,0,0;,
  3;1,1,1;,
  3;2,2,2;,
  3;3,3,3;,
  3;4,4,4;,
  3;5,5,5;,
  3;6,6,6;,
  3;7,7,7;,
  3;8,8,8;,
  3;9,9,9;,
  3;10,10,10;,
  3;11,11,11;,
  3;12,12,12;,
  3;13,13,13;,
  3;14,14,14;,
  3;15,15,15;,
  3;16,16,16;,
  3;17,17,17;,
  3;18,18,18;,
  3;19,19,19;,
  3;20,20,20;,
  3;21,21,21;,
  3;22,22,22;,
  3;23,23,23;,
  3;24,24,24;,
  3;25,25,25;,
  3;26,26,26;,
  3;27,27,27;,
  3;28,28,28;,
  3;29,29,29;,
  3;30,30,30;,
  3;31,31,31;,
  3;32,32,32;,
  3;33,33,33;,
  3;34,34,34;,
  3;35,35,35;,
  3;36,36,36;,
  3;37,37,37;,
  3;38,38,38;,
  3;39,39,39;;
 }
}