xof 0303txt 0032
template Vector {
 <3d82ab5e-62da-11cf-ab39-0020af71e433>
 FLOAT x;
 FLOAT y;
 FLOAT z;
}

template MeshFace {
 <3d82ab5f-62da-11cf-ab39-0020af71e433>
 DWORD nFaceVertexIndices;
 array DWORD faceVertexIndices[nFaceVertexIndices];
}

template Mesh {
 <3d82ab44-62da-11cf-ab39-0020af71e433>
 DWORD nVertices;
 array Vector vertices[nVertices];
 DWORD nFaces;
 array MeshFace faces[nFaces];
 [...]
}

template ColorRGBA {
 <35ff44e0-6c7c-11cf-8f52-0040333594a3>
 FLOAT red;
 FLOAT green;
 FLOAT blue;
 FLOAT alpha;
}

template ColorRGB {
 <d3e16e81-7835-11cf-8f52-0040333594a3>
 FLOAT red;
 FLOAT green;
 FLOAT blue;
}

template Material {
 <3d82ab4d-62da-11cf-ab39-0020af71e433>
 ColorRGBA faceColor;
 FLOAT power;
 ColorRGB specularColor;
 ColorRGB emissiveColor;
 [...]
}

template MeshMaterialList {
 <f6f23f42-7686-11cf-8f52-0040333594a3>
 DWORD nMaterials;
 DWORD nFaceIndexes;
 array DWORD faceIndexes[nFaceIndexes];
 [Material <3d82ab4d-62da-11cf-ab39-0020af71e433>]
}

template TextureFilename {
 <a42790e1-7810-11cf-8f52-0040333594a3>
 STRING filename;
}

template Coords2d {
 <f6f23f44-7686-11cf-8f52-0040333594a3>
 FLOAT u;
 FLOAT v;
}

template MeshTextureCoords {
 <f6f23f40-7686-11cf-8f52-0040333594a3>
 DWORD nTextureCoords;
 array Coords2d textureCoords[nTextureCoords];
}

template MeshNormals {
 <f6f23f43-7686-11cf-8f52-0040333594a3>
 DWORD nNormals;
 array Vector normals[nNormals];
 DWORD nFaceNormals;
 array MeshFace faceNormals[nFaceNormals];
}


Mesh  {
 56;
 1.500000;-0.450000;0.000000;,
 1.500000;1.100000;0.000000;,
 2.700000;1.100000;0.000000;,
 1.500000;-0.450000;5.000000;,
 1.500000;1.100000;5.000000;,
 2.700000;1.100000;5.000000;,
 1.500000;-0.450000;5.000000;,
 1.500000;0.920000;5.000000;,
 1.500000;-0.450000;20.000000;,
 1.500000;0.920000;20.000000;,
 1.500000;0.920000;5.000000;,
 1.500000;1.100000;5.000000;,
 2.700000;1.100000;5.000000;,
 1.500000;0.920000;10.000000;,
 1.500000;1.100000;10.000000;,
 2.700000;1.100000;10.000000;,
 1.500000;0.920000;20.000000;,
 2.700000;0.920000;20.000000;,
 1.500000;-0.450000;20.000000;,
 1.500000;0.920000;20.000000;,
 2.700000;0.920000;20.000000;,
 1.500000;-0.450000;25.000000;,
 1.500000;0.920000;25.000000;,
 2.700000;0.920000;25.000000;,
 8.509600;-0.450000;0.000000;,
 8.509600;1.100000;0.000000;,
 7.309600;1.100000;0.000000;,
 8.509600;-0.450000;5.000000;,
 8.509600;1.100000;5.000000;,
 7.309600;1.100000;5.000000;,
 8.509600;-0.450000;5.000000;,
 8.509600;0.920000;5.000000;,
 8.509600;-0.450000;20.000000;,
 8.509600;0.920000;20.000000;,
 8.509600;0.920000;5.000000;,
 8.509600;1.100000;5.000000;,
 7.309600;1.100000;5.000000;,
 8.509600;0.920000;10.000000;,
 8.509600;1.100000;10.000000;,
 7.309600;1.100000;10.000000;,
 8.509600;0.920000;20.000000;,
 7.309600;0.920000;20.000000;,
 8.509600;-0.450000;20.000000;,
 8.509600;0.920000;20.000000;,
 7.309600;0.920000;20.000000;,
 8.509600;-0.450000;25.000000;,
 8.509600;0.920000;25.000000;,
 7.309600;0.920000;25.000000;,
 2.700000;1.100000;0.000000;,
 2.700000;1.100000;10.000000;,
 2.700000;0.920000;20.000000;,
 2.700000;0.920000;25.000000;,
 7.309600;1.100000;0.000000;,
 7.309600;1.100000;10.000000;,
 7.309600;0.920000;20.000000;,
 7.309600;0.920000;25.000000;;
 40;
 3;3,4,1;,
 3;3,1,0;,
 3;4,5,2;,
 3;4,2,1;,
 3;8,9,7;,
 3;8,7,6;,
 3;13,14,11;,
 3;13,11,10;,
 3;14,15,12;,
 3;14,12,11;,
 3;16,14,13;,
 3;16,17,15;,
 3;16,15,14;,
 3;21,22,19;,
 3;21,19,18;,
 3;22,23,20;,
 3;22,20,19;,
 3;24,25,28;,
 3;24,28,27;,
 3;25,26,29;,
 3;25,29,28;,
 3;30,31,33;,
 3;30,33,32;,
 3;34,35,38;,
 3;34,38,37;,
 3;35,36,39;,
 3;35,39,38;,
 3;37,38,40;,
 3;38,39,41;,
 3;38,41,40;,
 3;42,43,46;,
 3;42,46,45;,
 3;43,44,47;,
 3;43,47,46;,
 3;48,49,53;,
 3;48,53,52;,
 3;49,50,54;,
 3;49,54,53;,
 3;50,51,55;,
 3;50,55,54;;

 MeshMaterialList  {
  9;
  40;
  0,
  0,
  0,
  0,
  1,
  1,
  2,
  2,
  2,
  2,
  2,
  2,
  2,
  3,
  3,
  3,
  3,
  4,
  4,
  4,
  4,
  5,
  5,
  6,
  6,
  6,
  6,
  6,
  6,
  6,
  7,
  7,
  7,
  7,
  8,
  8,
  8,
  8,
  8,
  8;

  Material  {
   1.000000;1.000000;1.000000;1.000000;;
   0.000000;
   0.000000;0.000000;0.000000;;
   0.000000;0.000000;0.000000;;

   TextureFilename  {
    "FormSide2.png";
   }
  }

  Material  {
   1.000000;1.000000;1.000000;1.000000;;
   0.000000;
   0.000000;0.000000;0.000000;;
   0.000000;0.000000;0.000000;;

   TextureFilename  {
    "FormSide2.png";
   }
  }

  Material  {
   1.000000;1.000000;1.000000;1.000000;;
   0.000000;
   0.000000;0.000000;0.000000;;
   0.000000;0.000000;0.000000;;

   TextureFilename  {
    "FormSide3.png";
   }
  }

  Material  {
   1.000000;1.000000;1.000000;1.000000;;
   0.000000;
   0.000000;0.000000;0.000000;;
   0.000000;0.000000;0.000000;;

   TextureFilename  {
    "FormSide4.png";
   }
  }

  Material  {
   1.000000;1.000000;1.000000;1.000000;;
   0.000000;
   0.000000;0.000000;0.000000;;
   0.000000;0.000000;0.000000;;

   TextureFilename  {
    "FormSide2.png";
   }
  }

  Material  {
   1.000000;1.000000;1.000000;1.000000;;
   0.000000;
   0.000000;0.000000;0.000000;;
   0.000000;0.000000;0.000000;;

   TextureFilename  {
    "FormSide2.png";
   }
  }

  Material  {
   1.000000;1.000000;1.000000;1.000000;;
   0.000000;
   0.000000;0.000000;0.000000;;
   0.000000;0.000000;0.000000;;

   TextureFilename  {
    "FormSide3.png";
   }
  }

  Material  {
   1.000000;1.000000;1.000000;1.000000;;
   0.000000;
   0.000000;0.000000;0.000000;;
   0.000000;0.000000;0.000000;;

   TextureFilename  {
    "FormSide4.png";
   }
  }

  Material  {
   1.000000;1.000000;1.000000;1.000000;;
   0.000000;
   0.000000;0.000000;0.000000;;
   0.000000;0.000000;0.000000;;

   TextureFilename  {
    "FormC1.png";
   }
  }
 }

 MeshTextureCoords  {
  56;
  0.000000;1.000000;,
  0.000000;0.250000;,
  0.000000;0.000000;,
  0.625000;1.000000;,
  0.625000;0.250000;,
  0.625000;0.000000;,
  0.000000;1.000000;,
  0.000000;0.330000;,
  1.875000;1.000000;,
  1.875000;0.330000;,
  0.000000;1.000000;,
  0.000000;0.600000;,
  0.000000;0.000000;,
  0.625000;1.000000;,
  0.625000;0.600000;,
  0.625000;0.000000;,
  1.875000;0.600000;,
  1.875000;0.000000;,
  0.000000;1.000000;,
  0.000000;0.180000;,
  0.000000;0.000000;,
  0.625000;1.000000;,
  0.625000;0.180000;,
  0.625000;0.000000;,
  0.000000;1.000000;,
  0.000000;0.250000;,
  0.000000;0.000000;,
  0.625000;1.000000;,
  0.625000;0.250000;,
  0.625000;0.000000;,
  0.000000;1.000000;,
  0.000000;0.330000;,
  1.875000;1.000000;,
  1.875000;0.330000;,
  0.000000;1.000000;,
  0.000000;0.600000;,
  0.000000;0.000000;,
  0.625000;1.000000;,
  0.625000;0.600000;,
  0.625000;0.000000;,
  1.875000;0.600000;,
  1.875000;0.000000;,
  0.000000;1.000000;,
  0.000000;0.180000;,
  0.000000;0.000000;,
  0.625000;1.000000;,
  0.625000;0.180000;,
  0.625000;0.000000;,
  0.000000;0.000000;,
  0.400000;0.000000;,
  0.800000;0.000000;,
  1.000000;0.000000;,
  0.000000;1.000000;,
  0.400000;1.000000;,
  0.800000;1.000000;,
  1.000000;1.000000;;
 }

 MeshNormals  {
  40;
  -1.000000;0.000000;0.000000;,
  -1.000000;0.000000;0.000000;,
  0.000000;1.000000;0.000000;,
  0.000000;1.000000;0.000000;,
  -1.000000;0.000000;0.000000;,
  -1.000000;0.000000;0.000000;,
  -1.000000;0.000000;0.000000;,
  -1.000000;0.000000;0.000000;,
  0.000000;1.000000;0.000000;,
  0.000000;1.000000;0.000000;,
  -1.000000;0.000000;0.000000;,
  0.000000;0.999838;0.017997;,
  0.000000;0.999838;0.017997;,
  -1.000000;0.000000;0.000000;,
  -1.000000;0.000000;0.000000;,
  0.000000;1.000000;0.000000;,
  0.000000;1.000000;0.000000;,
  1.000000;0.000000;0.000000;,
  1.000000;0.000000;0.000000;,
  0.000000;1.000000;0.000000;,
  0.000000;1.000000;0.000000;,
  1.000000;0.000000;0.000000;,
  1.000000;0.000000;0.000000;,
  1.000000;0.000000;0.000000;,
  1.000000;0.000000;0.000000;,
  0.000000;1.000000;0.000000;,
  0.000000;1.000000;0.000000;,
  1.000000;0.000000;0.000000;,
  0.000000;0.999838;0.017997;,
  0.000000;0.999838;0.017997;,
  1.000000;0.000000;0.000000;,
  1.000000;0.000000;0.000000;,
  0.000000;1.000000;0.000000;,
  0.000000;1.000000;0.000000;,
  0.000000;1.000000;0.000000;,
  0.000000;1.000000;0.000000;,
  0.000000;0.999838;0.017997;,
  0.000000;0.999838;0.017997;,
  0.000000;1.000000;0.000000;,
  0.000000;1.000000;0.000000;;
  40;
  3;0,0,0;,
  3;1,1,1;,
  3;2,2,2;,
  3;3,3,3;,
  3;4,4,4;,
  3;5,5,5;,
  3;6,6,6;,
  3;7,7,7;,
  3;8,8,8;,
  3;9,9,9;,
  3;10,10,10;,
  3;11,11,11;,
  3;12,12,12;,
  3;13,13,13;,
  3;14,14,14;,
  3;15,15,15;,
  3;16,16,16;,
  3;17,17,17;,
  3;18,18,18;,
  3;19,19,19;,
  3;20,20,20;,
  3;21,21,21;,
  3;22,22,22;,
  3;23,23,23;,
  3;24,24,24;,
  3;25,25,25;,
  3;26,26,26;,
  3;27,27,27;,
  3;28,28,28;,
  3;29,29,29;,
  3;30,30,30;,
  3;31,31,31;,
  3;32,32,32;,
  3;33,33,33;,
  3;34,34,34;,
  3;35,35,35;,
  3;36,36,36;,
  3;37,37,37;,
  3;38,38,38;,
  3;39,39,39;;
 }
}