xof 0303txt 0032
template Vector {
 <3d82ab5e-62da-11cf-ab39-0020af71e433>
 FLOAT x;
 FLOAT y;
 FLOAT z;
}

template MeshFace {
 <3d82ab5f-62da-11cf-ab39-0020af71e433>
 DWORD nFaceVertexIndices;
 array DWORD faceVertexIndices[nFaceVertexIndices];
}

template Mesh {
 <3d82ab44-62da-11cf-ab39-0020af71e433>
 DWORD nVertices;
 array Vector vertices[nVertices];
 DWORD nFaces;
 array MeshFace faces[nFaces];
 [...]
}

template ColorRGBA {
 <35ff44e0-6c7c-11cf-8f52-0040333594a3>
 FLOAT red;
 FLOAT green;
 FLOAT blue;
 FLOAT alpha;
}

template ColorRGB {
 <d3e16e81-7835-11cf-8f52-0040333594a3>
 FLOAT red;
 FLOAT green;
 FLOAT blue;
}

template Material {
 <3d82ab4d-62da-11cf-ab39-0020af71e433>
 ColorRGBA faceColor;
 FLOAT power;
 ColorRGB specularColor;
 ColorRGB emissiveColor;
 [...]
}

template MeshMaterialList {
 <f6f23f42-7686-11cf-8f52-0040333594a3>
 DWORD nMaterials;
 DWORD nFaceIndexes;
 array DWORD faceIndexes[nFaceIndexes];
 [Material <3d82ab4d-62da-11cf-ab39-0020af71e433>]
}

template TextureFilename {
 <a42790e1-7810-11cf-8f52-0040333594a3>
 STRING filename;
}

template Coords2d {
 <f6f23f44-7686-11cf-8f52-0040333594a3>
 FLOAT u;
 FLOAT v;
}

template MeshTextureCoords {
 <f6f23f40-7686-11cf-8f52-0040333594a3>
 DWORD nTextureCoords;
 array Coords2d textureCoords[nTextureCoords];
}

template MeshNormals {
 <f6f23f43-7686-11cf-8f52-0040333594a3>
 DWORD nNormals;
 array Vector normals[nNormals];
 DWORD nFaceNormals;
 array MeshFace faceNormals[nFaceNormals];
}


Mesh  {
 93;
 -7.400000;1.100000;4.000000;,
 -7.400000;4.500000;4.000000;,
 -7.150000;1.100000;4.000000;,
 -7.150000;4.500000;4.000000;,
 -7.400000;1.100000;14.000000;,
 -7.400000;4.500000;14.000000;,
 -7.150000;1.100000;14.000000;,
 -7.150000;4.500000;14.000000;,
 -10.865500;1.100000;4.000000;,
 -10.865500;4.500000;4.000000;,
 -10.615500;1.100000;4.000000;,
 -10.615500;4.500000;4.000000;,
 -10.865500;1.100000;14.000000;,
 -10.865500;4.500000;14.000000;,
 -10.615500;1.100000;14.000000;,
 -10.615500;4.500000;14.000000;,
 -12.215500;4.460000;4.010000;,
 -12.215500;4.710000;4.010000;,
 -10.865500;4.300000;4.010000;,
 -10.865500;4.550000;4.010000;,
 -9.007750;4.800000;4.010000;,
 -9.007750;5.050000;4.010000;,
 -7.150000;4.300000;4.010000;,
 -7.150000;4.550000;4.010000;,
 -5.800000;4.460000;4.010000;,
 -5.800000;4.710000;4.010000;,
 -12.215500;4.460000;14.010000;,
 -12.215500;4.710000;14.010000;,
 -10.865500;4.300000;14.010000;,
 -10.865500;4.550000;14.010000;,
 -9.007750;4.800000;14.010000;,
 -9.007750;5.050000;14.010000;,
 -7.150000;4.300000;14.010000;,
 -7.150000;4.550000;14.010000;,
 -5.800000;4.460000;14.010000;,
 -5.800000;4.710000;14.010000;,
 -7.150000;4.300000;0.000000;,
 -7.150000;4.550000;0.000000;,
 -7.150000;4.300000;15.000000;,
 -7.150000;4.550000;15.000000;,
 -10.865500;4.300000;0.000000;,
 -10.865500;4.550000;0.000000;,
 -10.865500;4.300000;15.000000;,
 -10.865500;4.550000;15.000000;,
 -5.800000;4.460000;0.000000;,
 -5.800000;4.710000;0.000000;,
 -5.800000;4.460000;15.000000;,
 -5.800000;4.710000;15.000000;,
 -12.215500;4.460000;0.000000;,
 -12.215500;4.710000;0.000000;,
 -12.215500;4.460000;15.000000;,
 -12.215500;4.710000;15.000000;,
 -12.515500;4.750000;0.000000;,
 -12.515500;4.750000;15.000000;,
 -10.865500;4.550000;0.000000;,
 -10.865500;4.550000;15.000000;,
 -9.007750;5.050000;0.000000;,
 -9.007750;5.050000;15.000000;,
 -7.150000;4.550000;0.000000;,
 -7.150000;4.550000;15.000000;,
 -5.500000;4.750000;0.000000;,
 -5.500000;4.750000;15.000000;,
 -12.515500;4.750000;0.000000;,
 -12.515500;4.750000;15.000000;,
 -12.515500;4.950000;0.000000;,
 -12.515500;4.950000;15.000000;,
 -5.500000;4.750000;0.000000;,
 -5.500000;4.750000;15.000000;,
 -5.500000;4.950000;0.000000;,
 -5.500000;4.950000;15.000000;,
 -10.515500;3.600000;4.000000;,
 -10.515500;4.000000;4.000000;,
 -7.500000;3.600000;4.000000;,
 -7.500000;4.000000;4.000000;,
 -10.465500;4.000000;4.000000;,
 -10.465500;4.600000;4.000000;,
 -10.415500;4.000000;4.000000;,
 -10.415500;4.600000;4.000000;,
 -7.550000;4.000000;4.000000;,
 -7.550000;4.600000;4.000000;,
 -7.600000;4.000000;4.000000;,
 -7.600000;4.600000;4.000000;,
 -9.849900;1.110000;0.000000;,
 -9.849900;1.110000;16.838301;,
 -12.525500;1.110000;0.000000;,
 -12.525500;1.110000;16.838301;,
 -12.525500;1.110000;25.000000;,
 -12.525500;0.010000;0.000000;,
 -12.525500;0.010000;25.000000;,
 -13.826400;0.010000;17.392401;,
 -13.826400;0.010000;25.000000;,
 -18.176300;0.010000;0.000000;,
 -18.176300;0.010000;17.392401;;
 67;
 3;0,1,3;,
 3;0,3,2;,
 3;4,5,7;,
 3;4,7,6;,
 3;8,9,11;,
 3;8,11,10;,
 3;12,13,15;,
 3;12,15,14;,
 3;16,17,19;,
 3;16,19,18;,
 3;18,19,21;,
 3;18,21,20;,
 3;20,21,23;,
 3;20,23,22;,
 3;22,23,25;,
 3;22,25,24;,
 3;26,27,29;,
 3;26,29,28;,
 3;28,29,31;,
 3;28,31,30;,
 3;30,31,33;,
 3;30,33,32;,
 3;32,33,35;,
 3;32,35,34;,
 3;36,37,39;,
 3;36,39,38;,
 3;38,39,37;,
 3;38,37,36;,
 3;40,41,43;,
 3;40,43,42;,
 3;42,43,41;,
 3;42,41,40;,
 3;44,45,47;,
 3;44,47,46;,
 3;46,47,45;,
 3;46,45,44;,
 3;48,49,51;,
 3;48,51,50;,
 3;50,51,49;,
 3;50,49,48;,
 3;54,55,53;,
 3;54,53,52;,
 3;56,57,55;,
 3;56,55,54;,
 3;58,59,57;,
 3;58,57,56;,
 3;60,61,59;,
 3;60,59,58;,
 3;62,63,65;,
 3;62,65,64;,
 3;68,69,67;,
 3;68,67,66;,
 3;70,71,73;,
 3;70,73,72;,
 3;74,75,77;,
 3;74,77,76;,
 3;80,81,79;,
 3;80,79,78;,
 3;84,85,83;,
 3;84,83,82;,
 3;87,88,86;,
 3;87,86,85;,
 3;87,85,84;,
 3;89,90,88;,
 3;89,88,87;,
 3;91,92,89;,
 3;91,89,87;;

 MeshMaterialList  {
  17;
  67;
  0,
  0,
  1,
  1,
  2,
  2,
  3,
  3,
  4,
  4,
  4,
  4,
  4,
  4,
  4,
  4,
  5,
  5,
  5,
  5,
  5,
  5,
  5,
  5,
  6,
  6,
  6,
  6,
  7,
  7,
  7,
  7,
  8,
  8,
  8,
  8,
  9,
  9,
  9,
  9,
  10,
  10,
  10,
  10,
  10,
  10,
  10,
  10,
  11,
  11,
  12,
  12,
  13,
  13,
  14,
  14,
  15,
  15,
  16,
  16,
  16,
  16,
  16,
  16,
  16,
  16,
  16;

  Material  {
   1.000000;1.000000;1.000000;1.000000;;
   0.000000;
   0.000000;0.000000;0.000000;;
   0.000000;0.000000;0.000000;;

   TextureFilename  {
    "Iron1.png";
   }
  }

  Material  {
   1.000000;1.000000;1.000000;1.000000;;
   0.000000;
   0.000000;0.000000;0.000000;;
   0.000000;0.000000;0.000000;;

   TextureFilename  {
    "Iron1.png";
   }
  }

  Material  {
   1.000000;1.000000;1.000000;1.000000;;
   0.000000;
   0.000000;0.000000;0.000000;;
   0.000000;0.000000;0.000000;;

   TextureFilename  {
    "Iron1.png";
   }
  }

  Material  {
   1.000000;1.000000;1.000000;1.000000;;
   0.000000;
   0.000000;0.000000;0.000000;;
   0.000000;0.000000;0.000000;;

   TextureFilename  {
    "Iron1.png";
   }
  }

  Material  {
   1.000000;1.000000;1.000000;1.000000;;
   0.000000;
   0.000000;0.000000;0.000000;;
   0.000000;0.000000;0.000000;;

   TextureFilename  {
    "Iron1.png";
   }
  }

  Material  {
   1.000000;1.000000;1.000000;1.000000;;
   0.000000;
   0.000000;0.000000;0.000000;;
   0.000000;0.000000;0.000000;;

   TextureFilename  {
    "Iron1.png";
   }
  }

  Material  {
   1.000000;1.000000;1.000000;1.000000;;
   0.000000;
   0.000000;0.000000;0.000000;;
   0.000000;0.000000;0.000000;;

   TextureFilename  {
    "Iron1.png";
   }
  }

  Material  {
   1.000000;1.000000;1.000000;1.000000;;
   0.000000;
   0.000000;0.000000;0.000000;;
   0.000000;0.000000;0.000000;;

   TextureFilename  {
    "Iron1.png";
   }
  }

  Material  {
   1.000000;1.000000;1.000000;1.000000;;
   0.000000;
   0.000000;0.000000;0.000000;;
   0.000000;0.000000;0.000000;;

   TextureFilename  {
    "Iron1.png";
   }
  }

  Material  {
   1.000000;1.000000;1.000000;1.000000;;
   0.000000;
   0.000000;0.000000;0.000000;;
   0.000000;0.000000;0.000000;;

   TextureFilename  {
    "Iron1.png";
   }
  }

  Material  {
   1.000000;1.000000;1.000000;1.000000;;
   0.000000;
   0.000000;0.000000;0.000000;;
   0.000000;0.000000;0.000000;;

   TextureFilename  {
    "Roof1.png";
   }
  }

  Material  {
   1.000000;1.000000;1.000000;1.000000;;
   0.000000;
   0.000000;0.000000;0.000000;;
   0.000000;0.000000;0.000000;;

   TextureFilename  {
    "RoofSide1.png";
   }
  }

  Material  {
   1.000000;1.000000;1.000000;1.000000;;
   0.000000;
   0.000000;0.000000;0.000000;;
   0.000000;0.000000;0.000000;;

   TextureFilename  {
    "RoofSide1.png";
   }
  }

  Material  {
   1.000000;1.000000;1.000000;1.000000;;
   0.000000;
   0.000000;0.000000;0.000000;;
   0.000000;0.000000;0.000000;;

   TextureFilename  {
    "Annai78.png";
   }
  }

  Material  {
   0.250980;0.109804;0.109804;1.000000;;
   0.000000;
   0.000000;0.000000;0.000000;;
   0.000000;0.000000;0.000000;;
  }

  Material  {
   0.250980;0.109804;0.109804;1.000000;;
   0.000000;
   0.000000;0.000000;0.000000;;
   0.000000;0.000000;0.000000;;
  }

  Material  {
   0.125490;0.125490;0.125490;0.392157;;
   0.000000;
   0.000000;0.000000;0.000000;;
   0.000000;0.000000;0.000000;;
  }
 }

 MeshTextureCoords  {
  93;
  0.000000;1.000000;,
  0.000000;0.100000;,
  1.000000;1.000000;,
  1.000000;0.100000;,
  0.000000;1.000000;,
  0.000000;0.100000;,
  1.000000;1.000000;,
  1.000000;0.100000;,
  1.000000;0.500000;,
  1.000000;0.100000;,
  0.000000;0.500000;,
  0.000000;0.100000;,
  1.000000;0.500000;,
  1.000000;0.100000;,
  0.000000;0.500000;,
  0.000000;0.100000;,
  1.000000;0.050000;,
  0.000000;0.050000;,
  1.000000;0.100000;,
  0.000000;0.100000;,
  1.000000;0.125000;,
  0.000000;0.125000;,
  1.000000;0.150000;,
  0.000000;0.150000;,
  1.000000;0.200000;,
  0.000000;0.200000;,
  1.000000;0.050000;,
  0.000000;0.050000;,
  1.000000;0.100000;,
  0.000000;0.100000;,
  1.000000;0.125000;,
  0.000000;0.125000;,
  1.000000;0.150000;,
  0.000000;0.150000;,
  1.000000;0.200000;,
  0.000000;0.200000;,
  1.000000;0.000000;,
  0.000000;0.250000;,
  1.000000;0.000000;,
  0.000000;0.250000;,
  1.000000;0.000000;,
  0.000000;0.250000;,
  1.000000;0.000000;,
  0.000000;0.250000;,
  1.000000;0.000000;,
  0.000000;0.250000;,
  1.000000;0.000000;,
  0.000000;0.250000;,
  1.000000;0.000000;,
  0.000000;0.250000;,
  1.000000;0.000000;,
  0.000000;0.250000;,
  3.830000;0.000000;,
  0.000000;0.000000;,
  3.830000;0.100000;,
  0.000000;0.100000;,
  3.830000;0.200000;,
  0.000000;0.200000;,
  3.830000;0.300000;,
  0.000000;0.300000;,
  3.830000;0.400000;,
  0.000000;0.400000;,
  0.000000;1.000000;,
  4.250000;1.000000;,
  0.000000;0.000000;,
  4.250000;0.000000;,
  0.000000;1.000000;,
  4.250000;1.000000;,
  0.000000;0.000000;,
  4.250000;0.000000;,
  0.000000;1.000000;,
  0.000000;0.000000;,
  1.000000;1.000000;,
  1.000000;0.000000;,
  0.000000;0.000000;,
  0.000000;0.000000;,
  0.000000;0.000000;,
  0.000000;0.000000;,
  0.000000;0.000000;,
  0.000000;0.000000;,
  0.000000;0.000000;,
  0.000000;0.000000;,
  0.000000;0.000000;,
  0.000000;0.000000;,
  0.000000;0.000000;,
  0.000000;0.000000;,
  0.000000;0.000000;,
  0.000000;0.000000;,
  0.000000;0.000000;,
  0.000000;0.000000;,
  0.000000;0.000000;,
  0.000000;0.000000;,
  0.000000;0.000000;;
 }

 MeshNormals  {
  67;
  0.000000;0.000000;-1.000000;,
  0.000000;0.000000;-1.000000;,
  0.000000;0.000000;-1.000000;,
  0.000000;0.000000;-1.000000;,
  0.000000;0.000000;-1.000000;,
  0.000000;0.000000;-1.000000;,
  0.000000;0.000000;-1.000000;,
  0.000000;0.000000;-1.000000;,
  0.000000;0.000000;-1.000000;,
  0.000000;0.000000;-1.000000;,
  0.000000;0.000000;-1.000000;,
  0.000000;0.000000;-1.000000;,
  0.000000;0.000000;-1.000000;,
  0.000000;0.000000;-1.000000;,
  0.000000;0.000000;-1.000000;,
  0.000000;0.000000;-1.000000;,
  0.000000;0.000000;-1.000000;,
  0.000000;0.000000;-1.000000;,
  0.000000;0.000000;-1.000000;,
  0.000000;0.000000;-1.000000;,
  0.000000;0.000000;-1.000000;,
  0.000000;0.000000;-1.000000;,
  0.000000;0.000000;-1.000000;,
  0.000000;0.000000;-1.000000;,
  1.000000;0.000000;0.000000;,
  1.000000;0.000000;0.000000;,
  -1.000000;0.000000;0.000000;,
  -1.000000;0.000000;0.000000;,
  1.000000;0.000000;0.000000;,
  1.000000;0.000000;0.000000;,
  -1.000000;0.000000;0.000000;,
  -1.000000;0.000000;0.000000;,
  1.000000;0.000000;0.000000;,
  1.000000;0.000000;0.000000;,
  -1.000000;0.000000;0.000000;,
  -1.000000;0.000000;0.000000;,
  1.000000;0.000000;0.000000;,
  1.000000;0.000000;0.000000;,
  -1.000000;0.000000;0.000000;,
  -1.000000;0.000000;0.000000;,
  -0.120331;-0.992734;0.000000;,
  -0.120331;-0.992734;0.000000;,
  0.259894;-0.965637;0.000000;,
  0.259894;-0.965637;0.000000;,
  -0.259894;-0.965637;0.000000;,
  -0.259894;-0.965637;0.000000;,
  0.120331;-0.992734;0.000000;,
  0.120331;-0.992734;0.000000;,
  -1.000000;0.000000;0.000000;,
  -1.000000;0.000000;0.000000;,
  1.000000;0.000000;0.000000;,
  1.000000;0.000000;0.000000;,
  0.000000;0.000000;-1.000000;,
  0.000000;0.000000;-1.000000;,
  0.000000;0.000000;-1.000000;,
  0.000000;0.000000;-1.000000;,
  0.000000;0.000000;-1.000000;,
  0.000000;0.000000;-1.000000;,
  0.000000;1.000000;0.000000;,
  0.000000;1.000000;0.000000;,
  -1.000000;0.000000;0.000000;,
  -1.000000;0.000000;0.000000;,
  -1.000000;0.000000;0.000000;,
  0.000000;1.000000;0.000000;,
  0.000000;1.000000;0.000000;,
  0.000000;1.000000;0.000000;,
  0.000000;1.000000;0.000000;;
  67;
  3;0,0,0;,
  3;1,1,1;,
  3;2,2,2;,
  3;3,3,3;,
  3;4,4,4;,
  3;5,5,5;,
  3;6,6,6;,
  3;7,7,7;,
  3;8,8,8;,
  3;9,9,9;,
  3;10,10,10;,
  3;11,11,11;,
  3;12,12,12;,
  3;13,13,13;,
  3;14,14,14;,
  3;15,15,15;,
  3;16,16,16;,
  3;17,17,17;,
  3;18,18,18;,
  3;19,19,19;,
  3;20,20,20;,
  3;21,21,21;,
  3;22,22,22;,
  3;23,23,23;,
  3;24,24,24;,
  3;25,25,25;,
  3;26,26,26;,
  3;27,27,27;,
  3;28,28,28;,
  3;29,29,29;,
  3;30,30,30;,
  3;31,31,31;,
  3;32,32,32;,
  3;33,33,33;,
  3;34,34,34;,
  3;35,35,35;,
  3;36,36,36;,
  3;37,37,37;,
  3;38,38,38;,
  3;39,39,39;,
  3;40,40,40;,
  3;41,41,41;,
  3;42,42,42;,
  3;43,43,43;,
  3;44,44,44;,
  3;45,45,45;,
  3;46,46,46;,
  3;47,47,47;,
  3;48,48,48;,
  3;49,49,49;,
  3;50,50,50;,
  3;51,51,51;,
  3;52,52,52;,
  3;53,53,53;,
  3;54,54,54;,
  3;55,55,55;,
  3;56,56,56;,
  3;57,57,57;,
  3;58,58,58;,
  3;59,59,59;,
  3;60,60,60;,
  3;61,61,61;,
  3;62,62,62;,
  3;63,63,63;,
  3;64,64,64;,
  3;65,65,65;,
  3;66,66,66;;
 }
}