xof 0303txt 0032
template Vector {
 <3d82ab5e-62da-11cf-ab39-0020af71e433>
 FLOAT x;
 FLOAT y;
 FLOAT z;
}

template MeshFace {
 <3d82ab5f-62da-11cf-ab39-0020af71e433>
 DWORD nFaceVertexIndices;
 array DWORD faceVertexIndices[nFaceVertexIndices];
}

template Mesh {
 <3d82ab44-62da-11cf-ab39-0020af71e433>
 DWORD nVertices;
 array Vector vertices[nVertices];
 DWORD nFaces;
 array MeshFace faces[nFaces];
 [...]
}

template ColorRGBA {
 <35ff44e0-6c7c-11cf-8f52-0040333594a3>
 FLOAT red;
 FLOAT green;
 FLOAT blue;
 FLOAT alpha;
}

template ColorRGB {
 <d3e16e81-7835-11cf-8f52-0040333594a3>
 FLOAT red;
 FLOAT green;
 FLOAT blue;
}

template Material {
 <3d82ab4d-62da-11cf-ab39-0020af71e433>
 ColorRGBA faceColor;
 FLOAT power;
 ColorRGB specularColor;
 ColorRGB emissiveColor;
 [...]
}

template MeshMaterialList {
 <f6f23f42-7686-11cf-8f52-0040333594a3>
 DWORD nMaterials;
 DWORD nFaceIndexes;
 array DWORD faceIndexes[nFaceIndexes];
 [Material <3d82ab4d-62da-11cf-ab39-0020af71e433>]
}

template TextureFilename {
 <a42790e1-7810-11cf-8f52-0040333594a3>
 STRING filename;
}

template Coords2d {
 <f6f23f44-7686-11cf-8f52-0040333594a3>
 FLOAT u;
 FLOAT v;
}

template MeshTextureCoords {
 <f6f23f40-7686-11cf-8f52-0040333594a3>
 DWORD nTextureCoords;
 array Coords2d textureCoords[nTextureCoords];
}

template MeshNormals {
 <f6f23f43-7686-11cf-8f52-0040333594a3>
 DWORD nNormals;
 array Vector normals[nNormals];
 DWORD nFaceNormals;
 array MeshFace faceNormals[nFaceNormals];
}


Mesh  {
 56;
 19.712400;1.100000;3.000000;,
 19.712400;5.000000;3.000000;,
 20.212400;1.100000;3.000000;,
 20.212400;5.000000;3.000000;,
 16.512400;5.000000;3.010000;,
 16.512400;5.300000;3.010000;,
 20.212400;4.700000;3.010000;,
 20.212400;5.000000;3.010000;,
 15.512400;5.080000;4.000000;,
 15.512400;5.380000;4.000000;,
 20.212400;4.700000;4.000000;,
 20.212400;5.000000;4.000000;,
 16.512400;5.000000;0.000000;,
 16.512400;5.300000;0.000000;,
 16.512400;5.000000;4.000000;,
 16.512400;5.300000;4.000000;,
 18.812401;4.810000;0.000000;,
 18.812401;5.110000;0.000000;,
 18.812401;4.810000;4.000000;,
 18.812401;5.110000;4.000000;,
 20.212400;4.700000;0.000000;,
 20.212400;5.000000;0.000000;,
 20.212400;4.700000;4.000000;,
 20.212400;5.000000;4.000000;,
 15.512400;5.380000;0.000000;,
 15.512400;5.380000;4.000000;,
 20.212400;5.000000;0.000000;,
 20.212400;5.000000;4.000000;,
 15.512400;5.380000;0.000000;,
 15.512400;5.380000;4.000000;,
 15.512400;5.680000;0.000000;,
 15.512400;5.680000;4.000000;,
 20.212400;1.100000;0.000000;,
 20.212400;2.300000;0.000000;,
 20.212400;1.100000;5.000000;,
 20.212400;2.300000;5.000000;,
 20.212400;1.100000;5.000000;,
 20.212400;2.300000;5.000000;,
 18.712400;1.100000;5.000000;,
 18.712400;2.300000;5.000000;,
 17.624001;1.100000;5.000000;,
 17.624001;2.300000;5.000000;,
 16.124001;1.100000;5.000000;,
 16.124001;2.300000;5.000000;,
 20.212400;0.010000;5.500000;,
 18.901501;0.010000;6.054000;,
 15.564600;1.110000;0.000000;,
 15.564600;1.110000;5.500000;,
 15.502400;1.110000;0.000000;,
 15.502400;1.110000;5.500000;,
 15.502400;0.010000;0.000000;,
 15.502400;0.010000;5.500000;,
 14.253600;0.010000;6.031800;,
 14.253600;0.010000;6.518300;,
 9.100800;0.010000;0.000000;,
 9.100800;0.010000;6.709700;;
 33;
 3;0,1,3;,
 3;0,3,2;,
 3;4,5,7;,
 3;4,7,6;,
 3;8,9,11;,
 3;8,11,10;,
 3;14,15,13;,
 3;14,13,12;,
 3;18,19,17;,
 3;18,17,16;,
 3;22,23,21;,
 3;22,21,20;,
 3;26,27,25;,
 3;26,25,24;,
 3;28,29,31;,
 3;28,31,30;,
 3;34,35,33;,
 3;34,33,32;,
 3;38,39,37;,
 3;38,37,36;,
 3;42,43,41;,
 3;42,41,40;,
 3;51,52,45;,
 3;51,45,44;,
 3;48,49,47;,
 3;48,47,46;,
 3;50,51,49;,
 3;50,49,48;,
 3;54,55,53;,
 3;54,53,52;,
 3;54,52,51;,
 3;54,51,50;,
 3;44,44,44;;

 MeshMaterialList  {
  12;
  33;
  0,
  0,
  1,
  1,
  2,
  2,
  3,
  3,
  4,
  4,
  5,
  5,
  6,
  6,
  7,
  7,
  8,
  8,
  9,
  9,
  10,
  10,
  11,
  11,
  11,
  11,
  11,
  11,
  11,
  11,
  11,
  11,
  11;

  Material  {
   1.000000;1.000000;1.000000;1.000000;;
   0.000000;
   0.000000;0.000000;0.000000;;
   0.000000;0.000000;0.000000;;

   TextureFilename  {
    "Iron2.png";
   }
  }

  Material  {
   1.000000;1.000000;1.000000;1.000000;;
   0.000000;
   0.000000;0.000000;0.000000;;
   0.000000;0.000000;0.000000;;

   TextureFilename  {
    "Iron3.png";
   }
  }

  Material  {
   1.000000;1.000000;1.000000;1.000000;;
   0.000000;
   0.000000;0.000000;0.000000;;
   0.000000;0.000000;0.000000;;

   TextureFilename  {
    "Iron3.png";
   }
  }

  Material  {
   1.000000;1.000000;1.000000;1.000000;;
   0.000000;
   0.000000;0.000000;0.000000;;
   0.000000;0.000000;0.000000;;

   TextureFilename  {
    "Iron3.png";
   }
  }

  Material  {
   1.000000;1.000000;1.000000;1.000000;;
   0.000000;
   0.000000;0.000000;0.000000;;
   0.000000;0.000000;0.000000;;

   TextureFilename  {
    "Iron3.png";
   }
  }

  Material  {
   1.000000;1.000000;1.000000;1.000000;;
   0.000000;
   0.000000;0.000000;0.000000;;
   0.000000;0.000000;0.000000;;

   TextureFilename  {
    "Iron3.png";
   }
  }

  Material  {
   1.000000;1.000000;1.000000;1.000000;;
   0.000000;
   0.000000;0.000000;0.000000;;
   0.000000;0.000000;0.000000;;

   TextureFilename  {
    "Roof1.png";
   }
  }

  Material  {
   1.000000;1.000000;1.000000;1.000000;;
   0.000000;
   0.000000;0.000000;0.000000;;
   0.000000;0.000000;0.000000;;

   TextureFilename  {
    "RoofSide1.png";
   }
  }

  Material  {
   1.000000;1.000000;1.000000;1.000000;;
   0.000000;
   0.000000;0.000000;0.000000;;
   0.000000;0.000000;0.000000;;

   TextureFilename  {
    "Saku2.png";
   }
  }

  Material  {
   1.000000;1.000000;1.000000;1.000000;;
   0.000000;
   0.000000;0.000000;0.000000;;
   0.000000;0.000000;0.000000;;

   TextureFilename  {
    "Saku1.png";
   }
  }

  Material  {
   1.000000;1.000000;1.000000;1.000000;;
   0.000000;
   0.000000;0.000000;0.000000;;
   0.000000;0.000000;0.000000;;

   TextureFilename  {
    "Saku1.png";
   }
  }

  Material  {
   0.125490;0.125490;0.125490;0.392157;;
   0.000000;
   0.000000;0.000000;0.000000;;
   0.000000;0.000000;0.000000;;
  }
 }

 MeshTextureCoords  {
  56;
  0.000000;1.000000;,
  0.000000;0.100000;,
  1.000000;1.000000;,
  1.000000;0.100000;,
  1.000000;1.000000;,
  1.000000;0.000000;,
  0.000000;1.000000;,
  0.000000;0.000000;,
  1.000000;1.000000;,
  1.000000;0.000000;,
  0.000000;1.000000;,
  0.000000;0.000000;,
  1.000000;1.000000;,
  1.000000;0.000000;,
  0.000000;1.000000;,
  0.000000;0.000000;,
  1.000000;1.000000;,
  1.000000;0.000000;,
  0.000000;1.000000;,
  0.000000;0.000000;,
  1.000000;1.000000;,
  1.000000;0.000000;,
  0.000000;1.000000;,
  0.000000;0.000000;,
  1.020000;0.000000;,
  0.000000;0.000000;,
  1.020000;0.100000;,
  0.000000;0.100000;,
  1.020000;1.000000;,
  0.000000;1.000000;,
  1.020000;0.000000;,
  0.000000;0.000000;,
  0.000000;1.000000;,
  0.000000;0.050000;,
  3.000000;1.000000;,
  3.000000;0.050000;,
  -0.050000;1.000000;,
  -0.050000;0.050000;,
  0.485000;1.000000;,
  0.485000;0.050000;,
  -0.050000;1.000000;,
  -0.050000;0.050000;,
  0.485000;1.000000;,
  0.485000;0.050000;,
  0.000000;0.000000;,
  0.000000;0.000000;,
  0.000000;0.000000;,
  0.000000;0.000000;,
  0.000000;0.000000;,
  0.000000;0.000000;,
  0.000000;0.000000;,
  0.000000;0.000000;,
  0.000000;0.000000;,
  0.000000;0.000000;,
  0.000000;0.000000;,
  0.000000;0.000000;;
 }

 MeshNormals  {
  33;
  0.000000;0.000000;-1.000000;,
  0.000000;0.000000;-1.000000;,
  0.000000;0.000000;-1.000000;,
  0.000000;0.000000;-1.000000;,
  0.000000;0.000000;-1.000000;,
  0.000000;0.000000;-1.000000;,
  -1.000000;0.000000;0.000000;,
  -1.000000;0.000000;0.000000;,
  -1.000000;0.000000;0.000000;,
  -1.000000;0.000000;0.000000;,
  -1.000000;0.000000;0.000000;,
  -1.000000;0.000000;0.000000;,
  -0.080588;-0.996747;0.000000;,
  -0.080588;-0.996747;0.000000;,
  -1.000000;0.000000;0.000000;,
  -1.000000;0.000000;0.000000;,
  -1.000000;0.000000;0.000000;,
  -1.000000;0.000000;0.000000;,
  0.000000;0.000000;-1.000000;,
  0.000000;0.000000;-1.000000;,
  0.000000;0.000000;-1.000000;,
  0.000000;0.000000;-1.000000;,
  0.000000;1.000000;0.000000;,
  0.000000;1.000000;0.000000;,
  0.000000;1.000000;0.000000;,
  0.000000;1.000000;0.000000;,
  -1.000000;0.000000;0.000000;,
  -1.000000;0.000000;0.000000;,
  0.000000;1.000000;0.000000;,
  0.000000;1.000000;0.000000;,
  0.000000;1.000000;0.000000;,
  0.000000;1.000000;0.000000;,
  0.000000;0.000000;0.000000;;
  33;
  3;0,0,0;,
  3;1,1,1;,
  3;2,2,2;,
  3;3,3,3;,
  3;4,4,4;,
  3;5,5,5;,
  3;6,6,6;,
  3;7,7,7;,
  3;8,8,8;,
  3;9,9,9;,
  3;10,10,10;,
  3;11,11,11;,
  3;12,12,12;,
  3;13,13,13;,
  3;14,14,14;,
  3;15,15,15;,
  3;16,16,16;,
  3;17,17,17;,
  3;18,18,18;,
  3;19,19,19;,
  3;20,20,20;,
  3;21,21,21;,
  3;22,22,22;,
  3;23,23,23;,
  3;24,24,24;,
  3;25,25,25;,
  3;26,26,26;,
  3;27,27,27;,
  3;28,28,28;,
  3;29,29,29;,
  3;30,30,30;,
  3;31,31,31;,
  3;32,32,32;;
 }
}