xof 0303txt 0032
template Vector {
 <3d82ab5e-62da-11cf-ab39-0020af71e433>
 FLOAT x;
 FLOAT y;
 FLOAT z;
}

template MeshFace {
 <3d82ab5f-62da-11cf-ab39-0020af71e433>
 DWORD nFaceVertexIndices;
 array DWORD faceVertexIndices[nFaceVertexIndices];
}

template Mesh {
 <3d82ab44-62da-11cf-ab39-0020af71e433>
 DWORD nVertices;
 array Vector vertices[nVertices];
 DWORD nFaces;
 array MeshFace faces[nFaces];
 [...]
}

template ColorRGBA {
 <35ff44e0-6c7c-11cf-8f52-0040333594a3>
 FLOAT red;
 FLOAT green;
 FLOAT blue;
 FLOAT alpha;
}

template ColorRGB {
 <d3e16e81-7835-11cf-8f52-0040333594a3>
 FLOAT red;
 FLOAT green;
 FLOAT blue;
}

template Material {
 <3d82ab4d-62da-11cf-ab39-0020af71e433>
 ColorRGBA faceColor;
 FLOAT power;
 ColorRGB specularColor;
 ColorRGB emissiveColor;
 [...]
}

template MeshMaterialList {
 <f6f23f42-7686-11cf-8f52-0040333594a3>
 DWORD nMaterials;
 DWORD nFaceIndexes;
 array DWORD faceIndexes[nFaceIndexes];
 [Material <3d82ab4d-62da-11cf-ab39-0020af71e433>]
}

template TextureFilename {
 <a42790e1-7810-11cf-8f52-0040333594a3>
 STRING filename;
}

template Coords2d {
 <f6f23f44-7686-11cf-8f52-0040333594a3>
 FLOAT u;
 FLOAT v;
}

template MeshTextureCoords {
 <f6f23f40-7686-11cf-8f52-0040333594a3>
 DWORD nTextureCoords;
 array Coords2d textureCoords[nTextureCoords];
}

template MeshNormals {
 <f6f23f43-7686-11cf-8f52-0040333594a3>
 DWORD nNormals;
 array Vector normals[nNormals];
 DWORD nFaceNormals;
 array MeshFace faceNormals[nFaceNormals];
}


Mesh  {
 72;
 19.712400;1.100000;4.000000;,
 19.712400;5.000000;4.000000;,
 20.212400;1.100000;4.000000;,
 20.212400;5.000000;4.000000;,
 19.712400;1.100000;12.000000;,
 19.712400;5.000000;12.000000;,
 20.212400;1.100000;12.000000;,
 20.212400;5.000000;12.000000;,
 19.712400;1.100000;20.000000;,
 19.712400;5.000000;20.000000;,
 20.212400;1.100000;20.000000;,
 20.212400;5.000000;20.000000;,
 16.512400;5.000000;4.010000;,
 16.512400;5.300000;4.010000;,
 20.212400;4.700000;4.010000;,
 20.212400;5.000000;4.010000;,
 16.512400;5.000000;12.010000;,
 16.512400;5.300000;12.010000;,
 20.212400;4.700000;12.010000;,
 20.212400;5.000000;12.010000;,
 16.512400;5.000000;20.010000;,
 16.512400;5.300000;20.010000;,
 20.212400;4.700000;20.010000;,
 20.212400;5.000000;20.010000;,
 16.512400;5.000000;0.000000;,
 16.512400;5.300000;0.000000;,
 16.512400;5.000000;25.000000;,
 16.512400;5.300000;25.000000;,
 18.812401;4.810000;0.000000;,
 18.812401;5.110000;0.000000;,
 18.812401;4.810000;25.000000;,
 18.812401;5.110000;25.000000;,
 20.212400;4.700000;0.000000;,
 20.212400;5.000000;0.000000;,
 20.212400;4.700000;25.000000;,
 20.212400;5.000000;25.000000;,
 15.512400;5.380000;0.000000;,
 15.512400;5.380000;25.000000;,
 20.212400;5.000000;0.000000;,
 20.212400;5.000000;25.000000;,
 15.512400;5.380000;0.000000;,
 15.512400;5.380000;25.000000;,
 15.512400;5.680000;0.000000;,
 15.512400;5.680000;25.000000;,
 20.212400;1.100000;0.000000;,
 20.212400;2.300000;0.000000;,
 20.212400;1.100000;25.000000;,
 20.212400;2.300000;25.000000;,
 15.564600;1.110000;0.000000;,
 15.564600;1.110000;25.000000;,
 15.502400;1.110000;0.000000;,
 15.502400;1.110000;25.000000;,
 15.502400;0.010000;0.000000;,
 15.502400;0.010000;25.000000;,
 9.100800;0.010000;0.000000;,
 9.100800;0.010000;25.000000;,
 16.650000;5.300000;-0.085000;,
 16.650000;7.800000;-0.050000;,
 16.950001;5.300000;-0.085000;,
 16.950001;7.800000;-0.050000;,
 16.650000;5.300000;0.085000;,
 16.650000;7.800000;0.050000;,
 16.950001;5.300000;0.085000;,
 16.950001;7.800000;0.050000;,
 16.660000;7.800000;-0.050000;,
 16.660000;7.850000;-0.050000;,
 16.950001;7.800000;-0.050000;,
 16.950001;7.850000;-0.050000;,
 16.660000;7.800000;0.050000;,
 16.660000;7.850000;0.050000;,
 16.950001;7.800000;0.050000;,
 16.950001;7.850000;0.050000;;
 46;
 3;0,1,3;,
 3;0,3,2;,
 3;4,5,7;,
 3;4,7,6;,
 3;8,9,11;,
 3;8,11,10;,
 3;12,13,15;,
 3;12,15,14;,
 3;16,17,19;,
 3;16,19,18;,
 3;20,21,23;,
 3;20,23,22;,
 3;26,27,25;,
 3;26,25,24;,
 3;30,31,29;,
 3;30,29,28;,
 3;34,35,33;,
 3;34,33,32;,
 3;38,39,37;,
 3;38,37,36;,
 3;40,41,43;,
 3;40,43,42;,
 3;46,47,45;,
 3;46,45,44;,
 3;50,51,49;,
 3;50,49,48;,
 3;52,53,51;,
 3;52,51,50;,
 3;54,55,53;,
 3;54,53,52;,
 3;56,57,59;,
 3;56,59,58;,
 3;60,61,63;,
 3;60,63,62;,
 3;64,65,67;,
 3;64,67,66;,
 3;68,69,71;,
 3;68,71,70;,
 3;66,67,71;,
 3;66,71,70;,
 3;70,71,67;,
 3;70,67,66;,
 3;64,65,69;,
 3;64,69,68;,
 3;68,69,65;,
 3;68,65,64;;

 MeshMaterialList  {
  16;
  46;
  0,
  0,
  1,
  1,
  2,
  2,
  3,
  3,
  4,
  4,
  5,
  5,
  6,
  6,
  7,
  7,
  8,
  8,
  9,
  9,
  10,
  10,
  11,
  11,
  12,
  12,
  12,
  12,
  12,
  12,
  13,
  13,
  14,
  14,
  15,
  15,
  15,
  15,
  15,
  15,
  15,
  15,
  15,
  15,
  15,
  15;

  Material  {
   1.000000;1.000000;1.000000;1.000000;;
   0.000000;
   0.000000;0.000000;0.000000;;
   0.000000;0.000000;0.000000;;

   TextureFilename  {
    "Iron2.png";
   }
  }

  Material  {
   1.000000;1.000000;1.000000;1.000000;;
   0.000000;
   0.000000;0.000000;0.000000;;
   0.000000;0.000000;0.000000;;

   TextureFilename  {
    "Iron2.png";
   }
  }

  Material  {
   1.000000;1.000000;1.000000;1.000000;;
   0.000000;
   0.000000;0.000000;0.000000;;
   0.000000;0.000000;0.000000;;

   TextureFilename  {
    "Iron2.png";
   }
  }

  Material  {
   1.000000;1.000000;1.000000;1.000000;;
   0.000000;
   0.000000;0.000000;0.000000;;
   0.000000;0.000000;0.000000;;

   TextureFilename  {
    "Iron3.png";
   }
  }

  Material  {
   1.000000;1.000000;1.000000;1.000000;;
   0.000000;
   0.000000;0.000000;0.000000;;
   0.000000;0.000000;0.000000;;

   TextureFilename  {
    "Iron3.png";
   }
  }

  Material  {
   1.000000;1.000000;1.000000;1.000000;;
   0.000000;
   0.000000;0.000000;0.000000;;
   0.000000;0.000000;0.000000;;

   TextureFilename  {
    "Iron3.png";
   }
  }

  Material  {
   1.000000;1.000000;1.000000;1.000000;;
   0.000000;
   0.000000;0.000000;0.000000;;
   0.000000;0.000000;0.000000;;

   TextureFilename  {
    "Iron3.png";
   }
  }

  Material  {
   1.000000;1.000000;1.000000;1.000000;;
   0.000000;
   0.000000;0.000000;0.000000;;
   0.000000;0.000000;0.000000;;

   TextureFilename  {
    "Iron3.png";
   }
  }

  Material  {
   1.000000;1.000000;1.000000;1.000000;;
   0.000000;
   0.000000;0.000000;0.000000;;
   0.000000;0.000000;0.000000;;

   TextureFilename  {
    "Iron3.png";
   }
  }

  Material  {
   1.000000;1.000000;1.000000;1.000000;;
   0.000000;
   0.000000;0.000000;0.000000;;
   0.000000;0.000000;0.000000;;

   TextureFilename  {
    "Roof1.png";
   }
  }

  Material  {
   1.000000;1.000000;1.000000;1.000000;;
   0.000000;
   0.000000;0.000000;0.000000;;
   0.000000;0.000000;0.000000;;

   TextureFilename  {
    "RoofSide1.png";
   }
  }

  Material  {
   1.000000;1.000000;1.000000;1.000000;;
   0.000000;
   0.000000;0.000000;0.000000;;
   0.000000;0.000000;0.000000;;

   TextureFilename  {
    "Saku2.png";
   }
  }

  Material  {
   0.125490;0.125490;0.125490;0.392157;;
   0.000000;
   0.000000;0.000000;0.000000;;
   0.000000;0.000000;0.000000;;
  }

  Material  {
   1.000000;1.000000;1.000000;1.000000;;
   0.000000;
   0.000000;0.000000;0.000000;;
   0.000000;0.000000;0.000000;;

   TextureFilename  {
    "Pole_Iron1.png";
   }
  }

  Material  {
   1.000000;1.000000;1.000000;1.000000;;
   0.000000;
   0.000000;0.000000;0.000000;;
   0.000000;0.000000;0.000000;;

   TextureFilename  {
    "Pole_Iron1.png";
   }
  }

  Material  {
   0.666667;0.666667;0.666667;1.000000;;
   0.000000;
   0.000000;0.000000;0.000000;;
   0.000000;0.000000;0.000000;;
  }
 }

 MeshTextureCoords  {
  72;
  0.000000;1.000000;,
  0.000000;0.100000;,
  1.000000;1.000000;,
  1.000000;0.100000;,
  0.000000;1.000000;,
  0.000000;0.100000;,
  1.000000;1.000000;,
  1.000000;0.100000;,
  0.000000;1.000000;,
  0.000000;0.100000;,
  1.000000;1.000000;,
  1.000000;0.100000;,
  1.000000;1.000000;,
  1.000000;0.000000;,
  0.000000;1.000000;,
  0.000000;0.000000;,
  1.000000;1.000000;,
  1.000000;0.000000;,
  0.000000;1.000000;,
  0.000000;0.000000;,
  1.000000;1.000000;,
  1.000000;0.000000;,
  0.000000;1.000000;,
  0.000000;0.000000;,
  1.000000;1.000000;,
  1.000000;0.000000;,
  0.000000;1.000000;,
  0.000000;0.000000;,
  1.000000;1.000000;,
  1.000000;0.000000;,
  0.000000;1.000000;,
  0.000000;0.000000;,
  1.000000;1.000000;,
  1.000000;0.000000;,
  0.000000;1.000000;,
  0.000000;0.000000;,
  6.380000;0.000000;,
  0.000000;0.000000;,
  6.380000;0.100000;,
  0.000000;0.100000;,
  6.380000;1.000000;,
  0.000000;1.000000;,
  6.380000;0.000000;,
  0.000000;0.000000;,
  0.000000;1.000000;,
  0.000000;0.050000;,
  12.000000;1.000000;,
  12.000000;0.050000;,
  0.000000;0.000000;,
  0.000000;0.000000;,
  0.000000;0.000000;,
  0.000000;0.000000;,
  0.000000;0.000000;,
  0.000000;0.000000;,
  0.000000;0.000000;,
  0.000000;0.000000;,
  0.000000;3.470000;,
  0.000000;0.000000;,
  1.000000;3.470000;,
  1.000000;0.000000;,
  0.000000;3.470000;,
  0.000000;0.000000;,
  1.000000;3.470000;,
  1.000000;0.000000;,
  0.000000;0.000000;,
  0.000000;0.000000;,
  0.000000;0.000000;,
  0.000000;0.000000;,
  0.000000;0.000000;,
  0.000000;0.000000;,
  0.000000;0.000000;,
  0.000000;0.000000;;
 }

 MeshNormals  {
  46;
  0.000000;0.000000;-1.000000;,
  0.000000;0.000000;-1.000000;,
  0.000000;0.000000;-1.000000;,
  0.000000;0.000000;-1.000000;,
  0.000000;0.000000;-1.000000;,
  0.000000;0.000000;-1.000000;,
  0.000000;0.000000;-1.000000;,
  0.000000;0.000000;-1.000000;,
  0.000000;0.000000;-1.000000;,
  0.000000;0.000000;-1.000000;,
  0.000000;0.000000;-1.000000;,
  0.000000;0.000000;-1.000000;,
  -1.000000;0.000000;0.000000;,
  -1.000000;0.000000;0.000000;,
  -1.000000;0.000000;0.000000;,
  -1.000000;0.000000;0.000000;,
  -1.000000;0.000000;0.000000;,
  -1.000000;0.000000;0.000000;,
  -0.080588;-0.996747;0.000000;,
  -0.080588;-0.996747;0.000000;,
  -1.000000;0.000000;0.000000;,
  -1.000000;0.000000;0.000000;,
  -1.000000;0.000000;0.000000;,
  -1.000000;0.000000;0.000000;,
  0.000000;1.000000;0.000000;,
  0.000000;1.000000;0.000000;,
  -1.000000;0.000000;0.000000;,
  -1.000000;0.000000;0.000000;,
  0.000000;1.000000;0.000000;,
  0.000000;1.000000;0.000000;,
  0.000000;0.013999;-0.999902;,
  0.000000;0.013999;-0.999902;,
  0.000000;-0.013999;-0.999902;,
  0.000000;-0.013999;-0.999902;,
  0.000000;0.000000;-1.000000;,
  0.000000;0.000000;-1.000000;,
  0.000000;0.000000;-1.000000;,
  0.000000;0.000000;-1.000000;,
  1.000000;0.000000;0.000000;,
  1.000000;0.000000;0.000000;,
  -1.000000;0.000000;0.000000;,
  -1.000000;0.000000;0.000000;,
  1.000000;0.000000;0.000000;,
  1.000000;0.000000;0.000000;,
  -1.000000;0.000000;0.000000;,
  -1.000000;0.000000;0.000000;;
  46;
  3;0,0,0;,
  3;1,1,1;,
  3;2,2,2;,
  3;3,3,3;,
  3;4,4,4;,
  3;5,5,5;,
  3;6,6,6;,
  3;7,7,7;,
  3;8,8,8;,
  3;9,9,9;,
  3;10,10,10;,
  3;11,11,11;,
  3;12,12,12;,
  3;13,13,13;,
  3;14,14,14;,
  3;15,15,15;,
  3;16,16,16;,
  3;17,17,17;,
  3;18,18,18;,
  3;19,19,19;,
  3;20,20,20;,
  3;21,21,21;,
  3;22,22,22;,
  3;23,23,23;,
  3;24,24,24;,
  3;25,25,25;,
  3;26,26,26;,
  3;27,27,27;,
  3;28,28,28;,
  3;29,29,29;,
  3;30,30,30;,
  3;31,31,31;,
  3;32,32,32;,
  3;33,33,33;,
  3;34,34,34;,
  3;35,35,35;,
  3;36,36,36;,
  3;37,37,37;,
  3;38,38,38;,
  3;39,39,39;,
  3;40,40,40;,
  3;41,41,41;,
  3;42,42,42;,
  3;43,43,43;,
  3;44,44,44;,
  3;45,45,45;;
 }
}