xof 0303txt 0032
template Vector {
 <3d82ab5e-62da-11cf-ab39-0020af71e433>
 FLOAT x;
 FLOAT y;
 FLOAT z;
}

template MeshFace {
 <3d82ab5f-62da-11cf-ab39-0020af71e433>
 DWORD nFaceVertexIndices;
 array DWORD faceVertexIndices[nFaceVertexIndices];
}

template Mesh {
 <3d82ab44-62da-11cf-ab39-0020af71e433>
 DWORD nVertices;
 array Vector vertices[nVertices];
 DWORD nFaces;
 array MeshFace faces[nFaces];
 [...]
}

template ColorRGBA {
 <35ff44e0-6c7c-11cf-8f52-0040333594a3>
 FLOAT red;
 FLOAT green;
 FLOAT blue;
 FLOAT alpha;
}

template ColorRGB {
 <d3e16e81-7835-11cf-8f52-0040333594a3>
 FLOAT red;
 FLOAT green;
 FLOAT blue;
}

template Material {
 <3d82ab4d-62da-11cf-ab39-0020af71e433>
 ColorRGBA faceColor;
 FLOAT power;
 ColorRGB specularColor;
 ColorRGB emissiveColor;
 [...]
}

template MeshMaterialList {
 <f6f23f42-7686-11cf-8f52-0040333594a3>
 DWORD nMaterials;
 DWORD nFaceIndexes;
 array DWORD faceIndexes[nFaceIndexes];
 [Material <3d82ab4d-62da-11cf-ab39-0020af71e433>]
}

template TextureFilename {
 <a42790e1-7810-11cf-8f52-0040333594a3>
 STRING filename;
}

template Coords2d {
 <f6f23f44-7686-11cf-8f52-0040333594a3>
 FLOAT u;
 FLOAT v;
}

template MeshTextureCoords {
 <f6f23f40-7686-11cf-8f52-0040333594a3>
 DWORD nTextureCoords;
 array Coords2d textureCoords[nTextureCoords];
}

template MeshNormals {
 <f6f23f43-7686-11cf-8f52-0040333594a3>
 DWORD nNormals;
 array Vector normals[nNormals];
 DWORD nFaceNormals;
 array MeshFace faceNormals[nFaceNormals];
}


Mesh  {
 128;
 -7.400000;1.100000;1.500000;,
 -7.400000;4.500000;1.500000;,
 -7.150000;1.100000;1.500000;,
 -7.150000;4.500000;1.500000;,
 -7.400000;1.100000;9.000000;,
 -7.400000;4.500000;9.000000;,
 -7.150000;1.100000;9.000000;,
 -7.150000;4.500000;9.000000;,
 -7.400000;1.100000;19.000000;,
 -7.400000;4.500000;19.000000;,
 -7.150000;1.100000;19.000000;,
 -7.150000;4.500000;19.000000;,
 -10.865500;1.100000;1.500000;,
 -10.865500;4.500000;1.500000;,
 -10.615500;1.100000;1.500000;,
 -10.615500;4.500000;1.500000;,
 -10.865500;1.100000;9.000000;,
 -10.865500;4.500000;9.000000;,
 -10.615500;1.100000;9.000000;,
 -10.615500;4.500000;9.000000;,
 -10.865500;1.100000;19.000000;,
 -10.865500;4.500000;19.000000;,
 -10.615500;1.100000;19.000000;,
 -10.615500;4.500000;19.000000;,
 -12.215500;4.460000;1.510000;,
 -12.215500;4.710000;1.510000;,
 -10.865500;4.300000;1.510000;,
 -10.865500;4.550000;1.510000;,
 -9.007750;4.800000;1.510000;,
 -9.007750;5.050000;1.510000;,
 -7.150000;4.300000;1.510000;,
 -7.150000;4.550000;1.510000;,
 -5.800000;4.460000;1.510000;,
 -5.800000;4.710000;1.510000;,
 -12.215500;4.460000;9.010000;,
 -12.215500;4.710000;9.010000;,
 -10.865500;4.300000;9.010000;,
 -10.865500;4.550000;9.010000;,
 -9.007750;4.800000;9.010000;,
 -9.007750;5.050000;9.010000;,
 -7.150000;4.300000;9.010000;,
 -7.150000;4.550000;9.010000;,
 -5.800000;4.460000;9.010000;,
 -5.800000;4.710000;9.010000;,
 -12.215500;4.460000;19.010000;,
 -12.215500;4.710000;19.010000;,
 -10.865500;4.300000;19.010000;,
 -10.865500;4.550000;19.010000;,
 -9.007750;4.800000;19.010000;,
 -9.007750;5.050000;19.010000;,
 -7.150000;4.300000;19.010000;,
 -7.150000;4.550000;19.010000;,
 -5.800000;4.460000;19.010000;,
 -5.800000;4.710000;19.010000;,
 -7.150000;4.300000;1.500000;,
 -7.150000;4.550000;1.500000;,
 -7.150000;4.300000;25.000000;,
 -7.150000;4.550000;25.000000;,
 -10.865500;4.300000;1.500000;,
 -10.865500;4.550000;1.500000;,
 -10.865500;4.300000;25.000000;,
 -10.865500;4.550000;25.000000;,
 -5.800000;4.460000;1.500000;,
 -5.800000;4.710000;1.500000;,
 -5.800000;4.460000;25.000000;,
 -5.800000;4.710000;25.000000;,
 -12.215500;4.460000;1.500000;,
 -12.215500;4.710000;1.500000;,
 -12.215500;4.460000;25.000000;,
 -12.215500;4.710000;25.000000;,
 -12.515500;4.750000;1.500000;,
 -12.515500;4.750000;25.000000;,
 -10.865500;4.550000;1.500000;,
 -10.865500;4.550000;25.000000;,
 -9.007750;5.050000;1.500000;,
 -9.007750;5.050000;25.000000;,
 -7.150000;4.550000;1.500000;,
 -7.150000;4.550000;25.000000;,
 -5.500000;4.750000;1.500000;,
 -5.500000;4.750000;25.000000;,
 -12.515500;4.750000;1.500000;,
 -12.515500;4.750000;25.000000;,
 -12.515500;4.950000;1.500000;,
 -12.515500;4.950000;25.000000;,
 -5.500000;4.750000;1.500000;,
 -5.500000;4.750000;25.000000;,
 -5.500000;4.950000;1.500000;,
 -5.500000;4.950000;25.000000;,
 -10.015500;1.100000;15.000000;,
 -10.015500;3.600000;15.000000;,
 -10.015500;1.100000;12.000000;,
 -10.015500;3.600000;12.000000;,
 -8.000000;1.100000;12.000000;,
 -8.000000;3.600000;12.000000;,
 -8.000000;1.100000;15.000000;,
 -8.000000;3.600000;15.000000;,
 -9.007750;1.100000;19.400000;,
 -9.007750;3.400000;19.400000;,
 -9.007750;1.100000;20.799999;,
 -9.007750;3.400000;20.799999;,
 -9.707750;3.600000;19.000000;,
 -9.707750;5.000000;19.000000;,
 -8.307750;3.600000;19.000000;,
 -8.307750;5.000000;19.000000;,
 -9.257750;1.100000;19.000000;,
 -9.257750;2.200000;19.000000;,
 -8.757750;1.100000;19.000000;,
 -8.757750;2.200000;19.000000;,
 -9.257750;1.100000;19.400000;,
 -9.257750;2.300000;19.400000;,
 -8.757750;1.100000;19.400000;,
 -8.757750;2.300000;19.400000;,
 -9.257750;1.100000;20.799999;,
 -9.257750;2.300000;20.799999;,
 -8.757750;1.100000;20.799999;,
 -8.757750;2.300000;20.799999;,
 -9.257750;1.100000;21.200001;,
 -9.257750;2.200000;21.200001;,
 -8.757750;1.100000;21.200001;,
 -8.757750;2.200000;21.200001;,
 -9.849900;1.110000;0.000000;,
 -9.849900;1.110000;25.000000;,
 -12.525500;1.110000;0.000000;,
 -12.525500;1.110000;25.000000;,
 -12.525500;0.010000;0.000000;,
 -12.525500;0.010000;25.000000;,
 -18.176300;0.010000;0.000000;,
 -18.176300;0.010000;25.000000;;
 100;
 3;0,1,3;,
 3;0,3,2;,
 3;4,5,7;,
 3;4,7,6;,
 3;8,9,11;,
 3;8,11,10;,
 3;12,13,15;,
 3;12,15,14;,
 3;16,17,19;,
 3;16,19,18;,
 3;20,21,23;,
 3;20,23,22;,
 3;24,25,27;,
 3;24,27,26;,
 3;26,27,29;,
 3;26,29,28;,
 3;28,29,31;,
 3;28,31,30;,
 3;30,31,33;,
 3;30,33,32;,
 3;34,35,37;,
 3;34,37,36;,
 3;36,37,39;,
 3;36,39,38;,
 3;38,39,41;,
 3;38,41,40;,
 3;40,41,43;,
 3;40,43,42;,
 3;44,45,47;,
 3;44,47,46;,
 3;46,47,49;,
 3;46,49,48;,
 3;48,49,51;,
 3;48,51,50;,
 3;50,51,53;,
 3;50,53,52;,
 3;54,55,57;,
 3;54,57,56;,
 3;56,57,55;,
 3;56,55,54;,
 3;58,59,61;,
 3;58,61,60;,
 3;60,61,59;,
 3;60,59,58;,
 3;62,63,65;,
 3;62,65,64;,
 3;64,65,63;,
 3;64,63,62;,
 3;66,67,69;,
 3;66,69,68;,
 3;68,69,67;,
 3;68,67,66;,
 3;72,73,71;,
 3;72,71,70;,
 3;74,75,73;,
 3;74,73,72;,
 3;76,77,75;,
 3;76,75,74;,
 3;78,79,77;,
 3;78,77,76;,
 3;80,81,83;,
 3;80,83,82;,
 3;86,87,85;,
 3;86,85,84;,
 3;88,89,91;,
 3;88,91,90;,
 3;90,91,93;,
 3;90,93,92;,
 3;92,93,95;,
 3;92,95,94;,
 3;96,97,99;,
 3;96,99,98;,
 3;98,99,97;,
 3;98,97,96;,
 3;100,101,103;,
 3;100,103,102;,
 3;102,103,101;,
 3;102,101,100;,
 3;104,105,107;,
 3;104,107,106;,
 3;108,109,105;,
 3;108,105,104;,
 3;106,107,111;,
 3;106,111,110;,
 3;105,109,111;,
 3;105,111,107;,
 3;112,113,115;,
 3;112,115,114;,
 3;116,117,113;,
 3;116,113,112;,
 3;114,115,119;,
 3;114,119,118;,
 3;113,117,119;,
 3;113,119,115;,
 3;122,123,121;,
 3;122,121,120;,
 3;124,125,123;,
 3;124,123,122;,
 3;126,127,125;,
 3;126,125,124;;

 MeshMaterialList  {
  22;
  100;
  0,
  0,
  1,
  1,
  2,
  2,
  3,
  3,
  4,
  4,
  5,
  5,
  6,
  6,
  6,
  6,
  6,
  6,
  6,
  6,
  7,
  7,
  7,
  7,
  7,
  7,
  7,
  7,
  8,
  8,
  8,
  8,
  8,
  8,
  8,
  8,
  9,
  9,
  9,
  9,
  10,
  10,
  10,
  10,
  11,
  11,
  11,
  11,
  12,
  12,
  12,
  12,
  13,
  13,
  13,
  13,
  13,
  13,
  13,
  13,
  14,
  14,
  15,
  15,
  16,
  16,
  16,
  16,
  16,
  16,
  17,
  17,
  17,
  17,
  18,
  18,
  18,
  18,
  19,
  19,
  19,
  19,
  19,
  19,
  19,
  19,
  20,
  20,
  20,
  20,
  20,
  20,
  20,
  20,
  21,
  21,
  21,
  21,
  21,
  21;

  Material  {
   1.000000;1.000000;1.000000;1.000000;;
   0.000000;
   0.000000;0.000000;0.000000;;
   0.000000;0.000000;0.000000;;

   TextureFilename  {
    "Iron1.png";
   }
  }

  Material  {
   1.000000;1.000000;1.000000;1.000000;;
   0.000000;
   0.000000;0.000000;0.000000;;
   0.000000;0.000000;0.000000;;

   TextureFilename  {
    "Iron1.png";
   }
  }

  Material  {
   1.000000;1.000000;1.000000;1.000000;;
   0.000000;
   0.000000;0.000000;0.000000;;
   0.000000;0.000000;0.000000;;

   TextureFilename  {
    "Iron1.png";
   }
  }

  Material  {
   1.000000;1.000000;1.000000;1.000000;;
   0.000000;
   0.000000;0.000000;0.000000;;
   0.000000;0.000000;0.000000;;

   TextureFilename  {
    "Iron1.png";
   }
  }

  Material  {
   1.000000;1.000000;1.000000;1.000000;;
   0.000000;
   0.000000;0.000000;0.000000;;
   0.000000;0.000000;0.000000;;

   TextureFilename  {
    "Iron1.png";
   }
  }

  Material  {
   1.000000;1.000000;1.000000;1.000000;;
   0.000000;
   0.000000;0.000000;0.000000;;
   0.000000;0.000000;0.000000;;

   TextureFilename  {
    "Iron1.png";
   }
  }

  Material  {
   1.000000;1.000000;1.000000;1.000000;;
   0.000000;
   0.000000;0.000000;0.000000;;
   0.000000;0.000000;0.000000;;

   TextureFilename  {
    "Iron1.png";
   }
  }

  Material  {
   1.000000;1.000000;1.000000;1.000000;;
   0.000000;
   0.000000;0.000000;0.000000;;
   0.000000;0.000000;0.000000;;

   TextureFilename  {
    "Iron1.png";
   }
  }

  Material  {
   1.000000;1.000000;1.000000;1.000000;;
   0.000000;
   0.000000;0.000000;0.000000;;
   0.000000;0.000000;0.000000;;

   TextureFilename  {
    "Iron1.png";
   }
  }

  Material  {
   1.000000;1.000000;1.000000;1.000000;;
   0.000000;
   0.000000;0.000000;0.000000;;
   0.000000;0.000000;0.000000;;

   TextureFilename  {
    "Iron1.png";
   }
  }

  Material  {
   1.000000;1.000000;1.000000;1.000000;;
   0.000000;
   0.000000;0.000000;0.000000;;
   0.000000;0.000000;0.000000;;

   TextureFilename  {
    "Iron1.png";
   }
  }

  Material  {
   1.000000;1.000000;1.000000;1.000000;;
   0.000000;
   0.000000;0.000000;0.000000;;
   0.000000;0.000000;0.000000;;

   TextureFilename  {
    "Iron1.png";
   }
  }

  Material  {
   1.000000;1.000000;1.000000;1.000000;;
   0.000000;
   0.000000;0.000000;0.000000;;
   0.000000;0.000000;0.000000;;

   TextureFilename  {
    "Iron1.png";
   }
  }

  Material  {
   1.000000;1.000000;1.000000;1.000000;;
   0.000000;
   0.000000;0.000000;0.000000;;
   0.000000;0.000000;0.000000;;

   TextureFilename  {
    "Roof1.png";
   }
  }

  Material  {
   1.000000;1.000000;1.000000;1.000000;;
   0.000000;
   0.000000;0.000000;0.000000;;
   0.000000;0.000000;0.000000;;

   TextureFilename  {
    "RoofSide1.png";
   }
  }

  Material  {
   1.000000;1.000000;1.000000;1.000000;;
   0.000000;
   0.000000;0.000000;0.000000;;
   0.000000;0.000000;0.000000;;

   TextureFilename  {
    "RoofSide1.png";
   }
  }

  Material  {
   1.000000;1.000000;1.000000;1.000000;;
   0.000000;
   0.000000;0.000000;0.000000;;
   0.000000;0.000000;0.000000;;

   TextureFilename  {
    "Kiosk2.png";
   }
  }

  Material  {
   1.000000;1.000000;1.000000;1.000000;;
   0.000000;
   0.000000;0.000000;0.000000;;
   0.000000;0.000000;0.000000;;

   TextureFilename  {
    "SmokingArea2.png";
   }
  }

  Material  {
   1.000000;1.000000;1.000000;1.000000;;
   0.000000;
   0.000000;0.000000;0.000000;;
   0.000000;0.000000;0.000000;;

   TextureFilename  {
    "SmokingArea.png";
   }
  }

  Material  {
   1.000000;1.000000;1.000000;1.000000;;
   0.000000;
   0.000000;0.000000;0.000000;;
   0.000000;0.000000;0.000000;;

   TextureFilename  {
    "TrashCan1.png";
   }
  }

  Material  {
   1.000000;1.000000;1.000000;1.000000;;
   0.000000;
   0.000000;0.000000;0.000000;;
   0.000000;0.000000;0.000000;;

   TextureFilename  {
    "TrashCan1.png";
   }
  }

  Material  {
   0.125490;0.125490;0.125490;0.392157;;
   0.000000;
   0.000000;0.000000;0.000000;;
   0.000000;0.000000;0.000000;;
  }
 }

 MeshTextureCoords  {
  128;
  0.000000;1.000000;,
  0.000000;0.100000;,
  1.000000;1.000000;,
  1.000000;0.100000;,
  0.000000;1.000000;,
  0.000000;0.100000;,
  1.000000;1.000000;,
  1.000000;0.100000;,
  0.000000;1.000000;,
  0.000000;0.100000;,
  1.000000;1.000000;,
  1.000000;0.100000;,
  1.000000;0.500000;,
  1.000000;0.100000;,
  0.000000;0.500000;,
  0.000000;0.100000;,
  1.000000;0.500000;,
  1.000000;0.100000;,
  0.000000;0.500000;,
  0.000000;0.100000;,
  1.000000;0.500000;,
  1.000000;0.100000;,
  0.000000;0.500000;,
  0.000000;0.100000;,
  1.000000;0.050000;,
  0.000000;0.050000;,
  1.000000;0.100000;,
  0.000000;0.100000;,
  1.000000;0.125000;,
  0.000000;0.125000;,
  1.000000;0.150000;,
  0.000000;0.150000;,
  1.000000;0.200000;,
  0.000000;0.200000;,
  1.000000;0.050000;,
  0.000000;0.050000;,
  1.000000;0.100000;,
  0.000000;0.100000;,
  1.000000;0.125000;,
  0.000000;0.125000;,
  1.000000;0.150000;,
  0.000000;0.150000;,
  1.000000;0.200000;,
  0.000000;0.200000;,
  1.000000;0.050000;,
  0.000000;0.050000;,
  1.000000;0.100000;,
  0.000000;0.100000;,
  1.000000;0.125000;,
  0.000000;0.125000;,
  1.000000;0.150000;,
  0.000000;0.150000;,
  1.000000;0.200000;,
  0.000000;0.200000;,
  1.000000;0.000000;,
  0.000000;0.250000;,
  1.000000;0.000000;,
  0.000000;0.250000;,
  1.000000;0.000000;,
  0.000000;0.250000;,
  1.000000;0.000000;,
  0.000000;0.250000;,
  1.000000;0.000000;,
  0.000000;0.250000;,
  1.000000;0.000000;,
  0.000000;0.250000;,
  1.000000;0.000000;,
  0.000000;0.250000;,
  1.000000;0.000000;,
  0.000000;0.250000;,
  6.000000;0.000000;,
  0.000000;0.000000;,
  6.000000;0.100000;,
  0.000000;0.100000;,
  6.000000;0.200000;,
  0.000000;0.200000;,
  6.000000;0.300000;,
  0.000000;0.300000;,
  6.000000;0.400000;,
  0.000000;0.400000;,
  0.000000;1.000000;,
  6.000000;1.000000;,
  0.000000;0.000000;,
  6.000000;0.000000;,
  0.000000;1.000000;,
  6.000000;1.000000;,
  0.000000;0.000000;,
  6.000000;0.000000;,
  0.000000;1.000000;,
  0.000000;0.000000;,
  0.125000;1.000000;,
  0.125000;0.000000;,
  0.500000;1.000000;,
  0.500000;0.000000;,
  1.000000;1.000000;,
  1.000000;0.000000;,
  0.000000;1.000000;,
  0.000000;0.000000;,
  1.000000;1.000000;,
  1.000000;0.000000;,
  0.000000;1.000000;,
  0.000000;0.000000;,
  1.000000;1.000000;,
  1.000000;0.000000;,
  0.000000;1.000000;,
  0.000000;0.145000;,
  1.000000;1.000000;,
  1.000000;0.145000;,
  0.000000;1.000000;,
  0.000000;0.145000;,
  1.000000;1.000000;,
  1.000000;0.145000;,
  1.000000;1.000000;,
  1.000000;0.145000;,
  1.000000;1.000000;,
  1.000000;0.145000;,
  1.000000;1.000000;,
  1.000000;0.145000;,
  1.000000;1.000000;,
  1.000000;0.145000;,
  0.000000;0.000000;,
  0.000000;0.000000;,
  0.000000;0.000000;,
  0.000000;0.000000;,
  0.000000;0.000000;,
  0.000000;0.000000;,
  0.000000;0.000000;,
  0.000000;0.000000;;
 }

 MeshNormals  {
  100;
  0.000000;0.000000;-1.000000;,
  0.000000;0.000000;-1.000000;,
  0.000000;0.000000;-1.000000;,
  0.000000;0.000000;-1.000000;,
  0.000000;0.000000;-1.000000;,
  0.000000;0.000000;-1.000000;,
  0.000000;0.000000;-1.000000;,
  0.000000;0.000000;-1.000000;,
  0.000000;0.000000;-1.000000;,
  0.000000;0.000000;-1.000000;,
  0.000000;0.000000;-1.000000;,
  0.000000;0.000000;-1.000000;,
  0.000000;0.000000;-1.000000;,
  0.000000;0.000000;-1.000000;,
  0.000000;0.000000;-1.000000;,
  0.000000;0.000000;-1.000000;,
  0.000000;0.000000;-1.000000;,
  0.000000;0.000000;-1.000000;,
  0.000000;0.000000;-1.000000;,
  0.000000;0.000000;-1.000000;,
  0.000000;0.000000;-1.000000;,
  0.000000;0.000000;-1.000000;,
  0.000000;0.000000;-1.000000;,
  0.000000;0.000000;-1.000000;,
  0.000000;0.000000;-1.000000;,
  0.000000;0.000000;-1.000000;,
  0.000000;0.000000;-1.000000;,
  0.000000;0.000000;-1.000000;,
  0.000000;0.000000;-1.000000;,
  0.000000;0.000000;-1.000000;,
  0.000000;0.000000;-1.000000;,
  0.000000;0.000000;-1.000000;,
  0.000000;0.000000;-1.000000;,
  0.000000;0.000000;-1.000000;,
  0.000000;0.000000;-1.000000;,
  0.000000;0.000000;-1.000000;,
  1.000000;0.000000;0.000000;,
  1.000000;0.000000;0.000000;,
  -1.000000;0.000000;0.000000;,
  -1.000000;0.000000;0.000000;,
  1.000000;0.000000;0.000000;,
  1.000000;0.000000;0.000000;,
  -1.000000;0.000000;0.000000;,
  -1.000000;0.000000;0.000000;,
  1.000000;0.000000;0.000000;,
  1.000000;0.000000;0.000000;,
  -1.000000;0.000000;0.000000;,
  -1.000000;0.000000;0.000000;,
  1.000000;0.000000;0.000000;,
  1.000000;0.000000;0.000000;,
  -1.000000;0.000000;0.000000;,
  -1.000000;0.000000;0.000000;,
  -0.120331;-0.992734;0.000000;,
  -0.120331;-0.992734;0.000000;,
  0.259894;-0.965637;0.000000;,
  0.259894;-0.965637;0.000000;,
  -0.259894;-0.965637;0.000000;,
  -0.259894;-0.965637;0.000000;,
  0.120331;-0.992734;0.000000;,
  0.120331;-0.992734;0.000000;,
  -1.000000;0.000000;0.000000;,
  -1.000000;0.000000;0.000000;,
  1.000000;0.000000;0.000000;,
  1.000000;0.000000;0.000000;,
  -1.000000;0.000000;0.000000;,
  -1.000000;0.000000;0.000000;,
  0.000000;0.000000;-1.000000;,
  0.000000;0.000000;-1.000000;,
  1.000000;0.000000;0.000000;,
  1.000000;0.000000;0.000000;,
  1.000000;0.000000;0.000000;,
  1.000000;0.000000;0.000000;,
  -1.000000;0.000000;0.000000;,
  -1.000000;0.000000;0.000000;,
  0.000000;0.000000;-1.000000;,
  0.000000;0.000000;-1.000000;,
  0.000000;0.000000;1.000000;,
  0.000000;0.000000;1.000000;,
  0.000000;0.000000;-1.000000;,
  0.000000;0.000000;-1.000000;,
  -1.000000;0.000000;0.000000;,
  -1.000000;0.000000;0.000000;,
  1.000000;0.000000;0.000000;,
  1.000000;0.000000;0.000000;,
  0.000000;0.970142;-0.242536;,
  0.000000;0.970142;-0.242536;,
  0.000000;0.000000;-1.000000;,
  0.000000;0.000000;-1.000000;,
  -1.000000;0.000000;0.000000;,
  -1.000000;0.000000;0.000000;,
  1.000000;0.000000;0.000000;,
  1.000000;0.000000;0.000000;,
  0.000000;0.970143;0.242535;,
  0.000000;0.970143;0.242535;,
  0.000000;1.000000;0.000000;,
  0.000000;1.000000;0.000000;,
  -1.000000;0.000000;0.000000;,
  -1.000000;0.000000;0.000000;,
  0.000000;1.000000;0.000000;,
  0.000000;1.000000;0.000000;;
  100;
  3;0,0,0;,
  3;1,1,1;,
  3;2,2,2;,
  3;3,3,3;,
  3;4,4,4;,
  3;5,5,5;,
  3;6,6,6;,
  3;7,7,7;,
  3;8,8,8;,
  3;9,9,9;,
  3;10,10,10;,
  3;11,11,11;,
  3;12,12,12;,
  3;13,13,13;,
  3;14,14,14;,
  3;15,15,15;,
  3;16,16,16;,
  3;17,17,17;,
  3;18,18,18;,
  3;19,19,19;,
  3;20,20,20;,
  3;21,21,21;,
  3;22,22,22;,
  3;23,23,23;,
  3;24,24,24;,
  3;25,25,25;,
  3;26,26,26;,
  3;27,27,27;,
  3;28,28,28;,
  3;29,29,29;,
  3;30,30,30;,
  3;31,31,31;,
  3;32,32,32;,
  3;33,33,33;,
  3;34,34,34;,
  3;35,35,35;,
  3;36,36,36;,
  3;37,37,37;,
  3;38,38,38;,
  3;39,39,39;,
  3;40,40,40;,
  3;41,41,41;,
  3;42,42,42;,
  3;43,43,43;,
  3;44,44,44;,
  3;45,45,45;,
  3;46,46,46;,
  3;47,47,47;,
  3;48,48,48;,
  3;49,49,49;,
  3;50,50,50;,
  3;51,51,51;,
  3;52,52,52;,
  3;53,53,53;,
  3;54,54,54;,
  3;55,55,55;,
  3;56,56,56;,
  3;57,57,57;,
  3;58,58,58;,
  3;59,59,59;,
  3;60,60,60;,
  3;61,61,61;,
  3;62,62,62;,
  3;63,63,63;,
  3;64,64,64;,
  3;65,65,65;,
  3;66,66,66;,
  3;67,67,67;,
  3;68,68,68;,
  3;69,69,69;,
  3;70,70,70;,
  3;71,71,71;,
  3;72,72,72;,
  3;73,73,73;,
  3;74,74,74;,
  3;75,75,75;,
  3;76,76,76;,
  3;77,77,77;,
  3;78,78,78;,
  3;79,79,79;,
  3;80,80,80;,
  3;81,81,81;,
  3;82,82,82;,
  3;83,83,83;,
  3;84,84,84;,
  3;85,85,85;,
  3;86,86,86;,
  3;87,87,87;,
  3;88,88,88;,
  3;89,89,89;,
  3;90,90,90;,
  3;91,91,91;,
  3;92,92,92;,
  3;93,93,93;,
  3;94,94,94;,
  3;95,95,95;,
  3;96,96,96;,
  3;97,97,97;,
  3;98,98,98;,
  3;99,99,99;;
 }
}