xof 0303txt 0032
template Vector {
 <3d82ab5e-62da-11cf-ab39-0020af71e433>
 FLOAT x;
 FLOAT y;
 FLOAT z;
}

template MeshFace {
 <3d82ab5f-62da-11cf-ab39-0020af71e433>
 DWORD nFaceVertexIndices;
 array DWORD faceVertexIndices[nFaceVertexIndices];
}

template Mesh {
 <3d82ab44-62da-11cf-ab39-0020af71e433>
 DWORD nVertices;
 array Vector vertices[nVertices];
 DWORD nFaces;
 array MeshFace faces[nFaces];
 [...]
}

template ColorRGBA {
 <35ff44e0-6c7c-11cf-8f52-0040333594a3>
 FLOAT red;
 FLOAT green;
 FLOAT blue;
 FLOAT alpha;
}

template ColorRGB {
 <d3e16e81-7835-11cf-8f52-0040333594a3>
 FLOAT red;
 FLOAT green;
 FLOAT blue;
}

template Material {
 <3d82ab4d-62da-11cf-ab39-0020af71e433>
 ColorRGBA faceColor;
 FLOAT power;
 ColorRGB specularColor;
 ColorRGB emissiveColor;
 [...]
}

template MeshMaterialList {
 <f6f23f42-7686-11cf-8f52-0040333594a3>
 DWORD nMaterials;
 DWORD nFaceIndexes;
 array DWORD faceIndexes[nFaceIndexes];
 [Material <3d82ab4d-62da-11cf-ab39-0020af71e433>]
}

template TextureFilename {
 <a42790e1-7810-11cf-8f52-0040333594a3>
 STRING filename;
}

template Coords2d {
 <f6f23f44-7686-11cf-8f52-0040333594a3>
 FLOAT u;
 FLOAT v;
}

template MeshTextureCoords {
 <f6f23f40-7686-11cf-8f52-0040333594a3>
 DWORD nTextureCoords;
 array Coords2d textureCoords[nTextureCoords];
}

template MeshNormals {
 <f6f23f43-7686-11cf-8f52-0040333594a3>
 DWORD nNormals;
 array Vector normals[nNormals];
 DWORD nFaceNormals;
 array MeshFace faceNormals[nFaceNormals];
}


Mesh  {
 19;
 2.100000;-0.330000;0.000000;,
 2.700000;-0.330000;0.000000;,
 2.700000;1.500000;0.000000;,
 2.800000;1.500000;0.000000;,
 2.900000;0.800000;0.000000;,
 2.900000;-1.000000;0.000000;,
 2.100000;-0.330000;25.299999;,
 2.700000;-0.330000;25.299999;,
 2.700000;1.500000;25.299999;,
 2.800000;1.500000;25.299999;,
 2.900000;0.800000;25.299999;,
 2.900000;-1.000000;25.299999;,
 2.100000;-1.000000;0.000000;,
 2.100000;-0.330000;0.000000;,
 2.700000;-0.330000;0.000000;,
 2.700000;1.500000;0.000000;,
 2.800000;1.500000;0.000000;,
 2.900000;0.800000;0.000000;,
 2.900000;-1.000000;0.000000;;
 15;
 3;6,7,1;,
 3;6,1,0;,
 3;7,8,2;,
 3;7,2,1;,
 3;8,9,3;,
 3;8,3,2;,
 3;9,10,4;,
 3;9,4,3;,
 3;10,11,5;,
 3;10,5,4;,
 3;14,15,16;,
 3;14,16,17;,
 3;14,17,18;,
 3;14,18,12;,
 3;14,12,13;;

 MeshMaterialList  {
  2;
  15;
  0,
  0,
  0,
  0,
  0,
  0,
  0,
  0,
  0,
  0,
  1,
  1,
  1,
  1,
  1;

  Material  {
   1.000000;1.000000;1.000000;1.000000;;
   0.000000;
   0.000000;0.000000;0.000000;;
   0.000000;0.000000;0.000000;;

   TextureFilename  {
    "Wall2.png";
   }
  }

  Material  {
   1.000000;1.000000;1.000000;1.000000;;
   0.000000;
   0.000000;0.000000;0.000000;;
   0.000000;0.000000;0.000000;;

   TextureFilename  {
    "Wall2.png";
   }
  }
 }

 MeshTextureCoords  {
  19;
  0.000000;0.000000;,
  0.000000;0.000000;,
  0.000000;0.484375;,
  0.000000;0.515625;,
  0.000000;0.679688;,
  0.000000;1.000000;,
  20.000000;0.000000;,
  20.000000;0.000000;,
  20.000000;0.484375;,
  20.000000;0.515625;,
  20.000000;0.679688;,
  20.000000;1.000000;,
  0.000000;0.000000;,
  0.000000;0.000000;,
  0.000000;0.000000;,
  0.000000;0.000000;,
  0.000000;0.000000;,
  0.000000;0.000000;,
  0.000000;0.000000;;
 }

 MeshNormals  {
  15;
  0.000000;1.000000;0.000000;,
  0.000000;1.000000;0.000000;,
  -1.000000;0.000000;0.000000;,
  -1.000000;0.000000;0.000000;,
  0.000000;1.000000;0.000000;,
  0.000000;1.000000;0.000000;,
  0.989949;0.141422;0.000000;,
  0.989949;0.141422;0.000000;,
  1.000000;0.000000;0.000000;,
  1.000000;0.000000;0.000000;,
  0.000000;0.000000;-1.000000;,
  0.000000;0.000000;-1.000000;,
  0.000000;0.000000;-1.000000;,
  0.000000;0.000000;-1.000000;,
  0.000000;0.000000;-1.000000;;
  15;
  3;0,0,0;,
  3;1,1,1;,
  3;2,2,2;,
  3;3,3,3;,
  3;4,4,4;,
  3;5,5,5;,
  3;6,6,6;,
  3;7,7,7;,
  3;8,8,8;,
  3;9,9,9;,
  3;10,10,10;,
  3;11,11,11;,
  3;12,12,12;,
  3;13,13,13;,
  3;14,14,14;;
 }
}