xof 0303txt 0032
Material __Color_008_ {
0.1176;0.1176;0.1176;1.0000;;
5.0000;
0.0118;0.0118;0.0118;;	
0.0235;0.0235;0.0235;;	
}
Material __Color_002_ {
0.7765;0.7765;0.7765;1.0000;;
5.0000;
0.0776;0.0776;0.0776;;	
0.1553;0.1553;0.1553;;	
}
Material Default_Material { 
1.0000;1.0000;1.0000;1.0;;
5.0;
0.1;0.1;0.1;;
0.2;0.2;0.2;;
} 
Mesh mesh_0{
10;
-0.1433;0.1477;0.1131;,
0.0996;-0.5709;-0.0000;,
-0.0118;-0.5907;0.1131;,
-0.0319;0.1675;-0.0000;,
-0.1433;0.1477;-0.1131;,
-0.0118;-0.5907;-0.1131;,
-0.3011;1.0337;0.1131;,
-0.1898;1.0536;-0.0000;,
-0.3011;1.0337;-0.1131;,
-0.3274;1.1814;-0.0000;;
16;
3;2,1,0,
3;3,0,1,
3;5,4,1,
3;3,1,4,
3;5,2,4,
3;0,4,2,
3;0,4,3,
3;0,3,6,
3;7,6,3,
3;4,8,3,
3;7,3,8,
3;7,8,9,
3;4,0,8,
3;9,8,0,
3;6,9,0,
3;6,7,9;;
  MeshMaterialList {
3;
16;
0,
0,
0,
0,
0,
0,
2,
1,
1,
1,
1,
1,
1,
1,
1,
1;
{ __Color_008_ }
{ __Color_002_ }
{ Default_Material }
  }
  MeshTextureCoords {
10;
0.0000,0.0000;
0.0000,0.0000;
0.0000,0.0000;
0.0000,0.0000;
0.0000,0.0000;
0.0000,0.0000;
0.0000,0.0000;
0.0000,0.0000;
0.0000,0.0000;
0.0000,0.0000;
  }
  MeshNormals {
6;
0.6961;0.1240;0.7071;,
0.6961;0.1240;-0.7071;,
-0.9845;-0.1754;0.0000;,
0.1754;-0.9845;-0.0000;,
0.5317;0.5727;-0.6239;,
0.5317;0.5727;0.6239;;
16;
3;0,0,0;
3;0,0,0;
3;1,1,1;
3;1,1,1;
3;2,2,2;
3;2,2,2;
3;3,3,3;
3;0,0,0;
3;0,0,0;
3;1,1,1;
3;1,1,1;
3;4,4,4;
3;2,2,2;
3;2,2,2;
3;2,2,2;
3;5,5,5;;
  }
}
