xof 0303txt 0032
Material __Color_008_ {
0.1176;0.1176;0.1176;1.0000;;
5.0000;
0.0118;0.0118;0.0118;;	
0.0235;0.0235;0.0235;;	
}
Material __Color_002_ {
0.7765;0.7765;0.7765;1.0000;;
5.0000;
0.0776;0.0776;0.0776;;	
0.1553;0.1553;0.1553;;	
}
Material _half_half_png {
1.0000;1.0000;1.0000;  1.0000;;
5.0000;
0.1000;0.1000;0.1000;;	
0.2000;0.2000;0.2000;;	
   TextureFilename { "half.dds"; }
}
Mesh mesh_0{
18;
-0.1305;0.1293;0.1061;,
0.1042;-0.5909;0.0000;,
-0.0003;-0.6093;0.1061;,
-0.0260;0.1477;0.0000;,
-0.1305;0.1293;-0.1061;,
-0.0003;-0.6093;-0.1061;,
-0.2347;0.7202;0.1061;,
-0.0260;0.1477;0.0000;,
-0.1305;0.1293;0.1061;,
-0.1302;0.7386;0.0000;,
-0.0260;0.1477;0.0000;,
-0.2347;0.7202;-0.1061;,
-0.1305;0.1293;-0.1061;,
-0.1302;0.7386;0.0000;,
-0.2607;0.8679;-0.0000;,
-0.2347;0.7202;-0.1061;,
-0.2347;0.7202;0.1061;,
-0.1302;0.7386;0.0000;;
15;
3;2,1,0,
3;3,0,1,
3;5,4,1,
3;3,1,4,
3;8,7,6,
3;9,6,7,
3;4,5,0,
3;2,0,5,
3;12,11,10,
3;13,10,11,
3;15,4,14,
3;0,14,4,
3;16,14,0,
3;17,15,14,
3;16,17,14;;
  MeshMaterialList {
3;
15;
0,
0,
0,
0,
2,
2,
0,
0,
2,
2,
1,
1,
1,
1,
1;
{ __Color_008_ }
{ __Color_002_ }
{ _half_half_png }
  }
  MeshTextureCoords {
18;
0.0000,0.0000;
0.0000,0.0000;
0.0000,0.0000;
0.0000,0.0000;
0.0000,0.0000;
0.0000,0.0000;
-0.2734,-0.6417;
-0.7345,0.2563;
-0.2848,0.2577;
-0.7231,-0.6431;
-0.2603,0.2484;
-0.7281,-0.6422;
-0.7069,0.2511;
-0.2814,-0.6448;
0.0000,0.0000;
0.0000,0.0000;
0.0000,0.0000;
0.0000,0.0000;
  }
  MeshNormals {
5;
0.6964;0.1228;0.7071;,
0.6964;0.1228;-0.7071;,
-0.9848;-0.1736;-0.0000;,
0.5452;0.5502;-0.6325;,
0.5452;0.5502;0.6325;;
15;
3;0,0,0;
3;0,0,0;
3;1,1,1;
3;1,1,1;
3;0,0,0;
3;0,0,0;
3;2,2,2;
3;2,2,2;
3;1,1,1;
3;1,1,1;
3;2,2,2;
3;2,2,2;
3;2,2,2;
3;3,3,3;
3;4,4,4;;
  }
}
