xof 0303txt 0032
template Vector {
 <3d82ab5e-62da-11cf-ab39-0020af71e433>
 FLOAT x;
 FLOAT y;
 FLOAT z;
}

template MeshFace {
 <3d82ab5f-62da-11cf-ab39-0020af71e433>
 DWORD nFaceVertexIndices;
 array DWORD faceVertexIndices[nFaceVertexIndices];
}

template Mesh {
 <3d82ab44-62da-11cf-ab39-0020af71e433>
 DWORD nVertices;
 array Vector vertices[nVertices];
 DWORD nFaces;
 array MeshFace faces[nFaces];
 [...]
}

template ColorRGBA {
 <35ff44e0-6c7c-11cf-8f52-0040333594a3>
 FLOAT red;
 FLOAT green;
 FLOAT blue;
 FLOAT alpha;
}

template ColorRGB {
 <d3e16e81-7835-11cf-8f52-0040333594a3>
 FLOAT red;
 FLOAT green;
 FLOAT blue;
}

template Material {
 <3d82ab4d-62da-11cf-ab39-0020af71e433>
 ColorRGBA faceColor;
 FLOAT power;
 ColorRGB specularColor;
 ColorRGB emissiveColor;
 [...]
}

template MeshMaterialList {
 <f6f23f42-7686-11cf-8f52-0040333594a3>
 DWORD nMaterials;
 DWORD nFaceIndexes;
 array DWORD faceIndexes[nFaceIndexes];
 [Material <3d82ab4d-62da-11cf-ab39-0020af71e433>]
}

template TextureFilename {
 <a42790e1-7810-11cf-8f52-0040333594a3>
 STRING filename;
}

template Coords2d {
 <f6f23f44-7686-11cf-8f52-0040333594a3>
 FLOAT u;
 FLOAT v;
}

template MeshTextureCoords {
 <f6f23f40-7686-11cf-8f52-0040333594a3>
 DWORD nTextureCoords;
 array Coords2d textureCoords[nTextureCoords];
}

template MeshNormals {
 <f6f23f43-7686-11cf-8f52-0040333594a3>
 DWORD nNormals;
 array Vector normals[nNormals];
 DWORD nFaceNormals;
 array MeshFace faceNormals[nFaceNormals];
}


Mesh  {
 44;
 160.000000;0.000000;40.000000;,
 120.000000;0.000000;-10.000000;,
 120.000000;7.000000;0.000000;,
 120.000000;12.000000;10.000000;,
 120.000000;16.000000;20.000000;,
 120.000000;19.000000;30.000000;,
 120.000000;21.000000;40.000000;,
 80.000000;0.000000;-25.000000;,
 80.000000;11.000000;-12.000000;,
 80.000000;20.000000;1.000000;,
 80.000000;27.000000;14.000000;,
 80.000000;32.000000;27.000000;,
 80.000000;34.000000;40.000000;,
 40.000000;0.000000;-30.000000;,
 40.000000;12.000000;-16.000000;,
 40.000000;22.000000;-2.000000;,
 40.000000;30.000000;12.000000;,
 40.000000;35.000000;26.000000;,
 40.000000;37.000000;40.000000;,
 0.000000;0.000000;-32.500000;,
 0.000000;14.000000;-18.000000;,
 0.000000;26.000000;-3.500000;,
 0.000000;34.000000;11.000000;,
 0.000000;38.000000;25.500000;,
 0.000000;40.000000;40.000000;,
 -10.000000;0.000000;-30.000000;,
 -10.000000;12.000000;-16.000000;,
 -10.000000;22.000000;-2.000000;,
 -10.000000;30.000000;12.000000;,
 -10.000000;35.000000;26.000000;,
 -10.000000;37.000000;40.000000;,
 -20.000000;0.000000;-25.000000;,
 -20.000000;11.000000;-12.000000;,
 -20.000000;20.000000;1.000000;,
 -20.000000;27.000000;14.000000;,
 -20.000000;32.000000;27.000000;,
 -20.000000;34.000000;40.000000;,
 -30.000000;0.000000;-20.000000;,
 -30.000000;7.000000;-10.000000;,
 -30.000000;12.000000;0.000000;,
 -30.000000;16.000000;10.000000;,
 -30.000000;19.000000;20.000000;,
 -30.000000;21.000000;40.000000;,
 -40.000000;0.000000;40.000000;;
 70;
 3;1,2,0;,
 3;2,3,0;,
 3;3,4,0;,
 3;4,5,0;,
 3;5,6,0;,
 3;7,8,2;,
 3;7,2,1;,
 3;8,9,3;,
 3;8,3,2;,
 3;9,10,4;,
 3;9,4,3;,
 3;10,11,5;,
 3;10,5,4;,
 3;11,12,6;,
 3;11,6,5;,
 3;13,14,8;,
 3;13,8,7;,
 3;14,15,9;,
 3;14,9,8;,
 3;15,16,10;,
 3;15,10,9;,
 3;16,17,11;,
 3;16,11,10;,
 3;17,18,12;,
 3;17,12,11;,
 3;19,20,14;,
 3;19,14,13;,
 3;20,21,15;,
 3;20,15,14;,
 3;21,22,16;,
 3;21,16,15;,
 3;22,23,17;,
 3;22,17,16;,
 3;23,24,18;,
 3;23,18,17;,
 3;25,26,20;,
 3;25,20,19;,
 3;26,27,21;,
 3;26,21,20;,
 3;27,28,22;,
 3;27,22,21;,
 3;28,29,23;,
 3;28,23,22;,
 3;29,30,24;,
 3;29,24,23;,
 3;31,32,26;,
 3;31,26,25;,
 3;32,33,27;,
 3;32,27,26;,
 3;33,34,28;,
 3;33,28,27;,
 3;34,35,29;,
 3;34,29,28;,
 3;35,36,30;,
 3;35,30,29;,
 3;37,38,32;,
 3;37,32,31;,
 3;38,39,33;,
 3;38,33,32;,
 3;39,40,34;,
 3;39,34,33;,
 3;40,41,35;,
 3;40,35,34;,
 3;41,42,36;,
 3;41,36,35;,
 3;43,38,37;,
 3;43,39,38;,
 3;43,40,39;,
 3;43,41,40;,
 3;43,42,41;;

 MeshMaterialList  {
  1;
  70;
  0,
  0,
  0,
  0,
  0,
  0,
  0,
  0,
  0,
  0,
  0,
  0,
  0,
  0,
  0,
  0,
  0,
  0,
  0,
  0,
  0,
  0,
  0,
  0,
  0,
  0,
  0,
  0,
  0,
  0,
  0,
  0,
  0,
  0,
  0,
  0,
  0,
  0,
  0,
  0,
  0,
  0,
  0,
  0,
  0,
  0,
  0,
  0,
  0,
  0,
  0,
  0,
  0,
  0,
  0,
  0,
  0,
  0,
  0,
  0,
  0,
  0,
  0,
  0,
  0,
  0,
  0,
  0,
  0,
  0;

  Material  {
   1.000000;1.000000;1.000000;1.000000;;
   0.000000;
   0.000000;0.000000;0.000000;;
   0.000000;0.000000;0.000000;;

   TextureFilename  {
    "Forest.png";
   }
  }
 }

 MeshTextureCoords  {
  44;
  0.000000;1.000000;,
  0.500000;1.000000;,
  0.500000;0.800000;,
  0.500000;0.600000;,
  0.500000;0.400000;,
  0.500000;0.200000;,
  0.500000;0.000000;,
  1.000000;1.000000;,
  1.000000;0.800000;,
  1.000000;0.600000;,
  1.000000;0.400000;,
  1.000000;0.200000;,
  1.000000;0.000000;,
  1.500000;1.000000;,
  1.500000;0.800000;,
  1.500000;0.600000;,
  1.500000;0.400000;,
  1.500000;0.200000;,
  1.500000;0.000000;,
  2.000000;1.000000;,
  2.000000;0.800000;,
  2.000000;0.600000;,
  2.000000;0.400000;,
  2.000000;0.200000;,
  2.000000;0.000000;,
  2.500000;1.000000;,
  2.500000;0.800000;,
  2.500000;0.600000;,
  2.500000;0.400000;,
  2.500000;0.200000;,
  2.500000;0.000000;,
  3.000000;1.000000;,
  3.000000;0.800000;,
  3.000000;0.600000;,
  3.000000;0.400000;,
  3.000000;0.200000;,
  3.000000;0.000000;,
  3.500000;1.000000;,
  3.500000;0.800000;,
  3.500000;0.600000;,
  3.500000;0.400000;,
  3.500000;0.200000;,
  3.500000;0.000000;,
  4.000000;1.000000;;
 }

 MeshNormals  {
  70;
  0.582606;0.665835;-0.466084;,
  0.516847;0.765699;-0.382850;,
  0.486664;0.811107;-0.324443;,
  0.466085;0.847427;-0.254228;,
  0.457713;0.871834;-0.174367;,
  0.260775;0.736973;-0.623592;,
  0.210242;0.800922;-0.560645;,
  0.280746;0.789125;-0.546317;,
  0.218218;0.872872;-0.436436;,
  0.298922;0.840214;-0.452423;,
  0.259998;0.896546;-0.358618;,
  0.313601;0.886263;-0.340870;,
  0.293048;0.915776;-0.274733;,
  0.305830;0.941015;-0.144772;,
  0.316282;0.930243;-0.186049;,
  0.083765;0.756588;-0.648504;,
  0.080481;0.760910;-0.643847;,
  0.083982;0.810859;-0.579185;,
  0.077244;0.819736;-0.567509;,
  0.089564;0.864754;-0.494145;,
  0.079330;0.877696;-0.472606;,
  0.078793;0.938814;-0.335291;,
  0.087612;0.929757;-0.357599;,
  0.074042;0.987232;-0.141033;,
  0.077694;0.985384;-0.151598;,
  0.070524;0.717610;-0.692865;,
  0.040641;0.758629;-0.650254;,
  0.100438;0.766499;-0.634344;,
  0.069580;0.811761;-0.579830;,
  0.099144;0.871264;-0.480697;,
  0.104848;0.863457;-0.493404;,
  0.075408;0.961248;-0.265172;,
  0.102047;0.936826;-0.334581;,
  0.074092;0.987898;-0.136262;,
  0.075795;0.987102;-0.141015;,
  -0.271423;0.730754;-0.626361;,
  -0.171088;0.708794;-0.684353;,
  -0.381472;0.752199;-0.537285;,
  -0.271051;0.741555;-0.613700;,
  -0.368914;0.807000;-0.461143;,
  -0.389340;0.806490;-0.444960;,
  -0.286767;0.902189;-0.322210;,
  -0.381086;0.891249;-0.245862;,
  -0.284695;0.948983;-0.135569;,
  -0.290873;0.947788;-0.130729;,
  -0.317407;0.723911;-0.612540;,
  -0.309426;0.721995;-0.618853;,
  -0.317821;0.779562;-0.539697;,
  -0.299464;0.776389;-0.554564;,
  -0.337854;0.828698;-0.446222;,
  -0.306925;0.826336;-0.472192;,
  -0.301229;0.889994;-0.342305;,
  -0.330174;0.888929;-0.317475;,
  -0.284278;0.947593;-0.145784;,
  -0.297080;0.945256;-0.135037;,
  -0.404565;0.749195;-0.524437;,
  -0.307339;0.726438;-0.614679;,
  -0.557086;0.742781;-0.371391;,
  -0.404820;0.751809;-0.520483;,
  -0.657552;0.699523;-0.279809;,
  -0.549075;0.735874;-0.396240;,
  -0.722171;0.662542;-0.198763;,
  -0.661932;0.699602;-0.269078;,
  -0.791155;0.608581;-0.060858;,
  -0.762474;0.639495;-0.098384;,
  -0.960267;0.228635;-0.160044;,
  -0.944039;0.295012;-0.147506;,
  -0.933333;0.333333;-0.133333;,
  -0.922767;0.369107;-0.110732;,
  -0.902027;0.429537;-0.042954;;
  70;
  3;0,0,0;,
  3;1,1,1;,
  3;2,2,2;,
  3;3,3,3;,
  3;4,4,4;,
  3;5,5,5;,
  3;6,6,6;,
  3;7,7,7;,
  3;8,8,8;,
  3;9,9,9;,
  3;10,10,10;,
  3;11,11,11;,
  3;12,12,12;,
  3;13,13,13;,
  3;14,14,14;,
  3;15,15,15;,
  3;16,16,16;,
  3;17,17,17;,
  3;18,18,18;,
  3;19,19,19;,
  3;20,20,20;,
  3;21,21,21;,
  3;22,22,22;,
  3;23,23,23;,
  3;24,24,24;,
  3;25,25,25;,
  3;26,26,26;,
  3;27,27,27;,
  3;28,28,28;,
  3;29,29,29;,
  3;30,30,30;,
  3;31,31,31;,
  3;32,32,32;,
  3;33,33,33;,
  3;34,34,34;,
  3;35,35,35;,
  3;36,36,36;,
  3;37,37,37;,
  3;38,38,38;,
  3;39,39,39;,
  3;40,40,40;,
  3;41,41,41;,
  3;42,42,42;,
  3;43,43,43;,
  3;44,44,44;,
  3;45,45,45;,
  3;46,46,46;,
  3;47,47,47;,
  3;48,48,48;,
  3;49,49,49;,
  3;50,50,50;,
  3;51,51,51;,
  3;52,52,52;,
  3;53,53,53;,
  3;54,54,54;,
  3;55,55,55;,
  3;56,56,56;,
  3;57,57,57;,
  3;58,58,58;,
  3;59,59,59;,
  3;60,60,60;,
  3;61,61,61;,
  3;62,62,62;,
  3;63,63,63;,
  3;64,64,64;,
  3;65,65,65;,
  3;66,66,66;,
  3;67,67,67;,
  3;68,68,68;,
  3;69,69,69;;
 }
}