xof 0303txt 0032
template Vector {
 <3d82ab5e-62da-11cf-ab39-0020af71e433>
 FLOAT x;
 FLOAT y;
 FLOAT z;
}

template MeshFace {
 <3d82ab5f-62da-11cf-ab39-0020af71e433>
 DWORD nFaceVertexIndices;
 array DWORD faceVertexIndices[nFaceVertexIndices];
}

template Mesh {
 <3d82ab44-62da-11cf-ab39-0020af71e433>
 DWORD nVertices;
 array Vector vertices[nVertices];
 DWORD nFaces;
 array MeshFace faces[nFaces];
 [...]
}

template ColorRGBA {
 <35ff44e0-6c7c-11cf-8f52-0040333594a3>
 FLOAT red;
 FLOAT green;
 FLOAT blue;
 FLOAT alpha;
}

template ColorRGB {
 <d3e16e81-7835-11cf-8f52-0040333594a3>
 FLOAT red;
 FLOAT green;
 FLOAT blue;
}

template Material {
 <3d82ab4d-62da-11cf-ab39-0020af71e433>
 ColorRGBA faceColor;
 FLOAT power;
 ColorRGB specularColor;
 ColorRGB emissiveColor;
 [...]
}

template MeshMaterialList {
 <f6f23f42-7686-11cf-8f52-0040333594a3>
 DWORD nMaterials;
 DWORD nFaceIndexes;
 array DWORD faceIndexes[nFaceIndexes];
 [Material <3d82ab4d-62da-11cf-ab39-0020af71e433>]
}

template TextureFilename {
 <a42790e1-7810-11cf-8f52-0040333594a3>
 STRING filename;
}

template Coords2d {
 <f6f23f44-7686-11cf-8f52-0040333594a3>
 FLOAT u;
 FLOAT v;
}

template MeshTextureCoords {
 <f6f23f40-7686-11cf-8f52-0040333594a3>
 DWORD nTextureCoords;
 array Coords2d textureCoords[nTextureCoords];
}

template MeshNormals {
 <f6f23f43-7686-11cf-8f52-0040333594a3>
 DWORD nNormals;
 array Vector normals[nNormals];
 DWORD nFaceNormals;
 array MeshFace faceNormals[nFaceNormals];
}


Mesh  {
 44;
 -160.000000;0.000000;40.000000;,
 -120.000000;0.000000;-10.000000;,
 -120.000000;7.000000;0.000000;,
 -120.000000;12.000000;10.000000;,
 -120.000000;16.000000;20.000000;,
 -120.000000;19.000000;30.000000;,
 -120.000000;21.000000;40.000000;,
 -80.000000;0.000000;-25.000000;,
 -80.000000;11.000000;-12.000000;,
 -80.000000;20.000000;1.000000;,
 -80.000000;27.000000;14.000000;,
 -80.000000;32.000000;27.000000;,
 -80.000000;34.000000;40.000000;,
 -40.000000;0.000000;-30.000000;,
 -40.000000;12.000000;-16.000000;,
 -40.000000;22.000000;-2.000000;,
 -40.000000;30.000000;12.000000;,
 -40.000000;35.000000;26.000000;,
 -40.000000;37.000000;40.000000;,
 0.000000;0.000000;-32.500000;,
 0.000000;14.000000;-18.000000;,
 0.000000;26.000000;-3.500000;,
 0.000000;34.000000;11.000000;,
 0.000000;38.000000;25.500000;,
 0.000000;40.000000;40.000000;,
 10.000000;0.000000;-30.000000;,
 10.000000;12.000000;-16.000000;,
 10.000000;22.000000;-2.000000;,
 10.000000;30.000000;12.000000;,
 10.000000;35.000000;26.000000;,
 10.000000;37.000000;40.000000;,
 20.000000;0.000000;-25.000000;,
 20.000000;11.000000;-12.000000;,
 20.000000;20.000000;1.000000;,
 20.000000;27.000000;14.000000;,
 20.000000;32.000000;27.000000;,
 20.000000;34.000000;40.000000;,
 30.000000;0.000000;-20.000000;,
 30.000000;7.000000;-10.000000;,
 30.000000;12.000000;0.000000;,
 30.000000;16.000000;10.000000;,
 30.000000;19.000000;20.000000;,
 30.000000;21.000000;40.000000;,
 40.000000;0.000000;40.000000;;
 70;
 3;0,2,1;,
 3;0,3,2;,
 3;0,4,3;,
 3;0,5,4;,
 3;0,6,5;,
 3;1,2,8;,
 3;1,8,7;,
 3;2,3,9;,
 3;2,9,8;,
 3;3,4,10;,
 3;3,10,9;,
 3;4,5,11;,
 3;4,11,10;,
 3;5,6,12;,
 3;5,12,11;,
 3;7,8,14;,
 3;7,14,13;,
 3;8,9,15;,
 3;8,15,14;,
 3;9,10,16;,
 3;9,16,15;,
 3;10,11,17;,
 3;10,17,16;,
 3;11,12,18;,
 3;11,18,17;,
 3;13,14,20;,
 3;13,20,19;,
 3;14,15,21;,
 3;14,21,20;,
 3;15,16,22;,
 3;15,22,21;,
 3;16,17,23;,
 3;16,23,22;,
 3;17,18,24;,
 3;17,24,23;,
 3;19,20,26;,
 3;19,26,25;,
 3;20,21,27;,
 3;20,27,26;,
 3;21,22,28;,
 3;21,28,27;,
 3;22,23,29;,
 3;22,29,28;,
 3;23,24,30;,
 3;23,30,29;,
 3;25,26,32;,
 3;25,32,31;,
 3;26,27,33;,
 3;26,33,32;,
 3;27,28,34;,
 3;27,34,33;,
 3;28,29,35;,
 3;28,35,34;,
 3;29,30,36;,
 3;29,36,35;,
 3;31,32,38;,
 3;31,38,37;,
 3;32,33,39;,
 3;32,39,38;,
 3;33,34,40;,
 3;33,40,39;,
 3;34,35,41;,
 3;34,41,40;,
 3;35,36,42;,
 3;35,42,41;,
 3;37,38,43;,
 3;38,39,43;,
 3;39,40,43;,
 3;40,41,43;,
 3;41,42,43;;

 MeshMaterialList  {
  1;
  70;
  0,
  0,
  0,
  0,
  0,
  0,
  0,
  0,
  0,
  0,
  0,
  0,
  0,
  0,
  0,
  0,
  0,
  0,
  0,
  0,
  0,
  0,
  0,
  0,
  0,
  0,
  0,
  0,
  0,
  0,
  0,
  0,
  0,
  0,
  0,
  0,
  0,
  0,
  0,
  0,
  0,
  0,
  0,
  0,
  0,
  0,
  0,
  0,
  0,
  0,
  0,
  0,
  0,
  0,
  0,
  0,
  0,
  0,
  0,
  0,
  0,
  0,
  0,
  0,
  0,
  0,
  0,
  0,
  0,
  0;

  Material  {
   1.000000;1.000000;1.000000;1.000000;;
   0.000000;
   0.000000;0.000000;0.000000;;
   0.000000;0.000000;0.000000;;

   TextureFilename  {
    "Forest.png";
   }
  }
 }

 MeshTextureCoords  {
  44;
  0.000000;1.000000;,
  0.500000;1.000000;,
  0.500000;0.800000;,
  0.500000;0.600000;,
  0.500000;0.400000;,
  0.500000;0.200000;,
  0.500000;0.000000;,
  1.000000;1.000000;,
  1.000000;0.800000;,
  1.000000;0.600000;,
  1.000000;0.400000;,
  1.000000;0.200000;,
  1.000000;0.000000;,
  1.500000;1.000000;,
  1.500000;0.800000;,
  1.500000;0.600000;,
  1.500000;0.400000;,
  1.500000;0.200000;,
  1.500000;0.000000;,
  2.000000;1.000000;,
  2.000000;0.800000;,
  2.000000;0.600000;,
  2.000000;0.400000;,
  2.000000;0.200000;,
  2.000000;0.000000;,
  2.500000;1.000000;,
  2.500000;0.800000;,
  2.500000;0.600000;,
  2.500000;0.400000;,
  2.500000;0.200000;,
  2.500000;0.000000;,
  3.000000;1.000000;,
  3.000000;0.800000;,
  3.000000;0.600000;,
  3.000000;0.400000;,
  3.000000;0.200000;,
  3.000000;0.000000;,
  3.500000;1.000000;,
  3.500000;0.800000;,
  3.500000;0.600000;,
  3.500000;0.400000;,
  3.500000;0.200000;,
  3.500000;0.000000;,
  4.000000;1.000000;;
 }

 MeshNormals  {
  70;
  -0.582606;0.665835;-0.466084;,
  -0.516847;0.765699;-0.382850;,
  -0.486664;0.811107;-0.324443;,
  -0.466085;0.847427;-0.254228;,
  -0.457713;0.871834;-0.174367;,
  -0.246148;0.794026;-0.555818;,
  -0.235420;0.741930;-0.627787;,
  -0.269191;0.861411;-0.430705;,
  -0.245256;0.797081;-0.551825;,
  -0.297004;0.886580;-0.354632;,
  -0.272098;0.847251;-0.456212;,
  -0.315810;0.908807;-0.272642;,
  -0.296549;0.891361;-0.342831;,
  -0.303642;0.934284;-0.186857;,
  -0.315623;0.937851;-0.144285;,
  -0.083387;0.760728;-0.643693;,
  -0.081081;0.756757;-0.648649;,
  -0.083508;0.819320;-0.567222;,
  -0.078227;0.811240;-0.579457;,
  -0.089381;0.876947;-0.472202;,
  -0.080362;0.865435;-0.494534;,
  -0.078730;0.930448;-0.357865;,
  -0.087115;0.938162;-0.335058;,
  -0.073925;0.985667;-0.151641;,
  -0.077548;0.986968;-0.140995;,
  -0.070328;0.757377;-0.649180;,
  -0.043371;0.718725;-0.693941;,
  -0.102625;0.809437;-0.578169;,
  -0.070224;0.768492;-0.635994;,
  -0.098743;0.864000;-0.493714;,
  -0.105088;0.870730;-0.480403;,
  -0.074626;0.939116;-0.335399;,
  -0.102505;0.958915;-0.264528;,
  -0.074042;0.987232;-0.141033;,
  -0.075786;0.987772;-0.136244;,
  0.272127;0.692252;-0.668381;,
  0.160586;0.749403;-0.642345;,
  0.374421;0.714355;-0.591190;,
  0.268732;0.783800;-0.559857;,
  0.370220;0.813363;-0.448752;,
  0.388578;0.800013;-0.457150;,
  0.289537;0.922702;-0.254538;,
  0.379615;0.871247;-0.311160;,
  0.284873;0.949575;-0.130976;,
  0.290906;0.947136;-0.135305;,
  0.318708;0.719664;-0.616854;,
  0.307339;0.726438;-0.614679;,
  0.319454;0.771095;-0.550782;,
  0.296014;0.785344;-0.543700;,
  0.338470;0.816997;-0.466855;,
  0.303327;0.838989;-0.451763;,
  0.301449;0.897934;-0.320691;,
  0.331862;0.880451;-0.338635;,
  0.284695;0.948983;-0.135569;,
  0.297594;0.943591;-0.145168;,
  0.398541;0.700140;-0.592426;,
  0.275625;0.787499;-0.551250;,
  0.515021;0.704765;-0.487914;,
  0.408248;0.816497;-0.408248;,
  0.614481;0.694631;-0.374032;,
  0.576552;0.758621;-0.303449;,
  0.693305;0.672610;-0.258696;,
  0.684395;0.698362;-0.209509;,
  0.789160;0.607046;-0.093392;,
  0.774382;0.629579;-0.062958;,
  0.960267;0.228635;-0.160044;,
  0.944039;0.295012;-0.147506;,
  0.933333;0.333333;-0.133333;,
  0.922767;0.369107;-0.110732;,
  0.902027;0.429537;-0.042954;;
  70;
  3;0,0,0;,
  3;1,1,1;,
  3;2,2,2;,
  3;3,3,3;,
  3;4,4,4;,
  3;5,5,5;,
  3;6,6,6;,
  3;7,7,7;,
  3;8,8,8;,
  3;9,9,9;,
  3;10,10,10;,
  3;11,11,11;,
  3;12,12,12;,
  3;13,13,13;,
  3;14,14,14;,
  3;15,15,15;,
  3;16,16,16;,
  3;17,17,17;,
  3;18,18,18;,
  3;19,19,19;,
  3;20,20,20;,
  3;21,21,21;,
  3;22,22,22;,
  3;23,23,23;,
  3;24,24,24;,
  3;25,25,25;,
  3;26,26,26;,
  3;27,27,27;,
  3;28,28,28;,
  3;29,29,29;,
  3;30,30,30;,
  3;31,31,31;,
  3;32,32,32;,
  3;33,33,33;,
  3;34,34,34;,
  3;35,35,35;,
  3;36,36,36;,
  3;37,37,37;,
  3;38,38,38;,
  3;39,39,39;,
  3;40,40,40;,
  3;41,41,41;,
  3;42,42,42;,
  3;43,43,43;,
  3;44,44,44;,
  3;45,45,45;,
  3;46,46,46;,
  3;47,47,47;,
  3;48,48,48;,
  3;49,49,49;,
  3;50,50,50;,
  3;51,51,51;,
  3;52,52,52;,
  3;53,53,53;,
  3;54,54,54;,
  3;55,55,55;,
  3;56,56,56;,
  3;57,57,57;,
  3;58,58,58;,
  3;59,59,59;,
  3;60,60,60;,
  3;61,61,61;,
  3;62,62,62;,
  3;63,63,63;,
  3;64,64,64;,
  3;65,65,65;,
  3;66,66,66;,
  3;67,67,67;,
  3;68,68,68;,
  3;69,69,69;;
 }
}