xof 0303txt 0032
template Vector {
 <3d82ab5e-62da-11cf-ab39-0020af71e433>
 FLOAT x;
 FLOAT y;
 FLOAT z;
}

template MeshFace {
 <3d82ab5f-62da-11cf-ab39-0020af71e433>
 DWORD nFaceVertexIndices;
 array DWORD faceVertexIndices[nFaceVertexIndices];
}

template Mesh {
 <3d82ab44-62da-11cf-ab39-0020af71e433>
 DWORD nVertices;
 array Vector vertices[nVertices];
 DWORD nFaces;
 array MeshFace faces[nFaces];
 [...]
}

template ColorRGBA {
 <35ff44e0-6c7c-11cf-8f52-0040333594a3>
 FLOAT red;
 FLOAT green;
 FLOAT blue;
 FLOAT alpha;
}

template ColorRGB {
 <d3e16e81-7835-11cf-8f52-0040333594a3>
 FLOAT red;
 FLOAT green;
 FLOAT blue;
}

template Material {
 <3d82ab4d-62da-11cf-ab39-0020af71e433>
 ColorRGBA faceColor;
 FLOAT power;
 ColorRGB specularColor;
 ColorRGB emissiveColor;
 [...]
}

template MeshMaterialList {
 <f6f23f42-7686-11cf-8f52-0040333594a3>
 DWORD nMaterials;
 DWORD nFaceIndexes;
 array DWORD faceIndexes[nFaceIndexes];
 [Material <3d82ab4d-62da-11cf-ab39-0020af71e433>]
}

template TextureFilename {
 <a42790e1-7810-11cf-8f52-0040333594a3>
 STRING filename;
}

template Coords2d {
 <f6f23f44-7686-11cf-8f52-0040333594a3>
 FLOAT u;
 FLOAT v;
}

template MeshTextureCoords {
 <f6f23f40-7686-11cf-8f52-0040333594a3>
 DWORD nTextureCoords;
 array Coords2d textureCoords[nTextureCoords];
}

template MeshNormals {
 <f6f23f43-7686-11cf-8f52-0040333594a3>
 DWORD nNormals;
 array Vector normals[nNormals];
 DWORD nFaceNormals;
 array MeshFace faceNormals[nFaceNormals];
}


Mesh  {
 20;
 -450.00000;-2.000000;6.500000;,
 450.00000;-2.000000;6.500000;,
 -450.00000;-2.010000;0.000000;,
 450.00000;-2.010000;0.000000;,
 -450.00000;0.000000;25.000000;,
 -25.000000;0.000000;25.000000;,
 25.000000;0.000000;25.000000;,
 450.00000;0.000000;25.000000;,
 -450.00000;-0.010000;7.000000;,
 -25.000000;-0.010000;7.000000;,
 25.000000;-0.010000;7.000000;,
 450.00000;-0.010000;7.000000;,
 -450.00000;-0.010000;7.000000;,
 -25.000000;-0.010000;7.000000;,
 25.000000;-0.010000;7.000000;,
 450.00000;-0.010000;7.000000;,
 -450.00000;-2.000000;6.500000;,
 -25.000000;-2.000000;6.500000;,
 25.000000;-2.000000;6.500000;,
 450.00000;-2.000000;6.500000;;
 14;
 3;0,1,3;,
 3;0,3,2;,
 3;4,5,9;,
 3;4,9,8;,
 3;5,6,10;,
 3;5,10,9;,
 3;6,7,11;,
 3;6,11,10;,
 3;12,13,17;,
 3;12,17,16;,
 3;13,14,18;,
 3;13,18,17;,
 3;14,15,19;,
 3;14,19,18;;

 MeshMaterialList  {
  3;
  14;
  0,
  0,
  1,
  1,
  1,
  1,
  1,
  1,
  2,
  2,
  2,
  2,
  2,
  2;

  Material  {
   1.000000;1.000000;1.000000;1.000000;;
   0.000000;
   0.000000;0.000000;0.000000;;
   0.000000;0.000000;0.000000;;

   TextureFilename  {
    "River.png";
   }
  }

  Material  {
   1.000000;1.000000;1.000000;1.000000;;
   0.000000;
   0.000000;0.000000;0.000000;;
   0.000000;0.000000;0.000000;;

   TextureFilename  {
    "Grass.png";
   }
  }

  Material  {
   0.686275;0.686275;0.686275;1.000000;;
   0.000000;
   0.000000;0.000000;0.000000;;
   0.000000;0.000000;0.000000;;

   TextureFilename  {
    "Concrete.png";
   }
  }
 }

 MeshTextureCoords  {
  20;
  0.000000;0.250000;,
  1.000000;0.250000;,
  0.000000;0.000000;,
  1.000000;0.000000;,
  0.000000;0.000000;,
  1.000000;0.000000;,
  2.000000;0.000000;,
  3.000000;0.000000;,
  0.000000;0.750000;,
  1.000000;0.750000;,
  2.000000;0.750000;,
  3.000000;0.750000;,
  0.000000;0.000000;,
  1.000000;0.000000;,
  2.000000;0.000000;,
  3.000000;0.000000;,
  0.000000;0.250000;,
  1.000000;0.250000;,
  2.000000;0.250000;,
  3.000000;0.250000;;
 }

 MeshNormals  {
  14;
  0.000000;0.999999;-0.001538;,
  0.000000;0.999999;-0.001538;,
  0.000000;1.000000;-0.000556;,
  0.000000;1.000000;-0.000556;,
  0.000000;1.000000;-0.000556;,
  0.000000;1.000000;-0.000556;,
  0.000000;1.000000;-0.000556;,
  0.000000;1.000000;-0.000556;,
  0.000000;0.243682;-0.969855;,
  0.000000;0.243682;-0.969855;,
  0.000000;0.243682;-0.969855;,
  0.000000;0.243682;-0.969855;,
  0.000000;0.243682;-0.969855;,
  0.000000;0.243682;-0.969855;;
  14;
  3;0,0,0;,
  3;1,1,1;,
  3;2,2,2;,
  3;3,3,3;,
  3;4,4,4;,
  3;5,5,5;,
  3;6,6,6;,
  3;7,7,7;,
  3;8,8,8;,
  3;9,9,9;,
  3;10,10,10;,
  3;11,11,11;,
  3;12,12,12;,
  3;13,13,13;;
 }
}