xof 0303txt 0032
template Vector {
 <3d82ab5e-62da-11cf-ab39-0020af71e433>
 FLOAT x;
 FLOAT y;
 FLOAT z;
}

template MeshFace {
 <3d82ab5f-62da-11cf-ab39-0020af71e433>
 DWORD nFaceVertexIndices;
 array DWORD faceVertexIndices[nFaceVertexIndices];
}

template Mesh {
 <3d82ab44-62da-11cf-ab39-0020af71e433>
 DWORD nVertices;
 array Vector vertices[nVertices];
 DWORD nFaces;
 array MeshFace faces[nFaces];
 [...]
}

template ColorRGBA {
 <35ff44e0-6c7c-11cf-8f52-0040333594a3>
 FLOAT red;
 FLOAT green;
 FLOAT blue;
 FLOAT alpha;
}

template ColorRGB {
 <d3e16e81-7835-11cf-8f52-0040333594a3>
 FLOAT red;
 FLOAT green;
 FLOAT blue;
}

template Material {
 <3d82ab4d-62da-11cf-ab39-0020af71e433>
 ColorRGBA faceColor;
 FLOAT power;
 ColorRGB specularColor;
 ColorRGB emissiveColor;
 [...]
}

template MeshMaterialList {
 <f6f23f42-7686-11cf-8f52-0040333594a3>
 DWORD nMaterials;
 DWORD nFaceIndexes;
 array DWORD faceIndexes[nFaceIndexes];
 [Material <3d82ab4d-62da-11cf-ab39-0020af71e433>]
}

template TextureFilename {
 <a42790e1-7810-11cf-8f52-0040333594a3>
 STRING filename;
}

template Coords2d {
 <f6f23f44-7686-11cf-8f52-0040333594a3>
 FLOAT u;
 FLOAT v;
}

template MeshTextureCoords {
 <f6f23f40-7686-11cf-8f52-0040333594a3>
 DWORD nTextureCoords;
 array Coords2d textureCoords[nTextureCoords];
}

template MeshNormals {
 <f6f23f43-7686-11cf-8f52-0040333594a3>
 DWORD nNormals;
 array Vector normals[nNormals];
 DWORD nFaceNormals;
 array MeshFace faceNormals[nFaceNormals];
}


Mesh  {
 24;
 2.000000;0.000000;-0.500000;,
 2.000000;0.000000;0.500000;,
 3.000000;0.000000;-0.500000;,
 3.000000;0.000000;0.500000;,
 2.000000;7.000000;-0.500000;,
 2.000000;7.000000;0.500000;,
 3.000000;7.000000;-0.500000;,
 3.000000;7.000000;0.500000;,
 19.000000;0.000000;-0.500000;,
 19.000000;0.000000;0.500000;,
 20.000000;0.000000;-0.500000;,
 20.000000;0.000000;0.500000;,
 19.000000;7.000000;-0.500000;,
 19.000000;7.000000;0.500000;,
 20.000000;7.000000;-0.500000;,
 20.000000;7.000000;0.500000;,
 0.000000;6.000000;-0.400000;,
 0.000000;6.000000;0.400000;,
 22.000000;6.000000;-0.400000;,
 22.000000;6.000000;0.400000;,
 0.000000;7.000000;-0.400000;,
 0.000000;7.000000;0.400000;,
 22.000000;7.000000;-0.400000;,
 22.000000;7.000000;0.400000;;
 26;
 3;0,4,6;,
 3;0,6,2;,
 3;2,6,7;,
 3;2,7,3;,
 3;1,3,7;,
 3;1,7,5;,
 3;1,5,4;,
 3;1,4,0;,
 3;8,12,14;,
 3;8,14,10;,
 3;10,14,15;,
 3;10,15,11;,
 3;9,11,15;,
 3;9,15,13;,
 3;9,13,12;,
 3;9,12,8;,
 3;16,20,22;,
 3;16,22,18;,
 3;18,22,23;,
 3;18,23,19;,
 3;17,19,23;,
 3;17,23,21;,
 3;17,21,20;,
 3;17,20,16;,
 3;16,18,19;,
 3;16,19,17;;

 MeshMaterialList  {
  1;
  26;
  0,
  0,
  0,
  0,
  0,
  0,
  0,
  0,
  0,
  0,
  0,
  0,
  0,
  0,
  0,
  0,
  0,
  0,
  0,
  0,
  0,
  0,
  0,
  0,
  0,
  0;

  Material  {
   0.752941;0.752941;0.752941;1.000000;;
   0.000000;
   0.000000;0.000000;0.000000;;
   0.000000;0.000000;0.000000;;

   TextureFilename  {
    "ConL_1.dds";
   }
  }
 }

 MeshTextureCoords  {
  24;
  0.000000;0.000000;,
  1.000000;0.000000;,
  1.000000;0.000000;,
  2.000000;0.000000;,
  0.000000;7.000000;,
  1.000000;7.000000;,
  1.000000;7.000000;,
  2.000000;7.000000;,
  0.000000;0.000000;,
  1.000000;0.000000;,
  1.000000;0.000000;,
  2.000000;0.000000;,
  0.000000;7.000000;,
  1.000000;7.000000;,
  1.000000;7.000000;,
  2.000000;7.000000;,
  0.000000;0.000000;,
  22.000000;0.000000;,
  1.000000;0.000000;,
  23.000000;0.000000;,
  0.000000;1.000000;,
  22.000000;1.000000;,
  1.000000;1.000000;,
  23.000000;1.000000;;
 }

 MeshNormals  {
  26;
  0.000000;0.000000;-1.000000;,
  0.000000;0.000000;-1.000000;,
  1.000000;0.000000;0.000000;,
  1.000000;0.000000;0.000000;,
  0.000000;0.000000;1.000000;,
  0.000000;0.000000;1.000000;,
  -1.000000;0.000000;0.000000;,
  -1.000000;0.000000;0.000000;,
  0.000000;0.000000;-1.000000;,
  0.000000;0.000000;-1.000000;,
  1.000000;0.000000;0.000000;,
  1.000000;0.000000;0.000000;,
  0.000000;0.000000;1.000000;,
  0.000000;0.000000;1.000000;,
  -1.000000;0.000000;0.000000;,
  -1.000000;0.000000;0.000000;,
  0.000000;0.000000;-1.000000;,
  0.000000;0.000000;-1.000000;,
  1.000000;0.000000;0.000000;,
  1.000000;0.000000;0.000000;,
  0.000000;0.000000;1.000000;,
  0.000000;0.000000;1.000000;,
  -1.000000;0.000000;0.000000;,
  -1.000000;0.000000;0.000000;,
  0.000000;-1.000000;0.000000;,
  0.000000;-1.000000;0.000000;;
  26;
  3;0,0,0;,
  3;1,1,1;,
  3;2,2,2;,
  3;3,3,3;,
  3;4,4,4;,
  3;5,5,5;,
  3;6,6,6;,
  3;7,7,7;,
  3;8,8,8;,
  3;9,9,9;,
  3;10,10,10;,
  3;11,11,11;,
  3;12,12,12;,
  3;13,13,13;,
  3;14,14,14;,
  3;15,15,15;,
  3;16,16,16;,
  3;17,17,17;,
  3;18,18,18;,
  3;19,19,19;,
  3;20,20,20;,
  3;21,21,21;,
  3;22,22,22;,
  3;23,23,23;,
  3;24,24,24;,
  3;25,25,25;;
 }
}