xof 0303txt 0032
template Vector {
 <3d82ab5e-62da-11cf-ab39-0020af71e433>
 FLOAT x;
 FLOAT y;
 FLOAT z;
}

template MeshFace {
 <3d82ab5f-62da-11cf-ab39-0020af71e433>
 DWORD nFaceVertexIndices;
 array DWORD faceVertexIndices[nFaceVertexIndices];
}

template Mesh {
 <3d82ab44-62da-11cf-ab39-0020af71e433>
 DWORD nVertices;
 array Vector vertices[nVertices];
 DWORD nFaces;
 array MeshFace faces[nFaces];
 [...]
}

template ColorRGBA {
 <35ff44e0-6c7c-11cf-8f52-0040333594a3>
 FLOAT red;
 FLOAT green;
 FLOAT blue;
 FLOAT alpha;
}

template ColorRGB {
 <d3e16e81-7835-11cf-8f52-0040333594a3>
 FLOAT red;
 FLOAT green;
 FLOAT blue;
}

template Material {
 <3d82ab4d-62da-11cf-ab39-0020af71e433>
 ColorRGBA faceColor;
 FLOAT power;
 ColorRGB specularColor;
 ColorRGB emissiveColor;
 [...]
}

template MeshMaterialList {
 <f6f23f42-7686-11cf-8f52-0040333594a3>
 DWORD nMaterials;
 DWORD nFaceIndexes;
 array DWORD faceIndexes[nFaceIndexes];
 [Material <3d82ab4d-62da-11cf-ab39-0020af71e433>]
}

template TextureFilename {
 <a42790e1-7810-11cf-8f52-0040333594a3>
 STRING filename;
}

template Coords2d {
 <f6f23f44-7686-11cf-8f52-0040333594a3>
 FLOAT u;
 FLOAT v;
}

template MeshTextureCoords {
 <f6f23f40-7686-11cf-8f52-0040333594a3>
 DWORD nTextureCoords;
 array Coords2d textureCoords[nTextureCoords];
}

template MeshNormals {
 <f6f23f43-7686-11cf-8f52-0040333594a3>
 DWORD nNormals;
 array Vector normals[nNormals];
 DWORD nFaceNormals;
 array MeshFace faceNormals[nFaceNormals];
}


Mesh  {
 64;
 2.200000;6.000000;-117.000000;,
 2.200000;6.000000;0.000000;,
 2.800000;6.000000;-117.000000;,
 2.800000;6.000000;0.000000;,
 2.200000;7.000000;-117.000000;,
 2.200000;7.000000;0.000000;,
 2.800000;7.000000;-117.000000;,
 2.800000;7.000000;0.000000;,
 6.200000;6.000000;-117.000000;,
 6.200000;6.000000;0.000000;,
 6.800000;6.000000;-117.000000;,
 6.800000;6.000000;0.000000;,
 6.200000;7.000000;-117.000000;,
 6.200000;7.000000;0.000000;,
 6.800000;7.000000;-117.000000;,
 6.800000;7.000000;0.000000;,
 11.300000;6.000000;-117.000000;,
 11.300000;6.000000;0.000000;,
 10.700000;6.000000;-117.000000;,
 10.700000;6.000000;0.000000;,
 11.300000;7.000000;-117.000000;,
 11.300000;7.000000;0.000000;,
 10.700000;7.000000;-117.000000;,
 10.700000;7.000000;0.000000;,
 15.200000;6.000000;-117.000000;,
 15.200000;6.000000;0.000000;,
 15.800000;6.000000;-117.000000;,
 15.800000;6.000000;0.000000;,
 15.200000;7.000000;-117.000000;,
 15.200000;7.000000;0.000000;,
 15.800000;7.000000;-117.000000;,
 15.800000;7.000000;0.000000;,
 19.200001;6.000000;-117.000000;,
 19.200001;6.000000;0.000000;,
 19.799999;6.000000;-117.000000;,
 19.799999;6.000000;0.000000;,
 19.200001;7.000000;-117.000000;,
 19.200001;7.000000;0.000000;,
 19.799999;7.000000;-117.000000;,
 19.799999;7.000000;0.000000;,
 0.000000;7.000000;-117.000000;,
 0.000000;7.000000;0.000000;,
 22.000000;7.000000;-117.000000;,
 22.000000;7.000000;0.000000;,
 -0.001000;7.000000;0.000000;,
 -0.001000;6.000000;0.000000;,
 -0.001000;7.000000;-117.000999;,
 -0.001000;6.000000;-117.000999;,
 20.000999;7.000000;-117.000999;,
 20.000999;6.000000;-117.000999;,
 22.000999;7.000000;-117.000999;,
 22.000999;5.000000;-117.000999;,
 22.000999;7.000000;0.000000;,
 22.000999;5.000000;0.000000;,
 -0.001000;7.000000;0.000000;,
 -0.001000;6.000000;0.000000;,
 -0.001000;7.000000;-117.000999;,
 -0.001000;6.000000;-117.000999;,
 20.000999;7.000000;-117.000999;,
 20.000999;6.000000;-117.000999;,
 22.000999;7.000000;-117.000999;,
 22.000999;5.000000;-117.000999;,
 22.000999;7.000000;0.000000;,
 22.000999;5.000000;0.000000;;
 58;
 3;0,4,6;,
 3;0,6,2;,
 3;2,6,7;,
 3;2,7,3;,
 3;0,2,3;,
 3;0,3,1;,
 3;1,5,4;,
 3;1,4,0;,
 3;8,12,14;,
 3;8,14,10;,
 3;10,14,15;,
 3;10,15,11;,
 3;8,10,11;,
 3;8,11,9;,
 3;9,13,12;,
 3;9,12,8;,
 3;16,20,22;,
 3;16,22,18;,
 3;18,22,23;,
 3;18,23,19;,
 3;16,18,19;,
 3;16,19,17;,
 3;17,21,20;,
 3;17,20,16;,
 3;24,28,30;,
 3;24,30,24;,
 3;26,30,31;,
 3;26,31,27;,
 3;24,26,27;,
 3;24,27,25;,
 3;25,29,28;,
 3;25,28,24;,
 3;32,36,38;,
 3;32,38,34;,
 3;34,38,39;,
 3;34,39,35;,
 3;32,34,35;,
 3;32,35,33;,
 3;33,37,36;,
 3;33,36,32;,
 3;40,42,43;,
 3;40,43,41;,
 3;44,46,47;,
 3;44,47,45;,
 3;46,48,49;,
 3;46,49,47;,
 3;48,50,51;,
 3;48,51,49;,
 3;50,52,53;,
 3;50,53,51;,
 3;54,55,57;,
 3;54,57,56;,
 3;56,57,59;,
 3;56,59,58;,
 3;58,59,61;,
 3;58,61,60;,
 3;60,61,63;,
 3;60,63,62;;

 MeshMaterialList  {
  4;
  58;
  0,
  0,
  0,
  0,
  0,
  0,
  0,
  0,
  0,
  0,
  0,
  0,
  0,
  0,
  0,
  0,
  0,
  0,
  0,
  0,
  0,
  0,
  0,
  0,
  0,
  0,
  0,
  0,
  0,
  0,
  0,
  0,
  0,
  0,
  0,
  0,
  0,
  0,
  0,
  0,
  1,
  1,
  2,
  2,
  2,
  2,
  2,
  2,
  2,
  2,
  3,
  3,
  3,
  3,
  3,
  3,
  3,
  3;

  Material  {
   0.752941;0.752941;0.752941;1.000000;;
   0.000000;
   0.000000;0.000000;0.000000;;
   0.000000;0.000000;0.000000;;

   TextureFilename  {
    "ConL_1.dds";
   }
  }

  Material  {
   0.501961;0.501961;0.501961;1.000000;;
   0.000000;
   0.000000;0.000000;0.000000;;
   0.000000;0.000000;0.000000;;

   TextureFilename  {
    "ConL_1.dds";
   }
  }

  Material  {
   0.768627;0.768627;0.643137;1.000000;;
   0.000000;
   0.000000;0.000000;0.000000;;
   0.000000;0.000000;0.000000;;
  }

  Material  {
   0.392157;0.392157;0.392157;1.000000;;
   0.000000;
   0.000000;0.000000;0.000000;;
   0.000000;0.000000;0.000000;;
  }
 }

 MeshTextureCoords  {
  64;
  56.000000;0.000000;,
  0.000000;0.000000;,
  56.000000;0.000000;,
  0.000000;0.000000;,
  56.000000;1.000000;,
  0.000000;1.000000;,
  56.000000;1.000000;,
  0.000000;1.000000;,
  56.000000;0.000000;,
  0.000000;0.000000;,
  56.000000;0.000000;,
  0.000000;0.000000;,
  56.000000;1.000000;,
  0.000000;1.000000;,
  56.000000;1.000000;,
  0.000000;1.000000;,
  56.000000;0.000000;,
  0.000000;0.000000;,
  56.000000;0.000000;,
  0.000000;0.000000;,
  56.000000;1.000000;,
  0.000000;1.000000;,
  56.000000;1.000000;,
  0.000000;1.000000;,
  56.000000;0.000000;,
  0.000000;0.000000;,
  56.000000;0.000000;,
  0.000000;0.000000;,
  56.000000;1.000000;,
  0.000000;1.000000;,
  56.000000;1.000000;,
  0.000000;1.000000;,
  56.000000;0.000000;,
  0.000000;0.000000;,
  56.000000;0.000000;,
  0.000000;0.000000;,
  56.000000;1.000000;,
  0.000000;1.000000;,
  56.000000;1.000000;,
  0.000000;1.000000;,
  0.000000;0.000000;,
  0.000000;56.000000;,
  11.000000;0.000000;,
  11.000000;56.000000;,
  0.000000;0.000000;,
  0.000000;0.000000;,
  0.000000;0.000000;,
  0.000000;0.000000;,
  0.000000;0.000000;,
  0.000000;0.000000;,
  0.000000;0.000000;,
  0.000000;0.000000;,
  0.000000;0.000000;,
  0.000000;0.000000;,
  0.000000;0.000000;,
  0.000000;0.000000;,
  0.000000;0.000000;,
  0.000000;0.000000;,
  0.000000;0.000000;,
  0.000000;0.000000;,
  0.000000;0.000000;,
  0.000000;0.000000;,
  0.000000;0.000000;,
  0.000000;0.000000;;
 }

 MeshNormals  {
  58;
  0.000000;0.000000;-1.000000;,
  0.000000;0.000000;-1.000000;,
  1.000000;0.000000;0.000000;,
  1.000000;0.000000;0.000000;,
  0.000000;-1.000000;0.000000;,
  0.000000;-1.000000;0.000000;,
  -1.000000;0.000000;0.000000;,
  -1.000000;0.000000;0.000000;,
  0.000000;0.000000;-1.000000;,
  0.000000;0.000000;-1.000000;,
  1.000000;0.000000;0.000000;,
  1.000000;0.000000;0.000000;,
  0.000000;-1.000000;0.000000;,
  0.000000;-1.000000;0.000000;,
  -1.000000;0.000000;0.000000;,
  -1.000000;0.000000;0.000000;,
  0.000000;0.000000;1.000000;,
  0.000000;0.000000;1.000000;,
  1.000000;0.000000;0.000000;,
  1.000000;0.000000;0.000000;,
  0.000000;1.000000;0.000000;,
  0.000000;1.000000;0.000000;,
  -1.000000;0.000000;0.000000;,
  -1.000000;0.000000;0.000000;,
  0.000000;0.000000;-1.000000;,
  0.000000;0.000000;0.000000;,
  1.000000;0.000000;0.000000;,
  1.000000;0.000000;0.000000;,
  0.000000;-1.000000;0.000000;,
  0.000000;-1.000000;0.000000;,
  -1.000000;0.000000;0.000000;,
  -1.000000;0.000000;0.000000;,
  0.000000;0.000000;-1.000000;,
  0.000000;0.000000;-1.000000;,
  1.000000;0.000000;0.000000;,
  1.000000;0.000000;0.000000;,
  0.000000;-1.000000;0.000000;,
  0.000000;-1.000000;0.000000;,
  -1.000000;0.000000;0.000000;,
  -1.000000;0.000000;0.000000;,
  0.000000;-1.000000;0.000000;,
  0.000000;-1.000000;0.000000;,
  -1.000000;0.000000;0.000000;,
  -1.000000;0.000000;0.000000;,
  0.000000;0.000000;-1.000000;,
  0.000000;0.000000;-1.000000;,
  0.000000;0.000000;-1.000000;,
  0.000000;0.000000;-1.000000;,
  1.000000;0.000000;0.000000;,
  1.000000;0.000000;0.000000;,
  1.000000;0.000000;0.000000;,
  1.000000;0.000000;0.000000;,
  0.000000;0.000000;1.000000;,
  0.000000;0.000000;1.000000;,
  0.000000;0.000000;1.000000;,
  0.000000;0.000000;1.000000;,
  -1.000000;0.000000;0.000000;,
  -1.000000;0.000000;0.000000;;
  58;
  3;0,0,0;,
  3;1,1,1;,
  3;2,2,2;,
  3;3,3,3;,
  3;4,4,4;,
  3;5,5,5;,
  3;6,6,6;,
  3;7,7,7;,
  3;8,8,8;,
  3;9,9,9;,
  3;10,10,10;,
  3;11,11,11;,
  3;12,12,12;,
  3;13,13,13;,
  3;14,14,14;,
  3;15,15,15;,
  3;16,16,16;,
  3;17,17,17;,
  3;18,18,18;,
  3;19,19,19;,
  3;20,20,20;,
  3;21,21,21;,
  3;22,22,22;,
  3;23,23,23;,
  3;24,24,24;,
  3;25,25,25;,
  3;26,26,26;,
  3;27,27,27;,
  3;28,28,28;,
  3;29,29,29;,
  3;30,30,30;,
  3;31,31,31;,
  3;32,32,32;,
  3;33,33,33;,
  3;34,34,34;,
  3;35,35,35;,
  3;36,36,36;,
  3;37,37,37;,
  3;38,38,38;,
  3;39,39,39;,
  3;40,40,40;,
  3;41,41,41;,
  3;42,42,42;,
  3;43,43,43;,
  3;44,44,44;,
  3;45,45,45;,
  3;46,46,46;,
  3;47,47,47;,
  3;48,48,48;,
  3;49,49,49;,
  3;50,50,50;,
  3;51,51,51;,
  3;52,52,52;,
  3;53,53,53;,
  3;54,54,54;,
  3;55,55,55;,
  3;56,56,56;,
  3;57,57,57;;
 }
}