xof 0303txt 0032
template Vector {
 <3d82ab5e-62da-11cf-ab39-0020af71e433>
 FLOAT x;
 FLOAT y;
 FLOAT z;
}

template MeshFace {
 <3d82ab5f-62da-11cf-ab39-0020af71e433>
 DWORD nFaceVertexIndices;
 array DWORD faceVertexIndices[nFaceVertexIndices];
}

template Mesh {
 <3d82ab44-62da-11cf-ab39-0020af71e433>
 DWORD nVertices;
 array Vector vertices[nVertices];
 DWORD nFaces;
 array MeshFace faces[nFaces];
 [...]
}

template ColorRGBA {
 <35ff44e0-6c7c-11cf-8f52-0040333594a3>
 FLOAT red;
 FLOAT green;
 FLOAT blue;
 FLOAT alpha;
}

template ColorRGB {
 <d3e16e81-7835-11cf-8f52-0040333594a3>
 FLOAT red;
 FLOAT green;
 FLOAT blue;
}

template Material {
 <3d82ab4d-62da-11cf-ab39-0020af71e433>
 ColorRGBA faceColor;
 FLOAT power;
 ColorRGB specularColor;
 ColorRGB emissiveColor;
 [...]
}

template MeshMaterialList {
 <f6f23f42-7686-11cf-8f52-0040333594a3>
 DWORD nMaterials;
 DWORD nFaceIndexes;
 array DWORD faceIndexes[nFaceIndexes];
 [Material <3d82ab4d-62da-11cf-ab39-0020af71e433>]
}

template TextureFilename {
 <a42790e1-7810-11cf-8f52-0040333594a3>
 STRING filename;
}

template Coords2d {
 <f6f23f44-7686-11cf-8f52-0040333594a3>
 FLOAT u;
 FLOAT v;
}

template MeshTextureCoords {
 <f6f23f40-7686-11cf-8f52-0040333594a3>
 DWORD nTextureCoords;
 array Coords2d textureCoords[nTextureCoords];
}

template MeshNormals {
 <f6f23f43-7686-11cf-8f52-0040333594a3>
 DWORD nNormals;
 array Vector normals[nNormals];
 DWORD nFaceNormals;
 array MeshFace faceNormals[nFaceNormals];
}


Mesh  {
 14;
 -5.000000;-1.000000;0.000000;,
 -5.000000;7.000000;0.000000;,
 -5.000000;-1.000000;8.000000;,
 -5.000000;7.000000;8.000000;,
 -5.000000;-1.000000;16.000000;,
 -5.000000;7.000000;16.000000;,
 -5.000000;-1.000000;16.400000;,
 -5.000000;7.000000;16.400000;,
 -20.000000;7.000000;8.000000;,
 -5.000000;7.000000;8.000000;,
 -20.000000;4.250000;0.000000;,
 -5.000000;4.250000;0.000000;,
 -20.000000;-1.000000;0.000000;,
 -5.000000;-1.000000;0.000000;;
 10;
 3;0,1,3;,
 3;0,3,2;,
 3;2,3,5;,
 3;2,5,4;,
 3;4,5,7;,
 3;4,7,6;,
 3;8,9,11;,
 3;8,11,10;,
 3;10,11,13;,
 3;10,13,12;;

 MeshMaterialList  {
  2;
  10;
  0,
  0,
  0,
  0,
  0,
  0,
  1,
  1,
  1,
  1;

  Material  {
   0.501961;0.501961;0.501961;1.000000;;
   0.000000;
   0.000000;0.000000;0.000000;;
   0.000000;0.000000;0.000000;;

   TextureFilename  {
    "souko001.dds";
   }
  }

  Material  {
   0.439216;0.501961;0.439216;1.000000;;
   0.000000;
   0.000000;0.000000;0.000000;;
   0.000000;0.000000;0.000000;;

   TextureFilename  {
    "souko002.dds";
   }
  }
 }

 MeshTextureCoords  {
  14;
  0.000000;1.000000;,
  0.000000;0.000000;,
  0.450000;1.000000;,
  0.450000;0.000000;,
  0.950000;1.000000;,
  0.950000;0.000000;,
  1.000000;1.000000;,
  1.000000;0.000000;,
  0.000000;0.000000;,
  1.000000;0.000000;,
  0.000000;0.050000;,
  1.000000;0.050000;,
  0.000000;1.000000;,
  1.000000;1.000000;;
 }

 MeshNormals  {
  10;
  1.000000;0.000000;0.000000;,
  1.000000;0.000000;0.000000;,
  1.000000;0.000000;0.000000;,
  1.000000;0.000000;0.000000;,
  1.000000;0.000000;0.000000;,
  1.000000;0.000000;0.000000;,
  0.000000;0.945687;-0.325080;,
  0.000000;0.945687;-0.325080;,
  0.000000;0.000000;-1.000000;,
  0.000000;0.000000;-1.000000;;
  10;
  3;0,0,0;,
  3;1,1,1;,
  3;2,2,2;,
  3;3,3,3;,
  3;4,4,4;,
  3;5,5,5;,
  3;6,6,6;,
  3;7,7,7;,
  3;8,8,8;,
  3;9,9,9;;
 }
}