xof 0303txt 0032
template Vector {
 <3d82ab5e-62da-11cf-ab39-0020af71e433>
 FLOAT x;
 FLOAT y;
 FLOAT z;
}

template MeshFace {
 <3d82ab5f-62da-11cf-ab39-0020af71e433>
 DWORD nFaceVertexIndices;
 array DWORD faceVertexIndices[nFaceVertexIndices];
}

template Mesh {
 <3d82ab44-62da-11cf-ab39-0020af71e433>
 DWORD nVertices;
 array Vector vertices[nVertices];
 DWORD nFaces;
 array MeshFace faces[nFaces];
 [...]
}

template ColorRGBA {
 <35ff44e0-6c7c-11cf-8f52-0040333594a3>
 FLOAT red;
 FLOAT green;
 FLOAT blue;
 FLOAT alpha;
}

template ColorRGB {
 <d3e16e81-7835-11cf-8f52-0040333594a3>
 FLOAT red;
 FLOAT green;
 FLOAT blue;
}

template Material {
 <3d82ab4d-62da-11cf-ab39-0020af71e433>
 ColorRGBA faceColor;
 FLOAT power;
 ColorRGB specularColor;
 ColorRGB emissiveColor;
 [...]
}

template MeshMaterialList {
 <f6f23f42-7686-11cf-8f52-0040333594a3>
 DWORD nMaterials;
 DWORD nFaceIndexes;
 array DWORD faceIndexes[nFaceIndexes];
 [Material <3d82ab4d-62da-11cf-ab39-0020af71e433>]
}

template TextureFilename {
 <a42790e1-7810-11cf-8f52-0040333594a3>
 STRING filename;
}

template Coords2d {
 <f6f23f44-7686-11cf-8f52-0040333594a3>
 FLOAT u;
 FLOAT v;
}

template MeshTextureCoords {
 <f6f23f40-7686-11cf-8f52-0040333594a3>
 DWORD nTextureCoords;
 array Coords2d textureCoords[nTextureCoords];
}

template MeshNormals {
 <f6f23f43-7686-11cf-8f52-0040333594a3>
 DWORD nNormals;
 array Vector normals[nNormals];
 DWORD nFaceNormals;
 array MeshFace faceNormals[nFaceNormals];
}


Mesh  {
 88;
 -21.000000;97.949997;-41.000000;,
 -20.000000;97.949997;-42.000000;,
 20.000000;97.949997;-42.000000;,
 21.000000;97.949997;-41.000000;,
 -21.000000;97.949997;-1.000000;,
 -20.000000;97.949997;0.000000;,
 20.000000;97.949997;0.000000;,
 21.000000;97.949997;-1.000000;,
 -21.000000;-5.000000;-41.000000;,
 -20.000000;-5.000000;-42.000000;,
 20.000000;-5.000000;-42.000000;,
 21.000000;-5.000000;-41.000000;,
 -21.000000;-5.000000;-1.000000;,
 -20.000000;-5.000000;0.000000;,
 20.000000;-5.000000;0.000000;,
 21.000000;-5.000000;-1.000000;,
 -19.200001;78.000000;-42.000999;,
 -7.200000;78.000000;-42.000999;,
 -19.200001;0.000000;-42.000999;,
 -7.200000;0.000000;-42.000999;,
 7.200000;78.000000;-42.000999;,
 19.200001;78.000000;-42.000999;,
 7.200000;0.000000;-42.000999;,
 19.200001;0.000000;-42.000999;,
 21.201000;78.000000;-40.200001;,
 21.201000;78.000000;-1.800000;,
 21.201000;0.000000;-40.200001;,
 21.201000;0.000000;-1.800000;,
 19.200001;78.000000;0.001000;,
 7.200000;78.000000;0.001000;,
 19.200001;0.000000;0.001000;,
 7.200000;0.000000;0.001000;,
 -7.200000;78.000000;0.001000;,
 -19.200001;78.000000;0.001000;,
 -7.200000;0.000000;0.001000;,
 -19.200001;0.000000;0.001000;,
 -21.201000;78.000000;-1.800000;,
 -21.201000;78.000000;-40.200001;,
 -21.201000;0.000000;-1.800000;,
 -21.201000;0.000000;-40.200001;,
 -7.200000;76.099998;-42.000999;,
 7.200000;76.099998;-42.000999;,
 -7.200000;1.900000;-42.000999;,
 7.200000;1.900000;-42.000999;,
 -20.000000;97.949997;-42.000999;,
 20.000000;97.949997;-42.000999;,
 -20.000000;78.000000;-42.000999;,
 20.000000;78.000000;-42.000999;,
 21.000999;97.949997;-41.000000;,
 21.000999;97.949997;-1.000000;,
 21.000999;78.000000;-41.000000;,
 21.000999;78.000000;-1.000000;,
 20.000000;97.949997;0.001000;,
 -20.000000;97.949997;0.001000;,
 20.000000;78.000000;0.001000;,
 -20.000000;78.000000;0.001000;,
 -21.000999;97.949997;-1.000000;,
 -21.000999;97.949997;-41.000000;,
 -21.000999;78.000000;-1.000000;,
 -21.000999;78.000000;-41.000000;,
 -21.000999;97.949997;-41.000999;,
 -20.000999;97.949997;-42.000999;,
 -21.000999;0.000000;-41.000999;,
 -20.000999;0.000000;-42.000999;,
 20.000999;97.949997;-42.000999;,
 21.000999;97.949997;-41.000999;,
 20.000999;0.000000;-42.000999;,
 21.000999;0.000000;-41.000999;,
 21.000999;97.949997;-1.001000;,
 20.000999;97.949997;0.001000;,
 21.000999;0.000000;-1.001000;,
 20.000999;0.000000;0.001000;,
 -20.000999;97.949997;0.001000;,
 -21.000999;97.949997;-1.001000;,
 -20.000999;0.000000;0.001000;,
 -21.000999;0.000000;-1.001000;,
 -6.000000;110.129997;-41.000000;,
 6.000000;110.129997;-41.000000;,
 -11.000000;110.129997;-21.000000;,
 11.000000;110.129997;-21.000000;,
 -6.000000;110.129997;-1.000000;,
 -6.000000;110.129997;-1.000000;,
 -6.000000;90.000000;-41.000000;,
 6.000000;90.000000;-41.000000;,
 -11.000000;90.000000;-21.000000;,
 11.000000;90.000000;-21.000000;,
 -6.000000;90.000000;-1.000000;,
 -6.000000;90.000000;-1.000000;;
 58;
 3;0,1,9;,
 3;0,9,8;,
 3;1,2,10;,
 3;1,10,9;,
 3;2,3,11;,
 3;2,11,10;,
 3;3,7,15;,
 3;3,15,11;,
 3;7,6,14;,
 3;7,14,15;,
 3;6,5,13;,
 3;6,13,14;,
 3;5,4,12;,
 3;5,12,13;,
 3;4,0,8;,
 3;4,8,12;,
 3;16,17,19;,
 3;16,19,18;,
 3;20,21,23;,
 3;20,23,22;,
 3;24,25,27;,
 3;24,27,26;,
 3;28,29,31;,
 3;28,31,30;,
 3;32,33,35;,
 3;32,35,34;,
 3;36,37,39;,
 3;36,39,38;,
 3;40,41,43;,
 3;40,43,42;,
 3;44,45,47;,
 3;44,47,46;,
 3;48,49,51;,
 3;48,51,50;,
 3;52,53,55;,
 3;52,55,54;,
 3;56,57,59;,
 3;56,59,58;,
 3;60,61,63;,
 3;60,63,62;,
 3;64,65,67;,
 3;64,67,66;,
 3;68,69,71;,
 3;68,71,70;,
 3;72,73,75;,
 3;72,75,74;,
 3;76,77,83;,
 3;76,83,82;,
 3;77,79,85;,
 3;77,85,83;,
 3;79,81,87;,
 3;79,87,85;,
 3;81,80,86;,
 3;81,86,87;,
 3;80,78,84;,
 3;80,84,86;,
 3;78,76,82;,
 3;78,82,84;;

 MeshMaterialList  {
  6;
  58;
  0,
  0,
  0,
  0,
  0,
  0,
  0,
  0,
  0,
  0,
  0,
  0,
  0,
  0,
  0,
  0,
  1,
  1,
  1,
  1,
  1,
  1,
  1,
  1,
  1,
  1,
  1,
  1,
  2,
  2,
  3,
  3,
  3,
  3,
  3,
  3,
  3,
  3,
  4,
  4,
  4,
  4,
  4,
  4,
  4,
  4,
  5,
  5,
  5,
  5,
  5,
  5,
  5,
  5,
  5,
  5,
  5,
  5;

  Material  {
   0.745098;0.705882;0.666667;1.000000;;
   0.000000;
   0.000000;0.000000;0.000000;;
   0.000000;0.000000;0.000000;;
  }

  Material  {
   1.000000;1.000000;1.000000;1.000000;;
   0.000000;
   0.000000;0.000000;0.000000;;
   0.000000;0.000000;0.000000;;

   TextureFilename  {
    "pref.dds";
   }
  }

  Material  {
   1.000000;1.000000;1.000000;1.000000;;
   0.000000;
   0.000000;0.000000;0.000000;;
   0.000000;0.000000;0.000000;;

   TextureFilename  {
    "pref2.dds";
   }
  }

  Material  {
   1.000000;1.000000;1.000000;1.000000;;
   0.000000;
   0.000000;0.000000;0.000000;;
   0.000000;0.000000;0.000000;;

   TextureFilename  {
    "pref3.dds";
   }
  }

  Material  {
   1.000000;1.000000;1.000000;1.000000;;
   0.000000;
   0.000000;0.000000;0.000000;;
   0.000000;0.000000;0.000000;;

   TextureFilename  {
    "pref4.dds";
   }
  }

  Material  {
   0.501961;0.505882;0.501961;1.000000;;
   0.000000;
   0.000000;0.000000;0.000000;;
   0.000000;0.000000;0.000000;;
  }
 }

 MeshTextureCoords  {
  88;
  0.000000;0.000000;,
  0.000000;0.000000;,
  0.000000;0.000000;,
  0.000000;0.000000;,
  0.000000;0.000000;,
  0.000000;0.000000;,
  0.000000;0.000000;,
  0.000000;0.000000;,
  0.000000;0.000000;,
  0.000000;0.000000;,
  0.000000;0.000000;,
  0.000000;0.000000;,
  0.000000;0.000000;,
  0.000000;0.000000;,
  0.000000;0.000000;,
  0.000000;0.000000;,
  0.000000;0.000000;,
  2.500000;0.000000;,
  0.000000;20.000000;,
  2.500000;20.000000;,
  5.500000;0.000000;,
  8.000000;0.000000;,
  5.500000;20.000000;,
  8.000000;20.000000;,
  0.000000;0.000000;,
  8.000000;0.000000;,
  0.000000;20.000000;,
  8.000000;20.000000;,
  0.000000;0.000000;,
  2.500000;0.000000;,
  0.000000;20.000000;,
  2.500000;20.000000;,
  5.500000;0.000000;,
  8.000000;0.000000;,
  5.500000;20.000000;,
  8.000000;20.000000;,
  0.000000;0.000000;,
  8.000000;0.000000;,
  0.000000;20.000000;,
  8.000000;20.000000;,
  0.000000;0.000000;,
  1.000000;0.000000;,
  0.000000;19.000000;,
  1.000000;19.000000;,
  0.000000;0.000000;,
  1.000000;0.000000;,
  0.000000;1.000000;,
  1.000000;1.000000;,
  0.000000;0.000000;,
  1.000000;0.000000;,
  0.000000;1.000000;,
  1.000000;1.000000;,
  0.000000;0.000000;,
  1.000000;0.000000;,
  0.000000;1.000000;,
  1.000000;1.000000;,
  0.000000;0.000000;,
  1.000000;0.000000;,
  0.000000;1.000000;,
  1.000000;1.000000;,
  0.000000;0.000000;,
  1.000000;0.000000;,
  0.000000;7.000000;,
  1.000000;7.000000;,
  0.000000;0.000000;,
  1.000000;0.000000;,
  0.000000;7.000000;,
  1.000000;7.000000;,
  0.000000;0.000000;,
  1.000000;0.000000;,
  0.000000;7.000000;,
  1.000000;7.000000;,
  0.000000;0.000000;,
  1.000000;0.000000;,
  0.000000;7.000000;,
  1.000000;7.000000;,
  0.000000;0.000000;,
  0.000000;0.000000;,
  0.000000;0.000000;,
  0.000000;0.000000;,
  0.000000;0.000000;,
  0.000000;0.000000;,
  0.000000;0.000000;,
  0.000000;0.000000;,
  0.000000;0.000000;,
  0.000000;0.000000;,
  0.000000;0.000000;,
  0.000000;0.000000;;
 }

 MeshNormals  {
  58;
  -0.707107;0.000000;-0.707107;,
  -0.707107;0.000000;-0.707107;,
  0.000000;0.000000;-1.000000;,
  0.000000;0.000000;-1.000000;,
  0.707107;0.000000;-0.707107;,
  0.707107;0.000000;-0.707107;,
  1.000000;0.000000;0.000000;,
  1.000000;0.000000;0.000000;,
  0.707107;0.000000;0.707107;,
  0.707107;0.000000;0.707107;,
  0.000000;0.000000;1.000000;,
  0.000000;0.000000;1.000000;,
  -0.707107;0.000000;0.707107;,
  -0.707107;0.000000;0.707107;,
  -1.000000;0.000000;0.000000;,
  -1.000000;0.000000;0.000000;,
  0.000000;0.000000;-1.000000;,
  0.000000;0.000000;-1.000000;,
  0.000000;0.000000;-1.000000;,
  0.000000;0.000000;-1.000000;,
  1.000000;0.000000;0.000000;,
  1.000000;0.000000;0.000000;,
  0.000000;0.000000;1.000000;,
  0.000000;0.000000;1.000000;,
  0.000000;0.000000;1.000000;,
  0.000000;0.000000;1.000000;,
  -1.000000;0.000000;0.000000;,
  -1.000000;0.000000;0.000000;,
  0.000000;0.000000;-1.000000;,
  0.000000;0.000000;-1.000000;,
  0.000000;0.000000;-1.000000;,
  0.000000;0.000000;-1.000000;,
  1.000000;0.000000;0.000000;,
  1.000000;0.000000;0.000000;,
  0.000000;0.000000;1.000000;,
  0.000000;0.000000;1.000000;,
  -1.000000;0.000000;0.000000;,
  -1.000000;0.000000;0.000000;,
  -0.707107;0.000000;-0.707107;,
  -0.707107;0.000000;-0.707107;,
  0.707107;0.000000;-0.707107;,
  0.707107;0.000000;-0.707107;,
  0.707813;0.000000;0.706400;,
  0.707813;0.000000;0.706400;,
  -0.707813;0.000000;0.706400;,
  -0.707813;0.000000;0.706400;,
  0.000000;0.000000;-1.000000;,
  0.000000;0.000000;-1.000000;,
  0.970143;0.000000;-0.242536;,
  0.970143;0.000000;-0.242536;,
  0.761939;0.000000;0.647648;,
  0.761939;0.000000;0.647648;,
  0.000000;0.000000;0.000000;,
  0.000000;0.000000;0.000000;,
  -0.970143;0.000000;0.242536;,
  -0.970143;0.000000;0.242536;,
  -0.970143;0.000000;-0.242536;,
  -0.970143;0.000000;-0.242536;;
  58;
  3;0,0,0;,
  3;1,1,1;,
  3;2,2,2;,
  3;3,3,3;,
  3;4,4,4;,
  3;5,5,5;,
  3;6,6,6;,
  3;7,7,7;,
  3;8,8,8;,
  3;9,9,9;,
  3;10,10,10;,
  3;11,11,11;,
  3;12,12,12;,
  3;13,13,13;,
  3;14,14,14;,
  3;15,15,15;,
  3;16,16,16;,
  3;17,17,17;,
  3;18,18,18;,
  3;19,19,19;,
  3;20,20,20;,
  3;21,21,21;,
  3;22,22,22;,
  3;23,23,23;,
  3;24,24,24;,
  3;25,25,25;,
  3;26,26,26;,
  3;27,27,27;,
  3;28,28,28;,
  3;29,29,29;,
  3;30,30,30;,
  3;31,31,31;,
  3;32,32,32;,
  3;33,33,33;,
  3;34,34,34;,
  3;35,35,35;,
  3;36,36,36;,
  3;37,37,37;,
  3;38,38,38;,
  3;39,39,39;,
  3;40,40,40;,
  3;41,41,41;,
  3;42,42,42;,
  3;43,43,43;,
  3;44,44,44;,
  3;45,45,45;,
  3;46,46,46;,
  3;47,47,47;,
  3;48,48,48;,
  3;49,49,49;,
  3;50,50,50;,
  3;51,51,51;,
  3;52,52,52;,
  3;53,53,53;,
  3;54,54,54;,
  3;55,55,55;,
  3;56,56,56;,
  3;57,57,57;;
 }
}