xof 0303txt 0032
template Vector {
 <3d82ab5e-62da-11cf-ab39-0020af71e433>
 FLOAT x;
 FLOAT y;
 FLOAT z;
}

template MeshFace {
 <3d82ab5f-62da-11cf-ab39-0020af71e433>
 DWORD nFaceVertexIndices;
 array DWORD faceVertexIndices[nFaceVertexIndices];
}

template Mesh {
 <3d82ab44-62da-11cf-ab39-0020af71e433>
 DWORD nVertices;
 array Vector vertices[nVertices];
 DWORD nFaces;
 array MeshFace faces[nFaces];
 [...]
}

template ColorRGBA {
 <35ff44e0-6c7c-11cf-8f52-0040333594a3>
 FLOAT red;
 FLOAT green;
 FLOAT blue;
 FLOAT alpha;
}

template ColorRGB {
 <d3e16e81-7835-11cf-8f52-0040333594a3>
 FLOAT red;
 FLOAT green;
 FLOAT blue;
}

template Material {
 <3d82ab4d-62da-11cf-ab39-0020af71e433>
 ColorRGBA faceColor;
 FLOAT power;
 ColorRGB specularColor;
 ColorRGB emissiveColor;
 [...]
}

template MeshMaterialList {
 <f6f23f42-7686-11cf-8f52-0040333594a3>
 DWORD nMaterials;
 DWORD nFaceIndexes;
 array DWORD faceIndexes[nFaceIndexes];
 [Material <3d82ab4d-62da-11cf-ab39-0020af71e433>]
}

template TextureFilename {
 <a42790e1-7810-11cf-8f52-0040333594a3>
 STRING filename;
}

template Coords2d {
 <f6f23f44-7686-11cf-8f52-0040333594a3>
 FLOAT u;
 FLOAT v;
}

template MeshTextureCoords {
 <f6f23f40-7686-11cf-8f52-0040333594a3>
 DWORD nTextureCoords;
 array Coords2d textureCoords[nTextureCoords];
}

template MeshNormals {
 <f6f23f43-7686-11cf-8f52-0040333594a3>
 DWORD nNormals;
 array Vector normals[nNormals];
 DWORD nFaceNormals;
 array MeshFace faceNormals[nFaceNormals];
}


Mesh  {
 48;
 -2.500000;8.399999;-0.200000;,
 -2.500000;9.149999;-0.200000;,
 -0.300000;8.399999;-0.300000;,
 -0.300000;9.799998;-0.300000;,
 -2.500000;8.399999;0.200000;,
 -2.500000;9.149999;0.200000;,
 -0.300000;8.399999;0.300000;,
 -0.300000;9.799998;0.300000;,
 0.300000;8.399999;-0.300000;,
 0.300000;9.799998;-0.300000;,
 2.500000;8.399999;-0.200000;,
 2.500000;9.149999;-0.200000;,
 0.300000;8.399999;0.300000;,
 0.300000;9.799998;0.300000;,
 2.500000;8.399999;0.200000;,
 2.500000;9.149999;0.200000;,
 -4.699999;8.399999;-0.100000;,
 -4.699999;8.499999;-0.100000;,
 -2.500000;9.049998;-0.200000;,
 -2.500000;9.149999;-0.200000;,
 -4.699999;8.399999;0.100000;,
 -4.699999;8.499999;0.100000;,
 -2.500000;9.049998;0.200000;,
 -2.500000;9.149999;0.200000;,
 2.500000;9.049998;-0.200000;,
 2.500000;9.149999;-0.200000;,
 4.699999;8.399999;-0.100000;,
 4.699999;8.499999;-0.100000;,
 2.500000;9.049998;0.200000;,
 2.500000;9.149999;0.200000;,
 4.699999;8.399999;0.100000;,
 4.699999;8.499999;0.100000;,
 -4.699999;8.399999;-0.100000;,
 -4.699999;8.499999;-0.100000;,
 -2.500000;8.399999;-0.200000;,
 -2.500000;8.499999;-0.200000;,
 -4.699999;8.399999;0.100000;,
 -4.699999;8.499999;0.100000;,
 -2.500000;8.399999;0.200000;,
 -2.500000;8.499999;0.200000;,
 2.500000;8.399999;-0.200000;,
 2.500000;8.499999;-0.200000;,
 4.699999;8.399999;-0.100000;,
 4.699999;8.499999;-0.100000;,
 2.500000;8.399999;0.200000;,
 2.500000;8.499999;0.200000;,
 4.699999;8.399999;0.100000;,
 4.699999;8.499999;0.100000;;
 48;
 3;0,1,3;,
 3;0,3,2;,
 3;2,3,1;,
 3;2,1,0;,
 3;4,5,7;,
 3;4,7,6;,
 3;6,7,5;,
 3;6,5,4;,
 3;8,9,11;,
 3;8,11,10;,
 3;10,11,9;,
 3;10,9,8;,
 3;12,13,15;,
 3;12,15,14;,
 3;14,15,13;,
 3;14,13,12;,
 3;16,17,19;,
 3;16,19,18;,
 3;18,19,17;,
 3;18,17,16;,
 3;20,21,23;,
 3;20,23,22;,
 3;22,23,21;,
 3;22,21,20;,
 3;24,25,27;,
 3;24,27,26;,
 3;26,27,25;,
 3;26,25,24;,
 3;28,29,31;,
 3;28,31,30;,
 3;30,31,29;,
 3;30,29,28;,
 3;32,33,35;,
 3;32,35,34;,
 3;34,35,33;,
 3;34,33,32;,
 3;36,37,39;,
 3;36,39,38;,
 3;38,39,37;,
 3;38,37,36;,
 3;40,41,43;,
 3;40,43,42;,
 3;42,43,41;,
 3;42,41,40;,
 3;44,45,47;,
 3;44,47,46;,
 3;46,47,45;,
 3;46,45,44;;

 MeshMaterialList  {
  2;
  48;
  0,
  0,
  0,
  0,
  0,
  0,
  0,
  0,
  0,
  0,
  0,
  0,
  0,
  0,
  0,
  0,
  1,
  1,
  1,
  1,
  1,
  1,
  1,
  1,
  1,
  1,
  1,
  1,
  1,
  1,
  1,
  1,
  1,
  1,
  1,
  1,
  1,
  1,
  1,
  1,
  1,
  1,
  1,
  1,
  1,
  1,
  1,
  1;

  Material  {
   0.094118;0.094118;0.094118;1.000000;;
   0.000000;
   0.000000;0.000000;0.000000;;
   0.000000;0.000000;0.000000;;

   TextureFilename  {
    "Teruha6.dds";
   }
  }

  Material  {
   0.094118;0.094118;0.094118;1.000000;;
   0.000000;
   0.000000;0.000000;0.000000;;
   0.000000;0.000000;0.000000;;
  }
 }

 MeshTextureCoords  {
  48;
  1.000000;0.000000;,
  1.000000;1.000000;,
  0.000000;0.000000;,
  0.000000;1.000000;,
  1.000000;0.000000;,
  1.000000;1.000000;,
  0.000000;0.000000;,
  0.000000;1.000000;,
  0.000000;0.000000;,
  0.000000;1.000000;,
  1.000000;0.000000;,
  1.000000;1.000000;,
  0.000000;0.000000;,
  0.000000;1.000000;,
  1.000000;0.000000;,
  1.000000;1.000000;,
  0.000000;0.000000;,
  0.000000;0.000000;,
  0.000000;0.000000;,
  0.000000;0.000000;,
  0.000000;0.000000;,
  0.000000;0.000000;,
  0.000000;0.000000;,
  0.000000;0.000000;,
  0.000000;0.000000;,
  0.000000;0.000000;,
  0.000000;0.000000;,
  0.000000;0.000000;,
  0.000000;0.000000;,
  0.000000;0.000000;,
  0.000000;0.000000;,
  0.000000;0.000000;,
  0.000000;0.000000;,
  0.000000;0.000000;,
  0.000000;0.000000;,
  0.000000;0.000000;,
  0.000000;0.000000;,
  0.000000;0.000000;,
  0.000000;0.000000;,
  0.000000;0.000000;,
  0.000000;0.000000;,
  0.000000;0.000000;,
  0.000000;0.000000;,
  0.000000;0.000000;,
  0.000000;0.000000;,
  0.000000;0.000000;,
  0.000000;0.000000;,
  0.000000;0.000000;;
 }

 MeshNormals  {
  48;
  -0.045408;0.000000;-0.998968;,
  -0.045408;0.000000;-0.998968;,
  0.045408;0.000000;0.998968;,
  0.045408;0.000000;0.998968;,
  0.045408;0.000000;-0.998968;,
  0.045408;0.000000;-0.998968;,
  -0.045408;0.000000;0.998968;,
  -0.045408;0.000000;0.998968;,
  0.045408;0.000000;-0.998968;,
  0.045408;0.000000;-0.998968;,
  -0.045408;0.000000;0.998968;,
  -0.045408;0.000000;0.998968;,
  -0.045408;0.000000;-0.998968;,
  -0.045408;0.000000;-0.998968;,
  0.045408;0.000000;0.998968;,
  0.045408;0.000000;0.998968;,
  -0.045408;0.000000;-0.998968;,
  -0.045408;0.000000;-0.998968;,
  0.045408;0.000000;0.998968;,
  0.045408;0.000000;0.998968;,
  0.045408;0.000000;-0.998968;,
  0.045408;0.000000;-0.998968;,
  -0.045408;0.000000;0.998968;,
  -0.045408;0.000000;0.998968;,
  0.045408;0.000000;-0.998968;,
  0.045408;0.000000;-0.998968;,
  -0.045408;0.000000;0.998968;,
  -0.045408;0.000000;0.998968;,
  -0.045408;0.000000;-0.998968;,
  -0.045408;0.000000;-0.998968;,
  0.045408;0.000000;0.998968;,
  0.045408;0.000000;0.998968;,
  -0.045408;0.000000;-0.998968;,
  -0.045408;0.000000;-0.998968;,
  0.045408;0.000000;0.998968;,
  0.045408;0.000000;0.998968;,
  0.045408;0.000000;-0.998968;,
  0.045408;0.000000;-0.998968;,
  -0.045408;0.000000;0.998968;,
  -0.045408;0.000000;0.998968;,
  0.045408;0.000000;-0.998968;,
  0.045408;0.000000;-0.998968;,
  -0.045408;0.000000;0.998968;,
  -0.045408;0.000000;0.998968;,
  -0.045408;0.000000;-0.998968;,
  -0.045408;0.000000;-0.998968;,
  0.045408;0.000000;0.998968;,
  0.045408;0.000000;0.998968;;
  48;
  3;0,0,0;,
  3;1,1,1;,
  3;2,2,2;,
  3;3,3,3;,
  3;4,4,4;,
  3;5,5,5;,
  3;6,6,6;,
  3;7,7,7;,
  3;8,8,8;,
  3;9,9,9;,
  3;10,10,10;,
  3;11,11,11;,
  3;12,12,12;,
  3;13,13,13;,
  3;14,14,14;,
  3;15,15,15;,
  3;16,16,16;,
  3;17,17,17;,
  3;18,18,18;,
  3;19,19,19;,
  3;20,20,20;,
  3;21,21,21;,
  3;22,22,22;,
  3;23,23,23;,
  3;24,24,24;,
  3;25,25,25;,
  3;26,26,26;,
  3;27,27,27;,
  3;28,28,28;,
  3;29,29,29;,
  3;30,30,30;,
  3;31,31,31;,
  3;32,32,32;,
  3;33,33,33;,
  3;34,34,34;,
  3;35,35,35;,
  3;36,36,36;,
  3;37,37,37;,
  3;38,38,38;,
  3;39,39,39;,
  3;40,40,40;,
  3;41,41,41;,
  3;42,42,42;,
  3;43,43,43;,
  3;44,44,44;,
  3;45,45,45;,
  3;46,46,46;,
  3;47,47,47;;
 }
}