xof 0303txt 0032
template Vector {
 <3d82ab5e-62da-11cf-ab39-0020af71e433>
 FLOAT x;
 FLOAT y;
 FLOAT z;
}

template MeshFace {
 <3d82ab5f-62da-11cf-ab39-0020af71e433>
 DWORD nFaceVertexIndices;
 array DWORD faceVertexIndices[nFaceVertexIndices];
}

template Mesh {
 <3d82ab44-62da-11cf-ab39-0020af71e433>
 DWORD nVertices;
 array Vector vertices[nVertices];
 DWORD nFaces;
 array MeshFace faces[nFaces];
 [...]
}

template ColorRGBA {
 <35ff44e0-6c7c-11cf-8f52-0040333594a3>
 FLOAT red;
 FLOAT green;
 FLOAT blue;
 FLOAT alpha;
}

template ColorRGB {
 <d3e16e81-7835-11cf-8f52-0040333594a3>
 FLOAT red;
 FLOAT green;
 FLOAT blue;
}

template Material {
 <3d82ab4d-62da-11cf-ab39-0020af71e433>
 ColorRGBA faceColor;
 FLOAT power;
 ColorRGB specularColor;
 ColorRGB emissiveColor;
 [...]
}

template MeshMaterialList {
 <f6f23f42-7686-11cf-8f52-0040333594a3>
 DWORD nMaterials;
 DWORD nFaceIndexes;
 array DWORD faceIndexes[nFaceIndexes];
 [Material <3d82ab4d-62da-11cf-ab39-0020af71e433>]
}

template TextureFilename {
 <a42790e1-7810-11cf-8f52-0040333594a3>
 STRING filename;
}

template Coords2d {
 <f6f23f44-7686-11cf-8f52-0040333594a3>
 FLOAT u;
 FLOAT v;
}

template MeshTextureCoords {
 <f6f23f40-7686-11cf-8f52-0040333594a3>
 DWORD nTextureCoords;
 array Coords2d textureCoords[nTextureCoords];
}

template MeshNormals {
 <f6f23f43-7686-11cf-8f52-0040333594a3>
 DWORD nNormals;
 array Vector normals[nNormals];
 DWORD nFaceNormals;
 array MeshFace faceNormals[nFaceNormals];
}


Mesh  {
 38;
 -5.000000;-1.100000;-0.800000;,
 -5.000000;-1.600000;-0.800000;,
 5.000000;-1.600000;-0.800000;,
 5.000000;-0.600000;-0.800000;,
 0.000000;-0.600000;-0.800000;,
 0.000000;-1.100000;-0.800000;,
 0.000000;-1.600000;-0.800000;,
 -5.000000;-1.100000;0.800000;,
 -5.000000;-1.600000;0.800000;,
 5.000000;-1.600000;0.800000;,
 5.000000;-0.600000;0.800000;,
 0.000000;-0.600000;0.800000;,
 0.000000;-1.100000;0.800000;,
 0.000000;-1.600000;0.800000;,
 0.000000;-1.100000;0.800000;,
 0.000000;-0.600000;0.800000;,
 0.000000;-0.600000;0.800000;,
 5.000000;-0.600000;0.800000;,
 0.000000;-1.100000;-0.800000;,
 -5.000000;-1.100000;-0.800000;,
 -5.000000;-1.100000;-0.800000;,
 -5.000000;-1.600000;-0.800000;,
 -5.000000;-1.600000;-0.900000;,
 5.000000;-1.600000;-0.900000;,
 -6.000000;-1.800000;0.000000;,
 -5.000000;-1.800000;-0.900000;,
 5.000000;-1.800000;-0.900000;,
 6.000000;-1.800000;0.000000;,
 -7.000000;-8.800000;0.000000;,
 -6.000000;-8.800000;-0.900000;,
 6.000000;-8.800000;-0.900000;,
 7.000000;-8.800000;0.000000;,
 -6.000000;-1.600000;0.900000;,
 6.000000;-1.600000;0.900000;,
 -6.000000;-1.800000;0.900000;,
 6.000000;-1.800000;0.900000;,
 -7.000000;-8.800000;0.900000;,
 7.000000;-8.800000;0.900000;;
 52;
 3;0,5,6;,
 3;0,6,1;,
 3;4,3,2;,
 3;4,2,6;,
 3;3,10,9;,
 3;3,9,2;,
 3;10,11,13;,
 3;10,13,9;,
 3;12,7,8;,
 3;12,8,13;,
 3;7,20,21;,
 3;7,21,8;,
 3;15,4,5;,
 3;15,5,14;,
 3;16,17,3;,
 3;16,3,4;,
 3;18,19,7;,
 3;18,7,12;,
 3;7,20,21;,
 3;7,21,8;,
 3;22,23,26;,
 3;22,26,25;,
 3;25,26,23;,
 3;25,23,22;,
 3;24,25,29;,
 3;24,29,28;,
 3;28,29,25;,
 3;28,25,24;,
 3;25,26,30;,
 3;25,30,29;,
 3;29,30,26;,
 3;29,26,25;,
 3;26,27,31;,
 3;26,31,30;,
 3;30,31,27;,
 3;30,27,26;,
 3;33,32,34;,
 3;33,34,35;,
 3;35,34,32;,
 3;35,32,33;,
 3;34,24,28;,
 3;34,28,36;,
 3;36,28,24;,
 3;36,24,34;,
 3;35,34,36;,
 3;35,36,37;,
 3;37,36,34;,
 3;37,34,35;,
 3;27,35,37;,
 3;27,37,31;,
 3;31,37,35;,
 3;31,35,27;;

 MeshMaterialList  {
  2;
  52;
  0,
  0,
  0,
  0,
  0,
  0,
  0,
  0,
  0,
  0,
  0,
  0,
  0,
  0,
  0,
  0,
  0,
  0,
  0,
  0,
  1,
  1,
  1,
  1,
  1,
  1,
  1,
  1,
  1,
  1,
  1,
  1,
  1,
  1,
  1,
  1,
  1,
  1,
  1,
  1,
  1,
  1,
  1,
  1,
  1,
  1,
  1,
  1,
  1,
  1,
  1,
  1;

  Material  {
   1.000000;1.000000;1.000000;1.000000;;
   0.000000;
   0.000000;0.000000;0.000000;;
   0.000000;0.000000;0.000000;;

   TextureFilename  {
    "renga.dds";
   }
  }

  Material  {
   1.000000;1.000000;1.000000;1.000000;;
   0.000000;
   0.000000;0.000000;0.000000;;
   0.000000;0.000000;0.000000;;

   TextureFilename  {
    "rock.dds";
   }
  }
 }

 MeshTextureCoords  {
  38;
  0.000000;0.250000;,
  0.000000;0.500000;,
  12.000000;0.500000;,
  12.000000;0.000000;,
  6.000000;0.000000;,
  6.000000;0.250000;,
  6.000000;0.500000;,
  25.600000;0.250000;,
  25.600000;0.500000;,
  13.600000;0.500000;,
  13.600000;0.000000;,
  19.600000;0.000000;,
  19.600000;0.250000;,
  19.600000;0.500000;,
  4.400000;0.250000;,
  4.400000;0.000000;,
  6.000000;0.800000;,
  12.000000;0.800000;,
  19.600000;0.000000;,
  25.600000;0.000000;,
  27.200001;0.250000;,
  27.200001;0.500000;,
  -3.000000;0.000000;,
  3.000000;0.000000;,
  -3.500000;0.100000;,
  -3.000000;0.100000;,
  3.000000;0.100000;,
  3.500000;0.100000;,
  -4.000000;4.200000;,
  -3.500000;4.200000;,
  3.500000;4.200000;,
  4.000000;4.200000;,
  -3.000000;0.000000;,
  3.000000;0.000000;,
  -3.000000;0.100000;,
  3.000000;0.100000;,
  -3.500000;4.200000;,
  3.500000;4.200000;;
 }

 MeshNormals  {
  52;
  0.000000;0.000000;-1.000000;,
  0.000000;0.000000;-1.000000;,
  0.000000;0.000000;-1.000000;,
  0.000000;0.000000;-1.000000;,
  1.000000;0.000000;0.000000;,
  1.000000;0.000000;0.000000;,
  0.000000;0.000000;1.000000;,
  0.000000;0.000000;1.000000;,
  0.000000;0.000000;1.000000;,
  0.000000;0.000000;1.000000;,
  -1.000000;0.000000;0.000000;,
  -1.000000;0.000000;0.000000;,
  -1.000000;0.000000;0.000000;,
  -1.000000;0.000000;0.000000;,
  0.000000;1.000000;0.000000;,
  0.000000;1.000000;0.000000;,
  0.000000;1.000000;0.000000;,
  0.000000;1.000000;0.000000;,
  -1.000000;0.000000;0.000000;,
  -1.000000;0.000000;0.000000;,
  0.000000;0.000000;-1.000000;,
  0.000000;0.000000;-1.000000;,
  0.000000;0.000000;1.000000;,
  0.000000;0.000000;1.000000;,
  -0.665931;0.095133;-0.739923;,
  -0.665931;0.095133;-0.739923;,
  0.665931;-0.095133;0.739923;,
  0.665931;-0.095133;0.739923;,
  0.000000;0.000000;-1.000000;,
  0.000000;0.000000;-1.000000;,
  0.000000;0.000000;1.000000;,
  0.000000;0.000000;1.000000;,
  0.665931;0.095133;-0.739923;,
  0.665931;0.095133;-0.739923;,
  -0.665931;-0.095133;0.739923;,
  -0.665931;-0.095133;0.739923;,
  0.000000;0.000000;1.000000;,
  0.000000;0.000000;1.000000;,
  0.000000;0.000000;-1.000000;,
  0.000000;0.000000;-1.000000;,
  -0.989949;0.141421;0.000000;,
  -0.989949;0.141421;0.000000;,
  0.989949;-0.141421;0.000000;,
  0.989949;-0.141421;0.000000;,
  0.000000;0.000000;1.000000;,
  0.000000;0.000000;1.000000;,
  0.000000;0.000000;-1.000000;,
  0.000000;0.000000;-1.000000;,
  0.989949;0.141421;0.000000;,
  0.989949;0.141421;0.000000;,
  -0.989949;-0.141421;0.000000;,
  -0.989949;-0.141421;0.000000;;
  52;
  3;0,0,0;,
  3;1,1,1;,
  3;2,2,2;,
  3;3,3,3;,
  3;4,4,4;,
  3;5,5,5;,
  3;6,6,6;,
  3;7,7,7;,
  3;8,8,8;,
  3;9,9,9;,
  3;10,10,10;,
  3;11,11,11;,
  3;12,12,12;,
  3;13,13,13;,
  3;14,14,14;,
  3;15,15,15;,
  3;16,16,16;,
  3;17,17,17;,
  3;18,18,18;,
  3;19,19,19;,
  3;20,20,20;,
  3;21,21,21;,
  3;22,22,22;,
  3;23,23,23;,
  3;24,24,24;,
  3;25,25,25;,
  3;26,26,26;,
  3;27,27,27;,
  3;28,28,28;,
  3;29,29,29;,
  3;30,30,30;,
  3;31,31,31;,
  3;32,32,32;,
  3;33,33,33;,
  3;34,34,34;,
  3;35,35,35;,
  3;36,36,36;,
  3;37,37,37;,
  3;38,38,38;,
  3;39,39,39;,
  3;40,40,40;,
  3;41,41,41;,
  3;42,42,42;,
  3;43,43,43;,
  3;44,44,44;,
  3;45,45,45;,
  3;46,46,46;,
  3;47,47,47;,
  3;48,48,48;,
  3;49,49,49;,
  3;50,50,50;,
  3;51,51,51;;
 }
}