xof 0303txt 0032
template Vector {
 <3d82ab5e-62da-11cf-ab39-0020af71e433>
 FLOAT x;
 FLOAT y;
 FLOAT z;
}

template MeshFace {
 <3d82ab5f-62da-11cf-ab39-0020af71e433>
 DWORD nFaceVertexIndices;
 array DWORD faceVertexIndices[nFaceVertexIndices];
}

template Mesh {
 <3d82ab44-62da-11cf-ab39-0020af71e433>
 DWORD nVertices;
 array Vector vertices[nVertices];
 DWORD nFaces;
 array MeshFace faces[nFaces];
 [...]
}

template ColorRGBA {
 <35ff44e0-6c7c-11cf-8f52-0040333594a3>
 FLOAT red;
 FLOAT green;
 FLOAT blue;
 FLOAT alpha;
}

template ColorRGB {
 <d3e16e81-7835-11cf-8f52-0040333594a3>
 FLOAT red;
 FLOAT green;
 FLOAT blue;
}

template Material {
 <3d82ab4d-62da-11cf-ab39-0020af71e433>
 ColorRGBA faceColor;
 FLOAT power;
 ColorRGB specularColor;
 ColorRGB emissiveColor;
 [...]
}

template MeshMaterialList {
 <f6f23f42-7686-11cf-8f52-0040333594a3>
 DWORD nMaterials;
 DWORD nFaceIndexes;
 array DWORD faceIndexes[nFaceIndexes];
 [Material <3d82ab4d-62da-11cf-ab39-0020af71e433>]
}

template Coords2d {
 <f6f23f44-7686-11cf-8f52-0040333594a3>
 FLOAT u;
 FLOAT v;
}

template MeshTextureCoords {
 <f6f23f40-7686-11cf-8f52-0040333594a3>
 DWORD nTextureCoords;
 array Coords2d textureCoords[nTextureCoords];
}

template MeshNormals {
 <f6f23f43-7686-11cf-8f52-0040333594a3>
 DWORD nNormals;
 array Vector normals[nNormals];
 DWORD nFaceNormals;
 array MeshFace faceNormals[nFaceNormals];
}


Mesh  {
 52;
 2.450000;7.349999;0.000000;,
 2.450000;-0.350000;0.000000;,
 2.438582;7.349999;0.057403;,
 2.438582;-0.350000;0.057403;,
 2.406066;7.349999;0.106066;,
 2.406066;-0.350000;0.106066;,
 2.357402;7.349999;0.138582;,
 2.357402;-0.350000;0.138582;,
 2.300000;7.349999;0.150000;,
 2.300000;-0.350000;0.150000;,
 2.242597;7.349999;0.138582;,
 2.242597;-0.350000;0.138582;,
 2.193934;7.349999;0.106066;,
 2.193934;-0.350000;0.106066;,
 2.161418;7.349999;0.057403;,
 2.161418;-0.350000;0.057403;,
 2.150000;7.349999;0.000000;,
 2.150000;-0.350000;0.000000;,
 2.161418;7.349999;-0.057403;,
 2.161418;-0.350000;-0.057403;,
 2.193934;7.349999;-0.106066;,
 2.193934;-0.350000;-0.106066;,
 2.242597;7.349999;-0.138582;,
 2.242597;-0.350000;-0.138582;,
 2.300000;7.349999;-0.150000;,
 2.300000;-0.350000;-0.150000;,
 2.357402;7.349999;-0.138582;,
 2.357402;-0.350000;-0.138582;,
 2.406066;7.349999;-0.106066;,
 2.406066;-0.350000;-0.106066;,
 2.438582;7.349999;-0.057403;,
 2.438582;-0.350000;-0.057403;,
 -2.300000;6.647000;0.029000;,
 -2.200000;6.647000;-0.029000;,
 -2.300000;6.625000;-0.083000;,
 -2.300000;6.583000;-0.125000;,
 -2.300000;6.529000;-0.147000;,
 -2.300000;6.471000;-0.147000;,
 -2.300000;6.417000;-0.125000;,
 -2.300000;6.375000;-0.083000;,
 -2.300000;6.353000;-0.029000;,
 -2.300000;6.353000;0.029000;,
 2.300000;6.647000;0.029000;,
 2.300000;6.647000;-0.029000;,
 2.300000;6.625000;-0.083000;,
 2.300000;6.583000;-0.125000;,
 2.300000;6.529000;-0.147000;,
 2.300000;6.471000;-0.147000;,
 2.300000;6.417000;-0.125000;,
 2.300000;6.375000;-0.083000;,
 2.300000;6.353000;-0.029000;,
 2.300000;6.353000;0.029000;;
 78;
 3;1,0,2;,
 3;1,2,3;,
 3;3,2,4;,
 3;3,4,5;,
 3;5,4,6;,
 3;5,6,7;,
 3;7,6,8;,
 3;7,8,9;,
 3;9,8,10;,
 3;9,10,11;,
 3;11,10,12;,
 3;11,12,13;,
 3;13,12,14;,
 3;13,14,15;,
 3;15,14,16;,
 3;15,16,17;,
 3;17,16,18;,
 3;17,18,19;,
 3;19,18,20;,
 3;19,20,21;,
 3;21,20,22;,
 3;21,22,23;,
 3;23,22,24;,
 3;23,24,25;,
 3;25,24,26;,
 3;25,26,27;,
 3;27,26,28;,
 3;27,28,29;,
 3;29,28,30;,
 3;29,30,31;,
 3;31,30,0;,
 3;31,0,1;,
 3;30,28,26;,
 3;30,26,24;,
 3;30,24,22;,
 3;30,22,20;,
 3;30,20,18;,
 3;30,18,16;,
 3;30,16,14;,
 3;30,14,12;,
 3;30,12,10;,
 3;30,10,8;,
 3;30,8,6;,
 3;30,6,4;,
 3;30,4,2;,
 3;30,2,0;,
 3;1,3,5;,
 3;1,5,7;,
 3;1,7,9;,
 3;1,9,11;,
 3;1,11,13;,
 3;1,13,15;,
 3;1,15,17;,
 3;1,17,19;,
 3;1,19,21;,
 3;1,21,23;,
 3;1,23,25;,
 3;1,25,27;,
 3;1,27,29;,
 3;1,29,31;,
 3;32,42,43;,
 3;32,43,33;,
 3;33,43,44;,
 3;33,44,34;,
 3;34,44,45;,
 3;34,45,35;,
 3;35,45,46;,
 3;35,46,36;,
 3;36,46,47;,
 3;36,47,37;,
 3;37,47,48;,
 3;37,48,38;,
 3;38,48,49;,
 3;38,49,39;,
 3;39,49,50;,
 3;39,50,40;,
 3;40,50,51;,
 3;40,51,41;;

 MeshMaterialList  {
  2;
  78;
  0,
  0,
  0,
  0,
  0,
  0,
  0,
  0,
  0,
  0,
  0,
  0,
  0,
  0,
  0,
  0,
  0,
  0,
  0,
  0,
  0,
  0,
  0,
  0,
  0,
  0,
  0,
  0,
  0,
  0,
  0,
  0,
  0,
  0,
  0,
  0,
  0,
  0,
  0,
  0,
  0,
  0,
  0,
  0,
  0,
  0,
  0,
  0,
  0,
  0,
  0,
  0,
  0,
  0,
  0,
  0,
  0,
  0,
  0,
  0,
  1,
  1,
  1,
  1,
  1,
  1,
  1,
  1,
  1,
  1,
  1,
  1,
  1,
  1,
  1,
  1,
  1,
  1;

  Material  {
   0.752941;0.752941;0.878431;1.000000;;
   0.000000;
   0.000000;0.000000;0.000000;;
   0.000000;0.000000;0.000000;;
  }

  Material  {
   0.752941;0.752941;0.878431;1.000000;;
   0.000000;
   0.000000;0.000000;0.000000;;
   0.000000;0.000000;0.000000;;
  }
 }

 MeshTextureCoords  {
  52;
  0.000000;0.000000;,
  0.000000;0.000000;,
  0.000000;0.000000;,
  0.000000;0.000000;,
  0.000000;0.000000;,
  0.000000;0.000000;,
  0.000000;0.000000;,
  0.000000;0.000000;,
  0.000000;0.000000;,
  0.000000;0.000000;,
  0.000000;0.000000;,
  0.000000;0.000000;,
  0.000000;0.000000;,
  0.000000;0.000000;,
  0.000000;0.000000;,
  0.000000;0.000000;,
  0.000000;0.000000;,
  0.000000;0.000000;,
  0.000000;0.000000;,
  0.000000;0.000000;,
  0.000000;0.000000;,
  0.000000;0.000000;,
  0.000000;0.000000;,
  0.000000;0.000000;,
  0.000000;0.000000;,
  0.000000;0.000000;,
  0.000000;0.000000;,
  0.000000;0.000000;,
  0.000000;0.000000;,
  0.000000;0.000000;,
  0.000000;0.000000;,
  0.000000;0.000000;,
  0.000000;0.000000;,
  0.000000;0.000000;,
  0.000000;0.000000;,
  0.000000;0.000000;,
  0.000000;0.000000;,
  0.000000;0.000000;,
  0.000000;0.000000;,
  0.000000;0.000000;,
  0.000000;0.000000;,
  0.000000;0.000000;,
  0.000000;0.000000;,
  0.000000;0.000000;,
  0.000000;0.000000;,
  0.000000;0.000000;,
  0.000000;0.000000;,
  0.000000;0.000000;,
  0.000000;0.000000;,
  0.000000;0.000000;,
  0.000000;0.000000;,
  0.000000;0.000000;;
 }

 MeshNormals  {
  50;
  0.703702;0.707107;-0.069309;,
  0.000096;-1.000000;0.000000;,
  0.353553;0.923880;0.146447;,
  0.623612;-0.707107;0.333328;,
  0.270598;0.923879;0.270598;,
  0.242772;-0.923880;0.295818;,
  0.146447;0.923879;0.353553;,
  0.111087;-0.923880;0.366205;,
  0.000000;0.923879;0.382683;,
  -0.037510;-0.923880;0.380841;,
  -0.146447;0.923880;0.353553;,
  -0.180396;-0.923880;0.337497;,
  -0.270598;0.923880;0.270598;,
  -0.295818;-0.923880;0.242772;,
  -0.353553;0.923880;0.146447;,
  -0.366205;-0.923880;0.111087;,
  -0.382683;0.923880;0.000000;,
  -0.380841;-0.923880;-0.037510;,
  -0.353553;0.923880;-0.146447;,
  -0.337497;-0.923880;-0.180396;,
  -0.270598;0.923880;-0.270598;,
  -0.242772;-0.923880;-0.295818;,
  -0.146447;0.923880;-0.353553;,
  -0.111087;-0.923879;-0.366205;,
  0.000000;0.923880;-0.382683;,
  0.037510;-0.923880;-0.380841;,
  0.146447;0.923880;-0.353553;,
  0.180396;-0.923880;-0.337497;,
  0.500000;0.707107;-0.500000;,
  0.295818;-0.923880;-0.242772;,
  0.000089;1.000000;-0.000037;,
  0.676659;-0.707107;-0.205262;,
  0.000000;1.000000;0.000000;,
  0.000000;1.000000;0.000000;,
  0.000000;0.926093;-0.377294;,
  0.000000;0.926093;-0.377295;,
  0.000000;0.707108;-0.707105;,
  0.000000;0.707108;-0.707105;,
  0.000000;0.377295;-0.926093;,
  0.000000;0.377295;-0.926093;,
  0.000000;0.000000;-1.000000;,
  0.000000;0.000000;-1.000000;,
  0.000000;-0.377295;-0.926093;,
  0.000000;-0.377295;-0.926093;,
  0.000000;-0.707108;-0.707105;,
  0.000000;-0.707108;-0.707105;,
  0.000000;-0.926093;-0.377295;,
  0.000000;-0.926093;-0.377295;,
  0.000000;-1.000000;0.000000;,
  0.000000;-1.000000;0.000000;;
  78;
  3;1,0,2;,
  3;1,2,3;,
  3;3,2,4;,
  3;3,4,5;,
  3;5,4,6;,
  3;5,6,7;,
  3;7,6,8;,
  3;7,8,9;,
  3;9,8,10;,
  3;9,10,11;,
  3;11,10,12;,
  3;11,12,13;,
  3;13,12,14;,
  3;13,14,15;,
  3;15,14,16;,
  3;15,16,17;,
  3;17,16,18;,
  3;17,18,19;,
  3;19,18,20;,
  3;19,20,21;,
  3;21,20,22;,
  3;21,22,23;,
  3;23,22,24;,
  3;23,24,25;,
  3;25,24,26;,
  3;25,26,27;,
  3;27,26,28;,
  3;27,28,29;,
  3;29,28,30;,
  3;29,30,31;,
  3;31,30,0;,
  3;31,0,1;,
  3;30,28,26;,
  3;30,26,24;,
  3;30,24,22;,
  3;30,22,20;,
  3;30,20,18;,
  3;30,18,16;,
  3;30,16,14;,
  3;30,14,12;,
  3;30,12,10;,
  3;30,10,8;,
  3;30,8,6;,
  3;30,6,4;,
  3;30,4,2;,
  3;30,2,0;,
  3;1,3,5;,
  3;1,5,7;,
  3;1,7,9;,
  3;1,9,11;,
  3;1,11,13;,
  3;1,13,15;,
  3;1,15,17;,
  3;1,17,19;,
  3;1,19,21;,
  3;1,21,23;,
  3;1,23,25;,
  3;1,25,27;,
  3;1,27,29;,
  3;1,29,31;,
  3;32,32,32;,
  3;33,33,33;,
  3;34,34,34;,
  3;35,35,35;,
  3;36,36,36;,
  3;37,37,37;,
  3;38,38,38;,
  3;39,39,39;,
  3;40,40,40;,
  3;41,41,41;,
  3;42,42,42;,
  3;43,43,43;,
  3;44,44,44;,
  3;45,45,45;,
  3;46,46,46;,
  3;47,47,47;,
  3;48,48,48;,
  3;49,49,49;;
 }
}