xof 0303txt 0032
template Vector {
 <3d82ab5e-62da-11cf-ab39-0020af71e433>
 FLOAT x;
 FLOAT y;
 FLOAT z;
}

template MeshFace {
 <3d82ab5f-62da-11cf-ab39-0020af71e433>
 DWORD nFaceVertexIndices;
 array DWORD faceVertexIndices[nFaceVertexIndices];
}

template Mesh {
 <3d82ab44-62da-11cf-ab39-0020af71e433>
 DWORD nVertices;
 array Vector vertices[nVertices];
 DWORD nFaces;
 array MeshFace faces[nFaces];
 [...]
}

template ColorRGBA {
 <35ff44e0-6c7c-11cf-8f52-0040333594a3>
 FLOAT red;
 FLOAT green;
 FLOAT blue;
 FLOAT alpha;
}

template ColorRGB {
 <d3e16e81-7835-11cf-8f52-0040333594a3>
 FLOAT red;
 FLOAT green;
 FLOAT blue;
}

template Material {
 <3d82ab4d-62da-11cf-ab39-0020af71e433>
 ColorRGBA faceColor;
 FLOAT power;
 ColorRGB specularColor;
 ColorRGB emissiveColor;
 [...]
}

template MeshMaterialList {
 <f6f23f42-7686-11cf-8f52-0040333594a3>
 DWORD nMaterials;
 DWORD nFaceIndexes;
 array DWORD faceIndexes[nFaceIndexes];
 [Material <3d82ab4d-62da-11cf-ab39-0020af71e433>]
}

template Coords2d {
 <f6f23f44-7686-11cf-8f52-0040333594a3>
 FLOAT u;
 FLOAT v;
}

template MeshTextureCoords {
 <f6f23f40-7686-11cf-8f52-0040333594a3>
 DWORD nTextureCoords;
 array Coords2d textureCoords[nTextureCoords];
}

template MeshNormals {
 <f6f23f43-7686-11cf-8f52-0040333594a3>
 DWORD nNormals;
 array Vector normals[nNormals];
 DWORD nFaceNormals;
 array MeshFace faceNormals[nFaceNormals];
}


Mesh  {
 544;
 0.106557;5.049998;50.049763;,
 -0.094557;5.050000;-0.049814;,
 0.106100;5.047701;50.049763;,
 -0.095014;5.047704;-0.049812;,
 0.104799;5.045755;50.049770;,
 -0.096314;5.045757;-0.049807;,
 0.102853;5.044455;50.049778;,
 -0.098261;5.044456;-0.049799;,
 0.100557;5.043998;50.049786;,
 -0.100557;5.044000;-0.049789;,
 0.098261;5.044455;50.049793;,
 -0.102853;5.044456;-0.049780;,
 0.096314;5.045755;50.049801;,
 -0.104799;5.045757;-0.049772;,
 0.095014;5.047701;50.049809;,
 -0.106100;5.047704;-0.049767;,
 0.094557;5.049998;50.049809;,
 -0.106557;5.050000;-0.049765;,
 0.095014;5.052294;50.049809;,
 -0.106100;5.052296;-0.049767;,
 0.096314;5.054240;50.049801;,
 -0.104799;5.054243;-0.049772;,
 0.098261;5.055541;50.049793;,
 -0.102853;5.055543;-0.049780;,
 0.100557;5.055998;50.049786;,
 -0.100557;5.056000;-0.049789;,
 0.102853;5.055541;50.049778;,
 -0.098261;5.055543;-0.049799;,
 0.104799;5.054240;50.049770;,
 -0.096314;5.054243;-0.049807;,
 0.106100;5.052294;50.049763;,
 -0.095014;5.052296;-0.049812;,
 -0.069862;5.569551;5.016673;,
 -0.090000;5.750000;-0.000040;,
 -0.070623;5.565726;5.016538;,
 -0.090762;5.746175;-0.000175;,
 -0.072792;5.562484;5.016430;,
 -0.092930;5.742933;-0.000283;,
 -0.076036;5.560318;5.016366;,
 -0.096175;5.740767;-0.000347;,
 -0.079863;5.559557;5.016353;,
 -0.100001;5.740006;-0.000359;,
 -0.083690;5.560318;5.016396;,
 -0.103828;5.740767;-0.000317;,
 -0.086934;5.562484;5.016487;,
 -0.107072;5.742933;-0.000226;,
 -0.089101;5.565726;5.016613;,
 -0.109239;5.746175;-0.000100;,
 -0.089861;5.569551;5.016753;,
 -0.110000;5.750000;0.000040;,
 -0.089100;5.573375;5.016887;,
 -0.109238;5.753824;0.000175;,
 -0.086931;5.576617;5.016995;,
 -0.107070;5.757066;0.000283;,
 -0.083687;5.578783;5.017060;,
 -0.103825;5.759233;0.000347;,
 -0.079860;5.579544;5.017072;,
 -0.099999;5.759993;0.000359;,
 -0.076033;5.578783;5.017029;,
 -0.096172;5.759233;0.000317;,
 -0.072789;5.576617;5.016938;,
 -0.092928;5.757066;0.000226;,
 -0.070622;5.573375;5.016813;,
 -0.090761;5.753824;0.000100;,
 -0.029779;5.470318;15.019380;,
 -0.070000;5.570000;4.999959;,
 -0.030541;5.466492;15.019344;,
 -0.070761;5.566173;4.999924;,
 -0.032709;5.463247;15.019320;,
 -0.072929;5.562929;4.999901;,
 -0.035953;5.461080;15.019313;,
 -0.076174;5.560761;4.999892;,
 -0.039780;5.460319;15.019320;,
 -0.080000;5.560000;4.999900;,
 -0.043606;5.461080;15.019343;,
 -0.083827;5.560761;4.999923;,
 -0.046851;5.463247;15.019378;,
 -0.087071;5.562929;4.999958;,
 -0.049018;5.466492;15.019419;,
 -0.089239;5.566173;4.999999;,
 -0.049779;5.470318;15.019460;,
 -0.090000;5.570000;5.000040;,
 -0.049018;5.474145;15.019495;,
 -0.089239;5.573826;5.000075;,
 -0.046850;5.477389;15.019519;,
 -0.087071;5.577070;5.000098;,
 -0.043606;5.479557;15.019526;,
 -0.083826;5.579238;5.000107;,
 -0.039779;5.480318;15.019519;,
 -0.080000;5.579999;5.000099;,
 -0.035952;5.479557;15.019496;,
 -0.076173;5.579238;5.000076;,
 -0.032708;5.477389;15.019462;,
 -0.072929;5.577070;5.000041;,
 -0.030540;5.474145;15.019421;,
 -0.070761;5.573826;5.000000;,
 0.010223;5.450762;25.019855;,
 -0.030000;5.469999;14.999959;,
 0.009461;5.446935;25.019850;,
 -0.030761;5.466173;14.999954;,
 0.007294;5.443691;25.019854;,
 -0.032929;5.462928;14.999957;,
 0.004049;5.441523;25.019861;,
 -0.036173;5.460761;14.999966;,
 0.000223;5.440762;25.019876;,
 -0.040000;5.460000;14.999980;,
 -0.003604;5.441523;25.019892;,
 -0.043827;5.460761;14.999997;,
 -0.006848;5.443691;25.019911;,
 -0.047071;5.462928;15.000014;,
 -0.009016;5.446935;25.019926;,
 -0.049239;5.466173;15.000029;,
 -0.009777;5.450762;25.019936;,
 -0.050000;5.469999;15.000039;,
 -0.009016;5.454589;25.019941;,
 -0.049239;5.473826;15.000044;,
 -0.006848;5.457833;25.019938;,
 -0.047071;5.477070;15.000041;,
 -0.003604;5.460001;25.019930;,
 -0.043827;5.479238;15.000032;,
 0.000223;5.460762;25.019915;,
 -0.040000;5.479999;15.000018;,
 0.004050;5.460001;25.019899;,
 -0.036173;5.479238;15.000001;,
 0.007294;5.457833;25.019880;,
 -0.032929;5.477070;14.999984;,
 0.009461;5.454589;25.019865;,
 -0.030761;5.473826;14.999969;,
 0.050223;5.469236;35.019855;,
 0.010000;5.449999;24.999958;,
 0.049461;5.465409;35.019863;,
 0.009239;5.446173;24.999968;,
 0.047294;5.462165;35.019878;,
 0.007071;5.442928;24.999983;,
 0.044050;5.459997;35.019897;,
 0.003827;5.440761;25.000000;,
 0.040223;5.459236;35.019913;,
 0.000000;5.440000;25.000017;,
 0.036396;5.459997;35.019928;,
 -0.003827;5.440761;25.000031;,
 0.033152;5.462165;35.019936;,
 -0.007071;5.442928;25.000040;,
 0.030984;5.465409;35.019939;,
 -0.009239;5.446173;25.000042;,
 0.030223;5.469236;35.019932;,
 -0.010000;5.449999;25.000038;,
 0.030984;5.473063;35.019924;,
 -0.009239;5.453826;25.000029;,
 0.033152;5.476307;35.019909;,
 -0.007071;5.457070;25.000013;,
 0.036396;5.478475;35.019890;,
 -0.003827;5.459238;24.999996;,
 0.040223;5.479236;35.019875;,
 -0.000000;5.459999;24.999979;,
 0.044049;5.478475;35.019859;,
 0.003827;5.459238;24.999966;,
 0.047294;5.476307;35.019852;,
 0.007071;5.457070;24.999956;,
 0.049461;5.473063;35.019848;,
 0.009239;5.453826;24.999954;,
 0.090221;5.569680;45.019375;,
 0.050000;5.469999;34.999954;,
 0.089460;5.565853;45.019417;,
 0.049239;5.466173;34.999996;,
 0.087292;5.562609;45.019459;,
 0.047071;5.462929;35.000038;,
 0.084048;5.560441;45.019493;,
 0.043827;5.460761;35.000072;,
 0.080221;5.559680;45.019516;,
 0.040000;5.460000;35.000095;,
 0.076394;5.560441;45.019524;,
 0.036174;5.460761;35.000103;,
 0.073150;5.562609;45.019516;,
 0.032929;5.462929;35.000095;,
 0.070982;5.565853;45.019493;,
 0.030761;5.466173;35.000072;,
 0.070221;5.569680;45.019459;,
 0.030000;5.469999;35.000038;,
 0.070982;5.573506;45.019417;,
 0.030761;5.473826;34.999996;,
 0.073149;5.576751;45.019375;,
 0.032929;5.477070;34.999954;,
 0.076394;5.578918;45.019341;,
 0.036173;5.479238;34.999920;,
 0.080220;5.579679;45.019318;,
 0.040000;5.479999;34.999897;,
 0.084047;5.578918;45.019310;,
 0.043826;5.479238;34.999889;,
 0.087291;5.576751;45.019318;,
 0.047071;5.477070;34.999897;,
 0.089459;5.573506;45.019341;,
 0.049239;5.473826;34.999920;,
 0.110138;5.750448;50.016670;,
 0.090000;5.570000;44.999954;,
 0.109378;5.746624;50.016811;,
 0.089239;5.566175;45.000095;,
 0.107211;5.743382;50.016933;,
 0.087072;5.562933;45.000221;,
 0.103967;5.741216;50.017025;,
 0.083828;5.560767;45.000313;,
 0.100140;5.740455;50.017071;,
 0.080001;5.560006;45.000355;,
 0.096313;5.741216;50.017056;,
 0.076175;5.560767;45.000343;,
 0.093068;5.743382;50.016991;,
 0.072930;5.562933;45.000278;,
 0.090900;5.746624;50.016884;,
 0.070762;5.566175;45.000172;,
 0.090139;5.750448;50.016750;,
 0.070000;5.570000;45.000038;,
 0.090899;5.754273;50.016609;,
 0.070761;5.573824;44.999897;,
 0.093066;5.757515;50.016483;,
 0.072928;5.577066;44.999771;,
 0.096310;5.759681;50.016392;,
 0.076172;5.579233;44.999680;,
 0.100137;5.760442;50.016350;,
 0.079999;5.579993;44.999638;,
 0.103964;5.759681;50.016361;,
 0.083825;5.579233;44.999649;,
 0.107208;5.757515;50.016426;,
 0.087070;5.577066;44.999714;,
 0.109377;5.754273;50.016537;,
 0.089238;5.573824;44.999821;,
 -0.078000;5.569999;5.000000;,
 -0.078000;5.050000;5.000000;,
 -0.078152;5.569999;5.000765;,
 -0.078152;5.050000;5.000765;,
 -0.078586;5.569999;5.001414;,
 -0.078586;5.050000;5.001414;,
 -0.079235;5.569999;5.001847;,
 -0.079235;5.050000;5.001847;,
 -0.080000;5.569999;5.001999;,
 -0.080000;5.050000;5.001999;,
 -0.080765;5.569999;5.001847;,
 -0.080765;5.050000;5.001847;,
 -0.081414;5.569999;5.001414;,
 -0.081414;5.050000;5.001414;,
 -0.081848;5.569999;5.000765;,
 -0.081848;5.050000;5.000765;,
 -0.082000;5.569999;5.000000;,
 -0.082000;5.050000;5.000000;,
 -0.081848;5.569999;4.999234;,
 -0.081848;5.050000;4.999234;,
 -0.081414;5.569999;4.998585;,
 -0.081414;5.050000;4.998585;,
 -0.080765;5.569999;4.998152;,
 -0.080765;5.050000;4.998152;,
 -0.080000;5.569999;4.998000;,
 -0.080000;5.050000;4.998000;,
 -0.079235;5.569999;4.998152;,
 -0.079235;5.050000;4.998152;,
 -0.078586;5.569999;4.998585;,
 -0.078586;5.050000;4.998585;,
 -0.078152;5.569999;4.999234;,
 -0.078152;5.050000;4.999234;,
 -0.038000;5.470000;14.999999;,
 -0.038000;5.050000;14.999999;,
 -0.038152;5.470000;15.000765;,
 -0.038152;5.050000;15.000765;,
 -0.038586;5.470000;15.001413;,
 -0.038586;5.050000;15.001413;,
 -0.039235;5.470000;15.001847;,
 -0.039235;5.050000;15.001847;,
 -0.040000;5.470000;15.001999;,
 -0.040000;5.050000;15.001999;,
 -0.040765;5.470000;15.001847;,
 -0.040765;5.050000;15.001847;,
 -0.041414;5.470000;15.001413;,
 -0.041414;5.050000;15.001413;,
 -0.041848;5.470000;15.000765;,
 -0.041848;5.050000;15.000765;,
 -0.042000;5.470000;14.999999;,
 -0.042000;5.050000;14.999999;,
 -0.041848;5.470000;14.999233;,
 -0.041848;5.050000;14.999233;,
 -0.041414;5.470000;14.998585;,
 -0.041414;5.050000;14.998585;,
 -0.040765;5.470000;14.998151;,
 -0.040765;5.050000;14.998151;,
 -0.040000;5.470000;14.997999;,
 -0.040000;5.050000;14.997999;,
 -0.039235;5.470000;14.998151;,
 -0.039235;5.050000;14.998151;,
 -0.038586;5.470000;14.998585;,
 -0.038586;5.050000;14.998585;,
 -0.038152;5.470000;14.999233;,
 -0.038152;5.050000;14.999233;,
 0.002000;5.449999;24.999998;,
 0.002000;5.050000;24.999998;,
 0.001848;5.449999;25.000763;,
 0.001848;5.050000;25.000763;,
 0.001414;5.449999;25.001411;,
 0.001414;5.050000;25.001411;,
 0.000765;5.449999;25.001846;,
 0.000765;5.050000;25.001846;,
 0.000000;5.449999;25.001999;,
 0.000000;5.050000;25.001999;,
 -0.000765;5.449999;25.001846;,
 -0.000765;5.050000;25.001846;,
 -0.001414;5.449999;25.001411;,
 -0.001414;5.050000;25.001411;,
 -0.001848;5.449999;25.000763;,
 -0.001848;5.050000;25.000763;,
 -0.002000;5.449999;24.999998;,
 -0.002000;5.050000;24.999998;,
 -0.001848;5.449999;24.999233;,
 -0.001848;5.050000;24.999233;,
 -0.001414;5.449999;24.998585;,
 -0.001414;5.050000;24.998585;,
 -0.000765;5.449999;24.998150;,
 -0.000765;5.050000;24.998150;,
 -0.000000;5.449999;24.997997;,
 -0.000000;5.050000;24.997997;,
 0.000765;5.449999;24.998150;,
 0.000765;5.050000;24.998150;,
 0.001414;5.449999;24.998585;,
 0.001414;5.050000;24.998585;,
 0.001848;5.449999;24.999233;,
 0.001848;5.050000;24.999233;,
 0.042000;5.470000;34.999996;,
 0.042000;5.050000;34.999996;,
 0.041848;5.470000;35.000763;,
 0.041848;5.050000;35.000763;,
 0.041414;5.470000;35.001411;,
 0.041414;5.050000;35.001411;,
 0.040765;5.470000;35.001842;,
 0.040765;5.050000;35.001842;,
 0.040000;5.470000;35.001995;,
 0.040000;5.050000;35.001995;,
 0.039235;5.470000;35.001842;,
 0.039235;5.050000;35.001842;,
 0.038586;5.470000;35.001411;,
 0.038586;5.050000;35.001411;,
 0.038152;5.470000;35.000763;,
 0.038152;5.050000;35.000763;,
 0.038000;5.470000;34.999996;,
 0.038000;5.050000;34.999996;,
 0.038152;5.470000;34.999229;,
 0.038152;5.050000;34.999229;,
 0.038586;5.470000;34.998581;,
 0.038586;5.050000;34.998581;,
 0.039235;5.470000;34.998150;,
 0.039235;5.050000;34.998150;,
 0.040000;5.470000;34.997997;,
 0.040000;5.050000;34.997997;,
 0.040765;5.470000;34.998150;,
 0.040765;5.050000;34.998150;,
 0.041414;5.470000;34.998581;,
 0.041414;5.050000;34.998581;,
 0.041848;5.470000;34.999229;,
 0.041848;5.050000;34.999229;,
 0.082000;5.569999;44.999996;,
 0.082000;5.050000;44.999996;,
 0.081848;5.569999;45.000763;,
 0.081848;5.050000;45.000763;,
 0.081414;5.569999;45.001411;,
 0.081414;5.050000;45.001411;,
 0.080765;5.569999;45.001842;,
 0.080765;5.050000;45.001842;,
 0.080000;5.569999;45.001995;,
 0.080000;5.050000;45.001995;,
 0.079235;5.569999;45.001842;,
 0.079235;5.050000;45.001842;,
 0.078586;5.569999;45.001411;,
 0.078586;5.050000;45.001411;,
 0.078152;5.569999;45.000763;,
 0.078152;5.050000;45.000763;,
 0.078000;5.569999;44.999996;,
 0.078000;5.050000;44.999996;,
 0.078152;5.569999;44.999229;,
 0.078152;5.050000;44.999229;,
 0.078586;5.569999;44.998581;,
 0.078586;5.050000;44.998581;,
 0.079235;5.569999;44.998150;,
 0.079235;5.050000;44.998150;,
 0.080000;5.569999;44.997997;,
 0.080000;5.050000;44.997997;,
 0.080765;5.569999;44.998150;,
 0.080765;5.050000;44.998150;,
 0.081414;5.569999;44.998581;,
 0.081414;5.050000;44.998581;,
 0.081848;5.569999;44.999229;,
 0.081848;5.050000;44.999229;,
 -0.004900;5.570000;5.024698;,
 -0.005101;5.570000;4.974699;,
 -0.010609;5.541298;5.024721;,
 -0.010810;5.541298;4.974721;,
 -0.026867;5.516967;5.024786;,
 -0.027068;5.516967;4.974787;,
 -0.051199;5.500709;5.024884;,
 -0.051399;5.500709;4.974885;,
 -0.079900;5.495000;5.024999;,
 -0.080100;5.495000;4.975000;,
 -0.108601;5.500709;5.025115;,
 -0.108801;5.500709;4.975115;,
 -0.132932;5.516967;5.025212;,
 -0.133133;5.516967;4.975213;,
 -0.149190;5.541298;5.025278;,
 -0.149391;5.541298;4.975278;,
 -0.154899;5.570000;5.025301;,
 -0.155100;5.570000;4.975301;,
 -0.149190;5.598701;5.025278;,
 -0.149391;5.598701;4.975278;,
 -0.132932;5.623033;5.025212;,
 -0.133133;5.623033;4.975213;,
 -0.108601;5.639291;5.025115;,
 -0.108801;5.639291;4.975115;,
 -0.079900;5.645000;5.024999;,
 -0.080100;5.645000;4.975000;,
 -0.051199;5.639291;5.024884;,
 -0.051399;5.639291;4.974885;,
 -0.026867;5.623033;5.024786;,
 -0.027068;5.623033;4.974787;,
 -0.010609;5.598701;5.024721;,
 -0.010810;5.598701;4.974721;,
 0.035100;5.469999;15.024697;,
 0.034899;5.469999;14.974698;,
 0.029391;5.441298;15.024721;,
 0.029190;5.441298;14.974721;,
 0.013133;5.416966;15.024786;,
 0.012932;5.416966;14.974787;,
 -0.011199;5.400708;15.024883;,
 -0.011399;5.400708;14.974884;,
 -0.039900;5.395000;15.024999;,
 -0.040100;5.395000;14.974999;,
 -0.068601;5.400708;15.025114;,
 -0.068801;5.400708;14.975115;,
 -0.092932;5.416966;15.025211;,
 -0.093133;5.416966;14.975212;,
 -0.109190;5.441298;15.025277;,
 -0.109391;5.441298;14.975277;,
 -0.114899;5.469999;15.025300;,
 -0.115100;5.469999;14.975301;,
 -0.109190;5.498701;15.025277;,
 -0.109391;5.498701;14.975277;,
 -0.092932;5.523032;15.025211;,
 -0.093133;5.523032;14.975212;,
 -0.068601;5.539290;15.025114;,
 -0.068801;5.539290;14.975115;,
 -0.039900;5.544999;15.024999;,
 -0.040100;5.544999;14.974999;,
 -0.011199;5.539290;15.024883;,
 -0.011399;5.539290;14.974884;,
 0.013133;5.523032;15.024786;,
 0.012932;5.523032;14.974787;,
 0.029391;5.498701;15.024721;,
 0.029190;5.498701;14.974721;,
 0.075100;5.449999;25.024696;,
 0.074899;5.449999;24.974697;,
 0.069391;5.421298;25.024719;,
 0.069190;5.421298;24.974720;,
 0.053133;5.396966;25.024784;,
 0.052932;5.396966;24.974785;,
 0.028801;5.380708;25.024883;,
 0.028601;5.380708;24.974884;,
 0.000100;5.375000;25.024998;,
 -0.000100;5.375000;24.974998;,
 -0.028601;5.380708;25.025112;,
 -0.028801;5.380708;24.975113;,
 -0.052932;5.396966;25.025211;,
 -0.053133;5.396966;24.975212;,
 -0.069190;5.421298;25.025276;,
 -0.069391;5.421298;24.975277;,
 -0.074899;5.449999;25.025299;,
 -0.075100;5.449999;24.975300;,
 -0.069190;5.478701;25.025276;,
 -0.069391;5.478701;24.975277;,
 -0.052932;5.503032;25.025211;,
 -0.053133;5.503032;24.975212;,
 -0.028601;5.519290;25.025112;,
 -0.028801;5.519290;24.975113;,
 0.000100;5.524999;25.024998;,
 -0.000100;5.524999;24.974998;,
 0.028801;5.519290;25.024883;,
 0.028601;5.519290;24.974884;,
 0.053133;5.503032;25.024784;,
 0.052932;5.503032;24.974785;,
 0.069391;5.478701;25.024719;,
 0.069190;5.478701;24.974720;,
 0.115100;5.469999;35.024696;,
 0.114899;5.469999;34.974697;,
 0.109391;5.441298;35.024719;,
 0.109190;5.441298;34.974720;,
 0.093133;5.416966;35.024784;,
 0.092932;5.416966;34.974785;,
 0.068801;5.400708;35.024879;,
 0.068601;5.400708;34.974880;,
 0.040100;5.395000;35.024998;,
 0.039900;5.395000;34.974995;,
 0.011399;5.400708;35.025112;,
 0.011199;5.400708;34.975113;,
 -0.012932;5.416966;35.025208;,
 -0.013133;5.416966;34.975208;,
 -0.029190;5.441298;35.025272;,
 -0.029391;5.441298;34.975273;,
 -0.034899;5.469999;35.025295;,
 -0.035100;5.469999;34.975296;,
 -0.029190;5.498701;35.025272;,
 -0.029391;5.498701;34.975273;,
 -0.012932;5.523032;35.025208;,
 -0.013133;5.523032;34.975208;,
 0.011399;5.539290;35.025112;,
 0.011199;5.539290;34.975113;,
 0.040100;5.544999;35.024998;,
 0.039900;5.544999;34.974995;,
 0.068801;5.539290;35.024879;,
 0.068601;5.539290;34.974880;,
 0.093133;5.523032;35.024784;,
 0.092932;5.523032;34.974785;,
 0.109391;5.498701;35.024719;,
 0.109190;5.498701;34.974720;,
 0.155100;5.570000;45.024696;,
 0.154899;5.570000;44.974697;,
 0.149391;5.541298;45.024719;,
 0.149190;5.541298;44.974720;,
 0.133133;5.516967;45.024784;,
 0.132932;5.516967;44.974785;,
 0.108801;5.500709;45.024879;,
 0.108601;5.500709;44.974880;,
 0.080100;5.495000;45.024998;,
 0.079900;5.495000;44.974995;,
 0.051399;5.500709;45.025112;,
 0.051199;5.500709;44.975113;,
 0.027068;5.516967;45.025208;,
 0.026867;5.516967;44.975208;,
 0.010810;5.541298;45.025272;,
 0.010609;5.541298;44.975273;,
 0.005101;5.570000;45.025295;,
 0.004900;5.570000;44.975296;,
 0.010810;5.598701;45.025272;,
 0.010609;5.598701;44.975273;,
 0.027068;5.623033;45.025208;,
 0.026867;5.623033;44.975208;,
 0.051399;5.639291;45.025112;,
 0.051199;5.639291;44.975113;,
 0.080100;5.645000;45.024998;,
 0.079900;5.645000;44.974995;,
 0.108801;5.639291;45.024879;,
 0.108601;5.639291;44.974880;,
 0.133133;5.623033;45.024784;,
 0.132932;5.623033;44.974785;,
 0.149391;5.598701;45.024719;,
 0.149190;5.598701;44.974720;;
 1020;
 3;1,0,2;,
 3;1,2,3;,
 3;3,2,4;,
 3;3,4,5;,
 3;5,4,6;,
 3;5,6,7;,
 3;7,6,8;,
 3;7,8,9;,
 3;9,8,10;,
 3;9,10,11;,
 3;11,10,12;,
 3;11,12,13;,
 3;13,12,14;,
 3;13,14,15;,
 3;15,14,16;,
 3;15,16,17;,
 3;17,16,18;,
 3;17,18,19;,
 3;19,18,20;,
 3;19,20,21;,
 3;21,20,22;,
 3;21,22,23;,
 3;23,22,24;,
 3;23,24,25;,
 3;25,24,26;,
 3;25,26,27;,
 3;27,26,28;,
 3;27,28,29;,
 3;29,28,30;,
 3;29,30,31;,
 3;31,30,0;,
 3;31,0,1;,
 3;30,28,26;,
 3;30,26,24;,
 3;30,24,22;,
 3;30,22,20;,
 3;30,20,18;,
 3;30,18,16;,
 3;30,16,14;,
 3;30,14,12;,
 3;30,12,10;,
 3;30,10,8;,
 3;30,8,6;,
 3;30,6,4;,
 3;30,4,2;,
 3;30,2,0;,
 3;1,3,5;,
 3;1,5,7;,
 3;1,7,9;,
 3;1,9,11;,
 3;1,11,13;,
 3;1,13,15;,
 3;1,15,17;,
 3;1,17,19;,
 3;1,19,21;,
 3;1,21,23;,
 3;1,23,25;,
 3;1,25,27;,
 3;1,27,29;,
 3;1,29,31;,
 3;33,32,34;,
 3;33,34,35;,
 3;35,34,36;,
 3;35,36,37;,
 3;37,36,38;,
 3;37,38,39;,
 3;39,38,40;,
 3;39,40,41;,
 3;41,40,42;,
 3;41,42,43;,
 3;43,42,44;,
 3;43,44,45;,
 3;45,44,46;,
 3;45,46,47;,
 3;47,46,48;,
 3;47,48,49;,
 3;49,48,50;,
 3;49,50,51;,
 3;51,50,52;,
 3;51,52,53;,
 3;53,52,54;,
 3;53,54,55;,
 3;55,54,56;,
 3;55,56,57;,
 3;57,56,58;,
 3;57,58,59;,
 3;59,58,60;,
 3;59,60,61;,
 3;61,60,62;,
 3;61,62,63;,
 3;63,62,32;,
 3;63,32,33;,
 3;62,60,58;,
 3;62,58,56;,
 3;62,56,54;,
 3;62,54,52;,
 3;62,52,50;,
 3;62,50,48;,
 3;62,48,46;,
 3;62,46,44;,
 3;62,44,42;,
 3;62,42,40;,
 3;62,40,38;,
 3;62,38,36;,
 3;62,36,34;,
 3;62,34,32;,
 3;33,35,37;,
 3;33,37,39;,
 3;33,39,41;,
 3;33,41,43;,
 3;33,43,45;,
 3;33,45,47;,
 3;33,47,49;,
 3;33,49,51;,
 3;33,51,53;,
 3;33,53,55;,
 3;33,55,57;,
 3;33,57,59;,
 3;33,59,61;,
 3;33,61,63;,
 3;65,64,66;,
 3;65,66,67;,
 3;67,66,68;,
 3;67,68,69;,
 3;69,68,70;,
 3;69,70,71;,
 3;71,70,72;,
 3;71,72,73;,
 3;73,72,74;,
 3;73,74,75;,
 3;75,74,76;,
 3;75,76,77;,
 3;77,76,78;,
 3;77,78,79;,
 3;79,78,80;,
 3;79,80,81;,
 3;81,80,82;,
 3;81,82,83;,
 3;83,82,84;,
 3;83,84,85;,
 3;85,84,86;,
 3;85,86,87;,
 3;87,86,88;,
 3;87,88,89;,
 3;89,88,90;,
 3;89,90,91;,
 3;91,90,92;,
 3;91,92,93;,
 3;93,92,94;,
 3;93,94,95;,
 3;95,94,64;,
 3;95,64,65;,
 3;94,92,90;,
 3;94,90,88;,
 3;94,88,86;,
 3;94,86,84;,
 3;94,84,82;,
 3;94,82,80;,
 3;94,80,78;,
 3;94,78,76;,
 3;94,76,74;,
 3;94,74,72;,
 3;94,72,70;,
 3;94,70,68;,
 3;94,68,66;,
 3;94,66,64;,
 3;65,67,69;,
 3;65,69,71;,
 3;65,71,73;,
 3;65,73,75;,
 3;65,75,77;,
 3;65,77,79;,
 3;65,79,81;,
 3;65,81,83;,
 3;65,83,85;,
 3;65,85,87;,
 3;65,87,89;,
 3;65,89,91;,
 3;65,91,93;,
 3;65,93,95;,
 3;97,96,98;,
 3;97,98,99;,
 3;99,98,100;,
 3;99,100,101;,
 3;101,100,102;,
 3;101,102,103;,
 3;103,102,104;,
 3;103,104,105;,
 3;105,104,106;,
 3;105,106,107;,
 3;107,106,108;,
 3;107,108,109;,
 3;109,108,110;,
 3;109,110,111;,
 3;111,110,112;,
 3;111,112,113;,
 3;113,112,114;,
 3;113,114,115;,
 3;115,114,116;,
 3;115,116,117;,
 3;117,116,118;,
 3;117,118,119;,
 3;119,118,120;,
 3;119,120,121;,
 3;121,120,122;,
 3;121,122,123;,
 3;123,122,124;,
 3;123,124,125;,
 3;125,124,126;,
 3;125,126,127;,
 3;127,126,96;,
 3;127,96,97;,
 3;126,124,122;,
 3;126,122,120;,
 3;126,120,118;,
 3;126,118,116;,
 3;126,116,114;,
 3;126,114,112;,
 3;126,112,110;,
 3;126,110,108;,
 3;126,108,106;,
 3;126,106,104;,
 3;126,104,102;,
 3;126,102,100;,
 3;126,100,98;,
 3;126,98,96;,
 3;97,99,101;,
 3;97,101,103;,
 3;97,103,105;,
 3;97,105,107;,
 3;97,107,109;,
 3;97,109,111;,
 3;97,111,113;,
 3;97,113,115;,
 3;97,115,117;,
 3;97,117,119;,
 3;97,119,121;,
 3;97,121,123;,
 3;97,123,125;,
 3;97,125,127;,
 3;129,128,130;,
 3;129,130,131;,
 3;131,130,132;,
 3;131,132,133;,
 3;133,132,134;,
 3;133,134,135;,
 3;135,134,136;,
 3;135,136,137;,
 3;137,136,138;,
 3;137,138,139;,
 3;139,138,140;,
 3;139,140,141;,
 3;141,140,142;,
 3;141,142,143;,
 3;143,142,144;,
 3;143,144,145;,
 3;145,144,146;,
 3;145,146,147;,
 3;147,146,148;,
 3;147,148,149;,
 3;149,148,150;,
 3;149,150,151;,
 3;151,150,152;,
 3;151,152,153;,
 3;153,152,154;,
 3;153,154,155;,
 3;155,154,156;,
 3;155,156,157;,
 3;157,156,158;,
 3;157,158,159;,
 3;159,158,128;,
 3;159,128,129;,
 3;158,156,154;,
 3;158,154,152;,
 3;158,152,150;,
 3;158,150,148;,
 3;158,148,146;,
 3;158,146,144;,
 3;158,144,142;,
 3;158,142,140;,
 3;158,140,138;,
 3;158,138,136;,
 3;158,136,134;,
 3;158,134,132;,
 3;158,132,130;,
 3;158,130,128;,
 3;129,131,133;,
 3;129,133,135;,
 3;129,135,137;,
 3;129,137,139;,
 3;129,139,141;,
 3;129,141,143;,
 3;129,143,145;,
 3;129,145,147;,
 3;129,147,149;,
 3;129,149,151;,
 3;129,151,153;,
 3;129,153,155;,
 3;129,155,157;,
 3;129,157,159;,
 3;161,160,162;,
 3;161,162,163;,
 3;163,162,164;,
 3;163,164,165;,
 3;165,164,166;,
 3;165,166,167;,
 3;167,166,168;,
 3;167,168,169;,
 3;169,168,170;,
 3;169,170,171;,
 3;171,170,172;,
 3;171,172,173;,
 3;173,172,174;,
 3;173,174,175;,
 3;175,174,176;,
 3;175,176,177;,
 3;177,176,178;,
 3;177,178,179;,
 3;179,178,180;,
 3;179,180,181;,
 3;181,180,182;,
 3;181,182,183;,
 3;183,182,184;,
 3;183,184,185;,
 3;185,184,186;,
 3;185,186,187;,
 3;187,186,188;,
 3;187,188,189;,
 3;189,188,190;,
 3;189,190,191;,
 3;191,190,160;,
 3;191,160,161;,
 3;190,188,186;,
 3;190,186,184;,
 3;190,184,182;,
 3;190,182,180;,
 3;190,180,178;,
 3;190,178,176;,
 3;190,176,174;,
 3;190,174,172;,
 3;190,172,170;,
 3;190,170,168;,
 3;190,168,166;,
 3;190,166,164;,
 3;190,164,162;,
 3;190,162,160;,
 3;161,163,165;,
 3;161,165,167;,
 3;161,167,169;,
 3;161,169,171;,
 3;161,171,173;,
 3;161,173,175;,
 3;161,175,177;,
 3;161,177,179;,
 3;161,179,181;,
 3;161,181,183;,
 3;161,183,185;,
 3;161,185,187;,
 3;161,187,189;,
 3;161,189,191;,
 3;193,192,194;,
 3;193,194,195;,
 3;195,194,196;,
 3;195,196,197;,
 3;197,196,198;,
 3;197,198,199;,
 3;199,198,200;,
 3;199,200,201;,
 3;201,200,202;,
 3;201,202,203;,
 3;203,202,204;,
 3;203,204,205;,
 3;205,204,206;,
 3;205,206,207;,
 3;207,206,208;,
 3;207,208,209;,
 3;209,208,210;,
 3;209,210,211;,
 3;211,210,212;,
 3;211,212,213;,
 3;213,212,214;,
 3;213,214,215;,
 3;215,214,216;,
 3;215,216,217;,
 3;217,216,218;,
 3;217,218,219;,
 3;219,218,220;,
 3;219,220,221;,
 3;221,220,222;,
 3;221,222,223;,
 3;223,222,192;,
 3;223,192,193;,
 3;222,220,218;,
 3;222,218,216;,
 3;222,216,214;,
 3;222,214,212;,
 3;222,212,210;,
 3;222,210,208;,
 3;222,208,206;,
 3;222,206,204;,
 3;222,204,202;,
 3;222,202,200;,
 3;222,200,198;,
 3;222,198,196;,
 3;222,196,194;,
 3;222,194,192;,
 3;193,195,197;,
 3;193,197,199;,
 3;193,199,201;,
 3;193,201,203;,
 3;193,203,205;,
 3;193,205,207;,
 3;193,207,209;,
 3;193,209,211;,
 3;193,211,213;,
 3;193,213,215;,
 3;193,215,217;,
 3;193,217,219;,
 3;193,219,221;,
 3;193,221,223;,
 3;225,224,226;,
 3;225,226,227;,
 3;227,226,228;,
 3;227,228,229;,
 3;229,228,230;,
 3;229,230,231;,
 3;231,230,232;,
 3;231,232,233;,
 3;233,232,234;,
 3;233,234,235;,
 3;235,234,236;,
 3;235,236,237;,
 3;237,236,238;,
 3;237,238,239;,
 3;239,238,240;,
 3;239,240,241;,
 3;241,240,242;,
 3;241,242,243;,
 3;243,242,244;,
 3;243,244,245;,
 3;245,244,246;,
 3;245,246,247;,
 3;247,246,248;,
 3;247,248,249;,
 3;249,248,250;,
 3;249,250,251;,
 3;251,250,252;,
 3;251,252,253;,
 3;253,252,254;,
 3;253,254,255;,
 3;255,254,224;,
 3;255,224,225;,
 3;254,252,250;,
 3;254,250,248;,
 3;254,248,246;,
 3;254,246,244;,
 3;254,244,242;,
 3;254,242,240;,
 3;254,240,238;,
 3;254,238,236;,
 3;254,236,234;,
 3;254,234,232;,
 3;254,232,230;,
 3;254,230,228;,
 3;254,228,226;,
 3;254,226,224;,
 3;225,227,229;,
 3;225,229,231;,
 3;225,231,233;,
 3;225,233,235;,
 3;225,235,237;,
 3;225,237,239;,
 3;225,239,241;,
 3;225,241,243;,
 3;225,243,245;,
 3;225,245,247;,
 3;225,247,249;,
 3;225,249,251;,
 3;225,251,253;,
 3;225,253,255;,
 3;257,256,258;,
 3;257,258,259;,
 3;259,258,260;,
 3;259,260,261;,
 3;261,260,262;,
 3;261,262,263;,
 3;263,262,264;,
 3;263,264,265;,
 3;265,264,266;,
 3;265,266,267;,
 3;267,266,268;,
 3;267,268,269;,
 3;269,268,270;,
 3;269,270,271;,
 3;271,270,272;,
 3;271,272,273;,
 3;273,272,274;,
 3;273,274,275;,
 3;275,274,276;,
 3;275,276,277;,
 3;277,276,278;,
 3;277,278,279;,
 3;279,278,280;,
 3;279,280,281;,
 3;281,280,282;,
 3;281,282,283;,
 3;283,282,284;,
 3;283,284,285;,
 3;285,284,286;,
 3;285,286,287;,
 3;287,286,256;,
 3;287,256,257;,
 3;286,284,282;,
 3;286,282,280;,
 3;286,280,278;,
 3;286,278,276;,
 3;286,276,274;,
 3;286,274,272;,
 3;286,272,270;,
 3;286,270,268;,
 3;286,268,266;,
 3;286,266,264;,
 3;286,264,262;,
 3;286,262,260;,
 3;286,260,258;,
 3;286,258,256;,
 3;257,259,261;,
 3;257,261,263;,
 3;257,263,265;,
 3;257,265,267;,
 3;257,267,269;,
 3;257,269,271;,
 3;257,271,273;,
 3;257,273,275;,
 3;257,275,277;,
 3;257,277,279;,
 3;257,279,281;,
 3;257,281,283;,
 3;257,283,285;,
 3;257,285,287;,
 3;289,288,290;,
 3;289,290,291;,
 3;291,290,292;,
 3;291,292,293;,
 3;293,292,294;,
 3;293,294,295;,
 3;295,294,296;,
 3;295,296,297;,
 3;297,296,298;,
 3;297,298,299;,
 3;299,298,300;,
 3;299,300,301;,
 3;301,300,302;,
 3;301,302,303;,
 3;303,302,304;,
 3;303,304,305;,
 3;305,304,306;,
 3;305,306,307;,
 3;307,306,308;,
 3;307,308,309;,
 3;309,308,310;,
 3;309,310,311;,
 3;311,310,312;,
 3;311,312,313;,
 3;313,312,314;,
 3;313,314,315;,
 3;315,314,316;,
 3;315,316,317;,
 3;317,316,318;,
 3;317,318,319;,
 3;319,318,288;,
 3;319,288,289;,
 3;318,316,314;,
 3;318,314,312;,
 3;318,312,310;,
 3;318,310,308;,
 3;318,308,306;,
 3;318,306,304;,
 3;318,304,302;,
 3;318,302,300;,
 3;318,300,298;,
 3;318,298,296;,
 3;318,296,294;,
 3;318,294,292;,
 3;318,292,290;,
 3;318,290,288;,
 3;289,291,293;,
 3;289,293,295;,
 3;289,295,297;,
 3;289,297,299;,
 3;289,299,301;,
 3;289,301,303;,
 3;289,303,305;,
 3;289,305,307;,
 3;289,307,309;,
 3;289,309,311;,
 3;289,311,313;,
 3;289,313,315;,
 3;289,315,317;,
 3;289,317,319;,
 3;321,320,322;,
 3;321,322,323;,
 3;323,322,324;,
 3;323,324,325;,
 3;325,324,326;,
 3;325,326,327;,
 3;327,326,328;,
 3;327,328,329;,
 3;329,328,330;,
 3;329,330,331;,
 3;331,330,332;,
 3;331,332,333;,
 3;333,332,334;,
 3;333,334,335;,
 3;335,334,336;,
 3;335,336,337;,
 3;337,336,338;,
 3;337,338,339;,
 3;339,338,340;,
 3;339,340,341;,
 3;341,340,342;,
 3;341,342,343;,
 3;343,342,344;,
 3;343,344,345;,
 3;345,344,346;,
 3;345,346,347;,
 3;347,346,348;,
 3;347,348,349;,
 3;349,348,350;,
 3;349,350,351;,
 3;351,350,320;,
 3;351,320,321;,
 3;350,348,346;,
 3;350,346,344;,
 3;350,344,342;,
 3;350,342,340;,
 3;350,340,338;,
 3;350,338,336;,
 3;350,336,334;,
 3;350,334,332;,
 3;350,332,330;,
 3;350,330,328;,
 3;350,328,326;,
 3;350,326,324;,
 3;350,324,322;,
 3;350,322,320;,
 3;321,323,325;,
 3;321,325,327;,
 3;321,327,329;,
 3;321,329,331;,
 3;321,331,333;,
 3;321,333,335;,
 3;321,335,337;,
 3;321,337,339;,
 3;321,339,341;,
 3;321,341,343;,
 3;321,343,345;,
 3;321,345,347;,
 3;321,347,349;,
 3;321,349,351;,
 3;353,352,354;,
 3;353,354,355;,
 3;355,354,356;,
 3;355,356,357;,
 3;357,356,358;,
 3;357,358,359;,
 3;359,358,360;,
 3;359,360,361;,
 3;361,360,362;,
 3;361,362,363;,
 3;363,362,364;,
 3;363,364,365;,
 3;365,364,366;,
 3;365,366,367;,
 3;367,366,368;,
 3;367,368,369;,
 3;369,368,370;,
 3;369,370,371;,
 3;371,370,372;,
 3;371,372,373;,
 3;373,372,374;,
 3;373,374,375;,
 3;375,374,376;,
 3;375,376,377;,
 3;377,376,378;,
 3;377,378,379;,
 3;379,378,380;,
 3;379,380,381;,
 3;381,380,382;,
 3;381,382,383;,
 3;383,382,352;,
 3;383,352,353;,
 3;382,380,378;,
 3;382,378,376;,
 3;382,376,374;,
 3;382,374,372;,
 3;382,372,370;,
 3;382,370,368;,
 3;382,368,366;,
 3;382,366,364;,
 3;382,364,362;,
 3;382,362,360;,
 3;382,360,358;,
 3;382,358,356;,
 3;382,356,354;,
 3;382,354,352;,
 3;353,355,357;,
 3;353,357,359;,
 3;353,359,361;,
 3;353,361,363;,
 3;353,363,365;,
 3;353,365,367;,
 3;353,367,369;,
 3;353,369,371;,
 3;353,371,373;,
 3;353,373,375;,
 3;353,375,377;,
 3;353,377,379;,
 3;353,379,381;,
 3;353,381,383;,
 3;385,384,386;,
 3;385,386,387;,
 3;387,386,388;,
 3;387,388,389;,
 3;389,388,390;,
 3;389,390,391;,
 3;391,390,392;,
 3;391,392,393;,
 3;393,392,394;,
 3;393,394,395;,
 3;395,394,396;,
 3;395,396,397;,
 3;397,396,398;,
 3;397,398,399;,
 3;399,398,400;,
 3;399,400,401;,
 3;401,400,402;,
 3;401,402,403;,
 3;403,402,404;,
 3;403,404,405;,
 3;405,404,406;,
 3;405,406,407;,
 3;407,406,408;,
 3;407,408,409;,
 3;409,408,410;,
 3;409,410,411;,
 3;411,410,412;,
 3;411,412,413;,
 3;413,412,414;,
 3;413,414,415;,
 3;415,414,384;,
 3;415,384,385;,
 3;414,412,410;,
 3;414,410,408;,
 3;414,408,406;,
 3;414,406,404;,
 3;414,404,402;,
 3;414,402,400;,
 3;414,400,398;,
 3;414,398,396;,
 3;414,396,394;,
 3;414,394,392;,
 3;414,392,390;,
 3;414,390,388;,
 3;414,388,386;,
 3;414,386,384;,
 3;385,387,389;,
 3;385,389,391;,
 3;385,391,393;,
 3;385,393,395;,
 3;385,395,397;,
 3;385,397,399;,
 3;385,399,401;,
 3;385,401,403;,
 3;385,403,405;,
 3;385,405,407;,
 3;385,407,409;,
 3;385,409,411;,
 3;385,411,413;,
 3;385,413,415;,
 3;417,416,418;,
 3;417,418,419;,
 3;419,418,420;,
 3;419,420,421;,
 3;421,420,422;,
 3;421,422,423;,
 3;423,422,424;,
 3;423,424,425;,
 3;425,424,426;,
 3;425,426,427;,
 3;427,426,428;,
 3;427,428,429;,
 3;429,428,430;,
 3;429,430,431;,
 3;431,430,432;,
 3;431,432,433;,
 3;433,432,434;,
 3;433,434,435;,
 3;435,434,436;,
 3;435,436,437;,
 3;437,436,438;,
 3;437,438,439;,
 3;439,438,440;,
 3;439,440,441;,
 3;441,440,442;,
 3;441,442,443;,
 3;443,442,444;,
 3;443,444,445;,
 3;445,444,446;,
 3;445,446,447;,
 3;447,446,416;,
 3;447,416,417;,
 3;446,444,442;,
 3;446,442,440;,
 3;446,440,438;,
 3;446,438,436;,
 3;446,436,434;,
 3;446,434,432;,
 3;446,432,430;,
 3;446,430,428;,
 3;446,428,426;,
 3;446,426,424;,
 3;446,424,422;,
 3;446,422,420;,
 3;446,420,418;,
 3;446,418,416;,
 3;417,419,421;,
 3;417,421,423;,
 3;417,423,425;,
 3;417,425,427;,
 3;417,427,429;,
 3;417,429,431;,
 3;417,431,433;,
 3;417,433,435;,
 3;417,435,437;,
 3;417,437,439;,
 3;417,439,441;,
 3;417,441,443;,
 3;417,443,445;,
 3;417,445,447;,
 3;449,448,450;,
 3;449,450,451;,
 3;451,450,452;,
 3;451,452,453;,
 3;453,452,454;,
 3;453,454,455;,
 3;455,454,456;,
 3;455,456,457;,
 3;457,456,458;,
 3;457,458,459;,
 3;459,458,460;,
 3;459,460,461;,
 3;461,460,462;,
 3;461,462,463;,
 3;463,462,464;,
 3;463,464,465;,
 3;465,464,466;,
 3;465,466,467;,
 3;467,466,468;,
 3;467,468,469;,
 3;469,468,470;,
 3;469,470,471;,
 3;471,470,472;,
 3;471,472,473;,
 3;473,472,474;,
 3;473,474,475;,
 3;475,474,476;,
 3;475,476,477;,
 3;477,476,478;,
 3;477,478,479;,
 3;479,478,448;,
 3;479,448,449;,
 3;478,476,474;,
 3;478,474,472;,
 3;478,472,470;,
 3;478,470,468;,
 3;478,468,466;,
 3;478,466,464;,
 3;478,464,462;,
 3;478,462,460;,
 3;478,460,458;,
 3;478,458,456;,
 3;478,456,454;,
 3;478,454,452;,
 3;478,452,450;,
 3;478,450,448;,
 3;449,451,453;,
 3;449,453,455;,
 3;449,455,457;,
 3;449,457,459;,
 3;449,459,461;,
 3;449,461,463;,
 3;449,463,465;,
 3;449,465,467;,
 3;449,467,469;,
 3;449,469,471;,
 3;449,471,473;,
 3;449,473,475;,
 3;449,475,477;,
 3;449,477,479;,
 3;481,480,482;,
 3;481,482,483;,
 3;483,482,484;,
 3;483,484,485;,
 3;485,484,486;,
 3;485,486,487;,
 3;487,486,488;,
 3;487,488,489;,
 3;489,488,490;,
 3;489,490,491;,
 3;491,490,492;,
 3;491,492,493;,
 3;493,492,494;,
 3;493,494,495;,
 3;495,494,496;,
 3;495,496,497;,
 3;497,496,498;,
 3;497,498,499;,
 3;499,498,500;,
 3;499,500,501;,
 3;501,500,502;,
 3;501,502,503;,
 3;503,502,504;,
 3;503,504,505;,
 3;505,504,506;,
 3;505,506,507;,
 3;507,506,508;,
 3;507,508,509;,
 3;509,508,510;,
 3;509,510,511;,
 3;511,510,480;,
 3;511,480,481;,
 3;510,508,506;,
 3;510,506,504;,
 3;510,504,502;,
 3;510,502,500;,
 3;510,500,498;,
 3;510,498,496;,
 3;510,496,494;,
 3;510,494,492;,
 3;510,492,490;,
 3;510,490,488;,
 3;510,488,486;,
 3;510,486,484;,
 3;510,484,482;,
 3;510,482,480;,
 3;481,483,485;,
 3;481,485,487;,
 3;481,487,489;,
 3;481,489,491;,
 3;481,491,493;,
 3;481,493,495;,
 3;481,495,497;,
 3;481,497,499;,
 3;481,499,501;,
 3;481,501,503;,
 3;481,503,505;,
 3;481,505,507;,
 3;481,507,509;,
 3;481,509,511;,
 3;513,512,514;,
 3;513,514,515;,
 3;515,514,516;,
 3;515,516,517;,
 3;517,516,518;,
 3;517,518,519;,
 3;519,518,520;,
 3;519,520,521;,
 3;521,520,522;,
 3;521,522,523;,
 3;523,522,524;,
 3;523,524,525;,
 3;525,524,526;,
 3;525,526,527;,
 3;527,526,528;,
 3;527,528,529;,
 3;529,528,530;,
 3;529,530,531;,
 3;531,530,532;,
 3;531,532,533;,
 3;533,532,534;,
 3;533,534,535;,
 3;535,534,536;,
 3;535,536,537;,
 3;537,536,538;,
 3;537,538,539;,
 3;539,538,540;,
 3;539,540,541;,
 3;541,540,542;,
 3;541,542,543;,
 3;543,542,512;,
 3;543,512,513;,
 3;542,540,538;,
 3;542,538,536;,
 3;542,536,534;,
 3;542,534,532;,
 3;542,532,530;,
 3;542,530,528;,
 3;542,528,526;,
 3;542,526,524;,
 3;542,524,522;,
 3;542,522,520;,
 3;542,520,518;,
 3;542,518,516;,
 3;542,516,514;,
 3;542,514,512;,
 3;513,515,517;,
 3;513,517,519;,
 3;513,519,521;,
 3;513,521,523;,
 3;513,523,525;,
 3;513,525,527;,
 3;513,527,529;,
 3;513,529,531;,
 3;513,531,533;,
 3;513,533,535;,
 3;513,535,537;,
 3;513,537,539;,
 3;513,539,541;,
 3;513,541,543;;

 MeshMaterialList  {
  17;
  1020;
  0,
  0,
  0,
  0,
  0,
  0,
  0,
  0,
  0,
  0,
  0,
  0,
  0,
  0,
  0,
  0,
  0,
  0,
  0,
  0,
  0,
  0,
  0,
  0,
  0,
  0,
  0,
  0,
  0,
  0,
  0,
  0,
  0,
  0,
  0,
  0,
  0,
  0,
  0,
  0,
  0,
  0,
  0,
  0,
  0,
  0,
  0,
  0,
  0,
  0,
  0,
  0,
  0,
  0,
  0,
  0,
  0,
  0,
  0,
  0,
  1,
  1,
  1,
  1,
  1,
  1,
  1,
  1,
  1,
  1,
  1,
  1,
  1,
  1,
  1,
  1,
  1,
  1,
  1,
  1,
  1,
  1,
  1,
  1,
  1,
  1,
  1,
  1,
  1,
  1,
  1,
  1,
  1,
  1,
  1,
  1,
  1,
  1,
  1,
  1,
  1,
  1,
  1,
  1,
  1,
  1,
  1,
  1,
  1,
  1,
  1,
  1,
  1,
  1,
  1,
  1,
  1,
  1,
  1,
  1,
  2,
  2,
  2,
  2,
  2,
  2,
  2,
  2,
  2,
  2,
  2,
  2,
  2,
  2,
  2,
  2,
  2,
  2,
  2,
  2,
  2,
  2,
  2,
  2,
  2,
  2,
  2,
  2,
  2,
  2,
  2,
  2,
  2,
  2,
  2,
  2,
  2,
  2,
  2,
  2,
  2,
  2,
  2,
  2,
  2,
  2,
  2,
  2,
  2,
  2,
  2,
  2,
  2,
  2,
  2,
  2,
  2,
  2,
  2,
  2,
  3,
  3,
  3,
  3,
  3,
  3,
  3,
  3,
  3,
  3,
  3,
  3,
  3,
  3,
  3,
  3,
  3,
  3,
  3,
  3,
  3,
  3,
  3,
  3,
  3,
  3,
  3,
  3,
  3,
  3,
  3,
  3,
  3,
  3,
  3,
  3,
  3,
  3,
  3,
  3,
  3,
  3,
  3,
  3,
  3,
  3,
  3,
  3,
  3,
  3,
  3,
  3,
  3,
  3,
  3,
  3,
  3,
  3,
  3,
  3,
  4,
  4,
  4,
  4,
  4,
  4,
  4,
  4,
  4,
  4,
  4,
  4,
  4,
  4,
  4,
  4,
  4,
  4,
  4,
  4,
  4,
  4,
  4,
  4,
  4,
  4,
  4,
  4,
  4,
  4,
  4,
  4,
  4,
  4,
  4,
  4,
  4,
  4,
  4,
  4,
  4,
  4,
  4,
  4,
  4,
  4,
  4,
  4,
  4,
  4,
  4,
  4,
  4,
  4,
  4,
  4,
  4,
  4,
  4,
  4,
  5,
  5,
  5,
  5,
  5,
  5,
  5,
  5,
  5,
  5,
  5,
  5,
  5,
  5,
  5,
  5,
  5,
  5,
  5,
  5,
  5,
  5,
  5,
  5,
  5,
  5,
  5,
  5,
  5,
  5,
  5,
  5,
  5,
  5,
  5,
  5,
  5,
  5,
  5,
  5,
  5,
  5,
  5,
  5,
  5,
  5,
  5,
  5,
  5,
  5,
  5,
  5,
  5,
  5,
  5,
  5,
  5,
  5,
  5,
  5,
  6,
  6,
  6,
  6,
  6,
  6,
  6,
  6,
  6,
  6,
  6,
  6,
  6,
  6,
  6,
  6,
  6,
  6,
  6,
  6,
  6,
  6,
  6,
  6,
  6,
  6,
  6,
  6,
  6,
  6,
  6,
  6,
  6,
  6,
  6,
  6,
  6,
  6,
  6,
  6,
  6,
  6,
  6,
  6,
  6,
  6,
  6,
  6,
  6,
  6,
  6,
  6,
  6,
  6,
  6,
  6,
  6,
  6,
  6,
  6,
  7,
  7,
  7,
  7,
  7,
  7,
  7,
  7,
  7,
  7,
  7,
  7,
  7,
  7,
  7,
  7,
  7,
  7,
  7,
  7,
  7,
  7,
  7,
  7,
  7,
  7,
  7,
  7,
  7,
  7,
  7,
  7,
  7,
  7,
  7,
  7,
  7,
  7,
  7,
  7,
  7,
  7,
  7,
  7,
  7,
  7,
  7,
  7,
  7,
  7,
  7,
  7,
  7,
  7,
  7,
  7,
  7,
  7,
  7,
  7,
  8,
  8,
  8,
  8,
  8,
  8,
  8,
  8,
  8,
  8,
  8,
  8,
  8,
  8,
  8,
  8,
  8,
  8,
  8,
  8,
  8,
  8,
  8,
  8,
  8,
  8,
  8,
  8,
  8,
  8,
  8,
  8,
  8,
  8,
  8,
  8,
  8,
  8,
  8,
  8,
  8,
  8,
  8,
  8,
  8,
  8,
  8,
  8,
  8,
  8,
  8,
  8,
  8,
  8,
  8,
  8,
  8,
  8,
  8,
  8,
  9,
  9,
  9,
  9,
  9,
  9,
  9,
  9,
  9,
  9,
  9,
  9,
  9,
  9,
  9,
  9,
  9,
  9,
  9,
  9,
  9,
  9,
  9,
  9,
  9,
  9,
  9,
  9,
  9,
  9,
  9,
  9,
  9,
  9,
  9,
  9,
  9,
  9,
  9,
  9,
  9,
  9,
  9,
  9,
  9,
  9,
  9,
  9,
  9,
  9,
  9,
  9,
  9,
  9,
  9,
  9,
  9,
  9,
  9,
  9,
  10,
  10,
  10,
  10,
  10,
  10,
  10,
  10,
  10,
  10,
  10,
  10,
  10,
  10,
  10,
  10,
  10,
  10,
  10,
  10,
  10,
  10,
  10,
  10,
  10,
  10,
  10,
  10,
  10,
  10,
  10,
  10,
  10,
  10,
  10,
  10,
  10,
  10,
  10,
  10,
  10,
  10,
  10,
  10,
  10,
  10,
  10,
  10,
  10,
  10,
  10,
  10,
  10,
  10,
  10,
  10,
  10,
  10,
  10,
  10,
  11,
  11,
  11,
  11,
  11,
  11,
  11,
  11,
  11,
  11,
  11,
  11,
  11,
  11,
  11,
  11,
  11,
  11,
  11,
  11,
  11,
  11,
  11,
  11,
  11,
  11,
  11,
  11,
  11,
  11,
  11,
  11,
  11,
  11,
  11,
  11,
  11,
  11,
  11,
  11,
  11,
  11,
  11,
  11,
  11,
  11,
  11,
  11,
  11,
  11,
  11,
  11,
  11,
  11,
  11,
  11,
  11,
  11,
  11,
  11,
  12,
  12,
  12,
  12,
  12,
  12,
  12,
  12,
  12,
  12,
  12,
  12,
  12,
  12,
  12,
  12,
  12,
  12,
  12,
  12,
  12,
  12,
  12,
  12,
  12,
  12,
  12,
  12,
  12,
  12,
  12,
  12,
  12,
  12,
  12,
  12,
  12,
  12,
  12,
  12,
  12,
  12,
  12,
  12,
  12,
  12,
  12,
  12,
  12,
  12,
  12,
  12,
  12,
  12,
  12,
  12,
  12,
  12,
  12,
  12,
  13,
  13,
  13,
  13,
  13,
  13,
  13,
  13,
  13,
  13,
  13,
  13,
  13,
  13,
  13,
  13,
  13,
  13,
  13,
  13,
  13,
  13,
  13,
  13,
  13,
  13,
  13,
  13,
  13,
  13,
  13,
  13,
  13,
  13,
  13,
  13,
  13,
  13,
  13,
  13,
  13,
  13,
  13,
  13,
  13,
  13,
  13,
  13,
  13,
  13,
  13,
  13,
  13,
  13,
  13,
  13,
  13,
  13,
  13,
  13,
  14,
  14,
  14,
  14,
  14,
  14,
  14,
  14,
  14,
  14,
  14,
  14,
  14,
  14,
  14,
  14,
  14,
  14,
  14,
  14,
  14,
  14,
  14,
  14,
  14,
  14,
  14,
  14,
  14,
  14,
  14,
  14,
  14,
  14,
  14,
  14,
  14,
  14,
  14,
  14,
  14,
  14,
  14,
  14,
  14,
  14,
  14,
  14,
  14,
  14,
  14,
  14,
  14,
  14,
  14,
  14,
  14,
  14,
  14,
  14,
  15,
  15,
  15,
  15,
  15,
  15,
  15,
  15,
  15,
  15,
  15,
  15,
  15,
  15,
  15,
  15,
  15,
  15,
  15,
  15,
  15,
  15,
  15,
  15,
  15,
  15,
  15,
  15,
  15,
  15,
  15,
  15,
  15,
  15,
  15,
  15,
  15,
  15,
  15,
  15,
  15,
  15,
  15,
  15,
  15,
  15,
  15,
  15,
  15,
  15,
  15,
  15,
  15,
  15,
  15,
  15,
  15,
  15,
  15,
  15,
  16,
  16,
  16,
  16,
  16,
  16,
  16,
  16,
  16,
  16,
  16,
  16,
  16,
  16,
  16,
  16,
  16,
  16,
  16,
  16,
  16,
  16,
  16,
  16,
  16,
  16,
  16,
  16,
  16,
  16,
  16,
  16,
  16,
  16,
  16,
  16,
  16,
  16,
  16,
  16,
  16,
  16,
  16,
  16,
  16,
  16,
  16,
  16,
  16,
  16,
  16,
  16,
  16,
  16,
  16,
  16,
  16,
  16,
  16,
  16;

  Material  {
   0.501961;0.501961;0.188235;1.000000;;
   0.000000;
   0.000000;0.000000;0.000000;;
   0.000000;0.000000;0.000000;;
  }

  Material  {
   0.000000;0.000000;0.000000;1.000000;;
   0.000000;
   0.000000;0.000000;0.000000;;
   0.000000;0.000000;0.000000;;
  }

  Material  {
   0.000000;0.000000;0.000000;1.000000;;
   0.000000;
   0.000000;0.000000;0.000000;;
   0.000000;0.000000;0.000000;;
  }

  Material  {
   0.000000;0.000000;0.000000;1.000000;;
   0.000000;
   0.000000;0.000000;0.000000;;
   0.000000;0.000000;0.000000;;
  }

  Material  {
   0.000000;0.000000;0.000000;1.000000;;
   0.000000;
   0.000000;0.000000;0.000000;;
   0.000000;0.000000;0.000000;;
  }

  Material  {
   0.000000;0.000000;0.000000;1.000000;;
   0.000000;
   0.000000;0.000000;0.000000;;
   0.000000;0.000000;0.000000;;
  }

  Material  {
   0.000000;0.000000;0.000000;1.000000;;
   0.000000;
   0.000000;0.000000;0.000000;;
   0.000000;0.000000;0.000000;;
  }

  Material  {
   0.752941;0.752941;0.878431;1.000000;;
   0.000000;
   0.000000;0.000000;0.000000;;
   0.000000;0.000000;0.000000;;
  }

  Material  {
   0.752941;0.752941;0.878431;1.000000;;
   0.000000;
   0.000000;0.000000;0.000000;;
   0.000000;0.000000;0.000000;;
  }

  Material  {
   0.752941;0.752941;0.878431;1.000000;;
   0.000000;
   0.000000;0.000000;0.000000;;
   0.000000;0.000000;0.000000;;
  }

  Material  {
   0.752941;0.752941;0.878431;1.000000;;
   0.000000;
   0.000000;0.000000;0.000000;;
   0.000000;0.000000;0.000000;;
  }

  Material  {
   0.752941;0.752941;0.878431;1.000000;;
   0.000000;
   0.000000;0.000000;0.000000;;
   0.000000;0.000000;0.000000;;
  }

  Material  {
   0.752941;0.752941;0.878431;1.000000;;
   0.000000;
   0.000000;0.000000;0.000000;;
   0.000000;0.000000;0.000000;;
  }

  Material  {
   0.752941;0.752941;0.878431;1.000000;;
   0.000000;
   0.000000;0.000000;0.000000;;
   0.000000;0.000000;0.000000;;
  }

  Material  {
   0.752941;0.752941;0.878431;1.000000;;
   0.000000;
   0.000000;0.000000;0.000000;;
   0.000000;0.000000;0.000000;;
  }

  Material  {
   0.752941;0.752941;0.878431;1.000000;;
   0.000000;
   0.000000;0.000000;0.000000;;
   0.000000;0.000000;0.000000;;
  }

  Material  {
   0.752941;0.752941;0.878431;1.000000;;
   0.000000;
   0.000000;0.000000;0.000000;;
   0.000000;0.000000;0.000000;;
  }
 }

 MeshTextureCoords  {
  544;
  0.000000;0.000000;,
  0.000000;0.000000;,
  0.000000;0.000000;,
  0.000000;0.000000;,
  0.000000;0.000000;,
  0.000000;0.000000;,
  0.000000;0.000000;,
  0.000000;0.000000;,
  0.000000;0.000000;,
  0.000000;0.000000;,
  0.000000;0.000000;,
  0.000000;0.000000;,
  0.000000;0.000000;,
  0.000000;0.000000;,
  0.000000;0.000000;,
  0.000000;0.000000;,
  0.000000;0.000000;,
  0.000000;0.000000;,
  0.000000;0.000000;,
  0.000000;0.000000;,
  0.000000;0.000000;,
  0.000000;0.000000;,
  0.000000;0.000000;,
  0.000000;0.000000;,
  0.000000;0.000000;,
  0.000000;0.000000;,
  0.000000;0.000000;,
  0.000000;0.000000;,
  0.000000;0.000000;,
  0.000000;0.000000;,
  0.000000;0.000000;,
  0.000000;0.000000;,
  0.000000;0.000000;,
  0.000000;0.000000;,
  0.000000;0.000000;,
  0.000000;0.000000;,
  0.000000;0.000000;,
  0.000000;0.000000;,
  0.000000;0.000000;,
  0.000000;0.000000;,
  0.000000;0.000000;,
  0.000000;0.000000;,
  0.000000;0.000000;,
  0.000000;0.000000;,
  0.000000;0.000000;,
  0.000000;0.000000;,
  0.000000;0.000000;,
  0.000000;0.000000;,
  0.000000;0.000000;,
  0.000000;0.000000;,
  0.000000;0.000000;,
  0.000000;0.000000;,
  0.000000;0.000000;,
  0.000000;0.000000;,
  0.000000;0.000000;,
  0.000000;0.000000;,
  0.000000;0.000000;,
  0.000000;0.000000;,
  0.000000;0.000000;,
  0.000000;0.000000;,
  0.000000;0.000000;,
  0.000000;0.000000;,
  0.000000;0.000000;,
  0.000000;0.000000;,
  0.000000;0.000000;,
  0.000000;0.000000;,
  0.000000;0.000000;,
  0.000000;0.000000;,
  0.000000;0.000000;,
  0.000000;0.000000;,
  0.000000;0.000000;,
  0.000000;0.000000;,
  0.000000;0.000000;,
  0.000000;0.000000;,
  0.000000;0.000000;,
  0.000000;0.000000;,
  0.000000;0.000000;,
  0.000000;0.000000;,
  0.000000;0.000000;,
  0.000000;0.000000;,
  0.000000;0.000000;,
  0.000000;0.000000;,
  0.000000;0.000000;,
  0.000000;0.000000;,
  0.000000;0.000000;,
  0.000000;0.000000;,
  0.000000;0.000000;,
  0.000000;0.000000;,
  0.000000;0.000000;,
  0.000000;0.000000;,
  0.000000;0.000000;,
  0.000000;0.000000;,
  0.000000;0.000000;,
  0.000000;0.000000;,
  0.000000;0.000000;,
  0.000000;0.000000;,
  0.000000;0.000000;,
  0.000000;0.000000;,
  0.000000;0.000000;,
  0.000000;0.000000;,
  0.000000;0.000000;,
  0.000000;0.000000;,
  0.000000;0.000000;,
  0.000000;0.000000;,
  0.000000;0.000000;,
  0.000000;0.000000;,
  0.000000;0.000000;,
  0.000000;0.000000;,
  0.000000;0.000000;,
  0.000000;0.000000;,
  0.000000;0.000000;,
  0.000000;0.000000;,
  0.000000;0.000000;,
  0.000000;0.000000;,
  0.000000;0.000000;,
  0.000000;0.000000;,
  0.000000;0.000000;,
  0.000000;0.000000;,
  0.000000;0.000000;,
  0.000000;0.000000;,
  0.000000;0.000000;,
  0.000000;0.000000;,
  0.000000;0.000000;,
  0.000000;0.000000;,
  0.000000;0.000000;,
  0.000000;0.000000;,
  0.000000;0.000000;,
  0.000000;0.000000;,
  0.000000;0.000000;,
  0.000000;0.000000;,
  0.000000;0.000000;,
  0.000000;0.000000;,
  0.000000;0.000000;,
  0.000000;0.000000;,
  0.000000;0.000000;,
  0.000000;0.000000;,
  0.000000;0.000000;,
  0.000000;0.000000;,
  0.000000;0.000000;,
  0.000000;0.000000;,
  0.000000;0.000000;,
  0.000000;0.000000;,
  0.000000;0.000000;,
  0.000000;0.000000;,
  0.000000;0.000000;,
  0.000000;0.000000;,
  0.000000;0.000000;,
  0.000000;0.000000;,
  0.000000;0.000000;,
  0.000000;0.000000;,
  0.000000;0.000000;,
  0.000000;0.000000;,
  0.000000;0.000000;,
  0.000000;0.000000;,
  0.000000;0.000000;,
  0.000000;0.000000;,
  0.000000;0.000000;,
  0.000000;0.000000;,
  0.000000;0.000000;,
  0.000000;0.000000;,
  0.000000;0.000000;,
  0.000000;0.000000;,
  0.000000;0.000000;,
  0.000000;0.000000;,
  0.000000;0.000000;,
  0.000000;0.000000;,
  0.000000;0.000000;,
  0.000000;0.000000;,
  0.000000;0.000000;,
  0.000000;0.000000;,
  0.000000;0.000000;,
  0.000000;0.000000;,
  0.000000;0.000000;,
  0.000000;0.000000;,
  0.000000;0.000000;,
  0.000000;0.000000;,
  0.000000;0.000000;,
  0.000000;0.000000;,
  0.000000;0.000000;,
  0.000000;0.000000;,
  0.000000;0.000000;,
  0.000000;0.000000;,
  0.000000;0.000000;,
  0.000000;0.000000;,
  0.000000;0.000000;,
  0.000000;0.000000;,
  0.000000;0.000000;,
  0.000000;0.000000;,
  0.000000;0.000000;,
  0.000000;0.000000;,
  0.000000;0.000000;,
  0.000000;0.000000;,
  0.000000;0.000000;,
  0.000000;0.000000;,
  0.000000;0.000000;,
  0.000000;0.000000;,
  0.000000;0.000000;,
  0.000000;0.000000;,
  0.000000;0.000000;,
  0.000000;0.000000;,
  0.000000;0.000000;,
  0.000000;0.000000;,
  0.000000;0.000000;,
  0.000000;0.000000;,
  0.000000;0.000000;,
  0.000000;0.000000;,
  0.000000;0.000000;,
  0.000000;0.000000;,
  0.000000;0.000000;,
  0.000000;0.000000;,
  0.000000;0.000000;,
  0.000000;0.000000;,
  0.000000;0.000000;,
  0.000000;0.000000;,
  0.000000;0.000000;,
  0.000000;0.000000;,
  0.000000;0.000000;,
  0.000000;0.000000;,
  0.000000;0.000000;,
  0.000000;0.000000;,
  0.000000;0.000000;,
  0.000000;0.000000;,
  0.000000;0.000000;,
  0.000000;0.000000;,
  0.000000;0.000000;,
  0.000000;0.000000;,
  0.000000;0.000000;,
  0.000000;0.000000;,
  0.000000;0.000000;,
  0.000000;0.000000;,
  0.000000;0.000000;,
  0.000000;0.000000;,
  0.000000;0.000000;,
  0.000000;0.000000;,
  0.000000;0.000000;,
  0.000000;0.000000;,
  0.000000;0.000000;,
  0.000000;0.000000;,
  0.000000;0.000000;,
  0.000000;0.000000;,
  0.000000;0.000000;,
  0.000000;0.000000;,
  0.000000;0.000000;,
  0.000000;0.000000;,
  0.000000;0.000000;,
  0.000000;0.000000;,
  0.000000;0.000000;,
  0.000000;0.000000;,
  0.000000;0.000000;,
  0.000000;0.000000;,
  0.000000;0.000000;,
  0.000000;0.000000;,
  0.000000;0.000000;,
  0.000000;0.000000;,
  0.000000;0.000000;,
  0.000000;0.000000;,
  0.000000;0.000000;,
  0.000000;0.000000;,
  0.000000;0.000000;,
  0.000000;0.000000;,
  0.000000;0.000000;,
  0.000000;0.000000;,
  0.000000;0.000000;,
  0.000000;0.000000;,
  0.000000;0.000000;,
  0.000000;0.000000;,
  0.000000;0.000000;,
  0.000000;0.000000;,
  0.000000;0.000000;,
  0.000000;0.000000;,
  0.000000;0.000000;,
  0.000000;0.000000;,
  0.000000;0.000000;,
  0.000000;0.000000;,
  0.000000;0.000000;,
  0.000000;0.000000;,
  0.000000;0.000000;,
  0.000000;0.000000;,
  0.000000;0.000000;,
  0.000000;0.000000;,
  0.000000;0.000000;,
  0.000000;0.000000;,
  0.000000;0.000000;,
  0.000000;0.000000;,
  0.000000;0.000000;,
  0.000000;0.000000;,
  0.000000;0.000000;,
  0.000000;0.000000;,
  0.000000;0.000000;,
  0.000000;0.000000;,
  0.000000;0.000000;,
  0.000000;0.000000;,
  0.000000;0.000000;,
  0.000000;0.000000;,
  0.000000;0.000000;,
  0.000000;0.000000;,
  0.000000;0.000000;,
  0.000000;0.000000;,
  0.000000;0.000000;,
  0.000000;0.000000;,
  0.000000;0.000000;,
  0.000000;0.000000;,
  0.000000;0.000000;,
  0.000000;0.000000;,
  0.000000;0.000000;,
  0.000000;0.000000;,
  0.000000;0.000000;,
  0.000000;0.000000;,
  0.000000;0.000000;,
  0.000000;0.000000;,
  0.000000;0.000000;,
  0.000000;0.000000;,
  0.000000;0.000000;,
  0.000000;0.000000;,
  0.000000;0.000000;,
  0.000000;0.000000;,
  0.000000;0.000000;,
  0.000000;0.000000;,
  0.000000;0.000000;,
  0.000000;0.000000;,
  0.000000;0.000000;,
  0.000000;0.000000;,
  0.000000;0.000000;,
  0.000000;0.000000;,
  0.000000;0.000000;,
  0.000000;0.000000;,
  0.000000;0.000000;,
  0.000000;0.000000;,
  0.000000;0.000000;,
  0.000000;0.000000;,
  0.000000;0.000000;,
  0.000000;0.000000;,
  0.000000;0.000000;,
  0.000000;0.000000;,
  0.000000;0.000000;,
  0.000000;0.000000;,
  0.000000;0.000000;,
  0.000000;0.000000;,
  0.000000;0.000000;,
  0.000000;0.000000;,
  0.000000;0.000000;,
  0.000000;0.000000;,
  0.000000;0.000000;,
  0.000000;0.000000;,
  0.000000;0.000000;,
  0.000000;0.000000;,
  0.000000;0.000000;,
  0.000000;0.000000;,
  0.000000;0.000000;,
  0.000000;0.000000;,
  0.000000;0.000000;,
  0.000000;0.000000;,
  0.000000;0.000000;,
  0.000000;0.000000;,
  0.000000;0.000000;,
  0.000000;0.000000;,
  0.000000;0.000000;,
  0.000000;0.000000;,
  0.000000;0.000000;,
  0.000000;0.000000;,
  0.000000;0.000000;,
  0.000000;0.000000;,
  0.000000;0.000000;,
  0.000000;0.000000;,
  0.000000;0.000000;,
  0.000000;0.000000;,
  0.000000;0.000000;,
  0.000000;0.000000;,
  0.000000;0.000000;,
  0.000000;0.000000;,
  0.000000;0.000000;,
  0.000000;0.000000;,
  0.000000;0.000000;,
  0.000000;0.000000;,
  0.000000;0.000000;,
  0.000000;0.000000;,
  0.000000;0.000000;,
  0.000000;0.000000;,
  0.000000;0.000000;,
  0.000000;0.000000;,
  0.000000;0.000000;,
  0.000000;0.000000;,
  0.000000;0.000000;,
  0.000000;0.000000;,
  0.000000;0.000000;,
  0.000000;0.000000;,
  0.000000;0.000000;,
  0.000000;0.000000;,
  0.000000;0.000000;,
  0.000000;0.000000;,
  0.000000;0.000000;,
  0.000000;0.000000;,
  0.000000;0.000000;,
  0.000000;0.000000;,
  0.000000;0.000000;,
  0.000000;0.000000;,
  0.000000;0.000000;,
  0.000000;0.000000;,
  0.000000;0.000000;,
  0.000000;0.000000;,
  0.000000;0.000000;,
  0.000000;0.000000;,
  0.000000;0.000000;,
  0.000000;0.000000;,
  0.000000;0.000000;,
  0.000000;0.000000;,
  0.000000;0.000000;,
  0.000000;0.000000;,
  0.000000;0.000000;,
  0.000000;0.000000;,
  0.000000;0.000000;,
  0.000000;0.000000;,
  0.000000;0.000000;,
  0.000000;0.000000;,
  0.000000;0.000000;,
  0.000000;0.000000;,
  0.000000;0.000000;,
  0.000000;0.000000;,
  0.000000;0.000000;,
  0.000000;0.000000;,
  0.000000;0.000000;,
  0.000000;0.000000;,
  0.000000;0.000000;,
  0.000000;0.000000;,
  0.000000;0.000000;,
  0.000000;0.000000;,
  0.000000;0.000000;,
  0.000000;0.000000;,
  0.000000;0.000000;,
  0.000000;0.000000;,
  0.000000;0.000000;,
  0.000000;0.000000;,
  0.000000;0.000000;,
  0.000000;0.000000;,
  0.000000;0.000000;,
  0.000000;0.000000;,
  0.000000;0.000000;,
  0.000000;0.000000;,
  0.000000;0.000000;,
  0.000000;0.000000;,
  0.000000;0.000000;,
  0.000000;0.000000;,
  0.000000;0.000000;,
  0.000000;0.000000;,
  0.000000;0.000000;,
  0.000000;0.000000;,
  0.000000;0.000000;,
  0.000000;0.000000;,
  0.000000;0.000000;,
  0.000000;0.000000;,
  0.000000;0.000000;,
  0.000000;0.000000;,
  0.000000;0.000000;,
  0.000000;0.000000;,
  0.000000;0.000000;,
  0.000000;0.000000;,
  0.000000;0.000000;,
  0.000000;0.000000;,
  0.000000;0.000000;,
  0.000000;0.000000;,
  0.000000;0.000000;,
  0.000000;0.000000;,
  0.000000;0.000000;,
  0.000000;0.000000;,
  0.000000;0.000000;,
  0.000000;0.000000;,
  0.000000;0.000000;,
  0.000000;0.000000;,
  0.000000;0.000000;,
  0.000000;0.000000;,
  0.000000;0.000000;,
  0.000000;0.000000;,
  0.000000;0.000000;,
  0.000000;0.000000;,
  0.000000;0.000000;,
  0.000000;0.000000;,
  0.000000;0.000000;,
  0.000000;0.000000;,
  0.000000;0.000000;,
  0.000000;0.000000;,
  0.000000;0.000000;,
  0.000000;0.000000;,
  0.000000;0.000000;,
  0.000000;0.000000;,
  0.000000;0.000000;,
  0.000000;0.000000;,
  0.000000;0.000000;,
  0.000000;0.000000;,
  0.000000;0.000000;,
  0.000000;0.000000;,
  0.000000;0.000000;,
  0.000000;0.000000;,
  0.000000;0.000000;,
  0.000000;0.000000;,
  0.000000;0.000000;,
  0.000000;0.000000;,
  0.000000;0.000000;,
  0.000000;0.000000;,
  0.000000;0.000000;,
  0.000000;0.000000;,
  0.000000;0.000000;,
  0.000000;0.000000;,
  0.000000;0.000000;,
  0.000000;0.000000;,
  0.000000;0.000000;,
  0.000000;0.000000;,
  0.000000;0.000000;,
  0.000000;0.000000;,
  0.000000;0.000000;,
  0.000000;0.000000;,
  0.000000;0.000000;,
  0.000000;0.000000;,
  0.000000;0.000000;,
  0.000000;0.000000;,
  0.000000;0.000000;,
  0.000000;0.000000;,
  0.000000;0.000000;,
  0.000000;0.000000;,
  0.000000;0.000000;,
  0.000000;0.000000;,
  0.000000;0.000000;,
  0.000000;0.000000;,
  0.000000;0.000000;,
  0.000000;0.000000;,
  0.000000;0.000000;,
  0.000000;0.000000;,
  0.000000;0.000000;,
  0.000000;0.000000;,
  0.000000;0.000000;,
  0.000000;0.000000;,
  0.000000;0.000000;,
  0.000000;0.000000;,
  0.000000;0.000000;,
  0.000000;0.000000;,
  0.000000;0.000000;,
  0.000000;0.000000;,
  0.000000;0.000000;,
  0.000000;0.000000;,
  0.000000;0.000000;,
  0.000000;0.000000;,
  0.000000;0.000000;,
  0.000000;0.000000;,
  0.000000;0.000000;,
  0.000000;0.000000;;
 }

 MeshNormals  {
  544;
  0.995185;0.000000;-0.098017;,
  1.000000;0.000000;0.000000;,
  0.923880;0.000000;0.382684;,
  0.881921;0.000000;0.471397;,
  0.707107;0.000000;0.707107;,
  0.634393;0.000000;0.773010;,
  0.382684;0.000000;0.923880;,
  0.290285;0.000000;0.956940;,
  0.000000;0.000000;1.000000;,
  -0.098017;0.000000;0.995185;,
  -0.382684;0.000000;0.923880;,
  -0.471397;0.000000;0.881921;,
  -0.707107;0.000000;0.707107;,
  -0.773010;0.000000;0.634393;,
  -0.923880;0.000000;0.382684;,
  -0.956940;0.000000;0.290285;,
  -1.000000;0.000000;0.000000;,
  -0.995185;0.000000;-0.098017;,
  -0.923880;0.000000;-0.382684;,
  -0.881921;0.000000;-0.471397;,
  -0.707107;0.000000;-0.707107;,
  -0.634393;0.000000;-0.773010;,
  -0.382684;0.000000;-0.923880;,
  -0.290285;0.000000;-0.956940;,
  0.000000;0.000000;-1.000000;,
  0.098017;0.000000;-0.995185;,
  0.382684;0.000000;-0.923880;,
  0.471397;0.000000;-0.881921;,
  0.707107;0.000000;-0.707107;,
  0.773010;0.000000;-0.634393;,
  0.923880;0.000000;-0.382684;,
  0.956940;0.000000;-0.290285;,
  0.995185;0.000000;-0.098017;,
  1.000000;0.000000;-0.000000;,
  0.923880;0.000000;0.382684;,
  0.881921;0.000000;0.471397;,
  0.707107;0.000000;0.707107;,
  0.634393;0.000000;0.773010;,
  0.382683;0.000000;0.923880;,
  0.290285;0.000000;0.956940;,
  -0.000000;0.000000;1.000000;,
  -0.098017;0.000000;0.995185;,
  -0.382684;0.000000;0.923880;,
  -0.471397;0.000000;0.881921;,
  -0.707107;0.000000;0.707107;,
  -0.773010;0.000000;0.634393;,
  -0.923880;0.000000;0.382683;,
  -0.956940;0.000000;0.290285;,
  -1.000000;0.000000;-0.000000;,
  -0.995185;0.000000;-0.098017;,
  -0.923880;0.000000;-0.382684;,
  -0.881921;0.000000;-0.471397;,
  -0.707107;0.000000;-0.707107;,
  -0.634393;0.000000;-0.773010;,
  -0.382683;0.000000;-0.923880;,
  -0.290285;0.000000;-0.956940;,
  0.000000;0.000000;-1.000000;,
  0.098017;0.000000;-0.995185;,
  0.382684;0.000000;-0.923880;,
  0.471397;0.000000;-0.881921;,
  0.707107;0.000000;-0.707107;,
  0.773010;0.000000;-0.634393;,
  0.923880;0.000000;-0.382683;,
  0.956940;0.000000;-0.290285;,
  0.995185;0.000000;-0.098017;,
  1.000000;0.000000;-0.000000;,
  0.923880;0.000000;0.382683;,
  0.881921;0.000000;0.471397;,
  0.707107;0.000000;0.707107;,
  0.634393;0.000000;0.773010;,
  0.382683;0.000000;0.923880;,
  0.290285;0.000000;0.956940;,
  -0.000000;0.000000;1.000000;,
  -0.098017;0.000000;0.995185;,
  -0.382683;0.000000;0.923880;,
  -0.471397;0.000000;0.881921;,
  -0.707107;0.000000;0.707107;,
  -0.773010;0.000000;0.634393;,
  -0.923880;0.000000;0.382683;,
  -0.956940;0.000000;0.290285;,
  -1.000000;0.000000;-0.000000;,
  -0.995185;0.000000;-0.098017;,
  -0.923880;0.000000;-0.382683;,
  -0.881921;0.000000;-0.471397;,
  -0.707107;0.000000;-0.707107;,
  -0.634393;0.000000;-0.773010;,
  -0.382683;0.000000;-0.923880;,
  -0.290285;0.000000;-0.956940;,
  0.000000;0.000000;-1.000000;,
  0.098017;0.000000;-0.995185;,
  0.382683;0.000000;-0.923880;,
  0.471397;0.000000;-0.881921;,
  0.707107;0.000000;-0.707107;,
  0.773010;0.000000;-0.634393;,
  0.923880;0.000000;-0.382683;,
  0.956940;0.000000;-0.290285;,
  0.995185;0.000000;-0.098017;,
  1.000000;0.000000;-0.000000;,
  0.923880;0.000000;0.382683;,
  0.881921;0.000000;0.471397;,
  0.707107;0.000000;0.707107;,
  0.634393;0.000000;0.773010;,
  0.382683;0.000000;0.923880;,
  0.290285;0.000000;0.956940;,
  -0.000000;0.000000;1.000000;,
  -0.098017;0.000000;0.995185;,
  -0.382683;0.000000;0.923880;,
  -0.471397;0.000000;0.881921;,
  -0.707107;0.000000;0.707107;,
  -0.773010;0.000000;0.634393;,
  -0.923880;0.000000;0.382683;,
  -0.956940;0.000000;0.290285;,
  -1.000000;0.000000;-0.000000;,
  -0.995185;0.000000;-0.098017;,
  -0.923880;0.000000;-0.382683;,
  -0.881921;0.000000;-0.471397;,
  -0.707107;0.000000;-0.707107;,
  -0.634393;0.000000;-0.773010;,
  -0.382683;0.000000;-0.923880;,
  -0.290285;0.000000;-0.956940;,
  0.000000;0.000000;-1.000000;,
  0.098017;0.000000;-0.995185;,
  0.382683;0.000000;-0.923880;,
  0.471397;0.000000;-0.881921;,
  0.707107;0.000000;-0.707107;,
  0.773010;0.000000;-0.634393;,
  0.923880;0.000000;-0.382683;,
  0.956940;0.000000;-0.290285;,
  0.995185;0.000000;-0.098017;,
  1.000000;0.000000;-0.000000;,
  0.923880;0.000000;0.382683;,
  0.881921;0.000000;0.471397;,
  0.707107;0.000000;0.707107;,
  0.634393;0.000000;0.773010;,
  0.382683;0.000000;0.923880;,
  0.290285;0.000000;0.956940;,
  -0.000000;0.000000;1.000000;,
  -0.098017;0.000000;0.995185;,
  -0.382683;0.000000;0.923880;,
  -0.471397;0.000000;0.881921;,
  -0.707107;0.000000;0.707107;,
  -0.773010;0.000000;0.634393;,
  -0.923880;0.000000;0.382683;,
  -0.956940;0.000000;0.290285;,
  -1.000000;0.000000;-0.000000;,
  -0.995185;0.000000;-0.098017;,
  -0.923880;0.000000;-0.382683;,
  -0.881921;0.000000;-0.471397;,
  -0.707107;0.000000;-0.707107;,
  -0.634393;0.000000;-0.773010;,
  -0.382683;0.000000;-0.923880;,
  -0.290285;0.000000;-0.956940;,
  0.000000;0.000000;-1.000000;,
  0.098017;0.000000;-0.995185;,
  0.382683;0.000000;-0.923880;,
  0.471397;0.000000;-0.881921;,
  0.707107;0.000000;-0.707107;,
  0.773010;0.000000;-0.634393;,
  0.923880;0.000000;-0.382683;,
  0.956940;0.000000;-0.290285;,
  0.995185;0.000000;-0.098017;,
  1.000000;0.000000;-0.000000;,
  0.923880;0.000000;0.382683;,
  0.881921;0.000000;0.471397;,
  0.707107;0.000000;0.707107;,
  0.634393;0.000000;0.773010;,
  0.382683;0.000000;0.923880;,
  0.290285;0.000000;0.956940;,
  -0.000000;0.000000;1.000000;,
  -0.098017;0.000000;0.995185;,
  -0.382683;0.000000;0.923880;,
  -0.471397;0.000000;0.881921;,
  -0.707107;0.000000;0.707107;,
  -0.773010;0.000000;0.634393;,
  -0.923880;0.000000;0.382683;,
  -0.956940;0.000000;0.290285;,
  -1.000000;0.000000;-0.000000;,
  -0.995185;0.000000;-0.098017;,
  -0.923880;0.000000;-0.382683;,
  -0.881921;0.000000;-0.471397;,
  -0.707107;0.000000;-0.707107;,
  -0.634393;0.000000;-0.773010;,
  -0.382683;0.000000;-0.923880;,
  -0.290285;0.000000;-0.956940;,
  0.000000;0.000000;-1.000000;,
  0.098017;0.000000;-0.995185;,
  0.382683;0.000000;-0.923880;,
  0.471397;0.000000;-0.881921;,
  0.707107;0.000000;-0.707107;,
  0.773010;0.000000;-0.634393;,
  0.923880;0.000000;-0.382683;,
  0.956940;0.000000;-0.290285;,
  0.995185;0.000000;-0.098017;,
  1.000000;0.000000;-0.000000;,
  0.923880;0.000000;0.382684;,
  0.881921;0.000000;0.471397;,
  0.707107;0.000000;0.707107;,
  0.634393;0.000000;0.773010;,
  0.382683;0.000000;0.923880;,
  0.290285;0.000000;0.956940;,
  -0.000000;0.000000;1.000000;,
  -0.098017;0.000000;0.995185;,
  -0.382684;0.000000;0.923880;,
  -0.471397;0.000000;0.881921;,
  -0.707107;0.000000;0.707107;,
  -0.773010;0.000000;0.634393;,
  -0.923880;0.000000;0.382683;,
  -0.956940;0.000000;0.290285;,
  -1.000000;0.000000;-0.000000;,
  -0.995185;0.000000;-0.098017;,
  -0.923880;0.000000;-0.382684;,
  -0.881921;0.000000;-0.471397;,
  -0.707107;0.000000;-0.707107;,
  -0.634393;0.000000;-0.773010;,
  -0.382683;0.000000;-0.923880;,
  -0.290285;0.000000;-0.956940;,
  0.000000;0.000000;-1.000000;,
  0.098017;0.000000;-0.995185;,
  0.382684;0.000000;-0.923880;,
  0.471397;0.000000;-0.881921;,
  0.707107;0.000000;-0.707107;,
  0.773010;0.000000;-0.634393;,
  0.923880;0.000000;-0.382683;,
  0.956940;0.000000;-0.290285;,
  0.995185;0.000000;-0.098017;,
  1.000000;0.000000;0.000000;,
  0.923880;0.000000;0.382684;,
  0.881921;0.000000;0.471397;,
  0.707107;0.000000;0.707107;,
  0.634393;0.000000;0.773010;,
  0.382684;0.000000;0.923880;,
  0.290285;0.000000;0.956940;,
  0.000000;0.000000;1.000000;,
  -0.098017;0.000000;0.995185;,
  -0.382684;0.000000;0.923880;,
  -0.471397;0.000000;0.881921;,
  -0.707107;0.000000;0.707107;,
  -0.773010;0.000000;0.634393;,
  -0.923880;0.000000;0.382684;,
  -0.956940;0.000000;0.290285;,
  -1.000000;0.000000;0.000000;,
  -0.995185;0.000000;-0.098017;,
  -0.923880;0.000000;-0.382684;,
  -0.881921;0.000000;-0.471397;,
  -0.707107;0.000000;-0.707107;,
  -0.634393;0.000000;-0.773010;,
  -0.382684;0.000000;-0.923880;,
  -0.290285;0.000000;-0.956940;,
  -0.000000;0.000000;-1.000000;,
  0.098017;0.000000;-0.995185;,
  0.382684;0.000000;-0.923880;,
  0.471397;0.000000;-0.881921;,
  0.707107;0.000000;-0.707107;,
  0.773010;0.000000;-0.634393;,
  0.923880;0.000000;-0.382684;,
  0.956940;0.000000;-0.290285;,
  0.995185;0.000000;-0.098017;,
  1.000000;0.000000;0.000000;,
  0.923880;0.000000;0.382684;,
  0.881921;0.000000;0.471397;,
  0.707107;0.000000;0.707107;,
  0.634393;0.000000;0.773010;,
  0.382684;0.000000;0.923880;,
  0.290285;0.000000;0.956940;,
  0.000000;0.000000;1.000000;,
  -0.098017;0.000000;0.995185;,
  -0.382684;0.000000;0.923880;,
  -0.471397;0.000000;0.881921;,
  -0.707107;0.000000;0.707107;,
  -0.773010;0.000000;0.634393;,
  -0.923880;0.000000;0.382684;,
  -0.956940;0.000000;0.290285;,
  -1.000000;0.000000;0.000000;,
  -0.995185;0.000000;-0.098017;,
  -0.923880;0.000000;-0.382684;,
  -0.881921;0.000000;-0.471397;,
  -0.707107;0.000000;-0.707107;,
  -0.634393;0.000000;-0.773010;,
  -0.382684;0.000000;-0.923880;,
  -0.290285;0.000000;-0.956940;,
  0.000000;0.000000;-1.000000;,
  0.098017;0.000000;-0.995185;,
  0.382684;0.000000;-0.923880;,
  0.471397;0.000000;-0.881921;,
  0.707107;0.000000;-0.707107;,
  0.773010;0.000000;-0.634393;,
  0.923880;0.000000;-0.382684;,
  0.956940;0.000000;-0.290285;,
  0.995185;0.000000;-0.098017;,
  1.000000;0.000000;0.000000;,
  0.923880;0.000000;0.382684;,
  0.881921;0.000000;0.471397;,
  0.707107;0.000000;0.707107;,
  0.634393;0.000000;0.773010;,
  0.382684;0.000000;0.923880;,
  0.290285;0.000000;0.956940;,
  0.000000;0.000000;1.000000;,
  -0.098017;0.000000;0.995185;,
  -0.382684;0.000000;0.923880;,
  -0.471397;0.000000;0.881921;,
  -0.707107;0.000000;0.707107;,
  -0.773010;0.000000;0.634393;,
  -0.923880;0.000000;0.382684;,
  -0.956940;0.000000;0.290285;,
  -1.000000;0.000000;0.000000;,
  -0.995185;0.000000;-0.098017;,
  -0.923880;0.000000;-0.382684;,
  -0.881921;0.000000;-0.471397;,
  -0.707107;0.000000;-0.707107;,
  -0.634393;0.000000;-0.773010;,
  -0.382684;0.000000;-0.923880;,
  -0.290285;0.000000;-0.956940;,
  -0.000000;0.000000;-1.000000;,
  0.098017;0.000000;-0.995185;,
  0.382684;0.000000;-0.923880;,
  0.471397;0.000000;-0.881921;,
  0.707107;0.000000;-0.707107;,
  0.773010;0.000000;-0.634393;,
  0.923880;0.000000;-0.382684;,
  0.956940;0.000000;-0.290285;,
  0.995185;0.000000;-0.098017;,
  1.000000;0.000000;0.000000;,
  0.923880;0.000000;0.382684;,
  0.881921;0.000000;0.471397;,
  0.707107;0.000000;0.707107;,
  0.634393;0.000000;0.773010;,
  0.382684;0.000000;0.923880;,
  0.290285;0.000000;0.956940;,
  0.000000;0.000000;1.000000;,
  -0.098017;0.000000;0.995185;,
  -0.382684;0.000000;0.923880;,
  -0.471397;0.000000;0.881921;,
  -0.707107;0.000000;0.707107;,
  -0.773010;0.000000;0.634393;,
  -0.923880;0.000000;0.382684;,
  -0.956940;0.000000;0.290285;,
  -1.000000;0.000000;0.000000;,
  -0.995185;0.000000;-0.098017;,
  -0.923880;0.000000;-0.382684;,
  -0.881921;0.000000;-0.471397;,
  -0.707107;0.000000;-0.707107;,
  -0.634393;0.000000;-0.773010;,
  -0.382684;0.000000;-0.923880;,
  -0.290285;0.000000;-0.956940;,
  0.000000;0.000000;-1.000000;,
  0.098017;0.000000;-0.995185;,
  0.382684;0.000000;-0.923880;,
  0.471397;0.000000;-0.881921;,
  0.707107;0.000000;-0.707107;,
  0.773010;0.000000;-0.634393;,
  0.923880;0.000000;-0.382684;,
  0.956940;0.000000;-0.290285;,
  0.995185;0.000000;-0.098017;,
  1.000000;0.000000;0.000000;,
  0.923880;0.000000;0.382684;,
  0.881921;0.000000;0.471397;,
  0.707107;0.000000;0.707107;,
  0.634393;0.000000;0.773010;,
  0.382684;0.000000;0.923880;,
  0.290285;0.000000;0.956940;,
  0.000000;0.000000;1.000000;,
  -0.098017;0.000000;0.995185;,
  -0.382684;0.000000;0.923880;,
  -0.471397;0.000000;0.881921;,
  -0.707107;0.000000;0.707107;,
  -0.773010;0.000000;0.634393;,
  -0.923880;0.000000;0.382684;,
  -0.956940;0.000000;0.290285;,
  -1.000000;0.000000;0.000000;,
  -0.995185;0.000000;-0.098017;,
  -0.923880;0.000000;-0.382684;,
  -0.881921;0.000000;-0.471397;,
  -0.707107;0.000000;-0.707107;,
  -0.634393;0.000000;-0.773010;,
  -0.382684;0.000000;-0.923880;,
  -0.290285;0.000000;-0.956940;,
  -0.000000;0.000000;-1.000000;,
  0.098017;0.000000;-0.995185;,
  0.382684;0.000000;-0.923880;,
  0.471397;0.000000;-0.881921;,
  0.707107;0.000000;-0.707107;,
  0.773010;0.000000;-0.634393;,
  0.923880;0.000000;-0.382684;,
  0.956940;0.000000;-0.290285;,
  0.995185;0.000000;-0.098017;,
  1.000000;0.000000;-0.000000;,
  0.923880;0.000000;0.382684;,
  0.881921;0.000000;0.471397;,
  0.707107;0.000000;0.707107;,
  0.634393;0.000000;0.773010;,
  0.382684;0.000000;0.923880;,
  0.290285;0.000000;0.956940;,
  -0.000000;0.000000;1.000000;,
  -0.098017;0.000000;0.995185;,
  -0.382684;0.000000;0.923880;,
  -0.471397;0.000000;0.881921;,
  -0.707107;0.000000;0.707107;,
  -0.773010;0.000000;0.634393;,
  -0.923880;0.000000;0.382684;,
  -0.956940;0.000000;0.290285;,
  -1.000000;0.000000;-0.000000;,
  -0.995185;0.000000;-0.098017;,
  -0.923880;0.000000;-0.382684;,
  -0.881921;0.000000;-0.471397;,
  -0.707107;0.000000;-0.707107;,
  -0.634393;0.000000;-0.773010;,
  -0.382684;0.000000;-0.923880;,
  -0.290285;0.000000;-0.956940;,
  0.000000;0.000000;-1.000000;,
  0.098017;0.000000;-0.995185;,
  0.382684;0.000000;-0.923880;,
  0.471397;0.000000;-0.881921;,
  0.707107;0.000000;-0.707107;,
  0.773010;0.000000;-0.634393;,
  0.923880;0.000000;-0.382684;,
  0.956940;0.000000;-0.290285;,
  0.995185;0.000000;-0.098017;,
  1.000000;0.000000;-0.000000;,
  0.923880;0.000000;0.382684;,
  0.881921;0.000000;0.471397;,
  0.707107;0.000000;0.707107;,
  0.634393;0.000000;0.773010;,
  0.382684;0.000000;0.923880;,
  0.290285;0.000000;0.956940;,
  -0.000000;0.000000;1.000000;,
  -0.098017;0.000000;0.995185;,
  -0.382684;0.000000;0.923880;,
  -0.471397;0.000000;0.881921;,
  -0.707107;0.000000;0.707107;,
  -0.773010;0.000000;0.634393;,
  -0.923880;0.000000;0.382684;,
  -0.956940;0.000000;0.290285;,
  -1.000000;0.000000;-0.000000;,
  -0.995185;0.000000;-0.098017;,
  -0.923880;0.000000;-0.382684;,
  -0.881921;0.000000;-0.471397;,
  -0.707107;0.000000;-0.707107;,
  -0.634393;0.000000;-0.773010;,
  -0.382684;0.000000;-0.923880;,
  -0.290285;0.000000;-0.956940;,
  0.000000;0.000000;-1.000000;,
  0.098017;0.000000;-0.995185;,
  0.382684;0.000000;-0.923880;,
  0.471397;0.000000;-0.881921;,
  0.707107;0.000000;-0.707107;,
  0.773010;0.000000;-0.634393;,
  0.923880;0.000000;-0.382684;,
  0.956940;0.000000;-0.290285;,
  0.995185;0.000000;-0.098017;,
  1.000000;0.000000;-0.000000;,
  0.923880;0.000000;0.382684;,
  0.881921;0.000000;0.471397;,
  0.707107;0.000000;0.707107;,
  0.634393;0.000000;0.773010;,
  0.382684;0.000000;0.923880;,
  0.290285;0.000000;0.956940;,
  -0.000000;0.000000;1.000000;,
  -0.098017;0.000000;0.995185;,
  -0.382684;0.000000;0.923880;,
  -0.471397;0.000000;0.881921;,
  -0.707107;0.000000;0.707107;,
  -0.773010;0.000000;0.634393;,
  -0.923880;0.000000;0.382684;,
  -0.956940;0.000000;0.290285;,
  -1.000000;0.000000;-0.000000;,
  -0.995185;0.000000;-0.098017;,
  -0.923880;0.000000;-0.382684;,
  -0.881921;0.000000;-0.471397;,
  -0.707107;0.000000;-0.707107;,
  -0.634393;0.000000;-0.773010;,
  -0.382684;0.000000;-0.923880;,
  -0.290285;0.000000;-0.956940;,
  0.000000;0.000000;-1.000000;,
  0.098017;0.000000;-0.995185;,
  0.382684;0.000000;-0.923880;,
  0.471397;0.000000;-0.881921;,
  0.707107;0.000000;-0.707107;,
  0.773010;0.000000;-0.634393;,
  0.923880;0.000000;-0.382684;,
  0.956940;0.000000;-0.290285;,
  0.995185;0.000000;-0.098017;,
  1.000000;0.000000;-0.000000;,
  0.923880;0.000000;0.382684;,
  0.881921;0.000000;0.471397;,
  0.707107;0.000000;0.707107;,
  0.634393;0.000000;0.773010;,
  0.382684;0.000000;0.923880;,
  0.290285;0.000000;0.956940;,
  -0.000000;0.000000;1.000000;,
  -0.098017;0.000000;0.995185;,
  -0.382684;0.000000;0.923880;,
  -0.471397;0.000000;0.881921;,
  -0.707107;0.000000;0.707107;,
  -0.773010;0.000000;0.634393;,
  -0.923880;0.000000;0.382684;,
  -0.956940;0.000000;0.290285;,
  -1.000000;0.000000;-0.000000;,
  -0.995185;0.000000;-0.098017;,
  -0.923880;0.000000;-0.382684;,
  -0.881921;0.000000;-0.471397;,
  -0.707107;0.000000;-0.707107;,
  -0.634393;0.000000;-0.773010;,
  -0.382684;0.000000;-0.923880;,
  -0.290285;0.000000;-0.956940;,
  0.000000;0.000000;-1.000000;,
  0.098017;0.000000;-0.995185;,
  0.382684;0.000000;-0.923880;,
  0.471397;0.000000;-0.881921;,
  0.707107;0.000000;-0.707107;,
  0.773010;0.000000;-0.634393;,
  0.923880;0.000000;-0.382684;,
  0.956940;0.000000;-0.290285;,
  0.995185;0.000000;-0.098017;,
  1.000000;0.000000;-0.000000;,
  0.923880;0.000000;0.382684;,
  0.881921;0.000000;0.471397;,
  0.707107;0.000000;0.707107;,
  0.634393;0.000000;0.773010;,
  0.382684;0.000000;0.923880;,
  0.290285;0.000000;0.956940;,
  -0.000000;0.000000;1.000000;,
  -0.098017;0.000000;0.995185;,
  -0.382684;0.000000;0.923880;,
  -0.471397;0.000000;0.881921;,
  -0.707107;0.000000;0.707107;,
  -0.773010;0.000000;0.634393;,
  -0.923880;0.000000;0.382684;,
  -0.956940;0.000000;0.290285;,
  -1.000000;0.000000;-0.000000;,
  -0.995185;0.000000;-0.098017;,
  -0.923880;0.000000;-0.382684;,
  -0.881921;0.000000;-0.471397;,
  -0.707107;0.000000;-0.707107;,
  -0.634393;0.000000;-0.773010;,
  -0.382684;0.000000;-0.923880;,
  -0.290285;0.000000;-0.956940;,
  0.000000;0.000000;-1.000000;,
  0.098017;0.000000;-0.995185;,
  0.382684;0.000000;-0.923880;,
  0.471397;0.000000;-0.881921;,
  0.707107;0.000000;-0.707107;,
  0.773010;0.000000;-0.634393;,
  0.923880;0.000000;-0.382684;,
  0.956940;0.000000;-0.290285;;
  1020;
  3;1,0,2;,
  3;1,2,3;,
  3;3,2,4;,
  3;3,4,5;,
  3;5,4,6;,
  3;5,6,7;,
  3;7,6,8;,
  3;7,8,9;,
  3;9,8,10;,
  3;9,10,11;,
  3;11,10,12;,
  3;11,12,13;,
  3;13,12,14;,
  3;13,14,15;,
  3;15,14,16;,
  3;15,16,17;,
  3;17,16,18;,
  3;17,18,19;,
  3;19,18,20;,
  3;19,20,21;,
  3;21,20,22;,
  3;21,22,23;,
  3;23,22,24;,
  3;23,24,25;,
  3;25,24,26;,
  3;25,26,27;,
  3;27,26,28;,
  3;27,28,29;,
  3;29,28,30;,
  3;29,30,31;,
  3;31,30,0;,
  3;31,0,1;,
  3;30,28,26;,
  3;30,26,24;,
  3;30,24,22;,
  3;30,22,20;,
  3;30,20,18;,
  3;30,18,16;,
  3;30,16,14;,
  3;30,14,12;,
  3;30,12,10;,
  3;30,10,8;,
  3;30,8,6;,
  3;30,6,4;,
  3;30,4,2;,
  3;30,2,0;,
  3;1,3,5;,
  3;1,5,7;,
  3;1,7,9;,
  3;1,9,11;,
  3;1,11,13;,
  3;1,13,15;,
  3;1,15,17;,
  3;1,17,19;,
  3;1,19,21;,
  3;1,21,23;,
  3;1,23,25;,
  3;1,25,27;,
  3;1,27,29;,
  3;1,29,31;,
  3;33,32,34;,
  3;33,34,35;,
  3;35,34,36;,
  3;35,36,37;,
  3;37,36,38;,
  3;37,38,39;,
  3;39,38,40;,
  3;39,40,41;,
  3;41,40,42;,
  3;41,42,43;,
  3;43,42,44;,
  3;43,44,45;,
  3;45,44,46;,
  3;45,46,47;,
  3;47,46,48;,
  3;47,48,49;,
  3;49,48,50;,
  3;49,50,51;,
  3;51,50,52;,
  3;51,52,53;,
  3;53,52,54;,
  3;53,54,55;,
  3;55,54,56;,
  3;55,56,57;,
  3;57,56,58;,
  3;57,58,59;,
  3;59,58,60;,
  3;59,60,61;,
  3;61,60,62;,
  3;61,62,63;,
  3;63,62,32;,
  3;63,32,33;,
  3;62,60,58;,
  3;62,58,56;,
  3;62,56,54;,
  3;62,54,52;,
  3;62,52,50;,
  3;62,50,48;,
  3;62,48,46;,
  3;62,46,44;,
  3;62,44,42;,
  3;62,42,40;,
  3;62,40,38;,
  3;62,38,36;,
  3;62,36,34;,
  3;62,34,32;,
  3;33,35,37;,
  3;33,37,39;,
  3;33,39,41;,
  3;33,41,43;,
  3;33,43,45;,
  3;33,45,47;,
  3;33,47,49;,
  3;33,49,51;,
  3;33,51,53;,
  3;33,53,55;,
  3;33,55,57;,
  3;33,57,59;,
  3;33,59,61;,
  3;33,61,63;,
  3;65,64,66;,
  3;65,66,67;,
  3;67,66,68;,
  3;67,68,69;,
  3;69,68,70;,
  3;69,70,71;,
  3;71,70,72;,
  3;71,72,73;,
  3;73,72,74;,
  3;73,74,75;,
  3;75,74,76;,
  3;75,76,77;,
  3;77,76,78;,
  3;77,78,79;,
  3;79,78,80;,
  3;79,80,81;,
  3;81,80,82;,
  3;81,82,83;,
  3;83,82,84;,
  3;83,84,85;,
  3;85,84,86;,
  3;85,86,87;,
  3;87,86,88;,
  3;87,88,89;,
  3;89,88,90;,
  3;89,90,91;,
  3;91,90,92;,
  3;91,92,93;,
  3;93,92,94;,
  3;93,94,95;,
  3;95,94,64;,
  3;95,64,65;,
  3;94,92,90;,
  3;94,90,88;,
  3;94,88,86;,
  3;94,86,84;,
  3;94,84,82;,
  3;94,82,80;,
  3;94,80,78;,
  3;94,78,76;,
  3;94,76,74;,
  3;94,74,72;,
  3;94,72,70;,
  3;94,70,68;,
  3;94,68,66;,
  3;94,66,64;,
  3;65,67,69;,
  3;65,69,71;,
  3;65,71,73;,
  3;65,73,75;,
  3;65,75,77;,
  3;65,77,79;,
  3;65,79,81;,
  3;65,81,83;,
  3;65,83,85;,
  3;65,85,87;,
  3;65,87,89;,
  3;65,89,91;,
  3;65,91,93;,
  3;65,93,95;,
  3;97,96,98;,
  3;97,98,99;,
  3;99,98,100;,
  3;99,100,101;,
  3;101,100,102;,
  3;101,102,103;,
  3;103,102,104;,
  3;103,104,105;,
  3;105,104,106;,
  3;105,106,107;,
  3;107,106,108;,
  3;107,108,109;,
  3;109,108,110;,
  3;109,110,111;,
  3;111,110,112;,
  3;111,112,113;,
  3;113,112,114;,
  3;113,114,115;,
  3;115,114,116;,
  3;115,116,117;,
  3;117,116,118;,
  3;117,118,119;,
  3;119,118,120;,
  3;119,120,121;,
  3;121,120,122;,
  3;121,122,123;,
  3;123,122,124;,
  3;123,124,125;,
  3;125,124,126;,
  3;125,126,127;,
  3;127,126,96;,
  3;127,96,97;,
  3;126,124,122;,
  3;126,122,120;,
  3;126,120,118;,
  3;126,118,116;,
  3;126,116,114;,
  3;126,114,112;,
  3;126,112,110;,
  3;126,110,108;,
  3;126,108,106;,
  3;126,106,104;,
  3;126,104,102;,
  3;126,102,100;,
  3;126,100,98;,
  3;126,98,96;,
  3;97,99,101;,
  3;97,101,103;,
  3;97,103,105;,
  3;97,105,107;,
  3;97,107,109;,
  3;97,109,111;,
  3;97,111,113;,
  3;97,113,115;,
  3;97,115,117;,
  3;97,117,119;,
  3;97,119,121;,
  3;97,121,123;,
  3;97,123,125;,
  3;97,125,127;,
  3;129,128,130;,
  3;129,130,131;,
  3;131,130,132;,
  3;131,132,133;,
  3;133,132,134;,
  3;133,134,135;,
  3;135,134,136;,
  3;135,136,137;,
  3;137,136,138;,
  3;137,138,139;,
  3;139,138,140;,
  3;139,140,141;,
  3;141,140,142;,
  3;141,142,143;,
  3;143,142,144;,
  3;143,144,145;,
  3;145,144,146;,
  3;145,146,147;,
  3;147,146,148;,
  3;147,148,149;,
  3;149,148,150;,
  3;149,150,151;,
  3;151,150,152;,
  3;151,152,153;,
  3;153,152,154;,
  3;153,154,155;,
  3;155,154,156;,
  3;155,156,157;,
  3;157,156,158;,
  3;157,158,159;,
  3;159,158,128;,
  3;159,128,129;,
  3;158,156,154;,
  3;158,154,152;,
  3;158,152,150;,
  3;158,150,148;,
  3;158,148,146;,
  3;158,146,144;,
  3;158,144,142;,
  3;158,142,140;,
  3;158,140,138;,
  3;158,138,136;,
  3;158,136,134;,
  3;158,134,132;,
  3;158,132,130;,
  3;158,130,128;,
  3;129,131,133;,
  3;129,133,135;,
  3;129,135,137;,
  3;129,137,139;,
  3;129,139,141;,
  3;129,141,143;,
  3;129,143,145;,
  3;129,145,147;,
  3;129,147,149;,
  3;129,149,151;,
  3;129,151,153;,
  3;129,153,155;,
  3;129,155,157;,
  3;129,157,159;,
  3;161,160,162;,
  3;161,162,163;,
  3;163,162,164;,
  3;163,164,165;,
  3;165,164,166;,
  3;165,166,167;,
  3;167,166,168;,
  3;167,168,169;,
  3;169,168,170;,
  3;169,170,171;,
  3;171,170,172;,
  3;171,172,173;,
  3;173,172,174;,
  3;173,174,175;,
  3;175,174,176;,
  3;175,176,177;,
  3;177,176,178;,
  3;177,178,179;,
  3;179,178,180;,
  3;179,180,181;,
  3;181,180,182;,
  3;181,182,183;,
  3;183,182,184;,
  3;183,184,185;,
  3;185,184,186;,
  3;185,186,187;,
  3;187,186,188;,
  3;187,188,189;,
  3;189,188,190;,
  3;189,190,191;,
  3;191,190,160;,
  3;191,160,161;,
  3;190,188,186;,
  3;190,186,184;,
  3;190,184,182;,
  3;190,182,180;,
  3;190,180,178;,
  3;190,178,176;,
  3;190,176,174;,
  3;190,174,172;,
  3;190,172,170;,
  3;190,170,168;,
  3;190,168,166;,
  3;190,166,164;,
  3;190,164,162;,
  3;190,162,160;,
  3;161,163,165;,
  3;161,165,167;,
  3;161,167,169;,
  3;161,169,171;,
  3;161,171,173;,
  3;161,173,175;,
  3;161,175,177;,
  3;161,177,179;,
  3;161,179,181;,
  3;161,181,183;,
  3;161,183,185;,
  3;161,185,187;,
  3;161,187,189;,
  3;161,189,191;,
  3;193,192,194;,
  3;193,194,195;,
  3;195,194,196;,
  3;195,196,197;,
  3;197,196,198;,
  3;197,198,199;,
  3;199,198,200;,
  3;199,200,201;,
  3;201,200,202;,
  3;201,202,203;,
  3;203,202,204;,
  3;203,204,205;,
  3;205,204,206;,
  3;205,206,207;,
  3;207,206,208;,
  3;207,208,209;,
  3;209,208,210;,
  3;209,210,211;,
  3;211,210,212;,
  3;211,212,213;,
  3;213,212,214;,
  3;213,214,215;,
  3;215,214,216;,
  3;215,216,217;,
  3;217,216,218;,
  3;217,218,219;,
  3;219,218,220;,
  3;219,220,221;,
  3;221,220,222;,
  3;221,222,223;,
  3;223,222,192;,
  3;223,192,193;,
  3;222,220,218;,
  3;222,218,216;,
  3;222,216,214;,
  3;222,214,212;,
  3;222,212,210;,
  3;222,210,208;,
  3;222,208,206;,
  3;222,206,204;,
  3;222,204,202;,
  3;222,202,200;,
  3;222,200,198;,
  3;222,198,196;,
  3;222,196,194;,
  3;222,194,192;,
  3;193,195,197;,
  3;193,197,199;,
  3;193,199,201;,
  3;193,201,203;,
  3;193,203,205;,
  3;193,205,207;,
  3;193,207,209;,
  3;193,209,211;,
  3;193,211,213;,
  3;193,213,215;,
  3;193,215,217;,
  3;193,217,219;,
  3;193,219,221;,
  3;193,221,223;,
  3;225,224,226;,
  3;225,226,227;,
  3;227,226,228;,
  3;227,228,229;,
  3;229,228,230;,
  3;229,230,231;,
  3;231,230,232;,
  3;231,232,233;,
  3;233,232,234;,
  3;233,234,235;,
  3;235,234,236;,
  3;235,236,237;,
  3;237,236,238;,
  3;237,238,239;,
  3;239,238,240;,
  3;239,240,241;,
  3;241,240,242;,
  3;241,242,243;,
  3;243,242,244;,
  3;243,244,245;,
  3;245,244,246;,
  3;245,246,247;,
  3;247,246,248;,
  3;247,248,249;,
  3;249,248,250;,
  3;249,250,251;,
  3;251,250,252;,
  3;251,252,253;,
  3;253,252,254;,
  3;253,254,255;,
  3;255,254,224;,
  3;255,224,225;,
  3;254,252,250;,
  3;254,250,248;,
  3;254,248,246;,
  3;254,246,244;,
  3;254,244,242;,
  3;254,242,240;,
  3;254,240,238;,
  3;254,238,236;,
  3;254,236,234;,
  3;254,234,232;,
  3;254,232,230;,
  3;254,230,228;,
  3;254,228,226;,
  3;254,226,224;,
  3;225,227,229;,
  3;225,229,231;,
  3;225,231,233;,
  3;225,233,235;,
  3;225,235,237;,
  3;225,237,239;,
  3;225,239,241;,
  3;225,241,243;,
  3;225,243,245;,
  3;225,245,247;,
  3;225,247,249;,
  3;225,249,251;,
  3;225,251,253;,
  3;225,253,255;,
  3;257,256,258;,
  3;257,258,259;,
  3;259,258,260;,
  3;259,260,261;,
  3;261,260,262;,
  3;261,262,263;,
  3;263,262,264;,
  3;263,264,265;,
  3;265,264,266;,
  3;265,266,267;,
  3;267,266,268;,
  3;267,268,269;,
  3;269,268,270;,
  3;269,270,271;,
  3;271,270,272;,
  3;271,272,273;,
  3;273,272,274;,
  3;273,274,275;,
  3;275,274,276;,
  3;275,276,277;,
  3;277,276,278;,
  3;277,278,279;,
  3;279,278,280;,
  3;279,280,281;,
  3;281,280,282;,
  3;281,282,283;,
  3;283,282,284;,
  3;283,284,285;,
  3;285,284,286;,
  3;285,286,287;,
  3;287,286,256;,
  3;287,256,257;,
  3;286,284,282;,
  3;286,282,280;,
  3;286,280,278;,
  3;286,278,276;,
  3;286,276,274;,
  3;286,274,272;,
  3;286,272,270;,
  3;286,270,268;,
  3;286,268,266;,
  3;286,266,264;,
  3;286,264,262;,
  3;286,262,260;,
  3;286,260,258;,
  3;286,258,256;,
  3;257,259,261;,
  3;257,261,263;,
  3;257,263,265;,
  3;257,265,267;,
  3;257,267,269;,
  3;257,269,271;,
  3;257,271,273;,
  3;257,273,275;,
  3;257,275,277;,
  3;257,277,279;,
  3;257,279,281;,
  3;257,281,283;,
  3;257,283,285;,
  3;257,285,287;,
  3;289,288,290;,
  3;289,290,291;,
  3;291,290,292;,
  3;291,292,293;,
  3;293,292,294;,
  3;293,294,295;,
  3;295,294,296;,
  3;295,296,297;,
  3;297,296,298;,
  3;297,298,299;,
  3;299,298,300;,
  3;299,300,301;,
  3;301,300,302;,
  3;301,302,303;,
  3;303,302,304;,
  3;303,304,305;,
  3;305,304,306;,
  3;305,306,307;,
  3;307,306,308;,
  3;307,308,309;,
  3;309,308,310;,
  3;309,310,311;,
  3;311,310,312;,
  3;311,312,313;,
  3;313,312,314;,
  3;313,314,315;,
  3;315,314,316;,
  3;315,316,317;,
  3;317,316,318;,
  3;317,318,319;,
  3;319,318,288;,
  3;319,288,289;,
  3;318,316,314;,
  3;318,314,312;,
  3;318,312,310;,
  3;318,310,308;,
  3;318,308,306;,
  3;318,306,304;,
  3;318,304,302;,
  3;318,302,300;,
  3;318,300,298;,
  3;318,298,296;,
  3;318,296,294;,
  3;318,294,292;,
  3;318,292,290;,
  3;318,290,288;,
  3;289,291,293;,
  3;289,293,295;,
  3;289,295,297;,
  3;289,297,299;,
  3;289,299,301;,
  3;289,301,303;,
  3;289,303,305;,
  3;289,305,307;,
  3;289,307,309;,
  3;289,309,311;,
  3;289,311,313;,
  3;289,313,315;,
  3;289,315,317;,
  3;289,317,319;,
  3;321,320,322;,
  3;321,322,323;,
  3;323,322,324;,
  3;323,324,325;,
  3;325,324,326;,
  3;325,326,327;,
  3;327,326,328;,
  3;327,328,329;,
  3;329,328,330;,
  3;329,330,331;,
  3;331,330,332;,
  3;331,332,333;,
  3;333,332,334;,
  3;333,334,335;,
  3;335,334,336;,
  3;335,336,337;,
  3;337,336,338;,
  3;337,338,339;,
  3;339,338,340;,
  3;339,340,341;,
  3;341,340,342;,
  3;341,342,343;,
  3;343,342,344;,
  3;343,344,345;,
  3;345,344,346;,
  3;345,346,347;,
  3;347,346,348;,
  3;347,348,349;,
  3;349,348,350;,
  3;349,350,351;,
  3;351,350,320;,
  3;351,320,321;,
  3;350,348,346;,
  3;350,346,344;,
  3;350,344,342;,
  3;350,342,340;,
  3;350,340,338;,
  3;350,338,336;,
  3;350,336,334;,
  3;350,334,332;,
  3;350,332,330;,
  3;350,330,328;,
  3;350,328,326;,
  3;350,326,324;,
  3;350,324,322;,
  3;350,322,320;,
  3;321,323,325;,
  3;321,325,327;,
  3;321,327,329;,
  3;321,329,331;,
  3;321,331,333;,
  3;321,333,335;,
  3;321,335,337;,
  3;321,337,339;,
  3;321,339,341;,
  3;321,341,343;,
  3;321,343,345;,
  3;321,345,347;,
  3;321,347,349;,
  3;321,349,351;,
  3;353,352,354;,
  3;353,354,355;,
  3;355,354,356;,
  3;355,356,357;,
  3;357,356,358;,
  3;357,358,359;,
  3;359,358,360;,
  3;359,360,361;,
  3;361,360,362;,
  3;361,362,363;,
  3;363,362,364;,
  3;363,364,365;,
  3;365,364,366;,
  3;365,366,367;,
  3;367,366,368;,
  3;367,368,369;,
  3;369,368,370;,
  3;369,370,371;,
  3;371,370,372;,
  3;371,372,373;,
  3;373,372,374;,
  3;373,374,375;,
  3;375,374,376;,
  3;375,376,377;,
  3;377,376,378;,
  3;377,378,379;,
  3;379,378,380;,
  3;379,380,381;,
  3;381,380,382;,
  3;381,382,383;,
  3;383,382,352;,
  3;383,352,353;,
  3;382,380,378;,
  3;382,378,376;,
  3;382,376,374;,
  3;382,374,372;,
  3;382,372,370;,
  3;382,370,368;,
  3;382,368,366;,
  3;382,366,364;,
  3;382,364,362;,
  3;382,362,360;,
  3;382,360,358;,
  3;382,358,356;,
  3;382,356,354;,
  3;382,354,352;,
  3;353,355,357;,
  3;353,357,359;,
  3;353,359,361;,
  3;353,361,363;,
  3;353,363,365;,
  3;353,365,367;,
  3;353,367,369;,
  3;353,369,371;,
  3;353,371,373;,
  3;353,373,375;,
  3;353,375,377;,
  3;353,377,379;,
  3;353,379,381;,
  3;353,381,383;,
  3;385,384,386;,
  3;385,386,387;,
  3;387,386,388;,
  3;387,388,389;,
  3;389,388,390;,
  3;389,390,391;,
  3;391,390,392;,
  3;391,392,393;,
  3;393,392,394;,
  3;393,394,395;,
  3;395,394,396;,
  3;395,396,397;,
  3;397,396,398;,
  3;397,398,399;,
  3;399,398,400;,
  3;399,400,401;,
  3;401,400,402;,
  3;401,402,403;,
  3;403,402,404;,
  3;403,404,405;,
  3;405,404,406;,
  3;405,406,407;,
  3;407,406,408;,
  3;407,408,409;,
  3;409,408,410;,
  3;409,410,411;,
  3;411,410,412;,
  3;411,412,413;,
  3;413,412,414;,
  3;413,414,415;,
  3;415,414,384;,
  3;415,384,385;,
  3;414,412,410;,
  3;414,410,408;,
  3;414,408,406;,
  3;414,406,404;,
  3;414,404,402;,
  3;414,402,400;,
  3;414,400,398;,
  3;414,398,396;,
  3;414,396,394;,
  3;414,394,392;,
  3;414,392,390;,
  3;414,390,388;,
  3;414,388,386;,
  3;414,386,384;,
  3;385,387,389;,
  3;385,389,391;,
  3;385,391,393;,
  3;385,393,395;,
  3;385,395,397;,
  3;385,397,399;,
  3;385,399,401;,
  3;385,401,403;,
  3;385,403,405;,
  3;385,405,407;,
  3;385,407,409;,
  3;385,409,411;,
  3;385,411,413;,
  3;385,413,415;,
  3;417,416,418;,
  3;417,418,419;,
  3;419,418,420;,
  3;419,420,421;,
  3;421,420,422;,
  3;421,422,423;,
  3;423,422,424;,
  3;423,424,425;,
  3;425,424,426;,
  3;425,426,427;,
  3;427,426,428;,
  3;427,428,429;,
  3;429,428,430;,
  3;429,430,431;,
  3;431,430,432;,
  3;431,432,433;,
  3;433,432,434;,
  3;433,434,435;,
  3;435,434,436;,
  3;435,436,437;,
  3;437,436,438;,
  3;437,438,439;,
  3;439,438,440;,
  3;439,440,441;,
  3;441,440,442;,
  3;441,442,443;,
  3;443,442,444;,
  3;443,444,445;,
  3;445,444,446;,
  3;445,446,447;,
  3;447,446,416;,
  3;447,416,417;,
  3;446,444,442;,
  3;446,442,440;,
  3;446,440,438;,
  3;446,438,436;,
  3;446,436,434;,
  3;446,434,432;,
  3;446,432,430;,
  3;446,430,428;,
  3;446,428,426;,
  3;446,426,424;,
  3;446,424,422;,
  3;446,422,420;,
  3;446,420,418;,
  3;446,418,416;,
  3;417,419,421;,
  3;417,421,423;,
  3;417,423,425;,
  3;417,425,427;,
  3;417,427,429;,
  3;417,429,431;,
  3;417,431,433;,
  3;417,433,435;,
  3;417,435,437;,
  3;417,437,439;,
  3;417,439,441;,
  3;417,441,443;,
  3;417,443,445;,
  3;417,445,447;,
  3;449,448,450;,
  3;449,450,451;,
  3;451,450,452;,
  3;451,452,453;,
  3;453,452,454;,
  3;453,454,455;,
  3;455,454,456;,
  3;455,456,457;,
  3;457,456,458;,
  3;457,458,459;,
  3;459,458,460;,
  3;459,460,461;,
  3;461,460,462;,
  3;461,462,463;,
  3;463,462,464;,
  3;463,464,465;,
  3;465,464,466;,
  3;465,466,467;,
  3;467,466,468;,
  3;467,468,469;,
  3;469,468,470;,
  3;469,470,471;,
  3;471,470,472;,
  3;471,472,473;,
  3;473,472,474;,
  3;473,474,475;,
  3;475,474,476;,
  3;475,476,477;,
  3;477,476,478;,
  3;477,478,479;,
  3;479,478,448;,
  3;479,448,449;,
  3;478,476,474;,
  3;478,474,472;,
  3;478,472,470;,
  3;478,470,468;,
  3;478,468,466;,
  3;478,466,464;,
  3;478,464,462;,
  3;478,462,460;,
  3;478,460,458;,
  3;478,458,456;,
  3;478,456,454;,
  3;478,454,452;,
  3;478,452,450;,
  3;478,450,448;,
  3;449,451,453;,
  3;449,453,455;,
  3;449,455,457;,
  3;449,457,459;,
  3;449,459,461;,
  3;449,461,463;,
  3;449,463,465;,
  3;449,465,467;,
  3;449,467,469;,
  3;449,469,471;,
  3;449,471,473;,
  3;449,473,475;,
  3;449,475,477;,
  3;449,477,479;,
  3;481,480,482;,
  3;481,482,483;,
  3;483,482,484;,
  3;483,484,485;,
  3;485,484,486;,
  3;485,486,487;,
  3;487,486,488;,
  3;487,488,489;,
  3;489,488,490;,
  3;489,490,491;,
  3;491,490,492;,
  3;491,492,493;,
  3;493,492,494;,
  3;493,494,495;,
  3;495,494,496;,
  3;495,496,497;,
  3;497,496,498;,
  3;497,498,499;,
  3;499,498,500;,
  3;499,500,501;,
  3;501,500,502;,
  3;501,502,503;,
  3;503,502,504;,
  3;503,504,505;,
  3;505,504,506;,
  3;505,506,507;,
  3;507,506,508;,
  3;507,508,509;,
  3;509,508,510;,
  3;509,510,511;,
  3;511,510,480;,
  3;511,480,481;,
  3;510,508,506;,
  3;510,506,504;,
  3;510,504,502;,
  3;510,502,500;,
  3;510,500,498;,
  3;510,498,496;,
  3;510,496,494;,
  3;510,494,492;,
  3;510,492,490;,
  3;510,490,488;,
  3;510,488,486;,
  3;510,486,484;,
  3;510,484,482;,
  3;510,482,480;,
  3;481,483,485;,
  3;481,485,487;,
  3;481,487,489;,
  3;481,489,491;,
  3;481,491,493;,
  3;481,493,495;,
  3;481,495,497;,
  3;481,497,499;,
  3;481,499,501;,
  3;481,501,503;,
  3;481,503,505;,
  3;481,505,507;,
  3;481,507,509;,
  3;481,509,511;,
  3;513,512,514;,
  3;513,514,515;,
  3;515,514,516;,
  3;515,516,517;,
  3;517,516,518;,
  3;517,518,519;,
  3;519,518,520;,
  3;519,520,521;,
  3;521,520,522;,
  3;521,522,523;,
  3;523,522,524;,
  3;523,524,525;,
  3;525,524,526;,
  3;525,526,527;,
  3;527,526,528;,
  3;527,528,529;,
  3;529,528,530;,
  3;529,530,531;,
  3;531,530,532;,
  3;531,532,533;,
  3;533,532,534;,
  3;533,534,535;,
  3;535,534,536;,
  3;535,536,537;,
  3;537,536,538;,
  3;537,538,539;,
  3;539,538,540;,
  3;539,540,541;,
  3;541,540,542;,
  3;541,542,543;,
  3;543,542,512;,
  3;543,512,513;,
  3;542,540,538;,
  3;542,538,536;,
  3;542,536,534;,
  3;542,534,532;,
  3;542,532,530;,
  3;542,530,528;,
  3;542,528,526;,
  3;542,526,524;,
  3;542,524,522;,
  3;542,522,520;,
  3;542,520,518;,
  3;542,518,516;,
  3;542,516,514;,
  3;542,514,512;,
  3;513,515,517;,
  3;513,517,519;,
  3;513,519,521;,
  3;513,521,523;,
  3;513,523,525;,
  3;513,525,527;,
  3;513,527,529;,
  3;513,529,531;,
  3;513,531,533;,
  3;513,533,535;,
  3;513,535,537;,
  3;513,537,539;,
  3;513,539,541;,
  3;513,541,543;;
 }
}