xof 0303txt 0032
template Vector {
 <3d82ab5e-62da-11cf-ab39-0020af71e433>
 FLOAT x;
 FLOAT y;
 FLOAT z;
}

template MeshFace {
 <3d82ab5f-62da-11cf-ab39-0020af71e433>
 DWORD nFaceVertexIndices;
 array DWORD faceVertexIndices[nFaceVertexIndices];
}

template Mesh {
 <3d82ab44-62da-11cf-ab39-0020af71e433>
 DWORD nVertices;
 array Vector vertices[nVertices];
 DWORD nFaces;
 array MeshFace faces[nFaces];
 [...]
}

template ColorRGBA {
 <35ff44e0-6c7c-11cf-8f52-0040333594a3>
 FLOAT red;
 FLOAT green;
 FLOAT blue;
 FLOAT alpha;
}

template ColorRGB {
 <d3e16e81-7835-11cf-8f52-0040333594a3>
 FLOAT red;
 FLOAT green;
 FLOAT blue;
}

template Material {
 <3d82ab4d-62da-11cf-ab39-0020af71e433>
 ColorRGBA faceColor;
 FLOAT power;
 ColorRGB specularColor;
 ColorRGB emissiveColor;
 [...]
}

template MeshMaterialList {
 <f6f23f42-7686-11cf-8f52-0040333594a3>
 DWORD nMaterials;
 DWORD nFaceIndexes;
 array DWORD faceIndexes[nFaceIndexes];
 [Material <3d82ab4d-62da-11cf-ab39-0020af71e433>]
}

template Coords2d {
 <f6f23f44-7686-11cf-8f52-0040333594a3>
 FLOAT u;
 FLOAT v;
}

template MeshTextureCoords {
 <f6f23f40-7686-11cf-8f52-0040333594a3>
 DWORD nTextureCoords;
 array Coords2d textureCoords[nTextureCoords];
}

template MeshNormals {
 <f6f23f43-7686-11cf-8f52-0040333594a3>
 DWORD nNormals;
 array Vector normals[nNormals];
 DWORD nFaceNormals;
 array MeshFace faceNormals[nFaceNormals];
}


Mesh  {
 544;
 0.006000;5.049999;50.049992;,
 0.006000;5.050001;-0.049995;,
 0.005543;5.047702;50.049992;,
 0.005543;5.047705;-0.049995;,
 0.004243;5.045756;50.049992;,
 0.004243;5.045758;-0.049995;,
 0.002296;5.044456;50.049992;,
 0.002296;5.044457;-0.049995;,
 0.000000;5.043999;50.049992;,
 0.000000;5.044001;-0.049995;,
 -0.002296;5.044456;50.049992;,
 -0.002296;5.044457;-0.049995;,
 -0.004243;5.045756;50.049992;,
 -0.004243;5.045758;-0.049995;,
 -0.005543;5.047702;50.049992;,
 -0.005543;5.047705;-0.049995;,
 -0.006000;5.049999;50.049992;,
 -0.006000;5.050001;-0.049995;,
 -0.005543;5.052295;50.049992;,
 -0.005543;5.052297;-0.049995;,
 -0.004243;5.054241;50.049992;,
 -0.004243;5.054244;-0.049995;,
 -0.002296;5.055542;50.049992;,
 -0.002296;5.055544;-0.049995;,
 -0.000000;5.055999;50.049992;,
 -0.000000;5.056001;-0.049995;,
 0.002296;5.055542;50.049992;,
 0.002296;5.055544;-0.049995;,
 0.004243;5.054241;50.049992;,
 0.004243;5.054244;-0.049995;,
 0.005543;5.052295;50.049992;,
 0.005543;5.052297;-0.049995;,
 0.010000;5.569551;5.016754;,
 0.010000;5.750000;0.000000;,
 0.009239;5.565726;5.016616;,
 0.009239;5.746175;-0.000138;,
 0.007071;5.562484;5.016500;,
 0.007071;5.742933;-0.000254;,
 0.003827;5.560318;5.016422;,
 0.003827;5.740767;-0.000332;,
 0.000000;5.559557;5.016394;,
 0.000000;5.740006;-0.000359;,
 -0.003827;5.560318;5.016422;,
 -0.003827;5.740767;-0.000332;,
 -0.007071;5.562484;5.016500;,
 -0.007071;5.742933;-0.000254;,
 -0.009239;5.565726;5.016616;,
 -0.009239;5.746175;-0.000138;,
 -0.010000;5.569551;5.016754;,
 -0.010000;5.750000;-0.000000;,
 -0.009239;5.573375;5.016891;,
 -0.009239;5.753824;0.000138;,
 -0.007071;5.576617;5.017008;,
 -0.007071;5.757066;0.000254;,
 -0.003827;5.578783;5.017086;,
 -0.003827;5.759233;0.000332;,
 -0.000000;5.579544;5.017113;,
 -0.000000;5.759993;0.000359;,
 0.003827;5.578783;5.017086;,
 0.003827;5.759233;0.000332;,
 0.007071;5.576617;5.017008;,
 0.007071;5.757066;0.000254;,
 0.009239;5.573375;5.016891;,
 0.009239;5.753824;0.000138;,
 0.010000;5.470318;15.019502;,
 0.010000;5.570000;5.000000;,
 0.009239;5.466492;15.019464;,
 0.009239;5.566173;4.999961;,
 0.007071;5.463247;15.019431;,
 0.007071;5.562929;4.999929;,
 0.003827;5.461080;15.019410;,
 0.003827;5.560761;4.999907;,
 0.000000;5.460319;15.019403;,
 0.000000;5.560000;4.999900;,
 -0.003827;5.461080;15.019410;,
 -0.003827;5.560761;4.999907;,
 -0.007071;5.463247;15.019431;,
 -0.007071;5.562929;4.999929;,
 -0.009239;5.466492;15.019464;,
 -0.009239;5.566173;4.999961;,
 -0.010000;5.470318;15.019502;,
 -0.010000;5.570000;5.000000;,
 -0.009239;5.474145;15.019540;,
 -0.009239;5.573826;5.000038;,
 -0.007071;5.477389;15.019572;,
 -0.007071;5.577070;5.000070;,
 -0.003827;5.479557;15.019593;,
 -0.003827;5.579238;5.000092;,
 -0.000000;5.480318;15.019601;,
 -0.000000;5.579999;5.000099;,
 0.003827;5.479557;15.019593;,
 0.003827;5.579238;5.000092;,
 0.007071;5.477389;15.019572;,
 0.007071;5.577070;5.000070;,
 0.009239;5.474145;15.019540;,
 0.009239;5.573826;5.000038;,
 0.010000;5.450762;25.019978;,
 0.010000;5.469999;14.999999;,
 0.009239;5.446935;25.019970;,
 0.009239;5.466173;14.999991;,
 0.007071;5.443691;25.019964;,
 0.007071;5.462928;14.999986;,
 0.003827;5.441523;25.019960;,
 0.003827;5.460761;14.999981;,
 0.000000;5.440762;25.019958;,
 0.000000;5.460000;14.999980;,
 -0.003827;5.441523;25.019960;,
 -0.003827;5.460761;14.999981;,
 -0.007071;5.443691;25.019964;,
 -0.007071;5.462928;14.999986;,
 -0.009239;5.446935;25.019970;,
 -0.009239;5.466173;14.999991;,
 -0.010000;5.450762;25.019978;,
 -0.010000;5.469999;14.999999;,
 -0.009239;5.454589;25.019985;,
 -0.009239;5.473826;15.000007;,
 -0.007071;5.457833;25.019991;,
 -0.007071;5.477070;15.000012;,
 -0.003827;5.460001;25.019995;,
 -0.003827;5.479238;15.000017;,
 -0.000000;5.460762;25.019997;,
 -0.000000;5.479999;15.000018;,
 0.003827;5.460001;25.019995;,
 0.003827;5.479238;15.000017;,
 0.007071;5.457833;25.019991;,
 0.007071;5.477070;15.000012;,
 0.009239;5.454589;25.019985;,
 0.009239;5.473826;15.000007;,
 0.010000;5.469236;35.019978;,
 0.010000;5.449999;24.999998;,
 0.009239;5.465409;35.019985;,
 0.009239;5.446173;25.000006;,
 0.007071;5.462165;35.019989;,
 0.007071;5.442928;25.000011;,
 0.003827;5.459997;35.019993;,
 0.003827;5.440761;25.000015;,
 0.000000;5.459236;35.019993;,
 0.000000;5.440000;25.000017;,
 -0.003827;5.459997;35.019993;,
 -0.003827;5.440761;25.000015;,
 -0.007071;5.462165;35.019989;,
 -0.007071;5.442928;25.000011;,
 -0.009239;5.465409;35.019985;,
 -0.009239;5.446173;25.000006;,
 -0.010000;5.469236;35.019978;,
 -0.010000;5.449999;24.999998;,
 -0.009239;5.473063;35.019970;,
 -0.009239;5.453826;24.999990;,
 -0.007071;5.476307;35.019962;,
 -0.007071;5.457070;24.999985;,
 -0.003827;5.478475;35.019958;,
 -0.003827;5.459238;24.999981;,
 -0.000000;5.479236;35.019955;,
 -0.000000;5.459999;24.999979;,
 0.003827;5.478475;35.019958;,
 0.003827;5.459238;24.999981;,
 0.007071;5.476307;35.019962;,
 0.007071;5.457070;24.999985;,
 0.009239;5.473063;35.019970;,
 0.009239;5.453826;24.999990;,
 0.010000;5.569680;45.019497;,
 0.010000;5.469999;34.999996;,
 0.009239;5.565853;45.019535;,
 0.009239;5.466173;35.000034;,
 0.007071;5.562609;45.019569;,
 0.007071;5.462929;35.000065;,
 0.003827;5.560441;45.019588;,
 0.003827;5.460761;35.000088;,
 0.000000;5.559680;45.019596;,
 0.000000;5.460000;35.000095;,
 -0.003827;5.560441;45.019588;,
 -0.003827;5.460761;35.000088;,
 -0.007071;5.562609;45.019569;,
 -0.007071;5.462929;35.000065;,
 -0.009239;5.565853;45.019535;,
 -0.009239;5.466173;35.000034;,
 -0.010000;5.569680;45.019497;,
 -0.010000;5.469999;34.999996;,
 -0.009239;5.573506;45.019459;,
 -0.009239;5.473826;34.999958;,
 -0.007071;5.576751;45.019428;,
 -0.007071;5.477070;34.999928;,
 -0.003827;5.578918;45.019405;,
 -0.003827;5.479238;34.999905;,
 -0.000000;5.579679;45.019398;,
 -0.000000;5.479999;34.999897;,
 0.003827;5.578918;45.019405;,
 0.003827;5.479238;34.999905;,
 0.007071;5.576751;45.019428;,
 0.007071;5.477070;34.999928;,
 0.009239;5.573506;45.019459;,
 0.009239;5.473826;34.999958;,
 0.010000;5.750448;50.016750;,
 0.010000;5.570000;44.999996;,
 0.009239;5.746624;50.016888;,
 0.009239;5.566175;45.000134;,
 0.007071;5.743382;50.017006;,
 0.007071;5.562933;45.000252;,
 0.003827;5.741216;50.017082;,
 0.003827;5.560767;45.000328;,
 0.000000;5.740455;50.017109;,
 0.000000;5.560006;45.000355;,
 -0.003827;5.741216;50.017082;,
 -0.003827;5.560767;45.000328;,
 -0.007071;5.743382;50.017006;,
 -0.007071;5.562933;45.000252;,
 -0.009239;5.746624;50.016888;,
 -0.009239;5.566175;45.000134;,
 -0.010000;5.750448;50.016750;,
 -0.010000;5.570000;44.999996;,
 -0.009239;5.754273;50.016613;,
 -0.009239;5.573824;44.999859;,
 -0.007071;5.757515;50.016495;,
 -0.007071;5.577066;44.999741;,
 -0.003827;5.759681;50.016418;,
 -0.003827;5.579233;44.999664;,
 -0.000000;5.760442;50.016392;,
 -0.000000;5.579993;44.999638;,
 0.003827;5.759681;50.016418;,
 0.003827;5.579233;44.999664;,
 0.007071;5.757515;50.016495;,
 0.007071;5.577066;44.999741;,
 0.009239;5.754273;50.016613;,
 0.009239;5.573824;44.999859;,
 0.002000;5.569999;5.000000;,
 0.002000;5.050000;5.000000;,
 0.001848;5.569999;5.000765;,
 0.001848;5.050000;5.000765;,
 0.001414;5.569999;5.001414;,
 0.001414;5.050000;5.001414;,
 0.000765;5.569999;5.001847;,
 0.000765;5.050000;5.001847;,
 0.000000;5.569999;5.001999;,
 0.000000;5.050000;5.001999;,
 -0.000765;5.569999;5.001847;,
 -0.000765;5.050000;5.001847;,
 -0.001414;5.569999;5.001414;,
 -0.001414;5.050000;5.001414;,
 -0.001848;5.569999;5.000765;,
 -0.001848;5.050000;5.000765;,
 -0.002000;5.569999;5.000000;,
 -0.002000;5.050000;5.000000;,
 -0.001848;5.569999;4.999234;,
 -0.001848;5.050000;4.999234;,
 -0.001414;5.569999;4.998585;,
 -0.001414;5.050000;4.998585;,
 -0.000765;5.569999;4.998152;,
 -0.000765;5.050000;4.998152;,
 -0.000000;5.569999;4.998000;,
 -0.000000;5.050000;4.998000;,
 0.000765;5.569999;4.998152;,
 0.000765;5.050000;4.998152;,
 0.001414;5.569999;4.998585;,
 0.001414;5.050000;4.998585;,
 0.001848;5.569999;4.999234;,
 0.001848;5.050000;4.999234;,
 0.002000;5.470000;14.999999;,
 0.002000;5.050000;14.999999;,
 0.001848;5.470000;15.000765;,
 0.001848;5.050000;15.000765;,
 0.001414;5.470000;15.001413;,
 0.001414;5.050000;15.001413;,
 0.000765;5.470000;15.001847;,
 0.000765;5.050000;15.001847;,
 0.000000;5.470000;15.001999;,
 0.000000;5.050000;15.001999;,
 -0.000765;5.470000;15.001847;,
 -0.000765;5.050000;15.001847;,
 -0.001414;5.470000;15.001413;,
 -0.001414;5.050000;15.001413;,
 -0.001848;5.470000;15.000765;,
 -0.001848;5.050000;15.000765;,
 -0.002000;5.470000;14.999999;,
 -0.002000;5.050000;14.999999;,
 -0.001848;5.470000;14.999233;,
 -0.001848;5.050000;14.999233;,
 -0.001414;5.470000;14.998585;,
 -0.001414;5.050000;14.998585;,
 -0.000765;5.470000;14.998151;,
 -0.000765;5.050000;14.998151;,
 -0.000000;5.470000;14.997999;,
 -0.000000;5.050000;14.997999;,
 0.000765;5.470000;14.998151;,
 0.000765;5.050000;14.998151;,
 0.001414;5.470000;14.998585;,
 0.001414;5.050000;14.998585;,
 0.001848;5.470000;14.999233;,
 0.001848;5.050000;14.999233;,
 0.002000;5.449999;24.999998;,
 0.002000;5.050000;24.999998;,
 0.001848;5.449999;25.000763;,
 0.001848;5.050000;25.000763;,
 0.001414;5.449999;25.001411;,
 0.001414;5.050000;25.001411;,
 0.000765;5.449999;25.001846;,
 0.000765;5.050000;25.001846;,
 0.000000;5.449999;25.001999;,
 0.000000;5.050000;25.001999;,
 -0.000765;5.449999;25.001846;,
 -0.000765;5.050000;25.001846;,
 -0.001414;5.449999;25.001411;,
 -0.001414;5.050000;25.001411;,
 -0.001848;5.449999;25.000763;,
 -0.001848;5.050000;25.000763;,
 -0.002000;5.449999;24.999998;,
 -0.002000;5.050000;24.999998;,
 -0.001848;5.449999;24.999233;,
 -0.001848;5.050000;24.999233;,
 -0.001414;5.449999;24.998585;,
 -0.001414;5.050000;24.998585;,
 -0.000765;5.449999;24.998150;,
 -0.000765;5.050000;24.998150;,
 -0.000000;5.449999;24.997997;,
 -0.000000;5.050000;24.997997;,
 0.000765;5.449999;24.998150;,
 0.000765;5.050000;24.998150;,
 0.001414;5.449999;24.998585;,
 0.001414;5.050000;24.998585;,
 0.001848;5.449999;24.999233;,
 0.001848;5.050000;24.999233;,
 0.002000;5.470000;34.999996;,
 0.002000;5.050000;34.999996;,
 0.001848;5.470000;35.000763;,
 0.001848;5.050000;35.000763;,
 0.001414;5.470000;35.001411;,
 0.001414;5.050000;35.001411;,
 0.000765;5.470000;35.001842;,
 0.000765;5.050000;35.001842;,
 0.000000;5.470000;35.001995;,
 0.000000;5.050000;35.001995;,
 -0.000765;5.470000;35.001842;,
 -0.000765;5.050000;35.001842;,
 -0.001414;5.470000;35.001411;,
 -0.001414;5.050000;35.001411;,
 -0.001848;5.470000;35.000763;,
 -0.001848;5.050000;35.000763;,
 -0.002000;5.470000;34.999996;,
 -0.002000;5.050000;34.999996;,
 -0.001848;5.470000;34.999229;,
 -0.001848;5.050000;34.999229;,
 -0.001414;5.470000;34.998581;,
 -0.001414;5.050000;34.998581;,
 -0.000765;5.470000;34.998150;,
 -0.000765;5.050000;34.998150;,
 -0.000000;5.470000;34.997997;,
 -0.000000;5.050000;34.997997;,
 0.000765;5.470000;34.998150;,
 0.000765;5.050000;34.998150;,
 0.001414;5.470000;34.998581;,
 0.001414;5.050000;34.998581;,
 0.001848;5.470000;34.999229;,
 0.001848;5.050000;34.999229;,
 0.002000;5.569999;44.999996;,
 0.002000;5.050000;44.999996;,
 0.001848;5.569999;45.000763;,
 0.001848;5.050000;45.000763;,
 0.001414;5.569999;45.001411;,
 0.001414;5.050000;45.001411;,
 0.000765;5.569999;45.001842;,
 0.000765;5.050000;45.001842;,
 0.000000;5.569999;45.001995;,
 0.000000;5.050000;45.001995;,
 -0.000765;5.569999;45.001842;,
 -0.000765;5.050000;45.001842;,
 -0.001414;5.569999;45.001411;,
 -0.001414;5.050000;45.001411;,
 -0.001848;5.569999;45.000763;,
 -0.001848;5.050000;45.000763;,
 -0.002000;5.569999;44.999996;,
 -0.002000;5.050000;44.999996;,
 -0.001848;5.569999;44.999229;,
 -0.001848;5.050000;44.999229;,
 -0.001414;5.569999;44.998581;,
 -0.001414;5.050000;44.998581;,
 -0.000765;5.569999;44.998150;,
 -0.000765;5.050000;44.998150;,
 -0.000000;5.569999;44.997997;,
 -0.000000;5.050000;44.997997;,
 0.000765;5.569999;44.998150;,
 0.000765;5.050000;44.998150;,
 0.001414;5.569999;44.998581;,
 0.001414;5.050000;44.998581;,
 0.001848;5.569999;44.999229;,
 0.001848;5.050000;44.999229;,
 0.055000;5.570000;5.025000;,
 0.055000;5.570000;4.974999;,
 0.050813;5.548952;5.025000;,
 0.050813;5.548952;4.974999;,
 0.038891;5.531109;5.025000;,
 0.038891;5.531109;4.974999;,
 0.021048;5.519186;5.025000;,
 0.021048;5.519186;4.974999;,
 0.000000;5.515000;5.025000;,
 0.000000;5.515000;4.974999;,
 -0.021048;5.519186;5.025000;,
 -0.021048;5.519186;4.974999;,
 -0.038891;5.531109;5.025000;,
 -0.038891;5.531109;4.974999;,
 -0.050813;5.548952;5.025000;,
 -0.050813;5.548952;4.974999;,
 -0.055000;5.570000;5.025000;,
 -0.055000;5.570000;4.974999;,
 -0.050813;5.591047;5.025000;,
 -0.050813;5.591047;4.974999;,
 -0.038891;5.608891;5.025000;,
 -0.038891;5.608891;4.974999;,
 -0.021048;5.620813;5.025000;,
 -0.021048;5.620813;4.974999;,
 -0.000000;5.625000;5.025000;,
 -0.000000;5.625000;4.974999;,
 0.021048;5.620813;5.025000;,
 0.021048;5.620813;4.974999;,
 0.038891;5.608891;5.025000;,
 0.038891;5.608891;4.974999;,
 0.050813;5.591047;5.025000;,
 0.050813;5.591047;4.974999;,
 0.055000;5.469999;15.024999;,
 0.055000;5.469999;14.974999;,
 0.050813;5.448952;15.024999;,
 0.050813;5.448952;14.974999;,
 0.038891;5.431108;15.024999;,
 0.038891;5.431108;14.974999;,
 0.021048;5.419186;15.024999;,
 0.021048;5.419186;14.974999;,
 0.000000;5.414999;15.024999;,
 0.000000;5.414999;14.974999;,
 -0.021048;5.419186;15.024999;,
 -0.021048;5.419186;14.974999;,
 -0.038891;5.431108;15.024999;,
 -0.038891;5.431108;14.974999;,
 -0.050813;5.448952;15.024999;,
 -0.050813;5.448952;14.974999;,
 -0.055000;5.469999;15.024999;,
 -0.055000;5.469999;14.974999;,
 -0.050813;5.491047;15.024999;,
 -0.050813;5.491047;14.974999;,
 -0.038891;5.508890;15.024999;,
 -0.038891;5.508890;14.974999;,
 -0.021048;5.520813;15.024999;,
 -0.021048;5.520813;14.974999;,
 -0.000000;5.524999;15.024999;,
 -0.000000;5.524999;14.974999;,
 0.021048;5.520813;15.024999;,
 0.021048;5.520813;14.974999;,
 0.038891;5.508890;15.024999;,
 0.038891;5.508890;14.974999;,
 0.050813;5.491047;15.024999;,
 0.050813;5.491047;14.974999;,
 0.055000;5.449999;25.024998;,
 0.055000;5.449999;24.974998;,
 0.050813;5.428952;25.024998;,
 0.050813;5.428952;24.974998;,
 0.038891;5.411108;25.024998;,
 0.038891;5.411108;24.974998;,
 0.021048;5.399186;25.024998;,
 0.021048;5.399186;24.974998;,
 0.000000;5.395000;25.024998;,
 0.000000;5.395000;24.974998;,
 -0.021048;5.399186;25.024998;,
 -0.021048;5.399186;24.974998;,
 -0.038891;5.411108;25.024998;,
 -0.038891;5.411108;24.974998;,
 -0.050813;5.428952;25.024998;,
 -0.050813;5.428952;24.974998;,
 -0.055000;5.449999;25.024998;,
 -0.055000;5.449999;24.974998;,
 -0.050813;5.471047;25.024998;,
 -0.050813;5.471047;24.974998;,
 -0.038891;5.488890;25.024998;,
 -0.038891;5.488890;24.974998;,
 -0.021048;5.500813;25.024998;,
 -0.021048;5.500813;24.974998;,
 -0.000000;5.504999;25.024998;,
 -0.000000;5.504999;24.974998;,
 0.021048;5.500813;25.024998;,
 0.021048;5.500813;24.974998;,
 0.038891;5.488890;25.024998;,
 0.038891;5.488890;24.974998;,
 0.050813;5.471047;25.024998;,
 0.050813;5.471047;24.974998;,
 0.055000;5.469999;35.024998;,
 0.055000;5.469999;34.974995;,
 0.050813;5.448952;35.024998;,
 0.050813;5.448952;34.974995;,
 0.038891;5.431108;35.024998;,
 0.038891;5.431108;34.974995;,
 0.021048;5.419186;35.024998;,
 0.021048;5.419186;34.974995;,
 0.000000;5.414999;35.024998;,
 0.000000;5.414999;34.974995;,
 -0.021048;5.419186;35.024998;,
 -0.021048;5.419186;34.974995;,
 -0.038891;5.431108;35.024998;,
 -0.038891;5.431108;34.974995;,
 -0.050813;5.448952;35.024998;,
 -0.050813;5.448952;34.974995;,
 -0.055000;5.469999;35.024998;,
 -0.055000;5.469999;34.974995;,
 -0.050813;5.491047;35.024998;,
 -0.050813;5.491047;34.974995;,
 -0.038891;5.508890;35.024998;,
 -0.038891;5.508890;34.974995;,
 -0.021048;5.520813;35.024998;,
 -0.021048;5.520813;34.974995;,
 -0.000000;5.524999;35.024998;,
 -0.000000;5.524999;34.974995;,
 0.021048;5.520813;35.024998;,
 0.021048;5.520813;34.974995;,
 0.038891;5.508890;35.024998;,
 0.038891;5.508890;34.974995;,
 0.050813;5.491047;35.024998;,
 0.050813;5.491047;34.974995;,
 0.055000;5.570000;45.024998;,
 0.055000;5.570000;44.974995;,
 0.050813;5.548952;45.024998;,
 0.050813;5.548952;44.974995;,
 0.038891;5.531109;45.024998;,
 0.038891;5.531109;44.974995;,
 0.021048;5.519186;45.024998;,
 0.021048;5.519186;44.974995;,
 0.000000;5.515000;45.024998;,
 0.000000;5.515000;44.974995;,
 -0.021048;5.519186;45.024998;,
 -0.021048;5.519186;44.974995;,
 -0.038891;5.531109;45.024998;,
 -0.038891;5.531109;44.974995;,
 -0.050813;5.548952;45.024998;,
 -0.050813;5.548952;44.974995;,
 -0.055000;5.570000;45.024998;,
 -0.055000;5.570000;44.974995;,
 -0.050813;5.591047;45.024998;,
 -0.050813;5.591047;44.974995;,
 -0.038891;5.608891;45.024998;,
 -0.038891;5.608891;44.974995;,
 -0.021048;5.620813;45.024998;,
 -0.021048;5.620813;44.974995;,
 -0.000000;5.625000;45.024998;,
 -0.000000;5.625000;44.974995;,
 0.021048;5.620813;45.024998;,
 0.021048;5.620813;44.974995;,
 0.038891;5.608891;45.024998;,
 0.038891;5.608891;44.974995;,
 0.050813;5.591047;45.024998;,
 0.050813;5.591047;44.974995;;
 1020;
 3;1,0,2;,
 3;1,2,3;,
 3;3,2,4;,
 3;3,4,5;,
 3;5,4,6;,
 3;5,6,7;,
 3;7,6,8;,
 3;7,8,9;,
 3;9,8,10;,
 3;9,10,11;,
 3;11,10,12;,
 3;11,12,13;,
 3;13,12,14;,
 3;13,14,15;,
 3;15,14,16;,
 3;15,16,17;,
 3;17,16,18;,
 3;17,18,19;,
 3;19,18,20;,
 3;19,20,21;,
 3;21,20,22;,
 3;21,22,23;,
 3;23,22,24;,
 3;23,24,25;,
 3;25,24,26;,
 3;25,26,27;,
 3;27,26,28;,
 3;27,28,29;,
 3;29,28,30;,
 3;29,30,31;,
 3;31,30,0;,
 3;31,0,1;,
 3;30,28,26;,
 3;30,26,24;,
 3;30,24,22;,
 3;30,22,20;,
 3;30,20,18;,
 3;30,18,16;,
 3;30,16,14;,
 3;30,14,12;,
 3;30,12,10;,
 3;30,10,8;,
 3;30,8,6;,
 3;30,6,4;,
 3;30,4,2;,
 3;30,2,0;,
 3;1,3,5;,
 3;1,5,7;,
 3;1,7,9;,
 3;1,9,11;,
 3;1,11,13;,
 3;1,13,15;,
 3;1,15,17;,
 3;1,17,19;,
 3;1,19,21;,
 3;1,21,23;,
 3;1,23,25;,
 3;1,25,27;,
 3;1,27,29;,
 3;1,29,31;,
 3;33,32,34;,
 3;33,34,35;,
 3;35,34,36;,
 3;35,36,37;,
 3;37,36,38;,
 3;37,38,39;,
 3;39,38,40;,
 3;39,40,41;,
 3;41,40,42;,
 3;41,42,43;,
 3;43,42,44;,
 3;43,44,45;,
 3;45,44,46;,
 3;45,46,47;,
 3;47,46,48;,
 3;47,48,49;,
 3;49,48,50;,
 3;49,50,51;,
 3;51,50,52;,
 3;51,52,53;,
 3;53,52,54;,
 3;53,54,55;,
 3;55,54,56;,
 3;55,56,57;,
 3;57,56,58;,
 3;57,58,59;,
 3;59,58,60;,
 3;59,60,61;,
 3;61,60,62;,
 3;61,62,63;,
 3;63,62,32;,
 3;63,32,33;,
 3;62,60,58;,
 3;62,58,56;,
 3;62,56,54;,
 3;62,54,52;,
 3;62,52,50;,
 3;62,50,48;,
 3;62,48,46;,
 3;62,46,44;,
 3;62,44,42;,
 3;62,42,40;,
 3;62,40,38;,
 3;62,38,36;,
 3;62,36,34;,
 3;62,34,32;,
 3;33,35,37;,
 3;33,37,39;,
 3;33,39,41;,
 3;33,41,43;,
 3;33,43,45;,
 3;33,45,47;,
 3;33,47,49;,
 3;33,49,51;,
 3;33,51,53;,
 3;33,53,55;,
 3;33,55,57;,
 3;33,57,59;,
 3;33,59,61;,
 3;33,61,63;,
 3;65,64,66;,
 3;65,66,67;,
 3;67,66,68;,
 3;67,68,69;,
 3;69,68,70;,
 3;69,70,71;,
 3;71,70,72;,
 3;71,72,73;,
 3;73,72,74;,
 3;73,74,75;,
 3;75,74,76;,
 3;75,76,77;,
 3;77,76,78;,
 3;77,78,79;,
 3;79,78,80;,
 3;79,80,81;,
 3;81,80,82;,
 3;81,82,83;,
 3;83,82,84;,
 3;83,84,85;,
 3;85,84,86;,
 3;85,86,87;,
 3;87,86,88;,
 3;87,88,89;,
 3;89,88,90;,
 3;89,90,91;,
 3;91,90,92;,
 3;91,92,93;,
 3;93,92,94;,
 3;93,94,95;,
 3;95,94,64;,
 3;95,64,65;,
 3;94,92,90;,
 3;94,90,88;,
 3;94,88,86;,
 3;94,86,84;,
 3;94,84,82;,
 3;94,82,80;,
 3;94,80,78;,
 3;94,78,76;,
 3;94,76,74;,
 3;94,74,72;,
 3;94,72,70;,
 3;94,70,68;,
 3;94,68,66;,
 3;94,66,64;,
 3;65,67,69;,
 3;65,69,71;,
 3;65,71,73;,
 3;65,73,75;,
 3;65,75,77;,
 3;65,77,79;,
 3;65,79,81;,
 3;65,81,83;,
 3;65,83,85;,
 3;65,85,87;,
 3;65,87,89;,
 3;65,89,91;,
 3;65,91,93;,
 3;65,93,95;,
 3;97,96,98;,
 3;97,98,99;,
 3;99,98,100;,
 3;99,100,101;,
 3;101,100,102;,
 3;101,102,103;,
 3;103,102,104;,
 3;103,104,105;,
 3;105,104,106;,
 3;105,106,107;,
 3;107,106,108;,
 3;107,108,109;,
 3;109,108,110;,
 3;109,110,111;,
 3;111,110,112;,
 3;111,112,113;,
 3;113,112,114;,
 3;113,114,115;,
 3;115,114,116;,
 3;115,116,117;,
 3;117,116,118;,
 3;117,118,119;,
 3;119,118,120;,
 3;119,120,121;,
 3;121,120,122;,
 3;121,122,123;,
 3;123,122,124;,
 3;123,124,125;,
 3;125,124,126;,
 3;125,126,127;,
 3;127,126,96;,
 3;127,96,97;,
 3;126,124,122;,
 3;126,122,120;,
 3;126,120,118;,
 3;126,118,116;,
 3;126,116,114;,
 3;126,114,112;,
 3;126,112,110;,
 3;126,110,108;,
 3;126,108,106;,
 3;126,106,104;,
 3;126,104,102;,
 3;126,102,100;,
 3;126,100,98;,
 3;126,98,96;,
 3;97,99,101;,
 3;97,101,103;,
 3;97,103,105;,
 3;97,105,107;,
 3;97,107,109;,
 3;97,109,111;,
 3;97,111,113;,
 3;97,113,115;,
 3;97,115,117;,
 3;97,117,119;,
 3;97,119,121;,
 3;97,121,123;,
 3;97,123,125;,
 3;97,125,127;,
 3;129,128,130;,
 3;129,130,131;,
 3;131,130,132;,
 3;131,132,133;,
 3;133,132,134;,
 3;133,134,135;,
 3;135,134,136;,
 3;135,136,137;,
 3;137,136,138;,
 3;137,138,139;,
 3;139,138,140;,
 3;139,140,141;,
 3;141,140,142;,
 3;141,142,143;,
 3;143,142,144;,
 3;143,144,145;,
 3;145,144,146;,
 3;145,146,147;,
 3;147,146,148;,
 3;147,148,149;,
 3;149,148,150;,
 3;149,150,151;,
 3;151,150,152;,
 3;151,152,153;,
 3;153,152,154;,
 3;153,154,155;,
 3;155,154,156;,
 3;155,156,157;,
 3;157,156,158;,
 3;157,158,159;,
 3;159,158,128;,
 3;159,128,129;,
 3;158,156,154;,
 3;158,154,152;,
 3;158,152,150;,
 3;158,150,148;,
 3;158,148,146;,
 3;158,146,144;,
 3;158,144,142;,
 3;158,142,140;,
 3;158,140,138;,
 3;158,138,136;,
 3;158,136,134;,
 3;158,134,132;,
 3;158,132,130;,
 3;158,130,128;,
 3;129,131,133;,
 3;129,133,135;,
 3;129,135,137;,
 3;129,137,139;,
 3;129,139,141;,
 3;129,141,143;,
 3;129,143,145;,
 3;129,145,147;,
 3;129,147,149;,
 3;129,149,151;,
 3;129,151,153;,
 3;129,153,155;,
 3;129,155,157;,
 3;129,157,159;,
 3;161,160,162;,
 3;161,162,163;,
 3;163,162,164;,
 3;163,164,165;,
 3;165,164,166;,
 3;165,166,167;,
 3;167,166,168;,
 3;167,168,169;,
 3;169,168,170;,
 3;169,170,171;,
 3;171,170,172;,
 3;171,172,173;,
 3;173,172,174;,
 3;173,174,175;,
 3;175,174,176;,
 3;175,176,177;,
 3;177,176,178;,
 3;177,178,179;,
 3;179,178,180;,
 3;179,180,181;,
 3;181,180,182;,
 3;181,182,183;,
 3;183,182,184;,
 3;183,184,185;,
 3;185,184,186;,
 3;185,186,187;,
 3;187,186,188;,
 3;187,188,189;,
 3;189,188,190;,
 3;189,190,191;,
 3;191,190,160;,
 3;191,160,161;,
 3;190,188,186;,
 3;190,186,184;,
 3;190,184,182;,
 3;190,182,180;,
 3;190,180,178;,
 3;190,178,176;,
 3;190,176,174;,
 3;190,174,172;,
 3;190,172,170;,
 3;190,170,168;,
 3;190,168,166;,
 3;190,166,164;,
 3;190,164,162;,
 3;190,162,160;,
 3;161,163,165;,
 3;161,165,167;,
 3;161,167,169;,
 3;161,169,171;,
 3;161,171,173;,
 3;161,173,175;,
 3;161,175,177;,
 3;161,177,179;,
 3;161,179,181;,
 3;161,181,183;,
 3;161,183,185;,
 3;161,185,187;,
 3;161,187,189;,
 3;161,189,191;,
 3;193,192,194;,
 3;193,194,195;,
 3;195,194,196;,
 3;195,196,197;,
 3;197,196,198;,
 3;197,198,199;,
 3;199,198,200;,
 3;199,200,201;,
 3;201,200,202;,
 3;201,202,203;,
 3;203,202,204;,
 3;203,204,205;,
 3;205,204,206;,
 3;205,206,207;,
 3;207,206,208;,
 3;207,208,209;,
 3;209,208,210;,
 3;209,210,211;,
 3;211,210,212;,
 3;211,212,213;,
 3;213,212,214;,
 3;213,214,215;,
 3;215,214,216;,
 3;215,216,217;,
 3;217,216,218;,
 3;217,218,219;,
 3;219,218,220;,
 3;219,220,221;,
 3;221,220,222;,
 3;221,222,223;,
 3;223,222,192;,
 3;223,192,193;,
 3;222,220,218;,
 3;222,218,216;,
 3;222,216,214;,
 3;222,214,212;,
 3;222,212,210;,
 3;222,210,208;,
 3;222,208,206;,
 3;222,206,204;,
 3;222,204,202;,
 3;222,202,200;,
 3;222,200,198;,
 3;222,198,196;,
 3;222,196,194;,
 3;222,194,192;,
 3;193,195,197;,
 3;193,197,199;,
 3;193,199,201;,
 3;193,201,203;,
 3;193,203,205;,
 3;193,205,207;,
 3;193,207,209;,
 3;193,209,211;,
 3;193,211,213;,
 3;193,213,215;,
 3;193,215,217;,
 3;193,217,219;,
 3;193,219,221;,
 3;193,221,223;,
 3;225,224,226;,
 3;225,226,227;,
 3;227,226,228;,
 3;227,228,229;,
 3;229,228,230;,
 3;229,230,231;,
 3;231,230,232;,
 3;231,232,233;,
 3;233,232,234;,
 3;233,234,235;,
 3;235,234,236;,
 3;235,236,237;,
 3;237,236,238;,
 3;237,238,239;,
 3;239,238,240;,
 3;239,240,241;,
 3;241,240,242;,
 3;241,242,243;,
 3;243,242,244;,
 3;243,244,245;,
 3;245,244,246;,
 3;245,246,247;,
 3;247,246,248;,
 3;247,248,249;,
 3;249,248,250;,
 3;249,250,251;,
 3;251,250,252;,
 3;251,252,253;,
 3;253,252,254;,
 3;253,254,255;,
 3;255,254,224;,
 3;255,224,225;,
 3;254,252,250;,
 3;254,250,248;,
 3;254,248,246;,
 3;254,246,244;,
 3;254,244,242;,
 3;254,242,240;,
 3;254,240,238;,
 3;254,238,236;,
 3;254,236,234;,
 3;254,234,232;,
 3;254,232,230;,
 3;254,230,228;,
 3;254,228,226;,
 3;254,226,224;,
 3;225,227,229;,
 3;225,229,231;,
 3;225,231,233;,
 3;225,233,235;,
 3;225,235,237;,
 3;225,237,239;,
 3;225,239,241;,
 3;225,241,243;,
 3;225,243,245;,
 3;225,245,247;,
 3;225,247,249;,
 3;225,249,251;,
 3;225,251,253;,
 3;225,253,255;,
 3;257,256,258;,
 3;257,258,259;,
 3;259,258,260;,
 3;259,260,261;,
 3;261,260,262;,
 3;261,262,263;,
 3;263,262,264;,
 3;263,264,265;,
 3;265,264,266;,
 3;265,266,267;,
 3;267,266,268;,
 3;267,268,269;,
 3;269,268,270;,
 3;269,270,271;,
 3;271,270,272;,
 3;271,272,273;,
 3;273,272,274;,
 3;273,274,275;,
 3;275,274,276;,
 3;275,276,277;,
 3;277,276,278;,
 3;277,278,279;,
 3;279,278,280;,
 3;279,280,281;,
 3;281,280,282;,
 3;281,282,283;,
 3;283,282,284;,
 3;283,284,285;,
 3;285,284,286;,
 3;285,286,287;,
 3;287,286,256;,
 3;287,256,257;,
 3;286,284,282;,
 3;286,282,280;,
 3;286,280,278;,
 3;286,278,276;,
 3;286,276,274;,
 3;286,274,272;,
 3;286,272,270;,
 3;286,270,268;,
 3;286,268,266;,
 3;286,266,264;,
 3;286,264,262;,
 3;286,262,260;,
 3;286,260,258;,
 3;286,258,256;,
 3;257,259,261;,
 3;257,261,263;,
 3;257,263,265;,
 3;257,265,267;,
 3;257,267,269;,
 3;257,269,271;,
 3;257,271,273;,
 3;257,273,275;,
 3;257,275,277;,
 3;257,277,279;,
 3;257,279,281;,
 3;257,281,283;,
 3;257,283,285;,
 3;257,285,287;,
 3;289,288,290;,
 3;289,290,291;,
 3;291,290,292;,
 3;291,292,293;,
 3;293,292,294;,
 3;293,294,295;,
 3;295,294,296;,
 3;295,296,297;,
 3;297,296,298;,
 3;297,298,299;,
 3;299,298,300;,
 3;299,300,301;,
 3;301,300,302;,
 3;301,302,303;,
 3;303,302,304;,
 3;303,304,305;,
 3;305,304,306;,
 3;305,306,307;,
 3;307,306,308;,
 3;307,308,309;,
 3;309,308,310;,
 3;309,310,311;,
 3;311,310,312;,
 3;311,312,313;,
 3;313,312,314;,
 3;313,314,315;,
 3;315,314,316;,
 3;315,316,317;,
 3;317,316,318;,
 3;317,318,319;,
 3;319,318,288;,
 3;319,288,289;,
 3;318,316,314;,
 3;318,314,312;,
 3;318,312,310;,
 3;318,310,308;,
 3;318,308,306;,
 3;318,306,304;,
 3;318,304,302;,
 3;318,302,300;,
 3;318,300,298;,
 3;318,298,296;,
 3;318,296,294;,
 3;318,294,292;,
 3;318,292,290;,
 3;318,290,288;,
 3;289,291,293;,
 3;289,293,295;,
 3;289,295,297;,
 3;289,297,299;,
 3;289,299,301;,
 3;289,301,303;,
 3;289,303,305;,
 3;289,305,307;,
 3;289,307,309;,
 3;289,309,311;,
 3;289,311,313;,
 3;289,313,315;,
 3;289,315,317;,
 3;289,317,319;,
 3;321,320,322;,
 3;321,322,323;,
 3;323,322,324;,
 3;323,324,325;,
 3;325,324,326;,
 3;325,326,327;,
 3;327,326,328;,
 3;327,328,329;,
 3;329,328,330;,
 3;329,330,331;,
 3;331,330,332;,
 3;331,332,333;,
 3;333,332,334;,
 3;333,334,335;,
 3;335,334,336;,
 3;335,336,337;,
 3;337,336,338;,
 3;337,338,339;,
 3;339,338,340;,
 3;339,340,341;,
 3;341,340,342;,
 3;341,342,343;,
 3;343,342,344;,
 3;343,344,345;,
 3;345,344,346;,
 3;345,346,347;,
 3;347,346,348;,
 3;347,348,349;,
 3;349,348,350;,
 3;349,350,351;,
 3;351,350,320;,
 3;351,320,321;,
 3;350,348,346;,
 3;350,346,344;,
 3;350,344,342;,
 3;350,342,340;,
 3;350,340,338;,
 3;350,338,336;,
 3;350,336,334;,
 3;350,334,332;,
 3;350,332,330;,
 3;350,330,328;,
 3;350,328,326;,
 3;350,326,324;,
 3;350,324,322;,
 3;350,322,320;,
 3;321,323,325;,
 3;321,325,327;,
 3;321,327,329;,
 3;321,329,331;,
 3;321,331,333;,
 3;321,333,335;,
 3;321,335,337;,
 3;321,337,339;,
 3;321,339,341;,
 3;321,341,343;,
 3;321,343,345;,
 3;321,345,347;,
 3;321,347,349;,
 3;321,349,351;,
 3;353,352,354;,
 3;353,354,355;,
 3;355,354,356;,
 3;355,356,357;,
 3;357,356,358;,
 3;357,358,359;,
 3;359,358,360;,
 3;359,360,361;,
 3;361,360,362;,
 3;361,362,363;,
 3;363,362,364;,
 3;363,364,365;,
 3;365,364,366;,
 3;365,366,367;,
 3;367,366,368;,
 3;367,368,369;,
 3;369,368,370;,
 3;369,370,371;,
 3;371,370,372;,
 3;371,372,373;,
 3;373,372,374;,
 3;373,374,375;,
 3;375,374,376;,
 3;375,376,377;,
 3;377,376,378;,
 3;377,378,379;,
 3;379,378,380;,
 3;379,380,381;,
 3;381,380,382;,
 3;381,382,383;,
 3;383,382,352;,
 3;383,352,353;,
 3;382,380,378;,
 3;382,378,376;,
 3;382,376,374;,
 3;382,374,372;,
 3;382,372,370;,
 3;382,370,368;,
 3;382,368,366;,
 3;382,366,364;,
 3;382,364,362;,
 3;382,362,360;,
 3;382,360,358;,
 3;382,358,356;,
 3;382,356,354;,
 3;382,354,352;,
 3;353,355,357;,
 3;353,357,359;,
 3;353,359,361;,
 3;353,361,363;,
 3;353,363,365;,
 3;353,365,367;,
 3;353,367,369;,
 3;353,369,371;,
 3;353,371,373;,
 3;353,373,375;,
 3;353,375,377;,
 3;353,377,379;,
 3;353,379,381;,
 3;353,381,383;,
 3;385,384,386;,
 3;385,386,387;,
 3;387,386,388;,
 3;387,388,389;,
 3;389,388,390;,
 3;389,390,391;,
 3;391,390,392;,
 3;391,392,393;,
 3;393,392,394;,
 3;393,394,395;,
 3;395,394,396;,
 3;395,396,397;,
 3;397,396,398;,
 3;397,398,399;,
 3;399,398,400;,
 3;399,400,401;,
 3;401,400,402;,
 3;401,402,403;,
 3;403,402,404;,
 3;403,404,405;,
 3;405,404,406;,
 3;405,406,407;,
 3;407,406,408;,
 3;407,408,409;,
 3;409,408,410;,
 3;409,410,411;,
 3;411,410,412;,
 3;411,412,413;,
 3;413,412,414;,
 3;413,414,415;,
 3;415,414,384;,
 3;415,384,385;,
 3;414,412,410;,
 3;414,410,408;,
 3;414,408,406;,
 3;414,406,404;,
 3;414,404,402;,
 3;414,402,400;,
 3;414,400,398;,
 3;414,398,396;,
 3;414,396,394;,
 3;414,394,392;,
 3;414,392,390;,
 3;414,390,388;,
 3;414,388,386;,
 3;414,386,384;,
 3;385,387,389;,
 3;385,389,391;,
 3;385,391,393;,
 3;385,393,395;,
 3;385,395,397;,
 3;385,397,399;,
 3;385,399,401;,
 3;385,401,403;,
 3;385,403,405;,
 3;385,405,407;,
 3;385,407,409;,
 3;385,409,411;,
 3;385,411,413;,
 3;385,413,415;,
 3;417,416,418;,
 3;417,418,419;,
 3;419,418,420;,
 3;419,420,421;,
 3;421,420,422;,
 3;421,422,423;,
 3;423,422,424;,
 3;423,424,425;,
 3;425,424,426;,
 3;425,426,427;,
 3;427,426,428;,
 3;427,428,429;,
 3;429,428,430;,
 3;429,430,431;,
 3;431,430,432;,
 3;431,432,433;,
 3;433,432,434;,
 3;433,434,435;,
 3;435,434,436;,
 3;435,436,437;,
 3;437,436,438;,
 3;437,438,439;,
 3;439,438,440;,
 3;439,440,441;,
 3;441,440,442;,
 3;441,442,443;,
 3;443,442,444;,
 3;443,444,445;,
 3;445,444,446;,
 3;445,446,447;,
 3;447,446,416;,
 3;447,416,417;,
 3;446,444,442;,
 3;446,442,440;,
 3;446,440,438;,
 3;446,438,436;,
 3;446,436,434;,
 3;446,434,432;,
 3;446,432,430;,
 3;446,430,428;,
 3;446,428,426;,
 3;446,426,424;,
 3;446,424,422;,
 3;446,422,420;,
 3;446,420,418;,
 3;446,418,416;,
 3;417,419,421;,
 3;417,421,423;,
 3;417,423,425;,
 3;417,425,427;,
 3;417,427,429;,
 3;417,429,431;,
 3;417,431,433;,
 3;417,433,435;,
 3;417,435,437;,
 3;417,437,439;,
 3;417,439,441;,
 3;417,441,443;,
 3;417,443,445;,
 3;417,445,447;,
 3;449,448,450;,
 3;449,450,451;,
 3;451,450,452;,
 3;451,452,453;,
 3;453,452,454;,
 3;453,454,455;,
 3;455,454,456;,
 3;455,456,457;,
 3;457,456,458;,
 3;457,458,459;,
 3;459,458,460;,
 3;459,460,461;,
 3;461,460,462;,
 3;461,462,463;,
 3;463,462,464;,
 3;463,464,465;,
 3;465,464,466;,
 3;465,466,467;,
 3;467,466,468;,
 3;467,468,469;,
 3;469,468,470;,
 3;469,470,471;,
 3;471,470,472;,
 3;471,472,473;,
 3;473,472,474;,
 3;473,474,475;,
 3;475,474,476;,
 3;475,476,477;,
 3;477,476,478;,
 3;477,478,479;,
 3;479,478,448;,
 3;479,448,449;,
 3;478,476,474;,
 3;478,474,472;,
 3;478,472,470;,
 3;478,470,468;,
 3;478,468,466;,
 3;478,466,464;,
 3;478,464,462;,
 3;478,462,460;,
 3;478,460,458;,
 3;478,458,456;,
 3;478,456,454;,
 3;478,454,452;,
 3;478,452,450;,
 3;478,450,448;,
 3;449,451,453;,
 3;449,453,455;,
 3;449,455,457;,
 3;449,457,459;,
 3;449,459,461;,
 3;449,461,463;,
 3;449,463,465;,
 3;449,465,467;,
 3;449,467,469;,
 3;449,469,471;,
 3;449,471,473;,
 3;449,473,475;,
 3;449,475,477;,
 3;449,477,479;,
 3;481,480,482;,
 3;481,482,483;,
 3;483,482,484;,
 3;483,484,485;,
 3;485,484,486;,
 3;485,486,487;,
 3;487,486,488;,
 3;487,488,489;,
 3;489,488,490;,
 3;489,490,491;,
 3;491,490,492;,
 3;491,492,493;,
 3;493,492,494;,
 3;493,494,495;,
 3;495,494,496;,
 3;495,496,497;,
 3;497,496,498;,
 3;497,498,499;,
 3;499,498,500;,
 3;499,500,501;,
 3;501,500,502;,
 3;501,502,503;,
 3;503,502,504;,
 3;503,504,505;,
 3;505,504,506;,
 3;505,506,507;,
 3;507,506,508;,
 3;507,508,509;,
 3;509,508,510;,
 3;509,510,511;,
 3;511,510,480;,
 3;511,480,481;,
 3;510,508,506;,
 3;510,506,504;,
 3;510,504,502;,
 3;510,502,500;,
 3;510,500,498;,
 3;510,498,496;,
 3;510,496,494;,
 3;510,494,492;,
 3;510,492,490;,
 3;510,490,488;,
 3;510,488,486;,
 3;510,486,484;,
 3;510,484,482;,
 3;510,482,480;,
 3;481,483,485;,
 3;481,485,487;,
 3;481,487,489;,
 3;481,489,491;,
 3;481,491,493;,
 3;481,493,495;,
 3;481,495,497;,
 3;481,497,499;,
 3;481,499,501;,
 3;481,501,503;,
 3;481,503,505;,
 3;481,505,507;,
 3;481,507,509;,
 3;481,509,511;,
 3;513,512,514;,
 3;513,514,515;,
 3;515,514,516;,
 3;515,516,517;,
 3;517,516,518;,
 3;517,518,519;,
 3;519,518,520;,
 3;519,520,521;,
 3;521,520,522;,
 3;521,522,523;,
 3;523,522,524;,
 3;523,524,525;,
 3;525,524,526;,
 3;525,526,527;,
 3;527,526,528;,
 3;527,528,529;,
 3;529,528,530;,
 3;529,530,531;,
 3;531,530,532;,
 3;531,532,533;,
 3;533,532,534;,
 3;533,534,535;,
 3;535,534,536;,
 3;535,536,537;,
 3;537,536,538;,
 3;537,538,539;,
 3;539,538,540;,
 3;539,540,541;,
 3;541,540,542;,
 3;541,542,543;,
 3;543,542,512;,
 3;543,512,513;,
 3;542,540,538;,
 3;542,538,536;,
 3;542,536,534;,
 3;542,534,532;,
 3;542,532,530;,
 3;542,530,528;,
 3;542,528,526;,
 3;542,526,524;,
 3;542,524,522;,
 3;542,522,520;,
 3;542,520,518;,
 3;542,518,516;,
 3;542,516,514;,
 3;542,514,512;,
 3;513,515,517;,
 3;513,517,519;,
 3;513,519,521;,
 3;513,521,523;,
 3;513,523,525;,
 3;513,525,527;,
 3;513,527,529;,
 3;513,529,531;,
 3;513,531,533;,
 3;513,533,535;,
 3;513,535,537;,
 3;513,537,539;,
 3;513,539,541;,
 3;513,541,543;;

 MeshMaterialList  {
  17;
  1020;
  0,
  0,
  0,
  0,
  0,
  0,
  0,
  0,
  0,
  0,
  0,
  0,
  0,
  0,
  0,
  0,
  0,
  0,
  0,
  0,
  0,
  0,
  0,
  0,
  0,
  0,
  0,
  0,
  0,
  0,
  0,
  0,
  0,
  0,
  0,
  0,
  0,
  0,
  0,
  0,
  0,
  0,
  0,
  0,
  0,
  0,
  0,
  0,
  0,
  0,
  0,
  0,
  0,
  0,
  0,
  0,
  0,
  0,
  0,
  0,
  1,
  1,
  1,
  1,
  1,
  1,
  1,
  1,
  1,
  1,
  1,
  1,
  1,
  1,
  1,
  1,
  1,
  1,
  1,
  1,
  1,
  1,
  1,
  1,
  1,
  1,
  1,
  1,
  1,
  1,
  1,
  1,
  1,
  1,
  1,
  1,
  1,
  1,
  1,
  1,
  1,
  1,
  1,
  1,
  1,
  1,
  1,
  1,
  1,
  1,
  1,
  1,
  1,
  1,
  1,
  1,
  1,
  1,
  1,
  1,
  2,
  2,
  2,
  2,
  2,
  2,
  2,
  2,
  2,
  2,
  2,
  2,
  2,
  2,
  2,
  2,
  2,
  2,
  2,
  2,
  2,
  2,
  2,
  2,
  2,
  2,
  2,
  2,
  2,
  2,
  2,
  2,
  2,
  2,
  2,
  2,
  2,
  2,
  2,
  2,
  2,
  2,
  2,
  2,
  2,
  2,
  2,
  2,
  2,
  2,
  2,
  2,
  2,
  2,
  2,
  2,
  2,
  2,
  2,
  2,
  3,
  3,
  3,
  3,
  3,
  3,
  3,
  3,
  3,
  3,
  3,
  3,
  3,
  3,
  3,
  3,
  3,
  3,
  3,
  3,
  3,
  3,
  3,
  3,
  3,
  3,
  3,
  3,
  3,
  3,
  3,
  3,
  3,
  3,
  3,
  3,
  3,
  3,
  3,
  3,
  3,
  3,
  3,
  3,
  3,
  3,
  3,
  3,
  3,
  3,
  3,
  3,
  3,
  3,
  3,
  3,
  3,
  3,
  3,
  3,
  4,
  4,
  4,
  4,
  4,
  4,
  4,
  4,
  4,
  4,
  4,
  4,
  4,
  4,
  4,
  4,
  4,
  4,
  4,
  4,
  4,
  4,
  4,
  4,
  4,
  4,
  4,
  4,
  4,
  4,
  4,
  4,
  4,
  4,
  4,
  4,
  4,
  4,
  4,
  4,
  4,
  4,
  4,
  4,
  4,
  4,
  4,
  4,
  4,
  4,
  4,
  4,
  4,
  4,
  4,
  4,
  4,
  4,
  4,
  4,
  5,
  5,
  5,
  5,
  5,
  5,
  5,
  5,
  5,
  5,
  5,
  5,
  5,
  5,
  5,
  5,
  5,
  5,
  5,
  5,
  5,
  5,
  5,
  5,
  5,
  5,
  5,
  5,
  5,
  5,
  5,
  5,
  5,
  5,
  5,
  5,
  5,
  5,
  5,
  5,
  5,
  5,
  5,
  5,
  5,
  5,
  5,
  5,
  5,
  5,
  5,
  5,
  5,
  5,
  5,
  5,
  5,
  5,
  5,
  5,
  6,
  6,
  6,
  6,
  6,
  6,
  6,
  6,
  6,
  6,
  6,
  6,
  6,
  6,
  6,
  6,
  6,
  6,
  6,
  6,
  6,
  6,
  6,
  6,
  6,
  6,
  6,
  6,
  6,
  6,
  6,
  6,
  6,
  6,
  6,
  6,
  6,
  6,
  6,
  6,
  6,
  6,
  6,
  6,
  6,
  6,
  6,
  6,
  6,
  6,
  6,
  6,
  6,
  6,
  6,
  6,
  6,
  6,
  6,
  6,
  7,
  7,
  7,
  7,
  7,
  7,
  7,
  7,
  7,
  7,
  7,
  7,
  7,
  7,
  7,
  7,
  7,
  7,
  7,
  7,
  7,
  7,
  7,
  7,
  7,
  7,
  7,
  7,
  7,
  7,
  7,
  7,
  7,
  7,
  7,
  7,
  7,
  7,
  7,
  7,
  7,
  7,
  7,
  7,
  7,
  7,
  7,
  7,
  7,
  7,
  7,
  7,
  7,
  7,
  7,
  7,
  7,
  7,
  7,
  7,
  8,
  8,
  8,
  8,
  8,
  8,
  8,
  8,
  8,
  8,
  8,
  8,
  8,
  8,
  8,
  8,
  8,
  8,
  8,
  8,
  8,
  8,
  8,
  8,
  8,
  8,
  8,
  8,
  8,
  8,
  8,
  8,
  8,
  8,
  8,
  8,
  8,
  8,
  8,
  8,
  8,
  8,
  8,
  8,
  8,
  8,
  8,
  8,
  8,
  8,
  8,
  8,
  8,
  8,
  8,
  8,
  8,
  8,
  8,
  8,
  9,
  9,
  9,
  9,
  9,
  9,
  9,
  9,
  9,
  9,
  9,
  9,
  9,
  9,
  9,
  9,
  9,
  9,
  9,
  9,
  9,
  9,
  9,
  9,
  9,
  9,
  9,
  9,
  9,
  9,
  9,
  9,
  9,
  9,
  9,
  9,
  9,
  9,
  9,
  9,
  9,
  9,
  9,
  9,
  9,
  9,
  9,
  9,
  9,
  9,
  9,
  9,
  9,
  9,
  9,
  9,
  9,
  9,
  9,
  9,
  10,
  10,
  10,
  10,
  10,
  10,
  10,
  10,
  10,
  10,
  10,
  10,
  10,
  10,
  10,
  10,
  10,
  10,
  10,
  10,
  10,
  10,
  10,
  10,
  10,
  10,
  10,
  10,
  10,
  10,
  10,
  10,
  10,
  10,
  10,
  10,
  10,
  10,
  10,
  10,
  10,
  10,
  10,
  10,
  10,
  10,
  10,
  10,
  10,
  10,
  10,
  10,
  10,
  10,
  10,
  10,
  10,
  10,
  10,
  10,
  11,
  11,
  11,
  11,
  11,
  11,
  11,
  11,
  11,
  11,
  11,
  11,
  11,
  11,
  11,
  11,
  11,
  11,
  11,
  11,
  11,
  11,
  11,
  11,
  11,
  11,
  11,
  11,
  11,
  11,
  11,
  11,
  11,
  11,
  11,
  11,
  11,
  11,
  11,
  11,
  11,
  11,
  11,
  11,
  11,
  11,
  11,
  11,
  11,
  11,
  11,
  11,
  11,
  11,
  11,
  11,
  11,
  11,
  11,
  11,
  12,
  12,
  12,
  12,
  12,
  12,
  12,
  12,
  12,
  12,
  12,
  12,
  12,
  12,
  12,
  12,
  12,
  12,
  12,
  12,
  12,
  12,
  12,
  12,
  12,
  12,
  12,
  12,
  12,
  12,
  12,
  12,
  12,
  12,
  12,
  12,
  12,
  12,
  12,
  12,
  12,
  12,
  12,
  12,
  12,
  12,
  12,
  12,
  12,
  12,
  12,
  12,
  12,
  12,
  12,
  12,
  12,
  12,
  12,
  12,
  13,
  13,
  13,
  13,
  13,
  13,
  13,
  13,
  13,
  13,
  13,
  13,
  13,
  13,
  13,
  13,
  13,
  13,
  13,
  13,
  13,
  13,
  13,
  13,
  13,
  13,
  13,
  13,
  13,
  13,
  13,
  13,
  13,
  13,
  13,
  13,
  13,
  13,
  13,
  13,
  13,
  13,
  13,
  13,
  13,
  13,
  13,
  13,
  13,
  13,
  13,
  13,
  13,
  13,
  13,
  13,
  13,
  13,
  13,
  13,
  14,
  14,
  14,
  14,
  14,
  14,
  14,
  14,
  14,
  14,
  14,
  14,
  14,
  14,
  14,
  14,
  14,
  14,
  14,
  14,
  14,
  14,
  14,
  14,
  14,
  14,
  14,
  14,
  14,
  14,
  14,
  14,
  14,
  14,
  14,
  14,
  14,
  14,
  14,
  14,
  14,
  14,
  14,
  14,
  14,
  14,
  14,
  14,
  14,
  14,
  14,
  14,
  14,
  14,
  14,
  14,
  14,
  14,
  14,
  14,
  15,
  15,
  15,
  15,
  15,
  15,
  15,
  15,
  15,
  15,
  15,
  15,
  15,
  15,
  15,
  15,
  15,
  15,
  15,
  15,
  15,
  15,
  15,
  15,
  15,
  15,
  15,
  15,
  15,
  15,
  15,
  15,
  15,
  15,
  15,
  15,
  15,
  15,
  15,
  15,
  15,
  15,
  15,
  15,
  15,
  15,
  15,
  15,
  15,
  15,
  15,
  15,
  15,
  15,
  15,
  15,
  15,
  15,
  15,
  15,
  16,
  16,
  16,
  16,
  16,
  16,
  16,
  16,
  16,
  16,
  16,
  16,
  16,
  16,
  16,
  16,
  16,
  16,
  16,
  16,
  16,
  16,
  16,
  16,
  16,
  16,
  16,
  16,
  16,
  16,
  16,
  16,
  16,
  16,
  16,
  16,
  16,
  16,
  16,
  16,
  16,
  16,
  16,
  16,
  16,
  16,
  16,
  16,
  16,
  16,
  16,
  16,
  16,
  16,
  16,
  16,
  16,
  16,
  16,
  16;

  Material  {
   0.501961;0.501961;0.188235;1.000000;;
   0.000000;
   0.000000;0.000000;0.000000;;
   0.000000;0.000000;0.000000;;
  }

  Material  {
   0.000000;0.000000;0.000000;1.000000;;
   0.000000;
   0.000000;0.000000;0.000000;;
   0.000000;0.000000;0.000000;;
  }

  Material  {
   0.000000;0.000000;0.000000;1.000000;;
   0.000000;
   0.000000;0.000000;0.000000;;
   0.000000;0.000000;0.000000;;
  }

  Material  {
   0.000000;0.000000;0.000000;1.000000;;
   0.000000;
   0.000000;0.000000;0.000000;;
   0.000000;0.000000;0.000000;;
  }

  Material  {
   0.000000;0.000000;0.000000;1.000000;;
   0.000000;
   0.000000;0.000000;0.000000;;
   0.000000;0.000000;0.000000;;
  }

  Material  {
   0.000000;0.000000;0.000000;1.000000;;
   0.000000;
   0.000000;0.000000;0.000000;;
   0.000000;0.000000;0.000000;;
  }

  Material  {
   0.000000;0.000000;0.000000;1.000000;;
   0.000000;
   0.000000;0.000000;0.000000;;
   0.000000;0.000000;0.000000;;
  }

  Material  {
   0.752941;0.752941;0.878431;1.000000;;
   0.000000;
   0.000000;0.000000;0.000000;;
   0.000000;0.000000;0.000000;;
  }

  Material  {
   0.752941;0.752941;0.878431;1.000000;;
   0.000000;
   0.000000;0.000000;0.000000;;
   0.000000;0.000000;0.000000;;
  }

  Material  {
   0.752941;0.752941;0.878431;1.000000;;
   0.000000;
   0.000000;0.000000;0.000000;;
   0.000000;0.000000;0.000000;;
  }

  Material  {
   0.752941;0.752941;0.878431;1.000000;;
   0.000000;
   0.000000;0.000000;0.000000;;
   0.000000;0.000000;0.000000;;
  }

  Material  {
   0.752941;0.752941;0.878431;1.000000;;
   0.000000;
   0.000000;0.000000;0.000000;;
   0.000000;0.000000;0.000000;;
  }

  Material  {
   0.752941;0.752941;0.878431;1.000000;;
   0.000000;
   0.000000;0.000000;0.000000;;
   0.000000;0.000000;0.000000;;
  }

  Material  {
   0.752941;0.752941;0.878431;1.000000;;
   0.000000;
   0.000000;0.000000;0.000000;;
   0.000000;0.000000;0.000000;;
  }

  Material  {
   0.752941;0.752941;0.878431;1.000000;;
   0.000000;
   0.000000;0.000000;0.000000;;
   0.000000;0.000000;0.000000;;
  }

  Material  {
   0.752941;0.752941;0.878431;1.000000;;
   0.000000;
   0.000000;0.000000;0.000000;;
   0.000000;0.000000;0.000000;;
  }

  Material  {
   0.752941;0.752941;0.878431;1.000000;;
   0.000000;
   0.000000;0.000000;0.000000;;
   0.000000;0.000000;0.000000;;
  }
 }

 MeshTextureCoords  {
  544;
  0.000000;0.000000;,
  0.000000;0.000000;,
  0.000000;0.000000;,
  0.000000;0.000000;,
  0.000000;0.000000;,
  0.000000;0.000000;,
  0.000000;0.000000;,
  0.000000;0.000000;,
  0.000000;0.000000;,
  0.000000;0.000000;,
  0.000000;0.000000;,
  0.000000;0.000000;,
  0.000000;0.000000;,
  0.000000;0.000000;,
  0.000000;0.000000;,
  0.000000;0.000000;,
  0.000000;0.000000;,
  0.000000;0.000000;,
  0.000000;0.000000;,
  0.000000;0.000000;,
  0.000000;0.000000;,
  0.000000;0.000000;,
  0.000000;0.000000;,
  0.000000;0.000000;,
  0.000000;0.000000;,
  0.000000;0.000000;,
  0.000000;0.000000;,
  0.000000;0.000000;,
  0.000000;0.000000;,
  0.000000;0.000000;,
  0.000000;0.000000;,
  0.000000;0.000000;,
  0.000000;0.000000;,
  0.000000;0.000000;,
  0.000000;0.000000;,
  0.000000;0.000000;,
  0.000000;0.000000;,
  0.000000;0.000000;,
  0.000000;0.000000;,
  0.000000;0.000000;,
  0.000000;0.000000;,
  0.000000;0.000000;,
  0.000000;0.000000;,
  0.000000;0.000000;,
  0.000000;0.000000;,
  0.000000;0.000000;,
  0.000000;0.000000;,
  0.000000;0.000000;,
  0.000000;0.000000;,
  0.000000;0.000000;,
  0.000000;0.000000;,
  0.000000;0.000000;,
  0.000000;0.000000;,
  0.000000;0.000000;,
  0.000000;0.000000;,
  0.000000;0.000000;,
  0.000000;0.000000;,
  0.000000;0.000000;,
  0.000000;0.000000;,
  0.000000;0.000000;,
  0.000000;0.000000;,
  0.000000;0.000000;,
  0.000000;0.000000;,
  0.000000;0.000000;,
  0.000000;0.000000;,
  0.000000;0.000000;,
  0.000000;0.000000;,
  0.000000;0.000000;,
  0.000000;0.000000;,
  0.000000;0.000000;,
  0.000000;0.000000;,
  0.000000;0.000000;,
  0.000000;0.000000;,
  0.000000;0.000000;,
  0.000000;0.000000;,
  0.000000;0.000000;,
  0.000000;0.000000;,
  0.000000;0.000000;,
  0.000000;0.000000;,
  0.000000;0.000000;,
  0.000000;0.000000;,
  0.000000;0.000000;,
  0.000000;0.000000;,
  0.000000;0.000000;,
  0.000000;0.000000;,
  0.000000;0.000000;,
  0.000000;0.000000;,
  0.000000;0.000000;,
  0.000000;0.000000;,
  0.000000;0.000000;,
  0.000000;0.000000;,
  0.000000;0.000000;,
  0.000000;0.000000;,
  0.000000;0.000000;,
  0.000000;0.000000;,
  0.000000;0.000000;,
  0.000000;0.000000;,
  0.000000;0.000000;,
  0.000000;0.000000;,
  0.000000;0.000000;,
  0.000000;0.000000;,
  0.000000;0.000000;,
  0.000000;0.000000;,
  0.000000;0.000000;,
  0.000000;0.000000;,
  0.000000;0.000000;,
  0.000000;0.000000;,
  0.000000;0.000000;,
  0.000000;0.000000;,
  0.000000;0.000000;,
  0.000000;0.000000;,
  0.000000;0.000000;,
  0.000000;0.000000;,
  0.000000;0.000000;,
  0.000000;0.000000;,
  0.000000;0.000000;,
  0.000000;0.000000;,
  0.000000;0.000000;,
  0.000000;0.000000;,
  0.000000;0.000000;,
  0.000000;0.000000;,
  0.000000;0.000000;,
  0.000000;0.000000;,
  0.000000;0.000000;,
  0.000000;0.000000;,
  0.000000;0.000000;,
  0.000000;0.000000;,
  0.000000;0.000000;,
  0.000000;0.000000;,
  0.000000;0.000000;,
  0.000000;0.000000;,
  0.000000;0.000000;,
  0.000000;0.000000;,
  0.000000;0.000000;,
  0.000000;0.000000;,
  0.000000;0.000000;,
  0.000000;0.000000;,
  0.000000;0.000000;,
  0.000000;0.000000;,
  0.000000;0.000000;,
  0.000000;0.000000;,
  0.000000;0.000000;,
  0.000000;0.000000;,
  0.000000;0.000000;,
  0.000000;0.000000;,
  0.000000;0.000000;,
  0.000000;0.000000;,
  0.000000;0.000000;,
  0.000000;0.000000;,
  0.000000;0.000000;,
  0.000000;0.000000;,
  0.000000;0.000000;,
  0.000000;0.000000;,
  0.000000;0.000000;,
  0.000000;0.000000;,
  0.000000;0.000000;,
  0.000000;0.000000;,
  0.000000;0.000000;,
  0.000000;0.000000;,
  0.000000;0.000000;,
  0.000000;0.000000;,
  0.000000;0.000000;,
  0.000000;0.000000;,
  0.000000;0.000000;,
  0.000000;0.000000;,
  0.000000;0.000000;,
  0.000000;0.000000;,
  0.000000;0.000000;,
  0.000000;0.000000;,
  0.000000;0.000000;,
  0.000000;0.000000;,
  0.000000;0.000000;,
  0.000000;0.000000;,
  0.000000;0.000000;,
  0.000000;0.000000;,
  0.000000;0.000000;,
  0.000000;0.000000;,
  0.000000;0.000000;,
  0.000000;0.000000;,
  0.000000;0.000000;,
  0.000000;0.000000;,
  0.000000;0.000000;,
  0.000000;0.000000;,
  0.000000;0.000000;,
  0.000000;0.000000;,
  0.000000;0.000000;,
  0.000000;0.000000;,
  0.000000;0.000000;,
  0.000000;0.000000;,
  0.000000;0.000000;,
  0.000000;0.000000;,
  0.000000;0.000000;,
  0.000000;0.000000;,
  0.000000;0.000000;,
  0.000000;0.000000;,
  0.000000;0.000000;,
  0.000000;0.000000;,
  0.000000;0.000000;,
  0.000000;0.000000;,
  0.000000;0.000000;,
  0.000000;0.000000;,
  0.000000;0.000000;,
  0.000000;0.000000;,
  0.000000;0.000000;,
  0.000000;0.000000;,
  0.000000;0.000000;,
  0.000000;0.000000;,
  0.000000;0.000000;,
  0.000000;0.000000;,
  0.000000;0.000000;,
  0.000000;0.000000;,
  0.000000;0.000000;,
  0.000000;0.000000;,
  0.000000;0.000000;,
  0.000000;0.000000;,
  0.000000;0.000000;,
  0.000000;0.000000;,
  0.000000;0.000000;,
  0.000000;0.000000;,
  0.000000;0.000000;,
  0.000000;0.000000;,
  0.000000;0.000000;,
  0.000000;0.000000;,
  0.000000;0.000000;,
  0.000000;0.000000;,
  0.000000;0.000000;,
  0.000000;0.000000;,
  0.000000;0.000000;,
  0.000000;0.000000;,
  0.000000;0.000000;,
  0.000000;0.000000;,
  0.000000;0.000000;,
  0.000000;0.000000;,
  0.000000;0.000000;,
  0.000000;0.000000;,
  0.000000;0.000000;,
  0.000000;0.000000;,
  0.000000;0.000000;,
  0.000000;0.000000;,
  0.000000;0.000000;,
  0.000000;0.000000;,
  0.000000;0.000000;,
  0.000000;0.000000;,
  0.000000;0.000000;,
  0.000000;0.000000;,
  0.000000;0.000000;,
  0.000000;0.000000;,
  0.000000;0.000000;,
  0.000000;0.000000;,
  0.000000;0.000000;,
  0.000000;0.000000;,
  0.000000;0.000000;,
  0.000000;0.000000;,
  0.000000;0.000000;,
  0.000000;0.000000;,
  0.000000;0.000000;,
  0.000000;0.000000;,
  0.000000;0.000000;,
  0.000000;0.000000;,
  0.000000;0.000000;,
  0.000000;0.000000;,
  0.000000;0.000000;,
  0.000000;0.000000;,
  0.000000;0.000000;,
  0.000000;0.000000;,
  0.000000;0.000000;,
  0.000000;0.000000;,
  0.000000;0.000000;,
  0.000000;0.000000;,
  0.000000;0.000000;,
  0.000000;0.000000;,
  0.000000;0.000000;,
  0.000000;0.000000;,
  0.000000;0.000000;,
  0.000000;0.000000;,
  0.000000;0.000000;,
  0.000000;0.000000;,
  0.000000;0.000000;,
  0.000000;0.000000;,
  0.000000;0.000000;,
  0.000000;0.000000;,
  0.000000;0.000000;,
  0.000000;0.000000;,
  0.000000;0.000000;,
  0.000000;0.000000;,
  0.000000;0.000000;,
  0.000000;0.000000;,
  0.000000;0.000000;,
  0.000000;0.000000;,
  0.000000;0.000000;,
  0.000000;0.000000;,
  0.000000;0.000000;,
  0.000000;0.000000;,
  0.000000;0.000000;,
  0.000000;0.000000;,
  0.000000;0.000000;,
  0.000000;0.000000;,
  0.000000;0.000000;,
  0.000000;0.000000;,
  0.000000;0.000000;,
  0.000000;0.000000;,
  0.000000;0.000000;,
  0.000000;0.000000;,
  0.000000;0.000000;,
  0.000000;0.000000;,
  0.000000;0.000000;,
  0.000000;0.000000;,
  0.000000;0.000000;,
  0.000000;0.000000;,
  0.000000;0.000000;,
  0.000000;0.000000;,
  0.000000;0.000000;,
  0.000000;0.000000;,
  0.000000;0.000000;,
  0.000000;0.000000;,
  0.000000;0.000000;,
  0.000000;0.000000;,
  0.000000;0.000000;,
  0.000000;0.000000;,
  0.000000;0.000000;,
  0.000000;0.000000;,
  0.000000;0.000000;,
  0.000000;0.000000;,
  0.000000;0.000000;,
  0.000000;0.000000;,
  0.000000;0.000000;,
  0.000000;0.000000;,
  0.000000;0.000000;,
  0.000000;0.000000;,
  0.000000;0.000000;,
  0.000000;0.000000;,
  0.000000;0.000000;,
  0.000000;0.000000;,
  0.000000;0.000000;,
  0.000000;0.000000;,
  0.000000;0.000000;,
  0.000000;0.000000;,
  0.000000;0.000000;,
  0.000000;0.000000;,
  0.000000;0.000000;,
  0.000000;0.000000;,
  0.000000;0.000000;,
  0.000000;0.000000;,
  0.000000;0.000000;,
  0.000000;0.000000;,
  0.000000;0.000000;,
  0.000000;0.000000;,
  0.000000;0.000000;,
  0.000000;0.000000;,
  0.000000;0.000000;,
  0.000000;0.000000;,
  0.000000;0.000000;,
  0.000000;0.000000;,
  0.000000;0.000000;,
  0.000000;0.000000;,
  0.000000;0.000000;,
  0.000000;0.000000;,
  0.000000;0.000000;,
  0.000000;0.000000;,
  0.000000;0.000000;,
  0.000000;0.000000;,
  0.000000;0.000000;,
  0.000000;0.000000;,
  0.000000;0.000000;,
  0.000000;0.000000;,
  0.000000;0.000000;,
  0.000000;0.000000;,
  0.000000;0.000000;,
  0.000000;0.000000;,
  0.000000;0.000000;,
  0.000000;0.000000;,
  0.000000;0.000000;,
  0.000000;0.000000;,
  0.000000;0.000000;,
  0.000000;0.000000;,
  0.000000;0.000000;,
  0.000000;0.000000;,
  0.000000;0.000000;,
  0.000000;0.000000;,
  0.000000;0.000000;,
  0.000000;0.000000;,
  0.000000;0.000000;,
  0.000000;0.000000;,
  0.000000;0.000000;,
  0.000000;0.000000;,
  0.000000;0.000000;,
  0.000000;0.000000;,
  0.000000;0.000000;,
  0.000000;0.000000;,
  0.000000;0.000000;,
  0.000000;0.000000;,
  0.000000;0.000000;,
  0.000000;0.000000;,
  0.000000;0.000000;,
  0.000000;0.000000;,
  0.000000;0.000000;,
  0.000000;0.000000;,
  0.000000;0.000000;,
  0.000000;0.000000;,
  0.000000;0.000000;,
  0.000000;0.000000;,
  0.000000;0.000000;,
  0.000000;0.000000;,
  0.000000;0.000000;,
  0.000000;0.000000;,
  0.000000;0.000000;,
  0.000000;0.000000;,
  0.000000;0.000000;,
  0.000000;0.000000;,
  0.000000;0.000000;,
  0.000000;0.000000;,
  0.000000;0.000000;,
  0.000000;0.000000;,
  0.000000;0.000000;,
  0.000000;0.000000;,
  0.000000;0.000000;,
  0.000000;0.000000;,
  0.000000;0.000000;,
  0.000000;0.000000;,
  0.000000;0.000000;,
  0.000000;0.000000;,
  0.000000;0.000000;,
  0.000000;0.000000;,
  0.000000;0.000000;,
  0.000000;0.000000;,
  0.000000;0.000000;,
  0.000000;0.000000;,
  0.000000;0.000000;,
  0.000000;0.000000;,
  0.000000;0.000000;,
  0.000000;0.000000;,
  0.000000;0.000000;,
  0.000000;0.000000;,
  0.000000;0.000000;,
  0.000000;0.000000;,
  0.000000;0.000000;,
  0.000000;0.000000;,
  0.000000;0.000000;,
  0.000000;0.000000;,
  0.000000;0.000000;,
  0.000000;0.000000;,
  0.000000;0.000000;,
  0.000000;0.000000;,
  0.000000;0.000000;,
  0.000000;0.000000;,
  0.000000;0.000000;,
  0.000000;0.000000;,
  0.000000;0.000000;,
  0.000000;0.000000;,
  0.000000;0.000000;,
  0.000000;0.000000;,
  0.000000;0.000000;,
  0.000000;0.000000;,
  0.000000;0.000000;,
  0.000000;0.000000;,
  0.000000;0.000000;,
  0.000000;0.000000;,
  0.000000;0.000000;,
  0.000000;0.000000;,
  0.000000;0.000000;,
  0.000000;0.000000;,
  0.000000;0.000000;,
  0.000000;0.000000;,
  0.000000;0.000000;,
  0.000000;0.000000;,
  0.000000;0.000000;,
  0.000000;0.000000;,
  0.000000;0.000000;,
  0.000000;0.000000;,
  0.000000;0.000000;,
  0.000000;0.000000;,
  0.000000;0.000000;,
  0.000000;0.000000;,
  0.000000;0.000000;,
  0.000000;0.000000;,
  0.000000;0.000000;,
  0.000000;0.000000;,
  0.000000;0.000000;,
  0.000000;0.000000;,
  0.000000;0.000000;,
  0.000000;0.000000;,
  0.000000;0.000000;,
  0.000000;0.000000;,
  0.000000;0.000000;,
  0.000000;0.000000;,
  0.000000;0.000000;,
  0.000000;0.000000;,
  0.000000;0.000000;,
  0.000000;0.000000;,
  0.000000;0.000000;,
  0.000000;0.000000;,
  0.000000;0.000000;,
  0.000000;0.000000;,
  0.000000;0.000000;,
  0.000000;0.000000;,
  0.000000;0.000000;,
  0.000000;0.000000;,
  0.000000;0.000000;,
  0.000000;0.000000;,
  0.000000;0.000000;,
  0.000000;0.000000;,
  0.000000;0.000000;,
  0.000000;0.000000;,
  0.000000;0.000000;,
  0.000000;0.000000;,
  0.000000;0.000000;,
  0.000000;0.000000;,
  0.000000;0.000000;,
  0.000000;0.000000;,
  0.000000;0.000000;,
  0.000000;0.000000;,
  0.000000;0.000000;,
  0.000000;0.000000;,
  0.000000;0.000000;,
  0.000000;0.000000;,
  0.000000;0.000000;,
  0.000000;0.000000;,
  0.000000;0.000000;,
  0.000000;0.000000;,
  0.000000;0.000000;,
  0.000000;0.000000;,
  0.000000;0.000000;,
  0.000000;0.000000;,
  0.000000;0.000000;,
  0.000000;0.000000;,
  0.000000;0.000000;,
  0.000000;0.000000;,
  0.000000;0.000000;,
  0.000000;0.000000;,
  0.000000;0.000000;,
  0.000000;0.000000;,
  0.000000;0.000000;,
  0.000000;0.000000;,
  0.000000;0.000000;,
  0.000000;0.000000;,
  0.000000;0.000000;,
  0.000000;0.000000;,
  0.000000;0.000000;,
  0.000000;0.000000;,
  0.000000;0.000000;,
  0.000000;0.000000;,
  0.000000;0.000000;,
  0.000000;0.000000;,
  0.000000;0.000000;;
 }

 MeshNormals  {
  544;
  0.703702;0.707107;-0.069309;,
  0.000096;-1.000000;0.000000;,
  0.353553;0.923880;0.146447;,
  0.623612;-0.707107;0.333328;,
  0.270598;0.923880;0.270598;,
  0.242772;-0.923880;0.295818;,
  0.146447;0.923880;0.353553;,
  0.111087;-0.923880;0.366205;,
  0.000000;0.923880;0.382683;,
  -0.037510;-0.923880;0.380841;,
  -0.146447;0.923880;0.353553;,
  -0.180396;-0.923880;0.337497;,
  -0.270598;0.923880;0.270598;,
  -0.295818;-0.923880;0.242772;,
  -0.353553;0.923880;0.146447;,
  -0.366205;-0.923880;0.111087;,
  -0.382683;0.923880;0.000000;,
  -0.380841;-0.923879;-0.037510;,
  -0.353553;0.923880;-0.146447;,
  -0.337497;-0.923880;-0.180396;,
  -0.270598;0.923880;-0.270598;,
  -0.242772;-0.923880;-0.295818;,
  -0.146447;0.923880;-0.353553;,
  -0.111087;-0.923880;-0.366205;,
  0.000000;0.923880;-0.382683;,
  0.037510;-0.923880;-0.380841;,
  0.146447;0.923880;-0.353553;,
  0.180396;-0.923880;-0.337497;,
  0.500000;0.707107;-0.500000;,
  0.295818;-0.923880;-0.242772;,
  0.000089;1.000000;-0.000037;,
  0.676659;-0.707107;-0.205262;,
  0.703702;0.707107;-0.069309;,
  0.000096;-1.000000;-0.000000;,
  0.353553;0.923880;0.146447;,
  0.623612;-0.707107;0.333328;,
  0.270598;0.923880;0.270598;,
  0.242772;-0.923880;0.295818;,
  0.146447;0.923880;0.353553;,
  0.111087;-0.923880;0.366205;,
  -0.000000;0.923880;0.382683;,
  -0.037510;-0.923880;0.380841;,
  -0.146447;0.923880;0.353553;,
  -0.180396;-0.923880;0.337497;,
  -0.270598;0.923880;0.270598;,
  -0.295818;-0.923880;0.242772;,
  -0.353553;0.923880;0.146447;,
  -0.366205;-0.923880;0.111087;,
  -0.382683;0.923880;-0.000000;,
  -0.380841;-0.923880;-0.037510;,
  -0.353553;0.923880;-0.146447;,
  -0.337497;-0.923880;-0.180396;,
  -0.270598;0.923880;-0.270598;,
  -0.242772;-0.923880;-0.295818;,
  -0.146447;0.923880;-0.353553;,
  -0.111087;-0.923880;-0.366205;,
  0.000000;0.923880;-0.382683;,
  0.037510;-0.923880;-0.380841;,
  0.146447;0.923880;-0.353553;,
  0.180396;-0.923880;-0.337497;,
  0.500000;0.707107;-0.500000;,
  0.295818;-0.923880;-0.242772;,
  0.000089;1.000000;-0.000037;,
  0.676659;-0.707107;-0.205262;,
  0.703702;0.707107;-0.069309;,
  0.000096;-1.000000;-0.000000;,
  0.353553;0.923880;0.146447;,
  0.623612;-0.707107;0.333328;,
  0.270598;0.923880;0.270598;,
  0.242772;-0.923880;0.295818;,
  0.146447;0.923880;0.353553;,
  0.111087;-0.923880;0.366205;,
  -0.000000;0.923880;0.382683;,
  -0.037510;-0.923880;0.380841;,
  -0.146447;0.923880;0.353553;,
  -0.180396;-0.923880;0.337497;,
  -0.270598;0.923880;0.270598;,
  -0.295818;-0.923880;0.242772;,
  -0.353553;0.923880;0.146447;,
  -0.366205;-0.923880;0.111087;,
  -0.382683;0.923880;-0.000000;,
  -0.380841;-0.923880;-0.037510;,
  -0.353553;0.923880;-0.146447;,
  -0.337497;-0.923880;-0.180396;,
  -0.270598;0.923880;-0.270598;,
  -0.242772;-0.923880;-0.295818;,
  -0.146447;0.923880;-0.353553;,
  -0.111087;-0.923880;-0.366205;,
  0.000000;0.923880;-0.382683;,
  0.037510;-0.923880;-0.380841;,
  0.146447;0.923880;-0.353553;,
  0.180396;-0.923880;-0.337497;,
  0.500000;0.707107;-0.500000;,
  0.295818;-0.923880;-0.242772;,
  0.000089;1.000000;-0.000037;,
  0.676659;-0.707107;-0.205262;,
  0.703702;0.707107;-0.069309;,
  0.000096;-1.000000;-0.000000;,
  0.353553;0.923880;0.146447;,
  0.623612;-0.707107;0.333328;,
  0.270598;0.923880;0.270598;,
  0.242772;-0.923880;0.295818;,
  0.146447;0.923880;0.353553;,
  0.111087;-0.923880;0.366205;,
  -0.000000;0.923880;0.382683;,
  -0.037510;-0.923880;0.380841;,
  -0.146447;0.923880;0.353553;,
  -0.180396;-0.923880;0.337497;,
  -0.270598;0.923880;0.270598;,
  -0.295818;-0.923880;0.242772;,
  -0.353553;0.923880;0.146447;,
  -0.366205;-0.923880;0.111087;,
  -0.382683;0.923880;-0.000000;,
  -0.380841;-0.923880;-0.037510;,
  -0.353553;0.923880;-0.146447;,
  -0.337497;-0.923880;-0.180396;,
  -0.270598;0.923880;-0.270598;,
  -0.242772;-0.923880;-0.295818;,
  -0.146447;0.923880;-0.353553;,
  -0.111087;-0.923880;-0.366205;,
  0.000000;0.923880;-0.382683;,
  0.037510;-0.923880;-0.380841;,
  0.146447;0.923880;-0.353553;,
  0.180396;-0.923880;-0.337497;,
  0.500000;0.707107;-0.500000;,
  0.295818;-0.923880;-0.242772;,
  0.000089;1.000000;-0.000037;,
  0.676659;-0.707107;-0.205262;,
  0.703702;0.707107;-0.069309;,
  0.000096;-1.000000;-0.000000;,
  0.353553;0.923880;0.146447;,
  0.623612;-0.707107;0.333328;,
  0.270598;0.923880;0.270598;,
  0.242772;-0.923880;0.295818;,
  0.146447;0.923880;0.353553;,
  0.111087;-0.923880;0.366205;,
  -0.000000;0.923880;0.382683;,
  -0.037510;-0.923880;0.380841;,
  -0.146447;0.923880;0.353553;,
  -0.180396;-0.923880;0.337497;,
  -0.270598;0.923880;0.270598;,
  -0.295818;-0.923880;0.242772;,
  -0.353553;0.923880;0.146447;,
  -0.366205;-0.923880;0.111087;,
  -0.382683;0.923880;-0.000000;,
  -0.380841;-0.923880;-0.037510;,
  -0.353553;0.923880;-0.146447;,
  -0.337497;-0.923880;-0.180396;,
  -0.270598;0.923880;-0.270598;,
  -0.242772;-0.923880;-0.295818;,
  -0.146447;0.923880;-0.353553;,
  -0.111087;-0.923880;-0.366205;,
  0.000000;0.923880;-0.382683;,
  0.037510;-0.923880;-0.380841;,
  0.146447;0.923880;-0.353553;,
  0.180396;-0.923880;-0.337497;,
  0.500000;0.707107;-0.500000;,
  0.295818;-0.923880;-0.242772;,
  0.000089;1.000000;-0.000037;,
  0.676659;-0.707107;-0.205262;,
  0.703702;0.707107;-0.069309;,
  0.000096;-1.000000;-0.000000;,
  0.353553;0.923880;0.146447;,
  0.623612;-0.707107;0.333328;,
  0.270598;0.923880;0.270598;,
  0.242772;-0.923880;0.295818;,
  0.146447;0.923880;0.353553;,
  0.111087;-0.923880;0.366205;,
  -0.000000;0.923880;0.382683;,
  -0.037510;-0.923880;0.380841;,
  -0.146447;0.923880;0.353553;,
  -0.180396;-0.923880;0.337497;,
  -0.270598;0.923880;0.270598;,
  -0.295818;-0.923880;0.242772;,
  -0.353553;0.923880;0.146447;,
  -0.366205;-0.923880;0.111087;,
  -0.382683;0.923880;-0.000000;,
  -0.380841;-0.923880;-0.037510;,
  -0.353553;0.923880;-0.146447;,
  -0.337497;-0.923880;-0.180396;,
  -0.270598;0.923880;-0.270598;,
  -0.242772;-0.923880;-0.295818;,
  -0.146447;0.923880;-0.353553;,
  -0.111087;-0.923880;-0.366205;,
  0.000000;0.923880;-0.382683;,
  0.037510;-0.923880;-0.380841;,
  0.146447;0.923880;-0.353553;,
  0.180396;-0.923880;-0.337497;,
  0.500000;0.707107;-0.500000;,
  0.295818;-0.923880;-0.242772;,
  0.000089;1.000000;-0.000037;,
  0.676659;-0.707107;-0.205262;,
  0.703702;0.707107;-0.069309;,
  0.000096;-1.000000;-0.000000;,
  0.353553;0.923880;0.146447;,
  0.623612;-0.707107;0.333328;,
  0.270598;0.923880;0.270598;,
  0.242772;-0.923880;0.295818;,
  0.146447;0.923880;0.353553;,
  0.111087;-0.923880;0.366205;,
  -0.000000;0.923880;0.382683;,
  -0.037510;-0.923880;0.380841;,
  -0.146447;0.923880;0.353553;,
  -0.180396;-0.923880;0.337497;,
  -0.270598;0.923880;0.270598;,
  -0.295818;-0.923880;0.242772;,
  -0.353553;0.923880;0.146447;,
  -0.366205;-0.923880;0.111087;,
  -0.382683;0.923880;-0.000000;,
  -0.380841;-0.923880;-0.037510;,
  -0.353553;0.923880;-0.146447;,
  -0.337497;-0.923880;-0.180396;,
  -0.270598;0.923880;-0.270598;,
  -0.242772;-0.923880;-0.295818;,
  -0.146447;0.923880;-0.353553;,
  -0.111087;-0.923880;-0.366205;,
  0.000000;0.923880;-0.382683;,
  0.037510;-0.923880;-0.380841;,
  0.146447;0.923880;-0.353553;,
  0.180396;-0.923880;-0.337497;,
  0.500000;0.707107;-0.500000;,
  0.295818;-0.923880;-0.242772;,
  0.000089;1.000000;-0.000037;,
  0.676659;-0.707107;-0.205262;,
  0.703702;0.707107;-0.069309;,
  0.000096;-1.000000;0.000000;,
  0.353553;0.923880;0.146447;,
  0.623612;-0.707107;0.333328;,
  0.270598;0.923880;0.270598;,
  0.242772;-0.923879;0.295818;,
  0.146447;0.923880;0.353553;,
  0.111087;-0.923880;0.366205;,
  0.000000;0.923880;0.382683;,
  -0.037510;-0.923880;0.380841;,
  -0.146447;0.923880;0.353553;,
  -0.180396;-0.923880;0.337497;,
  -0.270598;0.923880;0.270598;,
  -0.295818;-0.923880;0.242772;,
  -0.353553;0.923880;0.146447;,
  -0.366205;-0.923880;0.111087;,
  -0.382683;0.923880;0.000000;,
  -0.380841;-0.923879;-0.037510;,
  -0.353553;0.923880;-0.146447;,
  -0.337497;-0.923880;-0.180396;,
  -0.270598;0.923880;-0.270598;,
  -0.242772;-0.923880;-0.295818;,
  -0.146447;0.923880;-0.353553;,
  -0.111087;-0.923880;-0.366205;,
  -0.000000;0.923880;-0.382683;,
  0.037510;-0.923880;-0.380841;,
  0.146447;0.923880;-0.353553;,
  0.180396;-0.923880;-0.337497;,
  0.500000;0.707107;-0.500000;,
  0.295818;-0.923880;-0.242772;,
  0.000089;1.000000;-0.000037;,
  0.676659;-0.707107;-0.205262;,
  0.703702;0.707107;-0.069309;,
  0.000096;-1.000000;0.000000;,
  0.353553;0.923880;0.146447;,
  0.623612;-0.707107;0.333328;,
  0.270598;0.923880;0.270598;,
  0.242772;-0.923880;0.295818;,
  0.146447;0.923880;0.353553;,
  0.111087;-0.923880;0.366205;,
  0.000000;0.923880;0.382683;,
  -0.037510;-0.923880;0.380841;,
  -0.146447;0.923880;0.353553;,
  -0.180396;-0.923880;0.337497;,
  -0.270598;0.923880;0.270598;,
  -0.295818;-0.923880;0.242772;,
  -0.353553;0.923880;0.146447;,
  -0.366205;-0.923880;0.111087;,
  -0.382683;0.923880;0.000000;,
  -0.380841;-0.923880;-0.037510;,
  -0.353553;0.923880;-0.146447;,
  -0.337497;-0.923880;-0.180396;,
  -0.270598;0.923880;-0.270598;,
  -0.242772;-0.923880;-0.295818;,
  -0.146447;0.923880;-0.353553;,
  -0.111087;-0.923880;-0.366205;,
  0.000000;0.923880;-0.382683;,
  0.037510;-0.923880;-0.380841;,
  0.146447;0.923880;-0.353553;,
  0.180396;-0.923880;-0.337497;,
  0.500000;0.707107;-0.500000;,
  0.295818;-0.923880;-0.242772;,
  0.000089;1.000000;-0.000037;,
  0.676659;-0.707107;-0.205262;,
  0.703702;0.707107;-0.069309;,
  0.000096;-1.000000;0.000000;,
  0.353553;0.923880;0.146447;,
  0.623612;-0.707107;0.333328;,
  0.270598;0.923880;0.270598;,
  0.242772;-0.923880;0.295818;,
  0.146447;0.923880;0.353553;,
  0.111087;-0.923880;0.366205;,
  0.000000;0.923880;0.382683;,
  -0.037510;-0.923880;0.380841;,
  -0.146447;0.923880;0.353553;,
  -0.180396;-0.923880;0.337497;,
  -0.270598;0.923880;0.270598;,
  -0.295818;-0.923880;0.242772;,
  -0.353553;0.923880;0.146447;,
  -0.366205;-0.923880;0.111087;,
  -0.382683;0.923880;0.000000;,
  -0.380841;-0.923879;-0.037510;,
  -0.353553;0.923880;-0.146447;,
  -0.337497;-0.923880;-0.180396;,
  -0.270598;0.923880;-0.270598;,
  -0.242772;-0.923880;-0.295818;,
  -0.146447;0.923880;-0.353553;,
  -0.111087;-0.923880;-0.366205;,
  -0.000000;0.923880;-0.382683;,
  0.037510;-0.923880;-0.380841;,
  0.146447;0.923880;-0.353553;,
  0.180396;-0.923880;-0.337497;,
  0.500000;0.707107;-0.500000;,
  0.295818;-0.923880;-0.242772;,
  0.000089;1.000000;-0.000037;,
  0.676659;-0.707107;-0.205262;,
  0.703702;0.707107;-0.069309;,
  0.000096;-1.000000;0.000000;,
  0.353553;0.923880;0.146447;,
  0.623612;-0.707107;0.333328;,
  0.270598;0.923880;0.270598;,
  0.242772;-0.923880;0.295818;,
  0.146447;0.923880;0.353553;,
  0.111087;-0.923880;0.366205;,
  0.000000;0.923880;0.382683;,
  -0.037510;-0.923880;0.380841;,
  -0.146447;0.923880;0.353553;,
  -0.180396;-0.923880;0.337497;,
  -0.270598;0.923880;0.270598;,
  -0.295818;-0.923880;0.242772;,
  -0.353553;0.923880;0.146447;,
  -0.366205;-0.923880;0.111087;,
  -0.382683;0.923880;0.000000;,
  -0.380841;-0.923880;-0.037510;,
  -0.353553;0.923880;-0.146447;,
  -0.337497;-0.923880;-0.180396;,
  -0.270598;0.923880;-0.270598;,
  -0.242772;-0.923880;-0.295818;,
  -0.146447;0.923880;-0.353553;,
  -0.111087;-0.923880;-0.366205;,
  0.000000;0.923880;-0.382683;,
  0.037510;-0.923880;-0.380841;,
  0.146447;0.923880;-0.353553;,
  0.180396;-0.923880;-0.337497;,
  0.500000;0.707107;-0.500000;,
  0.295818;-0.923880;-0.242772;,
  0.000089;1.000000;-0.000037;,
  0.676659;-0.707107;-0.205262;,
  0.703702;0.707107;-0.069309;,
  0.000096;-1.000000;0.000000;,
  0.353553;0.923880;0.146447;,
  0.623612;-0.707107;0.333328;,
  0.270598;0.923880;0.270598;,
  0.242772;-0.923879;0.295818;,
  0.146447;0.923880;0.353553;,
  0.111087;-0.923880;0.366205;,
  0.000000;0.923880;0.382683;,
  -0.037510;-0.923880;0.380841;,
  -0.146447;0.923880;0.353553;,
  -0.180396;-0.923880;0.337497;,
  -0.270598;0.923880;0.270598;,
  -0.295818;-0.923880;0.242772;,
  -0.353553;0.923880;0.146447;,
  -0.366205;-0.923880;0.111087;,
  -0.382683;0.923880;0.000000;,
  -0.380841;-0.923879;-0.037510;,
  -0.353553;0.923880;-0.146447;,
  -0.337497;-0.923880;-0.180396;,
  -0.270598;0.923880;-0.270598;,
  -0.242772;-0.923880;-0.295818;,
  -0.146447;0.923880;-0.353553;,
  -0.111087;-0.923880;-0.366205;,
  -0.000000;0.923880;-0.382683;,
  0.037510;-0.923880;-0.380841;,
  0.146447;0.923880;-0.353553;,
  0.180396;-0.923880;-0.337497;,
  0.500000;0.707107;-0.500000;,
  0.295818;-0.923880;-0.242772;,
  0.000089;1.000000;-0.000037;,
  0.676659;-0.707107;-0.205262;,
  0.703702;0.707107;-0.069309;,
  0.000096;-1.000000;0.000000;,
  0.353553;0.923880;0.146447;,
  0.623612;-0.707107;0.333328;,
  0.270598;0.923879;0.270598;,
  0.242772;-0.923879;0.295818;,
  0.146447;0.923880;0.353553;,
  0.111087;-0.923880;0.366205;,
  0.000000;0.923880;0.382683;,
  -0.037510;-0.923880;0.380841;,
  -0.146447;0.923880;0.353553;,
  -0.180396;-0.923880;0.337497;,
  -0.270598;0.923880;0.270598;,
  -0.295818;-0.923880;0.242772;,
  -0.353553;0.923880;0.146447;,
  -0.366205;-0.923880;0.111087;,
  -0.382683;0.923880;0.000000;,
  -0.380841;-0.923880;-0.037510;,
  -0.353553;0.923880;-0.146447;,
  -0.337497;-0.923880;-0.180396;,
  -0.270598;0.923880;-0.270598;,
  -0.242772;-0.923880;-0.295818;,
  -0.146447;0.923880;-0.353553;,
  -0.111087;-0.923880;-0.366205;,
  0.000000;0.923879;-0.382683;,
  0.037510;-0.923879;-0.380841;,
  0.146447;0.923879;-0.353553;,
  0.180396;-0.923880;-0.337497;,
  0.500000;0.707107;-0.500000;,
  0.295818;-0.923880;-0.242772;,
  0.000089;1.000000;-0.000037;,
  0.676659;-0.707107;-0.205262;,
  0.703702;0.707107;-0.069309;,
  0.000096;-1.000000;0.000000;,
  0.353553;0.923880;0.146447;,
  0.623612;-0.707107;0.333328;,
  0.270598;0.923879;0.270598;,
  0.242772;-0.923879;0.295818;,
  0.146447;0.923880;0.353553;,
  0.111087;-0.923880;0.366205;,
  0.000000;0.923880;0.382683;,
  -0.037510;-0.923880;0.380841;,
  -0.146447;0.923880;0.353553;,
  -0.180396;-0.923880;0.337497;,
  -0.270598;0.923880;0.270598;,
  -0.295818;-0.923880;0.242772;,
  -0.353553;0.923880;0.146447;,
  -0.366205;-0.923880;0.111087;,
  -0.382683;0.923880;0.000000;,
  -0.380841;-0.923880;-0.037510;,
  -0.353553;0.923880;-0.146447;,
  -0.337497;-0.923880;-0.180396;,
  -0.270598;0.923880;-0.270598;,
  -0.242772;-0.923880;-0.295818;,
  -0.146447;0.923880;-0.353553;,
  -0.111087;-0.923880;-0.366205;,
  0.000000;0.923879;-0.382683;,
  0.037510;-0.923879;-0.380841;,
  0.146447;0.923879;-0.353553;,
  0.180396;-0.923880;-0.337497;,
  0.500000;0.707107;-0.500000;,
  0.295818;-0.923880;-0.242772;,
  0.000089;1.000000;-0.000037;,
  0.676659;-0.707107;-0.205262;,
  0.703702;0.707107;-0.069309;,
  0.000096;-1.000000;0.000000;,
  0.353553;0.923880;0.146447;,
  0.623612;-0.707107;0.333328;,
  0.270598;0.923879;0.270598;,
  0.242772;-0.923879;0.295818;,
  0.146447;0.923880;0.353553;,
  0.111087;-0.923880;0.366205;,
  0.000000;0.923880;0.382683;,
  -0.037510;-0.923880;0.380841;,
  -0.146447;0.923880;0.353553;,
  -0.180396;-0.923880;0.337497;,
  -0.270598;0.923880;0.270598;,
  -0.295818;-0.923880;0.242772;,
  -0.353553;0.923880;0.146447;,
  -0.366205;-0.923880;0.111087;,
  -0.382683;0.923880;0.000000;,
  -0.380841;-0.923880;-0.037510;,
  -0.353553;0.923880;-0.146447;,
  -0.337497;-0.923880;-0.180396;,
  -0.270598;0.923880;-0.270598;,
  -0.242772;-0.923880;-0.295818;,
  -0.146447;0.923880;-0.353553;,
  -0.111087;-0.923880;-0.366205;,
  0.000000;0.923879;-0.382683;,
  0.037510;-0.923879;-0.380841;,
  0.146447;0.923879;-0.353553;,
  0.180396;-0.923880;-0.337497;,
  0.500000;0.707107;-0.500000;,
  0.295818;-0.923880;-0.242772;,
  0.000089;1.000000;-0.000037;,
  0.676659;-0.707107;-0.205262;,
  0.703702;0.707107;-0.069309;,
  0.000096;-1.000000;0.000000;,
  0.353553;0.923880;0.146447;,
  0.623612;-0.707107;0.333328;,
  0.270598;0.923879;0.270598;,
  0.242772;-0.923879;0.295818;,
  0.146447;0.923880;0.353553;,
  0.111087;-0.923880;0.366205;,
  0.000000;0.923880;0.382683;,
  -0.037510;-0.923880;0.380841;,
  -0.146447;0.923880;0.353553;,
  -0.180396;-0.923880;0.337497;,
  -0.270598;0.923880;0.270598;,
  -0.295818;-0.923880;0.242772;,
  -0.353553;0.923880;0.146447;,
  -0.366205;-0.923880;0.111087;,
  -0.382683;0.923880;0.000000;,
  -0.380841;-0.923880;-0.037510;,
  -0.353553;0.923880;-0.146447;,
  -0.337497;-0.923880;-0.180396;,
  -0.270598;0.923880;-0.270598;,
  -0.242772;-0.923880;-0.295818;,
  -0.146447;0.923880;-0.353553;,
  -0.111087;-0.923880;-0.366205;,
  0.000000;0.923879;-0.382683;,
  0.037510;-0.923879;-0.380841;,
  0.146447;0.923879;-0.353553;,
  0.180396;-0.923880;-0.337497;,
  0.500000;0.707107;-0.500000;,
  0.295818;-0.923880;-0.242772;,
  0.000089;1.000000;-0.000037;,
  0.676659;-0.707107;-0.205262;,
  0.703702;0.707107;-0.069309;,
  0.000096;-1.000000;0.000000;,
  0.353553;0.923880;0.146447;,
  0.623612;-0.707107;0.333328;,
  0.270598;0.923879;0.270598;,
  0.242772;-0.923879;0.295818;,
  0.146447;0.923880;0.353553;,
  0.111087;-0.923880;0.366205;,
  0.000000;0.923880;0.382683;,
  -0.037510;-0.923880;0.380841;,
  -0.146447;0.923880;0.353553;,
  -0.180396;-0.923880;0.337497;,
  -0.270598;0.923880;0.270598;,
  -0.295818;-0.923880;0.242772;,
  -0.353553;0.923880;0.146447;,
  -0.366205;-0.923880;0.111087;,
  -0.382683;0.923880;0.000000;,
  -0.380841;-0.923880;-0.037510;,
  -0.353553;0.923880;-0.146447;,
  -0.337497;-0.923880;-0.180396;,
  -0.270598;0.923880;-0.270598;,
  -0.242772;-0.923880;-0.295818;,
  -0.146447;0.923880;-0.353553;,
  -0.111087;-0.923880;-0.366205;,
  0.000000;0.923879;-0.382683;,
  0.037510;-0.923879;-0.380841;,
  0.146447;0.923879;-0.353553;,
  0.180396;-0.923880;-0.337497;,
  0.500000;0.707107;-0.500000;,
  0.295818;-0.923880;-0.242772;,
  0.000089;1.000000;-0.000037;,
  0.676659;-0.707107;-0.205262;;
  1020;
  3;1,0,2;,
  3;1,2,3;,
  3;3,2,4;,
  3;3,4,5;,
  3;5,4,6;,
  3;5,6,7;,
  3;7,6,8;,
  3;7,8,9;,
  3;9,8,10;,
  3;9,10,11;,
  3;11,10,12;,
  3;11,12,13;,
  3;13,12,14;,
  3;13,14,15;,
  3;15,14,16;,
  3;15,16,17;,
  3;17,16,18;,
  3;17,18,19;,
  3;19,18,20;,
  3;19,20,21;,
  3;21,20,22;,
  3;21,22,23;,
  3;23,22,24;,
  3;23,24,25;,
  3;25,24,26;,
  3;25,26,27;,
  3;27,26,28;,
  3;27,28,29;,
  3;29,28,30;,
  3;29,30,31;,
  3;31,30,0;,
  3;31,0,1;,
  3;30,28,26;,
  3;30,26,24;,
  3;30,24,22;,
  3;30,22,20;,
  3;30,20,18;,
  3;30,18,16;,
  3;30,16,14;,
  3;30,14,12;,
  3;30,12,10;,
  3;30,10,8;,
  3;30,8,6;,
  3;30,6,4;,
  3;30,4,2;,
  3;30,2,0;,
  3;1,3,5;,
  3;1,5,7;,
  3;1,7,9;,
  3;1,9,11;,
  3;1,11,13;,
  3;1,13,15;,
  3;1,15,17;,
  3;1,17,19;,
  3;1,19,21;,
  3;1,21,23;,
  3;1,23,25;,
  3;1,25,27;,
  3;1,27,29;,
  3;1,29,31;,
  3;33,32,34;,
  3;33,34,35;,
  3;35,34,36;,
  3;35,36,37;,
  3;37,36,38;,
  3;37,38,39;,
  3;39,38,40;,
  3;39,40,41;,
  3;41,40,42;,
  3;41,42,43;,
  3;43,42,44;,
  3;43,44,45;,
  3;45,44,46;,
  3;45,46,47;,
  3;47,46,48;,
  3;47,48,49;,
  3;49,48,50;,
  3;49,50,51;,
  3;51,50,52;,
  3;51,52,53;,
  3;53,52,54;,
  3;53,54,55;,
  3;55,54,56;,
  3;55,56,57;,
  3;57,56,58;,
  3;57,58,59;,
  3;59,58,60;,
  3;59,60,61;,
  3;61,60,62;,
  3;61,62,63;,
  3;63,62,32;,
  3;63,32,33;,
  3;62,60,58;,
  3;62,58,56;,
  3;62,56,54;,
  3;62,54,52;,
  3;62,52,50;,
  3;62,50,48;,
  3;62,48,46;,
  3;62,46,44;,
  3;62,44,42;,
  3;62,42,40;,
  3;62,40,38;,
  3;62,38,36;,
  3;62,36,34;,
  3;62,34,32;,
  3;33,35,37;,
  3;33,37,39;,
  3;33,39,41;,
  3;33,41,43;,
  3;33,43,45;,
  3;33,45,47;,
  3;33,47,49;,
  3;33,49,51;,
  3;33,51,53;,
  3;33,53,55;,
  3;33,55,57;,
  3;33,57,59;,
  3;33,59,61;,
  3;33,61,63;,
  3;65,64,66;,
  3;65,66,67;,
  3;67,66,68;,
  3;67,68,69;,
  3;69,68,70;,
  3;69,70,71;,
  3;71,70,72;,
  3;71,72,73;,
  3;73,72,74;,
  3;73,74,75;,
  3;75,74,76;,
  3;75,76,77;,
  3;77,76,78;,
  3;77,78,79;,
  3;79,78,80;,
  3;79,80,81;,
  3;81,80,82;,
  3;81,82,83;,
  3;83,82,84;,
  3;83,84,85;,
  3;85,84,86;,
  3;85,86,87;,
  3;87,86,88;,
  3;87,88,89;,
  3;89,88,90;,
  3;89,90,91;,
  3;91,90,92;,
  3;91,92,93;,
  3;93,92,94;,
  3;93,94,95;,
  3;95,94,64;,
  3;95,64,65;,
  3;94,92,90;,
  3;94,90,88;,
  3;94,88,86;,
  3;94,86,84;,
  3;94,84,82;,
  3;94,82,80;,
  3;94,80,78;,
  3;94,78,76;,
  3;94,76,74;,
  3;94,74,72;,
  3;94,72,70;,
  3;94,70,68;,
  3;94,68,66;,
  3;94,66,64;,
  3;65,67,69;,
  3;65,69,71;,
  3;65,71,73;,
  3;65,73,75;,
  3;65,75,77;,
  3;65,77,79;,
  3;65,79,81;,
  3;65,81,83;,
  3;65,83,85;,
  3;65,85,87;,
  3;65,87,89;,
  3;65,89,91;,
  3;65,91,93;,
  3;65,93,95;,
  3;97,96,98;,
  3;97,98,99;,
  3;99,98,100;,
  3;99,100,101;,
  3;101,100,102;,
  3;101,102,103;,
  3;103,102,104;,
  3;103,104,105;,
  3;105,104,106;,
  3;105,106,107;,
  3;107,106,108;,
  3;107,108,109;,
  3;109,108,110;,
  3;109,110,111;,
  3;111,110,112;,
  3;111,112,113;,
  3;113,112,114;,
  3;113,114,115;,
  3;115,114,116;,
  3;115,116,117;,
  3;117,116,118;,
  3;117,118,119;,
  3;119,118,120;,
  3;119,120,121;,
  3;121,120,122;,
  3;121,122,123;,
  3;123,122,124;,
  3;123,124,125;,
  3;125,124,126;,
  3;125,126,127;,
  3;127,126,96;,
  3;127,96,97;,
  3;126,124,122;,
  3;126,122,120;,
  3;126,120,118;,
  3;126,118,116;,
  3;126,116,114;,
  3;126,114,112;,
  3;126,112,110;,
  3;126,110,108;,
  3;126,108,106;,
  3;126,106,104;,
  3;126,104,102;,
  3;126,102,100;,
  3;126,100,98;,
  3;126,98,96;,
  3;97,99,101;,
  3;97,101,103;,
  3;97,103,105;,
  3;97,105,107;,
  3;97,107,109;,
  3;97,109,111;,
  3;97,111,113;,
  3;97,113,115;,
  3;97,115,117;,
  3;97,117,119;,
  3;97,119,121;,
  3;97,121,123;,
  3;97,123,125;,
  3;97,125,127;,
  3;129,128,130;,
  3;129,130,131;,
  3;131,130,132;,
  3;131,132,133;,
  3;133,132,134;,
  3;133,134,135;,
  3;135,134,136;,
  3;135,136,137;,
  3;137,136,138;,
  3;137,138,139;,
  3;139,138,140;,
  3;139,140,141;,
  3;141,140,142;,
  3;141,142,143;,
  3;143,142,144;,
  3;143,144,145;,
  3;145,144,146;,
  3;145,146,147;,
  3;147,146,148;,
  3;147,148,149;,
  3;149,148,150;,
  3;149,150,151;,
  3;151,150,152;,
  3;151,152,153;,
  3;153,152,154;,
  3;153,154,155;,
  3;155,154,156;,
  3;155,156,157;,
  3;157,156,158;,
  3;157,158,159;,
  3;159,158,128;,
  3;159,128,129;,
  3;158,156,154;,
  3;158,154,152;,
  3;158,152,150;,
  3;158,150,148;,
  3;158,148,146;,
  3;158,146,144;,
  3;158,144,142;,
  3;158,142,140;,
  3;158,140,138;,
  3;158,138,136;,
  3;158,136,134;,
  3;158,134,132;,
  3;158,132,130;,
  3;158,130,128;,
  3;129,131,133;,
  3;129,133,135;,
  3;129,135,137;,
  3;129,137,139;,
  3;129,139,141;,
  3;129,141,143;,
  3;129,143,145;,
  3;129,145,147;,
  3;129,147,149;,
  3;129,149,151;,
  3;129,151,153;,
  3;129,153,155;,
  3;129,155,157;,
  3;129,157,159;,
  3;161,160,162;,
  3;161,162,163;,
  3;163,162,164;,
  3;163,164,165;,
  3;165,164,166;,
  3;165,166,167;,
  3;167,166,168;,
  3;167,168,169;,
  3;169,168,170;,
  3;169,170,171;,
  3;171,170,172;,
  3;171,172,173;,
  3;173,172,174;,
  3;173,174,175;,
  3;175,174,176;,
  3;175,176,177;,
  3;177,176,178;,
  3;177,178,179;,
  3;179,178,180;,
  3;179,180,181;,
  3;181,180,182;,
  3;181,182,183;,
  3;183,182,184;,
  3;183,184,185;,
  3;185,184,186;,
  3;185,186,187;,
  3;187,186,188;,
  3;187,188,189;,
  3;189,188,190;,
  3;189,190,191;,
  3;191,190,160;,
  3;191,160,161;,
  3;190,188,186;,
  3;190,186,184;,
  3;190,184,182;,
  3;190,182,180;,
  3;190,180,178;,
  3;190,178,176;,
  3;190,176,174;,
  3;190,174,172;,
  3;190,172,170;,
  3;190,170,168;,
  3;190,168,166;,
  3;190,166,164;,
  3;190,164,162;,
  3;190,162,160;,
  3;161,163,165;,
  3;161,165,167;,
  3;161,167,169;,
  3;161,169,171;,
  3;161,171,173;,
  3;161,173,175;,
  3;161,175,177;,
  3;161,177,179;,
  3;161,179,181;,
  3;161,181,183;,
  3;161,183,185;,
  3;161,185,187;,
  3;161,187,189;,
  3;161,189,191;,
  3;193,192,194;,
  3;193,194,195;,
  3;195,194,196;,
  3;195,196,197;,
  3;197,196,198;,
  3;197,198,199;,
  3;199,198,200;,
  3;199,200,201;,
  3;201,200,202;,
  3;201,202,203;,
  3;203,202,204;,
  3;203,204,205;,
  3;205,204,206;,
  3;205,206,207;,
  3;207,206,208;,
  3;207,208,209;,
  3;209,208,210;,
  3;209,210,211;,
  3;211,210,212;,
  3;211,212,213;,
  3;213,212,214;,
  3;213,214,215;,
  3;215,214,216;,
  3;215,216,217;,
  3;217,216,218;,
  3;217,218,219;,
  3;219,218,220;,
  3;219,220,221;,
  3;221,220,222;,
  3;221,222,223;,
  3;223,222,192;,
  3;223,192,193;,
  3;222,220,218;,
  3;222,218,216;,
  3;222,216,214;,
  3;222,214,212;,
  3;222,212,210;,
  3;222,210,208;,
  3;222,208,206;,
  3;222,206,204;,
  3;222,204,202;,
  3;222,202,200;,
  3;222,200,198;,
  3;222,198,196;,
  3;222,196,194;,
  3;222,194,192;,
  3;193,195,197;,
  3;193,197,199;,
  3;193,199,201;,
  3;193,201,203;,
  3;193,203,205;,
  3;193,205,207;,
  3;193,207,209;,
  3;193,209,211;,
  3;193,211,213;,
  3;193,213,215;,
  3;193,215,217;,
  3;193,217,219;,
  3;193,219,221;,
  3;193,221,223;,
  3;225,224,226;,
  3;225,226,227;,
  3;227,226,228;,
  3;227,228,229;,
  3;229,228,230;,
  3;229,230,231;,
  3;231,230,232;,
  3;231,232,233;,
  3;233,232,234;,
  3;233,234,235;,
  3;235,234,236;,
  3;235,236,237;,
  3;237,236,238;,
  3;237,238,239;,
  3;239,238,240;,
  3;239,240,241;,
  3;241,240,242;,
  3;241,242,243;,
  3;243,242,244;,
  3;243,244,245;,
  3;245,244,246;,
  3;245,246,247;,
  3;247,246,248;,
  3;247,248,249;,
  3;249,248,250;,
  3;249,250,251;,
  3;251,250,252;,
  3;251,252,253;,
  3;253,252,254;,
  3;253,254,255;,
  3;255,254,224;,
  3;255,224,225;,
  3;254,252,250;,
  3;254,250,248;,
  3;254,248,246;,
  3;254,246,244;,
  3;254,244,242;,
  3;254,242,240;,
  3;254,240,238;,
  3;254,238,236;,
  3;254,236,234;,
  3;254,234,232;,
  3;254,232,230;,
  3;254,230,228;,
  3;254,228,226;,
  3;254,226,224;,
  3;225,227,229;,
  3;225,229,231;,
  3;225,231,233;,
  3;225,233,235;,
  3;225,235,237;,
  3;225,237,239;,
  3;225,239,241;,
  3;225,241,243;,
  3;225,243,245;,
  3;225,245,247;,
  3;225,247,249;,
  3;225,249,251;,
  3;225,251,253;,
  3;225,253,255;,
  3;257,256,258;,
  3;257,258,259;,
  3;259,258,260;,
  3;259,260,261;,
  3;261,260,262;,
  3;261,262,263;,
  3;263,262,264;,
  3;263,264,265;,
  3;265,264,266;,
  3;265,266,267;,
  3;267,266,268;,
  3;267,268,269;,
  3;269,268,270;,
  3;269,270,271;,
  3;271,270,272;,
  3;271,272,273;,
  3;273,272,274;,
  3;273,274,275;,
  3;275,274,276;,
  3;275,276,277;,
  3;277,276,278;,
  3;277,278,279;,
  3;279,278,280;,
  3;279,280,281;,
  3;281,280,282;,
  3;281,282,283;,
  3;283,282,284;,
  3;283,284,285;,
  3;285,284,286;,
  3;285,286,287;,
  3;287,286,256;,
  3;287,256,257;,
  3;286,284,282;,
  3;286,282,280;,
  3;286,280,278;,
  3;286,278,276;,
  3;286,276,274;,
  3;286,274,272;,
  3;286,272,270;,
  3;286,270,268;,
  3;286,268,266;,
  3;286,266,264;,
  3;286,264,262;,
  3;286,262,260;,
  3;286,260,258;,
  3;286,258,256;,
  3;257,259,261;,
  3;257,261,263;,
  3;257,263,265;,
  3;257,265,267;,
  3;257,267,269;,
  3;257,269,271;,
  3;257,271,273;,
  3;257,273,275;,
  3;257,275,277;,
  3;257,277,279;,
  3;257,279,281;,
  3;257,281,283;,
  3;257,283,285;,
  3;257,285,287;,
  3;289,288,290;,
  3;289,290,291;,
  3;291,290,292;,
  3;291,292,293;,
  3;293,292,294;,
  3;293,294,295;,
  3;295,294,296;,
  3;295,296,297;,
  3;297,296,298;,
  3;297,298,299;,
  3;299,298,300;,
  3;299,300,301;,
  3;301,300,302;,
  3;301,302,303;,
  3;303,302,304;,
  3;303,304,305;,
  3;305,304,306;,
  3;305,306,307;,
  3;307,306,308;,
  3;307,308,309;,
  3;309,308,310;,
  3;309,310,311;,
  3;311,310,312;,
  3;311,312,313;,
  3;313,312,314;,
  3;313,314,315;,
  3;315,314,316;,
  3;315,316,317;,
  3;317,316,318;,
  3;317,318,319;,
  3;319,318,288;,
  3;319,288,289;,
  3;318,316,314;,
  3;318,314,312;,
  3;318,312,310;,
  3;318,310,308;,
  3;318,308,306;,
  3;318,306,304;,
  3;318,304,302;,
  3;318,302,300;,
  3;318,300,298;,
  3;318,298,296;,
  3;318,296,294;,
  3;318,294,292;,
  3;318,292,290;,
  3;318,290,288;,
  3;289,291,293;,
  3;289,293,295;,
  3;289,295,297;,
  3;289,297,299;,
  3;289,299,301;,
  3;289,301,303;,
  3;289,303,305;,
  3;289,305,307;,
  3;289,307,309;,
  3;289,309,311;,
  3;289,311,313;,
  3;289,313,315;,
  3;289,315,317;,
  3;289,317,319;,
  3;321,320,322;,
  3;321,322,323;,
  3;323,322,324;,
  3;323,324,325;,
  3;325,324,326;,
  3;325,326,327;,
  3;327,326,328;,
  3;327,328,329;,
  3;329,328,330;,
  3;329,330,331;,
  3;331,330,332;,
  3;331,332,333;,
  3;333,332,334;,
  3;333,334,335;,
  3;335,334,336;,
  3;335,336,337;,
  3;337,336,338;,
  3;337,338,339;,
  3;339,338,340;,
  3;339,340,341;,
  3;341,340,342;,
  3;341,342,343;,
  3;343,342,344;,
  3;343,344,345;,
  3;345,344,346;,
  3;345,346,347;,
  3;347,346,348;,
  3;347,348,349;,
  3;349,348,350;,
  3;349,350,351;,
  3;351,350,320;,
  3;351,320,321;,
  3;350,348,346;,
  3;350,346,344;,
  3;350,344,342;,
  3;350,342,340;,
  3;350,340,338;,
  3;350,338,336;,
  3;350,336,334;,
  3;350,334,332;,
  3;350,332,330;,
  3;350,330,328;,
  3;350,328,326;,
  3;350,326,324;,
  3;350,324,322;,
  3;350,322,320;,
  3;321,323,325;,
  3;321,325,327;,
  3;321,327,329;,
  3;321,329,331;,
  3;321,331,333;,
  3;321,333,335;,
  3;321,335,337;,
  3;321,337,339;,
  3;321,339,341;,
  3;321,341,343;,
  3;321,343,345;,
  3;321,345,347;,
  3;321,347,349;,
  3;321,349,351;,
  3;353,352,354;,
  3;353,354,355;,
  3;355,354,356;,
  3;355,356,357;,
  3;357,356,358;,
  3;357,358,359;,
  3;359,358,360;,
  3;359,360,361;,
  3;361,360,362;,
  3;361,362,363;,
  3;363,362,364;,
  3;363,364,365;,
  3;365,364,366;,
  3;365,366,367;,
  3;367,366,368;,
  3;367,368,369;,
  3;369,368,370;,
  3;369,370,371;,
  3;371,370,372;,
  3;371,372,373;,
  3;373,372,374;,
  3;373,374,375;,
  3;375,374,376;,
  3;375,376,377;,
  3;377,376,378;,
  3;377,378,379;,
  3;379,378,380;,
  3;379,380,381;,
  3;381,380,382;,
  3;381,382,383;,
  3;383,382,352;,
  3;383,352,353;,
  3;382,380,378;,
  3;382,378,376;,
  3;382,376,374;,
  3;382,374,372;,
  3;382,372,370;,
  3;382,370,368;,
  3;382,368,366;,
  3;382,366,364;,
  3;382,364,362;,
  3;382,362,360;,
  3;382,360,358;,
  3;382,358,356;,
  3;382,356,354;,
  3;382,354,352;,
  3;353,355,357;,
  3;353,357,359;,
  3;353,359,361;,
  3;353,361,363;,
  3;353,363,365;,
  3;353,365,367;,
  3;353,367,369;,
  3;353,369,371;,
  3;353,371,373;,
  3;353,373,375;,
  3;353,375,377;,
  3;353,377,379;,
  3;353,379,381;,
  3;353,381,383;,
  3;385,384,386;,
  3;385,386,387;,
  3;387,386,388;,
  3;387,388,389;,
  3;389,388,390;,
  3;389,390,391;,
  3;391,390,392;,
  3;391,392,393;,
  3;393,392,394;,
  3;393,394,395;,
  3;395,394,396;,
  3;395,396,397;,
  3;397,396,398;,
  3;397,398,399;,
  3;399,398,400;,
  3;399,400,401;,
  3;401,400,402;,
  3;401,402,403;,
  3;403,402,404;,
  3;403,404,405;,
  3;405,404,406;,
  3;405,406,407;,
  3;407,406,408;,
  3;407,408,409;,
  3;409,408,410;,
  3;409,410,411;,
  3;411,410,412;,
  3;411,412,413;,
  3;413,412,414;,
  3;413,414,415;,
  3;415,414,384;,
  3;415,384,385;,
  3;414,412,410;,
  3;414,410,408;,
  3;414,408,406;,
  3;414,406,404;,
  3;414,404,402;,
  3;414,402,400;,
  3;414,400,398;,
  3;414,398,396;,
  3;414,396,394;,
  3;414,394,392;,
  3;414,392,390;,
  3;414,390,388;,
  3;414,388,386;,
  3;414,386,384;,
  3;385,387,389;,
  3;385,389,391;,
  3;385,391,393;,
  3;385,393,395;,
  3;385,395,397;,
  3;385,397,399;,
  3;385,399,401;,
  3;385,401,403;,
  3;385,403,405;,
  3;385,405,407;,
  3;385,407,409;,
  3;385,409,411;,
  3;385,411,413;,
  3;385,413,415;,
  3;417,416,418;,
  3;417,418,419;,
  3;419,418,420;,
  3;419,420,421;,
  3;421,420,422;,
  3;421,422,423;,
  3;423,422,424;,
  3;423,424,425;,
  3;425,424,426;,
  3;425,426,427;,
  3;427,426,428;,
  3;427,428,429;,
  3;429,428,430;,
  3;429,430,431;,
  3;431,430,432;,
  3;431,432,433;,
  3;433,432,434;,
  3;433,434,435;,
  3;435,434,436;,
  3;435,436,437;,
  3;437,436,438;,
  3;437,438,439;,
  3;439,438,440;,
  3;439,440,441;,
  3;441,440,442;,
  3;441,442,443;,
  3;443,442,444;,
  3;443,444,445;,
  3;445,444,446;,
  3;445,446,447;,
  3;447,446,416;,
  3;447,416,417;,
  3;446,444,442;,
  3;446,442,440;,
  3;446,440,438;,
  3;446,438,436;,
  3;446,436,434;,
  3;446,434,432;,
  3;446,432,430;,
  3;446,430,428;,
  3;446,428,426;,
  3;446,426,424;,
  3;446,424,422;,
  3;446,422,420;,
  3;446,420,418;,
  3;446,418,416;,
  3;417,419,421;,
  3;417,421,423;,
  3;417,423,425;,
  3;417,425,427;,
  3;417,427,429;,
  3;417,429,431;,
  3;417,431,433;,
  3;417,433,435;,
  3;417,435,437;,
  3;417,437,439;,
  3;417,439,441;,
  3;417,441,443;,
  3;417,443,445;,
  3;417,445,447;,
  3;449,448,450;,
  3;449,450,451;,
  3;451,450,452;,
  3;451,452,453;,
  3;453,452,454;,
  3;453,454,455;,
  3;455,454,456;,
  3;455,456,457;,
  3;457,456,458;,
  3;457,458,459;,
  3;459,458,460;,
  3;459,460,461;,
  3;461,460,462;,
  3;461,462,463;,
  3;463,462,464;,
  3;463,464,465;,
  3;465,464,466;,
  3;465,466,467;,
  3;467,466,468;,
  3;467,468,469;,
  3;469,468,470;,
  3;469,470,471;,
  3;471,470,472;,
  3;471,472,473;,
  3;473,472,474;,
  3;473,474,475;,
  3;475,474,476;,
  3;475,476,477;,
  3;477,476,478;,
  3;477,478,479;,
  3;479,478,448;,
  3;479,448,449;,
  3;478,476,474;,
  3;478,474,472;,
  3;478,472,470;,
  3;478,470,468;,
  3;478,468,466;,
  3;478,466,464;,
  3;478,464,462;,
  3;478,462,460;,
  3;478,460,458;,
  3;478,458,456;,
  3;478,456,454;,
  3;478,454,452;,
  3;478,452,450;,
  3;478,450,448;,
  3;449,451,453;,
  3;449,453,455;,
  3;449,455,457;,
  3;449,457,459;,
  3;449,459,461;,
  3;449,461,463;,
  3;449,463,465;,
  3;449,465,467;,
  3;449,467,469;,
  3;449,469,471;,
  3;449,471,473;,
  3;449,473,475;,
  3;449,475,477;,
  3;449,477,479;,
  3;481,480,482;,
  3;481,482,483;,
  3;483,482,484;,
  3;483,484,485;,
  3;485,484,486;,
  3;485,486,487;,
  3;487,486,488;,
  3;487,488,489;,
  3;489,488,490;,
  3;489,490,491;,
  3;491,490,492;,
  3;491,492,493;,
  3;493,492,494;,
  3;493,494,495;,
  3;495,494,496;,
  3;495,496,497;,
  3;497,496,498;,
  3;497,498,499;,
  3;499,498,500;,
  3;499,500,501;,
  3;501,500,502;,
  3;501,502,503;,
  3;503,502,504;,
  3;503,504,505;,
  3;505,504,506;,
  3;505,506,507;,
  3;507,506,508;,
  3;507,508,509;,
  3;509,508,510;,
  3;509,510,511;,
  3;511,510,480;,
  3;511,480,481;,
  3;510,508,506;,
  3;510,506,504;,
  3;510,504,502;,
  3;510,502,500;,
  3;510,500,498;,
  3;510,498,496;,
  3;510,496,494;,
  3;510,494,492;,
  3;510,492,490;,
  3;510,490,488;,
  3;510,488,486;,
  3;510,486,484;,
  3;510,484,482;,
  3;510,482,480;,
  3;481,483,485;,
  3;481,485,487;,
  3;481,487,489;,
  3;481,489,491;,
  3;481,491,493;,
  3;481,493,495;,
  3;481,495,497;,
  3;481,497,499;,
  3;481,499,501;,
  3;481,501,503;,
  3;481,503,505;,
  3;481,505,507;,
  3;481,507,509;,
  3;481,509,511;,
  3;513,512,514;,
  3;513,514,515;,
  3;515,514,516;,
  3;515,516,517;,
  3;517,516,518;,
  3;517,518,519;,
  3;519,518,520;,
  3;519,520,521;,
  3;521,520,522;,
  3;521,522,523;,
  3;523,522,524;,
  3;523,524,525;,
  3;525,524,526;,
  3;525,526,527;,
  3;527,526,528;,
  3;527,528,529;,
  3;529,528,530;,
  3;529,530,531;,
  3;531,530,532;,
  3;531,532,533;,
  3;533,532,534;,
  3;533,534,535;,
  3;535,534,536;,
  3;535,536,537;,
  3;537,536,538;,
  3;537,538,539;,
  3;539,538,540;,
  3;539,540,541;,
  3;541,540,542;,
  3;541,542,543;,
  3;543,542,512;,
  3;543,512,513;,
  3;542,540,538;,
  3;542,538,536;,
  3;542,536,534;,
  3;542,534,532;,
  3;542,532,530;,
  3;542,530,528;,
  3;542,528,526;,
  3;542,526,524;,
  3;542,524,522;,
  3;542,522,520;,
  3;542,520,518;,
  3;542,518,516;,
  3;542,516,514;,
  3;542,514,512;,
  3;513,515,517;,
  3;513,517,519;,
  3;513,519,521;,
  3;513,521,523;,
  3;513,523,525;,
  3;513,525,527;,
  3;513,527,529;,
  3;513,529,531;,
  3;513,531,533;,
  3;513,533,535;,
  3;513,535,537;,
  3;513,537,539;,
  3;513,539,541;,
  3;513,541,543;;
 }
}