xof 0303txt 0032
template Vector {
 <3d82ab5e-62da-11cf-ab39-0020af71e433>
 FLOAT x;
 FLOAT y;
 FLOAT z;
}

template MeshFace {
 <3d82ab5f-62da-11cf-ab39-0020af71e433>
 DWORD nFaceVertexIndices;
 array DWORD faceVertexIndices[nFaceVertexIndices];
}

template Mesh {
 <3d82ab44-62da-11cf-ab39-0020af71e433>
 DWORD nVertices;
 array Vector vertices[nVertices];
 DWORD nFaces;
 array MeshFace faces[nFaces];
 [...]
}

template ColorRGBA {
 <35ff44e0-6c7c-11cf-8f52-0040333594a3>
 FLOAT red;
 FLOAT green;
 FLOAT blue;
 FLOAT alpha;
}

template ColorRGB {
 <d3e16e81-7835-11cf-8f52-0040333594a3>
 FLOAT red;
 FLOAT green;
 FLOAT blue;
}

template Material {
 <3d82ab4d-62da-11cf-ab39-0020af71e433>
 ColorRGBA faceColor;
 FLOAT power;
 ColorRGB specularColor;
 ColorRGB emissiveColor;
 [...]
}

template MeshMaterialList {
 <f6f23f42-7686-11cf-8f52-0040333594a3>
 DWORD nMaterials;
 DWORD nFaceIndexes;
 array DWORD faceIndexes[nFaceIndexes];
 [Material <3d82ab4d-62da-11cf-ab39-0020af71e433>]
}

template Coords2d {
 <f6f23f44-7686-11cf-8f52-0040333594a3>
 FLOAT u;
 FLOAT v;
}

template MeshTextureCoords {
 <f6f23f40-7686-11cf-8f52-0040333594a3>
 DWORD nTextureCoords;
 array Coords2d textureCoords[nTextureCoords];
}

template MeshNormals {
 <f6f23f43-7686-11cf-8f52-0040333594a3>
 DWORD nNormals;
 array Vector normals[nNormals];
 DWORD nFaceNormals;
 array MeshFace faceNormals[nFaceNormals];
}


Mesh  {
 222;
 0.000010;5.000000;0.000000;,
 0.150000;4.880000;0.000000;,
 0.000009;5.000000;0.000004;,
 0.138582;4.880000;0.057403;,
 0.000007;5.000000;0.000007;,
 0.106066;4.880000;0.106066;,
 0.000004;5.000000;0.000009;,
 0.057403;4.880000;0.138582;,
 0.000000;5.000000;0.000010;,
 0.000000;4.880000;0.150000;,
 -0.000004;5.000000;0.000009;,
 -0.057403;4.880000;0.138582;,
 -0.000007;5.000000;0.000007;,
 -0.106066;4.880000;0.106066;,
 -0.000009;5.000000;0.000004;,
 -0.138582;4.880000;0.057403;,
 -0.000010;5.000000;0.000000;,
 -0.150000;4.880000;0.000000;,
 -0.000009;5.000000;-0.000004;,
 -0.138582;4.880000;-0.057403;,
 -0.000007;5.000000;-0.000007;,
 -0.106066;4.880000;-0.106066;,
 -0.000004;5.000000;-0.000009;,
 -0.057403;4.880000;-0.138582;,
 -0.000000;5.000000;-0.000010;,
 -0.000000;4.880000;-0.150000;,
 0.000004;5.000000;-0.000009;,
 0.057403;4.880000;-0.138582;,
 0.000007;5.000000;-0.000007;,
 0.106066;4.880000;-0.106066;,
 0.000009;5.000000;-0.000004;,
 0.138582;4.880000;-0.057403;,
 0.150000;4.880000;0.000000;,
 0.080000;4.819999;0.000000;,
 0.138582;4.880000;0.057403;,
 0.073910;4.819999;0.030615;,
 0.106066;4.880000;0.106066;,
 0.056569;4.819999;0.056569;,
 0.057403;4.880000;0.138582;,
 0.030615;4.819999;0.073910;,
 0.000000;4.880000;0.150000;,
 0.000000;4.819999;0.080000;,
 -0.057403;4.880000;0.138582;,
 -0.030615;4.819999;0.073910;,
 -0.106066;4.880000;0.106066;,
 -0.056569;4.819999;0.056569;,
 -0.138582;4.880000;0.057403;,
 -0.073910;4.819999;0.030615;,
 -0.150000;4.880000;0.000000;,
 -0.080000;4.819999;0.000000;,
 -0.138582;4.880000;-0.057403;,
 -0.073910;4.819999;-0.030615;,
 -0.106066;4.880000;-0.106066;,
 -0.056569;4.819999;-0.056569;,
 -0.057403;4.880000;-0.138582;,
 -0.030615;4.819999;-0.073910;,
 -0.000000;4.880000;-0.150000;,
 -0.000000;4.819999;-0.080000;,
 0.057403;4.880000;-0.138582;,
 0.030615;4.819999;-0.073910;,
 0.106066;4.880000;-0.106066;,
 0.056569;4.819999;-0.056569;,
 0.138582;4.880000;-0.057403;,
 0.073910;4.819999;-0.030615;,
 0.080000;4.880000;0.000000;,
 0.080000;-0.500000;0.000000;,
 0.073910;4.880000;0.030615;,
 0.073910;-0.500000;0.030615;,
 0.056569;4.880000;0.056569;,
 0.056569;-0.500000;0.056569;,
 0.030615;4.880000;0.073910;,
 0.030615;-0.500000;0.073910;,
 0.000000;4.880000;0.080000;,
 0.000000;-0.500000;0.080000;,
 -0.030615;4.880000;0.073910;,
 -0.030615;-0.500000;0.073910;,
 -0.056569;4.880000;0.056569;,
 -0.056569;-0.500000;0.056569;,
 -0.073910;4.880000;0.030615;,
 -0.073910;-0.500000;0.030615;,
 -0.080000;4.880000;0.000000;,
 -0.080000;-0.500000;0.000000;,
 -0.073910;4.880000;-0.030615;,
 -0.073910;-0.500000;-0.030615;,
 -0.056569;4.880000;-0.056569;,
 -0.056569;-0.500000;-0.056569;,
 -0.030615;4.880000;-0.073910;,
 -0.030615;-0.500000;-0.073910;,
 -0.000000;4.880000;-0.080000;,
 -0.000000;-0.500000;-0.080000;,
 0.030615;4.880000;-0.073910;,
 0.030615;-0.500000;-0.073910;,
 0.056569;4.880000;-0.056569;,
 0.056569;-0.500000;-0.056569;,
 0.073910;4.880000;-0.030615;,
 0.073910;-0.500000;-0.030615;,
 -0.000000;4.350000;0.000000;,
 0.282843;4.350000;-0.282843;,
 0.013530;4.346194;0.013530;,
 0.296372;4.346194;-0.269313;,
 0.025000;4.335355;0.025000;,
 0.307843;4.335355;-0.257843;,
 0.032664;4.319134;0.032664;,
 0.315507;4.319134;-0.250179;,
 0.035355;4.300000;0.035355;,
 0.318198;4.300000;-0.247487;,
 0.032664;4.280866;0.032664;,
 0.315507;4.280866;-0.250179;,
 0.025000;4.264645;0.025000;,
 0.307843;4.264645;-0.257843;,
 0.013530;4.253806;0.013530;,
 0.296372;4.253806;-0.269313;,
 0.000000;4.250000;-0.000000;,
 0.282843;4.250000;-0.282843;,
 -0.013530;4.253806;-0.013530;,
 0.269313;4.253806;-0.296372;,
 -0.025000;4.264645;-0.025000;,
 0.257843;4.264645;-0.307843;,
 -0.032664;4.280866;-0.032664;,
 0.250179;4.280866;-0.315507;,
 -0.035355;4.300000;-0.035355;,
 0.247487;4.300000;-0.318198;,
 -0.032664;4.319134;-0.032664;,
 0.250179;4.319134;-0.315507;,
 -0.025000;4.335355;-0.025000;,
 0.257843;4.335355;-0.307843;,
 -0.013530;4.346194;-0.013530;,
 0.269313;4.346194;-0.296372;,
 -0.000000;3.750000;-0.000000;,
 0.282843;3.750000;0.282843;,
 -0.013530;3.746194;0.013530;,
 0.269313;3.746194;0.296372;,
 -0.025000;3.735355;0.025000;,
 0.257843;3.735355;0.307843;,
 -0.032664;3.719134;0.032664;,
 0.250179;3.719134;0.315507;,
 -0.035355;3.700000;0.035355;,
 0.247487;3.700000;0.318198;,
 -0.032664;3.680866;0.032664;,
 0.250179;3.680866;0.315507;,
 -0.025000;3.664644;0.025000;,
 0.257843;3.664644;0.307843;,
 -0.013530;3.653806;0.013530;,
 0.269313;3.653806;0.296372;,
 0.000000;3.650000;0.000000;,
 0.282843;3.650000;0.282843;,
 0.013530;3.653806;-0.013530;,
 0.296372;3.653806;0.269313;,
 0.025000;3.664644;-0.025000;,
 0.307843;3.664644;0.257843;,
 0.032664;3.680866;-0.032664;,
 0.315507;3.680866;0.250179;,
 0.035355;3.700000;-0.035355;,
 0.318198;3.700000;0.247487;,
 0.032664;3.719134;-0.032664;,
 0.315507;3.719134;0.250179;,
 0.025000;3.735355;-0.025000;,
 0.307843;3.735355;0.257843;,
 0.013530;3.746194;-0.013530;,
 0.296372;3.746194;0.269313;,
 0.250000;3.140000;-0.400000;,
 0.250000;3.060000;-0.400000;,
 -0.550000;3.060000;-0.400000;,
 -0.550000;3.140000;-0.400000;,
 0.250000;3.140000;0.800000;,
 0.250000;3.060000;0.800000;,
 -0.550000;3.060000;0.800000;,
 -0.550000;3.140000;0.800000;,
 -0.550000;4.000000;0.380000;,
 -0.550000;4.000000;0.420000;,
 -0.550000;4.000000;0.760000;,
 -0.550000;4.000000;0.800000;,
 -0.550000;4.000000;0.900000;,
 -0.550000;3.960000;0.380000;,
 -0.550000;3.960000;0.900000;,
 -0.550000;3.100000;0.380000;,
 -0.550000;3.100000;0.420000;,
 -0.550000;3.100000;0.760000;,
 -0.550000;3.100000;0.800000;,
 0.250000;4.000000;0.380000;,
 0.250000;4.000000;0.420000;,
 0.250000;4.000000;0.760000;,
 0.250000;4.000000;0.800000;,
 0.250000;4.000000;0.900000;,
 0.250000;3.960000;0.380000;,
 0.250000;3.960000;0.900000;,
 0.250000;3.100000;0.380000;,
 0.250000;3.100000;0.420000;,
 0.250000;3.100000;0.760000;,
 0.250000;3.100000;0.800000;,
 -0.550000;3.140000;0.800000;,
 -0.550000;3.140000;0.840000;,
 -0.550000;-0.500000;0.800000;,
 -0.550000;-0.500000;0.840000;,
 -0.200000;3.140000;0.800000;,
 -0.200000;3.140000;0.840000;,
 -0.200000;-0.500000;0.800000;,
 -0.200000;-0.500000;0.840000;,
 -0.550000;2.700000;0.800000;,
 -0.550000;2.660000;0.840000;,
 -0.200000;2.700000;0.800000;,
 -0.200000;2.660000;0.840000;,
 -0.550000;2.300000;0.800000;,
 -0.550000;2.260000;0.840000;,
 -0.200000;2.300000;0.800000;,
 -0.200000;2.260000;0.840000;,
 -0.550000;1.900000;0.800000;,
 -0.550000;1.860000;0.840000;,
 -0.200000;1.900000;0.800000;,
 -0.200000;1.860000;0.840000;,
 -0.550000;1.500000;0.800000;,
 -0.550000;1.460000;0.840000;,
 -0.200000;1.500000;0.800000;,
 -0.200000;1.460000;0.840000;,
 -0.550000;1.100000;0.800000;,
 -0.550000;1.060000;0.840000;,
 -0.200000;1.100000;0.800000;,
 -0.200000;1.060000;0.840000;,
 -0.550000;0.700000;0.800000;,
 -0.550000;0.660000;0.840000;,
 -0.200000;0.700000;0.800000;,
 -0.200000;0.660000;0.840000;;
 354;
 3;1,0,2;,
 3;1,2,3;,
 3;3,2,4;,
 3;3,4,5;,
 3;5,4,6;,
 3;5,6,7;,
 3;7,6,8;,
 3;7,8,9;,
 3;9,8,10;,
 3;9,10,11;,
 3;11,10,12;,
 3;11,12,13;,
 3;13,12,14;,
 3;13,14,15;,
 3;15,14,16;,
 3;15,16,17;,
 3;17,16,18;,
 3;17,18,19;,
 3;19,18,20;,
 3;19,20,21;,
 3;21,20,22;,
 3;21,22,23;,
 3;23,22,24;,
 3;23,24,25;,
 3;25,24,26;,
 3;25,26,27;,
 3;27,26,28;,
 3;27,28,29;,
 3;29,28,30;,
 3;29,30,31;,
 3;31,30,0;,
 3;31,0,1;,
 3;1,3,5;,
 3;1,5,7;,
 3;1,7,9;,
 3;1,9,11;,
 3;1,11,13;,
 3;1,13,15;,
 3;1,15,17;,
 3;1,17,19;,
 3;1,19,21;,
 3;1,21,23;,
 3;1,23,25;,
 3;1,25,27;,
 3;1,27,29;,
 3;1,29,31;,
 3;33,32,34;,
 3;33,34,35;,
 3;35,34,36;,
 3;35,36,37;,
 3;37,36,38;,
 3;37,38,39;,
 3;39,38,40;,
 3;39,40,41;,
 3;41,40,42;,
 3;41,42,43;,
 3;43,42,44;,
 3;43,44,45;,
 3;45,44,46;,
 3;45,46,47;,
 3;47,46,48;,
 3;47,48,49;,
 3;49,48,50;,
 3;49,50,51;,
 3;51,50,52;,
 3;51,52,53;,
 3;53,52,54;,
 3;53,54,55;,
 3;55,54,56;,
 3;55,56,57;,
 3;57,56,58;,
 3;57,58,59;,
 3;59,58,60;,
 3;59,60,61;,
 3;61,60,62;,
 3;61,62,63;,
 3;63,62,32;,
 3;63,32,33;,
 3;62,60,58;,
 3;62,58,56;,
 3;62,56,54;,
 3;62,54,52;,
 3;62,52,50;,
 3;62,50,48;,
 3;62,48,46;,
 3;62,46,44;,
 3;62,44,42;,
 3;62,42,40;,
 3;62,40,38;,
 3;62,38,36;,
 3;62,36,34;,
 3;62,34,32;,
 3;33,35,37;,
 3;33,37,39;,
 3;33,39,41;,
 3;33,41,43;,
 3;33,43,45;,
 3;33,45,47;,
 3;33,47,49;,
 3;33,49,51;,
 3;33,51,53;,
 3;33,53,55;,
 3;33,55,57;,
 3;33,57,59;,
 3;33,59,61;,
 3;33,61,63;,
 3;65,64,66;,
 3;65,66,67;,
 3;67,66,68;,
 3;67,68,69;,
 3;69,68,70;,
 3;69,70,71;,
 3;71,70,72;,
 3;71,72,73;,
 3;73,72,74;,
 3;73,74,75;,
 3;75,74,76;,
 3;75,76,77;,
 3;77,76,78;,
 3;77,78,79;,
 3;79,78,80;,
 3;79,80,81;,
 3;81,80,82;,
 3;81,82,83;,
 3;83,82,84;,
 3;83,84,85;,
 3;85,84,86;,
 3;85,86,87;,
 3;87,86,88;,
 3;87,88,89;,
 3;89,88,90;,
 3;89,90,91;,
 3;91,90,92;,
 3;91,92,93;,
 3;93,92,94;,
 3;93,94,95;,
 3;95,94,64;,
 3;95,64,65;,
 3;94,92,90;,
 3;94,90,88;,
 3;94,88,86;,
 3;94,86,84;,
 3;94,84,82;,
 3;94,82,80;,
 3;94,80,78;,
 3;94,78,76;,
 3;94,76,74;,
 3;94,74,72;,
 3;94,72,70;,
 3;94,70,68;,
 3;94,68,66;,
 3;94,66,64;,
 3;65,67,69;,
 3;65,69,71;,
 3;65,71,73;,
 3;65,73,75;,
 3;65,75,77;,
 3;65,77,79;,
 3;65,79,81;,
 3;65,81,83;,
 3;65,83,85;,
 3;65,85,87;,
 3;65,87,89;,
 3;65,89,91;,
 3;65,91,93;,
 3;65,93,95;,
 3;97,96,98;,
 3;97,98,99;,
 3;99,98,100;,
 3;99,100,101;,
 3;101,100,102;,
 3;101,102,103;,
 3;103,102,104;,
 3;103,104,105;,
 3;105,104,106;,
 3;105,106,107;,
 3;107,106,108;,
 3;107,108,109;,
 3;109,108,110;,
 3;109,110,111;,
 3;111,110,112;,
 3;111,112,113;,
 3;113,112,114;,
 3;113,114,115;,
 3;115,114,116;,
 3;115,116,117;,
 3;117,116,118;,
 3;117,118,119;,
 3;119,118,120;,
 3;119,120,121;,
 3;121,120,122;,
 3;121,122,123;,
 3;123,122,124;,
 3;123,124,125;,
 3;125,124,126;,
 3;125,126,127;,
 3;127,126,96;,
 3;127,96,97;,
 3;126,124,122;,
 3;126,122,120;,
 3;126,120,118;,
 3;126,118,116;,
 3;126,116,114;,
 3;126,114,112;,
 3;126,112,110;,
 3;126,110,108;,
 3;126,108,106;,
 3;126,106,104;,
 3;126,104,102;,
 3;126,102,100;,
 3;126,100,98;,
 3;126,98,96;,
 3;97,99,101;,
 3;97,101,103;,
 3;97,103,105;,
 3;97,105,107;,
 3;97,107,109;,
 3;97,109,111;,
 3;97,111,113;,
 3;97,113,115;,
 3;97,115,117;,
 3;97,117,119;,
 3;97,119,121;,
 3;97,121,123;,
 3;97,123,125;,
 3;97,125,127;,
 3;129,128,130;,
 3;129,130,131;,
 3;131,130,132;,
 3;131,132,133;,
 3;133,132,134;,
 3;133,134,135;,
 3;135,134,136;,
 3;135,136,137;,
 3;137,136,138;,
 3;137,138,139;,
 3;139,138,140;,
 3;139,140,141;,
 3;141,140,142;,
 3;141,142,143;,
 3;143,142,144;,
 3;143,144,145;,
 3;145,144,146;,
 3;145,146,147;,
 3;147,146,148;,
 3;147,148,149;,
 3;149,148,150;,
 3;149,150,151;,
 3;151,150,152;,
 3;151,152,153;,
 3;153,152,154;,
 3;153,154,155;,
 3;155,154,156;,
 3;155,156,157;,
 3;157,156,158;,
 3;157,158,159;,
 3;159,158,128;,
 3;159,128,129;,
 3;158,156,154;,
 3;158,154,152;,
 3;158,152,150;,
 3;158,150,148;,
 3;158,148,146;,
 3;158,146,144;,
 3;158,144,142;,
 3;158,142,140;,
 3;158,140,138;,
 3;158,138,136;,
 3;158,136,134;,
 3;158,134,132;,
 3;158,132,130;,
 3;158,130,128;,
 3;129,131,133;,
 3;129,133,135;,
 3;129,135,137;,
 3;129,137,139;,
 3;129,139,141;,
 3;129,141,143;,
 3;129,143,145;,
 3;129,145,147;,
 3;129,147,149;,
 3;129,149,151;,
 3;129,151,153;,
 3;129,153,155;,
 3;129,155,157;,
 3;129,157,159;,
 3;160,161,162;,
 3;160,162,163;,
 3;163,162,166;,
 3;163,166,167;,
 3;167,166,165;,
 3;167,165,164;,
 3;164,165,161;,
 3;164,161,160;,
 3;160,163,167;,
 3;160,167,164;,
 3;161,165,166;,
 3;161,166,162;,
 3;168,173,174;,
 3;168,174,172;,
 3;172,174,173;,
 3;172,173,168;,
 3;168,169,176;,
 3;168,176,175;,
 3;175,176,169;,
 3;175,169,168;,
 3;170,171,178;,
 3;170,178,177;,
 3;177,178,171;,
 3;177,171,170;,
 3;179,184,185;,
 3;179,185,183;,
 3;183,185,184;,
 3;183,184,179;,
 3;179,180,187;,
 3;179,187,186;,
 3;186,187,180;,
 3;186,180,179;,
 3;181,182,189;,
 3;181,189,188;,
 3;188,189,182;,
 3;188,182,181;,
 3;190,191,193;,
 3;190,193,192;,
 3;192,193,191;,
 3;192,191,190;,
 3;194,195,197;,
 3;194,197,196;,
 3;196,197,195;,
 3;196,195,194;,
 3;198,199,201;,
 3;198,201,200;,
 3;200,201,199;,
 3;200,199,198;,
 3;202,203,205;,
 3;202,205,204;,
 3;204,205,203;,
 3;204,203,202;,
 3;206,207,209;,
 3;206,209,208;,
 3;208,209,207;,
 3;208,207,206;,
 3;210,211,213;,
 3;210,213,212;,
 3;212,213,211;,
 3;212,211,210;,
 3;214,215,217;,
 3;214,217,216;,
 3;216,217,215;,
 3;216,215,214;,
 3;218,219,221;,
 3;218,221,220;,
 3;220,221,219;,
 3;220,219,218;;

 MeshMaterialList  {
  9;
  354;
  0,
  0,
  0,
  0,
  0,
  0,
  0,
  0,
  0,
  0,
  0,
  0,
  0,
  0,
  0,
  0,
  0,
  0,
  0,
  0,
  0,
  0,
  0,
  0,
  0,
  0,
  0,
  0,
  0,
  0,
  0,
  0,
  0,
  0,
  0,
  0,
  0,
  0,
  0,
  0,
  0,
  0,
  0,
  0,
  0,
  0,
  1,
  1,
  1,
  1,
  1,
  1,
  1,
  1,
  1,
  1,
  1,
  1,
  1,
  1,
  1,
  1,
  1,
  1,
  1,
  1,
  1,
  1,
  1,
  1,
  1,
  1,
  1,
  1,
  1,
  1,
  1,
  1,
  1,
  1,
  1,
  1,
  1,
  1,
  1,
  1,
  1,
  1,
  1,
  1,
  1,
  1,
  1,
  1,
  1,
  1,
  1,
  1,
  1,
  1,
  1,
  1,
  1,
  1,
  1,
  1,
  2,
  2,
  2,
  2,
  2,
  2,
  2,
  2,
  2,
  2,
  2,
  2,
  2,
  2,
  2,
  2,
  2,
  2,
  2,
  2,
  2,
  2,
  2,
  2,
  2,
  2,
  2,
  2,
  2,
  2,
  2,
  2,
  2,
  2,
  2,
  2,
  2,
  2,
  2,
  2,
  2,
  2,
  2,
  2,
  2,
  2,
  2,
  2,
  2,
  2,
  2,
  2,
  2,
  2,
  2,
  2,
  2,
  2,
  2,
  2,
  3,
  3,
  3,
  3,
  3,
  3,
  3,
  3,
  3,
  3,
  3,
  3,
  3,
  3,
  3,
  3,
  3,
  3,
  3,
  3,
  3,
  3,
  3,
  3,
  3,
  3,
  3,
  3,
  3,
  3,
  3,
  3,
  3,
  3,
  3,
  3,
  3,
  3,
  3,
  3,
  3,
  3,
  3,
  3,
  3,
  3,
  3,
  3,
  3,
  3,
  3,
  3,
  3,
  3,
  3,
  3,
  3,
  3,
  3,
  3,
  4,
  4,
  4,
  4,
  4,
  4,
  4,
  4,
  4,
  4,
  4,
  4,
  4,
  4,
  4,
  4,
  4,
  4,
  4,
  4,
  4,
  4,
  4,
  4,
  4,
  4,
  4,
  4,
  4,
  4,
  4,
  4,
  4,
  4,
  4,
  4,
  4,
  4,
  4,
  4,
  4,
  4,
  4,
  4,
  4,
  4,
  4,
  4,
  4,
  4,
  4,
  4,
  4,
  4,
  4,
  4,
  4,
  4,
  4,
  4,
  5,
  5,
  5,
  5,
  5,
  5,
  5,
  5,
  5,
  5,
  5,
  5,
  6,
  6,
  6,
  6,
  6,
  6,
  6,
  6,
  6,
  6,
  6,
  6,
  7,
  7,
  7,
  7,
  7,
  7,
  7,
  7,
  7,
  7,
  7,
  7,
  8,
  8,
  8,
  8,
  8,
  8,
  8,
  8,
  8,
  8,
  8,
  8,
  8,
  8,
  8,
  8,
  8,
  8,
  8,
  8,
  8,
  8,
  8,
  8,
  8,
  8,
  8,
  8,
  8,
  8,
  8,
  8;

  Material  {
   0.000000;0.000000;0.000000;1.000000;;
   0.000000;
   0.000000;0.000000;0.000000;;
   0.000000;0.000000;0.000000;;
  }

  Material  {
   0.000000;0.000000;0.000000;1.000000;;
   0.000000;
   0.000000;0.000000;0.000000;;
   0.000000;0.000000;0.000000;;
  }

  Material  {
   0.752941;0.752941;0.878431;1.000000;;
   0.000000;
   0.000000;0.000000;0.000000;;
   0.000000;0.000000;0.000000;;
  }

  Material  {
   0.752941;0.752941;0.878431;1.000000;;
   0.000000;
   0.000000;0.000000;0.000000;;
   0.000000;0.000000;0.000000;;
  }

  Material  {
   0.752941;0.752941;0.878431;1.000000;;
   0.000000;
   0.000000;0.000000;0.000000;;
   0.000000;0.000000;0.000000;;
  }

  Material  {
   0.752941;0.752941;0.878431;1.000000;;
   0.000000;
   0.000000;0.000000;0.000000;;
   0.000000;0.000000;0.000000;;
  }

  Material  {
   0.752941;0.752941;0.878431;1.000000;;
   0.000000;
   0.000000;0.000000;0.000000;;
   0.000000;0.000000;0.000000;;
  }

  Material  {
   0.752941;0.752941;0.878431;1.000000;;
   0.000000;
   0.000000;0.000000;0.000000;;
   0.000000;0.000000;0.000000;;
  }

  Material  {
   0.752941;0.752941;0.878431;1.000000;;
   0.000000;
   0.000000;0.000000;0.000000;;
   0.000000;0.000000;0.000000;;
  }
 }

 MeshTextureCoords  {
  222;
  0.000000;0.000000;,
  0.000000;0.000000;,
  0.000000;0.000000;,
  0.000000;0.000000;,
  0.000000;0.000000;,
  0.000000;0.000000;,
  0.000000;0.000000;,
  0.000000;0.000000;,
  0.000000;0.000000;,
  0.000000;0.000000;,
  0.000000;0.000000;,
  0.000000;0.000000;,
  0.000000;0.000000;,
  0.000000;0.000000;,
  0.000000;0.000000;,
  0.000000;0.000000;,
  0.000000;0.000000;,
  0.000000;0.000000;,
  0.000000;0.000000;,
  0.000000;0.000000;,
  0.000000;0.000000;,
  0.000000;0.000000;,
  0.000000;0.000000;,
  0.000000;0.000000;,
  0.000000;0.000000;,
  0.000000;0.000000;,
  0.000000;0.000000;,
  0.000000;0.000000;,
  0.000000;0.000000;,
  0.000000;0.000000;,
  0.000000;0.000000;,
  0.000000;0.000000;,
  0.000000;0.000000;,
  0.000000;0.000000;,
  0.000000;0.000000;,
  0.000000;0.000000;,
  0.000000;0.000000;,
  0.000000;0.000000;,
  0.000000;0.000000;,
  0.000000;0.000000;,
  0.000000;0.000000;,
  0.000000;0.000000;,
  0.000000;0.000000;,
  0.000000;0.000000;,
  0.000000;0.000000;,
  0.000000;0.000000;,
  0.000000;0.000000;,
  0.000000;0.000000;,
  0.000000;0.000000;,
  0.000000;0.000000;,
  0.000000;0.000000;,
  0.000000;0.000000;,
  0.000000;0.000000;,
  0.000000;0.000000;,
  0.000000;0.000000;,
  0.000000;0.000000;,
  0.000000;0.000000;,
  0.000000;0.000000;,
  0.000000;0.000000;,
  0.000000;0.000000;,
  0.000000;0.000000;,
  0.000000;0.000000;,
  0.000000;0.000000;,
  0.000000;0.000000;,
  0.000000;0.000000;,
  0.000000;0.000000;,
  0.000000;0.000000;,
  0.000000;0.000000;,
  0.000000;0.000000;,
  0.000000;0.000000;,
  0.000000;0.000000;,
  0.000000;0.000000;,
  0.000000;0.000000;,
  0.000000;0.000000;,
  0.000000;0.000000;,
  0.000000;0.000000;,
  0.000000;0.000000;,
  0.000000;0.000000;,
  0.000000;0.000000;,
  0.000000;0.000000;,
  0.000000;0.000000;,
  0.000000;0.000000;,
  0.000000;0.000000;,
  0.000000;0.000000;,
  0.000000;0.000000;,
  0.000000;0.000000;,
  0.000000;0.000000;,
  0.000000;0.000000;,
  0.000000;0.000000;,
  0.000000;0.000000;,
  0.000000;0.000000;,
  0.000000;0.000000;,
  0.000000;0.000000;,
  0.000000;0.000000;,
  0.000000;0.000000;,
  0.000000;0.000000;,
  0.000000;0.000000;,
  0.000000;0.000000;,
  0.000000;0.000000;,
  0.000000;0.000000;,
  0.000000;0.000000;,
  0.000000;0.000000;,
  0.000000;0.000000;,
  0.000000;0.000000;,
  0.000000;0.000000;,
  0.000000;0.000000;,
  0.000000;0.000000;,
  0.000000;0.000000;,
  0.000000;0.000000;,
  0.000000;0.000000;,
  0.000000;0.000000;,
  0.000000;0.000000;,
  0.000000;0.000000;,
  0.000000;0.000000;,
  0.000000;0.000000;,
  0.000000;0.000000;,
  0.000000;0.000000;,
  0.000000;0.000000;,
  0.000000;0.000000;,
  0.000000;0.000000;,
  0.000000;0.000000;,
  0.000000;0.000000;,
  0.000000;0.000000;,
  0.000000;0.000000;,
  0.000000;0.000000;,
  0.000000;0.000000;,
  0.000000;0.000000;,
  0.000000;0.000000;,
  0.000000;0.000000;,
  0.000000;0.000000;,
  0.000000;0.000000;,
  0.000000;0.000000;,
  0.000000;0.000000;,
  0.000000;0.000000;,
  0.000000;0.000000;,
  0.000000;0.000000;,
  0.000000;0.000000;,
  0.000000;0.000000;,
  0.000000;0.000000;,
  0.000000;0.000000;,
  0.000000;0.000000;,
  0.000000;0.000000;,
  0.000000;0.000000;,
  0.000000;0.000000;,
  0.000000;0.000000;,
  0.000000;0.000000;,
  0.000000;0.000000;,
  0.000000;0.000000;,
  0.000000;0.000000;,
  0.000000;0.000000;,
  0.000000;0.000000;,
  0.000000;0.000000;,
  0.000000;0.000000;,
  0.000000;0.000000;,
  0.000000;0.000000;,
  0.000000;0.000000;,
  0.000000;0.000000;,
  0.000000;0.000000;,
  0.000000;0.000000;,
  0.000000;0.000000;,
  0.000000;0.000000;,
  0.000000;0.000000;,
  0.000000;0.000000;,
  0.000000;0.000000;,
  0.000000;0.000000;,
  0.000000;0.000000;,
  0.000000;0.000000;,
  0.000000;0.000000;,
  0.000000;0.000000;,
  0.000000;0.000000;,
  0.000000;0.000000;,
  0.000000;0.000000;,
  0.000000;0.000000;,
  0.000000;0.000000;,
  0.000000;0.000000;,
  0.000000;0.000000;,
  0.000000;0.000000;,
  0.000000;0.000000;,
  0.000000;0.000000;,
  0.000000;0.000000;,
  0.000000;0.000000;,
  0.000000;0.000000;,
  0.000000;0.000000;,
  0.000000;0.000000;,
  0.000000;0.000000;,
  0.000000;0.000000;,
  0.000000;0.000000;,
  0.000000;0.000000;,
  0.000000;0.000000;,
  0.000000;0.000000;,
  0.000000;0.000000;,
  0.000000;0.000000;,
  0.000000;0.000000;,
  0.000000;0.000000;,
  0.000000;0.000000;,
  0.000000;0.000000;,
  0.000000;0.000000;,
  0.000000;0.000000;,
  0.000000;0.000000;,
  0.000000;0.000000;,
  0.000000;0.000000;,
  0.000000;0.000000;,
  0.000000;0.000000;,
  0.000000;0.000000;,
  0.000000;0.000000;,
  0.000000;0.000000;,
  0.000000;0.000000;,
  0.000000;0.000000;,
  0.000000;0.000000;,
  0.000000;0.000000;,
  0.000000;0.000000;,
  0.000000;0.000000;,
  0.000000;0.000000;,
  0.000000;0.000000;,
  0.000000;0.000000;,
  0.000000;0.000000;,
  0.000000;0.000000;,
  0.000000;0.000000;,
  0.000000;0.000000;,
  0.000000;0.000000;,
  0.000000;0.000000;,
  0.000000;0.000000;;
 }

 MeshNormals  {
  228;
  0.623527;0.779357;-0.061776;,
  0.624720;0.780849;0.000000;,
  0.577166;0.780849;0.239070;,
  0.552423;0.779357;0.295687;,
  0.441744;0.780849;0.441744;,
  0.397218;0.779357;0.484583;,
  0.239070;0.780848;0.577166;,
  0.181540;0.779357;0.599705;,
  -0.000000;0.780849;0.624720;,
  -0.061776;0.779357;0.623527;,
  -0.239070;0.780849;0.577166;,
  -0.295687;0.779357;0.552423;,
  -0.441744;0.780849;0.441744;,
  -0.484583;0.779357;0.397218;,
  -0.577166;0.780848;0.239070;,
  -0.599705;0.779357;0.181540;,
  -0.624720;0.780849;-0.000000;,
  -0.623527;0.779357;-0.061776;,
  -0.577166;0.780849;-0.239070;,
  -0.552423;0.779357;-0.295687;,
  -0.441744;0.780849;-0.441744;,
  -0.397218;0.779357;-0.484583;,
  -0.239070;0.780848;-0.577166;,
  -0.181540;0.779357;-0.599705;,
  0.000000;0.780849;-0.624720;,
  0.061776;0.779357;-0.623527;,
  0.239070;0.780849;-0.577166;,
  0.295687;0.779357;-0.552423;,
  0.441744;0.780849;-0.441744;,
  0.484583;0.779357;-0.397218;,
  0.577166;0.780848;-0.239070;,
  0.599705;0.779357;-0.181540;,
  0.649444;-0.757684;-0.064323;,
  0.650791;-0.759257;-0.000000;,
  0.601253;-0.759257;0.249047;,
  0.575392;-0.757684;0.307958;,
  0.460179;-0.759257;0.460179;,
  0.413743;-0.757684;0.504709;,
  0.249047;-0.759257;0.601253;,
  0.189105;-0.757684;0.624623;,
  0.000000;-0.759257;0.650791;,
  -0.064323;-0.757684;0.649444;,
  -0.249047;-0.759257;0.601253;,
  -0.307958;-0.757684;0.575392;,
  -0.460179;-0.759257;0.460179;,
  -0.504709;-0.757684;0.413743;,
  -0.601253;-0.759257;0.249047;,
  -0.624623;-0.757684;0.189105;,
  -0.650791;-0.759257;0.000000;,
  -0.649444;-0.757684;-0.064323;,
  -0.601253;-0.759257;-0.249047;,
  -0.575392;-0.757684;-0.307958;,
  -0.460179;-0.759257;-0.460179;,
  -0.413743;-0.757684;-0.504709;,
  -0.249047;-0.759257;-0.601253;,
  -0.189105;-0.757684;-0.624623;,
  -0.000000;-0.759257;-0.650791;,
  0.064323;-0.757684;-0.649444;,
  0.249047;-0.759257;-0.601253;,
  0.307958;-0.757684;-0.575392;,
  0.460179;-0.759257;-0.460179;,
  0.504709;-0.757684;-0.413743;,
  0.601253;-0.759257;-0.249047;,
  0.624623;-0.757684;-0.189105;,
  0.995185;0.000000;-0.098017;,
  1.000000;0.000000;-0.000000;,
  0.923880;0.000000;0.382683;,
  0.881921;0.000000;0.471397;,
  0.707107;0.000000;0.707107;,
  0.634393;0.000000;0.773010;,
  0.382683;0.000000;0.923880;,
  0.290285;0.000000;0.956940;,
  -0.000000;0.000000;1.000000;,
  -0.098017;0.000000;0.995185;,
  -0.382683;0.000000;0.923880;,
  -0.471397;0.000000;0.881921;,
  -0.707107;0.000000;0.707107;,
  -0.773010;0.000000;0.634393;,
  -0.923880;0.000000;0.382683;,
  -0.956940;0.000000;0.290285;,
  -1.000000;0.000000;-0.000000;,
  -0.995185;0.000000;-0.098017;,
  -0.923880;0.000000;-0.382683;,
  -0.881921;0.000000;-0.471397;,
  -0.707107;0.000000;-0.707107;,
  -0.634393;0.000000;-0.773010;,
  -0.382683;0.000000;-0.923880;,
  -0.290285;0.000000;-0.956940;,
  0.000000;0.000000;-1.000000;,
  0.098017;0.000000;-0.995185;,
  0.382683;0.000000;-0.923880;,
  0.471397;0.000000;-0.881921;,
  0.707107;0.000000;-0.707107;,
  0.773010;0.000000;-0.634393;,
  0.923880;0.000000;-0.382683;,
  0.956940;0.000000;-0.290285;,
  0.995185;0.000000;-0.098017;,
  1.000000;0.000000;-0.000000;,
  0.923880;0.000000;0.382683;,
  0.881921;0.000000;0.471397;,
  0.707107;0.000000;0.707107;,
  0.634393;0.000000;0.773010;,
  0.382683;0.000000;0.923880;,
  0.290285;0.000000;0.956940;,
  -0.000000;0.000000;1.000000;,
  -0.098017;0.000000;0.995185;,
  -0.382683;0.000000;0.923880;,
  -0.471397;0.000000;0.881921;,
  -0.707107;0.000000;0.707107;,
  -0.773010;0.000000;0.634393;,
  -0.923880;0.000000;0.382683;,
  -0.956940;0.000000;0.290285;,
  -1.000000;0.000000;-0.000000;,
  -0.995185;0.000000;-0.098017;,
  -0.923880;0.000000;-0.382683;,
  -0.881921;0.000000;-0.471397;,
  -0.707107;0.000000;-0.707107;,
  -0.634393;0.000000;-0.773010;,
  -0.382683;0.000000;-0.923880;,
  -0.290285;0.000000;-0.956940;,
  0.000000;0.000000;-1.000000;,
  0.098017;0.000000;-0.995185;,
  0.382683;0.000000;-0.923880;,
  0.471397;0.000000;-0.881921;,
  0.707107;0.000000;-0.707107;,
  0.773010;0.000000;-0.634393;,
  0.923880;0.000000;-0.382683;,
  0.956940;0.000000;-0.290285;,
  0.995185;0.000000;-0.098017;,
  1.000000;0.000000;-0.000000;,
  0.923880;0.000000;0.382683;,
  0.881921;0.000000;0.471397;,
  0.707107;0.000000;0.707107;,
  0.634393;0.000000;0.773010;,
  0.382683;0.000000;0.923880;,
  0.290285;0.000000;0.956940;,
  -0.000000;0.000000;1.000000;,
  -0.098017;0.000000;0.995185;,
  -0.382683;0.000000;0.923880;,
  -0.471397;0.000000;0.881921;,
  -0.707107;0.000000;0.707107;,
  -0.773010;0.000000;0.634393;,
  -0.923880;0.000000;0.382683;,
  -0.956940;0.000000;0.290285;,
  -1.000000;0.000000;-0.000000;,
  -0.995185;0.000000;-0.098017;,
  -0.923880;0.000000;-0.382683;,
  -0.881921;0.000000;-0.471397;,
  -0.707107;0.000000;-0.707107;,
  -0.634393;0.000000;-0.773010;,
  -0.382683;0.000000;-0.923880;,
  -0.290285;0.000000;-0.956940;,
  0.000000;0.000000;-1.000000;,
  0.098017;0.000000;-0.995185;,
  0.382683;0.000000;-0.923880;,
  0.471397;0.000000;-0.881921;,
  0.707107;0.000000;-0.707107;,
  0.773010;0.000000;-0.634393;,
  0.923880;0.000000;-0.382683;,
  0.956940;0.000000;-0.290285;,
  0.000000;0.000000;-1.000000;,
  0.000000;0.000000;-1.000000;,
  -1.000000;0.000000;0.000000;,
  -1.000000;0.000000;0.000000;,
  0.000000;0.000000;1.000000;,
  0.000000;0.000000;1.000000;,
  1.000000;0.000000;0.000000;,
  1.000000;0.000000;0.000000;,
  0.000000;1.000000;0.000000;,
  0.000000;1.000000;0.000000;,
  0.000000;-1.000000;0.000000;,
  0.000000;-1.000000;0.000000;,
  -1.000000;0.000000;0.000000;,
  -1.000000;0.000000;0.000000;,
  1.000000;0.000000;0.000000;,
  1.000000;0.000000;0.000000;,
  1.000000;0.000000;0.000000;,
  1.000000;0.000000;0.000000;,
  -1.000000;0.000000;0.000000;,
  -1.000000;0.000000;0.000000;,
  1.000000;0.000000;0.000000;,
  1.000000;0.000000;0.000000;,
  -1.000000;0.000000;0.000000;,
  -1.000000;0.000000;0.000000;,
  -1.000000;0.000000;0.000000;,
  -1.000000;0.000000;0.000000;,
  1.000000;0.000000;0.000000;,
  1.000000;0.000000;0.000000;,
  1.000000;0.000000;0.000000;,
  1.000000;0.000000;0.000000;,
  -1.000000;0.000000;0.000000;,
  -1.000000;0.000000;0.000000;,
  1.000000;0.000000;0.000000;,
  1.000000;0.000000;0.000000;,
  -1.000000;0.000000;0.000000;,
  -1.000000;0.000000;0.000000;,
  1.000000;0.000000;0.000000;,
  1.000000;0.000000;0.000000;,
  -1.000000;0.000000;0.000000;,
  -1.000000;0.000000;0.000000;,
  1.000000;0.000000;0.000000;,
  1.000000;0.000000;0.000000;,
  -1.000000;0.000000;0.000000;,
  -1.000000;0.000000;0.000000;,
  0.000000;0.707107;0.707107;,
  0.000000;0.707107;0.707107;,
  0.000000;-0.707107;-0.707107;,
  0.000000;-0.707107;-0.707107;,
  0.000000;0.707107;0.707107;,
  0.000000;0.707107;0.707107;,
  0.000000;-0.707107;-0.707107;,
  0.000000;-0.707107;-0.707107;,
  0.000000;0.707107;0.707107;,
  0.000000;0.707107;0.707107;,
  0.000000;-0.707107;-0.707107;,
  0.000000;-0.707107;-0.707107;,
  0.000000;0.707107;0.707107;,
  0.000000;0.707107;0.707107;,
  0.000000;-0.707107;-0.707107;,
  0.000000;-0.707107;-0.707107;,
  0.000000;0.707107;0.707107;,
  0.000000;0.707107;0.707107;,
  0.000000;-0.707107;-0.707107;,
  0.000000;-0.707107;-0.707107;,
  0.000000;0.707107;0.707107;,
  0.000000;0.707107;0.707107;,
  0.000000;-0.707107;-0.707107;,
  0.000000;-0.707107;-0.707107;;
  354;
  3;1,0,2;,
  3;1,2,3;,
  3;3,2,4;,
  3;3,4,5;,
  3;5,4,6;,
  3;5,6,7;,
  3;7,6,8;,
  3;7,8,9;,
  3;9,8,10;,
  3;9,10,11;,
  3;11,10,12;,
  3;11,12,13;,
  3;13,12,14;,
  3;13,14,15;,
  3;15,14,16;,
  3;15,16,17;,
  3;17,16,18;,
  3;17,18,19;,
  3;19,18,20;,
  3;19,20,21;,
  3;21,20,22;,
  3;21,22,23;,
  3;23,22,24;,
  3;23,24,25;,
  3;25,24,26;,
  3;25,26,27;,
  3;27,26,28;,
  3;27,28,29;,
  3;29,28,30;,
  3;29,30,31;,
  3;31,30,0;,
  3;31,0,1;,
  3;1,3,5;,
  3;1,5,7;,
  3;1,7,9;,
  3;1,9,11;,
  3;1,11,13;,
  3;1,13,15;,
  3;1,15,17;,
  3;1,17,19;,
  3;1,19,21;,
  3;1,21,23;,
  3;1,23,25;,
  3;1,25,27;,
  3;1,27,29;,
  3;1,29,31;,
  3;33,32,34;,
  3;33,34,35;,
  3;35,34,36;,
  3;35,36,37;,
  3;37,36,38;,
  3;37,38,39;,
  3;39,38,40;,
  3;39,40,41;,
  3;41,40,42;,
  3;41,42,43;,
  3;43,42,44;,
  3;43,44,45;,
  3;45,44,46;,
  3;45,46,47;,
  3;47,46,48;,
  3;47,48,49;,
  3;49,48,50;,
  3;49,50,51;,
  3;51,50,52;,
  3;51,52,53;,
  3;53,52,54;,
  3;53,54,55;,
  3;55,54,56;,
  3;55,56,57;,
  3;57,56,58;,
  3;57,58,59;,
  3;59,58,60;,
  3;59,60,61;,
  3;61,60,62;,
  3;61,62,63;,
  3;63,62,32;,
  3;63,32,33;,
  3;62,60,58;,
  3;62,58,56;,
  3;62,56,54;,
  3;62,54,52;,
  3;62,52,50;,
  3;62,50,48;,
  3;62,48,46;,
  3;62,46,44;,
  3;62,44,42;,
  3;62,42,40;,
  3;62,40,38;,
  3;62,38,36;,
  3;62,36,34;,
  3;62,34,32;,
  3;33,35,37;,
  3;33,37,39;,
  3;33,39,41;,
  3;33,41,43;,
  3;33,43,45;,
  3;33,45,47;,
  3;33,47,49;,
  3;33,49,51;,
  3;33,51,53;,
  3;33,53,55;,
  3;33,55,57;,
  3;33,57,59;,
  3;33,59,61;,
  3;33,61,63;,
  3;65,64,66;,
  3;65,66,67;,
  3;67,66,68;,
  3;67,68,69;,
  3;69,68,70;,
  3;69,70,71;,
  3;71,70,72;,
  3;71,72,73;,
  3;73,72,74;,
  3;73,74,75;,
  3;75,74,76;,
  3;75,76,77;,
  3;77,76,78;,
  3;77,78,79;,
  3;79,78,80;,
  3;79,80,81;,
  3;81,80,82;,
  3;81,82,83;,
  3;83,82,84;,
  3;83,84,85;,
  3;85,84,86;,
  3;85,86,87;,
  3;87,86,88;,
  3;87,88,89;,
  3;89,88,90;,
  3;89,90,91;,
  3;91,90,92;,
  3;91,92,93;,
  3;93,92,94;,
  3;93,94,95;,
  3;95,94,64;,
  3;95,64,65;,
  3;94,92,90;,
  3;94,90,88;,
  3;94,88,86;,
  3;94,86,84;,
  3;94,84,82;,
  3;94,82,80;,
  3;94,80,78;,
  3;94,78,76;,
  3;94,76,74;,
  3;94,74,72;,
  3;94,72,70;,
  3;94,70,68;,
  3;94,68,66;,
  3;94,66,64;,
  3;65,67,69;,
  3;65,69,71;,
  3;65,71,73;,
  3;65,73,75;,
  3;65,75,77;,
  3;65,77,79;,
  3;65,79,81;,
  3;65,81,83;,
  3;65,83,85;,
  3;65,85,87;,
  3;65,87,89;,
  3;65,89,91;,
  3;65,91,93;,
  3;65,93,95;,
  3;97,96,98;,
  3;97,98,99;,
  3;99,98,100;,
  3;99,100,101;,
  3;101,100,102;,
  3;101,102,103;,
  3;103,102,104;,
  3;103,104,105;,
  3;105,104,106;,
  3;105,106,107;,
  3;107,106,108;,
  3;107,108,109;,
  3;109,108,110;,
  3;109,110,111;,
  3;111,110,112;,
  3;111,112,113;,
  3;113,112,114;,
  3;113,114,115;,
  3;115,114,116;,
  3;115,116,117;,
  3;117,116,118;,
  3;117,118,119;,
  3;119,118,120;,
  3;119,120,121;,
  3;121,120,122;,
  3;121,122,123;,
  3;123,122,124;,
  3;123,124,125;,
  3;125,124,126;,
  3;125,126,127;,
  3;127,126,96;,
  3;127,96,97;,
  3;126,124,122;,
  3;126,122,120;,
  3;126,120,118;,
  3;126,118,116;,
  3;126,116,114;,
  3;126,114,112;,
  3;126,112,110;,
  3;126,110,108;,
  3;126,108,106;,
  3;126,106,104;,
  3;126,104,102;,
  3;126,102,100;,
  3;126,100,98;,
  3;126,98,96;,
  3;97,99,101;,
  3;97,101,103;,
  3;97,103,105;,
  3;97,105,107;,
  3;97,107,109;,
  3;97,109,111;,
  3;97,111,113;,
  3;97,113,115;,
  3;97,115,117;,
  3;97,117,119;,
  3;97,119,121;,
  3;97,121,123;,
  3;97,123,125;,
  3;97,125,127;,
  3;129,128,130;,
  3;129,130,131;,
  3;131,130,132;,
  3;131,132,133;,
  3;133,132,134;,
  3;133,134,135;,
  3;135,134,136;,
  3;135,136,137;,
  3;137,136,138;,
  3;137,138,139;,
  3;139,138,140;,
  3;139,140,141;,
  3;141,140,142;,
  3;141,142,143;,
  3;143,142,144;,
  3;143,144,145;,
  3;145,144,146;,
  3;145,146,147;,
  3;147,146,148;,
  3;147,148,149;,
  3;149,148,150;,
  3;149,150,151;,
  3;151,150,152;,
  3;151,152,153;,
  3;153,152,154;,
  3;153,154,155;,
  3;155,154,156;,
  3;155,156,157;,
  3;157,156,158;,
  3;157,158,159;,
  3;159,158,128;,
  3;159,128,129;,
  3;158,156,154;,
  3;158,154,152;,
  3;158,152,150;,
  3;158,150,148;,
  3;158,148,146;,
  3;158,146,144;,
  3;158,144,142;,
  3;158,142,140;,
  3;158,140,138;,
  3;158,138,136;,
  3;158,136,134;,
  3;158,134,132;,
  3;158,132,130;,
  3;158,130,128;,
  3;129,131,133;,
  3;129,133,135;,
  3;129,135,137;,
  3;129,137,139;,
  3;129,139,141;,
  3;129,141,143;,
  3;129,143,145;,
  3;129,145,147;,
  3;129,147,149;,
  3;129,149,151;,
  3;129,151,153;,
  3;129,153,155;,
  3;129,155,157;,
  3;129,157,159;,
  3;160,160,160;,
  3;161,161,161;,
  3;162,162,162;,
  3;163,163,163;,
  3;164,164,164;,
  3;165,165,165;,
  3;166,166,166;,
  3;167,167,167;,
  3;168,168,168;,
  3;169,169,169;,
  3;170,170,170;,
  3;171,171,171;,
  3;172,172,172;,
  3;173,173,173;,
  3;174,174,174;,
  3;175,175,175;,
  3;176,176,176;,
  3;177,177,177;,
  3;178,178,178;,
  3;179,179,179;,
  3;180,180,180;,
  3;181,181,181;,
  3;182,182,182;,
  3;183,183,183;,
  3;184,184,184;,
  3;185,185,185;,
  3;186,186,186;,
  3;187,187,187;,
  3;188,188,188;,
  3;189,189,189;,
  3;190,190,190;,
  3;191,191,191;,
  3;192,192,192;,
  3;193,193,193;,
  3;194,194,194;,
  3;195,195,195;,
  3;196,196,196;,
  3;197,197,197;,
  3;198,198,198;,
  3;199,199,199;,
  3;200,200,200;,
  3;201,201,201;,
  3;202,202,202;,
  3;203,203,203;,
  3;204,204,204;,
  3;205,205,205;,
  3;206,206,206;,
  3;207,207,207;,
  3;208,208,208;,
  3;209,209,209;,
  3;210,210,210;,
  3;211,211,211;,
  3;212,212,212;,
  3;213,213,213;,
  3;214,214,214;,
  3;215,215,215;,
  3;216,216,216;,
  3;217,217,217;,
  3;218,218,218;,
  3;219,219,219;,
  3;220,220,220;,
  3;221,221,221;,
  3;222,222,222;,
  3;223,223,223;,
  3;224,224,224;,
  3;225,225,225;,
  3;226,226,226;,
  3;227,227,227;;
 }
}