xof 0303txt 0032
Material _ent_conc2_ent_conc_png {
1.0000;1.0000;1.0000;  1.0000;;
5.0000;
0.1000;0.1000;0.1000;;	
0.2000;0.2000;0.2000;;	
   TextureFilename { "conc01b_potal.dds"; }
}
Mesh mesh_0{
30;
4.9285;-0.8356;0.0000;,
1.9503;-0.4299;0.0000;,
-4.9385;-0.8356;0.0000;,
4.9285;7.3461;0.0000;,
2.3238;1.1805;-0.0000;,
2.4175;2.5101;-0.0000;,
2.3750;2.9963;-0.0000;,
2.2486;3.4677;-0.0000;,
2.0424;3.9101;-0.0000;,
1.7624;4.3099;-0.0000;,
1.6451;4.4411;-0.0000;,
1.3548;4.6970;-0.0000;,
1.0245;4.8986;-0.0000;,
0.6642;5.0398;-0.0000;,
0.2849;5.1162;-0.0000;,
0.0375;5.1223;-0.0000;,
-0.1020;5.1257;-0.0000;,
-1.8753;-0.4299;0.0000;,
-4.9385;7.3461;0.0000;,
-2.1984;0.8632;-0.0000;,
-2.3425;2.5101;-0.0000;,
-2.3370;2.6860;-0.0000;,
-2.2640;3.1686;-0.0000;,
-2.1083;3.6312;-0.0000;,
-1.8746;4.0597;-0.0000;,
-1.5701;4.4411;-0.0000;,
-1.4935;4.5176;-0.0000;,
-1.1911;4.7591;-0.0000;,
-0.8514;4.9443;-0.0000;,
-0.4846;5.0678;-0.0000;;
30;
3;2,1,0,
3;3,0,1,
3;4,3,1,
3;5,3,4,
3;6,3,5,
3;7,3,6,
3;8,3,7,
3;9,3,8,
3;10,3,9,
3;11,3,10,
3;12,3,11,
3;13,3,12,
3;14,3,13,
3;15,3,14,
3;16,3,15,
3;18,17,2,
3;1,2,17,
3;19,17,18,
3;20,19,18,
3;21,20,18,
3;22,21,18,
3;23,22,18,
3;24,23,18,
3;25,24,18,
3;26,25,18,
3;27,26,18,
3;28,27,18,
3;29,28,18,
3;16,29,18,
3;3,16,18;;
  MeshMaterialList {
1;
30;
0,
0,
0,
0,
0,
0,
0,
0,
0,
0,
0,
0,
0,
0,
0,
0,
0,
0,
0,
0,
0,
0,
0,
0,
0,
0,
0,
0,
0,
0;
{ _ent_conc2_ent_conc_png }
  }
  MeshTextureCoords {
30;
0.9786,0.0048;
0.7031,-0.0398;
0.0660,0.0048;
0.9786,-0.8945;
0.7377,-0.2168;
0.7463,-0.3629;
0.7424,-0.4164;
0.7307,-0.4682;
0.7116,-0.5168;
0.6857,-0.5608;
0.6749,-0.5752;
0.6480,-0.6033;
0.6175,-0.6255;
0.5842,-0.6410;
0.5491,-0.6494;
0.5262,-0.6500;
0.5133,-0.6504;
0.3493,-0.0398;
0.0660,-0.8945;
0.3194,-0.1819;
0.3061,-0.3629;
0.3066,-0.3823;
0.3133,-0.4353;
0.3277,-0.4862;
0.3494,-0.5333;
0.3775,-0.5752;
0.3846,-0.5836;
0.4126,-0.6101;
0.4440,-0.6305;
0.4779,-0.6441;
  }
  MeshNormals {
1;
0.0000;0.0000;-1.0000;;
30;
3;0,0,0;
3;0,0,0;
3;0,0,0;
3;0,0,0;
3;0,0,0;
3;0,0,0;
3;0,0,0;
3;0,0,0;
3;0,0,0;
3;0,0,0;
3;0,0,0;
3;0,0,0;
3;0,0,0;
3;0,0,0;
3;0,0,0;
3;0,0,0;
3;0,0,0;
3;0,0,0;
3;0,0,0;
3;0,0,0;
3;0,0,0;
3;0,0,0;
3;0,0,0;
3;0,0,0;
3;0,0,0;
3;0,0,0;
3;0,0,0;
3;0,0,0;
3;0,0,0;
3;0,0,0;;
  }
}
