xof 0303txt 0032
template Vector {
 <3d82ab5e-62da-11cf-ab39-0020af71e433>
 FLOAT x;
 FLOAT y;
 FLOAT z;
}

template MeshFace {
 <3d82ab5f-62da-11cf-ab39-0020af71e433>
 DWORD nFaceVertexIndices;
 array DWORD faceVertexIndices[nFaceVertexIndices];
}

template Mesh {
 <3d82ab44-62da-11cf-ab39-0020af71e433>
 DWORD nVertices;
 array Vector vertices[nVertices];
 DWORD nFaces;
 array MeshFace faces[nFaces];
 [...]
}

template MeshNormals {
 <f6f23f43-7686-11cf-8f52-0040333594a3>
 DWORD nNormals;
 array Vector normals[nNormals];
 DWORD nFaceNormals;
 array MeshFace faceNormals[nFaceNormals];
}

template Coords2d {
 <f6f23f44-7686-11cf-8f52-0040333594a3>
 FLOAT u;
 FLOAT v;
}

template MeshTextureCoords {
 <f6f23f40-7686-11cf-8f52-0040333594a3>
 DWORD nTextureCoords;
 array Coords2d textureCoords[nTextureCoords];
}

template ColorRGBA {
 <35ff44e0-6c7c-11cf-8f52-0040333594a3>
 FLOAT red;
 FLOAT green;
 FLOAT blue;
 FLOAT alpha;
}

template ColorRGB {
 <d3e16e81-7835-11cf-8f52-0040333594a3>
 FLOAT red;
 FLOAT green;
 FLOAT blue;
}

template Material {
 <3d82ab4d-62da-11cf-ab39-0020af71e433>
 ColorRGBA faceColor;
 FLOAT power;
 ColorRGB specularColor;
 ColorRGB emissiveColor;
 [...]
}

template MeshMaterialList {
 <f6f23f42-7686-11cf-8f52-0040333594a3>
 DWORD nMaterials;
 DWORD nFaceIndexes;
 array DWORD faceIndexes[nFaceIndexes];
 [Material <3d82ab4d-62da-11cf-ab39-0020af71e433>]
}

template TextureFilename {
 <a42790e1-7810-11cf-8f52-0040333594a3>
 STRING filename;
}


Mesh {
 40;
 4.744699;-0.658500;0.000000;,
 1.804000;-0.460000;0.000000;,
 -5.800458;-0.658500;0.000000;,
 2.169500;0.981600;0.000000;,
 2.280000;2.350000;0.000000;,
 2.245400;2.745900;0.000000;,
 2.142500;3.129800;0.000000;,
 1.974500;3.490000;0.000000;,
 1.746600;3.815600;0.000000;,
 1.465600;4.096600;0.000000;,
 1.140000;4.324500;0.000000;,
 0.779800;4.492500;0.000000;,
 0.395900;4.595399;0.000000;,
 0.000000;4.630000;0.000000;,
 -1.804000;-0.460000;0.000000;,
 -5.800458;7.301499;0.000000;,
 0.000000;-0.460000;0.000000;,
 -2.150400;0.868400;0.000000;,
 -2.280000;2.350000;0.000000;,
 -2.245400;2.745900;0.000000;,
 -2.142500;3.129800;0.000000;,
 -1.974500;3.490000;0.000000;,
 -1.746600;3.815600;0.000000;,
 -1.465600;4.096600;0.000000;,
 -1.140000;4.324500;0.000000;,
 -0.779800;4.492500;0.000000;,
 -0.395900;4.595399;0.000000;,
 4.070765;5.522758;0.000000;,
 4.034501;5.558572;0.000000;,
 3.928254;5.661287;0.000000;,
 3.873665;5.713821;0.000000;,
 3.799057;5.785500;0.000000;,
 3.707051;5.873806;0.000000;,
 3.602795;5.973804;0.000000;,
 3.493488;6.078601;0.000000;,
 3.387246;6.180424;0.000000;,
 3.291622;6.272042;0.000000;,
 3.212344;6.347970;0.000000;,
 3.152658;6.405101;0.000000;,
 2.217898;7.301499;0.000000;;
 40;
 3;2,1,0;,
 3;0,1,27;,
 3;1,3,28;,
 3;3,4,29;,
 3;4,5,30;,
 3;5,6,31;,
 3;6,7,32;,
 3;7,8,33;,
 3;8,9,34;,
 3;9,10,35;,
 3;10,11,36;,
 3;11,12,37;,
 3;12,13,38;,
 3;15,14,2;,
 3;1,2,14;,
 3;16,1,14;,
 3;17,14,15;,
 3;18,17,15;,
 3;19,18,15;,
 3;20,19,15;,
 3;21,20,15;,
 3;22,21,15;,
 3;23,22,15;,
 3;24,23,15;,
 3;25,24,15;,
 3;26,25,15;,
 3;13,26,15;,
 3;13,15,39;,
 3;28,27,1;,
 3;29,28,3;,
 3;30,29,4;,
 3;31,30,5;,
 3;32,31,6;,
 3;33,32,7;,
 3;34,33,8;,
 3;35,34,9;,
 3;36,35,10;,
 3;37,36,11;,
 3;38,37,12;,
 3;39,38,13;;

 MeshNormals {
  40;
  0.000000;0.000000;-1.000000;,
  0.000000;0.000000;-1.000000;,
  0.000000;0.000000;-1.000000;,
  0.000000;0.000000;-1.000000;,
  0.000000;0.000000;-1.000000;,
  0.000000;0.000000;-1.000000;,
  0.000000;0.000000;-1.000000;,
  0.000000;0.000000;-1.000000;,
  0.000000;0.000000;-1.000000;,
  0.000000;0.000000;-1.000000;,
  0.000000;0.000000;-1.000000;,
  0.000000;0.000000;-1.000000;,
  0.000000;0.000000;-1.000000;,
  0.000000;0.000000;-1.000000;,
  0.000000;0.000000;-1.000000;,
  0.000000;0.000000;-1.000000;,
  0.000000;0.000000;-1.000000;,
  0.000000;0.000000;-1.000000;,
  0.000000;0.000000;-1.000000;,
  0.000000;0.000000;-1.000000;,
  0.000000;0.000000;-1.000000;,
  0.000000;0.000000;-1.000000;,
  0.000000;0.000000;-1.000000;,
  0.000000;0.000000;-1.000000;,
  0.000000;0.000000;-1.000000;,
  0.000000;0.000000;-1.000000;,
  0.000000;0.000000;-1.000000;,
  0.000000;0.000000;-1.000000;,
  0.000000;0.000000;-1.000000;,
  0.000000;0.000000;-1.000000;,
  0.000000;0.000000;-1.000000;,
  0.000000;0.000000;-1.000000;,
  0.000000;0.000000;-1.000000;,
  0.000000;0.000000;-1.000000;,
  0.000000;0.000000;-1.000000;,
  0.000000;0.000000;-1.000000;,
  0.000000;0.000000;-1.000000;,
  0.000000;0.000000;-1.000000;,
  0.000000;0.000000;-1.000000;,
  0.000000;0.000000;-1.000000;;
  40;
  3;2,1,0;,
  3;0,1,27;,
  3;1,3,28;,
  3;3,4,29;,
  3;4,5,30;,
  3;5,6,31;,
  3;6,7,32;,
  3;7,8,33;,
  3;8,9,34;,
  3;9,10,35;,
  3;10,11,36;,
  3;11,12,37;,
  3;12,13,38;,
  3;15,14,2;,
  3;1,2,14;,
  3;16,1,14;,
  3;17,14,15;,
  3;18,17,15;,
  3;19,18,15;,
  3;20,19,15;,
  3;21,20,15;,
  3;22,21,15;,
  3;23,22,15;,
  3;24,23,15;,
  3;25,24,15;,
  3;26,25,15;,
  3;13,26,15;,
  3;13,15,39;,
  3;28,27,1;,
  3;29,28,3;,
  3;30,29,4;,
  3;31,30,5;,
  3;32,31,6;,
  3;33,32,7;,
  3;34,33,8;,
  3;35,34,9;,
  3;36,35,10;,
  3;37,36,11;,
  3;38,37,12;,
  3;39,38,13;;
 }

 MeshTextureCoords {
  40;
  0.999600;-0.015300;,
  0.704600;-0.038900;,
  0.047400;-0.015300;,
  0.741200;-0.210800;,
  0.752300;-0.374000;,
  0.748900;-0.421200;,
  0.738500;-0.467000;,
  0.721700;-0.509900;,
  0.698800;-0.548700;,
  0.670600;-0.582200;,
  0.637900;-0.609400;,
  0.601800;-0.629400;,
  0.563300;-0.641700;,
  0.523600;-0.645800;,
  0.342500;-0.038900;,
  0.047400;-0.964400;,
  0.523600;-0.038900;,
  0.307800;-0.197300;,
  0.294800;-0.374000;,
  0.298300;-0.421200;,
  0.308600;-0.467000;,
  0.325400;-0.509900;,
  0.348300;-0.548700;,
  0.376500;-0.582200;,
  0.409200;-0.609400;,
  0.445300;-0.629400;,
  0.483800;-0.641700;,
  0.931993;-0.752299;,
  0.928337;-0.756569;,
  0.917680;-0.768827;,
  0.912228;-0.775089;,
  0.904716;-0.783644;,
  0.895505;-0.794155;,
  0.885033;-0.806070;,
  0.874063;-0.818563;,
  0.863391;-0.830715;,
  0.853812;-0.841627;,
  0.845864;-0.850693;,
  0.839882;-0.857497;,
  0.746068;-0.964400;;
 }

 MeshMaterialList {
  1;
  40;
  0,
  0,
  0,
  0,
  0,
  0,
  0,
  0,
  0,
  0,
  0,
  0,
  0,
  0,
  0,
  0,
  0,
  0,
  0,
  0,
  0,
  0,
  0,
  0,
  0,
  0,
  0,
  0,
  0,
  0,
  0,
  0,
  0,
  0,
  0,
  0,
  0,
  0,
  0,
  0;

  Material {
   1.000000;1.000000;1.000000;1.000000;;
   5.000000;
   0.100000;0.100000;0.100000;;
   0.200000;0.200000;0.200000;;

   TextureFilename {
    "conc01a_potal.dds";
   }
  }
 }
}