xof 0303txt 0032
template Vector {
 <3d82ab5e-62da-11cf-ab39-0020af71e433>
 FLOAT x;
 FLOAT y;
 FLOAT z;
}

template MeshFace {
 <3d82ab5f-62da-11cf-ab39-0020af71e433>
 DWORD nFaceVertexIndices;
 array DWORD faceVertexIndices[nFaceVertexIndices];
}

template Mesh {
 <3d82ab44-62da-11cf-ab39-0020af71e433>
 DWORD nVertices;
 array Vector vertices[nVertices];
 DWORD nFaces;
 array MeshFace faces[nFaces];
 [...]
}

template MeshNormals {
 <f6f23f43-7686-11cf-8f52-0040333594a3>
 DWORD nNormals;
 array Vector normals[nNormals];
 DWORD nFaceNormals;
 array MeshFace faceNormals[nFaceNormals];
}

template Coords2d {
 <f6f23f44-7686-11cf-8f52-0040333594a3>
 FLOAT u;
 FLOAT v;
}

template MeshTextureCoords {
 <f6f23f40-7686-11cf-8f52-0040333594a3>
 DWORD nTextureCoords;
 array Coords2d textureCoords[nTextureCoords];
}

template ColorRGBA {
 <35ff44e0-6c7c-11cf-8f52-0040333594a3>
 FLOAT red;
 FLOAT green;
 FLOAT blue;
 FLOAT alpha;
}

template ColorRGB {
 <d3e16e81-7835-11cf-8f52-0040333594a3>
 FLOAT red;
 FLOAT green;
 FLOAT blue;
}

template Material {
 <3d82ab4d-62da-11cf-ab39-0020af71e433>
 ColorRGBA faceColor;
 FLOAT power;
 ColorRGB specularColor;
 ColorRGB emissiveColor;
 [...]
}

template MeshMaterialList {
 <f6f23f42-7686-11cf-8f52-0040333594a3>
 DWORD nMaterials;
 DWORD nFaceIndexes;
 array DWORD faceIndexes[nFaceIndexes];
 [Material <3d82ab4d-62da-11cf-ab39-0020af71e433>]
}

template TextureFilename {
 <a42790e1-7810-11cf-8f52-0040333594a3>
 STRING filename;
}


Mesh {
 28;
 5.208261;-0.658500;0.000000;,
 1.804000;-0.460000;0.000000;,
 -5.253476;-0.658500;0.000000;,
 5.208261;7.301499;0.000000;,
 2.169500;0.981600;0.000000;,
 2.280000;2.350000;0.000000;,
 2.245400;2.745900;0.000000;,
 2.142500;3.129800;0.000000;,
 1.974500;3.490000;0.000000;,
 1.746600;3.815600;0.000000;,
 1.465600;4.096600;0.000000;,
 1.140000;4.324500;0.000000;,
 0.779800;4.492499;0.000000;,
 0.395900;4.595399;0.000000;,
 0.000000;4.630000;0.000000;,
 -1.804000;-0.460000;0.000000;,
 -5.253476;7.301499;0.000000;,
 0.000000;-0.460000;0.000000;,
 -2.150400;0.868400;0.000000;,
 -2.280000;2.350000;0.000000;,
 -2.245400;2.745900;0.000000;,
 -2.142500;3.129800;0.000000;,
 -1.974500;3.490000;0.000000;,
 -1.746600;3.815600;0.000000;,
 -1.465600;4.096600;0.000000;,
 -1.140000;4.324500;0.000000;,
 -0.779800;4.492499;0.000000;,
 -0.395900;4.595399;0.000000;;
 28;
 3;2,1,0;,
 3;3,0,1;,
 3;4,3,1;,
 3;5,3,4;,
 3;6,3,5;,
 3;7,3,6;,
 3;8,3,7;,
 3;9,3,8;,
 3;10,3,9;,
 3;11,3,10;,
 3;12,3,11;,
 3;13,3,12;,
 3;14,3,13;,
 3;16,15,2;,
 3;1,2,15;,
 3;17,1,15;,
 3;18,15,16;,
 3;19,18,16;,
 3;20,19,16;,
 3;21,20,16;,
 3;22,21,16;,
 3;23,22,16;,
 3;24,23,16;,
 3;25,24,16;,
 3;26,25,16;,
 3;27,26,16;,
 3;14,27,16;,
 3;3,14,16;;

 MeshNormals {
  28;
  0.000000;0.000000;-1.000000;,
  0.000000;0.000000;-1.000000;,
  0.000000;0.000000;-1.000000;,
  0.000000;0.000000;-1.000000;,
  0.000000;0.000000;-1.000000;,
  0.000000;0.000000;-1.000000;,
  0.000000;0.000000;-1.000000;,
  0.000000;0.000000;-1.000000;,
  0.000000;0.000000;-1.000000;,
  0.000000;0.000000;-1.000000;,
  0.000000;0.000000;-1.000000;,
  0.000000;0.000000;-1.000000;,
  0.000000;0.000000;-1.000000;,
  0.000000;0.000000;-1.000000;,
  0.000000;0.000000;-1.000000;,
  0.000000;0.000000;-1.000000;,
  0.000000;0.000000;-1.000000;,
  0.000000;0.000000;-1.000000;,
  0.000000;0.000000;-1.000000;,
  0.000000;0.000000;-1.000000;,
  0.000000;0.000000;-1.000000;,
  0.000000;0.000000;-1.000000;,
  0.000000;0.000000;-1.000000;,
  0.000000;0.000000;-1.000000;,
  0.000000;0.000000;-1.000000;,
  0.000000;0.000000;-1.000000;,
  0.000000;0.000000;-1.000000;,
  0.000000;0.000000;-1.000000;;
  28;
  3;2,1,0;,
  3;3,0,1;,
  3;4,3,1;,
  3;5,3,4;,
  3;6,3,5;,
  3;7,3,6;,
  3;8,3,7;,
  3;9,3,8;,
  3;10,3,9;,
  3;11,3,10;,
  3;12,3,11;,
  3;13,3,12;,
  3;14,3,13;,
  3;16,15,2;,
  3;1,2,15;,
  3;17,1,15;,
  3;18,15,16;,
  3;19,18,16;,
  3;20,19,16;,
  3;21,20,16;,
  3;22,21,16;,
  3;23,22,16;,
  3;24,23,16;,
  3;25,24,16;,
  3;26,25,16;,
  3;27,26,16;,
  3;14,27,16;,
  3;3,14,16;;
 }

 MeshTextureCoords {
  28;
  0.999600;-0.015300;,
  0.704600;-0.038900;,
  0.047400;-0.015300;,
  0.999600;-0.964400;,
  0.741200;-0.210800;,
  0.752300;-0.374000;,
  0.748900;-0.421200;,
  0.738500;-0.467000;,
  0.721700;-0.509900;,
  0.698800;-0.548700;,
  0.670600;-0.582200;,
  0.637900;-0.609400;,
  0.601800;-0.629400;,
  0.563300;-0.641700;,
  0.523600;-0.645800;,
  0.342500;-0.038900;,
  0.047400;-0.964400;,
  0.523600;-0.038900;,
  0.307800;-0.197300;,
  0.294800;-0.374000;,
  0.298300;-0.421200;,
  0.308600;-0.467000;,
  0.325400;-0.509900;,
  0.348300;-0.548700;,
  0.376500;-0.582200;,
  0.409200;-0.609400;,
  0.445300;-0.629400;,
  0.483800;-0.641700;;
 }

 MeshMaterialList {
  1;
  28;
  0,
  0,
  0,
  0,
  0,
  0,
  0,
  0,
  0,
  0,
  0,
  0,
  0,
  0,
  0,
  0,
  0,
  0,
  0,
  0,
  0,
  0,
  0,
  0,
  0,
  0,
  0,
  0;

  Material {
   1.000000;1.000000;1.000000;1.000000;;
   5.000000;
   0.100000;0.100000;0.100000;;
   0.200000;0.200000;0.200000;;

   TextureFilename {
    "conc01a_potal.dds";
   }
  }
 }
}