xof 0303txt 0032
Material _ent_conc_ent_conc_png {
1.0000;1.0000;1.0000;  1.0000;;
5.0000;
0.1000;0.1000;0.1000;;	
0.2000;0.2000;0.2000;;	
   TextureFilename { "conc01b_potal.dds"; }
}
Mesh mesh_0{
28;
4.7447;-0.6585;0.0000;,
1.8040;-0.4600;0.0000;,
-4.7453;-0.6585;0.0000;,
4.7447;7.3015;0.0000;,
2.1695;0.9816;-0.0000;,
2.2800;2.3500;-0.0000;,
2.2454;2.7459;-0.0000;,
2.1425;3.1298;-0.0000;,
1.9745;3.4900;-0.0000;,
1.7466;3.8156;-0.0000;,
1.4656;4.0966;-0.0000;,
1.1400;4.3245;-0.0000;,
0.7798;4.4925;-0.0000;,
0.3959;4.5954;-0.0000;,
0.0000;4.6300;-0.0000;,
-1.8040;-0.4600;0.0000;,
-4.7453;7.3015;0.0000;,
0.0000;-0.4600;0.0000;,
-2.1504;0.8684;-0.0000;,
-2.2800;2.3500;-0.0000;,
-2.2454;2.7459;-0.0000;,
-2.1425;3.1298;-0.0000;,
-1.9745;3.4900;-0.0000;,
-1.7466;3.8156;-0.0000;,
-1.4656;4.0966;-0.0000;,
-1.1400;4.3245;-0.0000;,
-0.7798;4.4925;-0.0000;,
-0.3959;4.5954;-0.0000;;
28;
3;2,1,0,
3;3,0,1,
3;4,3,1,
3;5,3,4,
3;6,3,5,
3;7,3,6,
3;8,3,7,
3;9,3,8,
3;10,3,9,
3;11,3,10,
3;12,3,11,
3;13,3,12,
3;14,3,13,
3;16,15,2,
3;1,2,15,
3;17,1,15,
3;18,15,16,
3;19,18,16,
3;20,19,16,
3;21,20,16,
3;22,21,16,
3;23,22,16,
3;24,23,16,
3;25,24,16,
3;26,25,16,
3;27,26,16,
3;14,27,16,
3;3,14,16;;
  MeshMaterialList {
1;
28;
0,
0,
0,
0,
0,
0,
0,
0,
0,
0,
0,
0,
0,
0,
0,
0,
0,
0,
0,
0,
0,
0,
0,
0,
0,
0,
0,
0;
{ _ent_conc_ent_conc_png }
  }
  MeshTextureCoords {
28;
0.9996,-0.0153;
0.7046,-0.0389;
0.0474,-0.0153;
0.9996,-0.9644;
0.7412,-0.2108;
0.7523,-0.3740;
0.7489,-0.4212;
0.7385,-0.4670;
0.7217,-0.5099;
0.6988,-0.5487;
0.6706,-0.5822;
0.6379,-0.6094;
0.6018,-0.6294;
0.5633,-0.6417;
0.5236,-0.6458;
0.3425,-0.0389;
0.0474,-0.9644;
0.5236,-0.0389;
0.3078,-0.1973;
0.2948,-0.3740;
0.2983,-0.4212;
0.3086,-0.4670;
0.3254,-0.5099;
0.3483,-0.5487;
0.3765,-0.5822;
0.4092,-0.6094;
0.4453,-0.6294;
0.4838,-0.6417;
  }
  MeshNormals {
1;
0.0000;0.0000;-1.0000;;
28;
3;0,0,0;
3;0,0,0;
3;0,0,0;
3;0,0,0;
3;0,0,0;
3;0,0,0;
3;0,0,0;
3;0,0,0;
3;0,0,0;
3;0,0,0;
3;0,0,0;
3;0,0,0;
3;0,0,0;
3;0,0,0;
3;0,0,0;
3;0,0,0;
3;0,0,0;
3;0,0,0;
3;0,0,0;
3;0,0,0;
3;0,0,0;
3;0,0,0;
3;0,0,0;
3;0,0,0;
3;0,0,0;
3;0,0,0;
3;0,0,0;
3;0,0,0;;
  }
}
