xof 0303txt 0032
Material ______2_renga01_wall_png {
   0.500000;0.500000;0.500000;1.000000;;
   5.000000;
   0.000000;0.000000;0.000000;;
   0.500000;0.500000;0.500000;;
   TextureFilename { "renga01_wall.dds"; }
}
Material Default_Material { 
   0.000000;0.000000;0.000000;1.000000;;
   5.000000;
   0.100000;0.100000;0.100000;;
   0.200000;0.200000;0.200000;;
} 
Mesh mesh_0{
58;
-0.3970;4.5943;-0.0000;,
-0.0000;4.6290;5.1000;,
-0.3970;4.5943;5.1000;,
0.0000;4.6290;-0.0000;,
-0.7819;4.4911;-0.0000;,
-0.7819;4.4911;5.1000;,
-1.1430;4.3227;-0.0000;,
-1.1430;4.3227;5.1000;,
-1.4694;4.0942;-0.0000;,
-1.4694;4.0942;5.1000;,
-1.7512;3.8124;-0.0000;,
-1.7512;3.8124;5.1000;,
-1.9797;3.4860;-0.0000;,
-1.9797;3.4860;5.1000;,
-2.1481;3.1249;-0.0000;,
-2.1481;3.1249;5.1000;,
-2.2513;2.7400;-0.0000;,
-2.2513;2.7400;5.1000;,
-2.2860;2.3430;-0.0000;,
-2.2860;2.3430;5.1000;,
-1.8424;0.0000;5.1000;,
-1.6765;-0.4000;0.0000;,
-1.8424;0.0000;0.0000;,
-1.6765;-0.4000;5.1000;,
-1.8954;0.1277;5.1000;,
-1.8954;0.1277;0.0000;,
-2.1876;1.2183;5.1000;,
-2.1876;1.2183;-0.0000;,
0.3970;4.5943;0.0000;,
0.0000;4.6290;5.1000;,
0.3970;4.5943;5.1000;,
0.0000;4.6290;0.0000;,
0.7819;4.4911;0.0000;,
0.7819;4.4911;5.1000;,
1.1430;4.3227;0.0000;,
1.1430;4.3227;5.1000;,
1.4694;4.0942;0.0000;,
1.4694;4.0942;5.1000;,
1.7512;3.8124;0.0000;,
1.7512;3.8124;5.1000;,
1.9797;3.4860;0.0000;,
1.9797;3.4860;5.1000;,
2.1481;3.1249;0.0000;,
2.1481;3.1249;5.1000;,
2.2513;2.7400;0.0000;,
2.2513;2.7400;5.1000;,
2.2860;2.3430;0.0000;,
2.2860;2.3430;5.1000;,
1.8424;0.0000;5.1000;,
1.6765;-0.4000;0.0000;,
1.8424;0.0000;0.0000;,
1.6765;-0.4000;5.1000;,
1.8954;0.1277;5.1000;,
1.8954;0.1277;0.0000;,
2.1876;1.2183;5.1000;,
2.1876;1.2183;0.0000;,
1.6765;-0.4000;5.1000;,
-1.6765;-0.4000;5.1000;;
54;
3;0,1,2,
3;1,0,3,
3;4,2,5,
3;2,4,0,
3;6,5,7,
3;5,6,4,
3;8,7,9,
3;7,8,6,
3;9,10,8,
3;10,9,11,
3;11,12,10,
3;12,11,13,
3;13,14,12,
3;14,13,15,
3;15,16,14,
3;16,15,17,
3;17,18,16,
3;18,17,19,
3;20,21,22,
3;21,20,23,
3;24,22,25,
3;22,24,20,
3;26,25,27,
3;25,26,24,
3;19,27,18,
3;27,19,26,
3;30,29,28,
3;31,28,29,
3;33,30,32,
3;28,32,30,
3;35,33,34,
3;32,34,33,
3;37,35,36,
3;34,36,35,
3;36,38,37,
3;39,37,38,
3;38,40,39,
3;41,39,40,
3;40,42,41,
3;43,41,42,
3;42,44,43,
3;45,43,44,
3;44,46,45,
3;47,45,46,
3;50,49,48,
3;51,48,49,
3;53,50,52,
3;48,52,50,
3;55,53,54,
3;52,54,53,
3;46,55,47,
3;54,47,55,
3;56,21,57,
3;21,56,49;;
  MeshMaterialList {
2;
54;
0,
0,
0,
0,
0,
0,
0,
0,
0,
0,
0,
0,
0,
0,
0,
0,
0,
0,
0,
0,
0,
0,
0,
0,
0,
0,
0,
0,
0,
0,
0,
0,
0,
0,
0,
0,
0,
0,
0,
0,
0,
0,
0,
0,
0,
0,
0,
0,
0,
0,
0,
0,
1,
1;
{ ______2_renga01_wall_png }
{ Default_Material }
  }
  MeshTextureCoords {
58;
0.0000,-0.9931;
0.9945,-1.0000;
0.9945,-0.9931;
0.0000,-1.0000;
-0.0000,-0.9726;
0.9945,-0.9726;
-0.0000,-0.9391;
0.9945,-0.9391;
-0.0000,-0.8937;
0.9945,-0.8937;
0.0000,-0.8376;
0.9945,-0.8376;
0.0000,-0.7727;
0.9945,-0.7727;
-0.0000,-0.7009;
0.9945,-0.7009;
0.0000,-0.6244;
0.9945,-0.6244;
-0.0000,-0.5454;
0.9945,-0.5454;
0.9945,-0.0795;
0.0000,0.0000;
0.0000,-0.0795;
0.9945,-0.0000;
0.9945,-0.1049;
0.0000,-0.1049;
0.9945,-0.3218;
-0.0000,-0.3218;
0.0000,-0.9931;
0.9945,-1.0000;
0.9945,-0.9931;
0.0000,-1.0000;
-0.0000,-0.9726;
0.9945,-0.9726;
-0.0000,-0.9391;
0.9945,-0.9391;
-0.0000,-0.8937;
0.9945,-0.8937;
0.0000,-0.8376;
0.9945,-0.8376;
0.0000,-0.7727;
0.9945,-0.7727;
-0.0000,-0.7009;
0.9945,-0.7009;
0.0000,-0.6244;
0.9945,-0.6244;
-0.0000,-0.5454;
0.9945,-0.5454;
0.9945,-0.0795;
0.0000,0.0000;
0.0000,-0.0795;
0.9945,-0.0000;
0.9945,-0.1049;
0.0000,-0.1049;
0.9945,-0.3218;
-0.0000,-0.3218;
0.0000,0.0000;
0.0000,0.0000;
  }
  MeshNormals {
26;
0.0872;-0.9962;0.0000;,
0.2588;-0.9659;0.0000;,
0.4226;-0.9063;0.0000;,
0.5736;-0.8192;0.0000;,
0.7071;-0.7071;0.0000;,
0.8191;-0.5736;0.0000;,
0.9063;-0.4226;0.0000;,
0.9659;-0.2588;0.0000;,
0.9962;-0.0872;0.0000;,
0.9237;0.3831;-0.0000;,
0.9659;0.2588;-0.0000;,
0.9962;0.0872;-0.0000;,
-0.1736;-0.9848;0.0000;,
-0.0872;-0.9962;0.0000;,
-0.3420;-0.9397;0.0000;,
-0.5000;-0.8660;0.0000;,
-0.6428;-0.7660;0.0000;,
-0.7660;-0.6428;0.0000;,
-0.8660;-0.5000;0.0000;,
-0.9397;-0.3420;0.0000;,
-0.9848;-0.1736;0.0000;,
-1.0000;-0.0000;0.0000;,
-0.9237;0.3831;-0.0000;,
-0.9469;0.3217;-0.0000;,
-0.9848;0.1736;-0.0000;,
0.0000;1.0000;-0.0000;;
54;
3;0,0,0;
3;0,0,0;
3;1,1,1;
3;1,1,1;
3;2,2,2;
3;2,2,2;
3;3,3,3;
3;3,3,3;
3;4,4,4;
3;4,4,4;
3;5,5,5;
3;5,5,5;
3;6,6,6;
3;6,6,6;
3;7,7,7;
3;7,7,7;
3;8,8,8;
3;8,8,8;
3;9,9,9;
3;9,9,9;
3;9,9,9;
3;9,9,9;
3;10,10,10;
3;10,10,10;
3;11,11,11;
3;11,11,11;
3;12,13,12;
3;13,12,13;
3;14,12,14;
3;12,14,12;
3;15,14,15;
3;14,15,14;
3;16,15,16;
3;15,16,15;
3;16,17,16;
3;17,16,17;
3;17,18,17;
3;18,17,18;
3;18,19,18;
3;19,18,19;
3;19,20,19;
3;20,19,20;
3;20,21,20;
3;21,20,21;
3;22,22,22;
3;22,22,22;
3;23,22,23;
3;22,23,22;
3;24,23,24;
3;23,24,23;
3;21,24,21;
3;24,21,24;
3;25,25,25;
3;25,25,25;;
  }
}
