xof 0303txt 0032
template Vector {
 <3d82ab5e-62da-11cf-ab39-0020af71e433>
 FLOAT x;
 FLOAT y;
 FLOAT z;
}

template MeshFace {
 <3d82ab5f-62da-11cf-ab39-0020af71e433>
 DWORD nFaceVertexIndices;
 array DWORD faceVertexIndices[nFaceVertexIndices];
}

template Mesh {
 <3d82ab44-62da-11cf-ab39-0020af71e433>
 DWORD nVertices;
 array Vector vertices[nVertices];
 DWORD nFaces;
 array MeshFace faces[nFaces];
 [...]
}

template MeshNormals {
 <f6f23f43-7686-11cf-8f52-0040333594a3>
 DWORD nNormals;
 array Vector normals[nNormals];
 DWORD nFaceNormals;
 array MeshFace faceNormals[nFaceNormals];
}

template Coords2d {
 <f6f23f44-7686-11cf-8f52-0040333594a3>
 FLOAT u;
 FLOAT v;
}

template MeshTextureCoords {
 <f6f23f40-7686-11cf-8f52-0040333594a3>
 DWORD nTextureCoords;
 array Coords2d textureCoords[nTextureCoords];
}

template ColorRGBA {
 <35ff44e0-6c7c-11cf-8f52-0040333594a3>
 FLOAT red;
 FLOAT green;
 FLOAT blue;
 FLOAT alpha;
}

template ColorRGB {
 <d3e16e81-7835-11cf-8f52-0040333594a3>
 FLOAT red;
 FLOAT green;
 FLOAT blue;
}

template Material {
 <3d82ab4d-62da-11cf-ab39-0020af71e433>
 ColorRGBA faceColor;
 FLOAT power;
 ColorRGB specularColor;
 ColorRGB emissiveColor;
 [...]
}

template MeshMaterialList {
 <f6f23f42-7686-11cf-8f52-0040333594a3>
 DWORD nMaterials;
 DWORD nFaceIndexes;
 array DWORD faceIndexes[nFaceIndexes];
 [Material <3d82ab4d-62da-11cf-ab39-0020af71e433>]
}

template TextureFilename {
 <a42790e1-7810-11cf-8f52-0040333594a3>
 STRING filename;
}


Mesh {
 70;
 -1.751200;3.813400;0.000000;,
 -1.979700;3.487000;5.099998;,
 -1.979700;3.487000;0.000000;,
 -1.751200;3.813400;5.099998;,
 -1.469400;4.095200;0.000000;,
 -1.469400;4.095200;5.099998;,
 -1.143000;4.323699;5.099998;,
 -1.143000;4.323699;0.000000;,
 2.148100;3.125900;0.000000;,
 1.979700;3.487000;0.000000;,
 1.990300;3.464400;0.000000;,
 2.148100;3.125900;5.099998;,
 1.979700;3.487000;5.099998;,
 1.751200;3.813400;0.000000;,
 1.751200;3.813400;5.099998;,
 -2.148100;3.125900;0.000000;,
 -2.251300;2.741000;5.099998;,
 -2.251300;2.741000;0.000000;,
 -2.148100;3.125900;5.099998;,
 -2.286000;2.344000;0.000000;,
 -2.257700;2.667000;0.000000;,
 -2.286000;2.344000;5.100000;,
 -2.286000;2.344000;5.099998;,
 2.286000;2.344000;5.100000;,
 2.251300;2.741000;0.000000;,
 2.286000;2.344000;0.000000;,
 2.251300;2.741000;5.099998;,
 2.286000;2.344000;5.099998;,
 0.781900;4.492098;0.000000;,
 0.397000;4.595300;5.099998;,
 0.397000;4.595300;0.000000;,
 0.781900;4.492098;5.099998;,
 1.363100;4.169600;0.000000;,
 1.143000;4.323699;5.099998;,
 1.143000;4.323699;0.000000;,
 1.469400;4.095200;5.099998;,
 1.469400;4.095200;0.000000;,
 -0.781900;4.492098;5.099998;,
 -0.781900;4.492098;0.000000;,
 -0.397000;4.595300;5.099998;,
 -0.397000;4.595300;0.000000;,
 0.000000;4.630000;0.000000;,
 0.000000;4.630000;5.099998;,
 1.658000;3.906600;0.000000;,
 1.632200;3.932400;0.000000;,
 0.000000;4.630000;5.099998;,
 0.000000;4.630000;0.000000;,
 -1.875300;-0.950000;0.000000;,
 1.950300;-0.950000;5.100000;,
 -1.875300;-0.950000;5.100000;,
 -1.733700;-0.950000;0.000000;,
 1.950300;-0.950000;0.000000;,
 -2.286000;2.344000;5.100000;,
 -2.286000;2.343300;0.000000;,
 -2.286000;2.344000;0.000000;,
 -2.198400;0.343100;5.100000;,
 -2.285900;2.342000;0.000000;,
 -2.198400;0.343100;0.000000;,
 -1.875300;-0.950000;0.000000;,
 -1.875300;-0.950000;5.100000;,
 1.950300;-0.950000;5.100000;,
 2.200000;0.343100;0.000000;,
 1.950300;-0.950000;0.000000;,
 2.200000;0.343100;5.100000;,
 2.286000;2.343300;0.000000;,
 2.285900;2.342000;0.000000;,
 2.286000;2.344000;5.100000;,
 2.286000;2.344000;0.000000;,
 2.200000;0.343100;0.000000;,
 2.200000;0.343100;5.100000;;
 58;
 3;0,1,2;,
 3;1,0,3;,
 3;4,3,0;,
 3;3,4,5;,
 3;4,6,5;,
 3;6,4,7;,
 3;8,9,10;,
 3;9,8,11;,
 3;9,11,12;,
 3;12,13,9;,
 3;13,12,14;,
 3;15,16,17;,
 3;16,15,18;,
 3;2,18,15;,
 3;18,2,1;,
 3;17,19,20;,
 3;19,17,21;,
 3;21,17,16;,
 3;21,16,22;,
 3;23,24,25;,
 3;24,23,26;,
 3;26,23,27;,
 3;26,8,24;,
 3;8,26,11;,
 3;28,29,30;,
 3;29,28,31;,
 3;32,33,34;,
 3;33,32,35;,
 3;35,32,36;,
 3;28,33,31;,
 3;33,28,34;,
 3;7,37,6;,
 3;37,7,38;,
 3;38,39,37;,
 3;39,38,40;,
 3;41,29,42;,
 3;29,41,30;,
 3;40,45,39;,
 3;45,40,46;,
 3;43,36,44;,
 3;36,43,13;,
 3;36,13,14;,
 3;36,14,35;,
 3;47,49,48;,
 3;48,50,47;,
 3;48,51,50;,
 3;52,53,54;,
 3;53,52,55;,
 3;56,55,57;,
 3;55,56,53;,
 3;55,58,57;,
 3;58,55,59;,
 3;60,61,62;,
 3;61,60,63;,
 3;68,64,65;,
 3;64,66,67;,
 3;66,64,68;,
 3;66,68,69;;

 MeshNormals {
  70;
  0.766020;-0.642817;0.000000;,
  0.866019;-0.500011;0.000000;,
  0.866019;-0.500011;0.000000;,
  0.766020;-0.642817;0.000000;,
  0.642817;-0.766020;0.000000;,
  0.642817;-0.766020;0.000000;,
  0.500011;-0.866019;0.000000;,
  0.500011;-0.866019;0.000000;,
  -0.939700;-0.342000;0.000000;,
  -0.866019;-0.500011;0.000000;,
  -0.906313;-0.422606;0.000000;,
  -0.939700;-0.342000;0.000000;,
  -0.866019;-0.500011;0.000000;,
  -0.766020;-0.642817;0.000000;,
  -0.766020;-0.642817;0.000000;,
  0.939700;-0.342000;0.000000;,
  0.984816;-0.173603;0.000000;,
  0.984816;-0.173603;0.000000;,
  0.939700;-0.342000;0.000000;,
  0.996191;-0.087199;0.000000;,
  0.996191;-0.087199;0.000000;,
  0.996191;-0.087199;0.000000;,
  0.996191;-0.087199;0.000000;,
  -0.996191;-0.087199;0.000000;,
  -0.984816;-0.173603;0.000000;,
  -0.996191;-0.087199;0.000000;,
  -0.984816;-0.173603;0.000000;,
  -0.996191;-0.087199;0.000000;,
  -0.342000;-0.939700;0.000000;,
  -0.173603;-0.984816;0.000000;,
  -0.173603;-0.984816;0.000000;,
  -0.342000;-0.939700;0.000000;,
  -0.573570;-0.819157;0.000000;,
  -0.500011;-0.866019;0.000000;,
  -0.500011;-0.866019;0.000000;,
  -0.642817;-0.766020;0.000000;,
  -0.642817;-0.766020;0.000000;,
  0.342000;-0.939700;0.000000;,
  0.342000;-0.939700;0.000000;,
  0.173603;-0.984816;0.000000;,
  0.173603;-0.984816;0.000000;,
  -0.087199;-0.996191;0.000000;,
  -0.087199;-0.996191;0.000000;,
  -0.707107;-0.707107;0.000000;,
  -0.707107;-0.707107;0.000000;,
  0.087199;-0.996191;0.000000;,
  0.087199;-0.996191;0.000000;,
  0.000000;1.000000;0.000000;,
  0.000000;1.000000;0.000000;,
  0.000000;1.000000;0.000000;,
  0.000000;1.000000;0.000000;,
  0.000000;1.000000;0.000000;,
  0.999044;0.043702;0.000000;,
  0.999044;0.043702;0.000000;,
  0.999044;0.043702;0.000000;,
  0.989607;0.143801;0.000000;,
  0.999044;0.043702;0.000000;,
  0.989607;0.143801;0.000000;,
  0.970178;0.242394;0.000000;,
  0.970178;0.242394;0.000000;,
  -0.981863;0.189593;0.000000;,
  -0.981863;0.189593;0.000000;,
  -0.981863;0.189593;0.000000;,
  -0.981863;0.189593;0.000000;,
  -0.999079;0.042899;0.000000;,
  -0.999079;0.042899;0.000000;,
  -0.999079;0.042899;0.000000;,
  -0.999079;0.042899;0.000000;,
  -0.999079;0.042899;0.000000;,
  -0.999079;0.042899;0.000000;;
  58;
  3;0,1,2;,
  3;1,0,3;,
  3;4,3,0;,
  3;3,4,5;,
  3;4,6,5;,
  3;6,4,7;,
  3;8,9,10;,
  3;9,8,11;,
  3;9,11,12;,
  3;12,13,9;,
  3;13,12,14;,
  3;15,16,17;,
  3;16,15,18;,
  3;2,18,15;,
  3;18,2,1;,
  3;17,19,20;,
  3;19,17,21;,
  3;21,17,16;,
  3;21,16,22;,
  3;23,24,25;,
  3;24,23,26;,
  3;26,23,27;,
  3;26,8,24;,
  3;8,26,11;,
  3;28,29,30;,
  3;29,28,31;,
  3;32,33,34;,
  3;33,32,35;,
  3;35,32,36;,
  3;28,33,31;,
  3;33,28,34;,
  3;7,37,6;,
  3;37,7,38;,
  3;38,39,37;,
  3;39,38,40;,
  3;41,29,42;,
  3;29,41,30;,
  3;40,45,39;,
  3;45,40,46;,
  3;43,36,44;,
  3;36,43,13;,
  3;36,13,14;,
  3;36,14,35;,
  3;47,49,48;,
  3;48,50,47;,
  3;48,51,50;,
  3;52,53,54;,
  3;53,52,55;,
  3;56,55,57;,
  3;55,56,53;,
  3;55,58,57;,
  3;58,55,59;,
  3;60,61,62;,
  3;61,60,63;,
  3;68,64,65;,
  3;64,66,67;,
  3;66,64,68;,
  3;66,68,69;;
 }

 MeshTextureCoords {
  70;
  0.000000;-0.837600;,
  0.994500;-0.772700;,
  0.000000;-0.772700;,
  0.994500;-0.837600;,
  0.000000;-0.893700;,
  0.994500;-0.893700;,
  0.994500;-0.939100;,
  0.000000;-0.939100;,
  0.000000;-0.700900;,
  0.000000;-0.772700;,
  0.000000;-0.768200;,
  0.994500;-0.700900;,
  0.994500;-0.772700;,
  0.000000;-0.837600;,
  0.994500;-0.837600;,
  0.000000;-0.700900;,
  0.994500;-0.624400;,
  0.000000;-0.624400;,
  0.994500;-0.700900;,
  0.000000;-0.545400;,
  0.000000;-0.609700;,
  0.975000;-0.545400;,
  0.994500;-0.545400;,
  0.975000;-0.545400;,
  0.000000;-0.624400;,
  0.000000;-0.545400;,
  0.994500;-0.624400;,
  0.994500;-0.545400;,
  0.000000;-0.972600;,
  0.994500;-0.993100;,
  0.000000;-0.993100;,
  0.994500;-0.972600;,
  0.000000;-0.908500;,
  0.994500;-0.939100;,
  0.000000;-0.939100;,
  0.994500;-0.893700;,
  0.000000;-0.893700;,
  0.994500;-0.972600;,
  0.000000;-0.972600;,
  0.994500;-0.993100;,
  0.000000;-0.993100;,
  0.000000;-1.000000;,
  0.994500;-1.000000;,
  0.000000;-0.856200;,
  0.000000;-0.861300;,
  0.994500;-1.000000;,
  0.000000;-1.000000;,
  0.000000;0.000000;,
  0.000000;0.000000;,
  0.000000;0.000000;,
  0.000000;0.000000;,
  0.000000;0.000000;,
  1.002400;-0.588400;,
  0.016900;-0.588200;,
  0.016900;-0.588400;,
  1.002200;-0.228400;,
  0.016900;-0.588000;,
  0.016800;-0.228400;,
  0.016200;0.004300;,
  1.001600;0.004300;,
  0.994600;0.004300;,
  0.008700;-0.228400;,
  0.009100;0.004300;,
  0.994100;-0.228400;,
  0.008500;-0.588200;,
  0.008500;-0.588000;,
  0.994000;-0.588400;,
  0.008500;-0.588400;,
  0.008700;-0.228400;,
  0.994100;-0.228400;;
 }

 MeshMaterialList {
  3;
  58;
  0,
  0,
  0,
  0,
  0,
  0,
  0,
  0,
  0,
  0,
  0,
  0,
  0,
  0,
  0,
  0,
  0,
  0,
  0,
  0,
  0,
  0,
  0,
  0,
  0,
  0,
  0,
  0,
  0,
  0,
  0,
  0,
  0,
  0,
  0,
  0,
  0,
  0,
  0,
  0,
  0,
  0,
  0,
  1,
  1,
  1,
  2,
  2,
  2,
  2,
  2,
  2,
  2,
  2,
  2,
  2,
  2,
  2;

  Material {
   0.500000;0.500000;0.500000;1.000000;;
   5.000000;
   0.000000;0.000000;0.000000;;
   0.500000;0.500000;0.500000;;

   TextureFilename {
    "renga01_ent.dds";
   }
  }

  Material {
   0.000000;0.000000;0.000000;1.000000;;
   5.000000;
   0.100000;0.100000;0.100000;;
   0.200000;0.200000;0.200000;;
  }

  Material {
   0.500000;0.500000;0.500000;1.000000;;
   5.000000;
   0.000000;0.000000;0.000000;;
   0.500000;0.500000;0.500000;;

   TextureFilename {
    "conc01_ent.dds";
   }
  }
 }
}