xof 0303txt 0032
Material _ent_conc2_ent_conc_png {
1.0000;1.0000;1.0000;  1.0000;;
5.0000;
0.1000;0.1000;0.1000;;	
0.2000;0.2000;0.2000;;	
   TextureFilename { "conc01a_potal.dds"; }
}
Mesh mesh_0{
31;
4.9335;-1.6757;-0.0000;,
2.2860;-1.3990;-0.0000;,
-4.9335;-1.6757;-0.0000;,
4.9335;6.8260;-0.0000;,
2.2860;-0.9500;-0.0000;,
2.2860;2.3440;0.0000;,
2.2513;2.7410;0.0000;,
2.1481;3.1259;0.0000;,
1.9797;3.4870;0.0000;,
1.7512;3.8134;0.0000;,
1.6322;3.9324;-0.0000;,
1.4694;4.0952;0.0000;,
1.1430;4.3237;0.0000;,
0.7819;4.4921;0.0000;,
0.3970;4.5953;0.0000;,
-0.0000;4.6300;-0.0000;,
-2.2860;-1.3990;-0.0000;,
-4.9335;6.8260;-0.0000;,
-2.2860;-0.9500;-0.0000;,
-2.2860;-0.9490;-0.0000;,
-2.2860;2.3430;0.0000;,
-2.2860;2.3440;0.0000;,
-2.2577;2.6670;-0.0000;,
-2.2513;2.7410;0.0000;,
-2.1481;3.1259;0.0000;,
-1.9797;3.4870;0.0000;,
-1.7512;3.8134;-0.0000;,
-1.4694;4.0952;-0.0000;,
-1.1430;4.3237;0.0000;,
-0.7819;4.4921;0.0000;,
-0.3970;4.5953;0.0000;;
31;
3;2,1,0,
3;3,0,1,
3;4,3,1,
3;5,3,4,
3;6,3,5,
3;7,3,6,
3;8,3,7,
3;9,3,8,
3;10,3,9,
3;11,3,10,
3;12,3,11,
3;13,3,12,
3;14,3,13,
3;15,3,14,
3;17,16,2,
3;1,2,16,
3;18,16,17,
3;19,18,17,
3;20,19,17,
3;21,20,17,
3;22,21,17,
3;23,22,17,
3;24,23,17,
3;25,24,17,
3;26,25,17,
3;27,26,17,
3;28,27,17,
3;29,28,17,
3;30,29,17,
3;15,30,17,
3;3,15,17;;
  MeshMaterialList {
1;
31;
0,
0,
0,
0,
0,
0,
0,
0,
0,
0,
0,
0,
0,
0,
0,
0,
0,
0,
0,
0,
0,
0,
0,
0,
0,
0,
0,
0,
0,
0,
0;
{ _ent_conc2_ent_conc_png }
  }
  MeshTextureCoords {
31;
0.9786,0.0399;
0.7337,0.0095;
0.0660,0.0399;
0.9786,-0.8945;
0.7337,-0.0398;
0.7337,-0.4018;
0.7305,-0.4455;
0.7210,-0.4878;
0.7054,-0.5275;
0.6842,-0.5633;
0.6732,-0.5764;
0.6582,-0.5943;
0.6280,-0.6194;
0.5946,-0.6379;
0.5590,-0.6493;
0.5223,-0.6531;
0.3108,0.0095;
0.0660,-0.8945;
0.3108,-0.0398;
0.3108,-0.0399;
0.3108,-0.4017;
0.3108,-0.4018;
0.3135,-0.4373;
0.3141,-0.4455;
0.3236,-0.4878;
0.3392,-0.5275;
0.3603,-0.5633;
0.3864,-0.5943;
0.4166,-0.6194;
0.4500,-0.6379;
0.4856,-0.6493;
  }
  MeshNormals {
1;
0.0000;0.0000;-1.0000;;
31;
3;0,0,0;
3;0,0,0;
3;0,0,0;
3;0,0,0;
3;0,0,0;
3;0,0,0;
3;0,0,0;
3;0,0,0;
3;0,0,0;
3;0,0,0;
3;0,0,0;
3;0,0,0;
3;0,0,0;
3;0,0,0;
3;0,0,0;
3;0,0,0;
3;0,0,0;
3;0,0,0;
3;0,0,0;
3;0,0,0;
3;0,0,0;
3;0,0,0;
3;0,0,0;
3;0,0,0;
3;0,0,0;
3;0,0,0;
3;0,0,0;
3;0,0,0;
3;0,0,0;
3;0,0,0;
3;0,0,0;;
  }
}
