xof 0303txt 0032
template Vector {
 <3d82ab5e-62da-11cf-ab39-0020af71e433>
 FLOAT x;
 FLOAT y;
 FLOAT z;
}

template MeshFace {
 <3d82ab5f-62da-11cf-ab39-0020af71e433>
 DWORD nFaceVertexIndices;
 array DWORD faceVertexIndices[nFaceVertexIndices];
}

template Mesh {
 <3d82ab44-62da-11cf-ab39-0020af71e433>
 DWORD nVertices;
 array Vector vertices[nVertices];
 DWORD nFaces;
 array MeshFace faces[nFaces];
 [...]
}

template MeshNormals {
 <f6f23f43-7686-11cf-8f52-0040333594a3>
 DWORD nNormals;
 array Vector normals[nNormals];
 DWORD nFaceNormals;
 array MeshFace faceNormals[nFaceNormals];
}

template Coords2d {
 <f6f23f44-7686-11cf-8f52-0040333594a3>
 FLOAT u;
 FLOAT v;
}

template MeshTextureCoords {
 <f6f23f40-7686-11cf-8f52-0040333594a3>
 DWORD nTextureCoords;
 array Coords2d textureCoords[nTextureCoords];
}

template ColorRGBA {
 <35ff44e0-6c7c-11cf-8f52-0040333594a3>
 FLOAT red;
 FLOAT green;
 FLOAT blue;
 FLOAT alpha;
}

template ColorRGB {
 <d3e16e81-7835-11cf-8f52-0040333594a3>
 FLOAT red;
 FLOAT green;
 FLOAT blue;
}

template Material {
 <3d82ab4d-62da-11cf-ab39-0020af71e433>
 ColorRGBA faceColor;
 FLOAT power;
 ColorRGB specularColor;
 ColorRGB emissiveColor;
 [...]
}

template MeshMaterialList {
 <f6f23f42-7686-11cf-8f52-0040333594a3>
 DWORD nMaterials;
 DWORD nFaceIndexes;
 array DWORD faceIndexes[nFaceIndexes];
 [Material <3d82ab4d-62da-11cf-ab39-0020af71e433>]
}

template TextureFilename {
 <a42790e1-7810-11cf-8f52-0040333594a3>
 STRING filename;
}


Mesh {
 64;
 2.286000;-1.399000;5.099999;,
 2.286000;-1.355700;0.000000;,
 2.286000;-1.399000;0.000000;,
 2.286000;-0.950000;0.000000;,
 2.286000;0.497300;0.000000;,
 2.286000;2.343000;0.000000;,
 2.286000;2.344000;0.000000;,
 2.286000;2.344000;5.099999;,
 2.286000;-0.949000;0.000000;,
 -2.286000;-0.950000;0.000000;,
 -2.286000;-1.399000;0.000000;,
 -2.286000;-1.355700;0.000000;,
 -2.286000;-1.399000;5.099999;,
 -2.286000;2.344000;0.000000;,
 -2.286000;2.344000;5.099999;,
 2.286000;2.344000;5.099999;,
 2.251300;2.741000;0.000000;,
 2.286000;2.344000;0.000000;,
 2.251300;2.741000;5.099999;,
 2.148100;3.125900;0.000000;,
 2.148100;3.125900;5.099999;,
 1.658000;3.906600;0.000000;,
 1.469400;4.095200;0.000000;,
 1.632200;3.932400;0.000000;,
 1.751200;3.813400;0.000000;,
 1.751200;3.813400;5.099999;,
 1.469400;4.095200;5.099999;,
 1.979700;3.487000;5.099999;,
 1.979700;3.487000;0.000000;,
 1.363100;4.169600;0.000000;,
 1.143000;4.323699;5.099999;,
 1.143000;4.323699;0.000000;,
 1.990300;3.464400;0.000000;,
 0.781900;4.492099;0.000000;,
 0.397000;4.595300;5.099999;,
 0.397000;4.595300;0.000000;,
 0.781900;4.492099;5.099999;,
 0.000000;4.630000;0.000000;,
 0.000000;4.630000;5.099999;,
 -0.781900;4.492099;0.000000;,
 -0.397000;4.595300;5.099999;,
 -0.781900;4.492099;5.099999;,
 -0.397000;4.595300;0.000000;,
 -1.143000;4.323699;0.000000;,
 -1.143000;4.323699;5.099999;,
 -1.469400;4.095200;0.000000;,
 -1.469400;4.095200;5.099999;,
 -1.751200;3.813400;0.000000;,
 -1.751200;3.813400;5.099999;,
 -1.979700;3.487000;0.000000;,
 -1.979700;3.487000;5.099999;,
 -2.148100;3.125900;0.000000;,
 -2.148100;3.125900;5.099999;,
 -2.251300;2.741000;0.000000;,
 -2.251300;2.741000;5.099999;,
 -2.286000;2.344000;0.000000;,
 -2.257700;2.667000;0.000000;,
 -2.286000;2.344000;5.099999;,
 0.000000;4.630000;5.099999;,
 0.000000;4.630000;0.000000;,
 -2.286000;-1.399000;5.099999;,
 2.286000;-1.399000;5.099999;,
 2.286000;-1.399000;0.000000;,
 -2.286000;-1.399000;0.000000;;
 54;
 3;0,1,2;,
 3;1,0,3;,
 3;3,0,4;,
 3;4,0,5;,
 3;5,0,6;,
 3;6,0,7;,
 3;4,8,3;,
 3;9,10,11;,
 3;10,9,12;,
 3;12,9,13;,
 3;12,13,14;,
 3;15,16,17;,
 3;16,15,18;,
 3;18,19,16;,
 3;19,18,20;,
 3;21,22,23;,
 3;22,21,24;,
 3;22,24,25;,
 3;22,25,26;,
 3;27,24,28;,
 3;24,27,25;,
 3;29,30,31;,
 3;30,29,26;,
 3;26,29,22;,
 3;19,28,32;,
 3;28,19,20;,
 3;28,20,27;,
 3;33,34,35;,
 3;34,33,36;,
 3;37,34,38;,
 3;34,37,35;,
 3;33,30,36;,
 3;30,33,31;,
 3;39,40,41;,
 3;40,39,42;,
 3;42,58,40;,
 3;58,42,59;,
 3;43,41,44;,
 3;41,43,39;,
 3;45,44,46;,
 3;44,45,43;,
 3;46,47,45;,
 3;47,46,48;,
 3;48,49,47;,
 3;49,48,50;,
 3;50,51,49;,
 3;51,50,52;,
 3;52,53,51;,
 3;53,52,54;,
 3;53,55,56;,
 3;55,53,57;,
 3;57,53,54;,
 3;62,63,60;,
 3;60,61,62;;

 MeshNormals {
  64;
  -1.000000;0.000000;0.000000;,
  -1.000000;0.000000;0.000000;,
  -1.000000;0.000000;0.000000;,
  -1.000000;0.000000;0.000000;,
  -1.000000;0.000000;0.000000;,
  -1.000000;0.000000;0.000000;,
  -1.000000;0.000000;0.000000;,
  -1.000000;0.000000;0.000000;,
  -1.000000;0.000000;0.000000;,
  1.000000;0.000000;0.000000;,
  1.000000;0.000000;0.000000;,
  1.000000;0.000000;0.000000;,
  1.000000;0.000000;0.000000;,
  1.000000;0.000000;0.000000;,
  1.000000;0.000000;0.000000;,
  -0.996191;-0.087199;0.000000;,
  -0.984816;-0.173603;0.000000;,
  -0.996191;-0.087199;0.000000;,
  -0.984816;-0.173603;0.000000;,
  -0.939700;-0.342000;0.000000;,
  -0.939700;-0.342000;0.000000;,
  -0.707107;-0.707107;0.000000;,
  -0.642817;-0.766020;0.000000;,
  -0.707107;-0.707107;0.000000;,
  -0.766020;-0.642817;0.000000;,
  -0.766020;-0.642817;0.000000;,
  -0.642817;-0.766020;0.000000;,
  -0.866019;-0.500011;0.000000;,
  -0.866019;-0.500011;0.000000;,
  -0.573570;-0.819157;0.000000;,
  -0.500011;-0.866019;0.000000;,
  -0.500011;-0.866019;0.000000;,
  -0.906313;-0.422606;0.000000;,
  -0.342000;-0.939700;0.000000;,
  -0.173603;-0.984816;0.000000;,
  -0.173603;-0.984816;0.000000;,
  -0.342000;-0.939700;0.000000;,
  -0.087199;-0.996191;0.000000;,
  -0.087199;-0.996191;0.000000;,
  0.342000;-0.939700;0.000000;,
  0.173603;-0.984816;0.000000;,
  0.342000;-0.939700;0.000000;,
  0.173603;-0.984816;0.000000;,
  0.500011;-0.866019;0.000000;,
  0.500011;-0.866019;0.000000;,
  0.642817;-0.766020;0.000000;,
  0.642817;-0.766020;0.000000;,
  0.766020;-0.642817;0.000000;,
  0.766020;-0.642817;0.000000;,
  0.866019;-0.500011;0.000000;,
  0.866019;-0.500011;0.000000;,
  0.939700;-0.342000;0.000000;,
  0.939700;-0.342000;0.000000;,
  0.984816;-0.173603;0.000000;,
  0.984816;-0.173603;0.000000;,
  0.996191;-0.087199;0.000000;,
  0.996191;-0.087199;0.000000;,
  0.996191;-0.087199;0.000000;,
  0.087199;-0.996191;0.000000;,
  0.087199;-0.996191;0.000000;,
  0.000000;1.000000;0.000000;,
  0.000000;1.000000;0.000000;,
  0.000000;1.000000;0.000000;,
  0.000000;1.000000;0.000000;;
  54;
  3;0,1,2;,
  3;1,0,3;,
  3;3,0,4;,
  3;4,0,5;,
  3;5,0,6;,
  3;6,0,7;,
  3;4,8,3;,
  3;9,10,11;,
  3;10,9,12;,
  3;12,9,13;,
  3;12,13,14;,
  3;15,16,17;,
  3;16,15,18;,
  3;18,19,16;,
  3;19,18,20;,
  3;21,22,23;,
  3;22,21,24;,
  3;22,24,25;,
  3;22,25,26;,
  3;27,24,28;,
  3;24,27,25;,
  3;29,30,31;,
  3;30,29,26;,
  3;26,29,22;,
  3;19,28,32;,
  3;28,19,20;,
  3;28,20,27;,
  3;33,34,35;,
  3;34,33,36;,
  3;37,34,38;,
  3;34,37,35;,
  3;33,30,36;,
  3;30,33,31;,
  3;39,40,41;,
  3;40,39,42;,
  3;42,58,40;,
  3;58,42,59;,
  3;43,41,44;,
  3;41,43,39;,
  3;45,44,46;,
  3;44,45,43;,
  3;46,47,45;,
  3;47,46,48;,
  3;48,49,47;,
  3;49,48,50;,
  3;50,51,49;,
  3;51,50,52;,
  3;52,53,51;,
  3;53,52,54;,
  3;53,55,56;,
  3;55,53,57;,
  3;57,53,54;,
  3;62,63,60;,
  3;60,61,62;;
 }

 MeshTextureCoords {
  64;
  1.895900;0.000000;,
  0.000000;-0.007400;,
  0.000000;0.000000;,
  0.000000;-0.076800;,
  0.000000;-0.324500;,
  0.000000;-0.640400;,
  0.000000;-0.640600;,
  1.895900;-0.640600;,
  0.000000;-0.077000;,
  0.000000;-0.076800;,
  0.000000;0.000000;,
  0.000000;-0.007400;,
  -1.895900;0.000000;,
  0.000000;-0.640600;,
  -1.895900;-0.640600;,
  0.994500;-0.545400;,
  0.000000;-0.624400;,
  0.000000;-0.545400;,
  0.994500;-0.624400;,
  0.000000;-0.700900;,
  0.994500;-0.700900;,
  0.000000;-0.856200;,
  0.000000;-0.893700;,
  0.000000;-0.861300;,
  0.000000;-0.837600;,
  0.994500;-0.837600;,
  0.994500;-0.893700;,
  0.994500;-0.772700;,
  0.000000;-0.772700;,
  0.000000;-0.908500;,
  0.994500;-0.939100;,
  0.000000;-0.939100;,
  0.000000;-0.768200;,
  0.000000;-0.972600;,
  0.994500;-0.993100;,
  0.000000;-0.993100;,
  0.994500;-0.972600;,
  0.000000;-1.000000;,
  0.994500;-1.000000;,
  0.000000;-0.972600;,
  0.994500;-0.993100;,
  0.994500;-0.972600;,
  0.000000;-0.993100;,
  0.000000;-0.939100;,
  0.994500;-0.939100;,
  0.000000;-0.893700;,
  0.994500;-0.893700;,
  0.000000;-0.837600;,
  0.994500;-0.837600;,
  0.000000;-0.772700;,
  0.994500;-0.772700;,
  0.000000;-0.700900;,
  0.994500;-0.700900;,
  0.000000;-0.624400;,
  0.994500;-0.624400;,
  0.000000;-0.545400;,
  0.000000;-0.609700;,
  0.994500;-0.545400;,
  0.994500;-1.000000;,
  0.000000;-1.000000;,
  0.000000;0.000000;,
  0.000000;0.000000;,
  0.000000;0.000000;,
  0.000000;0.000000;;
 }

 MeshMaterialList {
  3;
  54;
  0,
  0,
  0,
  0,
  0,
  0,
  0,
  0,
  0,
  0,
  0,
  1,
  1,
  1,
  1,
  1,
  1,
  1,
  1,
  1,
  1,
  1,
  1,
  1,
  1,
  1,
  1,
  1,
  1,
  1,
  1,
  1,
  1,
  1,
  1,
  1,
  1,
  1,
  1,
  1,
  1,
  1,
  1,
  1,
  1,
  1,
  1,
  1,
  1,
  1,
  1,
  1,
  2,
  2;

  Material {
   0.500000;0.500000;0.500000;1.000000;;
   5.000000;
   0.000000;0.000000;0.000000;;
   0.500000;0.500000;0.500000;;

   TextureFilename {
    "conc01_wall.dds";
   }
  }

  Material {
   0.500000;0.500000;0.500000;1.000000;;
   5.000000;
   0.000000;0.000000;0.000000;;
   0.500000;0.500000;0.500000;;

   TextureFilename {
    "renga01_wall.dds";
   }
  }

  Material {
   0.000000;0.000000;0.000000;1.000000;;
   5.000000;
   0.100000;0.100000;0.100000;;
   0.200000;0.200000;0.200000;;
  }
 }
}