xof 0303txt 0032
template Vector {
 <3d82ab5e-62da-11cf-ab39-0020af71e433>
 FLOAT x;
 FLOAT y;
 FLOAT z;
}

template MeshFace {
 <3d82ab5f-62da-11cf-ab39-0020af71e433>
 DWORD nFaceVertexIndices;
 array DWORD faceVertexIndices[nFaceVertexIndices];
}

template Mesh {
 <3d82ab44-62da-11cf-ab39-0020af71e433>
 DWORD nVertices;
 array Vector vertices[nVertices];
 DWORD nFaces;
 array MeshFace faces[nFaces];
 [...]
}

template MeshNormals {
 <f6f23f43-7686-11cf-8f52-0040333594a3>
 DWORD nNormals;
 array Vector normals[nNormals];
 DWORD nFaceNormals;
 array MeshFace faceNormals[nFaceNormals];
}

template Coords2d {
 <f6f23f44-7686-11cf-8f52-0040333594a3>
 FLOAT u;
 FLOAT v;
}

template MeshTextureCoords {
 <f6f23f40-7686-11cf-8f52-0040333594a3>
 DWORD nTextureCoords;
 array Coords2d textureCoords[nTextureCoords];
}

template ColorRGBA {
 <35ff44e0-6c7c-11cf-8f52-0040333594a3>
 FLOAT red;
 FLOAT green;
 FLOAT blue;
 FLOAT alpha;
}

template ColorRGB {
 <d3e16e81-7835-11cf-8f52-0040333594a3>
 FLOAT red;
 FLOAT green;
 FLOAT blue;
}

template Material {
 <3d82ab4d-62da-11cf-ab39-0020af71e433>
 ColorRGBA faceColor;
 FLOAT power;
 ColorRGB specularColor;
 ColorRGB emissiveColor;
 [...]
}

template MeshMaterialList {
 <f6f23f42-7686-11cf-8f52-0040333594a3>
 DWORD nMaterials;
 DWORD nFaceIndexes;
 array DWORD faceIndexes[nFaceIndexes];
 [Material <3d82ab4d-62da-11cf-ab39-0020af71e433>]
}

template TextureFilename {
 <a42790e1-7810-11cf-8f52-0040333594a3>
 STRING filename;
}


Mesh {
 60;
 1.904500;-0.400000;5.099999;,
 -1.905500;-0.400000;0.000000;,
 -1.905500;-0.400000;5.099999;,
 -0.000500;-0.400000;0.000000;,
 1.904500;-0.400000;0.000000;,
 2.438000;2.877000;0.000000;,
 2.394000;3.379500;5.099999;,
 2.394000;3.379500;0.000000;,
 2.438000;2.877000;5.099999;,
 2.438000;2.876600;5.099999;,
 2.438000;2.876600;0.000000;,
 2.324700;1.351100;0.000000;,
 2.324700;1.351100;5.099999;,
 -2.439000;2.877000;5.099999;,
 -2.282000;1.083000;0.000000;,
 -2.439000;2.877000;0.000000;,
 -2.282000;1.083000;5.099999;,
 -1.905500;-0.400000;0.000000;,
 -1.905500;-0.400000;5.099999;,
 1.904500;-0.400000;0.000000;,
 1.904500;-0.400000;5.099999;,
 -2.434800;3.033300;5.099999;,
 -2.434800;3.033300;0.000000;,
 -2.363600;3.533100;5.099999;,
 -2.363600;3.533100;0.000000;,
 -2.206800;4.012899;5.099999;,
 -2.206800;4.012899;0.000000;,
 -1.969000;4.458200;5.099999;,
 -1.969000;4.458200;0.000000;,
 -1.657500;4.855500;5.099999;,
 -1.657500;4.855500;0.000000;,
 -1.281700;5.192599;5.099999;,
 -1.281700;5.192599;0.000000;,
 -1.165900;5.273700;5.099999;,
 -1.165900;5.273700;0.000000;,
 -0.837800;5.448900;5.099999;,
 -0.837800;5.448900;0.000000;,
 -0.484200;5.564400;5.099999;,
 -0.484200;5.564400;0.000000;,
 -0.116000;5.616899;5.099999;,
 -0.116000;5.616899;0.000000;,
 -0.000500;5.612999;5.099999;,
 -0.000500;5.612999;0.000000;,
 0.255800;5.604599;5.099999;,
 0.000000;5.612999;0.000000;,
 0.255800;5.604599;0.000000;,
 0.619800;5.527900;5.099999;,
 0.619800;5.527900;0.000000;,
 0.964900;5.389100;5.099999;,
 0.964900;5.389100;0.000000;,
 1.280700;5.192599;5.099999;,
 1.280700;5.192599;0.000000;,
 1.403500;5.095099;5.099999;,
 1.403500;5.095099;0.000000;,
 1.760500;4.738100;0.000000;,
 1.760500;4.738100;5.099999;,
 2.050000;4.324600;0.000000;,
 2.050000;4.324600;5.099999;,
 2.263400;3.867100;0.000000;,
 2.263400;3.867100;5.099999;;
 56;
 3;0,1,2;,
 3;1,0,3;,
 3;3,0,4;,
 3;5,6,7;,
 3;6,5,8;,
 3;9,5,10;,
 3;5,9,8;,
 3;11,9,10;,
 3;9,11,12;,
 3;13,14,15;,
 3;14,13,16;,
 3;16,17,14;,
 3;17,16,18;,
 3;19,12,11;,
 3;12,19,20;,
 3;21,15,22;,
 3;15,21,13;,
 3;23,22,24;,
 3;22,23,21;,
 3;25,24,26;,
 3;24,25,23;,
 3;27,26,28;,
 3;26,27,25;,
 3;29,28,30;,
 3;28,29,27;,
 3;30,31,29;,
 3;31,30,32;,
 3;32,33,31;,
 3;33,32,34;,
 3;34,35,33;,
 3;35,34,36;,
 3;36,37,35;,
 3;37,36,38;,
 3;38,39,37;,
 3;39,38,40;,
 3;40,41,39;,
 3;41,40,42;,
 3;42,43,41;,
 3;43,42,44;,
 3;43,44,45;,
 3;45,46,43;,
 3;46,45,47;,
 3;47,48,46;,
 3;48,47,49;,
 3;49,50,48;,
 3;50,49,51;,
 3;51,52,50;,
 3;52,51,53;,
 3;54,52,53;,
 3;52,54,55;,
 3;56,55,54;,
 3;55,56,57;,
 3;58,57,56;,
 3;57,58,59;,
 3;7,59,58;,
 3;59,7,6;;

 MeshNormals {
  60;
  0.000000;1.000000;0.000000;,
  0.000000;1.000000;0.000000;,
  0.000000;1.000000;0.000000;,
  0.000000;1.000000;0.000000;,
  0.000000;1.000000;0.000000;,
  -0.996191;-0.087199;0.000000;,
  -0.984816;-0.173603;0.000000;,
  -0.984816;-0.173603;0.000000;,
  -0.996191;-0.087199;0.000000;,
  -0.999978;-0.006600;0.000000;,
  -0.999978;-0.006600;0.000000;,
  -0.988039;0.154206;0.000000;,
  -0.988039;0.154206;0.000000;,
  0.999547;0.030101;0.000000;,
  0.985922;0.167204;0.000000;,
  0.999547;0.030101;0.000000;,
  0.985922;0.167204;0.000000;,
  0.969242;0.246111;0.000000;,
  0.969242;0.246111;0.000000;,
  -0.972405;0.233301;0.000000;,
  -0.972405;0.233301;0.000000;,
  0.996449;-0.084196;0.000000;,
  0.996449;-0.084196;0.000000;,
  0.973966;-0.226692;0.000000;,
  0.973966;-0.226692;0.000000;,
  0.919795;-0.392398;0.000000;,
  0.919795;-0.392398;0.000000;,
  0.837714;-0.546109;0.000000;,
  0.837714;-0.546109;0.000000;,
  0.730120;-0.683319;0.000000;,
  0.730120;-0.683319;0.000000;,
  0.621788;-0.783185;0.000000;,
  0.621788;-0.783185;0.000000;,
  0.523277;-0.852163;0.000000;,
  0.523277;-0.852163;0.000000;,
  0.392398;-0.919795;0.000000;,
  0.392398;-0.919795;0.000000;,
  0.226692;-0.973966;0.000000;,
  0.226692;-0.973966;0.000000;,
  0.054102;-0.998535;0.000000;,
  0.054102;-0.998535;0.000000;,
  -0.033098;-0.999452;0.000000;,
  -0.033098;-0.999452;0.000000;,
  -0.120095;-0.992762;0.000000;,
  -0.033098;-0.999452;0.000000;,
  -0.120095;-0.992762;0.000000;,
  -0.290704;-0.956813;0.000000;,
  -0.290704;-0.956813;0.000000;,
  -0.452406;-0.891812;0.000000;,
  -0.452406;-0.891812;0.000000;,
  -0.576023;-0.817433;0.000000;,
  -0.576023;-0.817433;0.000000;,
  -0.665499;-0.746399;0.000000;,
  -0.665499;-0.746399;0.000000;,
  -0.766020;-0.642817;0.000000;,
  -0.766020;-0.642817;0.000000;,
  -0.866019;-0.500011;0.000000;,
  -0.866019;-0.500011;0.000000;,
  -0.939700;-0.342000;0.000000;,
  -0.939700;-0.342000;0.000000;;
  56;
  3;0,1,2;,
  3;1,0,3;,
  3;3,0,4;,
  3;5,6,7;,
  3;6,5,8;,
  3;9,5,10;,
  3;5,9,8;,
  3;11,9,10;,
  3;9,11,12;,
  3;13,14,15;,
  3;14,13,16;,
  3;16,17,14;,
  3;17,16,18;,
  3;19,12,11;,
  3;12,19,20;,
  3;21,15,22;,
  3;15,21,13;,
  3;23,22,24;,
  3;22,23,21;,
  3;25,24,26;,
  3;24,25,23;,
  3;27,26,28;,
  3;26,27,25;,
  3;29,28,30;,
  3;28,29,27;,
  3;30,31,29;,
  3;31,30,32;,
  3;32,33,31;,
  3;33,32,34;,
  3;34,35,33;,
  3;35,34,36;,
  3;36,37,35;,
  3;37,36,38;,
  3;38,39,37;,
  3;39,38,40;,
  3;40,41,39;,
  3;41,40,42;,
  3;42,43,41;,
  3;43,42,44;,
  3;43,44,45;,
  3;45,46,43;,
  3;46,45,47;,
  3;47,48,46;,
  3;48,47,49;,
  3;49,50,48;,
  3;50,49,51;,
  3;51,52,50;,
  3;52,51,53;,
  3;54,52,53;,
  3;52,54,55;,
  3;56,55,54;,
  3;55,56,57;,
  3;58,57,56;,
  3;57,58,59;,
  3;7,59,58;,
  3;59,7,6;;
 }

 MeshTextureCoords {
  60;
  -0.657700;-1.726800;,
  0.658100;0.000000;,
  0.658100;-1.726800;,
  0.000200;0.000000;,
  -0.657700;0.000000;,
  0.000000;-0.521800;,
  1.002900;-0.601800;,
  0.000000;-0.601800;,
  1.002900;-0.521800;,
  1.002900;-0.521800;,
  0.000000;-0.521800;,
  0.000000;-0.278800;,
  1.002900;-0.278800;,
  1.002900;-0.521800;,
  0.000000;-0.236200;,
  0.000000;-0.521800;,
  1.002900;-0.236200;,
  0.000000;0.000000;,
  1.002900;0.000000;,
  0.000000;0.000000;,
  1.002900;0.000000;,
  1.002900;-0.546700;,
  0.000000;-0.546700;,
  1.002900;-0.626300;,
  0.000000;-0.626300;,
  1.002900;-0.702700;,
  0.000000;-0.702700;,
  1.002900;-0.773600;,
  0.000000;-0.773600;,
  1.002900;-0.836900;,
  0.000000;-0.836900;,
  1.002900;-0.890500;,
  0.000000;-0.890500;,
  1.002900;-0.903400;,
  0.000000;-0.903400;,
  1.002900;-0.931300;,
  0.000000;-0.931300;,
  1.002900;-0.949800;,
  0.000000;-0.949800;,
  1.002900;-0.958100;,
  0.000000;-0.958100;,
  1.002900;-0.957500;,
  0.000000;-0.957500;,
  1.002900;-0.956100;,
  0.000000;-0.957500;,
  0.000000;-0.956100;,
  1.002900;-0.943900;,
  0.000000;-0.943900;,
  1.002900;-0.921800;,
  0.000000;-0.921800;,
  1.002900;-0.890500;,
  0.000000;-0.890500;,
  1.002900;-0.875000;,
  0.000000;-0.875000;,
  0.000000;-0.818200;,
  1.002900;-0.818200;,
  0.000000;-0.752300;,
  1.002900;-0.752300;,
  0.000000;-0.679500;,
  1.002900;-0.679500;;
 }

 MeshMaterialList {
  2;
  56;
  0,
  0,
  0,
  1,
  1,
  1,
  1,
  1,
  1,
  1,
  1,
  1,
  1,
  1,
  1,
  1,
  1,
  1,
  1,
  1,
  1,
  1,
  1,
  1,
  1,
  1,
  1,
  1,
  1,
  1,
  1,
  1,
  1,
  1,
  1,
  1,
  1,
  1,
  1,
  1,
  1,
  1,
  1,
  1,
  1,
  1,
  1,
  1,
  1,
  1,
  1,
  1,
  1,
  1,
  1,
  1;

  Material {
   0.000000;0.000000;0.000000;1.000000;;
   5.000000;
   0.100000;0.100000;0.100000;;
   0.200000;0.200000;0.200000;;
  }

  Material {
   1.000000;1.000000;1.000000;1.000000;;
   5.000000;
   0.100000;0.100000;0.100000;;
   0.200000;0.200000;0.200000;;

   TextureFilename {
    "renga01_ent.png";
   }
  }
 }
}