xof 0303txt 0032
template Vector {
 <3d82ab5e-62da-11cf-ab39-0020af71e433>
 FLOAT x;
 FLOAT y;
 FLOAT z;
}

template MeshFace {
 <3d82ab5f-62da-11cf-ab39-0020af71e433>
 DWORD nFaceVertexIndices;
 array DWORD faceVertexIndices[nFaceVertexIndices];
}

template Mesh {
 <3d82ab44-62da-11cf-ab39-0020af71e433>
 DWORD nVertices;
 array Vector vertices[nVertices];
 DWORD nFaces;
 array MeshFace faces[nFaces];
 [...]
}

template ColorRGBA {
 <35ff44e0-6c7c-11cf-8f52-0040333594a3>
 FLOAT red;
 FLOAT green;
 FLOAT blue;
 FLOAT alpha;
}

template ColorRGB {
 <d3e16e81-7835-11cf-8f52-0040333594a3>
 FLOAT red;
 FLOAT green;
 FLOAT blue;
}

template Material {
 <3d82ab4d-62da-11cf-ab39-0020af71e433>
 ColorRGBA faceColor;
 FLOAT power;
 ColorRGB specularColor;
 ColorRGB emissiveColor;
 [...]
}

template MeshMaterialList {
 <f6f23f42-7686-11cf-8f52-0040333594a3>
 DWORD nMaterials;
 DWORD nFaceIndexes;
 array DWORD faceIndexes[nFaceIndexes];
 [Material <3d82ab4d-62da-11cf-ab39-0020af71e433>]
}

template TextureFilename {
 <a42790e1-7810-11cf-8f52-0040333594a3>
 STRING filename;
}

template Coords2d {
 <f6f23f44-7686-11cf-8f52-0040333594a3>
 FLOAT u;
 FLOAT v;
}

template MeshTextureCoords {
 <f6f23f40-7686-11cf-8f52-0040333594a3>
 DWORD nTextureCoords;
 array Coords2d textureCoords[nTextureCoords];
}

template MeshNormals {
 <f6f23f43-7686-11cf-8f52-0040333594a3>
 DWORD nNormals;
 array Vector normals[nNormals];
 DWORD nFaceNormals;
 array MeshFace faceNormals[nFaceNormals];
}


Mesh  {
 124;
 -1.500000;-0.450000;0.000000;,
 -1.500000;1.100000;0.000000;,
 -2.700000;1.100000;0.000000;,
 -1.500000;-0.450000;25.000000;,
 -1.500000;1.100000;25.000000;,
 -2.700000;1.100000;25.000000;,
 -2.700000;1.100000;0.000000;,
 -6.600000;1.100000;0.000000;,
 -6.600000;1.100000;6.000000;,
 -7.600000;1.100000;7.000000;,
 -2.700000;1.100000;25.000000;,
 -7.600000;1.100000;25.000000;,
 -6.600000;1.100000;6.000000;,
 -6.600000;2.300000;6.000000;,
 -7.600000;1.100000;7.000000;,
 -7.600000;2.300000;7.000000;,
 -7.600000;1.100000;25.000000;,
 -7.600000;2.300000;25.000000;,
 -3.500000;1.100000;6.000000;,
 -3.500000;5.800000;6.000000;,
 -3.200000;5.800000;6.000000;,
 -3.200000;1.100000;6.000000;,
 -6.800000;0.500000;6.000000;,
 -6.800000;5.500000;6.000000;,
 -6.500000;5.500000;6.000000;,
 -6.500000;0.500000;6.000000;,
 -6.800000;5.100000;5.990000;,
 -6.800000;5.400000;5.990000;,
 -2.300000;5.525000;5.990000;,
 -2.300000;5.825000;5.990000;,
 -3.200000;5.440000;-2.000000;,
 -3.200000;5.740000;-2.000000;,
 -3.200000;5.440000;6.000000;,
 -3.200000;5.740000;6.000000;,
 -6.800000;5.100000;-2.000000;,
 -6.800000;5.400000;-2.000000;,
 -6.800000;5.100000;6.000000;,
 -6.800000;5.400000;6.000000;,
 -6.600000;1.100000;-2.000000;,
 -6.600000;4.100000;-2.000000;,
 -6.600000;1.100000;6.000000;,
 -6.600000;4.100000;6.000000;,
 -6.800000;5.400000;-2.000000;,
 -1.500000;5.900000;-2.000000;,
 -6.800000;5.400000;6.000000;,
 -1.500000;5.900000;6.000000;,
 -6.500000;1.050000;-1.000000;,
 -6.500000;2.200000;-1.000000;,
 -6.500000;1.050000;0.500000;,
 -6.500000;2.200000;0.500000;,
 -6.500000;1.100000;1.000000;,
 -6.500000;1.900000;1.000000;,
 -6.500000;1.100000;5.000000;,
 -6.500000;1.900000;5.000000;,
 9.900000;-0.450000;0.000000;,
 9.900000;1.100000;0.000000;,
 11.100000;1.100000;0.000000;,
 9.900000;-0.450000;25.000000;,
 9.900000;1.100000;25.000000;,
 11.100000;1.100000;25.000000;,
 11.100000;1.100000;0.000000;,
 16.900000;1.100000;0.000000;,
 16.900000;1.100000;21.000000;,
 11.100000;1.100000;25.000000;,
 15.900000;1.100000;25.000000;,
 16.900000;1.100000;0.000000;,
 16.900000;2.300000;0.000000;,
 16.900000;1.100000;21.000000;,
 16.900000;2.300000;21.000000;,
 15.900000;1.100000;25.000000;,
 15.900000;2.300000;25.000000;,
 11.850000;1.100000;-9.000000;,
 11.850000;4.500000;-9.000000;,
 12.150000;1.100000;-9.000000;,
 12.150000;4.500000;-9.000000;,
 11.850000;1.100000;-1.000000;,
 11.850000;4.500000;-1.000000;,
 12.150000;1.100000;-1.000000;,
 12.150000;4.500000;-1.000000;,
 11.850000;1.100000;7.000000;,
 11.850000;4.500000;7.000000;,
 12.150000;1.100000;7.000000;,
 12.150000;4.500000;7.000000;,
 9.900000;4.500000;-9.010000;,
 9.900000;4.800000;-9.010000;,
 12.000000;4.200000;-9.010000;,
 12.000000;4.500000;-9.010000;,
 14.100000;4.500000;-9.010000;,
 14.100000;4.800000;-9.010000;,
 9.900000;4.500000;-1.010000;,
 9.900000;4.800000;-1.010000;,
 12.000000;4.200000;-1.010000;,
 12.000000;4.500000;-1.010000;,
 14.100000;4.500000;-1.010000;,
 14.100000;4.800000;-1.010000;,
 9.900000;4.500000;6.990000;,
 9.900000;4.800000;6.990000;,
 12.000000;4.200000;6.990000;,
 12.000000;4.500000;6.990000;,
 14.100000;4.500000;6.990000;,
 14.100000;4.800000;6.990000;,
 9.900000;4.800000;-10.000000;,
 9.900000;4.800000;8.000000;,
 12.000000;4.500000;-10.000000;,
 12.000000;4.500000;8.000000;,
 14.100000;4.800000;-10.000000;,
 14.100000;4.800000;8.000000;,
 14.100000;4.300000;-10.000000;,
 14.100000;4.300000;8.000000;,
 9.900000;4.300000;-10.000000;,
 9.900000;4.300000;8.000000;,
 9.900000;4.800000;-10.000000;,
 9.900000;4.800000;8.000000;,
 9.900000;4.700000;-10.000000;,
 13.400000;5.900000;-10.000000;,
 16.900000;4.700000;-10.000000;,
 13.000000;1.100000;-8.000000;,
 13.000000;4.000000;-8.000000;,
 12.000000;1.100000;-2.000000;,
 12.000000;4.000000;-2.000000;,
 12.000000;1.100000;0.000000;,
 12.000000;1.900000;0.000000;,
 12.000000;1.100000;5.000000;,
 12.000000;1.900000;5.000000;;
 72;
 3;0,1,4;,
 3;0,4,3;,
 3;1,2,5;,
 3;1,5,4;,
 3;6,7,8;,
 3;8,9,11;,
 3;8,11,10;,
 3;8,10,6;,
 3;12,13,15;,
 3;12,15,14;,
 3;14,15,17;,
 3;14,17,16;,
 3;18,19,20;,
 3;18,20,21;,
 3;22,23,24;,
 3;22,24,25;,
 3;26,27,29;,
 3;26,29,28;,
 3;30,31,33;,
 3;30,33,32;,
 3;34,35,37;,
 3;34,37,36;,
 3;38,39,41;,
 3;38,41,40;,
 3;42,43,45;,
 3;42,45,44;,
 3;46,47,49;,
 3;46,49,48;,
 3;50,51,53;,
 3;50,53,52;,
 3;57,58,55;,
 3;57,55,54;,
 3;58,59,56;,
 3;58,56,55;,
 3;60,63,64;,
 3;60,64,62;,
 3;60,62,61;,
 3;67,68,66;,
 3;67,66,65;,
 3;69,70,68;,
 3;69,68,67;,
 3;71,72,74;,
 3;71,74,73;,
 3;75,76,78;,
 3;75,78,77;,
 3;79,80,82;,
 3;79,82,81;,
 3;83,84,86;,
 3;83,86,85;,
 3;85,86,88;,
 3;85,88,87;,
 3;89,90,92;,
 3;89,92,91;,
 3;91,92,94;,
 3;91,94,93;,
 3;95,96,98;,
 3;95,98,97;,
 3;97,98,100;,
 3;97,100,99;,
 3;103,104,102;,
 3;103,102,101;,
 3;105,106,104;,
 3;105,104,103;,
 3;107,108,106;,
 3;107,106,105;,
 3;109,110,112;,
 3;109,112,111;,
 3;113,114,115;,
 3;118,119,117;,
 3;118,117,116;,
 3;122,123,121;,
 3;122,121,120;;

 MeshMaterialList  {
  26;
  72;
  0,
  0,
  0,
  0,
  1,
  1,
  1,
  1,
  2,
  2,
  2,
  2,
  3,
  3,
  4,
  4,
  5,
  5,
  6,
  6,
  7,
  7,
  8,
  8,
  9,
  9,
  10,
  10,
  11,
  11,
  12,
  12,
  12,
  12,
  13,
  13,
  13,
  14,
  14,
  14,
  14,
  15,
  15,
  16,
  16,
  17,
  17,
  18,
  18,
  18,
  18,
  19,
  19,
  19,
  19,
  20,
  20,
  20,
  20,
  21,
  21,
  21,
  21,
  21,
  21,
  22,
  22,
  23,
  24,
  24,
  25,
  25;

  Material  {
   1.000000;1.000000;1.000000;1.000000;;
   0.000000;
   0.000000;0.000000;0.000000;;
   0.000000;0.000000;0.000000;;

   TextureFilename  {
    "FormSide2.png";
   }
  }

  Material  {
   1.000000;1.000000;1.000000;1.000000;;
   0.000000;
   0.000000;0.000000;0.000000;;
   0.000000;0.000000;0.000000;;

   TextureFilename  {
    "FormC.png";
   }
  }

  Material  {
   1.000000;1.000000;1.000000;1.000000;;
   0.000000;
   0.000000;0.000000;0.000000;;
   0.000000;0.000000;0.000000;;

   TextureFilename  {
    "Saku1.png";
   }
  }

  Material  {
   1.000000;1.000000;1.000000;1.000000;;
   0.000000;
   0.000000;0.000000;0.000000;;
   0.000000;0.000000;0.000000;;

   TextureFilename  {
    "Iron4.png";
   }
  }

  Material  {
   1.000000;1.000000;1.000000;1.000000;;
   0.000000;
   0.000000;0.000000;0.000000;;
   0.000000;0.000000;0.000000;;

   TextureFilename  {
    "Iron4.png";
   }
  }

  Material  {
   1.000000;1.000000;1.000000;1.000000;;
   0.000000;
   0.000000;0.000000;0.000000;;
   0.000000;0.000000;0.000000;;

   TextureFilename  {
    "Iron5.png";
   }
  }

  Material  {
   1.000000;1.000000;1.000000;1.000000;;
   0.000000;
   0.000000;0.000000;0.000000;;
   0.000000;0.000000;0.000000;;

   TextureFilename  {
    "Iron5.png";
   }
  }

  Material  {
   1.000000;1.000000;1.000000;1.000000;;
   0.000000;
   0.000000;0.000000;0.000000;;
   0.000000;0.000000;0.000000;;

   TextureFilename  {
    "Iron5.png";
   }
  }

  Material  {
   1.000000;1.000000;1.000000;1.000000;;
   0.000000;
   0.000000;0.000000;0.000000;;
   0.000000;0.000000;0.000000;;

   TextureFilename  {
    "Wall3.png";
   }
  }

  Material  {
   1.000000;1.000000;1.000000;1.000000;;
   0.000000;
   0.000000;0.000000;0.000000;;
   0.000000;0.000000;0.000000;;

   TextureFilename  {
    "Roof5.png";
   }
  }

  Material  {
   1.000000;1.000000;1.000000;1.000000;;
   0.000000;
   0.000000;0.000000;0.000000;;
   0.000000;0.000000;0.000000;;

   TextureFilename  {
    "DustBox.png";
   }
  }

  Material  {
   1.000000;1.000000;1.000000;1.000000;;
   0.000000;
   0.000000;0.000000;0.000000;;
   0.000000;0.000000;0.000000;;

   TextureFilename  {
    "Bench2.png";
   }
  }

  Material  {
   1.000000;1.000000;1.000000;1.000000;;
   0.000000;
   0.000000;0.000000;0.000000;;
   0.000000;0.000000;0.000000;;

   TextureFilename  {
    "FormSide2.png";
   }
  }

  Material  {
   1.000000;1.000000;1.000000;1.000000;;
   0.000000;
   0.000000;0.000000;0.000000;;
   0.000000;0.000000;0.000000;;

   TextureFilename  {
    "FormC.png";
   }
  }

  Material  {
   1.000000;1.000000;1.000000;1.000000;;
   0.000000;
   0.000000;0.000000;0.000000;;
   0.000000;0.000000;0.000000;;

   TextureFilename  {
    "Saku1.png";
   }
  }

  Material  {
   1.000000;1.000000;1.000000;1.000000;;
   0.000000;
   0.000000;0.000000;0.000000;;
   0.000000;0.000000;0.000000;;

   TextureFilename  {
    "Iron4.png";
   }
  }

  Material  {
   1.000000;1.000000;1.000000;1.000000;;
   0.000000;
   0.000000;0.000000;0.000000;;
   0.000000;0.000000;0.000000;;

   TextureFilename  {
    "Iron4.png";
   }
  }

  Material  {
   1.000000;1.000000;1.000000;1.000000;;
   0.000000;
   0.000000;0.000000;0.000000;;
   0.000000;0.000000;0.000000;;

   TextureFilename  {
    "Iron4.png";
   }
  }

  Material  {
   1.000000;1.000000;1.000000;1.000000;;
   0.000000;
   0.000000;0.000000;0.000000;;
   0.000000;0.000000;0.000000;;

   TextureFilename  {
    "Iron5.png";
   }
  }

  Material  {
   1.000000;1.000000;1.000000;1.000000;;
   0.000000;
   0.000000;0.000000;0.000000;;
   0.000000;0.000000;0.000000;;

   TextureFilename  {
    "Iron5.png";
   }
  }

  Material  {
   1.000000;1.000000;1.000000;1.000000;;
   0.000000;
   0.000000;0.000000;0.000000;;
   0.000000;0.000000;0.000000;;

   TextureFilename  {
    "Iron5.png";
   }
  }

  Material  {
   1.000000;1.000000;1.000000;1.000000;;
   0.000000;
   0.000000;0.000000;0.000000;;
   0.000000;0.000000;0.000000;;

   TextureFilename  {
    "Roof4.png";
   }
  }

  Material  {
   1.000000;1.000000;1.000000;1.000000;;
   0.000000;
   0.000000;0.000000;0.000000;;
   0.000000;0.000000;0.000000;;

   TextureFilename  {
    "Roof10.png";
   }
  }

  Material  {
   1.000000;1.000000;1.000000;1.000000;;
   0.000000;
   0.000000;0.000000;0.000000;;
   0.000000;0.000000;0.000000;;

   TextureFilename  {
    "Kosen_Wall2.png";
   }
  }

  Material  {
   1.000000;1.000000;1.000000;1.000000;;
   0.000000;
   0.000000;0.000000;0.000000;;
   0.000000;0.000000;0.000000;;

   TextureFilename  {
    "Bench3.png";
   }
  }

  Material  {
   1.000000;1.000000;1.000000;1.000000;;
   0.000000;
   0.000000;0.000000;0.000000;;
   0.000000;0.000000;0.000000;;

   TextureFilename  {
    "Bench1.png";
   }
  }
 }

 MeshTextureCoords  {
  124;
  0.000000;1.000000;,
  0.000000;0.350000;,
  0.000000;0.000000;,
  3.000000;1.000000;,
  3.000000;0.350000;,
  3.000000;0.000000;,
  1.000000;0.000000;,
  0.264000;0.000000;,
  0.264000;0.240000;,
  0.075000;0.280000;,
  1.000000;1.000000;,
  0.075000;1.000000;,
  0.000000;1.000000;,
  0.000000;0.000000;,
  0.400000;1.000000;,
  0.400000;0.000000;,
  7.600000;1.000000;,
  7.600000;0.000000;,
  0.000000;1.000000;,
  0.000000;0.000000;,
  1.000000;0.000000;,
  1.000000;1.000000;,
  0.000000;0.500000;,
  0.000000;0.000000;,
  1.000000;0.000000;,
  1.000000;0.500000;,
  0.000000;1.000000;,
  0.000000;0.000000;,
  1.000000;1.000000;,
  1.000000;0.000000;,
  0.000000;1.000000;,
  0.000000;0.000000;,
  0.250000;1.000000;,
  0.250000;0.000000;,
  0.000000;1.000000;,
  0.000000;0.000000;,
  0.250000;1.000000;,
  0.250000;0.000000;,
  0.000000;1.000000;,
  0.000000;0.000000;,
  0.250000;1.000000;,
  0.250000;0.000000;,
  0.000000;0.000000;,
  1.000000;0.000000;,
  0.000000;2.500000;,
  1.000000;2.500000;,
  0.000000;1.000000;,
  0.000000;0.000000;,
  1.000000;1.000000;,
  1.000000;0.000000;,
  2.000000;1.000000;,
  2.000000;0.000000;,
  0.000000;1.000000;,
  0.000000;0.000000;,
  0.000000;1.000000;,
  0.000000;0.350000;,
  0.000000;0.000000;,
  3.000000;1.000000;,
  3.000000;0.350000;,
  3.000000;0.000000;,
  1.000000;0.000000;,
  0.000000;0.000000;,
  0.000000;0.840000;,
  1.000000;1.000000;,
  0.170000;1.000000;,
  0.000000;1.000000;,
  0.000000;0.000000;,
  8.400000;1.000000;,
  8.400000;0.000000;,
  10.000000;1.000000;,
  10.000000;0.000000;,
  1.000000;0.500000;,
  1.000000;0.000000;,
  0.000000;0.500000;,
  0.000000;0.000000;,
  1.000000;0.500000;,
  1.000000;0.000000;,
  0.000000;0.500000;,
  0.000000;0.000000;,
  1.000000;0.500000;,
  1.000000;0.000000;,
  0.000000;0.500000;,
  0.000000;0.000000;,
  1.000000;1.000000;,
  1.000000;0.000000;,
  0.500000;1.000000;,
  0.500000;0.000000;,
  0.000000;1.000000;,
  0.000000;0.000000;,
  1.000000;1.000000;,
  1.000000;0.000000;,
  0.500000;1.000000;,
  0.500000;0.000000;,
  0.000000;1.000000;,
  0.000000;0.000000;,
  1.000000;1.000000;,
  1.000000;0.000000;,
  0.500000;1.000000;,
  0.500000;0.000000;,
  0.000000;1.000000;,
  0.000000;0.000000;,
  5.000000;7.000000;,
  5.000000;0.000000;,
  2.900000;7.000000;,
  2.900000;0.000000;,
  1.200000;7.000000;,
  1.200000;0.000000;,
  0.500000;7.000000;,
  0.500000;0.000000;,
  0.000000;1.000000;,
  7.000000;1.000000;,
  0.000000;0.000000;,
  7.000000;0.000000;,
  0.000000;0.600000;,
  0.500000;0.400000;,
  1.000000;0.600000;,
  0.000000;1.000000;,
  0.000000;0.000000;,
  1.000000;1.000000;,
  1.000000;0.000000;,
  0.000000;1.000000;,
  0.000000;0.000000;,
  2.000000;1.000000;,
  2.000000;0.000000;;
 }

 MeshNormals  {
  72;
  1.000000;0.000000;0.000000;,
  1.000000;0.000000;0.000000;,
  0.000000;1.000000;0.000000;,
  0.000000;1.000000;0.000000;,
  0.000000;1.000000;0.000000;,
  0.000000;1.000000;0.000000;,
  0.000000;1.000000;0.000000;,
  0.000000;1.000000;0.000000;,
  0.707107;0.000000;0.707107;,
  0.707107;0.000000;0.707107;,
  1.000000;0.000000;0.000000;,
  1.000000;0.000000;0.000000;,
  0.000000;0.000000;-1.000000;,
  0.000000;0.000000;-1.000000;,
  0.000000;0.000000;-1.000000;,
  0.000000;0.000000;-1.000000;,
  0.000000;0.000000;-1.000000;,
  0.000000;0.000000;-1.000000;,
  1.000000;0.000000;0.000000;,
  1.000000;0.000000;0.000000;,
  1.000000;0.000000;0.000000;,
  1.000000;0.000000;0.000000;,
  1.000000;0.000000;0.000000;,
  1.000000;0.000000;0.000000;,
  0.093923;-0.995580;0.000000;,
  0.093923;-0.995580;0.000000;,
  1.000000;0.000000;0.000000;,
  1.000000;0.000000;0.000000;,
  1.000000;0.000000;0.000000;,
  1.000000;0.000000;0.000000;,
  -1.000000;0.000000;0.000000;,
  -1.000000;0.000000;0.000000;,
  0.000000;1.000000;0.000000;,
  0.000000;1.000000;0.000000;,
  0.000000;1.000000;0.000000;,
  0.000000;1.000000;0.000000;,
  0.000000;1.000000;0.000000;,
  -1.000000;0.000000;0.000000;,
  -1.000000;0.000000;0.000000;,
  -0.970142;0.000000;-0.242536;,
  -0.970142;0.000000;-0.242536;,
  0.000000;0.000000;-1.000000;,
  0.000000;0.000000;-1.000000;,
  0.000000;0.000000;-1.000000;,
  0.000000;0.000000;-1.000000;,
  0.000000;0.000000;-1.000000;,
  0.000000;0.000000;-1.000000;,
  0.000000;0.000000;-1.000000;,
  0.000000;0.000000;-1.000000;,
  0.000000;0.000000;-1.000000;,
  0.000000;0.000000;-1.000000;,
  0.000000;0.000000;-1.000000;,
  0.000000;0.000000;-1.000000;,
  0.000000;0.000000;-1.000000;,
  0.000000;0.000000;-1.000000;,
  0.000000;0.000000;-1.000000;,
  0.000000;0.000000;-1.000000;,
  0.000000;0.000000;-1.000000;,
  0.000000;0.000000;-1.000000;,
  -0.141421;-0.989949;0.000000;,
  -0.141421;-0.989949;0.000000;,
  0.141421;-0.989949;0.000000;,
  0.141421;-0.989949;0.000000;,
  -1.000000;0.000000;0.000000;,
  -1.000000;0.000000;0.000000;,
  -1.000000;0.000000;0.000000;,
  -1.000000;0.000000;0.000000;,
  0.000000;0.000000;-1.000000;,
  -0.986394;0.000000;-0.164399;,
  -0.986394;0.000000;-0.164399;,
  -1.000000;0.000000;0.000000;,
  -1.000000;0.000000;0.000000;;
  72;
  3;0,0,0;,
  3;1,1,1;,
  3;2,2,2;,
  3;3,3,3;,
  3;4,4,4;,
  3;5,5,5;,
  3;6,6,6;,
  3;7,7,7;,
  3;8,8,8;,
  3;9,9,9;,
  3;10,10,10;,
  3;11,11,11;,
  3;12,12,12;,
  3;13,13,13;,
  3;14,14,14;,
  3;15,15,15;,
  3;16,16,16;,
  3;17,17,17;,
  3;18,18,18;,
  3;19,19,19;,
  3;20,20,20;,
  3;21,21,21;,
  3;22,22,22;,
  3;23,23,23;,
  3;24,24,24;,
  3;25,25,25;,
  3;26,26,26;,
  3;27,27,27;,
  3;28,28,28;,
  3;29,29,29;,
  3;30,30,30;,
  3;31,31,31;,
  3;32,32,32;,
  3;33,33,33;,
  3;34,34,34;,
  3;35,35,35;,
  3;36,36,36;,
  3;37,37,37;,
  3;38,38,38;,
  3;39,39,39;,
  3;40,40,40;,
  3;41,41,41;,
  3;42,42,42;,
  3;43,43,43;,
  3;44,44,44;,
  3;45,45,45;,
  3;46,46,46;,
  3;47,47,47;,
  3;48,48,48;,
  3;49,49,49;,
  3;50,50,50;,
  3;51,51,51;,
  3;52,52,52;,
  3;53,53,53;,
  3;54,54,54;,
  3;55,55,55;,
  3;56,56,56;,
  3;57,57,57;,
  3;58,58,58;,
  3;59,59,59;,
  3;60,60,60;,
  3;61,61,61;,
  3;62,62,62;,
  3;63,63,63;,
  3;64,64,64;,
  3;65,65,65;,
  3;66,66,66;,
  3;67,67,67;,
  3;68,68,68;,
  3;69,69,69;,
  3;70,70,70;,
  3;71,71,71;;
 }
}