xof 0303txt 0032
template Vector {
 <3d82ab5e-62da-11cf-ab39-0020af71e433>
 FLOAT x;
 FLOAT y;
 FLOAT z;
}

template MeshFace {
 <3d82ab5f-62da-11cf-ab39-0020af71e433>
 DWORD nFaceVertexIndices;
 array DWORD faceVertexIndices[nFaceVertexIndices];
}

template Mesh {
 <3d82ab44-62da-11cf-ab39-0020af71e433>
 DWORD nVertices;
 array Vector vertices[nVertices];
 DWORD nFaces;
 array MeshFace faces[nFaces];
 [...]
}

template ColorRGBA {
 <35ff44e0-6c7c-11cf-8f52-0040333594a3>
 FLOAT red;
 FLOAT green;
 FLOAT blue;
 FLOAT alpha;
}

template ColorRGB {
 <d3e16e81-7835-11cf-8f52-0040333594a3>
 FLOAT red;
 FLOAT green;
 FLOAT blue;
}

template Material {
 <3d82ab4d-62da-11cf-ab39-0020af71e433>
 ColorRGBA faceColor;
 FLOAT power;
 ColorRGB specularColor;
 ColorRGB emissiveColor;
 [...]
}

template MeshMaterialList {
 <f6f23f42-7686-11cf-8f52-0040333594a3>
 DWORD nMaterials;
 DWORD nFaceIndexes;
 array DWORD faceIndexes[nFaceIndexes];
 [Material <3d82ab4d-62da-11cf-ab39-0020af71e433>]
}

template TextureFilename {
 <a42790e1-7810-11cf-8f52-0040333594a3>
 STRING filename;
}

template Coords2d {
 <f6f23f44-7686-11cf-8f52-0040333594a3>
 FLOAT u;
 FLOAT v;
}

template MeshTextureCoords {
 <f6f23f40-7686-11cf-8f52-0040333594a3>
 DWORD nTextureCoords;
 array Coords2d textureCoords[nTextureCoords];
}

template MeshNormals {
 <f6f23f43-7686-11cf-8f52-0040333594a3>
 DWORD nNormals;
 array Vector normals[nNormals];
 DWORD nFaceNormals;
 array MeshFace faceNormals[nFaceNormals];
}


Mesh  {
 67;
 -1.500000;-0.450000;0.000000;,
 -1.500000;0.850000;0.000000;,
 -1.500000;-0.450000;25.000000;,
 -1.500000;0.850000;25.000000;,
 -1.500000;-0.450000;31.000000;,
 -1.500000;0.850000;0.000000;,
 -1.500000;1.100000;0.000000;,
 -1.500000;0.850000;8.000000;,
 -1.500000;1.100000;0.000000;,
 -2.700000;1.100000;0.000000;,
 -1.500000;0.850000;8.000000;,
 -2.700000;0.850000;8.000000;,
 -1.500000;0.850000;8.000000;,
 -3.200000;0.850000;8.000000;,
 -1.500000;0.850000;25.000000;,
 -3.200000;0.850000;25.000000;,
 -2.700000;1.100000;0.000000;,
 -6.800000;1.100000;0.000000;,
 -2.700000;0.850000;8.000000;,
 -6.340000;0.850000;8.000000;,
 -3.200000;0.850000;8.000000;,
 -6.340000;0.850000;8.000000;,
 -3.200000;0.850000;25.000000;,
 -5.194000;0.850000;25.000000;,
 -1.500000;0.850000;25.000000;,
 -5.194000;0.850000;25.000000;,
 -1.500000;-0.450000;31.000000;,
 -4.790000;-0.450000;31.000000;,
 -6.800000;1.100000;0.000000;,
 -6.800000;2.300000;0.000000;,
 -6.340000;0.850000;8.000000;,
 -6.340000;2.050000;8.000000;,
 -5.194000;0.850000;25.000000;,
 -5.194000;2.050000;25.000000;,
 -2.100000;0.850000;25.000000;,
 -2.100000;2.050000;25.000000;,
 9.900000;-0.450000;0.000000;,
 9.900000;0.850000;0.000000;,
 9.900000;-0.450000;25.000000;,
 9.900000;0.850000;25.000000;,
 9.900000;0.850000;0.000000;,
 9.900000;1.100000;0.000000;,
 9.900000;0.850000;8.000000;,
 9.900000;1.100000;0.000000;,
 11.100000;1.100000;0.000000;,
 9.900000;0.850000;8.000000;,
 11.100000;0.850000;8.000000;,
 9.900000;0.850000;8.000000;,
 11.600000;0.850000;8.000000;,
 9.900000;0.850000;25.000000;,
 11.600000;0.850000;25.000000;,
 11.100000;1.100000;0.000000;,
 14.650000;1.100000;0.000000;,
 11.100000;0.850000;8.000000;,
 14.122000;0.850000;8.000000;,
 11.600000;0.850000;8.000000;,
 14.122000;0.850000;8.000000;,
 11.600000;0.850000;25.000000;,
 13.000000;0.850000;25.000000;,
 14.650000;1.100000;0.000000;,
 14.650000;2.300000;0.000000;,
 14.122000;0.850000;8.000000;,
 14.122000;2.050000;8.000000;,
 13.000000;0.850000;25.000000;,
 13.000000;2.050000;25.000000;,
 10.500000;0.850000;25.000000;,
 10.500000;2.050000;25.000000;;
 37;
 3;0,1,3;,
 3;0,3,4;,
 3;0,4,2;,
 3;5,6,7;,
 3;8,9,11;,
 3;8,11,10;,
 3;12,13,15;,
 3;12,15,14;,
 3;16,17,19;,
 3;16,19,18;,
 3;20,21,23;,
 3;20,23,22;,
 3;24,25,27;,
 3;24,27,26;,
 3;28,29,31;,
 3;28,31,30;,
 3;30,31,33;,
 3;30,33,32;,
 3;32,33,35;,
 3;32,35,34;,
 3;38,39,37;,
 3;38,37,36;,
 3;42,41,40;,
 3;45,46,44;,
 3;45,44,43;,
 3;49,50,48;,
 3;49,48,47;,
 3;53,54,52;,
 3;53,52,51;,
 3;57,58,56;,
 3;57,56,55;,
 3;61,62,60;,
 3;61,60,59;,
 3;63,64,62;,
 3;63,62,61;,
 3;65,66,64;,
 3;65,64,63;;

 MeshMaterialList  {
  15;
  37;
  0,
  0,
  0,
  1,
  2,
  2,
  3,
  3,
  4,
  4,
  5,
  5,
  6,
  6,
  7,
  7,
  7,
  7,
  7,
  7,
  8,
  8,
  9,
  10,
  10,
  11,
  11,
  12,
  12,
  13,
  13,
  14,
  14,
  14,
  14,
  14,
  14;

  Material  {
   1.000000;1.000000;1.000000;1.000000;;
   0.000000;
   0.000000;0.000000;0.000000;;
   0.000000;0.000000;0.000000;;

   TextureFilename  {
    "FormSide4.png";
   }
  }

  Material  {
   1.000000;1.000000;1.000000;1.000000;;
   0.000000;
   0.000000;0.000000;0.000000;;
   0.000000;0.000000;0.000000;;

   TextureFilename  {
    "FormSide4.png";
   }
  }

  Material  {
   1.000000;1.000000;1.000000;1.000000;;
   0.000000;
   0.000000;0.000000;0.000000;;
   0.000000;0.000000;0.000000;;

   TextureFilename  {
    "FormSide4.png";
   }
  }

  Material  {
   1.000000;1.000000;1.000000;1.000000;;
   0.000000;
   0.000000;0.000000;0.000000;;
   0.000000;0.000000;0.000000;;

   TextureFilename  {
    "FormSide3.png";
   }
  }

  Material  {
   1.000000;1.000000;1.000000;1.000000;;
   0.000000;
   0.000000;0.000000;0.000000;;
   0.000000;0.000000;0.000000;;

   TextureFilename  {
    "FormC.png";
   }
  }

  Material  {
   1.000000;1.000000;1.000000;1.000000;;
   0.000000;
   0.000000;0.000000;0.000000;;
   0.000000;0.000000;0.000000;;

   TextureFilename  {
    "FormSide3.png";
   }
  }

  Material  {
   1.000000;1.000000;1.000000;1.000000;;
   0.000000;
   0.000000;0.000000;0.000000;;
   0.000000;0.000000;0.000000;;

   TextureFilename  {
    "FormSide3.png";
   }
  }

  Material  {
   1.000000;1.000000;1.000000;1.000000;;
   0.000000;
   0.000000;0.000000;0.000000;;
   0.000000;0.000000;0.000000;;

   TextureFilename  {
    "Saku1.png";
   }
  }

  Material  {
   1.000000;1.000000;1.000000;1.000000;;
   0.000000;
   0.000000;0.000000;0.000000;;
   0.000000;0.000000;0.000000;;

   TextureFilename  {
    "FormSide4.png";
   }
  }

  Material  {
   1.000000;1.000000;1.000000;1.000000;;
   0.000000;
   0.000000;0.000000;0.000000;;
   0.000000;0.000000;0.000000;;

   TextureFilename  {
    "FormSide4.png";
   }
  }

  Material  {
   1.000000;1.000000;1.000000;1.000000;;
   0.000000;
   0.000000;0.000000;0.000000;;
   0.000000;0.000000;0.000000;;

   TextureFilename  {
    "FormSide4.png";
   }
  }

  Material  {
   1.000000;1.000000;1.000000;1.000000;;
   0.000000;
   0.000000;0.000000;0.000000;;
   0.000000;0.000000;0.000000;;

   TextureFilename  {
    "FormSide3.png";
   }
  }

  Material  {
   1.000000;1.000000;1.000000;1.000000;;
   0.000000;
   0.000000;0.000000;0.000000;;
   0.000000;0.000000;0.000000;;

   TextureFilename  {
    "FormC.png";
   }
  }

  Material  {
   1.000000;1.000000;1.000000;1.000000;;
   0.000000;
   0.000000;0.000000;0.000000;;
   0.000000;0.000000;0.000000;;

   TextureFilename  {
    "FormSide3.png";
   }
  }

  Material  {
   1.000000;1.000000;1.000000;1.000000;;
   0.000000;
   0.000000;0.000000;0.000000;;
   0.000000;0.000000;0.000000;;

   TextureFilename  {
    "Saku1.png";
   }
  }
 }

 MeshTextureCoords  {
  67;
  0.000000;1.000000;,
  0.000000;0.455000;,
  3.000000;1.000000;,
  3.000000;0.455000;,
  3.500000;1.000000;,
  0.000000;0.455000;,
  0.000000;0.350000;,
  0.960000;0.455000;,
  0.000000;0.350000;,
  0.000000;0.000000;,
  0.960000;0.350000;,
  0.960000;0.000000;,
  0.960000;1.000000;,
  0.960000;0.437500;,
  3.000000;1.000000;,
  3.000000;0.437500;,
  1.000000;0.000000;,
  0.226000;0.000000;,
  1.000000;1.000000;,
  0.226000;1.000000;,
  0.000000;0.437500;,
  0.000000;0.000000;,
  1.000000;0.437500;,
  1.000000;0.000000;,
  1.000000;0.437500;,
  1.000000;0.000000;,
  0.500000;0.437500;,
  0.500000;0.000000;,
  0.000000;1.000000;,
  0.000000;0.000000;,
  3.200000;1.000000;,
  3.200000;0.000000;,
  10.000000;1.000000;,
  10.000000;0.000000;,
  11.050000;1.000000;,
  11.050000;0.000000;,
  0.000000;1.000000;,
  0.000000;0.455000;,
  3.000000;1.000000;,
  3.000000;0.455000;,
  0.000000;0.455000;,
  0.000000;0.350000;,
  0.960000;0.455000;,
  0.000000;0.350000;,
  0.000000;0.000000;,
  0.960000;0.350000;,
  0.960000;0.000000;,
  0.960000;1.000000;,
  0.960000;0.437500;,
  3.000000;1.000000;,
  3.000000;0.437500;,
  1.000000;0.000000;,
  0.388000;0.000000;,
  1.000000;1.000000;,
  0.479000;1.000000;,
  0.000000;0.437500;,
  0.000000;0.000000;,
  1.000000;0.437500;,
  1.000000;0.000000;,
  0.000000;1.000000;,
  0.000000;0.000000;,
  3.200000;1.000000;,
  3.200000;0.000000;,
  10.000000;1.000000;,
  10.000000;0.000000;,
  11.050000;1.000000;,
  11.050000;0.000000;;
 }

 MeshNormals  {
  37;
  1.000000;0.000000;0.000000;,
  1.000000;0.000000;0.000000;,
  0.000000;0.000000;0.000000;,
  1.000000;0.000000;0.000000;,
  0.000000;0.999512;0.031235;,
  0.000000;0.999512;0.031235;,
  0.000000;1.000000;0.000000;,
  0.000000;1.000000;0.000000;,
  0.000000;0.999512;0.031235;,
  0.000000;0.999512;0.031235;,
  0.000000;1.000000;0.000000;,
  0.000000;1.000000;0.000000;,
  0.000000;0.977323;0.211753;,
  0.000000;0.977323;0.211753;,
  0.998351;0.000000;-0.057405;,
  0.998351;0.000000;-0.057405;,
  0.997736;0.000000;-0.067259;,
  0.997736;0.000000;-0.067259;,
  0.000000;0.000000;-1.000000;,
  0.000000;0.000000;-1.000000;,
  -1.000000;0.000000;0.000000;,
  -1.000000;0.000000;0.000000;,
  -1.000000;0.000000;0.000000;,
  0.000000;0.999512;0.031235;,
  0.000000;0.999512;0.031235;,
  0.000000;1.000000;0.000000;,
  0.000000;1.000000;0.000000;,
  0.000000;0.999512;0.031235;,
  0.000000;0.999512;0.031235;,
  0.000000;1.000000;0.000000;,
  0.000000;1.000000;0.000000;,
  -0.997829;0.000000;-0.065857;,
  -0.997829;0.000000;-0.065857;,
  -0.997829;0.000000;-0.065857;,
  -0.997829;0.000000;-0.065857;,
  0.000000;0.000000;-1.000000;,
  0.000000;0.000000;-1.000000;;
  37;
  3;0,0,0;,
  3;1,1,1;,
  3;2,2,2;,
  3;3,3,3;,
  3;4,4,4;,
  3;5,5,5;,
  3;6,6,6;,
  3;7,7,7;,
  3;8,8,8;,
  3;9,9,9;,
  3;10,10,10;,
  3;11,11,11;,
  3;12,12,12;,
  3;13,13,13;,
  3;14,14,14;,
  3;15,15,15;,
  3;16,16,16;,
  3;17,17,17;,
  3;18,18,18;,
  3;19,19,19;,
  3;20,20,20;,
  3;21,21,21;,
  3;22,22,22;,
  3;23,23,23;,
  3;24,24,24;,
  3;25,25,25;,
  3;26,26,26;,
  3;27,27,27;,
  3;28,28,28;,
  3;29,29,29;,
  3;30,30,30;,
  3;31,31,31;,
  3;32,32,32;,
  3;33,33,33;,
  3;34,34,34;,
  3;35,35,35;,
  3;36,36,36;;
 }
}