xof 0303txt 0032
template Vector {
 <3d82ab5e-62da-11cf-ab39-0020af71e433>
 FLOAT x;
 FLOAT y;
 FLOAT z;
}

template MeshFace {
 <3d82ab5f-62da-11cf-ab39-0020af71e433>
 DWORD nFaceVertexIndices;
 array DWORD faceVertexIndices[nFaceVertexIndices];
}

template Mesh {
 <3d82ab44-62da-11cf-ab39-0020af71e433>
 DWORD nVertices;
 array Vector vertices[nVertices];
 DWORD nFaces;
 array MeshFace faces[nFaces];
 [...]
}

template ColorRGBA {
 <35ff44e0-6c7c-11cf-8f52-0040333594a3>
 FLOAT red;
 FLOAT green;
 FLOAT blue;
 FLOAT alpha;
}

template ColorRGB {
 <d3e16e81-7835-11cf-8f52-0040333594a3>
 FLOAT red;
 FLOAT green;
 FLOAT blue;
}

template Material {
 <3d82ab4d-62da-11cf-ab39-0020af71e433>
 ColorRGBA faceColor;
 FLOAT power;
 ColorRGB specularColor;
 ColorRGB emissiveColor;
 [...]
}

template MeshMaterialList {
 <f6f23f42-7686-11cf-8f52-0040333594a3>
 DWORD nMaterials;
 DWORD nFaceIndexes;
 array DWORD faceIndexes[nFaceIndexes];
 [Material <3d82ab4d-62da-11cf-ab39-0020af71e433>]
}

template TextureFilename {
 <a42790e1-7810-11cf-8f52-0040333594a3>
 STRING filename;
}

template Coords2d {
 <f6f23f44-7686-11cf-8f52-0040333594a3>
 FLOAT u;
 FLOAT v;
}

template MeshTextureCoords {
 <f6f23f40-7686-11cf-8f52-0040333594a3>
 DWORD nTextureCoords;
 array Coords2d textureCoords[nTextureCoords];
}

template MeshNormals {
 <f6f23f43-7686-11cf-8f52-0040333594a3>
 DWORD nNormals;
 array Vector normals[nNormals];
 DWORD nFaceNormals;
 array MeshFace faceNormals[nFaceNormals];
}


Mesh  {
 152;
 -1.500000;-0.450000;0.000000;,
 -1.500000;1.100000;0.000000;,
 -2.700000;1.100000;0.000000;,
 -1.500000;-0.450000;25.000000;,
 -1.500000;1.100000;25.000000;,
 -2.700000;1.100000;25.000000;,
 -2.700000;1.100000;0.000000;,
 -8.000000;1.100000;0.000000;,
 -2.700000;1.100000;5.000000;,
 -6.600000;1.100000;5.000000;,
 -8.000000;1.100000;5.000000;,
 -2.700000;1.100000;25.000000;,
 -6.600000;1.100000;25.000000;,
 -8.000000;1.100000;0.000000;,
 -8.000000;2.300000;0.000000;,
 -8.000000;1.100000;5.000000;,
 -8.000000;2.300000;5.000000;,
 -6.600000;1.100000;7.500000;,
 -6.600000;2.300000;7.500000;,
 -6.600000;1.100000;16.330000;,
 -6.600000;2.300000;16.330000;,
 -8.000000;4.600000;0.600000;,
 -8.000000;4.900000;0.600000;,
 -4.750000;5.600000;0.600000;,
 -4.750000;5.900000;0.600000;,
 -1.500000;4.600000;0.600000;,
 -1.500000;4.900000;0.600000;,
 -1.500000;4.600000;16.330000;,
 -1.500000;4.900000;16.330000;,
 -1.500000;4.600000;0.600000;,
 -4.750000;5.600000;0.600000;,
 -8.000000;4.600000;0.600000;,
 -1.500000;4.600000;5.000000;,
 -4.500000;5.523000;5.000000;,
 -4.750000;5.600000;5.000000;,
 -8.000000;4.600000;5.000000;,
 -1.500000;4.600000;16.330000;,
 -4.500000;5.523000;16.330000;,
 -4.490000;4.200000;5.000000;,
 -8.000000;4.200000;5.000000;,
 -8.000000;4.600000;5.000000;,
 -4.750000;5.600000;5.000000;,
 -4.490000;5.523000;5.000000;,
 -4.490000;5.523000;7.250000;,
 -8.000000;4.000000;1.000000;,
 -8.000000;4.600000;1.000000;,
 -4.750000;5.000000;1.000000;,
 -4.750000;5.600000;1.000000;,
 -1.900000;4.123000;1.000000;,
 -1.700000;4.660000;1.000000;,
 -2.900000;1.100000;1.010000;,
 -2.900000;5.000000;1.010000;,
 -2.700000;5.000000;1.010000;,
 -2.700000;1.100000;1.010000;,
 -8.000000;-0.200000;1.010000;,
 -8.000000;3.490000;1.010000;,
 -7.800000;3.490000;1.010000;,
 -7.800000;-0.200000;1.010000;,
 -2.900000;1.100000;4.990000;,
 -2.900000;5.000000;4.990000;,
 -2.700000;5.000000;4.990000;,
 -2.700000;1.100000;4.990000;,
 -4.500000;1.100000;4.990000;,
 -4.500000;5.523000;4.990000;,
 -4.300000;5.523000;4.990000;,
 -4.300000;1.100000;4.990000;,
 -8.000000;1.100000;4.990000;,
 -8.000000;4.660000;4.990000;,
 -7.800000;4.660000;4.990000;,
 -7.800000;1.100000;4.990000;,
 -2.900000;1.100000;8.490000;,
 -2.900000;5.000000;8.490000;,
 -2.700000;5.000000;8.490000;,
 -2.700000;1.100000;8.490000;,
 -4.500000;1.100000;8.490000;,
 -4.500000;5.523000;8.490000;,
 -4.300000;5.523000;8.490000;,
 -4.300000;1.100000;8.490000;,
 -2.900000;1.100000;13.330000;,
 -2.900000;5.000000;13.330000;,
 -2.700000;5.000000;13.330000;,
 -2.700000;1.100000;13.330000;,
 -2.900000;1.100000;16.330000;,
 -2.900000;5.000000;16.330000;,
 -2.700000;5.000000;16.330000;,
 -2.700000;1.100000;16.330000;,
 -8.000000;4.400000;4.980000;,
 -8.000000;4.600000;4.980000;,
 -4.750000;5.400000;4.980000;,
 -4.750000;5.600000;4.980000;,
 -1.500000;4.400000;4.980000;,
 -1.500000;4.600000;4.980000;,
 -4.500000;5.323000;8.480000;,
 -4.500000;5.523000;8.480000;,
 -1.500000;4.400000;8.480000;,
 -1.500000;4.600000;8.480000;,
 -4.500000;5.323000;13.320000;,
 -4.500000;5.523000;13.320000;,
 -1.500000;4.400000;13.320000;,
 -1.500000;4.600000;13.320000;,
 -4.500000;5.323000;16.320000;,
 -4.500000;5.523000;16.320000;,
 -1.500000;4.400000;16.320000;,
 -1.500000;4.600000;16.320000;,
 -6.600000;1.100000;11.730000;,
 -6.600000;3.800000;11.730000;,
 -5.600000;1.100000;11.730000;,
 -5.600000;3.800000;11.730000;,
 -5.600000;1.100000;13.330000;,
 -5.600000;3.800000;13.330000;,
 9.900000;-0.450000;0.000000;,
 9.900000;1.100000;0.000000;,
 11.100000;1.100000;0.000000;,
 9.900000;-0.450000;25.000000;,
 9.900000;1.100000;25.000000;,
 11.100000;1.100000;25.000000;,
 11.100000;1.100000;0.000000;,
 16.900000;1.100000;0.000000;,
 11.100000;1.100000;25.000000;,
 16.900000;1.100000;25.000000;,
 10.500000;1.100000;0.000000;,
 10.500000;2.300000;0.000000;,
 16.900000;1.100000;0.000000;,
 16.900000;2.300000;0.000000;,
 16.900000;1.100000;4.000000;,
 16.900000;2.300000;4.000000;,
 16.900000;1.100000;25.000000;,
 16.900000;2.300000;25.000000;,
 20.900000;1.100000;0.000000;,
 20.900000;3.700000;0.000000;,
 16.900000;1.100000;0.000000;,
 16.900000;3.700000;0.000000;,
 16.900000;1.100000;4.000000;,
 16.900000;3.700000;4.000000;,
 21.400000;3.700000;-0.500000;,
 21.400000;4.000000;-0.500000;,
 16.400000;3.700000;-0.500000;,
 16.400000;4.000000;-0.500000;,
 16.400000;3.700000;4.500000;,
 16.400000;4.000000;4.500000;,
 18.600000;3.000000;-0.010000;,
 18.600000;3.400000;-0.010000;,
 19.200001;3.000000;-0.010000;,
 19.200001;3.400000;-0.010000;,
 16.889999;2.200000;1.000000;,
 16.889999;3.400000;1.000000;,
 16.889999;2.200000;2.200000;,
 16.889999;3.400000;2.200000;,
 16.889999;1.100000;2.300000;,
 16.889999;3.400000;2.300000;,
 16.889999;1.100000;3.200000;,
 16.889999;3.400000;3.200000;;
 88;
 3;0,1,4;,
 3;0,4,3;,
 3;1,2,5;,
 3;1,5,4;,
 3;6,7,10;,
 3;6,10,8;,
 3;8,9,12;,
 3;8,12,11;,
 3;13,14,16;,
 3;13,16,15;,
 3;17,18,20;,
 3;17,20,19;,
 3;21,22,24;,
 3;21,24,23;,
 3;23,24,26;,
 3;23,26,25;,
 3;25,26,28;,
 3;25,28,27;,
 3;32,34,30;,
 3;32,30,29;,
 3;34,35,31;,
 3;34,31,30;,
 3;36,37,33;,
 3;36,33,32;,
 3;38,39,40;,
 3;38,40,41;,
 3;38,41,42;,
 3;38,42,43;,
 3;44,45,47;,
 3;44,47,46;,
 3;46,47,49;,
 3;46,49,48;,
 3;50,51,52;,
 3;50,52,53;,
 3;54,55,56;,
 3;54,56,57;,
 3;58,59,60;,
 3;58,60,61;,
 3;62,63,64;,
 3;62,64,65;,
 3;66,67,68;,
 3;66,68,69;,
 3;70,71,72;,
 3;70,72,73;,
 3;74,75,76;,
 3;74,76,77;,
 3;78,79,80;,
 3;78,80,81;,
 3;82,83,84;,
 3;82,84,85;,
 3;86,87,89;,
 3;86,89,88;,
 3;88,89,91;,
 3;88,91,90;,
 3;92,93,95;,
 3;92,95,94;,
 3;96,97,99;,
 3;96,99,98;,
 3;100,101,103;,
 3;100,103,102;,
 3;104,105,107;,
 3;104,107,106;,
 3;106,107,109;,
 3;106,109,108;,
 3;113,114,111;,
 3;113,111,110;,
 3;114,115,112;,
 3;114,112,111;,
 3;118,119,117;,
 3;118,117,116;,
 3;120,121,123;,
 3;120,123,122;,
 3;126,127,125;,
 3;126,125,124;,
 3;130,131,129;,
 3;130,129,128;,
 3;132,133,131;,
 3;132,131,130;,
 3;136,137,135;,
 3;136,135,134;,
 3;138,139,137;,
 3;138,137,136;,
 3;140,141,143;,
 3;140,143,142;,
 3;146,147,145;,
 3;146,145,144;,
 3;150,151,149;,
 3;150,149,148;;

 MeshMaterialList  {
  29;
  88;
  0,
  0,
  0,
  0,
  1,
  1,
  1,
  1,
  2,
  2,
  2,
  2,
  3,
  3,
  3,
  3,
  3,
  3,
  4,
  4,
  4,
  4,
  4,
  4,
  5,
  5,
  5,
  5,
  6,
  6,
  6,
  6,
  7,
  7,
  8,
  8,
  9,
  9,
  10,
  10,
  11,
  11,
  12,
  12,
  13,
  13,
  14,
  14,
  15,
  15,
  16,
  16,
  16,
  16,
  17,
  17,
  18,
  18,
  19,
  19,
  20,
  20,
  20,
  20,
  21,
  21,
  21,
  21,
  22,
  22,
  23,
  23,
  23,
  23,
  24,
  24,
  24,
  24,
  25,
  25,
  25,
  25,
  26,
  26,
  27,
  27,
  28,
  28;

  Material  {
   1.000000;1.000000;1.000000;1.000000;;
   0.000000;
   0.000000;0.000000;0.000000;;
   0.000000;0.000000;0.000000;;

   TextureFilename  {
    "FormSide2.png";
   }
  }

  Material  {
   1.000000;1.000000;1.000000;1.000000;;
   0.000000;
   0.000000;0.000000;0.000000;;
   0.000000;0.000000;0.000000;;

   TextureFilename  {
    "FormC.png";
   }
  }

  Material  {
   1.000000;1.000000;1.000000;1.000000;;
   0.000000;
   0.000000;0.000000;0.000000;;
   0.000000;0.000000;0.000000;;

   TextureFilename  {
    "Saku1.png";
   }
  }

  Material  {
   1.000000;1.000000;1.000000;1.000000;;
   0.000000;
   0.000000;0.000000;0.000000;;
   0.000000;0.000000;0.000000;;

   TextureFilename  {
    "Roof3.png";
   }
  }

  Material  {
   1.000000;1.000000;1.000000;1.000000;;
   0.000000;
   0.000000;0.000000;0.000000;;
   0.000000;0.000000;0.000000;;

   TextureFilename  {
    "Roof4.png";
   }
  }

  Material  {
   1.000000;1.000000;1.000000;1.000000;;
   0.000000;
   0.000000;0.000000;0.000000;;
   0.000000;0.000000;0.000000;;

   TextureFilename  {
    "Kaidan_Wall2.png";
   }
  }

  Material  {
   1.000000;1.000000;1.000000;1.000000;;
   0.000000;
   0.000000;0.000000;0.000000;;
   0.000000;0.000000;0.000000;;

   TextureFilename  {
    "Wall1.png";
   }
  }

  Material  {
   1.000000;1.000000;1.000000;1.000000;;
   0.000000;
   0.000000;0.000000;0.000000;;
   0.000000;0.000000;0.000000;;

   TextureFilename  {
    "Iron2.png";
   }
  }

  Material  {
   1.000000;1.000000;1.000000;1.000000;;
   0.000000;
   0.000000;0.000000;0.000000;;
   0.000000;0.000000;0.000000;;

   TextureFilename  {
    "Iron2.png";
   }
  }

  Material  {
   1.000000;1.000000;1.000000;1.000000;;
   0.000000;
   0.000000;0.000000;0.000000;;
   0.000000;0.000000;0.000000;;

   TextureFilename  {
    "Iron2.png";
   }
  }

  Material  {
   1.000000;1.000000;1.000000;1.000000;;
   0.000000;
   0.000000;0.000000;0.000000;;
   0.000000;0.000000;0.000000;;

   TextureFilename  {
    "Iron1.png";
   }
  }

  Material  {
   1.000000;1.000000;1.000000;1.000000;;
   0.000000;
   0.000000;0.000000;0.000000;;
   0.000000;0.000000;0.000000;;

   TextureFilename  {
    "Iron1.png";
   }
  }

  Material  {
   1.000000;1.000000;1.000000;1.000000;;
   0.000000;
   0.000000;0.000000;0.000000;;
   0.000000;0.000000;0.000000;;

   TextureFilename  {
    "Iron2.png";
   }
  }

  Material  {
   1.000000;1.000000;1.000000;1.000000;;
   0.000000;
   0.000000;0.000000;0.000000;;
   0.000000;0.000000;0.000000;;

   TextureFilename  {
    "Iron1.png";
   }
  }

  Material  {
   1.000000;1.000000;1.000000;1.000000;;
   0.000000;
   0.000000;0.000000;0.000000;;
   0.000000;0.000000;0.000000;;

   TextureFilename  {
    "Iron2.png";
   }
  }

  Material  {
   1.000000;1.000000;1.000000;1.000000;;
   0.000000;
   0.000000;0.000000;0.000000;;
   0.000000;0.000000;0.000000;;

   TextureFilename  {
    "Iron2.png";
   }
  }

  Material  {
   1.000000;1.000000;1.000000;1.000000;;
   0.000000;
   0.000000;0.000000;0.000000;;
   0.000000;0.000000;0.000000;;

   TextureFilename  {
    "Iron3.png";
   }
  }

  Material  {
   1.000000;1.000000;1.000000;1.000000;;
   0.000000;
   0.000000;0.000000;0.000000;;
   0.000000;0.000000;0.000000;;

   TextureFilename  {
    "Iron3.png";
   }
  }

  Material  {
   1.000000;1.000000;1.000000;1.000000;;
   0.000000;
   0.000000;0.000000;0.000000;;
   0.000000;0.000000;0.000000;;

   TextureFilename  {
    "Iron3.png";
   }
  }

  Material  {
   1.000000;1.000000;1.000000;1.000000;;
   0.000000;
   0.000000;0.000000;0.000000;;
   0.000000;0.000000;0.000000;;

   TextureFilename  {
    "Iron3.png";
   }
  }

  Material  {
   1.000000;1.000000;1.000000;1.000000;;
   0.000000;
   0.000000;0.000000;0.000000;;
   0.000000;0.000000;0.000000;;

   TextureFilename  {
    "Dispenser.png";
   }
  }

  Material  {
   1.000000;1.000000;1.000000;1.000000;;
   0.000000;
   0.000000;0.000000;0.000000;;
   0.000000;0.000000;0.000000;;

   TextureFilename  {
    "FormSide2.png";
   }
  }

  Material  {
   1.000000;1.000000;1.000000;1.000000;;
   0.000000;
   0.000000;0.000000;0.000000;;
   0.000000;0.000000;0.000000;;

   TextureFilename  {
    "FormC.png";
   }
  }

  Material  {
   1.000000;1.000000;1.000000;1.000000;;
   0.000000;
   0.000000;0.000000;0.000000;;
   0.000000;0.000000;0.000000;;

   TextureFilename  {
    "Saku1.png";
   }
  }

  Material  {
   1.000000;1.000000;1.000000;1.000000;;
   0.000000;
   0.000000;0.000000;0.000000;;
   0.000000;0.000000;0.000000;;

   TextureFilename  {
    "Wall4.png";
   }
  }

  Material  {
   1.000000;1.000000;1.000000;1.000000;;
   0.000000;
   0.000000;0.000000;0.000000;;
   0.000000;0.000000;0.000000;;

   TextureFilename  {
    "Roof7.png";
   }
  }

  Material  {
   1.000000;1.000000;1.000000;1.000000;;
   0.000000;
   0.000000;0.000000;0.000000;;
   0.000000;0.000000;0.000000;;

   TextureFilename  {
    "Duct1.png";
   }
  }

  Material  {
   1.000000;1.000000;1.000000;1.000000;;
   0.000000;
   0.000000;0.000000;0.000000;;
   0.000000;0.000000;0.000000;;

   TextureFilename  {
    "Window2.png";
   }
  }

  Material  {
   1.000000;1.000000;1.000000;1.000000;;
   0.000000;
   0.000000;0.000000;0.000000;;
   0.000000;0.000000;0.000000;;

   TextureFilename  {
    "Door1.png";
   }
  }
 }

 MeshTextureCoords  {
  152;
  0.000000;1.000000;,
  0.000000;0.350000;,
  0.000000;0.000000;,
  3.000000;1.000000;,
  3.000000;0.350000;,
  3.000000;0.000000;,
  1.000000;0.000000;,
  0.000000;0.000000;,
  1.000000;0.200000;,
  0.264000;0.200000;,
  0.000000;0.200000;,
  1.000000;1.000000;,
  0.264000;1.000000;,
  0.000000;1.000000;,
  0.000000;0.000000;,
  2.000000;1.000000;,
  2.000000;0.000000;,
  0.000000;1.000000;,
  0.000000;0.000000;,
  3.532000;1.000000;,
  3.532000;0.000000;,
  0.000000;1.000000;,
  0.000000;0.500000;,
  0.000000;1.000000;,
  0.000000;0.500000;,
  0.000000;1.000000;,
  0.000000;0.500000;,
  9.440000;1.000000;,
  9.440000;0.500000;,
  8.000000;0.000000;,
  4.000000;0.000000;,
  0.000000;0.000000;,
  8.000000;1.760000;,
  4.300000;1.760000;,
  4.000000;1.760000;,
  0.000000;1.760000;,
  8.000000;6.292000;,
  4.300000;6.292000;,
  1.000000;0.600000;,
  0.000000;0.600000;,
  0.000000;0.400000;,
  0.930000;0.400000;,
  1.000000;0.400000;,
  1.500000;0.400000;,
  0.000000;0.250000;,
  0.000000;0.000000;,
  1.000000;0.250000;,
  1.000000;0.000000;,
  1.877000;0.250000;,
  1.940000;0.000000;,
  0.000000;1.000000;,
  0.000000;0.000000;,
  1.000000;0.000000;,
  1.000000;1.000000;,
  0.000000;0.400000;,
  0.000000;0.050000;,
  1.000000;0.050000;,
  1.000000;0.400000;,
  0.000000;1.000000;,
  0.000000;0.000000;,
  1.000000;0.000000;,
  1.000000;1.000000;,
  0.000000;1.000000;,
  0.000000;0.000000;,
  1.000000;0.000000;,
  1.000000;1.000000;,
  0.000000;0.400000;,
  0.000000;0.100000;,
  1.000000;0.100000;,
  1.000000;0.400000;,
  0.000000;1.000000;,
  0.000000;0.000000;,
  1.000000;0.000000;,
  1.000000;1.000000;,
  0.000000;1.000000;,
  0.000000;0.000000;,
  1.000000;0.000000;,
  1.000000;1.000000;,
  0.000000;1.000000;,
  0.000000;0.000000;,
  1.000000;0.000000;,
  1.000000;1.000000;,
  0.000000;1.000000;,
  0.000000;0.000000;,
  1.000000;0.000000;,
  1.000000;1.000000;,
  0.000000;1.000000;,
  0.000000;0.000000;,
  1.000000;1.000000;,
  1.000000;0.000000;,
  2.000000;1.000000;,
  2.000000;0.000000;,
  0.000000;1.000000;,
  0.000000;0.000000;,
  1.000000;1.000000;,
  1.000000;0.000000;,
  0.000000;1.000000;,
  0.000000;0.000000;,
  1.000000;1.000000;,
  1.000000;0.000000;,
  0.000000;1.000000;,
  0.000000;0.000000;,
  1.000000;1.000000;,
  1.000000;0.000000;,
  0.000000;1.000000;,
  0.000000;0.000000;,
  0.280000;1.000000;,
  0.280000;0.000000;,
  1.000000;1.000000;,
  1.000000;0.000000;,
  0.000000;1.000000;,
  0.000000;0.350000;,
  0.000000;0.000000;,
  3.000000;1.000000;,
  3.000000;0.350000;,
  3.000000;0.000000;,
  1.000000;0.000000;,
  0.000000;0.000000;,
  1.000000;1.000000;,
  0.000000;1.000000;,
  0.000000;1.000000;,
  0.000000;0.000000;,
  2.560000;1.000000;,
  2.560000;0.000000;,
  2.400000;1.000000;,
  2.400000;0.000000;,
  10.000000;1.000000;,
  10.000000;0.000000;,
  0.000000;1.000000;,
  0.000000;0.000000;,
  0.500000;1.000000;,
  0.500000;0.000000;,
  1.000000;1.000000;,
  1.000000;0.000000;,
  0.000000;1.000000;,
  0.000000;0.000000;,
  0.500000;1.000000;,
  0.500000;0.000000;,
  1.000000;1.000000;,
  1.000000;0.000000;,
  0.000000;1.000000;,
  0.000000;0.000000;,
  1.000000;1.000000;,
  1.000000;0.000000;,
  0.000000;1.000000;,
  0.000000;0.000000;,
  1.000000;1.000000;,
  1.000000;0.000000;,
  1.000000;1.000000;,
  1.000000;0.000000;,
  0.000000;1.000000;,
  0.000000;0.000000;;
 }

 MeshNormals  {
  88;
  1.000000;0.000000;0.000000;,
  1.000000;0.000000;0.000000;,
  0.000000;1.000000;0.000000;,
  0.000000;1.000000;0.000000;,
  0.000000;1.000000;0.000000;,
  0.000000;1.000000;0.000000;,
  0.000000;1.000000;0.000000;,
  0.000000;1.000000;0.000000;,
  1.000000;0.000000;0.000000;,
  1.000000;0.000000;0.000000;,
  1.000000;0.000000;0.000000;,
  1.000000;0.000000;0.000000;,
  0.000000;0.000000;-1.000000;,
  0.000000;0.000000;-1.000000;,
  0.000000;0.000000;-1.000000;,
  0.000000;0.000000;-1.000000;,
  1.000000;0.000000;0.000000;,
  1.000000;0.000000;0.000000;,
  -0.294086;-0.955779;0.000000;,
  -0.294086;-0.955779;0.000000;,
  0.294086;-0.955779;0.000000;,
  0.294086;-0.955779;0.000000;,
  -0.294063;-0.955786;0.000000;,
  -0.294063;-0.955786;0.000000;,
  0.000000;0.000000;-1.000000;,
  0.000000;0.000000;-1.000000;,
  0.000000;0.000000;-1.000000;,
  1.000000;0.000000;0.000000;,
  0.000000;0.000000;-1.000000;,
  0.000000;0.000000;-1.000000;,
  0.000000;0.000000;-1.000000;,
  0.000000;0.000000;-1.000000;,
  0.000000;0.000000;-1.000000;,
  0.000000;0.000000;-1.000000;,
  0.000000;0.000000;-1.000000;,
  0.000000;0.000000;-1.000000;,
  0.000000;0.000000;-1.000000;,
  0.000000;0.000000;-1.000000;,
  0.000000;0.000000;-1.000000;,
  0.000000;0.000000;-1.000000;,
  0.000000;0.000000;-1.000000;,
  0.000000;0.000000;-1.000000;,
  0.000000;0.000000;-1.000000;,
  0.000000;0.000000;-1.000000;,
  0.000000;0.000000;-1.000000;,
  0.000000;0.000000;-1.000000;,
  0.000000;0.000000;-1.000000;,
  0.000000;0.000000;-1.000000;,
  0.000000;0.000000;-1.000000;,
  0.000000;0.000000;-1.000000;,
  0.000000;0.000000;-1.000000;,
  0.000000;0.000000;-1.000000;,
  0.000000;0.000000;-1.000000;,
  0.000000;0.000000;-1.000000;,
  0.000000;0.000000;-1.000000;,
  0.000000;0.000000;-1.000000;,
  0.000000;0.000000;-1.000000;,
  0.000000;0.000000;-1.000000;,
  0.000000;0.000000;-1.000000;,
  0.000000;0.000000;-1.000000;,
  0.000000;0.000000;-1.000000;,
  0.000000;0.000000;-1.000000;,
  1.000000;0.000000;0.000000;,
  1.000000;0.000000;0.000000;,
  -1.000000;0.000000;0.000000;,
  -1.000000;0.000000;0.000000;,
  0.000000;1.000000;0.000000;,
  0.000000;1.000000;0.000000;,
  0.000000;1.000000;0.000000;,
  0.000000;1.000000;0.000000;,
  0.000000;0.000000;-1.000000;,
  0.000000;0.000000;-1.000000;,
  -1.000000;0.000000;0.000000;,
  -1.000000;0.000000;0.000000;,
  0.000000;0.000000;-1.000000;,
  0.000000;0.000000;-1.000000;,
  -1.000000;0.000000;0.000000;,
  -1.000000;0.000000;0.000000;,
  0.000000;0.000000;-1.000000;,
  0.000000;0.000000;-1.000000;,
  -1.000000;0.000000;0.000000;,
  -1.000000;0.000000;0.000000;,
  0.000000;0.000000;-1.000000;,
  0.000000;0.000000;-1.000000;,
  -1.000000;0.000000;0.000000;,
  -1.000000;0.000000;0.000000;,
  -1.000000;0.000000;0.000000;,
  -1.000000;0.000000;0.000000;;
  88;
  3;0,0,0;,
  3;1,1,1;,
  3;2,2,2;,
  3;3,3,3;,
  3;4,4,4;,
  3;5,5,5;,
  3;6,6,6;,
  3;7,7,7;,
  3;8,8,8;,
  3;9,9,9;,
  3;10,10,10;,
  3;11,11,11;,
  3;12,12,12;,
  3;13,13,13;,
  3;14,14,14;,
  3;15,15,15;,
  3;16,16,16;,
  3;17,17,17;,
  3;18,18,18;,
  3;19,19,19;,
  3;20,20,20;,
  3;21,21,21;,
  3;22,22,22;,
  3;23,23,23;,
  3;24,24,24;,
  3;25,25,25;,
  3;26,26,26;,
  3;27,27,27;,
  3;28,28,28;,
  3;29,29,29;,
  3;30,30,30;,
  3;31,31,31;,
  3;32,32,32;,
  3;33,33,33;,
  3;34,34,34;,
  3;35,35,35;,
  3;36,36,36;,
  3;37,37,37;,
  3;38,38,38;,
  3;39,39,39;,
  3;40,40,40;,
  3;41,41,41;,
  3;42,42,42;,
  3;43,43,43;,
  3;44,44,44;,
  3;45,45,45;,
  3;46,46,46;,
  3;47,47,47;,
  3;48,48,48;,
  3;49,49,49;,
  3;50,50,50;,
  3;51,51,51;,
  3;52,52,52;,
  3;53,53,53;,
  3;54,54,54;,
  3;55,55,55;,
  3;56,56,56;,
  3;57,57,57;,
  3;58,58,58;,
  3;59,59,59;,
  3;60,60,60;,
  3;61,61,61;,
  3;62,62,62;,
  3;63,63,63;,
  3;64,64,64;,
  3;65,65,65;,
  3;66,66,66;,
  3;67,67,67;,
  3;68,68,68;,
  3;69,69,69;,
  3;70,70,70;,
  3;71,71,71;,
  3;72,72,72;,
  3;73,73,73;,
  3;74,74,74;,
  3;75,75,75;,
  3;76,76,76;,
  3;77,77,77;,
  3;78,78,78;,
  3;79,79,79;,
  3;80,80,80;,
  3;81,81,81;,
  3;82,82,82;,
  3;83,83,83;,
  3;84,84,84;,
  3;85,85,85;,
  3;86,86,86;,
  3;87,87,87;;
 }
}