xof 0303txt 0032
template Vector {
 <3d82ab5e-62da-11cf-ab39-0020af71e433>
 FLOAT x;
 FLOAT y;
 FLOAT z;
}

template MeshFace {
 <3d82ab5f-62da-11cf-ab39-0020af71e433>
 DWORD nFaceVertexIndices;
 array DWORD faceVertexIndices[nFaceVertexIndices];
}

template Mesh {
 <3d82ab44-62da-11cf-ab39-0020af71e433>
 DWORD nVertices;
 array Vector vertices[nVertices];
 DWORD nFaces;
 array MeshFace faces[nFaces];
 [...]
}

template ColorRGBA {
 <35ff44e0-6c7c-11cf-8f52-0040333594a3>
 FLOAT red;
 FLOAT green;
 FLOAT blue;
 FLOAT alpha;
}

template ColorRGB {
 <d3e16e81-7835-11cf-8f52-0040333594a3>
 FLOAT red;
 FLOAT green;
 FLOAT blue;
}

template Material {
 <3d82ab4d-62da-11cf-ab39-0020af71e433>
 ColorRGBA faceColor;
 FLOAT power;
 ColorRGB specularColor;
 ColorRGB emissiveColor;
 [...]
}

template MeshMaterialList {
 <f6f23f42-7686-11cf-8f52-0040333594a3>
 DWORD nMaterials;
 DWORD nFaceIndexes;
 array DWORD faceIndexes[nFaceIndexes];
 [Material <3d82ab4d-62da-11cf-ab39-0020af71e433>]
}

template TextureFilename {
 <a42790e1-7810-11cf-8f52-0040333594a3>
 STRING filename;
}

template Coords2d {
 <f6f23f44-7686-11cf-8f52-0040333594a3>
 FLOAT u;
 FLOAT v;
}

template MeshTextureCoords {
 <f6f23f40-7686-11cf-8f52-0040333594a3>
 DWORD nTextureCoords;
 array Coords2d textureCoords[nTextureCoords];
}

template MeshNormals {
 <f6f23f43-7686-11cf-8f52-0040333594a3>
 DWORD nNormals;
 array Vector normals[nNormals];
 DWORD nFaceNormals;
 array MeshFace faceNormals[nFaceNormals];
}


Mesh  {
 31;
 -1.500000;-0.450000;0.000000;,
 -1.500000;1.100000;0.000000;,
 -2.700000;1.100000;0.000000;,
 -1.500000;-0.450000;25.000000;,
 -1.500000;1.100000;25.000000;,
 -2.700000;1.100000;25.000000;,
 -2.700000;1.100000;0.000000;,
 -7.600000;1.100000;0.000000;,
 -7.600000;1.100000;19.000000;,
 -2.700000;1.100000;25.000000;,
 -6.800000;1.100000;25.000000;,
 -7.600000;1.100000;0.000000;,
 -7.600000;2.300000;0.000000;,
 -7.600000;1.100000;19.000000;,
 -7.600000;2.300000;19.000000;,
 -6.800000;1.100000;25.000000;,
 -6.800000;2.300000;25.000000;,
 9.900000;-0.450000;0.000000;,
 9.900000;1.100000;0.000000;,
 11.100000;1.100000;0.000000;,
 9.900000;-0.450000;25.000000;,
 9.900000;1.100000;25.000000;,
 11.100000;1.100000;25.000000;,
 11.100000;1.100000;0.000000;,
 15.650000;1.100000;0.000000;,
 11.100000;1.100000;25.000000;,
 15.400000;1.100000;25.000000;,
 15.650000;1.100000;0.000000;,
 15.650000;2.300000;0.000000;,
 15.400000;1.100000;25.000000;,
 15.400000;2.300000;25.000000;;
 19;
 3;0,1,4;,
 3;0,4,3;,
 3;1,2,5;,
 3;1,5,4;,
 3;6,7,8;,
 3;6,8,10;,
 3;6,10,9;,
 3;11,12,14;,
 3;11,14,13;,
 3;13,14,16;,
 3;13,16,15;,
 3;20,21,18;,
 3;20,18,17;,
 3;21,22,19;,
 3;21,19,18;,
 3;24,23,25;,
 3;24,25,26;,
 3;29,30,28;,
 3;29,28,27;;

 MeshMaterialList  {
  6;
  19;
  0,
  0,
  0,
  0,
  1,
  1,
  1,
  2,
  2,
  2,
  2,
  3,
  3,
  3,
  3,
  4,
  4,
  5,
  5;

  Material  {
   1.000000;1.000000;1.000000;1.000000;;
   0.000000;
   0.000000;0.000000;0.000000;;
   0.000000;0.000000;0.000000;;

   TextureFilename  {
    "FormSide2.png";
   }
  }

  Material  {
   1.000000;1.000000;1.000000;1.000000;;
   0.000000;
   0.000000;0.000000;0.000000;;
   0.000000;0.000000;0.000000;;

   TextureFilename  {
    "FormC.png";
   }
  }

  Material  {
   1.000000;1.000000;1.000000;1.000000;;
   0.000000;
   0.000000;0.000000;0.000000;;
   0.000000;0.000000;0.000000;;

   TextureFilename  {
    "Saku1.png";
   }
  }

  Material  {
   1.000000;1.000000;1.000000;1.000000;;
   0.000000;
   0.000000;0.000000;0.000000;;
   0.000000;0.000000;0.000000;;

   TextureFilename  {
    "FormSide2.png";
   }
  }

  Material  {
   1.000000;1.000000;1.000000;1.000000;;
   0.000000;
   0.000000;0.000000;0.000000;;
   0.000000;0.000000;0.000000;;

   TextureFilename  {
    "FormC.png";
   }
  }

  Material  {
   1.000000;1.000000;1.000000;1.000000;;
   0.000000;
   0.000000;0.000000;0.000000;;
   0.000000;0.000000;0.000000;;

   TextureFilename  {
    "Saku1.png";
   }
  }
 }

 MeshTextureCoords  {
  31;
  0.000000;1.000000;,
  0.000000;0.350000;,
  0.000000;0.000000;,
  3.000000;1.000000;,
  3.000000;0.350000;,
  3.000000;0.000000;,
  1.000000;0.000000;,
  0.075000;0.000000;,
  0.075000;0.760000;,
  1.000000;1.000000;,
  0.226000;1.000000;,
  0.000000;1.000000;,
  0.000000;0.000000;,
  7.600000;1.000000;,
  7.600000;0.000000;,
  10.000000;1.000000;,
  10.000000;0.000000;,
  0.000000;1.000000;,
  0.000000;0.350000;,
  0.000000;0.000000;,
  3.000000;1.000000;,
  3.000000;0.350000;,
  3.000000;0.000000;,
  1.000000;0.000000;,
  0.220000;0.000000;,
  1.000000;1.000000;,
  0.260000;1.000000;,
  0.000000;1.000000;,
  0.000000;0.000000;,
  10.000000;1.000000;,
  10.000000;0.000000;;
 }

 MeshNormals  {
  19;
  1.000000;0.000000;0.000000;,
  1.000000;0.000000;0.000000;,
  0.000000;1.000000;0.000000;,
  0.000000;1.000000;0.000000;,
  0.000000;1.000000;0.000000;,
  0.000000;1.000000;0.000000;,
  0.000000;1.000000;0.000000;,
  1.000000;0.000000;0.000000;,
  1.000000;0.000000;0.000000;,
  0.991228;0.000000;-0.132164;,
  0.991228;0.000000;-0.132164;,
  -1.000000;0.000000;0.000000;,
  -1.000000;0.000000;0.000000;,
  0.000000;1.000000;0.000000;,
  0.000000;1.000000;0.000000;,
  0.000000;1.000000;0.000000;,
  0.000000;1.000000;0.000000;,
  -0.999950;0.000000;-0.009999;,
  -0.999950;0.000000;-0.009999;;
  19;
  3;0,0,0;,
  3;1,1,1;,
  3;2,2,2;,
  3;3,3,3;,
  3;4,4,4;,
  3;5,5,5;,
  3;6,6,6;,
  3;7,7,7;,
  3;8,8,8;,
  3;9,9,9;,
  3;10,10,10;,
  3;11,11,11;,
  3;12,12,12;,
  3;13,13,13;,
  3;14,14,14;,
  3;15,15,15;,
  3;16,16,16;,
  3;17,17,17;,
  3;18,18,18;;
 }
}