xof 0303txt 0032
template Vector {
 <3d82ab5e-62da-11cf-ab39-0020af71e433>
 FLOAT x;
 FLOAT y;
 FLOAT z;
}

template MeshFace {
 <3d82ab5f-62da-11cf-ab39-0020af71e433>
 DWORD nFaceVertexIndices;
 array DWORD faceVertexIndices[nFaceVertexIndices];
}

template Mesh {
 <3d82ab44-62da-11cf-ab39-0020af71e433>
 DWORD nVertices;
 array Vector vertices[nVertices];
 DWORD nFaces;
 array MeshFace faces[nFaces];
 [...]
}

template ColorRGBA {
 <35ff44e0-6c7c-11cf-8f52-0040333594a3>
 FLOAT red;
 FLOAT green;
 FLOAT blue;
 FLOAT alpha;
}

template ColorRGB {
 <d3e16e81-7835-11cf-8f52-0040333594a3>
 FLOAT red;
 FLOAT green;
 FLOAT blue;
}

template Material {
 <3d82ab4d-62da-11cf-ab39-0020af71e433>
 ColorRGBA faceColor;
 FLOAT power;
 ColorRGB specularColor;
 ColorRGB emissiveColor;
 [...]
}

template MeshMaterialList {
 <f6f23f42-7686-11cf-8f52-0040333594a3>
 DWORD nMaterials;
 DWORD nFaceIndexes;
 array DWORD faceIndexes[nFaceIndexes];
 [Material <3d82ab4d-62da-11cf-ab39-0020af71e433>]
}

template TextureFilename {
 <a42790e1-7810-11cf-8f52-0040333594a3>
 STRING filename;
}

template Coords2d {
 <f6f23f44-7686-11cf-8f52-0040333594a3>
 FLOAT u;
 FLOAT v;
}

template MeshTextureCoords {
 <f6f23f40-7686-11cf-8f52-0040333594a3>
 DWORD nTextureCoords;
 array Coords2d textureCoords[nTextureCoords];
}

template MeshNormals {
 <f6f23f43-7686-11cf-8f52-0040333594a3>
 DWORD nNormals;
 array Vector normals[nNormals];
 DWORD nFaceNormals;
 array MeshFace faceNormals[nFaceNormals];
}


Mesh  {
 78;
 -1.500000;-0.450000;0.000000;,
 -1.500000;1.100000;0.000000;,
 -2.700000;1.100000;0.000000;,
 -1.500000;-0.450000;25.000000;,
 -1.500000;1.100000;25.000000;,
 -2.700000;1.100000;25.000000;,
 -2.700000;1.100000;0.000000;,
 -7.600000;1.100000;0.000000;,
 -2.700000;1.100000;25.000000;,
 -7.600000;1.100000;25.000000;,
 -7.600000;1.100000;0.000000;,
 -7.600000;2.300000;0.000000;,
 -7.600000;1.100000;25.000000;,
 -7.600000;2.300000;25.000000;,
 -5.100000;1.100000;2.000000;,
 -5.100000;3.040000;2.000000;,
 -5.100000;1.100000;3.500000;,
 -5.100000;3.040000;3.500000;,
 -6.600000;1.100000;7.000000;,
 -6.600000;3.400000;7.000000;,
 -4.600000;3.600000;7.000000;,
 -6.600000;1.100000;19.000000;,
 -6.600000;3.400000;19.000000;,
 -4.600000;3.600000;19.000000;,
 -6.600000;1.100000;7.000000;,
 -6.450000;1.100000;7.000000;,
 -6.600000;3.400000;7.000000;,
 -6.450000;3.250000;7.000000;,
 -4.600000;3.600000;7.000000;,
 -4.600000;3.450000;7.000000;,
 -4.600000;3.600000;19.000000;,
 -4.600000;3.450000;19.000000;,
 -6.500000;1.100000;9.000000;,
 -6.500000;1.900000;9.000000;,
 -6.500000;1.100000;11.000000;,
 -6.500000;1.900000;11.000000;,
 -6.500000;1.100000;13.000000;,
 -6.500000;1.900000;13.000000;,
 -6.500000;1.100000;15.000000;,
 -6.500000;1.900000;15.000000;,
 -5.500000;3.350000;15.000000;,
 -5.500000;3.410000;15.000000;,
 -4.500000;3.350000;15.000000;,
 -4.500000;3.410000;15.000000;,
 -4.450000;3.363000;15.000000;,
 -4.480000;3.415000;15.000000;,
 -4.413000;3.400000;15.000000;,
 -4.465000;3.430000;15.000000;,
 -4.400000;3.450000;15.000000;,
 -4.460000;3.450000;15.000000;,
 -4.400000;3.480000;15.000000;,
 -4.460000;3.480000;15.000000;,
 -4.395000;3.500000;15.000000;,
 -4.447000;3.530000;15.000000;,
 -4.380000;3.515000;15.000000;,
 -4.410000;3.570000;15.000000;,
 -4.360000;3.520000;15.000000;,
 -4.360000;3.580000;15.000000;,
 -2.540000;3.520000;15.000000;,
 -2.540000;3.580000;15.000000;,
 9.900000;-0.450000;0.000000;,
 9.900000;1.100000;0.000000;,
 11.100000;1.100000;0.000000;,
 9.900000;-0.450000;25.000000;,
 9.900000;1.100000;25.000000;,
 11.100000;1.100000;25.000000;,
 11.100000;1.100000;0.000000;,
 15.900000;1.100000;0.000000;,
 11.100000;1.100000;25.000000;,
 15.900000;1.100000;25.000000;,
 15.900000;1.100000;0.000000;,
 15.900000;2.300000;0.000000;,
 15.900000;1.100000;25.000000;,
 15.900000;2.300000;25.000000;,
 13.500000;1.100000;2.000000;,
 13.500000;3.040000;2.000000;,
 13.500000;1.100000;3.500000;,
 13.500000;3.040000;3.500000;;
 52;
 3;0,1,4;,
 3;0,4,3;,
 3;1,2,5;,
 3;1,5,4;,
 3;6,7,9;,
 3;6,9,8;,
 3;10,11,13;,
 3;10,13,12;,
 3;14,15,17;,
 3;14,17,16;,
 3;18,19,22;,
 3;18,22,21;,
 3;19,20,23;,
 3;19,23,22;,
 3;24,26,27;,
 3;24,27,25;,
 3;27,26,28;,
 3;27,28,29;,
 3;29,28,30;,
 3;29,30,31;,
 3;32,33,35;,
 3;32,35,34;,
 3;36,37,39;,
 3;36,39,38;,
 3;40,41,43;,
 3;40,43,42;,
 3;42,43,45;,
 3;42,45,44;,
 3;44,45,47;,
 3;44,47,46;,
 3;46,47,49;,
 3;46,49,48;,
 3;48,49,51;,
 3;48,51,50;,
 3;50,51,53;,
 3;50,53,52;,
 3;52,53,55;,
 3;52,55,54;,
 3;54,55,57;,
 3;54,57,56;,
 3;56,57,59;,
 3;56,59,58;,
 3;63,64,61;,
 3;63,61,60;,
 3;64,65,62;,
 3;64,62,61;,
 3;67,66,68;,
 3;67,68,69;,
 3;72,73,71;,
 3;72,71,70;,
 3;76,77,75;,
 3;76,75,74;;

 MeshMaterialList  {
  13;
  52;
  0,
  0,
  0,
  0,
  1,
  1,
  2,
  2,
  3,
  3,
  4,
  4,
  4,
  4,
  5,
  5,
  5,
  5,
  5,
  5,
  6,
  6,
  7,
  7,
  8,
  8,
  8,
  8,
  8,
  8,
  8,
  8,
  8,
  8,
  8,
  8,
  8,
  8,
  8,
  8,
  8,
  8,
  9,
  9,
  9,
  9,
  10,
  10,
  11,
  11,
  12,
  12;

  Material  {
   1.000000;1.000000;1.000000;1.000000;;
   0.000000;
   0.000000;0.000000;0.000000;;
   0.000000;0.000000;0.000000;;

   TextureFilename  {
    "FormSide2.png";
   }
  }

  Material  {
   1.000000;1.000000;1.000000;1.000000;;
   0.000000;
   0.000000;0.000000;0.000000;;
   0.000000;0.000000;0.000000;;

   TextureFilename  {
    "FormC.png";
   }
  }

  Material  {
   1.000000;1.000000;1.000000;1.000000;;
   0.000000;
   0.000000;0.000000;0.000000;;
   0.000000;0.000000;0.000000;;

   TextureFilename  {
    "Saku1.png";
   }
  }

  Material  {
   1.000000;1.000000;1.000000;1.000000;;
   0.000000;
   0.000000;0.000000;0.000000;;
   0.000000;0.000000;0.000000;;

   TextureFilename  {
    "Ekimei2.png";
   }
  }

  Material  {
   1.000000;1.000000;1.000000;1.000000;;
   0.000000;
   0.000000;0.000000;0.000000;;
   0.000000;0.000000;0.000000;;

   TextureFilename  {
    "Roof6.png";
   }
  }

  Material  {
   1.000000;1.000000;1.000000;1.000000;;
   0.000000;
   0.000000;0.000000;0.000000;;
   0.000000;0.000000;0.000000;;

   TextureFilename  {
    "Iron6.png";
   }
  }

  Material  {
   1.000000;1.000000;1.000000;1.000000;;
   0.000000;
   0.000000;0.000000;0.000000;;
   0.000000;0.000000;0.000000;;

   TextureFilename  {
    "Bench2.png";
   }
  }

  Material  {
   1.000000;1.000000;1.000000;1.000000;;
   0.000000;
   0.000000;0.000000;0.000000;;
   0.000000;0.000000;0.000000;;

   TextureFilename  {
    "Bench2.png";
   }
  }

  Material  {
   1.000000;1.000000;1.000000;1.000000;;
   0.000000;
   0.000000;0.000000;0.000000;;
   0.000000;0.000000;0.000000;;

   TextureFilename  {
    "BarIron.png";
   }
  }

  Material  {
   1.000000;1.000000;1.000000;1.000000;;
   0.000000;
   0.000000;0.000000;0.000000;;
   0.000000;0.000000;0.000000;;

   TextureFilename  {
    "FormSide2.png";
   }
  }

  Material  {
   1.000000;1.000000;1.000000;1.000000;;
   0.000000;
   0.000000;0.000000;0.000000;;
   0.000000;0.000000;0.000000;;

   TextureFilename  {
    "FormC.png";
   }
  }

  Material  {
   1.000000;1.000000;1.000000;1.000000;;
   0.000000;
   0.000000;0.000000;0.000000;;
   0.000000;0.000000;0.000000;;

   TextureFilename  {
    "Saku1.png";
   }
  }

  Material  {
   1.000000;1.000000;1.000000;1.000000;;
   0.000000;
   0.000000;0.000000;0.000000;;
   0.000000;0.000000;0.000000;;

   TextureFilename  {
    "Ekimei2.png";
   }
  }
 }

 MeshTextureCoords  {
  78;
  0.000000;1.000000;,
  0.000000;0.350000;,
  0.000000;0.000000;,
  3.000000;1.000000;,
  3.000000;0.350000;,
  3.000000;0.000000;,
  1.000000;0.000000;,
  0.075000;0.000000;,
  1.000000;1.000000;,
  0.075000;1.000000;,
  0.000000;1.000000;,
  0.000000;0.000000;,
  10.000000;1.000000;,
  10.000000;0.000000;,
  0.000000;1.000000;,
  0.000000;0.000000;,
  1.000000;1.000000;,
  1.000000;0.000000;,
  0.130000;6.000000;,
  0.130000;2.000000;,
  0.130000;0.000000;,
  5.130000;6.000000;,
  5.130000;2.000000;,
  5.130000;0.000000;,
  0.000000;0.000000;,
  0.000000;1.000000;,
  0.250000;0.000000;,
  0.250000;1.000000;,
  0.500000;0.000000;,
  0.500000;1.000000;,
  1.000000;0.000000;,
  1.000000;1.000000;,
  1.000000;1.000000;,
  1.000000;0.000000;,
  0.000000;1.000000;,
  0.000000;0.000000;,
  1.000000;1.000000;,
  1.000000;0.000000;,
  0.000000;1.000000;,
  0.000000;0.000000;,
  0.000000;0.000000;,
  1.000000;0.000000;,
  0.000000;0.100000;,
  1.000000;0.100000;,
  0.000000;0.200000;,
  1.000000;0.200000;,
  0.000000;0.300000;,
  1.000000;0.300000;,
  0.000000;0.400000;,
  1.000000;0.400000;,
  0.000000;0.500000;,
  1.000000;0.500000;,
  0.000000;0.600000;,
  1.000000;0.600000;,
  0.000000;0.700000;,
  1.000000;0.700000;,
  0.000000;0.800000;,
  1.000000;0.800000;,
  0.000000;0.900000;,
  1.000000;0.900000;,
  0.000000;1.000000;,
  0.000000;0.350000;,
  0.000000;0.000000;,
  3.000000;1.000000;,
  3.000000;0.350000;,
  3.000000;0.000000;,
  1.000000;0.000000;,
  0.170000;0.000000;,
  1.000000;1.000000;,
  0.170000;1.000000;,
  0.000000;1.000000;,
  0.000000;0.000000;,
  10.000000;1.000000;,
  10.000000;0.000000;,
  0.000000;1.000000;,
  0.000000;0.000000;,
  1.000000;1.000000;,
  1.000000;0.000000;;
 }

 MeshNormals  {
  52;
  1.000000;0.000000;0.000000;,
  1.000000;0.000000;0.000000;,
  0.000000;1.000000;0.000000;,
  0.000000;1.000000;0.000000;,
  0.000000;1.000000;0.000000;,
  0.000000;1.000000;0.000000;,
  1.000000;0.000000;0.000000;,
  1.000000;0.000000;0.000000;,
  1.000000;0.000000;0.000000;,
  1.000000;0.000000;0.000000;,
  1.000000;0.000000;0.000000;,
  1.000000;0.000000;0.000000;,
  0.099504;-0.995037;0.000000;,
  0.099504;-0.995037;0.000000;,
  0.000000;0.000000;-1.000000;,
  0.000000;0.000000;-1.000000;,
  0.000000;0.000000;-1.000000;,
  0.000000;0.000000;-1.000000;,
  1.000000;0.000000;0.000000;,
  1.000000;0.000000;0.000000;,
  1.000000;0.000000;0.000000;,
  1.000000;0.000000;0.000000;,
  1.000000;0.000000;0.000000;,
  1.000000;0.000000;0.000000;,
  0.000000;0.000000;-1.000000;,
  0.000000;0.000000;-1.000000;,
  0.000000;0.000000;-1.000000;,
  0.000000;0.000000;-1.000000;,
  0.000000;0.000000;-1.000000;,
  0.000000;0.000000;-1.000000;,
  0.000000;0.000000;-1.000000;,
  0.000000;0.000000;-1.000000;,
  0.000000;0.000000;-1.000000;,
  0.000000;0.000000;-1.000000;,
  0.000000;0.000000;-1.000000;,
  0.000000;0.000000;-1.000000;,
  0.000000;0.000000;-1.000000;,
  0.000000;0.000000;-1.000000;,
  0.000000;0.000000;-1.000000;,
  0.000000;0.000000;-1.000000;,
  0.000000;0.000000;-1.000000;,
  0.000000;0.000000;-1.000000;,
  -1.000000;0.000000;0.000000;,
  -1.000000;0.000000;0.000000;,
  0.000000;1.000000;0.000000;,
  0.000000;1.000000;0.000000;,
  0.000000;1.000000;0.000000;,
  0.000000;1.000000;0.000000;,
  -1.000000;0.000000;0.000000;,
  -1.000000;0.000000;0.000000;,
  -1.000000;0.000000;0.000000;,
  -1.000000;0.000000;0.000000;;
  52;
  3;0,0,0;,
  3;1,1,1;,
  3;2,2,2;,
  3;3,3,3;,
  3;4,4,4;,
  3;5,5,5;,
  3;6,6,6;,
  3;7,7,7;,
  3;8,8,8;,
  3;9,9,9;,
  3;10,10,10;,
  3;11,11,11;,
  3;12,12,12;,
  3;13,13,13;,
  3;14,14,14;,
  3;15,15,15;,
  3;16,16,16;,
  3;17,17,17;,
  3;18,18,18;,
  3;19,19,19;,
  3;20,20,20;,
  3;21,21,21;,
  3;22,22,22;,
  3;23,23,23;,
  3;24,24,24;,
  3;25,25,25;,
  3;26,26,26;,
  3;27,27,27;,
  3;28,28,28;,
  3;29,29,29;,
  3;30,30,30;,
  3;31,31,31;,
  3;32,32,32;,
  3;33,33,33;,
  3;34,34,34;,
  3;35,35,35;,
  3;36,36,36;,
  3;37,37,37;,
  3;38,38,38;,
  3;39,39,39;,
  3;40,40,40;,
  3;41,41,41;,
  3;42,42,42;,
  3;43,43,43;,
  3;44,44,44;,
  3;45,45,45;,
  3;46,46,46;,
  3;47,47,47;,
  3;48,48,48;,
  3;49,49,49;,
  3;50,50,50;,
  3;51,51,51;;
 }
}