xof 0303txt 0032
template Vector {
 <3d82ab5e-62da-11cf-ab39-0020af71e433>
 FLOAT x;
 FLOAT y;
 FLOAT z;
}

template MeshFace {
 <3d82ab5f-62da-11cf-ab39-0020af71e433>
 DWORD nFaceVertexIndices;
 array DWORD faceVertexIndices[nFaceVertexIndices];
}

template Mesh {
 <3d82ab44-62da-11cf-ab39-0020af71e433>
 DWORD nVertices;
 array Vector vertices[nVertices];
 DWORD nFaces;
 array MeshFace faces[nFaces];
 [...]
}

template ColorRGBA {
 <35ff44e0-6c7c-11cf-8f52-0040333594a3>
 FLOAT red;
 FLOAT green;
 FLOAT blue;
 FLOAT alpha;
}

template ColorRGB {
 <d3e16e81-7835-11cf-8f52-0040333594a3>
 FLOAT red;
 FLOAT green;
 FLOAT blue;
}

template Material {
 <3d82ab4d-62da-11cf-ab39-0020af71e433>
 ColorRGBA faceColor;
 FLOAT power;
 ColorRGB specularColor;
 ColorRGB emissiveColor;
 [...]
}

template MeshMaterialList {
 <f6f23f42-7686-11cf-8f52-0040333594a3>
 DWORD nMaterials;
 DWORD nFaceIndexes;
 array DWORD faceIndexes[nFaceIndexes];
 [Material <3d82ab4d-62da-11cf-ab39-0020af71e433>]
}

template TextureFilename {
 <a42790e1-7810-11cf-8f52-0040333594a3>
 STRING filename;
}

template Coords2d {
 <f6f23f44-7686-11cf-8f52-0040333594a3>
 FLOAT u;
 FLOAT v;
}

template MeshTextureCoords {
 <f6f23f40-7686-11cf-8f52-0040333594a3>
 DWORD nTextureCoords;
 array Coords2d textureCoords[nTextureCoords];
}

template MeshNormals {
 <f6f23f43-7686-11cf-8f52-0040333594a3>
 DWORD nNormals;
 array Vector normals[nNormals];
 DWORD nFaceNormals;
 array MeshFace faceNormals[nFaceNormals];
}


Mesh  {
 207;
 -1.500000;-0.450000;12.000000;,
 -1.500000;-0.200000;12.000000;,
 -2.700000;-0.450000;12.000000;,
 -2.700000;-0.200000;12.000000;,
 -1.500000;-0.450000;15.000000;,
 -1.500000;-0.200000;15.000000;,
 -2.700000;-0.200000;15.000000;,
 -1.500000;-0.450000;25.000000;,
 -1.500000;0.600000;25.000000;,
 -1.500000;0.850000;25.000000;,
 -2.700000;0.850000;25.000000;,
 -1.500000;1.100000;25.000000;,
 -2.700000;1.100000;25.000000;,
 -2.700000;-0.450000;7.000000;,
 -8.000000;-0.450000;7.000000;,
 -2.700000;-0.450000;9.000000;,
 -8.000000;-0.450000;9.000000;,
 -2.700000;-0.450000;25.000000;,
 -2.700000;1.100000;25.000000;,
 -8.000000;1.100000;25.000000;,
 -2.800000;-0.450000;7.000000;,
 -2.800000;0.750000;7.000000;,
 -2.800000;-0.450000;9.000000;,
 -2.800000;0.750000;9.000000;,
 -2.800000;1.100000;25.000000;,
 -2.800000;2.300000;25.000000;,
 -2.100000;1.100000;25.000000;,
 -2.100000;2.300000;25.000000;,
 -8.000000;-0.450000;7.000000;,
 -8.000000;0.750000;7.000000;,
 -8.000000;-0.450000;9.000000;,
 -8.000000;0.750000;9.000000;,
 -8.000000;1.100000;25.000000;,
 -8.000000;2.300000;25.000000;,
 -2.600000;-0.200000;21.000000;,
 -2.600000;4.050000;21.000000;,
 -2.400000;4.050000;21.000000;,
 -2.400000;-0.200000;21.000000;,
 -8.000000;-0.200000;21.000000;,
 -8.000000;3.490000;21.000000;,
 -7.800000;3.490000;21.000000;,
 -7.800000;-0.200000;21.000000;,
 -2.600000;-0.200000;15.000000;,
 -2.600000;4.050000;15.000000;,
 -2.400000;4.050000;15.000000;,
 -2.400000;-0.200000;15.000000;,
 -2.600000;-0.200000;12.000000;,
 -2.600000;4.050000;12.000000;,
 -2.400000;4.050000;12.000000;,
 -2.400000;-0.200000;12.000000;,
 -2.600000;-0.450000;7.000000;,
 -2.600000;4.050000;7.000000;,
 -2.400000;4.050000;7.000000;,
 -2.400000;-0.450000;7.000000;,
 -2.600000;-0.450000;2.000000;,
 -2.600000;4.050000;2.000000;,
 -2.400000;4.050000;2.000000;,
 -2.400000;-0.450000;2.000000;,
 -2.600000;-0.450000;-2.000000;,
 -2.600000;4.050000;-2.000000;,
 -2.400000;4.050000;-2.000000;,
 -2.400000;-0.450000;-2.000000;,
 -2.600000;-0.450000;-5.500000;,
 -2.600000;4.050000;-5.500000;,
 -2.400000;4.050000;-5.500000;,
 -2.400000;-0.450000;-5.500000;,
 -8.000000;3.290000;25.990000;,
 -8.000000;3.490000;25.990000;,
 -4.400000;4.390000;25.990000;,
 -4.400000;4.590000;25.990000;,
 -1.700000;3.560000;25.990000;,
 -1.700000;3.760000;25.990000;,
 -8.000000;3.290000;20.990000;,
 -8.000000;3.490000;20.990000;,
 -4.400000;4.390000;20.990000;,
 -4.400000;4.590000;20.990000;,
 -1.700000;3.560000;20.990000;,
 -1.700000;3.760000;20.990000;,
 -8.000000;3.290000;14.990000;,
 -8.000000;3.490000;14.990000;,
 -4.400000;4.390000;14.990000;,
 -4.400000;4.590000;14.990000;,
 -1.700000;3.560000;14.990000;,
 -1.700000;3.760000;14.990000;,
 -10.100000;3.560000;11.990000;,
 -10.100000;3.760000;11.990000;,
 -5.900000;4.850000;11.990000;,
 -5.900000;5.050000;11.990000;,
 -1.700000;3.560000;11.990000;,
 -1.700000;3.760000;11.990000;,
 -3.000000;3.960000;6.990000;,
 -3.000000;4.160000;6.990000;,
 -1.700000;3.560000;6.990000;,
 -1.700000;3.760000;6.990000;,
 -3.000000;3.960000;1.990000;,
 -3.000000;4.160000;1.990000;,
 -1.700000;3.560000;1.990000;,
 -1.700000;3.760000;1.990000;,
 -3.000000;3.960000;-2.010000;,
 -3.000000;4.160000;-2.010000;,
 -1.700000;3.560000;-2.010000;,
 -1.700000;3.760000;-2.010000;,
 -3.000000;3.960000;-5.510000;,
 -3.000000;4.160000;-5.510000;,
 -1.700000;3.560000;-5.510000;,
 -1.700000;3.760000;-5.510000;,
 -10.100000;3.760000;-6.000000;,
 -10.100000;4.060000;-6.000000;,
 -5.900000;5.050000;-6.000000;,
 -5.900000;5.350000;-6.000000;,
 -1.700000;3.760000;-6.000000;,
 -1.700000;4.060000;-6.000000;,
 -1.700000;3.760000;26.000000;,
 -1.700000;4.060000;26.000000;,
 -1.700000;3.760000;15.000000;,
 -4.400000;4.590000;15.000000;,
 -8.000000;3.490000;15.000000;,
 -1.700000;3.760000;26.000000;,
 -4.400000;4.590000;26.000000;,
 -8.000000;3.490000;26.000000;,
 -1.700000;3.760000;-6.000000;,
 -5.900000;5.050000;-6.000000;,
 -10.100000;3.760000;-6.000000;,
 -1.700000;3.760000;15.000000;,
 -5.900000;5.050000;15.000000;,
 -10.100000;3.760000;15.000000;,
 -4.400000;4.590000;15.000000;,
 -9.000000;3.175000;15.000000;,
 -10.100000;2.300000;15.000000;,
 -10.100000;3.760000;15.000000;,
 -5.900000;5.050000;15.000000;,
 -8.800000;-0.500000;-5.500000;,
 -8.800000;4.200000;-5.500000;,
 -3.000000;-0.500000;-5.500000;,
 -3.000000;4.200000;-5.500000;,
 -3.000000;-0.500000;7.000000;,
 -3.000000;4.200000;7.000000;,
 -1.800000;3.790000;-5.700000;,
 -2.600000;2.000000;-5.700000;,
 -9.200000;2.000000;-5.700000;,
 -10.000000;3.790000;-5.700000;,
 -5.900000;5.050000;-5.700000;,
 -2.990000;0.800000;-3.800000;,
 -2.990000;2.000000;-3.800000;,
 -2.990000;2.000000;-2.000000;,
 -2.990000;0.800000;-2.000000;,
 -2.990000;0.800000;-1.800000;,
 -2.990000;2.000000;-1.800000;,
 -2.990000;2.000000;1.800000;,
 -2.990000;0.800000;1.800000;,
 -2.990000;0.800000;2.200000;,
 -2.990000;2.000000;2.200000;,
 -2.990000;2.000000;5.800000;,
 -2.990000;0.800000;5.800000;,
 9.900000;-0.450000;12.000000;,
 9.900000;-0.200000;12.000000;,
 10.200000;-0.450000;12.000000;,
 10.200000;-0.200000;12.000000;,
 9.900000;-0.450000;15.000000;,
 9.900000;-0.200000;15.000000;,
 10.200000;-0.200000;15.000000;,
 9.900000;-0.450000;25.000000;,
 9.900000;0.600000;25.000000;,
 9.900000;0.850000;25.000000;,
 10.200000;0.850000;25.000000;,
 10.200000;-0.450000;9.000000;,
 10.200000;-0.200000;9.000000;,
 10.200000;-0.450000;12.000000;,
 10.200000;-0.200000;15.000000;,
 10.200000;0.850000;25.000000;,
 14.200000;-0.450000;9.000000;,
 14.200000;-0.200000;9.000000;,
 14.200000;-0.200000;15.000000;,
 14.200000;0.850000;25.000000;,
 9.900000;-0.450000;25.000000;,
 9.900000;1.100000;25.000000;,
 20.900000;-0.450000;25.000000;,
 20.900000;1.100000;25.000000;,
 18.200001;-0.450000;10.000000;,
 18.200001;3.080000;10.000000;,
 16.200001;4.200000;10.000000;,
 14.200000;-0.450000;10.000000;,
 14.200000;3.080000;10.000000;,
 14.200000;-0.450000;16.000000;,
 14.200000;3.000000;16.000000;,
 14.190000;-0.200000;10.200000;,
 14.190000;2.200000;10.200000;,
 14.190000;-0.200000;12.000000;,
 14.190000;2.200000;12.000000;,
 14.190000;-0.200000;14.000000;,
 14.190000;2.200000;14.000000;,
 14.190000;-0.200000;15.800000;,
 14.190000;2.200000;15.800000;,
 13.700000;2.600000;9.500000;,
 13.700000;2.600000;16.500000;,
 13.700000;2.800000;9.500000;,
 13.700000;2.800000;16.500000;,
 16.200001;4.200000;9.500000;,
 16.200001;4.200000;16.500000;,
 13.700000;2.600000;9.500000;,
 13.700000;2.800000;9.500000;,
 16.200001;4.000000;11.500000;,
 16.200001;4.000000;9.500000;,
 16.200001;4.200000;9.500000;,
 18.700001;2.600000;11.500000;,
 18.700001;2.600000;9.500000;,
 18.700001;2.800000;9.500000;;
 137;
 3;2,3,1;,
 3;2,1,0;,
 3;0,1,5;,
 3;0,5,4;,
 3;1,3,6;,
 3;1,6,5;,
 3;4,5,9;,
 3;4,9,8;,
 3;5,6,10;,
 3;5,10,9;,
 3;4,8,7;,
 3;10,12,11;,
 3;10,11,9;,
 3;13,14,16;,
 3;13,16,15;,
 3;15,16,19;,
 3;15,19,18;,
 3;15,18,17;,
 3;20,21,23;,
 3;20,23,22;,
 3;22,23,25;,
 3;22,25,24;,
 3;24,25,27;,
 3;24,27,26;,
 3;28,29,31;,
 3;28,31,30;,
 3;30,31,33;,
 3;30,33,32;,
 3;34,35,36;,
 3;34,36,37;,
 3;38,39,40;,
 3;38,40,41;,
 3;42,43,44;,
 3;42,44,45;,
 3;46,47,48;,
 3;46,48,49;,
 3;50,51,52;,
 3;50,52,53;,
 3;54,55,56;,
 3;54,56,57;,
 3;58,59,60;,
 3;58,60,61;,
 3;62,63,64;,
 3;62,64,65;,
 3;66,67,69;,
 3;66,69,68;,
 3;68,69,71;,
 3;68,71,70;,
 3;72,73,75;,
 3;72,75,74;,
 3;74,75,77;,
 3;74,77,76;,
 3;78,79,81;,
 3;78,81,80;,
 3;80,81,83;,
 3;80,83,82;,
 3;84,85,87;,
 3;84,87,86;,
 3;86,87,89;,
 3;86,89,88;,
 3;90,91,93;,
 3;90,93,92;,
 3;94,95,97;,
 3;94,97,96;,
 3;98,99,101;,
 3;98,101,100;,
 3;102,103,105;,
 3;102,105,104;,
 3;106,107,109;,
 3;106,109,108;,
 3;108,109,111;,
 3;108,111,110;,
 3;110,111,113;,
 3;110,113,112;,
 3;117,118,115;,
 3;117,115,114;,
 3;118,119,116;,
 3;118,116,115;,
 3;123,124,121;,
 3;123,121,120;,
 3;124,125,122;,
 3;124,122,121;,
 3;126,127,129;,
 3;126,129,130;,
 3;127,128,129;,
 3;131,132,134;,
 3;131,134,133;,
 3;133,134,136;,
 3;133,136,135;,
 3;137,138,139;,
 3;137,139,140;,
 3;137,140,141;,
 3;142,143,144;,
 3;142,144,145;,
 3;146,147,148;,
 3;146,148,149;,
 3;150,151,152;,
 3;150,152,153;,
 3;154,155,157;,
 3;154,157,156;,
 3;158,159,155;,
 3;158,155,154;,
 3;159,160,157;,
 3;159,157,155;,
 3;161,163,159;,
 3;161,159,158;,
 3;163,164,160;,
 3;163,160,159;,
 3;165,166,171;,
 3;165,171,170;,
 3;167,168,166;,
 3;167,166,165;,
 3;166,168,172;,
 3;166,172,171;,
 3;168,169,173;,
 3;168,173,172;,
 3;174,175,177;,
 3;174,177,176;,
 3;181,182,180;,
 3;181,180,179;,
 3;181,179,178;,
 3;183,184,182;,
 3;183,182,181;,
 3;187,188,186;,
 3;187,186,185;,
 3;191,192,190;,
 3;191,190,189;,
 3;193,194,196;,
 3;193,196,195;,
 3;195,196,198;,
 3;195,198,197;,
 3;199,200,203;,
 3;199,203,202;,
 3;201,202,205;,
 3;201,205,204;,
 3;202,203,206;,
 3;202,206,205;;

 MeshMaterialList  {
  37;
  137;
  0,
  0,
  0,
  0,
  0,
  0,
  0,
  0,
  0,
  0,
  0,
  0,
  0,
  1,
  1,
  1,
  1,
  1,
  2,
  2,
  2,
  2,
  2,
  2,
  3,
  3,
  3,
  3,
  4,
  4,
  5,
  5,
  6,
  6,
  7,
  7,
  8,
  8,
  9,
  9,
  10,
  10,
  11,
  11,
  12,
  12,
  12,
  12,
  13,
  13,
  13,
  13,
  14,
  14,
  14,
  14,
  15,
  15,
  15,
  15,
  16,
  16,
  17,
  17,
  18,
  18,
  19,
  19,
  20,
  20,
  20,
  20,
  20,
  20,
  21,
  21,
  21,
  21,
  22,
  22,
  22,
  22,
  23,
  23,
  23,
  24,
  24,
  24,
  24,
  25,
  25,
  25,
  26,
  26,
  27,
  27,
  28,
  28,
  29,
  29,
  29,
  29,
  29,
  29,
  29,
  29,
  29,
  29,
  30,
  30,
  30,
  30,
  30,
  30,
  30,
  30,
  31,
  31,
  32,
  32,
  32,
  32,
  32,
  33,
  33,
  34,
  34,
  35,
  35,
  35,
  35,
  36,
  36,
  36,
  36,
  36,
  36;

  Material  {
   1.000000;1.000000;1.000000;1.000000;;
   0.000000;
   0.000000;0.000000;0.000000;;
   0.000000;0.000000;0.000000;;

   TextureFilename  {
    "FormSide1.png";
   }
  }

  Material  {
   1.000000;1.000000;1.000000;1.000000;;
   0.000000;
   0.000000;0.000000;0.000000;;
   0.000000;0.000000;0.000000;;

   TextureFilename  {
    "FormC.png";
   }
  }

  Material  {
   1.000000;1.000000;1.000000;1.000000;;
   0.000000;
   0.000000;0.000000;0.000000;;
   0.000000;0.000000;0.000000;;

   TextureFilename  {
    "Saku1.png";
   }
  }

  Material  {
   1.000000;1.000000;1.000000;1.000000;;
   0.000000;
   0.000000;0.000000;0.000000;;
   0.000000;0.000000;0.000000;;

   TextureFilename  {
    "Saku1.png";
   }
  }

  Material  {
   1.000000;1.000000;1.000000;1.000000;;
   0.000000;
   0.000000;0.000000;0.000000;;
   0.000000;0.000000;0.000000;;

   TextureFilename  {
    "Iron2.png";
   }
  }

  Material  {
   1.000000;1.000000;1.000000;1.000000;;
   0.000000;
   0.000000;0.000000;0.000000;;
   0.000000;0.000000;0.000000;;

   TextureFilename  {
    "Iron2.png";
   }
  }

  Material  {
   1.000000;1.000000;1.000000;1.000000;;
   0.000000;
   0.000000;0.000000;0.000000;;
   0.000000;0.000000;0.000000;;

   TextureFilename  {
    "Iron2.png";
   }
  }

  Material  {
   1.000000;1.000000;1.000000;1.000000;;
   0.000000;
   0.000000;0.000000;0.000000;;
   0.000000;0.000000;0.000000;;

   TextureFilename  {
    "Iron2.png";
   }
  }

  Material  {
   1.000000;1.000000;1.000000;1.000000;;
   0.000000;
   0.000000;0.000000;0.000000;;
   0.000000;0.000000;0.000000;;

   TextureFilename  {
    "Iron2.png";
   }
  }

  Material  {
   1.000000;1.000000;1.000000;1.000000;;
   0.000000;
   0.000000;0.000000;0.000000;;
   0.000000;0.000000;0.000000;;

   TextureFilename  {
    "Iron2.png";
   }
  }

  Material  {
   1.000000;1.000000;1.000000;1.000000;;
   0.000000;
   0.000000;0.000000;0.000000;;
   0.000000;0.000000;0.000000;;

   TextureFilename  {
    "Iron2.png";
   }
  }

  Material  {
   1.000000;1.000000;1.000000;1.000000;;
   0.000000;
   0.000000;0.000000;0.000000;;
   0.000000;0.000000;0.000000;;

   TextureFilename  {
    "Iron2.png";
   }
  }

  Material  {
   1.000000;1.000000;1.000000;1.000000;;
   0.000000;
   0.000000;0.000000;0.000000;;
   0.000000;0.000000;0.000000;;

   TextureFilename  {
    "Iron3.png";
   }
  }

  Material  {
   1.000000;1.000000;1.000000;1.000000;;
   0.000000;
   0.000000;0.000000;0.000000;;
   0.000000;0.000000;0.000000;;

   TextureFilename  {
    "Iron3.png";
   }
  }

  Material  {
   1.000000;1.000000;1.000000;1.000000;;
   0.000000;
   0.000000;0.000000;0.000000;;
   0.000000;0.000000;0.000000;;

   TextureFilename  {
    "Iron3.png";
   }
  }

  Material  {
   1.000000;1.000000;1.000000;1.000000;;
   0.000000;
   0.000000;0.000000;0.000000;;
   0.000000;0.000000;0.000000;;

   TextureFilename  {
    "Iron3.png";
   }
  }

  Material  {
   1.000000;1.000000;1.000000;1.000000;;
   0.000000;
   0.000000;0.000000;0.000000;;
   0.000000;0.000000;0.000000;;

   TextureFilename  {
    "Iron3.png";
   }
  }

  Material  {
   1.000000;1.000000;1.000000;1.000000;;
   0.000000;
   0.000000;0.000000;0.000000;;
   0.000000;0.000000;0.000000;;

   TextureFilename  {
    "Iron3.png";
   }
  }

  Material  {
   1.000000;1.000000;1.000000;1.000000;;
   0.000000;
   0.000000;0.000000;0.000000;;
   0.000000;0.000000;0.000000;;

   TextureFilename  {
    "Iron3.png";
   }
  }

  Material  {
   1.000000;1.000000;1.000000;1.000000;;
   0.000000;
   0.000000;0.000000;0.000000;;
   0.000000;0.000000;0.000000;;

   TextureFilename  {
    "Iron3.png";
   }
  }

  Material  {
   1.000000;1.000000;1.000000;1.000000;;
   0.000000;
   0.000000;0.000000;0.000000;;
   0.000000;0.000000;0.000000;;

   TextureFilename  {
    "Roof3.png";
   }
  }

  Material  {
   1.000000;1.000000;1.000000;1.000000;;
   0.000000;
   0.000000;0.000000;0.000000;;
   0.000000;0.000000;0.000000;;

   TextureFilename  {
    "Roof4.png";
   }
  }

  Material  {
   1.000000;1.000000;1.000000;1.000000;;
   0.000000;
   0.000000;0.000000;0.000000;;
   0.000000;0.000000;0.000000;;

   TextureFilename  {
    "Roof4.png";
   }
  }

  Material  {
   1.000000;1.000000;1.000000;1.000000;;
   0.000000;
   0.000000;0.000000;0.000000;;
   0.000000;0.000000;0.000000;;

   TextureFilename  {
    "Kosen_Wall2.png";
   }
  }

  Material  {
   1.000000;1.000000;1.000000;1.000000;;
   0.000000;
   0.000000;0.000000;0.000000;;
   0.000000;0.000000;0.000000;;

   TextureFilename  {
    "Wall2.png";
   }
  }

  Material  {
   1.000000;1.000000;1.000000;1.000000;;
   0.000000;
   0.000000;0.000000;0.000000;;
   0.000000;0.000000;0.000000;;

   TextureFilename  {
    "Wall1.png";
   }
  }

  Material  {
   1.000000;1.000000;1.000000;1.000000;;
   0.000000;
   0.000000;0.000000;0.000000;;
   0.000000;0.000000;0.000000;;

   TextureFilename  {
    "Window1.png";
   }
  }

  Material  {
   1.000000;1.000000;1.000000;1.000000;;
   0.000000;
   0.000000;0.000000;0.000000;;
   0.000000;0.000000;0.000000;;

   TextureFilename  {
    "Window1.png";
   }
  }

  Material  {
   1.000000;1.000000;1.000000;1.000000;;
   0.000000;
   0.000000;0.000000;0.000000;;
   0.000000;0.000000;0.000000;;

   TextureFilename  {
    "Window1.png";
   }
  }

  Material  {
   1.000000;1.000000;1.000000;1.000000;;
   0.000000;
   0.000000;0.000000;0.000000;;
   0.000000;0.000000;0.000000;;

   TextureFilename  {
    "FormSide1.png";
   }
  }

  Material  {
   1.000000;1.000000;1.000000;1.000000;;
   0.000000;
   0.000000;0.000000;0.000000;;
   0.000000;0.000000;0.000000;;

   TextureFilename  {
    "FormC.png";
   }
  }

  Material  {
   1.000000;1.000000;1.000000;1.000000;;
   0.000000;
   0.000000;0.000000;0.000000;;
   0.000000;0.000000;0.000000;;

   TextureFilename  {
    "FormSide2.png";
   }
  }

  Material  {
   1.000000;1.000000;1.000000;1.000000;;
   0.000000;
   0.000000;0.000000;0.000000;;
   0.000000;0.000000;0.000000;;

   TextureFilename  {
    "Wall4.png";
   }
  }

  Material  {
   1.000000;1.000000;1.000000;1.000000;;
   0.000000;
   0.000000;0.000000;0.000000;;
   0.000000;0.000000;0.000000;;

   TextureFilename  {
    "Door2.png";
   }
  }

  Material  {
   1.000000;1.000000;1.000000;1.000000;;
   0.000000;
   0.000000;0.000000;0.000000;;
   0.000000;0.000000;0.000000;;

   TextureFilename  {
    "Door2.png";
   }
  }

  Material  {
   1.000000;1.000000;1.000000;1.000000;;
   0.000000;
   0.000000;0.000000;0.000000;;
   0.000000;0.000000;0.000000;;

   TextureFilename  {
    "Roof8.png";
   }
  }

  Material  {
   1.000000;1.000000;1.000000;1.000000;;
   0.000000;
   0.000000;0.000000;0.000000;;
   0.000000;0.000000;0.000000;;

   TextureFilename  {
    "Roof9.png";
   }
  }
 }

 MeshTextureCoords  {
  207;
  0.000000;0.500000;,
  0.000000;0.250000;,
  0.000000;0.000000;,
  0.000000;0.000000;,
  0.400000;0.500000;,
  0.400000;0.250000;,
  0.400000;0.000000;,
  1.000000;1.000000;,
  1.000000;0.500000;,
  1.000000;0.250000;,
  1.000000;0.000000;,
  1.000000;0.250000;,
  1.000000;0.000000;,
  1.000000;0.280000;,
  0.000000;0.280000;,
  1.000000;0.360000;,
  0.000000;0.360000;,
  1.000000;1.000000;,
  1.000000;1.000000;,
  0.000000;1.000000;,
  0.000000;1.000000;,
  0.000000;0.000000;,
  0.800000;1.000000;,
  0.800000;0.000000;,
  7.200000;1.000000;,
  7.200000;0.000000;,
  7.480000;1.000000;,
  7.480000;0.000000;,
  0.000000;1.000000;,
  0.000000;0.000000;,
  0.800000;1.000000;,
  0.800000;0.000000;,
  7.200000;1.000000;,
  7.200000;0.000000;,
  0.000000;1.000000;,
  0.000000;0.000000;,
  1.000000;0.000000;,
  1.000000;1.000000;,
  0.000000;0.400000;,
  0.000000;0.050000;,
  1.000000;0.050000;,
  1.000000;0.400000;,
  0.000000;1.000000;,
  0.000000;0.000000;,
  1.000000;0.000000;,
  1.000000;1.000000;,
  0.000000;1.000000;,
  0.000000;0.000000;,
  1.000000;0.000000;,
  1.000000;1.000000;,
  0.000000;1.000000;,
  0.000000;0.000000;,
  1.000000;0.000000;,
  1.000000;1.000000;,
  0.000000;1.000000;,
  0.000000;0.000000;,
  1.000000;0.000000;,
  1.000000;1.000000;,
  0.000000;1.000000;,
  0.000000;0.000000;,
  1.000000;0.000000;,
  1.000000;1.000000;,
  0.000000;1.000000;,
  0.000000;0.000000;,
  1.000000;0.000000;,
  1.000000;1.000000;,
  0.000000;1.000000;,
  0.000000;0.000000;,
  1.000000;1.000000;,
  1.000000;0.000000;,
  2.000000;1.000000;,
  2.000000;0.000000;,
  0.000000;1.000000;,
  0.000000;0.000000;,
  1.000000;1.000000;,
  1.000000;0.000000;,
  2.000000;1.000000;,
  2.000000;0.000000;,
  0.000000;1.000000;,
  0.000000;0.000000;,
  1.000000;1.000000;,
  1.000000;0.000000;,
  2.000000;1.000000;,
  2.000000;0.000000;,
  0.000000;1.000000;,
  0.000000;0.000000;,
  1.000000;1.000000;,
  1.000000;0.000000;,
  2.000000;1.000000;,
  2.000000;0.000000;,
  0.000000;1.000000;,
  0.000000;0.000000;,
  1.000000;1.000000;,
  1.000000;0.000000;,
  0.000000;1.000000;,
  0.000000;0.000000;,
  1.000000;1.000000;,
  1.000000;0.000000;,
  0.000000;1.000000;,
  0.000000;0.000000;,
  1.000000;1.000000;,
  1.000000;0.000000;,
  0.000000;1.000000;,
  0.000000;0.000000;,
  1.000000;1.000000;,
  1.000000;0.000000;,
  0.000000;1.000000;,
  0.000000;0.500000;,
  0.000000;1.000000;,
  0.000000;0.500000;,
  0.000000;1.000000;,
  0.000000;0.500000;,
  15.000000;1.000000;,
  15.000000;0.500000;,
  7.000000;0.000000;,
  4.000000;0.000000;,
  0.000000;0.000000;,
  7.000000;4.400000;,
  4.000000;4.400000;,
  0.000000;4.400000;,
  10.000000;0.000000;,
  5.000000;0.000000;,
  0.000000;0.000000;,
  10.000000;8.400000;,
  5.000000;8.400000;,
  0.000000;8.400000;,
  1.000000;0.600000;,
  0.190000;0.600000;,
  0.000000;0.600000;,
  0.000000;0.400000;,
  0.737000;0.400000;,
  0.000000;1.000000;,
  0.000000;0.000000;,
  0.500000;1.000000;,
  0.500000;0.000000;,
  1.000000;1.000000;,
  1.000000;0.000000;,
  0.000000;0.000000;,
  0.300000;1.000000;,
  2.700000;1.000000;,
  3.000000;0.000000;,
  1.500000;0.000000;,
  0.000000;1.000000;,
  0.000000;0.000000;,
  1.000000;0.000000;,
  1.000000;1.000000;,
  0.000000;1.000000;,
  0.000000;0.000000;,
  1.000000;0.000000;,
  1.000000;1.000000;,
  0.000000;1.000000;,
  0.000000;0.000000;,
  1.000000;0.000000;,
  1.000000;1.000000;,
  0.800000;0.500000;,
  0.800000;0.250000;,
  0.800000;0.188000;,
  0.800000;0.188000;,
  0.670000;0.500000;,
  0.670000;0.250000;,
  0.670000;0.188000;,
  0.000000;1.000000;,
  0.000000;0.500000;,
  0.000000;0.250000;,
  0.000000;0.188000;,
  0.000000;0.360000;,
  0.000000;0.360000;,
  0.000000;0.480000;,
  0.000000;0.600000;,
  0.000000;1.000000;,
  0.755000;0.360000;,
  0.755000;0.360000;,
  0.755000;0.600000;,
  0.755000;1.000000;,
  0.000000;1.000000;,
  0.000000;0.375000;,
  1.000000;1.000000;,
  1.000000;0.375000;,
  0.000000;1.000000;,
  0.000000;0.000000;,
  0.250000;0.000000;,
  0.500000;1.000000;,
  0.500000;0.000000;,
  1.000000;1.000000;,
  1.000000;0.000000;,
  1.000000;1.000000;,
  1.000000;0.000000;,
  0.000000;1.000000;,
  0.000000;0.000000;,
  1.000000;1.000000;,
  1.000000;0.000000;,
  0.000000;1.000000;,
  0.000000;0.000000;,
  0.000000;1.000000;,
  1.000000;1.000000;,
  0.000000;0.875000;,
  1.000000;0.875000;,
  0.000000;0.000000;,
  1.000000;0.000000;,
  0.875000;0.000000;,
  1.000000;0.000000;,
  0.000000;0.500000;,
  0.875000;0.500000;,
  1.000000;0.500000;,
  0.000000;1.000000;,
  0.875000;1.000000;,
  1.000000;1.000000;;
 }

 MeshNormals  {
  137;
  0.000000;0.000000;-1.000000;,
  0.000000;0.000000;-1.000000;,
  1.000000;0.000000;0.000000;,
  1.000000;0.000000;0.000000;,
  0.000000;1.000000;0.000000;,
  0.000000;1.000000;0.000000;,
  1.000000;0.000000;0.000000;,
  1.000000;0.000000;0.000000;,
  0.000000;0.994533;-0.104426;,
  0.000000;0.994533;-0.104426;,
  1.000000;0.000000;0.000000;,
  0.000000;0.000000;-1.000000;,
  0.000000;0.000000;-1.000000;,
  0.000000;1.000000;0.000000;,
  0.000000;1.000000;0.000000;,
  0.000000;0.995340;-0.096424;,
  0.000000;0.995340;-0.096424;,
  1.000000;0.000000;0.000000;,
  1.000000;0.000000;0.000000;,
  1.000000;0.000000;0.000000;,
  1.000000;0.000000;0.000000;,
  1.000000;0.000000;0.000000;,
  0.000000;0.000000;-1.000000;,
  0.000000;0.000000;-1.000000;,
  1.000000;0.000000;0.000000;,
  1.000000;0.000000;0.000000;,
  1.000000;0.000000;0.000000;,
  1.000000;0.000000;0.000000;,
  0.000000;0.000000;-1.000000;,
  0.000000;0.000000;-1.000000;,
  0.000000;0.000000;-1.000000;,
  0.000000;0.000000;-1.000000;,
  0.000000;0.000000;-1.000000;,
  0.000000;0.000000;-1.000000;,
  0.000000;0.000000;-1.000000;,
  0.000000;0.000000;-1.000000;,
  0.000000;0.000000;-1.000000;,
  0.000000;0.000000;-1.000000;,
  0.000000;0.000000;-1.000000;,
  0.000000;0.000000;-1.000000;,
  0.000000;0.000000;-1.000000;,
  0.000000;0.000000;-1.000000;,
  0.000000;0.000000;-1.000000;,
  0.000000;0.000000;-1.000000;,
  0.000000;0.000000;-1.000000;,
  0.000000;0.000000;-1.000000;,
  0.000000;0.000000;-1.000000;,
  0.000000;0.000000;-1.000000;,
  0.000000;0.000000;-1.000000;,
  0.000000;0.000000;-1.000000;,
  0.000000;0.000000;-1.000000;,
  0.000000;0.000000;-1.000000;,
  0.000000;0.000000;-1.000000;,
  0.000000;0.000000;-1.000000;,
  0.000000;0.000000;-1.000000;,
  0.000000;0.000000;-1.000000;,
  0.000000;0.000000;-1.000000;,
  0.000000;0.000000;-1.000000;,
  0.000000;0.000000;-1.000000;,
  0.000000;0.000000;-1.000000;,
  0.000000;0.000000;-1.000000;,
  0.000000;0.000000;-1.000000;,
  0.000000;0.000000;-1.000000;,
  0.000000;0.000000;-1.000000;,
  0.000000;0.000000;-1.000000;,
  0.000000;0.000000;-1.000000;,
  0.000000;0.000000;-1.000000;,
  0.000000;0.000000;-1.000000;,
  0.000000;0.000000;-1.000000;,
  0.000000;0.000000;-1.000000;,
  0.000000;0.000000;-1.000000;,
  0.000000;0.000000;-1.000000;,
  1.000000;0.000000;0.000000;,
  1.000000;0.000000;0.000000;,
  -0.293837;-0.955855;0.000000;,
  -0.293837;-0.955855;0.000000;,
  0.292219;-0.956352;0.000000;,
  0.292219;-0.956352;0.000000;,
  -0.293606;-0.955926;0.000000;,
  -0.293606;-0.955926;0.000000;,
  0.293606;-0.955926;0.000000;,
  0.293606;-0.955926;0.000000;,
  0.000000;0.000000;-1.000000;,
  0.000000;0.000000;-1.000000;,
  0.000000;0.000000;-1.000000;,
  0.000000;0.000000;-1.000000;,
  0.000000;0.000000;-1.000000;,
  1.000000;0.000000;0.000000;,
  1.000000;0.000000;0.000000;,
  0.000000;0.000000;-1.000000;,
  0.000000;0.000000;-1.000000;,
  0.000000;0.000000;-1.000000;,
  1.000000;0.000000;0.000000;,
  1.000000;0.000000;0.000000;,
  1.000000;0.000000;0.000000;,
  1.000000;0.000000;0.000000;,
  1.000000;0.000000;0.000000;,
  1.000000;0.000000;0.000000;,
  0.000000;0.000000;-1.000000;,
  0.000000;0.000000;-1.000000;,
  -1.000000;0.000000;0.000000;,
  -1.000000;0.000000;0.000000;,
  0.000000;1.000000;0.000000;,
  0.000000;1.000000;0.000000;,
  -1.000000;0.000000;0.000000;,
  -1.000000;0.000000;0.000000;,
  0.000000;0.994533;-0.104426;,
  0.000000;0.994533;-0.104426;,
  0.000000;0.000000;-1.000000;,
  0.000000;0.000000;-1.000000;,
  -1.000000;0.000000;0.000000;,
  -1.000000;0.000000;0.000000;,
  0.000000;1.000000;0.000000;,
  0.000000;1.000000;0.000000;,
  0.000000;0.994533;-0.104426;,
  0.000000;0.994533;-0.104426;,
  0.000000;0.000000;-1.000000;,
  0.000000;0.000000;-1.000000;,
  0.000000;0.000000;-1.000000;,
  0.000000;0.000000;-1.000000;,
  0.000000;0.000000;-1.000000;,
  -1.000000;0.000000;0.000000;,
  -1.000000;0.000000;0.000000;,
  -1.000000;0.000000;0.000000;,
  -1.000000;0.000000;0.000000;,
  -1.000000;0.000000;0.000000;,
  -1.000000;0.000000;0.000000;,
  -1.000000;0.000000;0.000000;,
  -1.000000;0.000000;0.000000;,
  -0.488603;0.872506;0.000000;,
  -0.488603;0.872506;0.000000;,
  0.000000;0.000000;-1.000000;,
  0.000000;0.000000;-1.000000;,
  -0.488603;-0.872506;0.000000;,
  -0.488603;-0.872506;0.000000;,
  0.000000;0.000000;-1.000000;,
  0.000000;0.000000;-1.000000;;
  137;
  3;0,0,0;,
  3;1,1,1;,
  3;2,2,2;,
  3;3,3,3;,
  3;4,4,4;,
  3;5,5,5;,
  3;6,6,6;,
  3;7,7,7;,
  3;8,8,8;,
  3;9,9,9;,
  3;10,10,10;,
  3;11,11,11;,
  3;12,12,12;,
  3;13,13,13;,
  3;14,14,14;,
  3;15,15,15;,
  3;16,16,16;,
  3;17,17,17;,
  3;18,18,18;,
  3;19,19,19;,
  3;20,20,20;,
  3;21,21,21;,
  3;22,22,22;,
  3;23,23,23;,
  3;24,24,24;,
  3;25,25,25;,
  3;26,26,26;,
  3;27,27,27;,
  3;28,28,28;,
  3;29,29,29;,
  3;30,30,30;,
  3;31,31,31;,
  3;32,32,32;,
  3;33,33,33;,
  3;34,34,34;,
  3;35,35,35;,
  3;36,36,36;,
  3;37,37,37;,
  3;38,38,38;,
  3;39,39,39;,
  3;40,40,40;,
  3;41,41,41;,
  3;42,42,42;,
  3;43,43,43;,
  3;44,44,44;,
  3;45,45,45;,
  3;46,46,46;,
  3;47,47,47;,
  3;48,48,48;,
  3;49,49,49;,
  3;50,50,50;,
  3;51,51,51;,
  3;52,52,52;,
  3;53,53,53;,
  3;54,54,54;,
  3;55,55,55;,
  3;56,56,56;,
  3;57,57,57;,
  3;58,58,58;,
  3;59,59,59;,
  3;60,60,60;,
  3;61,61,61;,
  3;62,62,62;,
  3;63,63,63;,
  3;64,64,64;,
  3;65,65,65;,
  3;66,66,66;,
  3;67,67,67;,
  3;68,68,68;,
  3;69,69,69;,
  3;70,70,70;,
  3;71,71,71;,
  3;72,72,72;,
  3;73,73,73;,
  3;74,74,74;,
  3;75,75,75;,
  3;76,76,76;,
  3;77,77,77;,
  3;78,78,78;,
  3;79,79,79;,
  3;80,80,80;,
  3;81,81,81;,
  3;82,82,82;,
  3;83,83,83;,
  3;84,84,84;,
  3;85,85,85;,
  3;86,86,86;,
  3;87,87,87;,
  3;88,88,88;,
  3;89,89,89;,
  3;90,90,90;,
  3;91,91,91;,
  3;92,92,92;,
  3;93,93,93;,
  3;94,94,94;,
  3;95,95,95;,
  3;96,96,96;,
  3;97,97,97;,
  3;98,98,98;,
  3;99,99,99;,
  3;100,100,100;,
  3;101,101,101;,
  3;102,102,102;,
  3;103,103,103;,
  3;104,104,104;,
  3;105,105,105;,
  3;106,106,106;,
  3;107,107,107;,
  3;108,108,108;,
  3;109,109,109;,
  3;110,110,110;,
  3;111,111,111;,
  3;112,112,112;,
  3;113,113,113;,
  3;114,114,114;,
  3;115,115,115;,
  3;116,116,116;,
  3;117,117,117;,
  3;118,118,118;,
  3;119,119,119;,
  3;120,120,120;,
  3;121,121,121;,
  3;122,122,122;,
  3;123,123,123;,
  3;124,124,124;,
  3;125,125,125;,
  3;126,126,126;,
  3;127,127,127;,
  3;128,128,128;,
  3;129,129,129;,
  3;130,130,130;,
  3;131,131,131;,
  3;132,132,132;,
  3;133,133,133;,
  3;134,134,134;,
  3;135,135,135;,
  3;136,136,136;;
 }
}