xof 0303txt 0032
template Vector {
 <3d82ab5e-62da-11cf-ab39-0020af71e433>
 FLOAT x;
 FLOAT y;
 FLOAT z;
}

template MeshFace {
 <3d82ab5f-62da-11cf-ab39-0020af71e433>
 DWORD nFaceVertexIndices;
 array DWORD faceVertexIndices[nFaceVertexIndices];
}

template Mesh {
 <3d82ab44-62da-11cf-ab39-0020af71e433>
 DWORD nVertices;
 array Vector vertices[nVertices];
 DWORD nFaces;
 array MeshFace faces[nFaces];
 [...]
}

template ColorRGBA {
 <35ff44e0-6c7c-11cf-8f52-0040333594a3>
 FLOAT red;
 FLOAT green;
 FLOAT blue;
 FLOAT alpha;
}

template ColorRGB {
 <d3e16e81-7835-11cf-8f52-0040333594a3>
 FLOAT red;
 FLOAT green;
 FLOAT blue;
}

template Material {
 <3d82ab4d-62da-11cf-ab39-0020af71e433>
 ColorRGBA faceColor;
 FLOAT power;
 ColorRGB specularColor;
 ColorRGB emissiveColor;
 [...]
}

template MeshMaterialList {
 <f6f23f42-7686-11cf-8f52-0040333594a3>
 DWORD nMaterials;
 DWORD nFaceIndexes;
 array DWORD faceIndexes[nFaceIndexes];
 [Material <3d82ab4d-62da-11cf-ab39-0020af71e433>]
}

template TextureFilename {
 <a42790e1-7810-11cf-8f52-0040333594a3>
 STRING filename;
}

template Coords2d {
 <f6f23f44-7686-11cf-8f52-0040333594a3>
 FLOAT u;
 FLOAT v;
}

template MeshTextureCoords {
 <f6f23f40-7686-11cf-8f52-0040333594a3>
 DWORD nTextureCoords;
 array Coords2d textureCoords[nTextureCoords];
}

template MeshNormals {
 <f6f23f43-7686-11cf-8f52-0040333594a3>
 DWORD nNormals;
 array Vector normals[nNormals];
 DWORD nFaceNormals;
 array MeshFace faceNormals[nFaceNormals];
}


Mesh  {
 156;
 -4.500000;6.000000;17.500000;,
 -4.500000;6.000000;13.330000;,
 -4.500000;9.500000;13.330000;,
 -4.500000;10.710000;15.400000;,
 16.500000;6.000000;17.500000;,
 16.500000;6.000000;13.330000;,
 16.500000;9.500000;13.330000;,
 16.500000;10.710000;15.400000;,
 -8.000000;6.000000;13.330000;,
 -8.000000;6.000000;17.500000;,
 -8.000000;9.500000;17.500000;,
 -8.000000;10.710000;15.400000;,
 -8.000000;9.500000;13.330000;,
 -4.500000;6.000000;13.330000;,
 -4.500000;6.000000;17.500000;,
 -4.500000;9.500000;17.500000;,
 -4.500000;10.710000;15.400000;,
 -4.500000;9.500000;13.330000;,
 13.000000;1.100000;24.660000;,
 13.000000;6.000000;16.330000;,
 13.000000;9.500000;16.330000;,
 13.000000;4.600000;24.660000;,
 13.000000;1.100000;24.660000;,
 13.000000;6.000000;16.330000;,
 16.500000;6.000000;16.330000;,
 16.500000;1.100000;24.660000;,
 13.000000;4.600000;24.660000;,
 13.000000;9.500000;16.330000;,
 16.500000;9.500000;16.330000;,
 16.500000;4.600000;24.660000;,
 -4.500000;1.100000;5.000000;,
 -4.500000;4.600000;5.000000;,
 -8.000000;4.600000;5.000000;,
 -4.500000;6.000000;13.330000;,
 -4.500000;9.500000;13.330000;,
 -8.000000;9.500000;13.330000;,
 -4.500000;1.100000;5.000000;,
 -8.000000;1.100000;5.000000;,
 -8.000000;4.600000;5.000000;,
 -4.500000;6.000000;13.330000;,
 -8.000000;6.000000;13.330000;,
 -8.000000;9.500000;13.330000;,
 -8.000000;6.000000;17.500000;,
 -8.000000;9.500000;17.500000;,
 13.000000;1.100000;13.330000;,
 13.000000;6.000000;13.330000;,
 13.200000;6.000000;13.330000;,
 13.200000;1.100000;13.330000;,
 16.299999;1.100000;13.330000;,
 16.299999;6.000000;13.330000;,
 16.500000;6.000000;13.330000;,
 16.500000;1.100000;13.330000;,
 13.000000;1.100000;16.330000;,
 13.000000;6.000000;16.330000;,
 13.200000;6.000000;16.330000;,
 13.200000;1.100000;16.330000;,
 16.299999;1.100000;16.330000;,
 16.299999;6.000000;16.330000;,
 16.500000;6.000000;16.330000;,
 16.500000;1.100000;16.330000;,
 13.200000;3.500000;16.299999;,
 13.200000;3.700000;16.299999;,
 16.299999;3.500000;16.299999;,
 16.299999;3.700000;16.299999;,
 13.200000;3.500000;13.350000;,
 13.200000;3.700000;13.350000;,
 16.299999;3.500000;13.350000;,
 16.299999;3.700000;13.350000;,
 13.200000;1.100000;13.400000;,
 13.200000;1.400000;13.400000;,
 16.299999;5.700000;13.400000;,
 16.299999;6.000000;13.400000;,
 13.200000;5.700000;13.400000;,
 13.200000;6.000000;13.400000;,
 16.299999;1.100000;13.400000;,
 16.299999;1.400000;13.400000;,
 13.200000;1.100000;16.400000;,
 13.200000;1.400000;16.400000;,
 16.299999;5.700000;16.400000;,
 16.299999;6.000000;16.400000;,
 13.200000;5.700000;16.400000;,
 13.200000;6.000000;16.400000;,
 16.299999;1.100000;16.400000;,
 16.299999;1.400000;16.400000;,
 13.020000;2.100000;16.330000;,
 13.020000;2.500000;16.330000;,
 13.020000;5.600000;13.330000;,
 13.020000;6.000000;13.330000;,
 13.010000;2.100000;13.330000;,
 13.010000;2.500000;13.330000;,
 13.010000;5.600000;16.330000;,
 13.010000;6.000000;16.330000;,
 16.480000;2.100000;16.330000;,
 16.480000;2.500000;16.330000;,
 16.480000;5.600000;13.330000;,
 16.480000;6.000000;13.330000;,
 16.490000;2.100000;13.330000;,
 16.490000;2.500000;13.330000;,
 16.490000;5.600000;16.330000;,
 16.490000;6.000000;16.330000;,
 -8.000000;-0.500000;13.330000;,
 -8.000000;6.000000;13.330000;,
 -7.800000;6.000000;13.330000;,
 -7.800000;-0.500000;13.330000;,
 -4.700000;1.100000;13.330000;,
 -4.700000;6.000000;13.330000;,
 -4.500000;6.000000;13.330000;,
 -4.500000;1.100000;13.330000;,
 -8.000000;-0.500000;16.330000;,
 -8.000000;6.000000;16.330000;,
 -7.800000;6.000000;16.330000;,
 -7.800000;-0.500000;16.330000;,
 -4.700000;1.100000;16.330000;,
 -4.700000;6.000000;16.330000;,
 -4.500000;6.000000;16.330000;,
 -4.500000;1.100000;16.330000;,
 -7.800000;3.500000;16.299999;,
 -7.800000;3.700000;16.299999;,
 -4.700000;3.500000;16.299999;,
 -4.700000;3.700000;16.299999;,
 -7.800000;3.500000;13.350000;,
 -7.800000;3.700000;13.350000;,
 -4.700000;3.500000;13.350000;,
 -4.700000;3.700000;13.350000;,
 -7.800000;1.100000;13.400000;,
 -7.800000;1.400000;13.400000;,
 -4.700000;5.700000;13.400000;,
 -4.700000;6.000000;13.400000;,
 -7.800000;5.700000;13.400000;,
 -7.800000;6.000000;13.400000;,
 -4.700000;1.100000;13.400000;,
 -4.700000;1.400000;13.400000;,
 -7.800000;1.100000;16.400000;,
 -7.800000;1.400000;16.400000;,
 -4.700000;5.700000;16.400000;,
 -4.700000;6.000000;16.400000;,
 -7.800000;5.700000;16.400000;,
 -7.800000;6.000000;16.400000;,
 -4.700000;1.100000;16.400000;,
 -4.700000;1.400000;16.400000;,
 -7.998000;2.100000;16.330000;,
 -7.998000;2.500000;16.330000;,
 -7.998000;5.600000;13.330000;,
 -7.998000;6.000000;13.330000;,
 -7.999000;2.100000;13.330000;,
 -7.999000;2.500000;13.330000;,
 -7.999000;5.600000;16.330000;,
 -7.999000;6.000000;16.330000;,
 -4.502000;2.100000;16.330000;,
 -4.502000;2.500000;16.330000;,
 -4.502000;5.600000;13.330000;,
 -4.502000;6.000000;13.330000;,
 -4.501000;2.100000;13.330000;,
 -4.501000;2.500000;13.330000;,
 -4.501000;5.600000;16.330000;,
 -4.501000;6.000000;16.330000;;
 88;
 3;0,1,5;,
 3;0,5,4;,
 3;1,2,6;,
 3;1,6,5;,
 3;2,3,7;,
 3;2,7,6;,
 3;13,14,9;,
 3;13,9,8;,
 3;9,10,15;,
 3;9,15,14;,
 3;10,11,16;,
 3;10,16,15;,
 3;16,17,12;,
 3;16,12,11;,
 3;21,20,19;,
 3;21,19,18;,
 3;18,19,20;,
 3;18,20,21;,
 3;22,23,24;,
 3;22,24,25;,
 3;26,27,28;,
 3;26,28,29;,
 3;30,31,34;,
 3;30,34,33;,
 3;31,32,35;,
 3;31,35,34;,
 3;36,37,40;,
 3;36,40,39;,
 3;37,38,41;,
 3;37,41,40;,
 3;40,41,43;,
 3;40,43,42;,
 3;44,45,46;,
 3;44,46,47;,
 3;48,49,50;,
 3;48,50,51;,
 3;52,53,54;,
 3;52,54,55;,
 3;56,57,58;,
 3;56,58,59;,
 3;60,61,63;,
 3;60,63,62;,
 3;64,65,67;,
 3;64,67,66;,
 3;68,69,71;,
 3;68,71,70;,
 3;72,73,75;,
 3;72,75,74;,
 3;76,77,79;,
 3;76,79,78;,
 3;80,81,83;,
 3;80,83,82;,
 3;84,85,87;,
 3;84,87,86;,
 3;90,91,89;,
 3;90,89,88;,
 3;92,93,95;,
 3;92,95,94;,
 3;98,99,97;,
 3;98,97,96;,
 3;100,101,102;,
 3;100,102,103;,
 3;104,105,106;,
 3;104,106,107;,
 3;108,109,110;,
 3;108,110,111;,
 3;112,113,114;,
 3;112,114,115;,
 3;116,117,119;,
 3;116,119,118;,
 3;120,121,123;,
 3;120,123,122;,
 3;124,125,127;,
 3;124,127,126;,
 3;128,129,131;,
 3;128,131,130;,
 3;132,133,135;,
 3;132,135,134;,
 3;136,137,139;,
 3;136,139,138;,
 3;142,143,141;,
 3;142,141,140;,
 3;144,145,147;,
 3;144,147,146;,
 3;150,151,149;,
 3;150,149,148;,
 3;152,153,155;,
 3;152,155,154;;

 MeshMaterialList  {
  35;
  88;
  0,
  0,
  0,
  0,
  0,
  0,
  1,
  1,
  1,
  1,
  1,
  1,
  1,
  1,
  2,
  2,
  2,
  2,
  3,
  3,
  4,
  4,
  5,
  5,
  5,
  5,
  6,
  6,
  6,
  6,
  6,
  6,
  7,
  7,
  8,
  8,
  9,
  9,
  10,
  10,
  11,
  11,
  12,
  12,
  13,
  13,
  14,
  14,
  15,
  15,
  16,
  16,
  17,
  17,
  18,
  18,
  19,
  19,
  20,
  20,
  21,
  21,
  22,
  22,
  23,
  23,
  24,
  24,
  25,
  25,
  26,
  26,
  27,
  27,
  28,
  28,
  29,
  29,
  30,
  30,
  31,
  31,
  32,
  32,
  33,
  33,
  34,
  34;

  Material  {
   1.000000;1.000000;1.000000;1.000000;;
   0.000000;
   0.000000;0.000000;0.000000;;
   0.000000;0.000000;0.000000;;

   TextureFilename  {
    "Kosen_Wall1.png";
   }
  }

  Material  {
   1.000000;1.000000;1.000000;1.000000;;
   0.000000;
   0.000000;0.000000;0.000000;;
   0.000000;0.000000;0.000000;;

   TextureFilename  {
    "Kosen_Wall2.png";
   }
  }

  Material  {
   1.000000;1.000000;1.000000;1.000000;;
   0.000000;
   0.000000;0.000000;0.000000;;
   0.000000;0.000000;0.000000;;

   TextureFilename  {
    "Kaidan_Wall1.png";
   }
  }

  Material  {
   0.784314;0.784314;0.784314;1.000000;;
   0.000000;
   0.000000;0.000000;0.000000;;
   0.000000;0.000000;0.000000;;

   TextureFilename  {
    "Conc.png";
   }
  }

  Material  {
   1.000000;1.000000;1.000000;1.000000;;
   0.000000;
   0.000000;0.000000;0.000000;;
   0.000000;0.000000;0.000000;;

   TextureFilename  {
    "Roof1.png";
   }
  }

  Material  {
   1.000000;1.000000;1.000000;1.000000;;
   0.000000;
   0.000000;0.000000;0.000000;;
   0.000000;0.000000;0.000000;;

   TextureFilename  {
    "Kaidan_Wall1.png";
   }
  }

  Material  {
   1.000000;1.000000;1.000000;1.000000;;
   0.000000;
   0.000000;0.000000;0.000000;;
   0.000000;0.000000;0.000000;;

   TextureFilename  {
    "Kaidan_Wall2.png";
   }
  }

  Material  {
   1.000000;1.000000;1.000000;1.000000;;
   0.000000;
   0.000000;0.000000;0.000000;;
   0.000000;0.000000;0.000000;;

   TextureFilename  {
    "Iron1.png";
   }
  }

  Material  {
   1.000000;1.000000;1.000000;1.000000;;
   0.000000;
   0.000000;0.000000;0.000000;;
   0.000000;0.000000;0.000000;;

   TextureFilename  {
    "Iron1.png";
   }
  }

  Material  {
   1.000000;1.000000;1.000000;1.000000;;
   0.000000;
   0.000000;0.000000;0.000000;;
   0.000000;0.000000;0.000000;;

   TextureFilename  {
    "Iron1.png";
   }
  }

  Material  {
   1.000000;1.000000;1.000000;1.000000;;
   0.000000;
   0.000000;0.000000;0.000000;;
   0.000000;0.000000;0.000000;;

   TextureFilename  {
    "Iron1.png";
   }
  }

  Material  {
   1.000000;1.000000;1.000000;1.000000;;
   0.000000;
   0.000000;0.000000;0.000000;;
   0.000000;0.000000;0.000000;;

   TextureFilename  {
    "Iron1.png";
   }
  }

  Material  {
   1.000000;1.000000;1.000000;1.000000;;
   0.000000;
   0.000000;0.000000;0.000000;;
   0.000000;0.000000;0.000000;;

   TextureFilename  {
    "Iron1.png";
   }
  }

  Material  {
   1.000000;1.000000;1.000000;1.000000;;
   0.000000;
   0.000000;0.000000;0.000000;;
   0.000000;0.000000;0.000000;;

   TextureFilename  {
    "Iron1.png";
   }
  }

  Material  {
   1.000000;1.000000;1.000000;1.000000;;
   0.000000;
   0.000000;0.000000;0.000000;;
   0.000000;0.000000;0.000000;;

   TextureFilename  {
    "Iron1.png";
   }
  }

  Material  {
   1.000000;1.000000;1.000000;1.000000;;
   0.000000;
   0.000000;0.000000;0.000000;;
   0.000000;0.000000;0.000000;;

   TextureFilename  {
    "Iron1.png";
   }
  }

  Material  {
   1.000000;1.000000;1.000000;1.000000;;
   0.000000;
   0.000000;0.000000;0.000000;;
   0.000000;0.000000;0.000000;;

   TextureFilename  {
    "Iron1.png";
   }
  }

  Material  {
   1.000000;1.000000;1.000000;1.000000;;
   0.000000;
   0.000000;0.000000;0.000000;;
   0.000000;0.000000;0.000000;;

   TextureFilename  {
    "Iron1.png";
   }
  }

  Material  {
   1.000000;1.000000;1.000000;1.000000;;
   0.000000;
   0.000000;0.000000;0.000000;;
   0.000000;0.000000;0.000000;;

   TextureFilename  {
    "Iron1.png";
   }
  }

  Material  {
   1.000000;1.000000;1.000000;1.000000;;
   0.000000;
   0.000000;0.000000;0.000000;;
   0.000000;0.000000;0.000000;;

   TextureFilename  {
    "Iron1.png";
   }
  }

  Material  {
   1.000000;1.000000;1.000000;1.000000;;
   0.000000;
   0.000000;0.000000;0.000000;;
   0.000000;0.000000;0.000000;;

   TextureFilename  {
    "Iron1.png";
   }
  }

  Material  {
   1.000000;1.000000;1.000000;1.000000;;
   0.000000;
   0.000000;0.000000;0.000000;;
   0.000000;0.000000;0.000000;;

   TextureFilename  {
    "Iron1.png";
   }
  }

  Material  {
   1.000000;1.000000;1.000000;1.000000;;
   0.000000;
   0.000000;0.000000;0.000000;;
   0.000000;0.000000;0.000000;;

   TextureFilename  {
    "Iron1.png";
   }
  }

  Material  {
   1.000000;1.000000;1.000000;1.000000;;
   0.000000;
   0.000000;0.000000;0.000000;;
   0.000000;0.000000;0.000000;;

   TextureFilename  {
    "Iron1.png";
   }
  }

  Material  {
   1.000000;1.000000;1.000000;1.000000;;
   0.000000;
   0.000000;0.000000;0.000000;;
   0.000000;0.000000;0.000000;;

   TextureFilename  {
    "Iron1.png";
   }
  }

  Material  {
   1.000000;1.000000;1.000000;1.000000;;
   0.000000;
   0.000000;0.000000;0.000000;;
   0.000000;0.000000;0.000000;;

   TextureFilename  {
    "Iron1.png";
   }
  }

  Material  {
   1.000000;1.000000;1.000000;1.000000;;
   0.000000;
   0.000000;0.000000;0.000000;;
   0.000000;0.000000;0.000000;;

   TextureFilename  {
    "Iron1.png";
   }
  }

  Material  {
   1.000000;1.000000;1.000000;1.000000;;
   0.000000;
   0.000000;0.000000;0.000000;;
   0.000000;0.000000;0.000000;;

   TextureFilename  {
    "Iron1.png";
   }
  }

  Material  {
   1.000000;1.000000;1.000000;1.000000;;
   0.000000;
   0.000000;0.000000;0.000000;;
   0.000000;0.000000;0.000000;;

   TextureFilename  {
    "Iron1.png";
   }
  }

  Material  {
   1.000000;1.000000;1.000000;1.000000;;
   0.000000;
   0.000000;0.000000;0.000000;;
   0.000000;0.000000;0.000000;;

   TextureFilename  {
    "Iron1.png";
   }
  }

  Material  {
   1.000000;1.000000;1.000000;1.000000;;
   0.000000;
   0.000000;0.000000;0.000000;;
   0.000000;0.000000;0.000000;;

   TextureFilename  {
    "Iron1.png";
   }
  }

  Material  {
   1.000000;1.000000;1.000000;1.000000;;
   0.000000;
   0.000000;0.000000;0.000000;;
   0.000000;0.000000;0.000000;;

   TextureFilename  {
    "Iron1.png";
   }
  }

  Material  {
   1.000000;1.000000;1.000000;1.000000;;
   0.000000;
   0.000000;0.000000;0.000000;;
   0.000000;0.000000;0.000000;;

   TextureFilename  {
    "Iron1.png";
   }
  }

  Material  {
   1.000000;1.000000;1.000000;1.000000;;
   0.000000;
   0.000000;0.000000;0.000000;;
   0.000000;0.000000;0.000000;;

   TextureFilename  {
    "Iron1.png";
   }
  }

  Material  {
   1.000000;1.000000;1.000000;1.000000;;
   0.000000;
   0.000000;0.000000;0.000000;;
   0.000000;0.000000;0.000000;;

   TextureFilename  {
    "Iron1.png";
   }
  }
 }

 MeshTextureCoords  {
  156;
  0.000000;1.000000;,
  0.000000;0.800000;,
  0.000000;0.070000;,
  0.000000;0.000000;,
  3.530000;1.000000;,
  3.530000;0.800000;,
  3.530000;0.070000;,
  3.530000;0.000000;,
  0.000000;1.000000;,
  0.000000;0.730000;,
  0.000000;0.188000;,
  0.000000;0.093800;,
  0.000000;0.000000;,
  1.000000;1.000000;,
  1.000000;0.730000;,
  1.000000;0.188000;,
  1.000000;0.093800;,
  1.000000;0.000000;,
  5.000000;1.000000;,
  0.000000;1.000000;,
  0.000000;0.375000;,
  5.000000;0.375000;,
  0.000000;1.000000;,
  0.000000;0.000000;,
  1.000000;0.000000;,
  1.000000;1.000000;,
  0.000000;1.000000;,
  0.000000;0.000000;,
  1.000000;0.000000;,
  1.000000;1.000000;,
  0.000000;1.000000;,
  0.000000;0.375000;,
  0.000000;0.000000;,
  5.000000;1.000000;,
  5.000000;0.375000;,
  5.000000;0.000000;,
  0.000000;1.000000;,
  0.000000;0.625000;,
  0.000000;0.000000;,
  5.000000;1.000000;,
  5.000000;0.625000;,
  5.000000;0.000000;,
  5.200000;0.625000;,
  5.200000;0.000000;,
  0.000000;1.000000;,
  0.000000;0.500000;,
  1.000000;0.500000;,
  1.000000;1.000000;,
  0.000000;1.000000;,
  0.000000;0.500000;,
  1.000000;0.500000;,
  1.000000;1.000000;,
  0.000000;1.000000;,
  0.000000;0.150000;,
  1.000000;0.150000;,
  1.000000;1.000000;,
  0.000000;1.000000;,
  0.000000;0.500000;,
  1.000000;0.500000;,
  1.000000;1.000000;,
  0.000000;0.380000;,
  1.000000;0.380000;,
  0.000000;0.980000;,
  1.000000;0.980000;,
  0.000000;0.500000;,
  1.000000;0.500000;,
  0.000000;0.980000;,
  1.000000;0.980000;,
  1.000000;1.000000;,
  0.000000;1.000000;,
  1.000000;0.380000;,
  0.000000;0.380000;,
  0.000000;0.380000;,
  1.000000;0.380000;,
  0.000000;1.000000;,
  1.000000;1.000000;,
  1.000000;0.380000;,
  0.000000;0.380000;,
  1.000000;1.000000;,
  0.000000;1.000000;,
  0.000000;0.200000;,
  1.000000;0.200000;,
  0.000000;1.000000;,
  1.000000;1.000000;,
  1.000000;0.250000;,
  0.000000;0.250000;,
  1.000000;0.380000;,
  0.000000;0.380000;,
  1.000000;0.250000;,
  0.000000;0.250000;,
  1.000000;0.380000;,
  0.000000;0.380000;,
  1.000000;0.250000;,
  0.000000;0.250000;,
  1.000000;0.380000;,
  0.000000;0.380000;,
  1.000000;0.250000;,
  0.000000;0.250000;,
  1.000000;0.380000;,
  0.000000;0.380000;,
  1.000000;0.500000;,
  1.000000;0.000000;,
  0.000000;0.000000;,
  0.000000;0.500000;,
  1.000000;0.600000;,
  1.000000;0.000000;,
  0.000000;0.000000;,
  0.000000;0.600000;,
  1.000000;0.500000;,
  1.000000;0.000000;,
  0.000000;0.000000;,
  0.000000;0.500000;,
  1.000000;0.600000;,
  1.000000;0.000000;,
  0.000000;0.000000;,
  0.000000;0.600000;,
  0.000000;0.200000;,
  1.000000;0.200000;,
  0.000000;0.380000;,
  1.000000;0.380000;,
  0.000000;0.200000;,
  1.000000;0.200000;,
  0.000000;0.380000;,
  1.000000;0.380000;,
  0.000000;0.200000;,
  1.000000;0.200000;,
  0.000000;0.380000;,
  1.000000;0.380000;,
  1.000000;0.380000;,
  0.000000;0.380000;,
  1.000000;0.200000;,
  0.000000;0.200000;,
  0.000000;0.200000;,
  1.000000;0.200000;,
  0.000000;0.380000;,
  1.000000;0.380000;,
  1.000000;0.380000;,
  0.000000;0.380000;,
  1.000000;0.200000;,
  0.000000;0.200000;,
  0.000000;0.250000;,
  1.000000;0.250000;,
  0.000000;0.380000;,
  1.000000;0.380000;,
  1.000000;0.250000;,
  0.000000;0.250000;,
  1.000000;0.380000;,
  0.000000;0.380000;,
  0.000000;0.450000;,
  1.000000;0.450000;,
  0.000000;0.000000;,
  1.000000;0.000000;,
  1.000000;0.450000;,
  0.000000;0.450000;,
  1.000000;0.000000;,
  0.000000;0.000000;;
 }

 MeshNormals  {
  88;
  0.000000;-1.000000;0.000000;,
  0.000000;-1.000000;0.000000;,
  0.000000;0.000000;-1.000000;,
  0.000000;0.000000;-1.000000;,
  0.000000;0.863325;-0.504649;,
  0.000000;0.863325;-0.504649;,
  0.000000;-1.000000;0.000000;,
  0.000000;-1.000000;0.000000;,
  0.000000;0.000000;-1.000000;,
  0.000000;0.000000;-1.000000;,
  0.000000;-0.866460;-0.499246;,
  0.000000;-0.866460;-0.499246;,
  0.000000;0.863325;-0.504649;,
  0.000000;0.863325;-0.504649;,
  -1.000000;0.000000;0.000000;,
  -1.000000;0.000000;0.000000;,
  1.000000;0.000000;0.000000;,
  1.000000;0.000000;0.000000;,
  0.000000;-0.861934;-0.507020;,
  0.000000;-0.861934;-0.507020;,
  0.000000;-0.861934;-0.507020;,
  0.000000;-0.861934;-0.507020;,
  1.000000;0.000000;0.000000;,
  1.000000;0.000000;0.000000;,
  0.000000;0.861934;-0.507020;,
  0.000000;0.861934;-0.507020;,
  0.000000;0.861934;-0.507020;,
  0.000000;0.861934;-0.507020;,
  1.000000;0.000000;0.000000;,
  1.000000;0.000000;0.000000;,
  1.000000;0.000000;0.000000;,
  1.000000;0.000000;0.000000;,
  0.000000;0.000000;-1.000000;,
  0.000000;0.000000;-1.000000;,
  0.000000;0.000000;-1.000000;,
  0.000000;0.000000;-1.000000;,
  0.000000;0.000000;-1.000000;,
  0.000000;0.000000;-1.000000;,
  0.000000;0.000000;-1.000000;,
  0.000000;0.000000;-1.000000;,
  0.000000;0.000000;-1.000000;,
  0.000000;0.000000;-1.000000;,
  0.000000;0.000000;-1.000000;,
  0.000000;0.000000;-1.000000;,
  0.000000;0.000000;-1.000000;,
  0.000000;0.000000;-1.000000;,
  0.000000;0.000000;-1.000000;,
  0.000000;0.000000;-1.000000;,
  0.000000;0.000000;-1.000000;,
  0.000000;0.000000;-1.000000;,
  0.000000;0.000000;-1.000000;,
  0.000000;0.000000;-1.000000;,
  -1.000000;0.000000;0.000000;,
  -1.000000;0.000000;0.000000;,
  -1.000000;0.000000;0.000000;,
  -1.000000;0.000000;0.000000;,
  -1.000000;0.000000;0.000000;,
  -1.000000;0.000000;0.000000;,
  -1.000000;0.000000;0.000000;,
  -1.000000;0.000000;0.000000;,
  0.000000;0.000000;-1.000000;,
  0.000000;0.000000;-1.000000;,
  0.000000;0.000000;-1.000000;,
  0.000000;0.000000;-1.000000;,
  0.000000;0.000000;-1.000000;,
  0.000000;0.000000;-1.000000;,
  0.000000;0.000000;-1.000000;,
  0.000000;0.000000;-1.000000;,
  0.000000;0.000000;-1.000000;,
  0.000000;0.000000;-1.000000;,
  0.000000;0.000000;-1.000000;,
  0.000000;0.000000;-1.000000;,
  0.000000;0.000000;-1.000000;,
  0.000000;0.000000;-1.000000;,
  0.000000;0.000000;-1.000000;,
  0.000000;0.000000;-1.000000;,
  0.000000;0.000000;-1.000000;,
  0.000000;0.000000;-1.000000;,
  0.000000;0.000000;-1.000000;,
  0.000000;0.000000;-1.000000;,
  1.000000;0.000000;0.000000;,
  1.000000;0.000000;0.000000;,
  1.000000;0.000000;0.000000;,
  1.000000;0.000000;0.000000;,
  1.000000;0.000000;0.000000;,
  1.000000;0.000000;0.000000;,
  1.000000;0.000000;0.000000;,
  1.000000;0.000000;0.000000;;
  88;
  3;0,0,0;,
  3;1,1,1;,
  3;2,2,2;,
  3;3,3,3;,
  3;4,4,4;,
  3;5,5,5;,
  3;6,6,6;,
  3;7,7,7;,
  3;8,8,8;,
  3;9,9,9;,
  3;10,10,10;,
  3;11,11,11;,
  3;12,12,12;,
  3;13,13,13;,
  3;14,14,14;,
  3;15,15,15;,
  3;16,16,16;,
  3;17,17,17;,
  3;18,18,18;,
  3;19,19,19;,
  3;20,20,20;,
  3;21,21,21;,
  3;22,22,22;,
  3;23,23,23;,
  3;24,24,24;,
  3;25,25,25;,
  3;26,26,26;,
  3;27,27,27;,
  3;28,28,28;,
  3;29,29,29;,
  3;30,30,30;,
  3;31,31,31;,
  3;32,32,32;,
  3;33,33,33;,
  3;34,34,34;,
  3;35,35,35;,
  3;36,36,36;,
  3;37,37,37;,
  3;38,38,38;,
  3;39,39,39;,
  3;40,40,40;,
  3;41,41,41;,
  3;42,42,42;,
  3;43,43,43;,
  3;44,44,44;,
  3;45,45,45;,
  3;46,46,46;,
  3;47,47,47;,
  3;48,48,48;,
  3;49,49,49;,
  3;50,50,50;,
  3;51,51,51;,
  3;52,52,52;,
  3;53,53,53;,
  3;54,54,54;,
  3;55,55,55;,
  3;56,56,56;,
  3;57,57,57;,
  3;58,58,58;,
  3;59,59,59;,
  3;60,60,60;,
  3;61,61,61;,
  3;62,62,62;,
  3;63,63,63;,
  3;64,64,64;,
  3;65,65,65;,
  3;66,66,66;,
  3;67,67,67;,
  3;68,68,68;,
  3;69,69,69;,
  3;70,70,70;,
  3;71,71,71;,
  3;72,72,72;,
  3;73,73,73;,
  3;74,74,74;,
  3;75,75,75;,
  3;76,76,76;,
  3;77,77,77;,
  3;78,78,78;,
  3;79,79,79;,
  3;80,80,80;,
  3;81,81,81;,
  3;82,82,82;,
  3;83,83,83;,
  3;84,84,84;,
  3;85,85,85;,
  3;86,86,86;,
  3;87,87,87;;
 }
}