xof 0303txt 0032
template Vector {
 <3d82ab5e-62da-11cf-ab39-0020af71e433>
 FLOAT x;
 FLOAT y;
 FLOAT z;
}

template MeshFace {
 <3d82ab5f-62da-11cf-ab39-0020af71e433>
 DWORD nFaceVertexIndices;
 array DWORD faceVertexIndices[nFaceVertexIndices];
}

template Mesh {
 <3d82ab44-62da-11cf-ab39-0020af71e433>
 DWORD nVertices;
 array Vector vertices[nVertices];
 DWORD nFaces;
 array MeshFace faces[nFaces];
 [...]
}

template ColorRGBA {
 <35ff44e0-6c7c-11cf-8f52-0040333594a3>
 FLOAT red;
 FLOAT green;
 FLOAT blue;
 FLOAT alpha;
}

template ColorRGB {
 <d3e16e81-7835-11cf-8f52-0040333594a3>
 FLOAT red;
 FLOAT green;
 FLOAT blue;
}

template Material {
 <3d82ab4d-62da-11cf-ab39-0020af71e433>
 ColorRGBA faceColor;
 FLOAT power;
 ColorRGB specularColor;
 ColorRGB emissiveColor;
 [...]
}

template MeshMaterialList {
 <f6f23f42-7686-11cf-8f52-0040333594a3>
 DWORD nMaterials;
 DWORD nFaceIndexes;
 array DWORD faceIndexes[nFaceIndexes];
 [Material <3d82ab4d-62da-11cf-ab39-0020af71e433>]
}

template TextureFilename {
 <a42790e1-7810-11cf-8f52-0040333594a3>
 STRING filename;
}

template Coords2d {
 <f6f23f44-7686-11cf-8f52-0040333594a3>
 FLOAT u;
 FLOAT v;
}

template MeshTextureCoords {
 <f6f23f40-7686-11cf-8f52-0040333594a3>
 DWORD nTextureCoords;
 array Coords2d textureCoords[nTextureCoords];
}

template MeshNormals {
 <f6f23f43-7686-11cf-8f52-0040333594a3>
 DWORD nNormals;
 array Vector normals[nNormals];
 DWORD nFaceNormals;
 array MeshFace faceNormals[nFaceNormals];
}


Mesh  {
 40;
 -2.400000;-0.600000;-0.010000;,
 -2.400000;6.000000;-0.010000;,
 -2.323900;6.382700;-0.010000;,
 -2.107100;6.707100;-0.010000;,
 -1.782700;6.923900;-0.010000;,
 -1.400000;7.000000;-0.010000;,
 1.400000;7.000000;-0.010000;,
 1.782700;6.923900;-0.010000;,
 2.107100;6.707100;-0.010000;,
 2.323900;6.382700;-0.010000;,
 2.400000;6.000000;-0.010000;,
 2.400000;-0.600000;-0.010000;,
 -2.700000;-0.600000;-0.010000;,
 -2.700000;6.000000;-0.010000;,
 -2.601000;6.497500;-0.010000;,
 -2.319200;6.919200;-0.010000;,
 -1.897500;7.201000;-0.010000;,
 -1.400000;7.300000;-0.010000;,
 1.400000;7.300000;-0.010000;,
 1.897500;7.201000;-0.010000;,
 2.319200;6.919200;-0.010000;,
 2.601000;6.497500;-0.010000;,
 2.700000;6.000000;-0.010000;,
 2.700000;-0.600000;-0.010000;,
 -2.300000;4.500000;-0.020000;,
 -2.300000;4.700000;-0.020000;,
 -2.800000;4.500000;-0.020000;,
 -2.800000;4.700000;-0.020000;,
 -1.150000;6.900000;-0.020000;,
 -0.950000;6.900000;-0.020000;,
 -1.150000;7.400000;-0.020000;,
 -0.950000;7.400000;-0.020000;,
 0.950000;6.900000;-0.020000;,
 1.150000;6.900000;-0.020000;,
 0.950000;7.400000;-0.020000;,
 1.150000;7.400000;-0.020000;,
 2.300000;4.700000;-0.020000;,
 2.300000;4.500000;-0.020000;,
 2.800000;4.700000;-0.020000;,
 2.800000;4.500000;-0.020000;;
 30;
 3;12,13,1;,
 3;12,1,0;,
 3;13,14,2;,
 3;13,2,1;,
 3;14,15,3;,
 3;14,3,2;,
 3;15,16,4;,
 3;15,4,3;,
 3;16,17,5;,
 3;16,5,4;,
 3;17,18,6;,
 3;17,6,5;,
 3;18,19,7;,
 3;18,7,6;,
 3;19,20,8;,
 3;19,8,7;,
 3;20,21,9;,
 3;20,9,8;,
 3;21,22,10;,
 3;21,10,9;,
 3;22,23,11;,
 3;22,11,10;,
 3;26,27,25;,
 3;26,25,24;,
 3;30,31,29;,
 3;30,29,28;,
 3;34,35,33;,
 3;34,33,32;,
 3;38,39,37;,
 3;38,37,36;;

 MeshMaterialList  {
  5;
  30;
  0,
  0,
  0,
  0,
  0,
  0,
  0,
  0,
  0,
  0,
  0,
  0,
  0,
  0,
  0,
  0,
  0,
  0,
  0,
  0,
  0,
  0,
  1,
  1,
  2,
  2,
  3,
  3,
  4,
  4;

  Material  {
   1.000000;1.000000;1.000000;1.000000;;
   0.000000;
   0.000000;0.000000;0.000000;;
   0.000000;0.000000;0.000000;;

   TextureFilename  {
    "Iron1.png";
   }
  }

  Material  {
   1.000000;1.000000;1.000000;1.000000;;
   0.000000;
   0.000000;0.000000;0.000000;;
   0.000000;0.000000;0.000000;;

   TextureFilename  {
    "Iron1.png";
   }
  }

  Material  {
   1.000000;1.000000;1.000000;1.000000;;
   0.000000;
   0.000000;0.000000;0.000000;;
   0.000000;0.000000;0.000000;;

   TextureFilename  {
    "Iron1.png";
   }
  }

  Material  {
   1.000000;1.000000;1.000000;1.000000;;
   0.000000;
   0.000000;0.000000;0.000000;;
   0.000000;0.000000;0.000000;;

   TextureFilename  {
    "Iron1.png";
   }
  }

  Material  {
   1.000000;1.000000;1.000000;1.000000;;
   0.000000;
   0.000000;0.000000;0.000000;;
   0.000000;0.000000;0.000000;;

   TextureFilename  {
    "Iron1.png";
   }
  }
 }

 MeshTextureCoords  {
  40;
  0.000000;0.000000;,
  0.000000;0.100000;,
  0.000000;0.200000;,
  0.000000;0.300000;,
  0.000000;0.400000;,
  0.000000;0.500000;,
  0.000000;0.600000;,
  0.000000;0.700000;,
  0.000000;0.800000;,
  0.000000;0.900000;,
  0.000000;1.000000;,
  0.000000;1.100000;,
  1.000000;0.000000;,
  1.000000;0.100000;,
  1.000000;0.200000;,
  1.000000;0.300000;,
  1.000000;0.400000;,
  1.000000;0.500000;,
  1.000000;0.600000;,
  1.000000;0.700000;,
  1.000000;0.800000;,
  1.000000;0.900000;,
  1.000000;1.000000;,
  1.000000;1.100000;,
  0.000000;0.000000;,
  0.000000;0.100000;,
  1.000000;0.000000;,
  1.000000;0.100000;,
  0.000000;0.000000;,
  0.000000;0.100000;,
  1.000000;0.000000;,
  1.000000;0.100000;,
  0.000000;0.000000;,
  0.000000;0.100000;,
  1.000000;0.000000;,
  1.000000;0.100000;,
  0.000000;0.000000;,
  0.000000;0.100000;,
  1.000000;0.000000;,
  1.000000;0.100000;;
 }

 MeshNormals  {
  30;
  0.000000;0.000000;-1.000000;,
  0.000000;0.000000;-1.000000;,
  0.000000;0.000000;-1.000000;,
  0.000000;0.000000;-1.000000;,
  0.000000;0.000000;-1.000000;,
  0.000000;0.000000;-1.000000;,
  0.000000;0.000000;-1.000000;,
  0.000000;0.000000;-1.000000;,
  0.000000;0.000000;-1.000000;,
  0.000000;0.000000;-1.000000;,
  0.000000;0.000000;-1.000000;,
  0.000000;0.000000;-1.000000;,
  0.000000;0.000000;-1.000000;,
  0.000000;0.000000;-1.000000;,
  0.000000;0.000000;-1.000000;,
  0.000000;0.000000;-1.000000;,
  0.000000;0.000000;-1.000000;,
  0.000000;0.000000;-1.000000;,
  0.000000;0.000000;-1.000000;,
  0.000000;0.000000;-1.000000;,
  0.000000;0.000000;-1.000000;,
  0.000000;0.000000;-1.000000;,
  0.000000;0.000000;-1.000000;,
  0.000000;0.000000;-1.000000;,
  0.000000;0.000000;-1.000000;,
  0.000000;0.000000;-1.000000;,
  0.000000;0.000000;-1.000000;,
  0.000000;0.000000;-1.000000;,
  0.000000;0.000000;-1.000000;,
  0.000000;0.000000;-1.000000;;
  30;
  3;0,0,0;,
  3;1,1,1;,
  3;2,2,2;,
  3;3,3,3;,
  3;4,4,4;,
  3;5,5,5;,
  3;6,6,6;,
  3;7,7,7;,
  3;8,8,8;,
  3;9,9,9;,
  3;10,10,10;,
  3;11,11,11;,
  3;12,12,12;,
  3;13,13,13;,
  3;14,14,14;,
  3;15,15,15;,
  3;16,16,16;,
  3;17,17,17;,
  3;18,18,18;,
  3;19,19,19;,
  3;20,20,20;,
  3;21,21,21;,
  3;22,22,22;,
  3;23,23,23;,
  3;24,24,24;,
  3;25,25,25;,
  3;26,26,26;,
  3;27,27,27;,
  3;28,28,28;,
  3;29,29,29;;
 }
}