xof 0303txt 0032
template Vector {
 <3d82ab5e-62da-11cf-ab39-0020af71e433>
 FLOAT x;
 FLOAT y;
 FLOAT z;
}

template MeshFace {
 <3d82ab5f-62da-11cf-ab39-0020af71e433>
 DWORD nFaceVertexIndices;
 array DWORD faceVertexIndices[nFaceVertexIndices];
}

template Mesh {
 <3d82ab44-62da-11cf-ab39-0020af71e433>
 DWORD nVertices;
 array Vector vertices[nVertices];
 DWORD nFaces;
 array MeshFace faces[nFaces];
 [...]
}

template ColorRGBA {
 <35ff44e0-6c7c-11cf-8f52-0040333594a3>
 FLOAT red;
 FLOAT green;
 FLOAT blue;
 FLOAT alpha;
}

template ColorRGB {
 <d3e16e81-7835-11cf-8f52-0040333594a3>
 FLOAT red;
 FLOAT green;
 FLOAT blue;
}

template Material {
 <3d82ab4d-62da-11cf-ab39-0020af71e433>
 ColorRGBA faceColor;
 FLOAT power;
 ColorRGB specularColor;
 ColorRGB emissiveColor;
 [...]
}

template MeshMaterialList {
 <f6f23f42-7686-11cf-8f52-0040333594a3>
 DWORD nMaterials;
 DWORD nFaceIndexes;
 array DWORD faceIndexes[nFaceIndexes];
 [Material <3d82ab4d-62da-11cf-ab39-0020af71e433>]
}

template TextureFilename {
 <a42790e1-7810-11cf-8f52-0040333594a3>
 STRING filename;
}

template Coords2d {
 <f6f23f44-7686-11cf-8f52-0040333594a3>
 FLOAT u;
 FLOAT v;
}

template MeshTextureCoords {
 <f6f23f40-7686-11cf-8f52-0040333594a3>
 DWORD nTextureCoords;
 array Coords2d textureCoords[nTextureCoords];
}

template MeshNormals {
 <f6f23f43-7686-11cf-8f52-0040333594a3>
 DWORD nNormals;
 array Vector normals[nNormals];
 DWORD nFaceNormals;
 array MeshFace faceNormals[nFaceNormals];
}


Mesh  {
 126;
 0.000000;4.400000;0.000000;,
 0.000000;5.900000;0.000000;,
 0.000000;4.400000;5.050000;,
 0.000000;5.900000;5.050000;,
 -0.250000;4.400000;0.000000;,
 -0.250000;5.000000;0.161000;,
 -0.250000;5.249000;0.351000;,
 -0.250000;5.439000;0.600000;,
 -0.250000;5.600000;1.200000;,
 -0.250000;5.600000;1.300000;,
 0.250000;4.400000;0.000000;,
 0.250000;5.000000;0.161000;,
 0.250000;5.249000;0.351000;,
 0.250000;5.439000;0.600000;,
 0.250000;5.600000;1.200000;,
 0.250000;5.600000;1.300000;,
 0.000000;5.600000;0.000000;,
 0.130000;5.525000;0.000000;,
 0.130000;5.375000;0.000000;,
 0.000000;5.300000;0.000000;,
 -0.130000;5.375000;0.000000;,
 -0.130000;5.525000;0.000000;,
 0.000000;5.600000;1.500000;,
 0.130000;5.525000;1.500000;,
 0.130000;5.375000;1.500000;,
 0.000000;5.300000;1.500000;,
 -0.130000;5.375000;1.500000;,
 -0.130000;5.525000;1.500000;,
 0.000000;5.550000;1.500000;,
 0.087000;5.500000;1.500000;,
 0.087000;5.400000;1.500000;,
 0.000000;5.350000;1.500000;,
 -0.087000;5.400000;1.500000;,
 -0.087000;5.500000;1.500000;,
 0.000000;5.550000;1.650000;,
 0.087000;5.500000;1.650000;,
 0.087000;5.400000;1.650000;,
 0.000000;5.350000;1.650000;,
 -0.087000;5.400000;1.650000;,
 -0.087000;5.500000;1.650000;,
 0.000000;5.500000;1.650000;,
 0.043000;5.475000;1.650000;,
 0.043000;5.425000;1.650000;,
 0.000000;5.400000;1.650000;,
 -0.043000;5.475000;1.650000;,
 -0.043000;5.475000;1.650000;,
 0.000000;5.500000;1.800000;,
 0.043000;5.475000;1.800000;,
 0.043000;5.425000;1.800000;,
 0.000000;5.400000;1.800000;,
 -0.043000;5.475000;1.800000;,
 -0.043000;5.475000;1.800000;,
 -0.150000;5.600000;-0.010000;,
 -0.150000;5.700000;-0.010000;,
 0.150000;5.600000;-0.010000;,
 0.150000;5.700000;-0.010000;,
 -0.150000;4.950000;-0.010000;,
 -0.150000;5.050000;-0.010000;,
 0.150000;4.950000;-0.010000;,
 0.150000;5.050000;-0.010000;,
 -0.150000;5.600000;0.010000;,
 -0.150000;5.700000;0.010000;,
 0.150000;5.600000;0.010000;,
 0.150000;5.700000;0.010000;,
 -0.150000;4.950000;0.010000;,
 -0.150000;5.050000;0.010000;,
 0.150000;4.950000;0.010000;,
 0.150000;5.050000;0.010000;,
 -0.150000;5.450000;0.010000;,
 -0.150000;5.550000;0.010000;,
 0.150000;5.450000;0.010000;,
 0.150000;5.550000;0.010000;,
 -0.010000;-1.000000;-12.000000;,
 -0.010000;5.650000;0.000000;,
 0.010000;-1.000000;-12.000000;,
 0.010000;5.650000;0.000000;,
 -0.010000;-1.000000;-10.000000;,
 -0.010000;5.000000;0.000000;,
 0.010000;-1.000000;-10.000000;,
 0.010000;5.000000;0.000000;,
 0.006000;5.650000;5.000000;,
 0.006000;5.540000;7.500000;,
 0.006000;5.465000;10.000000;,
 0.006000;5.418750;12.500000;,
 0.006000;5.385000;15.000000;,
 0.006000;5.358750;17.500000;,
 0.006000;5.340000;20.000000;,
 0.006000;5.328750;22.500000;,
 0.006000;5.325000;25.000000;,
 -0.006000;5.650000;5.000000;,
 -0.006000;5.540000;7.500000;,
 -0.006000;5.465000;10.000000;,
 -0.006000;5.418750;12.500000;,
 -0.006000;5.385000;15.000000;,
 -0.006000;5.358750;17.500000;,
 -0.006000;5.340000;20.000000;,
 -0.006000;5.328750;22.500000;,
 -0.006000;5.325000;25.000000;,
 0.000000;5.120000;4.900000;,
 0.000000;5.120000;25.200001;,
 0.000000;5.100000;25.200001;,
 0.000000;5.100000;4.900000;,
 -0.040000;5.460000;10.000000;,
 0.000000;5.500000;10.000000;,
 0.040000;5.460000;10.000000;,
 0.000000;5.420000;10.000000;,
 -0.005000;5.110000;10.000000;,
 -0.005000;5.430000;10.000000;,
 0.005000;5.430000;10.000000;,
 0.005000;5.110000;10.000000;,
 -0.040000;5.385000;15.000000;,
 0.000000;5.425000;15.000000;,
 0.040000;5.385000;15.000000;,
 0.000000;5.345000;15.000000;,
 -0.005000;5.110000;15.000000;,
 -0.005000;5.355000;15.000000;,
 0.005000;5.355000;15.000000;,
 0.005000;5.110000;15.000000;,
 -0.040000;5.340000;20.000000;,
 0.000000;5.380000;20.000000;,
 0.040000;5.340000;20.000000;,
 0.000000;5.300000;20.000000;,
 -0.005000;5.110000;20.000000;,
 -0.005000;5.310000;20.000000;,
 0.005000;5.310000;20.000000;,
 0.005000;5.110000;20.000000;;
 166;
 3;0,1,3;,
 3;0,3,2;,
 3;2,3,1;,
 3;2,1,0;,
 3;4,5,11;,
 3;4,11,10;,
 3;10,11,5;,
 3;10,5,4;,
 3;5,6,12;,
 3;5,12,11;,
 3;11,12,6;,
 3;11,6,5;,
 3;6,7,13;,
 3;6,13,12;,
 3;12,13,7;,
 3;12,7,6;,
 3;7,8,14;,
 3;7,14,13;,
 3;13,14,8;,
 3;13,8,7;,
 3;8,9,15;,
 3;8,15,14;,
 3;14,15,9;,
 3;14,9,8;,
 3;22,23,17;,
 3;22,17,16;,
 3;23,24,18;,
 3;23,18,17;,
 3;24,25,19;,
 3;24,19,18;,
 3;25,26,20;,
 3;25,20,19;,
 3;26,27,21;,
 3;26,21,20;,
 3;27,22,16;,
 3;27,16,21;,
 3;28,29,23;,
 3;28,23,22;,
 3;29,30,24;,
 3;29,24,23;,
 3;30,31,25;,
 3;30,25,24;,
 3;31,32,26;,
 3;31,26,25;,
 3;32,33,27;,
 3;32,27,26;,
 3;33,28,22;,
 3;33,22,27;,
 3;34,35,29;,
 3;34,29,28;,
 3;35,36,30;,
 3;35,30,29;,
 3;36,37,31;,
 3;36,31,30;,
 3;37,38,32;,
 3;37,32,31;,
 3;38,39,33;,
 3;38,33,32;,
 3;39,34,28;,
 3;39,28,33;,
 3;40,41,35;,
 3;40,35,34;,
 3;41,42,36;,
 3;41,36,35;,
 3;42,43,37;,
 3;42,37,36;,
 3;43,44,38;,
 3;43,38,37;,
 3;44,45,39;,
 3;44,39,38;,
 3;45,40,34;,
 3;45,34,39;,
 3;46,47,41;,
 3;46,41,40;,
 3;47,48,42;,
 3;47,42,41;,
 3;48,49,43;,
 3;48,43,42;,
 3;49,50,44;,
 3;49,44,43;,
 3;50,51,45;,
 3;50,45,44;,
 3;51,46,40;,
 3;51,40,45;,
 3;51,50,49;,
 3;51,49,48;,
 3;51,48,47;,
 3;51,47,46;,
 3;52,53,55;,
 3;52,55,54;,
 3;56,57,59;,
 3;56,59,58;,
 3;62,63,61;,
 3;62,61,60;,
 3;66,67,65;,
 3;66,65,64;,
 3;70,71,69;,
 3;70,69,68;,
 3;72,73,74;,
 3;72,74,75;,
 3;75,74,73;,
 3;75,73,72;,
 3;76,77,78;,
 3;76,78,79;,
 3;79,78,77;,
 3;79,77,76;,
 3;80,81,90;,
 3;80,90,89;,
 3;89,90,81;,
 3;89,81,80;,
 3;81,82,91;,
 3;81,91,90;,
 3;90,91,82;,
 3;90,82,81;,
 3;82,83,92;,
 3;82,92,91;,
 3;91,92,83;,
 3;91,83,82;,
 3;83,84,93;,
 3;83,93,92;,
 3;92,93,84;,
 3;92,84,83;,
 3;84,85,94;,
 3;84,94,93;,
 3;93,94,85;,
 3;93,85,84;,
 3;85,86,95;,
 3;85,95,94;,
 3;94,95,86;,
 3;94,86,85;,
 3;86,87,96;,
 3;86,96,95;,
 3;95,96,87;,
 3;95,87,86;,
 3;87,88,97;,
 3;87,97,96;,
 3;96,97,88;,
 3;96,88,87;,
 3;98,99,100;,
 3;98,100,101;,
 3;101,100,99;,
 3;101,99,98;,
 3;102,103,104;,
 3;102,104,105;,
 3;105,104,103;,
 3;105,103,102;,
 3;106,107,108;,
 3;106,108,109;,
 3;109,108,107;,
 3;109,107,106;,
 3;110,111,112;,
 3;110,112,113;,
 3;113,112,111;,
 3;113,111,110;,
 3;114,115,116;,
 3;114,116,117;,
 3;117,116,115;,
 3;117,115,114;,
 3;118,119,120;,
 3;118,120,121;,
 3;121,120,119;,
 3;121,119,118;,
 3;122,123,124;,
 3;122,124,125;,
 3;125,124,123;,
 3;125,123,122;;

 MeshMaterialList  {
  18;
  166;
  0,
  0,
  0,
  0,
  1,
  1,
  1,
  1,
  1,
  1,
  1,
  1,
  1,
  1,
  1,
  1,
  1,
  1,
  1,
  1,
  1,
  1,
  1,
  1,
  2,
  2,
  2,
  2,
  2,
  2,
  2,
  2,
  2,
  2,
  2,
  2,
  2,
  2,
  2,
  2,
  2,
  2,
  2,
  2,
  2,
  2,
  2,
  2,
  2,
  2,
  2,
  2,
  2,
  2,
  2,
  2,
  2,
  2,
  2,
  2,
  2,
  2,
  2,
  2,
  2,
  2,
  2,
  2,
  2,
  2,
  2,
  2,
  2,
  2,
  2,
  2,
  2,
  2,
  2,
  2,
  2,
  2,
  2,
  2,
  2,
  2,
  2,
  2,
  3,
  3,
  4,
  4,
  5,
  5,
  6,
  6,
  7,
  7,
  8,
  8,
  8,
  8,
  9,
  9,
  9,
  9,
  10,
  10,
  10,
  10,
  10,
  10,
  10,
  10,
  10,
  10,
  10,
  10,
  10,
  10,
  10,
  10,
  10,
  10,
  10,
  10,
  10,
  10,
  10,
  10,
  10,
  10,
  10,
  10,
  10,
  10,
  10,
  10,
  11,
  11,
  11,
  11,
  12,
  12,
  12,
  12,
  13,
  13,
  13,
  13,
  14,
  14,
  14,
  14,
  15,
  15,
  15,
  15,
  16,
  16,
  16,
  16,
  17,
  17,
  17,
  17;

  Material  {
   1.000000;1.000000;1.000000;1.000000;;
   0.000000;
   0.000000;0.000000;0.000000;;
   0.000000;0.000000;0.000000;;

   TextureFilename  {
    "PoleAnchor0.png";
   }
  }

  Material  {
   1.000000;1.000000;1.000000;1.000000;;
   0.000000;
   0.000000;0.000000;0.000000;;
   0.000000;0.000000;0.000000;;

   TextureFilename  {
    "PoleAnchor2.png";
   }
  }

  Material  {
   1.000000;1.000000;1.000000;1.000000;;
   0.000000;
   0.000000;0.000000;0.000000;;
   0.000000;0.000000;0.000000;;

   TextureFilename  {
    "PoleAnchor2-2.png";
   }
  }

  Material  {
   0.392157;0.392157;0.392157;1.000000;;
   0.000000;
   0.000000;0.000000;0.000000;;
   0.000000;0.000000;0.000000;;
  }

  Material  {
   0.392157;0.392157;0.392157;1.000000;;
   0.000000;
   0.000000;0.000000;0.000000;;
   0.000000;0.000000;0.000000;;
  }

  Material  {
   0.392157;0.392157;0.392157;1.000000;;
   0.000000;
   0.000000;0.000000;0.000000;;
   0.000000;0.000000;0.000000;;
  }

  Material  {
   0.392157;0.392157;0.392157;1.000000;;
   0.000000;
   0.000000;0.000000;0.000000;;
   0.000000;0.000000;0.000000;;
  }

  Material  {
   0.392157;0.392157;0.392157;1.000000;;
   0.000000;
   0.000000;0.000000;0.000000;;
   0.000000;0.000000;0.000000;;
  }

  Material  {
   0.392157;0.294118;0.078431;1.000000;;
   0.000000;
   0.000000;0.000000;0.000000;;
   0.000000;0.000000;0.000000;;
  }

  Material  {
   0.392157;0.294118;0.078431;1.000000;;
   0.000000;
   0.000000;0.000000;0.000000;;
   0.000000;0.000000;0.000000;;
  }

  Material  {
   0.250980;0.250980;0.250980;1.000000;;
   0.000000;
   0.000000;0.000000;0.000000;;
   0.000000;0.000000;0.000000;;
  }

  Material  {
   0.392157;0.294118;0.078431;1.000000;;
   0.000000;
   0.000000;0.000000;0.000000;;
   0.000000;0.000000;0.000000;;
  }

  Material  {
   0.250980;0.250980;0.250980;1.000000;;
   0.000000;
   0.000000;0.000000;0.000000;;
   0.000000;0.000000;0.000000;;
  }

  Material  {
   0.250980;0.250980;0.250980;1.000000;;
   0.000000;
   0.000000;0.000000;0.000000;;
   0.000000;0.000000;0.000000;;
  }

  Material  {
   0.250980;0.250980;0.250980;1.000000;;
   0.000000;
   0.000000;0.000000;0.000000;;
   0.000000;0.000000;0.000000;;
  }

  Material  {
   0.250980;0.250980;0.250980;1.000000;;
   0.000000;
   0.000000;0.000000;0.000000;;
   0.000000;0.000000;0.000000;;
  }

  Material  {
   0.250980;0.250980;0.250980;1.000000;;
   0.000000;
   0.000000;0.000000;0.000000;;
   0.000000;0.000000;0.000000;;
  }

  Material  {
   0.250980;0.250980;0.250980;1.000000;;
   0.000000;
   0.000000;0.000000;0.000000;;
   0.000000;0.000000;0.000000;;
  }
 }

 MeshTextureCoords  {
  126;
  0.256000;1.000000;,
  0.256000;0.000000;,
  1.000000;1.000000;,
  1.000000;0.000000;,
  0.000000;1.000000;,
  0.000000;0.330000;,
  0.000000;0.330000;,
  0.000000;0.120000;,
  0.000000;0.093750;,
  0.000000;0.000000;,
  1.000000;1.000000;,
  1.000000;0.330000;,
  1.000000;0.330000;,
  1.000000;0.120000;,
  1.000000;0.093750;,
  1.000000;0.000000;,
  0.000000;0.000000;,
  0.000000;0.300000;,
  0.000000;0.600000;,
  0.000000;0.900000;,
  0.000000;0.600000;,
  0.000000;0.300000;,
  0.100000;0.000000;,
  0.100000;0.300000;,
  0.100000;0.600000;,
  0.100000;0.900000;,
  0.100000;0.600000;,
  0.100000;0.300000;,
  0.200000;0.000000;,
  0.200000;0.300000;,
  0.200000;0.600000;,
  0.200000;0.900000;,
  0.200000;0.600000;,
  0.200000;0.300000;,
  0.300000;0.000000;,
  0.300000;0.300000;,
  0.300000;0.600000;,
  0.300000;0.900000;,
  0.300000;0.600000;,
  0.300000;0.300000;,
  0.400000;0.000000;,
  0.400000;0.300000;,
  0.400000;0.600000;,
  0.400000;0.900000;,
  0.400000;0.600000;,
  0.400000;0.300000;,
  0.500000;0.000000;,
  0.500000;0.300000;,
  0.500000;0.600000;,
  0.500000;0.900000;,
  0.500000;0.600000;,
  0.500000;0.300000;,
  0.000000;0.000000;,
  0.000000;0.000000;,
  0.000000;0.000000;,
  0.000000;0.000000;,
  0.000000;0.000000;,
  0.000000;0.000000;,
  0.000000;0.000000;,
  0.000000;0.000000;,
  0.000000;0.000000;,
  0.000000;0.000000;,
  0.000000;0.000000;,
  0.000000;0.000000;,
  0.000000;0.000000;,
  0.000000;0.000000;,
  0.000000;0.000000;,
  0.000000;0.000000;,
  0.000000;0.000000;,
  0.000000;0.000000;,
  0.000000;0.000000;,
  0.000000;0.000000;,
  0.000000;0.000000;,
  0.000000;0.000000;,
  0.000000;0.000000;,
  0.000000;0.000000;,
  0.000000;0.000000;,
  0.000000;0.000000;,
  0.000000;0.000000;,
  0.000000;0.000000;,
  0.000000;0.000000;,
  0.000000;0.000000;,
  0.000000;0.000000;,
  0.000000;0.000000;,
  0.000000;0.000000;,
  0.000000;0.000000;,
  0.000000;0.000000;,
  0.000000;0.000000;,
  0.000000;0.000000;,
  0.000000;0.000000;,
  0.000000;0.000000;,
  0.000000;0.000000;,
  0.000000;0.000000;,
  0.000000;0.000000;,
  0.000000;0.000000;,
  0.000000;0.000000;,
  0.000000;0.000000;,
  0.000000;0.000000;,
  0.000000;0.000000;,
  0.000000;0.000000;,
  0.000000;0.000000;,
  0.000000;0.000000;,
  0.000000;0.000000;,
  0.000000;0.000000;,
  0.000000;0.000000;,
  0.000000;0.000000;,
  0.000000;0.000000;,
  0.000000;0.000000;,
  0.000000;0.000000;,
  0.000000;0.000000;,
  0.000000;0.000000;,
  0.000000;0.000000;,
  0.000000;0.000000;,
  0.000000;0.000000;,
  0.000000;0.000000;,
  0.000000;0.000000;,
  0.000000;0.000000;,
  0.000000;0.000000;,
  0.000000;0.000000;,
  0.000000;0.000000;,
  0.000000;0.000000;,
  0.000000;0.000000;,
  0.000000;0.000000;,
  0.000000;0.000000;,
  0.000000;0.000000;,
  0.000000;0.000000;;
 }

 MeshNormals  {
  166;
  1.000000;0.000000;0.000000;,
  1.000000;0.000000;0.000000;,
  -1.000000;0.000000;0.000000;,
  -1.000000;0.000000;0.000000;,
  0.000000;0.259165;-0.965833;,
  0.000000;0.259165;-0.965833;,
  0.000000;-0.259165;0.965833;,
  0.000000;-0.259165;0.965833;,
  0.000000;0.606620;-0.794992;,
  0.000000;0.606620;-0.794992;,
  0.000000;-0.606620;0.794992;,
  0.000000;-0.606620;0.794992;,
  0.000000;0.794992;-0.606620;,
  0.000000;0.794992;-0.606620;,
  0.000000;-0.794992;0.606620;,
  0.000000;-0.794992;0.606620;,
  0.000000;0.965833;-0.259165;,
  0.000000;0.965833;-0.259165;,
  0.000000;-0.965833;0.259165;,
  0.000000;-0.965833;0.259165;,
  0.000000;1.000000;0.000000;,
  0.000000;1.000000;0.000000;,
  0.000000;-1.000000;0.000000;,
  0.000000;-1.000000;0.000000;,
  0.499722;0.866186;0.000000;,
  0.499722;0.866186;0.000000;,
  1.000000;0.000000;0.000000;,
  1.000000;0.000000;0.000000;,
  0.499722;-0.866186;0.000000;,
  0.499722;-0.866186;0.000000;,
  -0.499722;-0.866186;0.000000;,
  -0.499722;-0.866186;0.000000;,
  -1.000000;0.000000;0.000000;,
  -1.000000;0.000000;0.000000;,
  -0.499722;0.866186;0.000000;,
  -0.499722;0.866186;0.000000;,
  0.000000;0.000000;1.000000;,
  0.000000;0.000000;1.000000;,
  0.000000;0.000000;1.000000;,
  0.000000;0.000000;1.000000;,
  0.000000;0.000000;1.000000;,
  0.000000;0.000000;1.000000;,
  0.000000;0.000000;1.000000;,
  0.000000;0.000000;1.000000;,
  0.000000;0.000000;1.000000;,
  0.000000;0.000000;1.000000;,
  0.000000;0.000000;1.000000;,
  0.000000;0.000000;1.000000;,
  0.498285;0.867013;0.000000;,
  0.498285;0.867013;0.000000;,
  1.000000;0.000000;0.000000;,
  1.000000;0.000000;0.000000;,
  0.498285;-0.867013;0.000000;,
  0.498285;-0.867013;0.000000;,
  -0.498285;-0.867013;0.000000;,
  -0.498285;-0.867013;0.000000;,
  -1.000000;0.000000;0.000000;,
  -1.000000;0.000000;0.000000;,
  -0.498285;0.867013;0.000000;,
  -0.498285;0.867013;0.000000;,
  0.000000;0.000000;1.000000;,
  0.000000;0.000000;1.000000;,
  0.000000;0.000000;1.000000;,
  0.000000;0.000000;1.000000;,
  0.000000;0.000000;1.000000;,
  0.000000;0.000000;1.000000;,
  0.000000;0.000000;1.000000;,
  0.000000;0.000000;1.000000;,
  0.000000;0.000000;0.000000;,
  0.000000;0.000000;1.000000;,
  0.000000;0.000000;1.000000;,
  0.000000;0.000000;1.000000;,
  0.502622;0.864506;0.000000;,
  0.502622;0.864506;0.000000;,
  1.000000;0.000000;0.000000;,
  1.000000;0.000000;0.000000;,
  0.502622;-0.864506;0.000000;,
  0.502622;-0.864506;0.000000;,
  -0.867530;-0.497385;0.000000;,
  -0.867530;-0.497385;0.000000;,
  0.000000;0.000000;0.000000;,
  0.000000;0.000000;0.000000;,
  -0.502622;0.864506;0.000000;,
  -0.502622;0.864506;0.000000;,
  0.000000;0.000000;0.000000;,
  0.000000;0.000000;1.000000;,
  0.000000;0.000000;1.000000;,
  0.000000;0.000000;1.000000;,
  0.000000;0.000000;-1.000000;,
  0.000000;0.000000;-1.000000;,
  0.000000;0.000000;-1.000000;,
  0.000000;0.000000;-1.000000;,
  0.000000;0.000000;1.000000;,
  0.000000;0.000000;1.000000;,
  0.000000;0.000000;1.000000;,
  0.000000;0.000000;1.000000;,
  0.000000;0.000000;1.000000;,
  0.000000;0.000000;1.000000;,
  0.000000;0.874673;-0.484714;,
  0.000000;-0.874673;0.484714;,
  0.000000;0.874673;-0.484714;,
  0.000000;-0.874673;0.484714;,
  0.000000;0.857493;-0.514496;,
  0.000000;-0.857493;0.514496;,
  0.000000;0.857493;-0.514496;,
  0.000000;-0.857493;0.514496;,
  0.000000;-0.999033;-0.043958;,
  0.000000;-0.999033;-0.043958;,
  0.000000;0.999033;0.043958;,
  0.000000;0.999033;0.043958;,
  0.000000;-0.999550;-0.029986;,
  0.000000;-0.999550;-0.029986;,
  0.000000;0.999550;0.029986;,
  0.000000;0.999550;0.029986;,
  0.000000;-0.999829;-0.018497;,
  0.000000;-0.999829;-0.018497;,
  0.000000;0.999829;0.018497;,
  0.000000;0.999829;0.018497;,
  0.000000;-0.999909;-0.013499;,
  0.000000;-0.999909;-0.013499;,
  0.000000;0.999909;0.013499;,
  0.000000;0.999909;0.013499;,
  0.000000;-0.999945;-0.010500;,
  0.000000;-0.999945;-0.010500;,
  0.000000;0.999945;0.010500;,
  0.000000;0.999945;0.010500;,
  0.000000;-0.999972;-0.007500;,
  0.000000;-0.999972;-0.007500;,
  0.000000;0.999972;0.007500;,
  0.000000;0.999972;0.007500;,
  0.000000;-0.999990;-0.004500;,
  0.000000;-0.999990;-0.004500;,
  0.000000;0.999990;0.004500;,
  0.000000;0.999990;0.004500;,
  0.000000;-0.999999;-0.001500;,
  0.000000;-0.999999;-0.001500;,
  0.000000;0.999999;0.001500;,
  0.000000;0.999999;0.001500;,
  1.000000;0.000000;0.000000;,
  1.000000;0.000000;0.000000;,
  -1.000000;0.000000;0.000000;,
  -1.000000;0.000000;0.000000;,
  0.000000;0.000000;-1.000000;,
  0.000000;0.000000;-1.000000;,
  0.000000;0.000000;1.000000;,
  0.000000;0.000000;1.000000;,
  0.000000;0.000000;-1.000000;,
  0.000000;0.000000;-1.000000;,
  0.000000;0.000000;1.000000;,
  0.000000;0.000000;1.000000;,
  0.000000;0.000000;-1.000000;,
  0.000000;0.000000;-1.000000;,
  0.000000;0.000000;1.000000;,
  0.000000;0.000000;1.000000;,
  0.000000;0.000000;-1.000000;,
  0.000000;0.000000;-1.000000;,
  0.000000;0.000000;1.000000;,
  0.000000;0.000000;1.000000;,
  0.000000;0.000000;-1.000000;,
  0.000000;0.000000;-1.000000;,
  0.000000;0.000000;1.000000;,
  0.000000;0.000000;1.000000;,
  0.000000;0.000000;-1.000000;,
  0.000000;0.000000;-1.000000;,
  0.000000;0.000000;1.000000;,
  0.000000;0.000000;1.000000;;
  166;
  3;0,0,0;,
  3;1,1,1;,
  3;2,2,2;,
  3;3,3,3;,
  3;4,4,4;,
  3;5,5,5;,
  3;6,6,6;,
  3;7,7,7;,
  3;8,8,8;,
  3;9,9,9;,
  3;10,10,10;,
  3;11,11,11;,
  3;12,12,12;,
  3;13,13,13;,
  3;14,14,14;,
  3;15,15,15;,
  3;16,16,16;,
  3;17,17,17;,
  3;18,18,18;,
  3;19,19,19;,
  3;20,20,20;,
  3;21,21,21;,
  3;22,22,22;,
  3;23,23,23;,
  3;24,24,24;,
  3;25,25,25;,
  3;26,26,26;,
  3;27,27,27;,
  3;28,28,28;,
  3;29,29,29;,
  3;30,30,30;,
  3;31,31,31;,
  3;32,32,32;,
  3;33,33,33;,
  3;34,34,34;,
  3;35,35,35;,
  3;36,36,36;,
  3;37,37,37;,
  3;38,38,38;,
  3;39,39,39;,
  3;40,40,40;,
  3;41,41,41;,
  3;42,42,42;,
  3;43,43,43;,
  3;44,44,44;,
  3;45,45,45;,
  3;46,46,46;,
  3;47,47,47;,
  3;48,48,48;,
  3;49,49,49;,
  3;50,50,50;,
  3;51,51,51;,
  3;52,52,52;,
  3;53,53,53;,
  3;54,54,54;,
  3;55,55,55;,
  3;56,56,56;,
  3;57,57,57;,
  3;58,58,58;,
  3;59,59,59;,
  3;60,60,60;,
  3;61,61,61;,
  3;62,62,62;,
  3;63,63,63;,
  3;64,64,64;,
  3;65,65,65;,
  3;66,66,66;,
  3;67,67,67;,
  3;68,68,68;,
  3;69,69,69;,
  3;70,70,70;,
  3;71,71,71;,
  3;72,72,72;,
  3;73,73,73;,
  3;74,74,74;,
  3;75,75,75;,
  3;76,76,76;,
  3;77,77,77;,
  3;78,78,78;,
  3;79,79,79;,
  3;80,80,80;,
  3;81,81,81;,
  3;82,82,82;,
  3;83,83,83;,
  3;84,84,84;,
  3;85,85,85;,
  3;86,86,86;,
  3;87,87,87;,
  3;88,88,88;,
  3;89,89,89;,
  3;90,90,90;,
  3;91,91,91;,
  3;92,92,92;,
  3;93,93,93;,
  3;94,94,94;,
  3;95,95,95;,
  3;96,96,96;,
  3;97,97,97;,
  3;98,98,98;,
  3;99,99,99;,
  3;100,100,100;,
  3;101,101,101;,
  3;102,102,102;,
  3;103,103,103;,
  3;104,104,104;,
  3;105,105,105;,
  3;106,106,106;,
  3;107,107,107;,
  3;108,108,108;,
  3;109,109,109;,
  3;110,110,110;,
  3;111,111,111;,
  3;112,112,112;,
  3;113,113,113;,
  3;114,114,114;,
  3;115,115,115;,
  3;116,116,116;,
  3;117,117,117;,
  3;118,118,118;,
  3;119,119,119;,
  3;120,120,120;,
  3;121,121,121;,
  3;122,122,122;,
  3;123,123,123;,
  3;124,124,124;,
  3;125,125,125;,
  3;126,126,126;,
  3;127,127,127;,
  3;128,128,128;,
  3;129,129,129;,
  3;130,130,130;,
  3;131,131,131;,
  3;132,132,132;,
  3;133,133,133;,
  3;134,134,134;,
  3;135,135,135;,
  3;136,136,136;,
  3;137,137,137;,
  3;138,138,138;,
  3;139,139,139;,
  3;140,140,140;,
  3;141,141,141;,
  3;142,142,142;,
  3;143,143,143;,
  3;144,144,144;,
  3;145,145,145;,
  3;146,146,146;,
  3;147,147,147;,
  3;148,148,148;,
  3;149,149,149;,
  3;150,150,150;,
  3;151,151,151;,
  3;152,152,152;,
  3;153,153,153;,
  3;154,154,154;,
  3;155,155,155;,
  3;156,156,156;,
  3;157,157,157;,
  3;158,158,158;,
  3;159,159,159;,
  3;160,160,160;,
  3;161,161,161;,
  3;162,162,162;,
  3;163,163,163;,
  3;164,164,164;,
  3;165,165,165;;
 }
}