xof 0303txt 0032
template Vector {
 <3d82ab5e-62da-11cf-ab39-0020af71e433>
 FLOAT x;
 FLOAT y;
 FLOAT z;
}

template MeshFace {
 <3d82ab5f-62da-11cf-ab39-0020af71e433>
 DWORD nFaceVertexIndices;
 array DWORD faceVertexIndices[nFaceVertexIndices];
}

template Mesh {
 <3d82ab44-62da-11cf-ab39-0020af71e433>
 DWORD nVertices;
 array Vector vertices[nVertices];
 DWORD nFaces;
 array MeshFace faces[nFaces];
 [...]
}

template ColorRGBA {
 <35ff44e0-6c7c-11cf-8f52-0040333594a3>
 FLOAT red;
 FLOAT green;
 FLOAT blue;
 FLOAT alpha;
}

template ColorRGB {
 <d3e16e81-7835-11cf-8f52-0040333594a3>
 FLOAT red;
 FLOAT green;
 FLOAT blue;
}

template Material {
 <3d82ab4d-62da-11cf-ab39-0020af71e433>
 ColorRGBA faceColor;
 FLOAT power;
 ColorRGB specularColor;
 ColorRGB emissiveColor;
 [...]
}

template MeshMaterialList {
 <f6f23f42-7686-11cf-8f52-0040333594a3>
 DWORD nMaterials;
 DWORD nFaceIndexes;
 array DWORD faceIndexes[nFaceIndexes];
 [Material <3d82ab4d-62da-11cf-ab39-0020af71e433>]
}

template TextureFilename {
 <a42790e1-7810-11cf-8f52-0040333594a3>
 STRING filename;
}

template Coords2d {
 <f6f23f44-7686-11cf-8f52-0040333594a3>
 FLOAT u;
 FLOAT v;
}

template MeshTextureCoords {
 <f6f23f40-7686-11cf-8f52-0040333594a3>
 DWORD nTextureCoords;
 array Coords2d textureCoords[nTextureCoords];
}

template MeshNormals {
 <f6f23f43-7686-11cf-8f52-0040333594a3>
 DWORD nNormals;
 array Vector normals[nNormals];
 DWORD nFaceNormals;
 array MeshFace faceNormals[nFaceNormals];
}


Mesh  {
 14;
 -3.360000;4.880000;-0.130000;,
 -3.360000;7.500000;-0.130000;,
 -1.245000;4.880000;-0.130000;,
 -1.245000;7.500000;-0.130000;,
 9.330000;4.880000;-0.130000;,
 9.330000;7.500000;-0.130000;,
 7.215000;4.880000;-0.130000;,
 7.215000;7.500000;-0.130000;,
 -1.245000;6.260000;-0.130000;,
 -1.245000;7.500000;-0.130000;,
 2.985000;6.260000;-0.130000;,
 2.985000;7.500000;-0.130000;,
 7.215000;6.260000;-0.130000;,
 7.215000;7.500000;-0.130000;;
 8;
 3;0,1,3;,
 3;0,3,2;,
 3;6,7,5;,
 3;6,5,4;,
 3;8,9,11;,
 3;8,11,10;,
 3;10,11,13;,
 3;10,13,12;;

 MeshMaterialList  {
  3;
  8;
  0,
  0,
  1,
  1,
  2,
  2,
  2,
  2;

  Material  {
   1.000000;1.000000;1.000000;1.000000;;
   0.000000;
   0.000000;0.000000;0.000000;;
   0.000000;0.000000;0.000000;;

   TextureFilename  {
    "Pole_Iron4.png";
   }
  }

  Material  {
   1.000000;1.000000;1.000000;1.000000;;
   0.000000;
   0.000000;0.000000;0.000000;;
   0.000000;0.000000;0.000000;;

   TextureFilename  {
    "Pole_Iron4.png";
   }
  }

  Material  {
   1.000000;1.000000;1.000000;1.000000;;
   0.000000;
   0.000000;0.000000;0.000000;;
   0.000000;0.000000;0.000000;;

   TextureFilename  {
    "Pole_Iron3.png";
   }
  }
 }

 MeshTextureCoords  {
  14;
  0.000000;1.000000;,
  0.000000;0.010000;,
  0.800000;1.000000;,
  0.800000;0.010000;,
  0.000000;1.000000;,
  0.000000;0.010000;,
  0.800000;1.000000;,
  0.800000;0.010000;,
  0.000000;1.000000;,
  0.000000;0.000000;,
  2.010000;1.000000;,
  2.010000;0.000000;,
  0.000000;1.000000;,
  0.000000;0.000000;;
 }

 MeshNormals  {
  8;
  0.000000;0.000000;-1.000000;,
  0.000000;0.000000;-1.000000;,
  0.000000;0.000000;-1.000000;,
  0.000000;0.000000;-1.000000;,
  0.000000;0.000000;-1.000000;,
  0.000000;0.000000;-1.000000;,
  0.000000;0.000000;-1.000000;,
  0.000000;0.000000;-1.000000;;
  8;
  3;0,0,0;,
  3;1,1,1;,
  3;2,2,2;,
  3;3,3,3;,
  3;4,4,4;,
  3;5,5,5;,
  3;6,6,6;,
  3;7,7,7;;
 }
}