xof 0303txt 0032
template Vector {
 <3d82ab5e-62da-11cf-ab39-0020af71e433>
 FLOAT x;
 FLOAT y;
 FLOAT z;
}

template MeshFace {
 <3d82ab5f-62da-11cf-ab39-0020af71e433>
 DWORD nFaceVertexIndices;
 array DWORD faceVertexIndices[nFaceVertexIndices];
}

template Mesh {
 <3d82ab44-62da-11cf-ab39-0020af71e433>
 DWORD nVertices;
 array Vector vertices[nVertices];
 DWORD nFaces;
 array MeshFace faces[nFaces];
 [...]
}

template ColorRGBA {
 <35ff44e0-6c7c-11cf-8f52-0040333594a3>
 FLOAT red;
 FLOAT green;
 FLOAT blue;
 FLOAT alpha;
}

template ColorRGB {
 <d3e16e81-7835-11cf-8f52-0040333594a3>
 FLOAT red;
 FLOAT green;
 FLOAT blue;
}

template Material {
 <3d82ab4d-62da-11cf-ab39-0020af71e433>
 ColorRGBA faceColor;
 FLOAT power;
 ColorRGB specularColor;
 ColorRGB emissiveColor;
 [...]
}

template MeshMaterialList {
 <f6f23f42-7686-11cf-8f52-0040333594a3>
 DWORD nMaterials;
 DWORD nFaceIndexes;
 array DWORD faceIndexes[nFaceIndexes];
 [Material <3d82ab4d-62da-11cf-ab39-0020af71e433>]
}

template TextureFilename {
 <a42790e1-7810-11cf-8f52-0040333594a3>
 STRING filename;
}

template Coords2d {
 <f6f23f44-7686-11cf-8f52-0040333594a3>
 FLOAT u;
 FLOAT v;
}

template MeshTextureCoords {
 <f6f23f40-7686-11cf-8f52-0040333594a3>
 DWORD nTextureCoords;
 array Coords2d textureCoords[nTextureCoords];
}

template MeshNormals {
 <f6f23f43-7686-11cf-8f52-0040333594a3>
 DWORD nNormals;
 array Vector normals[nNormals];
 DWORD nFaceNormals;
 array MeshFace faceNormals[nFaceNormals];
}


Mesh  {
 14;
 -2.000000;6.260000;-0.130000;,
 0.000000;6.260000;-0.130000;,
 0.200000;6.206400;-0.130000;,
 0.282800;6.142800;-0.130000;,
 0.346400;6.060000;-0.130000;,
 0.400000;5.860000;-0.130000;,
 0.400000;5.260000;-0.130000;,
 -2.000000;6.360000;-0.130000;,
 0.000000;6.360000;-0.130000;,
 0.250000;6.293000;-0.130000;,
 0.353600;6.213600;-0.130000;,
 0.433000;6.110000;-0.130000;,
 0.500000;5.860000;-0.130000;,
 0.500000;5.260000;-0.130000;;
 24;
 3;0,1,8;,
 3;0,8,7;,
 3;7,8,1;,
 3;7,1,0;,
 3;1,2,9;,
 3;1,9,8;,
 3;8,9,2;,
 3;8,2,1;,
 3;2,3,10;,
 3;2,10,9;,
 3;9,10,3;,
 3;9,3,2;,
 3;3,4,11;,
 3;3,11,10;,
 3;10,11,4;,
 3;10,4,3;,
 3;4,5,12;,
 3;4,12,11;,
 3;11,12,5;,
 3;11,5,4;,
 3;5,6,13;,
 3;5,13,12;,
 3;12,13,6;,
 3;12,6,5;;

 MeshMaterialList  {
  1;
  24;
  0,
  0,
  0,
  0,
  0,
  0,
  0,
  0,
  0,
  0,
  0,
  0,
  0,
  0,
  0,
  0,
  0,
  0,
  0,
  0,
  0,
  0,
  0,
  0;

  Material  {
   1.000000;1.000000;1.000000;1.000000;;
   0.000000;
   0.000000;0.000000;0.000000;;
   0.000000;0.000000;0.000000;;

   TextureFilename  {
    "Pole_Iron5.png";
   }
  }
 }

 MeshTextureCoords  {
  14;
  0.000000;1.000000;,
  0.100000;1.000000;,
  0.200000;1.000000;,
  0.300000;1.000000;,
  0.400000;1.000000;,
  0.500000;1.000000;,
  0.600000;1.000000;,
  0.000000;0.000000;,
  0.100000;0.000000;,
  0.200000;0.000000;,
  0.300000;0.000000;,
  0.400000;0.000000;,
  0.500000;0.000000;,
  0.600000;0.000000;;
 }

 MeshNormals  {
  24;
  0.000000;0.000000;1.000000;,
  0.000000;0.000000;1.000000;,
  0.000000;0.000000;-1.000000;,
  0.000000;0.000000;-1.000000;,
  0.000000;0.000000;1.000000;,
  0.000000;0.000000;1.000000;,
  0.000000;0.000000;-1.000000;,
  0.000000;0.000000;-1.000000;,
  0.000000;0.000000;1.000000;,
  0.000000;0.000000;1.000000;,
  0.000000;0.000000;-1.000000;,
  0.000000;0.000000;-1.000000;,
  0.000000;0.000000;1.000000;,
  0.000000;0.000000;1.000000;,
  0.000000;0.000000;-1.000000;,
  0.000000;0.000000;-1.000000;,
  0.000000;0.000000;1.000000;,
  0.000000;0.000000;1.000000;,
  0.000000;0.000000;-1.000000;,
  0.000000;0.000000;-1.000000;,
  0.000000;0.000000;1.000000;,
  0.000000;0.000000;1.000000;,
  0.000000;0.000000;-1.000000;,
  0.000000;0.000000;-1.000000;;
  24;
  3;0,0,0;,
  3;1,1,1;,
  3;2,2,2;,
  3;3,3,3;,
  3;4,4,4;,
  3;5,5,5;,
  3;6,6,6;,
  3;7,7,7;,
  3;8,8,8;,
  3;9,9,9;,
  3;10,10,10;,
  3;11,11,11;,
  3;12,12,12;,
  3;13,13,13;,
  3;14,14,14;,
  3;15,15,15;,
  3;16,16,16;,
  3;17,17,17;,
  3;18,18,18;,
  3;19,19,19;,
  3;20,20,20;,
  3;21,21,21;,
  3;22,22,22;,
  3;23,23,23;;
 }
}