xof 0303txt 0032
template Vector {
 <3d82ab5e-62da-11cf-ab39-0020af71e433>
 FLOAT x;
 FLOAT y;
 FLOAT z;
}

template MeshFace {
 <3d82ab5f-62da-11cf-ab39-0020af71e433>
 DWORD nFaceVertexIndices;
 array DWORD faceVertexIndices[nFaceVertexIndices];
}

template Mesh {
 <3d82ab44-62da-11cf-ab39-0020af71e433>
 DWORD nVertices;
 array Vector vertices[nVertices];
 DWORD nFaces;
 array MeshFace faces[nFaces];
 [...]
}

template ColorRGBA {
 <35ff44e0-6c7c-11cf-8f52-0040333594a3>
 FLOAT red;
 FLOAT green;
 FLOAT blue;
 FLOAT alpha;
}

template ColorRGB {
 <d3e16e81-7835-11cf-8f52-0040333594a3>
 FLOAT red;
 FLOAT green;
 FLOAT blue;
}

template Material {
 <3d82ab4d-62da-11cf-ab39-0020af71e433>
 ColorRGBA faceColor;
 FLOAT power;
 ColorRGB specularColor;
 ColorRGB emissiveColor;
 [...]
}

template MeshMaterialList {
 <f6f23f42-7686-11cf-8f52-0040333594a3>
 DWORD nMaterials;
 DWORD nFaceIndexes;
 array DWORD faceIndexes[nFaceIndexes];
 [Material <3d82ab4d-62da-11cf-ab39-0020af71e433>]
}

template TextureFilename {
 <a42790e1-7810-11cf-8f52-0040333594a3>
 STRING filename;
}

template Coords2d {
 <f6f23f44-7686-11cf-8f52-0040333594a3>
 FLOAT u;
 FLOAT v;
}

template MeshTextureCoords {
 <f6f23f40-7686-11cf-8f52-0040333594a3>
 DWORD nTextureCoords;
 array Coords2d textureCoords[nTextureCoords];
}

template MeshNormals {
 <f6f23f43-7686-11cf-8f52-0040333594a3>
 DWORD nNormals;
 array Vector normals[nNormals];
 DWORD nFaceNormals;
 array MeshFace faceNormals[nFaceNormals];
}


Mesh  {
 78;
 0.000000;4.400000;0.000000;,
 0.000000;5.900000;0.000000;,
 0.000000;4.400000;5.050000;,
 0.000000;5.900000;5.050000;,
 -0.150000;5.600000;-0.010000;,
 -0.150000;5.700000;-0.010000;,
 0.150000;5.600000;-0.010000;,
 0.150000;5.700000;-0.010000;,
 -0.150000;4.950000;-0.010000;,
 -0.150000;5.050000;-0.010000;,
 0.150000;4.950000;-0.010000;,
 0.150000;5.050000;-0.010000;,
 -0.150000;5.600000;0.010000;,
 -0.150000;5.700000;0.010000;,
 0.150000;5.600000;0.010000;,
 0.150000;5.700000;0.010000;,
 -0.150000;4.950000;0.010000;,
 -0.150000;5.050000;0.010000;,
 0.150000;4.950000;0.010000;,
 0.150000;5.050000;0.010000;,
 -0.150000;5.450000;0.010000;,
 -0.150000;5.550000;0.010000;,
 0.150000;5.450000;0.010000;,
 0.150000;5.550000;0.010000;,
 -0.010000;-1.000000;-12.000000;,
 -0.010000;5.650000;0.000000;,
 0.010000;-1.000000;-12.000000;,
 0.010000;5.650000;0.000000;,
 -0.010000;-1.000000;-10.000000;,
 -0.010000;5.000000;0.000000;,
 0.010000;-1.000000;-10.000000;,
 0.010000;5.000000;0.000000;,
 0.006000;5.650000;5.000000;,
 0.006000;5.540000;7.500000;,
 0.006000;5.465000;10.000000;,
 0.006000;5.418750;12.500000;,
 0.006000;5.385000;15.000000;,
 0.006000;5.358750;17.500000;,
 0.006000;5.340000;20.000000;,
 0.006000;5.328750;22.500000;,
 0.006000;5.325000;25.000000;,
 -0.006000;5.650000;5.000000;,
 -0.006000;5.540000;7.500000;,
 -0.006000;5.465000;10.000000;,
 -0.006000;5.418750;12.500000;,
 -0.006000;5.385000;15.000000;,
 -0.006000;5.358750;17.500000;,
 -0.006000;5.340000;20.000000;,
 -0.006000;5.328750;22.500000;,
 -0.006000;5.325000;25.000000;,
 0.000000;5.120000;4.900000;,
 0.000000;5.120000;25.200001;,
 0.000000;5.100000;25.200001;,
 0.000000;5.100000;4.900000;,
 -0.040000;5.460000;10.000000;,
 0.000000;5.500000;10.000000;,
 0.040000;5.460000;10.000000;,
 0.000000;5.420000;10.000000;,
 -0.005000;5.110000;10.000000;,
 -0.005000;5.430000;10.000000;,
 0.005000;5.430000;10.000000;,
 0.005000;5.110000;10.000000;,
 -0.040000;5.385000;15.000000;,
 0.000000;5.425000;15.000000;,
 0.040000;5.385000;15.000000;,
 0.000000;5.345000;15.000000;,
 -0.005000;5.110000;15.000000;,
 -0.005000;5.355000;15.000000;,
 0.005000;5.355000;15.000000;,
 0.005000;5.110000;15.000000;,
 -0.040000;5.340000;20.000000;,
 0.000000;5.380000;20.000000;,
 0.040000;5.340000;20.000000;,
 0.000000;5.300000;20.000000;,
 -0.005000;5.110000;20.000000;,
 -0.005000;5.310000;20.000000;,
 0.005000;5.310000;20.000000;,
 0.005000;5.110000;20.000000;;
 82;
 3;0,1,3;,
 3;0,3,2;,
 3;2,3,1;,
 3;2,1,0;,
 3;4,5,7;,
 3;4,7,6;,
 3;8,9,11;,
 3;8,11,10;,
 3;14,15,13;,
 3;14,13,12;,
 3;18,19,17;,
 3;18,17,16;,
 3;22,23,21;,
 3;22,21,20;,
 3;24,25,26;,
 3;24,26,27;,
 3;27,26,25;,
 3;27,25,24;,
 3;28,29,30;,
 3;28,30,31;,
 3;31,30,29;,
 3;31,29,28;,
 3;32,33,42;,
 3;32,42,41;,
 3;41,42,33;,
 3;41,33,32;,
 3;33,34,43;,
 3;33,43,42;,
 3;42,43,34;,
 3;42,34,33;,
 3;34,35,44;,
 3;34,44,43;,
 3;43,44,35;,
 3;43,35,34;,
 3;35,36,45;,
 3;35,45,44;,
 3;44,45,36;,
 3;44,36,35;,
 3;36,37,46;,
 3;36,46,45;,
 3;45,46,37;,
 3;45,37,36;,
 3;37,38,47;,
 3;37,47,46;,
 3;46,47,38;,
 3;46,38,37;,
 3;38,39,48;,
 3;38,48,47;,
 3;47,48,39;,
 3;47,39,38;,
 3;39,40,49;,
 3;39,49,48;,
 3;48,49,40;,
 3;48,40,39;,
 3;50,51,52;,
 3;50,52,53;,
 3;53,52,51;,
 3;53,51,50;,
 3;54,55,56;,
 3;54,56,57;,
 3;57,56,55;,
 3;57,55,54;,
 3;58,59,60;,
 3;58,60,61;,
 3;61,60,59;,
 3;61,59,58;,
 3;62,63,64;,
 3;62,64,65;,
 3;65,64,63;,
 3;65,63,62;,
 3;66,67,68;,
 3;66,68,69;,
 3;69,68,67;,
 3;69,67,66;,
 3;70,71,72;,
 3;70,72,73;,
 3;73,72,71;,
 3;73,71,70;,
 3;74,75,76;,
 3;74,76,77;,
 3;77,76,75;,
 3;77,75,74;;

 MeshMaterialList  {
  16;
  82;
  0,
  0,
  0,
  0,
  1,
  1,
  2,
  2,
  3,
  3,
  4,
  4,
  5,
  5,
  6,
  6,
  6,
  6,
  7,
  7,
  7,
  7,
  8,
  8,
  8,
  8,
  8,
  8,
  8,
  8,
  8,
  8,
  8,
  8,
  8,
  8,
  8,
  8,
  8,
  8,
  8,
  8,
  8,
  8,
  8,
  8,
  8,
  8,
  8,
  8,
  8,
  8,
  8,
  8,
  9,
  9,
  9,
  9,
  10,
  10,
  10,
  10,
  11,
  11,
  11,
  11,
  12,
  12,
  12,
  12,
  13,
  13,
  13,
  13,
  14,
  14,
  14,
  14,
  15,
  15,
  15,
  15;

  Material  {
   1.000000;1.000000;1.000000;1.000000;;
   0.000000;
   0.000000;0.000000;0.000000;;
   0.000000;0.000000;0.000000;;

   TextureFilename  {
    "PoleAnchor0.png";
   }
  }

  Material  {
   0.392157;0.392157;0.392157;1.000000;;
   0.000000;
   0.000000;0.000000;0.000000;;
   0.000000;0.000000;0.000000;;
  }

  Material  {
   0.392157;0.392157;0.392157;1.000000;;
   0.000000;
   0.000000;0.000000;0.000000;;
   0.000000;0.000000;0.000000;;
  }

  Material  {
   0.392157;0.392157;0.392157;1.000000;;
   0.000000;
   0.000000;0.000000;0.000000;;
   0.000000;0.000000;0.000000;;
  }

  Material  {
   0.392157;0.392157;0.392157;1.000000;;
   0.000000;
   0.000000;0.000000;0.000000;;
   0.000000;0.000000;0.000000;;
  }

  Material  {
   0.392157;0.392157;0.392157;1.000000;;
   0.000000;
   0.000000;0.000000;0.000000;;
   0.000000;0.000000;0.000000;;
  }

  Material  {
   0.392157;0.294118;0.078431;1.000000;;
   0.000000;
   0.000000;0.000000;0.000000;;
   0.000000;0.000000;0.000000;;
  }

  Material  {
   0.392157;0.294118;0.078431;1.000000;;
   0.000000;
   0.000000;0.000000;0.000000;;
   0.000000;0.000000;0.000000;;
  }

  Material  {
   0.250980;0.250980;0.250980;1.000000;;
   0.000000;
   0.000000;0.000000;0.000000;;
   0.000000;0.000000;0.000000;;
  }

  Material  {
   0.392157;0.294118;0.078431;1.000000;;
   0.000000;
   0.000000;0.000000;0.000000;;
   0.000000;0.000000;0.000000;;
  }

  Material  {
   0.250980;0.250980;0.250980;1.000000;;
   0.000000;
   0.000000;0.000000;0.000000;;
   0.000000;0.000000;0.000000;;
  }

  Material  {
   0.250980;0.250980;0.250980;1.000000;;
   0.000000;
   0.000000;0.000000;0.000000;;
   0.000000;0.000000;0.000000;;
  }

  Material  {
   0.250980;0.250980;0.250980;1.000000;;
   0.000000;
   0.000000;0.000000;0.000000;;
   0.000000;0.000000;0.000000;;
  }

  Material  {
   0.250980;0.250980;0.250980;1.000000;;
   0.000000;
   0.000000;0.000000;0.000000;;
   0.000000;0.000000;0.000000;;
  }

  Material  {
   0.250980;0.250980;0.250980;1.000000;;
   0.000000;
   0.000000;0.000000;0.000000;;
   0.000000;0.000000;0.000000;;
  }

  Material  {
   0.250980;0.250980;0.250980;1.000000;;
   0.000000;
   0.000000;0.000000;0.000000;;
   0.000000;0.000000;0.000000;;
  }
 }

 MeshTextureCoords  {
  78;
  0.256000;1.000000;,
  0.256000;0.000000;,
  1.000000;1.000000;,
  1.000000;0.000000;,
  0.000000;0.000000;,
  0.000000;0.000000;,
  0.000000;0.000000;,
  0.000000;0.000000;,
  0.000000;0.000000;,
  0.000000;0.000000;,
  0.000000;0.000000;,
  0.000000;0.000000;,
  0.000000;0.000000;,
  0.000000;0.000000;,
  0.000000;0.000000;,
  0.000000;0.000000;,
  0.000000;0.000000;,
  0.000000;0.000000;,
  0.000000;0.000000;,
  0.000000;0.000000;,
  0.000000;0.000000;,
  0.000000;0.000000;,
  0.000000;0.000000;,
  0.000000;0.000000;,
  0.000000;0.000000;,
  0.000000;0.000000;,
  0.000000;0.000000;,
  0.000000;0.000000;,
  0.000000;0.000000;,
  0.000000;0.000000;,
  0.000000;0.000000;,
  0.000000;0.000000;,
  0.000000;0.000000;,
  0.000000;0.000000;,
  0.000000;0.000000;,
  0.000000;0.000000;,
  0.000000;0.000000;,
  0.000000;0.000000;,
  0.000000;0.000000;,
  0.000000;0.000000;,
  0.000000;0.000000;,
  0.000000;0.000000;,
  0.000000;0.000000;,
  0.000000;0.000000;,
  0.000000;0.000000;,
  0.000000;0.000000;,
  0.000000;0.000000;,
  0.000000;0.000000;,
  0.000000;0.000000;,
  0.000000;0.000000;,
  0.000000;0.000000;,
  0.000000;0.000000;,
  0.000000;0.000000;,
  0.000000;0.000000;,
  0.000000;0.000000;,
  0.000000;0.000000;,
  0.000000;0.000000;,
  0.000000;0.000000;,
  0.000000;0.000000;,
  0.000000;0.000000;,
  0.000000;0.000000;,
  0.000000;0.000000;,
  0.000000;0.000000;,
  0.000000;0.000000;,
  0.000000;0.000000;,
  0.000000;0.000000;,
  0.000000;0.000000;,
  0.000000;0.000000;,
  0.000000;0.000000;,
  0.000000;0.000000;,
  0.000000;0.000000;,
  0.000000;0.000000;,
  0.000000;0.000000;,
  0.000000;0.000000;,
  0.000000;0.000000;,
  0.000000;0.000000;,
  0.000000;0.000000;,
  0.000000;0.000000;;
 }

 MeshNormals  {
  82;
  1.000000;0.000000;0.000000;,
  1.000000;0.000000;0.000000;,
  -1.000000;0.000000;0.000000;,
  -1.000000;0.000000;0.000000;,
  0.000000;0.000000;-1.000000;,
  0.000000;0.000000;-1.000000;,
  0.000000;0.000000;-1.000000;,
  0.000000;0.000000;-1.000000;,
  0.000000;0.000000;1.000000;,
  0.000000;0.000000;1.000000;,
  0.000000;0.000000;1.000000;,
  0.000000;0.000000;1.000000;,
  0.000000;0.000000;1.000000;,
  0.000000;0.000000;1.000000;,
  0.000000;0.874673;-0.484714;,
  0.000000;-0.874673;0.484714;,
  0.000000;0.874673;-0.484714;,
  0.000000;-0.874673;0.484714;,
  0.000000;0.857493;-0.514496;,
  0.000000;-0.857493;0.514496;,
  0.000000;0.857493;-0.514496;,
  0.000000;-0.857493;0.514496;,
  0.000000;-0.999033;-0.043958;,
  0.000000;-0.999033;-0.043958;,
  0.000000;0.999033;0.043958;,
  0.000000;0.999033;0.043958;,
  0.000000;-0.999550;-0.029986;,
  0.000000;-0.999550;-0.029986;,
  0.000000;0.999550;0.029986;,
  0.000000;0.999550;0.029986;,
  0.000000;-0.999829;-0.018497;,
  0.000000;-0.999829;-0.018497;,
  0.000000;0.999829;0.018497;,
  0.000000;0.999829;0.018497;,
  0.000000;-0.999909;-0.013499;,
  0.000000;-0.999909;-0.013499;,
  0.000000;0.999909;0.013499;,
  0.000000;0.999909;0.013499;,
  0.000000;-0.999945;-0.010500;,
  0.000000;-0.999945;-0.010500;,
  0.000000;0.999945;0.010500;,
  0.000000;0.999945;0.010500;,
  0.000000;-0.999972;-0.007500;,
  0.000000;-0.999972;-0.007500;,
  0.000000;0.999972;0.007500;,
  0.000000;0.999972;0.007500;,
  0.000000;-0.999990;-0.004500;,
  0.000000;-0.999990;-0.004500;,
  0.000000;0.999990;0.004500;,
  0.000000;0.999990;0.004500;,
  0.000000;-0.999999;-0.001500;,
  0.000000;-0.999999;-0.001500;,
  0.000000;0.999999;0.001500;,
  0.000000;0.999999;0.001500;,
  1.000000;0.000000;0.000000;,
  1.000000;0.000000;0.000000;,
  -1.000000;0.000000;0.000000;,
  -1.000000;0.000000;0.000000;,
  0.000000;0.000000;-1.000000;,
  0.000000;0.000000;-1.000000;,
  0.000000;0.000000;1.000000;,
  0.000000;0.000000;1.000000;,
  0.000000;0.000000;-1.000000;,
  0.000000;0.000000;-1.000000;,
  0.000000;0.000000;1.000000;,
  0.000000;0.000000;1.000000;,
  0.000000;0.000000;-1.000000;,
  0.000000;0.000000;-1.000000;,
  0.000000;0.000000;1.000000;,
  0.000000;0.000000;1.000000;,
  0.000000;0.000000;-1.000000;,
  0.000000;0.000000;-1.000000;,
  0.000000;0.000000;1.000000;,
  0.000000;0.000000;1.000000;,
  0.000000;0.000000;-1.000000;,
  0.000000;0.000000;-1.000000;,
  0.000000;0.000000;1.000000;,
  0.000000;0.000000;1.000000;,
  0.000000;0.000000;-1.000000;,
  0.000000;0.000000;-1.000000;,
  0.000000;0.000000;1.000000;,
  0.000000;0.000000;1.000000;;
  82;
  3;0,0,0;,
  3;1,1,1;,
  3;2,2,2;,
  3;3,3,3;,
  3;4,4,4;,
  3;5,5,5;,
  3;6,6,6;,
  3;7,7,7;,
  3;8,8,8;,
  3;9,9,9;,
  3;10,10,10;,
  3;11,11,11;,
  3;12,12,12;,
  3;13,13,13;,
  3;14,14,14;,
  3;15,15,15;,
  3;16,16,16;,
  3;17,17,17;,
  3;18,18,18;,
  3;19,19,19;,
  3;20,20,20;,
  3;21,21,21;,
  3;22,22,22;,
  3;23,23,23;,
  3;24,24,24;,
  3;25,25,25;,
  3;26,26,26;,
  3;27,27,27;,
  3;28,28,28;,
  3;29,29,29;,
  3;30,30,30;,
  3;31,31,31;,
  3;32,32,32;,
  3;33,33,33;,
  3;34,34,34;,
  3;35,35,35;,
  3;36,36,36;,
  3;37,37,37;,
  3;38,38,38;,
  3;39,39,39;,
  3;40,40,40;,
  3;41,41,41;,
  3;42,42,42;,
  3;43,43,43;,
  3;44,44,44;,
  3;45,45,45;,
  3;46,46,46;,
  3;47,47,47;,
  3;48,48,48;,
  3;49,49,49;,
  3;50,50,50;,
  3;51,51,51;,
  3;52,52,52;,
  3;53,53,53;,
  3;54,54,54;,
  3;55,55,55;,
  3;56,56,56;,
  3;57,57,57;,
  3;58,58,58;,
  3;59,59,59;,
  3;60,60,60;,
  3;61,61,61;,
  3;62,62,62;,
  3;63,63,63;,
  3;64,64,64;,
  3;65,65,65;,
  3;66,66,66;,
  3;67,67,67;,
  3;68,68,68;,
  3;69,69,69;,
  3;70,70,70;,
  3;71,71,71;,
  3;72,72,72;,
  3;73,73,73;,
  3;74,74,74;,
  3;75,75,75;,
  3;76,76,76;,
  3;77,77,77;,
  3;78,78,78;,
  3;79,79,79;,
  3;80,80,80;,
  3;81,81,81;;
 }
}