xof 0303txt 0032
template Vector {
 <3d82ab5e-62da-11cf-ab39-0020af71e433>
 FLOAT x;
 FLOAT y;
 FLOAT z;
}

template MeshFace {
 <3d82ab5f-62da-11cf-ab39-0020af71e433>
 DWORD nFaceVertexIndices;
 array DWORD faceVertexIndices[nFaceVertexIndices];
}

template Mesh {
 <3d82ab44-62da-11cf-ab39-0020af71e433>
 DWORD nVertices;
 array Vector vertices[nVertices];
 DWORD nFaces;
 array MeshFace faces[nFaces];
 [...]
}

template ColorRGBA {
 <35ff44e0-6c7c-11cf-8f52-0040333594a3>
 FLOAT red;
 FLOAT green;
 FLOAT blue;
 FLOAT alpha;
}

template ColorRGB {
 <d3e16e81-7835-11cf-8f52-0040333594a3>
 FLOAT red;
 FLOAT green;
 FLOAT blue;
}

template Material {
 <3d82ab4d-62da-11cf-ab39-0020af71e433>
 ColorRGBA faceColor;
 FLOAT power;
 ColorRGB specularColor;
 ColorRGB emissiveColor;
 [...]
}

template MeshMaterialList {
 <f6f23f42-7686-11cf-8f52-0040333594a3>
 DWORD nMaterials;
 DWORD nFaceIndexes;
 array DWORD faceIndexes[nFaceIndexes];
 [Material <3d82ab4d-62da-11cf-ab39-0020af71e433>]
}

template TextureFilename {
 <a42790e1-7810-11cf-8f52-0040333594a3>
 STRING filename;
}

template Coords2d {
 <f6f23f44-7686-11cf-8f52-0040333594a3>
 FLOAT u;
 FLOAT v;
}

template MeshTextureCoords {
 <f6f23f40-7686-11cf-8f52-0040333594a3>
 DWORD nTextureCoords;
 array Coords2d textureCoords[nTextureCoords];
}

template MeshNormals {
 <f6f23f43-7686-11cf-8f52-0040333594a3>
 DWORD nNormals;
 array Vector normals[nNormals];
 DWORD nFaceNormals;
 array MeshFace faceNormals[nFaceNormals];
}


Mesh  {
 80;
 0.000000;0.400000;0.000000;,
 0.000000;4.400000;0.000000;,
 0.000000;5.900000;0.000000;,
 0.000000;0.400000;5.050000;,
 0.000000;4.400000;5.050000;,
 0.000000;5.900000;5.050000;,
 -0.350000;2.000000;0.500000;,
 -0.350000;3.200000;0.500000;,
 0.350000;2.000000;0.500000;,
 0.350000;3.200000;0.500000;,
 -0.150000;5.600000;-0.010000;,
 -0.150000;5.700000;-0.010000;,
 0.150000;5.600000;-0.010000;,
 0.150000;5.700000;-0.010000;,
 -0.150000;4.950000;-0.010000;,
 -0.150000;5.050000;-0.010000;,
 0.150000;4.950000;-0.010000;,
 0.150000;5.050000;-0.010000;,
 -0.150000;5.600000;0.010000;,
 -0.150000;5.700000;0.010000;,
 0.150000;5.600000;0.010000;,
 0.150000;5.700000;0.010000;,
 -0.150000;4.950000;0.010000;,
 -0.150000;5.050000;0.010000;,
 0.150000;4.950000;0.010000;,
 0.150000;5.050000;0.010000;,
 -0.010000;-1.000000;-12.000000;,
 -0.010000;5.650000;0.000000;,
 0.010000;-1.000000;-12.000000;,
 0.010000;5.650000;0.000000;,
 -0.010000;-1.000000;-10.000000;,
 -0.010000;5.000000;0.000000;,
 0.010000;-1.000000;-10.000000;,
 0.010000;5.000000;0.000000;,
 0.006000;5.625000;5.000000;,
 0.006000;5.601600;7.500000;,
 0.006000;5.587500;10.000000;,
 0.006000;5.582800;12.500000;,
 0.006000;5.587500;15.000000;,
 0.006000;5.601600;17.500000;,
 0.006000;5.625000;20.000000;,
 0.006000;5.658000;22.500000;,
 0.006000;5.700000;25.000000;,
 -0.006000;5.625000;5.000000;,
 -0.006000;5.601600;7.500000;,
 -0.006000;5.587500;10.000000;,
 -0.006000;5.582800;12.500000;,
 -0.006000;5.587500;15.000000;,
 -0.006000;5.601600;17.500000;,
 -0.006000;5.625000;20.000000;,
 -0.006000;5.658000;22.500000;,
 -0.006000;5.700000;25.000000;,
 0.000000;5.120000;4.900000;,
 0.000000;5.120000;25.200001;,
 0.000000;5.100000;25.200001;,
 0.000000;5.100000;4.900000;,
 -0.040000;5.587500;10.000000;,
 0.000000;5.627500;10.000000;,
 0.040000;5.587500;10.000000;,
 0.000000;5.547500;10.000000;,
 -0.005000;5.110000;10.000000;,
 -0.005000;5.557500;10.000000;,
 0.005000;5.557500;10.000000;,
 0.005000;5.110000;10.000000;,
 -0.040000;5.587500;15.000000;,
 0.000000;5.627500;15.000000;,
 0.040000;5.587500;15.000000;,
 0.000000;5.547500;15.000000;,
 -0.005000;5.110000;15.000000;,
 -0.005000;5.557500;15.000000;,
 0.005000;5.557500;15.000000;,
 0.005000;5.110000;15.000000;,
 -0.040000;5.625000;20.000000;,
 0.000000;5.665000;20.000000;,
 0.040000;5.625000;20.000000;,
 0.000000;5.585000;20.000000;,
 -0.005000;5.110000;20.000000;,
 -0.005000;5.595000;20.000000;,
 0.005000;5.595000;20.000000;,
 0.005000;5.110000;20.000000;;
 88;
 3;0,1,4;,
 3;0,4,3;,
 3;3,4,1;,
 3;3,1,0;,
 3;1,2,5;,
 3;1,5,4;,
 3;4,5,2;,
 3;4,2,1;,
 3;6,7,9;,
 3;6,9,8;,
 3;8,9,7;,
 3;8,7,6;,
 3;10,11,13;,
 3;10,13,12;,
 3;14,15,17;,
 3;14,17,16;,
 3;20,21,19;,
 3;20,19,18;,
 3;24,25,23;,
 3;24,23,22;,
 3;26,27,28;,
 3;26,28,29;,
 3;29,28,27;,
 3;29,27,26;,
 3;30,31,32;,
 3;30,32,33;,
 3;33,32,31;,
 3;33,31,30;,
 3;34,35,44;,
 3;34,44,43;,
 3;43,44,35;,
 3;43,35,34;,
 3;35,36,45;,
 3;35,45,44;,
 3;44,45,36;,
 3;44,36,35;,
 3;36,37,46;,
 3;36,46,45;,
 3;45,46,37;,
 3;45,37,36;,
 3;37,38,47;,
 3;37,47,46;,
 3;46,47,38;,
 3;46,38,37;,
 3;38,39,48;,
 3;38,48,47;,
 3;47,48,39;,
 3;47,39,38;,
 3;39,40,49;,
 3;39,49,48;,
 3;48,49,40;,
 3;48,40,39;,
 3;40,41,50;,
 3;40,50,49;,
 3;49,50,41;,
 3;49,41,40;,
 3;41,42,51;,
 3;41,51,50;,
 3;50,51,42;,
 3;50,42,41;,
 3;52,53,54;,
 3;52,54,55;,
 3;55,54,53;,
 3;55,53,52;,
 3;56,57,58;,
 3;56,58,59;,
 3;59,58,57;,
 3;59,57,56;,
 3;60,61,62;,
 3;60,62,63;,
 3;63,62,61;,
 3;63,61,60;,
 3;64,65,66;,
 3;64,66,67;,
 3;67,66,65;,
 3;67,65,64;,
 3;68,69,70;,
 3;68,70,71;,
 3;71,70,69;,
 3;71,69,68;,
 3;72,73,74;,
 3;72,74,75;,
 3;75,74,73;,
 3;75,73,72;,
 3;76,77,78;,
 3;76,78,79;,
 3;79,78,77;,
 3;79,77,76;;

 MeshMaterialList  {
  16;
  88;
  0,
  0,
  0,
  0,
  0,
  0,
  0,
  0,
  1,
  1,
  1,
  1,
  2,
  2,
  3,
  3,
  4,
  4,
  5,
  5,
  6,
  6,
  6,
  6,
  7,
  7,
  7,
  7,
  8,
  8,
  8,
  8,
  8,
  8,
  8,
  8,
  8,
  8,
  8,
  8,
  8,
  8,
  8,
  8,
  8,
  8,
  8,
  8,
  8,
  8,
  8,
  8,
  8,
  8,
  8,
  8,
  8,
  8,
  8,
  8,
  9,
  9,
  9,
  9,
  10,
  10,
  10,
  10,
  11,
  11,
  11,
  11,
  12,
  12,
  12,
  12,
  13,
  13,
  13,
  13,
  14,
  14,
  14,
  14,
  15,
  15,
  15,
  15;

  Material  {
   1.000000;1.000000;1.000000;1.000000;;
   0.000000;
   0.000000;0.000000;0.000000;;
   0.000000;0.000000;0.000000;;

   TextureFilename  {
    "PoleAnchor0.png";
   }
  }

  Material  {
   1.000000;1.000000;1.000000;1.000000;;
   0.000000;
   0.000000;0.000000;0.000000;;
   0.000000;0.000000;0.000000;;

   TextureFilename  {
    "Ballast.png";
   }
  }

  Material  {
   0.392157;0.392157;0.392157;1.000000;;
   0.000000;
   0.000000;0.000000;0.000000;;
   0.000000;0.000000;0.000000;;
  }

  Material  {
   0.392157;0.392157;0.392157;1.000000;;
   0.000000;
   0.000000;0.000000;0.000000;;
   0.000000;0.000000;0.000000;;
  }

  Material  {
   0.392157;0.392157;0.392157;1.000000;;
   0.000000;
   0.000000;0.000000;0.000000;;
   0.000000;0.000000;0.000000;;
  }

  Material  {
   0.392157;0.392157;0.392157;1.000000;;
   0.000000;
   0.000000;0.000000;0.000000;;
   0.000000;0.000000;0.000000;;
  }

  Material  {
   0.392157;0.294118;0.078431;1.000000;;
   0.000000;
   0.000000;0.000000;0.000000;;
   0.000000;0.000000;0.000000;;
  }

  Material  {
   0.392157;0.294118;0.078431;1.000000;;
   0.000000;
   0.000000;0.000000;0.000000;;
   0.000000;0.000000;0.000000;;
  }

  Material  {
   0.250980;0.250980;0.250980;1.000000;;
   0.000000;
   0.000000;0.000000;0.000000;;
   0.000000;0.000000;0.000000;;
  }

  Material  {
   0.392157;0.294118;0.078431;1.000000;;
   0.000000;
   0.000000;0.000000;0.000000;;
   0.000000;0.000000;0.000000;;
  }

  Material  {
   0.250980;0.250980;0.250980;1.000000;;
   0.000000;
   0.000000;0.000000;0.000000;;
   0.000000;0.000000;0.000000;;
  }

  Material  {
   0.250980;0.250980;0.250980;1.000000;;
   0.000000;
   0.000000;0.000000;0.000000;;
   0.000000;0.000000;0.000000;;
  }

  Material  {
   0.250980;0.250980;0.250980;1.000000;;
   0.000000;
   0.000000;0.000000;0.000000;;
   0.000000;0.000000;0.000000;;
  }

  Material  {
   0.250980;0.250980;0.250980;1.000000;;
   0.000000;
   0.000000;0.000000;0.000000;;
   0.000000;0.000000;0.000000;;
  }

  Material  {
   0.250980;0.250980;0.250980;1.000000;;
   0.000000;
   0.000000;0.000000;0.000000;;
   0.000000;0.000000;0.000000;;
  }

  Material  {
   0.250980;0.250980;0.250980;1.000000;;
   0.000000;
   0.000000;0.000000;0.000000;;
   0.000000;0.000000;0.000000;;
  }
 }

 MeshTextureCoords  {
  80;
  0.000000;1.000000;,
  0.000000;0.990000;,
  0.000000;0.000000;,
  1.000000;1.000000;,
  1.000000;0.990000;,
  1.000000;0.000000;,
  1.000000;1.000000;,
  1.000000;0.000000;,
  0.000000;1.000000;,
  0.000000;0.000000;,
  0.000000;0.000000;,
  0.000000;0.000000;,
  0.000000;0.000000;,
  0.000000;0.000000;,
  0.000000;0.000000;,
  0.000000;0.000000;,
  0.000000;0.000000;,
  0.000000;0.000000;,
  0.000000;0.000000;,
  0.000000;0.000000;,
  0.000000;0.000000;,
  0.000000;0.000000;,
  0.000000;0.000000;,
  0.000000;0.000000;,
  0.000000;0.000000;,
  0.000000;0.000000;,
  0.000000;0.000000;,
  0.000000;0.000000;,
  0.000000;0.000000;,
  0.000000;0.000000;,
  0.000000;0.000000;,
  0.000000;0.000000;,
  0.000000;0.000000;,
  0.000000;0.000000;,
  0.000000;0.000000;,
  0.000000;0.000000;,
  0.000000;0.000000;,
  0.000000;0.000000;,
  0.000000;0.000000;,
  0.000000;0.000000;,
  0.000000;0.000000;,
  0.000000;0.000000;,
  0.000000;0.000000;,
  0.000000;0.000000;,
  0.000000;0.000000;,
  0.000000;0.000000;,
  0.000000;0.000000;,
  0.000000;0.000000;,
  0.000000;0.000000;,
  0.000000;0.000000;,
  0.000000;0.000000;,
  0.000000;0.000000;,
  0.000000;0.000000;,
  0.000000;0.000000;,
  0.000000;0.000000;,
  0.000000;0.000000;,
  0.000000;0.000000;,
  0.000000;0.000000;,
  0.000000;0.000000;,
  0.000000;0.000000;,
  0.000000;0.000000;,
  0.000000;0.000000;,
  0.000000;0.000000;,
  0.000000;0.000000;,
  0.000000;0.000000;,
  0.000000;0.000000;,
  0.000000;0.000000;,
  0.000000;0.000000;,
  0.000000;0.000000;,
  0.000000;0.000000;,
  0.000000;0.000000;,
  0.000000;0.000000;,
  0.000000;0.000000;,
  0.000000;0.000000;,
  0.000000;0.000000;,
  0.000000;0.000000;,
  0.000000;0.000000;,
  0.000000;0.000000;,
  0.000000;0.000000;,
  0.000000;0.000000;;
 }

 MeshNormals  {
  88;
  1.000000;0.000000;0.000000;,
  1.000000;0.000000;0.000000;,
  -1.000000;0.000000;0.000000;,
  -1.000000;0.000000;0.000000;,
  1.000000;0.000000;0.000000;,
  1.000000;0.000000;0.000000;,
  -1.000000;0.000000;0.000000;,
  -1.000000;0.000000;0.000000;,
  0.000000;0.000000;-1.000000;,
  0.000000;0.000000;-1.000000;,
  0.000000;0.000000;1.000000;,
  0.000000;0.000000;1.000000;,
  0.000000;0.000000;-1.000000;,
  0.000000;0.000000;-1.000000;,
  0.000000;0.000000;-1.000000;,
  0.000000;0.000000;-1.000000;,
  0.000000;0.000000;1.000000;,
  0.000000;0.000000;1.000000;,
  0.000000;0.000000;1.000000;,
  0.000000;0.000000;1.000000;,
  0.000000;0.874673;-0.484714;,
  0.000000;-0.874673;0.484714;,
  0.000000;0.874673;-0.484714;,
  0.000000;-0.874673;0.484714;,
  0.000000;0.857493;-0.514496;,
  0.000000;-0.857493;0.514496;,
  0.000000;0.857493;-0.514496;,
  0.000000;-0.857493;0.514496;,
  0.000000;-0.999956;-0.009360;,
  0.000000;-0.999956;-0.009360;,
  0.000000;0.999956;0.009360;,
  0.000000;0.999956;0.009360;,
  0.000000;-0.999984;-0.005640;,
  0.000000;-0.999984;-0.005640;,
  0.000000;0.999984;0.005640;,
  0.000000;0.999984;0.005640;,
  0.000000;-0.999998;-0.001880;,
  0.000000;-0.999998;-0.001880;,
  0.000000;0.999998;0.001880;,
  0.000000;0.999998;0.001880;,
  0.000000;-0.999998;0.001880;,
  0.000000;-0.999998;0.001880;,
  0.000000;0.999998;-0.001880;,
  0.000000;0.999998;-0.001880;,
  0.000000;-0.999984;0.005640;,
  0.000000;-0.999984;0.005640;,
  0.000000;0.999984;-0.005640;,
  0.000000;0.999984;-0.005640;,
  0.000000;-0.999956;0.009360;,
  0.000000;-0.999956;0.009360;,
  0.000000;0.999956;-0.009360;,
  0.000000;0.999956;-0.009360;,
  0.000000;-0.999913;0.013199;,
  0.000000;-0.999913;0.013199;,
  0.000000;0.999913;-0.013199;,
  0.000000;0.999913;-0.013199;,
  0.000000;-0.999859;0.016798;,
  0.000000;-0.999859;0.016798;,
  0.000000;0.999859;-0.016798;,
  0.000000;0.999859;-0.016798;,
  1.000000;0.000000;0.000000;,
  1.000000;0.000000;0.000000;,
  -1.000000;0.000000;0.000000;,
  -1.000000;0.000000;0.000000;,
  0.000000;0.000000;-1.000000;,
  0.000000;0.000000;-1.000000;,
  0.000000;0.000000;1.000000;,
  0.000000;0.000000;1.000000;,
  0.000000;0.000000;-1.000000;,
  0.000000;0.000000;-1.000000;,
  0.000000;0.000000;1.000000;,
  0.000000;0.000000;1.000000;,
  0.000000;0.000000;-1.000000;,
  0.000000;0.000000;-1.000000;,
  0.000000;0.000000;1.000000;,
  0.000000;0.000000;1.000000;,
  0.000000;0.000000;-1.000000;,
  0.000000;0.000000;-1.000000;,
  0.000000;0.000000;1.000000;,
  0.000000;0.000000;1.000000;,
  0.000000;0.000000;-1.000000;,
  0.000000;0.000000;-1.000000;,
  0.000000;0.000000;1.000000;,
  0.000000;0.000000;1.000000;,
  0.000000;0.000000;-1.000000;,
  0.000000;0.000000;-1.000000;,
  0.000000;0.000000;1.000000;,
  0.000000;0.000000;1.000000;;
  88;
  3;0,0,0;,
  3;1,1,1;,
  3;2,2,2;,
  3;3,3,3;,
  3;4,4,4;,
  3;5,5,5;,
  3;6,6,6;,
  3;7,7,7;,
  3;8,8,8;,
  3;9,9,9;,
  3;10,10,10;,
  3;11,11,11;,
  3;12,12,12;,
  3;13,13,13;,
  3;14,14,14;,
  3;15,15,15;,
  3;16,16,16;,
  3;17,17,17;,
  3;18,18,18;,
  3;19,19,19;,
  3;20,20,20;,
  3;21,21,21;,
  3;22,22,22;,
  3;23,23,23;,
  3;24,24,24;,
  3;25,25,25;,
  3;26,26,26;,
  3;27,27,27;,
  3;28,28,28;,
  3;29,29,29;,
  3;30,30,30;,
  3;31,31,31;,
  3;32,32,32;,
  3;33,33,33;,
  3;34,34,34;,
  3;35,35,35;,
  3;36,36,36;,
  3;37,37,37;,
  3;38,38,38;,
  3;39,39,39;,
  3;40,40,40;,
  3;41,41,41;,
  3;42,42,42;,
  3;43,43,43;,
  3;44,44,44;,
  3;45,45,45;,
  3;46,46,46;,
  3;47,47,47;,
  3;48,48,48;,
  3;49,49,49;,
  3;50,50,50;,
  3;51,51,51;,
  3;52,52,52;,
  3;53,53,53;,
  3;54,54,54;,
  3;55,55,55;,
  3;56,56,56;,
  3;57,57,57;,
  3;58,58,58;,
  3;59,59,59;,
  3;60,60,60;,
  3;61,61,61;,
  3;62,62,62;,
  3;63,63,63;,
  3;64,64,64;,
  3;65,65,65;,
  3;66,66,66;,
  3;67,67,67;,
  3;68,68,68;,
  3;69,69,69;,
  3;70,70,70;,
  3;71,71,71;,
  3;72,72,72;,
  3;73,73,73;,
  3;74,74,74;,
  3;75,75,75;,
  3;76,76,76;,
  3;77,77,77;,
  3;78,78,78;,
  3;79,79,79;,
  3;80,80,80;,
  3;81,81,81;,
  3;82,82,82;,
  3;83,83,83;,
  3;84,84,84;,
  3;85,85,85;,
  3;86,86,86;,
  3;87,87,87;;
 }
}