xof 0303txt 0032
template Vector {
 <3d82ab5e-62da-11cf-ab39-0020af71e433>
 FLOAT x;
 FLOAT y;
 FLOAT z;
}

template MeshFace {
 <3d82ab5f-62da-11cf-ab39-0020af71e433>
 DWORD nFaceVertexIndices;
 array DWORD faceVertexIndices[nFaceVertexIndices];
}

template Mesh {
 <3d82ab44-62da-11cf-ab39-0020af71e433>
 DWORD nVertices;
 array Vector vertices[nVertices];
 DWORD nFaces;
 array MeshFace faces[nFaces];
 [...]
}

template MeshNormals {
 <f6f23f43-7686-11cf-8f52-0040333594a3>
 DWORD nNormals;
 array Vector normals[nNormals];
 DWORD nFaceNormals;
 array MeshFace faceNormals[nFaceNormals];
}

template Coords2d {
 <f6f23f44-7686-11cf-8f52-0040333594a3>
 FLOAT u;
 FLOAT v;
}

template MeshTextureCoords {
 <f6f23f40-7686-11cf-8f52-0040333594a3>
 DWORD nTextureCoords;
 array Coords2d textureCoords[nTextureCoords];
}

template ColorRGBA {
 <35ff44e0-6c7c-11cf-8f52-0040333594a3>
 FLOAT red;
 FLOAT green;
 FLOAT blue;
 FLOAT alpha;
}

template ColorRGB {
 <d3e16e81-7835-11cf-8f52-0040333594a3>
 FLOAT red;
 FLOAT green;
 FLOAT blue;
}

template Material {
 <3d82ab4d-62da-11cf-ab39-0020af71e433>
 ColorRGBA faceColor;
 FLOAT power;
 ColorRGB specularColor;
 ColorRGB emissiveColor;
 [...]
}

template MeshMaterialList {
 <f6f23f42-7686-11cf-8f52-0040333594a3>
 DWORD nMaterials;
 DWORD nFaceIndexes;
 array DWORD faceIndexes[nFaceIndexes];
 [Material <3d82ab4d-62da-11cf-ab39-0020af71e433>]
}

template TextureFilename {
 <a42790e1-7810-11cf-8f52-0040333594a3>
 STRING filename;
}


Mesh {
 50;
 0.158442;2.637142;0.078750;,
 0.174192;2.963145;0.040740;,
 0.174192;2.637142;0.040740;,
 0.158442;2.963145;0.078750;,
 0.174192;2.637142;0.040740;,
 0.179547;2.963145;0.000000;,
 0.179547;2.637142;0.000000;,
 0.174192;2.963145;0.040740;,
 0.174192;2.963145;-0.040740;,
 0.174192;2.637142;-0.040740;,
 0.158442;2.963145;-0.078750;,
 0.158442;2.637142;-0.078750;,
 0.133452;2.963145;-0.111405;,
 0.133452;2.637142;-0.111405;,
 0.100797;2.637142;-0.136395;,
 0.100797;2.963145;-0.136395;,
 0.062787;2.637142;-0.152145;,
 0.062787;2.963145;-0.152145;,
 0.022047;2.637142;-0.157500;,
 0.022047;2.963145;-0.157500;,
 -0.018692;2.637142;-0.152145;,
 -0.018692;2.963145;-0.152145;,
 -0.056702;2.637142;-0.136395;,
 -0.056702;2.963145;-0.136395;,
 -0.089357;2.637142;-0.111405;,
 -0.089357;2.963145;-0.111405;,
 -0.114347;2.963145;-0.078750;,
 -0.114347;2.637142;-0.078750;,
 -0.130097;2.963145;-0.040740;,
 -0.130097;2.637142;-0.040740;,
 -0.135452;2.963145;0.000000;,
 -0.135452;2.637142;0.000000;,
 -0.130097;2.963145;0.040740;,
 -0.130097;2.637142;0.040740;,
 -0.114347;2.963145;0.078750;,
 -0.114347;2.637142;0.078750;,
 -0.089357;2.963145;0.111405;,
 -0.089357;2.637142;0.111405;,
 -0.056702;2.637142;0.136395;,
 -0.056702;2.963145;0.136395;,
 -0.018692;2.637142;0.152145;,
 -0.018692;2.963145;0.152145;,
 0.022047;2.637142;0.157500;,
 0.022047;2.963145;0.157500;,
 0.062787;2.637142;0.152145;,
 0.062787;2.963145;0.152145;,
 0.100797;2.637142;0.136395;,
 0.100797;2.963145;0.136395;,
 0.133452;2.637142;0.111405;,
 0.133452;2.963145;0.111405;;
 48;
 3;2,1,0;,
 3;3,0,1;,
 3;6,5,4;,
 3;7,4,5;,
 3;9,8,6;,
 3;5,6,8;,
 3;11,10,9;,
 3;8,9,10;,
 3;13,12,11;,
 3;10,11,12;,
 3;13,14,12;,
 3;15,12,14;,
 3;14,16,15;,
 3;17,15,16;,
 3;16,18,17;,
 3;19,17,18;,
 3;18,20,19;,
 3;21,19,20;,
 3;20,22,21;,
 3;23,21,22;,
 3;22,24,23;,
 3;25,23,24;,
 3;25,24,26;,
 3;27,26,24;,
 3;26,27,28;,
 3;29,28,27;,
 3;28,29,30;,
 3;31,30,29;,
 3;30,31,32;,
 3;33,32,31;,
 3;32,33,34;,
 3;35,34,33;,
 3;34,35,36;,
 3;37,36,35;,
 3;37,38,36;,
 3;39,36,38;,
 3;38,40,39;,
 3;41,39,40;,
 3;40,42,41;,
 3;43,41,42;,
 3;42,44,43;,
 3;45,43,44;,
 3;44,46,45;,
 3;47,45,46;,
 3;46,48,47;,
 3;49,47,48;,
 3;0,3,48;,
 3;49,48,3;;

 MeshNormals {
  50;
  0.866019;0.000000;0.500011;,
  0.965929;0.000000;0.258808;,
  0.965929;0.000000;0.258808;,
  0.866019;0.000000;0.500011;,
  0.965929;0.000000;0.258808;,
  1.000000;0.000000;0.000000;,
  1.000000;0.000000;0.000000;,
  0.965929;0.000000;0.258808;,
  0.965929;0.000000;-0.258808;,
  0.965929;0.000000;-0.258808;,
  0.866019;0.000000;-0.500011;,
  0.866019;0.000000;-0.500011;,
  0.707107;0.000000;-0.707107;,
  0.707107;0.000000;-0.707107;,
  0.500011;0.000000;-0.866019;,
  0.500011;0.000000;-0.866019;,
  0.258808;0.000000;-0.965929;,
  0.258808;0.000000;-0.965929;,
  0.000000;0.000000;-1.000000;,
  0.000000;0.000000;-1.000000;,
  -0.258808;0.000000;-0.965929;,
  -0.258808;0.000000;-0.965929;,
  -0.500011;0.000000;-0.866019;,
  -0.500011;0.000000;-0.866019;,
  -0.707107;0.000000;-0.707107;,
  -0.707107;0.000000;-0.707107;,
  -0.866019;0.000000;-0.500011;,
  -0.866019;0.000000;-0.500011;,
  -0.965929;0.000000;-0.258808;,
  -0.965929;0.000000;-0.258808;,
  -1.000000;0.000000;0.000000;,
  -1.000000;0.000000;0.000000;,
  -0.965929;0.000000;0.258808;,
  -0.965929;0.000000;0.258808;,
  -0.866019;0.000000;0.500011;,
  -0.866019;0.000000;0.500011;,
  -0.707107;0.000000;0.707107;,
  -0.707107;0.000000;0.707107;,
  -0.500011;0.000000;0.866019;,
  -0.500011;0.000000;0.866019;,
  -0.258808;0.000000;0.965929;,
  -0.258808;0.000000;0.965929;,
  0.000000;0.000000;1.000000;,
  0.000000;0.000000;1.000000;,
  0.258808;0.000000;0.965929;,
  0.258808;0.000000;0.965929;,
  0.500011;0.000000;0.866019;,
  0.500011;0.000000;0.866019;,
  0.707107;0.000000;0.707107;,
  0.707107;0.000000;0.707107;;
  48;
  3;2,1,0;,
  3;3,0,1;,
  3;6,5,4;,
  3;7,4,5;,
  3;9,8,6;,
  3;5,6,8;,
  3;11,10,9;,
  3;8,9,10;,
  3;13,12,11;,
  3;10,11,12;,
  3;13,14,12;,
  3;15,12,14;,
  3;14,16,15;,
  3;17,15,16;,
  3;16,18,17;,
  3;19,17,18;,
  3;18,20,19;,
  3;21,19,20;,
  3;20,22,21;,
  3;23,21,22;,
  3;22,24,23;,
  3;25,23,24;,
  3;25,24,26;,
  3;27,26,24;,
  3;26,27,28;,
  3;29,28,27;,
  3;28,29,30;,
  3;31,30,29;,
  3;30,31,32;,
  3;33,32,31;,
  3;32,33,34;,
  3;35,34,33;,
  3;34,35,36;,
  3;37,36,35;,
  3;37,38,36;,
  3;39,36,38;,
  3;38,40,39;,
  3;41,39,40;,
  3;40,42,41;,
  3;43,41,42;,
  3;42,44,43;,
  3;45,43,44;,
  3;44,46,45;,
  3;47,45,46;,
  3;46,48,47;,
  3;49,47,48;,
  3;0,3,48;,
  3;49,48,3;;
 }

 MeshTextureCoords {
  50;
  0.041300;0.000000;,
  0.000000;-0.999900;,
  0.000000;0.000000;,
  0.041300;-0.999900;,
  0.992100;0.000000;,
  0.950700;-0.999900;,
  0.950700;0.000000;,
  0.992100;-0.999900;,
  0.909400;-0.999900;,
  0.909400;0.000000;,
  0.868100;-0.999900;,
  0.868100;0.000000;,
  0.826700;-0.999900;,
  0.826700;0.000000;,
  0.785400;0.000000;,
  0.785400;-0.999900;,
  0.744100;0.000000;,
  0.744100;-0.999900;,
  0.702700;0.000000;,
  0.702700;-0.999900;,
  0.661400;0.000000;,
  0.661400;-0.999900;,
  0.620100;0.000000;,
  0.620100;-0.999900;,
  0.578700;0.000000;,
  0.578700;-0.999900;,
  0.537400;-0.999900;,
  0.537400;0.000000;,
  0.496000;-0.999900;,
  0.496000;0.000000;,
  0.454700;-0.999900;,
  0.454700;0.000000;,
  0.413400;-0.999900;,
  0.413400;0.000000;,
  0.372000;-0.999900;,
  0.372000;0.000000;,
  0.330700;-0.999900;,
  0.330700;0.000000;,
  0.289400;0.000000;,
  0.289400;-0.999900;,
  0.248000;0.000000;,
  0.248000;-0.999900;,
  0.206700;0.000000;,
  0.206700;-0.999900;,
  0.165300;0.000000;,
  0.165300;-0.999900;,
  0.124000;0.000000;,
  0.124000;-0.999900;,
  0.082700;0.000000;,
  0.082700;-0.999900;;
 }

 MeshMaterialList {
  1;
  48;
  0,
  0,
  0,
  0,
  0,
  0,
  0,
  0,
  0,
  0,
  0,
  0,
  0,
  0,
  0,
  0,
  0,
  0,
  0,
  0,
  0,
  0,
  0,
  0,
  0,
  0,
  0,
  0,
  0,
  0,
  0,
  0,
  0,
  0,
  0,
  0,
  0,
  0,
  0,
  0,
  0,
  0,
  0,
  0,
  0,
  0,
  0,
  0;

  Material {
   1.000000;1.000000;1.000000;1.000000;;
   5.000000;
   0.100000;0.100000;0.100000;;
   0.200000;0.200000;0.200000;;

   TextureFilename {
    "Pole_sec.dds";
   }
  }
 }
}