xof 0303txt 0032
template Vector {
 <3d82ab5e-62da-11cf-ab39-0020af71e433>
 FLOAT x;
 FLOAT y;
 FLOAT z;
}

template MeshFace {
 <3d82ab5f-62da-11cf-ab39-0020af71e433>
 DWORD nFaceVertexIndices;
 array DWORD faceVertexIndices[nFaceVertexIndices];
}

template Mesh {
 <3d82ab44-62da-11cf-ab39-0020af71e433>
 DWORD nVertices;
 array Vector vertices[nVertices];
 DWORD nFaces;
 array MeshFace faces[nFaces];
 [...]
}

template ColorRGBA {
 <35ff44e0-6c7c-11cf-8f52-0040333594a3>
 FLOAT red;
 FLOAT green;
 FLOAT blue;
 FLOAT alpha;
}

template ColorRGB {
 <d3e16e81-7835-11cf-8f52-0040333594a3>
 FLOAT red;
 FLOAT green;
 FLOAT blue;
}

template Material {
 <3d82ab4d-62da-11cf-ab39-0020af71e433>
 ColorRGBA faceColor;
 FLOAT power;
 ColorRGB specularColor;
 ColorRGB emissiveColor;
 [...]
}

template MeshMaterialList {
 <f6f23f42-7686-11cf-8f52-0040333594a3>
 DWORD nMaterials;
 DWORD nFaceIndexes;
 array DWORD faceIndexes[nFaceIndexes];
 [Material <3d82ab4d-62da-11cf-ab39-0020af71e433>]
}

template TextureFilename {
 <a42790e1-7810-11cf-8f52-0040333594a3>
 STRING filename;
}

template Coords2d {
 <f6f23f44-7686-11cf-8f52-0040333594a3>
 FLOAT u;
 FLOAT v;
}

template MeshTextureCoords {
 <f6f23f40-7686-11cf-8f52-0040333594a3>
 DWORD nTextureCoords;
 array Coords2d textureCoords[nTextureCoords];
}

template MeshNormals {
 <f6f23f43-7686-11cf-8f52-0040333594a3>
 DWORD nNormals;
 array Vector normals[nNormals];
 DWORD nFaceNormals;
 array MeshFace faceNormals[nFaceNormals];
}


Mesh  {
 122;
 3.600000;6.000000;11.526000;,
 3.600000;6.000000;9.526000;,
 3.600000;9.000000;9.526000;,
 22.000000;6.000000;11.526000;,
 22.000000;6.000000;9.526000;,
 22.000000;9.000000;9.526000;,
 3.600000;0.500000;0.000000;,
 3.600000;3.500000;0.000000;,
 3.600000;6.000000;9.526000;,
 3.600000;9.000000;9.526000;,
 3.600000;6.000000;11.526000;,
 3.600000;9.000000;11.526000;,
 6.000000;0.500000;0.000000;,
 6.000000;3.500000;0.000000;,
 6.000000;6.000000;9.526000;,
 6.000000;9.000000;9.526000;,
 3.600000;1.100000;0.000000;,
 3.600000;5.100000;6.928000;,
 6.000000;5.100000;6.928000;,
 6.000000;1.100000;0.000000;,
 3.550000;3.400000;0.000000;,
 3.550000;4.000000;0.000000;,
 6.250000;4.000000;0.000000;,
 6.250000;3.100000;0.000000;,
 3.550000;8.900000;9.526000;,
 3.550000;9.500000;9.526000;,
 6.250000;9.500000;9.526000;,
 6.250000;8.600000;9.526000;,
 3.550000;8.900000;11.526000;,
 3.550000;9.500000;11.526000;,
 3.550000;1.100000;0.000000;,
 3.550000;4.000000;0.000000;,
 3.800000;4.000000;0.000000;,
 3.800000;1.100000;0.000000;,
 6.000000;1.100000;0.000000;,
 6.000000;4.000000;0.000000;,
 6.250000;4.000000;0.000000;,
 6.250000;1.100000;0.000000;,
 4.100000;1.100000;10.526000;,
 4.100000;6.000000;10.526000;,
 4.900000;6.000000;10.526000;,
 4.900000;1.100000;10.526000;,
 19.000000;-0.500000;-1.732000;,
 19.000000;3.000000;-1.732000;,
 19.000000;6.000000;9.526000;,
 19.000000;8.600000;9.526000;,
 22.000000;-0.500000;-1.732000;,
 22.000000;3.000000;-1.732000;,
 22.000000;6.000000;9.526000;,
 22.000000;8.600000;9.526000;,
 18.950001;3.000000;-1.732000;,
 18.950001;3.600000;-1.732000;,
 22.049999;3.600000;-1.732000;,
 22.049999;2.700000;-1.732000;,
 18.950001;8.600000;9.526000;,
 18.950001;9.200000;9.526000;,
 22.049999;9.200000;9.526000;,
 22.049999;8.300000;9.526000;,
 20.100000;-0.500000;10.526000;,
 20.100000;6.000000;10.526000;,
 20.900000;6.000000;10.526000;,
 20.900000;-0.500000;10.526000;,
 19.000000;-0.500000;6.500000;,
 19.000000;4.253000;6.500000;,
 19.000000;-0.500000;3.000000;,
 19.000000;2.232000;3.000000;,
 22.000000;-0.500000;3.000000;,
 22.000000;2.232000;3.000000;,
 18.990000;-0.500000;3.500000;,
 18.990000;1.600000;3.500000;,
 18.990000;-0.500000;4.400000;,
 18.990000;1.600000;4.400000;,
 18.990000;-0.500000;5.000000;,
 18.990000;1.600000;5.000000;,
 18.990000;-0.500000;5.900000;,
 18.990000;1.600000;5.900000;,
 18.700001;-0.500000;-1.732000;,
 18.700001;3.500000;-1.732000;,
 18.700001;-0.500000;-13.732000;,
 18.700001;3.500000;-13.732000;,
 18.700001;-0.500000;-13.732000;,
 18.700001;3.500000;-13.732000;,
 18.700001;-0.500000;-14.500000;,
 18.700001;3.500000;-14.500000;,
 21.700001;-0.500000;-14.500000;,
 21.700001;3.500000;-14.500000;,
 21.700001;-0.500000;-24.500000;,
 21.700001;3.500000;-24.500000;,
 26.700001;-0.500000;-24.500000;,
 26.700001;3.500000;-24.500000;,
 18.690001;-0.500000;-3.000000;,
 18.690001;1.600000;-3.000000;,
 18.690001;-0.500000;-3.900000;,
 18.690001;1.600000;-3.900000;,
 19.200001;0.900000;-14.510000;,
 19.200001;2.200000;-14.510000;,
 21.200001;0.900000;-14.510000;,
 21.200001;2.200000;-14.510000;,
 21.690001;0.900000;-15.000000;,
 21.690001;2.200000;-15.000000;,
 21.690001;0.900000;-17.000000;,
 21.690001;2.200000;-17.000000;,
 21.690001;0.900000;-18.000000;,
 21.690001;2.200000;-18.000000;,
 21.690001;0.900000;-20.000000;,
 21.690001;2.200000;-20.000000;,
 21.690001;-0.500000;-21.500000;,
 21.690001;2.300000;-21.500000;,
 21.690001;-0.500000;-23.500000;,
 21.690001;2.300000;-23.500000;,
 19.000000;-0.500000;-15.000000;,
 19.000000;4.000000;-15.000000;,
 21.400000;-0.500000;-17.000000;,
 21.400000;4.000000;-17.000000;,
 19.000000;-0.500000;-25.000000;,
 19.000000;3.000000;-25.000000;,
 20.000000;-0.500000;-27.000000;,
 20.000000;3.000000;-27.000000;,
 18.000000;-1.000000;-20.500000;,
 18.000000;2.000000;-20.500000;,
 20.000000;-1.000000;-23.500000;,
 20.000000;2.000000;-23.500000;;
 72;
 3;0,1,4;,
 3;0,4,3;,
 3;1,2,5;,
 3;1,5,4;,
 3;10,11,9;,
 3;10,9,8;,
 3;8,9,7;,
 3;8,7,6;,
 3;14,15,13;,
 3;14,13,12;,
 3;16,17,18;,
 3;16,18,19;,
 3;24,25,21;,
 3;24,21,20;,
 3;25,26,22;,
 3;25,22,21;,
 3;27,26,22;,
 3;27,22,23;,
 3;28,29,25;,
 3;28,25,24;,
 3;30,31,32;,
 3;30,32,33;,
 3;34,35,36;,
 3;34,36,37;,
 3;38,39,40;,
 3;38,40,41;,
 3;44,45,43;,
 3;44,43,42;,
 3;48,49,47;,
 3;48,47,46;,
 3;54,55,51;,
 3;54,51,50;,
 3;55,56,52;,
 3;55,52,51;,
 3;57,56,52;,
 3;57,52,53;,
 3;58,59,60;,
 3;58,60,61;,
 3;62,63,65;,
 3;62,65,64;,
 3;64,65,67;,
 3;64,67,66;,
 3;70,71,69;,
 3;70,69,68;,
 3;74,75,73;,
 3;74,73,72;,
 3;76,77,79;,
 3;76,79,78;,
 3;80,81,83;,
 3;80,83,82;,
 3;82,83,85;,
 3;82,85,84;,
 3;84,85,87;,
 3;84,87,86;,
 3;86,87,89;,
 3;86,89,88;,
 3;90,91,93;,
 3;90,93,92;,
 3;94,95,97;,
 3;94,97,96;,
 3;98,99,101;,
 3;98,101,100;,
 3;102,103,105;,
 3;102,105,104;,
 3;106,107,109;,
 3;106,109,108;,
 3;110,111,113;,
 3;110,113,112;,
 3;114,115,117;,
 3;114,117,116;,
 3;118,119,121;,
 3;118,121,120;;

 MeshMaterialList  {
  25;
  72;
  0,
  0,
  0,
  0,
  1,
  1,
  1,
  1,
  2,
  2,
  3,
  3,
  4,
  4,
  4,
  4,
  4,
  4,
  4,
  4,
  5,
  5,
  6,
  6,
  7,
  7,
  8,
  8,
  9,
  9,
  10,
  10,
  10,
  10,
  10,
  10,
  11,
  11,
  12,
  12,
  12,
  12,
  13,
  13,
  14,
  14,
  15,
  15,
  16,
  16,
  16,
  16,
  16,
  16,
  16,
  16,
  17,
  17,
  18,
  18,
  19,
  19,
  20,
  20,
  21,
  21,
  22,
  22,
  23,
  23,
  24,
  24;

  Material  {
   1.000000;1.000000;1.000000;1.000000;;
   0.000000;
   0.000000;0.000000;0.000000;;
   0.000000;0.000000;0.000000;;

   TextureFilename  {
    "Kosen_Wall.png";
   }
  }

  Material  {
   1.000000;1.000000;1.000000;1.000000;;
   0.000000;
   0.000000;0.000000;0.000000;;
   0.000000;0.000000;0.000000;;

   TextureFilename  {
    "Kaidan_Wall1.png";
   }
  }

  Material  {
   1.000000;1.000000;1.000000;1.000000;;
   0.000000;
   0.000000;0.000000;0.000000;;
   0.000000;0.000000;0.000000;;

   TextureFilename  {
    "Kaidan_Wall2.png";
   }
  }

  Material  {
   1.000000;1.000000;1.000000;1.000000;;
   0.000000;
   0.000000;0.000000;0.000000;;
   0.000000;0.000000;0.000000;;

   TextureFilename  {
    "Kaidan.png";
   }
  }

  Material  {
   1.000000;1.000000;1.000000;1.000000;;
   0.000000;
   0.000000;0.000000;0.000000;;
   0.000000;0.000000;0.000000;;

   TextureFilename  {
    "Kaidan_Roof.png";
   }
  }

  Material  {
   1.000000;1.000000;1.000000;1.000000;;
   0.000000;
   0.000000;0.000000;0.000000;;
   0.000000;0.000000;0.000000;;

   TextureFilename  {
    "Kaidan_Wall3.png";
   }
  }

  Material  {
   1.000000;1.000000;1.000000;1.000000;;
   0.000000;
   0.000000;0.000000;0.000000;;
   0.000000;0.000000;0.000000;;

   TextureFilename  {
    "Kaidan_Wall3.png";
   }
  }

  Material  {
   1.000000;1.000000;1.000000;1.000000;;
   0.000000;
   0.000000;0.000000;0.000000;;
   0.000000;0.000000;0.000000;;

   TextureFilename  {
    "Pier.png";
   }
  }

  Material  {
   1.000000;1.000000;1.000000;1.000000;;
   0.000000;
   0.000000;0.000000;0.000000;;
   0.000000;0.000000;0.000000;;

   TextureFilename  {
    "Kaidan_Wall1.png";
   }
  }

  Material  {
   1.000000;1.000000;1.000000;1.000000;;
   0.000000;
   0.000000;0.000000;0.000000;;
   0.000000;0.000000;0.000000;;

   TextureFilename  {
    "Kaidan_Wall2.png";
   }
  }

  Material  {
   1.000000;1.000000;1.000000;1.000000;;
   0.000000;
   0.000000;0.000000;0.000000;;
   0.000000;0.000000;0.000000;;

   TextureFilename  {
    "Kaidan_Roof.png";
   }
  }

  Material  {
   1.000000;1.000000;1.000000;1.000000;;
   0.000000;
   0.000000;0.000000;0.000000;;
   0.000000;0.000000;0.000000;;

   TextureFilename  {
    "Pier.png";
   }
  }

  Material  {
   1.000000;1.000000;1.000000;1.000000;;
   0.000000;
   0.000000;0.000000;0.000000;;
   0.000000;0.000000;0.000000;;

   TextureFilename  {
    "Wall1.png";
   }
  }

  Material  {
   1.000000;1.000000;1.000000;1.000000;;
   0.000000;
   0.000000;0.000000;0.000000;;
   0.000000;0.000000;0.000000;;

   TextureFilename  {
    "Door1.png";
   }
  }

  Material  {
   1.000000;1.000000;1.000000;1.000000;;
   0.000000;
   0.000000;0.000000;0.000000;;
   0.000000;0.000000;0.000000;;

   TextureFilename  {
    "Door1.png";
   }
  }

  Material  {
   1.000000;1.000000;1.000000;1.000000;;
   0.000000;
   0.000000;0.000000;0.000000;;
   0.000000;0.000000;0.000000;;

   TextureFilename  {
    "Wall2.png";
   }
  }

  Material  {
   1.000000;1.000000;1.000000;1.000000;;
   0.000000;
   0.000000;0.000000;0.000000;;
   0.000000;0.000000;0.000000;;

   TextureFilename  {
    "Wall3.png";
   }
  }

  Material  {
   1.000000;1.000000;1.000000;1.000000;;
   0.000000;
   0.000000;0.000000;0.000000;;
   0.000000;0.000000;0.000000;;

   TextureFilename  {
    "Door1.png";
   }
  }

  Material  {
   1.000000;1.000000;1.000000;1.000000;;
   0.000000;
   0.000000;0.000000;0.000000;;
   0.000000;0.000000;0.000000;;

   TextureFilename  {
    "Window1.png";
   }
  }

  Material  {
   1.000000;1.000000;1.000000;1.000000;;
   0.000000;
   0.000000;0.000000;0.000000;;
   0.000000;0.000000;0.000000;;

   TextureFilename  {
    "Window1.png";
   }
  }

  Material  {
   1.000000;1.000000;1.000000;1.000000;;
   0.000000;
   0.000000;0.000000;0.000000;;
   0.000000;0.000000;0.000000;;

   TextureFilename  {
    "Window1.png";
   }
  }

  Material  {
   1.000000;1.000000;1.000000;1.000000;;
   0.000000;
   0.000000;0.000000;0.000000;;
   0.000000;0.000000;0.000000;;

   TextureFilename  {
    "Window1.png";
   }
  }

  Material  {
   1.000000;1.000000;1.000000;1.000000;;
   0.000000;
   0.000000;0.000000;0.000000;;
   0.000000;0.000000;0.000000;;

   TextureFilename  {
    "Tree1.png";
   }
  }

  Material  {
   1.000000;1.000000;1.000000;1.000000;;
   0.000000;
   0.000000;0.000000;0.000000;;
   0.000000;0.000000;0.000000;;

   TextureFilename  {
    "Tree2.png";
   }
  }

  Material  {
   1.000000;1.000000;1.000000;1.000000;;
   0.000000;
   0.000000;0.000000;0.000000;;
   0.000000;0.000000;0.000000;;

   TextureFilename  {
    "Hi.png";
   }
  }
 }

 MeshTextureCoords  {
  122;
  0.000000;1.000000;,
  0.000000;0.750000;,
  0.000000;0.000000;,
  6.000000;1.000000;,
  6.000000;0.750000;,
  6.000000;0.000000;,
  0.000000;1.000000;,
  0.000000;0.000000;,
  6.000000;1.000000;,
  6.000000;0.000000;,
  7.000000;1.000000;,
  7.000000;0.000000;,
  0.000000;1.000000;,
  0.000000;0.000000;,
  6.000000;1.000000;,
  6.000000;0.000000;,
  0.000000;1.500000;,
  0.000000;0.000000;,
  0.100000;0.000000;,
  0.100000;1.500000;,
  0.000000;0.000000;,
  0.100000;0.000000;,
  1.000000;0.000000;,
  1.000000;0.000000;,
  0.000000;0.150000;,
  0.100000;0.150000;,
  1.000000;0.150000;,
  1.000000;0.150000;,
  0.000000;1.000000;,
  0.100000;1.000000;,
  1.000000;1.000000;,
  1.000000;0.000000;,
  0.000000;0.000000;,
  0.000000;1.000000;,
  1.000000;1.000000;,
  1.000000;0.000000;,
  0.000000;0.000000;,
  0.000000;1.000000;,
  0.000000;1.000000;,
  0.000000;0.000000;,
  1.000000;0.000000;,
  1.000000;1.000000;,
  0.000000;1.000000;,
  0.000000;0.000000;,
  6.000000;1.000000;,
  6.000000;0.000000;,
  0.000000;1.000000;,
  0.000000;0.000000;,
  6.000000;1.000000;,
  6.000000;0.000000;,
  0.000000;0.000000;,
  0.100000;0.000000;,
  1.000000;0.000000;,
  1.000000;0.000000;,
  0.000000;0.150000;,
  0.100000;0.150000;,
  1.000000;0.150000;,
  1.000000;0.150000;,
  0.000000;1.000000;,
  0.000000;0.000000;,
  1.000000;0.000000;,
  1.000000;1.000000;,
  0.000000;1.000000;,
  0.000000;0.000000;,
  0.500000;1.000000;,
  0.500000;0.000000;,
  1.000000;1.000000;,
  1.000000;0.000000;,
  0.000000;1.000000;,
  0.000000;0.000000;,
  1.000000;1.000000;,
  1.000000;0.000000;,
  0.000000;1.000000;,
  0.000000;0.000000;,
  1.000000;1.000000;,
  1.000000;0.000000;,
  -0.250000;1.000000;,
  -0.250000;0.000000;,
  3.180000;1.000000;,
  3.180000;0.000000;,
  0.000000;1.000000;,
  0.000000;0.000000;,
  0.192000;1.000000;,
  0.192000;0.000000;,
  0.192000;1.000000;,
  0.192000;0.000000;,
  2.692000;1.000000;,
  2.692000;0.000000;,
  2.692000;1.000000;,
  2.692000;0.000000;,
  0.000000;1.000000;,
  0.000000;0.000000;,
  1.000000;1.000000;,
  1.000000;0.000000;,
  0.000000;1.000000;,
  0.000000;0.000000;,
  1.000000;1.000000;,
  1.000000;0.000000;,
  0.000000;1.000000;,
  0.000000;0.000000;,
  1.000000;1.000000;,
  1.000000;0.000000;,
  0.000000;1.000000;,
  0.000000;0.000000;,
  1.000000;1.000000;,
  1.000000;0.000000;,
  0.000000;2.000000;,
  0.000000;0.000000;,
  1.000000;2.000000;,
  1.000000;0.000000;,
  0.000000;1.000000;,
  0.000000;0.000000;,
  1.000000;1.000000;,
  1.000000;0.000000;,
  0.000000;1.000000;,
  0.000000;0.000000;,
  1.000000;1.000000;,
  1.000000;0.000000;,
  0.000000;1.000000;,
  0.000000;0.000000;,
  1.000000;1.000000;,
  1.000000;0.000000;;
 }

 MeshNormals  {
  72;
  0.000000;-1.000000;0.000000;,
  0.000000;-1.000000;0.000000;,
  0.000000;0.000000;-1.000000;,
  0.000000;0.000000;-1.000000;,
  -1.000000;0.000000;0.000000;,
  -1.000000;0.000000;0.000000;,
  -1.000000;0.000000;0.000000;,
  -1.000000;0.000000;0.000000;,
  -1.000000;0.000000;0.000000;,
  -1.000000;0.000000;0.000000;,
  0.000000;0.866019;-0.500011;,
  0.000000;0.866019;-0.500011;,
  -1.000000;0.000000;0.000000;,
  -1.000000;0.000000;0.000000;,
  0.000000;0.866019;-0.500011;,
  0.000000;0.866019;-0.500011;,
  -1.000000;0.000000;0.000000;,
  -1.000000;0.000000;0.000000;,
  -1.000000;0.000000;0.000000;,
  -1.000000;0.000000;0.000000;,
  0.000000;0.000000;-1.000000;,
  0.000000;0.000000;-1.000000;,
  0.000000;0.000000;-1.000000;,
  0.000000;0.000000;-1.000000;,
  0.000000;0.000000;-1.000000;,
  0.000000;0.000000;-1.000000;,
  -1.000000;0.000000;0.000000;,
  -1.000000;0.000000;0.000000;,
  -1.000000;0.000000;0.000000;,
  -1.000000;0.000000;0.000000;,
  -1.000000;0.000000;0.000000;,
  -1.000000;0.000000;0.000000;,
  0.000000;0.895348;-0.445368;,
  0.000000;0.895348;-0.445368;,
  -1.000000;0.000000;0.000000;,
  -1.000000;0.000000;0.000000;,
  0.000000;0.000000;-1.000000;,
  0.000000;0.000000;-1.000000;,
  -1.000000;0.000000;0.000000;,
  -1.000000;0.000000;0.000000;,
  0.000000;0.000000;-1.000000;,
  0.000000;0.000000;-1.000000;,
  -1.000000;0.000000;0.000000;,
  -1.000000;0.000000;0.000000;,
  -1.000000;0.000000;0.000000;,
  -1.000000;0.000000;0.000000;,
  -1.000000;0.000000;0.000000;,
  -1.000000;0.000000;0.000000;,
  -1.000000;0.000000;0.000000;,
  -1.000000;0.000000;0.000000;,
  0.000000;0.000000;-1.000000;,
  0.000000;0.000000;-1.000000;,
  -1.000000;0.000000;0.000000;,
  -1.000000;0.000000;0.000000;,
  0.000000;0.000000;-1.000000;,
  0.000000;0.000000;-1.000000;,
  -1.000000;0.000000;0.000000;,
  -1.000000;0.000000;0.000000;,
  0.000000;0.000000;-1.000000;,
  0.000000;0.000000;-1.000000;,
  -1.000000;0.000000;0.000000;,
  -1.000000;0.000000;0.000000;,
  -1.000000;0.000000;0.000000;,
  -1.000000;0.000000;0.000000;,
  -1.000000;0.000000;0.000000;,
  -1.000000;0.000000;0.000000;,
  -0.640184;0.000000;-0.768221;,
  -0.640184;0.000000;-0.768221;,
  -0.894427;0.000000;-0.447214;,
  -0.894427;0.000000;-0.447214;,
  -0.832050;0.000000;-0.554700;,
  -0.832050;0.000000;-0.554700;;
  72;
  3;0,0,0;,
  3;1,1,1;,
  3;2,2,2;,
  3;3,3,3;,
  3;4,4,4;,
  3;5,5,5;,
  3;6,6,6;,
  3;7,7,7;,
  3;8,8,8;,
  3;9,9,9;,
  3;10,10,10;,
  3;11,11,11;,
  3;12,12,12;,
  3;13,13,13;,
  3;14,14,14;,
  3;15,15,15;,
  3;16,16,16;,
  3;17,17,17;,
  3;18,18,18;,
  3;19,19,19;,
  3;20,20,20;,
  3;21,21,21;,
  3;22,22,22;,
  3;23,23,23;,
  3;24,24,24;,
  3;25,25,25;,
  3;26,26,26;,
  3;27,27,27;,
  3;28,28,28;,
  3;29,29,29;,
  3;30,30,30;,
  3;31,31,31;,
  3;32,32,32;,
  3;33,33,33;,
  3;34,34,34;,
  3;35,35,35;,
  3;36,36,36;,
  3;37,37,37;,
  3;38,38,38;,
  3;39,39,39;,
  3;40,40,40;,
  3;41,41,41;,
  3;42,42,42;,
  3;43,43,43;,
  3;44,44,44;,
  3;45,45,45;,
  3;46,46,46;,
  3;47,47,47;,
  3;48,48,48;,
  3;49,49,49;,
  3;50,50,50;,
  3;51,51,51;,
  3;52,52,52;,
  3;53,53,53;,
  3;54,54,54;,
  3;55,55,55;,
  3;56,56,56;,
  3;57,57,57;,
  3;58,58,58;,
  3;59,59,59;,
  3;60,60,60;,
  3;61,61,61;,
  3;62,62,62;,
  3;63,63,63;,
  3;64,64,64;,
  3;65,65,65;,
  3;66,66,66;,
  3;67,67,67;,
  3;68,68,68;,
  3;69,69,69;,
  3;70,70,70;,
  3;71,71,71;;
 }
}