xof 0303txt 0032
template Vector {
 <3d82ab5e-62da-11cf-ab39-0020af71e433>
 FLOAT x;
 FLOAT y;
 FLOAT z;
}

template MeshFace {
 <3d82ab5f-62da-11cf-ab39-0020af71e433>
 DWORD nFaceVertexIndices;
 array DWORD faceVertexIndices[nFaceVertexIndices];
}

template Mesh {
 <3d82ab44-62da-11cf-ab39-0020af71e433>
 DWORD nVertices;
 array Vector vertices[nVertices];
 DWORD nFaces;
 array MeshFace faces[nFaces];
 [...]
}

template ColorRGBA {
 <35ff44e0-6c7c-11cf-8f52-0040333594a3>
 FLOAT red;
 FLOAT green;
 FLOAT blue;
 FLOAT alpha;
}

template ColorRGB {
 <d3e16e81-7835-11cf-8f52-0040333594a3>
 FLOAT red;
 FLOAT green;
 FLOAT blue;
}

template Material {
 <3d82ab4d-62da-11cf-ab39-0020af71e433>
 ColorRGBA faceColor;
 FLOAT power;
 ColorRGB specularColor;
 ColorRGB emissiveColor;
 [...]
}

template MeshMaterialList {
 <f6f23f42-7686-11cf-8f52-0040333594a3>
 DWORD nMaterials;
 DWORD nFaceIndexes;
 array DWORD faceIndexes[nFaceIndexes];
 [Material <3d82ab4d-62da-11cf-ab39-0020af71e433>]
}

template TextureFilename {
 <a42790e1-7810-11cf-8f52-0040333594a3>
 STRING filename;
}

template Coords2d {
 <f6f23f44-7686-11cf-8f52-0040333594a3>
 FLOAT u;
 FLOAT v;
}

template MeshTextureCoords {
 <f6f23f40-7686-11cf-8f52-0040333594a3>
 DWORD nTextureCoords;
 array Coords2d textureCoords[nTextureCoords];
}

template MeshNormals {
 <f6f23f43-7686-11cf-8f52-0040333594a3>
 DWORD nNormals;
 array Vector normals[nNormals];
 DWORD nFaceNormals;
 array MeshFace faceNormals[nFaceNormals];
}


Mesh  {
 160;
 0.000010;5.370000;0.000000;,
 0.100000;5.230000;0.000000;,
 0.000005;5.370000;0.000009;,
 0.050000;5.230000;0.086603;,
 -0.000005;5.370000;0.000009;,
 -0.050000;5.230000;0.086603;,
 -0.000010;5.370000;0.000000;,
 -0.100000;5.230000;0.000000;,
 -0.000005;5.370000;-0.000009;,
 -0.050000;5.230000;-0.086603;,
 0.000005;5.370000;-0.000009;,
 0.050000;5.230000;-0.086603;,
 0.100000;5.230000;0.000000;,
 0.080000;5.150000;0.000000;,
 0.050000;5.230000;0.086603;,
 0.040000;5.150000;0.069282;,
 -0.050000;5.230000;0.086603;,
 -0.040000;5.150000;0.069282;,
 -0.100000;5.230000;0.000000;,
 -0.080000;5.150000;0.000000;,
 -0.050000;5.230000;-0.086603;,
 -0.040000;5.150000;-0.069282;,
 0.050000;5.230000;-0.086603;,
 0.040000;5.150000;-0.069282;,
 0.080000;5.150000;0.000000;,
 0.080000;-0.350000;0.000000;,
 0.040000;5.150000;0.069282;,
 0.040000;-0.350000;0.069282;,
 -0.040000;5.150000;0.069282;,
 -0.040000;-0.350000;0.069282;,
 -0.080000;5.150000;0.000000;,
 -0.080000;-0.350000;0.000000;,
 -0.040000;5.150000;-0.069282;,
 -0.040000;-0.350000;-0.069282;,
 0.040000;5.150000;-0.069282;,
 0.040000;-0.350000;-0.069282;,
 0.090000;4.214999;0.000000;,
 0.090000;4.184999;0.000000;,
 0.045000;4.214999;0.077942;,
 0.045000;4.184999;0.077942;,
 -0.045000;4.214999;0.077942;,
 -0.045000;4.184999;0.077942;,
 -0.090000;4.214999;0.000000;,
 -0.090000;4.184999;0.000000;,
 -0.045000;4.214999;-0.077942;,
 -0.045000;4.184999;-0.077942;,
 0.045000;4.214999;-0.077942;,
 0.045000;4.184999;-0.077942;,
 0.090000;3.415000;0.000000;,
 0.090000;3.385000;0.000000;,
 0.045000;3.415000;0.077942;,
 0.045000;3.385000;0.077942;,
 -0.045000;3.415000;0.077942;,
 -0.045000;3.385000;0.077942;,
 -0.090000;3.415000;0.000000;,
 -0.090000;3.385000;0.000000;,
 -0.045000;3.415000;-0.077942;,
 -0.045000;3.385000;-0.077942;,
 0.045000;3.415000;-0.077942;,
 0.045000;3.385000;-0.077942;,
 0.090000;2.415000;0.000000;,
 0.090000;2.385000;0.000000;,
 0.045000;2.415000;0.077942;,
 0.045000;2.385000;0.077942;,
 -0.045000;2.415000;0.077942;,
 -0.045000;2.385000;0.077942;,
 -0.090000;2.415000;0.000000;,
 -0.090000;2.385000;0.000000;,
 -0.045000;2.415000;-0.077942;,
 -0.045000;2.385000;-0.077942;,
 0.045000;2.415000;-0.077942;,
 0.045000;2.385000;-0.077942;,
 0.090000;1.115000;0.000000;,
 0.090000;1.085000;0.000000;,
 0.045000;1.115000;0.077942;,
 0.045000;1.085000;0.077942;,
 -0.045000;1.115000;0.077942;,
 -0.045000;1.085000;0.077942;,
 -0.090000;1.115000;0.000000;,
 -0.090000;1.085000;0.000000;,
 -0.045000;1.115000;-0.077942;,
 -0.045000;1.085000;-0.077942;,
 0.045000;1.115000;-0.077942;,
 0.045000;1.085000;-0.077942;,
 0.090000;0.150000;0.000000;,
 0.090000;-0.150000;0.000000;,
 0.045000;0.150000;0.077942;,
 0.045000;-0.150000;0.077942;,
 -0.045000;0.150000;0.077942;,
 -0.045000;-0.150000;0.077942;,
 -0.090000;0.150000;0.000000;,
 -0.090000;-0.150000;0.000000;,
 -0.045000;0.150000;-0.077942;,
 -0.045000;-0.150000;-0.077942;,
 0.045000;0.150000;-0.077942;,
 0.045000;-0.150000;-0.077942;,
 0.090000;-0.150000;0.000000;,
 0.250000;-0.200000;0.000000;,
 0.077942;-0.150000;0.045000;,
 0.216506;-0.200000;0.125000;,
 0.045000;-0.150000;0.077942;,
 0.125000;-0.200000;0.216506;,
 0.000000;-0.150000;0.090000;,
 0.000000;-0.200000;0.250000;,
 -0.045000;-0.150000;0.077942;,
 -0.125000;-0.200000;0.216506;,
 -0.077942;-0.150000;0.045000;,
 -0.216506;-0.200000;0.125000;,
 -0.090000;-0.150000;0.000000;,
 -0.250000;-0.200000;0.000000;,
 -0.077942;-0.150000;-0.045000;,
 -0.216506;-0.200000;-0.125000;,
 -0.045000;-0.150000;-0.077942;,
 -0.125000;-0.200000;-0.216506;,
 -0.000000;-0.150000;-0.090000;,
 -0.000000;-0.200000;-0.250000;,
 0.045000;-0.150000;-0.077942;,
 0.125000;-0.200000;-0.216506;,
 0.077942;-0.150000;-0.045000;,
 0.216506;-0.200000;-0.125000;,
 -0.130000;-1.300000;0.450000;,
 -0.130000;3.700000;0.200000;,
 -0.150000;4.200000;0.200000;,
 -0.150000;4.200000;0.000000;,
 0.130000;-1.300000;0.450000;,
 0.130000;3.700000;0.200000;,
 0.150000;4.200000;0.200000;,
 0.150000;4.200000;0.000000;,
 -0.130000;3.400000;-0.070000;,
 -0.130000;3.400000;0.215000;,
 0.130000;3.400000;0.215000;,
 0.130000;3.400000;-0.070000;,
 -0.130000;2.400000;0.000000;,
 -0.130000;2.400000;0.265000;,
 0.130000;2.400000;0.265000;,
 0.130000;2.400000;0.000000;,
 -0.130000;1.100000;0.000000;,
 -0.130000;1.100000;0.330000;,
 0.130000;1.100000;0.330000;,
 0.130000;1.100000;0.000000;,
 0.350000;-0.200000;-0.350000;,
 0.350000;-0.700000;-0.350000;,
 -0.350000;-0.700000;-0.350000;,
 -0.350000;-0.200000;-0.350000;,
 0.350000;-0.200000;0.350000;,
 0.350000;-0.700000;0.350000;,
 -0.350000;-0.700000;0.350000;,
 -0.350000;-0.200000;0.350000;,
 -0.400000;3.390000;-0.370000;,
 -0.400000;3.390000;-0.070000;,
 0.400000;3.390000;-0.070000;,
 0.400000;3.390000;-0.370000;,
 -0.400000;3.385000;-0.370000;,
 -0.400000;3.415000;-0.370000;,
 -0.400000;3.385000;-0.070000;,
 -0.400000;3.415000;-0.070000;,
 0.400000;3.385000;-0.070000;,
 0.400000;3.415000;-0.070000;,
 0.400000;3.385000;-0.370000;,
 0.400000;3.415000;-0.370000;;
 256;
 3;1,0,2;,
 3;1,2,3;,
 3;3,2,4;,
 3;3,4,5;,
 3;5,4,6;,
 3;5,6,7;,
 3;7,6,8;,
 3;7,8,9;,
 3;9,8,10;,
 3;9,10,11;,
 3;11,10,0;,
 3;11,0,1;,
 3;1,3,5;,
 3;1,5,7;,
 3;1,7,9;,
 3;1,9,11;,
 3;13,12,14;,
 3;13,14,15;,
 3;15,14,16;,
 3;15,16,17;,
 3;17,16,18;,
 3;17,18,19;,
 3;19,18,20;,
 3;19,20,21;,
 3;21,20,22;,
 3;21,22,23;,
 3;23,22,12;,
 3;23,12,13;,
 3;22,20,18;,
 3;22,18,16;,
 3;22,16,14;,
 3;22,14,12;,
 3;13,15,17;,
 3;13,17,19;,
 3;13,19,21;,
 3;13,21,23;,
 3;25,24,26;,
 3;25,26,27;,
 3;27,26,28;,
 3;27,28,29;,
 3;29,28,30;,
 3;29,30,31;,
 3;31,30,32;,
 3;31,32,33;,
 3;33,32,34;,
 3;33,34,35;,
 3;35,34,24;,
 3;35,24,25;,
 3;34,32,30;,
 3;34,30,28;,
 3;34,28,26;,
 3;34,26,24;,
 3;25,27,29;,
 3;25,29,31;,
 3;25,31,33;,
 3;25,33,35;,
 3;37,36,38;,
 3;37,38,39;,
 3;39,38,40;,
 3;39,40,41;,
 3;41,40,42;,
 3;41,42,43;,
 3;43,42,44;,
 3;43,44,45;,
 3;45,44,46;,
 3;45,46,47;,
 3;47,46,36;,
 3;47,36,37;,
 3;46,44,42;,
 3;46,42,40;,
 3;46,40,38;,
 3;46,38,36;,
 3;37,39,41;,
 3;37,41,43;,
 3;37,43,45;,
 3;37,45,47;,
 3;49,48,50;,
 3;49,50,51;,
 3;51,50,52;,
 3;51,52,53;,
 3;53,52,54;,
 3;53,54,55;,
 3;55,54,56;,
 3;55,56,57;,
 3;57,56,58;,
 3;57,58,59;,
 3;59,58,48;,
 3;59,48,49;,
 3;58,56,54;,
 3;58,54,52;,
 3;58,52,50;,
 3;58,50,48;,
 3;49,51,53;,
 3;49,53,55;,
 3;49,55,57;,
 3;49,57,59;,
 3;61,60,62;,
 3;61,62,63;,
 3;63,62,64;,
 3;63,64,65;,
 3;65,64,66;,
 3;65,66,67;,
 3;67,66,68;,
 3;67,68,69;,
 3;69,68,70;,
 3;69,70,71;,
 3;71,70,60;,
 3;71,60,61;,
 3;70,68,66;,
 3;70,66,64;,
 3;70,64,62;,
 3;70,62,60;,
 3;61,63,65;,
 3;61,65,67;,
 3;61,67,69;,
 3;61,69,71;,
 3;73,72,74;,
 3;73,74,75;,
 3;75,74,76;,
 3;75,76,77;,
 3;77,76,78;,
 3;77,78,79;,
 3;79,78,80;,
 3;79,80,81;,
 3;81,80,82;,
 3;81,82,83;,
 3;83,82,72;,
 3;83,72,73;,
 3;82,80,78;,
 3;82,78,76;,
 3;82,76,74;,
 3;82,74,72;,
 3;73,75,77;,
 3;73,77,79;,
 3;73,79,81;,
 3;73,81,83;,
 3;85,84,86;,
 3;85,86,87;,
 3;87,86,88;,
 3;87,88,89;,
 3;89,88,90;,
 3;89,90,91;,
 3;91,90,92;,
 3;91,92,93;,
 3;93,92,94;,
 3;93,94,95;,
 3;95,94,84;,
 3;95,84,85;,
 3;94,92,90;,
 3;94,90,88;,
 3;94,88,86;,
 3;94,86,84;,
 3;85,87,89;,
 3;85,89,91;,
 3;85,91,93;,
 3;85,93,95;,
 3;97,96,98;,
 3;97,98,99;,
 3;99,98,100;,
 3;99,100,101;,
 3;101,100,102;,
 3;101,102,103;,
 3;103,102,104;,
 3;103,104,105;,
 3;105,104,106;,
 3;105,106,107;,
 3;107,106,108;,
 3;107,108,109;,
 3;109,108,110;,
 3;109,110,111;,
 3;111,110,112;,
 3;111,112,113;,
 3;113,112,114;,
 3;113,114,115;,
 3;115,114,116;,
 3;115,116,117;,
 3;117,116,118;,
 3;117,118,119;,
 3;119,118,96;,
 3;119,96,97;,
 3;118,116,114;,
 3;118,114,112;,
 3;118,112,110;,
 3;118,110,108;,
 3;118,108,106;,
 3;118,106,104;,
 3;118,104,102;,
 3;118,102,100;,
 3;118,100,98;,
 3;118,98,96;,
 3;97,99,101;,
 3;97,101,103;,
 3;97,103,105;,
 3;97,105,107;,
 3;97,107,109;,
 3;97,109,111;,
 3;97,111,113;,
 3;97,113,115;,
 3;97,115,117;,
 3;97,117,119;,
 3;120,121,125;,
 3;120,125,124;,
 3;124,125,121;,
 3;124,121,120;,
 3;121,122,126;,
 3;121,126,125;,
 3;125,126,122;,
 3;125,122,121;,
 3;122,123,127;,
 3;122,127,126;,
 3;126,127,123;,
 3;126,123,122;,
 3;128,129,130;,
 3;128,130,131;,
 3;131,130,129;,
 3;131,129,128;,
 3;132,133,134;,
 3;132,134,135;,
 3;135,134,133;,
 3;135,133,132;,
 3;136,137,138;,
 3;136,138,139;,
 3;139,138,137;,
 3;139,137,136;,
 3;140,141,142;,
 3;140,142,143;,
 3;143,142,146;,
 3;143,146,147;,
 3;147,146,145;,
 3;147,145,144;,
 3;144,145,141;,
 3;144,141,140;,
 3;140,143,147;,
 3;140,147,144;,
 3;141,145,146;,
 3;141,146,142;,
 3;148,149,150;,
 3;148,150,151;,
 3;151,150,149;,
 3;151,149,148;,
 3;152,153,155;,
 3;152,155,154;,
 3;154,155,153;,
 3;154,153,152;,
 3;154,155,157;,
 3;154,157,156;,
 3;156,157,155;,
 3;156,155,154;,
 3;156,157,159;,
 3;156,159,158;,
 3;158,159,157;,
 3;158,157,156;,
 3;158,159,153;,
 3;158,153,152;,
 3;152,153,159;,
 3;152,159,158;;

 MeshMaterialList  {
  16;
  256;
  0,
  0,
  0,
  0,
  0,
  0,
  0,
  0,
  0,
  0,
  0,
  0,
  0,
  0,
  0,
  0,
  1,
  1,
  1,
  1,
  1,
  1,
  1,
  1,
  1,
  1,
  1,
  1,
  1,
  1,
  1,
  1,
  1,
  1,
  1,
  1,
  2,
  2,
  2,
  2,
  2,
  2,
  2,
  2,
  2,
  2,
  2,
  2,
  2,
  2,
  2,
  2,
  2,
  2,
  2,
  2,
  3,
  3,
  3,
  3,
  3,
  3,
  3,
  3,
  3,
  3,
  3,
  3,
  3,
  3,
  3,
  3,
  3,
  3,
  3,
  3,
  4,
  4,
  4,
  4,
  4,
  4,
  4,
  4,
  4,
  4,
  4,
  4,
  4,
  4,
  4,
  4,
  4,
  4,
  4,
  4,
  5,
  5,
  5,
  5,
  5,
  5,
  5,
  5,
  5,
  5,
  5,
  5,
  5,
  5,
  5,
  5,
  5,
  5,
  5,
  5,
  6,
  6,
  6,
  6,
  6,
  6,
  6,
  6,
  6,
  6,
  6,
  6,
  6,
  6,
  6,
  6,
  6,
  6,
  6,
  6,
  7,
  7,
  7,
  7,
  7,
  7,
  7,
  7,
  7,
  7,
  7,
  7,
  7,
  7,
  7,
  7,
  7,
  7,
  7,
  7,
  8,
  8,
  8,
  8,
  8,
  8,
  8,
  8,
  8,
  8,
  8,
  8,
  8,
  8,
  8,
  8,
  8,
  8,
  8,
  8,
  8,
  8,
  8,
  8,
  8,
  8,
  8,
  8,
  8,
  8,
  8,
  8,
  8,
  8,
  8,
  8,
  8,
  8,
  8,
  8,
  8,
  8,
  8,
  8,
  9,
  9,
  9,
  9,
  9,
  9,
  9,
  9,
  9,
  9,
  9,
  9,
  10,
  10,
  10,
  10,
  11,
  11,
  11,
  11,
  12,
  12,
  12,
  12,
  13,
  13,
  13,
  13,
  13,
  13,
  13,
  13,
  13,
  13,
  13,
  13,
  14,
  14,
  14,
  14,
  15,
  15,
  15,
  15,
  15,
  15,
  15,
  15,
  15,
  15,
  15,
  15,
  15,
  15,
  15,
  15;

  Material  {
   0.156863;0.156863;0.156863;1.000000;;
   0.000000;
   0.000000;0.000000;0.000000;;
   0.000000;0.000000;0.000000;;
  }

  Material  {
   0.156863;0.156863;0.156863;1.000000;;
   0.000000;
   0.000000;0.000000;0.000000;;
   0.000000;0.000000;0.000000;;
  }

  Material  {
   0.784314;0.784314;0.784314;1.000000;;
   0.000000;
   0.000000;0.000000;0.000000;;
   0.000000;0.000000;0.000000;;
  }

  Material  {
   0.156863;0.156863;0.156863;1.000000;;
   0.000000;
   0.000000;0.000000;0.000000;;
   0.000000;0.000000;0.000000;;
  }

  Material  {
   0.156863;0.156863;0.156863;1.000000;;
   0.000000;
   0.000000;0.000000;0.000000;;
   0.000000;0.000000;0.000000;;
  }

  Material  {
   0.156863;0.156863;0.156863;1.000000;;
   0.000000;
   0.000000;0.000000;0.000000;;
   0.000000;0.000000;0.000000;;
  }

  Material  {
   0.156863;0.156863;0.156863;1.000000;;
   0.000000;
   0.000000;0.000000;0.000000;;
   0.000000;0.000000;0.000000;;
  }

  Material  {
   0.156863;0.156863;0.156863;1.000000;;
   0.000000;
   0.000000;0.000000;0.000000;;
   0.000000;0.000000;0.000000;;
  }

  Material  {
   0.156863;0.156863;0.156863;1.000000;;
   0.000000;
   0.000000;0.000000;0.000000;;
   0.000000;0.000000;0.000000;;
  }

  Material  {
   0.156863;0.156863;0.156863;1.000000;;
   0.000000;
   0.000000;0.000000;0.000000;;
   0.000000;0.000000;0.000000;;

   TextureFilename  {
    "Step1.png";
   }
  }

  Material  {
   0.156863;0.156863;0.156863;1.000000;;
   0.000000;
   0.000000;0.000000;0.000000;;
   0.000000;0.000000;0.000000;;

   TextureFilename  {
    "Step1.png";
   }
  }

  Material  {
   0.156863;0.156863;0.156863;1.000000;;
   0.000000;
   0.000000;0.000000;0.000000;;
   0.000000;0.000000;0.000000;;

   TextureFilename  {
    "Step1.png";
   }
  }

  Material  {
   0.156863;0.156863;0.156863;1.000000;;
   0.000000;
   0.000000;0.000000;0.000000;;
   0.000000;0.000000;0.000000;;

   TextureFilename  {
    "Step1.png";
   }
  }

  Material  {
   0.392157;0.392157;0.392157;1.000000;;
   0.000000;
   0.000000;0.000000;0.000000;;
   0.000000;0.000000;0.000000;;
  }

  Material  {
   0.156863;0.156863;0.156863;1.000000;;
   0.000000;
   0.000000;0.000000;0.000000;;
   0.000000;0.000000;0.000000;;

   TextureFilename  {
    "Step2.png";
   }
  }

  Material  {
   0.156863;0.156863;0.156863;1.000000;;
   0.000000;
   0.000000;0.000000;0.000000;;
   0.000000;0.000000;0.000000;;
  }
 }

 MeshTextureCoords  {
  160;
  0.000000;0.000000;,
  0.000000;0.000000;,
  0.000000;0.000000;,
  0.000000;0.000000;,
  0.000000;0.000000;,
  0.000000;0.000000;,
  0.000000;0.000000;,
  0.000000;0.000000;,
  0.000000;0.000000;,
  0.000000;0.000000;,
  0.000000;0.000000;,
  0.000000;0.000000;,
  0.000000;0.000000;,
  0.000000;0.000000;,
  0.000000;0.000000;,
  0.000000;0.000000;,
  0.000000;0.000000;,
  0.000000;0.000000;,
  0.000000;0.000000;,
  0.000000;0.000000;,
  0.000000;0.000000;,
  0.000000;0.000000;,
  0.000000;0.000000;,
  0.000000;0.000000;,
  0.000000;0.000000;,
  0.000000;0.000000;,
  0.000000;0.000000;,
  0.000000;0.000000;,
  0.000000;0.000000;,
  0.000000;0.000000;,
  0.000000;0.000000;,
  0.000000;0.000000;,
  0.000000;0.000000;,
  0.000000;0.000000;,
  0.000000;0.000000;,
  0.000000;0.000000;,
  0.000000;0.000000;,
  0.000000;0.000000;,
  0.000000;0.000000;,
  0.000000;0.000000;,
  0.000000;0.000000;,
  0.000000;0.000000;,
  0.000000;0.000000;,
  0.000000;0.000000;,
  0.000000;0.000000;,
  0.000000;0.000000;,
  0.000000;0.000000;,
  0.000000;0.000000;,
  0.000000;0.000000;,
  0.000000;0.000000;,
  0.000000;0.000000;,
  0.000000;0.000000;,
  0.000000;0.000000;,
  0.000000;0.000000;,
  0.000000;0.000000;,
  0.000000;0.000000;,
  0.000000;0.000000;,
  0.000000;0.000000;,
  0.000000;0.000000;,
  0.000000;0.000000;,
  0.000000;0.000000;,
  0.000000;0.000000;,
  0.000000;0.000000;,
  0.000000;0.000000;,
  0.000000;0.000000;,
  0.000000;0.000000;,
  0.000000;0.000000;,
  0.000000;0.000000;,
  0.000000;0.000000;,
  0.000000;0.000000;,
  0.000000;0.000000;,
  0.000000;0.000000;,
  0.000000;0.000000;,
  0.000000;0.000000;,
  0.000000;0.000000;,
  0.000000;0.000000;,
  0.000000;0.000000;,
  0.000000;0.000000;,
  0.000000;0.000000;,
  0.000000;0.000000;,
  0.000000;0.000000;,
  0.000000;0.000000;,
  0.000000;0.000000;,
  0.000000;0.000000;,
  0.000000;0.000000;,
  0.000000;0.000000;,
  0.000000;0.000000;,
  0.000000;0.000000;,
  0.000000;0.000000;,
  0.000000;0.000000;,
  0.000000;0.000000;,
  0.000000;0.000000;,
  0.000000;0.000000;,
  0.000000;0.000000;,
  0.000000;0.000000;,
  0.000000;0.000000;,
  0.000000;0.000000;,
  0.000000;0.000000;,
  0.000000;0.000000;,
  0.000000;0.000000;,
  0.000000;0.000000;,
  0.000000;0.000000;,
  0.000000;0.000000;,
  0.000000;0.000000;,
  0.000000;0.000000;,
  0.000000;0.000000;,
  0.000000;0.000000;,
  0.000000;0.000000;,
  0.000000;0.000000;,
  0.000000;0.000000;,
  0.000000;0.000000;,
  0.000000;0.000000;,
  0.000000;0.000000;,
  0.000000;0.000000;,
  0.000000;0.000000;,
  0.000000;0.000000;,
  0.000000;0.000000;,
  0.000000;0.000000;,
  0.000000;0.000000;,
  0.000000;0.000000;,
  0.000000;12.000000;,
  0.000000;1.000000;,
  0.000000;0.500000;,
  0.000000;0.000000;,
  1.000000;12.000000;,
  1.000000;1.000000;,
  1.000000;0.500000;,
  1.000000;0.000000;,
  0.000000;-0.100000;,
  0.000000;0.600000;,
  1.000000;0.600000;,
  1.000000;-0.100000;,
  0.000000;0.000000;,
  0.000000;1.000000;,
  1.000000;1.000000;,
  1.000000;0.000000;,
  0.000000;0.000000;,
  0.000000;1.000000;,
  1.000000;1.000000;,
  1.000000;0.000000;,
  0.000000;0.000000;,
  0.000000;0.000000;,
  0.000000;0.000000;,
  0.000000;0.000000;,
  0.000000;0.000000;,
  0.000000;0.000000;,
  0.000000;0.000000;,
  0.000000;0.000000;,
  0.000000;0.000000;,
  2.100000;0.000000;,
  2.100000;5.100000;,
  0.000000;5.100000;,
  0.000000;0.000000;,
  0.000000;0.000000;,
  0.000000;0.000000;,
  0.000000;0.000000;,
  0.000000;0.000000;,
  0.000000;0.000000;,
  0.000000;0.000000;,
  0.000000;0.000000;;
 }

 MeshNormals  {
  176;
  0.794217;0.567241;-0.217848;,
  0.813761;0.581200;-0.000000;,
  0.406880;0.581200;0.704738;,
  0.208447;0.567241;0.796736;,
  -0.406880;0.581200;0.704738;,
  -0.585770;0.567241;0.578888;,
  -0.813761;0.581200;-0.000000;,
  -0.794217;0.567241;-0.217848;,
  -0.406880;0.581200;-0.704738;,
  -0.208447;0.567241;-0.796736;,
  0.406880;0.581200;-0.704738;,
  0.585770;0.567241;-0.578888;,
  0.938701;-0.234675;-0.252523;,
  0.970142;-0.242536;0.000000;,
  0.485071;-0.242536;0.840168;,
  0.250659;-0.234675;0.939200;,
  -0.485071;-0.242536;0.840168;,
  -0.688042;-0.234675;0.686678;,
  -0.970142;-0.242536;-0.000000;,
  -0.938701;-0.234675;-0.252523;,
  -0.485071;-0.242536;-0.840168;,
  -0.250659;-0.234675;-0.939200;,
  0.485071;-0.242536;-0.840168;,
  0.688042;-0.234675;-0.686678;,
  0.965926;0.000000;-0.258819;,
  1.000000;0.000000;0.000000;,
  0.500000;0.000000;0.866025;,
  0.258819;0.000000;0.965926;,
  -0.500000;0.000000;0.866025;,
  -0.707107;0.000000;0.707107;,
  -1.000000;0.000000;0.000000;,
  -0.965926;0.000000;-0.258819;,
  -0.500000;0.000000;-0.866025;,
  -0.258819;0.000000;-0.965926;,
  0.500000;0.000000;-0.866025;,
  0.707107;0.000000;-0.707107;,
  0.965926;0.000000;-0.258819;,
  1.000000;0.000000;0.000000;,
  0.500000;0.000000;0.866025;,
  0.258819;0.000000;0.965926;,
  -0.500000;0.000000;0.866025;,
  -0.707107;0.000000;0.707107;,
  -1.000000;0.000000;0.000000;,
  -0.965926;0.000000;-0.258819;,
  -0.500000;0.000000;-0.866025;,
  -0.258819;0.000000;-0.965926;,
  0.500000;0.000000;-0.866025;,
  0.707107;0.000000;-0.707107;,
  0.965926;0.000000;-0.258819;,
  1.000000;0.000000;0.000000;,
  0.500000;0.000000;0.866025;,
  0.258819;0.000000;0.965926;,
  -0.500000;0.000000;0.866025;,
  -0.707107;0.000000;0.707107;,
  -1.000000;0.000000;0.000000;,
  -0.965926;0.000000;-0.258819;,
  -0.500000;0.000000;-0.866025;,
  -0.258819;0.000000;-0.965926;,
  0.500000;0.000000;-0.866025;,
  0.707107;0.000000;-0.707107;,
  0.965926;0.000000;-0.258819;,
  1.000000;0.000000;0.000000;,
  0.500000;0.000000;0.866025;,
  0.258819;0.000000;0.965926;,
  -0.500000;0.000000;0.866025;,
  -0.707107;0.000000;0.707107;,
  -1.000000;0.000000;0.000000;,
  -0.965926;0.000000;-0.258819;,
  -0.500000;0.000000;-0.866025;,
  -0.258819;0.000000;-0.965926;,
  0.500000;0.000000;-0.866025;,
  0.707107;0.000000;-0.707107;,
  0.965926;0.000000;-0.258819;,
  1.000000;0.000000;0.000000;,
  0.500000;0.000000;0.866025;,
  0.258819;0.000000;0.965926;,
  -0.500000;0.000000;0.866025;,
  -0.707107;0.000000;0.707107;,
  -1.000000;0.000000;0.000000;,
  -0.965926;0.000000;-0.258819;,
  -0.500000;0.000000;-0.866025;,
  -0.258819;0.000000;-0.965926;,
  0.500000;0.000000;-0.866025;,
  0.707107;0.000000;-0.707107;,
  0.965926;0.000000;-0.258819;,
  1.000000;0.000000;0.000000;,
  0.500000;0.000000;0.866025;,
  0.258819;0.000000;0.965926;,
  -0.500000;0.000000;0.866025;,
  -0.707107;0.000000;0.707107;,
  -1.000000;0.000000;0.000000;,
  -0.965926;0.000000;-0.258819;,
  -0.500000;0.000000;-0.866025;,
  -0.258819;0.000000;-0.965926;,
  0.500000;0.000000;-0.866025;,
  0.707107;0.000000;-0.707107;,
  0.298038;0.953721;-0.039866;,
  0.298275;0.954480;0.000000;,
  0.258314;0.954480;0.149138;,
  0.238175;0.953721;0.183544;,
  0.149137;0.954480;0.258314;,
  0.114494;0.953721;0.278041;,
  0.000000;0.954480;0.298275;,
  -0.039866;0.953721;0.298038;,
  -0.149138;0.954480;0.258314;,
  -0.183544;0.953721;0.238175;,
  -0.258314;0.954480;0.149137;,
  -0.278041;0.953721;0.114494;,
  -0.298275;0.954480;0.000000;,
  -0.298038;0.953721;-0.039866;,
  -0.258314;0.954480;-0.149138;,
  -0.238175;0.953721;-0.183544;,
  -0.149137;0.954480;-0.258314;,
  -0.114494;0.953721;-0.278041;,
  -0.000000;0.954480;-0.298275;,
  0.039866;0.953721;-0.298038;,
  0.149138;0.954480;-0.258314;,
  0.183544;0.953721;-0.238175;,
  0.258314;0.954480;-0.149137;,
  0.278041;0.953721;-0.114494;,
  0.000000;-0.049938;-0.998752;,
  0.000000;-0.049938;-0.998752;,
  0.000000;0.049938;0.998752;,
  0.000000;0.049938;0.998752;,
  0.000000;0.000000;-1.000000;,
  0.000000;0.000000;-1.000000;,
  0.000000;0.000000;1.000000;,
  0.000000;0.000000;1.000000;,
  0.000000;-1.000000;0.000000;,
  0.000000;-1.000000;0.000000;,
  0.000000;1.000000;0.000000;,
  0.000000;1.000000;0.000000;,
  0.000000;1.000000;0.000000;,
  0.000000;1.000000;0.000000;,
  0.000000;-1.000000;0.000000;,
  0.000000;-1.000000;0.000000;,
  0.000000;1.000000;0.000000;,
  0.000000;1.000000;0.000000;,
  0.000000;-1.000000;0.000000;,
  0.000000;-1.000000;0.000000;,
  0.000000;1.000000;0.000000;,
  0.000000;1.000000;0.000000;,
  0.000000;-1.000000;0.000000;,
  0.000000;-1.000000;0.000000;,
  0.000000;0.000000;-1.000000;,
  0.000000;0.000000;-1.000000;,
  -1.000000;0.000000;0.000000;,
  -1.000000;0.000000;0.000000;,
  0.000000;0.000000;1.000000;,
  0.000000;0.000000;1.000000;,
  1.000000;0.000000;0.000000;,
  1.000000;0.000000;0.000000;,
  0.000000;1.000000;0.000000;,
  0.000000;1.000000;0.000000;,
  0.000000;-1.000000;0.000000;,
  0.000000;-1.000000;0.000000;,
  0.000000;1.000000;0.000000;,
  0.000000;1.000000;0.000000;,
  0.000000;-1.000000;0.000000;,
  0.000000;-1.000000;0.000000;,
  1.000000;0.000000;0.000000;,
  1.000000;0.000000;0.000000;,
  -1.000000;0.000000;0.000000;,
  -1.000000;0.000000;0.000000;,
  0.000000;0.000000;-1.000000;,
  0.000000;0.000000;-1.000000;,
  0.000000;0.000000;1.000000;,
  0.000000;0.000000;1.000000;,
  -1.000000;0.000000;0.000000;,
  -1.000000;0.000000;0.000000;,
  1.000000;0.000000;0.000000;,
  1.000000;0.000000;0.000000;,
  0.000000;0.000000;1.000000;,
  0.000000;0.000000;1.000000;,
  0.000000;0.000000;-1.000000;,
  0.000000;0.000000;-1.000000;;
  256;
  3;1,0,2;,
  3;1,2,3;,
  3;3,2,4;,
  3;3,4,5;,
  3;5,4,6;,
  3;5,6,7;,
  3;7,6,8;,
  3;7,8,9;,
  3;9,8,10;,
  3;9,10,11;,
  3;11,10,0;,
  3;11,0,1;,
  3;1,3,5;,
  3;1,5,7;,
  3;1,7,9;,
  3;1,9,11;,
  3;13,12,14;,
  3;13,14,15;,
  3;15,14,16;,
  3;15,16,17;,
  3;17,16,18;,
  3;17,18,19;,
  3;19,18,20;,
  3;19,20,21;,
  3;21,20,22;,
  3;21,22,23;,
  3;23,22,12;,
  3;23,12,13;,
  3;22,20,18;,
  3;22,18,16;,
  3;22,16,14;,
  3;22,14,12;,
  3;13,15,17;,
  3;13,17,19;,
  3;13,19,21;,
  3;13,21,23;,
  3;25,24,26;,
  3;25,26,27;,
  3;27,26,28;,
  3;27,28,29;,
  3;29,28,30;,
  3;29,30,31;,
  3;31,30,32;,
  3;31,32,33;,
  3;33,32,34;,
  3;33,34,35;,
  3;35,34,24;,
  3;35,24,25;,
  3;34,32,30;,
  3;34,30,28;,
  3;34,28,26;,
  3;34,26,24;,
  3;25,27,29;,
  3;25,29,31;,
  3;25,31,33;,
  3;25,33,35;,
  3;37,36,38;,
  3;37,38,39;,
  3;39,38,40;,
  3;39,40,41;,
  3;41,40,42;,
  3;41,42,43;,
  3;43,42,44;,
  3;43,44,45;,
  3;45,44,46;,
  3;45,46,47;,
  3;47,46,36;,
  3;47,36,37;,
  3;46,44,42;,
  3;46,42,40;,
  3;46,40,38;,
  3;46,38,36;,
  3;37,39,41;,
  3;37,41,43;,
  3;37,43,45;,
  3;37,45,47;,
  3;49,48,50;,
  3;49,50,51;,
  3;51,50,52;,
  3;51,52,53;,
  3;53,52,54;,
  3;53,54,55;,
  3;55,54,56;,
  3;55,56,57;,
  3;57,56,58;,
  3;57,58,59;,
  3;59,58,48;,
  3;59,48,49;,
  3;58,56,54;,
  3;58,54,52;,
  3;58,52,50;,
  3;58,50,48;,
  3;49,51,53;,
  3;49,53,55;,
  3;49,55,57;,
  3;49,57,59;,
  3;61,60,62;,
  3;61,62,63;,
  3;63,62,64;,
  3;63,64,65;,
  3;65,64,66;,
  3;65,66,67;,
  3;67,66,68;,
  3;67,68,69;,
  3;69,68,70;,
  3;69,70,71;,
  3;71,70,60;,
  3;71,60,61;,
  3;70,68,66;,
  3;70,66,64;,
  3;70,64,62;,
  3;70,62,60;,
  3;61,63,65;,
  3;61,65,67;,
  3;61,67,69;,
  3;61,69,71;,
  3;73,72,74;,
  3;73,74,75;,
  3;75,74,76;,
  3;75,76,77;,
  3;77,76,78;,
  3;77,78,79;,
  3;79,78,80;,
  3;79,80,81;,
  3;81,80,82;,
  3;81,82,83;,
  3;83,82,72;,
  3;83,72,73;,
  3;82,80,78;,
  3;82,78,76;,
  3;82,76,74;,
  3;82,74,72;,
  3;73,75,77;,
  3;73,77,79;,
  3;73,79,81;,
  3;73,81,83;,
  3;85,84,86;,
  3;85,86,87;,
  3;87,86,88;,
  3;87,88,89;,
  3;89,88,90;,
  3;89,90,91;,
  3;91,90,92;,
  3;91,92,93;,
  3;93,92,94;,
  3;93,94,95;,
  3;95,94,84;,
  3;95,84,85;,
  3;94,92,90;,
  3;94,90,88;,
  3;94,88,86;,
  3;94,86,84;,
  3;85,87,89;,
  3;85,89,91;,
  3;85,91,93;,
  3;85,93,95;,
  3;97,96,98;,
  3;97,98,99;,
  3;99,98,100;,
  3;99,100,101;,
  3;101,100,102;,
  3;101,102,103;,
  3;103,102,104;,
  3;103,104,105;,
  3;105,104,106;,
  3;105,106,107;,
  3;107,106,108;,
  3;107,108,109;,
  3;109,108,110;,
  3;109,110,111;,
  3;111,110,112;,
  3;111,112,113;,
  3;113,112,114;,
  3;113,114,115;,
  3;115,114,116;,
  3;115,116,117;,
  3;117,116,118;,
  3;117,118,119;,
  3;119,118,96;,
  3;119,96,97;,
  3;118,116,114;,
  3;118,114,112;,
  3;118,112,110;,
  3;118,110,108;,
  3;118,108,106;,
  3;118,106,104;,
  3;118,104,102;,
  3;118,102,100;,
  3;118,100,98;,
  3;118,98,96;,
  3;97,99,101;,
  3;97,101,103;,
  3;97,103,105;,
  3;97,105,107;,
  3;97,107,109;,
  3;97,109,111;,
  3;97,111,113;,
  3;97,113,115;,
  3;97,115,117;,
  3;97,117,119;,
  3;120,120,120;,
  3;121,121,121;,
  3;122,122,122;,
  3;123,123,123;,
  3;124,124,124;,
  3;125,125,125;,
  3;126,126,126;,
  3;127,127,127;,
  3;128,128,128;,
  3;129,129,129;,
  3;130,130,130;,
  3;131,131,131;,
  3;132,132,132;,
  3;133,133,133;,
  3;134,134,134;,
  3;135,135,135;,
  3;136,136,136;,
  3;137,137,137;,
  3;138,138,138;,
  3;139,139,139;,
  3;140,140,140;,
  3;141,141,141;,
  3;142,142,142;,
  3;143,143,143;,
  3;144,144,144;,
  3;145,145,145;,
  3;146,146,146;,
  3;147,147,147;,
  3;148,148,148;,
  3;149,149,149;,
  3;150,150,150;,
  3;151,151,151;,
  3;152,152,152;,
  3;153,153,153;,
  3;154,154,154;,
  3;155,155,155;,
  3;156,156,156;,
  3;157,157,157;,
  3;158,158,158;,
  3;159,159,159;,
  3;160,160,160;,
  3;161,161,161;,
  3;162,162,162;,
  3;163,163,163;,
  3;164,164,164;,
  3;165,165,165;,
  3;166,166,166;,
  3;167,167,167;,
  3;168,168,168;,
  3;169,169,169;,
  3;170,170,170;,
  3;171,171,171;,
  3;172,172,172;,
  3;173,173,173;,
  3;174,174,174;,
  3;175,175,175;;
 }
}