xof 0303txt 0032
template Vector {
 <3d82ab5e-62da-11cf-ab39-0020af71e433>
 FLOAT x;
 FLOAT y;
 FLOAT z;
}

template MeshFace {
 <3d82ab5f-62da-11cf-ab39-0020af71e433>
 DWORD nFaceVertexIndices;
 array DWORD faceVertexIndices[nFaceVertexIndices];
}

template Mesh {
 <3d82ab44-62da-11cf-ab39-0020af71e433>
 DWORD nVertices;
 array Vector vertices[nVertices];
 DWORD nFaces;
 array MeshFace faces[nFaces];
 [...]
}

template ColorRGBA {
 <35ff44e0-6c7c-11cf-8f52-0040333594a3>
 FLOAT red;
 FLOAT green;
 FLOAT blue;
 FLOAT alpha;
}

template ColorRGB {
 <d3e16e81-7835-11cf-8f52-0040333594a3>
 FLOAT red;
 FLOAT green;
 FLOAT blue;
}

template Material {
 <3d82ab4d-62da-11cf-ab39-0020af71e433>
 ColorRGBA faceColor;
 FLOAT power;
 ColorRGB specularColor;
 ColorRGB emissiveColor;
 [...]
}

template MeshMaterialList {
 <f6f23f42-7686-11cf-8f52-0040333594a3>
 DWORD nMaterials;
 DWORD nFaceIndexes;
 array DWORD faceIndexes[nFaceIndexes];
 [Material <3d82ab4d-62da-11cf-ab39-0020af71e433>]
}

template TextureFilename {
 <a42790e1-7810-11cf-8f52-0040333594a3>
 STRING filename;
}

template Coords2d {
 <f6f23f44-7686-11cf-8f52-0040333594a3>
 FLOAT u;
 FLOAT v;
}

template MeshTextureCoords {
 <f6f23f40-7686-11cf-8f52-0040333594a3>
 DWORD nTextureCoords;
 array Coords2d textureCoords[nTextureCoords];
}

template MeshNormals {
 <f6f23f43-7686-11cf-8f52-0040333594a3>
 DWORD nNormals;
 array Vector normals[nNormals];
 DWORD nFaceNormals;
 array MeshFace faceNormals[nFaceNormals];
}


Mesh  {
 96;
 0.080000;5.150000;0.000000;,
 0.080000;-1.350000;0.000000;,
 0.040000;5.150000;0.069282;,
 0.040000;-1.350000;0.069282;,
 -0.040000;5.150000;0.069282;,
 -0.040000;-1.350000;0.069282;,
 -0.080000;5.150000;0.000000;,
 -0.080000;-1.350000;0.000000;,
 -0.040000;5.150000;-0.069282;,
 -0.040000;-1.350000;-0.069282;,
 0.040000;5.150000;-0.069282;,
 0.040000;-1.350000;-0.069282;,
 0.090000;4.214999;0.000000;,
 0.090000;4.184999;0.000000;,
 0.045000;4.214999;0.077942;,
 0.045000;4.184999;0.077942;,
 -0.045000;4.214999;0.077942;,
 -0.045000;4.184999;0.077942;,
 -0.090000;4.214999;0.000000;,
 -0.090000;4.184999;0.000000;,
 -0.045000;4.214999;-0.077942;,
 -0.045000;4.184999;-0.077942;,
 0.045000;4.214999;-0.077942;,
 0.045000;4.184999;-0.077942;,
 0.090000;3.415000;0.000000;,
 0.090000;3.385000;0.000000;,
 0.045000;3.415000;0.077942;,
 0.045000;3.385000;0.077942;,
 -0.045000;3.415000;0.077942;,
 -0.045000;3.385000;0.077942;,
 -0.090000;3.415000;0.000000;,
 -0.090000;3.385000;0.000000;,
 -0.045000;3.415000;-0.077942;,
 -0.045000;3.385000;-0.077942;,
 0.045000;3.415000;-0.077942;,
 0.045000;3.385000;-0.077942;,
 0.090000;2.415000;0.000000;,
 0.090000;2.385000;0.000000;,
 0.045000;2.415000;0.077942;,
 0.045000;2.385000;0.077942;,
 -0.045000;2.415000;0.077942;,
 -0.045000;2.385000;0.077942;,
 -0.090000;2.415000;0.000000;,
 -0.090000;2.385000;0.000000;,
 -0.045000;2.415000;-0.077942;,
 -0.045000;2.385000;-0.077942;,
 0.045000;2.415000;-0.077942;,
 0.045000;2.385000;-0.077942;,
 0.090000;1.115000;0.000000;,
 0.090000;1.085000;0.000000;,
 0.045000;1.115000;0.077942;,
 0.045000;1.085000;0.077942;,
 -0.045000;1.115000;0.077942;,
 -0.045000;1.085000;0.077942;,
 -0.090000;1.115000;0.000000;,
 -0.090000;1.085000;0.000000;,
 -0.045000;1.115000;-0.077942;,
 -0.045000;1.085000;-0.077942;,
 0.045000;1.115000;-0.077942;,
 0.045000;1.085000;-0.077942;,
 -0.130000;-1.300000;0.750000;,
 -0.130000;3.400000;0.500000;,
 0.130000;-1.300000;0.750000;,
 0.130000;3.400000;0.500000;,
 -0.130000;2.400000;0.000000;,
 -0.130000;2.400000;0.552000;,
 0.130000;2.400000;0.552000;,
 0.130000;2.400000;0.000000;,
 -0.130000;1.100000;0.000000;,
 -0.130000;1.100000;0.622000;,
 0.130000;1.100000;0.622000;,
 0.130000;1.100000;0.000000;,
 -0.250000;3.390000;-0.350000;,
 -0.250000;3.390000;0.500000;,
 0.250000;3.390000;0.500000;,
 0.250000;3.390000;-0.350000;,
 -0.250000;3.385000;-0.350000;,
 -0.250000;3.415000;-0.350000;,
 -0.250000;3.385000;0.500000;,
 -0.250000;3.415000;0.500000;,
 0.250000;3.385000;0.500000;,
 0.250000;3.415000;0.500000;,
 0.250000;3.385000;-0.350000;,
 0.250000;3.415000;-0.350000;,
 -0.250000;3.415000;0.250000;,
 -0.250000;4.200000;0.250000;,
 -0.250000;3.415000;0.500000;,
 -0.250000;4.200000;0.500000;,
 -0.150000;3.415000;0.750000;,
 -0.150000;4.200000;0.750000;,
 0.150000;3.415000;0.750000;,
 0.150000;4.200000;0.750000;,
 0.250000;3.415000;0.500000;,
 0.250000;4.200000;0.500000;,
 0.250000;3.415000;0.250000;,
 0.250000;4.200000;0.250000;;
 152;
 3;1,0,2;,
 3;1,2,3;,
 3;3,2,4;,
 3;3,4,5;,
 3;5,4,6;,
 3;5,6,7;,
 3;7,6,8;,
 3;7,8,9;,
 3;9,8,10;,
 3;9,10,11;,
 3;11,10,0;,
 3;11,0,1;,
 3;10,8,6;,
 3;10,6,4;,
 3;10,4,2;,
 3;10,2,0;,
 3;1,3,5;,
 3;1,5,7;,
 3;1,7,9;,
 3;1,9,11;,
 3;13,12,14;,
 3;13,14,15;,
 3;15,14,16;,
 3;15,16,17;,
 3;17,16,18;,
 3;17,18,19;,
 3;19,18,20;,
 3;19,20,21;,
 3;21,20,22;,
 3;21,22,23;,
 3;23,22,12;,
 3;23,12,13;,
 3;22,20,18;,
 3;22,18,16;,
 3;22,16,14;,
 3;22,14,12;,
 3;13,15,17;,
 3;13,17,19;,
 3;13,19,21;,
 3;13,21,23;,
 3;25,24,26;,
 3;25,26,27;,
 3;27,26,28;,
 3;27,28,29;,
 3;29,28,30;,
 3;29,30,31;,
 3;31,30,32;,
 3;31,32,33;,
 3;33,32,34;,
 3;33,34,35;,
 3;35,34,24;,
 3;35,24,25;,
 3;34,32,30;,
 3;34,30,28;,
 3;34,28,26;,
 3;34,26,24;,
 3;25,27,29;,
 3;25,29,31;,
 3;25,31,33;,
 3;25,33,35;,
 3;37,36,38;,
 3;37,38,39;,
 3;39,38,40;,
 3;39,40,41;,
 3;41,40,42;,
 3;41,42,43;,
 3;43,42,44;,
 3;43,44,45;,
 3;45,44,46;,
 3;45,46,47;,
 3;47,46,36;,
 3;47,36,37;,
 3;46,44,42;,
 3;46,42,40;,
 3;46,40,38;,
 3;46,38,36;,
 3;37,39,41;,
 3;37,41,43;,
 3;37,43,45;,
 3;37,45,47;,
 3;49,48,50;,
 3;49,50,51;,
 3;51,50,52;,
 3;51,52,53;,
 3;53,52,54;,
 3;53,54,55;,
 3;55,54,56;,
 3;55,56,57;,
 3;57,56,58;,
 3;57,58,59;,
 3;59,58,48;,
 3;59,48,49;,
 3;58,56,54;,
 3;58,54,52;,
 3;58,52,50;,
 3;58,50,48;,
 3;49,51,53;,
 3;49,53,55;,
 3;49,55,57;,
 3;49,57,59;,
 3;60,61,63;,
 3;60,63,62;,
 3;62,63,61;,
 3;62,61,60;,
 3;64,65,66;,
 3;64,66,67;,
 3;67,66,65;,
 3;67,65,64;,
 3;68,69,70;,
 3;68,70,71;,
 3;71,70,69;,
 3;71,69,68;,
 3;72,73,74;,
 3;72,74,75;,
 3;75,74,73;,
 3;75,73,72;,
 3;76,77,79;,
 3;76,79,78;,
 3;78,79,77;,
 3;78,77,76;,
 3;78,79,81;,
 3;78,81,80;,
 3;80,81,79;,
 3;80,79,78;,
 3;80,81,83;,
 3;80,83,82;,
 3;82,83,81;,
 3;82,81,80;,
 3;82,83,77;,
 3;82,77,76;,
 3;76,77,83;,
 3;76,83,82;,
 3;84,85,87;,
 3;84,87,86;,
 3;86,87,85;,
 3;86,85,84;,
 3;86,87,89;,
 3;86,89,88;,
 3;88,89,87;,
 3;88,87,86;,
 3;88,89,91;,
 3;88,91,90;,
 3;90,91,89;,
 3;90,89,88;,
 3;90,91,93;,
 3;90,93,92;,
 3;92,93,91;,
 3;92,91,90;,
 3;92,93,95;,
 3;92,95,94;,
 3;94,95,93;,
 3;94,93,92;;

 MeshMaterialList  {
  11;
  152;
  0,
  0,
  0,
  0,
  0,
  0,
  0,
  0,
  0,
  0,
  0,
  0,
  0,
  0,
  0,
  0,
  0,
  0,
  0,
  0,
  1,
  1,
  1,
  1,
  1,
  1,
  1,
  1,
  1,
  1,
  1,
  1,
  1,
  1,
  1,
  1,
  1,
  1,
  1,
  1,
  2,
  2,
  2,
  2,
  2,
  2,
  2,
  2,
  2,
  2,
  2,
  2,
  2,
  2,
  2,
  2,
  2,
  2,
  2,
  2,
  3,
  3,
  3,
  3,
  3,
  3,
  3,
  3,
  3,
  3,
  3,
  3,
  3,
  3,
  3,
  3,
  3,
  3,
  3,
  3,
  4,
  4,
  4,
  4,
  4,
  4,
  4,
  4,
  4,
  4,
  4,
  4,
  4,
  4,
  4,
  4,
  4,
  4,
  4,
  4,
  5,
  5,
  5,
  5,
  6,
  6,
  6,
  6,
  7,
  7,
  7,
  7,
  8,
  8,
  8,
  8,
  9,
  9,
  9,
  9,
  9,
  9,
  9,
  9,
  9,
  9,
  9,
  9,
  9,
  9,
  9,
  9,
  10,
  10,
  10,
  10,
  10,
  10,
  10,
  10,
  10,
  10,
  10,
  10,
  10,
  10,
  10,
  10,
  10,
  10,
  10,
  10;

  Material  {
   0.509804;0.509804;0.411765;1.000000;;
   0.000000;
   0.000000;0.000000;0.000000;;
   0.000000;0.000000;0.000000;;
  }

  Material  {
   0.352941;0.352941;0.392157;1.000000;;
   0.000000;
   0.000000;0.000000;0.000000;;
   0.000000;0.000000;0.000000;;
  }

  Material  {
   0.352941;0.352941;0.392157;1.000000;;
   0.000000;
   0.000000;0.000000;0.000000;;
   0.000000;0.000000;0.000000;;
  }

  Material  {
   0.352941;0.352941;0.392157;1.000000;;
   0.000000;
   0.000000;0.000000;0.000000;;
   0.000000;0.000000;0.000000;;
  }

  Material  {
   0.352941;0.352941;0.392157;1.000000;;
   0.000000;
   0.000000;0.000000;0.000000;;
   0.000000;0.000000;0.000000;;
  }

  Material  {
   0.352941;0.352941;0.392157;1.000000;;
   0.000000;
   0.000000;0.000000;0.000000;;
   0.000000;0.000000;0.000000;;

   TextureFilename  {
    "Step1.png";
   }
  }

  Material  {
   0.352941;0.352941;0.392157;1.000000;;
   0.000000;
   0.000000;0.000000;0.000000;;
   0.000000;0.000000;0.000000;;

   TextureFilename  {
    "Step1.png";
   }
  }

  Material  {
   0.352941;0.352941;0.392157;1.000000;;
   0.000000;
   0.000000;0.000000;0.000000;;
   0.000000;0.000000;0.000000;;

   TextureFilename  {
    "Step1.png";
   }
  }

  Material  {
   0.352941;0.352941;0.392157;1.000000;;
   0.000000;
   0.000000;0.000000;0.000000;;
   0.000000;0.000000;0.000000;;

   TextureFilename  {
    "Step2.png";
   }
  }

  Material  {
   0.352941;0.352941;0.392157;1.000000;;
   0.000000;
   0.000000;0.000000;0.000000;;
   0.000000;0.000000;0.000000;;
  }

  Material  {
   0.352941;0.352941;0.392157;1.000000;;
   0.000000;
   0.000000;0.000000;0.000000;;
   0.000000;0.000000;0.000000;;

   TextureFilename  {
    "Step1.png";
   }
  }
 }

 MeshTextureCoords  {
  96;
  0.000000;0.000000;,
  0.000000;0.000000;,
  0.000000;0.000000;,
  0.000000;0.000000;,
  0.000000;0.000000;,
  0.000000;0.000000;,
  0.000000;0.000000;,
  0.000000;0.000000;,
  0.000000;0.000000;,
  0.000000;0.000000;,
  0.000000;0.000000;,
  0.000000;0.000000;,
  0.000000;0.000000;,
  0.000000;0.000000;,
  0.000000;0.000000;,
  0.000000;0.000000;,
  0.000000;0.000000;,
  0.000000;0.000000;,
  0.000000;0.000000;,
  0.000000;0.000000;,
  0.000000;0.000000;,
  0.000000;0.000000;,
  0.000000;0.000000;,
  0.000000;0.000000;,
  0.000000;0.000000;,
  0.000000;0.000000;,
  0.000000;0.000000;,
  0.000000;0.000000;,
  0.000000;0.000000;,
  0.000000;0.000000;,
  0.000000;0.000000;,
  0.000000;0.000000;,
  0.000000;0.000000;,
  0.000000;0.000000;,
  0.000000;0.000000;,
  0.000000;0.000000;,
  0.000000;0.000000;,
  0.000000;0.000000;,
  0.000000;0.000000;,
  0.000000;0.000000;,
  0.000000;0.000000;,
  0.000000;0.000000;,
  0.000000;0.000000;,
  0.000000;0.000000;,
  0.000000;0.000000;,
  0.000000;0.000000;,
  0.000000;0.000000;,
  0.000000;0.000000;,
  0.000000;0.000000;,
  0.000000;0.000000;,
  0.000000;0.000000;,
  0.000000;0.000000;,
  0.000000;0.000000;,
  0.000000;0.000000;,
  0.000000;0.000000;,
  0.000000;0.000000;,
  0.000000;0.000000;,
  0.000000;0.000000;,
  0.000000;0.000000;,
  0.000000;0.000000;,
  0.000000;12.000000;,
  0.000000;1.660000;,
  1.000000;12.000000;,
  1.000000;1.660000;,
  0.000000;0.000000;,
  0.000000;1.000000;,
  1.000000;1.000000;,
  1.000000;0.000000;,
  0.000000;0.000000;,
  0.000000;1.000000;,
  1.000000;1.000000;,
  1.000000;0.000000;,
  3.100000;0.000000;,
  0.000000;0.000000;,
  0.000000;3.100000;,
  3.100000;3.100000;,
  0.000000;0.000000;,
  0.000000;0.000000;,
  0.000000;0.000000;,
  0.000000;0.000000;,
  0.000000;0.000000;,
  0.000000;0.000000;,
  0.000000;0.000000;,
  0.000000;0.000000;,
  0.000000;1.050000;,
  0.000000;0.050000;,
  1.000000;1.050000;,
  1.000000;0.050000;,
  2.126000;1.050000;,
  2.126000;0.050000;,
  2.126000;1.050000;,
  2.126000;0.050000;,
  1.000000;1.050000;,
  1.000000;0.050000;,
  0.000000;1.050000;,
  0.000000;0.050000;;
 }

 MeshNormals  {
  112;
  0.965926;0.000000;-0.258819;,
  1.000000;0.000000;-0.000000;,
  0.500000;0.000000;0.866025;,
  0.258819;0.000000;0.965926;,
  -0.500000;0.000000;0.866025;,
  -0.707107;0.000000;0.707107;,
  -1.000000;0.000000;-0.000000;,
  -0.965926;0.000000;-0.258819;,
  -0.500000;0.000000;-0.866025;,
  -0.258819;0.000000;-0.965926;,
  0.500000;0.000000;-0.866025;,
  0.707107;0.000000;-0.707107;,
  0.965926;0.000000;-0.258819;,
  1.000000;0.000000;0.000000;,
  0.500000;0.000000;0.866025;,
  0.258819;0.000000;0.965926;,
  -0.500000;0.000000;0.866025;,
  -0.707107;0.000000;0.707107;,
  -1.000000;0.000000;0.000000;,
  -0.965926;0.000000;-0.258819;,
  -0.500000;0.000000;-0.866025;,
  -0.258819;0.000000;-0.965926;,
  0.500000;0.000000;-0.866025;,
  0.707107;0.000000;-0.707107;,
  0.965926;0.000000;-0.258819;,
  1.000000;0.000000;0.000000;,
  0.500000;0.000000;0.866025;,
  0.258819;0.000000;0.965926;,
  -0.500000;0.000000;0.866025;,
  -0.707107;0.000000;0.707107;,
  -1.000000;0.000000;0.000000;,
  -0.965926;0.000000;-0.258819;,
  -0.500000;0.000000;-0.866025;,
  -0.258819;0.000000;-0.965926;,
  0.500000;0.000000;-0.866025;,
  0.707107;0.000000;-0.707107;,
  0.965926;0.000000;-0.258819;,
  1.000000;0.000000;0.000000;,
  0.500000;0.000000;0.866025;,
  0.258819;0.000000;0.965926;,
  -0.500000;0.000000;0.866025;,
  -0.707107;0.000000;0.707107;,
  -1.000000;0.000000;0.000000;,
  -0.965926;0.000000;-0.258819;,
  -0.500000;0.000000;-0.866025;,
  -0.258819;0.000000;-0.965926;,
  0.500000;0.000000;-0.866025;,
  0.707107;0.000000;-0.707107;,
  0.965926;0.000000;-0.258819;,
  1.000000;0.000000;0.000000;,
  0.500000;0.000000;0.866025;,
  0.258819;0.000000;0.965926;,
  -0.500000;0.000000;0.866025;,
  -0.707107;0.000000;0.707107;,
  -1.000000;0.000000;0.000000;,
  -0.965926;0.000000;-0.258819;,
  -0.500000;0.000000;-0.866025;,
  -0.258819;0.000000;-0.965926;,
  0.500000;0.000000;-0.866025;,
  0.707107;0.000000;-0.707107;,
  0.000000;-0.053116;-0.998588;,
  0.000000;-0.053116;-0.998588;,
  0.000000;0.053116;0.998588;,
  0.000000;0.053116;0.998588;,
  0.000000;1.000000;0.000000;,
  0.000000;1.000000;0.000000;,
  0.000000;-1.000000;0.000000;,
  0.000000;-1.000000;0.000000;,
  0.000000;1.000000;0.000000;,
  0.000000;1.000000;0.000000;,
  0.000000;-1.000000;0.000000;,
  0.000000;-1.000000;0.000000;,
  0.000000;1.000000;0.000000;,
  0.000000;1.000000;0.000000;,
  0.000000;-1.000000;0.000000;,
  0.000000;-1.000000;0.000000;,
  1.000000;0.000000;0.000000;,
  1.000000;0.000000;0.000000;,
  -1.000000;0.000000;0.000000;,
  -1.000000;0.000000;0.000000;,
  0.000000;0.000000;-1.000000;,
  0.000000;0.000000;-1.000000;,
  0.000000;0.000000;1.000000;,
  0.000000;0.000000;1.000000;,
  -1.000000;0.000000;0.000000;,
  -1.000000;0.000000;0.000000;,
  1.000000;0.000000;0.000000;,
  1.000000;0.000000;0.000000;,
  0.000000;0.000000;1.000000;,
  0.000000;0.000000;1.000000;,
  0.000000;0.000000;-1.000000;,
  0.000000;0.000000;-1.000000;,
  1.000000;0.000000;0.000000;,
  1.000000;0.000000;0.000000;,
  -1.000000;0.000000;0.000000;,
  -1.000000;0.000000;0.000000;,
  0.928477;0.000000;-0.371391;,
  0.928477;0.000000;-0.371391;,
  -0.928477;0.000000;0.371391;,
  -0.928477;0.000000;0.371391;,
  0.000000;0.000000;-1.000000;,
  0.000000;0.000000;-1.000000;,
  0.000000;0.000000;1.000000;,
  0.000000;0.000000;1.000000;,
  -0.928477;0.000000;-0.371391;,
  -0.928477;0.000000;-0.371391;,
  0.928477;0.000000;0.371391;,
  0.928477;0.000000;0.371391;,
  -1.000000;0.000000;0.000000;,
  -1.000000;0.000000;0.000000;,
  1.000000;0.000000;0.000000;,
  1.000000;0.000000;0.000000;;
  152;
  3;1,0,2;,
  3;1,2,3;,
  3;3,2,4;,
  3;3,4,5;,
  3;5,4,6;,
  3;5,6,7;,
  3;7,6,8;,
  3;7,8,9;,
  3;9,8,10;,
  3;9,10,11;,
  3;11,10,0;,
  3;11,0,1;,
  3;10,8,6;,
  3;10,6,4;,
  3;10,4,2;,
  3;10,2,0;,
  3;1,3,5;,
  3;1,5,7;,
  3;1,7,9;,
  3;1,9,11;,
  3;13,12,14;,
  3;13,14,15;,
  3;15,14,16;,
  3;15,16,17;,
  3;17,16,18;,
  3;17,18,19;,
  3;19,18,20;,
  3;19,20,21;,
  3;21,20,22;,
  3;21,22,23;,
  3;23,22,12;,
  3;23,12,13;,
  3;22,20,18;,
  3;22,18,16;,
  3;22,16,14;,
  3;22,14,12;,
  3;13,15,17;,
  3;13,17,19;,
  3;13,19,21;,
  3;13,21,23;,
  3;25,24,26;,
  3;25,26,27;,
  3;27,26,28;,
  3;27,28,29;,
  3;29,28,30;,
  3;29,30,31;,
  3;31,30,32;,
  3;31,32,33;,
  3;33,32,34;,
  3;33,34,35;,
  3;35,34,24;,
  3;35,24,25;,
  3;34,32,30;,
  3;34,30,28;,
  3;34,28,26;,
  3;34,26,24;,
  3;25,27,29;,
  3;25,29,31;,
  3;25,31,33;,
  3;25,33,35;,
  3;37,36,38;,
  3;37,38,39;,
  3;39,38,40;,
  3;39,40,41;,
  3;41,40,42;,
  3;41,42,43;,
  3;43,42,44;,
  3;43,44,45;,
  3;45,44,46;,
  3;45,46,47;,
  3;47,46,36;,
  3;47,36,37;,
  3;46,44,42;,
  3;46,42,40;,
  3;46,40,38;,
  3;46,38,36;,
  3;37,39,41;,
  3;37,41,43;,
  3;37,43,45;,
  3;37,45,47;,
  3;49,48,50;,
  3;49,50,51;,
  3;51,50,52;,
  3;51,52,53;,
  3;53,52,54;,
  3;53,54,55;,
  3;55,54,56;,
  3;55,56,57;,
  3;57,56,58;,
  3;57,58,59;,
  3;59,58,48;,
  3;59,48,49;,
  3;58,56,54;,
  3;58,54,52;,
  3;58,52,50;,
  3;58,50,48;,
  3;49,51,53;,
  3;49,53,55;,
  3;49,55,57;,
  3;49,57,59;,
  3;60,60,60;,
  3;61,61,61;,
  3;62,62,62;,
  3;63,63,63;,
  3;64,64,64;,
  3;65,65,65;,
  3;66,66,66;,
  3;67,67,67;,
  3;68,68,68;,
  3;69,69,69;,
  3;70,70,70;,
  3;71,71,71;,
  3;72,72,72;,
  3;73,73,73;,
  3;74,74,74;,
  3;75,75,75;,
  3;76,76,76;,
  3;77,77,77;,
  3;78,78,78;,
  3;79,79,79;,
  3;80,80,80;,
  3;81,81,81;,
  3;82,82,82;,
  3;83,83,83;,
  3;84,84,84;,
  3;85,85,85;,
  3;86,86,86;,
  3;87,87,87;,
  3;88,88,88;,
  3;89,89,89;,
  3;90,90,90;,
  3;91,91,91;,
  3;92,92,92;,
  3;93,93,93;,
  3;94,94,94;,
  3;95,95,95;,
  3;96,96,96;,
  3;97,97,97;,
  3;98,98,98;,
  3;99,99,99;,
  3;100,100,100;,
  3;101,101,101;,
  3;102,102,102;,
  3;103,103,103;,
  3;104,104,104;,
  3;105,105,105;,
  3;106,106,106;,
  3;107,107,107;,
  3;108,108,108;,
  3;109,109,109;,
  3;110,110,110;,
  3;111,111,111;;
 }
}