xof 0303txt 0032

Header {
 1;
 0;
 1;
}

Mesh {
 4;
 -0.900000;-1.950000;-0.700000;,
 -0.900000;0.600000;-0.700000;,
 0.900000;0.600000;-0.700000;,
 0.900000;-1.950000;-0.700000;;
 1;
 4;0,1,2,3;;

 MeshMaterialList {
  1;
  1;
  0;

  Material {
   1.000000;1.000000;1.000000;1.000000;;
   0.000000;
   1.000000;1.000000;1.000000;;
   1.000000;1.000000;1.000000;;

   TextureFilename {
    "glare4yg3.dds";
   }
  }
 }

 MeshNormals {
  1;
  0.000000;0.000000;-1.000000;;
  1;
  4;0,0,0,0;;
 }

 MeshTextureCoords {
  4;
  0.000000;1.000000;,
  0.000000;0.000000;,
  1.000000;0.000000;,
  1.000000;1.000000;;
 }
}