xof 0303txt 0032

Header {
 1;
 0;
 1;
}

Mesh {
 8;
 -0.212000;0.900000;-0.005000;,
 0.000000;1.112000;-0.005000;,
 0.212000;0.900000;-0.005000;,
 0.000000;0.688000;-0.005000;,
 -0.015000;-0.144000;0.000000;,
 -0.015000;0.900000;0.000000;,
 0.015000;0.900000;0.000000;,
 0.015000;-0.144000;0.000000;;
 2;
 4;0,1,2,3;,
 4;4,5,6,7;;

 MeshMaterialList {
  2;
  2;
  0,
  1;

  Material {
   1.000000;1.000000;1.000000;1.000000;;
   0.000000;
   0.000000;0.000000;0.000000;;
   0.600000;0.600000;0.600000;;

   TextureFilename {
    "Stop.dds";
   }
  }

  Material {
   0.125490;0.125490;0.125490;1.000000;;
   0.000000;
   0.000000;0.000000;0.000000;;
   0.000000;0.000000;0.000000;;
  }
 }

 MeshNormals {
  2;
  0.000000;0.000000;-1.000000;,
  0.000000;0.000000;-1.000000;;
  2;
  4;0,0,0,0;,
  4;1,1,1,1;;
 }

 MeshTextureCoords {
  8;
  0.000000;1.000000;,
  0.000000;0.000000;,
  1.000000;0.000000;,
  1.000000;1.000000;,
  0.000000;0.000000;,
  0.000000;0.000000;,
  0.000000;0.000000;,
  0.000000;0.000000;;
 }
}