xof 0303txt 0032
Material __Color_008_ {
0.1176;0.1176;0.1176;1.0000;;
5.0000;
0.0118;0.0118;0.0118;;	
0.0235;0.0235;0.0235;;	
}
Material _grd1_grd_png {
1.0000;1.0000;1.0000;  1.0000;;
5.0000;
0.1000;0.1000;0.1000;;	
0.2000;0.2000;0.2000;;	
   TextureFilename { "grd.dds"; }
}
Material __Color_002_ {
0.7765;0.7765;0.7765;1.0000;;
5.0000;
0.0776;0.0776;0.0776;;	
0.1553;0.1553;0.1553;;	
}
Mesh mesh_0{
40;
-0.4564;0.6688;-0.0610;,
0.0622;0.9706;-0.0910;,
0.0622;0.9706;-0.0610;,
-0.4564;0.6688;-0.0910;,
-0.3880;0.5512;-0.0610;,
-0.3880;0.5512;-0.0910;,
0.0622;0.8132;-0.0610;,
0.0622;0.8132;-0.0910;,
0.0612;0.7825;0.0874;,
0.0624;0.7845;0.0574;,
0.0612;0.7825;0.0574;,
0.0624;0.7845;0.0874;,
-0.3890;1.2018;0.0874;,
0.0624;0.9391;0.0574;,
0.0624;0.9391;0.0874;,
-0.3890;1.2018;0.0574;,
-0.4574;1.0843;0.0574;,
-0.4574;1.0843;0.0874;,
0.0622;0.1506;-0.0620;,
0.0622;1.0506;0.0580;,
0.0622;1.0506;-0.0620;,
0.0622;0.8186;0.0580;,
0.0622;0.1506;0.0580;,
0.0622;1.0506;-0.0620;,
-0.0578;0.1506;-0.0620;,
0.0622;0.1506;-0.0620;,
-0.0578;1.0506;-0.0620;,
0.0022;1.0856;-0.0020;,
-0.0578;1.0506;0.0580;,
-0.0578;1.0506;-0.0620;,
-0.0578;0.1506;0.0580;,
-0.0578;1.0506;0.0580;,
0.0622;0.1506;0.0580;,
-0.0578;0.1506;0.0580;,
0.0622;0.8186;0.0580;,
0.0622;1.0506;0.0580;,
0.0622;-0.7494;0.0580;,
-0.0578;-0.7494;0.0580;,
0.0622;-0.7494;-0.0620;,
-0.0578;-0.7494;-0.0620;;
50;
3;2,1,0,
3;3,0,1,
3;0,3,4,
3;5,4,3,
3;4,6,0,
3;2,0,6,
3;5,3,7,
3;1,7,3,
3;7,6,5,
3;4,5,6,
3;2,6,1,
3;7,1,6,
3;10,9,8,
3;11,8,9,
3;14,13,12,
3;15,12,13,
3;10,8,16,
3;17,16,8,
3;12,17,14,
3;8,14,17,
3;11,14,8,
3;15,16,12,
3;17,12,16,
3;15,13,16,
3;10,16,13,
3;9,10,13,
3;9,13,11,
3;14,11,13,
3;20,19,18,
3;21,18,19,
3;22,18,21,
3;25,24,23,
3;26,23,24,
3;27,19,20,
3;29,24,28,
3;30,28,24,
3;33,32,31,
3;34,31,32,
3;35,31,34,
3;29,28,27,
3;29,27,20,
3;27,28,19,
3;37,36,30,
3;22,30,36,
3;18,22,38,
3;36,38,22,
3;38,39,18,
3;24,18,39,
3;24,39,30,
3;37,30,39;;
  MeshMaterialList {
3;
50;
2,
2,
2,
2,
0,
0,
2,
2,
2,
2,
2,
2,
2,
2,
2,
2,
2,
2,
2,
2,
2,
2,
2,
0,
0,
0,
2,
2,
2,
2,
2,
1,
1,
2,
2,
2,
1,
1,
1,
2,
2,
2,
0,
0,
0,
0,
0,
0,
0,
0;
{ __Color_008_ }
{ _grd1_grd_png }
{ __Color_002_ }
  }
  MeshTextureCoords {
40;
0.0000,0.0000;
0.0000,0.0000;
0.0000,0.0000;
0.0000,0.0000;
0.0000,0.0000;
0.0000,0.0000;
0.0000,0.0000;
0.0000,0.0000;
0.0000,0.0000;
0.0000,0.0000;
0.0000,0.0000;
0.0000,0.0000;
0.0000,0.0000;
0.0000,0.0000;
0.0000,0.0000;
0.0000,0.0000;
0.0000,0.0000;
0.0000,0.0000;
0.0000,0.0000;
0.0000,0.0000;
0.0000,0.0000;
0.0000,0.0000;
0.0000,0.0000;
1.0000,-0.9375;
0.0000,0.0000;
1.0000,0.0000;
0.0000,-0.9375;
0.0000,0.0000;
0.0000,0.0000;
0.0000,0.0000;
0.0000,0.0000;
1.0000,-0.9375;
-0.0000,-0.0000;
1.0000,-0.0000;
-0.0000,-0.6959;
-0.0000,-0.9375;
0.0000,0.0000;
0.0000,0.0000;
0.0000,0.0000;
0.0000,0.0000;
  }
  MeshNormals {
18;
-0.5030;0.8643;0.0000;,
-0.8643;-0.5030;0.0000;,
0.0000;-0.0000;1.0000;,
-0.0000;0.0000;-1.0000;,
0.5030;-0.8643;-0.0000;,
1.0000;-0.0000;-0.0000;,
0.8643;-0.5030;-0.0000;,
0.5030;0.8643;-0.0000;,
-0.5030;-0.8643;0.0000;,
0.0000;0.0000;1.0000;,
-0.8643;0.5030;0.0000;,
1.0000;0.0000;-0.0000;,
-0.0000;-0.0000;-1.0000;,
0.5044;0.8635;0.0000;,
-1.0000;0.0000;0.0000;,
-0.5044;0.8635;0.0000;,
-0.0000;0.8635;-0.5044;,
-0.0000;0.8635;0.5044;;
50;
3;0,0,0;
3;0,0,0;
3;1,1,1;
3;1,1,1;
3;2,2,2;
3;2,2,2;
3;3,3,3;
3;3,3,3;
3;4,4,4;
3;4,4,4;
3;5,5,5;
3;5,5,5;
3;6,6,6;
3;6,6,6;
3;7,7,7;
3;7,7,7;
3;8,8,8;
3;8,8,8;
3;9,9,9;
3;9,9,9;
3;9,9,9;
3;10,10,10;
3;10,10,10;
3;3,3,3;
3;3,3,3;
3;3,3,3;
3;11,11,11;
3;11,11,11;
3;11,11,11;
3;11,11,11;
3;11,11,11;
3;12,12,12;
3;12,12,12;
3;13,13,13;
3;14,14,14;
3;14,14,14;
3;9,9,9;
3;9,9,9;
3;9,9,9;
3;15,15,15;
3;16,16,16;
3;17,17,17;
3;9,9,9;
3;9,9,9;
3;11,11,11;
3;11,11,11;
3;12,12,12;
3;12,12,12;
3;14,14,14;
3;14,14,14;;
  }
}
