xof 0303txt 0032
Material __Color_008_ {
0.1176;0.1176;0.1176;1.0000;;
5.0000;
0.0118;0.0118;0.0118;;	
0.0235;0.0235;0.0235;;	
}
Material _grd1_grd_png {
1.0000;1.0000;1.0000;  1.0000;;
5.0000;
0.1000;0.1000;0.1000;;	
0.2000;0.2000;0.2000;;	
   TextureFilename { "grd.dds"; }
}
Material _L3_L_png {
1.0000;1.0000;1.0000;  1.0000;;
5.0000;
0.1000;0.1000;0.1000;;	
0.2000;0.2000;0.2000;;	
   TextureFilename { "L.dds"; }
}
Material __Color_002_ {
0.7765;0.7765;0.7765;1.0000;;
5.0000;
0.0776;0.0776;0.0776;;	
0.1553;0.1553;0.1553;;	
}
Mesh mesh_0{
44;
-0.5386;0.8359;0.0564;,
0.0614;0.8359;0.0864;,
0.0614;0.8359;0.0564;,
-0.5386;0.8359;0.0864;,
-0.5386;0.9719;0.0864;,
-0.5386;0.9719;0.0564;,
0.0614;0.9719;0.0564;,
0.0614;0.9719;0.0864;,
-0.5386;0.9719;0.0864;,
0.0614;0.8359;0.0864;,
-0.5386;0.8359;0.0864;,
0.0614;0.9719;0.0864;,
0.0610;0.7814;-0.0920;,
0.0622;0.7835;-0.0620;,
0.0610;0.7814;-0.0620;,
0.0622;0.7835;-0.0920;,
-0.3892;1.2008;-0.0920;,
0.0622;0.9380;-0.0620;,
0.0622;0.9380;-0.0920;,
-0.3892;1.2008;-0.0620;,
-0.4576;1.0832;-0.0620;,
-0.4576;1.0832;-0.0920;,
0.0622;0.1506;-0.0620;,
0.0622;1.0506;0.0580;,
0.0622;1.0506;-0.0620;,
0.0622;0.8186;0.0580;,
0.0622;0.1506;0.0580;,
0.0622;1.0506;-0.0620;,
-0.0578;0.1506;-0.0620;,
0.0622;0.1506;-0.0620;,
-0.0578;1.0506;-0.0620;,
0.0022;1.0856;-0.0020;,
-0.0578;1.0506;0.0580;,
-0.0578;1.0506;-0.0620;,
-0.0578;0.1506;0.0580;,
-0.0578;1.0506;0.0580;,
0.0622;0.1506;0.0580;,
-0.0578;0.1506;0.0580;,
0.0622;0.8186;0.0580;,
0.0622;1.0506;0.0580;,
0.0622;-0.7494;0.0580;,
-0.0578;-0.7494;0.0580;,
0.0622;-0.7494;-0.0620;,
-0.0578;-0.7494;-0.0620;;
50;
3;2,1,0,
3;3,0,1,
3;3,4,0,
3;5,0,4,
3;7,6,4,
3;5,4,6,
3;10,9,8,
3;11,8,9,
3;2,0,6,
3;5,6,0,
3;7,1,6,
3;2,6,1,
3;12,13,14,
3;13,12,15,
3;16,17,18,
3;17,16,19,
3;20,12,14,
3;12,20,21,
3;18,21,16,
3;21,18,12,
3;12,18,15,
3;19,21,20,
3;21,19,16,
3;20,17,19,
3;17,20,14,
3;17,14,13,
3;15,17,13,
3;17,15,18,
3;24,23,22,
3;25,22,23,
3;26,22,25,
3;29,28,27,
3;30,27,28,
3;31,23,24,
3;33,28,32,
3;34,32,28,
3;37,36,35,
3;38,35,36,
3;39,35,38,
3;33,32,31,
3;33,31,24,
3;31,32,23,
3;41,40,34,
3;26,34,40,
3;22,26,42,
3;40,42,26,
3;42,43,22,
3;28,22,43,
3;28,43,34,
3;41,34,43;;
  MeshMaterialList {
4;
50;
3,
3,
3,
3,
3,
3,
2,
2,
0,
0,
3,
3,
3,
3,
3,
3,
3,
3,
3,
3,
3,
3,
3,
0,
0,
0,
3,
3,
3,
3,
3,
1,
1,
3,
3,
3,
1,
1,
1,
3,
3,
3,
0,
0,
0,
0,
0,
0,
0,
0;
{ __Color_008_ }
{ _grd1_grd_png }
{ _L3_L_png }
{ __Color_002_ }
  }
  MeshTextureCoords {
44;
0.0000,0.0000;
0.0000,0.0000;
0.0000,0.0000;
0.0000,0.0000;
0.0000,0.0000;
0.0000,0.0000;
0.0000,0.0000;
0.0000,0.0000;
1.0473,-1.0000;
-0.0557,0.0000;
1.0473,0.0000;
-0.0557,-1.0000;
0.0000,0.0000;
0.0000,0.0000;
0.0000,0.0000;
0.0000,0.0000;
0.0000,0.0000;
0.0000,0.0000;
0.0000,0.0000;
0.0000,0.0000;
0.0000,0.0000;
0.0000,0.0000;
0.0000,0.0000;
0.0000,0.0000;
0.0000,0.0000;
0.0000,0.0000;
0.0000,0.0000;
1.0000,-0.9375;
0.0000,0.0000;
1.0000,0.0000;
0.0000,-0.9375;
0.0000,0.0000;
0.0000,0.0000;
0.0000,0.0000;
0.0000,0.0000;
1.0000,-0.9375;
-0.0000,-0.0000;
1.0000,-0.0000;
-0.0000,-0.6959;
-0.0000,-0.9375;
0.0000,0.0000;
0.0000,0.0000;
0.0000,0.0000;
0.0000,0.0000;
  }
  MeshNormals {
15;
0.0000;-1.0000;0.0000;,
-1.0000;0.0000;0.0000;,
0.0000;1.0000;0.0000;,
0.0000;0.0000;1.0000;,
-0.0000;0.0000;-1.0000;,
1.0000;0.0000;-0.0000;,
0.8643;-0.5030;-0.0000;,
0.5030;0.8643;-0.0000;,
-0.5030;-0.8643;0.0000;,
-0.8643;0.5030;0.0000;,
-0.0000;-0.0000;-1.0000;,
0.5044;0.8635;0.0000;,
-0.5044;0.8635;0.0000;,
-0.0000;0.8635;-0.5044;,
-0.0000;0.8635;0.5044;;
50;
3;0,0,0;
3;0,0,0;
3;1,1,1;
3;1,1,1;
3;2,2,2;
3;2,2,2;
3;3,3,3;
3;3,3,3;
3;4,4,4;
3;4,4,4;
3;5,5,5;
3;5,5,5;
3;6,6,6;
3;6,6,6;
3;7,7,7;
3;7,7,7;
3;8,8,8;
3;8,8,8;
3;4,4,4;
3;4,4,4;
3;4,4,4;
3;9,9,9;
3;9,9,9;
3;3,3,3;
3;3,3,3;
3;3,3,3;
3;5,5,5;
3;5,5,5;
3;5,5,5;
3;5,5,5;
3;5,5,5;
3;10,10,10;
3;10,10,10;
3;11,11,11;
3;1,1,1;
3;1,1,1;
3;3,3,3;
3;3,3,3;
3;3,3,3;
3;12,12,12;
3;13,13,13;
3;14,14,14;
3;3,3,3;
3;3,3,3;
3;5,5,5;
3;5,5,5;
3;10,10,10;
3;10,10,10;
3;1,1,1;
3;1,1,1;;
  }
}
