xof 0303txt 0032
Material __Color_008_ {
0.1176;0.1176;0.1176;1.0000;;
5.0000;
0.0118;0.0118;0.0118;;	
0.0235;0.0235;0.0235;;	
}
Material _grd1_grd_png {
1.0000;1.0000;1.0000;  1.0000;;
5.0000;
0.1000;0.1000;0.1000;;	
0.2000;0.2000;0.2000;;	
   TextureFilename { "grd.dds"; }
}
Material __Color_002_ {
0.7765;0.7765;0.7765;1.0000;;
5.0000;
0.0776;0.0776;0.0776;;	
0.1553;0.1553;0.1553;;	
}
Mesh mesh_0{
39;
-0.3880;0.5566;0.0580;,
0.0622;0.8186;0.0880;,
0.0622;0.8186;0.0580;,
-0.3880;0.5566;0.0880;,
-0.4564;0.6742;0.0880;,
0.0622;0.9760;0.0580;,
0.0622;0.9760;0.0880;,
-0.4564;0.6742;0.0580;,
0.0610;0.7814;-0.0920;,
0.0622;0.7835;-0.0620;,
0.0610;0.7814;-0.0620;,
0.0622;0.7835;-0.0920;,
-0.3892;1.2008;-0.0920;,
0.0622;0.9380;-0.0620;,
0.0622;0.9380;-0.0920;,
-0.3892;1.2008;-0.0620;,
-0.4576;1.0832;-0.0620;,
-0.4576;1.0832;-0.0920;,
0.0622;0.1506;-0.0620;,
0.0622;1.0506;0.0580;,
0.0622;1.0506;-0.0620;,
0.0622;0.1506;0.0580;,
0.0622;1.0506;-0.0620;,
-0.0578;0.1506;-0.0620;,
0.0622;0.1506;-0.0620;,
-0.0578;1.0506;-0.0620;,
0.0022;1.0856;-0.0020;,
-0.0578;1.0506;0.0580;,
-0.0578;1.0506;-0.0620;,
-0.0578;0.1506;0.0580;,
-0.0578;1.0506;0.0580;,
0.0622;0.1506;0.0580;,
-0.0578;0.1506;0.0580;,
0.0622;0.8186;0.0580;,
0.0622;1.0506;0.0580;,
0.0622;-0.7494;0.0580;,
-0.0578;-0.7494;0.0580;,
0.0622;-0.7494;-0.0620;,
-0.0578;-0.7494;-0.0620;;
50;
3;2,1,0,
3;3,0,1,
3;6,5,4,
3;7,4,5,
3;4,7,3,
3;0,3,7,
3;3,1,4,
3;6,4,1,
3;0,7,2,
3;5,2,7,
3;6,1,5,
3;2,5,1,
3;8,9,10,
3;9,8,11,
3;12,13,14,
3;13,12,15,
3;16,8,10,
3;8,16,17,
3;14,17,12,
3;17,14,8,
3;8,14,11,
3;15,17,16,
3;17,15,12,
3;16,13,15,
3;13,16,10,
3;13,10,9,
3;11,13,9,
3;13,11,14,
3;20,19,18,
3;2,18,19,
3;21,18,2,
3;24,23,22,
3;25,22,23,
3;26,19,20,
3;28,23,27,
3;29,27,23,
3;32,31,30,
3;33,30,31,
3;34,30,33,
3;28,27,26,
3;28,26,20,
3;26,27,19,
3;36,35,29,
3;21,29,35,
3;18,21,37,
3;35,37,21,
3;37,38,18,
3;23,18,38,
3;23,38,29,
3;36,29,38;;
  MeshMaterialList {
3;
50;
2,
2,
2,
2,
2,
2,
2,
2,
0,
0,
2,
2,
2,
2,
2,
2,
2,
2,
2,
2,
2,
2,
2,
0,
0,
0,
2,
2,
2,
2,
2,
1,
1,
2,
2,
2,
1,
1,
1,
2,
2,
2,
0,
0,
0,
0,
0,
0,
0,
0;
{ __Color_008_ }
{ _grd1_grd_png }
{ __Color_002_ }
  }
  MeshTextureCoords {
39;
0.0000,0.0000;
0.0000,0.0000;
0.0000,0.0000;
0.0000,0.0000;
0.0000,0.0000;
0.0000,0.0000;
0.0000,0.0000;
0.0000,0.0000;
0.0000,0.0000;
0.0000,0.0000;
0.0000,0.0000;
0.0000,0.0000;
0.0000,0.0000;
0.0000,0.0000;
0.0000,0.0000;
0.0000,0.0000;
0.0000,0.0000;
0.0000,0.0000;
0.0000,0.0000;
0.0000,0.0000;
0.0000,0.0000;
0.0000,0.0000;
1.0000,-0.9375;
0.0000,0.0000;
1.0000,0.0000;
0.0000,-0.9375;
0.0000,0.0000;
0.0000,0.0000;
0.0000,0.0000;
0.0000,0.0000;
1.0000,-0.9375;
-0.0000,-0.0000;
1.0000,-0.0000;
-0.0000,-0.6959;
-0.0000,-0.9375;
0.0000,0.0000;
0.0000,0.0000;
0.0000,0.0000;
0.0000,0.0000;
  }
  MeshNormals {
17;
0.5030;-0.8643;-0.0000;,
-0.5030;0.8643;0.0000;,
-0.8643;-0.5030;0.0000;,
0.0000;-0.0000;1.0000;,
-0.0000;0.0000;-1.0000;,
1.0000;0.0000;-0.0000;,
0.8643;-0.5030;-0.0000;,
0.5030;0.8643;-0.0000;,
-0.5030;-0.8643;0.0000;,
-0.8643;0.5030;0.0000;,
0.0000;0.0000;1.0000;,
-0.0000;-0.0000;-1.0000;,
0.5044;0.8635;0.0000;,
-1.0000;0.0000;0.0000;,
-0.5044;0.8635;0.0000;,
-0.0000;0.8635;-0.5044;,
-0.0000;0.8635;0.5044;;
50;
3;0,0,0;
3;0,0,0;
3;1,1,1;
3;1,1,1;
3;2,2,2;
3;2,2,2;
3;3,3,3;
3;3,3,3;
3;4,4,4;
3;4,4,4;
3;5,5,5;
3;5,5,5;
3;6,6,6;
3;6,6,6;
3;7,7,7;
3;7,7,7;
3;8,8,8;
3;8,8,8;
3;4,4,4;
3;4,4,4;
3;4,4,4;
3;9,9,9;
3;9,9,9;
3;10,10,10;
3;10,10,10;
3;10,10,10;
3;5,5,5;
3;5,5,5;
3;5,5,5;
3;5,5,5;
3;5,5,5;
3;11,11,11;
3;11,11,11;
3;12,12,12;
3;13,13,13;
3;13,13,13;
3;10,10,10;
3;10,10,10;
3;10,10,10;
3;14,14,14;
3;15,15,15;
3;16,16,16;
3;10,10,10;
3;10,10,10;
3;5,5,5;
3;5,5,5;
3;11,11,11;
3;11,11,11;
3;13,13,13;
3;13,13,13;;
  }
}
