xof 0303txt 0032
template Vector {
 <3d82ab5e-62da-11cf-ab39-0020af71e433>
 FLOAT x;
 FLOAT y;
 FLOAT z;
}

template MeshFace {
 <3d82ab5f-62da-11cf-ab39-0020af71e433>
 DWORD nFaceVertexIndices;
 array DWORD faceVertexIndices[nFaceVertexIndices];
}

template Mesh {
 <3d82ab44-62da-11cf-ab39-0020af71e433>
 DWORD nVertices;
 array Vector vertices[nVertices];
 DWORD nFaces;
 array MeshFace faces[nFaces];
 [...]
}

template ColorRGBA {
 <35ff44e0-6c7c-11cf-8f52-0040333594a3>
 FLOAT red;
 FLOAT green;
 FLOAT blue;
 FLOAT alpha;
}

template ColorRGB {
 <d3e16e81-7835-11cf-8f52-0040333594a3>
 FLOAT red;
 FLOAT green;
 FLOAT blue;
}

template Material {
 <3d82ab4d-62da-11cf-ab39-0020af71e433>
 ColorRGBA faceColor;
 FLOAT power;
 ColorRGB specularColor;
 ColorRGB emissiveColor;
 [...]
}

template MeshMaterialList {
 <f6f23f42-7686-11cf-8f52-0040333594a3>
 DWORD nMaterials;
 DWORD nFaceIndexes;
 array DWORD faceIndexes[nFaceIndexes];
 [Material <3d82ab4d-62da-11cf-ab39-0020af71e433>]
}

template TextureFilename {
 <a42790e1-7810-11cf-8f52-0040333594a3>
 STRING filename;
}

template Coords2d {
 <f6f23f44-7686-11cf-8f52-0040333594a3>
 FLOAT u;
 FLOAT v;
}

template MeshTextureCoords {
 <f6f23f40-7686-11cf-8f52-0040333594a3>
 DWORD nTextureCoords;
 array Coords2d textureCoords[nTextureCoords];
}

template MeshNormals {
 <f6f23f43-7686-11cf-8f52-0040333594a3>
 DWORD nNormals;
 array Vector normals[nNormals];
 DWORD nFaceNormals;
 array MeshFace faceNormals[nFaceNormals];
}


Mesh  {
 16;
 2.500000;-0.300000;0.000000;,
 2.500000;3.000000;0.000000;,
 2.500000;3.000000;25.000000;,
 2.500000;-0.300000;25.000000;,
 2.500000;-0.300000;0.000000;,
 2.500000;3.000000;0.000000;,
 2.500000;3.000000;25.000000;,
 2.500000;-0.300000;25.000000;,
 2.600000;-2.000000;0.000000;,
 2.600000;-0.300000;0.000000;,
 2.400000;-0.300000;0.000000;,
 2.400000;-2.000000;0.000000;,
 2.600000;-2.000000;25.200001;,
 2.600000;-0.300000;25.200001;,
 2.400000;-0.300000;25.200001;,
 2.400000;-2.000000;25.200001;;
 10;
 3;3,2,1;,
 3;3,1,0;,
 3;7,6,5;,
 3;7,5,4;,
 3;11,10,9;,
 3;11,9,8;,
 3;9,10,14;,
 3;9,14,13;,
 3;10,11,15;,
 3;10,15,14;;

 MeshMaterialList  {
  3;
  10;
  0,
  0,
  1,
  1,
  2,
  2,
  2,
  2,
  2,
  2;

  Material  {
   1.000000;1.000000;1.000000;1.000000;;
   0.000000;
   0.000000;0.000000;0.000000;;
   0.000000;0.000000;0.000000;;

   TextureFilename  {
    "Fence2.png";
   }
  }

  Material  {
   1.000000;1.000000;1.000000;1.000000;;
   0.000000;
   0.000000;0.000000;0.000000;;
   0.000000;0.000000;0.000000;;

   TextureFilename  {
    "Fence.png";
   }
  }

  Material  {
   1.000000;1.000000;1.000000;1.000000;;
   0.000000;
   0.000000;0.000000;0.000000;;
   0.000000;0.000000;0.000000;;

   TextureFilename  {
    "Concrete.png";
   }
  }
 }

 MeshTextureCoords  {
  16;
  0.000000;0.020000;,
  1.000000;0.020000;,
  1.000000;5.020000;,
  0.000000;5.020000;,
  0.000000;0.000000;,
  5.000000;0.000000;,
  5.000000;25.000000;,
  0.000000;25.000000;,
  0.000000;0.000000;,
  0.470000;0.000000;,
  0.530000;0.000000;,
  1.000000;0.000000;,
  0.000000;1.000000;,
  0.470000;1.000000;,
  0.530000;1.000000;,
  1.000000;1.000000;;
 }

 MeshNormals  {
  10;
  -1.000000;0.000000;0.000000;,
  -1.000000;0.000000;0.000000;,
  -1.000000;0.000000;0.000000;,
  -1.000000;0.000000;0.000000;,
  0.000000;0.000000;-1.000000;,
  0.000000;0.000000;-1.000000;,
  0.000000;1.000000;0.000000;,
  0.000000;1.000000;0.000000;,
  -1.000000;0.000000;0.000000;,
  -1.000000;0.000000;0.000000;;
  10;
  3;0,0,0;,
  3;1,1,1;,
  3;2,2,2;,
  3;3,3,3;,
  3;4,4,4;,
  3;5,5,5;,
  3;6,6,6;,
  3;7,7,7;,
  3;8,8,8;,
  3;9,9,9;;
 }
}