xof 0303txt 0032
template Vector {
 <3d82ab5e-62da-11cf-ab39-0020af71e433>
 FLOAT x;
 FLOAT y;
 FLOAT z;
}

template MeshFace {
 <3d82ab5f-62da-11cf-ab39-0020af71e433>
 DWORD nFaceVertexIndices;
 array DWORD faceVertexIndices[nFaceVertexIndices];
}

template Mesh {
 <3d82ab44-62da-11cf-ab39-0020af71e433>
 DWORD nVertices;
 array Vector vertices[nVertices];
 DWORD nFaces;
 array MeshFace faces[nFaces];
 [...]
}

template ColorRGBA {
 <35ff44e0-6c7c-11cf-8f52-0040333594a3>
 FLOAT red;
 FLOAT green;
 FLOAT blue;
 FLOAT alpha;
}

template ColorRGB {
 <d3e16e81-7835-11cf-8f52-0040333594a3>
 FLOAT red;
 FLOAT green;
 FLOAT blue;
}

template Material {
 <3d82ab4d-62da-11cf-ab39-0020af71e433>
 ColorRGBA faceColor;
 FLOAT power;
 ColorRGB specularColor;
 ColorRGB emissiveColor;
 [...]
}

template MeshMaterialList {
 <f6f23f42-7686-11cf-8f52-0040333594a3>
 DWORD nMaterials;
 DWORD nFaceIndexes;
 array DWORD faceIndexes[nFaceIndexes];
 [Material <3d82ab4d-62da-11cf-ab39-0020af71e433>]
}

template TextureFilename {
 <a42790e1-7810-11cf-8f52-0040333594a3>
 STRING filename;
}

template Coords2d {
 <f6f23f44-7686-11cf-8f52-0040333594a3>
 FLOAT u;
 FLOAT v;
}

template MeshTextureCoords {
 <f6f23f40-7686-11cf-8f52-0040333594a3>
 DWORD nTextureCoords;
 array Coords2d textureCoords[nTextureCoords];
}

template MeshNormals {
 <f6f23f43-7686-11cf-8f52-0040333594a3>
 DWORD nNormals;
 array Vector normals[nNormals];
 DWORD nFaceNormals;
 array MeshFace faceNormals[nFaceNormals];
}


Mesh  {
 54;
 -0.020000;0.499999;12.499999;,
 -0.020000;0.500000;12.499999;,
 -0.020000;0.499999;12.499999;,
 -0.020000;0.500000;12.499999;,
 -0.020000;0.499999;12.499999;,
 -0.020000;0.500000;12.499999;,
 -0.020000;0.499999;12.499999;,
 -0.020000;0.500000;12.499999;,
 -0.020000;0.499999;12.499999;,
 -0.020000;0.500000;12.499999;,
 -0.015000;-0.500000;0.015000;,
 -0.015000;0.600000;0.015000;,
 0.015000;-0.500000;-0.015000;,
 0.015000;0.600000;-0.015000;,
 -0.015000;-0.500000;2.515000;,
 -0.015000;0.600000;2.515000;,
 0.015000;-0.500000;2.485000;,
 0.015000;0.600000;2.485000;,
 -0.015000;-0.500000;5.015000;,
 -0.015000;0.600000;5.015000;,
 0.015000;-0.500000;4.985000;,
 0.015000;0.600000;4.985000;,
 -0.015000;-0.500000;7.515000;,
 -0.015000;0.600000;7.515000;,
 0.015000;-0.500000;7.485000;,
 0.015000;0.600000;7.485000;,
 -0.015000;-0.500000;10.015000;,
 -0.015000;0.600000;10.015000;,
 0.015000;-0.500000;9.985000;,
 0.015000;0.600000;9.985000;,
 -0.015000;-0.500000;12.515000;,
 -0.015000;0.600000;12.515000;,
 0.015000;-0.500000;12.485000;,
 0.015000;0.600000;12.485000;,
 -0.015000;-0.500000;15.015000;,
 -0.015000;0.600000;15.015000;,
 0.015000;-0.500000;14.985000;,
 0.015000;0.600000;14.985000;,
 -0.015000;-0.500000;17.514999;,
 -0.015000;0.600000;17.514999;,
 0.015000;-0.500000;17.485001;,
 0.015000;0.600000;17.485001;,
 -0.015000;-0.500000;20.014999;,
 -0.015000;0.600000;20.014999;,
 0.015000;-0.500000;19.985001;,
 0.015000;0.600000;19.985001;,
 -0.015000;-0.500000;22.514999;,
 -0.015000;0.600000;22.514999;,
 0.015000;-0.500000;22.485001;,
 0.015000;0.600000;22.485001;,
 -0.015000;-0.500000;25.014999;,
 -0.015000;0.600000;25.014999;,
 0.015000;-0.500000;24.985001;,
 0.015000;0.600000;24.985001;;
 38;
 3;1,0,2;,
 3;1,2,3;,
 3;3,2,4;,
 3;3,4,5;,
 3;5,4,6;,
 3;5,6,7;,
 3;7,6,8;,
 3;7,8,9;,
 3;9,8,0;,
 3;9,0,1;,
 3;8,6,4;,
 3;8,4,2;,
 3;8,2,0;,
 3;1,3,5;,
 3;1,5,7;,
 3;1,7,9;,
 3;10,11,13;,
 3;10,13,12;,
 3;14,15,17;,
 3;14,17,16;,
 3;18,19,21;,
 3;18,21,20;,
 3;22,23,25;,
 3;22,25,24;,
 3;26,27,29;,
 3;26,29,28;,
 3;30,31,33;,
 3;30,33,32;,
 3;34,35,37;,
 3;34,37,36;,
 3;38,39,41;,
 3;38,41,40;,
 3;42,43,45;,
 3;42,45,44;,
 3;46,47,49;,
 3;46,49,48;,
 3;50,51,53;,
 3;50,53,52;;

 MeshMaterialList  {
  12;
  38;
  0,
  0,
  0,
  0,
  0,
  0,
  0,
  0,
  0,
  0,
  0,
  0,
  0,
  0,
  0,
  0,
  1,
  1,
  2,
  2,
  3,
  3,
  4,
  4,
  5,
  5,
  6,
  6,
  7,
  7,
  8,
  8,
  9,
  9,
  10,
  10,
  11,
  11;

  Material  {
   0.098039;0.098039;0.098039;1.000000;;
   0.000000;
   0.000000;0.000000;0.000000;;
   0.000000;0.000000;0.000000;;
  }

  Material  {
   0.627451;0.627451;0.627451;1.000000;;
   0.000000;
   0.000000;0.000000;0.000000;;
   0.000000;0.000000;0.000000;;

   TextureFilename  {
    "saku3.png";
   }
  }

  Material  {
   0.627451;0.627451;0.627451;1.000000;;
   0.000000;
   0.000000;0.000000;0.000000;;
   0.000000;0.000000;0.000000;;

   TextureFilename  {
    "saku3.png";
   }
  }

  Material  {
   0.627451;0.627451;0.627451;1.000000;;
   0.000000;
   0.000000;0.000000;0.000000;;
   0.000000;0.000000;0.000000;;

   TextureFilename  {
    "saku3.png";
   }
  }

  Material  {
   0.627451;0.627451;0.627451;1.000000;;
   0.000000;
   0.000000;0.000000;0.000000;;
   0.000000;0.000000;0.000000;;

   TextureFilename  {
    "saku3.png";
   }
  }

  Material  {
   0.627451;0.627451;0.627451;1.000000;;
   0.000000;
   0.000000;0.000000;0.000000;;
   0.000000;0.000000;0.000000;;

   TextureFilename  {
    "saku3.png";
   }
  }

  Material  {
   0.627451;0.627451;0.627451;1.000000;;
   0.000000;
   0.000000;0.000000;0.000000;;
   0.000000;0.000000;0.000000;;

   TextureFilename  {
    "saku3.png";
   }
  }

  Material  {
   0.627451;0.627451;0.627451;1.000000;;
   0.000000;
   0.000000;0.000000;0.000000;;
   0.000000;0.000000;0.000000;;

   TextureFilename  {
    "saku3.png";
   }
  }

  Material  {
   0.627451;0.627451;0.627451;1.000000;;
   0.000000;
   0.000000;0.000000;0.000000;;
   0.000000;0.000000;0.000000;;

   TextureFilename  {
    "saku3.png";
   }
  }

  Material  {
   0.627451;0.627451;0.627451;1.000000;;
   0.000000;
   0.000000;0.000000;0.000000;;
   0.000000;0.000000;0.000000;;

   TextureFilename  {
    "saku3.png";
   }
  }

  Material  {
   0.627451;0.627451;0.627451;1.000000;;
   0.000000;
   0.000000;0.000000;0.000000;;
   0.000000;0.000000;0.000000;;

   TextureFilename  {
    "saku3.png";
   }
  }

  Material  {
   0.627451;0.627451;0.627451;1.000000;;
   0.000000;
   0.000000;0.000000;0.000000;;
   0.000000;0.000000;0.000000;;

   TextureFilename  {
    "saku3.png";
   }
  }
 }

 MeshTextureCoords  {
  54;
  0.000000;0.000000;,
  0.000000;0.000000;,
  0.000000;0.000000;,
  0.000000;0.000000;,
  0.000000;0.000000;,
  0.000000;0.000000;,
  0.000000;0.000000;,
  0.000000;0.000000;,
  0.000000;0.000000;,
  0.000000;0.000000;,
  0.000000;1.000000;,
  0.000000;0.000000;,
  1.000000;1.000000;,
  1.000000;0.000000;,
  0.000000;1.000000;,
  0.000000;0.000000;,
  1.000000;1.000000;,
  1.000000;0.000000;,
  0.000000;1.000000;,
  0.000000;0.000000;,
  1.000000;1.000000;,
  1.000000;0.000000;,
  0.000000;1.000000;,
  0.000000;0.000000;,
  1.000000;1.000000;,
  1.000000;0.000000;,
  0.000000;1.000000;,
  0.000000;0.000000;,
  1.000000;1.000000;,
  1.000000;0.000000;,
  0.000000;1.000000;,
  0.000000;0.000000;,
  1.000000;1.000000;,
  1.000000;0.000000;,
  0.000000;1.000000;,
  0.000000;0.000000;,
  1.000000;1.000000;,
  1.000000;0.000000;,
  0.000000;1.000000;,
  0.000000;0.000000;,
  1.000000;1.000000;,
  1.000000;0.000000;,
  0.000000;1.000000;,
  0.000000;0.000000;,
  1.000000;1.000000;,
  1.000000;0.000000;,
  0.000000;1.000000;,
  0.000000;0.000000;,
  1.000000;1.000000;,
  1.000000;0.000000;,
  0.000000;1.000000;,
  0.000000;0.000000;,
  1.000000;1.000000;,
  1.000000;0.000000;;
 }

 MeshNormals  {
  32;
  0.951056;0.000000;-0.309017;,
  1.000000;0.000000;-0.000000;,
  0.309017;0.000000;0.951057;,
  -0.000000;0.000000;1.000000;,
  -0.809017;0.000000;0.587785;,
  -0.951056;0.000000;0.309017;,
  -0.809017;0.000000;-0.587785;,
  -0.587785;0.000000;-0.809017;,
  0.309017;0.000000;-0.951057;,
  0.587785;0.000000;-0.809017;,
  -0.707107;0.000000;-0.707107;,
  -0.707107;0.000000;-0.707107;,
  -0.707109;0.000000;-0.707104;,
  -0.707109;0.000000;-0.707104;,
  -0.707104;0.000000;-0.707110;,
  -0.707104;0.000000;-0.707110;,
  -0.707104;0.000000;-0.707110;,
  -0.707104;0.000000;-0.707110;,
  -0.707115;0.000000;-0.707099;,
  -0.707115;0.000000;-0.707099;,
  -0.707115;0.000000;-0.707099;,
  -0.707115;0.000000;-0.707099;,
  -0.707115;0.000000;-0.707099;,
  -0.707115;0.000000;-0.707099;,
  -0.707092;0.000000;-0.707121;,
  -0.707092;0.000000;-0.707121;,
  -0.707092;0.000000;-0.707121;,
  -0.707092;0.000000;-0.707121;,
  -0.707092;0.000000;-0.707121;,
  -0.707092;0.000000;-0.707121;,
  -0.707092;0.000000;-0.707121;,
  -0.707092;0.000000;-0.707121;;
  38;
  3;1,0,2;,
  3;1,2,3;,
  3;3,2,4;,
  3;3,4,5;,
  3;5,4,6;,
  3;5,6,7;,
  3;7,6,8;,
  3;7,8,9;,
  3;9,8,0;,
  3;9,0,1;,
  3;8,6,4;,
  3;8,4,2;,
  3;8,2,0;,
  3;1,3,5;,
  3;1,5,7;,
  3;1,7,9;,
  3;10,10,10;,
  3;11,11,11;,
  3;12,12,12;,
  3;13,13,13;,
  3;14,14,14;,
  3;15,15,15;,
  3;16,16,16;,
  3;17,17,17;,
  3;18,18,18;,
  3;19,19,19;,
  3;20,20,20;,
  3;21,21,21;,
  3;22,22,22;,
  3;23,23,23;,
  3;24,24,24;,
  3;25,25,25;,
  3;26,26,26;,
  3;27,27,27;,
  3;28,28,28;,
  3;29,29,29;,
  3;30,30,30;,
  3;31,31,31;;
 }
}