xof 0303txt 0032
template Vector {
 <3d82ab5e-62da-11cf-ab39-0020af71e433>
 FLOAT x;
 FLOAT y;
 FLOAT z;
}

template MeshFace {
 <3d82ab5f-62da-11cf-ab39-0020af71e433>
 DWORD nFaceVertexIndices;
 array DWORD faceVertexIndices[nFaceVertexIndices];
}

template Mesh {
 <3d82ab44-62da-11cf-ab39-0020af71e433>
 DWORD nVertices;
 array Vector vertices[nVertices];
 DWORD nFaces;
 array MeshFace faces[nFaces];
 [...]
}

template ColorRGBA {
 <35ff44e0-6c7c-11cf-8f52-0040333594a3>
 FLOAT red;
 FLOAT green;
 FLOAT blue;
 FLOAT alpha;
}

template ColorRGB {
 <d3e16e81-7835-11cf-8f52-0040333594a3>
 FLOAT red;
 FLOAT green;
 FLOAT blue;
}

template Material {
 <3d82ab4d-62da-11cf-ab39-0020af71e433>
 ColorRGBA faceColor;
 FLOAT power;
 ColorRGB specularColor;
 ColorRGB emissiveColor;
 [...]
}

template MeshMaterialList {
 <f6f23f42-7686-11cf-8f52-0040333594a3>
 DWORD nMaterials;
 DWORD nFaceIndexes;
 array DWORD faceIndexes[nFaceIndexes];
 [Material <3d82ab4d-62da-11cf-ab39-0020af71e433>]
}

template TextureFilename {
 <a42790e1-7810-11cf-8f52-0040333594a3>
 STRING filename;
}

template Coords2d {
 <f6f23f44-7686-11cf-8f52-0040333594a3>
 FLOAT u;
 FLOAT v;
}

template MeshTextureCoords {
 <f6f23f40-7686-11cf-8f52-0040333594a3>
 DWORD nTextureCoords;
 array Coords2d textureCoords[nTextureCoords];
}

template MeshNormals {
 <f6f23f43-7686-11cf-8f52-0040333594a3>
 DWORD nNormals;
 array Vector normals[nNormals];
 DWORD nFaceNormals;
 array MeshFace faceNormals[nFaceNormals];
}


Mesh  {
 78;
 -2.200000;-0.500000;0.000000;,
 -2.400000;0.500000;0.000000;,
 -2.500000;1.500000;0.000000;,
 -2.500000;3.500000;0.000000;,
 -2.378000;4.273000;0.000000;,
 -2.023000;4.970000;0.000000;,
 -1.469000;5.523000;0.000000;,
 -0.773000;5.878000;0.000000;,
 0.000000;6.000000;0.000000;,
 0.773000;5.878000;0.000000;,
 1.469000;5.523000;0.000000;,
 2.023000;4.970000;0.000000;,
 2.378000;4.273000;0.000000;,
 2.500000;3.500000;0.000000;,
 2.500000;1.500000;0.000000;,
 2.400000;0.500000;0.000000;,
 2.200000;-0.500000;0.000000;,
 -2.200000;-0.500000;25.200001;,
 -2.400000;0.500000;25.200001;,
 -2.500000;1.500000;25.200001;,
 -2.500000;3.500000;25.200001;,
 -2.378000;4.273000;25.200001;,
 -2.023000;4.970000;25.200001;,
 -1.469000;5.523000;25.200001;,
 -0.773000;5.878000;25.200001;,
 0.000000;6.000000;25.200001;,
 0.773000;5.878000;25.200001;,
 1.469000;5.523000;25.200001;,
 2.023000;4.970000;25.200001;,
 2.378000;4.273000;25.200001;,
 2.500000;3.500000;25.200001;,
 2.500000;1.500000;25.200001;,
 2.400000;0.500000;25.200001;,
 2.200000;-0.500000;25.200001;,
 -2.200000;-0.500000;0.000000;,
 -2.400000;0.500000;0.000000;,
 -2.500000;1.500000;0.000000;,
 -2.500000;3.500000;0.000000;,
 -2.378000;4.273000;0.000000;,
 -2.023000;4.970000;0.000000;,
 -1.469000;5.523000;0.000000;,
 -0.773000;5.878000;0.000000;,
 0.000000;6.000000;0.000000;,
 -5.031900;-0.500000;0.000000;,
 -5.031900;0.500000;0.000000;,
 -5.031900;1.500000;0.000000;,
 -5.031900;3.500000;0.000000;,
 -5.031900;4.273000;0.000000;,
 -5.031900;4.970000;0.000000;,
 -5.031900;5.523000;0.000000;,
 -5.031900;5.878000;0.000000;,
 -5.031900;6.000000;0.000000;,
 2.200000;-0.500000;0.000000;,
 2.400000;0.500000;0.000000;,
 2.500000;1.500000;0.000000;,
 2.500000;3.500000;0.000000;,
 2.378000;4.273000;0.000000;,
 2.023000;4.970000;0.000000;,
 1.469000;5.523000;0.000000;,
 0.773000;5.878000;0.000000;,
 0.000000;6.000000;0.000000;,
 4.600000;-0.500000;0.000000;,
 4.600000;0.500000;0.000000;,
 4.600000;1.500000;0.000000;,
 4.600000;3.500000;0.000000;,
 4.600000;4.273000;0.000000;,
 4.600000;4.970000;0.000000;,
 4.600000;5.523000;0.000000;,
 4.600000;5.878000;0.000000;,
 4.600000;6.000000;0.000000;,
 -5.031900;6.000000;0.000000;,
 -5.031900;7.500000;0.000000;,
 4.600000;7.500000;0.000000;,
 4.600000;6.000000;0.000000;,
 -2.500000;-0.140000;0.000000;,
 -2.500000;-0.140000;25.200001;,
 2.500000;-0.140000;25.200001;,
 2.500000;-0.140000;0.000000;;
 68;
 3;0,1,18;,
 3;0,18,17;,
 3;1,2,19;,
 3;1,19,18;,
 3;2,3,20;,
 3;2,20,19;,
 3;3,4,21;,
 3;3,21,20;,
 3;4,5,22;,
 3;4,22,21;,
 3;5,6,23;,
 3;5,23,22;,
 3;6,7,24;,
 3;6,24,23;,
 3;7,8,25;,
 3;7,25,24;,
 3;8,9,26;,
 3;8,26,25;,
 3;9,10,27;,
 3;9,27,26;,
 3;10,11,28;,
 3;10,28,27;,
 3;11,12,29;,
 3;11,29,28;,
 3;12,13,30;,
 3;12,30,29;,
 3;13,14,31;,
 3;13,31,30;,
 3;14,15,32;,
 3;14,32,31;,
 3;15,16,33;,
 3;15,33,32;,
 3;43,44,35;,
 3;43,35,34;,
 3;44,45,36;,
 3;44,36,35;,
 3;45,46,37;,
 3;45,37,36;,
 3;46,47,38;,
 3;46,38,37;,
 3;47,48,39;,
 3;47,39,38;,
 3;48,49,40;,
 3;48,40,39;,
 3;49,50,41;,
 3;49,41,40;,
 3;50,51,42;,
 3;50,42,41;,
 3;52,53,62;,
 3;52,62,61;,
 3;53,54,63;,
 3;53,63,62;,
 3;54,55,64;,
 3;54,64,63;,
 3;55,56,65;,
 3;55,65,64;,
 3;56,57,66;,
 3;56,66,65;,
 3;57,58,67;,
 3;57,67,66;,
 3;58,59,68;,
 3;58,68,67;,
 3;59,60,69;,
 3;59,69,68;,
 3;70,71,72;,
 3;70,72,73;,
 3;74,75,76;,
 3;74,76,77;;

 MeshMaterialList  {
  5;
  68;
  0,
  0,
  0,
  0,
  0,
  0,
  0,
  0,
  0,
  0,
  0,
  0,
  0,
  0,
  0,
  0,
  0,
  0,
  0,
  0,
  0,
  0,
  0,
  0,
  0,
  0,
  0,
  0,
  0,
  0,
  0,
  0,
  1,
  1,
  1,
  1,
  1,
  1,
  1,
  1,
  1,
  1,
  1,
  1,
  1,
  1,
  1,
  1,
  2,
  2,
  2,
  2,
  2,
  2,
  2,
  2,
  2,
  2,
  2,
  2,
  2,
  2,
  2,
  2,
  3,
  3,
  4,
  4;

  Material  {
   0.490196;0.490196;0.490196;1.000000;;
   0.000000;
   0.000000;0.000000;0.000000;;
   0.000000;0.000000;0.000000;;

   TextureFilename  {
    "Tunnel3.png";
   }
  }

  Material  {
   1.000000;1.000000;1.000000;1.000000;;
   0.000000;
   0.000000;0.000000;0.000000;;
   0.000000;0.000000;0.000000;;

   TextureFilename  {
    "Tunnel3.png";
   }
  }

  Material  {
   1.000000;1.000000;1.000000;1.000000;;
   0.000000;
   0.000000;0.000000;0.000000;;
   0.000000;0.000000;0.000000;;

   TextureFilename  {
    "Tunnel3.png";
   }
  }

  Material  {
   1.000000;1.000000;1.000000;1.000000;;
   0.000000;
   0.000000;0.000000;0.000000;;
   0.000000;0.000000;0.000000;;

   TextureFilename  {
    "Tunnel3.png";
   }
  }

  Material  {
   0.000000;0.000000;0.000000;0.392157;;
   0.000000;
   0.000000;0.000000;0.000000;;
   0.000000;0.000000;0.000000;;
  }
 }

 MeshTextureCoords  {
  78;
  0.000000;0.000000;,
  0.000000;0.154000;,
  0.000000;0.308000;,
  0.000000;0.615000;,
  0.000000;0.734000;,
  0.000000;0.842000;,
  0.000000;0.927000;,
  0.000000;0.981000;,
  0.000000;1.000000;,
  0.000000;0.981000;,
  0.000000;0.927000;,
  0.000000;0.842000;,
  0.000000;0.734000;,
  0.000000;0.615000;,
  0.000000;0.308000;,
  0.000000;0.154000;,
  0.000000;0.000000;,
  1.000000;0.000000;,
  1.000000;0.154000;,
  1.000000;0.308000;,
  1.000000;0.615000;,
  1.000000;0.734000;,
  1.000000;0.842000;,
  1.000000;0.927000;,
  1.000000;0.981000;,
  1.000000;1.000000;,
  1.000000;0.981000;,
  1.000000;0.927000;,
  1.000000;0.842000;,
  1.000000;0.734000;,
  1.000000;0.615000;,
  1.000000;0.308000;,
  1.000000;0.154000;,
  1.000000;0.000000;,
  0.200000;0.000000;,
  0.200000;0.200000;,
  0.200000;0.400000;,
  0.200000;1.000000;,
  0.200000;1.200000;,
  0.200000;1.400000;,
  0.200000;1.600000;,
  0.200000;1.800000;,
  0.200000;2.000000;,
  0.000000;0.000000;,
  0.000000;0.200000;,
  0.000000;0.400000;,
  0.000000;1.000000;,
  0.000000;1.200000;,
  0.000000;1.400000;,
  0.000000;1.600000;,
  0.000000;1.800000;,
  0.000000;2.000000;,
  0.800000;0.000000;,
  0.800000;0.200000;,
  0.800000;0.400000;,
  0.800000;1.000000;,
  0.800000;1.200000;,
  0.800000;1.400000;,
  0.800000;1.600000;,
  0.800000;1.800000;,
  0.800000;2.000000;,
  1.000000;0.000000;,
  1.000000;0.200000;,
  1.000000;0.400000;,
  1.000000;1.000000;,
  1.000000;1.200000;,
  1.000000;1.400000;,
  1.000000;1.600000;,
  1.000000;1.800000;,
  1.000000;2.000000;,
  0.000000;0.300000;,
  0.000000;0.000000;,
  1.000000;0.000000;,
  1.000000;0.300000;,
  0.000000;0.000000;,
  0.000000;0.000000;,
  0.000000;0.000000;,
  0.000000;0.000000;;
 }

 MeshNormals  {
  68;
  0.980581;0.196116;0.000000;,
  0.980581;0.196116;0.000000;,
  0.995037;0.099504;0.000000;,
  0.995037;0.099504;0.000000;,
  1.000000;0.000000;0.000000;,
  1.000000;0.000000;0.000000;,
  0.987773;-0.155897;0.000000;,
  0.987773;-0.155897;0.000000;,
  0.891078;-0.453849;0.000000;,
  0.891078;-0.453849;0.000000;,
  0.706468;-0.707745;0.000000;,
  0.706468;-0.707745;0.000000;,
  0.454367;-0.890815;0.000000;,
  0.454367;-0.890815;0.000000;,
  0.155897;-0.987773;0.000000;,
  0.155897;-0.987773;0.000000;,
  -0.155897;-0.987773;0.000000;,
  -0.155897;-0.987773;0.000000;,
  -0.454367;-0.890815;0.000000;,
  -0.454367;-0.890815;0.000000;,
  -0.706468;-0.707745;0.000000;,
  -0.706468;-0.707745;0.000000;,
  -0.891078;-0.453849;0.000000;,
  -0.891078;-0.453849;0.000000;,
  -0.987773;-0.155897;0.000000;,
  -0.987773;-0.155897;0.000000;,
  -1.000000;0.000000;0.000000;,
  -1.000000;0.000000;0.000000;,
  -0.995037;0.099504;0.000000;,
  -0.995037;0.099504;0.000000;,
  -0.980581;0.196116;0.000000;,
  -0.980581;0.196116;0.000000;,
  0.000000;0.000000;-1.000000;,
  0.000000;0.000000;-1.000000;,
  0.000000;0.000000;-1.000000;,
  0.000000;0.000000;-1.000000;,
  0.000000;0.000000;-1.000000;,
  0.000000;0.000000;-1.000000;,
  0.000000;0.000000;-1.000000;,
  0.000000;0.000000;-1.000000;,
  0.000000;0.000000;-1.000000;,
  0.000000;0.000000;-1.000000;,
  0.000000;0.000000;-1.000000;,
  0.000000;0.000000;-1.000000;,
  0.000000;0.000000;-1.000000;,
  0.000000;0.000000;-1.000000;,
  0.000000;0.000000;-1.000000;,
  0.000000;0.000000;-1.000000;,
  0.000000;0.000000;-1.000000;,
  0.000000;0.000000;-1.000000;,
  0.000000;0.000000;-1.000000;,
  0.000000;0.000000;-1.000000;,
  0.000000;0.000000;-1.000000;,
  0.000000;0.000000;-1.000000;,
  0.000000;0.000000;-1.000000;,
  0.000000;0.000000;-1.000000;,
  0.000000;0.000000;-1.000000;,
  0.000000;0.000000;-1.000000;,
  0.000000;0.000000;-1.000000;,
  0.000000;0.000000;-1.000000;,
  0.000000;0.000000;-1.000000;,
  0.000000;0.000000;-1.000000;,
  0.000000;0.000000;-1.000000;,
  0.000000;0.000000;-1.000000;,
  0.000000;0.000000;-1.000000;,
  0.000000;0.000000;-1.000000;,
  0.000000;1.000000;0.000000;,
  0.000000;1.000000;0.000000;;
  68;
  3;0,0,0;,
  3;1,1,1;,
  3;2,2,2;,
  3;3,3,3;,
  3;4,4,4;,
  3;5,5,5;,
  3;6,6,6;,
  3;7,7,7;,
  3;8,8,8;,
  3;9,9,9;,
  3;10,10,10;,
  3;11,11,11;,
  3;12,12,12;,
  3;13,13,13;,
  3;14,14,14;,
  3;15,15,15;,
  3;16,16,16;,
  3;17,17,17;,
  3;18,18,18;,
  3;19,19,19;,
  3;20,20,20;,
  3;21,21,21;,
  3;22,22,22;,
  3;23,23,23;,
  3;24,24,24;,
  3;25,25,25;,
  3;26,26,26;,
  3;27,27,27;,
  3;28,28,28;,
  3;29,29,29;,
  3;30,30,30;,
  3;31,31,31;,
  3;32,32,32;,
  3;33,33,33;,
  3;34,34,34;,
  3;35,35,35;,
  3;36,36,36;,
  3;37,37,37;,
  3;38,38,38;,
  3;39,39,39;,
  3;40,40,40;,
  3;41,41,41;,
  3;42,42,42;,
  3;43,43,43;,
  3;44,44,44;,
  3;45,45,45;,
  3;46,46,46;,
  3;47,47,47;,
  3;48,48,48;,
  3;49,49,49;,
  3;50,50,50;,
  3;51,51,51;,
  3;52,52,52;,
  3;53,53,53;,
  3;54,54,54;,
  3;55,55,55;,
  3;56,56,56;,
  3;57,57,57;,
  3;58,58,58;,
  3;59,59,59;,
  3;60,60,60;,
  3;61,61,61;,
  3;62,62,62;,
  3;63,63,63;,
  3;64,64,64;,
  3;65,65,65;,
  3;66,66,66;,
  3;67,67,67;;
 }
}