xof 0303txt 0032
template Vector {
 <3d82ab5e-62da-11cf-ab39-0020af71e433>
 FLOAT x;
 FLOAT y;
 FLOAT z;
}

template MeshFace {
 <3d82ab5f-62da-11cf-ab39-0020af71e433>
 DWORD nFaceVertexIndices;
 array DWORD faceVertexIndices[nFaceVertexIndices];
}

template Mesh {
 <3d82ab44-62da-11cf-ab39-0020af71e433>
 DWORD nVertices;
 array Vector vertices[nVertices];
 DWORD nFaces;
 array MeshFace faces[nFaces];
 [...]
}

template ColorRGBA {
 <35ff44e0-6c7c-11cf-8f52-0040333594a3>
 FLOAT red;
 FLOAT green;
 FLOAT blue;
 FLOAT alpha;
}

template ColorRGB {
 <d3e16e81-7835-11cf-8f52-0040333594a3>
 FLOAT red;
 FLOAT green;
 FLOAT blue;
}

template Material {
 <3d82ab4d-62da-11cf-ab39-0020af71e433>
 ColorRGBA faceColor;
 FLOAT power;
 ColorRGB specularColor;
 ColorRGB emissiveColor;
 [...]
}

template MeshMaterialList {
 <f6f23f42-7686-11cf-8f52-0040333594a3>
 DWORD nMaterials;
 DWORD nFaceIndexes;
 array DWORD faceIndexes[nFaceIndexes];
 [Material <3d82ab4d-62da-11cf-ab39-0020af71e433>]
}

template TextureFilename {
 <a42790e1-7810-11cf-8f52-0040333594a3>
 STRING filename;
}

template Coords2d {
 <f6f23f44-7686-11cf-8f52-0040333594a3>
 FLOAT u;
 FLOAT v;
}

template MeshTextureCoords {
 <f6f23f40-7686-11cf-8f52-0040333594a3>
 DWORD nTextureCoords;
 array Coords2d textureCoords[nTextureCoords];
}

template MeshNormals {
 <f6f23f43-7686-11cf-8f52-0040333594a3>
 DWORD nNormals;
 array Vector normals[nNormals];
 DWORD nFaceNormals;
 array MeshFace faceNormals[nFaceNormals];
}


Mesh  {
 34;
 1.900000;-0.600000;0.000000;,
 1.900000;-0.144000;0.000000;,
 2.700000;-0.144000;0.000000;,
 2.700000;-0.144000;23.500000;,
 3.700000;-0.144000;23.500000;,
 1.900000;-0.600000;25.010000;,
 1.900000;-0.144000;25.010000;,
 2.700000;-0.144000;25.010000;,
 3.700000;-0.144000;25.010000;,
 2.700000;-0.144000;0.000000;,
 2.700000;1.500000;0.000000;,
 2.900000;1.500000;0.000000;,
 2.900000;-0.600000;0.000000;,
 2.700000;-0.144000;23.500000;,
 2.700000;1.500000;23.500000;,
 2.900000;1.500000;23.299999;,
 2.900000;-0.600000;23.299999;,
 3.700000;-0.144000;23.500000;,
 3.700000;1.500000;23.500000;,
 3.900000;1.500000;23.299999;,
 3.900000;-0.600000;23.299999;,
 3.700000;-0.144000;25.010000;,
 3.700000;1.500000;25.010000;,
 3.900000;1.500000;25.200001;,
 3.900000;-0.600000;25.200001;,
 2.900000;-0.144000;25.010000;,
 2.900000;1.500000;25.010000;,
 2.900000;1.500000;25.200001;,
 1.900000;-0.600000;0.000000;,
 1.900000;-0.144000;0.000000;,
 2.700000;-0.144000;0.000000;,
 2.700000;1.500000;0.000000;,
 2.900000;1.500000;0.000000;,
 2.900000;-0.600000;0.000000;;
 30;
 3;5,6,1;,
 3;5,1,0;,
 3;6,7,2;,
 3;6,2,1;,
 3;7,8,4;,
 3;7,4,3;,
 3;13,14,10;,
 3;13,10,9;,
 3;14,15,11;,
 3;14,11,10;,
 3;15,16,12;,
 3;15,12,11;,
 3;18,19,15;,
 3;18,15,14;,
 3;19,20,16;,
 3;19,16,15;,
 3;21,22,18;,
 3;21,18,17;,
 3;22,23,19;,
 3;22,19,18;,
 3;23,24,20;,
 3;23,20,19;,
 3;25,26,22;,
 3;25,22,21;,
 3;26,27,23;,
 3;26,23,22;,
 3;30,31,32;,
 3;30,32,33;,
 3;28,29,30;,
 3;28,30,33;;

 MeshMaterialList  {
  3;
  30;
  0,
  0,
  0,
  0,
  0,
  0,
  1,
  1,
  1,
  1,
  1,
  1,
  1,
  1,
  1,
  1,
  1,
  1,
  1,
  1,
  1,
  1,
  1,
  1,
  1,
  1,
  2,
  2,
  2,
  2;

  Material  {
   1.000000;1.000000;1.000000;1.000000;;
   0.000000;
   0.000000;0.000000;0.000000;;
   0.000000;0.000000;0.000000;;

   TextureFilename  {
    "Conc1.png";
   }
  }

  Material  {
   1.000000;1.000000;1.000000;1.000000;;
   0.000000;
   0.000000;0.000000;0.000000;;
   0.000000;0.000000;0.000000;;

   TextureFilename  {
    "Conc1.png";
   }
  }

  Material  {
   1.000000;1.000000;1.000000;1.000000;;
   0.000000;
   0.000000;0.000000;0.000000;;
   0.000000;0.000000;0.000000;;

   TextureFilename  {
    "Conc1.png";
   }
  }
 }

 MeshTextureCoords  {
  34;
  0.000000;1.030000;,
  0.000000;1.000000;,
  0.000000;0.828125;,
  3.786685;0.828125;,
  3.786685;0.828125;,
  4.030000;1.030000;,
  4.030000;1.000000;,
  4.030000;0.828125;,
  4.030000;0.828125;,
  0.000000;0.828125;,
  0.000000;0.020000;,
  0.000000;0.020000;,
  0.000000;0.828125;,
  3.786685;0.828125;,
  3.786685;0.020000;,
  3.786685;0.020000;,
  3.786685;0.828125;,
  3.915594;0.828125;,
  3.915594;0.020000;,
  3.915594;0.020000;,
  3.915594;0.828125;,
  4.189524;0.828125;,
  4.189524;0.020000;,
  4.189524;0.020000;,
  4.189524;0.828125;,
  4.318433;0.828125;,
  4.318433;0.020000;,
  4.318433;0.020000;,
  0.220000;0.800000;,
  0.220000;0.648000;,
  0.060000;0.648000;,
  0.060000;0.024000;,
  0.020000;0.024000;,
  0.020000;0.800000;;
 }

 MeshNormals  {
  30;
  -1.000000;0.000000;0.000000;,
  -1.000000;0.000000;0.000000;,
  0.000000;1.000000;0.000000;,
  0.000000;1.000000;0.000000;,
  0.000000;1.000000;0.000000;,
  0.000000;1.000000;0.000000;,
  -1.000000;0.000000;0.000000;,
  -1.000000;0.000000;0.000000;,
  0.000000;1.000000;0.000000;,
  0.000000;1.000000;0.000000;,
  1.000000;0.000000;0.000000;,
  1.000000;0.000000;0.000000;,
  0.000000;1.000000;0.000000;,
  0.000000;1.000000;0.000000;,
  0.000000;0.000000;-1.000000;,
  0.000000;0.000000;-1.000000;,
  -1.000000;0.000000;0.000000;,
  -1.000000;0.000000;0.000000;,
  0.000000;1.000000;0.000000;,
  0.000000;1.000000;0.000000;,
  1.000000;0.000000;0.000000;,
  1.000000;0.000000;0.000000;,
  0.000000;0.000000;-1.000000;,
  0.000000;0.000000;-1.000000;,
  0.000000;1.000000;0.000000;,
  0.000000;1.000000;0.000000;,
  0.000000;0.000000;-1.000000;,
  0.000000;0.000000;-1.000000;,
  0.000000;0.000000;-1.000000;,
  0.000000;0.000000;-1.000000;;
  30;
  3;0,0,0;,
  3;1,1,1;,
  3;2,2,2;,
  3;3,3,3;,
  3;4,4,4;,
  3;5,5,5;,
  3;6,6,6;,
  3;7,7,7;,
  3;8,8,8;,
  3;9,9,9;,
  3;10,10,10;,
  3;11,11,11;,
  3;12,12,12;,
  3;13,13,13;,
  3;14,14,14;,
  3;15,15,15;,
  3;16,16,16;,
  3;17,17,17;,
  3;18,18,18;,
  3;19,19,19;,
  3;20,20,20;,
  3;21,21,21;,
  3;22,22,22;,
  3;23,23,23;,
  3;24,24,24;,
  3;25,25,25;,
  3;26,26,26;,
  3;27,27,27;,
  3;28,28,28;,
  3;29,29,29;;
 }
}