﻿BveTs Station List 2.00
# StaffMakerConfig,2019.10.18,,富士運輸区,鰍沢口,９７８３Ｍ,2,313,85,,0,,0,,
CC00,富　　士,,11:08:00,30,11:07:00,1,0,0,,,0.05,5,0,False,,,0,35,False,False,False,False,False,
CC01,柚　　木,p,,30,,0,0,0,,,0.02,5,0,False,,,0,0,False,False,False,False,False,
CC02,竪　　堀,p,,30,,0,0,0,,,0.02,5,0,False,,,0,0,False,False,False,False,False,
CC03,入 山 瀬,p,,30,,0,0,0,,,0.02,5,0,False,,,0,0,False,False,False,False,False,
CC04,富 士 根,p,11:16:30,30,,0,0,0,,,0.02,5,0,False,,,0,0,False,False,False,False,False,
CC05,源 道 寺,p,,30,,0,0,0,,,0.02,5,0,False,,,0,0,False,False,False,False,False,
CC06,富 士 宮,11:19:00,11:23:00,30,11:22:00,1,0,0,,,0.03,5,0,False,,,50,45,True,False,False,False,False,
CC07,西富士宮,p,11:25:00,30,,0,0,0,,,0.01,5,0,False,,,50,50,False,False,False,False,False,
CC08,沼 久 保,p,,30,,0,0,0,,,0,5,0,False,,,0,0,False,False,False,False,False,
CC09,芝　　川,11:34:00,11:46:00,30,11:45:00,1,0,0,,,0.01,5,0,False,,,0,35,True,False,False,False,False,
CC10,稲　　子,p,,30,,0,0,0,,,0,5,0,False,,,0,0,False,False,False,False,False,
CC11,十　　島,11:55:00,12:02:00,30,12:01:00,1,0,0,,,0,5,0,False,,,0,35,True,False,False,False,False,
CC12,井　　出,p,,30,,0,0,0,,,0,5,0,False,,,0,0,False,False,False,False,False,
CC13,寄　　畑,p,,30,,0,0,0,,,0,5,0,False,,,0,0,False,False,False,False,False,
CC14,内　　船,p,12:12:00,30,,0,0,0,,,0,5,0,False,,,50,25,False,False,False,False,False,
CC15,甲斐大島,p,12:20:00,30,,0,0,0,,,0,5,0,False,,,0,45,False,False,False,False,False,
CC16,身　　延,12:24:00,12:44:00,30,12:43:00,1,0,0,,,0.02,5,0,False,,,25,25,False,False,False,False,False,
CC17,塩 之 沢,p,,30,,0,0,0,,,0,5,0,False,,,0,0,False,False,False,False,False,
CC18,波 高 島,p,12:54:30,30,,0,0,0,,,0,5,0,False,,,65,35,False,False,False,False,False,
CC19,下部温泉,p,12:57:30,30,,0,0,0,,,0.01,5,0,False,,,0,35,False,False,False,False,False,
CC20,甲斐常葉,p,13:01:00,30,,0,0,0,,,0,5,0,False,,,0,0,False,False,False,False,False,
CC21,市 ノ 瀬,p,,30,,0,0,0,,,0,5,0,False,,,0,0,False,False,False,False,False,
CC22,久 那 土,p,,30,,0,0,0,,,0,5,0,False,,,0,0,False,False,False,False,False,
CC23,甲斐岩間,p,13:11:00,30,,1,0,0,,,0,5,0,False,,,35,35,True,False,False,False,False,
CC24,落　　居,p,,30,,0,0,0,,,0,5,0,False,,,0,0,False,False,False,False,False,
CC25,鰍 沢 口,13:19:00,,30,,1,0,0,,,0,5,0,False,,,35,35,False,False,False,False,False,
