BveTs Sound List 2.00

0101	, .\Sound\11\CC01_1.wav
0102	, .\Sound\11\CC01_2.wav
0601	, .\Sound\11\CC06_1.wav
0602	, .\Sound\11\CC06_2.wav
0603	, .\Sound\11\CC06_3.wav
0604	, .\Sound\11\CC06_4.wav
1401	, .\Sound\11\CC14_1.wav
1402	, .\Sound\11\CC14_2.wav
1403	, .\Sound\11\CC14_3.wav
1404	, .\Sound\11\CC14_4.wav
1601	, .\Sound\11\CC16_1.wav
1602	, .\Sound\11\CC16_2.wav
1603	, .\Sound\11\CC16_3.wav
1604	, .\Sound\11\CC16_4.wav
1901	, .\Sound\11\CC19_1.wav
1902	, .\Sound\11\CC19_2.wav
1903	, .\Sound\11\CC19_3.wav
1904	, .\Sound\11\CC19_4.wav
2301	, .\Sound\11\CC23_1.wav
2302	, .\Sound\11\CC23_2.wav
2303	, .\Sound\11\CC23_3.wav
2304	, .\Sound\11\CC23_4.wav
2501	, .\Sound\11\CC25_1.wav
2502	, .\Sound\11\CC25_2.wav
2503	, .\Sound\11\CC25_3.wav
2504	, .\Sound\11\CC25_4.wav
2601	, .\Sound\11\CC26_1.wav
2602	, .\Sound\11\CC26_2.wav
2603	, .\Sound\11\CC26_3.wav
2604	, .\Sound\11\CC26_4.wav
3001	, .\Sound\11\CC30_1.wav
3002	, .\Sound\11\CC30_2.wav
3003	, .\Sound\11\CC30_3.wav
3004	, .\Sound\11\CC30_4.wav
3201	, .\Sound\11\CC32_1.wav
3202	, .\Sound\11\CC32_2.wav
3501	, .\Sound\11\CC35_1.wav
3502	, .\Sound\11\CC35_2.wav
3503	, .\Sound\11\CC35_3.wav
3504	, .\Sound\11\CC35_4.wav
3801	, .\Sound\11\CC38_1.wav
