﻿BveTs Map 2.00

	//Station['TO00'].Put(開扉, 許容, 許容);

///////////////////////////////////////
// 身延駅 (CC16)

///////////////////////////////////////
// 塩之沢駅 (CC17)

///////////////////////////////////////
// 波高島駅 (CC18)

///////////////////////////////////////
// 下部温泉駅 (CC19)

///////////////////////////////////////
// 甲斐常葉駅 (CC20)

///////////////////////////////////////
// 市ノ瀬駅 (CC21)

///////////////////////////////////////
// 久那土駅 (CC22)

///////////////////////////////////////
// 甲斐岩間駅 (CC23)

///////////////////////////////////////
// 落居駅 (CC24)

///////////////////////////////////////
// 鰍沢口駅 (CC25)

///////////////////////////////////////
// 市川大門駅 (CC26)

///////////////////////////////////////
// 市川本町駅 (CC27)

///////////////////////////////////////
// 芦川 (CC28)

///////////////////////////////////////
// 甲斐上野 (CC29)

///////////////////////////////////////
// 東花輪駅 (CC30)
$Hanawa-980 + 1030; // <2>


$Hanawa+20 + 555;
	Beacon.Put(120, 1, 500);
$Hanawa+20 + 1148;
	Beacon.Put(121, 1, 700);
///////////////////////////////////////
// 小井川駅 (CC31)
$Hanawa+20 + 1155; // <3><E>
$Hanawa+20 + 1165; // <O>


$Hanawa+20 + 2230;
	Beacon.Put(120, 1, 400);
$Hanawa+20 + 2623;
	Beacon.Put(121, 1, 700);
///////////////////////////////////////
// 常永駅 (CC32)
$Hanawa+20 + 2630; // <2>
$Hanawa+20 + 2650; // <3><E>
$Hanawa+20 + 2670; // <0>


$Hanawa+20 + 4500;
	Beacon.Put(120, 1, 400);
$Hanawa+20 + 4893;
	Beacon.Put(121, 1, 700);
///////////////////////////////////////
// 国母駅 (CC33)
$Hanawa+20 + 4900; // <2>
$Hanawa+20 + 4920; // <3>
$Hanawa+20 + 4930; // <E>
$Hanawa+20 + 4940; // <0>


$Hanawa+20 + 6250;
	Beacon.Put(120, 1, 500);
$Hanawa+20 + 6743;
	Beacon.Put(121, 1, 700);
///////////////////////////////////////
// 甲斐住吉駅 (CC34)
$Hanawa+20 + 6750; // <3><E>
$Hanawa+20 + 6760; // <O>


$MinamiKofu-690 + 365;
	Beacon.Put(120, 1, 500);
$MinamiKofu-690 + 758;
	Beacon.Put(121, 1, 700);
///////////////////////////////////////
// 南甲府駅 (CC35)
$MinamiKofu-690 + 765; // <2>
$MinamiKofu-690 + 785; // <4><E> [上]<3>
$MinamiKofu-690 + 815; // <0>

///////////////////////////////////////
// 善光寺駅 (CC36)
$MinamiKofu+310 + 1955; // <2>
$MinamiKofu+310 + 1975; // <O><E>

///////////////////////////////////////
// 金手駅 (CC37)
$MinamiKofu+310 + 2920; // <2>
$MinamiKofu+310 + 2960; // <O><E>

///////////////////////////////////////
// 甲府駅 (CC38)
$Kofu-1100 + 875; // [4]<O>
$Kofu-1100 + 895; // [5]<O>

